%FSTAX23Y23*%
%MOIN*%
%SFA1B1*%

%IPPOS*%
%AMD16*
4,1,4,0.029100,0.006900,0.006900,0.029100,-0.029100,-0.006900,-0.006900,-0.029100,0.029100,0.006900,0.0*
%
%AMD18*
4,1,4,0.033300,0.011100,0.011100,0.033300,-0.033300,-0.011100,-0.011100,-0.033300,0.033300,0.011100,0.0*
%
%AMD19*
4,1,4,0.006900,-0.029100,0.029100,-0.006900,-0.006900,0.029100,-0.029100,0.006900,0.006900,-0.029100,0.0*
%
%AMD20*
4,1,4,-0.025700,-0.002100,-0.002100,-0.025700,0.025700,0.002100,0.002100,0.025700,-0.025700,-0.002100,0.0*
%
%AMD21*
4,1,4,-0.057000,0.029300,0.029300,-0.057000,0.057000,-0.029300,-0.029300,0.057000,-0.057000,0.029300,0.0*
%
%AMD22*
4,1,4,0.002100,-0.025700,0.025700,-0.002100,-0.002100,0.025700,-0.025700,0.002100,0.002100,-0.025700,0.0*
%
%AMD23*
4,1,4,-0.029300,-0.057000,0.057000,0.029300,0.029300,0.057000,-0.057000,-0.029300,-0.029300,-0.057000,0.0*
%
%AMD41*
4,1,4,0.000000,0.041700,-0.041700,0.000000,0.000000,-0.041700,0.041700,0.000000,0.000000,0.041700,0.0*
%
%AMD42*
4,1,4,0.041700,0.000000,0.000000,0.041700,-0.041700,0.000000,0.000000,-0.041700,0.041700,0.000000,0.0*
%
%AMD43*
4,1,4,0.000000,-0.033400,0.033400,0.000000,0.000000,0.033400,-0.033400,0.000000,0.000000,-0.033400,0.0*
%
%AMD44*
4,1,4,0.033400,0.000000,0.000000,0.033400,-0.033400,0.000000,0.000000,-0.033400,0.033400,0.000000,0.0*
%
%AMD45*
4,1,4,-0.001300,-0.034700,0.034700,0.001300,0.001300,0.034700,-0.034700,-0.001300,-0.001300,-0.034700,0.0*
1,1,0.047244,0.018000,0.018000*
1,1,0.047244,-0.018000,-0.018000*
%
%AMD46*
4,1,4,-0.018100,-0.051500,0.051500,0.018100,0.018100,0.051500,-0.051500,-0.018100,-0.018100,-0.051500,0.0*
%
%ADD10R,0.047244X0.055118*%
%ADD11R,0.149606X0.078740*%
%ADD12R,0.059055X0.078740*%
%ADD13R,0.051181X0.031496*%
%ADD14R,0.031496X0.051181*%
%ADD15R,0.039370X0.078740*%
G04~CAMADD=16~9~0.0~0.0~315.0~511.8~0.0~0.0~0~0.0~0.0~0.0~0.0~0~0.0~0.0~0.0~0.0~0~0.0~0.0~0.0~315.0~582.0~581.0*
%ADD16D16*%
%ADD17C,0.059055*%
G04~CAMADD=18~9~0.0~0.0~315.0~629.9~0.0~0.0~0~0.0~0.0~0.0~0.0~0~0.0~0.0~0.0~0.0~0~0.0~0.0~0.0~315.0~666.0~665.0*
%ADD18D18*%
G04~CAMADD=19~9~0.0~0.0~315.0~511.8~0.0~0.0~0~0.0~0.0~0.0~0.0~0~0.0~0.0~0.0~0.0~0~0.0~0.0~0.0~225.0~582.0~581.0*
%ADD19D19*%
G04~CAMADD=20~9~0.0~0.0~334.6~393.7~0.0~0.0~0~0.0~0.0~0.0~0.0~0~0.0~0.0~0.0~0.0~0~0.0~0.0~0.0~135.0~514.0~513.0*
%ADD20D20*%
G04~CAMADD=21~9~0.0~0.0~1220.5~393.7~0.0~0.0~0~0.0~0.0~0.0~0.0~0~0.0~0.0~0.0~0.0~0~0.0~0.0~0.0~135.0~1140.0~1139.0*
%ADD21D21*%
G04~CAMADD=22~9~0.0~0.0~334.6~393.7~0.0~0.0~0~0.0~0.0~0.0~0.0~0~0.0~0.0~0.0~0.0~0~0.0~0.0~0.0~225.0~514.0~513.0*
%ADD22D22*%
G04~CAMADD=23~9~0.0~0.0~1220.5~393.7~0.0~0.0~0~0.0~0.0~0.0~0.0~0~0.0~0.0~0.0~0.0~0~0.0~0.0~0.0~225.0~1140.0~1139.0*
%ADD23D23*%
%ADD24R,0.039370X0.122047*%
%ADD25R,0.039370X0.033465*%
%ADD26R,0.031496X0.062992*%
%ADD27R,0.122047X0.039370*%
%ADD28R,0.033465X0.039370*%
%ADD29C,0.039370*%
%ADD30C,0.019685*%
%ADD31C,0.027559*%
%ADD32C,0.060000*%
%ADD33C,0.070866*%
%ADD34R,0.059055X0.059055*%
%ADD35R,0.098425X0.047244*%
%ADD36O,0.098425X0.047244*%
%ADD37R,0.047244X0.047244*%
%ADD38C,0.047244*%
%ADD39R,0.047244X0.047244*%
%ADD40R,0.059055X0.059055*%
G04~CAMADD=41~10~0.0~590.5~0.0~0.0~0.0~0.0~0~0.0~0.0~0.0~0.0~0~0.0~0.0~0.0~0.0~0~0.0~0.0~0.0~405.0~590.5~0.0*
%ADD41D41*%
G04~CAMADD=42~10~0.0~590.5~0.0~0.0~0.0~0.0~0~0.0~0.0~0.0~0.0~0~0.0~0.0~0.0~0.0~0~0.0~0.0~0.0~315.0~590.5~0.0*
%ADD42D42*%
G04~CAMADD=43~10~0.0~472.4~0.0~0.0~0.0~0.0~0~0.0~0.0~0.0~0.0~0~0.0~0.0~0.0~0.0~0~0.0~0.0~0.0~225.0~472.4~0.0*
%ADD43D43*%
G04~CAMADD=44~10~0.0~472.4~0.0~0.0~0.0~0.0~0~0.0~0.0~0.0~0.0~0~0.0~0.0~0.0~0.0~0~0.0~0.0~0.0~315.0~472.4~0.0*
%ADD44D44*%
G04~CAMADD=45~3~0.0~0.0~984.3~472.4~0.0~0.0~0~0.0~0.0~0.0~0.0~0~0.0~0.0~0.0~0.0~0~0.0~0.0~0.0~225.0~832.0~832.0*
%ADD45D45*%
G04~CAMADD=46~9~0.0~0.0~984.3~472.4~0.0~0.0~0~0.0~0.0~0.0~0.0~0~0.0~0.0~0.0~0.0~0~0.0~0.0~0.0~225.0~1030.0~1029.0*
%ADD46D46*%
%ADD47R,0.060000X0.060000*%
%ADD48C,0.050000*%
%LNcurrentfabricationpcbs-1*%
%LPD*%
G54D10*
X01157Y02385D03*
Y02283D03*
X01251Y0172D03*
Y01822D03*
X03503Y01537D03*
Y01435D03*
G54D11*
X01362Y02582D03*
G54D12*
X01452Y02334D03*
X01362D03*
X01271D03*
G54D13*
X02374Y01228D03*
Y01145D03*
Y03196D03*
Y03114D03*
G54D14*
X02429Y01362D03*
X02346D03*
X02429Y0333D03*
X02346D03*
G54D15*
X02553Y01925D03*
X0273D03*
X02553Y03893D03*
X0273D03*
G54D16*
X04697Y03529D03*
X04639Y03587D03*
X03528Y04102D03*
X0347Y04161D03*
G54D17*
X0422Y04273D03*
X0429Y04204D03*
X04554Y04426D03*
X04471Y0451D03*
X04724Y03779D03*
X04803Y037D03*
X04645Y03858D03*
X02288Y0157D03*
X01688D03*
X02288Y0217D03*
Y0202D03*
Y0172D03*
X02688Y02421D03*
X01122Y02145D03*
X02539Y02417D03*
X01874Y02732D03*
X02263Y02724D03*
X0144Y02043D03*
X01244D03*
X02541Y01606D03*
X01555Y02484D03*
X01803Y02169D03*
X02393D03*
X03378Y02833D03*
X0296Y0325D03*
X03635Y03369D03*
X03577Y04474D03*
X04483Y03821D03*
X04344Y03682D03*
X03197Y02791D03*
X02919Y03069D03*
X03592Y03889D03*
X0338Y03676D03*
X03274Y0357D03*
X04122D03*
X03698Y03995D03*
X02288Y03538D03*
X01688D03*
X02288Y04138D03*
Y03988D03*
Y03688D03*
X02688Y04389D03*
X01307Y04346D03*
X02539Y04385D03*
X01874Y047D03*
X02263Y04692D03*
X0144Y04011D03*
X01244D03*
X02541Y03574D03*
X01555Y04452D03*
X01803Y04137D03*
X02393D03*
X03425Y02273D03*
X03149D03*
X03248D03*
X03336D03*
X03484Y01269D03*
X03129D03*
X03011D03*
G54D18*
X04536Y03612D03*
X0445Y03698D03*
G54D19*
X03422Y04258D03*
X03481Y04316D03*
G54D20*
X04742Y04208D03*
X04678Y04272D03*
X04614Y04336D03*
X04505Y03971D03*
X04441Y04035D03*
X04377Y04099D03*
G54D21*
X04489Y04083D03*
X04252Y03846D03*
G54D22*
X04056Y04232D03*
X03992Y04168D03*
X03928Y04104D03*
X04348Y04524D03*
X04284Y0446D03*
X0422Y04396D03*
G54D23*
X04181Y03978D03*
X04473Y04271D03*
G54D24*
X03362Y02076D03*
X03625Y01761D03*
X02988D03*
X03251Y02076D03*
G54D25*
X03629Y02167D03*
Y02076D03*
Y01986D03*
X03358Y01671D03*
Y01761D03*
Y01852D03*
X03255D03*
Y01761D03*
Y01671D03*
X02984Y01986D03*
Y02076D03*
Y02167D03*
G54D26*
X03244Y01427D03*
X03366D03*
G54D27*
X03307Y01305D03*
G54D28*
X03216Y01572D03*
X03307D03*
X03397D03*
G54D29*
X02362Y01244D02*
Y01346D01*
X02314Y01196D02*
X02362Y01244D01*
X01708Y01196D02*
X02314D01*
X01177Y01862D02*
X01303Y01988D01*
X01177Y01767D02*
Y01862D01*
Y01767D02*
X01224Y0172D01*
X01559Y02267D02*
X01599D01*
X01519Y02227D02*
X01559Y02267D01*
X01157Y02283D02*
X01236Y02204D01*
X01299*
X01271Y02275D02*
Y02334D01*
X0122Y02385D02*
X01271Y02334D01*
X01303Y01988D02*
Y02121D01*
X01299Y02125D02*
X01303Y02121D01*
X01299Y02204D02*
X01362Y02267D01*
X01452Y02233D02*
Y02334D01*
X01366Y02146D02*
X01452Y02233D01*
X01122Y02145D02*
Y02248D01*
X01157Y02283*
X01224Y0172D02*
X01251D01*
Y01822D02*
X01366Y01937D01*
Y02146*
X01251Y01822D02*
X01377D01*
X01409Y01791*
X01251Y0172D02*
X01259Y01712D01*
X01409*
X01149Y02043D02*
X01244D01*
X01102Y01996D02*
X01149Y02043D01*
X01102Y01736D02*
Y01996D01*
Y01736D02*
X01192Y01645D01*
X01755*
X01157Y02376D02*
Y02385D01*
X01362Y02267D02*
Y02334D01*
X01157Y02385D02*
X0122D01*
X01881Y01393D02*
Y01401D01*
X01713Y0157D02*
X01881Y01401D01*
X01688Y0157D02*
X01713D01*
X01811Y0196D02*
Y02047D01*
X01661Y02196D02*
X01688Y0217D01*
X01598Y02196D02*
X01661D01*
X01688Y0217D02*
X01811Y02047D01*
X01555Y02681D02*
X01688Y02548D01*
Y0217D02*
Y02548D01*
X02679Y01606D02*
Y01799D01*
X02553Y01925D02*
X02679Y01799D01*
X01803Y02169D02*
Y02661D01*
X01874Y02732*
X02459Y02294D02*
X02521Y02232D01*
X02247Y02294D02*
X02459D01*
X02521Y02232D02*
X02539Y0225D01*
Y02417*
X0262Y02232D02*
X02688Y02301D01*
Y02421*
X01409Y01791D02*
X01976D01*
X01409Y01712D02*
X02125D01*
X02288Y01874*
Y0202*
X02498Y01649D02*
X02541Y01606D01*
X02188Y01649D02*
X02498D01*
X02125Y01712D02*
X02188Y01649D01*
X02288Y0172D02*
Y01772D01*
X02358Y01842*
Y021*
X02288Y0217D02*
X02358Y021D01*
X02464Y01529D02*
X02541Y01606D01*
X02464Y0147D02*
Y01529D01*
X02759Y01755D02*
Y01895D01*
X0273Y01925D02*
X02759Y01895D01*
X02464Y01145D02*
Y01214D01*
X02448Y01129D02*
X02464Y01145D01*
X01393Y01366D02*
X01539D01*
X01708Y01196*
X02015Y01492D02*
X02323D01*
X02346Y01362D02*
X02362Y01346D01*
X02429Y01362D02*
X02531D01*
X02679Y01509*
Y01606*
X02323Y01492D02*
X02429Y01386D01*
Y01362D02*
Y01386D01*
X01555Y01251D02*
X01685Y01122D01*
X02366*
X01909Y01492D02*
X02015D01*
X01755Y01645D02*
X01909Y01492D01*
X0144Y02043D02*
X01519Y02122D01*
Y02227*
X02374Y01129D02*
X02448D01*
X02919Y03069D02*
Y03209D01*
X0296Y0325*
X03197Y02791D02*
X03336D01*
X03378Y02833*
X03635Y03369D02*
X03928Y03661D01*
X03823Y03256D02*
X04122Y03555D01*
Y0357*
X03357Y03508D02*
X03496D01*
X03225Y03376D02*
X03357Y03508D01*
X03113Y03376D02*
X03225D01*
X03496Y03348D02*
X03698Y03146D01*
X03496Y03348D02*
Y03508D01*
X03476Y03772D02*
X03592Y03889D01*
X03371Y03772D02*
X03476D01*
X03274Y03675D02*
X03371Y03772D01*
X03274Y0357D02*
Y03675D01*
X03516Y04474D02*
X03577D01*
X03329Y04287D02*
X03516Y04474D01*
X03329Y04237D02*
Y04287D01*
Y04237D02*
X03354Y04212D01*
X0347Y04161D02*
Y04211D01*
X03422Y04258D02*
X0347Y04211D01*
X03509*
X03606Y04308*
X03542Y04102D02*
X03677Y04237D01*
X03528Y04102D02*
X03542D01*
X0338Y03676D02*
X03512D01*
X03656Y03821*
X04536Y03612D02*
X04614D01*
X04639Y03587*
X04697Y03529D02*
X04753Y03584D01*
X04663Y03494D02*
X04697Y03529D01*
X04621Y03494D02*
X04663D01*
X04586Y03529D02*
X04621Y03494D01*
X03928Y03661D02*
X04123D01*
X04269Y03515*
X04297*
X03592Y03889D02*
X04048D01*
X04317Y03619*
X04434Y03569D02*
X0453Y03473D01*
X04297Y03569D02*
X04434D01*
X04143Y03724D02*
X04297Y03569D01*
X04004Y03724D02*
X04143D01*
X04572Y03696D02*
X04615Y03739D01*
X04317Y03619D02*
X04387D01*
X04526Y03758D02*
X04529D01*
X04387Y03619D02*
X04526Y03758D01*
X04434Y03569D02*
Y03583D01*
X04547Y03696*
X04572*
X03775Y04218D02*
X03851Y04141D01*
Y04072D02*
Y04141D01*
Y04072D02*
X03956Y03967D01*
X04059*
X04344Y03682*
X03983Y04037D02*
Y04048D01*
X03928Y04104D02*
X03983Y04048D01*
X04297Y03946D02*
X04352Y03891D01*
X04425*
X04505Y03971*
X04348Y04524D02*
X04401Y04471D01*
X04471Y0444D02*
Y0451D01*
X04429Y04399D02*
X04471Y0444D01*
X04345Y04399D02*
X04429D01*
X04284Y0446D02*
X04345Y04399D01*
X0429Y04078D02*
Y04204D01*
Y04078D02*
X04359Y04009D01*
X04415*
X04441Y04035*
X04678Y04272D02*
X04686Y0428D01*
Y04336*
X04596Y04426D02*
X04686Y04336D01*
X04554Y04426D02*
X04596D01*
X04171Y04225D02*
X0422Y04273D01*
X04171Y04085D02*
Y04225D01*
X04095Y04092D02*
Y04193D01*
X04056Y04232D02*
X04095Y04193D01*
X04102Y04016D02*
X04171Y04085D01*
X04094Y04016D02*
X04102D01*
X03992Y04118D02*
X04094Y04016D01*
X03992Y04118D02*
Y04168D01*
X04614Y04336D02*
X04614D01*
X04139Y04315D02*
X0422Y04396D01*
X04039Y04315D02*
X04139D01*
X03921Y04197D02*
X04039Y04315D01*
X03921Y0411D02*
Y04197D01*
Y0411D02*
X03928Y04104D01*
X0422Y04371D02*
Y04396D01*
Y04371D02*
X04434Y04157D01*
X04377Y041D02*
X04434Y04157D01*
X04614Y04336*
X04739Y04211D02*
X04742Y04208D01*
X04575Y04211D02*
X04739D01*
X01881Y03362D02*
Y0337D01*
X01713Y03538D02*
X01881Y0337D01*
X01688Y03538D02*
X01713D01*
X01811Y03929D02*
Y04015D01*
X01661Y04165D02*
X01688Y04138D01*
X01598Y04165D02*
X01661D01*
X01688Y04138D02*
X01811Y04015D01*
X01555Y04649D02*
X01688Y04516D01*
Y04138D02*
Y04516D01*
X02679Y03574D02*
Y03767D01*
X02553Y03893D02*
X02679Y03767D01*
X01244Y0374D02*
Y04011D01*
X01803Y04137D02*
Y04629D01*
X01874Y047*
X02459Y04262D02*
X02521Y042D01*
X02247Y04262D02*
X02459D01*
X02521Y042D02*
X02539Y04218D01*
Y04385*
X0262Y042D02*
X02688Y04269D01*
Y04389*
X01307Y04125D02*
Y04346D01*
Y04125D02*
X01354Y04078D01*
Y03814D02*
Y04078D01*
Y03814D02*
X01409Y03759D01*
X01976*
X01409Y03681D02*
X02125D01*
X02288Y03843*
Y03988*
X02498Y03618D02*
X02541Y03574D01*
X02188Y03618D02*
X02498D01*
X02125Y03681D02*
X02188Y03618D01*
X02288Y03688D02*
Y0374D01*
X02358Y03811*
Y04068*
X02288Y04138D02*
X02358Y04068D01*
X02464Y03498D02*
X02541Y03574D01*
X02464Y03438D02*
Y03498D01*
X02759Y03724D02*
Y03864D01*
X0273Y03893D02*
X02759Y03864D01*
X02464Y03114D02*
Y03183D01*
X02448Y03098D02*
X02464Y03114D01*
X01393Y03334D02*
X01539D01*
X01708Y03165*
X02303*
X02015Y0346D02*
X02323D01*
X02346Y0333D02*
X02362Y03314D01*
Y03224D02*
Y03314D01*
X02429Y0333D02*
X02531D01*
X02679Y03478*
Y03574*
X02323Y0346D02*
X02429Y03354D01*
Y0333D02*
Y03354D01*
X02303Y03165D02*
X02362Y03224D01*
X01555Y0322D02*
X01685Y0309D01*
X02366*
X01909Y0346D02*
X02015D01*
X01244Y0374D02*
X0137Y03614D01*
X01755*
X01909Y0346*
X0144Y04011D02*
X01519Y0409D01*
Y04195*
X01586Y04262*
X01275Y04452D02*
X01555D01*
X01153Y0433D02*
X01275Y04452D01*
X02374Y03098D02*
X02448D01*
X03216Y01454D02*
Y01572D01*
Y01454D02*
X03244Y01427D01*
X03129Y01312D02*
X03244Y01427D01*
X03129Y01269D02*
Y01312D01*
X03557Y0146D02*
Y01577D01*
X03559Y01463D02*
X03808D01*
X0346Y01739D02*
Y01863D01*
X03503Y01435D02*
X03531D01*
X0346Y01863D02*
X0346Y01863D01*
X03423Y01901D02*
X0346Y01863D01*
X03307Y01901D02*
X03423D01*
X03255Y01852D02*
X03258D01*
X03307Y01901*
X03326Y02175D02*
X03334Y02167D01*
X03456*
X03456Y02167*
X03208Y01742D02*
X03236D01*
X03255Y01761*
X02984Y01986D02*
X03075Y01895D01*
X03152Y01844D02*
X03161Y01854D01*
X03254*
X03075Y01876D02*
Y01895D01*
Y01876D02*
X03107Y01844D01*
X03152*
X03254Y01854D02*
X03255Y01852D01*
X03531Y01435D02*
X03557Y0146D01*
X0349Y01643D02*
X03557Y01577D01*
X03458Y01643D02*
X0349D01*
X03428Y01707D02*
X0346Y01739D01*
X03394Y01707D02*
X03428D01*
X03358Y01671D02*
X03394Y01707D01*
X03366Y01427D02*
X03496D01*
X03503Y01435*
X03307Y01572D02*
X03366Y01513D01*
Y01427D02*
Y01513D01*
X03356Y01624D02*
X03397Y01582D01*
Y01572D02*
Y01582D01*
X03358Y01625D02*
Y01671D01*
X03356Y01624D02*
X03358Y01625D01*
X02984Y02076D02*
X03129D01*
X03466D02*
X03629D01*
X03456Y02167D02*
X03629D01*
X03358Y01761D02*
D01*
X03405*
X03468Y01572D02*
X03503Y01537D01*
X03397Y01572D02*
X03468D01*
G54D30*
X03481Y04316D02*
X03539D01*
X03674Y04452*
Y04571*
G54D31*
X03526Y01673D02*
X0374D01*
X0346Y01739D02*
X03526Y01673D01*
X0374D02*
Y01795D01*
X03962Y01777D02*
Y01885D01*
X03948Y01763D02*
X03962Y01777D01*
X03908Y01763D02*
X03948D01*
X03625Y01875D02*
X03669Y01919D01*
X0374Y01795D02*
X03808Y01863D01*
X03669Y01919D02*
X03928D01*
X03962Y01885*
X03602Y01958D02*
X03629Y01986D01*
X03208Y01958D02*
X03602D01*
X03188Y01938D02*
X03208Y01958D01*
X03129Y01683D02*
X03141Y01671D01*
X03255*
X03128Y01775D02*
X03173D01*
X03206Y01808*
X03129Y02007D02*
X03188Y02066D01*
Y02135*
X03157Y02167D02*
X03188Y02135D01*
X02984Y02167D02*
X03157D01*
X03206Y01808D02*
X03282D01*
X03325Y01852*
X03358*
G54D32*
X01881Y01393D03*
X02196D03*
X02464Y0147D03*
Y01214D03*
Y02051D03*
Y01775D03*
X03601Y03033D03*
X03823Y03256D03*
X04529Y03758D03*
X04755Y036D03*
X03354Y04212D03*
X03535Y04393D03*
X01881Y03362D03*
X02196D03*
X02464Y03438D03*
Y03183D03*
Y04019D03*
Y03744D03*
X03908Y01463D03*
X03808D03*
X03908Y01863D03*
X03808Y01763D03*
X03908D03*
X03808Y01663D03*
X03908D03*
X03808Y01563D03*
X03908D03*
G54D33*
X01736Y01283D03*
X02277D03*
X03496Y02993D03*
X03113Y03376D03*
X01736Y03251D03*
X02277D03*
G54D34*
X01688Y0217D03*
X01555Y02681D03*
X01688Y04138D03*
X01555Y04649D03*
G54D35*
X01393Y01366D03*
Y03334D03*
G54D36*
X01393Y01466D03*
X01716Y01366D03*
Y01466D03*
X01393Y03434D03*
X01716Y03334D03*
Y03434D03*
G54D37*
X01409Y01791D03*
Y03759D03*
G54D38*
X01409Y01712D03*
X0262Y02232D03*
X04615Y03739D03*
X0453Y03473D03*
X01409Y03681D03*
X0262Y042D03*
G54D39*
X02521Y02232D03*
Y042D03*
G54D40*
X02679Y01606D03*
Y03574D03*
G54D41*
X03496Y03508D03*
G54D42*
X03674Y04571D03*
X03698Y03146D03*
G54D43*
X04685Y03669D03*
G54D44*
X04586Y03529D03*
G54D45*
X03449Y04009D03*
X03378Y0408D03*
X03677Y04237D03*
G54D46*
X03606Y04308D03*
G54D47*
X03808Y01863D03*
G54D48*
X01606Y02267D03*
X01271Y02263D03*
X01299Y02125D03*
X01811Y0196D03*
X01598Y02196D03*
X01555Y01251D03*
X02247Y02294D03*
X01976Y01791D03*
X02759Y01755D03*
X02015Y01492D03*
X04297Y03515D03*
X03656Y03821D03*
X03775Y04218D03*
X04004Y03724D03*
X03983Y04037D03*
X04297Y03946D03*
X04401Y04471D03*
X04095Y04092D03*
X04575Y04211D03*
X01811Y03929D03*
X01598Y04165D03*
X01555Y0322D03*
X01586Y04262D03*
X02247D03*
X01976Y03759D03*
X02759Y03724D03*
X02015Y0346D03*
X01153Y0433D03*
X03625Y01875D03*
X03129Y02007D03*
X03307Y01901D03*
X03326Y02175D03*
X03129Y01683D03*
X03128Y01775D03*
X03208Y01742D03*
X03188Y01938D03*
X03129Y02076D03*
X03458Y01643D03*
X03356Y01624D03*
X03466Y02076D03*
X03405Y01761D03*
M02*