G04 DipTrace 2.4.0.2*
%INfemalemalecross.gtl*%
%MOMM*%
%ADD13C,0.508*%
%ADD14C,0.4*%
%ADD15C,0.254*%
%ADD16C,0.305*%
%ADD17C,0.28*%
%ADD20R,1.1X1.0*%
%ADD21R,1.0X1.1*%
%ADD22R,0.85X2.0*%
%ADD27O,1.0X0.28*%
%ADD28O,0.28X1.0*%
%ADD29C,0.711*%
%ADD30R,2.7X2.7*%
%ADD32R,0.4X0.9*%
%ADD35O,1.0X1.5*%
%ADD37O,1.5X1.0*%
%ADD40R,2.0X0.85*%
%ADD44R,0.9X0.4*%
%ADD46R,0.7X0.9*%
%ADD47R,0.9X0.7*%
%ADD49R,0.25X0.275*%
%ADD50R,0.275X0.25*%
%ADD51C,0.711*%
%FSLAX53Y53*%
G04*
G71*
G90*
G75*
G01*
%LNTop*%
%LPD*%
X69300Y51240D2*
D13*
Y51772D1*
X69089Y51983D1*
Y52666D1*
D14*
X69098Y52675D1*
Y53379D1*
D13*
Y54171D1*
D14*
Y54875D1*
Y55579D1*
D13*
Y56879D1*
X69043Y56934D1*
X69163Y50211D2*
Y51104D1*
X69300Y51240D1*
X74177Y47322D2*
X73871D1*
X73459Y46911D1*
X72681Y59090D2*
D15*
Y57994D1*
X72559Y57871D1*
X73765Y57854D2*
X73105D1*
X72576D1*
X72559Y57871D1*
X73181Y59090D2*
Y58439D1*
X73765Y57854D1*
X75035Y58009D2*
X73920D1*
X73765Y57854D1*
X75339Y61847D2*
Y60388D1*
X74199Y59248D1*
Y58846D1*
X75035Y58009D1*
X69077Y55644D2*
D14*
X69098Y55579D1*
X73105Y57885D2*
D15*
Y57854D1*
X86068Y52098D2*
D13*
Y52945D1*
X86768Y53645D1*
X90196D1*
X90675Y53166D1*
Y48130D1*
X86971Y44426D1*
X85973D1*
X83976Y46423D1*
X82115D1*
X81545Y45852D1*
X86971Y44426D2*
X82834Y40290D1*
X77763D1*
X76255Y41797D1*
Y42693D1*
X73959Y44989D1*
X77763Y40290D2*
X69624D1*
X66402Y43512D1*
Y45667D1*
X67780Y47045D1*
Y48738D1*
X67130Y49388D1*
X66402Y43512D2*
X62197Y47716D1*
Y52876D1*
X63535Y54213D1*
X63964D1*
X66849Y57098D1*
X62197Y52876D2*
X62114Y52793D1*
Y61097D1*
X64548Y63531D1*
X66402D1*
X67890Y62042D1*
X69730D1*
X70665Y62978D1*
X64548Y63531D2*
X69851Y68833D1*
X75328D1*
X76398Y67763D1*
Y66768D1*
X78959Y64207D1*
X75328Y68833D2*
X82274D1*
X84177Y66931D1*
X85717Y65391D1*
Y63450D1*
X84652Y62385D1*
Y59871D1*
X85080Y59442D1*
X86068Y52098D2*
X85119D1*
X83928Y50907D1*
X81366D1*
X78458Y53816D1*
Y54728D1*
D16*
X80284D1*
X78458D2*
D13*
X77516D1*
X76479D1*
X76121Y54371D1*
X73122D1*
X72880Y54613D1*
X71960D1*
D14*
X71698Y54875D1*
X77314Y58597D2*
D13*
Y56532D1*
X78406Y55439D1*
Y54677D1*
X78458Y54728D1*
X70398Y52675D2*
D14*
Y53151D1*
D13*
X71172Y53926D1*
Y54350D1*
X71377Y54554D1*
D14*
X71698Y54875D1*
X84177Y66931D2*
D13*
X85048D1*
X88661Y70543D1*
X89590D1*
X91596Y68537D1*
X93256D1*
X94060Y69342D1*
X88661Y70543D2*
X92348Y74231D1*
X90117D1*
X89147Y75201D1*
Y76474D1*
X86773Y78848D1*
X85848D1*
X92348Y74231D2*
X94581Y76464D1*
X96147D1*
X96930Y75681D1*
X100400D1*
X100424Y75706D1*
X100708Y68746D2*
Y69896D1*
X98642Y71962D1*
Y73968D1*
X96930Y75681D1*
X77516Y54714D2*
Y54728D1*
X85080Y49388D2*
X83357D1*
X78959Y44989D1*
X81545Y62978D2*
Y61621D1*
X83127Y60039D1*
X86068Y57098D1*
X81545Y61621D2*
Y61533D1*
X81244D1*
X79966Y62811D1*
X75355D1*
X75290Y62876D1*
X73959Y64207D1*
X75290Y62876D2*
X71904D1*
X67845Y58818D1*
X67754D1*
X67130Y59442D1*
X67845Y58818D2*
Y53094D1*
X66849Y52098D1*
X67845Y53094D2*
Y50438D1*
X69796Y48488D1*
Y47846D1*
Y46722D1*
X70665Y45852D1*
Y46047D1*
X77901D1*
X78959Y44989D1*
X71698Y52675D2*
D14*
X72152D1*
D13*
X72642D1*
X72880Y52913D1*
X71698Y52675D2*
D14*
Y51971D1*
D13*
Y51938D1*
X71000Y51240D1*
Y50967D1*
X69838Y49805D1*
Y46475D1*
X70128D1*
X70708Y45895D1*
X70665Y45852D1*
X79854Y58597D2*
X79958D1*
X80656Y59296D1*
X82384D1*
X83127Y60039D1*
X80284Y54228D2*
D16*
X79520D1*
X79324Y54033D1*
X80077Y47972D2*
D13*
Y50172D1*
X72777Y47972D2*
Y50172D1*
X69823Y47846D2*
X69796D1*
X80077Y47972D2*
Y50531D1*
X75868D1*
Y52279D1*
Y53231D1*
X81434Y53578D2*
X82334Y54478D1*
X80284Y54228D2*
D15*
X82084D1*
X82334Y54478D1*
X72186Y52709D2*
D14*
X72152Y52675D1*
X72880Y52913D2*
D13*
X72390D1*
X72186Y52709D1*
X82334Y54478D2*
Y55378D1*
X80284Y54228D2*
D17*
X81038D1*
D13*
X82084D1*
X82334Y54478D1*
X75868Y50531D2*
X73136D1*
X72777Y50172D1*
X86068Y57098D2*
Y57822D1*
X86899Y58653D1*
X87682D1*
X89779Y60750D1*
Y63710D1*
X90569Y64500D1*
Y65762D1*
X90525Y65806D1*
X90569Y64500D2*
X96074Y70005D1*
X96881Y70812D1*
Y72162D1*
X96889Y72170D1*
X96074Y70005D2*
Y67729D1*
X97664Y66139D1*
X98315D1*
X100708Y63746D1*
X90848Y78848D2*
X92170D1*
X93412Y80090D1*
X98833D1*
X101643Y77280D1*
Y64680D1*
X100708Y63746D1*
X77516Y53414D2*
X77004D1*
X75868Y52279D1*
X71681Y59590D2*
D15*
X71331D1*
X70869Y59128D1*
Y59091D1*
X70709Y58931D1*
X75035Y56709D2*
Y56493D1*
X74484D1*
X74104D1*
X73765Y56154D1*
X72559Y56571D2*
Y56304D1*
X72839Y56024D1*
X73635D1*
X73765Y56154D1*
X70709Y58931D2*
Y58545D1*
X71554D1*
X71700Y58398D1*
Y57114D1*
X72298Y56516D1*
X72504D1*
X72559Y56571D1*
X72181Y59090D2*
Y58879D1*
X71846Y58545D1*
X71554D1*
X74484Y56506D2*
Y56493D1*
X75035Y56709D2*
D13*
X74687D1*
X74484Y56506D1*
X70743Y56934D2*
Y55220D1*
D14*
X70398Y54875D1*
X77314Y59867D2*
D16*
X77148D1*
X76762Y60253D1*
X81084Y56528D2*
X79446D1*
X78190Y57785D1*
X82084Y56528D2*
Y57934D1*
X82241Y58091D1*
X78584Y59867D2*
Y60400D1*
X78475Y60509D1*
X81584Y56528D2*
Y57379D1*
X80833D1*
X80333Y57879D1*
X79367D1*
X78649Y58597D1*
X78584D1*
X84384Y55728D2*
X85138D1*
Y55862D1*
X86682D1*
X87918Y57098D1*
X84384Y55228D2*
X85138D1*
Y55117D1*
X87787D1*
X89768Y57098D1*
X75677Y47322D2*
D13*
Y47505D1*
X76501Y48328D1*
X89768Y52098D2*
Y48843D1*
X87696Y46772D1*
X87918Y52098D2*
Y49609D1*
X86388Y48080D1*
X84161Y43236D2*
X84070D1*
X82537Y41703D1*
X79373D1*
X78959Y41289D1*
X82853Y44544D2*
X82472D1*
X81284Y43356D1*
X79176D1*
X78959Y43139D1*
X73959Y41289D2*
X69996D1*
X68049Y43236D1*
X73959Y43139D2*
X70762D1*
X69357Y44544D1*
X64999Y52098D2*
Y48902D1*
X65822Y48080D1*
X63149Y52098D2*
Y48136D1*
X64514Y46772D1*
X63149Y57098D2*
Y60694D1*
X64514Y62058D1*
X64999Y57098D2*
Y59928D1*
X65822Y60750D1*
X73959Y66057D2*
X71129D1*
X69357Y64286D1*
X73959Y67907D2*
X70363D1*
X68049Y65594D1*
X78959Y67907D2*
X81847D1*
X84161Y65594D1*
X78959Y66057D2*
X81081D1*
X82853Y64286D1*
X87696Y62058D2*
Y65000D1*
X86850Y65846D1*
Y67364D1*
X87909Y68423D1*
X86388Y60750D2*
X86612D1*
X87193Y60170D1*
X87878D1*
X89052Y61344D1*
Y65210D1*
X88514Y65748D1*
Y66411D1*
X89217Y67114D1*
X91444Y71958D2*
X94273Y74787D1*
X92752Y70650D2*
X95581Y73478D1*
X99116Y77014D2*
Y78828D1*
X98541Y79403D1*
X94193D1*
X91841Y77051D1*
X90901D1*
X90848Y76998D1*
X97808Y78322D2*
X94727D1*
X91841Y75436D1*
X91137D1*
X90848Y75148D1*
X97122Y64908D2*
Y63860D1*
X97008Y63746D1*
X87245Y75061D2*
X85936D1*
X85848Y75148D1*
X98500Y64816D2*
Y64104D1*
X98858Y63746D1*
X87291Y76715D2*
X86132D1*
X85848Y76998D1*
X31045Y33366D2*
X30171D1*
X29955Y33582D1*
Y33240D1*
D14*
X29610Y32896D1*
X28558D1*
D13*
X27766D1*
D14*
X27410D1*
X26761D1*
X26129D1*
D13*
X25406D1*
X25352Y32841D1*
X32084Y33389D2*
X31068D1*
X31045Y33366D1*
X34973Y37599D2*
Y37292D1*
X35384Y36881D1*
X23319Y36708D2*
D15*
X24390D1*
X24562Y36536D1*
X24554Y37793D2*
Y37133D1*
Y36544D1*
X24562Y36536D1*
X23319Y37208D2*
X23970D1*
X24554Y37793D1*
X24399Y39063D2*
Y37948D1*
X24554Y37793D1*
X20575Y39367D2*
X22021D1*
X23161Y38226D1*
X23563D1*
X24399Y39063D1*
X24524Y37133D2*
X24554D1*
X26761Y32903D2*
D14*
Y32896D1*
X30197Y49489D2*
D13*
X29350D1*
X28650Y50189D1*
Y53617D1*
X29129Y54096D1*
X31548D1*
X34164D1*
X37868Y50392D1*
Y49394D1*
X35872Y47397D1*
Y45537D1*
X36442Y44966D1*
X37868Y50392D2*
X42005Y46255D1*
Y41184D1*
X40497Y39676D1*
X39602D1*
X37306Y37380D1*
X42005Y41184D2*
Y33045D1*
X38783Y29823D1*
X36628D1*
X35249Y31201D1*
X33557D1*
X32907Y30551D1*
X38783Y29823D2*
X34579Y25619D1*
X29419D1*
X28082Y26956D1*
Y27386D1*
X25197Y30271D1*
X29419Y25619D2*
X29502Y25535D1*
X21198D1*
X18764Y27970D1*
Y29823D1*
X20252Y31312D1*
Y33152D1*
X19317Y34087D1*
X18764Y27970D2*
X13474Y33259D1*
Y38762D1*
X14532Y39820D1*
X15527D1*
X18088Y42380D1*
X13474Y38762D2*
Y45708D1*
X16904Y49138D1*
X18845D1*
X19910Y48073D1*
X22424D1*
X22853Y48502D1*
X30197Y49489D2*
Y48540D1*
X31387Y47349D1*
Y44704D1*
X28563Y41879D1*
X27566D1*
D16*
Y43706D1*
Y41879D2*
D13*
Y40660D1*
Y36783D1*
X27672Y36678D1*
Y35758D1*
D14*
X27410Y35496D1*
X23697Y40735D2*
D13*
X25763D1*
X26856Y41828D1*
X27617D1*
X27566Y41879D1*
X29610Y34196D2*
D14*
X29482D1*
D13*
X28012Y35666D1*
X27587D1*
X27689Y35564D1*
D14*
X27383D1*
Y35522D1*
X27410Y35496D1*
X29547Y62839D2*
D13*
Y64798D1*
X30781Y66032D1*
Y68507D1*
Y70605D1*
X30578Y70808D1*
X29547Y71839D1*
X31548Y54096D2*
X30745Y54899D1*
Y61641D1*
X29547Y62839D1*
X30578Y70808D2*
Y79808D1*
X29547Y80839D1*
X34847Y66839D2*
X31588D1*
X30781Y66032D1*
X20547Y71839D2*
X21606D1*
X21646Y71799D1*
X30718Y68507D2*
X30781D1*
X27473Y40847D2*
Y40754D1*
X27566Y40660D1*
X32907Y48502D2*
Y46779D1*
X37306Y42380D1*
X19317Y44966D2*
X20673D1*
X22256Y46548D1*
X25197Y49489D1*
X20673Y44966D2*
X20762D1*
Y44665D1*
X19484Y43387D1*
Y38776D1*
X19419Y38711D1*
X18088Y37380D1*
X19419Y38711D2*
Y36051D1*
X23477Y31993D1*
Y31176D1*
X22853Y30551D1*
X23477Y31993D2*
X28475D1*
X28684Y31783D1*
X30197Y30271D1*
X28684Y31783D2*
X32373D1*
X33807Y33217D1*
X34449D1*
X35573D1*
X36442Y34087D1*
X36248D1*
Y41323D1*
X37306Y42380D1*
X29610Y35496D2*
D14*
Y36645D1*
D13*
X29262D1*
X29340D1*
X29372Y36678D1*
X29610Y35496D2*
D14*
X29535D1*
D13*
X29966Y35927D1*
Y36144D1*
X31045Y35066D1*
X31398D1*
X32132Y34331D1*
X36198D1*
X36442Y34087D1*
X23697Y43275D2*
Y43379D1*
X22999Y44078D1*
Y45805D1*
X22256Y46548D1*
X28066Y43706D2*
D16*
Y42941D1*
X28262Y42746D1*
X34323Y43499D2*
D13*
X32123D1*
X34323Y36199D2*
X32123D1*
X34449Y33244D2*
Y33217D1*
X34323Y43499D2*
X31763D1*
Y39289D1*
X29688D1*
X29064D1*
X28716Y44856D2*
X27816Y45756D1*
X28066Y43706D2*
D15*
Y45506D1*
X27816Y45756D1*
X29229Y36679D2*
D14*
X29262Y36645D1*
X29231Y36678D2*
D13*
X29229Y36679D1*
X27816Y45756D2*
X26916D1*
X28066Y43706D2*
D17*
Y44460D1*
D13*
Y45506D1*
X27816Y45756D1*
X31763Y39289D2*
Y36558D1*
X32123Y36199D1*
X29547Y57839D2*
Y56653D1*
X29623Y56577D1*
X32907Y48502D2*
X32730D1*
X32027Y49204D1*
X29547Y75839D2*
Y76998D1*
X28467Y78078D1*
X26087D1*
X24678Y76669D1*
Y69480D1*
Y68072D1*
X23416Y66809D1*
X20577D1*
X20547Y66839D1*
X29547D2*
Y66992D1*
X27207Y69332D1*
X26427Y70112D1*
X25311D1*
X24678Y69480D1*
X29547Y57839D2*
Y60500D1*
X29229Y60818D1*
X25456D1*
X24934Y61339D1*
Y65991D1*
X24117Y66809D1*
X23416D1*
X34847Y71839D2*
X33649D1*
X32484Y70675D1*
X27266Y69390D2*
X27207Y69332D1*
X28773Y40847D2*
Y40205D1*
X29688Y39289D1*
X22819Y35708D2*
D15*
Y35359D1*
X23281Y34897D1*
X23318D1*
X23478Y34737D1*
X25699Y39063D2*
X25916D1*
Y38511D1*
Y38131D1*
X26254Y37793D1*
X25862Y36536D2*
X26054D1*
X26385Y36867D1*
Y37662D1*
X26254Y37793D1*
X23478Y34737D2*
X23864D1*
Y35581D1*
X24010Y35727D1*
X25295D1*
X25892Y36325D1*
Y36506D1*
X25862Y36536D1*
X23319Y36208D2*
X23529D1*
X23864Y35874D1*
Y35581D1*
X25903Y38511D2*
X25916D1*
X25699Y39063D2*
D13*
Y38715D1*
X25903Y38511D1*
X25352Y34541D2*
X27065D1*
D14*
X27410Y34196D1*
X22427Y40735D2*
D16*
Y40569D1*
X22042Y40184D1*
X25766Y44506D2*
Y42867D1*
X24510Y41611D1*
X25766Y45506D2*
X24360D1*
X24204Y45662D1*
X22427Y42005D2*
X21895D1*
X21786Y41896D1*
X25766Y45006D2*
X24916D1*
Y44255D1*
X24416Y43755D1*
Y42789D1*
X23697Y42070D1*
Y42005D1*
X26566Y47806D2*
Y48560D1*
X26433D1*
Y50103D1*
X25197Y51339D1*
X27066Y47806D2*
Y48560D1*
X27177D1*
Y51208D1*
X25197Y53189D1*
X34973Y39099D2*
D13*
X34790D1*
X33966Y39923D1*
X30197Y53189D2*
X33452D1*
X35523Y51118D1*
X30197Y51339D2*
X32686D1*
X34215Y49810D1*
X39059Y47582D2*
Y47491D1*
X40592Y45958D1*
Y42794D1*
X41006Y42380D1*
X37751Y46274D2*
Y45893D1*
X38938Y44706D1*
Y42597D1*
X39156Y42380D1*
X41006Y37380D2*
Y33417D1*
X39059Y31471D1*
X39156Y37380D2*
Y34184D1*
X37751Y32779D1*
X30197Y28421D2*
X33393D1*
X34215Y29243D1*
X30197Y26571D2*
X34159D1*
X35523Y27935D1*
X25197Y26571D2*
X21601D1*
X20236Y27935D1*
X25197Y28421D2*
X22367D1*
X21545Y29243D1*
X16238Y37380D2*
Y34550D1*
X18009Y32779D1*
X14388Y37380D2*
Y33784D1*
X16701Y31471D1*
X14388Y42380D2*
Y45269D1*
X16701Y47582D1*
X16238Y42380D2*
Y44503D1*
X18009Y46274D1*
X38547Y66839D2*
Y67704D1*
X38619Y67777D1*
X16833Y67850D2*
Y66853D1*
X16847Y66839D1*
X36697D2*
Y67752D1*
X36721Y67777D1*
X18730Y67923D2*
Y66873D1*
X18697Y66839D1*
X21545Y49810D2*
Y51271D1*
X24844Y54570D1*
X26489D1*
X27723Y55804D1*
Y57812D1*
X27697Y57839D1*
X25847D2*
Y56728D1*
X20236Y51118D1*
X25847Y62839D2*
Y66839D1*
X27697Y62839D2*
Y66839D1*
Y75839D2*
Y71839D1*
X25847Y75839D2*
Y71839D1*
X38547D2*
Y70914D1*
X38582Y70879D1*
X25846Y79746D2*
Y80839D1*
X25847D1*
X36697Y71839D2*
Y70940D1*
X36721Y70915D1*
X27744Y79710D2*
Y80792D1*
X27697Y80839D1*
X56523Y83909D2*
D14*
Y81660D1*
D13*
Y80868D1*
D14*
Y81709D1*
Y79460D1*
D13*
X56578D1*
Y79651D1*
X56523Y83909D2*
Y84189D1*
X55904Y84808D1*
Y85195D1*
X56053Y85344D1*
X56762Y76137D2*
Y79466D1*
X56578Y79651D1*
X51094Y78570D2*
D15*
Y77853D1*
X50521Y77281D1*
X52178Y77335D2*
X51068D1*
X50575D1*
X50521Y77281D1*
X51594Y78570D2*
Y77919D1*
X52178Y77335D1*
X53448Y77490D2*
X52333D1*
X52178Y77335D1*
X50231Y82796D2*
X50432D1*
X52181Y81048D1*
X52910D1*
X53285Y80672D1*
Y79082D1*
X52932Y78729D1*
X52612D1*
Y78326D1*
X53448Y77490D1*
X51068Y77318D2*
Y77335D1*
X52741Y81971D2*
D13*
X53661D1*
D14*
X53923Y81709D1*
X53744D1*
D13*
X54724Y82689D1*
Y83410D1*
D14*
X55223Y83909D1*
X54106Y34626D2*
D16*
Y33952D1*
X53883Y33729D1*
Y33667D1*
X52916Y31102D2*
D13*
X53016D1*
X53126Y31213D1*
X52741Y81971D2*
X53899D1*
Y78476D1*
X55989Y76386D1*
Y74176D1*
X56206D1*
X33856Y82526D2*
X34259D1*
X35834Y80950D1*
Y78855D1*
X36984Y77706D1*
X46279D1*
X51655Y72330D1*
X54361D1*
X56206Y74176D1*
Y65176D2*
Y63951D1*
X54946Y62691D1*
X52906D1*
X51206Y64391D1*
Y71882D1*
X51655Y72330D1*
X51206Y64391D2*
X51121Y64476D1*
Y55182D1*
X53020Y53283D1*
X53314D1*
X56206Y56176D1*
X51121Y55182D2*
Y46281D1*
X52441Y44961D1*
X54669D1*
Y45198D1*
Y45639D1*
X56206Y47176D1*
X42856Y82526D2*
X43964D1*
X46279Y80211D1*
Y77706D1*
X59754Y77856D2*
X56206Y74309D1*
Y74176D1*
X54758Y45109D2*
X54669Y45198D1*
X62200Y82902D2*
X62188D1*
X61598Y83492D1*
X60560Y84530D1*
X60621D1*
X57224Y87928D1*
Y91159D1*
X57431Y90952D1*
X56206Y92176D1*
X57431Y90952D2*
X57224D1*
Y100159D1*
X56206Y101176D1*
X62200Y82902D2*
X62720D1*
X63877Y81746D1*
Y80806D1*
X65856Y78826D1*
X61598Y83492D2*
X71637D1*
X72052Y83077D1*
Y81631D1*
X74856Y78826D1*
X54713Y40789D2*
Y40163D1*
X54863Y40013D1*
X53923Y83909D2*
D14*
Y84914D1*
D13*
X54353Y85344D1*
X53923Y83909D2*
D14*
X52661D1*
D13*
Y83751D1*
X52741Y83671D1*
X54606Y34626D2*
D16*
Y34079D1*
X54992Y33693D1*
X56163D1*
X55854Y30564D2*
D13*
Y31026D1*
X55666Y31213D1*
X47856Y82526D2*
Y83920D1*
X39800D1*
X38775Y82894D1*
Y82444D1*
X38856Y82526D1*
X56206Y60176D2*
X56342D1*
X57327Y61161D1*
Y64553D1*
Y68056D1*
X56206Y69176D1*
Y51176D2*
X56268D1*
X57278Y52185D1*
Y55725D1*
Y59105D1*
X56206Y60176D1*
Y42176D2*
X57108D1*
X57436Y42505D1*
Y49946D1*
X56206Y51176D1*
X55256Y37576D2*
X54356Y36676D1*
X56206Y42176D2*
Y41549D1*
X56519Y41236D1*
X52661Y83751D2*
D14*
Y83591D1*
D13*
X52741Y83671D1*
X53398Y83842D2*
D14*
X53713Y83727D1*
X53923Y84914D1*
X53398Y83842D2*
D13*
Y84389D1*
X54353Y85344D1*
X53605Y84833D2*
D14*
Y84302D1*
X52888Y83585D1*
X52661D1*
X47856Y83920D2*
D13*
Y84086D1*
X51220Y87450D1*
Y88404D1*
X51858Y89042D1*
X54341D1*
X56206Y87176D1*
X51220Y88404D2*
Y97268D1*
X51947Y97995D1*
X54387D1*
X56206Y96176D1*
X69856Y78826D2*
Y78744D1*
X68947Y77834D1*
X61794D1*
X60856Y76897D1*
X59467Y75507D1*
X57405Y73445D1*
Y68206D1*
X56206Y69176D1*
X60856Y78826D2*
Y76897D1*
X57245Y55725D2*
X57278D1*
X57207Y64585D2*
X57327Y64553D1*
X59436Y75538D2*
X59467Y75507D1*
X58361Y77597D2*
Y79857D1*
X58152Y80066D1*
X58204D1*
Y80476D1*
X57425Y81255D1*
Y82441D1*
X56206Y87176D2*
Y87408D1*
X57425Y86189D1*
Y82441D1*
X58361Y77597D2*
Y78665D1*
X58850Y79154D1*
X60529D1*
X60856Y78826D1*
X56163Y40013D2*
Y40880D1*
X56519Y41236D1*
X52741Y83671D2*
X51760D1*
X51238Y84193D1*
X49523D1*
X47856Y82526D1*
X50094Y79070D2*
D15*
X49744D1*
X49282Y78608D1*
Y78571D1*
X49122Y78412D1*
X53448Y76190D2*
Y75974D1*
X52897D1*
X52517D1*
X52178Y75635D1*
X50521Y75981D2*
X50776D1*
X51252Y75504D1*
X52048D1*
X52178Y75635D1*
X49122Y78412D2*
Y78032D1*
X49967D1*
X49629D1*
Y76681D1*
X50710Y75600D1*
Y75792D1*
X50521Y75981D1*
X50594Y78570D2*
Y78360D1*
X50266Y78032D1*
X49967D1*
X52897Y76212D2*
Y75974D1*
X53448Y76190D2*
D13*
X52919D1*
X52897Y76212D1*
X55223Y81709D2*
D14*
Y79853D1*
D13*
X55021Y79651D1*
X54878D1*
X52306Y35426D2*
D16*
X51972D1*
X51507Y34961D1*
Y33455D1*
X52479Y32483D1*
X53126D1*
X52306Y36426D2*
X51473D1*
X51218Y36681D1*
X52280Y33799D2*
Y33639D1*
X52734Y33185D1*
X53425D1*
X54128Y32483D1*
X54396D1*
X52306Y35926D2*
X51267D1*
X51042Y35701D1*
Y31271D1*
X51872Y30441D1*
X53575D1*
X54346Y31213D1*
X54396D1*
X53106Y38726D2*
D17*
X52904D1*
Y39027D1*
D13*
X51343Y40588D1*
Y42746D1*
X52043Y43446D1*
X53086D1*
X54356Y42176D1*
X53606Y38726D2*
D17*
Y39685D1*
D13*
Y41076D1*
X52506Y42176D1*
Y47176D2*
Y51176D1*
X54356Y47176D2*
Y51176D1*
X52506Y56176D2*
Y60176D1*
X54356Y56176D2*
Y60176D1*
X52506Y65176D2*
Y69176D1*
X54356Y65176D2*
Y69176D1*
Y74176D2*
Y74766D1*
X54683Y75093D1*
X47856Y80676D2*
X48995D1*
X49076Y80757D1*
X52506Y74176D2*
Y73942D1*
X51095D1*
X47471Y77566D1*
Y78936D1*
X47966D1*
X47856Y78826D1*
X42856D2*
X38856D1*
X42856Y80676D2*
X38856D1*
X35011Y80693D2*
X33856Y80676D1*
X50225Y84975D2*
X50839Y85589D1*
X52769D1*
X54356Y87176D1*
X33856Y78826D2*
X34641D1*
Y78860D1*
X51494Y86402D2*
X51732D1*
X52506Y87176D1*
Y92176D2*
Y96176D1*
X54356Y92176D2*
Y96176D1*
X65856Y82526D2*
X69856D1*
X65856Y80676D2*
X69856D1*
X52179Y99015D2*
Y100849D1*
X52506Y101176D1*
X60856Y82526D2*
X60482D1*
X59894Y83114D1*
X53880Y98884D2*
Y100700D1*
X54356Y101176D1*
X60856Y80676D2*
X59179D1*
X58217Y81638D1*
X83584Y56528D2*
D15*
X83601D1*
X84542Y57470D1*
X73181Y60590D2*
X73443D1*
X73485Y60548D1*
X74199D1*
X73633Y60674D2*
X73485Y60548D1*
X71681Y60590D2*
Y61253D1*
Y61383D1*
X71837D1*
Y61523D1*
X71995D1*
X72060Y61458D1*
X73234D1*
X73261Y61485D1*
X73779D1*
X74039Y61745D1*
Y61847D1*
X71729Y61253D2*
X71681D1*
X83084Y56528D2*
Y57558D1*
X83351Y57825D1*
X71681Y60090D2*
X70851D1*
X70709Y60231D1*
X21819Y37208D2*
Y37470D1*
X21861Y37512D1*
Y38226D1*
X21734Y37660D2*
X21861Y37512D1*
X25766Y47006D2*
X25381D1*
X24934Y47452D1*
X24329D1*
X21819Y35708D2*
X21156D1*
X21026D1*
Y35864D1*
X20886D1*
Y36023D1*
X20747Y35883D1*
Y37984D1*
X20664Y38067D1*
X20575D1*
X21156Y35756D2*
Y35708D1*
X25766Y46506D2*
X25012D1*
X24810D1*
X24763Y46553D1*
X22319Y35708D2*
Y34878D1*
X22178Y34737D1*
X51594Y80070D2*
X51855D1*
X51897Y80029D1*
X52612D1*
X51228Y80840D2*
X51897Y80171D1*
Y80029D1*
X52306Y37926D2*
Y38428D1*
X52006Y38728D1*
X52129Y71040D2*
X55591D1*
X55875Y70757D1*
X50094Y80070D2*
Y80863D1*
X50249D1*
Y81124D1*
X49877Y81496D1*
X50231D1*
X49232Y82080D2*
X49426D1*
X50094Y81412D1*
Y80863D1*
X52306Y37426D2*
X51386D1*
X51192Y37620D1*
X50094Y79570D2*
X49264D1*
X49122Y79712D1*
D51*
X75868Y53231D3*
X29064Y39289D3*
X76762Y60253D3*
X78475Y60509D3*
X82241Y58091D3*
X78190Y57785D3*
X79324Y54033D3*
X69163Y50211D3*
X69823Y47846D3*
X72186Y52709D3*
X73459Y46911D3*
X76501Y48328D3*
X87291Y76715D3*
X87245Y75061D3*
X97122Y64908D3*
X98500Y64816D3*
X22042Y40184D3*
X21786Y41896D3*
X24204Y45662D3*
X24510Y41611D3*
X28262Y42746D3*
X32084Y33389D3*
X34449Y33244D3*
X29229Y36679D3*
X35384Y36881D3*
X33966Y39923D3*
X29623Y56577D3*
X32027Y49204D3*
X27744Y79710D3*
X25846Y79746D3*
X36721Y70915D3*
X38582Y70879D3*
X38619Y67777D3*
X36721D3*
X18730Y67923D3*
X16833Y67850D3*
X32484Y70675D3*
X21646Y71799D3*
X30718Y68507D3*
X27266Y69390D3*
X57245Y55725D3*
X57207Y64585D3*
X51494Y86402D3*
X50225Y84975D3*
X51218Y36681D3*
X52280Y33799D3*
X56163Y33693D3*
X53883Y33667D3*
X52916Y31102D3*
X55854Y30564D3*
X34641Y78860D3*
X35011Y80693D3*
X53880Y98884D3*
X52179Y99015D3*
X58217Y81638D3*
X59894Y83114D3*
X59754Y77856D3*
X62200Y82902D3*
X56762Y76137D3*
X59436Y75538D3*
X56519Y41236D3*
X54758Y45109D3*
X53398Y83842D3*
X58361Y77597D3*
X53605Y84833D3*
X58152Y80066D3*
X57425Y82441D3*
X54713Y40789D3*
X73633Y60674D3*
X71729Y61253D3*
X84542Y57470D3*
X83351Y57825D3*
X69077Y55644D3*
X73105Y57885D3*
X74484Y56506D3*
X21734Y37660D3*
X21156Y35756D3*
X24524Y37133D3*
X25903Y38511D3*
X51228Y80840D3*
X49232Y82080D3*
X51068Y77318D3*
X52897Y76212D3*
X26761Y32903D3*
X24329Y47452D3*
X24763Y46553D3*
X49076Y80757D3*
X54683Y75093D3*
X52006Y38728D3*
X51192Y37620D3*
X52129Y71040D3*
X55875Y70757D3*
D20*
X69300Y51240D3*
X71000D3*
D21*
X72880Y54613D3*
Y52913D3*
G36*
X77708Y59867D2*
X77702Y59936D1*
X77684Y60002D1*
X77655Y60064D1*
X77615Y60120D1*
X77567Y60169D1*
X77511Y60208D1*
X77448Y60237D1*
X77382Y60255D1*
X77314Y60261D1*
D1*
X77245Y60255D1*
X77179Y60237D1*
X77117Y60208D1*
X77061Y60169D1*
X77012Y60120D1*
X76973Y60064D1*
X76944Y60002D1*
X76926Y59936D1*
X76920Y59867D1*
D1*
X76926Y59799D1*
X76944Y59733D1*
X76973Y59671D1*
X77012Y59614D1*
X77061Y59566D1*
X77117Y59526D1*
X77179Y59497D1*
X77245Y59480D1*
X77314Y59474D1*
D1*
X77382Y59480D1*
X77448Y59497D1*
X77511Y59526D1*
X77567Y59566D1*
X77615Y59614D1*
X77655Y59671D1*
X77684Y59733D1*
X77702Y59799D1*
X77708Y59867D1*
G37*
G36*
X78978D2*
X78972Y59936D1*
X78954Y60002D1*
X78925Y60064D1*
X78885Y60120D1*
X78837Y60169D1*
X78781Y60208D1*
X78718Y60237D1*
X78652Y60255D1*
X78584Y60261D1*
D1*
X78515Y60255D1*
X78449Y60237D1*
X78387Y60208D1*
X78331Y60169D1*
X78282Y60120D1*
X78243Y60064D1*
X78214Y60002D1*
X78196Y59936D1*
X78190Y59867D1*
D1*
X78196Y59799D1*
X78214Y59733D1*
X78243Y59671D1*
X78282Y59614D1*
X78331Y59566D1*
X78387Y59526D1*
X78449Y59497D1*
X78515Y59480D1*
X78584Y59474D1*
D1*
X78652Y59480D1*
X78718Y59497D1*
X78781Y59526D1*
X78837Y59566D1*
X78885Y59614D1*
X78925Y59671D1*
X78954Y59733D1*
X78972Y59799D1*
X78978Y59867D1*
G37*
G36*
X80248D2*
X80242Y59936D1*
X80224Y60002D1*
X80195Y60064D1*
X80155Y60120D1*
X80107Y60169D1*
X80051Y60208D1*
X79988Y60237D1*
X79922Y60255D1*
X79854Y60261D1*
D1*
X79785Y60255D1*
X79719Y60237D1*
X79657Y60208D1*
X79601Y60169D1*
X79552Y60120D1*
X79513Y60064D1*
X79484Y60002D1*
X79466Y59936D1*
X79460Y59867D1*
D1*
X79466Y59799D1*
X79484Y59733D1*
X79513Y59671D1*
X79552Y59614D1*
X79601Y59566D1*
X79657Y59526D1*
X79719Y59497D1*
X79785Y59480D1*
X79854Y59474D1*
D1*
X79922Y59480D1*
X79988Y59497D1*
X80051Y59526D1*
X80107Y59566D1*
X80155Y59614D1*
X80195Y59671D1*
X80224Y59733D1*
X80242Y59799D1*
X80248Y59867D1*
G37*
G36*
Y58597D2*
X80242Y58666D1*
X80224Y58732D1*
X80195Y58794D1*
X80155Y58850D1*
X80107Y58899D1*
X80051Y58938D1*
X79988Y58967D1*
X79922Y58985D1*
X79854Y58991D1*
D1*
X79785Y58985D1*
X79719Y58967D1*
X79657Y58938D1*
X79601Y58899D1*
X79552Y58850D1*
X79513Y58794D1*
X79484Y58732D1*
X79466Y58666D1*
X79460Y58597D1*
D1*
X79466Y58529D1*
X79484Y58463D1*
X79513Y58401D1*
X79552Y58344D1*
X79601Y58296D1*
X79657Y58256D1*
X79719Y58227D1*
X79785Y58210D1*
X79854Y58204D1*
D1*
X79922Y58210D1*
X79988Y58227D1*
X80051Y58256D1*
X80107Y58296D1*
X80155Y58344D1*
X80195Y58401D1*
X80224Y58463D1*
X80242Y58529D1*
X80248Y58597D1*
G37*
G36*
X78978D2*
X78972Y58666D1*
X78954Y58732D1*
X78925Y58794D1*
X78885Y58850D1*
X78837Y58899D1*
X78781Y58938D1*
X78718Y58967D1*
X78652Y58985D1*
X78584Y58991D1*
D1*
X78515Y58985D1*
X78449Y58967D1*
X78387Y58938D1*
X78331Y58899D1*
X78282Y58850D1*
X78243Y58794D1*
X78214Y58732D1*
X78196Y58666D1*
X78190Y58597D1*
D1*
X78196Y58529D1*
X78214Y58463D1*
X78243Y58401D1*
X78282Y58344D1*
X78331Y58296D1*
X78387Y58256D1*
X78449Y58227D1*
X78515Y58210D1*
X78584Y58204D1*
D1*
X78652Y58210D1*
X78718Y58227D1*
X78781Y58256D1*
X78837Y58296D1*
X78885Y58344D1*
X78925Y58401D1*
X78954Y58463D1*
X78972Y58529D1*
X78978Y58597D1*
G37*
G36*
X77708D2*
X77702Y58666D1*
X77684Y58732D1*
X77655Y58794D1*
X77615Y58850D1*
X77567Y58899D1*
X77511Y58938D1*
X77448Y58967D1*
X77382Y58985D1*
X77314Y58991D1*
D1*
X77245Y58985D1*
X77179Y58967D1*
X77117Y58938D1*
X77061Y58899D1*
X77012Y58850D1*
X76973Y58794D1*
X76944Y58732D1*
X76926Y58666D1*
X76920Y58597D1*
D1*
X76926Y58529D1*
X76944Y58463D1*
X76973Y58401D1*
X77012Y58344D1*
X77061Y58296D1*
X77117Y58256D1*
X77179Y58227D1*
X77245Y58210D1*
X77314Y58204D1*
D1*
X77382Y58210D1*
X77448Y58227D1*
X77511Y58256D1*
X77567Y58296D1*
X77615Y58344D1*
X77655Y58401D1*
X77684Y58463D1*
X77702Y58529D1*
X77708Y58597D1*
G37*
D22*
X69043Y56934D3*
X70743D3*
D27*
X80284Y55728D3*
Y55228D3*
Y54728D3*
Y54228D3*
Y53728D3*
Y53228D3*
D28*
X81084Y52428D3*
X81584D3*
X82084D3*
X82584D3*
X83084D3*
X83584D3*
D27*
X84384Y53228D3*
Y53728D3*
Y54228D3*
Y54728D3*
Y55228D3*
Y55728D3*
D28*
X83584Y56528D3*
X83084D3*
X82584D3*
X82084D3*
X81584D3*
X81084D3*
D29*
X81434Y55378D3*
X82334D3*
X83234D3*
X81434Y54478D3*
X82334D3*
X83234D3*
X81434Y53578D3*
X82334D3*
X83234D3*
D30*
X82334Y54478D3*
D32*
X69098Y52675D3*
X70398D3*
X71698D3*
Y54875D3*
X70398D3*
X69098D3*
D35*
X89768Y57098D3*
X87918D3*
X86068D3*
Y52098D3*
X87918D3*
X89768D3*
G36*
X87166Y46948D2*
X87048Y46760D1*
X87023Y46539D1*
X87096Y46329D1*
X87254Y46171D1*
X87464Y46098D1*
X87685Y46123D1*
X87873Y46241D1*
X88227Y46595D1*
X88345Y46783D1*
X88370Y47004D1*
X88297Y47214D1*
X88139Y47372D1*
X87929Y47445D1*
X87708Y47420D1*
X87520Y47302D1*
X87166Y46948D1*
G37*
G36*
X85858Y48257D2*
X85740Y48068D1*
X85715Y47847D1*
X85788Y47637D1*
X85946Y47480D1*
X86156Y47406D1*
X86377Y47431D1*
X86565Y47549D1*
X86919Y47903D1*
X87037Y48091D1*
X87062Y48313D1*
X86988Y48523D1*
X86831Y48680D1*
X86621Y48753D1*
X86400Y48728D1*
X86212Y48610D1*
X85858Y48257D1*
G37*
G36*
X84550Y49565D2*
X84431Y49376D1*
X84407Y49155D1*
X84480Y48945D1*
X84637Y48788D1*
X84847Y48714D1*
X85069Y48739D1*
X85257Y48858D1*
X85610Y49211D1*
X85729Y49400D1*
X85754Y49621D1*
X85680Y49831D1*
X85523Y49988D1*
X85313Y50062D1*
X85092Y50037D1*
X84903Y49918D1*
X84550Y49565D1*
G37*
G36*
X81014Y46029D2*
X80896Y45841D1*
X80871Y45620D1*
X80944Y45410D1*
X81102Y45252D1*
X81312Y45179D1*
X81533Y45204D1*
X81721Y45322D1*
X82075Y45676D1*
X82193Y45864D1*
X82218Y46085D1*
X82145Y46295D1*
X81987Y46452D1*
X81777Y46526D1*
X81556Y46501D1*
X81368Y46383D1*
X81014Y46029D1*
G37*
G36*
X82322Y44721D2*
X82204Y44533D1*
X82179Y44311D1*
X82253Y44101D1*
X82410Y43944D1*
X82620Y43871D1*
X82841Y43895D1*
X83030Y44014D1*
X83383Y44367D1*
X83502Y44556D1*
X83526Y44777D1*
X83453Y44987D1*
X83296Y45144D1*
X83086Y45218D1*
X82864Y45193D1*
X82676Y45075D1*
X82322Y44721D1*
G37*
G36*
X83631Y43413D2*
X83512Y43224D1*
X83487Y43003D1*
X83561Y42793D1*
X83718Y42636D1*
X83928Y42562D1*
X84149Y42587D1*
X84338Y42706D1*
X84691Y43059D1*
X84810Y43248D1*
X84835Y43469D1*
X84761Y43679D1*
X84604Y43836D1*
X84394Y43910D1*
X84173Y43885D1*
X83984Y43766D1*
X83631Y43413D1*
G37*
D37*
X78959Y41289D3*
Y43139D3*
Y44989D3*
X73959D3*
Y43139D3*
Y41289D3*
G36*
X68226Y43766D2*
X68038Y43885D1*
X67816Y43910D1*
X67606Y43836D1*
X67449Y43679D1*
X67376Y43469D1*
X67400Y43248D1*
X67519Y43059D1*
X67872Y42706D1*
X68061Y42587D1*
X68282Y42562D1*
X68492Y42636D1*
X68649Y42793D1*
X68723Y43003D1*
X68698Y43224D1*
X68580Y43413D1*
X68226Y43766D1*
G37*
G36*
X69534Y45075D2*
X69346Y45193D1*
X69125Y45218D1*
X68915Y45144D1*
X68757Y44987D1*
X68684Y44777D1*
X68709Y44556D1*
X68827Y44367D1*
X69181Y44014D1*
X69369Y43895D1*
X69590Y43871D1*
X69800Y43944D1*
X69957Y44101D1*
X70031Y44311D1*
X70006Y44533D1*
X69888Y44721D1*
X69534Y45075D1*
G37*
G36*
X70842Y46383D2*
X70654Y46501D1*
X70433Y46526D1*
X70223Y46453D1*
X70065Y46295D1*
X69992Y46085D1*
X70017Y45864D1*
X70135Y45676D1*
X70489Y45322D1*
X70677Y45204D1*
X70898Y45179D1*
X71108Y45252D1*
X71266Y45410D1*
X71339Y45620D1*
X71314Y45841D1*
X71196Y46029D1*
X70842Y46383D1*
G37*
G36*
X67307Y49918D2*
X67118Y50037D1*
X66897Y50062D1*
X66687Y49988D1*
X66530Y49831D1*
X66456Y49621D1*
X66481Y49400D1*
X66600Y49211D1*
X66953Y48858D1*
X67142Y48739D1*
X67363Y48714D1*
X67573Y48788D1*
X67730Y48945D1*
X67804Y49155D1*
X67779Y49376D1*
X67660Y49565D1*
X67307Y49918D1*
G37*
G36*
X65999Y48610D2*
X65810Y48728D1*
X65589Y48753D1*
X65379Y48680D1*
X65222Y48523D1*
X65148Y48313D1*
X65173Y48091D1*
X65291Y47903D1*
X65645Y47549D1*
X65833Y47431D1*
X66055Y47406D1*
X66265Y47480D1*
X66422Y47637D1*
X66495Y47847D1*
X66471Y48068D1*
X66352Y48257D1*
X65999Y48610D1*
G37*
G36*
X64690Y47302D2*
X64502Y47420D1*
X64281Y47445D1*
X64071Y47372D1*
X63914Y47214D1*
X63840Y47004D1*
X63865Y46783D1*
X63983Y46595D1*
X64337Y46241D1*
X64525Y46123D1*
X64746Y46098D1*
X64956Y46171D1*
X65114Y46329D1*
X65187Y46539D1*
X65162Y46760D1*
X65044Y46948D1*
X64690Y47302D1*
G37*
D35*
X63149Y52098D3*
X64999D3*
X66849D3*
Y57098D3*
X64999D3*
X63149D3*
G36*
X65044Y61882D2*
X65162Y62070D1*
X65187Y62291D1*
X65114Y62501D1*
X64956Y62658D1*
X64746Y62732D1*
X64525Y62707D1*
X64337Y62589D1*
X63983Y62235D1*
X63865Y62047D1*
X63840Y61826D1*
X63914Y61616D1*
X64071Y61458D1*
X64281Y61385D1*
X64502Y61410D1*
X64690Y61528D1*
X65044Y61882D1*
G37*
G36*
X66352Y60573D2*
X66471Y60762D1*
X66495Y60983D1*
X66422Y61193D1*
X66265Y61350D1*
X66055Y61424D1*
X65833Y61399D1*
X65645Y61281D1*
X65291Y60927D1*
X65173Y60739D1*
X65148Y60517D1*
X65222Y60307D1*
X65379Y60150D1*
X65589Y60077D1*
X65810Y60101D1*
X65999Y60220D1*
X66352Y60573D1*
G37*
G36*
X67660Y59265D2*
X67779Y59454D1*
X67804Y59675D1*
X67730Y59885D1*
X67573Y60042D1*
X67363Y60116D1*
X67142Y60091D1*
X66953Y59972D1*
X66600Y59619D1*
X66481Y59430D1*
X66456Y59209D1*
X66530Y58999D1*
X66687Y58842D1*
X66897Y58768D1*
X67118Y58793D1*
X67307Y58912D1*
X67660Y59265D1*
G37*
G36*
X71196Y62801D2*
X71314Y62989D1*
X71339Y63210D1*
X71266Y63420D1*
X71108Y63578D1*
X70898Y63651D1*
X70677Y63626D1*
X70489Y63508D1*
X70135Y63154D1*
X70017Y62966D1*
X69992Y62745D1*
X70065Y62535D1*
X70223Y62377D1*
X70433Y62304D1*
X70654Y62329D1*
X70842Y62447D1*
X71196Y62801D1*
G37*
G36*
X69888Y64109D2*
X70006Y64297D1*
X70031Y64519D1*
X69957Y64729D1*
X69800Y64886D1*
X69590Y64959D1*
X69369Y64934D1*
X69181Y64816D1*
X68827Y64463D1*
X68709Y64274D1*
X68684Y64053D1*
X68757Y63843D1*
X68915Y63686D1*
X69125Y63612D1*
X69346Y63637D1*
X69534Y63755D1*
X69888Y64109D1*
G37*
G36*
X68580Y65417D2*
X68698Y65606D1*
X68723Y65827D1*
X68649Y66037D1*
X68492Y66194D1*
X68282Y66268D1*
X68061Y66243D1*
X67872Y66124D1*
X67519Y65771D1*
X67400Y65582D1*
X67376Y65361D1*
X67449Y65151D1*
X67606Y64994D1*
X67816Y64920D1*
X68038Y64945D1*
X68226Y65064D1*
X68580Y65417D1*
G37*
D37*
X73959Y67907D3*
Y66057D3*
Y64207D3*
X78959D3*
Y66057D3*
Y67907D3*
G36*
X83984Y65064D2*
X84172Y64945D1*
X84394Y64920D1*
X84604Y64994D1*
X84761Y65151D1*
X84834Y65361D1*
X84810Y65582D1*
X84691Y65771D1*
X84338Y66124D1*
X84149Y66243D1*
X83928Y66268D1*
X83718Y66194D1*
X83561Y66037D1*
X83487Y65827D1*
X83512Y65606D1*
X83631Y65417D1*
X83984Y65064D1*
G37*
G36*
X82676Y63755D2*
X82864Y63637D1*
X83085Y63612D1*
X83296Y63686D1*
X83453Y63843D1*
X83526Y64053D1*
X83501Y64274D1*
X83383Y64463D1*
X83029Y64816D1*
X82841Y64934D1*
X82620Y64959D1*
X82410Y64886D1*
X82253Y64729D1*
X82179Y64519D1*
X82204Y64297D1*
X82322Y64109D1*
X82676Y63755D1*
G37*
G36*
X81368Y62447D2*
X81556Y62329D1*
X81777Y62304D1*
X81987Y62377D1*
X82145Y62535D1*
X82218Y62745D1*
X82193Y62966D1*
X82075Y63154D1*
X81721Y63508D1*
X81533Y63626D1*
X81312Y63651D1*
X81102Y63578D1*
X80944Y63420D1*
X80871Y63210D1*
X80896Y62989D1*
X81014Y62801D1*
X81368Y62447D1*
G37*
G36*
X84903Y58912D2*
X85092Y58793D1*
X85313Y58768D1*
X85523Y58842D1*
X85680Y58999D1*
X85754Y59209D1*
X85729Y59430D1*
X85610Y59619D1*
X85257Y59972D1*
X85068Y60091D1*
X84847Y60116D1*
X84637Y60042D1*
X84480Y59885D1*
X84406Y59675D1*
X84431Y59454D1*
X84550Y59265D1*
X84903Y58912D1*
G37*
G36*
X86211Y60220D2*
X86400Y60101D1*
X86621Y60077D1*
X86831Y60150D1*
X86988Y60307D1*
X87062Y60517D1*
X87037Y60739D1*
X86919Y60927D1*
X86565Y61281D1*
X86377Y61399D1*
X86155Y61424D1*
X85945Y61350D1*
X85788Y61193D1*
X85715Y60983D1*
X85740Y60762D1*
X85858Y60573D1*
X86211Y60220D1*
G37*
G36*
X87520Y61528D2*
X87708Y61410D1*
X87929Y61385D1*
X88139Y61458D1*
X88297Y61616D1*
X88370Y61826D1*
X88345Y62047D1*
X88227Y62235D1*
X87873Y62589D1*
X87685Y62707D1*
X87464Y62732D1*
X87254Y62658D1*
X87096Y62501D1*
X87023Y62291D1*
X87048Y62070D1*
X87166Y61882D1*
X87520Y61528D1*
G37*
G36*
X88439Y68246D2*
X88557Y68434D1*
X88582Y68655D1*
X88509Y68865D1*
X88351Y69023D1*
X88141Y69096D1*
X87920Y69071D1*
X87732Y68953D1*
X87378Y68599D1*
X87260Y68411D1*
X87235Y68190D1*
X87308Y67980D1*
X87466Y67822D1*
X87676Y67749D1*
X87897Y67774D1*
X88085Y67892D1*
X88439Y68246D1*
G37*
G36*
X89747Y66938D2*
X89865Y67126D1*
X89890Y67347D1*
X89817Y67557D1*
X89660Y67715D1*
X89449Y67788D1*
X89228Y67763D1*
X89040Y67645D1*
X88686Y67291D1*
X88568Y67103D1*
X88543Y66882D1*
X88617Y66672D1*
X88774Y66514D1*
X88984Y66441D1*
X89205Y66466D1*
X89393Y66584D1*
X89747Y66938D1*
G37*
G36*
X91055Y65630D2*
X91174Y65818D1*
X91199Y66039D1*
X91125Y66249D1*
X90968Y66406D1*
X90758Y66480D1*
X90537Y66455D1*
X90348Y66337D1*
X89995Y65983D1*
X89876Y65795D1*
X89851Y65574D1*
X89925Y65364D1*
X90082Y65206D1*
X90292Y65133D1*
X90513Y65158D1*
X90702Y65276D1*
X91055Y65630D1*
G37*
G36*
X94591Y69165D2*
X94709Y69354D1*
X94734Y69575D1*
X94661Y69785D1*
X94503Y69942D1*
X94293Y70016D1*
X94072Y69991D1*
X93884Y69872D1*
X93530Y69519D1*
X93412Y69330D1*
X93387Y69109D1*
X93460Y68899D1*
X93618Y68742D1*
X93828Y68668D1*
X94049Y68693D1*
X94237Y68812D1*
X94591Y69165D1*
G37*
G36*
X93283Y70473D2*
X93401Y70662D1*
X93426Y70883D1*
X93352Y71093D1*
X93195Y71250D1*
X92985Y71324D1*
X92764Y71299D1*
X92575Y71180D1*
X92222Y70827D1*
X92104Y70638D1*
X92079Y70417D1*
X92152Y70207D1*
X92309Y70050D1*
X92519Y69976D1*
X92741Y70001D1*
X92929Y70120D1*
X93283Y70473D1*
G37*
G36*
X91974Y71781D2*
X92093Y71970D1*
X92118Y72191D1*
X92044Y72401D1*
X91887Y72558D1*
X91677Y72632D1*
X91456Y72607D1*
X91267Y72488D1*
X90914Y72135D1*
X90795Y71947D1*
X90770Y71725D1*
X90844Y71515D1*
X91001Y71358D1*
X91211Y71285D1*
X91432Y71309D1*
X91621Y71428D1*
X91974Y71781D1*
G37*
G36*
X93742Y74963D2*
X93624Y74775D1*
X93599Y74554D1*
X93672Y74344D1*
X93830Y74186D1*
X94040Y74113D1*
X94261Y74138D1*
X94449Y74256D1*
X94803Y74610D1*
X94921Y74798D1*
X94946Y75019D1*
X94873Y75229D1*
X94715Y75387D1*
X94505Y75460D1*
X94284Y75435D1*
X94096Y75317D1*
X93742Y74963D1*
G37*
G36*
X95050Y73655D2*
X94932Y73467D1*
X94907Y73246D1*
X94981Y73036D1*
X95138Y72878D1*
X95348Y72805D1*
X95569Y72830D1*
X95757Y72948D1*
X96111Y73302D1*
X96229Y73490D1*
X96254Y73711D1*
X96181Y73921D1*
X96024Y74079D1*
X95813Y74152D1*
X95592Y74127D1*
X95404Y74009D1*
X95050Y73655D1*
G37*
G36*
X96359Y72347D2*
X96240Y72159D1*
X96215Y71938D1*
X96289Y71728D1*
X96446Y71570D1*
X96656Y71497D1*
X96877Y71522D1*
X97066Y71640D1*
X97419Y71994D1*
X97538Y72182D1*
X97563Y72403D1*
X97489Y72613D1*
X97332Y72770D1*
X97122Y72844D1*
X96901Y72819D1*
X96712Y72701D1*
X96359Y72347D1*
G37*
G36*
X99894Y75883D2*
X99776Y75694D1*
X99751Y75473D1*
X99824Y75263D1*
X99982Y75106D1*
X100192Y75032D1*
X100413Y75057D1*
X100601Y75176D1*
X100955Y75529D1*
X101073Y75718D1*
X101098Y75939D1*
X101025Y76149D1*
X100867Y76306D1*
X100657Y76380D1*
X100436Y76355D1*
X100248Y76236D1*
X99894Y75883D1*
G37*
G36*
X98586Y77191D2*
X98468Y77002D1*
X98443Y76781D1*
X98516Y76571D1*
X98673Y76414D1*
X98883Y76340D1*
X99105Y76365D1*
X99293Y76484D1*
X99647Y76837D1*
X99765Y77026D1*
X99790Y77247D1*
X99716Y77457D1*
X99559Y77614D1*
X99349Y77688D1*
X99128Y77663D1*
X98939Y77544D1*
X98586Y77191D1*
G37*
G36*
X97278Y78499D2*
X97159Y78311D1*
X97134Y78089D1*
X97208Y77879D1*
X97365Y77722D1*
X97575Y77649D1*
X97796Y77673D1*
X97985Y77792D1*
X98338Y78145D1*
X98457Y78334D1*
X98482Y78555D1*
X98408Y78765D1*
X98251Y78922D1*
X98041Y78996D1*
X97820Y78971D1*
X97631Y78852D1*
X97278Y78499D1*
G37*
G36*
X91098Y74648D2*
X91315Y74698D1*
X91489Y74837D1*
X91586Y75037D1*
Y75260D1*
X91489Y75460D1*
X91315Y75599D1*
X91098Y75648D1*
X90598D1*
X90382Y75599D1*
X90208Y75460D1*
X90111Y75260D1*
Y75037D1*
X90208Y74837D1*
X90382Y74698D1*
X90598Y74648D1*
X91098D1*
G37*
G36*
Y76498D2*
X91315Y76548D1*
X91489Y76687D1*
X91586Y76887D1*
Y77110D1*
X91489Y77310D1*
X91315Y77449D1*
X91098Y77498D1*
X90598D1*
X90382Y77449D1*
X90208Y77310D1*
X90111Y77110D1*
Y76887D1*
X90208Y76687D1*
X90382Y76548D1*
X90598Y76498D1*
X91098D1*
G37*
G36*
Y78348D2*
X91315Y78398D1*
X91489Y78537D1*
X91586Y78737D1*
Y78960D1*
X91489Y79160D1*
X91315Y79299D1*
X91098Y79348D1*
X90598D1*
X90382Y79299D1*
X90208Y79160D1*
X90111Y78960D1*
Y78737D1*
X90208Y78537D1*
X90382Y78398D1*
X90598Y78348D1*
X91098D1*
G37*
G36*
X86098D2*
X86315Y78398D1*
X86489Y78537D1*
X86586Y78737D1*
Y78960D1*
X86489Y79160D1*
X86315Y79299D1*
X86098Y79348D1*
X85598D1*
X85382Y79299D1*
X85208Y79160D1*
X85111Y78960D1*
Y78737D1*
X85208Y78537D1*
X85382Y78398D1*
X85598Y78348D1*
X86098D1*
G37*
G36*
Y76498D2*
X86315Y76548D1*
X86489Y76687D1*
X86586Y76887D1*
Y77110D1*
X86489Y77310D1*
X86315Y77449D1*
X86098Y77498D1*
X85598D1*
X85382Y77449D1*
X85208Y77310D1*
X85111Y77110D1*
Y76887D1*
X85208Y76687D1*
X85382Y76548D1*
X85598Y76498D1*
X86098D1*
G37*
G36*
Y74648D2*
X86315Y74698D1*
X86489Y74837D1*
X86586Y75037D1*
Y75260D1*
X86489Y75460D1*
X86315Y75599D1*
X86098Y75648D1*
X85598D1*
X85382Y75599D1*
X85208Y75460D1*
X85111Y75260D1*
Y75037D1*
X85208Y74837D1*
X85382Y74698D1*
X85598Y74648D1*
X86098D1*
G37*
D35*
X97008Y63746D3*
X98858D3*
X100708D3*
Y68746D3*
X98858D3*
X97008D3*
G36*
X80577Y48372D2*
Y47572D1*
X79577D1*
Y48372D1*
X80577D1*
G37*
G36*
Y50572D2*
Y49772D1*
X79577D1*
Y50572D1*
X80577D1*
G37*
G36*
X73277D2*
Y49772D1*
X72277D1*
Y50572D1*
X73277D1*
G37*
G36*
Y48372D2*
Y47572D1*
X72277D1*
Y48372D1*
X73277D1*
G37*
G36*
X74527Y48072D2*
Y46572D1*
X73827D1*
Y48072D1*
X74527D1*
G37*
G36*
X76027D2*
Y46572D1*
X75327D1*
Y48072D1*
X76027D1*
G37*
G36*
X79027D2*
Y46572D1*
X78327D1*
Y48072D1*
X79027D1*
G37*
D21*
X31045Y33366D3*
Y35066D3*
D20*
X27672Y36678D3*
X29372D3*
G36*
X22427Y41129D2*
X22359Y41123D1*
X22293Y41105D1*
X22231Y41076D1*
X22174Y41037D1*
X22126Y40988D1*
X22086Y40932D1*
X22057Y40870D1*
X22040Y40804D1*
X22034Y40735D1*
D1*
X22040Y40667D1*
X22057Y40601D1*
X22086Y40538D1*
X22126Y40482D1*
X22174Y40434D1*
X22231Y40394D1*
X22293Y40365D1*
X22359Y40347D1*
X22427Y40341D1*
D1*
X22496Y40347D1*
X22562Y40365D1*
X22624Y40394D1*
X22680Y40434D1*
X22729Y40482D1*
X22768Y40538D1*
X22797Y40601D1*
X22815Y40667D1*
X22821Y40735D1*
D1*
X22815Y40804D1*
X22797Y40870D1*
X22768Y40932D1*
X22729Y40988D1*
X22680Y41037D1*
X22624Y41076D1*
X22562Y41105D1*
X22496Y41123D1*
X22427Y41129D1*
G37*
G36*
Y42399D2*
X22359Y42393D1*
X22293Y42375D1*
X22231Y42346D1*
X22174Y42307D1*
X22126Y42258D1*
X22086Y42202D1*
X22057Y42140D1*
X22040Y42074D1*
X22034Y42005D1*
D1*
X22040Y41937D1*
X22057Y41871D1*
X22086Y41808D1*
X22126Y41752D1*
X22174Y41704D1*
X22231Y41664D1*
X22293Y41635D1*
X22359Y41617D1*
X22427Y41611D1*
D1*
X22496Y41617D1*
X22562Y41635D1*
X22624Y41664D1*
X22680Y41704D1*
X22729Y41752D1*
X22768Y41808D1*
X22797Y41871D1*
X22815Y41937D1*
X22821Y42005D1*
D1*
X22815Y42074D1*
X22797Y42140D1*
X22768Y42202D1*
X22729Y42258D1*
X22680Y42307D1*
X22624Y42346D1*
X22562Y42375D1*
X22496Y42393D1*
X22427Y42399D1*
G37*
G36*
Y43669D2*
X22359Y43663D1*
X22293Y43645D1*
X22231Y43616D1*
X22174Y43577D1*
X22126Y43528D1*
X22086Y43472D1*
X22057Y43410D1*
X22040Y43344D1*
X22034Y43275D1*
D1*
X22040Y43207D1*
X22057Y43141D1*
X22086Y43078D1*
X22126Y43022D1*
X22174Y42974D1*
X22231Y42934D1*
X22293Y42905D1*
X22359Y42887D1*
X22427Y42881D1*
D1*
X22496Y42887D1*
X22562Y42905D1*
X22624Y42934D1*
X22680Y42974D1*
X22729Y43022D1*
X22768Y43078D1*
X22797Y43141D1*
X22815Y43207D1*
X22821Y43275D1*
D1*
X22815Y43344D1*
X22797Y43410D1*
X22768Y43472D1*
X22729Y43528D1*
X22680Y43577D1*
X22624Y43616D1*
X22562Y43645D1*
X22496Y43663D1*
X22427Y43669D1*
G37*
G36*
X23697D2*
X23629Y43663D1*
X23563Y43645D1*
X23501Y43616D1*
X23444Y43577D1*
X23396Y43528D1*
X23356Y43472D1*
X23327Y43410D1*
X23310Y43344D1*
X23304Y43275D1*
D1*
X23310Y43207D1*
X23327Y43141D1*
X23356Y43078D1*
X23396Y43022D1*
X23444Y42974D1*
X23501Y42934D1*
X23563Y42905D1*
X23629Y42887D1*
X23697Y42881D1*
D1*
X23766Y42887D1*
X23832Y42905D1*
X23894Y42934D1*
X23950Y42974D1*
X23999Y43022D1*
X24038Y43078D1*
X24067Y43141D1*
X24085Y43207D1*
X24091Y43275D1*
D1*
X24085Y43344D1*
X24067Y43410D1*
X24038Y43472D1*
X23999Y43528D1*
X23950Y43577D1*
X23894Y43616D1*
X23832Y43645D1*
X23766Y43663D1*
X23697Y43669D1*
G37*
G36*
Y42399D2*
X23629Y42393D1*
X23563Y42375D1*
X23501Y42346D1*
X23444Y42307D1*
X23396Y42258D1*
X23356Y42202D1*
X23327Y42140D1*
X23310Y42074D1*
X23304Y42005D1*
D1*
X23310Y41937D1*
X23327Y41871D1*
X23356Y41808D1*
X23396Y41752D1*
X23444Y41704D1*
X23501Y41664D1*
X23563Y41635D1*
X23629Y41617D1*
X23697Y41611D1*
D1*
X23766Y41617D1*
X23832Y41635D1*
X23894Y41664D1*
X23950Y41704D1*
X23999Y41752D1*
X24038Y41808D1*
X24067Y41871D1*
X24085Y41937D1*
X24091Y42005D1*
D1*
X24085Y42074D1*
X24067Y42140D1*
X24038Y42202D1*
X23999Y42258D1*
X23950Y42307D1*
X23894Y42346D1*
X23832Y42375D1*
X23766Y42393D1*
X23697Y42399D1*
G37*
G36*
Y41129D2*
X23629Y41123D1*
X23563Y41105D1*
X23501Y41076D1*
X23444Y41037D1*
X23396Y40988D1*
X23356Y40932D1*
X23327Y40870D1*
X23310Y40804D1*
X23304Y40735D1*
D1*
X23310Y40667D1*
X23327Y40601D1*
X23356Y40538D1*
X23396Y40482D1*
X23444Y40434D1*
X23501Y40394D1*
X23563Y40365D1*
X23629Y40347D1*
X23697Y40341D1*
D1*
X23766Y40347D1*
X23832Y40365D1*
X23894Y40394D1*
X23950Y40434D1*
X23999Y40482D1*
X24038Y40538D1*
X24067Y40601D1*
X24085Y40667D1*
X24091Y40735D1*
D1*
X24085Y40804D1*
X24067Y40870D1*
X24038Y40932D1*
X23999Y40988D1*
X23950Y41037D1*
X23894Y41076D1*
X23832Y41105D1*
X23766Y41123D1*
X23697Y41129D1*
G37*
D40*
X25352Y32841D3*
Y34541D3*
D28*
X26566Y43706D3*
X27066D3*
X27566D3*
X28066D3*
X28566D3*
X29066D3*
D27*
X29866Y44506D3*
Y45006D3*
Y45506D3*
Y46006D3*
Y46506D3*
Y47006D3*
D28*
X29066Y47806D3*
X28566D3*
X28066D3*
X27566D3*
X27066D3*
X26566D3*
D27*
X25766Y47006D3*
Y46506D3*
Y46006D3*
Y45506D3*
Y45006D3*
Y44506D3*
D29*
X26916Y44856D3*
Y45756D3*
Y46656D3*
X27816Y44856D3*
Y45756D3*
Y46656D3*
X28716Y44856D3*
Y45756D3*
Y46656D3*
D30*
X27816Y45756D3*
D44*
X29610Y32896D3*
Y34196D3*
Y35496D3*
X27410D3*
Y34196D3*
Y32896D3*
D37*
X25197Y53189D3*
Y51339D3*
Y49489D3*
X30197D3*
Y51339D3*
Y53189D3*
G36*
X35700Y51648D2*
X35512Y51767D1*
X35290Y51791D1*
X35080Y51718D1*
X34923Y51561D1*
X34850Y51351D1*
X34874Y51129D1*
X34993Y50941D1*
X35346Y50588D1*
X35535Y50469D1*
X35756Y50444D1*
X35966Y50518D1*
X36123Y50675D1*
X36197Y50885D1*
X36172Y51106D1*
X36053Y51295D1*
X35700Y51648D1*
G37*
G36*
X34392Y50340D2*
X34203Y50458D1*
X33982Y50483D1*
X33772Y50410D1*
X33615Y50253D1*
X33541Y50042D1*
X33566Y49821D1*
X33685Y49633D1*
X34038Y49279D1*
X34227Y49161D1*
X34448Y49136D1*
X34658Y49210D1*
X34815Y49367D1*
X34889Y49577D1*
X34864Y49798D1*
X34745Y49986D1*
X34392Y50340D1*
G37*
G36*
X33084Y49032D2*
X32895Y49150D1*
X32674Y49175D1*
X32464Y49102D1*
X32307Y48944D1*
X32233Y48734D1*
X32258Y48513D1*
X32377Y48325D1*
X32730Y47971D1*
X32919Y47853D1*
X33140Y47828D1*
X33350Y47901D1*
X33507Y48059D1*
X33581Y48269D1*
X33556Y48490D1*
X33437Y48678D1*
X33084Y49032D1*
G37*
G36*
X36619Y45496D2*
X36431Y45615D1*
X36210Y45640D1*
X36000Y45566D1*
X35842Y45409D1*
X35769Y45199D1*
X35794Y44978D1*
X35912Y44789D1*
X36266Y44436D1*
X36454Y44317D1*
X36675Y44292D1*
X36885Y44366D1*
X37043Y44523D1*
X37116Y44733D1*
X37091Y44954D1*
X36973Y45143D1*
X36619Y45496D1*
G37*
G36*
X37927Y46805D2*
X37739Y46923D1*
X37518Y46948D1*
X37308Y46874D1*
X37150Y46717D1*
X37077Y46507D1*
X37102Y46286D1*
X37220Y46097D1*
X37574Y45744D1*
X37762Y45625D1*
X37983Y45601D1*
X38193Y45674D1*
X38351Y45831D1*
X38424Y46041D1*
X38399Y46263D1*
X38281Y46451D1*
X37927Y46805D1*
G37*
G36*
X39235Y48113D2*
X39047Y48231D1*
X38826Y48256D1*
X38616Y48182D1*
X38459Y48025D1*
X38385Y47815D1*
X38410Y47594D1*
X38528Y47406D1*
X38882Y47052D1*
X39070Y46934D1*
X39291Y46909D1*
X39501Y46982D1*
X39659Y47140D1*
X39732Y47350D1*
X39707Y47571D1*
X39589Y47759D1*
X39235Y48113D1*
G37*
D35*
X41006Y42380D3*
X39156D3*
X37306D3*
Y37380D3*
X39156D3*
X41006D3*
G36*
X39589Y31294D2*
X39707Y31482D1*
X39732Y31703D1*
X39659Y31913D1*
X39501Y32071D1*
X39291Y32144D1*
X39070Y32119D1*
X38882Y32001D1*
X38528Y31647D1*
X38410Y31459D1*
X38385Y31238D1*
X38459Y31028D1*
X38616Y30870D1*
X38826Y30797D1*
X39047Y30822D1*
X39235Y30940D1*
X39589Y31294D1*
G37*
G36*
X38281Y32602D2*
X38399Y32790D1*
X38424Y33011D1*
X38351Y33222D1*
X38193Y33379D1*
X37983Y33452D1*
X37762Y33427D1*
X37574Y33309D1*
X37220Y32955D1*
X37102Y32767D1*
X37077Y32546D1*
X37150Y32336D1*
X37308Y32179D1*
X37518Y32105D1*
X37739Y32130D1*
X37927Y32248D1*
X38281Y32602D1*
G37*
G36*
X36973Y33910D2*
X37091Y34098D1*
X37116Y34320D1*
X37043Y34530D1*
X36885Y34687D1*
X36675Y34760D1*
X36454Y34736D1*
X36266Y34617D1*
X35912Y34264D1*
X35794Y34075D1*
X35769Y33854D1*
X35842Y33644D1*
X36000Y33487D1*
X36210Y33413D1*
X36431Y33438D1*
X36619Y33557D1*
X36973Y33910D1*
G37*
G36*
X33437Y30375D2*
X33556Y30563D1*
X33580Y30784D1*
X33507Y30994D1*
X33350Y31151D1*
X33140Y31225D1*
X32918Y31200D1*
X32730Y31082D1*
X32377Y30728D1*
X32258Y30540D1*
X32233Y30319D1*
X32307Y30109D1*
X32464Y29951D1*
X32674Y29878D1*
X32895Y29903D1*
X33084Y30021D1*
X33437Y30375D1*
G37*
G36*
X34745Y29066D2*
X34864Y29255D1*
X34889Y29476D1*
X34815Y29686D1*
X34658Y29843D1*
X34448Y29917D1*
X34227Y29892D1*
X34038Y29774D1*
X33685Y29420D1*
X33566Y29232D1*
X33541Y29010D1*
X33615Y28800D1*
X33772Y28643D1*
X33982Y28570D1*
X34203Y28594D1*
X34392Y28713D1*
X34745Y29066D1*
G37*
G36*
X36053Y27758D2*
X36172Y27947D1*
X36197Y28168D1*
X36123Y28378D1*
X35966Y28535D1*
X35756Y28609D1*
X35535Y28584D1*
X35346Y28465D1*
X34993Y28112D1*
X34874Y27923D1*
X34850Y27702D1*
X34923Y27492D1*
X35080Y27335D1*
X35290Y27261D1*
X35512Y27286D1*
X35700Y27405D1*
X36053Y27758D1*
G37*
D37*
X30197Y26571D3*
Y28421D3*
Y30271D3*
X25197D3*
Y28421D3*
Y26571D3*
G36*
X20060Y27405D2*
X20248Y27286D1*
X20469Y27261D1*
X20679Y27335D1*
X20837Y27492D1*
X20910Y27702D1*
X20885Y27923D1*
X20767Y28112D1*
X20413Y28465D1*
X20225Y28584D1*
X20004Y28609D1*
X19794Y28535D1*
X19636Y28378D1*
X19563Y28168D1*
X19588Y27947D1*
X19706Y27758D1*
X20060Y27405D1*
G37*
G36*
X21368Y28713D2*
X21556Y28594D1*
X21777Y28570D1*
X21987Y28643D1*
X22145Y28800D1*
X22218Y29010D1*
X22193Y29232D1*
X22075Y29420D1*
X21721Y29773D1*
X21533Y29892D1*
X21312Y29917D1*
X21102Y29843D1*
X20944Y29686D1*
X20871Y29476D1*
X20896Y29255D1*
X21014Y29066D1*
X21368Y28713D1*
G37*
G36*
X22676Y30021D2*
X22864Y29903D1*
X23085Y29878D1*
X23295Y29951D1*
X23453Y30109D1*
X23526Y30319D1*
X23501Y30540D1*
X23383Y30728D1*
X23029Y31082D1*
X22841Y31200D1*
X22620Y31225D1*
X22410Y31151D1*
X22253Y30994D1*
X22179Y30784D1*
X22204Y30563D1*
X22322Y30375D1*
X22676Y30021D1*
G37*
G36*
X19140Y33557D2*
X19329Y33438D1*
X19550Y33413D1*
X19760Y33487D1*
X19917Y33644D1*
X19991Y33854D1*
X19966Y34075D1*
X19847Y34264D1*
X19494Y34617D1*
X19306Y34736D1*
X19084Y34760D1*
X18874Y34687D1*
X18717Y34530D1*
X18644Y34320D1*
X18668Y34098D1*
X18787Y33910D1*
X19140Y33557D1*
G37*
G36*
X17832Y32248D2*
X18021Y32130D1*
X18242Y32105D1*
X18452Y32179D1*
X18609Y32336D1*
X18683Y32546D1*
X18658Y32767D1*
X18539Y32955D1*
X18186Y33309D1*
X17997Y33427D1*
X17776Y33452D1*
X17566Y33379D1*
X17409Y33221D1*
X17335Y33011D1*
X17360Y32790D1*
X17479Y32602D1*
X17832Y32248D1*
G37*
G36*
X16524Y30940D2*
X16713Y30822D1*
X16934Y30797D1*
X17144Y30870D1*
X17301Y31028D1*
X17375Y31238D1*
X17350Y31459D1*
X17231Y31647D1*
X16878Y32001D1*
X16689Y32119D1*
X16468Y32144D1*
X16258Y32071D1*
X16101Y31913D1*
X16027Y31703D1*
X16052Y31482D1*
X16171Y31294D1*
X16524Y30940D1*
G37*
D35*
X14388Y37380D3*
X16238D3*
X18088D3*
Y42380D3*
X16238D3*
X14388D3*
G36*
X16171Y47759D2*
X16052Y47571D1*
X16027Y47350D1*
X16101Y47139D1*
X16258Y46982D1*
X16468Y46909D1*
X16689Y46934D1*
X16878Y47052D1*
X17231Y47406D1*
X17350Y47594D1*
X17374Y47815D1*
X17301Y48025D1*
X17144Y48182D1*
X16934Y48256D1*
X16712Y48231D1*
X16524Y48113D1*
X16171Y47759D1*
G37*
G36*
X17479Y46451D2*
X17360Y46263D1*
X17335Y46041D1*
X17409Y45831D1*
X17566Y45674D1*
X17776Y45601D1*
X17997Y45625D1*
X18186Y45744D1*
X18539Y46097D1*
X18658Y46286D1*
X18683Y46507D1*
X18609Y46717D1*
X18452Y46874D1*
X18242Y46948D1*
X18021Y46923D1*
X17832Y46804D1*
X17479Y46451D1*
G37*
G36*
X18787Y45143D2*
X18668Y44954D1*
X18644Y44733D1*
X18717Y44523D1*
X18874Y44366D1*
X19084Y44292D1*
X19306Y44317D1*
X19494Y44436D1*
X19847Y44789D1*
X19966Y44978D1*
X19991Y45199D1*
X19917Y45409D1*
X19760Y45566D1*
X19550Y45640D1*
X19329Y45615D1*
X19140Y45496D1*
X18787Y45143D1*
G37*
G36*
X22322Y48678D2*
X22204Y48490D1*
X22179Y48269D1*
X22253Y48059D1*
X22410Y47901D1*
X22620Y47828D1*
X22841Y47853D1*
X23029Y47971D1*
X23383Y48325D1*
X23501Y48513D1*
X23526Y48734D1*
X23453Y48944D1*
X23295Y49102D1*
X23085Y49175D1*
X22864Y49150D1*
X22676Y49032D1*
X22322Y48678D1*
G37*
G36*
X21014Y49986D2*
X20896Y49798D1*
X20871Y49577D1*
X20944Y49367D1*
X21102Y49210D1*
X21312Y49136D1*
X21533Y49161D1*
X21721Y49279D1*
X22075Y49633D1*
X22193Y49821D1*
X22218Y50042D1*
X22145Y50252D1*
X21987Y50410D1*
X21777Y50483D1*
X21556Y50458D1*
X21368Y50340D1*
X21014Y49986D1*
G37*
G36*
X19706Y51295D2*
X19588Y51106D1*
X19563Y50885D1*
X19636Y50675D1*
X19794Y50518D1*
X20004Y50444D1*
X20225Y50469D1*
X20413Y50587D1*
X20767Y50941D1*
X20885Y51129D1*
X20910Y51351D1*
X20837Y51561D1*
X20679Y51718D1*
X20469Y51791D1*
X20248Y51767D1*
X20060Y51648D1*
X19706Y51295D1*
G37*
D35*
X25847Y57839D3*
X27697D3*
X29547D3*
Y62839D3*
X27697D3*
X25847D3*
Y66839D3*
X27697D3*
X29547D3*
Y71839D3*
X27697D3*
X25847D3*
Y75839D3*
X27697D3*
X29547D3*
Y80839D3*
X27697D3*
X25847D3*
X38547Y71839D3*
X36697D3*
X34847D3*
Y66839D3*
X36697D3*
X38547D3*
G36*
X34723Y42999D2*
X33923D1*
Y43999D1*
X34723D1*
Y42999D1*
G37*
G36*
X32523D2*
X31723D1*
Y43999D1*
X32523D1*
Y42999D1*
G37*
G36*
Y35699D2*
X31723D1*
Y36699D1*
X32523D1*
Y35699D1*
G37*
G36*
X34723D2*
X33923D1*
Y36699D1*
X34723D1*
Y35699D1*
G37*
G36*
X35723Y37249D2*
X34223D1*
Y37949D1*
X35723D1*
Y37249D1*
G37*
G36*
Y38749D2*
X34223D1*
Y39449D1*
X35723D1*
Y38749D1*
G37*
G36*
Y41749D2*
X34223D1*
Y42449D1*
X35723D1*
Y41749D1*
G37*
D35*
X16847Y66839D3*
X18697D3*
X20547D3*
Y71839D3*
X18697D3*
X16847D3*
D28*
X53106Y34626D3*
X53606D3*
X54106D3*
X54606D3*
X55106D3*
X55606D3*
D27*
X56406Y35426D3*
Y35926D3*
Y36426D3*
Y36926D3*
Y37426D3*
Y37926D3*
D28*
X55606Y38726D3*
X55106D3*
X54606D3*
X54106D3*
X53606D3*
X53106D3*
D27*
X52306Y37926D3*
Y37426D3*
Y36926D3*
Y36426D3*
Y35926D3*
Y35426D3*
D29*
X53456Y35776D3*
Y36676D3*
Y37576D3*
X54356Y35776D3*
Y36676D3*
Y37576D3*
X55256Y35776D3*
Y36676D3*
Y37576D3*
D30*
X54356Y36676D3*
D32*
X56523Y83909D3*
X55223D3*
X53923D3*
Y81709D3*
X55223D3*
X56523D3*
G36*
X53520Y32483D2*
X53514Y32551D1*
X53496Y32618D1*
X53467Y32680D1*
X53428Y32736D1*
X53379Y32785D1*
X53323Y32824D1*
X53261Y32853D1*
X53195Y32871D1*
X53126Y32877D1*
D1*
X53058Y32871D1*
X52992Y32853D1*
X52930Y32824D1*
X52873Y32785D1*
X52825Y32736D1*
X52785Y32680D1*
X52756Y32618D1*
X52739Y32551D1*
X52733Y32483D1*
D1*
X52739Y32415D1*
X52756Y32348D1*
X52785Y32286D1*
X52825Y32230D1*
X52873Y32181D1*
X52930Y32142D1*
X52992Y32113D1*
X53058Y32095D1*
X53126Y32089D1*
D1*
X53195Y32095D1*
X53261Y32113D1*
X53323Y32142D1*
X53379Y32181D1*
X53428Y32230D1*
X53467Y32286D1*
X53496Y32348D1*
X53514Y32415D1*
X53520Y32483D1*
G37*
G36*
X54790D2*
X54784Y32551D1*
X54766Y32618D1*
X54737Y32680D1*
X54698Y32736D1*
X54649Y32785D1*
X54593Y32824D1*
X54531Y32853D1*
X54465Y32871D1*
X54396Y32877D1*
D1*
X54328Y32871D1*
X54262Y32853D1*
X54200Y32824D1*
X54143Y32785D1*
X54095Y32736D1*
X54055Y32680D1*
X54026Y32618D1*
X54009Y32551D1*
X54003Y32483D1*
D1*
X54009Y32415D1*
X54026Y32348D1*
X54055Y32286D1*
X54095Y32230D1*
X54143Y32181D1*
X54200Y32142D1*
X54262Y32113D1*
X54328Y32095D1*
X54396Y32089D1*
D1*
X54465Y32095D1*
X54531Y32113D1*
X54593Y32142D1*
X54649Y32181D1*
X54698Y32230D1*
X54737Y32286D1*
X54766Y32348D1*
X54784Y32415D1*
X54790Y32483D1*
G37*
G36*
X56060D2*
X56054Y32551D1*
X56036Y32618D1*
X56007Y32680D1*
X55968Y32736D1*
X55919Y32785D1*
X55863Y32824D1*
X55801Y32853D1*
X55735Y32871D1*
X55666Y32877D1*
D1*
X55598Y32871D1*
X55532Y32853D1*
X55470Y32824D1*
X55413Y32785D1*
X55365Y32736D1*
X55325Y32680D1*
X55296Y32618D1*
X55279Y32551D1*
X55273Y32483D1*
D1*
X55279Y32415D1*
X55296Y32348D1*
X55325Y32286D1*
X55365Y32230D1*
X55413Y32181D1*
X55470Y32142D1*
X55532Y32113D1*
X55598Y32095D1*
X55666Y32089D1*
D1*
X55735Y32095D1*
X55801Y32113D1*
X55863Y32142D1*
X55919Y32181D1*
X55968Y32230D1*
X56007Y32286D1*
X56036Y32348D1*
X56054Y32415D1*
X56060Y32483D1*
G37*
G36*
Y31213D2*
X56054Y31281D1*
X56036Y31348D1*
X56007Y31410D1*
X55968Y31466D1*
X55919Y31515D1*
X55863Y31554D1*
X55801Y31583D1*
X55735Y31601D1*
X55666Y31607D1*
D1*
X55598Y31601D1*
X55532Y31583D1*
X55470Y31554D1*
X55413Y31515D1*
X55365Y31466D1*
X55325Y31410D1*
X55296Y31348D1*
X55279Y31281D1*
X55273Y31213D1*
D1*
X55279Y31145D1*
X55296Y31078D1*
X55325Y31016D1*
X55365Y30960D1*
X55413Y30911D1*
X55470Y30872D1*
X55532Y30843D1*
X55598Y30825D1*
X55666Y30819D1*
D1*
X55735Y30825D1*
X55801Y30843D1*
X55863Y30872D1*
X55919Y30911D1*
X55968Y30960D1*
X56007Y31016D1*
X56036Y31078D1*
X56054Y31145D1*
X56060Y31213D1*
G37*
G36*
X54790D2*
X54784Y31281D1*
X54766Y31348D1*
X54737Y31410D1*
X54698Y31466D1*
X54649Y31515D1*
X54593Y31554D1*
X54531Y31583D1*
X54465Y31601D1*
X54396Y31607D1*
D1*
X54328Y31601D1*
X54262Y31583D1*
X54200Y31554D1*
X54143Y31515D1*
X54095Y31466D1*
X54055Y31410D1*
X54026Y31348D1*
X54009Y31281D1*
X54003Y31213D1*
D1*
X54009Y31145D1*
X54026Y31078D1*
X54055Y31016D1*
X54095Y30960D1*
X54143Y30911D1*
X54200Y30872D1*
X54262Y30843D1*
X54328Y30825D1*
X54396Y30819D1*
D1*
X54465Y30825D1*
X54531Y30843D1*
X54593Y30872D1*
X54649Y30911D1*
X54698Y30960D1*
X54737Y31016D1*
X54766Y31078D1*
X54784Y31145D1*
X54790Y31213D1*
G37*
G36*
X53520D2*
X53514Y31281D1*
X53496Y31348D1*
X53467Y31410D1*
X53428Y31466D1*
X53379Y31515D1*
X53323Y31554D1*
X53261Y31583D1*
X53195Y31601D1*
X53126Y31607D1*
D1*
X53058Y31601D1*
X52992Y31583D1*
X52930Y31554D1*
X52873Y31515D1*
X52825Y31466D1*
X52785Y31410D1*
X52756Y31348D1*
X52739Y31281D1*
X52733Y31213D1*
D1*
X52739Y31145D1*
X52756Y31078D1*
X52785Y31016D1*
X52825Y30960D1*
X52873Y30911D1*
X52930Y30872D1*
X52992Y30843D1*
X53058Y30825D1*
X53126Y30819D1*
D1*
X53195Y30825D1*
X53261Y30843D1*
X53323Y30872D1*
X53379Y30911D1*
X53428Y30960D1*
X53467Y31016D1*
X53496Y31078D1*
X53514Y31145D1*
X53520Y31213D1*
G37*
D35*
X52506Y42176D3*
X54356D3*
X56206D3*
Y47176D3*
X54356D3*
X52506D3*
D20*
X56053Y85344D3*
X54353D3*
D21*
X52741Y81971D3*
Y83671D3*
D22*
X56578Y79651D3*
X54878D3*
D35*
X52506Y51176D3*
X54356D3*
X56206D3*
Y56176D3*
X54356D3*
X52506D3*
Y60176D3*
X54356D3*
X56206D3*
Y65176D3*
X54356D3*
X52506D3*
Y69176D3*
X54356D3*
X56206D3*
Y74176D3*
X54356D3*
X52506D3*
D37*
X47856Y78826D3*
Y80676D3*
Y82526D3*
X42856D3*
Y80676D3*
Y78826D3*
X38856D3*
Y80676D3*
Y82526D3*
X33856D3*
Y80676D3*
Y78826D3*
D35*
X52506Y87176D3*
X54356D3*
X56206D3*
Y92176D3*
X54356D3*
X52506D3*
Y96176D3*
X54356D3*
X56206D3*
Y101176D3*
X54356D3*
X52506D3*
D37*
X60856Y82526D3*
Y80676D3*
Y78826D3*
X65856D3*
Y80676D3*
Y82526D3*
X69856D3*
Y80676D3*
Y78826D3*
X74856D3*
Y80676D3*
Y82526D3*
D46*
X77516Y53414D3*
Y54714D3*
D47*
X27473Y40847D3*
X28773D3*
X56163Y40013D3*
X54863D3*
D49*
X73181Y60590D3*
X72681D3*
X72181D3*
X71681D3*
D50*
Y60090D3*
Y59590D3*
D49*
Y59090D3*
X72181D3*
X72681D3*
X73181D3*
D50*
Y59590D3*
Y60090D3*
D21*
X73765Y57854D3*
Y56154D3*
D46*
X72559Y57871D3*
Y56571D3*
X75035Y58009D3*
Y56709D3*
X70709Y60231D3*
Y58931D3*
X74199Y60548D3*
Y59248D3*
D47*
X75339Y61847D3*
X74039D3*
D50*
X21819Y37208D3*
Y36708D3*
Y36208D3*
Y35708D3*
D49*
X22319D3*
X22819D3*
D50*
X23319D3*
Y36208D3*
Y36708D3*
Y37208D3*
D49*
X22819D3*
X22319D3*
D20*
X24554Y37793D3*
X26254D3*
D47*
X24562Y36536D3*
X25862D3*
X24399Y39063D3*
X25699D3*
X22178Y34737D3*
X23478D3*
X21861Y38226D3*
X23161D3*
D46*
X20575Y39367D3*
Y38067D3*
D49*
X51594Y80070D3*
X51094D3*
X50594D3*
X50094D3*
D50*
Y79570D3*
Y79070D3*
D49*
Y78570D3*
X50594D3*
X51094D3*
X51594D3*
D50*
Y79070D3*
Y79570D3*
D21*
X52178Y77335D3*
Y75635D3*
D46*
X50521Y77281D3*
Y75981D3*
X53448Y77490D3*
Y76190D3*
X49122Y79712D3*
Y78412D3*
X52612Y80029D3*
Y78729D3*
X50231Y82796D3*
Y81496D3*
M02*
