%FSLAX25Y25*%
%MOIN*%
G70*
G01*
G75*
G04 Layer_Physical_Order=1*
G04 Layer_Color=255*
%ADD10R,0.05118X0.12992*%
%ADD11R,0.01969X0.12992*%
%ADD12R,0.01575X0.01969*%
%ADD13R,0.04331X0.03543*%
%ADD14R,0.03543X0.04331*%
%ADD15C,0.01000*%
%ADD16R,0.05906X0.05906*%
%ADD17C,0.05906*%
%ADD18R,0.05906X0.05906*%
%ADD19C,0.05000*%
%ADD20C,0.14950*%
D10*
X172000Y230000D02*
D03*
X288000Y270000D02*
D03*
X172000Y310000D02*
D03*
X288000Y230000D02*
D03*
X172000Y270000D02*
D03*
X288000Y310000D02*
D03*
D11*
X177512Y230000D02*
D03*
X166488D02*
D03*
X282488Y270000D02*
D03*
X293512D02*
D03*
X177512Y310000D02*
D03*
X166488D02*
D03*
X282488Y230000D02*
D03*
X293512D02*
D03*
X177512Y270000D02*
D03*
X166488D02*
D03*
X282488Y310000D02*
D03*
X293512D02*
D03*
D12*
X179283Y230000D02*
D03*
X164716D02*
D03*
X280716Y270000D02*
D03*
X295284D02*
D03*
X179283Y310000D02*
D03*
X164716D02*
D03*
X280716Y230000D02*
D03*
X295284D02*
D03*
X179283Y270000D02*
D03*
X164716D02*
D03*
X280716Y310000D02*
D03*
X295284D02*
D03*
D13*
X168000Y216000D02*
D03*
X175874D02*
D03*
X292000D02*
D03*
X284126D02*
D03*
X292000Y256000D02*
D03*
X284126D02*
D03*
X168000D02*
D03*
X175874D02*
D03*
X168000Y296000D02*
D03*
X175874D02*
D03*
X292000D02*
D03*
X284126D02*
D03*
D14*
X250000Y302000D02*
D03*
Y309874D02*
D03*
D15*
X175874Y289126D02*
Y296000D01*
Y248974D02*
Y256000D01*
Y208974D02*
Y216000D01*
X284126Y248926D02*
Y256000D01*
Y209026D02*
Y216000D01*
X293512Y297512D02*
Y310000D01*
Y217512D02*
Y230000D01*
X166488Y297512D02*
Y310000D01*
Y257512D02*
Y270000D01*
Y217512D02*
Y230000D01*
X284126Y289026D02*
Y296000D01*
X280000Y310000D02*
X280716D01*
X260000Y260000D02*
X270717D01*
X280716Y270000D01*
X282488D01*
X280000Y230000D02*
X280716D01*
X282488D01*
X245126Y305000D02*
X250000Y309874D01*
X259874D01*
X260000Y290000D02*
X280000Y310000D01*
X280716D01*
X282488D01*
X230000Y305000D02*
Y310000D01*
Y305000D02*
X245126D01*
X249000Y303000D02*
X250000Y302000D01*
X258000D01*
X260000Y300000D01*
X220000Y303000D02*
Y310000D01*
Y303000D02*
X249000D01*
X235000Y280000D02*
X260000D01*
X210000Y305000D02*
X235000Y280000D01*
X179283Y310000D02*
X184283Y305000D01*
X177512Y310000D02*
X179283D01*
Y270000D02*
X184283Y275000D01*
X210000D01*
X215000Y270000D01*
X293512Y257512D02*
Y270000D01*
X260000Y250000D02*
X280000Y230000D01*
X184283Y305000D02*
X210000D01*
X215000Y270000D02*
X260000D01*
X184283Y235000D02*
X210000D01*
X179283Y230000D02*
X184283Y235000D01*
X210000D02*
X215000Y240000D01*
X260000D01*
D16*
X200000Y200000D02*
D03*
X260000D02*
D03*
D17*
X200000Y210000D02*
D03*
Y220000D02*
D03*
Y230000D02*
D03*
Y240000D02*
D03*
Y250000D02*
D03*
Y260000D02*
D03*
Y270000D02*
D03*
Y280000D02*
D03*
Y290000D02*
D03*
Y300000D02*
D03*
Y310000D02*
D03*
Y320000D02*
D03*
Y330000D02*
D03*
Y340000D02*
D03*
X260000Y210000D02*
D03*
Y220000D02*
D03*
Y230000D02*
D03*
Y240000D02*
D03*
Y250000D02*
D03*
Y260000D02*
D03*
Y270000D02*
D03*
Y280000D02*
D03*
Y290000D02*
D03*
Y300000D02*
D03*
Y310000D02*
D03*
Y320000D02*
D03*
Y330000D02*
D03*
Y340000D02*
D03*
X240000Y233500D02*
D03*
X230000D02*
D03*
X220000Y310000D02*
D03*
X230000D02*
D03*
D18*
X220000Y233500D02*
D03*
X240000Y310000D02*
D03*
D19*
X175874Y289126D02*
D03*
Y248974D02*
D03*
Y208974D02*
D03*
X284126Y248926D02*
D03*
Y209026D02*
D03*
Y289026D02*
D03*
D20*
X170000Y345000D02*
D03*
X292520D02*
D03*
X290000Y195000D02*
D03*
X170000D02*
D03*
M02*
