G04 (created by PCBNEW (2013-04-19 BZR 4011)-stable) date 06/06/2013 13:50:22*
%MOIN*%
G04 Gerber Fmt 3.4, Leading zero omitted, Abs format*
%FSLAX34Y34*%
G01*
G70*
G90*
G04 APERTURE LIST*
%ADD10C,2.3622e-006*%
%ADD11R,0.144X0.08*%
%ADD12R,0.04X0.08*%
%ADD13R,0.055X0.055*%
%ADD14C,0.055*%
%ADD15R,0.06X0.06*%
%ADD16C,0.06*%
%ADD17C,0.25*%
%ADD18R,0.055X0.035*%
%ADD19R,0.035X0.055*%
%ADD20R,0.1X0.05*%
%ADD21C,0.035*%
%ADD22C,0.025*%
%ADD23C,0.008*%
%ADD24C,0.01*%
G04 APERTURE END LIST*
G54D10*
G54D11*
X18500Y-13300D03*
G54D12*
X18500Y-15900D03*
X19400Y-15900D03*
X17600Y-15900D03*
G54D13*
X13400Y-16100D03*
G54D14*
X14400Y-16100D03*
X15400Y-16100D03*
X16400Y-16100D03*
X16400Y-13100D03*
X15400Y-13100D03*
X14400Y-13100D03*
X13400Y-13100D03*
G54D15*
X14400Y-19300D03*
G54D16*
X14400Y-18300D03*
X14400Y-17300D03*
G54D15*
X15400Y-19300D03*
G54D16*
X15400Y-18300D03*
X15400Y-17300D03*
G54D15*
X16400Y-17300D03*
G54D16*
X17400Y-17300D03*
G54D15*
X20460Y-15380D03*
G54D16*
X20460Y-16380D03*
G54D15*
X14400Y-11900D03*
G54D16*
X14400Y-10900D03*
X15400Y-11900D03*
X15400Y-10900D03*
X16400Y-11900D03*
X16400Y-10900D03*
G54D17*
X12400Y-18600D03*
X19600Y-18600D03*
X19600Y-11400D03*
X12400Y-11400D03*
G54D18*
X17700Y-11475D03*
X17700Y-10725D03*
G54D19*
X12275Y-15300D03*
X11525Y-15300D03*
G54D18*
X20480Y-13855D03*
X20480Y-13105D03*
G54D19*
X11525Y-16500D03*
X12275Y-16500D03*
G54D20*
X17600Y-18300D03*
X17600Y-19500D03*
G54D21*
X12700Y-16800D03*
X18200Y-10400D03*
X16800Y-19500D03*
X11540Y-14700D03*
X19940Y-13120D03*
G54D22*
X14400Y-16100D02*
X14400Y-17300D01*
X15400Y-16100D02*
X15400Y-17300D01*
G54D23*
X16400Y-13100D02*
X16400Y-12900D01*
X15900Y-11400D02*
X15400Y-10900D01*
X15900Y-12400D02*
X15900Y-11400D01*
X16400Y-12900D02*
X15900Y-12400D01*
G54D22*
X13400Y-16100D02*
X13400Y-15480D01*
X16400Y-12120D02*
X16400Y-11900D01*
X17100Y-12820D02*
X16400Y-12120D01*
X17100Y-13860D02*
X17100Y-12820D01*
X16640Y-14320D02*
X17100Y-13860D01*
X14560Y-14320D02*
X16640Y-14320D01*
X13400Y-15480D02*
X14560Y-14320D01*
X12275Y-16500D02*
X12275Y-15300D01*
X12275Y-16500D02*
X12400Y-16500D01*
X12400Y-16500D02*
X12700Y-16800D01*
X15400Y-11900D02*
X15400Y-12000D01*
X14500Y-12900D02*
X14400Y-12900D01*
X15400Y-12000D02*
X14500Y-12900D01*
X14400Y-12900D02*
X14400Y-13100D01*
X20460Y-15380D02*
X20460Y-13875D01*
X20460Y-13875D02*
X20480Y-13855D01*
X19700Y-15380D02*
X20460Y-15380D01*
X19400Y-15680D02*
X19700Y-15380D01*
X17600Y-18300D02*
X17600Y-17500D01*
X17600Y-17500D02*
X17400Y-17300D01*
X17700Y-10725D02*
X17875Y-10725D01*
X17875Y-10725D02*
X18200Y-10400D01*
X17600Y-15900D02*
X16600Y-15900D01*
X16600Y-15900D02*
X16400Y-16100D01*
X17600Y-19500D02*
X16800Y-19500D01*
X11525Y-15300D02*
X11525Y-14715D01*
X11525Y-14715D02*
X11540Y-14700D01*
X20480Y-13105D02*
X19955Y-13105D01*
X19955Y-13105D02*
X19940Y-13120D01*
G54D10*
G36*
X16870Y-12201D02*
X16793Y-12124D01*
X16849Y-11989D01*
X16850Y-11810D01*
X16850Y-10810D01*
X16781Y-10645D01*
X16655Y-10518D01*
X16489Y-10450D01*
X16310Y-10449D01*
X16145Y-10518D01*
X16018Y-10644D01*
X15950Y-10810D01*
X15949Y-10989D01*
X16018Y-11154D01*
X16144Y-11281D01*
X16310Y-11349D01*
X16489Y-11350D01*
X16654Y-11281D01*
X16781Y-11155D01*
X16849Y-10989D01*
X16850Y-10810D01*
X16850Y-11810D01*
X16781Y-11645D01*
X16655Y-11518D01*
X16489Y-11450D01*
X16310Y-11449D01*
X16145Y-11518D01*
X16090Y-11573D01*
X16090Y-11400D01*
X16075Y-11327D01*
X16034Y-11265D01*
X15823Y-11054D01*
X15849Y-10989D01*
X15850Y-10810D01*
X15781Y-10645D01*
X15655Y-10518D01*
X15489Y-10450D01*
X15310Y-10449D01*
X15145Y-10518D01*
X15018Y-10644D01*
X14950Y-10810D01*
X14950Y-10886D01*
X14943Y-10763D01*
X14881Y-10612D01*
X14785Y-10584D01*
X14715Y-10655D01*
X14715Y-10514D01*
X14687Y-10418D01*
X14481Y-10345D01*
X14263Y-10356D01*
X14112Y-10418D01*
X14084Y-10514D01*
X14400Y-10829D01*
X14715Y-10514D01*
X14715Y-10655D01*
X14470Y-10900D01*
X14785Y-11215D01*
X14881Y-11187D01*
X14951Y-10992D01*
X15018Y-11154D01*
X15144Y-11281D01*
X15310Y-11349D01*
X15489Y-11350D01*
X15554Y-11323D01*
X15710Y-11478D01*
X15710Y-11573D01*
X15655Y-11518D01*
X15489Y-11450D01*
X15310Y-11449D01*
X15145Y-11518D01*
X15018Y-11644D01*
X14950Y-11810D01*
X14949Y-11989D01*
X14970Y-12040D01*
X14850Y-12161D01*
X14850Y-11570D01*
X14827Y-11515D01*
X14785Y-11472D01*
X14729Y-11450D01*
X14670Y-11449D01*
X14414Y-11449D01*
X14536Y-11443D01*
X14687Y-11381D01*
X14715Y-11285D01*
X14400Y-10970D01*
X14329Y-11041D01*
X14329Y-10900D01*
X14014Y-10584D01*
X13918Y-10612D01*
X13845Y-10818D01*
X13856Y-11036D01*
X13918Y-11187D01*
X14014Y-11215D01*
X14329Y-10900D01*
X14329Y-11041D01*
X14084Y-11285D01*
X14112Y-11381D01*
X14304Y-11449D01*
X14070Y-11449D01*
X14015Y-11472D01*
X13972Y-11514D01*
X13950Y-11570D01*
X13949Y-11629D01*
X13949Y-12229D01*
X13972Y-12284D01*
X14014Y-12327D01*
X14070Y-12349D01*
X14129Y-12350D01*
X14661Y-12350D01*
X14382Y-12628D01*
X14294Y-12645D01*
X14205Y-12705D01*
X14191Y-12726D01*
X14159Y-12739D01*
X14039Y-12858D01*
X13975Y-13015D01*
X13974Y-13184D01*
X14039Y-13340D01*
X14158Y-13460D01*
X14315Y-13524D01*
X14484Y-13525D01*
X14640Y-13460D01*
X14760Y-13341D01*
X14824Y-13184D01*
X14825Y-13015D01*
X14809Y-12979D01*
X15438Y-12350D01*
X15489Y-12350D01*
X15654Y-12281D01*
X15710Y-12226D01*
X15710Y-12400D01*
X15724Y-12472D01*
X15765Y-12534D01*
X16065Y-12833D01*
X16039Y-12858D01*
X15975Y-13015D01*
X15974Y-13184D01*
X16039Y-13340D01*
X16158Y-13460D01*
X16315Y-13524D01*
X16484Y-13525D01*
X16640Y-13460D01*
X16760Y-13341D01*
X16824Y-13184D01*
X16825Y-13099D01*
X16825Y-13746D01*
X16526Y-14045D01*
X15825Y-14045D01*
X15825Y-13015D01*
X15760Y-12859D01*
X15641Y-12739D01*
X15484Y-12675D01*
X15315Y-12674D01*
X15159Y-12739D01*
X15039Y-12858D01*
X14975Y-13015D01*
X14974Y-13184D01*
X15039Y-13340D01*
X15158Y-13460D01*
X15315Y-13524D01*
X15484Y-13525D01*
X15640Y-13460D01*
X15760Y-13341D01*
X15824Y-13184D01*
X15825Y-13015D01*
X15825Y-14045D01*
X14560Y-14045D01*
X14454Y-14065D01*
X14365Y-14125D01*
X14365Y-14125D01*
X14365Y-14125D01*
X13929Y-14561D01*
X13929Y-13175D01*
X13918Y-12967D01*
X13860Y-12827D01*
X13767Y-12802D01*
X13697Y-12873D01*
X13697Y-12732D01*
X13672Y-12639D01*
X13475Y-12570D01*
X13267Y-12581D01*
X13127Y-12639D01*
X13102Y-12732D01*
X13400Y-13029D01*
X13697Y-12732D01*
X13697Y-12873D01*
X13470Y-13100D01*
X13767Y-13397D01*
X13860Y-13372D01*
X13929Y-13175D01*
X13929Y-14561D01*
X13697Y-14794D01*
X13697Y-13467D01*
X13400Y-13170D01*
X13329Y-13241D01*
X13329Y-13100D01*
X13032Y-12802D01*
X12939Y-12827D01*
X12870Y-13024D01*
X12881Y-13232D01*
X12939Y-13372D01*
X13032Y-13397D01*
X13329Y-13100D01*
X13329Y-13241D01*
X13102Y-13467D01*
X13127Y-13560D01*
X13324Y-13629D01*
X13532Y-13618D01*
X13672Y-13560D01*
X13697Y-13467D01*
X13697Y-14794D01*
X13205Y-15285D01*
X13145Y-15374D01*
X13125Y-15480D01*
X13125Y-15674D01*
X13095Y-15674D01*
X13040Y-15697D01*
X12997Y-15739D01*
X12975Y-15795D01*
X12974Y-15854D01*
X12974Y-16404D01*
X12997Y-16459D01*
X13039Y-16502D01*
X13095Y-16524D01*
X13154Y-16525D01*
X13704Y-16525D01*
X13759Y-16502D01*
X13802Y-16460D01*
X13824Y-16404D01*
X13825Y-16345D01*
X13825Y-15795D01*
X13802Y-15740D01*
X13760Y-15697D01*
X13704Y-15675D01*
X13675Y-15674D01*
X13675Y-15593D01*
X14673Y-14595D01*
X16640Y-14595D01*
X16745Y-14574D01*
X16745Y-14574D01*
X16834Y-14514D01*
X16850Y-14498D01*
X16850Y-15625D01*
X16600Y-15625D01*
X16494Y-15645D01*
X16451Y-15675D01*
X16451Y-15675D01*
X16315Y-15674D01*
X16159Y-15739D01*
X16039Y-15858D01*
X15975Y-16015D01*
X15974Y-16184D01*
X16039Y-16340D01*
X16158Y-16460D01*
X16315Y-16524D01*
X16484Y-16525D01*
X16640Y-16460D01*
X16760Y-16341D01*
X16824Y-16184D01*
X16824Y-16175D01*
X16850Y-16175D01*
X16850Y-16500D01*
X16850Y-16796D01*
X16841Y-16787D01*
X16749Y-16749D01*
X16512Y-16750D01*
X16450Y-16812D01*
X16450Y-17250D01*
X16457Y-17250D01*
X16457Y-17350D01*
X16450Y-17350D01*
X16450Y-17787D01*
X16512Y-17850D01*
X16749Y-17850D01*
X16841Y-17812D01*
X16850Y-17803D01*
X16850Y-17900D01*
X16850Y-19175D01*
X16735Y-19174D01*
X16616Y-19224D01*
X16524Y-19315D01*
X16475Y-19435D01*
X16474Y-19564D01*
X16524Y-19683D01*
X16615Y-19775D01*
X16662Y-19795D01*
X16350Y-19795D01*
X16350Y-17787D01*
X16350Y-17350D01*
X16350Y-17250D01*
X16350Y-16812D01*
X16287Y-16750D01*
X16050Y-16749D01*
X15958Y-16787D01*
X15888Y-16858D01*
X15850Y-16950D01*
X15849Y-17049D01*
X15850Y-17187D01*
X15912Y-17250D01*
X16350Y-17250D01*
X16350Y-17350D01*
X15912Y-17350D01*
X15850Y-17412D01*
X15850Y-17210D01*
X15781Y-17045D01*
X15675Y-16938D01*
X15675Y-16425D01*
X15760Y-16341D01*
X15824Y-16184D01*
X15825Y-16015D01*
X15760Y-15859D01*
X15641Y-15739D01*
X15484Y-15675D01*
X15315Y-15674D01*
X15159Y-15739D01*
X15039Y-15858D01*
X14975Y-16015D01*
X14974Y-16184D01*
X15039Y-16340D01*
X15125Y-16426D01*
X15125Y-16938D01*
X15018Y-17044D01*
X14950Y-17210D01*
X14949Y-17389D01*
X15018Y-17554D01*
X15144Y-17681D01*
X15310Y-17749D01*
X15386Y-17749D01*
X15263Y-17756D01*
X15112Y-17818D01*
X15084Y-17914D01*
X15400Y-18229D01*
X15715Y-17914D01*
X15687Y-17818D01*
X15492Y-17748D01*
X15654Y-17681D01*
X15781Y-17555D01*
X15849Y-17389D01*
X15850Y-17210D01*
X15850Y-17412D01*
X15850Y-17412D01*
X15849Y-17550D01*
X15850Y-17649D01*
X15888Y-17741D01*
X15958Y-17812D01*
X16050Y-17850D01*
X16287Y-17850D01*
X16350Y-17787D01*
X16350Y-19795D01*
X15954Y-19795D01*
X15954Y-18381D01*
X15943Y-18163D01*
X15881Y-18012D01*
X15785Y-17984D01*
X15470Y-18300D01*
X15785Y-18615D01*
X15881Y-18587D01*
X15954Y-18381D01*
X15954Y-19795D01*
X15850Y-19795D01*
X15850Y-19570D01*
X15850Y-18970D01*
X15827Y-18915D01*
X15785Y-18872D01*
X15729Y-18850D01*
X15670Y-18849D01*
X15414Y-18849D01*
X15536Y-18843D01*
X15687Y-18781D01*
X15715Y-18685D01*
X15400Y-18370D01*
X15329Y-18441D01*
X15329Y-18300D01*
X15014Y-17984D01*
X14918Y-18012D01*
X14901Y-18060D01*
X14881Y-18012D01*
X14850Y-18003D01*
X14850Y-17210D01*
X14781Y-17045D01*
X14675Y-16938D01*
X14675Y-16425D01*
X14760Y-16341D01*
X14824Y-16184D01*
X14825Y-16015D01*
X14760Y-15859D01*
X14641Y-15739D01*
X14484Y-15675D01*
X14315Y-15674D01*
X14159Y-15739D01*
X14039Y-15858D01*
X13975Y-16015D01*
X13974Y-16184D01*
X14039Y-16340D01*
X14125Y-16426D01*
X14125Y-16938D01*
X14018Y-17044D01*
X13950Y-17210D01*
X13949Y-17389D01*
X14018Y-17554D01*
X14144Y-17681D01*
X14310Y-17749D01*
X14386Y-17749D01*
X14263Y-17756D01*
X14112Y-17818D01*
X14084Y-17914D01*
X14400Y-18229D01*
X14715Y-17914D01*
X14687Y-17818D01*
X14492Y-17748D01*
X14654Y-17681D01*
X14781Y-17555D01*
X14849Y-17389D01*
X14850Y-17210D01*
X14850Y-18003D01*
X14785Y-17984D01*
X14470Y-18300D01*
X14785Y-18615D01*
X14881Y-18587D01*
X14898Y-18539D01*
X14918Y-18587D01*
X15014Y-18615D01*
X15329Y-18300D01*
X15329Y-18441D01*
X15084Y-18685D01*
X15112Y-18781D01*
X15304Y-18849D01*
X15070Y-18849D01*
X15015Y-18872D01*
X14972Y-18914D01*
X14950Y-18970D01*
X14949Y-19029D01*
X14949Y-19629D01*
X14972Y-19684D01*
X15014Y-19727D01*
X15070Y-19749D01*
X15129Y-19750D01*
X15729Y-19750D01*
X15784Y-19727D01*
X15827Y-19685D01*
X15849Y-19629D01*
X15850Y-19570D01*
X15850Y-19795D01*
X14850Y-19795D01*
X14850Y-19570D01*
X14850Y-18970D01*
X14827Y-18915D01*
X14785Y-18872D01*
X14729Y-18850D01*
X14670Y-18849D01*
X14414Y-18849D01*
X14536Y-18843D01*
X14687Y-18781D01*
X14715Y-18685D01*
X14400Y-18370D01*
X14329Y-18441D01*
X14329Y-18300D01*
X14014Y-17984D01*
X13918Y-18012D01*
X13845Y-18218D01*
X13856Y-18436D01*
X13918Y-18587D01*
X14014Y-18615D01*
X14329Y-18300D01*
X14329Y-18441D01*
X14084Y-18685D01*
X14112Y-18781D01*
X14304Y-18849D01*
X14070Y-18849D01*
X14015Y-18872D01*
X13972Y-18914D01*
X13950Y-18970D01*
X13949Y-19029D01*
X13949Y-19629D01*
X13972Y-19684D01*
X14014Y-19727D01*
X14070Y-19749D01*
X14129Y-19750D01*
X14729Y-19750D01*
X14784Y-19727D01*
X14827Y-19685D01*
X14849Y-19629D01*
X14850Y-19570D01*
X14850Y-19795D01*
X13173Y-19795D01*
X13192Y-19787D01*
X13586Y-19394D01*
X13799Y-18879D01*
X13800Y-18322D01*
X13587Y-17807D01*
X13194Y-17413D01*
X13025Y-17343D01*
X13025Y-16735D01*
X12975Y-16616D01*
X12884Y-16524D01*
X12764Y-16475D01*
X12763Y-16475D01*
X12600Y-16311D01*
X12600Y-16195D01*
X12577Y-16140D01*
X12550Y-16112D01*
X12550Y-15687D01*
X12577Y-15660D01*
X12599Y-15604D01*
X12600Y-15545D01*
X12600Y-14995D01*
X12577Y-14940D01*
X12535Y-14897D01*
X12479Y-14875D01*
X12420Y-14874D01*
X12070Y-14874D01*
X12015Y-14897D01*
X11972Y-14939D01*
X11950Y-14995D01*
X11949Y-15054D01*
X11949Y-15604D01*
X11972Y-15659D01*
X12000Y-15687D01*
X12000Y-16112D01*
X11972Y-16139D01*
X11950Y-16195D01*
X11949Y-16224D01*
X11949Y-16175D01*
X11911Y-16083D01*
X11841Y-16012D01*
X11749Y-15974D01*
X11637Y-15975D01*
X11575Y-16037D01*
X11575Y-16450D01*
X11582Y-16450D01*
X11582Y-16550D01*
X11575Y-16550D01*
X11575Y-16962D01*
X11637Y-17025D01*
X11749Y-17025D01*
X11841Y-16987D01*
X11911Y-16916D01*
X11949Y-16824D01*
X11949Y-16804D01*
X11949Y-16804D01*
X11972Y-16859D01*
X12014Y-16902D01*
X12070Y-16924D01*
X12129Y-16925D01*
X12400Y-16925D01*
X12424Y-16983D01*
X12515Y-17075D01*
X12635Y-17124D01*
X12764Y-17125D01*
X12883Y-17075D01*
X12975Y-16984D01*
X13024Y-16864D01*
X13025Y-16735D01*
X13025Y-17343D01*
X12679Y-17200D01*
X12122Y-17199D01*
X11607Y-17412D01*
X11213Y-17805D01*
X11205Y-17827D01*
X11205Y-16983D01*
X11208Y-16987D01*
X11300Y-17025D01*
X11412Y-17025D01*
X11475Y-16962D01*
X11475Y-16550D01*
X11467Y-16550D01*
X11467Y-16450D01*
X11475Y-16450D01*
X11475Y-16037D01*
X11412Y-15975D01*
X11300Y-15974D01*
X11208Y-16012D01*
X11205Y-16016D01*
X11205Y-15616D01*
X11222Y-15659D01*
X11264Y-15702D01*
X11320Y-15724D01*
X11379Y-15725D01*
X11729Y-15725D01*
X11784Y-15702D01*
X11827Y-15660D01*
X11849Y-15604D01*
X11850Y-15545D01*
X11850Y-14995D01*
X11827Y-14940D01*
X11800Y-14912D01*
X11800Y-14899D01*
X11815Y-14884D01*
X11864Y-14764D01*
X11865Y-14635D01*
X11815Y-14516D01*
X11724Y-14424D01*
X11604Y-14375D01*
X11475Y-14374D01*
X11356Y-14424D01*
X11264Y-14515D01*
X11215Y-14635D01*
X11214Y-14764D01*
X11250Y-14849D01*
X11250Y-14912D01*
X11222Y-14939D01*
X11205Y-14983D01*
X11205Y-12173D01*
X11212Y-12192D01*
X11605Y-12586D01*
X12120Y-12799D01*
X12677Y-12800D01*
X13192Y-12587D01*
X13586Y-12194D01*
X13799Y-11679D01*
X13800Y-11122D01*
X13587Y-10607D01*
X13194Y-10213D01*
X13172Y-10205D01*
X16870Y-10205D01*
X16870Y-11200D01*
X16870Y-12201D01*
X16870Y-12201D01*
G37*
G54D24*
X16870Y-12201D02*
X16793Y-12124D01*
X16849Y-11989D01*
X16850Y-11810D01*
X16850Y-10810D01*
X16781Y-10645D01*
X16655Y-10518D01*
X16489Y-10450D01*
X16310Y-10449D01*
X16145Y-10518D01*
X16018Y-10644D01*
X15950Y-10810D01*
X15949Y-10989D01*
X16018Y-11154D01*
X16144Y-11281D01*
X16310Y-11349D01*
X16489Y-11350D01*
X16654Y-11281D01*
X16781Y-11155D01*
X16849Y-10989D01*
X16850Y-10810D01*
X16850Y-11810D01*
X16781Y-11645D01*
X16655Y-11518D01*
X16489Y-11450D01*
X16310Y-11449D01*
X16145Y-11518D01*
X16090Y-11573D01*
X16090Y-11400D01*
X16075Y-11327D01*
X16034Y-11265D01*
X15823Y-11054D01*
X15849Y-10989D01*
X15850Y-10810D01*
X15781Y-10645D01*
X15655Y-10518D01*
X15489Y-10450D01*
X15310Y-10449D01*
X15145Y-10518D01*
X15018Y-10644D01*
X14950Y-10810D01*
X14950Y-10886D01*
X14943Y-10763D01*
X14881Y-10612D01*
X14785Y-10584D01*
X14715Y-10655D01*
X14715Y-10514D01*
X14687Y-10418D01*
X14481Y-10345D01*
X14263Y-10356D01*
X14112Y-10418D01*
X14084Y-10514D01*
X14400Y-10829D01*
X14715Y-10514D01*
X14715Y-10655D01*
X14470Y-10900D01*
X14785Y-11215D01*
X14881Y-11187D01*
X14951Y-10992D01*
X15018Y-11154D01*
X15144Y-11281D01*
X15310Y-11349D01*
X15489Y-11350D01*
X15554Y-11323D01*
X15710Y-11478D01*
X15710Y-11573D01*
X15655Y-11518D01*
X15489Y-11450D01*
X15310Y-11449D01*
X15145Y-11518D01*
X15018Y-11644D01*
X14950Y-11810D01*
X14949Y-11989D01*
X14970Y-12040D01*
X14850Y-12161D01*
X14850Y-11570D01*
X14827Y-11515D01*
X14785Y-11472D01*
X14729Y-11450D01*
X14670Y-11449D01*
X14414Y-11449D01*
X14536Y-11443D01*
X14687Y-11381D01*
X14715Y-11285D01*
X14400Y-10970D01*
X14329Y-11041D01*
X14329Y-10900D01*
X14014Y-10584D01*
X13918Y-10612D01*
X13845Y-10818D01*
X13856Y-11036D01*
X13918Y-11187D01*
X14014Y-11215D01*
X14329Y-10900D01*
X14329Y-11041D01*
X14084Y-11285D01*
X14112Y-11381D01*
X14304Y-11449D01*
X14070Y-11449D01*
X14015Y-11472D01*
X13972Y-11514D01*
X13950Y-11570D01*
X13949Y-11629D01*
X13949Y-12229D01*
X13972Y-12284D01*
X14014Y-12327D01*
X14070Y-12349D01*
X14129Y-12350D01*
X14661Y-12350D01*
X14382Y-12628D01*
X14294Y-12645D01*
X14205Y-12705D01*
X14191Y-12726D01*
X14159Y-12739D01*
X14039Y-12858D01*
X13975Y-13015D01*
X13974Y-13184D01*
X14039Y-13340D01*
X14158Y-13460D01*
X14315Y-13524D01*
X14484Y-13525D01*
X14640Y-13460D01*
X14760Y-13341D01*
X14824Y-13184D01*
X14825Y-13015D01*
X14809Y-12979D01*
X15438Y-12350D01*
X15489Y-12350D01*
X15654Y-12281D01*
X15710Y-12226D01*
X15710Y-12400D01*
X15724Y-12472D01*
X15765Y-12534D01*
X16065Y-12833D01*
X16039Y-12858D01*
X15975Y-13015D01*
X15974Y-13184D01*
X16039Y-13340D01*
X16158Y-13460D01*
X16315Y-13524D01*
X16484Y-13525D01*
X16640Y-13460D01*
X16760Y-13341D01*
X16824Y-13184D01*
X16825Y-13099D01*
X16825Y-13746D01*
X16526Y-14045D01*
X15825Y-14045D01*
X15825Y-13015D01*
X15760Y-12859D01*
X15641Y-12739D01*
X15484Y-12675D01*
X15315Y-12674D01*
X15159Y-12739D01*
X15039Y-12858D01*
X14975Y-13015D01*
X14974Y-13184D01*
X15039Y-13340D01*
X15158Y-13460D01*
X15315Y-13524D01*
X15484Y-13525D01*
X15640Y-13460D01*
X15760Y-13341D01*
X15824Y-13184D01*
X15825Y-13015D01*
X15825Y-14045D01*
X14560Y-14045D01*
X14454Y-14065D01*
X14365Y-14125D01*
X14365Y-14125D01*
X14365Y-14125D01*
X13929Y-14561D01*
X13929Y-13175D01*
X13918Y-12967D01*
X13860Y-12827D01*
X13767Y-12802D01*
X13697Y-12873D01*
X13697Y-12732D01*
X13672Y-12639D01*
X13475Y-12570D01*
X13267Y-12581D01*
X13127Y-12639D01*
X13102Y-12732D01*
X13400Y-13029D01*
X13697Y-12732D01*
X13697Y-12873D01*
X13470Y-13100D01*
X13767Y-13397D01*
X13860Y-13372D01*
X13929Y-13175D01*
X13929Y-14561D01*
X13697Y-14794D01*
X13697Y-13467D01*
X13400Y-13170D01*
X13329Y-13241D01*
X13329Y-13100D01*
X13032Y-12802D01*
X12939Y-12827D01*
X12870Y-13024D01*
X12881Y-13232D01*
X12939Y-13372D01*
X13032Y-13397D01*
X13329Y-13100D01*
X13329Y-13241D01*
X13102Y-13467D01*
X13127Y-13560D01*
X13324Y-13629D01*
X13532Y-13618D01*
X13672Y-13560D01*
X13697Y-13467D01*
X13697Y-14794D01*
X13205Y-15285D01*
X13145Y-15374D01*
X13125Y-15480D01*
X13125Y-15674D01*
X13095Y-15674D01*
X13040Y-15697D01*
X12997Y-15739D01*
X12975Y-15795D01*
X12974Y-15854D01*
X12974Y-16404D01*
X12997Y-16459D01*
X13039Y-16502D01*
X13095Y-16524D01*
X13154Y-16525D01*
X13704Y-16525D01*
X13759Y-16502D01*
X13802Y-16460D01*
X13824Y-16404D01*
X13825Y-16345D01*
X13825Y-15795D01*
X13802Y-15740D01*
X13760Y-15697D01*
X13704Y-15675D01*
X13675Y-15674D01*
X13675Y-15593D01*
X14673Y-14595D01*
X16640Y-14595D01*
X16745Y-14574D01*
X16745Y-14574D01*
X16834Y-14514D01*
X16850Y-14498D01*
X16850Y-15625D01*
X16600Y-15625D01*
X16494Y-15645D01*
X16451Y-15675D01*
X16451Y-15675D01*
X16315Y-15674D01*
X16159Y-15739D01*
X16039Y-15858D01*
X15975Y-16015D01*
X15974Y-16184D01*
X16039Y-16340D01*
X16158Y-16460D01*
X16315Y-16524D01*
X16484Y-16525D01*
X16640Y-16460D01*
X16760Y-16341D01*
X16824Y-16184D01*
X16824Y-16175D01*
X16850Y-16175D01*
X16850Y-16500D01*
X16850Y-16796D01*
X16841Y-16787D01*
X16749Y-16749D01*
X16512Y-16750D01*
X16450Y-16812D01*
X16450Y-17250D01*
X16457Y-17250D01*
X16457Y-17350D01*
X16450Y-17350D01*
X16450Y-17787D01*
X16512Y-17850D01*
X16749Y-17850D01*
X16841Y-17812D01*
X16850Y-17803D01*
X16850Y-17900D01*
X16850Y-19175D01*
X16735Y-19174D01*
X16616Y-19224D01*
X16524Y-19315D01*
X16475Y-19435D01*
X16474Y-19564D01*
X16524Y-19683D01*
X16615Y-19775D01*
X16662Y-19795D01*
X16350Y-19795D01*
X16350Y-17787D01*
X16350Y-17350D01*
X16350Y-17250D01*
X16350Y-16812D01*
X16287Y-16750D01*
X16050Y-16749D01*
X15958Y-16787D01*
X15888Y-16858D01*
X15850Y-16950D01*
X15849Y-17049D01*
X15850Y-17187D01*
X15912Y-17250D01*
X16350Y-17250D01*
X16350Y-17350D01*
X15912Y-17350D01*
X15850Y-17412D01*
X15850Y-17210D01*
X15781Y-17045D01*
X15675Y-16938D01*
X15675Y-16425D01*
X15760Y-16341D01*
X15824Y-16184D01*
X15825Y-16015D01*
X15760Y-15859D01*
X15641Y-15739D01*
X15484Y-15675D01*
X15315Y-15674D01*
X15159Y-15739D01*
X15039Y-15858D01*
X14975Y-16015D01*
X14974Y-16184D01*
X15039Y-16340D01*
X15125Y-16426D01*
X15125Y-16938D01*
X15018Y-17044D01*
X14950Y-17210D01*
X14949Y-17389D01*
X15018Y-17554D01*
X15144Y-17681D01*
X15310Y-17749D01*
X15386Y-17749D01*
X15263Y-17756D01*
X15112Y-17818D01*
X15084Y-17914D01*
X15400Y-18229D01*
X15715Y-17914D01*
X15687Y-17818D01*
X15492Y-17748D01*
X15654Y-17681D01*
X15781Y-17555D01*
X15849Y-17389D01*
X15850Y-17210D01*
X15850Y-17412D01*
X15850Y-17412D01*
X15849Y-17550D01*
X15850Y-17649D01*
X15888Y-17741D01*
X15958Y-17812D01*
X16050Y-17850D01*
X16287Y-17850D01*
X16350Y-17787D01*
X16350Y-19795D01*
X15954Y-19795D01*
X15954Y-18381D01*
X15943Y-18163D01*
X15881Y-18012D01*
X15785Y-17984D01*
X15470Y-18300D01*
X15785Y-18615D01*
X15881Y-18587D01*
X15954Y-18381D01*
X15954Y-19795D01*
X15850Y-19795D01*
X15850Y-19570D01*
X15850Y-18970D01*
X15827Y-18915D01*
X15785Y-18872D01*
X15729Y-18850D01*
X15670Y-18849D01*
X15414Y-18849D01*
X15536Y-18843D01*
X15687Y-18781D01*
X15715Y-18685D01*
X15400Y-18370D01*
X15329Y-18441D01*
X15329Y-18300D01*
X15014Y-17984D01*
X14918Y-18012D01*
X14901Y-18060D01*
X14881Y-18012D01*
X14850Y-18003D01*
X14850Y-17210D01*
X14781Y-17045D01*
X14675Y-16938D01*
X14675Y-16425D01*
X14760Y-16341D01*
X14824Y-16184D01*
X14825Y-16015D01*
X14760Y-15859D01*
X14641Y-15739D01*
X14484Y-15675D01*
X14315Y-15674D01*
X14159Y-15739D01*
X14039Y-15858D01*
X13975Y-16015D01*
X13974Y-16184D01*
X14039Y-16340D01*
X14125Y-16426D01*
X14125Y-16938D01*
X14018Y-17044D01*
X13950Y-17210D01*
X13949Y-17389D01*
X14018Y-17554D01*
X14144Y-17681D01*
X14310Y-17749D01*
X14386Y-17749D01*
X14263Y-17756D01*
X14112Y-17818D01*
X14084Y-17914D01*
X14400Y-18229D01*
X14715Y-17914D01*
X14687Y-17818D01*
X14492Y-17748D01*
X14654Y-17681D01*
X14781Y-17555D01*
X14849Y-17389D01*
X14850Y-17210D01*
X14850Y-18003D01*
X14785Y-17984D01*
X14470Y-18300D01*
X14785Y-18615D01*
X14881Y-18587D01*
X14898Y-18539D01*
X14918Y-18587D01*
X15014Y-18615D01*
X15329Y-18300D01*
X15329Y-18441D01*
X15084Y-18685D01*
X15112Y-18781D01*
X15304Y-18849D01*
X15070Y-18849D01*
X15015Y-18872D01*
X14972Y-18914D01*
X14950Y-18970D01*
X14949Y-19029D01*
X14949Y-19629D01*
X14972Y-19684D01*
X15014Y-19727D01*
X15070Y-19749D01*
X15129Y-19750D01*
X15729Y-19750D01*
X15784Y-19727D01*
X15827Y-19685D01*
X15849Y-19629D01*
X15850Y-19570D01*
X15850Y-19795D01*
X14850Y-19795D01*
X14850Y-19570D01*
X14850Y-18970D01*
X14827Y-18915D01*
X14785Y-18872D01*
X14729Y-18850D01*
X14670Y-18849D01*
X14414Y-18849D01*
X14536Y-18843D01*
X14687Y-18781D01*
X14715Y-18685D01*
X14400Y-18370D01*
X14329Y-18441D01*
X14329Y-18300D01*
X14014Y-17984D01*
X13918Y-18012D01*
X13845Y-18218D01*
X13856Y-18436D01*
X13918Y-18587D01*
X14014Y-18615D01*
X14329Y-18300D01*
X14329Y-18441D01*
X14084Y-18685D01*
X14112Y-18781D01*
X14304Y-18849D01*
X14070Y-18849D01*
X14015Y-18872D01*
X13972Y-18914D01*
X13950Y-18970D01*
X13949Y-19029D01*
X13949Y-19629D01*
X13972Y-19684D01*
X14014Y-19727D01*
X14070Y-19749D01*
X14129Y-19750D01*
X14729Y-19750D01*
X14784Y-19727D01*
X14827Y-19685D01*
X14849Y-19629D01*
X14850Y-19570D01*
X14850Y-19795D01*
X13173Y-19795D01*
X13192Y-19787D01*
X13586Y-19394D01*
X13799Y-18879D01*
X13800Y-18322D01*
X13587Y-17807D01*
X13194Y-17413D01*
X13025Y-17343D01*
X13025Y-16735D01*
X12975Y-16616D01*
X12884Y-16524D01*
X12764Y-16475D01*
X12763Y-16475D01*
X12600Y-16311D01*
X12600Y-16195D01*
X12577Y-16140D01*
X12550Y-16112D01*
X12550Y-15687D01*
X12577Y-15660D01*
X12599Y-15604D01*
X12600Y-15545D01*
X12600Y-14995D01*
X12577Y-14940D01*
X12535Y-14897D01*
X12479Y-14875D01*
X12420Y-14874D01*
X12070Y-14874D01*
X12015Y-14897D01*
X11972Y-14939D01*
X11950Y-14995D01*
X11949Y-15054D01*
X11949Y-15604D01*
X11972Y-15659D01*
X12000Y-15687D01*
X12000Y-16112D01*
X11972Y-16139D01*
X11950Y-16195D01*
X11949Y-16224D01*
X11949Y-16175D01*
X11911Y-16083D01*
X11841Y-16012D01*
X11749Y-15974D01*
X11637Y-15975D01*
X11575Y-16037D01*
X11575Y-16450D01*
X11582Y-16450D01*
X11582Y-16550D01*
X11575Y-16550D01*
X11575Y-16962D01*
X11637Y-17025D01*
X11749Y-17025D01*
X11841Y-16987D01*
X11911Y-16916D01*
X11949Y-16824D01*
X11949Y-16804D01*
X11949Y-16804D01*
X11972Y-16859D01*
X12014Y-16902D01*
X12070Y-16924D01*
X12129Y-16925D01*
X12400Y-16925D01*
X12424Y-16983D01*
X12515Y-17075D01*
X12635Y-17124D01*
X12764Y-17125D01*
X12883Y-17075D01*
X12975Y-16984D01*
X13024Y-16864D01*
X13025Y-16735D01*
X13025Y-17343D01*
X12679Y-17200D01*
X12122Y-17199D01*
X11607Y-17412D01*
X11213Y-17805D01*
X11205Y-17827D01*
X11205Y-16983D01*
X11208Y-16987D01*
X11300Y-17025D01*
X11412Y-17025D01*
X11475Y-16962D01*
X11475Y-16550D01*
X11467Y-16550D01*
X11467Y-16450D01*
X11475Y-16450D01*
X11475Y-16037D01*
X11412Y-15975D01*
X11300Y-15974D01*
X11208Y-16012D01*
X11205Y-16016D01*
X11205Y-15616D01*
X11222Y-15659D01*
X11264Y-15702D01*
X11320Y-15724D01*
X11379Y-15725D01*
X11729Y-15725D01*
X11784Y-15702D01*
X11827Y-15660D01*
X11849Y-15604D01*
X11850Y-15545D01*
X11850Y-14995D01*
X11827Y-14940D01*
X11800Y-14912D01*
X11800Y-14899D01*
X11815Y-14884D01*
X11864Y-14764D01*
X11865Y-14635D01*
X11815Y-14516D01*
X11724Y-14424D01*
X11604Y-14375D01*
X11475Y-14374D01*
X11356Y-14424D01*
X11264Y-14515D01*
X11215Y-14635D01*
X11214Y-14764D01*
X11250Y-14849D01*
X11250Y-14912D01*
X11222Y-14939D01*
X11205Y-14983D01*
X11205Y-12173D01*
X11212Y-12192D01*
X11605Y-12586D01*
X12120Y-12799D01*
X12677Y-12800D01*
X13192Y-12587D01*
X13586Y-12194D01*
X13799Y-11679D01*
X13800Y-11122D01*
X13587Y-10607D01*
X13194Y-10213D01*
X13172Y-10205D01*
X16870Y-10205D01*
X16870Y-11200D01*
X16870Y-12201D01*
G54D10*
G36*
X18827Y-19795D02*
X18243Y-19795D01*
X18249Y-19779D01*
X18250Y-19720D01*
X18250Y-19220D01*
X18227Y-19165D01*
X18185Y-19122D01*
X18129Y-19100D01*
X18070Y-19099D01*
X17150Y-19099D01*
X17150Y-18800D01*
X17487Y-18800D01*
X17550Y-18737D01*
X17550Y-18350D01*
X17542Y-18350D01*
X17542Y-18250D01*
X17550Y-18250D01*
X17550Y-18242D01*
X17650Y-18242D01*
X17650Y-18250D01*
X17657Y-18250D01*
X17657Y-18350D01*
X17650Y-18350D01*
X17650Y-18737D01*
X17712Y-18800D01*
X18050Y-18800D01*
X18149Y-18799D01*
X18199Y-18779D01*
X18199Y-18877D01*
X18412Y-19392D01*
X18805Y-19786D01*
X18827Y-19795D01*
X18827Y-19795D01*
G37*
G54D24*
X18827Y-19795D02*
X18243Y-19795D01*
X18249Y-19779D01*
X18250Y-19720D01*
X18250Y-19220D01*
X18227Y-19165D01*
X18185Y-19122D01*
X18129Y-19100D01*
X18070Y-19099D01*
X17150Y-19099D01*
X17150Y-18800D01*
X17487Y-18800D01*
X17550Y-18737D01*
X17550Y-18350D01*
X17542Y-18350D01*
X17542Y-18250D01*
X17550Y-18250D01*
X17550Y-18242D01*
X17650Y-18242D01*
X17650Y-18250D01*
X17657Y-18250D01*
X17657Y-18350D01*
X17650Y-18350D01*
X17650Y-18737D01*
X17712Y-18800D01*
X18050Y-18800D01*
X18149Y-18799D01*
X18199Y-18779D01*
X18199Y-18877D01*
X18412Y-19392D01*
X18805Y-19786D01*
X18827Y-19795D01*
G54D10*
G36*
X20795Y-17826D02*
X20787Y-17807D01*
X20394Y-17413D01*
X19879Y-17200D01*
X19322Y-17199D01*
X18950Y-17353D01*
X18950Y-16250D01*
X18950Y-15549D01*
X18949Y-15450D01*
X18911Y-15358D01*
X18841Y-15287D01*
X18749Y-15249D01*
X18612Y-15250D01*
X18550Y-15312D01*
X18550Y-15850D01*
X18887Y-15850D01*
X18950Y-15787D01*
X18950Y-15549D01*
X18950Y-16250D01*
X18950Y-16012D01*
X18887Y-15950D01*
X18550Y-15950D01*
X18550Y-16487D01*
X18612Y-16550D01*
X18749Y-16550D01*
X18841Y-16512D01*
X18911Y-16441D01*
X18949Y-16349D01*
X18950Y-16250D01*
X18950Y-17353D01*
X18807Y-17412D01*
X18450Y-17769D01*
X18450Y-16487D01*
X18450Y-15950D01*
X18450Y-15850D01*
X18450Y-15312D01*
X18450Y-13887D01*
X18450Y-13350D01*
X18450Y-13250D01*
X18450Y-12712D01*
X18387Y-12650D01*
X17730Y-12649D01*
X17650Y-12683D01*
X17650Y-11837D01*
X17650Y-11525D01*
X17237Y-11525D01*
X17175Y-11587D01*
X17174Y-11699D01*
X17212Y-11791D01*
X17283Y-11861D01*
X17375Y-11899D01*
X17474Y-11900D01*
X17587Y-11900D01*
X17650Y-11837D01*
X17650Y-12683D01*
X17638Y-12687D01*
X17568Y-12758D01*
X17530Y-12850D01*
X17529Y-12949D01*
X17530Y-13187D01*
X17592Y-13250D01*
X18450Y-13250D01*
X18450Y-13350D01*
X17592Y-13350D01*
X17530Y-13412D01*
X17529Y-13650D01*
X17530Y-13749D01*
X17568Y-13841D01*
X17638Y-13912D01*
X17730Y-13950D01*
X18387Y-13950D01*
X18450Y-13887D01*
X18450Y-15312D01*
X18387Y-15250D01*
X18250Y-15249D01*
X18158Y-15287D01*
X18088Y-15358D01*
X18050Y-15450D01*
X18049Y-15549D01*
X18050Y-15787D01*
X18112Y-15850D01*
X18450Y-15850D01*
X18450Y-15950D01*
X18112Y-15950D01*
X18050Y-16012D01*
X18049Y-16250D01*
X18050Y-16349D01*
X18088Y-16441D01*
X18158Y-16512D01*
X18250Y-16550D01*
X18387Y-16550D01*
X18450Y-16487D01*
X18450Y-17769D01*
X18413Y-17805D01*
X18341Y-17979D01*
X18312Y-17908D01*
X18241Y-17838D01*
X18149Y-17800D01*
X18050Y-17799D01*
X17954Y-17799D01*
X17954Y-17381D01*
X17943Y-17163D01*
X17881Y-17012D01*
X17785Y-16984D01*
X17470Y-17300D01*
X17785Y-17615D01*
X17881Y-17587D01*
X17954Y-17381D01*
X17954Y-17799D01*
X17712Y-17800D01*
X17650Y-17862D01*
X17650Y-17800D01*
X17642Y-17800D01*
X17687Y-17781D01*
X17715Y-17685D01*
X17400Y-17370D01*
X17394Y-17376D01*
X17323Y-17305D01*
X17329Y-17300D01*
X17323Y-17294D01*
X17394Y-17223D01*
X17400Y-17229D01*
X17715Y-16914D01*
X17687Y-16818D01*
X17481Y-16745D01*
X17263Y-16756D01*
X17150Y-16803D01*
X17150Y-16700D01*
X17151Y-16175D01*
X17249Y-16175D01*
X17249Y-16329D01*
X17272Y-16384D01*
X17314Y-16427D01*
X17370Y-16449D01*
X17429Y-16450D01*
X17829Y-16450D01*
X17884Y-16427D01*
X17927Y-16385D01*
X17949Y-16329D01*
X17950Y-16270D01*
X17950Y-15470D01*
X17927Y-15415D01*
X17885Y-15372D01*
X17829Y-15350D01*
X17770Y-15349D01*
X17370Y-15349D01*
X17315Y-15372D01*
X17272Y-15414D01*
X17250Y-15470D01*
X17249Y-15529D01*
X17249Y-15625D01*
X17153Y-15625D01*
X17157Y-14191D01*
X17294Y-14054D01*
X17354Y-13965D01*
X17354Y-13965D01*
X17375Y-13860D01*
X17375Y-12820D01*
X17374Y-12819D01*
X17354Y-12714D01*
X17354Y-12714D01*
X17334Y-12685D01*
X17294Y-12625D01*
X17294Y-12625D01*
X17162Y-12493D01*
X17169Y-10205D01*
X17935Y-10205D01*
X17924Y-10215D01*
X17875Y-10335D01*
X17875Y-10336D01*
X17811Y-10399D01*
X17395Y-10399D01*
X17340Y-10422D01*
X17297Y-10464D01*
X17275Y-10520D01*
X17274Y-10579D01*
X17274Y-10929D01*
X17297Y-10984D01*
X17339Y-11027D01*
X17395Y-11049D01*
X17424Y-11050D01*
X17375Y-11050D01*
X17283Y-11088D01*
X17212Y-11158D01*
X17174Y-11250D01*
X17175Y-11362D01*
X17237Y-11425D01*
X17650Y-11425D01*
X17650Y-11417D01*
X17750Y-11417D01*
X17750Y-11425D01*
X17757Y-11425D01*
X17757Y-11525D01*
X17750Y-11525D01*
X17750Y-11837D01*
X17812Y-11900D01*
X17925Y-11900D01*
X18024Y-11899D01*
X18116Y-11861D01*
X18187Y-11791D01*
X18216Y-11718D01*
X18412Y-12192D01*
X18805Y-12586D01*
X18959Y-12649D01*
X18612Y-12650D01*
X18550Y-12712D01*
X18550Y-13250D01*
X19407Y-13250D01*
X19470Y-13187D01*
X19470Y-12949D01*
X19469Y-12850D01*
X19449Y-12799D01*
X19862Y-12800D01*
X19756Y-12844D01*
X19664Y-12935D01*
X19615Y-13055D01*
X19614Y-13184D01*
X19664Y-13303D01*
X19755Y-13395D01*
X19875Y-13444D01*
X20004Y-13445D01*
X20113Y-13400D01*
X20119Y-13407D01*
X20175Y-13429D01*
X20234Y-13430D01*
X20784Y-13430D01*
X20795Y-13425D01*
X20795Y-13534D01*
X20784Y-13530D01*
X20725Y-13529D01*
X20175Y-13529D01*
X20120Y-13552D01*
X20077Y-13594D01*
X20055Y-13650D01*
X20054Y-13709D01*
X20054Y-14059D01*
X20077Y-14114D01*
X20119Y-14157D01*
X20175Y-14179D01*
X20185Y-14179D01*
X20185Y-14929D01*
X20130Y-14929D01*
X20075Y-14952D01*
X20032Y-14994D01*
X20010Y-15050D01*
X20009Y-15105D01*
X19700Y-15105D01*
X19594Y-15125D01*
X19565Y-15145D01*
X19505Y-15185D01*
X19470Y-15221D01*
X19470Y-13650D01*
X19470Y-13412D01*
X19407Y-13350D01*
X18550Y-13350D01*
X18550Y-13887D01*
X18612Y-13950D01*
X19269Y-13950D01*
X19361Y-13912D01*
X19431Y-13841D01*
X19469Y-13749D01*
X19470Y-13650D01*
X19470Y-15221D01*
X19341Y-15349D01*
X19170Y-15349D01*
X19115Y-15372D01*
X19072Y-15414D01*
X19050Y-15470D01*
X19049Y-15529D01*
X19049Y-16329D01*
X19072Y-16384D01*
X19114Y-16427D01*
X19170Y-16449D01*
X19229Y-16450D01*
X19629Y-16450D01*
X19684Y-16427D01*
X19727Y-16385D01*
X19749Y-16329D01*
X19750Y-16270D01*
X19750Y-15718D01*
X19813Y-15655D01*
X20009Y-15655D01*
X20009Y-15709D01*
X20032Y-15764D01*
X20074Y-15807D01*
X20130Y-15829D01*
X20189Y-15830D01*
X20789Y-15830D01*
X20795Y-15827D01*
X20795Y-16078D01*
X20715Y-15998D01*
X20549Y-15930D01*
X20370Y-15929D01*
X20205Y-15998D01*
X20078Y-16124D01*
X20010Y-16290D01*
X20009Y-16469D01*
X20078Y-16634D01*
X20204Y-16761D01*
X20370Y-16829D01*
X20549Y-16830D01*
X20714Y-16761D01*
X20795Y-16681D01*
X20795Y-17826D01*
X20795Y-17826D01*
G37*
G54D24*
X20795Y-17826D02*
X20787Y-17807D01*
X20394Y-17413D01*
X19879Y-17200D01*
X19322Y-17199D01*
X18950Y-17353D01*
X18950Y-16250D01*
X18950Y-15549D01*
X18949Y-15450D01*
X18911Y-15358D01*
X18841Y-15287D01*
X18749Y-15249D01*
X18612Y-15250D01*
X18550Y-15312D01*
X18550Y-15850D01*
X18887Y-15850D01*
X18950Y-15787D01*
X18950Y-15549D01*
X18950Y-16250D01*
X18950Y-16012D01*
X18887Y-15950D01*
X18550Y-15950D01*
X18550Y-16487D01*
X18612Y-16550D01*
X18749Y-16550D01*
X18841Y-16512D01*
X18911Y-16441D01*
X18949Y-16349D01*
X18950Y-16250D01*
X18950Y-17353D01*
X18807Y-17412D01*
X18450Y-17769D01*
X18450Y-16487D01*
X18450Y-15950D01*
X18450Y-15850D01*
X18450Y-15312D01*
X18450Y-13887D01*
X18450Y-13350D01*
X18450Y-13250D01*
X18450Y-12712D01*
X18387Y-12650D01*
X17730Y-12649D01*
X17650Y-12683D01*
X17650Y-11837D01*
X17650Y-11525D01*
X17237Y-11525D01*
X17175Y-11587D01*
X17174Y-11699D01*
X17212Y-11791D01*
X17283Y-11861D01*
X17375Y-11899D01*
X17474Y-11900D01*
X17587Y-11900D01*
X17650Y-11837D01*
X17650Y-12683D01*
X17638Y-12687D01*
X17568Y-12758D01*
X17530Y-12850D01*
X17529Y-12949D01*
X17530Y-13187D01*
X17592Y-13250D01*
X18450Y-13250D01*
X18450Y-13350D01*
X17592Y-13350D01*
X17530Y-13412D01*
X17529Y-13650D01*
X17530Y-13749D01*
X17568Y-13841D01*
X17638Y-13912D01*
X17730Y-13950D01*
X18387Y-13950D01*
X18450Y-13887D01*
X18450Y-15312D01*
X18387Y-15250D01*
X18250Y-15249D01*
X18158Y-15287D01*
X18088Y-15358D01*
X18050Y-15450D01*
X18049Y-15549D01*
X18050Y-15787D01*
X18112Y-15850D01*
X18450Y-15850D01*
X18450Y-15950D01*
X18112Y-15950D01*
X18050Y-16012D01*
X18049Y-16250D01*
X18050Y-16349D01*
X18088Y-16441D01*
X18158Y-16512D01*
X18250Y-16550D01*
X18387Y-16550D01*
X18450Y-16487D01*
X18450Y-17769D01*
X18413Y-17805D01*
X18341Y-17979D01*
X18312Y-17908D01*
X18241Y-17838D01*
X18149Y-17800D01*
X18050Y-17799D01*
X17954Y-17799D01*
X17954Y-17381D01*
X17943Y-17163D01*
X17881Y-17012D01*
X17785Y-16984D01*
X17470Y-17300D01*
X17785Y-17615D01*
X17881Y-17587D01*
X17954Y-17381D01*
X17954Y-17799D01*
X17712Y-17800D01*
X17650Y-17862D01*
X17650Y-17800D01*
X17642Y-17800D01*
X17687Y-17781D01*
X17715Y-17685D01*
X17400Y-17370D01*
X17394Y-17376D01*
X17323Y-17305D01*
X17329Y-17300D01*
X17323Y-17294D01*
X17394Y-17223D01*
X17400Y-17229D01*
X17715Y-16914D01*
X17687Y-16818D01*
X17481Y-16745D01*
X17263Y-16756D01*
X17150Y-16803D01*
X17150Y-16700D01*
X17151Y-16175D01*
X17249Y-16175D01*
X17249Y-16329D01*
X17272Y-16384D01*
X17314Y-16427D01*
X17370Y-16449D01*
X17429Y-16450D01*
X17829Y-16450D01*
X17884Y-16427D01*
X17927Y-16385D01*
X17949Y-16329D01*
X17950Y-16270D01*
X17950Y-15470D01*
X17927Y-15415D01*
X17885Y-15372D01*
X17829Y-15350D01*
X17770Y-15349D01*
X17370Y-15349D01*
X17315Y-15372D01*
X17272Y-15414D01*
X17250Y-15470D01*
X17249Y-15529D01*
X17249Y-15625D01*
X17153Y-15625D01*
X17157Y-14191D01*
X17294Y-14054D01*
X17354Y-13965D01*
X17354Y-13965D01*
X17375Y-13860D01*
X17375Y-12820D01*
X17374Y-12819D01*
X17354Y-12714D01*
X17354Y-12714D01*
X17334Y-12685D01*
X17294Y-12625D01*
X17294Y-12625D01*
X17162Y-12493D01*
X17169Y-10205D01*
X17935Y-10205D01*
X17924Y-10215D01*
X17875Y-10335D01*
X17875Y-10336D01*
X17811Y-10399D01*
X17395Y-10399D01*
X17340Y-10422D01*
X17297Y-10464D01*
X17275Y-10520D01*
X17274Y-10579D01*
X17274Y-10929D01*
X17297Y-10984D01*
X17339Y-11027D01*
X17395Y-11049D01*
X17424Y-11050D01*
X17375Y-11050D01*
X17283Y-11088D01*
X17212Y-11158D01*
X17174Y-11250D01*
X17175Y-11362D01*
X17237Y-11425D01*
X17650Y-11425D01*
X17650Y-11417D01*
X17750Y-11417D01*
X17750Y-11425D01*
X17757Y-11425D01*
X17757Y-11525D01*
X17750Y-11525D01*
X17750Y-11837D01*
X17812Y-11900D01*
X17925Y-11900D01*
X18024Y-11899D01*
X18116Y-11861D01*
X18187Y-11791D01*
X18216Y-11718D01*
X18412Y-12192D01*
X18805Y-12586D01*
X18959Y-12649D01*
X18612Y-12650D01*
X18550Y-12712D01*
X18550Y-13250D01*
X19407Y-13250D01*
X19470Y-13187D01*
X19470Y-12949D01*
X19469Y-12850D01*
X19449Y-12799D01*
X19862Y-12800D01*
X19756Y-12844D01*
X19664Y-12935D01*
X19615Y-13055D01*
X19614Y-13184D01*
X19664Y-13303D01*
X19755Y-13395D01*
X19875Y-13444D01*
X20004Y-13445D01*
X20113Y-13400D01*
X20119Y-13407D01*
X20175Y-13429D01*
X20234Y-13430D01*
X20784Y-13430D01*
X20795Y-13425D01*
X20795Y-13534D01*
X20784Y-13530D01*
X20725Y-13529D01*
X20175Y-13529D01*
X20120Y-13552D01*
X20077Y-13594D01*
X20055Y-13650D01*
X20054Y-13709D01*
X20054Y-14059D01*
X20077Y-14114D01*
X20119Y-14157D01*
X20175Y-14179D01*
X20185Y-14179D01*
X20185Y-14929D01*
X20130Y-14929D01*
X20075Y-14952D01*
X20032Y-14994D01*
X20010Y-15050D01*
X20009Y-15105D01*
X19700Y-15105D01*
X19594Y-15125D01*
X19565Y-15145D01*
X19505Y-15185D01*
X19470Y-15221D01*
X19470Y-13650D01*
X19470Y-13412D01*
X19407Y-13350D01*
X18550Y-13350D01*
X18550Y-13887D01*
X18612Y-13950D01*
X19269Y-13950D01*
X19361Y-13912D01*
X19431Y-13841D01*
X19469Y-13749D01*
X19470Y-13650D01*
X19470Y-15221D01*
X19341Y-15349D01*
X19170Y-15349D01*
X19115Y-15372D01*
X19072Y-15414D01*
X19050Y-15470D01*
X19049Y-15529D01*
X19049Y-16329D01*
X19072Y-16384D01*
X19114Y-16427D01*
X19170Y-16449D01*
X19229Y-16450D01*
X19629Y-16450D01*
X19684Y-16427D01*
X19727Y-16385D01*
X19749Y-16329D01*
X19750Y-16270D01*
X19750Y-15718D01*
X19813Y-15655D01*
X20009Y-15655D01*
X20009Y-15709D01*
X20032Y-15764D01*
X20074Y-15807D01*
X20130Y-15829D01*
X20189Y-15830D01*
X20789Y-15830D01*
X20795Y-15827D01*
X20795Y-16078D01*
X20715Y-15998D01*
X20549Y-15930D01*
X20370Y-15929D01*
X20205Y-15998D01*
X20078Y-16124D01*
X20010Y-16290D01*
X20009Y-16469D01*
X20078Y-16634D01*
X20204Y-16761D01*
X20370Y-16829D01*
X20549Y-16830D01*
X20714Y-16761D01*
X20795Y-16681D01*
X20795Y-17826D01*
M02*
