G04 DipTrace 2.4.0.2*
%INcleduino_V1_finial_Top.gbr*%
%MOIN*%
%ADD13C,0.01*%
%ADD17R,0.0433X0.0394*%
%ADD18R,0.0394X0.0433*%
%ADD19R,0.0591X0.04*%
%ADD20C,0.0669*%
%ADD21R,0.0413X0.0256*%
%ADD27R,0.0157X0.0531*%
%ADD28R,0.063X0.0551*%
%ADD29R,0.0571X0.0512*%
%ADD30R,0.0748X0.0748*%
%ADD31C,0.025*%
%FSLAX44Y44*%
G04*
G70*
G90*
G75*
G01*
%LNTop*%
%LPD*%
X6740Y8975D2*
D13*
Y9290D1*
X6940Y9490D1*
X8189D1*
X8289Y9590D1*
X8890D1*
X8840Y5590D2*
X8541Y5291D1*
X5889D1*
X5640Y5540D1*
Y9940D1*
X5590Y9890D1*
X9190Y5590D2*
X8691Y5091D1*
X5789D1*
X5440Y5440D1*
Y9262D1*
X5240Y9462D1*
Y11040D1*
X7628Y10560D2*
Y10929D1*
X7740Y11041D1*
X8140D1*
X6740Y6906D2*
X6240D1*
X7440Y8366D2*
Y7980D1*
X7323Y7863D1*
X7740Y11041D2*
X6639D1*
X6290Y11390D1*
Y11940D1*
X7205Y6190D2*
Y6525D1*
X6824Y6906D1*
X6740D1*
X11640Y8641D2*
X11591Y8690D1*
X11390D1*
X10940Y9140D1*
Y9940D1*
X10540Y10340D1*
Y10790D1*
X10190Y11140D1*
X9690D1*
X7205Y6190D2*
Y6555D1*
X7340Y6690D1*
X8957Y7863D2*
X8140D1*
X7323D1*
X8140Y7840D2*
Y7863D1*
Y7840D2*
X7346D1*
X7323Y7863D1*
X8140Y7840D2*
X8934D1*
X8957Y7863D1*
X8396Y10560D2*
Y9997D1*
X8089Y9690D1*
X6140D1*
X5940Y9890D1*
X8140Y10560D2*
Y10041D1*
X8039Y9940D1*
X6290D1*
X8840Y8367D2*
X8140D1*
Y8366D1*
X5890Y8640D2*
Y7340D1*
X5989Y7241D1*
X6991D1*
X7240Y7490D1*
X8991D1*
X9525Y6955D1*
X9540D1*
X10040D2*
Y6590D1*
X8890D1*
X8740Y6440D1*
Y5841D1*
X8439Y5540D1*
X7840D1*
X7690Y5690D1*
X6240Y8305D2*
Y7575D1*
X10040Y8355D2*
Y7625D1*
X9540Y8355D2*
Y7625D1*
X6740Y7575D2*
Y8306D1*
X8405Y6190D2*
Y6605D1*
X8817Y7017D1*
X8957D1*
X6540Y5540D2*
X7140D1*
X7540Y5940D1*
Y6440D1*
X7790Y6690D1*
X8321D1*
X8405Y6605D1*
X8957Y7017D2*
X7323D1*
X8290Y5790D2*
X7990D1*
X7875Y5905D1*
Y6190D1*
X8140Y9114D2*
X7440D1*
X10040Y9025D2*
X9540D1*
Y8940D1*
X9340Y8740D1*
X8341D1*
X8140Y8941D1*
Y9114D1*
X7440D2*
Y9091D1*
X6990Y8641D1*
X6439D1*
X6240Y8840D1*
Y8975D1*
X10390Y6440D2*
Y8990D1*
X10040Y9025D2*
X10355D1*
X10390Y8990D1*
Y6440D2*
Y5840D1*
X10140Y5590D1*
X9540D1*
X9075Y6055D1*
Y6190D1*
X9640Y4641D2*
Y4640D1*
X9190Y4190D1*
X6440D1*
X6140Y4490D1*
X5890Y8990D2*
X6240D1*
Y8975D1*
X9640Y9940D2*
X9890D1*
X10390Y9440D1*
Y8990D1*
X8652Y10560D2*
Y9978D1*
X8783Y9847D1*
X9008D1*
X9190Y9665D1*
Y9465D1*
X8840Y9115D1*
X9140Y4840D2*
X9590Y5290D1*
X10240D1*
X10640Y5690D1*
Y9490D1*
X9890Y10240D1*
X9400D1*
X9008Y9847D1*
D31*
X8890Y9590D3*
D3*
X8840Y5590D3*
X5590Y9890D3*
X9190Y5590D3*
X5240Y11040D3*
X8140Y11041D3*
X6290Y11940D3*
X9690Y11140D3*
X7340Y6690D3*
X5940Y9890D3*
X6290Y9940D3*
X5890Y8640D3*
X7690Y5690D3*
X6540Y5540D3*
X8290Y5790D3*
X10390Y8990D3*
Y6440D3*
D3*
X6140Y4490D3*
X5890Y8990D3*
X9640Y9940D3*
X10390Y8990D3*
X9140Y4840D3*
X8140Y7840D3*
X4200Y11991D2*
D13*
X4290D1*
X4990D2*
X6342D1*
X9938D2*
X11290D1*
X11990D2*
X12080D1*
X5068Y11893D2*
X6342D1*
X9938D2*
X11212D1*
X5113Y11794D2*
X6342D1*
X9938D2*
X11167D1*
X5135Y11695D2*
X6342D1*
X9938D2*
X11145D1*
X5137Y11597D2*
X6342D1*
X9938D2*
X11143D1*
X5118Y11498D2*
X6342D1*
X9938D2*
X11164D1*
X5076Y11399D2*
X6342D1*
X9938D2*
X11206D1*
X4200Y11300D2*
X4279D1*
X5001D2*
X5131D1*
X5349D2*
X6342D1*
X9938D2*
X11279D1*
X12001D2*
X12080D1*
X4200Y11202D2*
X4414D1*
X4866D2*
X5003D1*
X5477D2*
X7129D1*
X9151D2*
X11415D1*
X11865D2*
X12080D1*
X4200Y11103D2*
X4475D1*
X4805D2*
X4959D1*
X5521D2*
X7129D1*
X9151D2*
X11473D1*
X11807D2*
X12080D1*
X4200Y11004D2*
X4304D1*
X5527D2*
X6401D1*
X7359D2*
X8921D1*
X9879D2*
X11304D1*
X11976D2*
X12080D1*
X5495Y10906D2*
X6401D1*
X9879D2*
X11220D1*
X5454Y10807D2*
X6401D1*
X9879D2*
X11171D1*
X5454Y10708D2*
X6401D1*
X9879D2*
X11146D1*
X5454Y10610D2*
X6401D1*
X9879D2*
X11142D1*
X5454Y10511D2*
X6401D1*
X9879D2*
X11159D1*
X5454Y10412D2*
X6401D1*
X10009D2*
X11198D1*
X4200Y10314D2*
X4267D1*
X5454D2*
X6401D1*
X10115D2*
X11267D1*
X12013D2*
X12080D1*
X4200Y10215D2*
X4389D1*
X4891D2*
X5026D1*
X5454D2*
X6234D1*
X6345D2*
X7385D1*
X8895D2*
X9078D1*
X10213D2*
X11390D1*
X11890D2*
X12080D1*
X4200Y10116D2*
X4521D1*
X4759D2*
X5026D1*
X8866D2*
X8978D1*
X10312D2*
X11518D1*
X11762D2*
X12080D1*
X4200Y10018D2*
X4320D1*
X4960D2*
X5026D1*
X10410D2*
X11320D1*
X11960D2*
X12080D1*
X10510Y9919D2*
X11228D1*
X9334Y9820D2*
X9379D1*
X10609D2*
X11176D1*
X9396Y9721D2*
X9457D1*
X10707D2*
X11148D1*
X9404Y9623D2*
X9909D1*
X10804D2*
X11142D1*
X5854Y9524D2*
X6012D1*
X9404D2*
X10007D1*
X10851D2*
X11156D1*
X5854Y9425D2*
X6578D1*
X9401D2*
X10106D1*
X10854D2*
X11192D1*
X4200Y9327D2*
X4256D1*
X5024D2*
X5076D1*
X10854D2*
X11256D1*
X12024D2*
X12080D1*
X4200Y9228D2*
X4367D1*
X4913D2*
X5176D1*
X10854D2*
X11368D1*
X11912D2*
X12080D1*
X4200Y9129D2*
X5226D1*
X10854D2*
X12080D1*
X4200Y9031D2*
X4337D1*
X4943D2*
X5226D1*
X10854D2*
X11335D1*
X11945D2*
X12080D1*
X4200Y8932D2*
X4239D1*
X5041D2*
X5226D1*
X10854D2*
X11237D1*
X12043D2*
X12080D1*
X5099Y8833D2*
X5226D1*
X10854D2*
X11181D1*
X5129Y8735D2*
X5226D1*
X7382D2*
X8048D1*
X10854D2*
X11151D1*
X5138Y8636D2*
X5226D1*
X10854D2*
X11142D1*
X5127Y8537D2*
X5226D1*
X10854D2*
X11153D1*
X5095Y8439D2*
X5226D1*
X10854D2*
X11185D1*
X4200Y8340D2*
X4245D1*
X5035D2*
X5226D1*
X10854D2*
X11245D1*
X12035D2*
X12080D1*
X4200Y8241D2*
X4348D1*
X4932D2*
X5226D1*
X10854D2*
X11350D1*
X11930D2*
X12080D1*
X4200Y8142D2*
X5226D1*
X10854D2*
X12080D1*
X4200Y8044D2*
X4356D1*
X4924D2*
X5226D1*
X10854D2*
X11354D1*
X11926D2*
X12080D1*
X4200Y7945D2*
X4248D1*
X5032D2*
X5226D1*
X7693D2*
X8587D1*
X10854D2*
X11248D1*
X12032D2*
X12080D1*
X5093Y7846D2*
X5226D1*
X7693D2*
X8587D1*
X10854D2*
X11187D1*
X5126Y7748D2*
X5226D1*
X7693D2*
X8587D1*
X10854D2*
X11153D1*
X5138Y7649D2*
X5226D1*
X10854D2*
X11142D1*
X5130Y7550D2*
X5226D1*
X10854D2*
X11150D1*
X5101Y7452D2*
X5226D1*
X10854D2*
X11179D1*
X4200Y7353D2*
X4234D1*
X5046D2*
X5226D1*
X10854D2*
X11235D1*
X12045D2*
X12080D1*
X4200Y7254D2*
X4331D1*
X4949D2*
X5226D1*
X7693D2*
X8587D1*
X10854D2*
X11331D1*
X11949D2*
X12080D1*
X4200Y7156D2*
X4567D1*
X4713D2*
X5226D1*
X10854D2*
X11573D1*
X11707D2*
X12080D1*
X4200Y7057D2*
X4376D1*
X4904D2*
X5226D1*
X10854D2*
X11375D1*
X11905D2*
X12080D1*
X4200Y6958D2*
X4259D1*
X5021D2*
X5226D1*
X10854D2*
X11259D1*
X12021D2*
X12080D1*
X5087Y6860D2*
X5226D1*
X10854D2*
X11193D1*
X5123Y6761D2*
X5226D1*
X10854D2*
X11156D1*
X5138Y6662D2*
X5226D1*
X7101D2*
X7464D1*
X10854D2*
X11142D1*
X5132Y6563D2*
X5226D1*
X7101D2*
X7368D1*
X10854D2*
X11148D1*
X5105Y6465D2*
X5226D1*
X5854D2*
X6846D1*
X10854D2*
X11175D1*
X5054Y6366D2*
X5226D1*
X5854D2*
X6825D1*
X9455D2*
X10110D1*
X10854D2*
X11226D1*
X4200Y6267D2*
X4314D1*
X4966D2*
X5226D1*
X5854D2*
X6825D1*
X9455D2*
X10160D1*
X10854D2*
X11315D1*
X11965D2*
X12080D1*
X4200Y6169D2*
X4501D1*
X4779D2*
X5226D1*
X5854D2*
X6825D1*
X9455D2*
X10176D1*
X10854D2*
X11504D1*
X11776D2*
X12080D1*
X4200Y6070D2*
X4398D1*
X4882D2*
X5226D1*
X5854D2*
X6825D1*
X9455D2*
X10176D1*
X10854D2*
X11396D1*
X11884D2*
X12080D1*
X4200Y5971D2*
X4271D1*
X5009D2*
X5226D1*
X5854D2*
X6826D1*
X9457D2*
X10176D1*
X10854D2*
X11270D1*
X12010D2*
X12080D1*
X5079Y5873D2*
X5226D1*
X5854D2*
X6882D1*
X9555D2*
X10125D1*
X10854D2*
X11200D1*
X5120Y5774D2*
X5226D1*
X5854D2*
X6378D1*
X6702D2*
X7076D1*
X10854D2*
X11160D1*
X5137Y5675D2*
X5226D1*
X5854D2*
X6285D1*
X10854D2*
X11143D1*
X5135Y5577D2*
X5226D1*
X5902D2*
X6254D1*
X10820D2*
X11146D1*
X5110Y5478D2*
X5226D1*
X10726D2*
X11170D1*
X5063Y5379D2*
X5235D1*
X10627D2*
X11217D1*
X4200Y5281D2*
X4300D1*
X4980D2*
X5301D1*
X9179D2*
X9282D1*
X10529D2*
X11300D1*
X11980D2*
X12080D1*
X4200Y5182D2*
X4460D1*
X4820D2*
X5400D1*
X9080D2*
X9184D1*
X10430D2*
X11462D1*
X11818D2*
X12080D1*
X4200Y5083D2*
X4425D1*
X4855D2*
X5423D1*
X9857D2*
X10423D1*
X10857D2*
X11423D1*
X11857D2*
X12080D1*
X4200Y4984D2*
X4284D1*
X4996D2*
X5282D1*
X9998D2*
X10282D1*
X10998D2*
X11282D1*
X11998D2*
X12080D1*
X5073Y4886D2*
X5207D1*
X6073D2*
X6207D1*
X7073D2*
X7207D1*
X8073D2*
X8207D1*
X10073D2*
X10207D1*
X11073D2*
X11207D1*
X5116Y4787D2*
X5163D1*
X6116D2*
X6163D1*
X7116D2*
X7163D1*
X8116D2*
X8163D1*
X10116D2*
X10163D1*
X11116D2*
X11163D1*
X5115Y4491D2*
X5165D1*
X7115D2*
X7165D1*
X8115D2*
X8165D1*
X9115D2*
X9165D1*
X10115D2*
X10165D1*
X11115D2*
X11165D1*
X5071Y4392D2*
X5209D1*
X10071D2*
X10209D1*
X11071D2*
X11209D1*
X4200Y4294D2*
X4285D1*
X4995D2*
X5285D1*
X9995D2*
X10285D1*
X10995D2*
X11285D1*
X11995D2*
X12080D1*
X4200Y4195D2*
X4429D1*
X4851D2*
X5431D1*
X5849D2*
X6137D1*
X9849D2*
X10431D1*
X10849D2*
X11431D1*
X11849D2*
X12080D1*
X7151Y5839D2*
X6969Y5840D1*
X6930Y5851D1*
X6896Y5870D1*
X6867Y5899D1*
X6847Y5933D1*
X6836Y5971D1*
X6835Y6023D1*
X6836Y6407D1*
X6846Y6445D1*
X6866Y6480D1*
X6894Y6508D1*
X6929Y6529D1*
X6950Y6536D1*
X5889D1*
Y7063D1*
X5844Y7098D1*
Y5623D1*
X5973Y5495D1*
X6266D1*
X6262Y5514D1*
Y5563D1*
X6271Y5613D1*
X6288Y5660D1*
X6313Y5703D1*
X6346Y5740D1*
X6385Y5772D1*
X6428Y5796D1*
X6476Y5812D1*
X6525Y5819D1*
X6575Y5817D1*
X6624Y5806D1*
X6670Y5787D1*
X6712Y5760D1*
X6729Y5744D1*
X7057D1*
X7152Y5840D1*
X7091Y6541D2*
X7363D1*
X7396Y6584D1*
X7547Y6736D1*
X7092Y6735D1*
X7091Y6541D1*
X8031Y8760D2*
X7691Y8762D1*
X7589Y8760D1*
X7397D1*
X7361Y8720D1*
X8074D1*
X8032Y8760D1*
X8589Y8013D2*
X7839Y8012D1*
X7691Y8014D1*
X7683Y8012D1*
X7684Y7694D1*
X8598D1*
X8596Y7741D1*
Y8013D1*
X8588D1*
X7701Y10980D2*
X8107D1*
X8419Y10979D1*
X8569Y10980D1*
X8885D1*
Y10140D1*
X8855D1*
X8856Y10062D1*
X8868Y10051D1*
X8925D1*
X9090Y10218D1*
X8931Y10219D1*
Y11078D1*
X9869D1*
Y10445D1*
X9940Y10438D1*
X9986Y10420D1*
X10034Y10384D1*
X10784Y9634D1*
X10815Y9595D1*
X10835Y9549D1*
X10844Y9490D1*
Y5690D1*
X10838Y5640D1*
X10820Y5594D1*
X10784Y5546D1*
X10384Y5146D1*
X10345Y5115D1*
X10299Y5095D1*
X10240Y5086D1*
X9842D1*
X9919Y5042D1*
X9959Y5011D1*
X9995Y4977D1*
X10027Y4939D1*
X10056Y4897D1*
X10080Y4854D1*
X10099Y4808D1*
X10114Y4760D1*
X10124Y4711D1*
X10129Y4641D1*
X10126Y4591D1*
X10118Y4541D1*
X10106Y4493D1*
X10088Y4446D1*
X10066Y4401D1*
X10039Y4359D1*
X10009Y4320D1*
X9974Y4284D1*
X9936Y4252D1*
X9894Y4224D1*
X9826Y4190D1*
X10451D1*
X10373Y4231D1*
X10333Y4261D1*
X10295Y4294D1*
X10262Y4331D1*
X10232Y4372D1*
X10207Y4415D1*
X10186Y4460D1*
X10170Y4507D1*
X10159Y4556D1*
X10153Y4606D1*
X10152Y4656D1*
X10156Y4705D1*
X10165Y4755D1*
X10179Y4802D1*
X10198Y4849D1*
X10221Y4893D1*
X10249Y4934D1*
X10281Y4973D1*
X10317Y5008D1*
X10356Y5039D1*
X10398Y5065D1*
X10443Y5088D1*
X10490Y5106D1*
X10538Y5119D1*
X10587Y5127D1*
X10637Y5129D1*
X10687Y5127D1*
X10737Y5120D1*
X10785Y5107D1*
X10832Y5090D1*
X10877Y5068D1*
X10919Y5042D1*
X10959Y5011D1*
X10995Y4977D1*
X11027Y4939D1*
X11056Y4897D1*
X11080Y4854D1*
X11099Y4808D1*
X11114Y4760D1*
X11124Y4711D1*
X11129Y4641D1*
X11126Y4591D1*
X11118Y4541D1*
X11106Y4493D1*
X11088Y4446D1*
X11066Y4401D1*
X11039Y4359D1*
X11009Y4320D1*
X10974Y4284D1*
X10936Y4252D1*
X10894Y4224D1*
X10826Y4190D1*
X11451D1*
X11373Y4231D1*
X11333Y4261D1*
X11295Y4294D1*
X11262Y4331D1*
X11232Y4372D1*
X11207Y4415D1*
X11186Y4460D1*
X11170Y4507D1*
X11159Y4556D1*
X11153Y4606D1*
X11152Y4656D1*
X11156Y4705D1*
X11165Y4755D1*
X11179Y4802D1*
X11198Y4849D1*
X11221Y4893D1*
X11249Y4934D1*
X11281Y4973D1*
X11317Y5008D1*
X11356Y5039D1*
X11398Y5065D1*
X11443Y5088D1*
X11490Y5106D1*
X11538Y5119D1*
X11587Y5127D1*
X11637Y5129D1*
X11687Y5127D1*
X11737Y5120D1*
X11785Y5107D1*
X11832Y5090D1*
X11877Y5068D1*
X11919Y5042D1*
X11959Y5011D1*
X11995Y4977D1*
X12027Y4939D1*
X12056Y4897D1*
X12090Y4829D1*
X12088Y5446D1*
X12066Y5401D1*
X12039Y5359D1*
X12009Y5320D1*
X11974Y5284D1*
X11936Y5252D1*
X11894Y5224D1*
X11850Y5200D1*
X11804Y5181D1*
X11756Y5166D1*
X11707Y5157D1*
X11658Y5152D1*
X11608Y5153D1*
X11558Y5159D1*
X11509Y5170D1*
X11462Y5186D1*
X11416Y5206D1*
X11373Y5231D1*
X11333Y5261D1*
X11295Y5294D1*
X11262Y5331D1*
X11232Y5372D1*
X11207Y5415D1*
X11186Y5460D1*
X11170Y5507D1*
X11159Y5556D1*
X11153Y5606D1*
X11152Y5656D1*
X11156Y5705D1*
X11165Y5755D1*
X11179Y5802D1*
X11198Y5849D1*
X11221Y5893D1*
X11249Y5934D1*
X11281Y5973D1*
X11317Y6008D1*
X11356Y6039D1*
X11398Y6065D1*
X11443Y6088D1*
X11490Y6106D1*
X11538Y6119D1*
X11587Y6127D1*
X11637Y6129D1*
X11687Y6127D1*
X11737Y6120D1*
X11785Y6107D1*
X11832Y6090D1*
X11877Y6068D1*
X11919Y6042D1*
X11959Y6011D1*
X11995Y5977D1*
X12027Y5939D1*
X12056Y5897D1*
X12090Y5829D1*
X12088Y6446D1*
X12066Y6401D1*
X12039Y6359D1*
X12009Y6320D1*
X11974Y6284D1*
X11936Y6252D1*
X11894Y6224D1*
X11850Y6200D1*
X11804Y6181D1*
X11756Y6166D1*
X11707Y6157D1*
X11658Y6152D1*
X11608Y6153D1*
X11558Y6159D1*
X11509Y6170D1*
X11462Y6186D1*
X11416Y6206D1*
X11373Y6231D1*
X11333Y6261D1*
X11295Y6294D1*
X11262Y6331D1*
X11232Y6372D1*
X11207Y6415D1*
X11186Y6460D1*
X11170Y6507D1*
X11159Y6556D1*
X11153Y6606D1*
X11152Y6656D1*
X11156Y6705D1*
X11165Y6755D1*
X11179Y6802D1*
X11198Y6849D1*
X11221Y6893D1*
X11249Y6934D1*
X11281Y6973D1*
X11317Y7008D1*
X11356Y7039D1*
X11398Y7065D1*
X11443Y7088D1*
X11490Y7106D1*
X11538Y7119D1*
X11587Y7127D1*
X11637Y7129D1*
X11687Y7127D1*
X11737Y7120D1*
X11785Y7107D1*
X11832Y7090D1*
X11877Y7068D1*
X11919Y7042D1*
X11959Y7011D1*
X11995Y6977D1*
X12027Y6939D1*
X12056Y6897D1*
X12090Y6829D1*
X12088Y7446D1*
X12066Y7401D1*
X12039Y7359D1*
X12009Y7320D1*
X11974Y7284D1*
X11936Y7252D1*
X11894Y7224D1*
X11850Y7200D1*
X11804Y7181D1*
X11756Y7166D1*
X11707Y7157D1*
X11658Y7152D1*
X11608Y7153D1*
X11558Y7159D1*
X11509Y7170D1*
X11462Y7186D1*
X11416Y7206D1*
X11373Y7231D1*
X11333Y7261D1*
X11295Y7294D1*
X11262Y7331D1*
X11232Y7372D1*
X11207Y7415D1*
X11186Y7460D1*
X11170Y7507D1*
X11159Y7556D1*
X11153Y7606D1*
X11152Y7656D1*
X11156Y7705D1*
X11165Y7755D1*
X11179Y7802D1*
X11198Y7849D1*
X11221Y7893D1*
X11249Y7934D1*
X11281Y7973D1*
X11317Y8008D1*
X11356Y8039D1*
X11398Y8065D1*
X11443Y8088D1*
X11490Y8106D1*
X11538Y8119D1*
X11587Y8127D1*
X11637Y8129D1*
X11687Y8127D1*
X11737Y8120D1*
X11785Y8107D1*
X11832Y8090D1*
X11877Y8068D1*
X11919Y8042D1*
X11959Y8011D1*
X11995Y7977D1*
X12027Y7939D1*
X12056Y7897D1*
X12090Y7829D1*
X12088Y8446D1*
X12056Y8384D1*
X12015Y8328D1*
X11966Y8277D1*
X11911Y8234D1*
X11850Y8200D1*
X11785Y8174D1*
X11717Y8158D1*
X11648Y8152D1*
X11578Y8156D1*
X11509Y8170D1*
X11443Y8193D1*
X11381Y8226D1*
X11325Y8267D1*
X11275Y8316D1*
X11232Y8372D1*
X11198Y8432D1*
X11173Y8498D1*
X11157Y8566D1*
X11151Y8636D1*
X11156Y8705D1*
X11170Y8774D1*
X11194Y8840D1*
X11227Y8901D1*
X11268Y8958D1*
X11317Y9008D1*
X11373Y9050D1*
X11434Y9084D1*
X11499Y9109D1*
X11568Y9124D1*
X11637Y9129D1*
X11707Y9125D1*
X11776Y9110D1*
X11841Y9086D1*
X11903Y9053D1*
X11959Y9011D1*
X12008Y8962D1*
X12050Y8906D1*
X12084Y8845D1*
X12090Y8831D1*
X12088Y9446D1*
X12066Y9401D1*
X12039Y9359D1*
X12009Y9320D1*
X11974Y9284D1*
X11936Y9252D1*
X11894Y9224D1*
X11850Y9200D1*
X11804Y9181D1*
X11756Y9166D1*
X11707Y9157D1*
X11658Y9152D1*
X11608Y9153D1*
X11558Y9159D1*
X11509Y9170D1*
X11462Y9186D1*
X11416Y9206D1*
X11373Y9231D1*
X11333Y9261D1*
X11295Y9294D1*
X11262Y9331D1*
X11232Y9372D1*
X11207Y9415D1*
X11186Y9460D1*
X11170Y9507D1*
X11159Y9556D1*
X11153Y9606D1*
X11152Y9656D1*
X11156Y9705D1*
X11165Y9755D1*
X11179Y9802D1*
X11198Y9849D1*
X11221Y9893D1*
X11249Y9934D1*
X11281Y9973D1*
X11317Y10008D1*
X11356Y10039D1*
X11398Y10065D1*
X11443Y10088D1*
X11490Y10106D1*
X11538Y10119D1*
X11587Y10127D1*
X11637Y10129D1*
X11687Y10127D1*
X11737Y10120D1*
X11785Y10107D1*
X11832Y10090D1*
X11877Y10068D1*
X11919Y10042D1*
X11959Y10011D1*
X11995Y9977D1*
X12027Y9939D1*
X12056Y9897D1*
X12090Y9829D1*
X12088Y10446D1*
X12066Y10401D1*
X12039Y10359D1*
X12009Y10320D1*
X11974Y10284D1*
X11936Y10252D1*
X11894Y10224D1*
X11850Y10200D1*
X11804Y10181D1*
X11756Y10166D1*
X11707Y10157D1*
X11658Y10152D1*
X11608Y10153D1*
X11558Y10159D1*
X11509Y10170D1*
X11462Y10186D1*
X11416Y10206D1*
X11373Y10231D1*
X11333Y10261D1*
X11295Y10294D1*
X11262Y10331D1*
X11232Y10372D1*
X11207Y10415D1*
X11186Y10460D1*
X11170Y10507D1*
X11159Y10556D1*
X11153Y10606D1*
X11152Y10656D1*
X11156Y10705D1*
X11165Y10755D1*
X11179Y10802D1*
X11198Y10849D1*
X11221Y10893D1*
X11249Y10934D1*
X11281Y10973D1*
X11317Y11008D1*
X11356Y11039D1*
X11398Y11065D1*
X11443Y11088D1*
X11490Y11106D1*
X11538Y11119D1*
X11587Y11127D1*
X11637Y11129D1*
X11687Y11127D1*
X11737Y11120D1*
X11785Y11107D1*
X11832Y11090D1*
X11877Y11068D1*
X11919Y11042D1*
X11959Y11011D1*
X11995Y10977D1*
X12027Y10939D1*
X12056Y10897D1*
X12090Y10829D1*
X12088Y11446D1*
X12066Y11401D1*
X12039Y11359D1*
X12009Y11320D1*
X11974Y11284D1*
X11936Y11252D1*
X11894Y11224D1*
X11850Y11200D1*
X11804Y11181D1*
X11756Y11166D1*
X11707Y11157D1*
X11658Y11152D1*
X11608Y11153D1*
X11558Y11159D1*
X11509Y11170D1*
X11462Y11186D1*
X11416Y11206D1*
X11373Y11231D1*
X11333Y11261D1*
X11295Y11294D1*
X11262Y11331D1*
X11232Y11372D1*
X11207Y11415D1*
X11186Y11460D1*
X11170Y11507D1*
X11159Y11556D1*
X11153Y11606D1*
X11152Y11656D1*
X11156Y11705D1*
X11165Y11755D1*
X11179Y11802D1*
X11198Y11849D1*
X11221Y11893D1*
X11249Y11934D1*
X11281Y11973D1*
X11317Y12008D1*
X11356Y12039D1*
X11398Y12065D1*
X11447Y12090D1*
X9142D1*
X9140Y12024D1*
X9649Y12023D1*
X9928D1*
Y11203D1*
X9139D1*
X9140Y11085D1*
X8084Y11087D1*
X8046Y11085D1*
X7140D1*
Y11202D1*
X6631Y11203D1*
X6352D1*
Y12023D1*
X7141D1*
X7140Y12090D1*
X4832Y12089D1*
X4877Y12067D1*
X4919Y12041D1*
X4959Y12010D1*
X4995Y11976D1*
X5027Y11938D1*
X5056Y11897D1*
X5080Y11853D1*
X5099Y11807D1*
X5114Y11759D1*
X5124Y11710D1*
X5129Y11640D1*
X5126Y11590D1*
X5118Y11541D1*
X5106Y11492D1*
X5088Y11446D1*
X5066Y11401D1*
X5039Y11358D1*
X5009Y11319D1*
X4974Y11283D1*
X4936Y11251D1*
X4894Y11223D1*
X4850Y11199D1*
X4804Y11180D1*
X4756Y11165D1*
X4707Y11156D1*
X4658Y11152D1*
X4608D1*
X4558Y11158D1*
X4509Y11169D1*
X4462Y11185D1*
X4416Y11206D1*
X4373Y11231D1*
X4333Y11260D1*
X4295Y11294D1*
X4262Y11331D1*
X4232Y11371D1*
X4189Y11452D1*
X4190Y10829D1*
X4221Y10892D1*
X4249Y10934D1*
X4281Y10972D1*
X4317Y11007D1*
X4356Y11038D1*
X4398Y11065D1*
X4443Y11087D1*
X4490Y11105D1*
X4538Y11118D1*
X4587Y11126D1*
X4637Y11129D1*
X4687Y11126D1*
X4737Y11119D1*
X4785Y11107D1*
X4832Y11089D1*
X4877Y11067D1*
X4919Y11041D1*
X4962Y11007D1*
Y11063D1*
X4971Y11113D1*
X4988Y11160D1*
X5013Y11203D1*
X5046Y11240D1*
X5085Y11272D1*
X5128Y11296D1*
X5176Y11312D1*
X5225Y11319D1*
X5275Y11317D1*
X5324Y11306D1*
X5370Y11287D1*
X5412Y11260D1*
X5448Y11226D1*
X5478Y11185D1*
X5500Y11141D1*
X5514Y11093D1*
X5519Y11040D1*
X5515Y10990D1*
X5501Y10942D1*
X5480Y10897D1*
X5445Y10851D1*
X5444Y10129D1*
X5478Y10146D1*
X5526Y10162D1*
X5575Y10169D1*
X5625Y10167D1*
X5674Y10156D1*
X5720Y10137D1*
X5765Y10107D1*
X5785Y10122D1*
X5828Y10146D1*
X5876Y10162D1*
X5925Y10169D1*
X5975Y10167D1*
X6024Y10156D1*
X6084Y10128D1*
X6135Y10172D1*
X6178Y10196D1*
X6226Y10212D1*
X6275Y10219D1*
X6325Y10217D1*
X6374Y10206D1*
X6420Y10187D1*
X6462Y10160D1*
X6479Y10144D1*
X7395D1*
Y10440D1*
Y10980D1*
X8117Y10978D1*
X8157Y10980D1*
X8373Y10978D1*
X8413Y10980D1*
X8629Y10978D1*
X6461Y11078D2*
X7349D1*
Y10219D1*
X6411D1*
Y11078D1*
X6461D1*
X9182Y4470D2*
X9159Y4556D1*
X9158Y4561D1*
X9124Y4562D1*
X9106Y4493D1*
X9088Y4446D1*
X9062Y4395D1*
X9107Y4394D1*
X9182Y4470D1*
X8219Y4394D2*
X8186Y4460D1*
X8170Y4507D1*
X8159Y4556D1*
X8153Y4606D1*
X8152Y4656D1*
X8156Y4705D1*
X8165Y4755D1*
X8179Y4802D1*
X8218Y4886D1*
X8061Y4887D1*
X8080Y4854D1*
X8099Y4808D1*
X8114Y4760D1*
X8124Y4711D1*
X8129Y4641D1*
X8126Y4591D1*
X8118Y4541D1*
X8106Y4493D1*
X8088Y4446D1*
X8062Y4395D1*
X8220Y4394D1*
X7219D2*
X7186Y4460D1*
X7170Y4507D1*
X7159Y4556D1*
X7153Y4606D1*
X7152Y4656D1*
X7156Y4705D1*
X7165Y4755D1*
X7179Y4802D1*
X7218Y4886D1*
X7061Y4887D1*
X7080Y4854D1*
X7099Y4808D1*
X7114Y4760D1*
X7124Y4711D1*
X7129Y4641D1*
X7126Y4591D1*
X7118Y4541D1*
X7106Y4493D1*
X7088Y4446D1*
X7062Y4395D1*
X7220Y4394D1*
X6169Y4768D2*
X6198Y4849D1*
X6218Y4886D1*
X6061Y4887D1*
X6084Y4845D1*
X6109Y4779D1*
X6112Y4767D1*
X6167D1*
X5963Y4274D2*
X5911Y4234D1*
X5850Y4200D1*
X5828Y4190D1*
X6151D1*
X6128Y4211D1*
X6079Y4218D1*
X6031Y4233D1*
X5987Y4257D1*
X5964Y4275D1*
X5452Y4190D2*
X5390Y4221D1*
X5333Y4261D1*
X5282Y4309D1*
X5238Y4363D1*
X5202Y4423D1*
X5176Y4488D1*
X5159Y4556D1*
X5152Y4626D1*
X5154Y4695D1*
X5167Y4764D1*
X5190Y4830D1*
X5221Y4893D1*
X5262Y4950D1*
X5310Y5001D1*
X5365Y5044D1*
X5425Y5080D1*
X5487Y5105D1*
X5296Y5296D1*
X5265Y5335D1*
X5245Y5381D1*
X5236Y5440D1*
Y9179D1*
X5096Y9318D1*
X5056Y9374D1*
X5039Y9358D1*
X5009Y9319D1*
X4974Y9283D1*
X4936Y9251D1*
X4894Y9223D1*
X4850Y9199D1*
X4804Y9180D1*
X4756Y9165D1*
X4707Y9156D1*
X4658Y9152D1*
X4608D1*
X4558Y9158D1*
X4509Y9169D1*
X4462Y9185D1*
X4416Y9206D1*
X4373Y9231D1*
X4333Y9260D1*
X4295Y9294D1*
X4262Y9331D1*
X4232Y9371D1*
X4189Y9452D1*
X4190Y8829D1*
X4221Y8892D1*
X4249Y8934D1*
X4281Y8972D1*
X4317Y9007D1*
X4356Y9038D1*
X4398Y9065D1*
X4443Y9087D1*
X4490Y9105D1*
X4538Y9118D1*
X4587Y9126D1*
X4637Y9129D1*
X4687Y9126D1*
X4737Y9119D1*
X4785Y9107D1*
X4832Y9089D1*
X4877Y9067D1*
X4919Y9041D1*
X4959Y9010D1*
X4995Y8976D1*
X5027Y8938D1*
X5056Y8897D1*
X5080Y8853D1*
X5099Y8807D1*
X5114Y8759D1*
X5124Y8710D1*
X5129Y8640D1*
X5126Y8590D1*
X5118Y8541D1*
X5106Y8492D1*
X5088Y8446D1*
X5066Y8401D1*
X5039Y8358D1*
X5009Y8319D1*
X4974Y8283D1*
X4936Y8251D1*
X4894Y8223D1*
X4850Y8199D1*
X4804Y8180D1*
X4756Y8165D1*
X4707Y8156D1*
X4658Y8152D1*
X4608D1*
X4558Y8158D1*
X4509Y8169D1*
X4462Y8185D1*
X4416Y8206D1*
X4373Y8231D1*
X4333Y8260D1*
X4295Y8294D1*
X4262Y8331D1*
X4232Y8371D1*
X4189Y8452D1*
X4190Y7829D1*
X4221Y7892D1*
X4249Y7934D1*
X4281Y7972D1*
X4317Y8007D1*
X4356Y8038D1*
X4398Y8065D1*
X4443Y8087D1*
X4490Y8105D1*
X4538Y8118D1*
X4587Y8126D1*
X4637Y8129D1*
X4687Y8126D1*
X4737Y8119D1*
X4785Y8107D1*
X4832Y8089D1*
X4877Y8067D1*
X4919Y8041D1*
X4959Y8010D1*
X4995Y7976D1*
X5027Y7938D1*
X5056Y7897D1*
X5080Y7853D1*
X5099Y7807D1*
X5114Y7759D1*
X5124Y7710D1*
X5129Y7640D1*
X5126Y7590D1*
X5118Y7541D1*
X5106Y7492D1*
X5088Y7446D1*
X5066Y7401D1*
X5039Y7358D1*
X5009Y7319D1*
X4974Y7283D1*
X4936Y7251D1*
X4894Y7223D1*
X4850Y7199D1*
X4804Y7180D1*
X4756Y7165D1*
X4707Y7156D1*
X4658Y7152D1*
X4608D1*
X4558Y7158D1*
X4509Y7169D1*
X4462Y7185D1*
X4416Y7206D1*
X4373Y7231D1*
X4333Y7260D1*
X4295Y7294D1*
X4262Y7331D1*
X4232Y7371D1*
X4189Y7452D1*
X4190Y6829D1*
X4221Y6892D1*
X4249Y6934D1*
X4281Y6972D1*
X4317Y7007D1*
X4356Y7038D1*
X4398Y7065D1*
X4443Y7087D1*
X4490Y7105D1*
X4538Y7118D1*
X4587Y7126D1*
X4637Y7129D1*
X4687Y7126D1*
X4737Y7119D1*
X4785Y7107D1*
X4832Y7089D1*
X4877Y7067D1*
X4919Y7041D1*
X4959Y7010D1*
X4995Y6976D1*
X5027Y6938D1*
X5056Y6897D1*
X5080Y6853D1*
X5099Y6807D1*
X5114Y6759D1*
X5124Y6710D1*
X5129Y6640D1*
X5126Y6590D1*
X5118Y6541D1*
X5106Y6492D1*
X5088Y6446D1*
X5066Y6401D1*
X5039Y6358D1*
X5009Y6319D1*
X4974Y6283D1*
X4936Y6251D1*
X4894Y6223D1*
X4850Y6199D1*
X4804Y6180D1*
X4756Y6165D1*
X4707Y6156D1*
X4658Y6152D1*
X4608D1*
X4558Y6158D1*
X4509Y6169D1*
X4462Y6185D1*
X4416Y6206D1*
X4373Y6231D1*
X4333Y6260D1*
X4295Y6294D1*
X4262Y6331D1*
X4232Y6371D1*
X4189Y6452D1*
X4190Y5829D1*
X4221Y5892D1*
X4249Y5934D1*
X4281Y5972D1*
X4317Y6007D1*
X4356Y6038D1*
X4398Y6065D1*
X4443Y6087D1*
X4490Y6105D1*
X4538Y6118D1*
X4587Y6126D1*
X4637Y6129D1*
X4687Y6126D1*
X4737Y6119D1*
X4785Y6107D1*
X4832Y6089D1*
X4877Y6067D1*
X4919Y6041D1*
X4959Y6010D1*
X4995Y5976D1*
X5027Y5938D1*
X5056Y5897D1*
X5080Y5853D1*
X5099Y5807D1*
X5114Y5759D1*
X5124Y5710D1*
X5129Y5640D1*
X5126Y5590D1*
X5118Y5541D1*
X5106Y5492D1*
X5088Y5446D1*
X5066Y5401D1*
X5039Y5358D1*
X5009Y5319D1*
X4974Y5283D1*
X4936Y5251D1*
X4894Y5223D1*
X4850Y5199D1*
X4804Y5180D1*
X4756Y5165D1*
X4707Y5156D1*
X4658Y5152D1*
X4608D1*
X4558Y5158D1*
X4509Y5169D1*
X4462Y5185D1*
X4416Y5206D1*
X4373Y5231D1*
X4333Y5260D1*
X4295Y5294D1*
X4262Y5331D1*
X4232Y5371D1*
X4189Y5452D1*
X4190Y4829D1*
X4221Y4892D1*
X4249Y4934D1*
X4281Y4972D1*
X4317Y5007D1*
X4356Y5038D1*
X4398Y5065D1*
X4443Y5087D1*
X4490Y5105D1*
X4538Y5118D1*
X4587Y5126D1*
X4637Y5129D1*
X4687Y5126D1*
X4737Y5119D1*
X4785Y5107D1*
X4832Y5089D1*
X4877Y5067D1*
X4919Y5041D1*
X4959Y5010D1*
X4995Y4976D1*
X5027Y4938D1*
X5056Y4897D1*
X5080Y4853D1*
X5099Y4807D1*
X5114Y4759D1*
X5124Y4710D1*
X5129Y4640D1*
X5126Y4590D1*
X5118Y4541D1*
X5106Y4492D1*
X5088Y4446D1*
X5066Y4401D1*
X5039Y4358D1*
X5009Y4319D1*
X4974Y4283D1*
X4936Y4251D1*
X4894Y4223D1*
X4829Y4190D1*
X5451D1*
X11877Y12068D2*
X11919Y12042D1*
X11959Y12011D1*
X11995Y11977D1*
X12027Y11939D1*
X12056Y11897D1*
X12090Y11829D1*
Y12090D1*
X11832D1*
X11877Y12068D1*
X12090Y4451D2*
X12066Y4401D1*
X12039Y4359D1*
X12009Y4320D1*
X11974Y4284D1*
X11936Y4252D1*
X11894Y4224D1*
X11826Y4190D1*
X12090D1*
Y4451D1*
X4452Y4190D2*
X4373Y4231D1*
X4333Y4260D1*
X4295Y4294D1*
X4262Y4331D1*
X4232Y4371D1*
X4189Y4452D1*
X4190Y4190D1*
X4451D1*
X4190Y9829D2*
X4221Y9892D1*
X4249Y9934D1*
X4281Y9972D1*
X4317Y10007D1*
X4356Y10038D1*
X4398Y10065D1*
X4443Y10087D1*
X4490Y10105D1*
X4538Y10118D1*
X4587Y10126D1*
X4637Y10129D1*
X4687Y10126D1*
X4737Y10119D1*
X4785Y10107D1*
X4832Y10089D1*
X4877Y10067D1*
X4919Y10041D1*
X4959Y10010D1*
X4995Y9976D1*
X5035Y9926D1*
X5036Y10354D1*
X4974Y10283D1*
X4936Y10251D1*
X4894Y10223D1*
X4850Y10199D1*
X4804Y10180D1*
X4756Y10165D1*
X4707Y10156D1*
X4658Y10152D1*
X4608D1*
X4558Y10158D1*
X4509Y10169D1*
X4462Y10185D1*
X4416Y10206D1*
X4373Y10231D1*
X4333Y10260D1*
X4295Y10294D1*
X4262Y10331D1*
X4232Y10371D1*
X4189Y10452D1*
X4190Y9829D1*
Y11829D2*
X4221Y11892D1*
X4249Y11934D1*
X4281Y11972D1*
X4317Y12007D1*
X4356Y12038D1*
X4398Y12065D1*
X4450Y12090D1*
X4190D1*
Y11829D1*
X9445Y6386D2*
Y5974D1*
X9624Y5794D1*
X10057D1*
X10187Y5925D1*
X10186Y6251D1*
X10165Y6275D1*
X10139Y6318D1*
X10121Y6364D1*
X10115Y6400D1*
X10059Y6387D1*
X9640Y6386D1*
X9445D1*
X6439Y9346D2*
X6544D1*
X6570Y9403D1*
X6631Y9470D1*
X6648Y9486D1*
X6140D1*
X6090Y9492D1*
X6044Y9510D1*
X5996Y9546D1*
X5928Y9611D1*
X5879Y9618D1*
X5845Y9629D1*
X5844Y9267D1*
X5889Y9268D1*
Y9346D1*
X6539D1*
X9739Y9395D2*
X10147D1*
X9816Y9726D1*
X9773Y9695D1*
X9727Y9675D1*
X9678Y9664D1*
X9628Y9661D1*
X9579Y9668D1*
X9531Y9683D1*
X9487Y9707D1*
X9448Y9738D1*
X9415Y9775D1*
X9389Y9818D1*
X9371Y9864D1*
X9363Y9912D1*
X9296Y9847D1*
X9334Y9810D1*
X9365Y9770D1*
X9385Y9725D1*
X9394Y9665D1*
Y9465D1*
X9382Y9397D1*
X9389Y9395D1*
X9891Y9394D1*
X7684Y7285D2*
Y7222D1*
X8023Y7221D1*
X8597D1*
X8596Y7286D1*
X7683D1*
X9201Y5312D2*
X8927Y5038D1*
X8946Y5040D1*
X8985Y5072D1*
X9028Y5096D1*
X9076Y5112D1*
X9130Y5118D1*
X9430Y5419D1*
X9426Y5421D1*
X9400Y5407D1*
X9364Y5372D1*
X9323Y5345D1*
X9277Y5325D1*
X9228Y5314D1*
X9202Y5312D1*
X7205Y6541D2*
Y6190D1*
X6835D2*
X7205D1*
X6240Y6906D2*
Y6536D1*
X5889Y6906D2*
X6240D1*
X6740D2*
Y6536D1*
X7440Y8720D2*
Y8366D1*
X7628Y10980D2*
Y10560D1*
X7396D2*
X7628D1*
X5152Y4641D2*
X5640D1*
X11640Y9129D2*
Y8152D1*
X11152Y8641D2*
X11640D1*
X7323Y7863D2*
X7684D1*
X8596D2*
X8957D1*
G36*
X8091Y6387D2*
Y5993D1*
X7658D1*
Y6387D1*
X8091D1*
G37*
G36*
X7422D2*
Y5993D1*
X6989D1*
Y6387D1*
X7422D1*
G37*
D19*
X8140Y9114D3*
Y8366D3*
D18*
X6240Y6906D3*
Y7575D3*
X10040Y6955D3*
Y7625D3*
X9540Y6955D3*
Y7625D3*
X6740Y6906D3*
Y7575D3*
D19*
X7440Y9114D3*
Y8366D3*
D20*
X10640Y4641D3*
X9640D3*
X8640D3*
X7640D3*
X6640D3*
X5640D3*
X11640Y11641D3*
Y10641D3*
Y9641D3*
Y8641D3*
Y7641D3*
Y6641D3*
Y5641D3*
Y4641D3*
X4640Y4640D3*
Y5640D3*
Y6640D3*
Y7640D3*
Y8640D3*
Y9640D3*
Y10640D3*
Y11640D3*
D17*
X8405Y6190D3*
X9075D3*
D19*
X8840Y9115D3*
Y8367D3*
D18*
X6740Y8306D3*
Y8975D3*
X6240Y8305D3*
Y8975D3*
X10040Y8355D3*
Y9025D3*
X9540Y8355D3*
Y9025D3*
D21*
X7323Y7863D3*
X8957D3*
X7323Y7017D3*
X8957D3*
D27*
X8652Y10560D3*
X8396D3*
X8140D3*
X7884D3*
X7628D3*
D28*
X9400Y10649D3*
X6880D3*
D29*
X9488Y11613D3*
X6792D3*
D30*
X8612D3*
X7668D3*
M02*
