G04 DipTrace 2.4.0.2*
%INcleduino_V1_finial_Bottom.gbr*%
%MOIN*%
%ADD13C,0.01*%
%ADD14C,0.008*%
%ADD17R,0.0433X0.0394*%
%ADD18R,0.0394X0.0433*%
%ADD20C,0.0669*%
%ADD22O,0.0118X0.0335*%
%ADD23O,0.0335X0.0118*%
%ADD24R,0.2165X0.2165*%
%ADD26R,0.0236X0.0433*%
%ADD31C,0.025*%
%FSLAX44Y44*%
G04*
G70*
G90*
G75*
G01*
%LNBottom*%
%LPD*%
X9518Y8231D2*
D13*
X10550D1*
X11140Y7641D1*
X11640D1*
X9518Y8034D2*
X10347D1*
X11640Y6741D1*
Y6641D1*
X9518Y7837D2*
X10144D1*
X11090Y6891D1*
Y6191D1*
X11640Y5641D1*
X9518Y7640D2*
X9941D1*
X10840Y6741D1*
Y5441D1*
X11640Y4641D1*
X6762Y8427D2*
X6127D1*
X5340Y7640D1*
X4640D1*
Y6640D2*
Y6690D1*
X6190Y8240D1*
X6753D1*
X6762Y8231D1*
Y8034D2*
X6234D1*
X5240Y7040D1*
Y6240D1*
X4640Y5640D1*
X6762Y7837D2*
X6337D1*
X5490Y6990D1*
Y5490D1*
X4640Y4640D1*
Y10640D2*
Y10390D1*
X5390Y9640D1*
X6390D1*
X6590Y9840D1*
Y10190D1*
X6690Y10290D1*
X7190D1*
X7521Y9959D1*
X7664D1*
X8731Y9018D2*
Y9349D1*
X8190Y9890D1*
X7733D1*
X7664Y9959D1*
X8337Y9018D2*
Y9243D1*
X8240Y9340D1*
X7440D1*
X7240Y9540D1*
X6890D1*
X6590Y9240D1*
X5240D1*
X4640Y8640D1*
X6916Y9959D2*
Y9866D1*
X6490Y9440D1*
X4840D1*
X4640Y9640D1*
X8534Y9018D2*
Y9296D1*
X8240Y9590D1*
X7490D1*
X7190Y9890D1*
X6985D1*
X6916Y9959D1*
X8890Y9590D2*
X8927Y9553D1*
Y9018D1*
X8890Y9590D2*
Y9685D1*
X8616Y9959D1*
Y10064D1*
X8375Y10305D1*
X7675D1*
X7440Y10540D1*
X6890D1*
X6590Y10840D1*
Y11240D1*
X6090Y11740D1*
X4640D1*
Y11640D1*
X8534Y6262D2*
Y5896D1*
X8840Y5590D1*
X5590Y9890D2*
X5540D1*
Y9840D1*
X5390Y9990D1*
Y10540D1*
X5490Y10640D1*
X6040D1*
X6240Y10840D1*
Y10975D1*
X8731Y6262D2*
Y6049D1*
X9190Y5590D1*
X5240Y11040D2*
X5740D1*
Y10975D1*
X6916Y11022D2*
Y11266D1*
X7090Y11440D1*
Y11741D1*
X7105D1*
X8616Y11022D2*
Y11391D1*
X8566D1*
Y11701D1*
X8605Y11741D1*
X10540Y10975D2*
X10040D1*
X8140Y11041D2*
X8159Y11022D1*
X8616D1*
X8337Y6262D2*
Y7443D1*
X8140Y7640D1*
X9518Y6853D2*
X8927D1*
X8140Y7640D1*
X6762Y7246D2*
X7027D1*
X7746D1*
X8140Y7640D1*
X9518Y8427D2*
X8927D1*
X8140Y7640D1*
X7156Y9018D2*
Y8624D1*
X8140Y7640D1*
X9518Y8427D2*
X11027D1*
X11240Y8641D1*
X11640D1*
X10040Y10975D2*
Y11340D1*
X9989Y11391D1*
X8616D1*
X6762Y7246D2*
X6146D1*
X5740Y6840D1*
Y4641D1*
X5640D1*
X6762Y7246D2*
X7746D1*
X8140Y7640D2*
X7421D1*
X7027Y7246D1*
X6916Y11022D2*
X6940D1*
X6290Y11940D2*
X6490D1*
X6689Y11741D1*
X7105D1*
X9690Y11140D2*
Y10975D1*
X10040D1*
X7340Y6690D2*
Y6840D1*
X8140Y7640D1*
Y7840D2*
Y7640D1*
X7156Y6262D2*
Y6156D1*
X6940Y5941D1*
Y5140D1*
X7140Y4940D1*
Y4440D1*
X7390Y4190D1*
X10189D1*
X10640Y4641D1*
X7353Y6262D2*
Y6053D1*
X7190Y5891D1*
Y5290D1*
X7640Y4840D1*
Y4641D1*
X9124Y9018D2*
Y9274D1*
X9290Y9440D1*
X9640D1*
X10040Y9840D1*
Y10305D1*
X5940Y9890D2*
X5990D1*
X5740Y10140D1*
Y10305D1*
X6290Y9940D2*
Y10305D1*
X6240D1*
X6762Y8624D2*
Y8640D1*
X5890D1*
X7690Y5690D2*
Y5840D1*
X7746Y5896D1*
Y6262D1*
X11640Y11641D2*
X10940D1*
X10491Y12090D1*
X8124D1*
X7775Y11741D1*
X7290Y11022D2*
Y11256D1*
X7775Y11741D1*
X6640Y4641D2*
X6540D1*
Y5540D1*
X6190Y5890D1*
Y6690D1*
X6353Y6853D1*
X6762D1*
X8440Y4641D2*
X8640D1*
X8540D1*
X8010Y5171D1*
X7759D1*
X7440Y5490D1*
Y5841D1*
X7549Y5950D1*
Y6262D1*
X8140D2*
Y5940D1*
X8290Y5790D1*
X9364Y11022D2*
Y10717D1*
X9440Y10641D1*
X10340D1*
X10540Y10441D1*
Y10306D1*
X11640Y9641D2*
Y9690D1*
X11040Y10290D1*
X10556D1*
X10540Y10306D1*
X8990Y11022D2*
Y10891D1*
X8740Y10641D1*
X8040D1*
X7664Y11017D1*
Y11022D1*
X11640Y10641D2*
X11540D1*
X10440Y11741D1*
X9275D1*
X9518Y6656D2*
X10174D1*
X10390Y6440D1*
Y5390D1*
X9641Y4641D1*
X9640D1*
X10390Y8990D2*
Y8740D1*
X10274Y8624D1*
X9518D1*
X6140Y4490D2*
Y5540D1*
X5940Y5740D1*
Y6740D1*
X6240Y7040D1*
X6753D1*
X6762Y7049D1*
X7353Y9018D2*
Y9177D1*
X7190Y9340D1*
X6990D1*
X6640Y8990D1*
X5890D1*
X8990Y11022D2*
Y10140D1*
X9190Y9940D1*
X9345D1*
X9364Y9959D1*
Y9940D1*
X9640D1*
X10390Y8990D2*
X10540Y9140D1*
X11890D1*
X12090Y9340D1*
Y10140D1*
X11589Y10641D1*
X11640D1*
X7943Y6262D2*
Y5737D1*
X8590Y5090D1*
X8890D1*
X9140Y4840D1*
X9440Y5140D1*
Y5690D1*
X9240Y5890D1*
X9140D1*
X8940Y6090D1*
Y6249D1*
X8927Y6262D1*
D31*
X8890Y9590D3*
D3*
X8840Y5590D3*
X5590Y9890D3*
X9190Y5590D3*
X5240Y11040D3*
X8140Y11041D3*
X6290Y11940D3*
X9690Y11140D3*
X7340Y6690D3*
X5940Y9890D3*
X6290Y9940D3*
X5890Y8640D3*
X7690Y5690D3*
X6540Y5540D3*
X8290Y5790D3*
X10390Y8990D3*
Y6440D3*
D3*
X6140Y4490D3*
X5890Y8990D3*
X9640Y9940D3*
X10390Y8990D3*
X9140Y4840D3*
X8140Y7840D3*
X4200Y11991D2*
D13*
X4290D1*
X4990D2*
X6725D1*
X10888D2*
X11290D1*
X11990D2*
X12080D1*
X6235Y11893D2*
X6725D1*
X10987D2*
X11212D1*
X6335Y11794D2*
X6725D1*
X8155D2*
X8226D1*
X6434Y11695D2*
X6725D1*
X8155D2*
X8226D1*
X6532Y11597D2*
X6725D1*
X8155D2*
X8226D1*
X5118Y11498D2*
X6034D1*
X6630D2*
X6725D1*
X8155D2*
X8226D1*
X9655D2*
X10384D1*
X5076Y11399D2*
X6132D1*
X8155D2*
X8226D1*
X9655D2*
X10484D1*
X11080D2*
X11206D1*
X4200Y11300D2*
X4279D1*
X5001D2*
X5131D1*
X5349D2*
X5425D1*
X7946D2*
X8334D1*
X9646D2*
X9679D1*
X11179D2*
X11279D1*
X12001D2*
X12080D1*
X4200Y11202D2*
X4414D1*
X4866D2*
X5003D1*
X7946D2*
X8334D1*
X9646D2*
X9679D1*
X11277D2*
X11415D1*
X11865D2*
X12080D1*
X4200Y11103D2*
X4475D1*
X4805D2*
X4959D1*
X7946D2*
X8334D1*
X9646D2*
X9679D1*
X11376D2*
X11473D1*
X11807D2*
X12080D1*
X4200Y11004D2*
X4304D1*
X7974D2*
X8334D1*
X9646D2*
X9679D1*
X11976D2*
X12080D1*
X8073Y10906D2*
X8334D1*
X9646D2*
X9679D1*
X10901D2*
X10975D1*
X10901Y10807D2*
X11076D1*
X5134Y10708D2*
X5260D1*
X10901D2*
X11146D1*
X5138Y10610D2*
X5189D1*
X7668D2*
X7773D1*
X10901D2*
X11142D1*
X5121Y10511D2*
X5176D1*
X7768D2*
X7871D1*
X9204D2*
X9272D1*
X10901D2*
X11159D1*
X5082Y10412D2*
X5176D1*
X8566D2*
X8776D1*
X9204D2*
X9679D1*
X4200Y10314D2*
X4267D1*
X5015D2*
X5176D1*
X9646D2*
X9679D1*
X4200Y10215D2*
X4389D1*
X5113D2*
X5176D1*
X4200Y10116D2*
X4521D1*
X11762D2*
X11815D1*
X4200Y10018D2*
X4320D1*
X11126Y9820D2*
X11177D1*
X11088Y9721D2*
X11148D1*
X11051Y9623D2*
X11142D1*
X10023Y9524D2*
X10082D1*
X11013D2*
X11156D1*
X9924Y9425D2*
X10146D1*
X10949D2*
X11192D1*
X4200Y9327D2*
X4256D1*
X9826D2*
X10448D1*
X4200Y9228D2*
X4367D1*
X9376D2*
X10235D1*
X4200Y9129D2*
X4831D1*
X9348D2*
X10139D1*
X4200Y9031D2*
X4337D1*
X5329D2*
X5604D1*
X9348D2*
X10104D1*
X4200Y8932D2*
X4239D1*
X5230D2*
X5607D1*
X6880D2*
X6932D1*
X9348D2*
X10107D1*
X10673D2*
X11237D1*
X5132Y8833D2*
X5650D1*
X9677D2*
X10150D1*
X10630D2*
X11181D1*
X5129Y8735D2*
X5618D1*
X10604D2*
X11151D1*
X5138Y8636D2*
X5601D1*
X10576D2*
X11142D1*
X5127Y8537D2*
X5621D1*
X10485D2*
X11153D1*
X5095Y8439D2*
X5687D1*
X10368D2*
X11185D1*
X4200Y8340D2*
X4245D1*
X5035D2*
X5742D1*
X10740D2*
X11245D1*
X12035D2*
X12080D1*
X4200Y8241D2*
X4348D1*
X4932D2*
X5643D1*
X10838D2*
X11350D1*
X11930D2*
X12080D1*
X4200Y8142D2*
X5545D1*
X10937D2*
X12080D1*
X4200Y8044D2*
X4356D1*
X4924D2*
X5445D1*
X11035D2*
X11354D1*
X11926D2*
X12080D1*
X4200Y7945D2*
X4248D1*
X5032D2*
X5346D1*
X11134D2*
X11248D1*
X12032D2*
X12080D1*
X5093Y7846D2*
X5248D1*
X6349Y7550D2*
X6451D1*
X6249Y7452D2*
X6431D1*
X4200Y7353D2*
X4234D1*
X6151D2*
X6451D1*
X9829D2*
X9929D1*
X12045D2*
X12080D1*
X4200Y7254D2*
X4331D1*
X6052D2*
X6431D1*
X9849D2*
X10028D1*
X11949D2*
X12080D1*
X4200Y7156D2*
X4567D1*
X4713D2*
X4807D1*
X5954D2*
X6057D1*
X9829D2*
X10126D1*
X11523D2*
X11572D1*
X11707D2*
X12080D1*
X4200Y7057D2*
X4376D1*
X5855D2*
X5959D1*
X9849D2*
X10226D1*
X11905D2*
X12080D1*
X4200Y6958D2*
X4259D1*
X5757D2*
X5860D1*
X9829D2*
X10325D1*
X12021D2*
X12080D1*
X5704Y6860D2*
X5763D1*
X10190D2*
X10423D1*
X10368Y6761D2*
X10521D1*
X10568Y6662D2*
X10621D1*
X6404Y6563D2*
X6451D1*
X6404Y6465D2*
X6550D1*
X6404Y6366D2*
X6932D1*
X9348D2*
X9479D1*
X4200Y6267D2*
X4314D1*
X6404D2*
X6932D1*
X11965D2*
X12080D1*
X4200Y6169D2*
X4501D1*
X4779D2*
X4870D1*
X6404D2*
X6870D1*
X11410D2*
X11504D1*
X11776D2*
X12080D1*
X4200Y6070D2*
X4398D1*
X6404D2*
X6773D1*
X11884D2*
X12080D1*
X4200Y5971D2*
X4271D1*
X6407D2*
X6729D1*
X12010D2*
X12080D1*
X5171Y5873D2*
X5276D1*
X6505D2*
X6726D1*
X11054D2*
X11110D1*
X5120Y5774D2*
X5276D1*
X11054D2*
X11160D1*
X5137Y5675D2*
X5276D1*
X5704D2*
X5736D1*
X9654D2*
X10176D1*
X11054D2*
X11143D1*
X5135Y5577D2*
X5276D1*
X5704D2*
X5806D1*
X8479D2*
X8551D1*
X9654D2*
X10176D1*
X11054D2*
X11146D1*
X5110Y5478D2*
X5179D1*
X5704D2*
X5904D1*
X8501D2*
X8575D1*
X9654D2*
X10176D1*
X11101D2*
X11169D1*
X5671Y5379D2*
X5926D1*
X7849D2*
X8003D1*
X8599D2*
X8648D1*
X9654D2*
X10081D1*
X10604D2*
X10636D1*
X4200Y5281D2*
X4300D1*
X5579D2*
X5926D1*
X8973D2*
X9226D1*
X9654D2*
X9982D1*
X10573D2*
X10701D1*
X11980D2*
X12080D1*
X4200Y5182D2*
X4460D1*
X4820D2*
X4884D1*
X5480D2*
X5926D1*
X9096D2*
X9184D1*
X9654D2*
X9884D1*
X10480D2*
X10801D1*
X11398D2*
X11462D1*
X11818D2*
X12080D1*
X4200Y5083D2*
X4425D1*
X5382D2*
X5423D1*
X5857D2*
X5926D1*
X10382D2*
X10423D1*
X10857D2*
X10899D1*
X11857D2*
X12080D1*
X4200Y4984D2*
X4284D1*
X11998D2*
X12080D1*
X5116Y4787D2*
X5163D1*
X10116D2*
X10163D1*
X11116D2*
X11163D1*
X5115Y4491D2*
X5165D1*
X8115D2*
X8165D1*
X9115D2*
X9165D1*
X10115D2*
X10165D1*
X11115D2*
X11165D1*
X5071Y4392D2*
X5209D1*
X11071D2*
X11209D1*
X4200Y4294D2*
X4285D1*
X4995D2*
X5285D1*
X10995D2*
X11285D1*
X11995D2*
X12080D1*
X4200Y4195D2*
X4429D1*
X4851D2*
X5431D1*
X5849D2*
X6431D1*
X6849D2*
X7087D1*
X10849D2*
X11431D1*
X11849D2*
X12080D1*
X8145Y11824D2*
Y11390D1*
X7937D1*
X7936Y11032D1*
X8125Y10844D1*
X8345Y10845D1*
X8344Y11102D1*
Y11390D1*
X8235D1*
Y11886D1*
X8197Y11875D1*
X8146Y11823D1*
X6735Y11393D2*
Y12090D1*
X4832Y12089D1*
X4877Y12067D1*
X4919Y12041D1*
X4959Y12010D1*
X5022Y11944D1*
X6090D1*
X6140Y11938D1*
X6186Y11920D1*
X6234Y11884D1*
X6726Y11393D1*
X6735D1*
X9645Y11537D2*
Y11390D1*
X9637D1*
X9636Y10893D1*
Y10844D1*
X9688Y10845D1*
X9689Y11324D1*
Y11345D1*
X10546Y11346D1*
X10356Y11536D1*
X9645Y11537D1*
X10891Y10677D2*
Y10494D1*
X11040D1*
X11090Y10488D1*
X11136Y10470D1*
X11184Y10434D1*
X11207Y10415D1*
X11186Y10460D1*
X11170Y10507D1*
X11159Y10556D1*
X11153Y10606D1*
X11152Y10656D1*
X11161Y10732D1*
X10891Y11001D1*
Y10605D1*
X11126Y4591D2*
X11118Y4541D1*
X11106Y4493D1*
X11088Y4446D1*
X11066Y4401D1*
X11039Y4359D1*
X11009Y4320D1*
X10974Y4284D1*
X10936Y4252D1*
X10894Y4224D1*
X10826Y4190D1*
X11451D1*
X11373Y4231D1*
X11333Y4261D1*
X11295Y4294D1*
X11262Y4331D1*
X11232Y4372D1*
X11207Y4415D1*
X11186Y4460D1*
X11170Y4507D1*
X11159Y4556D1*
X11153Y4606D1*
X11152Y4656D1*
X11156Y4705D1*
X11165Y4755D1*
X11182Y4810D1*
X10696Y5296D1*
X10665Y5336D1*
X10645Y5381D1*
X10636Y5441D1*
Y6308D1*
X10595Y6251D1*
X10594Y5390D1*
X10588Y5340D1*
X10570Y5294D1*
X10534Y5246D1*
X10099Y4808D1*
X10114Y4760D1*
X10124Y4711D1*
X10129Y4641D1*
X10126Y4591D1*
X10118Y4541D1*
X10106Y4493D1*
X10088Y4446D1*
X10062Y4395D1*
X10104Y4394D1*
X10181Y4470D1*
X10159Y4556D1*
X10153Y4606D1*
X10152Y4656D1*
X10156Y4705D1*
X10165Y4755D1*
X10179Y4802D1*
X10198Y4849D1*
X10221Y4893D1*
X10249Y4934D1*
X10281Y4973D1*
X10317Y5008D1*
X10356Y5039D1*
X10398Y5065D1*
X10443Y5088D1*
X10490Y5106D1*
X10538Y5119D1*
X10587Y5127D1*
X10637Y5129D1*
X10687Y5127D1*
X10737Y5120D1*
X10785Y5107D1*
X10832Y5090D1*
X10877Y5068D1*
X10919Y5042D1*
X10959Y5011D1*
X10995Y4977D1*
X11027Y4939D1*
X11056Y4897D1*
X11080Y4854D1*
X11099Y4808D1*
X11114Y4760D1*
X11124Y4711D1*
X11129Y4641D1*
X11126Y4591D1*
X9219Y4394D2*
X9186Y4460D1*
X9170Y4507D1*
X9158Y4561D1*
X9124Y4562D1*
X9106Y4493D1*
X9088Y4446D1*
X9062Y4395D1*
X9220Y4394D1*
X9645Y5129D2*
X9737Y5120D1*
X9810Y5098D1*
X10187Y5476D1*
X10186Y5717D1*
X10164Y5708D1*
X10115Y5701D1*
X10055Y5710D1*
X10030Y5704D1*
X9970Y5703D1*
X9935Y5708D1*
X9886Y5701D1*
X9836Y5706D1*
X9803Y5719D1*
X9775Y5708D1*
X9726Y5701D1*
X9676Y5706D1*
X9643Y5719D1*
X9644Y5490D1*
Y5138D1*
X8219Y4394D2*
X8186Y4460D1*
X8170Y4507D1*
X8159Y4556D1*
X8153Y4606D1*
X8152Y4656D1*
X8161Y4732D1*
X8107Y4785D1*
X8124Y4711D1*
X8129Y4641D1*
X8126Y4591D1*
X8118Y4541D1*
X8106Y4493D1*
X8088Y4446D1*
X8062Y4395D1*
X8220Y4394D1*
X6990Y4301D2*
X6936Y4252D1*
X6894Y4224D1*
X6826Y4190D1*
X7101D1*
X6995Y4297D1*
X6452Y4190D2*
X6373Y4231D1*
X6318Y4274D1*
X6273Y4245D1*
X6227Y4225D1*
X6178Y4214D1*
X6128Y4211D1*
X6079Y4218D1*
X6031Y4233D1*
X5987Y4257D1*
X5964Y4275D1*
X5911Y4234D1*
X5850Y4200D1*
X5828Y4190D1*
X6451D1*
X5452D2*
X5390Y4221D1*
X5333Y4261D1*
X5282Y4309D1*
X5238Y4363D1*
X5202Y4423D1*
X5176Y4488D1*
X5159Y4556D1*
X5152Y4626D1*
X5154Y4695D1*
X5167Y4764D1*
X5190Y4830D1*
X5221Y4893D1*
X5262Y4950D1*
X5310Y5001D1*
X5365Y5044D1*
X5425Y5080D1*
X5490Y5106D1*
X5558Y5122D1*
X5627Y5129D1*
X5697Y5126D1*
X5766Y5113D1*
X5832Y5090D1*
X5894Y5058D1*
X5936Y5029D1*
Y5457D1*
X5796Y5596D1*
X5765Y5635D1*
X5745Y5681D1*
X5736Y5740D1*
Y6740D1*
X5742Y6790D1*
X5760Y6836D1*
X5796Y6884D1*
X6096Y7184D1*
X6135Y7215D1*
X6181Y7235D1*
X6240Y7244D1*
X6442D1*
X6443Y7277D1*
X6456Y7325D1*
X6465Y7345D1*
X6452Y7375D1*
X6442Y7424D1*
X6443Y7474D1*
X6456Y7522D1*
X6465Y7540D1*
X6452Y7572D1*
X6442Y7632D1*
X6410Y7622D1*
X5693Y6905D1*
X5694Y5490D1*
X5688Y5440D1*
X5670Y5394D1*
X5634Y5346D1*
X5098Y4810D1*
X5114Y4759D1*
X5124Y4710D1*
X5129Y4640D1*
X5126Y4590D1*
X5118Y4541D1*
X5106Y4492D1*
X5088Y4446D1*
X5066Y4401D1*
X5039Y4358D1*
X5009Y4319D1*
X4974Y4283D1*
X4936Y4251D1*
X4894Y4223D1*
X4829Y4190D1*
X5451D1*
X12090Y11451D2*
X12066Y11401D1*
X12039Y11359D1*
X12009Y11320D1*
X11974Y11284D1*
X11936Y11252D1*
X11894Y11224D1*
X11850Y11200D1*
X11804Y11181D1*
X11756Y11166D1*
X11707Y11157D1*
X11658Y11152D1*
X11608Y11153D1*
X11558Y11159D1*
X11509Y11170D1*
X11462Y11186D1*
X11416Y11206D1*
X11373Y11231D1*
X11333Y11261D1*
X11295Y11294D1*
X11262Y11331D1*
X11232Y11372D1*
X11197Y11436D1*
X11032Y11437D1*
X11403Y11066D1*
X11443Y11088D1*
X11490Y11106D1*
X11538Y11119D1*
X11587Y11127D1*
X11637Y11129D1*
X11687Y11127D1*
X11737Y11120D1*
X11785Y11107D1*
X11832Y11090D1*
X11877Y11068D1*
X11919Y11042D1*
X11959Y11011D1*
X11995Y10977D1*
X12027Y10939D1*
X12056Y10897D1*
X12090Y10829D1*
Y11451D1*
X11196Y11844D2*
X11221Y11893D1*
X11249Y11934D1*
X11281Y11973D1*
X11317Y12008D1*
X11356Y12039D1*
X11398Y12065D1*
X11447Y12090D1*
X10779D1*
X11025Y11844D1*
X11195Y11845D1*
X11877Y12068D2*
X11919Y12042D1*
X11959Y12011D1*
X11995Y11977D1*
X12027Y11939D1*
X12056Y11897D1*
X12090Y11829D1*
Y12090D1*
X11832D1*
X11877Y12068D1*
X11770Y10170D2*
X11707Y10157D1*
X11658Y10152D1*
X11608Y10153D1*
X11558Y10159D1*
X11509Y10170D1*
X11462Y10186D1*
X11407Y10212D1*
X11508Y10111D1*
X11587Y10127D1*
X11637Y10129D1*
X11687Y10127D1*
X11737Y10120D1*
X11785Y10107D1*
X11870Y10072D1*
X11772Y10169D1*
X11252Y9345D2*
X11207Y9415D1*
X11186Y9460D1*
X11170Y9507D1*
X11159Y9556D1*
X11153Y9606D1*
X11152Y9656D1*
X11156Y9705D1*
X11165Y9755D1*
X11196Y9844D1*
X11117Y9925D1*
X11124Y9864D1*
X11111Y9806D1*
X10996Y9505D1*
X10973Y9462D1*
X10939Y9425D1*
X10896Y9399D1*
X10849Y9384D1*
X10799Y9381D1*
X10750Y9392D1*
X10705Y9415D1*
X10654Y9371D1*
X10609Y9348D1*
X10589Y9344D1*
X11251D1*
X12090Y8451D2*
X12061Y8393D1*
X12021Y8335D1*
X11974Y8284D1*
X11920Y8240D1*
X11859Y8204D1*
X11795Y8177D1*
X11727Y8160D1*
X11658Y8152D1*
X11588Y8155D1*
X11519Y8167D1*
X11452Y8189D1*
X11390Y8221D1*
X11333Y8261D1*
X11282Y8309D1*
X11238Y8363D1*
X11202Y8423D1*
X11176Y8488D1*
X11159Y8556D1*
X11152Y8626D1*
X11154Y8695D1*
X11167Y8764D1*
X11190Y8830D1*
X11221Y8893D1*
X11251Y8936D1*
X10663D1*
X10651Y8892D1*
X10630Y8847D1*
X10595Y8801D1*
X10594Y8740D1*
X10588Y8690D1*
X10570Y8644D1*
X10534Y8596D1*
X10419Y8480D1*
X10378Y8449D1*
X10368Y8435D1*
X10550D1*
X10600Y8428D1*
X10646Y8411D1*
X10694Y8375D1*
X11206Y7863D1*
X11249Y7934D1*
X11281Y7973D1*
X11317Y8008D1*
X11356Y8039D1*
X11398Y8065D1*
X11443Y8088D1*
X11490Y8106D1*
X11538Y8119D1*
X11587Y8127D1*
X11637Y8129D1*
X11687Y8127D1*
X11737Y8120D1*
X11785Y8107D1*
X11832Y8090D1*
X11877Y8068D1*
X11919Y8042D1*
X11959Y8011D1*
X11995Y7977D1*
X12027Y7939D1*
X12056Y7897D1*
X12090Y7829D1*
Y8451D1*
Y7451D2*
X12066Y7401D1*
X12039Y7359D1*
X12009Y7320D1*
X11974Y7284D1*
X11936Y7252D1*
X11894Y7224D1*
X11850Y7200D1*
X11804Y7181D1*
X11756Y7166D1*
X11707Y7157D1*
X11658Y7152D1*
X11608Y7153D1*
X11558Y7159D1*
X11493Y7175D1*
X11549Y7121D1*
X11637Y7129D1*
X11687Y7127D1*
X11737Y7120D1*
X11785Y7107D1*
X11832Y7090D1*
X11877Y7068D1*
X11919Y7042D1*
X11959Y7011D1*
X11995Y6977D1*
X12027Y6939D1*
X12056Y6897D1*
X12090Y6829D1*
Y7451D1*
Y6451D2*
X12066Y6401D1*
X12039Y6359D1*
X12009Y6320D1*
X11974Y6284D1*
X11936Y6252D1*
X11894Y6224D1*
X11850Y6200D1*
X11804Y6181D1*
X11756Y6166D1*
X11707Y6157D1*
X11658Y6152D1*
X11608Y6153D1*
X11558Y6159D1*
X11509Y6170D1*
X11462Y6186D1*
X11416Y6206D1*
X11373Y6231D1*
X11333Y6261D1*
X11294Y6295D1*
Y6274D1*
X11470Y6100D1*
X11538Y6119D1*
X11587Y6127D1*
X11637Y6129D1*
X11687Y6127D1*
X11737Y6120D1*
X11785Y6107D1*
X11832Y6090D1*
X11877Y6068D1*
X11919Y6042D1*
X11959Y6011D1*
X11995Y5977D1*
X12027Y5939D1*
X12056Y5897D1*
X12090Y5829D1*
Y6451D1*
Y5451D2*
X12066Y5401D1*
X12039Y5359D1*
X12009Y5320D1*
X11974Y5284D1*
X11936Y5252D1*
X11894Y5224D1*
X11850Y5200D1*
X11804Y5181D1*
X11756Y5166D1*
X11707Y5157D1*
X11658Y5152D1*
X11608Y5153D1*
X11558Y5159D1*
X11509Y5170D1*
X11462Y5186D1*
X11416Y5206D1*
X11373Y5231D1*
X11333Y5261D1*
X11295Y5294D1*
X11262Y5331D1*
X11232Y5372D1*
X11207Y5415D1*
X11186Y5460D1*
X11170Y5507D1*
X11159Y5556D1*
X11153Y5606D1*
X11152Y5656D1*
X11156Y5705D1*
X11165Y5755D1*
X11182Y5810D1*
X11044Y5948D1*
Y5524D1*
X11232Y5337D1*
X11469Y5100D1*
X11538Y5119D1*
X11587Y5127D1*
X11637Y5129D1*
X11687Y5127D1*
X11737Y5120D1*
X11785Y5107D1*
X11832Y5090D1*
X11877Y5068D1*
X11919Y5042D1*
X11959Y5011D1*
X11995Y4977D1*
X12027Y4939D1*
X12056Y4897D1*
X12090Y4829D1*
Y5451D1*
Y4451D2*
X12066Y4401D1*
X12039Y4359D1*
X12009Y4320D1*
X11974Y4284D1*
X11936Y4252D1*
X11894Y4224D1*
X11826Y4190D1*
X12090D1*
Y4451D1*
X4452Y4190D2*
X4373Y4231D1*
X4333Y4260D1*
X4295Y4294D1*
X4262Y4331D1*
X4232Y4371D1*
X4189Y4452D1*
X4190Y4190D1*
X4451D1*
X4190Y4829D2*
X4221Y4892D1*
X4249Y4934D1*
X4281Y4972D1*
X4317Y5007D1*
X4356Y5038D1*
X4398Y5065D1*
X4443Y5087D1*
X4490Y5105D1*
X4538Y5118D1*
X4587Y5126D1*
X4637Y5129D1*
X4687Y5126D1*
X4737Y5119D1*
X4810Y5097D1*
X5286Y5574D1*
Y5998D1*
X5098Y5810D1*
X5114Y5759D1*
X5124Y5710D1*
X5129Y5640D1*
X5126Y5590D1*
X5118Y5541D1*
X5106Y5492D1*
X5088Y5446D1*
X5066Y5401D1*
X5039Y5358D1*
X5009Y5319D1*
X4974Y5283D1*
X4936Y5251D1*
X4894Y5223D1*
X4850Y5199D1*
X4804Y5180D1*
X4756Y5165D1*
X4707Y5156D1*
X4658Y5152D1*
X4608D1*
X4558Y5158D1*
X4509Y5169D1*
X4462Y5185D1*
X4416Y5206D1*
X4373Y5231D1*
X4333Y5260D1*
X4295Y5294D1*
X4262Y5331D1*
X4232Y5371D1*
X4189Y5452D1*
X4190Y4829D1*
Y5829D2*
X4221Y5892D1*
X4249Y5934D1*
X4281Y5972D1*
X4317Y6007D1*
X4356Y6038D1*
X4398Y6065D1*
X4443Y6087D1*
X4490Y6105D1*
X4538Y6118D1*
X4587Y6126D1*
X4637Y6129D1*
X4687Y6126D1*
X4737Y6119D1*
X4810Y6097D1*
X5036Y6325D1*
Y6354D1*
X4974Y6283D1*
X4936Y6251D1*
X4894Y6223D1*
X4850Y6199D1*
X4804Y6180D1*
X4756Y6165D1*
X4707Y6156D1*
X4658Y6152D1*
X4608D1*
X4558Y6158D1*
X4509Y6169D1*
X4462Y6185D1*
X4416Y6206D1*
X4373Y6231D1*
X4333Y6260D1*
X4295Y6294D1*
X4262Y6331D1*
X4232Y6371D1*
X4189Y6452D1*
X4190Y5829D1*
Y6829D2*
X4221Y6892D1*
X4249Y6934D1*
X4281Y6972D1*
X4317Y7007D1*
X4356Y7038D1*
X4398Y7065D1*
X4443Y7087D1*
X4490Y7105D1*
X4538Y7118D1*
X4587Y7126D1*
X4637Y7129D1*
X4687Y7126D1*
X4771Y7110D1*
X4870Y7209D1*
X4804Y7180D1*
X4756Y7165D1*
X4707Y7156D1*
X4658Y7152D1*
X4608D1*
X4558Y7158D1*
X4509Y7169D1*
X4462Y7185D1*
X4416Y7206D1*
X4373Y7231D1*
X4333Y7260D1*
X4295Y7294D1*
X4262Y7331D1*
X4232Y7371D1*
X4189Y7452D1*
X4190Y6829D1*
Y7829D2*
X4221Y7892D1*
X4249Y7934D1*
X4281Y7972D1*
X4317Y8007D1*
X4356Y8038D1*
X4398Y8065D1*
X4443Y8087D1*
X4490Y8105D1*
X4538Y8118D1*
X4587Y8126D1*
X4637Y8129D1*
X4687Y8126D1*
X4737Y8119D1*
X4785Y8107D1*
X4832Y8089D1*
X4877Y8067D1*
X4919Y8041D1*
X4959Y8010D1*
X4995Y7976D1*
X5027Y7938D1*
X5056Y7897D1*
X5084Y7843D1*
X5257Y7844D1*
X5443Y8032D1*
X5791Y8380D1*
X5737Y8407D1*
X5698Y8438D1*
X5665Y8475D1*
X5639Y8518D1*
X5621Y8564D1*
X5612Y8614D1*
Y8663D1*
X5621Y8713D1*
X5638Y8760D1*
X5672Y8813D1*
X5639Y8868D1*
X5621Y8914D1*
X5612Y8964D1*
Y9013D1*
X5616Y9037D1*
X5323Y9036D1*
X5137Y8848D1*
X5098Y8810D1*
X5114Y8759D1*
X5124Y8710D1*
X5129Y8640D1*
X5126Y8590D1*
X5118Y8541D1*
X5106Y8492D1*
X5088Y8446D1*
X5066Y8401D1*
X5039Y8358D1*
X5009Y8319D1*
X4974Y8283D1*
X4936Y8251D1*
X4894Y8223D1*
X4850Y8199D1*
X4804Y8180D1*
X4756Y8165D1*
X4707Y8156D1*
X4658Y8152D1*
X4608D1*
X4558Y8158D1*
X4509Y8169D1*
X4462Y8185D1*
X4416Y8206D1*
X4373Y8231D1*
X4333Y8260D1*
X4295Y8294D1*
X4262Y8331D1*
X4232Y8371D1*
X4189Y8452D1*
X4190Y7829D1*
Y8829D2*
X4221Y8892D1*
X4249Y8934D1*
X4281Y8972D1*
X4317Y9007D1*
X4356Y9038D1*
X4398Y9065D1*
X4443Y9087D1*
X4490Y9105D1*
X4538Y9118D1*
X4587Y9126D1*
X4637Y9129D1*
X4687Y9126D1*
X4737Y9119D1*
X4810Y9097D1*
X4948Y9236D1*
X4913D1*
X4850Y9199D1*
X4804Y9180D1*
X4756Y9165D1*
X4707Y9156D1*
X4658Y9152D1*
X4608D1*
X4558Y9158D1*
X4509Y9169D1*
X4462Y9185D1*
X4416Y9206D1*
X4373Y9231D1*
X4333Y9260D1*
X4295Y9294D1*
X4262Y9331D1*
X4232Y9371D1*
X4189Y9452D1*
X4190Y8829D1*
Y9829D2*
X4221Y9892D1*
X4249Y9934D1*
X4281Y9972D1*
X4317Y10007D1*
X4356Y10038D1*
X4398Y10065D1*
X4443Y10087D1*
X4490Y10105D1*
X4538Y10118D1*
X4614Y10127D1*
X4586Y10155D1*
X4509Y10169D1*
X4462Y10185D1*
X4416Y10206D1*
X4373Y10231D1*
X4333Y10260D1*
X4295Y10294D1*
X4262Y10331D1*
X4232Y10371D1*
X4189Y10452D1*
X4190Y9829D1*
X5126Y10590D2*
X5118Y10541D1*
X5106Y10492D1*
X5088Y10446D1*
X5066Y10401D1*
X5039Y10358D1*
X5003Y10314D1*
X5185Y10133D1*
X5186Y10540D1*
X5192Y10590D1*
X5210Y10636D1*
X5246Y10684D1*
X5341Y10780D1*
X5278Y10764D1*
X5228Y10761D1*
X5179Y10768D1*
X5131Y10783D1*
X5102Y10799D1*
X5124Y10710D1*
X5129Y10640D1*
X5126Y10590D1*
X4190Y10829D2*
X4221Y10892D1*
X4249Y10934D1*
X4281Y10972D1*
X4317Y11007D1*
X4356Y11038D1*
X4398Y11065D1*
X4443Y11087D1*
X4490Y11105D1*
X4538Y11118D1*
X4587Y11126D1*
X4637Y11129D1*
X4687Y11126D1*
X4737Y11119D1*
X4785Y11107D1*
X4832Y11089D1*
X4877Y11067D1*
X4919Y11041D1*
X4962Y11007D1*
Y11063D1*
X4971Y11113D1*
X4988Y11160D1*
X5013Y11203D1*
X5046Y11240D1*
X5085Y11272D1*
X5128Y11296D1*
X5176Y11312D1*
X5225Y11319D1*
X5275Y11317D1*
X5324Y11306D1*
X5370Y11287D1*
X5408Y11262D1*
X5420Y11284D1*
X5457Y11319D1*
X5510Y11341D1*
X5593Y11345D1*
X5937D1*
X5987Y11336D1*
X6043Y11345D1*
X6198D1*
X6005Y11537D1*
X5117Y11536D1*
X5106Y11492D1*
X5088Y11446D1*
X5066Y11401D1*
X5039Y11358D1*
X5009Y11319D1*
X4974Y11283D1*
X4936Y11251D1*
X4894Y11223D1*
X4850Y11199D1*
X4804Y11180D1*
X4756Y11165D1*
X4707Y11156D1*
X4658Y11152D1*
X4608D1*
X4558Y11158D1*
X4509Y11169D1*
X4462Y11185D1*
X4416Y11206D1*
X4373Y11231D1*
X4333Y11260D1*
X4295Y11294D1*
X4262Y11331D1*
X4232Y11371D1*
X4189Y11452D1*
X4190Y10829D1*
Y11829D2*
X4221Y11892D1*
X4249Y11934D1*
X4281Y11972D1*
X4317Y12007D1*
X4356Y12038D1*
X4398Y12065D1*
X4450Y12090D1*
X4190D1*
Y11829D1*
X9689Y10215D2*
Y10436D1*
X9440Y10437D1*
X9390Y10443D1*
X9344Y10461D1*
X9296Y10496D1*
X9206Y10588D1*
X9194Y10572D1*
Y10330D1*
X9636D1*
Y10219D1*
X9689Y10214D1*
X9334Y6403D2*
X9337Y6320D1*
Y6203D1*
X9356Y6244D1*
X9383Y6289D1*
X9422Y6329D1*
X9457Y6353D1*
X9489Y6366D1*
X9561Y6387D1*
X9642Y6390D1*
X9721D1*
X9767Y6384D1*
X9807Y6375D1*
X9856Y6388D1*
X9905D1*
X9955Y6375D1*
X9974Y6366D1*
X10010Y6362D1*
X10056Y6382D1*
X10107Y6390D1*
X10112Y6431D1*
X10090Y6452D1*
X9688D1*
X9661Y6446D1*
X9626Y6443D1*
X9410Y6444D1*
X9378Y6446D1*
X9377Y6403D1*
X9334D1*
X6944Y6371D2*
X6945Y6402D1*
X6903Y6403D1*
Y6446D1*
X6820Y6443D1*
X6654Y6444D1*
X6638Y6443D1*
X6589Y6453D1*
X6544Y6473D1*
X6505Y6504D1*
X6473Y6543D1*
X6452Y6588D1*
X6442Y6647D1*
X6426Y6638D1*
X6394Y6606D1*
Y5973D1*
X6550Y5819D1*
X6624Y5806D1*
X6670Y5787D1*
X6712Y5760D1*
X6736Y5740D1*
Y5941D1*
X6742Y5990D1*
X6760Y6037D1*
X6796Y6085D1*
X6943Y6232D1*
X6944Y6370D1*
X6865Y8837D2*
X6902Y8834D1*
X6903Y8877D1*
X6946D1*
X6943Y8930D1*
Y9004D1*
X6783Y8845D1*
X6813Y8837D1*
X6870Y8836D1*
X9328Y9184D2*
X9334Y9165D1*
X9337Y9126D1*
X9336Y8910D1*
X9333Y8877D1*
X9377D1*
Y8834D1*
X9410Y8837D1*
X9626Y8836D1*
X9672Y8832D1*
X9685Y8828D1*
X10163D1*
X10139Y8868D1*
X10121Y8914D1*
X10112Y8964D1*
Y9013D1*
X10121Y9063D1*
X10138Y9110D1*
X10163Y9153D1*
X10196Y9190D1*
X10235Y9222D1*
X10278Y9246D1*
X10326Y9262D1*
X10380Y9268D1*
X10435Y9315D1*
X10499Y9340D1*
X10462Y9351D1*
X10419Y9376D1*
X10382Y9411D1*
X10334Y9388D1*
X10285Y9381D1*
X10235Y9386D1*
X10189Y9404D1*
X10148Y9433D1*
X10116Y9471D1*
X10095Y9516D1*
X10086Y9575D1*
Y9598D1*
X9784Y9296D1*
X9745Y9265D1*
X9699Y9245D1*
X9640Y9236D1*
X9373D1*
X9327Y9189D1*
X9838Y7435D2*
X9833Y7394D1*
X9815Y7345D1*
X9836Y7285D1*
X9839Y7246D1*
X9833Y7197D1*
X9815Y7149D1*
X9836Y7088D1*
X9839Y7049D1*
X9833Y7000D1*
X9815Y6952D1*
X9834Y6901D1*
X9839Y6859D1*
X10174Y6860D1*
X10224Y6854D1*
X10270Y6836D1*
X10319Y6800D1*
X10399Y6719D1*
X10474Y6706D1*
X10520Y6687D1*
X10562Y6660D1*
X10598Y6626D1*
X10636Y6570D1*
Y6658D1*
X10448Y6844D1*
X9857Y7435D1*
X9839Y7436D1*
X7741Y10652D2*
X7616D1*
X7760Y10509D1*
X7883D1*
X7740Y10652D1*
X8639Y10330D2*
X8786D1*
Y10442D1*
X8740Y10437D1*
X8532D1*
X8640Y10329D1*
X8562Y5579D2*
X8516Y5626D1*
X8464Y5572D1*
X8424Y5545D1*
X8674Y5294D1*
X8890D1*
X8940Y5288D1*
X8986Y5270D1*
X9034Y5234D1*
X9139Y5129D1*
X9235Y5224D1*
X9236Y5313D1*
X9178Y5311D1*
X9129Y5318D1*
X9081Y5333D1*
X9037Y5357D1*
X9014Y5372D1*
X8973Y5345D1*
X8927Y5325D1*
X8878Y5314D1*
X8828Y5311D1*
X8779Y5318D1*
X8731Y5333D1*
X8687Y5357D1*
X8648Y5388D1*
X8615Y5425D1*
X8589Y5468D1*
X8571Y5514D1*
X8562Y5581D1*
X7892Y5499D2*
X7864Y5472D1*
X7823Y5445D1*
X7790Y5430D1*
X7844Y5375D1*
X8011D1*
X7951Y5441D1*
X7892Y5499D1*
X10163Y8829D2*
X10139Y8868D1*
X10121Y8914D1*
X10112Y8964D1*
Y9013D1*
X10121Y9063D1*
X10138Y9110D1*
X10163Y9153D1*
X10196Y9190D1*
X10235Y9222D1*
X10278Y9246D1*
X10326Y9262D1*
X10380Y9268D1*
X10410Y9297D1*
X10452Y9324D1*
X10499Y9340D1*
X6735Y11741D2*
X7105D1*
X8235D2*
X8605D1*
X10540Y11346D2*
Y10975D1*
X10891D1*
X5640Y5129D2*
Y4641D1*
X5152D2*
X5640D1*
X11640Y8641D2*
Y8152D1*
X11152Y8641D2*
X11640D1*
X10040Y11345D2*
Y10975D1*
X9689D2*
X10040D1*
X6441Y7246D2*
X6762D1*
X6943Y9018D2*
X7156D1*
X9518Y6853D2*
X9839D1*
X8344Y11022D2*
X8616D1*
D17*
X7775Y11741D3*
X7105D3*
X9275D3*
X8605D3*
D18*
X10540Y10306D3*
Y10975D3*
D20*
X10640Y4641D3*
X9640D3*
X8640D3*
X7640D3*
X6640D3*
X5640D3*
X11640Y11641D3*
Y10641D3*
Y9641D3*
Y8641D3*
Y7641D3*
Y6641D3*
Y5641D3*
Y4641D3*
X4640Y4640D3*
Y5640D3*
Y6640D3*
Y7640D3*
Y8640D3*
Y9640D3*
Y10640D3*
Y11640D3*
D18*
X10040Y10305D3*
Y10975D3*
G36*
X5543Y10522D2*
X5937D1*
Y10089D1*
X5543D1*
Y10522D1*
G37*
G36*
Y11191D2*
X5937D1*
Y10758D1*
X5543D1*
Y11191D1*
G37*
G36*
X6437Y10089D2*
X6043D1*
Y10522D1*
X6437D1*
Y10089D1*
G37*
G36*
Y10758D2*
X6043D1*
Y11191D1*
X6437D1*
Y10758D1*
G37*
D22*
X9124Y6262D3*
X8927D3*
X8731D3*
X8534D3*
X8337D3*
X8140D3*
X7943D3*
X7746D3*
X7549D3*
X7353D3*
X7156D3*
D23*
X6762Y6656D3*
Y6853D3*
Y7049D3*
Y7246D3*
Y7443D3*
Y7640D3*
Y7837D3*
Y8034D3*
Y8231D3*
Y8427D3*
Y8624D3*
D22*
X7156Y9018D3*
X7353D3*
X7549D3*
X7746D3*
X7943D3*
X8140D3*
X8337D3*
X8534D3*
X8731D3*
X8927D3*
X9124D3*
D23*
X9518Y8624D3*
Y8427D3*
Y8231D3*
Y8034D3*
Y7837D3*
Y7640D3*
Y7443D3*
Y7246D3*
Y7049D3*
Y6853D3*
Y6656D3*
D24*
X8140Y7640D3*
D26*
X6916Y11022D3*
X7290D3*
X7664D3*
Y9959D3*
X6916D3*
X8616Y11022D3*
X8990D3*
X9364D3*
Y9959D3*
X8616D3*
X9881Y5895D2*
D14*
Y6196D1*
X9996Y5895D1*
X10110Y6196D1*
Y5895D1*
X9721Y6053D2*
X9592D1*
X9549Y6067D1*
X9534Y6081D1*
X9520Y6110D1*
Y6139D1*
X9534Y6167D1*
X9549Y6182D1*
X9592Y6196D1*
X9721D1*
Y5895D1*
X9620Y6053D2*
X9520Y5895D1*
X10930Y9876D2*
X10815Y9575D1*
X10701Y9876D1*
X10540Y9540D2*
D13*
D3*
X10352Y9819D2*
D14*
X10323Y9833D1*
X10280Y9876D1*
Y9575D1*
M02*
