G04 #@! TF.FileFunction,Profile,NP*
%FSLAX46Y46*%
G04 Gerber Fmt 4.6, Leading zero omitted, Abs format (unit mm)*
G04 Created by KiCad (PCBNEW (after 2015-mar-04 BZR unknown)-product) date 10/20/2015 10:29:55 AM*
%MOMM*%
G01*
G04 APERTURE LIST*
%ADD10C,0.150000*%
%ADD11C,0.381000*%
G04 APERTURE END LIST*
D10*
D11*
X0Y-45000000D02*
X0Y-4000000D01*
X45000000Y-49000000D02*
X4000000Y-49000000D01*
X49000000Y-4000000D02*
X49000000Y-45000000D01*
X4000000Y0D02*
X45000000Y0D01*
X45000000Y-49000000D02*
G75*
G03X49000000Y-45000000I0J4000000D01*
G01*
X0Y-45000000D02*
G75*
G03X4000000Y-49000000I4000000J0D01*
G01*
X4000000Y0D02*
G75*
G03X0Y-4000000I0J-4000000D01*
G01*
X49000000Y-4000000D02*
G75*
G03X45000000Y0I-4000000J0D01*
G01*
M02*
