G04 start of page 7 for group -4062 idx -4062 *
G04 Title: (unknown), soldermask *
G04 Creator: pcb 20110918 *
G04 CreationDate: Mon Aug 12 01:14:05 2013 UTC *
G04 For: mokus *
G04 Format: Gerber/RS-274X *
G04 PCB-Dimensions: 40000 30000 *
G04 PCB-Coordinate-Origin: lower left *
%MOIN*%
%FSLAX25Y25*%
%LNBOTTOMMASK*%
%ADD23C,0.0001*%
%ADD22C,0.0660*%
G54D22*X5000Y5000D03*
X25000Y25000D03*
X15000Y15000D03*
X25000D03*
X15000Y5000D03*
X25000D03*
G54D23*G36*
X1700Y28300D02*Y21700D01*
X8300D01*
Y28300D01*
X1700D01*
G37*
G54D22*X5000Y15000D03*
G54D23*G36*
X11700Y28300D02*Y21700D01*
X18300D01*
Y28300D01*
X11700D01*
G37*
G54D22*X35000Y25000D03*
Y15000D03*
Y5000D03*
M02*
