G04 #@! TF.FileFunction,Copper,L2,Bot,Signal*
%FSLAX46Y46*%
G04 Gerber Fmt 4.6, Leading zero omitted, Abs format (unit mm)*
G04 Created by KiCad (PCBNEW 4.0.1-3.201512221402+6198~38~ubuntu14.04.1-stable) date Sun 13 Mar 2016 04:51:35 PM PDT*
%MOMM*%
G01*
G04 APERTURE LIST*
%ADD10C,0.100000*%
%ADD11C,1.998980*%
%ADD12R,1.998980X1.998980*%
%ADD13C,0.685800*%
%ADD14R,1.300000X1.300000*%
%ADD15C,1.300000*%
%ADD16R,1.900000X2.000000*%
%ADD17C,1.900000*%
%ADD18C,1.200000*%
%ADD19R,1.727200X2.032000*%
%ADD20O,1.727200X2.032000*%
%ADD21C,1.700000*%
%ADD22O,2.300000X1.600000*%
%ADD23R,1.400000X1.400000*%
%ADD24C,1.400000*%
%ADD25C,0.254000*%
G04 APERTURE END LIST*
D10*
D11*
X139166600Y-108686600D03*
D12*
X129006600Y-108686600D03*
D13*
X121945400Y-108432600D03*
D14*
X157607000Y-113882800D03*
D15*
X157607000Y-116382800D03*
D16*
X161264600Y-121107200D03*
D17*
X158724600Y-121107200D03*
D11*
X138633200Y-121412000D03*
D12*
X128473200Y-121412000D03*
D18*
X119626000Y-111465800D03*
X119626000Y-118565800D03*
D19*
X146812000Y-108813600D03*
D20*
X149352000Y-108813600D03*
X151892000Y-108813600D03*
X154432000Y-108813600D03*
X156972000Y-108813600D03*
X159512000Y-108813600D03*
X162052000Y-108813600D03*
X164592000Y-108813600D03*
D11*
X131267200Y-113334800D03*
X141427200Y-113334800D03*
X131064000Y-116967000D03*
X141224000Y-116967000D03*
X163093400Y-114427000D03*
X173253400Y-114427000D03*
D21*
X166110400Y-119202200D03*
X172110400Y-119202200D03*
X166110400Y-123202200D03*
X172110400Y-123202200D03*
D22*
X146024600Y-114173000D03*
X146024600Y-116713000D03*
X146024600Y-119253000D03*
X146024600Y-121793000D03*
X153644600Y-121793000D03*
X153644600Y-119253000D03*
X153644600Y-116713000D03*
X153644600Y-114173000D03*
D23*
X126873000Y-112725200D03*
D24*
X126873000Y-117725200D03*
D25*
X153644600Y-114173000D02*
X156935800Y-114173000D01*
X156935800Y-114173000D02*
X157683200Y-113425600D01*
X157683200Y-113425600D02*
X157683200Y-111099600D01*
X157683200Y-111099600D02*
X157581600Y-110998000D01*
X129554200Y-110998000D02*
X157581600Y-110998000D01*
X157581600Y-110998000D02*
X160020000Y-110998000D01*
X160020000Y-110998000D02*
X162052000Y-108966000D01*
X162052000Y-108966000D02*
X162052000Y-108813600D01*
X126873000Y-112725200D02*
X127827000Y-112725200D01*
X127827000Y-112725200D02*
X129554200Y-110998000D01*
X148336000Y-122377200D02*
X149161000Y-123202200D01*
X149161000Y-123202200D02*
X166110400Y-123202200D01*
X148336000Y-116134400D02*
X148336000Y-122377200D01*
X146024600Y-114173000D02*
X146374600Y-114173000D01*
X146374600Y-114173000D02*
X148336000Y-116134400D01*
G36*
X127555669Y-107223020D02*
X127410679Y-107435220D01*
X127359670Y-107687110D01*
X127359670Y-109686090D01*
X127403948Y-109921407D01*
X127543020Y-110137531D01*
X127755220Y-110282521D01*
X128007110Y-110333530D01*
X129203440Y-110333530D01*
X129163577Y-110360166D01*
X129015385Y-110459184D01*
X127956129Y-111518441D01*
X127824890Y-111428769D01*
X127573000Y-111377760D01*
X126173000Y-111377760D01*
X125937683Y-111422038D01*
X125721559Y-111561110D01*
X125576569Y-111773310D01*
X125525560Y-112025200D01*
X125525560Y-113425200D01*
X125569838Y-113660517D01*
X125708910Y-113876641D01*
X125921110Y-114021631D01*
X126173000Y-114072640D01*
X127573000Y-114072640D01*
X127808317Y-114028362D01*
X128024441Y-113889290D01*
X128169431Y-113677090D01*
X128220440Y-113425200D01*
X128220440Y-113361152D01*
X128365815Y-113264015D01*
X129869831Y-111760000D01*
X130798358Y-111760000D01*
X130342545Y-111948338D01*
X129882354Y-112407727D01*
X129632994Y-113008253D01*
X129632426Y-113658494D01*
X129880738Y-114259455D01*
X130340127Y-114719646D01*
X130940653Y-114969006D01*
X131590894Y-114969574D01*
X132191855Y-114721262D01*
X132652046Y-114261873D01*
X132901406Y-113661347D01*
X132901974Y-113011106D01*
X132653662Y-112410145D01*
X132194273Y-111949954D01*
X131736813Y-111760000D01*
X140958358Y-111760000D01*
X140502545Y-111948338D01*
X140042354Y-112407727D01*
X139792994Y-113008253D01*
X139792426Y-113658494D01*
X140040738Y-114259455D01*
X140500127Y-114719646D01*
X141100653Y-114969006D01*
X141750894Y-114969574D01*
X142351855Y-114721262D01*
X142812046Y-114261873D01*
X143061406Y-113661347D01*
X143061974Y-113011106D01*
X142813662Y-112410145D01*
X142354273Y-111949954D01*
X141896813Y-111760000D01*
X156921200Y-111760000D01*
X156921200Y-112592096D01*
X156721683Y-112629638D01*
X156505559Y-112768710D01*
X156360569Y-112980910D01*
X156309560Y-113232800D01*
X156309560Y-113411000D01*
X155213116Y-113411000D01*
X155044268Y-113158302D01*
X154578721Y-112847233D01*
X154029570Y-112738000D01*
X153259630Y-112738000D01*
X152710479Y-112847233D01*
X152244932Y-113158302D01*
X151933863Y-113623849D01*
X151824630Y-114173000D01*
X151933863Y-114722151D01*
X152244932Y-115187698D01*
X152627018Y-115443000D01*
X152244932Y-115698302D01*
X151933863Y-116163849D01*
X151824630Y-116713000D01*
X151933863Y-117262151D01*
X152244932Y-117727698D01*
X152627018Y-117983000D01*
X152244932Y-118238302D01*
X151933863Y-118703849D01*
X151824630Y-119253000D01*
X151933863Y-119802151D01*
X152244932Y-120267698D01*
X152627018Y-120523000D01*
X152244932Y-120778302D01*
X151933863Y-121243849D01*
X151824630Y-121793000D01*
X151933863Y-122342151D01*
X151999377Y-122440200D01*
X149476631Y-122440200D01*
X149098000Y-122061570D01*
X149098000Y-116134400D01*
X149039996Y-115842795D01*
X149020396Y-115813462D01*
X148874815Y-115595584D01*
X147779477Y-114500246D01*
X147844570Y-114173000D01*
X147735337Y-113623849D01*
X147424268Y-113158302D01*
X146958721Y-112847233D01*
X146409570Y-112738000D01*
X145639630Y-112738000D01*
X145090479Y-112847233D01*
X144624932Y-113158302D01*
X144313863Y-113623849D01*
X144204630Y-114173000D01*
X144313863Y-114722151D01*
X144624932Y-115187698D01*
X145007018Y-115443000D01*
X144624932Y-115698302D01*
X144313863Y-116163849D01*
X144204630Y-116713000D01*
X144313863Y-117262151D01*
X144624932Y-117727698D01*
X145007018Y-117983000D01*
X144624932Y-118238302D01*
X144313863Y-118703849D01*
X144204630Y-119253000D01*
X144313863Y-119802151D01*
X144624932Y-120267698D01*
X145002751Y-120520149D01*
X144570100Y-120868104D01*
X144300233Y-121361181D01*
X144282696Y-121443961D01*
X144404685Y-121666000D01*
X145897600Y-121666000D01*
X145897600Y-121646000D01*
X146151600Y-121646000D01*
X146151600Y-121666000D01*
X146171600Y-121666000D01*
X146171600Y-121920000D01*
X146151600Y-121920000D01*
X146151600Y-123228000D01*
X146501600Y-123228000D01*
X147041083Y-123070166D01*
X147479100Y-122717896D01*
X147598408Y-122499907D01*
X147632004Y-122668805D01*
X147724810Y-122807698D01*
X147797185Y-122916015D01*
X148622184Y-123741015D01*
X148869395Y-123906196D01*
X149161000Y-123964200D01*
X164818480Y-123964200D01*
X164850744Y-124042286D01*
X165268117Y-124460388D01*
X165813719Y-124686942D01*
X166404489Y-124687457D01*
X166950486Y-124461856D01*
X167166560Y-124246158D01*
X171246047Y-124246158D01*
X171326320Y-124497459D01*
X171881679Y-124698918D01*
X172471858Y-124672515D01*
X172894480Y-124497459D01*
X172974753Y-124246158D01*
X172110400Y-123381805D01*
X171246047Y-124246158D01*
X167166560Y-124246158D01*
X167368588Y-124044483D01*
X167595142Y-123498881D01*
X167595600Y-122973479D01*
X170613682Y-122973479D01*
X170640085Y-123563658D01*
X170815141Y-123986280D01*
X171066442Y-124066553D01*
X171930795Y-123202200D01*
X172290005Y-123202200D01*
X173154358Y-124066553D01*
X173405659Y-123986280D01*
X173607118Y-123430921D01*
X173580715Y-122840742D01*
X173405659Y-122418120D01*
X173154358Y-122337847D01*
X172290005Y-123202200D01*
X171930795Y-123202200D01*
X171066442Y-122337847D01*
X170815141Y-122418120D01*
X170613682Y-122973479D01*
X167595600Y-122973479D01*
X167595657Y-122908111D01*
X167370056Y-122362114D01*
X167166540Y-122158242D01*
X171246047Y-122158242D01*
X172110400Y-123022595D01*
X172974753Y-122158242D01*
X172894480Y-121906941D01*
X172339121Y-121705482D01*
X171748942Y-121731885D01*
X171326320Y-121906941D01*
X171246047Y-122158242D01*
X167166540Y-122158242D01*
X166952683Y-121944012D01*
X166407081Y-121717458D01*
X165816311Y-121716943D01*
X165270314Y-121942544D01*
X164852212Y-122359917D01*
X164818876Y-122440200D01*
X162755611Y-122440200D01*
X162811031Y-122359090D01*
X162862040Y-122107200D01*
X162862040Y-120107200D01*
X162817762Y-119871883D01*
X162678690Y-119655759D01*
X162466490Y-119510769D01*
X162394986Y-119496289D01*
X164625143Y-119496289D01*
X164850744Y-120042286D01*
X165268117Y-120460388D01*
X165813719Y-120686942D01*
X166404489Y-120687457D01*
X166950486Y-120461856D01*
X167368588Y-120044483D01*
X167595142Y-119498881D01*
X167595144Y-119496289D01*
X170625143Y-119496289D01*
X170850744Y-120042286D01*
X171268117Y-120460388D01*
X171813719Y-120686942D01*
X172404489Y-120687457D01*
X172950486Y-120461856D01*
X173368588Y-120044483D01*
X173595142Y-119498881D01*
X173595657Y-118908111D01*
X173370056Y-118362114D01*
X172952683Y-117944012D01*
X172407081Y-117717458D01*
X171816311Y-117716943D01*
X171270314Y-117942544D01*
X170852212Y-118359917D01*
X170625658Y-118905519D01*
X170625143Y-119496289D01*
X167595144Y-119496289D01*
X167595657Y-118908111D01*
X167370056Y-118362114D01*
X166952683Y-117944012D01*
X166407081Y-117717458D01*
X165816311Y-117716943D01*
X165270314Y-117942544D01*
X164852212Y-118359917D01*
X164625658Y-118905519D01*
X164625143Y-119496289D01*
X162394986Y-119496289D01*
X162214600Y-119459760D01*
X160314600Y-119459760D01*
X160079283Y-119504038D01*
X159863159Y-119643110D01*
X159718169Y-119855310D01*
X159717545Y-119858392D01*
X159623603Y-119764286D01*
X159041259Y-119522476D01*
X158410707Y-119521925D01*
X157827943Y-119762719D01*
X157381686Y-120208197D01*
X157139876Y-120790541D01*
X157139325Y-121421093D01*
X157380119Y-122003857D01*
X157815700Y-122440200D01*
X155289823Y-122440200D01*
X155355337Y-122342151D01*
X155464570Y-121793000D01*
X155355337Y-121243849D01*
X155044268Y-120778302D01*
X154662182Y-120523000D01*
X155044268Y-120267698D01*
X155355337Y-119802151D01*
X155464570Y-119253000D01*
X155355337Y-118703849D01*
X155044268Y-118238302D01*
X154662182Y-117983000D01*
X155044268Y-117727698D01*
X155342197Y-117281816D01*
X156887590Y-117281816D01*
X156943271Y-117512411D01*
X157426078Y-117680422D01*
X157936428Y-117650883D01*
X158270729Y-117512411D01*
X158326410Y-117281816D01*
X157607000Y-116562405D01*
X156887590Y-117281816D01*
X155342197Y-117281816D01*
X155355337Y-117262151D01*
X155464570Y-116713000D01*
X155362902Y-116201878D01*
X156309378Y-116201878D01*
X156338917Y-116712228D01*
X156477389Y-117046529D01*
X156707984Y-117102210D01*
X157427395Y-116382800D01*
X157786605Y-116382800D01*
X158506016Y-117102210D01*
X158736611Y-117046529D01*
X158904622Y-116563722D01*
X158875083Y-116053372D01*
X158736611Y-115719071D01*
X158506016Y-115663390D01*
X157786605Y-116382800D01*
X157427395Y-116382800D01*
X156707984Y-115663390D01*
X156477389Y-115719071D01*
X156309378Y-116201878D01*
X155362902Y-116201878D01*
X155355337Y-116163849D01*
X155044268Y-115698302D01*
X154662182Y-115443000D01*
X155044268Y-115187698D01*
X155213116Y-114935000D01*
X156461224Y-114935000D01*
X156492910Y-114984241D01*
X156705110Y-115129231D01*
X156957000Y-115180240D01*
X157119385Y-115180240D01*
X156943271Y-115253189D01*
X156887590Y-115483784D01*
X157607000Y-116203195D01*
X158326410Y-115483784D01*
X158270729Y-115253189D01*
X158061098Y-115180240D01*
X158257000Y-115180240D01*
X158492317Y-115135962D01*
X158708441Y-114996890D01*
X158853431Y-114784690D01*
X158860315Y-114750694D01*
X161458626Y-114750694D01*
X161706938Y-115351655D01*
X162166327Y-115811846D01*
X162766853Y-116061206D01*
X163417094Y-116061774D01*
X164018055Y-115813462D01*
X164478246Y-115354073D01*
X164727606Y-114753547D01*
X164728122Y-114162582D01*
X171607999Y-114162582D01*
X171632059Y-114812377D01*
X171834435Y-115300958D01*
X172101237Y-115399557D01*
X173073795Y-114427000D01*
X172101237Y-113454443D01*
X171834435Y-113553042D01*
X171607999Y-114162582D01*
X164728122Y-114162582D01*
X164728174Y-114103306D01*
X164479862Y-113502345D01*
X164020473Y-113042154D01*
X163419947Y-112792794D01*
X162769706Y-112792226D01*
X162168745Y-113040538D01*
X161708554Y-113499927D01*
X161459194Y-114100453D01*
X161458626Y-114750694D01*
X158860315Y-114750694D01*
X158904440Y-114532800D01*
X158904440Y-113232800D01*
X158860162Y-112997483D01*
X158721090Y-112781359D01*
X158508890Y-112636369D01*
X158445200Y-112623471D01*
X158445200Y-111760000D01*
X160020000Y-111760000D01*
X160311605Y-111701996D01*
X160558815Y-111536815D01*
X161673895Y-110421735D01*
X162052000Y-110496945D01*
X162625489Y-110382871D01*
X163111670Y-110058015D01*
X163318461Y-109748531D01*
X163689964Y-110164332D01*
X164217209Y-110418309D01*
X164232974Y-110420958D01*
X164465000Y-110299817D01*
X164465000Y-108940600D01*
X164719000Y-108940600D01*
X164719000Y-110299817D01*
X164951026Y-110420958D01*
X164966791Y-110418309D01*
X165494036Y-110164332D01*
X165883954Y-109727920D01*
X166077184Y-109175513D01*
X165932924Y-108940600D01*
X164719000Y-108940600D01*
X164465000Y-108940600D01*
X164445000Y-108940600D01*
X164445000Y-108686600D01*
X164465000Y-108686600D01*
X164465000Y-108666600D01*
X164719000Y-108666600D01*
X164719000Y-108686600D01*
X165932924Y-108686600D01*
X166077184Y-108451687D01*
X165883954Y-107899280D01*
X165494036Y-107462868D01*
X164973660Y-107212200D01*
X174346800Y-107212200D01*
X174346800Y-113167116D01*
X174340238Y-113160554D01*
X174225956Y-113274836D01*
X174127358Y-113008035D01*
X173517818Y-112781599D01*
X172868023Y-112805659D01*
X172379442Y-113008035D01*
X172280843Y-113274837D01*
X173253400Y-114247395D01*
X173267542Y-114233252D01*
X173447148Y-114412858D01*
X173433005Y-114427000D01*
X173447148Y-114441142D01*
X173267542Y-114620748D01*
X173253400Y-114606605D01*
X172280843Y-115579163D01*
X172379442Y-115845965D01*
X172988982Y-116072401D01*
X173638777Y-116048341D01*
X174127358Y-115845965D01*
X174225956Y-115579164D01*
X174340238Y-115693446D01*
X174346800Y-115686884D01*
X174346800Y-124842200D01*
X118616800Y-124842200D01*
X118616800Y-120412510D01*
X126826270Y-120412510D01*
X126826270Y-122411490D01*
X126870548Y-122646807D01*
X127009620Y-122862931D01*
X127221820Y-123007921D01*
X127473710Y-123058930D01*
X129472690Y-123058930D01*
X129708007Y-123014652D01*
X129924131Y-122875580D01*
X130069121Y-122663380D01*
X130089212Y-122564163D01*
X137660643Y-122564163D01*
X137759242Y-122830965D01*
X138368782Y-123057401D01*
X139018577Y-123033341D01*
X139507158Y-122830965D01*
X139605757Y-122564163D01*
X138633200Y-121591605D01*
X137660643Y-122564163D01*
X130089212Y-122564163D01*
X130120130Y-122411490D01*
X130120130Y-121147582D01*
X136987799Y-121147582D01*
X137011859Y-121797377D01*
X137214235Y-122285958D01*
X137481037Y-122384557D01*
X138453595Y-121412000D01*
X138812805Y-121412000D01*
X139785363Y-122384557D01*
X140052165Y-122285958D01*
X140105628Y-122142039D01*
X144282696Y-122142039D01*
X144300233Y-122224819D01*
X144570100Y-122717896D01*
X145008117Y-123070166D01*
X145547600Y-123228000D01*
X145897600Y-123228000D01*
X145897600Y-121920000D01*
X144404685Y-121920000D01*
X144282696Y-122142039D01*
X140105628Y-122142039D01*
X140278601Y-121676418D01*
X140254541Y-121026623D01*
X140052165Y-120538042D01*
X139785363Y-120439443D01*
X138812805Y-121412000D01*
X138453595Y-121412000D01*
X137481037Y-120439443D01*
X137214235Y-120538042D01*
X136987799Y-121147582D01*
X130120130Y-121147582D01*
X130120130Y-120412510D01*
X130091403Y-120259837D01*
X137660643Y-120259837D01*
X138633200Y-121232395D01*
X139605757Y-120259837D01*
X139507158Y-119993035D01*
X138897618Y-119766599D01*
X138247823Y-119790659D01*
X137759242Y-119993035D01*
X137660643Y-120259837D01*
X130091403Y-120259837D01*
X130075852Y-120177193D01*
X129936780Y-119961069D01*
X129724580Y-119816079D01*
X129472690Y-119765070D01*
X127473710Y-119765070D01*
X127238393Y-119809348D01*
X127022269Y-119948420D01*
X126877279Y-120160620D01*
X126826270Y-120412510D01*
X118616800Y-120412510D01*
X118616800Y-119428535D01*
X118942870Y-119428535D01*
X118992383Y-119653964D01*
X119457036Y-119813607D01*
X119947413Y-119783282D01*
X120259617Y-119653964D01*
X120309130Y-119428535D01*
X119626000Y-118745405D01*
X118942870Y-119428535D01*
X118616800Y-119428535D01*
X118616800Y-119216761D01*
X118763265Y-119248930D01*
X119446395Y-118565800D01*
X119805605Y-118565800D01*
X120488735Y-119248930D01*
X120714164Y-119199417D01*
X120873807Y-118734764D01*
X120869213Y-118660475D01*
X126117331Y-118660475D01*
X126179169Y-118896242D01*
X126680122Y-119072619D01*
X127210440Y-119043864D01*
X127566831Y-118896242D01*
X127628669Y-118660475D01*
X126873000Y-117904805D01*
X126117331Y-118660475D01*
X120869213Y-118660475D01*
X120843482Y-118244387D01*
X120714164Y-117932183D01*
X120488735Y-117882670D01*
X119805605Y-118565800D01*
X119446395Y-118565800D01*
X118763265Y-117882670D01*
X118616800Y-117914839D01*
X118616800Y-117703065D01*
X118942870Y-117703065D01*
X119626000Y-118386195D01*
X120309130Y-117703065D01*
X120271629Y-117532322D01*
X125525581Y-117532322D01*
X125554336Y-118062640D01*
X125701958Y-118419031D01*
X125937725Y-118480869D01*
X126693395Y-117725200D01*
X127052605Y-117725200D01*
X127808275Y-118480869D01*
X128044042Y-118419031D01*
X128220419Y-117918078D01*
X128191664Y-117387760D01*
X128151458Y-117290694D01*
X129429226Y-117290694D01*
X129677538Y-117891655D01*
X130136927Y-118351846D01*
X130737453Y-118601206D01*
X131387694Y-118601774D01*
X131988655Y-118353462D01*
X132448846Y-117894073D01*
X132698206Y-117293547D01*
X132698208Y-117290694D01*
X139589226Y-117290694D01*
X139837538Y-117891655D01*
X140296927Y-118351846D01*
X140897453Y-118601206D01*
X141547694Y-118601774D01*
X142148655Y-118353462D01*
X142608846Y-117894073D01*
X142858206Y-117293547D01*
X142858774Y-116643306D01*
X142610462Y-116042345D01*
X142151073Y-115582154D01*
X141550547Y-115332794D01*
X140900306Y-115332226D01*
X140299345Y-115580538D01*
X139839154Y-116039927D01*
X139589794Y-116640453D01*
X139589226Y-117290694D01*
X132698208Y-117290694D01*
X132698774Y-116643306D01*
X132450462Y-116042345D01*
X131991073Y-115582154D01*
X131390547Y-115332794D01*
X130740306Y-115332226D01*
X130139345Y-115580538D01*
X129679154Y-116039927D01*
X129429794Y-116640453D01*
X129429226Y-117290694D01*
X128151458Y-117290694D01*
X128044042Y-117031369D01*
X127808275Y-116969531D01*
X127052605Y-117725200D01*
X126693395Y-117725200D01*
X125937725Y-116969531D01*
X125701958Y-117031369D01*
X125525581Y-117532322D01*
X120271629Y-117532322D01*
X120259617Y-117477636D01*
X119794964Y-117317993D01*
X119304587Y-117348318D01*
X118992383Y-117477636D01*
X118942870Y-117703065D01*
X118616800Y-117703065D01*
X118616800Y-116789925D01*
X126117331Y-116789925D01*
X126873000Y-117545595D01*
X127628669Y-116789925D01*
X127566831Y-116554158D01*
X127065878Y-116377781D01*
X126535560Y-116406536D01*
X126179169Y-116554158D01*
X126117331Y-116789925D01*
X118616800Y-116789925D01*
X118616800Y-112328535D01*
X118942870Y-112328535D01*
X118992383Y-112553964D01*
X119457036Y-112713607D01*
X119947413Y-112683282D01*
X120259617Y-112553964D01*
X120309130Y-112328535D01*
X119626000Y-111645405D01*
X118942870Y-112328535D01*
X118616800Y-112328535D01*
X118616800Y-112116761D01*
X118763265Y-112148930D01*
X119446395Y-111465800D01*
X119805605Y-111465800D01*
X120488735Y-112148930D01*
X120714164Y-112099417D01*
X120873807Y-111634764D01*
X120843482Y-111144387D01*
X120714164Y-110832183D01*
X120488735Y-110782670D01*
X119805605Y-111465800D01*
X119446395Y-111465800D01*
X118763265Y-110782670D01*
X118616800Y-110814839D01*
X118616800Y-110603065D01*
X118942870Y-110603065D01*
X119626000Y-111286195D01*
X120309130Y-110603065D01*
X120259617Y-110377636D01*
X119794964Y-110217993D01*
X119304587Y-110248318D01*
X118992383Y-110377636D01*
X118942870Y-110603065D01*
X118616800Y-110603065D01*
X118616800Y-109108334D01*
X121449271Y-109108334D01*
X121466863Y-109307315D01*
X121838028Y-109423860D01*
X122225539Y-109389494D01*
X122423937Y-109307315D01*
X122441529Y-109108334D01*
X121945400Y-108612205D01*
X121449271Y-109108334D01*
X118616800Y-109108334D01*
X118616800Y-108325228D01*
X120954140Y-108325228D01*
X120988506Y-108712739D01*
X121070685Y-108911137D01*
X121269666Y-108928729D01*
X121765795Y-108432600D01*
X122125005Y-108432600D01*
X122621134Y-108928729D01*
X122820115Y-108911137D01*
X122936660Y-108539972D01*
X122902294Y-108152461D01*
X122820115Y-107954063D01*
X122621134Y-107936471D01*
X122125005Y-108432600D01*
X121765795Y-108432600D01*
X121269666Y-107936471D01*
X121070685Y-107954063D01*
X120954140Y-108325228D01*
X118616800Y-108325228D01*
X118616800Y-107756866D01*
X121449271Y-107756866D01*
X121945400Y-108252995D01*
X122441529Y-107756866D01*
X122423937Y-107557885D01*
X122052772Y-107441340D01*
X121665261Y-107475706D01*
X121466863Y-107557885D01*
X121449271Y-107756866D01*
X118616800Y-107756866D01*
X118616800Y-107212200D01*
X127572484Y-107212200D01*
X127555669Y-107223020D01*
X127555669Y-107223020D01*
G37*
X127555669Y-107223020D02*
X127410679Y-107435220D01*
X127359670Y-107687110D01*
X127359670Y-109686090D01*
X127403948Y-109921407D01*
X127543020Y-110137531D01*
X127755220Y-110282521D01*
X128007110Y-110333530D01*
X129203440Y-110333530D01*
X129163577Y-110360166D01*
X129015385Y-110459184D01*
X127956129Y-111518441D01*
X127824890Y-111428769D01*
X127573000Y-111377760D01*
X126173000Y-111377760D01*
X125937683Y-111422038D01*
X125721559Y-111561110D01*
X125576569Y-111773310D01*
X125525560Y-112025200D01*
X125525560Y-113425200D01*
X125569838Y-113660517D01*
X125708910Y-113876641D01*
X125921110Y-114021631D01*
X126173000Y-114072640D01*
X127573000Y-114072640D01*
X127808317Y-114028362D01*
X128024441Y-113889290D01*
X128169431Y-113677090D01*
X128220440Y-113425200D01*
X128220440Y-113361152D01*
X128365815Y-113264015D01*
X129869831Y-111760000D01*
X130798358Y-111760000D01*
X130342545Y-111948338D01*
X129882354Y-112407727D01*
X129632994Y-113008253D01*
X129632426Y-113658494D01*
X129880738Y-114259455D01*
X130340127Y-114719646D01*
X130940653Y-114969006D01*
X131590894Y-114969574D01*
X132191855Y-114721262D01*
X132652046Y-114261873D01*
X132901406Y-113661347D01*
X132901974Y-113011106D01*
X132653662Y-112410145D01*
X132194273Y-111949954D01*
X131736813Y-111760000D01*
X140958358Y-111760000D01*
X140502545Y-111948338D01*
X140042354Y-112407727D01*
X139792994Y-113008253D01*
X139792426Y-113658494D01*
X140040738Y-114259455D01*
X140500127Y-114719646D01*
X141100653Y-114969006D01*
X141750894Y-114969574D01*
X142351855Y-114721262D01*
X142812046Y-114261873D01*
X143061406Y-113661347D01*
X143061974Y-113011106D01*
X142813662Y-112410145D01*
X142354273Y-111949954D01*
X141896813Y-111760000D01*
X156921200Y-111760000D01*
X156921200Y-112592096D01*
X156721683Y-112629638D01*
X156505559Y-112768710D01*
X156360569Y-112980910D01*
X156309560Y-113232800D01*
X156309560Y-113411000D01*
X155213116Y-113411000D01*
X155044268Y-113158302D01*
X154578721Y-112847233D01*
X154029570Y-112738000D01*
X153259630Y-112738000D01*
X152710479Y-112847233D01*
X152244932Y-113158302D01*
X151933863Y-113623849D01*
X151824630Y-114173000D01*
X151933863Y-114722151D01*
X152244932Y-115187698D01*
X152627018Y-115443000D01*
X152244932Y-115698302D01*
X151933863Y-116163849D01*
X151824630Y-116713000D01*
X151933863Y-117262151D01*
X152244932Y-117727698D01*
X152627018Y-117983000D01*
X152244932Y-118238302D01*
X151933863Y-118703849D01*
X151824630Y-119253000D01*
X151933863Y-119802151D01*
X152244932Y-120267698D01*
X152627018Y-120523000D01*
X152244932Y-120778302D01*
X151933863Y-121243849D01*
X151824630Y-121793000D01*
X151933863Y-122342151D01*
X151999377Y-122440200D01*
X149476631Y-122440200D01*
X149098000Y-122061570D01*
X149098000Y-116134400D01*
X149039996Y-115842795D01*
X149020396Y-115813462D01*
X148874815Y-115595584D01*
X147779477Y-114500246D01*
X147844570Y-114173000D01*
X147735337Y-113623849D01*
X147424268Y-113158302D01*
X146958721Y-112847233D01*
X146409570Y-112738000D01*
X145639630Y-112738000D01*
X145090479Y-112847233D01*
X144624932Y-113158302D01*
X144313863Y-113623849D01*
X144204630Y-114173000D01*
X144313863Y-114722151D01*
X144624932Y-115187698D01*
X145007018Y-115443000D01*
X144624932Y-115698302D01*
X144313863Y-116163849D01*
X144204630Y-116713000D01*
X144313863Y-117262151D01*
X144624932Y-117727698D01*
X145007018Y-117983000D01*
X144624932Y-118238302D01*
X144313863Y-118703849D01*
X144204630Y-119253000D01*
X144313863Y-119802151D01*
X144624932Y-120267698D01*
X145002751Y-120520149D01*
X144570100Y-120868104D01*
X144300233Y-121361181D01*
X144282696Y-121443961D01*
X144404685Y-121666000D01*
X145897600Y-121666000D01*
X145897600Y-121646000D01*
X146151600Y-121646000D01*
X146151600Y-121666000D01*
X146171600Y-121666000D01*
X146171600Y-121920000D01*
X146151600Y-121920000D01*
X146151600Y-123228000D01*
X146501600Y-123228000D01*
X147041083Y-123070166D01*
X147479100Y-122717896D01*
X147598408Y-122499907D01*
X147632004Y-122668805D01*
X147724810Y-122807698D01*
X147797185Y-122916015D01*
X148622184Y-123741015D01*
X148869395Y-123906196D01*
X149161000Y-123964200D01*
X164818480Y-123964200D01*
X164850744Y-124042286D01*
X165268117Y-124460388D01*
X165813719Y-124686942D01*
X166404489Y-124687457D01*
X166950486Y-124461856D01*
X167166560Y-124246158D01*
X171246047Y-124246158D01*
X171326320Y-124497459D01*
X171881679Y-124698918D01*
X172471858Y-124672515D01*
X172894480Y-124497459D01*
X172974753Y-124246158D01*
X172110400Y-123381805D01*
X171246047Y-124246158D01*
X167166560Y-124246158D01*
X167368588Y-124044483D01*
X167595142Y-123498881D01*
X167595600Y-122973479D01*
X170613682Y-122973479D01*
X170640085Y-123563658D01*
X170815141Y-123986280D01*
X171066442Y-124066553D01*
X171930795Y-123202200D01*
X172290005Y-123202200D01*
X173154358Y-124066553D01*
X173405659Y-123986280D01*
X173607118Y-123430921D01*
X173580715Y-122840742D01*
X173405659Y-122418120D01*
X173154358Y-122337847D01*
X172290005Y-123202200D01*
X171930795Y-123202200D01*
X171066442Y-122337847D01*
X170815141Y-122418120D01*
X170613682Y-122973479D01*
X167595600Y-122973479D01*
X167595657Y-122908111D01*
X167370056Y-122362114D01*
X167166540Y-122158242D01*
X171246047Y-122158242D01*
X172110400Y-123022595D01*
X172974753Y-122158242D01*
X172894480Y-121906941D01*
X172339121Y-121705482D01*
X171748942Y-121731885D01*
X171326320Y-121906941D01*
X171246047Y-122158242D01*
X167166540Y-122158242D01*
X166952683Y-121944012D01*
X166407081Y-121717458D01*
X165816311Y-121716943D01*
X165270314Y-121942544D01*
X164852212Y-122359917D01*
X164818876Y-122440200D01*
X162755611Y-122440200D01*
X162811031Y-122359090D01*
X162862040Y-122107200D01*
X162862040Y-120107200D01*
X162817762Y-119871883D01*
X162678690Y-119655759D01*
X162466490Y-119510769D01*
X162394986Y-119496289D01*
X164625143Y-119496289D01*
X164850744Y-120042286D01*
X165268117Y-120460388D01*
X165813719Y-120686942D01*
X166404489Y-120687457D01*
X166950486Y-120461856D01*
X167368588Y-120044483D01*
X167595142Y-119498881D01*
X167595144Y-119496289D01*
X170625143Y-119496289D01*
X170850744Y-120042286D01*
X171268117Y-120460388D01*
X171813719Y-120686942D01*
X172404489Y-120687457D01*
X172950486Y-120461856D01*
X173368588Y-120044483D01*
X173595142Y-119498881D01*
X173595657Y-118908111D01*
X173370056Y-118362114D01*
X172952683Y-117944012D01*
X172407081Y-117717458D01*
X171816311Y-117716943D01*
X171270314Y-117942544D01*
X170852212Y-118359917D01*
X170625658Y-118905519D01*
X170625143Y-119496289D01*
X167595144Y-119496289D01*
X167595657Y-118908111D01*
X167370056Y-118362114D01*
X166952683Y-117944012D01*
X166407081Y-117717458D01*
X165816311Y-117716943D01*
X165270314Y-117942544D01*
X164852212Y-118359917D01*
X164625658Y-118905519D01*
X164625143Y-119496289D01*
X162394986Y-119496289D01*
X162214600Y-119459760D01*
X160314600Y-119459760D01*
X160079283Y-119504038D01*
X159863159Y-119643110D01*
X159718169Y-119855310D01*
X159717545Y-119858392D01*
X159623603Y-119764286D01*
X159041259Y-119522476D01*
X158410707Y-119521925D01*
X157827943Y-119762719D01*
X157381686Y-120208197D01*
X157139876Y-120790541D01*
X157139325Y-121421093D01*
X157380119Y-122003857D01*
X157815700Y-122440200D01*
X155289823Y-122440200D01*
X155355337Y-122342151D01*
X155464570Y-121793000D01*
X155355337Y-121243849D01*
X155044268Y-120778302D01*
X154662182Y-120523000D01*
X155044268Y-120267698D01*
X155355337Y-119802151D01*
X155464570Y-119253000D01*
X155355337Y-118703849D01*
X155044268Y-118238302D01*
X154662182Y-117983000D01*
X155044268Y-117727698D01*
X155342197Y-117281816D01*
X156887590Y-117281816D01*
X156943271Y-117512411D01*
X157426078Y-117680422D01*
X157936428Y-117650883D01*
X158270729Y-117512411D01*
X158326410Y-117281816D01*
X157607000Y-116562405D01*
X156887590Y-117281816D01*
X155342197Y-117281816D01*
X155355337Y-117262151D01*
X155464570Y-116713000D01*
X155362902Y-116201878D01*
X156309378Y-116201878D01*
X156338917Y-116712228D01*
X156477389Y-117046529D01*
X156707984Y-117102210D01*
X157427395Y-116382800D01*
X157786605Y-116382800D01*
X158506016Y-117102210D01*
X158736611Y-117046529D01*
X158904622Y-116563722D01*
X158875083Y-116053372D01*
X158736611Y-115719071D01*
X158506016Y-115663390D01*
X157786605Y-116382800D01*
X157427395Y-116382800D01*
X156707984Y-115663390D01*
X156477389Y-115719071D01*
X156309378Y-116201878D01*
X155362902Y-116201878D01*
X155355337Y-116163849D01*
X155044268Y-115698302D01*
X154662182Y-115443000D01*
X155044268Y-115187698D01*
X155213116Y-114935000D01*
X156461224Y-114935000D01*
X156492910Y-114984241D01*
X156705110Y-115129231D01*
X156957000Y-115180240D01*
X157119385Y-115180240D01*
X156943271Y-115253189D01*
X156887590Y-115483784D01*
X157607000Y-116203195D01*
X158326410Y-115483784D01*
X158270729Y-115253189D01*
X158061098Y-115180240D01*
X158257000Y-115180240D01*
X158492317Y-115135962D01*
X158708441Y-114996890D01*
X158853431Y-114784690D01*
X158860315Y-114750694D01*
X161458626Y-114750694D01*
X161706938Y-115351655D01*
X162166327Y-115811846D01*
X162766853Y-116061206D01*
X163417094Y-116061774D01*
X164018055Y-115813462D01*
X164478246Y-115354073D01*
X164727606Y-114753547D01*
X164728122Y-114162582D01*
X171607999Y-114162582D01*
X171632059Y-114812377D01*
X171834435Y-115300958D01*
X172101237Y-115399557D01*
X173073795Y-114427000D01*
X172101237Y-113454443D01*
X171834435Y-113553042D01*
X171607999Y-114162582D01*
X164728122Y-114162582D01*
X164728174Y-114103306D01*
X164479862Y-113502345D01*
X164020473Y-113042154D01*
X163419947Y-112792794D01*
X162769706Y-112792226D01*
X162168745Y-113040538D01*
X161708554Y-113499927D01*
X161459194Y-114100453D01*
X161458626Y-114750694D01*
X158860315Y-114750694D01*
X158904440Y-114532800D01*
X158904440Y-113232800D01*
X158860162Y-112997483D01*
X158721090Y-112781359D01*
X158508890Y-112636369D01*
X158445200Y-112623471D01*
X158445200Y-111760000D01*
X160020000Y-111760000D01*
X160311605Y-111701996D01*
X160558815Y-111536815D01*
X161673895Y-110421735D01*
X162052000Y-110496945D01*
X162625489Y-110382871D01*
X163111670Y-110058015D01*
X163318461Y-109748531D01*
X163689964Y-110164332D01*
X164217209Y-110418309D01*
X164232974Y-110420958D01*
X164465000Y-110299817D01*
X164465000Y-108940600D01*
X164719000Y-108940600D01*
X164719000Y-110299817D01*
X164951026Y-110420958D01*
X164966791Y-110418309D01*
X165494036Y-110164332D01*
X165883954Y-109727920D01*
X166077184Y-109175513D01*
X165932924Y-108940600D01*
X164719000Y-108940600D01*
X164465000Y-108940600D01*
X164445000Y-108940600D01*
X164445000Y-108686600D01*
X164465000Y-108686600D01*
X164465000Y-108666600D01*
X164719000Y-108666600D01*
X164719000Y-108686600D01*
X165932924Y-108686600D01*
X166077184Y-108451687D01*
X165883954Y-107899280D01*
X165494036Y-107462868D01*
X164973660Y-107212200D01*
X174346800Y-107212200D01*
X174346800Y-113167116D01*
X174340238Y-113160554D01*
X174225956Y-113274836D01*
X174127358Y-113008035D01*
X173517818Y-112781599D01*
X172868023Y-112805659D01*
X172379442Y-113008035D01*
X172280843Y-113274837D01*
X173253400Y-114247395D01*
X173267542Y-114233252D01*
X173447148Y-114412858D01*
X173433005Y-114427000D01*
X173447148Y-114441142D01*
X173267542Y-114620748D01*
X173253400Y-114606605D01*
X172280843Y-115579163D01*
X172379442Y-115845965D01*
X172988982Y-116072401D01*
X173638777Y-116048341D01*
X174127358Y-115845965D01*
X174225956Y-115579164D01*
X174340238Y-115693446D01*
X174346800Y-115686884D01*
X174346800Y-124842200D01*
X118616800Y-124842200D01*
X118616800Y-120412510D01*
X126826270Y-120412510D01*
X126826270Y-122411490D01*
X126870548Y-122646807D01*
X127009620Y-122862931D01*
X127221820Y-123007921D01*
X127473710Y-123058930D01*
X129472690Y-123058930D01*
X129708007Y-123014652D01*
X129924131Y-122875580D01*
X130069121Y-122663380D01*
X130089212Y-122564163D01*
X137660643Y-122564163D01*
X137759242Y-122830965D01*
X138368782Y-123057401D01*
X139018577Y-123033341D01*
X139507158Y-122830965D01*
X139605757Y-122564163D01*
X138633200Y-121591605D01*
X137660643Y-122564163D01*
X130089212Y-122564163D01*
X130120130Y-122411490D01*
X130120130Y-121147582D01*
X136987799Y-121147582D01*
X137011859Y-121797377D01*
X137214235Y-122285958D01*
X137481037Y-122384557D01*
X138453595Y-121412000D01*
X138812805Y-121412000D01*
X139785363Y-122384557D01*
X140052165Y-122285958D01*
X140105628Y-122142039D01*
X144282696Y-122142039D01*
X144300233Y-122224819D01*
X144570100Y-122717896D01*
X145008117Y-123070166D01*
X145547600Y-123228000D01*
X145897600Y-123228000D01*
X145897600Y-121920000D01*
X144404685Y-121920000D01*
X144282696Y-122142039D01*
X140105628Y-122142039D01*
X140278601Y-121676418D01*
X140254541Y-121026623D01*
X140052165Y-120538042D01*
X139785363Y-120439443D01*
X138812805Y-121412000D01*
X138453595Y-121412000D01*
X137481037Y-120439443D01*
X137214235Y-120538042D01*
X136987799Y-121147582D01*
X130120130Y-121147582D01*
X130120130Y-120412510D01*
X130091403Y-120259837D01*
X137660643Y-120259837D01*
X138633200Y-121232395D01*
X139605757Y-120259837D01*
X139507158Y-119993035D01*
X138897618Y-119766599D01*
X138247823Y-119790659D01*
X137759242Y-119993035D01*
X137660643Y-120259837D01*
X130091403Y-120259837D01*
X130075852Y-120177193D01*
X129936780Y-119961069D01*
X129724580Y-119816079D01*
X129472690Y-119765070D01*
X127473710Y-119765070D01*
X127238393Y-119809348D01*
X127022269Y-119948420D01*
X126877279Y-120160620D01*
X126826270Y-120412510D01*
X118616800Y-120412510D01*
X118616800Y-119428535D01*
X118942870Y-119428535D01*
X118992383Y-119653964D01*
X119457036Y-119813607D01*
X119947413Y-119783282D01*
X120259617Y-119653964D01*
X120309130Y-119428535D01*
X119626000Y-118745405D01*
X118942870Y-119428535D01*
X118616800Y-119428535D01*
X118616800Y-119216761D01*
X118763265Y-119248930D01*
X119446395Y-118565800D01*
X119805605Y-118565800D01*
X120488735Y-119248930D01*
X120714164Y-119199417D01*
X120873807Y-118734764D01*
X120869213Y-118660475D01*
X126117331Y-118660475D01*
X126179169Y-118896242D01*
X126680122Y-119072619D01*
X127210440Y-119043864D01*
X127566831Y-118896242D01*
X127628669Y-118660475D01*
X126873000Y-117904805D01*
X126117331Y-118660475D01*
X120869213Y-118660475D01*
X120843482Y-118244387D01*
X120714164Y-117932183D01*
X120488735Y-117882670D01*
X119805605Y-118565800D01*
X119446395Y-118565800D01*
X118763265Y-117882670D01*
X118616800Y-117914839D01*
X118616800Y-117703065D01*
X118942870Y-117703065D01*
X119626000Y-118386195D01*
X120309130Y-117703065D01*
X120271629Y-117532322D01*
X125525581Y-117532322D01*
X125554336Y-118062640D01*
X125701958Y-118419031D01*
X125937725Y-118480869D01*
X126693395Y-117725200D01*
X127052605Y-117725200D01*
X127808275Y-118480869D01*
X128044042Y-118419031D01*
X128220419Y-117918078D01*
X128191664Y-117387760D01*
X128151458Y-117290694D01*
X129429226Y-117290694D01*
X129677538Y-117891655D01*
X130136927Y-118351846D01*
X130737453Y-118601206D01*
X131387694Y-118601774D01*
X131988655Y-118353462D01*
X132448846Y-117894073D01*
X132698206Y-117293547D01*
X132698208Y-117290694D01*
X139589226Y-117290694D01*
X139837538Y-117891655D01*
X140296927Y-118351846D01*
X140897453Y-118601206D01*
X141547694Y-118601774D01*
X142148655Y-118353462D01*
X142608846Y-117894073D01*
X142858206Y-117293547D01*
X142858774Y-116643306D01*
X142610462Y-116042345D01*
X142151073Y-115582154D01*
X141550547Y-115332794D01*
X140900306Y-115332226D01*
X140299345Y-115580538D01*
X139839154Y-116039927D01*
X139589794Y-116640453D01*
X139589226Y-117290694D01*
X132698208Y-117290694D01*
X132698774Y-116643306D01*
X132450462Y-116042345D01*
X131991073Y-115582154D01*
X131390547Y-115332794D01*
X130740306Y-115332226D01*
X130139345Y-115580538D01*
X129679154Y-116039927D01*
X129429794Y-116640453D01*
X129429226Y-117290694D01*
X128151458Y-117290694D01*
X128044042Y-117031369D01*
X127808275Y-116969531D01*
X127052605Y-117725200D01*
X126693395Y-117725200D01*
X125937725Y-116969531D01*
X125701958Y-117031369D01*
X125525581Y-117532322D01*
X120271629Y-117532322D01*
X120259617Y-117477636D01*
X119794964Y-117317993D01*
X119304587Y-117348318D01*
X118992383Y-117477636D01*
X118942870Y-117703065D01*
X118616800Y-117703065D01*
X118616800Y-116789925D01*
X126117331Y-116789925D01*
X126873000Y-117545595D01*
X127628669Y-116789925D01*
X127566831Y-116554158D01*
X127065878Y-116377781D01*
X126535560Y-116406536D01*
X126179169Y-116554158D01*
X126117331Y-116789925D01*
X118616800Y-116789925D01*
X118616800Y-112328535D01*
X118942870Y-112328535D01*
X118992383Y-112553964D01*
X119457036Y-112713607D01*
X119947413Y-112683282D01*
X120259617Y-112553964D01*
X120309130Y-112328535D01*
X119626000Y-111645405D01*
X118942870Y-112328535D01*
X118616800Y-112328535D01*
X118616800Y-112116761D01*
X118763265Y-112148930D01*
X119446395Y-111465800D01*
X119805605Y-111465800D01*
X120488735Y-112148930D01*
X120714164Y-112099417D01*
X120873807Y-111634764D01*
X120843482Y-111144387D01*
X120714164Y-110832183D01*
X120488735Y-110782670D01*
X119805605Y-111465800D01*
X119446395Y-111465800D01*
X118763265Y-110782670D01*
X118616800Y-110814839D01*
X118616800Y-110603065D01*
X118942870Y-110603065D01*
X119626000Y-111286195D01*
X120309130Y-110603065D01*
X120259617Y-110377636D01*
X119794964Y-110217993D01*
X119304587Y-110248318D01*
X118992383Y-110377636D01*
X118942870Y-110603065D01*
X118616800Y-110603065D01*
X118616800Y-109108334D01*
X121449271Y-109108334D01*
X121466863Y-109307315D01*
X121838028Y-109423860D01*
X122225539Y-109389494D01*
X122423937Y-109307315D01*
X122441529Y-109108334D01*
X121945400Y-108612205D01*
X121449271Y-109108334D01*
X118616800Y-109108334D01*
X118616800Y-108325228D01*
X120954140Y-108325228D01*
X120988506Y-108712739D01*
X121070685Y-108911137D01*
X121269666Y-108928729D01*
X121765795Y-108432600D01*
X122125005Y-108432600D01*
X122621134Y-108928729D01*
X122820115Y-108911137D01*
X122936660Y-108539972D01*
X122902294Y-108152461D01*
X122820115Y-107954063D01*
X122621134Y-107936471D01*
X122125005Y-108432600D01*
X121765795Y-108432600D01*
X121269666Y-107936471D01*
X121070685Y-107954063D01*
X120954140Y-108325228D01*
X118616800Y-108325228D01*
X118616800Y-107756866D01*
X121449271Y-107756866D01*
X121945400Y-108252995D01*
X122441529Y-107756866D01*
X122423937Y-107557885D01*
X122052772Y-107441340D01*
X121665261Y-107475706D01*
X121466863Y-107557885D01*
X121449271Y-107756866D01*
X118616800Y-107756866D01*
X118616800Y-107212200D01*
X127572484Y-107212200D01*
X127555669Y-107223020D01*
G36*
X138292642Y-107267635D02*
X138194043Y-107534437D01*
X139166600Y-108506995D01*
X140139157Y-107534437D01*
X140040558Y-107267635D01*
X139891333Y-107212200D01*
X145685480Y-107212200D01*
X145496959Y-107333510D01*
X145351969Y-107545710D01*
X145300960Y-107797600D01*
X145300960Y-109829600D01*
X145345238Y-110064917D01*
X145455327Y-110236000D01*
X139725659Y-110236000D01*
X140040558Y-110105565D01*
X140139157Y-109838763D01*
X139166600Y-108866205D01*
X138194043Y-109838763D01*
X138292642Y-110105565D01*
X138643758Y-110236000D01*
X130324163Y-110236000D01*
X130457531Y-110150180D01*
X130602521Y-109937980D01*
X130653530Y-109686090D01*
X130653530Y-108422182D01*
X137521199Y-108422182D01*
X137545259Y-109071977D01*
X137747635Y-109560558D01*
X138014437Y-109659157D01*
X138986995Y-108686600D01*
X139346205Y-108686600D01*
X140318763Y-109659157D01*
X140585565Y-109560558D01*
X140812001Y-108951018D01*
X140787941Y-108301223D01*
X140585565Y-107812642D01*
X140318763Y-107714043D01*
X139346205Y-108686600D01*
X138986995Y-108686600D01*
X138014437Y-107714043D01*
X137747635Y-107812642D01*
X137521199Y-108422182D01*
X130653530Y-108422182D01*
X130653530Y-107687110D01*
X130609252Y-107451793D01*
X130470180Y-107235669D01*
X130435832Y-107212200D01*
X138426475Y-107212200D01*
X138292642Y-107267635D01*
X138292642Y-107267635D01*
G37*
X138292642Y-107267635D02*
X138194043Y-107534437D01*
X139166600Y-108506995D01*
X140139157Y-107534437D01*
X140040558Y-107267635D01*
X139891333Y-107212200D01*
X145685480Y-107212200D01*
X145496959Y-107333510D01*
X145351969Y-107545710D01*
X145300960Y-107797600D01*
X145300960Y-109829600D01*
X145345238Y-110064917D01*
X145455327Y-110236000D01*
X139725659Y-110236000D01*
X140040558Y-110105565D01*
X140139157Y-109838763D01*
X139166600Y-108866205D01*
X138194043Y-109838763D01*
X138292642Y-110105565D01*
X138643758Y-110236000D01*
X130324163Y-110236000D01*
X130457531Y-110150180D01*
X130602521Y-109937980D01*
X130653530Y-109686090D01*
X130653530Y-108422182D01*
X137521199Y-108422182D01*
X137545259Y-109071977D01*
X137747635Y-109560558D01*
X138014437Y-109659157D01*
X138986995Y-108686600D01*
X139346205Y-108686600D01*
X140318763Y-109659157D01*
X140585565Y-109560558D01*
X140812001Y-108951018D01*
X140787941Y-108301223D01*
X140585565Y-107812642D01*
X140318763Y-107714043D01*
X139346205Y-108686600D01*
X138986995Y-108686600D01*
X138014437Y-107714043D01*
X137747635Y-107812642D01*
X137521199Y-108422182D01*
X130653530Y-108422182D01*
X130653530Y-107687110D01*
X130609252Y-107451793D01*
X130470180Y-107235669D01*
X130435832Y-107212200D01*
X138426475Y-107212200D01*
X138292642Y-107267635D01*
M02*
