G04 DipTrace 2.3.1.0*
%INminishiftmaster_BoardOutline.gbr*%
%MOIN*%
%ADD11C,0.0055*%
%FSLAX44Y44*%
G04*
G70*
G90*
G75*
G01*
%LNBoardOutline*%
%LPD*%
X3937Y3937D2*
D11*
X16535D1*
Y16535D1*
X3937D1*
Y3937D1*
M02*
