G04 (created by PCBNEW (2013-07-07 BZR 4022)-stable) date 08/02/2014 11:33:34 PM*
%MOIN*%
G04 Gerber Fmt 3.4, Leading zero omitted, Abs format*
%FSLAX34Y34*%
G01*
G70*
G90*
G04 APERTURE LIST*
%ADD10C,0.00590551*%
%ADD11C,0.00393701*%
G04 APERTURE END LIST*
G54D10*
G54D11*
X57992Y-30905D02*
X34448Y-30905D01*
X58582Y-21850D02*
X58582Y-30314D01*
X57992Y-21259D02*
X31496Y-21259D01*
X31496Y-25984D02*
X32086Y-25984D01*
X31496Y-21259D02*
G75*
G03X29133Y-23622I0J-2362D01*
G74*
G01*
X29133Y-23622D02*
G75*
G03X31496Y-25984I2362J0D01*
G74*
G01*
X57992Y-30905D02*
G75*
G03X58582Y-30314I0J590D01*
G74*
G01*
X58582Y-21850D02*
G75*
G03X57992Y-21259I-590J0D01*
G74*
G01*
X33267Y-27165D02*
X33267Y-29724D01*
X33267Y-29724D02*
G75*
G03X34448Y-30905I1181J0D01*
G74*
G01*
X33267Y-27165D02*
G75*
G03X32086Y-25984I-1181J0D01*
G74*
G01*
M02*
