G04 (created by PCBNEW-RS274X (2012-01-19 BZR 3256)-stable) date 25/11/2012 15:42:30*
G01*
G70*
G90*
%MOIN*%
G04 Gerber Fmt 3.4, Leading zero omitted, Abs format*
%FSLAX34Y34*%
G04 APERTURE LIST*
%ADD10C,0.006000*%
%ADD11C,0.015000*%
G04 APERTURE END LIST*
G54D10*
G54D11*
X56300Y-50787D02*
X72047Y-50787D01*
X56300Y-38976D02*
X56300Y-50787D01*
X56299Y-38976D02*
X72047Y-38976D01*
X72047Y-38976D02*
X72047Y-50787D01*
M02*
