G04 start of page 4 for group -4063 idx -4063 *
G04 Title: (unknown), componentmask *
G04 Creator: pcb 20091103 *
G04 CreationDate: Mon 21 Mar 2011 05:54:21 AM GMT UTC *
G04 For: gjhurlbu *
G04 Format: Gerber/RS-274X *
G04 PCB-Dimensions: 600000 500000 *
G04 PCB-Coordinate-Origin: lower left *
%MOIN*%
%FSLAX25Y25*%
%LNFRONTMASK*%
%ADD12C,0.0200*%
%ADD19C,0.0660*%
%ADD20R,0.0176X0.0176*%
%ADD21R,0.0210X0.0210*%
G54D12*G36*
X89200Y460800D02*Y454200D01*
X95800D01*
Y460800D01*
X89200D01*
G37*
G54D19*X102500Y457500D03*
G54D12*G36*
X113200Y454300D02*Y447700D01*
X119800D01*
Y454300D01*
X113200D01*
G37*
G54D19*X116500Y441000D03*
Y431000D03*
Y421000D03*
G54D20*X73662Y431457D02*Y429371D01*
X76221Y431457D02*Y429371D01*
X78779Y431457D02*Y429371D01*
X81338Y431457D02*Y429371D01*
X83543Y433662D02*X85629D01*
X83543Y436221D02*X85629D01*
X83543Y438779D02*X85629D01*
X83543Y441338D02*X85629D01*
G54D21*X88100Y424000D02*Y422000D01*
Y417000D02*Y415000D01*
X85500Y424000D02*Y422000D01*
X83000Y424000D02*Y422000D01*
X80400Y424000D02*Y422000D01*
Y417000D02*Y415000D01*
X83000Y417000D02*Y415000D01*
X85500Y417000D02*Y415000D01*
G54D20*X81338Y445629D02*Y443543D01*
X78779Y445629D02*Y443543D01*
X76221Y445629D02*Y443543D01*
X69371Y436221D02*X71457D01*
X69371Y433662D02*X71457D01*
X73662Y445629D02*Y443543D01*
X69371Y441338D02*X71457D01*
X69371Y438779D02*X71457D01*
G54D12*G36*
X73167Y441833D02*Y433166D01*
X81834D01*
Y441833D01*
X73167D01*
G37*
M02*
