G75*
G70*
%OFA0B0*%
%FSLAX24Y24*%
%IPPOS*%
%LPD*%
%AMOC8*
5,1,8,0,0,1.08239X$1,22.5*
%
%ADD10R,0.0551X0.0394*%
%ADD11R,0.0433X0.0394*%
%ADD12R,0.0394X0.0433*%
%ADD13R,0.1181X0.0630*%
%ADD14R,0.2441X0.2283*%
%ADD15R,0.0138X0.0354*%
%ADD16R,0.0709X0.0827*%
%ADD17R,0.0866X0.0236*%
%ADD18R,0.0236X0.0394*%
%ADD19R,0.0394X0.0236*%
%ADD20R,0.0598X0.0701*%
%ADD21R,0.0512X0.0591*%
%ADD22R,0.0394X0.0551*%
%ADD23R,0.0200X0.0500*%
%ADD24R,0.1000X0.0900*%
%ADD25R,0.0480X0.0880*%
%ADD26R,0.1417X0.0866*%
%ADD27R,0.0591X0.0512*%
%ADD28OC8,0.0591*%
%ADD29C,0.0591*%
%ADD30R,0.0118X0.0630*%
%ADD31R,0.0787X0.2087*%
%ADD32R,0.0118X0.0591*%
%ADD33R,0.0591X0.0118*%
%ADD34C,0.1299*%
%ADD35C,0.1142*%
%ADD36C,0.1063*%
%ADD37C,0.1102*%
%ADD38R,0.0315X0.0315*%
%ADD39OC8,0.0600*%
%ADD40C,0.2000*%
%ADD41R,0.0630X0.0710*%
%ADD42OC8,0.0610*%
%ADD43R,0.0945X0.0669*%
%ADD44OC8,0.0787*%
%ADD45C,0.0400*%
%ADD46R,0.0984X0.1575*%
%ADD47R,0.0236X0.0866*%
%ADD48R,0.0800X0.0800*%
%ADD49R,0.0827X0.0709*%
%ADD50R,0.1516X0.2165*%
%ADD51R,0.0472X0.0217*%
%ADD52C,0.0270*%
%ADD53C,0.0100*%
%ADD54C,0.0356*%
%ADD55C,0.0160*%
%ADD56C,0.0360*%
%ADD57C,0.0120*%
%ADD58C,0.0400*%
%ADD59C,0.0200*%
%ADD60C,0.0240*%
%ADD61C,0.0660*%
%ADD62C,0.0320*%
%ADD63C,0.0500*%
%ADD64C,0.0760*%
%ADD65C,0.1000*%
%ADD66C,0.1200*%
%ADD67C,0.0860*%
D10*
X035397Y016800D03*
X036263Y016426D03*
X036263Y017174D03*
X050297Y024050D03*
X051163Y023676D03*
X051163Y024424D03*
X050613Y025976D03*
X050613Y026724D03*
X049747Y026350D03*
D11*
X046280Y023035D03*
X046280Y022365D03*
X046280Y021785D03*
X046280Y021115D03*
X048780Y021565D03*
X048780Y022235D03*
X052180Y021885D03*
X052180Y021215D03*
X053030Y021215D03*
X053930Y021215D03*
X053930Y021885D03*
X053030Y021885D03*
X054780Y021885D03*
X055680Y021885D03*
X055680Y021215D03*
X054780Y021215D03*
X056530Y021215D03*
X057480Y021215D03*
X057480Y021885D03*
X056530Y021885D03*
X058330Y021885D03*
X058330Y021215D03*
X050280Y017135D03*
X050280Y016465D03*
X051880Y016535D03*
X051880Y015865D03*
X050130Y014885D03*
X050130Y014215D03*
X048180Y010135D03*
X048180Y009465D03*
X048180Y003885D03*
X048180Y003215D03*
X046930Y003215D03*
X046930Y003885D03*
X045530Y003935D03*
X045530Y003265D03*
X044230Y003265D03*
X044230Y003935D03*
X042930Y003935D03*
X042930Y003265D03*
X041630Y003015D03*
X041630Y003685D03*
X040280Y003685D03*
X040280Y003015D03*
X038930Y003015D03*
X038930Y003685D03*
X034530Y003765D03*
X034530Y004435D03*
X029880Y007965D03*
X029880Y008635D03*
X033130Y008735D03*
X033130Y008065D03*
X024680Y012465D03*
X024680Y013135D03*
X022780Y013235D03*
X022780Y012565D03*
X021980Y012565D03*
X021980Y013235D03*
X022580Y015415D03*
X022580Y016085D03*
X024630Y016085D03*
X024630Y015415D03*
X017680Y020065D03*
X017680Y020735D03*
X017980Y024265D03*
X017980Y024935D03*
X034230Y024615D03*
X034230Y025285D03*
X034980Y023535D03*
X034980Y022865D03*
X035880Y022865D03*
X035880Y023535D03*
X036980Y025315D03*
X036980Y025985D03*
X037230Y019935D03*
X036380Y019585D03*
X037230Y019265D03*
X036380Y018915D03*
X035130Y018585D03*
X034280Y018585D03*
X034280Y017915D03*
X035130Y017915D03*
X037380Y016985D03*
X037730Y017615D03*
X037730Y018285D03*
X040930Y018365D03*
X040930Y019035D03*
X041805Y019035D03*
X041805Y018365D03*
X037380Y016315D03*
X023180Y009885D03*
X023180Y009215D03*
X022380Y009215D03*
X022380Y009885D03*
D12*
X023845Y008400D03*
X024515Y008400D03*
X035695Y004600D03*
X036365Y004600D03*
X038245Y004450D03*
X038915Y004450D03*
X037415Y001400D03*
X036745Y001400D03*
X035865Y001400D03*
X035195Y001400D03*
X034415Y001400D03*
X033745Y001400D03*
X039495Y007950D03*
X040165Y007950D03*
X040895Y007950D03*
X041565Y007950D03*
X042295Y007950D03*
X042965Y007950D03*
X043795Y007950D03*
X044465Y007950D03*
X049295Y004900D03*
X049965Y004900D03*
X053270Y007425D03*
X053940Y007425D03*
X054795Y007350D03*
X055465Y007350D03*
X056095Y007350D03*
X056765Y007350D03*
X057395Y007800D03*
X058065Y007800D03*
X058065Y008650D03*
X057395Y008650D03*
X053940Y008325D03*
X053270Y008325D03*
X047415Y010950D03*
X046745Y010950D03*
X041865Y016300D03*
X041195Y016300D03*
X035565Y019750D03*
X034895Y019750D03*
X035215Y020600D03*
X034545Y020600D03*
X033865Y020700D03*
X033195Y020700D03*
X033845Y021800D03*
X034515Y021800D03*
X036445Y020850D03*
X037115Y020850D03*
X034615Y016950D03*
X033945Y016950D03*
X029565Y022650D03*
X028895Y022650D03*
X029045Y026400D03*
X029715Y026400D03*
X040445Y027350D03*
X041115Y027350D03*
X048945Y024200D03*
X049615Y024200D03*
X050245Y022800D03*
X050915Y022800D03*
X050115Y020400D03*
X049445Y020400D03*
X046765Y020200D03*
X046095Y020200D03*
X051445Y025650D03*
X052115Y025650D03*
X052115Y026700D03*
X051445Y026700D03*
X021465Y015100D03*
X020795Y015100D03*
D13*
X024089Y018852D03*
X024089Y020648D03*
X024089Y022102D03*
X024089Y023898D03*
D14*
X026916Y023000D03*
X026916Y019750D03*
D15*
X029024Y021106D03*
X029280Y021106D03*
X029536Y021106D03*
X029536Y021894D03*
X029280Y021894D03*
X029024Y021894D03*
X029024Y024756D03*
X029280Y024756D03*
X029536Y024756D03*
X029536Y025544D03*
X029280Y025544D03*
X029024Y025544D03*
X023886Y015994D03*
X023630Y015994D03*
X023374Y015994D03*
X023374Y015206D03*
X023630Y015206D03*
X023886Y015206D03*
X023986Y012994D03*
X023730Y012994D03*
X023474Y012994D03*
X023474Y012206D03*
X023730Y012206D03*
X023986Y012206D03*
X024074Y010044D03*
X024330Y010044D03*
X024586Y010044D03*
X024586Y009256D03*
X024330Y009256D03*
X024074Y009256D03*
X050874Y014006D03*
X051130Y014006D03*
X051386Y014006D03*
X051386Y014794D03*
X051130Y014794D03*
X050874Y014794D03*
D16*
X053530Y025034D03*
X054930Y025034D03*
X056330Y025034D03*
X057730Y025084D03*
X057730Y026816D03*
X056330Y026766D03*
X054930Y026766D03*
X053530Y026766D03*
X031880Y021266D03*
X031880Y019534D03*
D17*
X028054Y017850D03*
X028054Y017350D03*
X028054Y016850D03*
X028054Y016350D03*
X026006Y016350D03*
X026006Y016850D03*
X026006Y017350D03*
X026006Y017850D03*
X046706Y014850D03*
X046706Y014350D03*
X046706Y013850D03*
X046706Y013350D03*
X048754Y013350D03*
X048754Y013850D03*
X048754Y014350D03*
X048754Y014850D03*
X037554Y003750D03*
X037554Y003250D03*
X037554Y002750D03*
X037554Y002250D03*
X035506Y002250D03*
X035506Y002750D03*
X035506Y003250D03*
X035506Y003750D03*
D18*
X033430Y017717D03*
X033430Y018583D03*
D19*
X046747Y011950D03*
X047613Y011950D03*
D20*
X049850Y003850D03*
X049850Y002850D03*
X053810Y002850D03*
X053810Y003850D03*
D21*
X052004Y007350D03*
X051256Y007350D03*
X057456Y009550D03*
X058204Y009550D03*
X058204Y010500D03*
X057456Y010500D03*
X051204Y013050D03*
X050456Y013050D03*
X052006Y017550D03*
X052754Y017550D03*
X053906Y017550D03*
X054654Y017550D03*
X055806Y017550D03*
X056554Y017550D03*
X057706Y017550D03*
X058454Y017550D03*
X058454Y018600D03*
X057706Y018600D03*
X056554Y018600D03*
X055806Y018600D03*
X054654Y018600D03*
X053906Y018600D03*
X052754Y018600D03*
X052006Y018600D03*
X052006Y019650D03*
X052754Y019650D03*
X053906Y019650D03*
X054654Y019650D03*
X055806Y019650D03*
X056554Y019650D03*
X057706Y019650D03*
X058454Y019650D03*
X029104Y009300D03*
X028356Y009300D03*
D22*
X052356Y023067D03*
X053104Y023067D03*
X054006Y023067D03*
X054754Y023067D03*
X055656Y023067D03*
X056404Y023067D03*
X057306Y023067D03*
X058054Y023067D03*
X057680Y023933D03*
X056030Y023933D03*
X054380Y023933D03*
X052730Y023933D03*
X035854Y024617D03*
X035106Y024617D03*
X035480Y025483D03*
D23*
X032930Y022650D03*
X032430Y022650D03*
X031930Y022650D03*
D24*
X032430Y026950D03*
D25*
X047070Y016680D03*
X047980Y016680D03*
X048890Y016680D03*
D26*
X047980Y019120D03*
D27*
X049930Y019224D03*
X049930Y018476D03*
X052880Y010424D03*
X053780Y010424D03*
X053780Y009676D03*
X052880Y009676D03*
D28*
X045430Y006900D03*
X044430Y006900D03*
X043430Y006900D03*
X042430Y006900D03*
X041430Y006900D03*
X040430Y006900D03*
X039430Y006900D03*
X038430Y006900D03*
X037430Y006900D03*
X036430Y006900D03*
X035430Y006900D03*
X034430Y006900D03*
X033430Y006900D03*
X032430Y006900D03*
X031430Y006900D03*
X030430Y006900D03*
X029430Y006900D03*
X028430Y006900D03*
X027430Y006900D03*
X026430Y006900D03*
X025430Y006900D03*
X024430Y006900D03*
X023430Y006900D03*
X023430Y005900D03*
X024430Y005900D03*
X025430Y005900D03*
X026430Y005900D03*
X027430Y005900D03*
X028430Y005900D03*
X029430Y005900D03*
X030430Y005900D03*
X031430Y005900D03*
X032430Y005900D03*
X033430Y005900D03*
X034430Y005900D03*
X035430Y005900D03*
X036430Y005900D03*
X037430Y005900D03*
X038430Y005900D03*
X039430Y005900D03*
X040430Y005900D03*
X041430Y005900D03*
X042430Y005900D03*
X043430Y005900D03*
X044430Y005900D03*
X045430Y005900D03*
X043080Y009000D03*
X042080Y009000D03*
X042080Y010000D03*
X043080Y010000D03*
X043080Y011000D03*
X042080Y011000D03*
X032180Y016600D03*
X031180Y016600D03*
X030180Y016600D03*
X030180Y017600D03*
X031180Y017600D03*
X032180Y017600D03*
X032180Y028250D03*
X033180Y028250D03*
X034180Y028250D03*
X035180Y028250D03*
X036180Y028250D03*
X037180Y028250D03*
X038180Y028250D03*
X039180Y028250D03*
X039180Y029250D03*
X038180Y029250D03*
X037180Y029250D03*
X036180Y029250D03*
X035180Y029250D03*
X034180Y029250D03*
X033180Y029250D03*
X032180Y029250D03*
X030480Y029250D03*
X029480Y029250D03*
X028480Y029250D03*
X027480Y029250D03*
X026480Y029250D03*
X025480Y029250D03*
X024480Y029250D03*
X023480Y029250D03*
X023480Y028250D03*
X024480Y028250D03*
X025480Y028250D03*
X026480Y028250D03*
X027480Y028250D03*
X028480Y028250D03*
X029480Y028250D03*
X030480Y028250D03*
X040930Y028250D03*
X041930Y028250D03*
X042930Y028250D03*
X043930Y028250D03*
X044930Y028250D03*
X045930Y028250D03*
X046930Y028250D03*
X047930Y028250D03*
X047930Y029250D03*
X046930Y029250D03*
X045930Y029250D03*
X044930Y029250D03*
X043930Y029250D03*
X042930Y029250D03*
X041930Y029250D03*
X040930Y029250D03*
X049630Y029250D03*
X050630Y029250D03*
X051630Y029250D03*
X052630Y029250D03*
X053630Y029250D03*
X054630Y029250D03*
X055630Y029250D03*
X056630Y029250D03*
X056630Y028250D03*
X055630Y028250D03*
X054630Y028250D03*
X053630Y028250D03*
X052630Y028250D03*
X051630Y028250D03*
X050630Y028250D03*
X049630Y028250D03*
X030780Y004250D03*
X029780Y004250D03*
X028780Y004250D03*
X028780Y003250D03*
X029780Y003250D03*
X030780Y003250D03*
X030780Y002250D03*
X029780Y002250D03*
X028780Y002250D03*
X026980Y002250D03*
X025980Y002250D03*
X024980Y002250D03*
X024980Y003250D03*
X025980Y003250D03*
X026980Y003250D03*
X026980Y004250D03*
X025980Y004250D03*
X024980Y004250D03*
D29*
X032085Y003250D02*
X032675Y003250D01*
X032675Y002250D02*
X032085Y002250D01*
X027025Y009480D02*
X026435Y009480D01*
X026435Y010480D02*
X027025Y010480D01*
X027025Y011480D02*
X026435Y011480D01*
X038775Y016660D02*
X039365Y016660D01*
X039365Y017660D02*
X038775Y017660D01*
X038775Y018660D02*
X039365Y018660D01*
X027075Y025250D02*
X026485Y025250D01*
X026485Y026250D02*
X027075Y026250D01*
X024475Y026700D02*
X023885Y026700D01*
X023885Y025700D02*
X024475Y025700D01*
X051880Y006095D02*
X051880Y005505D01*
X052880Y005505D02*
X052880Y006095D01*
D30*
X044782Y016498D03*
X044526Y016498D03*
X044270Y016498D03*
X044014Y016498D03*
X043758Y016498D03*
X043502Y016498D03*
X043246Y016498D03*
X042990Y016498D03*
X042734Y016498D03*
X042478Y016498D03*
X042478Y018702D03*
X042734Y018702D03*
X042990Y018702D03*
X043246Y018702D03*
X043502Y018702D03*
X043758Y018702D03*
X044014Y018702D03*
X044270Y018702D03*
X044526Y018702D03*
X044782Y018702D03*
D31*
X049181Y010550D03*
X051779Y010550D03*
D32*
X044042Y020050D03*
X043845Y020050D03*
X043649Y020050D03*
X043452Y020050D03*
X043255Y020050D03*
X043058Y020050D03*
X042861Y020050D03*
X042664Y020050D03*
X042467Y020050D03*
X042271Y020050D03*
X042074Y020050D03*
X041877Y020050D03*
X041680Y020050D03*
X041483Y020050D03*
X041286Y020050D03*
X041089Y020050D03*
X040893Y020050D03*
X040696Y020050D03*
X040499Y020050D03*
X040302Y020050D03*
X040105Y020050D03*
X039908Y020050D03*
X039711Y020050D03*
X039515Y020050D03*
X039318Y020050D03*
X039318Y026350D03*
X039515Y026350D03*
X039711Y026350D03*
X039908Y026350D03*
X040105Y026350D03*
X040302Y026350D03*
X040499Y026350D03*
X040696Y026350D03*
X040893Y026350D03*
X041089Y026350D03*
X041286Y026350D03*
X041483Y026350D03*
X041680Y026350D03*
X041877Y026350D03*
X042074Y026350D03*
X042271Y026350D03*
X042467Y026350D03*
X042664Y026350D03*
X042861Y026350D03*
X043058Y026350D03*
X043255Y026350D03*
X043452Y026350D03*
X043649Y026350D03*
X043845Y026350D03*
X044042Y026350D03*
D33*
X044830Y025562D03*
X044830Y025365D03*
X044830Y025169D03*
X044830Y024972D03*
X044830Y024775D03*
X044830Y024578D03*
X044830Y024381D03*
X044830Y024184D03*
X044830Y023987D03*
X044830Y023791D03*
X044830Y023594D03*
X044830Y023397D03*
X044830Y023200D03*
X044830Y023003D03*
X044830Y022806D03*
X044830Y022609D03*
X044830Y022413D03*
X044830Y022216D03*
X044830Y022019D03*
X044830Y021822D03*
X044830Y021625D03*
X044830Y021428D03*
X044830Y021231D03*
X044830Y021035D03*
X044830Y020838D03*
X038530Y020838D03*
X038530Y021035D03*
X038530Y021231D03*
X038530Y021428D03*
X038530Y021625D03*
X038530Y021822D03*
X038530Y022019D03*
X038530Y022216D03*
X038530Y022413D03*
X038530Y022609D03*
X038530Y022806D03*
X038530Y023003D03*
X038530Y023200D03*
X038530Y023397D03*
X038530Y023594D03*
X038530Y023791D03*
X038530Y023987D03*
X038530Y024184D03*
X038530Y024381D03*
X038530Y024578D03*
X038530Y024775D03*
X038530Y024972D03*
X038530Y025169D03*
X038530Y025365D03*
X038530Y025562D03*
D34*
X021606Y023249D02*
X020307Y023249D01*
X020307Y020282D02*
X021606Y020282D01*
X021606Y017133D02*
X020307Y017133D01*
X020307Y007670D02*
X021606Y007670D01*
X021606Y003733D02*
X020307Y003733D01*
X020307Y028367D02*
X021606Y028367D01*
D35*
X007551Y029843D02*
X006409Y029843D01*
X006409Y026300D02*
X007551Y026300D01*
X007551Y022757D02*
X006409Y022757D01*
X006409Y019593D02*
X007551Y019593D01*
X007551Y016050D02*
X006409Y016050D01*
X006409Y012507D02*
X007551Y012507D01*
X007551Y009343D02*
X006409Y009343D01*
X006409Y005800D02*
X007551Y005800D01*
X007551Y002257D02*
X006409Y002257D01*
D36*
X020228Y002650D02*
X021291Y002650D01*
X021291Y006587D02*
X020228Y006587D01*
X020228Y016050D02*
X021291Y016050D01*
X021291Y019200D02*
X020228Y019200D01*
X020228Y024331D02*
X021291Y024331D01*
X021291Y029450D02*
X020228Y029450D01*
D37*
X007531Y030843D02*
X006429Y030843D01*
X006429Y027300D02*
X007531Y027300D01*
X007531Y023757D02*
X006429Y023757D01*
X006429Y020593D02*
X007531Y020593D01*
X007531Y017050D02*
X006429Y017050D01*
X006429Y013507D02*
X007531Y013507D01*
X007531Y008343D02*
X006429Y008343D01*
X006429Y004800D02*
X007531Y004800D01*
X007531Y001257D02*
X006429Y001257D01*
D38*
X038930Y001655D03*
X038930Y002245D03*
X040280Y002245D03*
X040280Y001655D03*
X041630Y001655D03*
X041630Y002245D03*
X042930Y002245D03*
X042930Y001655D03*
X044230Y001655D03*
X044230Y002245D03*
X045530Y002245D03*
X045530Y001655D03*
X046930Y001655D03*
X046930Y002245D03*
X048180Y002245D03*
X048180Y001655D03*
D39*
X003590Y014030D03*
X002470Y014570D03*
X003590Y015120D03*
X002470Y015660D03*
X003590Y016200D03*
X002470Y016750D03*
X003590Y017290D03*
X002470Y017830D03*
X003590Y018380D03*
X002470Y018920D03*
X003590Y019460D03*
X002470Y020010D03*
X003590Y020550D03*
X002470Y021090D03*
X003590Y021640D03*
X002470Y022180D03*
X003590Y022720D03*
X002470Y023270D03*
X003590Y023810D03*
X002470Y024350D03*
X003590Y024900D03*
X002470Y025440D03*
X003590Y025980D03*
X002470Y026530D03*
X003590Y027070D03*
D40*
X003030Y029810D03*
X003030Y011290D03*
D41*
X023420Y011050D03*
X024540Y011050D03*
X024490Y014300D03*
X023370Y014300D03*
X023220Y017150D03*
X024340Y017150D03*
X028770Y020250D03*
X029890Y020250D03*
X029840Y023650D03*
X028720Y023650D03*
D42*
X048030Y007100D03*
X049030Y007100D03*
X050030Y007100D03*
X050030Y006100D03*
X049030Y006100D03*
X048030Y006100D03*
D43*
X047480Y021272D03*
X047480Y022728D03*
D44*
X053180Y001250D03*
X003830Y003400D03*
X003130Y005700D03*
X001330Y005700D03*
X001330Y007150D03*
X003130Y007150D03*
X003130Y008700D03*
X001330Y008700D03*
D45*
X002030Y003500D03*
X038980Y014600D03*
X046030Y026000D03*
X016030Y029650D03*
X050130Y001400D03*
D46*
X056630Y003599D03*
X056630Y006001D03*
X011704Y007375D03*
X011704Y004225D03*
X011704Y014475D03*
X011704Y017625D03*
X011704Y024725D03*
X011704Y027875D03*
D47*
X054680Y010474D03*
X055180Y010474D03*
X055680Y010474D03*
X056180Y010474D03*
X056180Y008426D03*
X055680Y008426D03*
X055180Y008426D03*
X054680Y008426D03*
D48*
X055430Y009450D03*
D49*
X052146Y008800D03*
X050414Y008800D03*
D50*
X053371Y013950D03*
X057289Y013950D03*
D51*
X051042Y021176D03*
X050018Y021176D03*
X050018Y021550D03*
X050018Y021924D03*
X051042Y021924D03*
D52*
X048780Y021050D03*
X047180Y020200D03*
X045880Y019600D03*
X045480Y019150D03*
X044780Y019350D03*
X045480Y020350D03*
X043780Y020850D03*
X043430Y020750D03*
X042930Y020750D03*
X042280Y021000D03*
X041930Y020850D03*
X041330Y021350D03*
X040980Y021000D03*
X039255Y021225D03*
X039280Y021850D03*
X037880Y021500D03*
X037730Y021850D03*
X037080Y022300D03*
X036830Y021500D03*
X035780Y022050D03*
X035680Y021150D03*
X035730Y020750D03*
X034030Y019750D03*
X036230Y018300D03*
X036680Y018300D03*
X037880Y018850D03*
X038130Y020400D03*
X041380Y019425D03*
X042430Y019450D03*
X043380Y018050D03*
X042980Y017850D03*
X044030Y018050D03*
X044430Y017600D03*
X044380Y017200D03*
X041530Y017550D03*
X041380Y017900D03*
X041380Y016900D03*
X037380Y015900D03*
X033080Y017600D03*
X028330Y018250D03*
X024880Y016550D03*
X022830Y016550D03*
X020230Y015100D03*
X023030Y015000D03*
X024630Y014950D03*
X024680Y013600D03*
X022680Y011950D03*
X023180Y011800D03*
X024680Y011850D03*
X023180Y010350D03*
X023780Y009000D03*
X022380Y008750D03*
X024480Y007750D03*
X032930Y005050D03*
X033930Y005050D03*
X034530Y004900D03*
X037480Y004300D03*
X039780Y004800D03*
X040280Y004800D03*
X041630Y004800D03*
X042930Y004550D03*
X046380Y005050D03*
X046880Y004500D03*
X048130Y004500D03*
X049080Y003850D03*
X049380Y002350D03*
X053830Y002200D03*
X057380Y007100D03*
X058830Y007800D03*
X055630Y009250D03*
X055230Y009250D03*
X055230Y009650D03*
X055630Y009650D03*
X053330Y008950D03*
X058330Y011250D03*
X051780Y014950D03*
X050530Y015400D03*
X049380Y015250D03*
X050130Y013700D03*
X038730Y012600D03*
X037730Y013150D03*
X037430Y012900D03*
X037480Y009900D03*
X037780Y009350D03*
X038230Y008850D03*
X033730Y002000D03*
X038080Y001400D03*
X042330Y001900D03*
X021380Y013250D03*
X029980Y021000D03*
X030130Y022100D03*
X028480Y022050D03*
X031930Y022000D03*
X032680Y021350D03*
X033680Y022600D03*
X034230Y022600D03*
X032780Y023650D03*
X036480Y023200D03*
X036930Y023500D03*
X036530Y023800D03*
X036630Y024300D03*
X037030Y024550D03*
X036480Y024800D03*
X037430Y023850D03*
X039380Y024250D03*
X040380Y023850D03*
X040730Y024100D03*
X039280Y024775D03*
X040530Y025100D03*
X041280Y025100D03*
X041530Y025550D03*
X042080Y025550D03*
X041830Y026900D03*
X041480Y026900D03*
X040080Y027850D03*
X034980Y026250D03*
X034330Y026000D03*
X033830Y027050D03*
X030030Y025700D03*
X028430Y025550D03*
X042630Y021300D03*
X043180Y021400D03*
X044180Y022025D03*
X043880Y022350D03*
X044030Y023050D03*
X043780Y023400D03*
X043930Y023750D03*
X045380Y024900D03*
X045680Y024600D03*
X045680Y022450D03*
X049630Y023650D03*
X051430Y025050D03*
X050880Y025350D03*
X054755Y022500D03*
X056405Y022450D03*
X058055Y022450D03*
X058305Y020700D03*
X057480Y020700D03*
X056405Y020700D03*
X055680Y020700D03*
X054605Y020650D03*
X053930Y020650D03*
X053055Y020700D03*
X052180Y020700D03*
X052955Y022400D03*
D53*
X052980Y022400D01*
X053130Y022550D01*
X053130Y023041D01*
X053104Y023067D01*
X052356Y023067D02*
X052356Y022676D01*
X052180Y022250D01*
X052180Y021885D01*
X053030Y021885D01*
X053930Y021885D02*
X054780Y021885D01*
X055656Y021909D02*
X055680Y021885D01*
X056530Y021885D01*
X057480Y021885D02*
X057480Y022200D01*
X057306Y022624D01*
X057306Y023067D01*
X058054Y023067D02*
X058055Y023066D01*
X058055Y022450D01*
X058330Y021885D02*
X057480Y021885D01*
X057480Y021215D02*
X057480Y020700D01*
X056530Y020900D02*
X056530Y021215D01*
X056530Y020900D02*
X056405Y020775D01*
X056405Y020700D01*
X055680Y020700D02*
X055680Y021215D01*
X054780Y021215D02*
X054780Y020850D01*
X054605Y020675D01*
X054605Y020650D01*
X053930Y020650D02*
X053930Y021215D01*
X053055Y021190D02*
X053030Y021215D01*
X053055Y021190D02*
X053055Y020700D01*
X052180Y020700D02*
X052180Y021215D01*
X050680Y020750D02*
X050680Y020400D01*
X050680Y020750D02*
X050580Y020850D01*
X050580Y021000D01*
X050404Y021176D01*
X050018Y021176D01*
X048780Y021050D02*
X048780Y021565D01*
X048780Y022235D02*
X048780Y023300D01*
X048380Y023700D01*
X046630Y023700D01*
X046280Y024050D01*
X045430Y024050D01*
X045296Y024184D01*
X044830Y024184D01*
X044830Y024381D02*
X045399Y024381D01*
X045480Y024300D01*
X046330Y024300D01*
X046680Y023950D01*
X048280Y023950D01*
X048530Y024200D01*
X048945Y024200D01*
X048945Y026015D01*
X049280Y026350D01*
X049747Y026350D01*
X049747Y027367D01*
X050630Y028250D01*
X051130Y028750D02*
X051130Y027450D01*
X050630Y026950D01*
X050630Y026741D01*
X050613Y026724D01*
X051421Y026724D01*
X051445Y026700D01*
X051180Y026200D02*
X050956Y025976D01*
X050613Y025976D01*
X051180Y026200D02*
X052065Y026200D01*
X052115Y026250D01*
X051445Y025650D02*
X051445Y025065D01*
X051430Y025050D01*
X050297Y024050D02*
X050297Y023717D01*
X049880Y023300D01*
X048780Y023300D01*
X049630Y023650D02*
X049615Y024200D01*
X051163Y023676D02*
X051756Y023676D01*
X051780Y023700D01*
X054006Y023067D02*
X054006Y022626D01*
X053930Y022550D01*
X053930Y021885D01*
X054755Y022500D02*
X054755Y023066D01*
X054754Y023067D01*
X055656Y023067D02*
X055656Y021909D01*
X056405Y022450D02*
X056405Y023066D01*
X056404Y023067D01*
X058330Y021215D02*
X058330Y020750D01*
X058305Y020725D01*
X058305Y020700D01*
X051030Y015350D02*
X050680Y015700D01*
X050180Y015700D01*
X050030Y015550D01*
X046430Y015550D01*
X045880Y016100D01*
X045880Y019600D01*
X045480Y019150D02*
X045480Y010550D01*
X046230Y009800D01*
X046230Y005550D01*
X045530Y004850D01*
X045530Y003935D01*
X044230Y003935D02*
X044230Y004450D01*
X044980Y005200D01*
X044980Y007450D01*
X045180Y007650D01*
X045180Y020750D01*
X045130Y020800D01*
X044867Y020800D01*
X044830Y020838D01*
X044042Y021238D02*
X043880Y021400D01*
X043880Y022350D01*
X043639Y022609D02*
X043180Y022150D01*
X043180Y021400D01*
X042630Y021300D02*
X042630Y020850D01*
X042467Y020687D01*
X042467Y020050D01*
X042271Y020050D02*
X042271Y020991D01*
X042280Y021000D01*
X041930Y020850D02*
X042074Y020606D01*
X042074Y020050D01*
X041680Y020050D02*
X041680Y020700D01*
X041330Y021350D01*
X040980Y021000D02*
X041286Y020694D01*
X041286Y020050D01*
X041089Y020050D02*
X041089Y019559D01*
X041224Y019425D01*
X041380Y019425D01*
X041855Y019425D01*
X041880Y019400D01*
X041830Y019350D01*
X041805Y019035D01*
X041880Y019400D02*
X041980Y019500D01*
X042380Y019500D01*
X042430Y019450D01*
X042734Y019146D01*
X042734Y018702D01*
X042478Y018702D02*
X042478Y017852D01*
X042480Y017450D01*
X041930Y017200D01*
X040580Y017200D01*
X039980Y017800D01*
X039980Y018800D01*
X039515Y019265D01*
X039515Y020050D01*
X039711Y020050D02*
X039711Y019419D01*
X040230Y018900D01*
X040230Y017850D01*
X040530Y017550D01*
X041530Y017550D01*
X041380Y017900D02*
X041680Y017900D01*
X041830Y018050D01*
X041830Y018340D01*
X041805Y018365D01*
X041380Y017900D02*
X041130Y017900D01*
X040930Y018100D01*
X040930Y018365D01*
X040930Y019035D02*
X040930Y019400D01*
X041089Y019559D01*
X040499Y020050D02*
X040499Y020969D01*
X040730Y021200D01*
X040730Y024100D01*
X040380Y023850D02*
X040380Y021300D01*
X040302Y021228D01*
X040302Y020050D01*
X040105Y020050D02*
X040105Y020675D01*
X040105Y024225D01*
X040980Y025100D01*
X041280Y025100D01*
X041530Y025550D02*
X041877Y025897D01*
X041877Y026350D01*
X042074Y026350D02*
X042080Y027100D01*
X042074Y025556D01*
X042080Y025550D01*
X040530Y025100D02*
X039830Y024450D01*
X039830Y021000D01*
X039318Y020488D01*
X039318Y020050D01*
X038415Y019935D02*
X039630Y021150D01*
X039630Y021950D01*
X039380Y022200D01*
X038546Y022200D01*
X038530Y022216D01*
X038530Y022413D02*
X037143Y022413D01*
X037080Y022300D01*
X037380Y022150D02*
X037930Y022150D01*
X038061Y022019D01*
X038530Y022019D01*
X038530Y021822D02*
X037802Y021822D01*
X037730Y021850D01*
X037880Y021500D02*
X038055Y021625D01*
X038530Y021625D01*
X038530Y021428D02*
X039058Y021428D01*
X039280Y021650D01*
X039280Y021850D01*
X038530Y021231D02*
X037961Y021231D01*
X037580Y020850D01*
X037115Y020850D01*
X037115Y021215D01*
X036830Y021500D01*
X036480Y021750D02*
X036730Y022000D01*
X037230Y022000D01*
X037380Y022150D01*
X036939Y022609D02*
X036380Y022050D01*
X035780Y022050D01*
X035880Y021750D02*
X036480Y021750D01*
X035880Y021750D02*
X035680Y021550D01*
X035680Y021150D01*
X035280Y021350D02*
X035280Y022050D01*
X035680Y022450D01*
X036480Y022450D01*
X036830Y022800D01*
X038524Y022800D01*
X038530Y022806D01*
X038527Y023000D02*
X038530Y023003D01*
X038527Y023000D02*
X036680Y023000D01*
X036545Y022865D01*
X035880Y022865D01*
X034980Y022865D01*
X034580Y023500D02*
X034230Y023150D01*
X034230Y022600D01*
X034230Y022550D01*
X034480Y022300D01*
X034480Y021835D01*
X034515Y021800D01*
X034830Y021150D02*
X035080Y021150D01*
X035280Y021350D01*
X034830Y021150D02*
X034545Y020865D01*
X034545Y020600D01*
X033865Y020700D01*
X033530Y020150D02*
X032880Y020150D01*
X032680Y020350D01*
X032680Y021350D01*
X033180Y021375D02*
X033195Y020700D01*
X033530Y020150D02*
X033730Y019950D01*
X033730Y019250D01*
X033980Y019000D01*
X035480Y019000D01*
X035680Y018800D01*
X035680Y017700D01*
X035380Y017400D01*
X035380Y016817D01*
X035397Y016800D01*
X034615Y016950D01*
X034615Y017135D01*
X034280Y017650D02*
X033930Y017300D01*
X033930Y016965D01*
X033945Y016950D01*
X033680Y016950D01*
X033430Y017200D01*
X033430Y017500D01*
X033330Y017600D01*
X033080Y017600D01*
X033430Y017500D02*
X033430Y017717D01*
X034280Y017650D02*
X034280Y017915D01*
X035130Y017915D01*
X036230Y018000D02*
X036230Y018300D01*
X036230Y018000D02*
X036263Y017467D01*
X036263Y017174D01*
X037065Y016985D02*
X036680Y016450D01*
X036287Y016450D01*
X036263Y016426D01*
X037380Y016315D02*
X037380Y015900D01*
X037380Y016985D02*
X037380Y017050D01*
X037730Y017400D01*
X037730Y017615D01*
X037380Y016985D02*
X037065Y016985D01*
X036680Y018300D02*
X036380Y018915D01*
X037230Y019265D02*
X038465Y019265D01*
X039070Y018660D01*
X037880Y018850D02*
X037730Y018700D01*
X037730Y018285D01*
X036380Y019585D02*
X035565Y019750D01*
X034895Y019750D02*
X034030Y019750D01*
X034280Y018585D02*
X033432Y018585D01*
X033430Y018583D01*
X033413Y018600D01*
X031630Y018600D01*
X030980Y019250D01*
X030930Y019200D02*
X030880Y019250D01*
X029890Y020250D02*
X029280Y020860D01*
X029280Y021106D01*
X029030Y021100D02*
X029024Y021106D01*
X029030Y021100D02*
X029030Y020850D01*
X028770Y020590D01*
X028770Y020250D01*
X029536Y021106D02*
X029574Y021106D01*
X029680Y021000D01*
X029980Y021000D01*
X029880Y021900D02*
X029542Y021900D01*
X029536Y021894D01*
X029280Y021894D01*
X029024Y021894D02*
X028636Y021894D01*
X028480Y022050D01*
X028895Y022465D01*
X028895Y022650D01*
X029565Y022650D02*
X029980Y022650D01*
X030130Y022500D01*
X030130Y022100D01*
X030080Y022100D01*
X029880Y021900D01*
X031930Y022000D02*
X031930Y022650D01*
X032430Y022650D02*
X032430Y022150D01*
X033180Y021375D01*
X035215Y020600D02*
X035580Y020600D01*
X035730Y020750D01*
X036030Y020750D01*
X036130Y020850D01*
X036445Y020850D01*
X036480Y019950D02*
X037215Y019950D01*
X037230Y019935D01*
X038415Y019935D01*
X036480Y019950D02*
X036380Y019850D01*
X036380Y019585D01*
X035130Y018585D02*
X034280Y018585D01*
X032430Y017050D02*
X031730Y017050D01*
X031180Y017600D01*
X030680Y017100D02*
X030180Y017600D01*
X030680Y017100D02*
X030680Y015900D01*
X031280Y015300D01*
X033230Y015300D01*
X035930Y012600D01*
X038730Y012600D01*
X037730Y013150D02*
X036330Y013150D01*
X032430Y017050D01*
X031180Y016600D02*
X032130Y015650D01*
X033380Y015650D01*
X036130Y012900D01*
X037430Y012900D01*
X037480Y009900D02*
X042980Y015450D01*
X042980Y016487D01*
X042990Y016498D01*
X042734Y016498D02*
X042734Y016946D01*
X042630Y017050D01*
X042230Y017050D01*
X041880Y016700D01*
X041880Y016315D01*
X041865Y016300D01*
X042478Y016498D02*
X042480Y016496D01*
X042480Y015950D01*
X034430Y007900D01*
X034430Y006900D01*
X033930Y007550D02*
X033430Y008050D01*
X033145Y008050D01*
X033130Y008065D01*
X032930Y007400D02*
X032430Y007975D01*
X030365Y007965D01*
X029880Y007965D01*
X032930Y007400D02*
X032930Y005050D01*
X033930Y005050D02*
X033930Y007550D01*
X035930Y006050D02*
X036430Y006550D01*
X036430Y006900D01*
X036930Y006400D02*
X036930Y008950D01*
X043255Y015325D01*
X043255Y016489D01*
X043246Y016498D01*
X043502Y016498D02*
X043480Y015150D01*
X037780Y009350D01*
X038230Y008850D02*
X044030Y014700D01*
X044030Y016481D01*
X044014Y016498D01*
X044270Y016498D02*
X044270Y014490D01*
X039480Y009700D01*
X039480Y007965D01*
X039495Y007950D01*
X039480Y007935D01*
X039480Y007600D01*
X039930Y007150D01*
X039930Y006450D01*
X040430Y005950D01*
X040430Y005900D01*
X040078Y005168D02*
X039484Y005180D01*
X039430Y005127D01*
X039430Y004700D01*
X039180Y004450D01*
X038915Y004450D01*
X038245Y004450D02*
X038245Y003265D01*
X038230Y003250D01*
X037554Y003250D01*
X038930Y003015D02*
X038930Y002245D01*
X038930Y001655D02*
X038930Y001250D01*
X038080Y001400D02*
X037415Y001400D01*
X036745Y001400D02*
X035865Y001400D01*
X035195Y001400D02*
X034415Y001400D01*
X034430Y001415D01*
X034430Y002525D01*
X034655Y002750D01*
X035506Y002750D01*
X035506Y003250D02*
X036080Y003250D01*
X036230Y003400D01*
X036230Y003850D01*
X036030Y004050D01*
X035780Y004050D01*
X035730Y004100D01*
X035730Y004565D01*
X035695Y004600D01*
X035695Y005085D01*
X035680Y005100D01*
X035680Y005150D01*
X036430Y005900D01*
X035930Y006050D02*
X035930Y005700D01*
X035630Y005400D01*
X035380Y005400D01*
X035180Y005200D01*
X035180Y003826D01*
X035506Y003750D01*
X035241Y003765D01*
X034530Y003765D01*
X036365Y004600D02*
X036930Y004600D01*
X038480Y005200D02*
X039484Y005180D01*
X040078Y005168D02*
X040929Y005175D01*
X040929Y007883D01*
X040895Y007950D01*
X040165Y007950D01*
X041565Y007950D02*
X041565Y008485D01*
X041580Y008500D01*
X041580Y009250D01*
X041830Y009500D01*
X043680Y009500D01*
X044530Y010350D01*
X044530Y012446D01*
X044526Y012450D01*
X044526Y016498D01*
X044782Y016498D02*
X044782Y010700D01*
X044780Y010698D01*
X044780Y009650D01*
X043795Y008665D01*
X043795Y007950D01*
X042965Y007950D01*
X042295Y007950D02*
X042280Y007935D01*
X042280Y007700D01*
X041480Y006900D01*
X041430Y006900D01*
X042430Y006900D02*
X042430Y005900D01*
X040929Y005175D02*
X044080Y005200D01*
X042930Y004550D02*
X042930Y003935D01*
X041630Y003685D02*
X041630Y004800D01*
X040280Y004800D02*
X040280Y003685D01*
X039780Y004100D02*
X039780Y004800D01*
X039780Y004100D02*
X039365Y003685D01*
X038930Y003685D01*
X040280Y003015D02*
X040280Y002245D01*
X040280Y001655D02*
X040280Y001250D01*
X041630Y002245D02*
X041630Y003015D01*
X044230Y003265D02*
X044230Y002245D01*
X046380Y001850D02*
X046380Y005050D01*
X046880Y004500D02*
X046880Y003885D01*
X046930Y003885D01*
X046930Y003215D02*
X046930Y002245D01*
X046930Y001655D02*
X046585Y001655D01*
X046580Y001650D01*
X046380Y001850D01*
X048180Y002245D02*
X048180Y003215D01*
X048180Y003885D02*
X048130Y003885D01*
X048130Y004500D01*
X048830Y004900D02*
X048530Y005200D01*
X048530Y006600D01*
X048030Y007100D01*
X049330Y008050D02*
X048180Y009200D01*
X048180Y009465D01*
X048180Y010135D02*
X048180Y010600D01*
X047830Y010950D01*
X047415Y010950D01*
X047613Y011148D01*
X047613Y011950D01*
X047580Y011983D01*
X047580Y012500D01*
X047280Y012800D01*
X046880Y012800D01*
X046730Y012950D01*
X046730Y013326D01*
X046706Y013350D01*
X046030Y012900D02*
X046030Y013850D01*
X046030Y012900D02*
X046747Y012183D01*
X046747Y011950D01*
X046745Y011948D01*
X046745Y010950D01*
X050430Y013076D02*
X050456Y013050D01*
X050480Y013074D01*
X050480Y013400D01*
X050874Y013794D01*
X050874Y014006D01*
X051130Y014006D02*
X051130Y013650D01*
X051204Y013576D01*
X051204Y013050D01*
X050130Y013700D02*
X050130Y014215D01*
X050130Y014885D02*
X050130Y015200D01*
X050330Y015400D01*
X050530Y015400D01*
X050874Y015056D01*
X050874Y014794D01*
X051130Y014794D02*
X051386Y014794D01*
X051624Y014794D01*
X051780Y014950D01*
X052130Y015050D02*
X052130Y014300D01*
X051830Y014000D01*
X051392Y014000D01*
X051386Y014006D01*
X052130Y015050D02*
X051830Y015350D01*
X051030Y015350D01*
X049380Y015250D02*
X049380Y014850D01*
X044380Y017200D02*
X043758Y017778D01*
X043758Y018702D01*
X043758Y019122D01*
X043255Y019625D01*
X043255Y020050D01*
X043452Y020050D02*
X043452Y019728D01*
X044030Y019150D01*
X044030Y018719D01*
X044014Y018702D01*
X044014Y018066D01*
X044030Y018050D01*
X044270Y018260D02*
X044430Y018100D01*
X044430Y017600D01*
X043502Y018172D02*
X043380Y018050D01*
X043502Y018172D02*
X043502Y018702D01*
X043502Y019078D01*
X043058Y019522D01*
X043058Y020050D01*
X042861Y020050D02*
X042861Y019419D01*
X043230Y019050D01*
X043230Y018719D01*
X043246Y018702D01*
X042990Y018702D02*
X042990Y017860D01*
X042980Y017850D01*
X044270Y018260D02*
X044270Y018702D01*
X044280Y018713D01*
X044280Y021550D01*
X044355Y021625D01*
X044830Y021625D01*
X044852Y021800D02*
X044830Y021822D01*
X044852Y021800D02*
X045280Y021800D01*
X045480Y021600D01*
X045480Y020350D01*
X045680Y020200D01*
X046095Y020200D01*
X046765Y020200D02*
X047180Y020200D01*
X046745Y021115D02*
X046280Y021115D01*
X046265Y021100D01*
X045980Y021100D01*
X045730Y021350D01*
X045730Y021850D01*
X045380Y022200D01*
X045064Y022216D01*
X044830Y022216D01*
X044824Y022025D02*
X044180Y022025D01*
X044824Y022025D02*
X044830Y022019D01*
X044830Y022413D02*
X045193Y022413D01*
X045830Y023050D01*
X046265Y023050D01*
X046280Y023035D01*
X046595Y023035D01*
X046930Y022700D01*
X047452Y022700D01*
X047480Y022728D01*
X046280Y022365D02*
X046280Y021785D01*
X046280Y022365D02*
X045765Y022365D01*
X045680Y022450D01*
X044830Y022609D02*
X043639Y022609D01*
X044030Y023050D02*
X044180Y023200D01*
X044830Y023200D01*
X044830Y023397D02*
X044033Y023397D01*
X043780Y023400D01*
X044086Y023594D02*
X043930Y023750D01*
X044086Y023594D02*
X044830Y023594D01*
X044830Y024578D02*
X045408Y024578D01*
X045680Y024600D01*
X045305Y024775D02*
X044830Y024775D01*
X045305Y024775D02*
X045380Y024900D01*
X043649Y026350D02*
X043649Y026719D01*
X043780Y026850D01*
X046730Y026850D01*
X047880Y028050D01*
X047880Y028200D01*
X047930Y028250D01*
X046930Y028250D02*
X046930Y027700D01*
X046280Y027050D01*
X043730Y027050D01*
X043452Y026772D01*
X043452Y026350D01*
X043255Y026350D02*
X043255Y026825D01*
X043630Y027250D01*
X045580Y027250D01*
X045930Y027550D01*
X045930Y028250D01*
X044930Y028250D02*
X044930Y027900D01*
X044480Y027450D01*
X043530Y027450D01*
X043058Y026978D01*
X043058Y026350D01*
X042861Y026350D02*
X042861Y027081D01*
X043480Y027700D01*
X043780Y027700D01*
X043930Y027850D01*
X043930Y028250D01*
X042930Y028250D02*
X042930Y027700D01*
X042664Y027434D01*
X042664Y026350D01*
X042467Y026350D02*
X042467Y027313D01*
X041930Y027850D01*
X041930Y028250D01*
X041230Y028250D02*
X040930Y028250D01*
X041230Y028250D02*
X042271Y027209D01*
X042271Y026350D01*
X041680Y026350D02*
X041680Y026700D01*
X041830Y026900D01*
X042074Y027106D02*
X041780Y027350D01*
X041115Y027350D01*
X040445Y027350D02*
X040445Y027485D01*
X040080Y027850D01*
X040105Y027325D02*
X039180Y028250D01*
X038580Y027800D02*
X038180Y028250D01*
X038330Y027750D02*
X037680Y027750D01*
X037180Y028250D01*
X037280Y027750D02*
X036680Y027750D01*
X036180Y028250D01*
X035680Y027750D02*
X035180Y028250D01*
X035380Y027800D02*
X034630Y027800D01*
X034180Y028250D01*
X034280Y027800D02*
X033630Y027800D01*
X033180Y028250D01*
X032580Y027850D02*
X032180Y028250D01*
X032580Y027850D02*
X032580Y027800D01*
X033280Y027800D01*
X033480Y027600D01*
X033980Y027600D01*
X034180Y027400D01*
X035080Y027400D01*
X035330Y027150D01*
X035880Y027150D01*
X036080Y026950D01*
X036730Y026950D01*
X036930Y026750D01*
X037580Y026750D01*
X037580Y025600D01*
X038011Y025169D01*
X038530Y025169D01*
X038530Y025365D02*
X038115Y025365D01*
X037830Y025650D01*
X037830Y026850D01*
X037730Y026950D01*
X037080Y026950D01*
X036880Y027150D01*
X036180Y027150D01*
X035980Y027350D01*
X035480Y027350D01*
X035230Y027600D01*
X034480Y027600D01*
X034280Y027800D01*
X033830Y027050D02*
X032780Y027050D01*
X032430Y026700D01*
X032430Y026950D01*
X033930Y026200D02*
X034080Y026350D01*
X034880Y026350D01*
X034980Y026250D01*
X036130Y026250D01*
X036395Y025985D01*
X036980Y025985D01*
X036980Y025315D02*
X037365Y025315D01*
X037905Y024775D01*
X038480Y024775D01*
X038530Y024775D01*
X038530Y024381D02*
X037949Y024381D01*
X037530Y024800D01*
X036480Y024800D01*
X037030Y024550D02*
X037480Y024550D01*
X037846Y024184D01*
X038530Y024184D01*
X038530Y023987D02*
X037693Y023987D01*
X037380Y024300D01*
X036630Y024300D01*
X036530Y023800D02*
X037080Y023800D01*
X037286Y023594D01*
X038530Y023594D01*
X038530Y023791D02*
X037489Y023791D01*
X037430Y023850D01*
X037033Y023397D02*
X036930Y023500D01*
X037033Y023397D02*
X038530Y023397D01*
X038530Y023200D02*
X036480Y023200D01*
X035880Y023535D02*
X035854Y023711D01*
X035854Y024617D01*
X035106Y024617D02*
X035104Y024615D01*
X034230Y024615D01*
X034230Y025285D02*
X034230Y025650D01*
X033930Y025950D01*
X033930Y026200D01*
X034980Y026250D02*
X035030Y026250D01*
X035480Y025800D01*
X035480Y025483D01*
X037230Y027150D02*
X037030Y027350D01*
X036280Y027350D01*
X036080Y027550D01*
X035630Y027550D01*
X035380Y027800D01*
X035680Y027750D02*
X036180Y027750D01*
X036380Y027550D01*
X037130Y027550D01*
X037330Y027350D01*
X038130Y027350D01*
X038480Y027000D01*
X039080Y027000D01*
X039318Y026762D01*
X039318Y026350D01*
X039515Y026350D02*
X039515Y026865D01*
X038980Y027400D01*
X038380Y027400D01*
X038230Y027550D01*
X037480Y027550D01*
X037280Y027750D01*
X037230Y027150D02*
X037930Y027150D01*
X038080Y027000D01*
X038080Y025700D01*
X038218Y025562D01*
X038530Y025562D01*
X039711Y026350D02*
X039711Y026969D01*
X039080Y027600D01*
X038480Y027600D01*
X038330Y027750D01*
X038580Y027800D02*
X039130Y027800D01*
X039908Y027072D01*
X039908Y026350D01*
X040105Y026350D02*
X040105Y027325D01*
X041480Y026900D02*
X041483Y026897D01*
X041483Y026350D01*
X034980Y023535D02*
X034945Y023500D01*
X034580Y023500D01*
X032780Y023650D02*
X030880Y023650D01*
X029805Y024700D01*
X029555Y024712D01*
X029536Y024756D01*
X029280Y024756D02*
X029280Y024600D01*
X029830Y024050D01*
X029830Y023660D01*
X029840Y023650D01*
X028720Y023650D02*
X028720Y024190D01*
X029030Y024500D01*
X029030Y024750D01*
X029024Y024756D01*
X029024Y025544D02*
X028430Y025544D01*
X028430Y025550D01*
X029024Y025544D02*
X029045Y025544D01*
X029045Y026400D01*
X029715Y026400D02*
X029715Y026015D01*
X030030Y025700D01*
X029692Y025700D01*
X029536Y025544D01*
X029280Y025544D01*
X036939Y022609D02*
X038530Y022609D01*
X042664Y020484D02*
X042930Y020750D01*
X042664Y020484D02*
X042664Y020050D01*
X043649Y020050D02*
X043649Y020569D01*
X043430Y020750D01*
X043780Y020850D02*
X043845Y020665D01*
X043845Y020050D01*
X044042Y020050D02*
X044042Y021238D01*
X046745Y021115D02*
X046880Y021250D01*
X047458Y021250D01*
X047480Y021272D01*
X044782Y019348D02*
X044780Y019350D01*
X044782Y019348D02*
X044782Y018702D01*
X041380Y016900D02*
X041180Y016700D01*
X041180Y016315D01*
X041195Y016300D01*
X042734Y016498D02*
X042734Y015754D01*
X043758Y016498D02*
X043708Y014878D01*
X037430Y008600D01*
X037430Y006900D01*
X036930Y006400D02*
X037430Y005900D01*
X044430Y006900D02*
X044430Y007500D01*
X044480Y007550D01*
X044480Y007935D01*
X044465Y007950D01*
X049330Y008050D02*
X051730Y008050D01*
X051980Y007800D01*
X051980Y007374D01*
X052004Y007350D01*
X052030Y007324D01*
X052030Y006850D01*
X052130Y006750D01*
X052630Y006750D01*
X052880Y006500D01*
X052880Y005800D01*
X053280Y005800D01*
X053810Y005270D01*
X053810Y003850D01*
X051880Y005800D02*
X051880Y006550D01*
X051680Y006750D01*
X051380Y006750D01*
X051280Y006850D01*
X051280Y007326D01*
X051256Y007350D01*
X050030Y006100D02*
X049965Y006035D01*
X049965Y004900D01*
X049295Y004900D02*
X048830Y004900D01*
X049080Y003850D02*
X049850Y003850D01*
X049850Y002850D02*
X049380Y002350D01*
X054795Y007350D02*
X054805Y007360D01*
X054805Y007600D01*
X055180Y008025D01*
X055180Y008426D01*
X054680Y008426D02*
X054654Y008400D01*
X054430Y008400D01*
X054355Y008325D01*
X053940Y008325D01*
X053940Y007425D01*
X053270Y008325D02*
X053280Y008335D01*
X053280Y008650D01*
X053330Y008700D01*
X053330Y008950D01*
X055230Y009250D02*
X055430Y009450D01*
X056556Y008426D02*
X056780Y008650D01*
X057395Y008650D01*
X057530Y009050D02*
X057480Y009100D01*
X057480Y009526D01*
X057456Y009550D01*
X057530Y009050D02*
X057980Y009050D01*
X058065Y008965D01*
X058065Y008650D01*
X056556Y008426D02*
X056180Y008426D01*
X055680Y008426D02*
X055680Y007950D01*
X055830Y007800D01*
X057395Y007800D01*
X058065Y007800D02*
X058830Y007800D01*
X057380Y007100D02*
X057080Y007350D01*
X056765Y007350D01*
X056095Y007350D02*
X055465Y007350D01*
X058330Y011250D02*
X057780Y011950D01*
X055880Y011950D01*
X033745Y001985D02*
X033745Y001400D01*
X033745Y001985D02*
X033730Y002000D01*
X024480Y007750D02*
X024480Y007800D01*
X024530Y007850D01*
X024530Y008385D01*
X024515Y008400D01*
X024586Y008479D01*
X024586Y009256D01*
X024330Y009256D02*
X024074Y009256D01*
X023911Y009231D01*
X023780Y009000D01*
X023780Y008465D01*
X023845Y008400D01*
X023780Y009000D02*
X023730Y009000D01*
X023495Y009215D02*
X023630Y009350D01*
X023630Y009900D01*
X023780Y010050D01*
X024068Y010050D01*
X024074Y010044D01*
X024330Y010044D02*
X024330Y010350D01*
X024230Y010450D01*
X023530Y010450D01*
X023430Y010550D01*
X023430Y011040D01*
X023420Y011050D01*
X023180Y010350D02*
X023180Y009885D01*
X022380Y009885D01*
X022380Y009215D02*
X022380Y008750D01*
X023180Y009215D02*
X023495Y009215D01*
X024586Y010044D02*
X024586Y010306D01*
X024580Y010650D01*
X024580Y011010D01*
X024540Y011050D01*
X023180Y011800D02*
X023180Y012200D01*
X023474Y012206D01*
X023730Y012206D01*
X022780Y012050D02*
X022780Y012565D01*
X021980Y012565D01*
X021980Y013235D02*
X021965Y013250D01*
X021380Y013250D01*
X022780Y013235D02*
X023233Y013235D01*
X023474Y012994D01*
X023730Y012994D02*
X023430Y014240D01*
X023370Y014300D01*
X023380Y015000D02*
X023030Y015000D01*
X023374Y015006D02*
X023374Y015206D01*
X023374Y015006D02*
X023380Y015000D01*
X023630Y015000D01*
X023630Y015206D01*
X023030Y015600D02*
X023030Y015900D01*
X023130Y016000D01*
X023368Y016000D01*
X023374Y015994D01*
X023630Y015994D02*
X023630Y016150D01*
X023230Y016550D01*
X023230Y017140D01*
X023220Y017150D01*
X024330Y017140D02*
X024340Y017150D01*
X024330Y017140D02*
X024330Y016650D01*
X023880Y016200D01*
X023880Y016000D01*
X023886Y015994D01*
X023030Y015600D02*
X022845Y015415D01*
X022580Y015415D01*
X022080Y015350D02*
X022080Y016000D01*
X022180Y016100D01*
X022565Y016100D01*
X022580Y016085D01*
X022580Y016300D01*
X022830Y016550D01*
X022080Y015350D02*
X021830Y015100D01*
X021465Y015100D01*
X020795Y015100D02*
X020230Y015100D01*
X023986Y013306D02*
X024530Y014000D01*
X024530Y014260D01*
X024490Y014300D01*
X024680Y013600D02*
X024680Y013135D01*
X023986Y012994D02*
X023986Y013306D01*
X024680Y012465D02*
X024421Y012206D01*
X022780Y012050D02*
X022680Y011950D01*
X028054Y017850D02*
X028080Y017850D01*
X028330Y018250D01*
X050630Y029250D02*
X051130Y028750D01*
D54*
X048080Y030000D03*
X052105Y024700D03*
X049630Y022900D03*
X049480Y022425D03*
X049480Y021975D03*
X049430Y021500D03*
X049430Y021000D03*
X050680Y020400D03*
X051455Y019650D03*
X051480Y018600D03*
X050280Y017900D03*
X049630Y017500D03*
X051480Y017550D03*
X052430Y016500D03*
X053380Y017550D03*
X053380Y018600D03*
X053380Y019650D03*
X055280Y019650D03*
X055280Y018600D03*
X057180Y018600D03*
X057180Y019650D03*
X057180Y017550D03*
X055280Y017550D03*
X058630Y015000D03*
X058630Y014450D03*
X058630Y013950D03*
X058630Y013400D03*
X058630Y012850D03*
X056730Y011600D03*
X055880Y011950D03*
X055880Y012450D03*
X055680Y011500D03*
X054680Y011300D03*
X054230Y011300D03*
X053780Y011300D03*
X052880Y011200D03*
X052880Y011650D03*
X052880Y012100D03*
X051180Y012200D03*
X050680Y012200D03*
X050180Y012200D03*
X046030Y013850D03*
X046030Y014350D03*
X046030Y014850D03*
X046330Y016250D03*
X046330Y016700D03*
X049130Y015950D03*
X049630Y015950D03*
X046330Y018650D03*
X046330Y019125D03*
X033330Y019650D03*
X032830Y019650D03*
X030880Y019250D03*
X030380Y019250D03*
X029880Y019250D03*
X022830Y019300D03*
X022830Y018800D03*
X022830Y018300D03*
X017680Y019450D03*
X017680Y016100D03*
X017980Y023750D03*
X049280Y008800D03*
X049730Y008800D03*
X052880Y009050D03*
X053780Y009050D03*
X056780Y009550D03*
X056730Y010500D03*
X058830Y010500D03*
X058830Y009550D03*
X053280Y006800D03*
X055130Y006000D03*
X055680Y006000D03*
X057580Y006000D03*
X058080Y006000D03*
X058130Y003600D03*
X057580Y003600D03*
X055730Y003600D03*
X055180Y003600D03*
X049130Y001250D03*
X042280Y001250D03*
X036930Y004600D03*
D55*
X036930Y004250D01*
X036630Y003950D01*
X036630Y002250D01*
X035506Y002250D01*
X036630Y002250D02*
X036630Y001515D01*
X036745Y001400D01*
X038930Y001250D02*
X040280Y001250D01*
X042280Y001250D01*
X042930Y001250D01*
X042930Y001655D01*
X042330Y001900D02*
X042080Y001650D01*
X041635Y001650D01*
X041630Y001655D01*
X042930Y001250D02*
X044230Y001250D01*
X044230Y001655D01*
X044230Y001250D02*
X045530Y001250D01*
X045530Y001655D01*
X048180Y001655D02*
X048180Y001250D01*
X049130Y001250D01*
X053830Y002200D02*
X053830Y002830D01*
X053810Y002850D01*
X054930Y002836D02*
X058430Y002836D01*
X058430Y002800D02*
X054930Y002800D01*
X054930Y004300D01*
X058430Y004300D01*
X058430Y002800D01*
X058430Y002995D02*
X054930Y002995D01*
X054930Y003153D02*
X058430Y003153D01*
X058430Y003312D02*
X054930Y003312D01*
X054930Y003470D02*
X058430Y003470D01*
X058430Y003629D02*
X054930Y003629D01*
X054930Y003787D02*
X058430Y003787D01*
X058430Y003946D02*
X054930Y003946D01*
X054930Y004104D02*
X058430Y004104D01*
X058430Y004263D02*
X054930Y004263D01*
X054930Y005300D02*
X058430Y005300D01*
X058430Y006675D01*
X054930Y006675D01*
X054930Y005300D01*
X054930Y005372D02*
X058430Y005372D01*
X058430Y005531D02*
X054930Y005531D01*
X054930Y005689D02*
X058430Y005689D01*
X058430Y005848D02*
X054930Y005848D01*
X054930Y006006D02*
X058430Y006006D01*
X058430Y006165D02*
X054930Y006165D01*
X054930Y006323D02*
X058430Y006323D01*
X058430Y006482D02*
X054930Y006482D01*
X054930Y006640D02*
X058430Y006640D01*
X053280Y006800D02*
X053270Y006810D01*
X053270Y007425D01*
X056180Y010474D02*
X056180Y011000D01*
X056730Y011550D01*
X056730Y011600D01*
X056430Y012425D02*
X056430Y015425D01*
X058805Y015425D01*
X058805Y012425D01*
X056430Y012425D01*
X056430Y012505D02*
X058805Y012505D01*
X058805Y012663D02*
X056430Y012663D01*
X056430Y012822D02*
X058805Y012822D01*
X058805Y012980D02*
X056430Y012980D01*
X056430Y013139D02*
X058805Y013139D01*
X058805Y013297D02*
X056430Y013297D01*
X056430Y013456D02*
X058805Y013456D01*
X058805Y013614D02*
X056430Y013614D01*
X056430Y013773D02*
X058805Y013773D01*
X058805Y013931D02*
X056430Y013931D01*
X056430Y014090D02*
X058805Y014090D01*
X058805Y014248D02*
X056430Y014248D01*
X056430Y014407D02*
X058805Y014407D01*
X058805Y014565D02*
X056430Y014565D01*
X056430Y014724D02*
X058805Y014724D01*
X058805Y014882D02*
X056430Y014882D01*
X056430Y015041D02*
X058805Y015041D01*
X058805Y015199D02*
X056430Y015199D01*
X056430Y015358D02*
X058805Y015358D01*
X054305Y015358D02*
X052430Y015358D01*
X052430Y015425D02*
X054305Y015425D01*
X054305Y012550D01*
X052430Y012550D01*
X052430Y015425D01*
X052430Y015199D02*
X054305Y015199D01*
X054305Y015041D02*
X052430Y015041D01*
X052430Y014882D02*
X054305Y014882D01*
X054305Y014724D02*
X052430Y014724D01*
X052430Y014565D02*
X054305Y014565D01*
X054305Y014407D02*
X052430Y014407D01*
X052430Y014248D02*
X054305Y014248D01*
X054305Y014090D02*
X052430Y014090D01*
X052430Y013931D02*
X054305Y013931D01*
X054305Y013773D02*
X052430Y013773D01*
X052430Y013614D02*
X054305Y013614D01*
X054305Y013456D02*
X052430Y013456D01*
X052430Y013297D02*
X054305Y013297D01*
X054305Y013139D02*
X052430Y013139D01*
X052430Y012980D02*
X054305Y012980D01*
X054305Y012822D02*
X052430Y012822D01*
X052430Y012663D02*
X054305Y012663D01*
X053371Y013950D02*
X053371Y015259D01*
X052780Y015850D01*
X051895Y015850D01*
X051880Y015865D01*
X051880Y016535D02*
X052395Y016535D01*
X052430Y016500D01*
X058454Y019650D02*
X058630Y019550D01*
X050297Y024050D02*
X050297Y024767D01*
X050880Y025350D01*
X051430Y025050D02*
X051163Y024783D01*
X051163Y024424D01*
X052730Y025000D02*
X052764Y025034D01*
X054930Y025034D02*
X054996Y024850D01*
X056214Y025050D02*
X056330Y025034D01*
X057614Y025100D02*
X057730Y025084D01*
X057680Y025034D01*
X054980Y026200D02*
X054930Y026200D01*
X053580Y026816D02*
X053530Y026766D01*
X041115Y027350D02*
X041065Y027515D01*
X040430Y028050D01*
X040430Y028750D01*
X040930Y029250D01*
X042734Y015754D02*
X034930Y007950D01*
X034930Y005700D01*
X034530Y005250D01*
X034530Y004900D01*
X037480Y004300D02*
X037480Y003824D01*
X013430Y003787D02*
X009930Y003787D01*
X009930Y003629D02*
X013430Y003629D01*
X013430Y003470D02*
X009930Y003470D01*
X009930Y003312D02*
X013430Y003312D01*
X013430Y003153D02*
X009930Y003153D01*
X009930Y002995D02*
X013430Y002995D01*
X013430Y002836D02*
X009930Y002836D01*
X009930Y002800D02*
X009930Y005300D01*
X013430Y005300D01*
X013430Y002800D01*
X009930Y002800D01*
X009930Y003946D02*
X013430Y003946D01*
X013430Y004104D02*
X009930Y004104D01*
X009930Y004263D02*
X013430Y004263D01*
X013430Y004421D02*
X009930Y004421D01*
X009930Y004580D02*
X013430Y004580D01*
X013430Y004738D02*
X009930Y004738D01*
X009930Y004897D02*
X013430Y004897D01*
X013430Y005055D02*
X009930Y005055D01*
X009930Y005214D02*
X013430Y005214D01*
X013430Y006300D02*
X009930Y006300D01*
X009930Y009050D01*
X013430Y009050D01*
X013430Y006300D01*
X013430Y006323D02*
X009930Y006323D01*
X009930Y006482D02*
X013430Y006482D01*
X013430Y006640D02*
X009930Y006640D01*
X009930Y006799D02*
X013430Y006799D01*
X013430Y006957D02*
X009930Y006957D01*
X009930Y007116D02*
X013430Y007116D01*
X013430Y007274D02*
X009930Y007274D01*
X009930Y007433D02*
X013430Y007433D01*
X013430Y007591D02*
X009930Y007591D01*
X009930Y007750D02*
X013430Y007750D01*
X013430Y007908D02*
X009930Y007908D01*
X009930Y008067D02*
X013430Y008067D01*
X013430Y008225D02*
X009930Y008225D01*
X009930Y008384D02*
X013430Y008384D01*
X013430Y008542D02*
X009930Y008542D01*
X009930Y008701D02*
X013430Y008701D01*
X013430Y008859D02*
X009930Y008859D01*
X009930Y009018D02*
X013430Y009018D01*
X013430Y012800D02*
X009930Y012800D01*
X009930Y015550D01*
X013430Y015550D01*
X013430Y012800D01*
X013430Y012822D02*
X009930Y012822D01*
X009930Y012980D02*
X013430Y012980D01*
X013430Y013139D02*
X009930Y013139D01*
X009930Y013297D02*
X013430Y013297D01*
X013430Y013456D02*
X009930Y013456D01*
X009930Y013614D02*
X013430Y013614D01*
X013430Y013773D02*
X009930Y013773D01*
X009930Y013931D02*
X013430Y013931D01*
X013430Y014090D02*
X009930Y014090D01*
X009930Y014248D02*
X013430Y014248D01*
X013430Y014407D02*
X009930Y014407D01*
X009930Y014565D02*
X013430Y014565D01*
X013430Y014724D02*
X009930Y014724D01*
X009930Y014882D02*
X013430Y014882D01*
X013430Y015041D02*
X009930Y015041D01*
X009930Y015199D02*
X013430Y015199D01*
X013430Y015358D02*
X009930Y015358D01*
X009930Y015516D02*
X013430Y015516D01*
X013430Y016550D02*
X009930Y016550D01*
X009930Y019300D01*
X013430Y019300D01*
X013430Y016550D01*
X013430Y016626D02*
X009930Y016626D01*
X009930Y016784D02*
X013430Y016784D01*
X013430Y016943D02*
X009930Y016943D01*
X009930Y017101D02*
X013430Y017101D01*
X013430Y017260D02*
X009930Y017260D01*
X009930Y017418D02*
X013430Y017418D01*
X013430Y017577D02*
X009930Y017577D01*
X009930Y017735D02*
X013430Y017735D01*
X013430Y017894D02*
X009930Y017894D01*
X009930Y018052D02*
X013430Y018052D01*
X013430Y018211D02*
X009930Y018211D01*
X009930Y018369D02*
X013430Y018369D01*
X013430Y018528D02*
X009930Y018528D01*
X009930Y018686D02*
X013430Y018686D01*
X013430Y018845D02*
X009930Y018845D01*
X009930Y019003D02*
X013430Y019003D01*
X013430Y019162D02*
X009930Y019162D01*
X009930Y022800D02*
X009930Y024550D01*
X010680Y025300D01*
X013430Y025300D01*
X013430Y022800D01*
X009930Y022800D01*
X009930Y022807D02*
X013430Y022807D01*
X013430Y022966D02*
X009930Y022966D01*
X009930Y023124D02*
X013430Y023124D01*
X013430Y023283D02*
X009930Y023283D01*
X009930Y023441D02*
X013430Y023441D01*
X013430Y023600D02*
X009930Y023600D01*
X009930Y023758D02*
X013430Y023758D01*
X013430Y023917D02*
X009930Y023917D01*
X009930Y024075D02*
X013430Y024075D01*
X013430Y024234D02*
X009930Y024234D01*
X009930Y024392D02*
X013430Y024392D01*
X013430Y024551D02*
X009931Y024551D01*
X010089Y024709D02*
X013430Y024709D01*
X013430Y024868D02*
X010248Y024868D01*
X010406Y025026D02*
X013430Y025026D01*
X013430Y025185D02*
X010565Y025185D01*
X009930Y027300D02*
X013430Y027300D01*
X013430Y028550D01*
X010680Y028550D01*
X009930Y027800D01*
X009930Y027300D01*
X009930Y027404D02*
X013430Y027404D01*
X013430Y027562D02*
X009930Y027562D01*
X009930Y027721D02*
X013430Y027721D01*
X013430Y027879D02*
X010009Y027879D01*
X010168Y028038D02*
X013430Y028038D01*
X013430Y028196D02*
X010326Y028196D01*
X010485Y028355D02*
X013430Y028355D01*
X013430Y028513D02*
X010643Y028513D01*
X002500Y023270D02*
X002470Y023270D01*
X002470Y020010D02*
X002470Y019990D01*
X002470Y017830D02*
X002460Y017830D01*
X002470Y015660D02*
X002470Y015640D01*
X002470Y014570D02*
X002450Y014570D01*
D56*
X049630Y017500D02*
X049904Y017500D01*
X050280Y017135D01*
X050280Y017900D02*
X049930Y018250D01*
D57*
X039255Y021225D02*
X039015Y021035D01*
X038530Y021035D01*
X038530Y020838D02*
X038218Y020838D01*
X038130Y020750D01*
X038130Y020400D01*
X033845Y021800D02*
X033795Y021750D01*
X032930Y022650D01*
X033680Y022600D02*
X033680Y021965D01*
X033845Y021800D01*
X033680Y022600D02*
X033680Y023800D01*
X034180Y024300D01*
X034180Y024565D01*
X034230Y024615D01*
X034830Y025150D02*
X034830Y025700D01*
X034530Y026000D01*
X034330Y026000D01*
X034830Y025150D02*
X035104Y024876D01*
X035104Y024615D01*
X038530Y024578D02*
X039052Y024578D01*
X039380Y024250D01*
X039280Y024775D02*
X038530Y024775D01*
X039280Y024775D02*
X039280Y024775D01*
X024880Y016550D02*
X024630Y016300D01*
X024630Y016085D01*
X024580Y015465D02*
X024630Y015415D01*
X024630Y014950D01*
X024580Y014900D01*
X023980Y014900D01*
X023886Y014994D01*
X023886Y015206D01*
X023986Y012206D02*
X024421Y012206D01*
X024680Y011947D01*
X024680Y011850D01*
X026730Y011480D02*
X027300Y011480D01*
X028330Y010300D01*
X028356Y009300D01*
X029104Y009300D02*
X029880Y009300D01*
X032930Y009300D01*
X033130Y009100D01*
X033130Y008735D01*
X029880Y008635D02*
X029880Y009300D01*
X029880Y007965D02*
X027365Y007965D01*
X026730Y008600D01*
X026730Y009480D01*
X034530Y004900D02*
X034530Y004435D01*
X037480Y003824D02*
X037554Y003750D01*
X037554Y002750D02*
X038080Y002750D01*
X038080Y002250D01*
X037554Y002250D01*
X038080Y002250D02*
X038080Y001400D01*
X036745Y001400D02*
X036730Y001385D01*
X042930Y002245D02*
X042930Y003265D01*
X045530Y003265D02*
X045530Y002245D01*
X038480Y005169D02*
X038465Y005185D01*
D58*
X049280Y008800D02*
X049730Y008800D01*
X050414Y008800D01*
X053780Y011300D02*
X054230Y011300D01*
X054680Y011300D01*
X054680Y010474D01*
X055680Y010474D02*
X055680Y011500D01*
X055880Y011700D01*
X055880Y011950D01*
X055880Y012450D01*
X051204Y012176D02*
X051180Y012200D01*
X050456Y013050D02*
X050432Y013074D01*
X049380Y013074D02*
X049380Y013350D01*
X049380Y013850D01*
X049380Y014350D01*
X049380Y014850D01*
X047070Y016680D02*
X047050Y016700D01*
X046330Y016700D01*
X046330Y016250D01*
X046030Y014850D02*
X046030Y014400D01*
X046030Y014300D01*
X046080Y014350D01*
X046030Y014300D02*
X046030Y013850D01*
X033330Y019650D02*
X032830Y019650D01*
X029080Y017350D02*
X029080Y017300D01*
X029080Y017350D02*
X028054Y017350D01*
X028054Y016850D02*
X029080Y016850D01*
X029080Y016800D01*
X029080Y016350D02*
X028054Y016350D01*
X018580Y017700D02*
X011780Y017700D01*
X011704Y017625D01*
X011780Y017700D01*
X014630Y014450D02*
X016230Y016050D01*
X017630Y016050D01*
X017680Y016100D01*
X014630Y014450D02*
X011730Y014450D01*
X011704Y014475D01*
X011704Y007375D02*
X020661Y007375D01*
X020760Y007473D01*
X020760Y006587D01*
X020760Y007473D02*
X020956Y007670D01*
X017230Y003700D02*
X016705Y004225D01*
X011704Y004225D01*
X011680Y004201D01*
X011680Y003650D01*
X017230Y003700D02*
X020923Y003700D01*
X020956Y003733D01*
X020858Y023150D02*
X012180Y023150D01*
X011680Y023650D01*
X011704Y023674D01*
X011704Y024725D01*
X011704Y027875D02*
X011730Y027900D01*
X016680Y027900D01*
X018230Y029450D01*
X020760Y029450D01*
X020941Y029450D01*
X020956Y023249D02*
X020858Y023150D01*
D59*
X003030Y023800D02*
X003030Y027400D01*
X003030Y023800D02*
X002500Y023270D01*
D60*
X006980Y020593D02*
X006980Y019593D01*
X002470Y019990D02*
X000580Y018400D01*
X000580Y009450D01*
X001330Y008700D01*
X002030Y009050D02*
X002030Y007950D01*
X001330Y007150D01*
X002430Y006750D02*
X001330Y005700D01*
X002430Y006750D02*
X002430Y009350D01*
X001480Y010300D01*
X001480Y014900D01*
X002470Y015640D01*
X001030Y016550D02*
X001030Y010050D01*
X002030Y009050D01*
X001030Y016550D02*
X002460Y017830D01*
X017680Y019450D02*
X017680Y020065D01*
X017680Y020735D02*
X017680Y021575D01*
X017780Y021675D01*
X017980Y023750D02*
X017980Y024265D01*
X017980Y024935D02*
X017980Y026200D01*
X018080Y026300D01*
X020956Y028367D02*
X020956Y029253D01*
X020760Y029450D01*
X024480Y029250D02*
X025230Y030000D01*
X048080Y030000D01*
X048130Y030750D02*
X049630Y029250D01*
X052130Y028750D02*
X052130Y026715D01*
X052115Y026700D01*
X052115Y026250D01*
X052115Y025650D01*
X052764Y025034D02*
X053530Y025034D01*
X054230Y024650D02*
X054230Y025600D01*
X053530Y026300D01*
X053530Y026766D01*
X053580Y026816D02*
X053580Y027250D01*
X054130Y027800D01*
X054130Y028750D01*
X053630Y029250D01*
X054630Y029250D02*
X055130Y028750D01*
X055130Y027450D01*
X054930Y027200D01*
X054930Y026766D01*
X054930Y026200D01*
X054980Y026200D02*
X055680Y025500D01*
X055680Y024600D01*
X055230Y024100D01*
X055230Y020226D01*
X054654Y019650D01*
X054654Y018600D01*
X054654Y017550D01*
X053906Y017550D02*
X053380Y017550D01*
X052754Y017550D02*
X052754Y018600D01*
X052754Y019650D01*
X053480Y020515D01*
X053480Y022250D01*
X053580Y022550D01*
X053580Y024000D01*
X054230Y024650D01*
X054380Y024234D02*
X054996Y024850D01*
X054996Y025584D01*
X054280Y026300D01*
X054280Y027350D01*
X054630Y027700D01*
X054630Y028250D01*
X053630Y028250D02*
X052730Y027350D01*
X052730Y025000D01*
X052730Y023933D01*
X051780Y023700D02*
X051780Y023150D01*
X051530Y022800D02*
X051580Y022750D01*
X051530Y022800D02*
X050915Y022800D01*
X050245Y022800D02*
X049780Y022800D01*
X049680Y022900D01*
X049630Y022900D01*
X049480Y021975D02*
X049531Y021924D01*
X050018Y021924D01*
X050018Y021550D02*
X049480Y021550D01*
X049430Y021500D01*
X049530Y021925D02*
X049480Y021975D01*
X049430Y021000D02*
X049430Y020415D01*
X049445Y020400D01*
X048830Y020334D02*
X047580Y020334D01*
X047580Y020096D02*
X048830Y020096D01*
X048830Y019857D02*
X047580Y019857D01*
X047580Y019619D02*
X048830Y019619D01*
X048830Y019380D02*
X047580Y019380D01*
X047580Y019150D02*
X047580Y020650D01*
X048830Y020650D01*
X048830Y019150D01*
X047580Y019150D01*
X050115Y020400D02*
X050680Y020400D01*
X051455Y019650D02*
X052006Y019650D01*
X050880Y019200D02*
X050856Y019224D01*
X051480Y018600D02*
X052006Y018600D01*
X053380Y018600D02*
X053906Y018600D01*
X053906Y019650D02*
X053380Y019650D01*
X055280Y019650D02*
X055806Y019650D01*
X056554Y019650D02*
X056554Y018600D01*
X056554Y017550D01*
X057180Y017550D02*
X057706Y017550D01*
X058454Y017550D02*
X058454Y018600D01*
X058454Y019650D01*
X058630Y019550D02*
X058780Y019700D01*
X058780Y026600D01*
X058564Y026816D01*
X057730Y026816D01*
X057730Y028150D01*
X056630Y029250D01*
X056130Y028750D02*
X055630Y029250D01*
X056130Y028750D02*
X056130Y027700D01*
X056330Y026766D01*
X056330Y026250D01*
X057030Y025550D01*
X057030Y024150D01*
X056830Y023950D01*
X056830Y022650D01*
X056980Y022250D01*
X056980Y020250D01*
X056680Y019900D01*
X056554Y019650D01*
X057180Y019650D02*
X057706Y019650D01*
X057706Y018600D02*
X057180Y018600D01*
X055806Y018600D02*
X055280Y018600D01*
X055280Y017550D02*
X055806Y017550D01*
X052006Y017550D02*
X051480Y017550D01*
X049130Y016450D02*
X049130Y015950D01*
X046706Y014350D02*
X046030Y014350D01*
X046030Y013850D02*
X045980Y013850D01*
X047580Y020573D02*
X048830Y020573D01*
X051780Y023700D02*
X051780Y024450D01*
X054380Y024234D02*
X054380Y023933D01*
X056030Y023933D02*
X056030Y024300D01*
X056330Y024600D01*
X056330Y025034D01*
X056214Y025050D02*
X056214Y025766D01*
X055680Y026300D01*
X055680Y027600D01*
X055630Y028250D01*
X056630Y028250D02*
X057030Y027850D01*
X057030Y026250D01*
X057614Y025666D01*
X057614Y025100D01*
X057680Y025034D02*
X057680Y023933D01*
X052630Y029250D02*
X052130Y028750D01*
X052630Y029250D02*
X050630Y031250D01*
X013830Y031300D01*
X011930Y029400D01*
X009080Y029400D01*
X008580Y028850D01*
X004080Y028850D01*
X003430Y028200D01*
X003080Y028200D01*
X002480Y027600D01*
X002480Y026540D01*
X002470Y026530D01*
X003030Y027400D02*
X003280Y027650D01*
X003630Y027650D01*
X004230Y028250D01*
X008980Y028250D01*
X009730Y029000D01*
X012330Y029000D01*
X014030Y030700D01*
X048130Y030750D01*
X026006Y017850D02*
X025980Y017824D01*
X025980Y017550D01*
X044430Y006900D02*
X044430Y005900D01*
X044430Y005450D01*
X044180Y005200D01*
X044080Y005200D01*
X038480Y005200D01*
X038465Y005185D01*
X038480Y005200D02*
X037330Y005200D01*
X036930Y004600D01*
D61*
X025180Y011050D02*
X024540Y011050D01*
X023420Y011050D02*
X021730Y011050D01*
X021080Y014300D02*
X023370Y014300D01*
X024490Y014300D02*
X026030Y014300D01*
X026006Y017150D02*
X024340Y017150D01*
X023220Y017150D02*
X023220Y017210D01*
X022830Y017600D01*
X022830Y018300D01*
X022830Y019250D01*
X027523Y019564D02*
X028209Y020250D01*
X028770Y020250D01*
X029890Y020250D02*
X030880Y020250D01*
X030930Y019200D01*
X030980Y019250D01*
X031880Y019534D02*
X032714Y019534D01*
X032830Y019650D01*
X031880Y021266D02*
X030946Y021266D01*
X030930Y021250D01*
X029980Y023650D02*
X029840Y023650D01*
X028720Y023650D02*
X027566Y023650D01*
X008880Y021675D02*
X005080Y021675D01*
X005020Y021640D01*
X003590Y021640D01*
X003590Y022720D02*
X004150Y022720D01*
X004880Y023450D01*
X006980Y023757D02*
X006980Y022757D01*
X006980Y026300D02*
X006980Y027300D01*
X006980Y029843D02*
X006980Y030843D01*
X004330Y018400D02*
X004310Y018380D01*
X003590Y018380D01*
X003590Y017290D02*
X003940Y017290D01*
X004880Y016350D01*
X004880Y015850D01*
X006080Y014650D01*
X005030Y014200D02*
X005030Y013150D01*
X005030Y014200D02*
X004110Y015120D01*
X003590Y015120D01*
X006980Y016050D02*
X006980Y017050D01*
X006980Y013507D02*
X006980Y012507D01*
X006980Y009343D02*
X006980Y008343D01*
X006980Y005800D02*
X006980Y005750D01*
X006980Y004800D01*
X006930Y005750D02*
X006980Y005800D01*
X006980Y002257D02*
X006980Y001257D01*
X047980Y016680D02*
X047980Y019120D01*
X051780Y011150D02*
X051779Y011149D01*
X051779Y010550D01*
X051780Y011150D02*
X052830Y011150D01*
X052880Y011200D01*
D62*
X052880Y010424D02*
X053780Y010424D01*
X053780Y009676D02*
X053780Y009050D01*
X052880Y009050D02*
X052880Y009676D01*
X052230Y009200D02*
X051780Y009650D01*
X051780Y010549D01*
X051779Y010550D01*
X051805Y010524D01*
X052230Y009200D02*
X052230Y008800D01*
X052146Y008800D01*
X055180Y010474D02*
X055180Y011800D01*
X053421Y013850D02*
X053371Y013950D01*
X049380Y013850D02*
X048754Y013850D01*
X048754Y014350D02*
X049380Y014350D01*
X049380Y014850D02*
X048754Y014850D01*
X049630Y015950D02*
X049630Y016450D01*
X050306Y016450D01*
X050280Y016465D01*
X049630Y016450D02*
X049180Y016450D01*
X048950Y016680D01*
X048890Y016680D01*
X049930Y018250D02*
X049930Y018476D01*
X050880Y018150D02*
X050880Y019200D01*
X050880Y019850D01*
X051580Y020550D01*
X051580Y021950D01*
X051554Y021924D01*
X051042Y021924D01*
X051580Y021950D02*
X051580Y022750D01*
X051580Y022950D01*
X051780Y023150D01*
X051780Y024450D02*
X052030Y024700D01*
X052105Y024700D01*
X052115Y024710D01*
X052115Y025650D01*
X049480Y022400D02*
X049480Y021975D01*
X049430Y021500D02*
X049430Y021000D01*
X050880Y018150D02*
X051480Y017550D01*
X046706Y014850D02*
X046030Y014850D01*
X046030Y014400D02*
X046080Y014350D01*
X046706Y014350D01*
X046706Y013850D02*
X046030Y013850D01*
X046130Y013850D01*
X048730Y013350D02*
X048754Y013350D01*
X049380Y013350D01*
X039070Y017660D02*
X038730Y017660D01*
X038130Y017060D01*
X038130Y015850D01*
X037730Y015450D01*
X034580Y015450D01*
X032430Y017600D01*
X032180Y017600D01*
X032380Y003250D02*
X030780Y003250D01*
X029780Y003250D01*
X028780Y003250D01*
X026980Y003250D01*
X025980Y003250D01*
X024980Y003250D01*
D63*
X049181Y010550D02*
X049181Y011950D01*
X049180Y011950D01*
X049430Y012200D01*
X050180Y012200D01*
X050680Y012200D01*
X051180Y012200D01*
X051204Y012176D02*
X051204Y013050D01*
X050432Y013074D02*
X049380Y013074D01*
X052880Y012100D02*
X052880Y011650D01*
X052880Y011200D01*
X052880Y010424D01*
X055180Y011800D02*
X055180Y013100D01*
X054330Y013950D01*
X053371Y013950D01*
X058630Y013950D02*
X058630Y013400D01*
X058630Y012850D01*
X058630Y013950D02*
X058630Y014450D01*
X058630Y015000D01*
X058830Y010500D02*
X058204Y010500D01*
X057456Y010500D02*
X056730Y010500D01*
X056780Y009550D02*
X057456Y009550D01*
X058204Y009550D02*
X058830Y009550D01*
X058080Y006000D02*
X057580Y006000D01*
X056631Y006000D01*
X056630Y006001D01*
X056630Y006000D02*
X056680Y005950D01*
X056630Y006000D02*
X055680Y006000D01*
X055130Y006000D01*
X055180Y003600D02*
X055730Y003600D01*
X056631Y003600D01*
X056630Y003599D01*
X056631Y003600D02*
X057580Y003600D01*
X058130Y003600D01*
X046330Y018650D02*
X046330Y019125D01*
X047975Y019125D01*
X047980Y019120D01*
X049100Y019120D01*
X049180Y019200D01*
X049906Y019200D01*
X049930Y019224D01*
X027730Y019500D02*
X027523Y019564D01*
X026916Y019750D01*
X026916Y023000D02*
X027566Y023650D01*
D64*
X029980Y023650D02*
X030930Y022700D01*
X030930Y021250D01*
X030930Y019200D01*
X029880Y019200D02*
X029880Y019250D01*
X020956Y020282D02*
X020760Y020085D01*
X020760Y019200D01*
X020759Y019200D01*
X019130Y019200D01*
X018580Y018650D01*
X018580Y017700D01*
X018580Y015250D01*
X019530Y014300D01*
X021080Y014300D01*
X025530Y012150D02*
X026030Y012650D01*
X025530Y012150D02*
X025530Y011350D01*
X025180Y011050D01*
X021730Y011050D02*
X020956Y010276D01*
X020956Y007670D01*
X057289Y013950D02*
X058630Y013950D01*
D65*
X026030Y014300D02*
X026030Y012650D01*
X026030Y014300D02*
X026005Y016351D01*
X026006Y016350D01*
X026006Y016850D01*
X026006Y017150D01*
X026006Y017350D01*
X026006Y017524D01*
X025980Y017550D01*
X024089Y018852D02*
X024087Y018855D01*
X024089Y020648D02*
X023282Y020648D01*
X022255Y021675D01*
X017780Y021675D01*
X008880Y021675D01*
X004880Y023450D02*
X004880Y024300D01*
X005480Y025000D01*
X008780Y025000D01*
X010030Y026300D01*
X018080Y026300D01*
X021687Y026300D01*
X024089Y023898D01*
X024087Y020650D02*
X024089Y020648D01*
X007230Y013500D02*
X006987Y013500D01*
X006980Y013507D01*
X007230Y013500D02*
X006080Y014650D01*
X005030Y013150D02*
X005030Y007150D01*
X006980Y005750D01*
X006980Y016050D02*
X004630Y018400D01*
X004330Y018400D01*
D66*
X024087Y018855D02*
X024087Y020650D01*
X024089Y022102D02*
X024089Y023898D01*
D67*
X029880Y019250D02*
X030380Y019250D01*
X030880Y019250D01*
X029880Y019200D02*
X029080Y018450D01*
X029080Y017300D01*
X029080Y016800D01*
X029080Y016350D01*
M02*
