G04 (created by PCBNEW (2013-04-19 BZR 4011)-stable) date 12/08/2014 12:26:49*
%MOIN*%
G04 Gerber Fmt 3.4, Leading zero omitted, Abs format*
%FSLAX34Y34*%
G01*
G70*
G90*
G04 APERTURE LIST*
%ADD10C,0*%
%ADD11C,0.015*%
G04 APERTURE END LIST*
G54D10*
G54D11*
X17716Y-11023D02*
G75*
G03X19291Y-9448I0J1574D01*
G74*
G01*
X19291Y-9448D02*
X19291Y-1574D01*
X17716Y-11023D02*
X1574Y-11023D01*
X0Y-1574D02*
X0Y-9448D01*
X1574Y0D02*
X17716Y0D01*
X19291Y-1574D02*
G75*
G03X17716Y0I-1574J0D01*
G74*
G01*
X1574Y0D02*
G75*
G03X0Y-1574I0J-1574D01*
G74*
G01*
X0Y-9448D02*
G75*
G03X1574Y-11023I1574J0D01*
G74*
G01*
M02*
