G04 Title: (unknown), layergroup #1 *
G04 Creator: pcb-bin 20050315 *
G04 CreationDate: Thu Jun  9 05:21:41 2005 UTC *
G04 For: alan *
G04 Format: Gerber/RS-274X *
G04 PCB-Dimensions: 300000 390000 *
G04 PCB-Coordinate-Origin: lower left *
%MOIN*%
%FSLAX24Y24*%
G04 contains layers solder (0) GND-sldr (1) Vcc-sldr (2) *
%IPPOS*%
%ADD11C,0.0250*%
%ADD12C,0.0450*%
%ADD13C,0.0850*%
%ADD14C,0.0700*%
%ADD15C,0.1100*%
%ADD16C,0.0750*%
%ADD17C,0.0810*%
%ADD18C,0.0870*%
%ADD19C,0.1850*%
%ADD20C,0.1270*%
%ADD21C,0.1030*%
%ADD22C,0.0690*%
%ADD23C,0.1470*%
%ADD24C,0.1630*%
%ADD25C,0.1770*%
%ADD26C,0.1400*%
%ADD27R,0.0700X0.0700*%
%ADD28C,0.1000X0.0700*%
%ADD29C,0.1000*%
%ADD30C,0.0100*%
%ADD31C,0.0080*%
%ADD32C,0.0150*%
%ADD33C,0.0210*%
%AMTHERM1*7,0,0,0.0900,0.0700,0.0210,45*%
%ADD34THERM1*%
%ADD35R,0.0600X0.0600*%
%ADD36C,0.0600*%
%ADD37C,0.0200*%
%ADD38R,0.0660X0.0660*%
%ADD39C,0.0660*%
%ADD40C,0.0900*%
%ADD41C,0.0900X0.0700*%
%ADD42R,0.0900X0.0900X0.0700X0.0700*%
%ADD43R,0.0900X0.0900*%
%AMTHERM2*7,0,0,0.0900,0.0600,0.0200,45*%
%ADD44THERM2*%
%AMTHERM3*7,0,0,0.0840,0.0700,0.0210,45*%
%ADD45THERM3*%
%ADD46C,0.0901*%
%ADD47C,0.0800*%
%ADD48C,0.1000X0.0800*%
%ADD49C,0.0128*%
%ADD50C,0.0084*%
%ADD51C,0.0650*%
%ADD52C,0.1700*%
%ADD53C,0.1080*%
%ADD54C,0.1080X0.0650*%
%ADD55C,0.0225*%
%AMTHERM4*7,0,0,0.0900,0.0650,0.0225,45*%
%ADD56THERM4*%
%ADD57C,0.0900X0.0650*%
%ADD58C,0.1060*%
%ADD59C,0.1060X0.0650*%
%ADD60C,0.1160*%
%ADD61C,0.1160X0.0650*%
%LNGROUP_0*%
%LPD*%
G01X0Y0D02*
G54D30*G36*
X15650Y15750D02*Y12050D01*
X15600D01*
X10950D01*
X10450Y12550D01*
Y15750D01*
X15650D01*
G37*
G36*
X10150Y20650D02*X4900Y15400D01*
X15900D01*
X16300Y15800D01*
Y19150D01*
X15550D01*
Y20000D01*
X15700Y24950D01*
X14550Y26100D01*
Y27450D01*
X14200Y27800D01*
X13100D01*
X12500Y28400D01*
Y30950D01*
X10150D01*
Y20650D01*
G37*
G36*
X22550Y31750D02*X24550D01*
Y31500D01*
X24700Y31350D01*
Y28450D01*
X25350Y27800D01*
X27250D01*
X28000Y27050D01*
Y9150D01*
X22600D01*
X21800Y9950D01*
Y31700D01*
X22550D01*
Y31750D01*
G37*
G36*
X10150Y31400D02*X10600Y31850D01*
X12000D01*
X12500Y31350D01*
Y30900D01*
X10150D01*
Y31400D01*
G37*
%LNCUTS*%
%LPC*%
G54D17*X15700Y24950D02*Y12700D01*
X10050Y15400D02*X10450Y15000D01*
Y12550D02*X10950Y12050D01*
X10450Y15000D02*Y12550D01*
X5900Y15400D02*X10050D01*
X16100Y12050D02*X10950D01*
G54D53*X15550Y12700D03*
G54D17*X15700Y24950D02*Y12700D01*
G54D12*X16300Y25200D02*Y12250D01*
G54D17*X10050Y15400D02*X10450Y15000D01*
G54D18*X14550Y27450D02*Y26100D01*
G54D16*X14200Y27800D02*X14550Y27450D01*
X12500Y28400D02*X13100Y27800D01*
X14200D01*
G54D17*X10450Y15000D02*Y12550D01*
X5900Y15400D02*X10050D01*
G54D22*X5150Y14650D02*X5900Y15400D01*
G54D17*X4150Y14650D02*X10150Y20650D01*
Y31400D01*
G54D16*X12500Y31350D02*Y28400D01*
G54D18*X14550Y26100D02*X15700Y24950D01*
G54D25*X13200Y29800D02*Y28650D01*
G54D19*X15050Y32700D02*Y26457D01*
G54D40*X14550Y20000D03*
X11050D03*
X11325Y23059D03*
X12302Y27014D03*
G54D16*X28050Y27100D02*Y26000D01*
Y24800D01*
Y12000D01*
G54D13*X22900Y9900D02*X25800D01*
G54D15*X21550Y9750D02*X22450Y8850D01*
X21550Y20400D02*Y9750D01*
G54D21*X22350Y10450D02*X22900Y9900D01*
G54D26*X22450Y8850D02*X27150D01*
G54D16*X28050Y8600D02*Y12050D01*
G54D15*X21550Y20350D02*Y32250D01*
G54D16*X22350Y31400D02*Y18200D01*
X27350Y27800D02*X28050Y27100D01*
G54D20*X27400Y28500D02*X28550Y27350D01*
G54D16*X24700Y28400D02*X25300Y27800D01*
X24700Y31300D02*Y28400D01*
X24550Y31500D02*X24700Y31300D01*
X22550Y31600D02*X22350Y31400D01*
X24550Y32250D02*Y31500D01*
G54D15*X21189Y26650D02*X21554Y27015D01*
G54D16*X22350Y18250D02*Y10450D01*
X22550Y32250D02*Y31600D01*
X25300Y27800D02*X27350D01*
G54D40*X23600Y20000D03*
G54D58*X27150Y8850D03*
G54D60*X25800Y9900D03*
G54D29*X22450Y8900D03*
G54D40*X23525Y23059D03*
G54D43*X21556D03*
G54D40*X24502Y27014D03*
X21554Y27015D03*
X21550Y30000D03*
G54D16*X10350Y31600D02*X10150Y31400D01*
X12350Y31500D02*X12500Y31350D01*
G54D17*X10150Y20650D02*Y31400D01*
G54D16*X10350Y32250D02*Y31600D01*
X12500Y31350D02*Y28400D01*
X12350Y32250D02*Y31500D01*
G54D29*X10350Y32250D03*
X11350D03*
%LNTRACKS*%
%LPD*%
G54D11*X25800Y6000D02*Y6900D01*
X25000Y5200D02*X25800Y6000D01*
X22900Y9900D02*X25800D01*
X16900Y25500D02*Y12600D01*
X19200Y3150D02*X20150D01*
Y11950D02*Y8600D01*
X19650Y12450D02*X20150Y11950D01*
X17350Y11250D02*X16900D01*
X17800Y11700D02*X17350Y11250D01*
X17800Y29650D02*Y11700D01*
X19200Y7150D02*X22200D01*
X17050Y12450D02*X16900Y12600D01*
X15000Y9800D02*X17900D01*
X14550Y10250D02*X15000Y9800D01*
X12400Y10250D02*X14550D01*
X17700Y10450D02*X18350Y11100D01*
X15250Y10450D02*X17700D01*
X14900Y10800D02*X15250Y10450D01*
X11400Y10800D02*X14900D01*
X11300Y7900D02*X27350D01*
X12150Y5400D02*X12350Y5200D01*
X12150Y6050D02*Y5400D01*
X28250Y4650D02*X28550Y4950D01*
X11850Y4650D02*X28250D01*
G54D14*X600Y5300D02*Y4600D01*
G54D11*X6900Y11550D02*Y12550D01*
X6150Y10800D02*X6900Y11550D01*
X7550Y11200D02*Y14550D01*
X7150Y10800D02*X7550Y11200D01*
X6150Y9050D02*Y10800D01*
Y14550D02*X9450D01*
X12150Y9050D02*Y10000D01*
X27350Y7900D02*X28050Y8600D01*
X11150Y10550D02*X11400Y10800D01*
X18350Y11100D02*Y21350D01*
X5150Y9050D02*Y14650D01*
X9450Y10350D02*Y12550D01*
X11150Y9050D02*Y10550D01*
X8150Y10050D02*X7150Y9050D01*
X8150Y12550D02*Y10050D01*
Y9050D02*X9450Y10350D01*
X2150Y14550D02*X7200Y19600D01*
X10150Y5350D02*Y6050D01*
X9850Y1800D02*X15200D01*
X9150Y2500D02*X9850Y1800D01*
X4150Y9050D02*Y14650D01*
X10050Y7150D02*X19150D01*
G54D14*X9350Y32250D02*Y23000D01*
G54D11*X11150Y6050D02*Y5350D01*
X3100Y6150D02*Y14550D01*
X9150Y5350D02*X12000Y2500D01*
X7950Y19400D02*Y22350D01*
X2900Y5100D02*X2150Y5850D01*
X9150Y4300D02*Y2500D01*
G54D14*X8150Y6050D02*Y800D01*
G54D11*X9150Y6050D02*Y5350D01*
X6150Y5300D02*X4300Y3450D01*
X6150Y6050D02*Y5300D01*
X10150Y20650D02*Y31400D01*
X12350Y5200D02*X25000D01*
X3250Y6050D02*X3100Y6150D01*
X2900Y5100D02*X4800D01*
X5150Y3100D02*X7150D01*
X4150Y14650D02*X10150Y20650D01*
X18200Y3400D02*Y1800D01*
X10150Y5500D02*Y6050D01*
X2150Y5850D02*Y14550D01*
X17900Y3700D02*X18200Y3400D01*
X5150Y1800D02*X6150D01*
X4300Y2650D02*X5150Y1800D01*
X4300Y3450D02*Y2650D01*
X3100Y14550D02*X7950Y19400D01*
X7200Y19600D02*Y22000D01*
X5150Y5450D02*Y6050D01*
G54D14*X16200Y800D02*Y1800D01*
G54D11*X3250Y6050D02*X4150D01*
X8150Y9050D02*X10050Y7150D01*
X10150Y9050D02*X11300Y7900D01*
X17200Y2300D02*Y1800D01*
X19200D02*Y2900D01*
X11150Y5350D02*X11850Y4650D01*
G54D14*X4400Y800D02*X25600D01*
G54D11*X7150Y1800D02*Y6050D01*
X17000Y2500D02*X17200Y2300D01*
X11800Y3700D02*X17900D01*
X12000Y2500D02*X17000D01*
X4800Y5100D02*X5150Y5450D01*
G54D14*X600Y4600D02*X4400Y800D01*
G54D11*X10150Y5350D02*X11800Y3700D01*
G54D14*X16250Y27250D02*X16850Y26650D01*
X16250Y27700D02*Y27250D01*
G54D11*X10950Y11500D02*X15400D01*
G54D14*X2750Y22800D02*X4350D01*
G54D11*X27400Y28500D02*Y32650D01*
G54D14*X3550Y35650D02*Y33850D01*
G54D11*X28050Y26000D02*Y24800D01*
G54D14*X6000Y38100D02*X3550Y35650D01*
G54D11*X17150Y32750D02*X16850Y32450D01*
X17150Y33250D02*Y32750D01*
X18850Y34950D02*X17150Y33250D01*
X18300Y33600D02*X17800Y33100D01*
G54D14*X3550Y33850D02*X2950Y33250D01*
G54D11*X5850Y13600D02*Y14250D01*
X26050Y35250D02*Y34250D01*
X28050Y27100D02*Y26000D01*
G54D14*X5450Y31950D02*X2736Y29250D01*
G54D11*X14550Y27450D02*Y26100D01*
X8850Y34250D02*Y34050D01*
X17200Y28650D02*X16250D01*
X12150Y10000D02*X12400Y10250D01*
X28550Y27350D02*Y10250D01*
X14700Y33050D02*X15050Y32700D01*
X7950Y22350D02*X6400Y23900D01*
X24550Y32250D02*Y31500D01*
G54D14*X2736Y27200D02*X6550Y31000D01*
G54D11*X18650Y33100D02*X18300Y32750D01*
G54D14*X2950Y33250D02*X2754D01*
X5300Y27900D02*X600Y23200D01*
G54D11*X17800Y33100D02*Y30500D01*
X18300Y32750D02*Y30850D01*
X13100Y27800D02*X14200D01*
X22550Y31600D02*X22350Y31400D01*
X18900Y30250D02*Y10800D01*
X12350Y31500D02*X12500Y31350D01*
X15050Y26450D02*X16300Y25200D01*
X16100Y12050D02*X16300Y12250D01*
G54D14*X18900Y32250D02*X19550D01*
G54D11*X10850Y33550D02*X11350Y33050D01*
G54D14*X7350Y25000D02*X9356Y23000D01*
G54D11*X28050Y8600D02*Y12050D01*
X25400Y29450D02*Y28650D01*
X10350Y31600D02*X10150Y31400D01*
G54D14*X6550Y31000D02*X7350D01*
G54D11*X25900Y35400D02*X26050Y35250D01*
X21050Y34250D02*Y34050D01*
G54D14*X5300Y27900D02*X9350D01*
G54D11*X22050Y33850D02*X21300Y33100D01*
G54D14*X600Y5250D02*Y33050D01*
G54D11*X6400Y33000D02*X9000D01*
X20550Y28600D02*Y32250D01*
X12500Y28400D02*X13100Y27800D01*
X16900Y33950D02*X17200Y34250D01*
X16300Y25200D02*Y12250D01*
X22200Y7150D02*X22450Y6900D01*
X9850Y33850D02*X9000Y33000D01*
X24550Y31500D02*X24700Y31300D01*
G54D14*X2350Y34800D02*X600Y33050D01*
G54D11*X8850Y34050D02*X8350Y33550D01*
G54D14*X28150Y30350D02*X29350Y29150D01*
G54D11*X7350Y30000D02*Y29000D01*
X13850Y34200D02*Y34250D01*
G54D14*X20450Y26650D02*X21189D01*
G54D11*X14200Y27800D02*X14550Y27450D01*
X20250Y28300D02*Y27700D01*
X27400Y28500D02*X28550Y27350D01*
G54D14*X14350Y31000D02*Y32250D01*
X12850Y35350D02*X13750Y36250D01*
G54D11*X15550Y26850D02*Y33000D01*
G54D14*X6600Y35350D02*X6050Y34800D01*
G54D11*X24700Y31300D02*Y28400D01*
X28050Y24800D02*Y12000D01*
X22350Y10450D02*X22900Y9900D01*
X27350Y27800D02*X28050Y27100D01*
X14450Y35450D02*X24250D01*
X10300Y10850D02*X10950Y11500D01*
X22350Y31400D02*Y18200D01*
X8350Y32250D02*Y30250D01*
X22050Y34250D02*Y33850D01*
X8350Y30250D02*X8100Y30000D01*
G54D14*X12850Y34250D02*Y35350D01*
G54D11*X8100Y30000D02*X7350D01*
X20600Y33600D02*X18300D01*
X12350Y32250D02*Y31500D01*
G54D14*X21189Y26650D02*X21554Y27015D01*
G54D11*X12500Y31350D02*Y28400D01*
X11850Y34250D02*Y33850D01*
X15550Y26850D02*X16900Y25500D01*
G54D14*X23550Y32250D02*Y31500D01*
G54D11*Y33100D02*X26950D01*
X24700Y28400D02*X25300Y27800D01*
G54D14*X12850Y35350D02*X6600D01*
G54D11*X13850Y34250D02*X16000D01*
X16300Y33950D02*X16900D01*
X16000Y34250D02*X16300Y33950D01*
X15000Y33550D02*X15550Y33000D01*
X21050Y34050D02*X20600Y33600D01*
X5150Y14650D02*X5900Y15400D01*
X9850Y34250D02*Y33850D01*
X13350Y32250D02*Y29950D01*
G54D14*X21550Y20350D02*Y32250D01*
X28150Y34350D02*Y30350D01*
G54D11*X14550Y26100D02*X15700Y24950D01*
G54D14*X13750Y36250D02*X26250D01*
G54D11*X17800Y30500D02*X18350Y29950D01*
X19550Y30000D02*X20550D01*
G54D14*X6050Y38150D02*X5700Y37800D01*
X18900Y38150D02*X6050D01*
G54D11*X16250Y33400D02*Y34000D01*
G54D14*X27050Y37200D02*X29250Y34900D01*
G54D11*X13850Y34850D02*X14450Y35450D01*
X24050Y34600D02*Y34250D01*
X23700Y34950D02*X24050Y34600D01*
X16100Y12050D02*X10950D01*
X6400Y23900D02*Y26400D01*
X14250Y29950D02*X13350D01*
G54D14*X11350Y32250D02*Y31500D01*
G54D11*X13850Y34200D02*Y34850D01*
X15050Y32700D02*Y26457D01*
X13350Y29950D02*X13200Y29800D01*
X25300Y27800D02*X27350D01*
G54D14*X7050Y31950D02*X5450D01*
G54D11*X18300Y30850D02*X18900Y30250D01*
X17200D02*Y31600D01*
X26950Y33100D02*X27400Y32650D01*
G54D14*X7350Y32250D02*X7050Y31950D01*
X6600Y37200D02*X27050D01*
X28150Y34350D02*X26250Y36250D01*
X2736Y31200D02*X4600Y33050D01*
G54D11*X17200Y30250D02*X17800Y29650D01*
X10850Y34250D02*Y33550D01*
X11350Y33050D02*X14700D01*
X12150Y33550D02*X15000D01*
X10300Y10200D02*Y10850D01*
G54D14*X4600Y35200D02*X6600Y37200D01*
X26550Y31150D02*Y32250D01*
X6050Y20000D02*Y21100D01*
X29350Y4550D02*X25600Y800D01*
G54D11*X5650Y26850D02*Y23550D01*
G54D14*X28550Y29950D02*X28150Y30350D01*
X9356Y23000D02*Y23059D01*
G54D11*X11850Y33850D02*X12150Y33550D01*
X25550Y29600D02*Y32250D01*
X5650Y23550D02*X7200Y22000D01*
X10050Y15400D02*X10450Y15000D01*
X15700Y24950D02*Y12700D01*
X9150Y9050D02*X10300Y10200D01*
X5900Y15400D02*X10050D01*
X25550Y29600D02*X25400Y29450D01*
X16850Y32450D02*X15550D01*
X20550Y28600D02*X20250Y28300D01*
G54D14*X6050Y21100D02*X4350Y22800D01*
X2736Y27200D02*Y27231D01*
X16250Y27250D02*Y31400D01*
G54D11*X22350Y18250D02*Y10450D01*
X18350Y29950D02*Y21350D01*
X26550Y29950D02*X25550D01*
X15550Y11350D02*X15400Y11500D01*
X17900Y9800D02*X18900Y10800D01*
G54D14*X2736Y29250D02*Y29231D01*
G54D11*X23700Y34950D02*X18850D01*
G54D14*X2736Y31200D02*Y31231D01*
X29350Y29150D02*Y4550D01*
G54D11*X21300Y33100D02*X18650D01*
X22550Y32250D02*Y31600D01*
X8350Y33550D02*X5650D01*
X13200Y29800D02*Y28650D01*
G54D14*X25050Y34250D02*Y36250D01*
X2736Y33231D02*X2754Y33250D01*
G54D11*X23050Y34250D02*Y33600D01*
X23550Y33100D01*
X5850Y14250D02*X6150Y14550D01*
G54D14*X4600Y33050D02*Y35200D01*
X29250Y31150D02*Y34900D01*
G54D11*X10450Y15000D02*Y12550D01*
X28550Y10300D02*Y4950D01*
X10450Y12550D02*X10950Y12050D01*
X10350Y32250D02*Y31600D01*
G54D14*X21550Y20400D02*Y9750D01*
X22450Y8850D01*
X27150D01*
X2750Y20800D02*X600D01*
G04 Text: PICStep V4.0 *
G54D31*X21233Y3150D02*Y3814D01*
X21150Y3150D02*X21482D01*
X21565Y3233D01*
Y3399D01*
X21482Y3482D02*X21565Y3399D01*
X21233Y3482D02*X21482D01*
X21764Y3150D02*X21930D01*
X21847D02*Y3814D01*
X21764D02*X21930D01*
X22212D02*X22461D01*
X22129Y3731D02*X22212Y3814D01*
X22129Y3233D02*Y3731D01*
Y3233D02*X22212Y3150D01*
X22461D01*
X22993D02*X23076Y3233D01*
X22744Y3150D02*X22993D01*
X22661Y3233D02*X22744Y3150D01*
X22661Y3233D02*Y3399D01*
X22744Y3482D01*
X22993D01*
X23076Y3565D01*
Y3731D01*
X22993Y3814D02*X23076Y3731D01*
X22744Y3814D02*X22993D01*
X22661Y3731D02*X22744Y3814D01*
X23358Y3150D02*Y3731D01*
X23441Y3814D01*
X23275Y3399D02*X23441D01*
X23690Y3814D02*X23939D01*
X23607Y3731D02*X23690Y3814D01*
X23607Y3565D02*Y3731D01*
Y3565D02*X23690Y3482D01*
X23856D01*
X23939Y3565D01*
X23607Y3648D02*X23939D01*
Y3565D02*Y3648D01*
X24221Y3565D02*Y4063D01*
X24138Y3482D02*X24221Y3565D01*
X24304Y3482D01*
X24470D01*
X24553Y3565D01*
Y3731D01*
X24470Y3814D02*X24553Y3731D01*
X24304Y3814D02*X24470D01*
X24221Y3731D02*X24304Y3814D01*
X25052Y3150D02*Y3648D01*
X25218Y3814D01*
X25384Y3648D01*
Y3150D02*Y3648D01*
X25583Y3482D02*X25915Y3150D01*
X25583Y3482D02*X25998D01*
X25915Y3150D02*Y3814D01*
X26197D02*X26280D01*
X26480Y3731D02*X26563Y3814D01*
X26480Y3233D02*Y3731D01*
Y3233D02*X26563Y3150D01*
X26729D01*
X26812Y3233D01*
Y3731D01*
X26729Y3814D02*X26812Y3731D01*
X26563Y3814D02*X26729D01*
X26480Y3648D02*X26812Y3316D01*
G04 Text: Copyright Jun 2005 Alan Garfield *
X1262Y5761D02*Y5944D01*
X1323Y5700D02*X1262Y5761D01*
X1323Y5700D02*X1689D01*
X1750Y5761D01*
Y5944D01*
X1323Y6090D02*X1445D01*
X1506Y6151D01*
Y6273D01*
X1445Y6334D01*
X1323D02*X1445D01*
X1262Y6273D02*X1323Y6334D01*
X1262Y6151D02*Y6273D01*
X1323Y6090D02*X1262Y6151D01*
X1079Y6542D02*X1445D01*
X1506Y6481D02*X1445Y6542D01*
X1506Y6603D01*
Y6725D01*
X1445Y6786D01*
X1323D02*X1445D01*
X1262Y6725D02*X1323Y6786D01*
X1262Y6603D02*Y6725D01*
X1323Y6542D02*X1262Y6603D01*
X1323Y6932D02*X1506D01*
X1323D02*X1262Y6993D01*
X1140Y7176D02*X1506D01*
X1079Y7115D02*X1140Y7176D01*
X1079Y6993D02*Y7115D01*
X1140Y6932D02*X1079Y6993D01*
X1262D02*Y7115D01*
X1323Y7176D01*
X1262Y7384D02*X1445D01*
X1506Y7445D01*
Y7567D01*
Y7323D02*X1445Y7384D01*
X1567Y7713D02*X1628D01*
X1262D02*X1445D01*
X1506Y8018D02*X1445Y8079D01*
X1506Y7896D02*Y8018D01*
X1445Y7835D02*X1506Y7896D01*
X1323Y7835D02*X1445D01*
X1323D02*X1262Y7896D01*
Y8018D01*
X1323Y8079D01*
X1140Y7835D02*X1079Y7896D01*
Y8018D01*
X1140Y8079D01*
X1506D01*
X1262Y8226D02*X1750D01*
X1445D02*X1506Y8287D01*
Y8409D01*
X1445Y8470D01*
X1262D02*X1445D01*
X1323Y8677D02*X1750D01*
X1323D02*X1262Y8738D01*
X1567Y8616D02*Y8738D01*
X1750Y9080D02*Y9263D01*
X1323D02*X1750D01*
X1262Y9202D02*X1323Y9263D01*
X1262Y9141D02*Y9202D01*
X1323Y9080D02*X1262Y9141D01*
X1323Y9410D02*X1506D01*
X1323D02*X1262Y9471D01*
Y9593D01*
X1323Y9654D01*
X1506D01*
X1262Y9861D02*X1445D01*
X1506Y9922D01*
Y9983D01*
X1445Y10044D01*
X1262D02*X1445D01*
X1506Y9800D02*X1445Y9861D01*
X1689Y10410D02*X1750Y10471D01*
Y10654D01*
X1689Y10715D01*
X1567D02*X1689D01*
X1262Y10410D02*X1567Y10715D01*
X1262Y10410D02*Y10715D01*
X1323Y10862D02*X1262Y10923D01*
X1323Y10862D02*X1689D01*
X1750Y10923D01*
Y11045D01*
X1689Y11106D01*
X1323D02*X1689D01*
X1262Y11045D02*X1323Y11106D01*
X1262Y10923D02*Y11045D01*
X1384Y10862D02*X1628Y11106D01*
X1323Y11252D02*X1262Y11313D01*
X1323Y11252D02*X1689D01*
X1750Y11313D01*
Y11435D01*
X1689Y11496D01*
X1323D02*X1689D01*
X1262Y11435D02*X1323Y11496D01*
X1262Y11313D02*Y11435D01*
X1384Y11252D02*X1628Y11496D01*
X1750Y11643D02*Y11887D01*
X1506Y11643D02*X1750D01*
X1506D02*X1567Y11704D01*
Y11826D01*
X1506Y11887D01*
X1323D02*X1506D01*
X1262Y11826D02*X1323Y11887D01*
X1262Y11704D02*Y11826D01*
X1323Y11643D02*X1262Y11704D01*
Y12253D02*X1689D01*
X1750Y12314D01*
Y12497D01*
X1689Y12558D01*
X1262D02*X1689D01*
X1506Y12253D02*Y12558D01*
X1323Y12704D02*X1750D01*
X1323D02*X1262Y12765D01*
X1506Y13070D02*X1445Y13131D01*
X1506Y12948D02*Y13070D01*
X1445Y12887D02*X1506Y12948D01*
X1323Y12887D02*X1445D01*
X1323D02*X1262Y12948D01*
X1323Y13131D02*X1506D01*
X1323D02*X1262Y13192D01*
Y12948D02*Y13070D01*
X1323Y13131D01*
X1262Y13400D02*X1445D01*
X1506Y13461D01*
Y13522D01*
X1445Y13583D01*
X1262D02*X1445D01*
X1506Y13339D02*X1445Y13400D01*
X1750Y14193D02*X1689Y14254D01*
X1750Y14010D02*Y14193D01*
X1689Y13949D02*X1750Y14010D01*
X1323Y13949D02*X1689D01*
X1323D02*X1262Y14010D01*
Y14193D01*
X1323Y14254D01*
X1445D01*
X1506Y14193D02*X1445Y14254D01*
X1506Y14071D02*Y14193D01*
Y14584D02*X1445Y14645D01*
X1506Y14462D02*Y14584D01*
X1445Y14401D02*X1506Y14462D01*
X1323Y14401D02*X1445D01*
X1323D02*X1262Y14462D01*
X1323Y14645D02*X1506D01*
X1323D02*X1262Y14706D01*
Y14462D02*Y14584D01*
X1323Y14645D01*
X1262Y14913D02*X1445D01*
X1506Y14974D01*
Y15096D01*
Y14852D02*X1445Y14913D01*
X1262Y15304D02*X1689D01*
X1750Y15365D01*
Y15426D01*
X1506Y15243D02*Y15365D01*
X1567Y15548D02*X1628D01*
X1262D02*X1445D01*
X1262Y15731D02*Y15914D01*
X1323Y15670D02*X1262Y15731D01*
X1323Y15670D02*X1445D01*
X1506Y15731D01*
Y15853D01*
X1445Y15914D01*
X1384Y15670D02*Y15914D01*
X1445D01*
X1323Y16060D02*X1750D01*
X1323D02*X1262Y16121D01*
Y16488D02*X1750D01*
X1262Y16427D02*X1323Y16488D01*
X1262Y16305D02*Y16427D01*
X1323Y16244D02*X1262Y16305D01*
X1323Y16244D02*X1445D01*
X1506Y16305D01*
Y16427D01*
X1445Y16488D01*
G04 Text: Copyright Jun 2005 Alan Garfield *
X13711Y6188D02*X13894D01*
X13650Y6127D02*X13711Y6188D01*
X13650Y5761D02*Y6127D01*
Y5761D02*X13711Y5700D01*
X13894D01*
X14040Y6005D02*Y6127D01*
Y6005D02*X14101Y5944D01*
X14223D01*
X14284Y6005D01*
Y6127D01*
X14223Y6188D02*X14284Y6127D01*
X14101Y6188D02*X14223D01*
X14040Y6127D02*X14101Y6188D01*
X14492Y6005D02*Y6371D01*
X14431Y5944D02*X14492Y6005D01*
X14553Y5944D01*
X14675D01*
X14736Y6005D01*
Y6127D01*
X14675Y6188D02*X14736Y6127D01*
X14553Y6188D02*X14675D01*
X14492Y6127D02*X14553Y6188D01*
X14882Y5944D02*Y6127D01*
X14943Y6188D01*
X15126Y5944D02*Y6310D01*
X15065Y6371D02*X15126Y6310D01*
X14943Y6371D02*X15065D01*
X14882Y6310D02*X14943Y6371D01*
Y6188D02*X15065D01*
X15126Y6127D01*
X15334Y6005D02*Y6188D01*
Y6005D02*X15395Y5944D01*
X15517D01*
X15273D02*X15334Y6005D01*
X15663Y5822D02*Y5883D01*
Y6005D02*Y6188D01*
X15968Y5944D02*X16029Y6005D01*
X15846Y5944D02*X15968D01*
X15785Y6005D02*X15846Y5944D01*
X15785Y6005D02*Y6127D01*
X15846Y6188D01*
X15968D01*
X16029Y6127D01*
X15785Y6310D02*X15846Y6371D01*
X15968D01*
X16029Y6310D01*
Y5944D02*Y6310D01*
X16176Y5700D02*Y6188D01*
Y6005D02*X16237Y5944D01*
X16359D01*
X16420Y6005D01*
Y6188D01*
X16627Y5700D02*Y6127D01*
X16688Y6188D01*
X16566Y5883D02*X16688D01*
X17030Y5700D02*X17213D01*
Y6127D01*
X17152Y6188D02*X17213Y6127D01*
X17091Y6188D02*X17152D01*
X17030Y6127D02*X17091Y6188D01*
X17360Y5944D02*Y6127D01*
X17421Y6188D01*
X17543D01*
X17604Y6127D01*
Y5944D02*Y6127D01*
X17811Y6005D02*Y6188D01*
Y6005D02*X17872Y5944D01*
X17933D01*
X17994Y6005D01*
Y6188D01*
X17750Y5944D02*X17811Y6005D01*
X18360Y5761D02*X18421Y5700D01*
X18604D01*
X18665Y5761D01*
Y5883D01*
X18360Y6188D02*X18665Y5883D01*
X18360Y6188D02*X18665D01*
X18812Y6127D02*X18873Y6188D01*
X18812Y5761D02*Y6127D01*
Y5761D02*X18873Y5700D01*
X18995D01*
X19056Y5761D01*
Y6127D01*
X18995Y6188D02*X19056Y6127D01*
X18873Y6188D02*X18995D01*
X18812Y6066D02*X19056Y5822D01*
X19202Y6127D02*X19263Y6188D01*
X19202Y5761D02*Y6127D01*
Y5761D02*X19263Y5700D01*
X19385D01*
X19446Y5761D01*
Y6127D01*
X19385Y6188D02*X19446Y6127D01*
X19263Y6188D02*X19385D01*
X19202Y6066D02*X19446Y5822D01*
X19593Y5700D02*X19837D01*
X19593D02*Y5944D01*
X19654Y5883D01*
X19776D01*
X19837Y5944D01*
Y6127D01*
X19776Y6188D02*X19837Y6127D01*
X19654Y6188D02*X19776D01*
X19593Y6127D02*X19654Y6188D01*
X20203Y5761D02*Y6188D01*
Y5761D02*X20264Y5700D01*
X20447D01*
X20508Y5761D01*
Y6188D01*
X20203Y5944D02*X20508D01*
X20654Y5700D02*Y6127D01*
X20715Y6188D01*
X21020Y5944D02*X21081Y6005D01*
X20898Y5944D02*X21020D01*
X20837Y6005D02*X20898Y5944D01*
X20837Y6005D02*Y6127D01*
X20898Y6188D01*
X21081Y5944D02*Y6127D01*
X21142Y6188D01*
X20898D02*X21020D01*
X21081Y6127D01*
X21350Y6005D02*Y6188D01*
Y6005D02*X21411Y5944D01*
X21472D01*
X21533Y6005D01*
Y6188D01*
X21289Y5944D02*X21350Y6005D01*
X22143Y5700D02*X22204Y5761D01*
X21960Y5700D02*X22143D01*
X21899Y5761D02*X21960Y5700D01*
X21899Y5761D02*Y6127D01*
X21960Y6188D01*
X22143D01*
X22204Y6127D01*
Y6005D02*Y6127D01*
X22143Y5944D02*X22204Y6005D01*
X22021Y5944D02*X22143D01*
X22534D02*X22595Y6005D01*
X22412Y5944D02*X22534D01*
X22351Y6005D02*X22412Y5944D01*
X22351Y6005D02*Y6127D01*
X22412Y6188D01*
X22595Y5944D02*Y6127D01*
X22656Y6188D01*
X22412D02*X22534D01*
X22595Y6127D01*
X22863Y6005D02*Y6188D01*
Y6005D02*X22924Y5944D01*
X23046D01*
X22802D02*X22863Y6005D01*
X23254Y5761D02*Y6188D01*
Y5761D02*X23315Y5700D01*
X23376D01*
X23193Y5944D02*X23315D01*
X23498Y5822D02*Y5883D01*
Y6005D02*Y6188D01*
X23681D02*X23864D01*
X23620Y6127D02*X23681Y6188D01*
X23620Y6005D02*Y6127D01*
Y6005D02*X23681Y5944D01*
X23803D01*
X23864Y6005D01*
X23620Y6066D02*X23864D01*
Y6005D02*Y6066D01*
X24010Y5700D02*Y6127D01*
X24071Y6188D01*
X24438Y5700D02*Y6188D01*
X24377D02*X24438Y6127D01*
X24255Y6188D02*X24377D01*
X24194Y6127D02*X24255Y6188D01*
X24194Y6005D02*Y6127D01*
Y6005D02*X24255Y5944D01*
X24377D01*
X24438Y6005D01*
G04 Text: + *
G54D49*X3250Y23940D02*X3890D01*
X3570Y23620D02*Y24260D01*
G04 Text: PICStep V4.0 *
G54D50*X19810Y15805D02*X20650D01*
Y15700D02*Y16120D01*
X20545Y16225D01*
X20335D02*X20545D01*
X20230Y16120D02*X20335Y16225D01*
X20230Y15805D02*Y16120D01*
X20650Y16477D02*Y16687D01*
X19810Y16582D02*X20650D01*
X19810Y16477D02*Y16687D01*
Y17044D02*Y17359D01*
X19915Y16939D02*X19810Y17044D01*
X19915Y16939D02*X20545D01*
X20650Y17044D01*
Y17359D01*
Y18031D02*X20545Y18136D01*
X20650Y17716D02*Y18031D01*
X20545Y17611D02*X20650Y17716D01*
X20335Y17611D02*X20545D01*
X20335D02*X20230Y17716D01*
Y18031D01*
X20125Y18136D01*
X19915D02*X20125D01*
X19810Y18031D02*X19915Y18136D01*
X19810Y17716D02*Y18031D01*
X19915Y17611D02*X19810Y17716D01*
X19915Y18493D02*X20650D01*
X19915D02*X19810Y18598D01*
X20335Y18388D02*Y18598D01*
X19810Y18914D02*Y19229D01*
X19915Y18809D02*X19810Y18914D01*
X19915Y18809D02*X20125D01*
X20230Y18914D01*
Y19124D01*
X20125Y19229D01*
X20020Y18809D02*Y19229D01*
X20125D01*
X19495Y19586D02*X20125D01*
X20230Y19481D02*X20125Y19586D01*
X20230Y19691D01*
Y19901D01*
X20125Y20006D01*
X19915D02*X20125D01*
X19810Y19901D02*X19915Y20006D01*
X19810Y19691D02*Y19901D01*
X19915Y19586D02*X19810Y19691D01*
X20020Y20636D02*X20650D01*
X20020D02*X19810Y20846D01*
X20020Y21056D01*
X20650D01*
X20230Y21308D02*X20650Y21728D01*
X20230Y21308D02*Y21833D01*
X19810Y21728D02*X20650D01*
X19810Y22085D02*Y22190D01*
X19915Y22443D02*X19810Y22548D01*
X19915Y22443D02*X20545D01*
X20650Y22548D01*
Y22758D01*
X20545Y22863D01*
X19915D02*X20545D01*
X19810Y22758D02*X19915Y22863D01*
X19810Y22548D02*Y22758D01*
X20020Y22443D02*X20440Y22863D01*
G54D27*X22450Y6900D03*
G54D14*Y8900D03*
X8150Y10800D03*
X7150D03*
X6150D03*
X9450Y14550D03*
Y12550D03*
G54D35*X13150Y2500D03*
G54D36*X9150D03*
G54D35*X5150Y3100D03*
G54D36*X9150D03*
G54D35*X5150Y4300D03*
G54D36*X9150D03*
G54D35*X7150Y1800D03*
G54D36*Y800D03*
G54D35*X13150Y3700D03*
G54D36*X9150D03*
G54D27*X4150Y6050D03*
G54D14*X5150D03*
X6150D03*
X7150D03*
X8150D03*
X9150D03*
X10150D03*
X11150D03*
X12150D03*
Y9050D03*
X11150D03*
X10150D03*
X9150D03*
X8150D03*
X7150D03*
X6150D03*
X5150D03*
X4150D03*
G54D35*X19200Y1800D03*
G54D36*Y800D03*
X18200Y1800D03*
Y800D03*
X17200Y1800D03*
Y800D03*
X16200Y1800D03*
Y800D03*
X15200Y1800D03*
Y800D03*
X8150Y12550D03*
Y14550D03*
G54D35*X6150Y1800D03*
G54D36*Y800D03*
G54D40*X2750Y20800D03*
Y22800D03*
G54D14*X12302Y27014D03*
G54D33*X11987Y27329D02*X12617Y26699D01*
X11987D02*X12617Y27329D01*
G54D14*X9354Y27015D03*
X9350Y30000D03*
X7350D03*
X16250Y31400D03*
Y33400D03*
X23525Y23059D03*
G54D33*X23210Y23374D02*X23840Y22744D01*
X23210D02*X23840Y23374D01*
G54D27*X21556Y23059D03*
G54D35*X17200Y28650D03*
G54D36*X13200D03*
G54D14*X16250Y29950D03*
X14250D03*
X28550D03*
X26550D03*
X11325Y23059D03*
G54D33*X11010Y23374D02*X11640Y22744D01*
X11010D02*X11640Y23374D01*
G54D27*X9356Y23059D03*
G54D35*X29400Y28650D03*
G54D36*X25400D03*
G54D35*X19200Y3150D03*
G54D36*Y7150D03*
G54D14*X21550Y30000D03*
X19550D03*
G54D40*X2736Y27231D03*
Y29231D03*
Y31231D03*
Y33231D03*
G54D14*X24502Y27014D03*
G54D33*X24187Y27329D02*X24817Y26699D01*
X24187D02*X24817Y27329D01*
G54D14*X21554Y27015D03*
G54D36*X6900Y14550D03*
Y12550D03*
G54D47*X7350Y32250D03*
X7850Y34250D03*
X8350Y32250D03*
X8850Y34250D03*
X9350Y32250D03*
X9850Y34250D03*
X10350Y32250D03*
X10850Y34250D03*
X11350Y32250D03*
X11850Y34250D03*
X12350Y32250D03*
X12850Y34250D03*
X13350Y32250D03*
X13850Y34250D03*
X14350Y32250D03*
G54D35*X16250Y27700D03*
G54D36*X20250D03*
G54D35*X7350Y25000D03*
G54D36*Y29000D03*
G54D47*X19550Y32250D03*
X20050Y34250D03*
X20550Y32250D03*
X21050Y34250D03*
X21550Y32250D03*
X22050Y34250D03*
X22550Y32250D03*
X23050Y34250D03*
X23550Y32250D03*
X24050Y34250D03*
X24550Y32250D03*
X25050Y34250D03*
X25550Y32250D03*
X26050Y34250D03*
X26550Y32250D03*
G54D51*X13900Y1800D03*
X15550Y11350D03*
X5650Y33550D03*
X6400Y32950D03*
X5650Y26850D03*
X6400Y26400D03*
X14350Y31000D03*
G54D52*X1050Y2050D03*
G54D51*X17200Y34250D03*
Y31600D03*
X25900Y35400D03*
X20450Y26650D03*
X16850D03*
X18900Y32250D03*
Y38150D03*
X7350Y31000D03*
X29250Y31150D03*
X26550D03*
X15550Y12700D03*
G54D52*X1050Y38050D03*
G54D51*X29350Y8850D03*
G54D52*X28950Y2050D03*
G54D51*X6050Y20000D03*
X11050D03*
G54D55*X10735Y20315D02*X11365Y19685D01*
X10735D02*X11365Y20315D01*
G54D51*X14550Y20000D03*
G54D55*X14235Y20315D02*X14865Y19685D01*
X14235D02*X14865Y20315D01*
G54D51*X23600Y20000D03*
G54D55*X23285Y20315D02*X23915Y19685D01*
X23285D02*X23915Y20315D01*
G54D51*X19650Y12450D03*
X24200Y35400D03*
G54D52*X28950Y38050D03*
G54D51*X27150Y8850D03*
X2350Y34800D03*
X6050D03*
X600Y13600D03*
X13900Y7150D03*
X5850Y13600D03*
X16900Y11250D03*
Y7150D03*
X20150Y3150D03*
Y8600D03*
X17050Y12450D03*
X25800Y9900D03*
Y6900D03*
M02*
