G04 #@! TF.FileFunction,Copper,L2,Bot,Signal*
%FSLAX46Y46*%
G04 Gerber Fmt 4.6, Leading zero omitted, Abs format (unit mm)*
G04 Created by KiCad (PCBNEW 4.0.1-2.201512121406+6195~38~ubuntu15.10.1-stable) date Monday, December 14, 2015 PM10:58:21 HKT*
%MOMM*%
G01*
G04 APERTURE LIST*
%ADD10C,0.100000*%
%ADD11C,1.998980*%
%ADD12R,2.032000X2.032000*%
%ADD13O,2.032000X2.032000*%
%ADD14O,3.500120X1.699260*%
%ADD15C,2.500000*%
%ADD16R,2.500000X2.500000*%
%ADD17R,0.700000X1.300000*%
%ADD18R,0.800100X0.800100*%
%ADD19R,1.930400X1.930400*%
%ADD20C,1.930400*%
%ADD21C,3.500120*%
%ADD22R,2.032000X1.727200*%
%ADD23O,2.032000X1.727200*%
%ADD24R,0.635000X1.270000*%
%ADD25R,0.450000X1.450000*%
%ADD26R,1.250000X2.000000*%
%ADD27R,2.000000X2.000000*%
%ADD28C,2.000000*%
%ADD29R,1.000000X1.250000*%
%ADD30C,1.300000*%
%ADD31R,1.300000X1.300000*%
%ADD32R,1.600000X1.600000*%
%ADD33C,1.600000*%
%ADD34C,1.879600*%
%ADD35C,1.066800*%
%ADD36C,0.431800*%
%ADD37C,1.750000*%
%ADD38C,3.000000*%
%ADD39C,4.000000*%
G04 APERTURE END LIST*
D10*
D11*
X87630000Y42418000D03*
X87630000Y32258000D03*
D12*
X90932000Y29210000D03*
D13*
X90932000Y26670000D03*
D14*
X91059000Y38989000D03*
X91059000Y41529000D03*
X91059000Y36449000D03*
D15*
X89611000Y21430000D03*
D16*
X89611000Y11430000D03*
D15*
X89611000Y16430000D03*
D17*
X82667000Y3785000D03*
X84567000Y3785000D03*
X83962000Y29794200D03*
X85862000Y29794200D03*
X78318000Y3937000D03*
X76418000Y3937000D03*
D11*
X65938000Y41818560D03*
X65938000Y36817300D03*
D17*
X70576000Y26517600D03*
X72476000Y26517600D03*
X78826000Y26212800D03*
X76926000Y26212800D03*
X71376000Y13779500D03*
X73276000Y13779500D03*
X73276000Y16446500D03*
X71376000Y16446500D03*
X70348000Y21158200D03*
X72248000Y21158200D03*
X68958000Y16383000D03*
X67058000Y16383000D03*
X71333000Y10744200D03*
X69433000Y10744200D03*
X68958000Y13716000D03*
X67058000Y13716000D03*
X84242000Y13284200D03*
X86142000Y13284200D03*
X84394000Y19532600D03*
X86294000Y19532600D03*
X84242000Y16332200D03*
X86142000Y16332200D03*
D18*
X79085240Y28844200D03*
X79085240Y30744200D03*
X81084220Y29794200D03*
D19*
X64897000Y2794000D03*
D20*
X67437000Y2794000D03*
X69977000Y2794000D03*
D21*
X70358000Y41910000D03*
X84582000Y41910000D03*
X79502000Y41910000D03*
D22*
X64834000Y16383000D03*
D23*
X64834000Y13843000D03*
X64834000Y11303000D03*
X64834000Y8763000D03*
D24*
X84665000Y10464800D03*
X85565000Y10464800D03*
D22*
X64846000Y27838400D03*
D23*
X64846000Y25298400D03*
X64846000Y22758400D03*
X64846000Y20218400D03*
D25*
X76120000Y15243600D03*
X76770000Y15243600D03*
X77420000Y15243600D03*
X78070000Y15243600D03*
X78720000Y15243600D03*
X79370000Y15243600D03*
X80020000Y15243600D03*
X80670000Y15243600D03*
X81320000Y15243600D03*
X81970000Y15243600D03*
X81970000Y9343600D03*
X81320000Y9343600D03*
X80670000Y9343600D03*
X80020000Y9343600D03*
X79370000Y9343600D03*
X78720000Y9343600D03*
X78070000Y9343600D03*
X77420000Y9343600D03*
X76770000Y9343600D03*
X76120000Y9343600D03*
D26*
X73690000Y32766000D03*
X77440000Y32766000D03*
X67848000Y29718000D03*
X71598000Y29718000D03*
D27*
X80442000Y22072600D03*
D28*
X77902000Y22072600D03*
D29*
X88611000Y3785000D03*
X90611000Y3785000D03*
D30*
X72994000Y23749000D03*
D31*
X69494000Y23749000D03*
D29*
X81321000Y26263600D03*
X83321000Y26263600D03*
X71485000Y5689600D03*
X69485000Y5689600D03*
D32*
X84379000Y34239200D03*
D33*
X69379000Y34239200D03*
D29*
X69510000Y8255000D03*
X71510000Y8255000D03*
X78089000Y18542000D03*
X76089000Y18542000D03*
X82280000Y18542000D03*
X80280000Y18542000D03*
D34*
X74218800Y6197600D03*
X80721200Y6197600D03*
X74218800Y1676400D03*
X80721200Y1676400D03*
X86410800Y6134600D03*
X92913200Y6134600D03*
X86410800Y1613400D03*
X92913200Y1613400D03*
D21*
X73914000Y41910000D03*
D11*
X87630000Y87122000D03*
X87630000Y76962000D03*
D12*
X90932000Y73914000D03*
D13*
X90932000Y71374000D03*
D14*
X91059000Y83693000D03*
X91059000Y86233000D03*
X91059000Y81153000D03*
D15*
X89611000Y66134000D03*
D16*
X89611000Y56134000D03*
D15*
X89611000Y61134000D03*
D17*
X82667000Y48489000D03*
X84567000Y48489000D03*
X83962000Y74498200D03*
X85862000Y74498200D03*
X78318000Y48641000D03*
X76418000Y48641000D03*
D11*
X65938000Y86522560D03*
X65938000Y81521300D03*
D17*
X70576000Y71221600D03*
X72476000Y71221600D03*
X78826000Y70916800D03*
X76926000Y70916800D03*
X71376000Y58483500D03*
X73276000Y58483500D03*
X73276000Y61150500D03*
X71376000Y61150500D03*
X70348000Y65862200D03*
X72248000Y65862200D03*
X68958000Y61087000D03*
X67058000Y61087000D03*
X71333000Y55448200D03*
X69433000Y55448200D03*
X68958000Y58420000D03*
X67058000Y58420000D03*
X84242000Y57988200D03*
X86142000Y57988200D03*
X84394000Y64236600D03*
X86294000Y64236600D03*
X84242000Y61036200D03*
X86142000Y61036200D03*
D18*
X79085240Y73548200D03*
X79085240Y75448200D03*
X81084220Y74498200D03*
D19*
X64897000Y47498000D03*
D20*
X67437000Y47498000D03*
X69977000Y47498000D03*
D21*
X70358000Y86614000D03*
X84582000Y86614000D03*
X79502000Y86614000D03*
D22*
X64834000Y61087000D03*
D23*
X64834000Y58547000D03*
X64834000Y56007000D03*
X64834000Y53467000D03*
D24*
X84665000Y55168800D03*
X85565000Y55168800D03*
D22*
X64846000Y72542400D03*
D23*
X64846000Y70002400D03*
X64846000Y67462400D03*
X64846000Y64922400D03*
D25*
X76120000Y59947600D03*
X76770000Y59947600D03*
X77420000Y59947600D03*
X78070000Y59947600D03*
X78720000Y59947600D03*
X79370000Y59947600D03*
X80020000Y59947600D03*
X80670000Y59947600D03*
X81320000Y59947600D03*
X81970000Y59947600D03*
X81970000Y54047600D03*
X81320000Y54047600D03*
X80670000Y54047600D03*
X80020000Y54047600D03*
X79370000Y54047600D03*
X78720000Y54047600D03*
X78070000Y54047600D03*
X77420000Y54047600D03*
X76770000Y54047600D03*
X76120000Y54047600D03*
D26*
X73690000Y77470000D03*
X77440000Y77470000D03*
X67848000Y74422000D03*
X71598000Y74422000D03*
D27*
X80442000Y66776600D03*
D28*
X77902000Y66776600D03*
D29*
X88611000Y48489000D03*
X90611000Y48489000D03*
D30*
X72994000Y68453000D03*
D31*
X69494000Y68453000D03*
D29*
X81321000Y70967600D03*
X83321000Y70967600D03*
X71485000Y50393600D03*
X69485000Y50393600D03*
D32*
X84379000Y78943200D03*
D33*
X69379000Y78943200D03*
D29*
X69510000Y52959000D03*
X71510000Y52959000D03*
X78089000Y63246000D03*
X76089000Y63246000D03*
X82280000Y63246000D03*
X80280000Y63246000D03*
D34*
X74218800Y50901600D03*
X80721200Y50901600D03*
X74218800Y46380400D03*
X80721200Y46380400D03*
X86410800Y50838600D03*
X92913200Y50838600D03*
X86410800Y46317400D03*
X92913200Y46317400D03*
D21*
X73914000Y86614000D03*
D11*
X56134000Y42418000D03*
X56134000Y32258000D03*
D12*
X59436000Y29210000D03*
D13*
X59436000Y26670000D03*
D14*
X59563000Y38989000D03*
X59563000Y41529000D03*
X59563000Y36449000D03*
D15*
X58115000Y21430000D03*
D16*
X58115000Y11430000D03*
D15*
X58115000Y16430000D03*
D17*
X51171000Y3785000D03*
X53071000Y3785000D03*
X52466000Y29794200D03*
X54366000Y29794200D03*
X46822000Y3937000D03*
X44922000Y3937000D03*
D11*
X34442000Y41818560D03*
X34442000Y36817300D03*
D17*
X39080000Y26517600D03*
X40980000Y26517600D03*
X47330000Y26212800D03*
X45430000Y26212800D03*
X39880000Y13779500D03*
X41780000Y13779500D03*
X41780000Y16446500D03*
X39880000Y16446500D03*
X38852000Y21158200D03*
X40752000Y21158200D03*
X37462000Y16383000D03*
X35562000Y16383000D03*
X39837000Y10744200D03*
X37937000Y10744200D03*
X37462000Y13716000D03*
X35562000Y13716000D03*
X52746000Y13284200D03*
X54646000Y13284200D03*
X52898000Y19532600D03*
X54798000Y19532600D03*
X52746000Y16332200D03*
X54646000Y16332200D03*
D18*
X47589240Y28844200D03*
X47589240Y30744200D03*
X49588220Y29794200D03*
D19*
X33401000Y2794000D03*
D20*
X35941000Y2794000D03*
X38481000Y2794000D03*
D21*
X38862000Y41910000D03*
X53086000Y41910000D03*
X48006000Y41910000D03*
D22*
X33338000Y16383000D03*
D23*
X33338000Y13843000D03*
X33338000Y11303000D03*
X33338000Y8763000D03*
D24*
X53169000Y10464800D03*
X54069000Y10464800D03*
D22*
X33350000Y27838400D03*
D23*
X33350000Y25298400D03*
X33350000Y22758400D03*
X33350000Y20218400D03*
D25*
X44624000Y15243600D03*
X45274000Y15243600D03*
X45924000Y15243600D03*
X46574000Y15243600D03*
X47224000Y15243600D03*
X47874000Y15243600D03*
X48524000Y15243600D03*
X49174000Y15243600D03*
X49824000Y15243600D03*
X50474000Y15243600D03*
X50474000Y9343600D03*
X49824000Y9343600D03*
X49174000Y9343600D03*
X48524000Y9343600D03*
X47874000Y9343600D03*
X47224000Y9343600D03*
X46574000Y9343600D03*
X45924000Y9343600D03*
X45274000Y9343600D03*
X44624000Y9343600D03*
D26*
X42194000Y32766000D03*
X45944000Y32766000D03*
X36352000Y29718000D03*
X40102000Y29718000D03*
D27*
X48946000Y22072600D03*
D28*
X46406000Y22072600D03*
D29*
X57115000Y3785000D03*
X59115000Y3785000D03*
D30*
X41498000Y23749000D03*
D31*
X37998000Y23749000D03*
D29*
X49825000Y26263600D03*
X51825000Y26263600D03*
X39989000Y5689600D03*
X37989000Y5689600D03*
D32*
X52883000Y34239200D03*
D33*
X37883000Y34239200D03*
D29*
X38014000Y8255000D03*
X40014000Y8255000D03*
X46593000Y18542000D03*
X44593000Y18542000D03*
X50784000Y18542000D03*
X48784000Y18542000D03*
D34*
X42722800Y6197600D03*
X49225200Y6197600D03*
X42722800Y1676400D03*
X49225200Y1676400D03*
X54914800Y6134600D03*
X61417200Y6134600D03*
X54914800Y1613400D03*
X61417200Y1613400D03*
D21*
X42418000Y41910000D03*
D11*
X56134000Y87122000D03*
X56134000Y76962000D03*
D12*
X59436000Y73914000D03*
D13*
X59436000Y71374000D03*
D14*
X59563000Y83693000D03*
X59563000Y86233000D03*
X59563000Y81153000D03*
D15*
X58115000Y66134000D03*
D16*
X58115000Y56134000D03*
D15*
X58115000Y61134000D03*
D17*
X51171000Y48489000D03*
X53071000Y48489000D03*
X52466000Y74498200D03*
X54366000Y74498200D03*
X46822000Y48641000D03*
X44922000Y48641000D03*
D11*
X34442000Y86522560D03*
X34442000Y81521300D03*
D17*
X39080000Y71221600D03*
X40980000Y71221600D03*
X47330000Y70916800D03*
X45430000Y70916800D03*
X39880000Y58483500D03*
X41780000Y58483500D03*
X41780000Y61150500D03*
X39880000Y61150500D03*
X38852000Y65862200D03*
X40752000Y65862200D03*
X37462000Y61087000D03*
X35562000Y61087000D03*
X39837000Y55448200D03*
X37937000Y55448200D03*
X37462000Y58420000D03*
X35562000Y58420000D03*
X52746000Y57988200D03*
X54646000Y57988200D03*
X52898000Y64236600D03*
X54798000Y64236600D03*
X52746000Y61036200D03*
X54646000Y61036200D03*
D18*
X47589240Y73548200D03*
X47589240Y75448200D03*
X49588220Y74498200D03*
D19*
X33401000Y47498000D03*
D20*
X35941000Y47498000D03*
X38481000Y47498000D03*
D21*
X38862000Y86614000D03*
X53086000Y86614000D03*
X48006000Y86614000D03*
D22*
X33338000Y61087000D03*
D23*
X33338000Y58547000D03*
X33338000Y56007000D03*
X33338000Y53467000D03*
D24*
X53169000Y55168800D03*
X54069000Y55168800D03*
D22*
X33350000Y72542400D03*
D23*
X33350000Y70002400D03*
X33350000Y67462400D03*
X33350000Y64922400D03*
D25*
X44624000Y59947600D03*
X45274000Y59947600D03*
X45924000Y59947600D03*
X46574000Y59947600D03*
X47224000Y59947600D03*
X47874000Y59947600D03*
X48524000Y59947600D03*
X49174000Y59947600D03*
X49824000Y59947600D03*
X50474000Y59947600D03*
X50474000Y54047600D03*
X49824000Y54047600D03*
X49174000Y54047600D03*
X48524000Y54047600D03*
X47874000Y54047600D03*
X47224000Y54047600D03*
X46574000Y54047600D03*
X45924000Y54047600D03*
X45274000Y54047600D03*
X44624000Y54047600D03*
D26*
X42194000Y77470000D03*
X45944000Y77470000D03*
X36352000Y74422000D03*
X40102000Y74422000D03*
D27*
X48946000Y66776600D03*
D28*
X46406000Y66776600D03*
D29*
X57115000Y48489000D03*
X59115000Y48489000D03*
D30*
X41498000Y68453000D03*
D31*
X37998000Y68453000D03*
D29*
X49825000Y70967600D03*
X51825000Y70967600D03*
X39989000Y50393600D03*
X37989000Y50393600D03*
D32*
X52883000Y78943200D03*
D33*
X37883000Y78943200D03*
D29*
X38014000Y52959000D03*
X40014000Y52959000D03*
X46593000Y63246000D03*
X44593000Y63246000D03*
X50784000Y63246000D03*
X48784000Y63246000D03*
D34*
X42722800Y50901600D03*
X49225200Y50901600D03*
X42722800Y46380400D03*
X49225200Y46380400D03*
X54914800Y50838600D03*
X61417200Y50838600D03*
X54914800Y46317400D03*
X61417200Y46317400D03*
D21*
X42418000Y86614000D03*
D11*
X24638000Y42418000D03*
X24638000Y32258000D03*
D12*
X27940000Y29210000D03*
D13*
X27940000Y26670000D03*
D14*
X28067000Y38989000D03*
X28067000Y41529000D03*
X28067000Y36449000D03*
D15*
X26619000Y21430000D03*
D16*
X26619000Y11430000D03*
D15*
X26619000Y16430000D03*
D17*
X19675000Y3785000D03*
X21575000Y3785000D03*
X20970000Y29794200D03*
X22870000Y29794200D03*
X15326000Y3937000D03*
X13426000Y3937000D03*
D11*
X2946000Y41818560D03*
X2946000Y36817300D03*
D17*
X7584000Y26517600D03*
X9484000Y26517600D03*
X15834000Y26212800D03*
X13934000Y26212800D03*
X8384000Y13779500D03*
X10284000Y13779500D03*
X10284000Y16446500D03*
X8384000Y16446500D03*
X7356000Y21158200D03*
X9256000Y21158200D03*
X5966000Y16383000D03*
X4066000Y16383000D03*
X8341000Y10744200D03*
X6441000Y10744200D03*
X5966000Y13716000D03*
X4066000Y13716000D03*
X21250000Y13284200D03*
X23150000Y13284200D03*
X21402000Y19532600D03*
X23302000Y19532600D03*
X21250000Y16332200D03*
X23150000Y16332200D03*
D18*
X16093240Y28844200D03*
X16093240Y30744200D03*
X18092220Y29794200D03*
D19*
X1905000Y2794000D03*
D20*
X4445000Y2794000D03*
X6985000Y2794000D03*
D21*
X7366000Y41910000D03*
X21590000Y41910000D03*
X16510000Y41910000D03*
D22*
X1842000Y16383000D03*
D23*
X1842000Y13843000D03*
X1842000Y11303000D03*
X1842000Y8763000D03*
D24*
X21673000Y10464800D03*
X22573000Y10464800D03*
D22*
X1854000Y27838400D03*
D23*
X1854000Y25298400D03*
X1854000Y22758400D03*
X1854000Y20218400D03*
D25*
X13128000Y15243600D03*
X13778000Y15243600D03*
X14428000Y15243600D03*
X15078000Y15243600D03*
X15728000Y15243600D03*
X16378000Y15243600D03*
X17028000Y15243600D03*
X17678000Y15243600D03*
X18328000Y15243600D03*
X18978000Y15243600D03*
X18978000Y9343600D03*
X18328000Y9343600D03*
X17678000Y9343600D03*
X17028000Y9343600D03*
X16378000Y9343600D03*
X15728000Y9343600D03*
X15078000Y9343600D03*
X14428000Y9343600D03*
X13778000Y9343600D03*
X13128000Y9343600D03*
D26*
X10698000Y32766000D03*
X14448000Y32766000D03*
X4856000Y29718000D03*
X8606000Y29718000D03*
D27*
X17450000Y22072600D03*
D28*
X14910000Y22072600D03*
D29*
X25619000Y3785000D03*
X27619000Y3785000D03*
D30*
X10002000Y23749000D03*
D31*
X6502000Y23749000D03*
D29*
X18329000Y26263600D03*
X20329000Y26263600D03*
X8493000Y5689600D03*
X6493000Y5689600D03*
D32*
X21387000Y34239200D03*
D33*
X6387000Y34239200D03*
D29*
X6518000Y8255000D03*
X8518000Y8255000D03*
X15097000Y18542000D03*
X13097000Y18542000D03*
X19288000Y18542000D03*
X17288000Y18542000D03*
D34*
X11226800Y6197600D03*
X17729200Y6197600D03*
X11226800Y1676400D03*
X17729200Y1676400D03*
X23418800Y6134600D03*
X29921200Y6134600D03*
X23418800Y1613400D03*
X29921200Y1613400D03*
D21*
X10922000Y41910000D03*
X10922000Y86614000D03*
D34*
X23418800Y50838600D03*
X29921200Y50838600D03*
X23418800Y46317400D03*
X29921200Y46317400D03*
X11226800Y50901600D03*
X17729200Y50901600D03*
X11226800Y46380400D03*
X17729200Y46380400D03*
D29*
X19288000Y63246000D03*
X17288000Y63246000D03*
X15097000Y63246000D03*
X13097000Y63246000D03*
X6518000Y52959000D03*
X8518000Y52959000D03*
D32*
X21387000Y78943200D03*
D33*
X6387000Y78943200D03*
D29*
X8493000Y50393600D03*
X6493000Y50393600D03*
X18329000Y70967600D03*
X20329000Y70967600D03*
D30*
X10002000Y68453000D03*
D31*
X6502000Y68453000D03*
D29*
X25619000Y48489000D03*
X27619000Y48489000D03*
D27*
X17450000Y66776600D03*
D28*
X14910000Y66776600D03*
D26*
X4856000Y74422000D03*
X8606000Y74422000D03*
X10698000Y77470000D03*
X14448000Y77470000D03*
D25*
X13128000Y59947600D03*
X13778000Y59947600D03*
X14428000Y59947600D03*
X15078000Y59947600D03*
X15728000Y59947600D03*
X16378000Y59947600D03*
X17028000Y59947600D03*
X17678000Y59947600D03*
X18328000Y59947600D03*
X18978000Y59947600D03*
X18978000Y54047600D03*
X18328000Y54047600D03*
X17678000Y54047600D03*
X17028000Y54047600D03*
X16378000Y54047600D03*
X15728000Y54047600D03*
X15078000Y54047600D03*
X14428000Y54047600D03*
X13778000Y54047600D03*
X13128000Y54047600D03*
D22*
X1854000Y72542400D03*
D23*
X1854000Y70002400D03*
X1854000Y67462400D03*
X1854000Y64922400D03*
D24*
X21673000Y55168800D03*
X22573000Y55168800D03*
D22*
X1842000Y61087000D03*
D23*
X1842000Y58547000D03*
X1842000Y56007000D03*
X1842000Y53467000D03*
D21*
X16510000Y86614000D03*
X21590000Y86614000D03*
X7366000Y86614000D03*
D19*
X1905000Y47498000D03*
D20*
X4445000Y47498000D03*
X6985000Y47498000D03*
D18*
X16093240Y73548200D03*
X16093240Y75448200D03*
X18092220Y74498200D03*
D17*
X21250000Y61036200D03*
X23150000Y61036200D03*
X21402000Y64236600D03*
X23302000Y64236600D03*
X21250000Y57988200D03*
X23150000Y57988200D03*
X5966000Y58420000D03*
X4066000Y58420000D03*
X8341000Y55448200D03*
X6441000Y55448200D03*
X5966000Y61087000D03*
X4066000Y61087000D03*
X7356000Y65862200D03*
X9256000Y65862200D03*
X10284000Y61150500D03*
X8384000Y61150500D03*
X8384000Y58483500D03*
X10284000Y58483500D03*
X15834000Y70916800D03*
X13934000Y70916800D03*
X7584000Y71221600D03*
X9484000Y71221600D03*
D11*
X2946000Y86522560D03*
X2946000Y81521300D03*
D17*
X15326000Y48641000D03*
X13426000Y48641000D03*
X20970000Y74498200D03*
X22870000Y74498200D03*
X19675000Y48489000D03*
X21575000Y48489000D03*
D15*
X26619000Y66134000D03*
D16*
X26619000Y56134000D03*
D15*
X26619000Y61134000D03*
D14*
X28067000Y83693000D03*
X28067000Y86233000D03*
X28067000Y81153000D03*
D12*
X27940000Y73914000D03*
D13*
X27940000Y71374000D03*
D11*
X24638000Y87122000D03*
X24638000Y76962000D03*
D35*
X82913900Y5228100D03*
X82913900Y14322800D03*
X82913900Y49932100D03*
X82913900Y59026800D03*
X51417900Y5228100D03*
X51417900Y14322800D03*
X51417900Y49932100D03*
X51417900Y59026800D03*
X19921900Y5228100D03*
X19921900Y14322800D03*
X19921900Y59026800D03*
X19921900Y49932100D03*
X68243200Y5187700D03*
X68243200Y49891700D03*
X36747200Y5187700D03*
X36747200Y49891700D03*
X5251200Y5187700D03*
X5251200Y49891700D03*
X82706000Y17118200D03*
X82706000Y61822200D03*
X51210000Y17118200D03*
X51210000Y61822200D03*
X19714000Y17118200D03*
X19714000Y61822200D03*
X72309900Y11913800D03*
X72309900Y56617800D03*
X40813900Y11913800D03*
X40813900Y56617800D03*
X9317900Y11913800D03*
X9317900Y56617800D03*
X74215300Y12598600D03*
X74215300Y57302600D03*
X42719300Y12598600D03*
X42719300Y57302600D03*
X11223300Y12598600D03*
X11223300Y57302600D03*
X74709300Y17641300D03*
X74709300Y62345300D03*
X43213300Y17641300D03*
X43213300Y62345300D03*
X11717300Y17641300D03*
X11717300Y62345300D03*
X77471600Y13777200D03*
X77471600Y58481200D03*
X45975600Y13777200D03*
X45975600Y58481200D03*
X14479600Y13777200D03*
X14479600Y58481200D03*
X70035100Y16583200D03*
X70035100Y61287200D03*
X38539100Y16583200D03*
X38539100Y61287200D03*
X7043100Y16583200D03*
X7043100Y61287200D03*
X73404600Y11172600D03*
X73404600Y55876600D03*
X41908600Y11172600D03*
X41908600Y55876600D03*
X10412600Y11172600D03*
X10412600Y55876600D03*
D36*
X80670000Y15243600D02*
X80670000Y16400400D01*
X80670000Y16400400D02*
X81348200Y17078600D01*
X81348200Y17078600D02*
X81348200Y18542000D01*
X82280000Y18542000D02*
X81348200Y18542000D01*
X80670000Y59947600D02*
X80670000Y61104400D01*
X80670000Y61104400D02*
X81348200Y61782600D01*
X81348200Y61782600D02*
X81348200Y63246000D01*
X82280000Y63246000D02*
X81348200Y63246000D01*
X49174000Y15243600D02*
X49174000Y16400400D01*
X49174000Y16400400D02*
X49852200Y17078600D01*
X49852200Y17078600D02*
X49852200Y18542000D01*
X50784000Y18542000D02*
X49852200Y18542000D01*
X49174000Y59947600D02*
X49174000Y61104400D01*
X49174000Y61104400D02*
X49852200Y61782600D01*
X49852200Y61782600D02*
X49852200Y63246000D01*
X50784000Y63246000D02*
X49852200Y63246000D01*
X17678000Y15243600D02*
X17678000Y16400400D01*
X17678000Y16400400D02*
X18356200Y17078600D01*
X18356200Y17078600D02*
X18356200Y18542000D01*
X19288000Y18542000D02*
X18356200Y18542000D01*
X19288000Y63246000D02*
X18356200Y63246000D01*
X18356200Y61782600D02*
X18356200Y63246000D01*
X17678000Y61104400D02*
X18356200Y61782600D01*
X17678000Y59947600D02*
X17678000Y61104400D01*
X89611000Y21430000D02*
X88973200Y21430000D01*
X88973200Y21430000D02*
X87075800Y19532600D01*
X86684900Y19532600D02*
X87075800Y19532600D01*
X82359200Y20621200D02*
X80280000Y18542000D01*
X86684900Y19532600D02*
X85596300Y20621200D01*
X85596300Y20621200D02*
X82359200Y20621200D01*
X82359200Y20621200D02*
X82359200Y22773300D01*
X82359200Y22773300D02*
X81383500Y23749000D01*
X81383500Y23749000D02*
X72994000Y23749000D01*
X71730600Y27561700D02*
X71730600Y25012400D01*
X71730600Y25012400D02*
X72994000Y23749000D01*
X86294000Y19532600D02*
X86684900Y19532600D01*
X80280000Y18542000D02*
X79020800Y18542000D01*
X78089000Y18542000D02*
X79020800Y18542000D01*
X80280000Y18013600D02*
X80280000Y18542000D01*
X80280000Y18013600D02*
X80280000Y17485200D01*
X80280000Y17485200D02*
X80020000Y17225200D01*
X80020000Y17225200D02*
X80020000Y15243600D01*
X83321000Y26263600D02*
X84252800Y26263600D01*
X90932000Y26670000D02*
X84659200Y26670000D01*
X84659200Y26670000D02*
X84252800Y26263600D01*
X74218800Y1676400D02*
X71262400Y4632800D01*
X71262400Y4632800D02*
X69485000Y4632800D01*
X69485000Y5689600D02*
X69485000Y4632800D01*
X67437000Y2794000D02*
X69275800Y4632800D01*
X69275800Y4632800D02*
X69485000Y4632800D01*
X71510000Y8255000D02*
X70578200Y8255000D01*
X69485000Y5689600D02*
X69485000Y6746400D01*
X69485000Y6746400D02*
X69698700Y6746400D01*
X69698700Y6746400D02*
X70578200Y7625900D01*
X70578200Y7625900D02*
X70578200Y8255000D01*
X77440000Y32766000D02*
X78496800Y32766000D01*
X79085200Y30744200D02*
X79085200Y31576100D01*
X79085200Y31576100D02*
X78496800Y32164500D01*
X78496800Y32164500D02*
X78496800Y32766000D01*
X77440000Y32766000D02*
X76383200Y32766000D01*
X71730600Y27561700D02*
X76383200Y32214300D01*
X76383200Y32214300D02*
X76383200Y32766000D01*
X64846000Y25298400D02*
X67109300Y27561700D01*
X67109300Y27561700D02*
X71730600Y27561700D01*
X90611000Y3785000D02*
X89679200Y3785000D01*
X86410800Y1613400D02*
X88206400Y1613400D01*
X88206400Y1613400D02*
X89679200Y3086200D01*
X89679200Y3086200D02*
X89679200Y3785000D01*
X89611000Y66134000D02*
X88973200Y66134000D01*
X88973200Y66134000D02*
X87075800Y64236600D01*
X86684900Y64236600D02*
X87075800Y64236600D01*
X82359200Y65325200D02*
X80280000Y63246000D01*
X86684900Y64236600D02*
X85596300Y65325200D01*
X85596300Y65325200D02*
X82359200Y65325200D01*
X82359200Y65325200D02*
X82359200Y67477300D01*
X82359200Y67477300D02*
X81383500Y68453000D01*
X81383500Y68453000D02*
X72994000Y68453000D01*
X71730600Y72265700D02*
X71730600Y69716400D01*
X71730600Y69716400D02*
X72994000Y68453000D01*
X86294000Y64236600D02*
X86684900Y64236600D01*
X80280000Y63246000D02*
X79020800Y63246000D01*
X78089000Y63246000D02*
X79020800Y63246000D01*
X80280000Y62717600D02*
X80280000Y63246000D01*
X80280000Y62717600D02*
X80280000Y62189200D01*
X80280000Y62189200D02*
X80020000Y61929200D01*
X80020000Y61929200D02*
X80020000Y59947600D01*
X83321000Y70967600D02*
X84252800Y70967600D01*
X90932000Y71374000D02*
X84659200Y71374000D01*
X84659200Y71374000D02*
X84252800Y70967600D01*
X74218800Y46380400D02*
X71262400Y49336800D01*
X71262400Y49336800D02*
X69485000Y49336800D01*
X69485000Y50393600D02*
X69485000Y49336800D01*
X67437000Y47498000D02*
X69275800Y49336800D01*
X69275800Y49336800D02*
X69485000Y49336800D01*
X71510000Y52959000D02*
X70578200Y52959000D01*
X69485000Y50393600D02*
X69485000Y51450400D01*
X69485000Y51450400D02*
X69698700Y51450400D01*
X69698700Y51450400D02*
X70578200Y52329900D01*
X70578200Y52329900D02*
X70578200Y52959000D01*
X77440000Y77470000D02*
X78496800Y77470000D01*
X79085200Y75448200D02*
X79085200Y76280100D01*
X79085200Y76280100D02*
X78496800Y76868500D01*
X78496800Y76868500D02*
X78496800Y77470000D01*
X77440000Y77470000D02*
X76383200Y77470000D01*
X71730600Y72265700D02*
X76383200Y76918300D01*
X76383200Y76918300D02*
X76383200Y77470000D01*
X64846000Y70002400D02*
X67109300Y72265700D01*
X67109300Y72265700D02*
X71730600Y72265700D01*
X90611000Y48489000D02*
X89679200Y48489000D01*
X86410800Y46317400D02*
X88206400Y46317400D01*
X88206400Y46317400D02*
X89679200Y47790200D01*
X89679200Y47790200D02*
X89679200Y48489000D01*
X58115000Y21430000D02*
X57477200Y21430000D01*
X57477200Y21430000D02*
X55579800Y19532600D01*
X55188900Y19532600D02*
X55579800Y19532600D01*
X50863200Y20621200D02*
X48784000Y18542000D01*
X55188900Y19532600D02*
X54100300Y20621200D01*
X54100300Y20621200D02*
X50863200Y20621200D01*
X50863200Y20621200D02*
X50863200Y22773300D01*
X50863200Y22773300D02*
X49887500Y23749000D01*
X49887500Y23749000D02*
X41498000Y23749000D01*
X40234600Y27561700D02*
X40234600Y25012400D01*
X40234600Y25012400D02*
X41498000Y23749000D01*
X54798000Y19532600D02*
X55188900Y19532600D01*
X48784000Y18542000D02*
X47524800Y18542000D01*
X46593000Y18542000D02*
X47524800Y18542000D01*
X48784000Y18013600D02*
X48784000Y18542000D01*
X48784000Y18013600D02*
X48784000Y17485200D01*
X48784000Y17485200D02*
X48524000Y17225200D01*
X48524000Y17225200D02*
X48524000Y15243600D01*
X51825000Y26263600D02*
X52756800Y26263600D01*
X59436000Y26670000D02*
X53163200Y26670000D01*
X53163200Y26670000D02*
X52756800Y26263600D01*
X42722800Y1676400D02*
X39766400Y4632800D01*
X39766400Y4632800D02*
X37989000Y4632800D01*
X37989000Y5689600D02*
X37989000Y4632800D01*
X35941000Y2794000D02*
X37779800Y4632800D01*
X37779800Y4632800D02*
X37989000Y4632800D01*
X40014000Y8255000D02*
X39082200Y8255000D01*
X37989000Y5689600D02*
X37989000Y6746400D01*
X37989000Y6746400D02*
X38202700Y6746400D01*
X38202700Y6746400D02*
X39082200Y7625900D01*
X39082200Y7625900D02*
X39082200Y8255000D01*
X45944000Y32766000D02*
X47000800Y32766000D01*
X47589200Y30744200D02*
X47589200Y31576100D01*
X47589200Y31576100D02*
X47000800Y32164500D01*
X47000800Y32164500D02*
X47000800Y32766000D01*
X45944000Y32766000D02*
X44887200Y32766000D01*
X40234600Y27561700D02*
X44887200Y32214300D01*
X44887200Y32214300D02*
X44887200Y32766000D01*
X33350000Y25298400D02*
X35613300Y27561700D01*
X35613300Y27561700D02*
X40234600Y27561700D01*
X59115000Y3785000D02*
X58183200Y3785000D01*
X54914800Y1613400D02*
X56710400Y1613400D01*
X56710400Y1613400D02*
X58183200Y3086200D01*
X58183200Y3086200D02*
X58183200Y3785000D01*
X58115000Y66134000D02*
X57477200Y66134000D01*
X57477200Y66134000D02*
X55579800Y64236600D01*
X55188900Y64236600D02*
X55579800Y64236600D01*
X50863200Y65325200D02*
X48784000Y63246000D01*
X55188900Y64236600D02*
X54100300Y65325200D01*
X54100300Y65325200D02*
X50863200Y65325200D01*
X50863200Y65325200D02*
X50863200Y67477300D01*
X50863200Y67477300D02*
X49887500Y68453000D01*
X49887500Y68453000D02*
X41498000Y68453000D01*
X40234600Y72265700D02*
X40234600Y69716400D01*
X40234600Y69716400D02*
X41498000Y68453000D01*
X54798000Y64236600D02*
X55188900Y64236600D01*
X48784000Y63246000D02*
X47524800Y63246000D01*
X46593000Y63246000D02*
X47524800Y63246000D01*
X48784000Y62717600D02*
X48784000Y63246000D01*
X48784000Y62717600D02*
X48784000Y62189200D01*
X48784000Y62189200D02*
X48524000Y61929200D01*
X48524000Y61929200D02*
X48524000Y59947600D01*
X51825000Y70967600D02*
X52756800Y70967600D01*
X59436000Y71374000D02*
X53163200Y71374000D01*
X53163200Y71374000D02*
X52756800Y70967600D01*
X42722800Y46380400D02*
X39766400Y49336800D01*
X39766400Y49336800D02*
X37989000Y49336800D01*
X37989000Y50393600D02*
X37989000Y49336800D01*
X35941000Y47498000D02*
X37779800Y49336800D01*
X37779800Y49336800D02*
X37989000Y49336800D01*
X40014000Y52959000D02*
X39082200Y52959000D01*
X37989000Y50393600D02*
X37989000Y51450400D01*
X37989000Y51450400D02*
X38202700Y51450400D01*
X38202700Y51450400D02*
X39082200Y52329900D01*
X39082200Y52329900D02*
X39082200Y52959000D01*
X45944000Y77470000D02*
X47000800Y77470000D01*
X47589200Y75448200D02*
X47589200Y76280100D01*
X47589200Y76280100D02*
X47000800Y76868500D01*
X47000800Y76868500D02*
X47000800Y77470000D01*
X45944000Y77470000D02*
X44887200Y77470000D01*
X40234600Y72265700D02*
X44887200Y76918300D01*
X44887200Y76918300D02*
X44887200Y77470000D01*
X33350000Y70002400D02*
X35613300Y72265700D01*
X35613300Y72265700D02*
X40234600Y72265700D01*
X59115000Y48489000D02*
X58183200Y48489000D01*
X54914800Y46317400D02*
X56710400Y46317400D01*
X56710400Y46317400D02*
X58183200Y47790200D01*
X58183200Y47790200D02*
X58183200Y48489000D01*
X26619000Y21430000D02*
X25981200Y21430000D01*
X25981200Y21430000D02*
X24083800Y19532600D01*
X23692900Y19532600D02*
X24083800Y19532600D01*
X19367200Y20621200D02*
X17288000Y18542000D01*
X23692900Y19532600D02*
X22604300Y20621200D01*
X22604300Y20621200D02*
X19367200Y20621200D01*
X19367200Y20621200D02*
X19367200Y22773300D01*
X19367200Y22773300D02*
X18391500Y23749000D01*
X18391500Y23749000D02*
X10002000Y23749000D01*
X8738600Y27561700D02*
X8738600Y25012400D01*
X8738600Y25012400D02*
X10002000Y23749000D01*
X23302000Y19532600D02*
X23692900Y19532600D01*
X17288000Y18542000D02*
X16028800Y18542000D01*
X15097000Y18542000D02*
X16028800Y18542000D01*
X17288000Y18013600D02*
X17288000Y18542000D01*
X17288000Y18013600D02*
X17288000Y17485200D01*
X17288000Y17485200D02*
X17028000Y17225200D01*
X17028000Y17225200D02*
X17028000Y15243600D01*
X20329000Y26263600D02*
X21260800Y26263600D01*
X27940000Y26670000D02*
X21667200Y26670000D01*
X21667200Y26670000D02*
X21260800Y26263600D01*
X11226800Y1676400D02*
X8270400Y4632800D01*
X8270400Y4632800D02*
X6493000Y4632800D01*
X6493000Y5689600D02*
X6493000Y4632800D01*
X4445000Y2794000D02*
X6283800Y4632800D01*
X6283800Y4632800D02*
X6493000Y4632800D01*
X8518000Y8255000D02*
X7586200Y8255000D01*
X6493000Y5689600D02*
X6493000Y6746400D01*
X6493000Y6746400D02*
X6706700Y6746400D01*
X6706700Y6746400D02*
X7586200Y7625900D01*
X7586200Y7625900D02*
X7586200Y8255000D01*
X14448000Y32766000D02*
X15504800Y32766000D01*
X16093200Y30744200D02*
X16093200Y31576100D01*
X16093200Y31576100D02*
X15504800Y32164500D01*
X15504800Y32164500D02*
X15504800Y32766000D01*
X14448000Y32766000D02*
X13391200Y32766000D01*
X8738600Y27561700D02*
X13391200Y32214300D01*
X13391200Y32214300D02*
X13391200Y32766000D01*
X1854000Y25298400D02*
X4117300Y27561700D01*
X4117300Y27561700D02*
X8738600Y27561700D01*
X27619000Y3785000D02*
X26687200Y3785000D01*
X23418800Y1613400D02*
X25214400Y1613400D01*
X25214400Y1613400D02*
X26687200Y3086200D01*
X26687200Y3086200D02*
X26687200Y3785000D01*
X26687200Y47790200D02*
X26687200Y48489000D01*
X25214400Y46317400D02*
X26687200Y47790200D01*
X23418800Y46317400D02*
X25214400Y46317400D01*
X27619000Y48489000D02*
X26687200Y48489000D01*
X4117300Y72265700D02*
X8738600Y72265700D01*
X1854000Y70002400D02*
X4117300Y72265700D01*
X13391200Y76918300D02*
X13391200Y77470000D01*
X8738600Y72265700D02*
X13391200Y76918300D01*
X14448000Y77470000D02*
X13391200Y77470000D01*
X15504800Y76868500D02*
X15504800Y77470000D01*
X16093200Y76280100D02*
X15504800Y76868500D01*
X16093200Y75448200D02*
X16093200Y76280100D01*
X14448000Y77470000D02*
X15504800Y77470000D01*
X7586200Y52329900D02*
X7586200Y52959000D01*
X6706700Y51450400D02*
X7586200Y52329900D01*
X6493000Y51450400D02*
X6706700Y51450400D01*
X6493000Y50393600D02*
X6493000Y51450400D01*
X8518000Y52959000D02*
X7586200Y52959000D01*
X6283800Y49336800D02*
X6493000Y49336800D01*
X4445000Y47498000D02*
X6283800Y49336800D01*
X6493000Y50393600D02*
X6493000Y49336800D01*
X8270400Y49336800D02*
X6493000Y49336800D01*
X11226800Y46380400D02*
X8270400Y49336800D01*
X21667200Y71374000D02*
X21260800Y70967600D01*
X27940000Y71374000D02*
X21667200Y71374000D01*
X20329000Y70967600D02*
X21260800Y70967600D01*
X17028000Y61929200D02*
X17028000Y59947600D01*
X17288000Y62189200D02*
X17028000Y61929200D01*
X17288000Y62717600D02*
X17288000Y62189200D01*
X17288000Y62717600D02*
X17288000Y63246000D01*
X15097000Y63246000D02*
X16028800Y63246000D01*
X17288000Y63246000D02*
X16028800Y63246000D01*
X23302000Y64236600D02*
X23692900Y64236600D01*
X8738600Y69716400D02*
X10002000Y68453000D01*
X8738600Y72265700D02*
X8738600Y69716400D01*
X18391500Y68453000D02*
X10002000Y68453000D01*
X19367200Y67477300D02*
X18391500Y68453000D01*
X19367200Y65325200D02*
X19367200Y67477300D01*
X22604300Y65325200D02*
X19367200Y65325200D01*
X23692900Y64236600D02*
X22604300Y65325200D01*
X19367200Y65325200D02*
X17288000Y63246000D01*
X23692900Y64236600D02*
X24083800Y64236600D01*
X25981200Y66134000D02*
X24083800Y64236600D01*
X26619000Y66134000D02*
X25981200Y66134000D01*
X81320000Y14086800D02*
X82677900Y14086800D01*
X82677900Y14086800D02*
X82913900Y14322800D01*
X82667000Y4866800D02*
X82913900Y5113700D01*
X82913900Y5113700D02*
X82913900Y5228100D01*
X82667000Y3785000D02*
X82667000Y4866800D01*
X67848000Y29718000D02*
X66791200Y29718000D01*
X64846000Y27838400D02*
X64846000Y29133800D01*
X64846000Y29133800D02*
X66207000Y29133800D01*
X66207000Y29133800D02*
X66791200Y29718000D01*
X71376000Y18641900D02*
X71376000Y17528300D01*
X71129800Y21158200D02*
X71129800Y18888100D01*
X71129800Y18888100D02*
X71376000Y18641900D01*
X71376000Y18641900D02*
X75057300Y18641900D01*
X75057300Y18641900D02*
X75157200Y18542000D01*
X76089000Y18542000D02*
X75157200Y18542000D01*
X71376000Y16446500D02*
X71376000Y17528300D01*
X70348000Y21158200D02*
X71129800Y21158200D01*
X70250300Y21158200D02*
X70348000Y21158200D01*
X70250300Y21158200D02*
X70152600Y21158200D01*
X81320000Y15243600D02*
X81320000Y14086800D01*
X71376000Y12697700D02*
X71333000Y12654700D01*
X71333000Y12654700D02*
X71333000Y10744200D01*
X69494000Y22667200D02*
X70152600Y22008600D01*
X70152600Y22008600D02*
X70152600Y21158200D01*
X69494000Y23749000D02*
X69494000Y22667200D01*
X70576000Y26517600D02*
X70576000Y25435800D01*
X69494000Y23749000D02*
X69494000Y24830800D01*
X69494000Y24830800D02*
X70099000Y25435800D01*
X70099000Y25435800D02*
X70576000Y25435800D01*
X81885200Y3785000D02*
X81733200Y3937000D01*
X81733200Y3937000D02*
X78318000Y3937000D01*
D37*
X90932000Y42418000D02*
X90932000Y41656000D01*
X90932000Y41656000D02*
X91059000Y41529000D01*
D36*
X71376000Y13779500D02*
X71376000Y16446500D01*
X71376000Y13779500D02*
X71376000Y12697700D01*
X82667000Y3785000D02*
X81885200Y3785000D01*
D38*
X87630000Y42418000D02*
X90932000Y42418000D01*
X84582000Y41910000D02*
X85090000Y42418000D01*
X85090000Y42418000D02*
X87630000Y42418000D01*
D36*
X81320000Y58790800D02*
X82677900Y58790800D01*
X82677900Y58790800D02*
X82913900Y59026800D01*
X82667000Y49570800D02*
X82913900Y49817700D01*
X82913900Y49817700D02*
X82913900Y49932100D01*
X82667000Y48489000D02*
X82667000Y49570800D01*
X67848000Y74422000D02*
X66791200Y74422000D01*
X64846000Y72542400D02*
X64846000Y73837800D01*
X64846000Y73837800D02*
X66207000Y73837800D01*
X66207000Y73837800D02*
X66791200Y74422000D01*
X71376000Y63345900D02*
X71376000Y62232300D01*
X71129800Y65862200D02*
X71129800Y63592100D01*
X71129800Y63592100D02*
X71376000Y63345900D01*
X71376000Y63345900D02*
X75057300Y63345900D01*
X75057300Y63345900D02*
X75157200Y63246000D01*
X76089000Y63246000D02*
X75157200Y63246000D01*
X71376000Y61150500D02*
X71376000Y62232300D01*
X70348000Y65862200D02*
X71129800Y65862200D01*
X70250300Y65862200D02*
X70348000Y65862200D01*
X70250300Y65862200D02*
X70152600Y65862200D01*
X81320000Y59947600D02*
X81320000Y58790800D01*
X71376000Y57401700D02*
X71333000Y57358700D01*
X71333000Y57358700D02*
X71333000Y55448200D01*
X69494000Y67371200D02*
X70152600Y66712600D01*
X70152600Y66712600D02*
X70152600Y65862200D01*
X69494000Y68453000D02*
X69494000Y67371200D01*
X70576000Y71221600D02*
X70576000Y70139800D01*
X69494000Y68453000D02*
X69494000Y69534800D01*
X69494000Y69534800D02*
X70099000Y70139800D01*
X70099000Y70139800D02*
X70576000Y70139800D01*
X81885200Y48489000D02*
X81733200Y48641000D01*
X81733200Y48641000D02*
X78318000Y48641000D01*
D37*
X90932000Y87122000D02*
X90932000Y86360000D01*
X90932000Y86360000D02*
X91059000Y86233000D01*
D36*
X71376000Y58483500D02*
X71376000Y61150500D01*
X71376000Y58483500D02*
X71376000Y57401700D01*
X82667000Y48489000D02*
X81885200Y48489000D01*
D38*
X87630000Y87122000D02*
X90932000Y87122000D01*
X84582000Y86614000D02*
X85090000Y87122000D01*
X85090000Y87122000D02*
X87630000Y87122000D01*
D36*
X49824000Y14086800D02*
X51181900Y14086800D01*
X51181900Y14086800D02*
X51417900Y14322800D01*
X51171000Y4866800D02*
X51417900Y5113700D01*
X51417900Y5113700D02*
X51417900Y5228100D01*
X51171000Y3785000D02*
X51171000Y4866800D01*
X36352000Y29718000D02*
X35295200Y29718000D01*
X33350000Y27838400D02*
X33350000Y29133800D01*
X33350000Y29133800D02*
X34711000Y29133800D01*
X34711000Y29133800D02*
X35295200Y29718000D01*
X39880000Y18641900D02*
X39880000Y17528300D01*
X39633800Y21158200D02*
X39633800Y18888100D01*
X39633800Y18888100D02*
X39880000Y18641900D01*
X39880000Y18641900D02*
X43561300Y18641900D01*
X43561300Y18641900D02*
X43661200Y18542000D01*
X44593000Y18542000D02*
X43661200Y18542000D01*
X39880000Y16446500D02*
X39880000Y17528300D01*
X38852000Y21158200D02*
X39633800Y21158200D01*
X38754300Y21158200D02*
X38852000Y21158200D01*
X38754300Y21158200D02*
X38656600Y21158200D01*
X49824000Y15243600D02*
X49824000Y14086800D01*
X39880000Y12697700D02*
X39837000Y12654700D01*
X39837000Y12654700D02*
X39837000Y10744200D01*
X37998000Y22667200D02*
X38656600Y22008600D01*
X38656600Y22008600D02*
X38656600Y21158200D01*
X37998000Y23749000D02*
X37998000Y22667200D01*
X39080000Y26517600D02*
X39080000Y25435800D01*
X37998000Y23749000D02*
X37998000Y24830800D01*
X37998000Y24830800D02*
X38603000Y25435800D01*
X38603000Y25435800D02*
X39080000Y25435800D01*
X50389200Y3785000D02*
X50237200Y3937000D01*
X50237200Y3937000D02*
X46822000Y3937000D01*
D37*
X59436000Y42418000D02*
X59436000Y41656000D01*
X59436000Y41656000D02*
X59563000Y41529000D01*
D36*
X39880000Y13779500D02*
X39880000Y16446500D01*
X39880000Y13779500D02*
X39880000Y12697700D01*
X51171000Y3785000D02*
X50389200Y3785000D01*
D38*
X56134000Y42418000D02*
X59436000Y42418000D01*
X53086000Y41910000D02*
X53594000Y42418000D01*
X53594000Y42418000D02*
X56134000Y42418000D01*
D36*
X49824000Y58790800D02*
X51181900Y58790800D01*
X51181900Y58790800D02*
X51417900Y59026800D01*
X51171000Y49570800D02*
X51417900Y49817700D01*
X51417900Y49817700D02*
X51417900Y49932100D01*
X51171000Y48489000D02*
X51171000Y49570800D01*
X36352000Y74422000D02*
X35295200Y74422000D01*
X33350000Y72542400D02*
X33350000Y73837800D01*
X33350000Y73837800D02*
X34711000Y73837800D01*
X34711000Y73837800D02*
X35295200Y74422000D01*
X39880000Y63345900D02*
X39880000Y62232300D01*
X39633800Y65862200D02*
X39633800Y63592100D01*
X39633800Y63592100D02*
X39880000Y63345900D01*
X39880000Y63345900D02*
X43561300Y63345900D01*
X43561300Y63345900D02*
X43661200Y63246000D01*
X44593000Y63246000D02*
X43661200Y63246000D01*
X39880000Y61150500D02*
X39880000Y62232300D01*
X38852000Y65862200D02*
X39633800Y65862200D01*
X38754300Y65862200D02*
X38852000Y65862200D01*
X38754300Y65862200D02*
X38656600Y65862200D01*
X49824000Y59947600D02*
X49824000Y58790800D01*
X39880000Y57401700D02*
X39837000Y57358700D01*
X39837000Y57358700D02*
X39837000Y55448200D01*
X37998000Y67371200D02*
X38656600Y66712600D01*
X38656600Y66712600D02*
X38656600Y65862200D01*
X37998000Y68453000D02*
X37998000Y67371200D01*
X39080000Y71221600D02*
X39080000Y70139800D01*
X37998000Y68453000D02*
X37998000Y69534800D01*
X37998000Y69534800D02*
X38603000Y70139800D01*
X38603000Y70139800D02*
X39080000Y70139800D01*
X50389200Y48489000D02*
X50237200Y48641000D01*
X50237200Y48641000D02*
X46822000Y48641000D01*
D37*
X59436000Y87122000D02*
X59436000Y86360000D01*
X59436000Y86360000D02*
X59563000Y86233000D01*
D36*
X39880000Y58483500D02*
X39880000Y61150500D01*
X39880000Y58483500D02*
X39880000Y57401700D01*
X51171000Y48489000D02*
X50389200Y48489000D01*
D38*
X56134000Y87122000D02*
X59436000Y87122000D01*
X53086000Y86614000D02*
X53594000Y87122000D01*
X53594000Y87122000D02*
X56134000Y87122000D01*
D36*
X18328000Y14086800D02*
X19685900Y14086800D01*
X19685900Y14086800D02*
X19921900Y14322800D01*
X19675000Y4866800D02*
X19921900Y5113700D01*
X19921900Y5113700D02*
X19921900Y5228100D01*
X19675000Y3785000D02*
X19675000Y4866800D01*
X4856000Y29718000D02*
X3799200Y29718000D01*
X1854000Y27838400D02*
X1854000Y29133800D01*
X1854000Y29133800D02*
X3215000Y29133800D01*
X3215000Y29133800D02*
X3799200Y29718000D01*
X8384000Y18641900D02*
X8384000Y17528300D01*
X8137800Y21158200D02*
X8137800Y18888100D01*
X8137800Y18888100D02*
X8384000Y18641900D01*
X8384000Y18641900D02*
X12065300Y18641900D01*
X12065300Y18641900D02*
X12165200Y18542000D01*
X13097000Y18542000D02*
X12165200Y18542000D01*
X8384000Y16446500D02*
X8384000Y17528300D01*
X7356000Y21158200D02*
X8137800Y21158200D01*
X7258300Y21158200D02*
X7356000Y21158200D01*
X7258300Y21158200D02*
X7160600Y21158200D01*
X18328000Y15243600D02*
X18328000Y14086800D01*
X8384000Y12697700D02*
X8341000Y12654700D01*
X8341000Y12654700D02*
X8341000Y10744200D01*
X6502000Y22667200D02*
X7160600Y22008600D01*
X7160600Y22008600D02*
X7160600Y21158200D01*
X6502000Y23749000D02*
X6502000Y22667200D01*
X7584000Y26517600D02*
X7584000Y25435800D01*
X6502000Y23749000D02*
X6502000Y24830800D01*
X6502000Y24830800D02*
X7107000Y25435800D01*
X7107000Y25435800D02*
X7584000Y25435800D01*
X18893200Y3785000D02*
X18741200Y3937000D01*
X18741200Y3937000D02*
X15326000Y3937000D01*
D37*
X27940000Y42418000D02*
X27940000Y41656000D01*
X27940000Y41656000D02*
X28067000Y41529000D01*
D36*
X8384000Y13779500D02*
X8384000Y16446500D01*
X8384000Y13779500D02*
X8384000Y12697700D01*
X19675000Y3785000D02*
X18893200Y3785000D01*
D38*
X24638000Y42418000D02*
X27940000Y42418000D01*
X21590000Y41910000D02*
X22098000Y42418000D01*
X22098000Y42418000D02*
X24638000Y42418000D01*
X22098000Y87122000D02*
X24638000Y87122000D01*
X21590000Y86614000D02*
X22098000Y87122000D01*
X24638000Y87122000D02*
X27940000Y87122000D01*
D36*
X19675000Y48489000D02*
X18893200Y48489000D01*
X8384000Y58483500D02*
X8384000Y57401700D01*
X8384000Y58483500D02*
X8384000Y61150500D01*
D37*
X27940000Y86360000D02*
X28067000Y86233000D01*
X27940000Y87122000D02*
X27940000Y86360000D01*
D36*
X18741200Y48641000D02*
X15326000Y48641000D01*
X18893200Y48489000D02*
X18741200Y48641000D01*
X7107000Y70139800D02*
X7584000Y70139800D01*
X6502000Y69534800D02*
X7107000Y70139800D01*
X6502000Y68453000D02*
X6502000Y69534800D01*
X7584000Y71221600D02*
X7584000Y70139800D01*
X6502000Y68453000D02*
X6502000Y67371200D01*
X7160600Y66712600D02*
X7160600Y65862200D01*
X6502000Y67371200D02*
X7160600Y66712600D01*
X8341000Y57358700D02*
X8341000Y55448200D01*
X8384000Y57401700D02*
X8341000Y57358700D01*
X18328000Y59947600D02*
X18328000Y58790800D01*
X7258300Y65862200D02*
X7160600Y65862200D01*
X7258300Y65862200D02*
X7356000Y65862200D01*
X7356000Y65862200D02*
X8137800Y65862200D01*
X8384000Y61150500D02*
X8384000Y62232300D01*
X13097000Y63246000D02*
X12165200Y63246000D01*
X12065300Y63345900D02*
X12165200Y63246000D01*
X8384000Y63345900D02*
X12065300Y63345900D01*
X8137800Y63592100D02*
X8384000Y63345900D01*
X8137800Y65862200D02*
X8137800Y63592100D01*
X8384000Y63345900D02*
X8384000Y62232300D01*
X3215000Y73837800D02*
X3799200Y74422000D01*
X1854000Y73837800D02*
X3215000Y73837800D01*
X1854000Y72542400D02*
X1854000Y73837800D01*
X4856000Y74422000D02*
X3799200Y74422000D01*
X19675000Y48489000D02*
X19675000Y49570800D01*
X19921900Y49817700D02*
X19921900Y49932100D01*
X19675000Y49570800D02*
X19921900Y49817700D01*
X19685900Y58790800D02*
X19921900Y59026800D01*
X18328000Y58790800D02*
X19685900Y58790800D01*
X68578200Y8255000D02*
X68578200Y5522700D01*
X68578200Y5522700D02*
X68243200Y5187700D01*
X69510000Y8255000D02*
X68578200Y8255000D01*
X69433000Y9662400D02*
X69510000Y9585400D01*
X69510000Y9585400D02*
X69510000Y8255000D01*
X69433000Y10744200D02*
X69433000Y9662400D01*
X68578200Y52959000D02*
X68578200Y50226700D01*
X68578200Y50226700D02*
X68243200Y49891700D01*
X69510000Y52959000D02*
X68578200Y52959000D01*
X69433000Y54366400D02*
X69510000Y54289400D01*
X69510000Y54289400D02*
X69510000Y52959000D01*
X69433000Y55448200D02*
X69433000Y54366400D01*
X37082200Y8255000D02*
X37082200Y5522700D01*
X37082200Y5522700D02*
X36747200Y5187700D01*
X38014000Y8255000D02*
X37082200Y8255000D01*
X37937000Y9662400D02*
X38014000Y9585400D01*
X38014000Y9585400D02*
X38014000Y8255000D01*
X37937000Y10744200D02*
X37937000Y9662400D01*
X37082200Y52959000D02*
X37082200Y50226700D01*
X37082200Y50226700D02*
X36747200Y49891700D01*
X38014000Y52959000D02*
X37082200Y52959000D01*
X37937000Y54366400D02*
X38014000Y54289400D01*
X38014000Y54289400D02*
X38014000Y52959000D01*
X37937000Y55448200D02*
X37937000Y54366400D01*
X5586200Y8255000D02*
X5586200Y5522700D01*
X5586200Y5522700D02*
X5251200Y5187700D01*
X6518000Y8255000D02*
X5586200Y8255000D01*
X6441000Y9662400D02*
X6518000Y9585400D01*
X6518000Y9585400D02*
X6518000Y8255000D01*
X6441000Y10744200D02*
X6441000Y9662400D01*
X6441000Y55448200D02*
X6441000Y54366400D01*
X6518000Y54289400D02*
X6518000Y52959000D01*
X6441000Y54366400D02*
X6518000Y54289400D01*
X6518000Y52959000D02*
X5586200Y52959000D01*
X5586200Y50226700D02*
X5251200Y49891700D01*
X5586200Y52959000D02*
X5586200Y50226700D01*
X73690000Y32766000D02*
X74746800Y32766000D01*
X74746800Y32766000D02*
X76220000Y34239200D01*
X76220000Y34239200D02*
X84379000Y34239200D01*
X73161600Y32766000D02*
X73690000Y32766000D01*
X73161600Y32766000D02*
X72633200Y32766000D01*
X71598000Y29718000D02*
X71598000Y31149800D01*
X72633200Y32766000D02*
X72633200Y32185000D01*
X72633200Y32185000D02*
X71598000Y31149800D01*
X73690000Y77470000D02*
X74746800Y77470000D01*
X74746800Y77470000D02*
X76220000Y78943200D01*
X76220000Y78943200D02*
X84379000Y78943200D01*
X73161600Y77470000D02*
X73690000Y77470000D01*
X73161600Y77470000D02*
X72633200Y77470000D01*
X71598000Y74422000D02*
X71598000Y75853800D01*
X72633200Y77470000D02*
X72633200Y76889000D01*
X72633200Y76889000D02*
X71598000Y75853800D01*
X42194000Y32766000D02*
X43250800Y32766000D01*
X43250800Y32766000D02*
X44724000Y34239200D01*
X44724000Y34239200D02*
X52883000Y34239200D01*
X41665600Y32766000D02*
X42194000Y32766000D01*
X41665600Y32766000D02*
X41137200Y32766000D01*
X40102000Y29718000D02*
X40102000Y31149800D01*
X41137200Y32766000D02*
X41137200Y32185000D01*
X41137200Y32185000D02*
X40102000Y31149800D01*
X42194000Y77470000D02*
X43250800Y77470000D01*
X43250800Y77470000D02*
X44724000Y78943200D01*
X44724000Y78943200D02*
X52883000Y78943200D01*
X41665600Y77470000D02*
X42194000Y77470000D01*
X41665600Y77470000D02*
X41137200Y77470000D01*
X40102000Y74422000D02*
X40102000Y75853800D01*
X41137200Y77470000D02*
X41137200Y76889000D01*
X41137200Y76889000D02*
X40102000Y75853800D01*
X10698000Y32766000D02*
X11754800Y32766000D01*
X11754800Y32766000D02*
X13228000Y34239200D01*
X13228000Y34239200D02*
X21387000Y34239200D01*
X10169600Y32766000D02*
X10698000Y32766000D01*
X10169600Y32766000D02*
X9641200Y32766000D01*
X8606000Y29718000D02*
X8606000Y31149800D01*
X9641200Y32766000D02*
X9641200Y32185000D01*
X9641200Y32185000D02*
X8606000Y31149800D01*
X9641200Y76889000D02*
X8606000Y75853800D01*
X9641200Y77470000D02*
X9641200Y76889000D01*
X8606000Y74422000D02*
X8606000Y75853800D01*
X10169600Y77470000D02*
X9641200Y77470000D01*
X10169600Y77470000D02*
X10698000Y77470000D01*
X13228000Y78943200D02*
X21387000Y78943200D01*
X11754800Y77470000D02*
X13228000Y78943200D01*
X10698000Y77470000D02*
X11754800Y77470000D01*
D38*
X65938000Y36817300D02*
X68516000Y34239200D01*
X68516000Y34239200D02*
X69379000Y34239200D01*
X65938000Y81521300D02*
X68516000Y78943200D01*
X68516000Y78943200D02*
X69379000Y78943200D01*
X34442000Y36817300D02*
X37020000Y34239200D01*
X37020000Y34239200D02*
X37883000Y34239200D01*
X34442000Y81521300D02*
X37020000Y78943200D01*
X37020000Y78943200D02*
X37883000Y78943200D01*
X2946000Y36817300D02*
X5524000Y34239200D01*
X5524000Y34239200D02*
X6387000Y34239200D01*
X5524000Y78943200D02*
X6387000Y78943200D01*
X2946000Y81521300D02*
X5524000Y78943200D01*
D36*
X74218800Y5689600D02*
X74218800Y6197600D01*
X75261200Y5155200D02*
X74726800Y5689600D01*
X74726800Y5689600D02*
X74218800Y5689600D01*
X74218800Y5689600D02*
X72416800Y5689600D01*
X71485000Y5689600D02*
X72416800Y5689600D01*
X76027100Y3937000D02*
X76027100Y4389300D01*
X76027100Y4389300D02*
X75261200Y5155200D01*
X75261200Y5155200D02*
X78070000Y7964000D01*
X78070000Y7964000D02*
X78070000Y9343600D01*
X76418000Y3937000D02*
X76027100Y3937000D01*
X74218800Y50393600D02*
X74218800Y50901600D01*
X75261200Y49859200D02*
X74726800Y50393600D01*
X74726800Y50393600D02*
X74218800Y50393600D01*
X74218800Y50393600D02*
X72416800Y50393600D01*
X71485000Y50393600D02*
X72416800Y50393600D01*
X76027100Y48641000D02*
X76027100Y49093300D01*
X76027100Y49093300D02*
X75261200Y49859200D01*
X75261200Y49859200D02*
X78070000Y52668000D01*
X78070000Y52668000D02*
X78070000Y54047600D01*
X76418000Y48641000D02*
X76027100Y48641000D01*
X42722800Y5689600D02*
X42722800Y6197600D01*
X43765200Y5155200D02*
X43230800Y5689600D01*
X43230800Y5689600D02*
X42722800Y5689600D01*
X42722800Y5689600D02*
X40920800Y5689600D01*
X39989000Y5689600D02*
X40920800Y5689600D01*
X44531100Y3937000D02*
X44531100Y4389300D01*
X44531100Y4389300D02*
X43765200Y5155200D01*
X43765200Y5155200D02*
X46574000Y7964000D01*
X46574000Y7964000D02*
X46574000Y9343600D01*
X44922000Y3937000D02*
X44531100Y3937000D01*
X42722800Y50393600D02*
X42722800Y50901600D01*
X43765200Y49859200D02*
X43230800Y50393600D01*
X43230800Y50393600D02*
X42722800Y50393600D01*
X42722800Y50393600D02*
X40920800Y50393600D01*
X39989000Y50393600D02*
X40920800Y50393600D01*
X44531100Y48641000D02*
X44531100Y49093300D01*
X44531100Y49093300D02*
X43765200Y49859200D01*
X43765200Y49859200D02*
X46574000Y52668000D01*
X46574000Y52668000D02*
X46574000Y54047600D01*
X44922000Y48641000D02*
X44531100Y48641000D01*
X11226800Y5689600D02*
X11226800Y6197600D01*
X12269200Y5155200D02*
X11734800Y5689600D01*
X11734800Y5689600D02*
X11226800Y5689600D01*
X11226800Y5689600D02*
X9424800Y5689600D01*
X8493000Y5689600D02*
X9424800Y5689600D01*
X13035100Y3937000D02*
X13035100Y4389300D01*
X13035100Y4389300D02*
X12269200Y5155200D01*
X12269200Y5155200D02*
X15078000Y7964000D01*
X15078000Y7964000D02*
X15078000Y9343600D01*
X13426000Y3937000D02*
X13035100Y3937000D01*
X13426000Y48641000D02*
X13035100Y48641000D01*
X15078000Y52668000D02*
X15078000Y54047600D01*
X12269200Y49859200D02*
X15078000Y52668000D01*
X13035100Y49093300D02*
X12269200Y49859200D01*
X13035100Y48641000D02*
X13035100Y49093300D01*
X8493000Y50393600D02*
X9424800Y50393600D01*
X11226800Y50393600D02*
X9424800Y50393600D01*
X11734800Y50393600D02*
X11226800Y50393600D01*
X12269200Y49859200D02*
X11734800Y50393600D01*
X11226800Y50393600D02*
X11226800Y50901600D01*
X81970000Y15243600D02*
X81970000Y16400400D01*
X82706000Y17118200D02*
X81988200Y16400400D01*
X81988200Y16400400D02*
X81970000Y16400400D01*
X81321000Y26263600D02*
X82252800Y26263600D01*
X87630000Y32258000D02*
X86660800Y32258000D01*
X86660800Y32258000D02*
X84927400Y30524600D01*
X84927400Y30524600D02*
X84927400Y29173000D01*
X84927400Y29173000D02*
X83372300Y27617900D01*
X83372300Y27617900D02*
X82936700Y27617900D01*
X82936700Y27617900D02*
X82252800Y26934000D01*
X82252800Y26934000D02*
X82252800Y26263600D01*
X81970000Y59947600D02*
X81970000Y61104400D01*
X82706000Y61822200D02*
X81988200Y61104400D01*
X81988200Y61104400D02*
X81970000Y61104400D01*
X81321000Y70967600D02*
X82252800Y70967600D01*
X87630000Y76962000D02*
X86660800Y76962000D01*
X86660800Y76962000D02*
X84927400Y75228600D01*
X84927400Y75228600D02*
X84927400Y73877000D01*
X84927400Y73877000D02*
X83372300Y72321900D01*
X83372300Y72321900D02*
X82936700Y72321900D01*
X82936700Y72321900D02*
X82252800Y71638000D01*
X82252800Y71638000D02*
X82252800Y70967600D01*
X50474000Y15243600D02*
X50474000Y16400400D01*
X51210000Y17118200D02*
X50492200Y16400400D01*
X50492200Y16400400D02*
X50474000Y16400400D01*
X49825000Y26263600D02*
X50756800Y26263600D01*
X56134000Y32258000D02*
X55164800Y32258000D01*
X55164800Y32258000D02*
X53431400Y30524600D01*
X53431400Y30524600D02*
X53431400Y29173000D01*
X53431400Y29173000D02*
X51876300Y27617900D01*
X51876300Y27617900D02*
X51440700Y27617900D01*
X51440700Y27617900D02*
X50756800Y26934000D01*
X50756800Y26934000D02*
X50756800Y26263600D01*
X50474000Y59947600D02*
X50474000Y61104400D01*
X51210000Y61822200D02*
X50492200Y61104400D01*
X50492200Y61104400D02*
X50474000Y61104400D01*
X49825000Y70967600D02*
X50756800Y70967600D01*
X56134000Y76962000D02*
X55164800Y76962000D01*
X55164800Y76962000D02*
X53431400Y75228600D01*
X53431400Y75228600D02*
X53431400Y73877000D01*
X53431400Y73877000D02*
X51876300Y72321900D01*
X51876300Y72321900D02*
X51440700Y72321900D01*
X51440700Y72321900D02*
X50756800Y71638000D01*
X50756800Y71638000D02*
X50756800Y70967600D01*
X18978000Y15243600D02*
X18978000Y16400400D01*
X19714000Y17118200D02*
X18996200Y16400400D01*
X18996200Y16400400D02*
X18978000Y16400400D01*
X18329000Y26263600D02*
X19260800Y26263600D01*
X24638000Y32258000D02*
X23668800Y32258000D01*
X23668800Y32258000D02*
X21935400Y30524600D01*
X21935400Y30524600D02*
X21935400Y29173000D01*
X21935400Y29173000D02*
X20380300Y27617900D01*
X20380300Y27617900D02*
X19944700Y27617900D01*
X19944700Y27617900D02*
X19260800Y26934000D01*
X19260800Y26934000D02*
X19260800Y26263600D01*
X19260800Y71638000D02*
X19260800Y70967600D01*
X19944700Y72321900D02*
X19260800Y71638000D01*
X20380300Y72321900D02*
X19944700Y72321900D01*
X21935400Y73877000D02*
X20380300Y72321900D01*
X21935400Y75228600D02*
X21935400Y73877000D01*
X23668800Y76962000D02*
X21935400Y75228600D01*
X24638000Y76962000D02*
X23668800Y76962000D01*
X18329000Y70967600D02*
X19260800Y70967600D01*
X18996200Y61104400D02*
X18978000Y61104400D01*
X19714000Y61822200D02*
X18996200Y61104400D01*
X18978000Y59947600D02*
X18978000Y61104400D01*
X86514000Y4950200D02*
X86514000Y6031400D01*
X86514000Y6031400D02*
X86410800Y6134600D01*
X85348800Y3785000D02*
X86514000Y4950200D01*
X86514000Y4950200D02*
X87679200Y3785000D01*
X88611000Y3785000D02*
X87679200Y3785000D01*
X84567000Y3785000D02*
X85348800Y3785000D01*
X86410800Y6134600D02*
X84989000Y7556400D01*
X84989000Y7556400D02*
X79319900Y7556400D01*
X79319900Y7556400D02*
X78720000Y8156300D01*
X78720000Y8156300D02*
X78720000Y9343600D01*
X86514000Y49654200D02*
X86514000Y50735400D01*
X86514000Y50735400D02*
X86410800Y50838600D01*
X85348800Y48489000D02*
X86514000Y49654200D01*
X86514000Y49654200D02*
X87679200Y48489000D01*
X88611000Y48489000D02*
X87679200Y48489000D01*
X84567000Y48489000D02*
X85348800Y48489000D01*
X86410800Y50838600D02*
X84989000Y52260400D01*
X84989000Y52260400D02*
X79319900Y52260400D01*
X79319900Y52260400D02*
X78720000Y52860300D01*
X78720000Y52860300D02*
X78720000Y54047600D01*
X55018000Y4950200D02*
X55018000Y6031400D01*
X55018000Y6031400D02*
X54914800Y6134600D01*
X53852800Y3785000D02*
X55018000Y4950200D01*
X55018000Y4950200D02*
X56183200Y3785000D01*
X57115000Y3785000D02*
X56183200Y3785000D01*
X53071000Y3785000D02*
X53852800Y3785000D01*
X54914800Y6134600D02*
X53493000Y7556400D01*
X53493000Y7556400D02*
X47823900Y7556400D01*
X47823900Y7556400D02*
X47224000Y8156300D01*
X47224000Y8156300D02*
X47224000Y9343600D01*
X55018000Y49654200D02*
X55018000Y50735400D01*
X55018000Y50735400D02*
X54914800Y50838600D01*
X53852800Y48489000D02*
X55018000Y49654200D01*
X55018000Y49654200D02*
X56183200Y48489000D01*
X57115000Y48489000D02*
X56183200Y48489000D01*
X53071000Y48489000D02*
X53852800Y48489000D01*
X54914800Y50838600D02*
X53493000Y52260400D01*
X53493000Y52260400D02*
X47823900Y52260400D01*
X47823900Y52260400D02*
X47224000Y52860300D01*
X47224000Y52860300D02*
X47224000Y54047600D01*
X23522000Y4950200D02*
X23522000Y6031400D01*
X23522000Y6031400D02*
X23418800Y6134600D01*
X22356800Y3785000D02*
X23522000Y4950200D01*
X23522000Y4950200D02*
X24687200Y3785000D01*
X25619000Y3785000D02*
X24687200Y3785000D01*
X21575000Y3785000D02*
X22356800Y3785000D01*
X23418800Y6134600D02*
X21997000Y7556400D01*
X21997000Y7556400D02*
X16327900Y7556400D01*
X16327900Y7556400D02*
X15728000Y8156300D01*
X15728000Y8156300D02*
X15728000Y9343600D01*
X15728000Y52860300D02*
X15728000Y54047600D01*
X16327900Y52260400D02*
X15728000Y52860300D01*
X21997000Y52260400D02*
X16327900Y52260400D01*
X23418800Y50838600D02*
X21997000Y52260400D01*
X21575000Y48489000D02*
X22356800Y48489000D01*
X25619000Y48489000D02*
X24687200Y48489000D01*
X23522000Y49654200D02*
X24687200Y48489000D01*
X22356800Y48489000D02*
X23522000Y49654200D01*
X23522000Y50735400D02*
X23418800Y50838600D01*
X23522000Y49654200D02*
X23522000Y50735400D01*
X79370000Y15243600D02*
X79370000Y16400400D01*
X79370000Y16400400D02*
X78486100Y16400400D01*
X78486100Y16400400D02*
X77194900Y17691600D01*
X77194900Y17691600D02*
X77194900Y19393800D01*
X77194900Y19393800D02*
X79873700Y22072600D01*
X79873700Y22072600D02*
X80442000Y22072600D01*
X79370000Y59947600D02*
X79370000Y61104400D01*
X79370000Y61104400D02*
X78486100Y61104400D01*
X78486100Y61104400D02*
X77194900Y62395600D01*
X77194900Y62395600D02*
X77194900Y64097800D01*
X77194900Y64097800D02*
X79873700Y66776600D01*
X79873700Y66776600D02*
X80442000Y66776600D01*
X47874000Y15243600D02*
X47874000Y16400400D01*
X47874000Y16400400D02*
X46990100Y16400400D01*
X46990100Y16400400D02*
X45698900Y17691600D01*
X45698900Y17691600D02*
X45698900Y19393800D01*
X45698900Y19393800D02*
X48377700Y22072600D01*
X48377700Y22072600D02*
X48946000Y22072600D01*
X47874000Y59947600D02*
X47874000Y61104400D01*
X47874000Y61104400D02*
X46990100Y61104400D01*
X46990100Y61104400D02*
X45698900Y62395600D01*
X45698900Y62395600D02*
X45698900Y64097800D01*
X45698900Y64097800D02*
X48377700Y66776600D01*
X48377700Y66776600D02*
X48946000Y66776600D01*
X16378000Y15243600D02*
X16378000Y16400400D01*
X16378000Y16400400D02*
X15494100Y16400400D01*
X15494100Y16400400D02*
X14202900Y17691600D01*
X14202900Y17691600D02*
X14202900Y19393800D01*
X14202900Y19393800D02*
X16881700Y22072600D01*
X16881700Y22072600D02*
X17450000Y22072600D01*
X16881700Y66776600D02*
X17450000Y66776600D01*
X14202900Y64097800D02*
X16881700Y66776600D01*
X14202900Y62395600D02*
X14202900Y64097800D01*
X15494100Y61104400D02*
X14202900Y62395600D01*
X16378000Y61104400D02*
X15494100Y61104400D01*
X16378000Y59947600D02*
X16378000Y61104400D01*
X72248000Y21158200D02*
X76987600Y21158200D01*
X76987600Y21158200D02*
X77902000Y22072600D01*
X72248000Y65862200D02*
X76987600Y65862200D01*
X76987600Y65862200D02*
X77902000Y66776600D01*
X40752000Y21158200D02*
X45491600Y21158200D01*
X45491600Y21158200D02*
X46406000Y22072600D01*
X40752000Y65862200D02*
X45491600Y65862200D01*
X45491600Y65862200D02*
X46406000Y66776600D01*
X9256000Y21158200D02*
X13995600Y21158200D01*
X13995600Y21158200D02*
X14910000Y22072600D01*
X13995600Y65862200D02*
X14910000Y66776600D01*
X9256000Y65862200D02*
X13995600Y65862200D01*
X76120000Y15243600D02*
X76120000Y12492300D01*
X76120000Y12492300D02*
X73870500Y10242800D01*
X73870500Y10242800D02*
X72973500Y10242800D01*
X72973500Y10242800D02*
X72309900Y10906400D01*
X72309900Y10906400D02*
X72309900Y11913800D01*
X76120000Y59947600D02*
X76120000Y57196300D01*
X76120000Y57196300D02*
X73870500Y54946800D01*
X73870500Y54946800D02*
X72973500Y54946800D01*
X72973500Y54946800D02*
X72309900Y55610400D01*
X72309900Y55610400D02*
X72309900Y56617800D01*
X44624000Y15243600D02*
X44624000Y12492300D01*
X44624000Y12492300D02*
X42374500Y10242800D01*
X42374500Y10242800D02*
X41477500Y10242800D01*
X41477500Y10242800D02*
X40813900Y10906400D01*
X40813900Y10906400D02*
X40813900Y11913800D01*
X44624000Y59947600D02*
X44624000Y57196300D01*
X44624000Y57196300D02*
X42374500Y54946800D01*
X42374500Y54946800D02*
X41477500Y54946800D01*
X41477500Y54946800D02*
X40813900Y55610400D01*
X40813900Y55610400D02*
X40813900Y56617800D01*
X13128000Y15243600D02*
X13128000Y12492300D01*
X13128000Y12492300D02*
X10878500Y10242800D01*
X10878500Y10242800D02*
X9981500Y10242800D01*
X9981500Y10242800D02*
X9317900Y10906400D01*
X9317900Y10906400D02*
X9317900Y11913800D01*
X9317900Y55610400D02*
X9317900Y56617800D01*
X9981500Y54946800D02*
X9317900Y55610400D01*
X10878500Y54946800D02*
X9981500Y54946800D01*
X13128000Y57196300D02*
X10878500Y54946800D01*
X13128000Y59947600D02*
X13128000Y57196300D01*
X76770000Y15243600D02*
X76770000Y16187700D01*
X76770000Y16187700D02*
X76595000Y16362700D01*
X76595000Y16362700D02*
X75664700Y16362700D01*
X75664700Y16362700D02*
X74215300Y14913300D01*
X74215300Y14913300D02*
X74215300Y12598600D01*
X76770000Y59947600D02*
X76770000Y60891700D01*
X76770000Y60891700D02*
X76595000Y61066700D01*
X76595000Y61066700D02*
X75664700Y61066700D01*
X75664700Y61066700D02*
X74215300Y59617300D01*
X74215300Y59617300D02*
X74215300Y57302600D01*
X45274000Y15243600D02*
X45274000Y16187700D01*
X45274000Y16187700D02*
X45099000Y16362700D01*
X45099000Y16362700D02*
X44168700Y16362700D01*
X44168700Y16362700D02*
X42719300Y14913300D01*
X42719300Y14913300D02*
X42719300Y12598600D01*
X45274000Y59947600D02*
X45274000Y60891700D01*
X45274000Y60891700D02*
X45099000Y61066700D01*
X45099000Y61066700D02*
X44168700Y61066700D01*
X44168700Y61066700D02*
X42719300Y59617300D01*
X42719300Y59617300D02*
X42719300Y57302600D01*
X13778000Y15243600D02*
X13778000Y16187700D01*
X13778000Y16187700D02*
X13603000Y16362700D01*
X13603000Y16362700D02*
X12672700Y16362700D01*
X12672700Y16362700D02*
X11223300Y14913300D01*
X11223300Y14913300D02*
X11223300Y12598600D01*
X11223300Y59617300D02*
X11223300Y57302600D01*
X12672700Y61066700D02*
X11223300Y59617300D01*
X13603000Y61066700D02*
X12672700Y61066700D01*
X13778000Y60891700D02*
X13603000Y61066700D01*
X13778000Y59947600D02*
X13778000Y60891700D01*
X74709300Y17315600D02*
X76504800Y17315600D01*
X76504800Y17315600D02*
X77420000Y16400400D01*
X74057800Y16446500D02*
X74057800Y16664100D01*
X74057800Y16664100D02*
X74709300Y17315600D01*
X74709300Y17315600D02*
X74709300Y17641300D01*
X77420000Y15243600D02*
X77420000Y16400400D01*
X73276000Y16446500D02*
X74057800Y16446500D01*
X74709300Y62019600D02*
X76504800Y62019600D01*
X76504800Y62019600D02*
X77420000Y61104400D01*
X74057800Y61150500D02*
X74057800Y61368100D01*
X74057800Y61368100D02*
X74709300Y62019600D01*
X74709300Y62019600D02*
X74709300Y62345300D01*
X77420000Y59947600D02*
X77420000Y61104400D01*
X73276000Y61150500D02*
X74057800Y61150500D01*
X43213300Y17315600D02*
X45008800Y17315600D01*
X45008800Y17315600D02*
X45924000Y16400400D01*
X42561800Y16446500D02*
X42561800Y16664100D01*
X42561800Y16664100D02*
X43213300Y17315600D01*
X43213300Y17315600D02*
X43213300Y17641300D01*
X45924000Y15243600D02*
X45924000Y16400400D01*
X41780000Y16446500D02*
X42561800Y16446500D01*
X43213300Y62019600D02*
X45008800Y62019600D01*
X45008800Y62019600D02*
X45924000Y61104400D01*
X42561800Y61150500D02*
X42561800Y61368100D01*
X42561800Y61368100D02*
X43213300Y62019600D01*
X43213300Y62019600D02*
X43213300Y62345300D01*
X45924000Y59947600D02*
X45924000Y61104400D01*
X41780000Y61150500D02*
X42561800Y61150500D01*
X11717300Y17315600D02*
X13512800Y17315600D01*
X13512800Y17315600D02*
X14428000Y16400400D01*
X11065800Y16446500D02*
X11065800Y16664100D01*
X11065800Y16664100D02*
X11717300Y17315600D01*
X11717300Y17315600D02*
X11717300Y17641300D01*
X14428000Y15243600D02*
X14428000Y16400400D01*
X10284000Y16446500D02*
X11065800Y16446500D01*
X10284000Y61150500D02*
X11065800Y61150500D01*
X14428000Y59947600D02*
X14428000Y61104400D01*
X11717300Y62019600D02*
X11717300Y62345300D01*
X11065800Y61368100D02*
X11717300Y62019600D01*
X11065800Y61150500D02*
X11065800Y61368100D01*
X13512800Y62019600D02*
X14428000Y61104400D01*
X11717300Y62019600D02*
X13512800Y62019600D01*
X78070000Y15243600D02*
X78070000Y14086800D01*
X78070000Y14086800D02*
X77781200Y14086800D01*
X77781200Y14086800D02*
X77471600Y13777200D01*
X78070000Y59947600D02*
X78070000Y58790800D01*
X78070000Y58790800D02*
X77781200Y58790800D01*
X77781200Y58790800D02*
X77471600Y58481200D01*
X46574000Y15243600D02*
X46574000Y14086800D01*
X46574000Y14086800D02*
X46285200Y14086800D01*
X46285200Y14086800D02*
X45975600Y13777200D01*
X46574000Y59947600D02*
X46574000Y58790800D01*
X46574000Y58790800D02*
X46285200Y58790800D01*
X46285200Y58790800D02*
X45975600Y58481200D01*
X15078000Y15243600D02*
X15078000Y14086800D01*
X15078000Y14086800D02*
X14789200Y14086800D01*
X14789200Y14086800D02*
X14479600Y13777200D01*
X14789200Y58790800D02*
X14479600Y58481200D01*
X15078000Y58790800D02*
X14789200Y58790800D01*
X15078000Y59947600D02*
X15078000Y58790800D01*
X84242000Y13395400D02*
X84242000Y16332200D01*
X84242000Y13284200D02*
X84242000Y13395400D01*
X78720000Y14086800D02*
X79411400Y13395400D01*
X79411400Y13395400D02*
X84242000Y13395400D01*
X78720000Y15243600D02*
X78720000Y14086800D01*
X84242000Y58099400D02*
X84242000Y61036200D01*
X84242000Y57988200D02*
X84242000Y58099400D01*
X78720000Y58790800D02*
X79411400Y58099400D01*
X79411400Y58099400D02*
X84242000Y58099400D01*
X78720000Y59947600D02*
X78720000Y58790800D01*
X52746000Y13395400D02*
X52746000Y16332200D01*
X52746000Y13284200D02*
X52746000Y13395400D01*
X47224000Y14086800D02*
X47915400Y13395400D01*
X47915400Y13395400D02*
X52746000Y13395400D01*
X47224000Y15243600D02*
X47224000Y14086800D01*
X52746000Y58099400D02*
X52746000Y61036200D01*
X52746000Y57988200D02*
X52746000Y58099400D01*
X47224000Y58790800D02*
X47915400Y58099400D01*
X47915400Y58099400D02*
X52746000Y58099400D01*
X47224000Y59947600D02*
X47224000Y58790800D01*
X21250000Y13395400D02*
X21250000Y16332200D01*
X21250000Y13284200D02*
X21250000Y13395400D01*
X15728000Y14086800D02*
X16419400Y13395400D01*
X16419400Y13395400D02*
X21250000Y13395400D01*
X15728000Y15243600D02*
X15728000Y14086800D01*
X15728000Y59947600D02*
X15728000Y58790800D01*
X16419400Y58099400D02*
X21250000Y58099400D01*
X15728000Y58790800D02*
X16419400Y58099400D01*
X21250000Y57988200D02*
X21250000Y58099400D01*
X21250000Y58099400D02*
X21250000Y61036200D01*
X77707800Y26212800D02*
X77707800Y25724200D01*
X77707800Y25724200D02*
X78414400Y25017600D01*
X78414400Y25017600D02*
X88354300Y25017600D01*
X88354300Y25017600D02*
X91267000Y22104900D01*
X91267000Y22104900D02*
X91267000Y10001200D01*
X91267000Y10001200D02*
X89490300Y8224500D01*
X89490300Y8224500D02*
X79545000Y8224500D01*
X79545000Y8224500D02*
X79370000Y8399500D01*
X79370000Y8399500D02*
X79370000Y9343600D01*
X76926000Y26212800D02*
X77707800Y26212800D01*
X77707800Y70916800D02*
X77707800Y70428200D01*
X77707800Y70428200D02*
X78414400Y69721600D01*
X78414400Y69721600D02*
X88354300Y69721600D01*
X88354300Y69721600D02*
X91267000Y66808900D01*
X91267000Y66808900D02*
X91267000Y54705200D01*
X91267000Y54705200D02*
X89490300Y52928500D01*
X89490300Y52928500D02*
X79545000Y52928500D01*
X79545000Y52928500D02*
X79370000Y53103500D01*
X79370000Y53103500D02*
X79370000Y54047600D01*
X76926000Y70916800D02*
X77707800Y70916800D01*
X46211800Y26212800D02*
X46211800Y25724200D01*
X46211800Y25724200D02*
X46918400Y25017600D01*
X46918400Y25017600D02*
X56858300Y25017600D01*
X56858300Y25017600D02*
X59771000Y22104900D01*
X59771000Y22104900D02*
X59771000Y10001200D01*
X59771000Y10001200D02*
X57994300Y8224500D01*
X57994300Y8224500D02*
X48049000Y8224500D01*
X48049000Y8224500D02*
X47874000Y8399500D01*
X47874000Y8399500D02*
X47874000Y9343600D01*
X45430000Y26212800D02*
X46211800Y26212800D01*
X46211800Y70916800D02*
X46211800Y70428200D01*
X46211800Y70428200D02*
X46918400Y69721600D01*
X46918400Y69721600D02*
X56858300Y69721600D01*
X56858300Y69721600D02*
X59771000Y66808900D01*
X59771000Y66808900D02*
X59771000Y54705200D01*
X59771000Y54705200D02*
X57994300Y52928500D01*
X57994300Y52928500D02*
X48049000Y52928500D01*
X48049000Y52928500D02*
X47874000Y53103500D01*
X47874000Y53103500D02*
X47874000Y54047600D01*
X45430000Y70916800D02*
X46211800Y70916800D01*
X14715800Y26212800D02*
X14715800Y25724200D01*
X14715800Y25724200D02*
X15422400Y25017600D01*
X15422400Y25017600D02*
X25362300Y25017600D01*
X25362300Y25017600D02*
X28275000Y22104900D01*
X28275000Y22104900D02*
X28275000Y10001200D01*
X28275000Y10001200D02*
X26498300Y8224500D01*
X26498300Y8224500D02*
X16553000Y8224500D01*
X16553000Y8224500D02*
X16378000Y8399500D01*
X16378000Y8399500D02*
X16378000Y9343600D01*
X13934000Y26212800D02*
X14715800Y26212800D01*
X13934000Y70916800D02*
X14715800Y70916800D01*
X16378000Y53103500D02*
X16378000Y54047600D01*
X16553000Y52928500D02*
X16378000Y53103500D01*
X26498300Y52928500D02*
X16553000Y52928500D01*
X28275000Y54705200D02*
X26498300Y52928500D01*
X28275000Y66808900D02*
X28275000Y54705200D01*
X25362300Y69721600D02*
X28275000Y66808900D01*
X15422400Y69721600D02*
X25362300Y69721600D01*
X14715800Y70428200D02*
X15422400Y69721600D01*
X14715800Y70916800D02*
X14715800Y70428200D01*
X77420000Y9343600D02*
X77420000Y8186800D01*
X64846000Y22758400D02*
X67802100Y19802300D01*
X67802100Y19802300D02*
X67802100Y15936900D01*
X67802100Y15936900D02*
X68400100Y15338900D01*
X68400100Y15338900D02*
X68898600Y15338900D01*
X68898600Y15338900D02*
X70558000Y13679500D01*
X70558000Y13679500D02*
X70558000Y9918400D01*
X70558000Y9918400D02*
X71160900Y9315500D01*
X71160900Y9315500D02*
X74529500Y9315500D01*
X74529500Y9315500D02*
X75658200Y8186800D01*
X75658200Y8186800D02*
X77420000Y8186800D01*
X77420000Y54047600D02*
X77420000Y52890800D01*
X64846000Y67462400D02*
X67802100Y64506300D01*
X67802100Y64506300D02*
X67802100Y60640900D01*
X67802100Y60640900D02*
X68400100Y60042900D01*
X68400100Y60042900D02*
X68898600Y60042900D01*
X68898600Y60042900D02*
X70558000Y58383500D01*
X70558000Y58383500D02*
X70558000Y54622400D01*
X70558000Y54622400D02*
X71160900Y54019500D01*
X71160900Y54019500D02*
X74529500Y54019500D01*
X74529500Y54019500D02*
X75658200Y52890800D01*
X75658200Y52890800D02*
X77420000Y52890800D01*
X45924000Y9343600D02*
X45924000Y8186800D01*
X33350000Y22758400D02*
X36306100Y19802300D01*
X36306100Y19802300D02*
X36306100Y15936900D01*
X36306100Y15936900D02*
X36904100Y15338900D01*
X36904100Y15338900D02*
X37402600Y15338900D01*
X37402600Y15338900D02*
X39062000Y13679500D01*
X39062000Y13679500D02*
X39062000Y9918400D01*
X39062000Y9918400D02*
X39664900Y9315500D01*
X39664900Y9315500D02*
X43033500Y9315500D01*
X43033500Y9315500D02*
X44162200Y8186800D01*
X44162200Y8186800D02*
X45924000Y8186800D01*
X45924000Y54047600D02*
X45924000Y52890800D01*
X33350000Y67462400D02*
X36306100Y64506300D01*
X36306100Y64506300D02*
X36306100Y60640900D01*
X36306100Y60640900D02*
X36904100Y60042900D01*
X36904100Y60042900D02*
X37402600Y60042900D01*
X37402600Y60042900D02*
X39062000Y58383500D01*
X39062000Y58383500D02*
X39062000Y54622400D01*
X39062000Y54622400D02*
X39664900Y54019500D01*
X39664900Y54019500D02*
X43033500Y54019500D01*
X43033500Y54019500D02*
X44162200Y52890800D01*
X44162200Y52890800D02*
X45924000Y52890800D01*
X14428000Y9343600D02*
X14428000Y8186800D01*
X1854000Y22758400D02*
X4810100Y19802300D01*
X4810100Y19802300D02*
X4810100Y15936900D01*
X4810100Y15936900D02*
X5408100Y15338900D01*
X5408100Y15338900D02*
X5906600Y15338900D01*
X5906600Y15338900D02*
X7566000Y13679500D01*
X7566000Y13679500D02*
X7566000Y9918400D01*
X7566000Y9918400D02*
X8168900Y9315500D01*
X8168900Y9315500D02*
X11537500Y9315500D01*
X11537500Y9315500D02*
X12666200Y8186800D01*
X12666200Y8186800D02*
X14428000Y8186800D01*
X12666200Y52890800D02*
X14428000Y52890800D01*
X11537500Y54019500D02*
X12666200Y52890800D01*
X8168900Y54019500D02*
X11537500Y54019500D01*
X7566000Y54622400D02*
X8168900Y54019500D01*
X7566000Y58383500D02*
X7566000Y54622400D01*
X5906600Y60042900D02*
X7566000Y58383500D01*
X5408100Y60042900D02*
X5906600Y60042900D01*
X4810100Y60640900D02*
X5408100Y60042900D01*
X4810100Y64506300D02*
X4810100Y60640900D01*
X1854000Y67462400D02*
X4810100Y64506300D01*
X14428000Y54047600D02*
X14428000Y52890800D01*
X89611000Y11430000D02*
X87929200Y11430000D01*
X84665000Y10462700D02*
X76945000Y10462700D01*
X76945000Y10462700D02*
X76770000Y10287700D01*
X76770000Y10287700D02*
X76770000Y9343600D01*
X84665000Y10464800D02*
X84665000Y10462700D01*
X84665000Y10311200D02*
X84665000Y10462700D01*
X84665000Y10311200D02*
X84665000Y9398000D01*
X87929200Y11430000D02*
X87929200Y11219800D01*
X87929200Y11219800D02*
X86107400Y9398000D01*
X86107400Y9398000D02*
X84665000Y9398000D01*
X89611000Y56134000D02*
X87929200Y56134000D01*
X84665000Y55166700D02*
X76945000Y55166700D01*
X76945000Y55166700D02*
X76770000Y54991700D01*
X76770000Y54991700D02*
X76770000Y54047600D01*
X84665000Y55168800D02*
X84665000Y55166700D01*
X84665000Y55015200D02*
X84665000Y55166700D01*
X84665000Y55015200D02*
X84665000Y54102000D01*
X87929200Y56134000D02*
X87929200Y55923800D01*
X87929200Y55923800D02*
X86107400Y54102000D01*
X86107400Y54102000D02*
X84665000Y54102000D01*
X58115000Y11430000D02*
X56433200Y11430000D01*
X53169000Y10462700D02*
X45449000Y10462700D01*
X45449000Y10462700D02*
X45274000Y10287700D01*
X45274000Y10287700D02*
X45274000Y9343600D01*
X53169000Y10464800D02*
X53169000Y10462700D01*
X53169000Y10311200D02*
X53169000Y10462700D01*
X53169000Y10311200D02*
X53169000Y9398000D01*
X56433200Y11430000D02*
X56433200Y11219800D01*
X56433200Y11219800D02*
X54611400Y9398000D01*
X54611400Y9398000D02*
X53169000Y9398000D01*
X58115000Y56134000D02*
X56433200Y56134000D01*
X53169000Y55166700D02*
X45449000Y55166700D01*
X45449000Y55166700D02*
X45274000Y54991700D01*
X45274000Y54991700D02*
X45274000Y54047600D01*
X53169000Y55168800D02*
X53169000Y55166700D01*
X53169000Y55015200D02*
X53169000Y55166700D01*
X53169000Y55015200D02*
X53169000Y54102000D01*
X56433200Y56134000D02*
X56433200Y55923800D01*
X56433200Y55923800D02*
X54611400Y54102000D01*
X54611400Y54102000D02*
X53169000Y54102000D01*
X26619000Y11430000D02*
X24937200Y11430000D01*
X21673000Y10462700D02*
X13953000Y10462700D01*
X13953000Y10462700D02*
X13778000Y10287700D01*
X13778000Y10287700D02*
X13778000Y9343600D01*
X21673000Y10464800D02*
X21673000Y10462700D01*
X21673000Y10311200D02*
X21673000Y10462700D01*
X21673000Y10311200D02*
X21673000Y9398000D01*
X24937200Y11430000D02*
X24937200Y11219800D01*
X24937200Y11219800D02*
X23115400Y9398000D01*
X23115400Y9398000D02*
X21673000Y9398000D01*
X23115400Y54102000D02*
X21673000Y54102000D01*
X24937200Y55923800D02*
X23115400Y54102000D01*
X24937200Y56134000D02*
X24937200Y55923800D01*
X21673000Y55015200D02*
X21673000Y54102000D01*
X21673000Y55015200D02*
X21673000Y55166700D01*
X21673000Y55168800D02*
X21673000Y55166700D01*
X13778000Y54991700D02*
X13778000Y54047600D01*
X13953000Y55166700D02*
X13778000Y54991700D01*
X21673000Y55166700D02*
X13953000Y55166700D01*
X26619000Y56134000D02*
X24937200Y56134000D01*
X84394000Y19532600D02*
X85175800Y19532600D01*
X85397900Y16332200D02*
X85397900Y12880900D01*
X85397900Y12880900D02*
X83843600Y11326600D01*
X83843600Y11326600D02*
X76946200Y11326600D01*
X76946200Y11326600D02*
X76120000Y10500400D01*
X85531600Y16332200D02*
X85397900Y16332200D01*
X85175800Y19532600D02*
X85175800Y16554300D01*
X85175800Y16554300D02*
X85397900Y16332200D01*
X76120000Y9343600D02*
X76120000Y10500400D01*
X86142000Y16332200D02*
X85531600Y16332200D01*
X84394000Y64236600D02*
X85175800Y64236600D01*
X85397900Y61036200D02*
X85397900Y57584900D01*
X85397900Y57584900D02*
X83843600Y56030600D01*
X83843600Y56030600D02*
X76946200Y56030600D01*
X76946200Y56030600D02*
X76120000Y55204400D01*
X85531600Y61036200D02*
X85397900Y61036200D01*
X85175800Y64236600D02*
X85175800Y61258300D01*
X85175800Y61258300D02*
X85397900Y61036200D01*
X76120000Y54047600D02*
X76120000Y55204400D01*
X86142000Y61036200D02*
X85531600Y61036200D01*
X52898000Y19532600D02*
X53679800Y19532600D01*
X53901900Y16332200D02*
X53901900Y12880900D01*
X53901900Y12880900D02*
X52347600Y11326600D01*
X52347600Y11326600D02*
X45450200Y11326600D01*
X45450200Y11326600D02*
X44624000Y10500400D01*
X54035600Y16332200D02*
X53901900Y16332200D01*
X53679800Y19532600D02*
X53679800Y16554300D01*
X53679800Y16554300D02*
X53901900Y16332200D01*
X44624000Y9343600D02*
X44624000Y10500400D01*
X54646000Y16332200D02*
X54035600Y16332200D01*
X52898000Y64236600D02*
X53679800Y64236600D01*
X53901900Y61036200D02*
X53901900Y57584900D01*
X53901900Y57584900D02*
X52347600Y56030600D01*
X52347600Y56030600D02*
X45450200Y56030600D01*
X45450200Y56030600D02*
X44624000Y55204400D01*
X54035600Y61036200D02*
X53901900Y61036200D01*
X53679800Y64236600D02*
X53679800Y61258300D01*
X53679800Y61258300D02*
X53901900Y61036200D01*
X44624000Y54047600D02*
X44624000Y55204400D01*
X54646000Y61036200D02*
X54035600Y61036200D01*
X21402000Y19532600D02*
X22183800Y19532600D01*
X22405900Y16332200D02*
X22405900Y12880900D01*
X22405900Y12880900D02*
X20851600Y11326600D01*
X20851600Y11326600D02*
X13954200Y11326600D01*
X13954200Y11326600D02*
X13128000Y10500400D01*
X22539600Y16332200D02*
X22405900Y16332200D01*
X22183800Y19532600D02*
X22183800Y16554300D01*
X22183800Y16554300D02*
X22405900Y16332200D01*
X13128000Y9343600D02*
X13128000Y10500400D01*
X23150000Y16332200D02*
X22539600Y16332200D01*
X23150000Y61036200D02*
X22539600Y61036200D01*
X13128000Y54047600D02*
X13128000Y55204400D01*
X22183800Y61258300D02*
X22405900Y61036200D01*
X22183800Y64236600D02*
X22183800Y61258300D01*
X22539600Y61036200D02*
X22405900Y61036200D01*
X13954200Y56030600D02*
X13128000Y55204400D01*
X20851600Y56030600D02*
X13954200Y56030600D01*
X22405900Y57584900D02*
X20851600Y56030600D01*
X22405900Y61036200D02*
X22405900Y57584900D01*
X21402000Y64236600D02*
X22183800Y64236600D01*
X86578100Y11477900D02*
X85565000Y10464800D01*
X86142000Y13284200D02*
X86578100Y13284200D01*
X86578100Y13284200D02*
X86578100Y11477900D01*
X86578100Y13284200D02*
X86578200Y13284200D01*
X86578200Y13284200D02*
X86578200Y13397200D01*
X86578200Y13397200D02*
X89611000Y16430000D01*
X86578100Y56181900D02*
X85565000Y55168800D01*
X86142000Y57988200D02*
X86578100Y57988200D01*
X86578100Y57988200D02*
X86578100Y56181900D01*
X86578100Y57988200D02*
X86578200Y57988200D01*
X86578200Y57988200D02*
X86578200Y58101200D01*
X86578200Y58101200D02*
X89611000Y61134000D01*
X55082100Y11477900D02*
X54069000Y10464800D01*
X54646000Y13284200D02*
X55082100Y13284200D01*
X55082100Y13284200D02*
X55082100Y11477900D01*
X55082100Y13284200D02*
X55082200Y13284200D01*
X55082200Y13284200D02*
X55082200Y13397200D01*
X55082200Y13397200D02*
X58115000Y16430000D01*
X55082100Y56181900D02*
X54069000Y55168800D01*
X54646000Y57988200D02*
X55082100Y57988200D01*
X55082100Y57988200D02*
X55082100Y56181900D01*
X55082100Y57988200D02*
X55082200Y57988200D01*
X55082200Y57988200D02*
X55082200Y58101200D01*
X55082200Y58101200D02*
X58115000Y61134000D01*
X23586100Y11477900D02*
X22573000Y10464800D01*
X23150000Y13284200D02*
X23586100Y13284200D01*
X23586100Y13284200D02*
X23586100Y11477900D01*
X23586100Y13284200D02*
X23586200Y13284200D01*
X23586200Y13284200D02*
X23586200Y13397200D01*
X23586200Y13397200D02*
X26619000Y16430000D01*
X23586200Y58101200D02*
X26619000Y61134000D01*
X23586200Y57988200D02*
X23586200Y58101200D01*
X23586100Y57988200D02*
X23586200Y57988200D01*
X23586100Y57988200D02*
X23586100Y56181900D01*
X23150000Y57988200D02*
X23586100Y57988200D01*
X23586100Y56181900D02*
X22573000Y55168800D01*
X67058000Y13716000D02*
X67058000Y16383000D01*
X67058000Y16383000D02*
X64834000Y16383000D01*
X67058000Y58420000D02*
X67058000Y61087000D01*
X67058000Y61087000D02*
X64834000Y61087000D01*
X35562000Y13716000D02*
X35562000Y16383000D01*
X35562000Y16383000D02*
X33338000Y16383000D01*
X35562000Y58420000D02*
X35562000Y61087000D01*
X35562000Y61087000D02*
X33338000Y61087000D01*
X4066000Y13716000D02*
X4066000Y16383000D01*
X4066000Y16383000D02*
X1842000Y16383000D01*
X4066000Y61087000D02*
X1842000Y61087000D01*
X4066000Y58420000D02*
X4066000Y61087000D01*
X64834000Y11303000D02*
X66281800Y11303000D01*
X68958000Y13716000D02*
X68176200Y13716000D01*
X66281800Y11303000D02*
X68176200Y13197400D01*
X68176200Y13197400D02*
X68176200Y13716000D01*
X64834000Y56007000D02*
X66281800Y56007000D01*
X68958000Y58420000D02*
X68176200Y58420000D01*
X66281800Y56007000D02*
X68176200Y57901400D01*
X68176200Y57901400D02*
X68176200Y58420000D01*
X33338000Y11303000D02*
X34785800Y11303000D01*
X37462000Y13716000D02*
X36680200Y13716000D01*
X34785800Y11303000D02*
X36680200Y13197400D01*
X36680200Y13197400D02*
X36680200Y13716000D01*
X33338000Y56007000D02*
X34785800Y56007000D01*
X37462000Y58420000D02*
X36680200Y58420000D01*
X34785800Y56007000D02*
X36680200Y57901400D01*
X36680200Y57901400D02*
X36680200Y58420000D01*
X1842000Y11303000D02*
X3289800Y11303000D01*
X5966000Y13716000D02*
X5184200Y13716000D01*
X3289800Y11303000D02*
X5184200Y13197400D01*
X5184200Y13197400D02*
X5184200Y13716000D01*
X5184200Y57901400D02*
X5184200Y58420000D01*
X3289800Y56007000D02*
X5184200Y57901400D01*
X5966000Y58420000D02*
X5184200Y58420000D01*
X1842000Y56007000D02*
X3289800Y56007000D01*
D37*
X91059000Y38989000D02*
X88138000Y38989000D01*
X88138000Y38989000D02*
X86868000Y37719000D01*
D38*
X86868000Y37719000D02*
X80518000Y37719000D01*
X80518000Y37719000D02*
X79502000Y38735000D01*
X79502000Y38735000D02*
X79502000Y41910000D01*
D37*
X91059000Y83693000D02*
X88138000Y83693000D01*
X88138000Y83693000D02*
X86868000Y82423000D01*
D38*
X86868000Y82423000D02*
X80518000Y82423000D01*
X80518000Y82423000D02*
X79502000Y83439000D01*
X79502000Y83439000D02*
X79502000Y86614000D01*
D37*
X59563000Y38989000D02*
X56642000Y38989000D01*
X56642000Y38989000D02*
X55372000Y37719000D01*
D38*
X55372000Y37719000D02*
X49022000Y37719000D01*
X49022000Y37719000D02*
X48006000Y38735000D01*
X48006000Y38735000D02*
X48006000Y41910000D01*
D37*
X59563000Y83693000D02*
X56642000Y83693000D01*
X56642000Y83693000D02*
X55372000Y82423000D01*
D38*
X55372000Y82423000D02*
X49022000Y82423000D01*
X49022000Y82423000D02*
X48006000Y83439000D01*
X48006000Y83439000D02*
X48006000Y86614000D01*
D37*
X28067000Y38989000D02*
X25146000Y38989000D01*
X25146000Y38989000D02*
X23876000Y37719000D01*
D38*
X23876000Y37719000D02*
X17526000Y37719000D01*
X17526000Y37719000D02*
X16510000Y38735000D01*
X16510000Y38735000D02*
X16510000Y41910000D01*
X16510000Y83439000D02*
X16510000Y86614000D01*
X17526000Y82423000D02*
X16510000Y83439000D01*
X23876000Y82423000D02*
X17526000Y82423000D01*
D37*
X25146000Y83693000D02*
X23876000Y82423000D01*
X28067000Y83693000D02*
X25146000Y83693000D01*
D38*
X70358000Y41910000D02*
X70267000Y41818600D01*
X70267000Y41818600D02*
X65938000Y41818600D01*
D39*
X73914000Y41910000D02*
X70358000Y41910000D01*
D38*
X70358000Y86614000D02*
X70267000Y86522600D01*
X70267000Y86522600D02*
X65938000Y86522600D01*
D39*
X73914000Y86614000D02*
X70358000Y86614000D01*
D38*
X38862000Y41910000D02*
X38771000Y41818600D01*
X38771000Y41818600D02*
X34442000Y41818600D01*
D39*
X42418000Y41910000D02*
X38862000Y41910000D01*
D38*
X38862000Y86614000D02*
X38771000Y86522600D01*
X38771000Y86522600D02*
X34442000Y86522600D01*
D39*
X42418000Y86614000D02*
X38862000Y86614000D01*
D38*
X7366000Y41910000D02*
X7275000Y41818600D01*
X7275000Y41818600D02*
X2946000Y41818600D01*
D39*
X10922000Y41910000D02*
X7366000Y41910000D01*
X10922000Y86614000D02*
X7366000Y86614000D01*
D38*
X7275000Y86522600D02*
X2946000Y86522600D01*
X7366000Y86614000D02*
X7275000Y86522600D01*
D36*
X79085200Y28844200D02*
X79085200Y28012400D01*
X78826000Y26212800D02*
X78826000Y27753200D01*
X78826000Y27753200D02*
X79085200Y28012400D01*
X79085200Y73548200D02*
X79085200Y72716400D01*
X78826000Y70916800D02*
X78826000Y72457200D01*
X78826000Y72457200D02*
X79085200Y72716400D01*
X47589200Y28844200D02*
X47589200Y28012400D01*
X47330000Y26212800D02*
X47330000Y27753200D01*
X47330000Y27753200D02*
X47589200Y28012400D01*
X47589200Y73548200D02*
X47589200Y72716400D01*
X47330000Y70916800D02*
X47330000Y72457200D01*
X47330000Y72457200D02*
X47589200Y72716400D01*
X16093200Y28844200D02*
X16093200Y28012400D01*
X15834000Y26212800D02*
X15834000Y27753200D01*
X15834000Y27753200D02*
X16093200Y28012400D01*
X15834000Y72457200D02*
X16093200Y72716400D01*
X15834000Y70916800D02*
X15834000Y72457200D01*
X16093200Y73548200D02*
X16093200Y72716400D01*
X73257800Y26517600D02*
X76534400Y29794200D01*
X76534400Y29794200D02*
X81084200Y29794200D01*
X72476000Y26517600D02*
X73257800Y26517600D01*
X83962000Y29794200D02*
X81084200Y29794200D01*
X73257800Y71221600D02*
X76534400Y74498200D01*
X76534400Y74498200D02*
X81084200Y74498200D01*
X72476000Y71221600D02*
X73257800Y71221600D01*
X83962000Y74498200D02*
X81084200Y74498200D01*
X41761800Y26517600D02*
X45038400Y29794200D01*
X45038400Y29794200D02*
X49588200Y29794200D01*
X40980000Y26517600D02*
X41761800Y26517600D01*
X52466000Y29794200D02*
X49588200Y29794200D01*
X41761800Y71221600D02*
X45038400Y74498200D01*
X45038400Y74498200D02*
X49588200Y74498200D01*
X40980000Y71221600D02*
X41761800Y71221600D01*
X52466000Y74498200D02*
X49588200Y74498200D01*
X10265800Y26517600D02*
X13542400Y29794200D01*
X13542400Y29794200D02*
X18092200Y29794200D01*
X9484000Y26517600D02*
X10265800Y26517600D01*
X20970000Y29794200D02*
X18092200Y29794200D01*
X20970000Y74498200D02*
X18092200Y74498200D01*
X9484000Y71221600D02*
X10265800Y71221600D01*
X13542400Y74498200D02*
X18092200Y74498200D01*
X10265800Y71221600D02*
X13542400Y74498200D01*
X68958000Y16383000D02*
X69739800Y16383000D01*
X69739800Y16383000D02*
X69940000Y16583200D01*
X69940000Y16583200D02*
X70035100Y16583200D01*
X68958000Y61087000D02*
X69739800Y61087000D01*
X69739800Y61087000D02*
X69940000Y61287200D01*
X69940000Y61287200D02*
X70035100Y61287200D01*
X37462000Y16383000D02*
X38243800Y16383000D01*
X38243800Y16383000D02*
X38444000Y16583200D01*
X38444000Y16583200D02*
X38539100Y16583200D01*
X37462000Y61087000D02*
X38243800Y61087000D01*
X38243800Y61087000D02*
X38444000Y61287200D01*
X38444000Y61287200D02*
X38539100Y61287200D01*
X5966000Y16383000D02*
X6747800Y16383000D01*
X6747800Y16383000D02*
X6948000Y16583200D01*
X6948000Y16583200D02*
X7043100Y16583200D01*
X6948000Y61287200D02*
X7043100Y61287200D01*
X6747800Y61087000D02*
X6948000Y61287200D01*
X5966000Y61087000D02*
X6747800Y61087000D01*
X73276000Y12697700D02*
X73276000Y11301200D01*
X73276000Y11301200D02*
X73404600Y11172600D01*
X73276000Y13779500D02*
X73276000Y12697700D01*
X73276000Y57401700D02*
X73276000Y56005200D01*
X73276000Y56005200D02*
X73404600Y55876600D01*
X73276000Y58483500D02*
X73276000Y57401700D01*
X41780000Y12697700D02*
X41780000Y11301200D01*
X41780000Y11301200D02*
X41908600Y11172600D01*
X41780000Y13779500D02*
X41780000Y12697700D01*
X41780000Y57401700D02*
X41780000Y56005200D01*
X41780000Y56005200D02*
X41908600Y55876600D01*
X41780000Y58483500D02*
X41780000Y57401700D01*
X10284000Y12697700D02*
X10284000Y11301200D01*
X10284000Y11301200D02*
X10412600Y11172600D01*
X10284000Y13779500D02*
X10284000Y12697700D01*
X10284000Y58483500D02*
X10284000Y57401700D01*
X10284000Y56005200D02*
X10412600Y55876600D01*
X10284000Y57401700D02*
X10284000Y56005200D01*
X91059000Y36449000D02*
X91059000Y33696400D01*
X91059000Y33696400D02*
X87156800Y29794200D01*
X87156800Y29794200D02*
X85862000Y29794200D01*
X91059000Y81153000D02*
X91059000Y78400400D01*
X91059000Y78400400D02*
X87156800Y74498200D01*
X87156800Y74498200D02*
X85862000Y74498200D01*
X59563000Y36449000D02*
X59563000Y33696400D01*
X59563000Y33696400D02*
X55660800Y29794200D01*
X55660800Y29794200D02*
X54366000Y29794200D01*
X59563000Y81153000D02*
X59563000Y78400400D01*
X59563000Y78400400D02*
X55660800Y74498200D01*
X55660800Y74498200D02*
X54366000Y74498200D01*
X28067000Y36449000D02*
X28067000Y33696400D01*
X28067000Y33696400D02*
X24164800Y29794200D01*
X24164800Y29794200D02*
X22870000Y29794200D01*
X24164800Y74498200D02*
X22870000Y74498200D01*
X28067000Y78400400D02*
X24164800Y74498200D01*
X28067000Y81153000D02*
X28067000Y78400400D01*
M02*
