G04 (created by PCBNEW-RS274X (2011-05-25)-stable) date Thu 26 Jul 2012 06:03:34 PM EDT*
G01*
G70*
G90*
%MOIN*%
G04 Gerber Fmt 3.4, Leading zero omitted, Abs format*
%FSLAX34Y34*%
G04 APERTURE LIST*
%ADD10C,0.006000*%
%ADD11R,0.055000X0.055000*%
%ADD12C,0.055000*%
%ADD13C,0.250000*%
%ADD14R,0.060000X0.060000*%
%ADD15C,0.060000*%
%ADD16C,0.035000*%
%ADD17C,0.008000*%
%ADD18C,0.010000*%
G04 APERTURE END LIST*
G54D10*
G54D11*
X55700Y-40700D03*
G54D12*
X56700Y-40700D03*
X57700Y-40700D03*
X58700Y-40700D03*
X59700Y-40700D03*
X60700Y-40700D03*
X61700Y-40700D03*
X62700Y-40700D03*
X62700Y-37700D03*
X61700Y-37700D03*
X60700Y-37700D03*
X59700Y-37700D03*
X58700Y-37700D03*
X57700Y-37700D03*
X56700Y-37700D03*
X55700Y-37700D03*
G54D11*
X55900Y-42500D03*
G54D12*
X56900Y-42500D03*
G54D11*
X61500Y-36250D03*
G54D12*
X61500Y-35250D03*
G54D11*
X58200Y-42500D03*
G54D12*
X59200Y-42500D03*
G54D13*
X54200Y-35100D03*
G54D14*
X53700Y-43300D03*
G54D15*
X53700Y-42300D03*
X53700Y-41300D03*
G54D14*
X53700Y-39500D03*
G54D15*
X53700Y-38500D03*
X64300Y-43100D03*
X60300Y-43100D03*
X60300Y-44100D03*
X64300Y-44100D03*
X64600Y-37100D03*
X64600Y-41100D03*
X64300Y-42100D03*
X60300Y-42100D03*
X56000Y-35250D03*
X60000Y-35250D03*
X60000Y-36250D03*
X56000Y-36250D03*
X56000Y-34250D03*
X60000Y-34250D03*
G54D13*
X63900Y-35100D03*
G54D16*
X57700Y-36200D03*
G54D17*
X61700Y-37700D02*
X61700Y-36450D01*
X61700Y-36450D02*
X61500Y-36250D01*
X57700Y-40700D02*
X57700Y-41450D01*
X59250Y-41500D02*
X59750Y-42000D01*
X57750Y-41500D02*
X59250Y-41500D01*
X57700Y-41450D02*
X57750Y-41500D01*
X60300Y-43100D02*
X60100Y-43100D01*
X59750Y-42750D02*
X59750Y-42000D01*
X60100Y-43100D02*
X59750Y-42750D01*
X60300Y-42100D02*
X60300Y-41200D01*
X60200Y-39000D02*
X59700Y-38500D01*
X60200Y-41100D02*
X60200Y-39000D01*
X60300Y-41200D02*
X60200Y-41100D01*
X59700Y-38500D02*
X53700Y-38500D01*
X56000Y-34250D02*
X56750Y-34250D01*
X57250Y-37150D02*
X56700Y-37700D01*
X57250Y-34750D02*
X57250Y-37150D01*
X56750Y-34250D02*
X57250Y-34750D01*
X55700Y-37700D02*
X55700Y-37550D01*
X55700Y-37550D02*
X56750Y-36500D01*
X56000Y-35250D02*
X56250Y-35250D01*
X56250Y-35250D02*
X56750Y-35750D01*
X56750Y-35750D02*
X56750Y-36500D01*
X58700Y-37700D02*
X58700Y-37000D01*
X58700Y-37000D02*
X59450Y-36250D01*
X59450Y-36250D02*
X60000Y-36250D01*
X57700Y-36200D02*
X57700Y-37700D01*
G54D10*
G36*
X61250Y-44455D02*
X60765Y-44455D01*
X60765Y-44161D01*
X60753Y-43978D01*
X60707Y-43866D01*
X60636Y-43835D01*
X60565Y-43906D01*
X60565Y-43764D01*
X60534Y-43693D01*
X60361Y-43635D01*
X60178Y-43647D01*
X60066Y-43693D01*
X60035Y-43764D01*
X60300Y-44029D01*
X60565Y-43764D01*
X60565Y-43906D01*
X60371Y-44100D01*
X60636Y-44365D01*
X60707Y-44334D01*
X60765Y-44161D01*
X60765Y-44455D01*
X60556Y-44455D01*
X60565Y-44436D01*
X60300Y-44171D01*
X60229Y-44242D01*
X60229Y-44100D01*
X59964Y-43835D01*
X59893Y-43866D01*
X59835Y-44039D01*
X59847Y-44222D01*
X59893Y-44334D01*
X59964Y-44365D01*
X60229Y-44100D01*
X60229Y-44242D01*
X60035Y-44436D01*
X60043Y-44455D01*
X58645Y-44455D01*
X58645Y-42809D01*
X58645Y-42741D01*
X58645Y-42191D01*
X58619Y-42129D01*
X58571Y-42081D01*
X58509Y-42055D01*
X58441Y-42055D01*
X57891Y-42055D01*
X57829Y-42081D01*
X57781Y-42129D01*
X57755Y-42191D01*
X57755Y-42259D01*
X57755Y-42809D01*
X57781Y-42871D01*
X57829Y-42919D01*
X57891Y-42945D01*
X57959Y-42945D01*
X58509Y-42945D01*
X58571Y-42919D01*
X58619Y-42871D01*
X58645Y-42809D01*
X58645Y-44455D01*
X57344Y-44455D01*
X57344Y-42589D01*
X57344Y-42412D01*
X57277Y-42249D01*
X57152Y-42124D01*
X57144Y-42120D01*
X57144Y-40789D01*
X57144Y-40612D01*
X57077Y-40449D01*
X56952Y-40324D01*
X56789Y-40256D01*
X56612Y-40256D01*
X56449Y-40323D01*
X56324Y-40448D01*
X56256Y-40611D01*
X56256Y-40788D01*
X56323Y-40951D01*
X56448Y-41076D01*
X56611Y-41144D01*
X56788Y-41144D01*
X56951Y-41077D01*
X57076Y-40952D01*
X57144Y-40789D01*
X57144Y-42120D01*
X56989Y-42056D01*
X56812Y-42056D01*
X56649Y-42123D01*
X56524Y-42248D01*
X56456Y-42411D01*
X56456Y-42588D01*
X56523Y-42751D01*
X56648Y-42876D01*
X56811Y-42944D01*
X56988Y-42944D01*
X57151Y-42877D01*
X57276Y-42752D01*
X57344Y-42589D01*
X57344Y-44455D01*
X56345Y-44455D01*
X56345Y-42809D01*
X56345Y-42741D01*
X56345Y-42592D01*
X56345Y-42408D01*
X56345Y-42259D01*
X56345Y-42191D01*
X56319Y-42129D01*
X56271Y-42081D01*
X56209Y-42055D01*
X56145Y-42055D01*
X56145Y-41009D01*
X56145Y-40941D01*
X56145Y-40391D01*
X56119Y-40329D01*
X56071Y-40281D01*
X56009Y-40255D01*
X55941Y-40255D01*
X55391Y-40255D01*
X55329Y-40281D01*
X55281Y-40329D01*
X55255Y-40391D01*
X55255Y-40459D01*
X55255Y-41009D01*
X55281Y-41071D01*
X55329Y-41119D01*
X55391Y-41145D01*
X55459Y-41145D01*
X56009Y-41145D01*
X56071Y-41119D01*
X56119Y-41071D01*
X56145Y-41009D01*
X56145Y-42055D01*
X55992Y-42055D01*
X55950Y-42097D01*
X55950Y-42450D01*
X56303Y-42450D01*
X56345Y-42408D01*
X56345Y-42592D01*
X56303Y-42550D01*
X55950Y-42550D01*
X55950Y-42903D01*
X55992Y-42945D01*
X56209Y-42945D01*
X56271Y-42919D01*
X56319Y-42871D01*
X56345Y-42809D01*
X56345Y-44455D01*
X55850Y-44455D01*
X55850Y-42903D01*
X55850Y-42550D01*
X55850Y-42450D01*
X55850Y-42097D01*
X55808Y-42055D01*
X55591Y-42055D01*
X55529Y-42081D01*
X55481Y-42129D01*
X55455Y-42191D01*
X55455Y-42259D01*
X55455Y-42408D01*
X55497Y-42450D01*
X55850Y-42450D01*
X55850Y-42550D01*
X55497Y-42550D01*
X55455Y-42592D01*
X55455Y-42741D01*
X55455Y-42809D01*
X55481Y-42871D01*
X55529Y-42919D01*
X55591Y-42945D01*
X55808Y-42945D01*
X55850Y-42903D01*
X55850Y-44455D01*
X54170Y-44455D01*
X54170Y-43634D01*
X54170Y-43566D01*
X54170Y-42966D01*
X54170Y-41394D01*
X54170Y-41207D01*
X54099Y-41034D01*
X53967Y-40902D01*
X53794Y-40830D01*
X53607Y-40830D01*
X53434Y-40901D01*
X53302Y-41033D01*
X53230Y-41206D01*
X53230Y-41393D01*
X53301Y-41566D01*
X53433Y-41698D01*
X53606Y-41770D01*
X53793Y-41770D01*
X53966Y-41699D01*
X54098Y-41567D01*
X54170Y-41394D01*
X54170Y-42966D01*
X54165Y-42954D01*
X54165Y-42361D01*
X54153Y-42178D01*
X54107Y-42066D01*
X54036Y-42035D01*
X53965Y-42106D01*
X53965Y-41964D01*
X53934Y-41893D01*
X53761Y-41835D01*
X53578Y-41847D01*
X53466Y-41893D01*
X53435Y-41964D01*
X53700Y-42229D01*
X53965Y-41964D01*
X53965Y-42106D01*
X53771Y-42300D01*
X54036Y-42565D01*
X54107Y-42534D01*
X54165Y-42361D01*
X54165Y-42954D01*
X54144Y-42904D01*
X54096Y-42856D01*
X54034Y-42830D01*
X53966Y-42830D01*
X53965Y-42830D01*
X53965Y-42636D01*
X53700Y-42371D01*
X53629Y-42442D01*
X53629Y-42300D01*
X53364Y-42035D01*
X53293Y-42066D01*
X53235Y-42239D01*
X53247Y-42422D01*
X53293Y-42534D01*
X53364Y-42565D01*
X53629Y-42300D01*
X53629Y-42442D01*
X53435Y-42636D01*
X53466Y-42707D01*
X53639Y-42765D01*
X53822Y-42753D01*
X53934Y-42707D01*
X53965Y-42636D01*
X53965Y-42830D01*
X53366Y-42830D01*
X53304Y-42856D01*
X53256Y-42904D01*
X53230Y-42966D01*
X53230Y-43034D01*
X53230Y-43634D01*
X53256Y-43696D01*
X53304Y-43744D01*
X53366Y-43770D01*
X53434Y-43770D01*
X54034Y-43770D01*
X54096Y-43744D01*
X54144Y-43696D01*
X54170Y-43634D01*
X54170Y-44455D01*
X52945Y-44455D01*
X52945Y-39550D01*
X53230Y-39550D01*
X53230Y-39834D01*
X53256Y-39896D01*
X53304Y-39944D01*
X53366Y-39970D01*
X53434Y-39970D01*
X54034Y-39970D01*
X54096Y-39944D01*
X54144Y-39896D01*
X54170Y-39834D01*
X54170Y-39766D01*
X54170Y-39550D01*
X59990Y-39550D01*
X59990Y-40362D01*
X59952Y-40324D01*
X59789Y-40256D01*
X59612Y-40256D01*
X59449Y-40323D01*
X59324Y-40448D01*
X59256Y-40611D01*
X59256Y-40788D01*
X59323Y-40951D01*
X59448Y-41076D01*
X59611Y-41144D01*
X59788Y-41144D01*
X59951Y-41077D01*
X59990Y-41038D01*
X59990Y-41100D01*
X60003Y-41167D01*
X60006Y-41181D01*
X60052Y-41248D01*
X60090Y-41286D01*
X60090Y-41678D01*
X60034Y-41701D01*
X59902Y-41833D01*
X59895Y-41848D01*
X59398Y-41352D01*
X59331Y-41306D01*
X59317Y-41303D01*
X59250Y-41290D01*
X59142Y-41290D01*
X59142Y-40754D01*
X59129Y-40581D01*
X59087Y-40481D01*
X59017Y-40453D01*
X58947Y-40523D01*
X58947Y-40383D01*
X58919Y-40313D01*
X58754Y-40258D01*
X58581Y-40271D01*
X58481Y-40313D01*
X58453Y-40383D01*
X58700Y-40629D01*
X58947Y-40383D01*
X58947Y-40523D01*
X58771Y-40700D01*
X59017Y-40947D01*
X59087Y-40919D01*
X59142Y-40754D01*
X59142Y-41290D01*
X58947Y-41290D01*
X58947Y-41017D01*
X58700Y-40771D01*
X58629Y-40841D01*
X58629Y-40700D01*
X58383Y-40453D01*
X58313Y-40481D01*
X58258Y-40646D01*
X58271Y-40819D01*
X58313Y-40919D01*
X58383Y-40947D01*
X58629Y-40700D01*
X58629Y-40841D01*
X58453Y-41017D01*
X58481Y-41087D01*
X58646Y-41142D01*
X58819Y-41129D01*
X58919Y-41087D01*
X58947Y-41017D01*
X58947Y-41290D01*
X57910Y-41290D01*
X57910Y-41093D01*
X57951Y-41077D01*
X58076Y-40952D01*
X58144Y-40789D01*
X58144Y-40612D01*
X58077Y-40449D01*
X57952Y-40324D01*
X57789Y-40256D01*
X57612Y-40256D01*
X57449Y-40323D01*
X57324Y-40448D01*
X57256Y-40611D01*
X57256Y-40788D01*
X57323Y-40951D01*
X57448Y-41076D01*
X57490Y-41093D01*
X57490Y-41450D01*
X57503Y-41517D01*
X57506Y-41531D01*
X57552Y-41598D01*
X57601Y-41648D01*
X57602Y-41648D01*
X57647Y-41678D01*
X57669Y-41693D01*
X57670Y-41694D01*
X57749Y-41709D01*
X57750Y-41710D01*
X59163Y-41710D01*
X59540Y-42086D01*
X59540Y-42212D01*
X59452Y-42124D01*
X59289Y-42056D01*
X59112Y-42056D01*
X58949Y-42123D01*
X58824Y-42248D01*
X58756Y-42411D01*
X58756Y-42588D01*
X58823Y-42751D01*
X58948Y-42876D01*
X59111Y-42944D01*
X59288Y-42944D01*
X59451Y-42877D01*
X59546Y-42781D01*
X59553Y-42817D01*
X59556Y-42831D01*
X59602Y-42898D01*
X59830Y-43126D01*
X59830Y-43193D01*
X59901Y-43366D01*
X60033Y-43498D01*
X60206Y-43570D01*
X60393Y-43570D01*
X60566Y-43499D01*
X60698Y-43367D01*
X60770Y-43194D01*
X60770Y-43007D01*
X60699Y-42834D01*
X60567Y-42702D01*
X60394Y-42630D01*
X60207Y-42630D01*
X60034Y-42701D01*
X60015Y-42719D01*
X59960Y-42663D01*
X59960Y-42425D01*
X60033Y-42498D01*
X60206Y-42570D01*
X60393Y-42570D01*
X60566Y-42499D01*
X60698Y-42367D01*
X60770Y-42194D01*
X60770Y-42007D01*
X60699Y-41834D01*
X60567Y-41702D01*
X60510Y-41678D01*
X60510Y-41200D01*
X60494Y-41120D01*
X60493Y-41119D01*
X60478Y-41097D01*
X60470Y-41085D01*
X60611Y-41144D01*
X60788Y-41144D01*
X60951Y-41077D01*
X61076Y-40952D01*
X61144Y-40789D01*
X61144Y-40612D01*
X61077Y-40449D01*
X60952Y-40324D01*
X60789Y-40256D01*
X60612Y-40256D01*
X60449Y-40323D01*
X60410Y-40362D01*
X60410Y-39550D01*
X61250Y-39550D01*
X61250Y-44455D01*
X61250Y-44455D01*
G37*
G54D18*
X61250Y-44455D02*
X60765Y-44455D01*
X60765Y-44161D01*
X60753Y-43978D01*
X60707Y-43866D01*
X60636Y-43835D01*
X60565Y-43906D01*
X60565Y-43764D01*
X60534Y-43693D01*
X60361Y-43635D01*
X60178Y-43647D01*
X60066Y-43693D01*
X60035Y-43764D01*
X60300Y-44029D01*
X60565Y-43764D01*
X60565Y-43906D01*
X60371Y-44100D01*
X60636Y-44365D01*
X60707Y-44334D01*
X60765Y-44161D01*
X60765Y-44455D01*
X60556Y-44455D01*
X60565Y-44436D01*
X60300Y-44171D01*
X60229Y-44242D01*
X60229Y-44100D01*
X59964Y-43835D01*
X59893Y-43866D01*
X59835Y-44039D01*
X59847Y-44222D01*
X59893Y-44334D01*
X59964Y-44365D01*
X60229Y-44100D01*
X60229Y-44242D01*
X60035Y-44436D01*
X60043Y-44455D01*
X58645Y-44455D01*
X58645Y-42809D01*
X58645Y-42741D01*
X58645Y-42191D01*
X58619Y-42129D01*
X58571Y-42081D01*
X58509Y-42055D01*
X58441Y-42055D01*
X57891Y-42055D01*
X57829Y-42081D01*
X57781Y-42129D01*
X57755Y-42191D01*
X57755Y-42259D01*
X57755Y-42809D01*
X57781Y-42871D01*
X57829Y-42919D01*
X57891Y-42945D01*
X57959Y-42945D01*
X58509Y-42945D01*
X58571Y-42919D01*
X58619Y-42871D01*
X58645Y-42809D01*
X58645Y-44455D01*
X57344Y-44455D01*
X57344Y-42589D01*
X57344Y-42412D01*
X57277Y-42249D01*
X57152Y-42124D01*
X57144Y-42120D01*
X57144Y-40789D01*
X57144Y-40612D01*
X57077Y-40449D01*
X56952Y-40324D01*
X56789Y-40256D01*
X56612Y-40256D01*
X56449Y-40323D01*
X56324Y-40448D01*
X56256Y-40611D01*
X56256Y-40788D01*
X56323Y-40951D01*
X56448Y-41076D01*
X56611Y-41144D01*
X56788Y-41144D01*
X56951Y-41077D01*
X57076Y-40952D01*
X57144Y-40789D01*
X57144Y-42120D01*
X56989Y-42056D01*
X56812Y-42056D01*
X56649Y-42123D01*
X56524Y-42248D01*
X56456Y-42411D01*
X56456Y-42588D01*
X56523Y-42751D01*
X56648Y-42876D01*
X56811Y-42944D01*
X56988Y-42944D01*
X57151Y-42877D01*
X57276Y-42752D01*
X57344Y-42589D01*
X57344Y-44455D01*
X56345Y-44455D01*
X56345Y-42809D01*
X56345Y-42741D01*
X56345Y-42592D01*
X56345Y-42408D01*
X56345Y-42259D01*
X56345Y-42191D01*
X56319Y-42129D01*
X56271Y-42081D01*
X56209Y-42055D01*
X56145Y-42055D01*
X56145Y-41009D01*
X56145Y-40941D01*
X56145Y-40391D01*
X56119Y-40329D01*
X56071Y-40281D01*
X56009Y-40255D01*
X55941Y-40255D01*
X55391Y-40255D01*
X55329Y-40281D01*
X55281Y-40329D01*
X55255Y-40391D01*
X55255Y-40459D01*
X55255Y-41009D01*
X55281Y-41071D01*
X55329Y-41119D01*
X55391Y-41145D01*
X55459Y-41145D01*
X56009Y-41145D01*
X56071Y-41119D01*
X56119Y-41071D01*
X56145Y-41009D01*
X56145Y-42055D01*
X55992Y-42055D01*
X55950Y-42097D01*
X55950Y-42450D01*
X56303Y-42450D01*
X56345Y-42408D01*
X56345Y-42592D01*
X56303Y-42550D01*
X55950Y-42550D01*
X55950Y-42903D01*
X55992Y-42945D01*
X56209Y-42945D01*
X56271Y-42919D01*
X56319Y-42871D01*
X56345Y-42809D01*
X56345Y-44455D01*
X55850Y-44455D01*
X55850Y-42903D01*
X55850Y-42550D01*
X55850Y-42450D01*
X55850Y-42097D01*
X55808Y-42055D01*
X55591Y-42055D01*
X55529Y-42081D01*
X55481Y-42129D01*
X55455Y-42191D01*
X55455Y-42259D01*
X55455Y-42408D01*
X55497Y-42450D01*
X55850Y-42450D01*
X55850Y-42550D01*
X55497Y-42550D01*
X55455Y-42592D01*
X55455Y-42741D01*
X55455Y-42809D01*
X55481Y-42871D01*
X55529Y-42919D01*
X55591Y-42945D01*
X55808Y-42945D01*
X55850Y-42903D01*
X55850Y-44455D01*
X54170Y-44455D01*
X54170Y-43634D01*
X54170Y-43566D01*
X54170Y-42966D01*
X54170Y-41394D01*
X54170Y-41207D01*
X54099Y-41034D01*
X53967Y-40902D01*
X53794Y-40830D01*
X53607Y-40830D01*
X53434Y-40901D01*
X53302Y-41033D01*
X53230Y-41206D01*
X53230Y-41393D01*
X53301Y-41566D01*
X53433Y-41698D01*
X53606Y-41770D01*
X53793Y-41770D01*
X53966Y-41699D01*
X54098Y-41567D01*
X54170Y-41394D01*
X54170Y-42966D01*
X54165Y-42954D01*
X54165Y-42361D01*
X54153Y-42178D01*
X54107Y-42066D01*
X54036Y-42035D01*
X53965Y-42106D01*
X53965Y-41964D01*
X53934Y-41893D01*
X53761Y-41835D01*
X53578Y-41847D01*
X53466Y-41893D01*
X53435Y-41964D01*
X53700Y-42229D01*
X53965Y-41964D01*
X53965Y-42106D01*
X53771Y-42300D01*
X54036Y-42565D01*
X54107Y-42534D01*
X54165Y-42361D01*
X54165Y-42954D01*
X54144Y-42904D01*
X54096Y-42856D01*
X54034Y-42830D01*
X53966Y-42830D01*
X53965Y-42830D01*
X53965Y-42636D01*
X53700Y-42371D01*
X53629Y-42442D01*
X53629Y-42300D01*
X53364Y-42035D01*
X53293Y-42066D01*
X53235Y-42239D01*
X53247Y-42422D01*
X53293Y-42534D01*
X53364Y-42565D01*
X53629Y-42300D01*
X53629Y-42442D01*
X53435Y-42636D01*
X53466Y-42707D01*
X53639Y-42765D01*
X53822Y-42753D01*
X53934Y-42707D01*
X53965Y-42636D01*
X53965Y-42830D01*
X53366Y-42830D01*
X53304Y-42856D01*
X53256Y-42904D01*
X53230Y-42966D01*
X53230Y-43034D01*
X53230Y-43634D01*
X53256Y-43696D01*
X53304Y-43744D01*
X53366Y-43770D01*
X53434Y-43770D01*
X54034Y-43770D01*
X54096Y-43744D01*
X54144Y-43696D01*
X54170Y-43634D01*
X54170Y-44455D01*
X52945Y-44455D01*
X52945Y-39550D01*
X53230Y-39550D01*
X53230Y-39834D01*
X53256Y-39896D01*
X53304Y-39944D01*
X53366Y-39970D01*
X53434Y-39970D01*
X54034Y-39970D01*
X54096Y-39944D01*
X54144Y-39896D01*
X54170Y-39834D01*
X54170Y-39766D01*
X54170Y-39550D01*
X59990Y-39550D01*
X59990Y-40362D01*
X59952Y-40324D01*
X59789Y-40256D01*
X59612Y-40256D01*
X59449Y-40323D01*
X59324Y-40448D01*
X59256Y-40611D01*
X59256Y-40788D01*
X59323Y-40951D01*
X59448Y-41076D01*
X59611Y-41144D01*
X59788Y-41144D01*
X59951Y-41077D01*
X59990Y-41038D01*
X59990Y-41100D01*
X60003Y-41167D01*
X60006Y-41181D01*
X60052Y-41248D01*
X60090Y-41286D01*
X60090Y-41678D01*
X60034Y-41701D01*
X59902Y-41833D01*
X59895Y-41848D01*
X59398Y-41352D01*
X59331Y-41306D01*
X59317Y-41303D01*
X59250Y-41290D01*
X59142Y-41290D01*
X59142Y-40754D01*
X59129Y-40581D01*
X59087Y-40481D01*
X59017Y-40453D01*
X58947Y-40523D01*
X58947Y-40383D01*
X58919Y-40313D01*
X58754Y-40258D01*
X58581Y-40271D01*
X58481Y-40313D01*
X58453Y-40383D01*
X58700Y-40629D01*
X58947Y-40383D01*
X58947Y-40523D01*
X58771Y-40700D01*
X59017Y-40947D01*
X59087Y-40919D01*
X59142Y-40754D01*
X59142Y-41290D01*
X58947Y-41290D01*
X58947Y-41017D01*
X58700Y-40771D01*
X58629Y-40841D01*
X58629Y-40700D01*
X58383Y-40453D01*
X58313Y-40481D01*
X58258Y-40646D01*
X58271Y-40819D01*
X58313Y-40919D01*
X58383Y-40947D01*
X58629Y-40700D01*
X58629Y-40841D01*
X58453Y-41017D01*
X58481Y-41087D01*
X58646Y-41142D01*
X58819Y-41129D01*
X58919Y-41087D01*
X58947Y-41017D01*
X58947Y-41290D01*
X57910Y-41290D01*
X57910Y-41093D01*
X57951Y-41077D01*
X58076Y-40952D01*
X58144Y-40789D01*
X58144Y-40612D01*
X58077Y-40449D01*
X57952Y-40324D01*
X57789Y-40256D01*
X57612Y-40256D01*
X57449Y-40323D01*
X57324Y-40448D01*
X57256Y-40611D01*
X57256Y-40788D01*
X57323Y-40951D01*
X57448Y-41076D01*
X57490Y-41093D01*
X57490Y-41450D01*
X57503Y-41517D01*
X57506Y-41531D01*
X57552Y-41598D01*
X57601Y-41648D01*
X57602Y-41648D01*
X57647Y-41678D01*
X57669Y-41693D01*
X57670Y-41694D01*
X57749Y-41709D01*
X57750Y-41710D01*
X59163Y-41710D01*
X59540Y-42086D01*
X59540Y-42212D01*
X59452Y-42124D01*
X59289Y-42056D01*
X59112Y-42056D01*
X58949Y-42123D01*
X58824Y-42248D01*
X58756Y-42411D01*
X58756Y-42588D01*
X58823Y-42751D01*
X58948Y-42876D01*
X59111Y-42944D01*
X59288Y-42944D01*
X59451Y-42877D01*
X59546Y-42781D01*
X59553Y-42817D01*
X59556Y-42831D01*
X59602Y-42898D01*
X59830Y-43126D01*
X59830Y-43193D01*
X59901Y-43366D01*
X60033Y-43498D01*
X60206Y-43570D01*
X60393Y-43570D01*
X60566Y-43499D01*
X60698Y-43367D01*
X60770Y-43194D01*
X60770Y-43007D01*
X60699Y-42834D01*
X60567Y-42702D01*
X60394Y-42630D01*
X60207Y-42630D01*
X60034Y-42701D01*
X60015Y-42719D01*
X59960Y-42663D01*
X59960Y-42425D01*
X60033Y-42498D01*
X60206Y-42570D01*
X60393Y-42570D01*
X60566Y-42499D01*
X60698Y-42367D01*
X60770Y-42194D01*
X60770Y-42007D01*
X60699Y-41834D01*
X60567Y-41702D01*
X60510Y-41678D01*
X60510Y-41200D01*
X60494Y-41120D01*
X60493Y-41119D01*
X60478Y-41097D01*
X60470Y-41085D01*
X60611Y-41144D01*
X60788Y-41144D01*
X60951Y-41077D01*
X61076Y-40952D01*
X61144Y-40789D01*
X61144Y-40612D01*
X61077Y-40449D01*
X60952Y-40324D01*
X60789Y-40256D01*
X60612Y-40256D01*
X60449Y-40323D01*
X60410Y-40362D01*
X60410Y-39550D01*
X61250Y-39550D01*
X61250Y-44455D01*
M02*
