%FSLAX43Y43*%
%MOMM*%
G71*
G01*
G75*
G04 Layer_Physical_Order=1*
%ADD10C,0.300*%
%ADD11C,0.600*%
%ADD12C,0.500*%
%ADD13C,6.000*%
%ADD14R,1.500X1.500*%
D10*
X39077Y64200D02*
G03*
X49200Y54077I10923J800D01*
G01*
Y53378D02*
G03*
X49200Y44922I-2420J-4228D01*
G01*
X22377Y60625D02*
G03*
X20815Y64200I-4872J0D01*
G01*
X38677Y33125D02*
G03*
X38125Y35378I-4872J0D01*
G01*
G03*
X29411Y31022I-4394J-2103D01*
G01*
X49200Y19937D02*
G03*
X41239Y15948I-3095J-3762D01*
G01*
G03*
X46450Y7826I2041J-4423D01*
G01*
X29411Y31022D02*
G03*
X38677Y33125I4394J2103D01*
G01*
X20209Y19838D02*
G03*
X23752Y24525I-1328J4687D01*
G01*
X20877Y17375D02*
G03*
X20209Y19838I-4872J0D01*
G01*
X12635Y60708D02*
G03*
X22377Y60625I4871J-83D01*
G01*
X26152Y48475D02*
G03*
X26152Y48475I-4872J0D01*
G01*
X23752Y24525D02*
G03*
X14677Y22062I-4872J0D01*
G01*
X12179Y59746D02*
G03*
X12635Y60708I-4148J2554D01*
G01*
X12852Y57275D02*
G03*
X12179Y59746I-4872J0D01*
G01*
X7697Y52412D02*
G03*
X12852Y57275I283J4863D01*
G01*
X7702Y52200D02*
G03*
X7697Y52412I-4872J0D01*
G01*
X800Y47772D02*
G03*
X7702Y52200I2030J4428D01*
G01*
X14677Y22062D02*
G03*
X20877Y17375I1328J-4687D01*
G01*
X12500Y5850D02*
G03*
X11725Y5075I0J-775D01*
G01*
X12500Y5850D02*
G03*
X11725Y5075I0J-775D01*
G01*
X775Y4802D02*
G03*
X800Y5000I-775J198D01*
G01*
X8650Y0D02*
G03*
X775Y4370I-5150J0D01*
G01*
X6445Y-4225D02*
G03*
X8650Y0I-2945J4225D01*
G01*
X47900Y53891D02*
Y54251D01*
X47800Y53914D02*
Y54271D01*
X47500Y53968D02*
Y54337D01*
X47700Y53934D02*
Y54292D01*
X47600Y53952D02*
Y54314D01*
X47400Y53982D02*
Y54361D01*
X47300Y53994D02*
Y54386D01*
X47200Y54004D02*
Y54412D01*
X47100Y54011D02*
Y54439D01*
X47000Y54017D02*
Y54467D01*
X48400Y53745D02*
Y54166D01*
X48234Y53800D02*
X49200D01*
X48200Y53810D02*
Y54197D01*
X48600Y53669D02*
Y54138D01*
X48300Y53779D02*
Y54181D01*
X47240Y54000D02*
X49200D01*
X47863Y53900D02*
X49200D01*
X48100Y53840D02*
Y54214D01*
X48000Y53867D02*
Y54232D01*
X45900Y53941D02*
Y54844D01*
X46100Y53974D02*
Y54766D01*
X45800Y53922D02*
Y54885D01*
X45700Y53900D02*
Y54928D01*
X45600Y53876D02*
Y54971D01*
X45500Y53850D02*
Y55015D01*
X45400Y53822D02*
Y55061D01*
X45300Y53791D02*
Y55108D01*
X45200Y53758D02*
Y55156D01*
X45100Y53723D02*
Y55205D01*
X46900Y54020D02*
Y54496D01*
X46800Y54022D02*
Y54526D01*
X46700Y54021D02*
Y54557D01*
X46600Y54018D02*
Y54589D01*
X46500Y54014D02*
Y54622D01*
X46400Y54007D02*
Y54657D01*
X46300Y53998D02*
Y54692D01*
X46200Y53987D02*
Y54728D01*
X46000Y53959D02*
Y54805D01*
X45000Y53685D02*
Y55256D01*
X44900Y53644D02*
Y55308D01*
X44800Y53601D02*
Y55361D01*
X49100Y53434D02*
Y54085D01*
X49000Y53487D02*
Y54094D01*
X44700Y53555D02*
Y55416D01*
X44600Y53506D02*
Y55472D01*
X44500Y53455D02*
Y55529D01*
X44400Y53400D02*
Y55588D01*
X44300Y53343D02*
Y55648D01*
X48900Y53536D02*
Y54103D01*
X48974Y53500D02*
X49200D01*
X48800Y53583D02*
Y54114D01*
X49200Y53378D02*
Y54077D01*
X49200Y53378D02*
Y54077D01*
X48522Y53700D02*
X49200D01*
X48500Y53708D02*
Y54151D01*
X48763Y53600D02*
X49200D01*
X48700Y53628D02*
Y54125D01*
X43200Y52453D02*
Y56415D01*
X43300Y52559D02*
Y56337D01*
X43100Y52342D02*
Y56495D01*
X43000Y52222D02*
Y56577D01*
X42900Y52095D02*
Y56661D01*
X42800Y51958D02*
Y56747D01*
X42700Y51811D02*
Y56836D01*
X42600Y51651D02*
Y56926D01*
X42500Y51476D02*
Y57019D01*
X44100Y53218D02*
Y55773D01*
X44200Y53282D02*
Y55710D01*
X44000Y53150D02*
Y55838D01*
X43900Y53079D02*
Y55904D01*
X43800Y53003D02*
Y55972D01*
X43700Y52924D02*
Y56042D01*
X43600Y52840D02*
Y56113D01*
X43500Y52751D02*
Y56186D01*
X43400Y52658D02*
Y56260D01*
X21954Y53300D02*
X44229D01*
X20250Y56600D02*
X42973D01*
X22467Y53200D02*
X44073D01*
X22811Y53100D02*
X43929D01*
X19930Y56400D02*
X43219D01*
X19747Y56300D02*
X43348D01*
X20097Y56500D02*
X43094D01*
X19310Y56100D02*
X43618D01*
X19543Y56200D02*
X43481D01*
X23872Y52600D02*
X43341D01*
X24025Y52500D02*
X43243D01*
X24166Y52400D02*
X43151D01*
X24298Y52300D02*
X43064D01*
X24420Y52200D02*
X42982D01*
X23085Y53000D02*
X43795D01*
X23318Y52900D02*
X43671D01*
X23523Y52800D02*
X43554D01*
X23706Y52700D02*
X43444D01*
X21671Y58100D02*
X41495D01*
X21609Y58000D02*
X41577D01*
X21730Y58200D02*
X41415D01*
X21474Y57800D02*
X41748D01*
X21543Y57900D02*
X41661D01*
X21324Y57600D02*
X41926D01*
X21242Y57500D02*
X42019D01*
X21401Y57700D02*
X41836D01*
X21066Y57300D02*
X42212D01*
X21157Y57400D02*
X42114D01*
X20868Y57100D02*
X42415D01*
X24535Y52100D02*
X42903D01*
X20970Y57200D02*
X42312D01*
X24643Y52000D02*
X42829D01*
X24745Y51900D02*
X42759D01*
X20645Y56900D02*
X42629D01*
X20760Y57000D02*
X42520D01*
X20391Y56700D02*
X42855D01*
X20522Y56800D02*
X42740D01*
X42300Y51062D02*
Y57212D01*
X42400Y51281D02*
Y57114D01*
X42200Y50809D02*
Y57312D01*
X42100Y50501D02*
Y57415D01*
X24841Y51800D02*
X42693D01*
X24932Y51700D02*
X42629D01*
X25018Y51600D02*
X42570D01*
X25099Y51500D02*
X42513D01*
X25176Y51400D02*
X42459D01*
X25506Y50900D02*
X42234D01*
X25561Y50800D02*
X42197D01*
X25614Y50700D02*
X42162D01*
X25664Y50600D02*
X42130D01*
X25711Y50500D02*
X42100D01*
X25249Y51300D02*
X42409D01*
X25319Y51200D02*
X42361D01*
X25384Y51100D02*
X42316D01*
X25447Y51000D02*
X42274D01*
X42000Y50087D02*
Y57520D01*
X25836Y50200D02*
X42023D01*
X25939Y49900D02*
X41967D01*
X25968Y49800D02*
X41952D01*
X25996Y49700D02*
X41940D01*
X25756Y50400D02*
X42072D01*
X25797Y50300D02*
X42046D01*
X25873Y50100D02*
X42002D01*
X25907Y50000D02*
X41984D01*
X26082Y49300D02*
X41911D01*
X26098Y49200D02*
X41909D01*
X26112Y49100D02*
X41909D01*
X26124Y49000D02*
X41911D01*
X26133Y48900D02*
X41915D01*
X26020Y49600D02*
X41930D01*
X26043Y49500D02*
X41921D01*
X26063Y49400D02*
X41915D01*
X26141Y48800D02*
X41921D01*
X48973Y44800D02*
X49200D01*
X48762Y44700D02*
X49200D01*
X48521Y44600D02*
X49200D01*
X48232Y44500D02*
X49200D01*
X47861Y44400D02*
X49200D01*
X47237Y44300D02*
X49200D01*
X37291Y36600D02*
X49200D01*
X37382Y36500D02*
X49200D01*
X37468Y36400D02*
X49200D01*
X37549Y36300D02*
X49200D01*
X37897Y35800D02*
X49200D01*
X37956Y35700D02*
X49200D01*
X38011Y35600D02*
X49200D01*
X38064Y35500D02*
X49200D01*
X38114Y35400D02*
X49200D01*
X37626Y36200D02*
X49200D01*
X37699Y36100D02*
X49200D01*
X37769Y36000D02*
X49200D01*
X37834Y35900D02*
X49200D01*
X38342Y34900D02*
X49200D01*
X38415Y34700D02*
X49200D01*
X38448Y34600D02*
X49200D01*
X38479Y34500D02*
X49200D01*
X38507Y34400D02*
X49200D01*
X38165Y35300D02*
X49200D01*
X38213Y35200D02*
X49200D01*
X38259Y35100D02*
X49200D01*
X38302Y35000D02*
X49200D01*
X38380Y34800D02*
X49200D01*
X38578Y34100D02*
X49200D01*
X38598Y34000D02*
X49200D01*
X38643Y33700D02*
X49200D01*
X38654Y33600D02*
X49200D01*
X38663Y33500D02*
X49200D01*
X38533Y34300D02*
X49200D01*
X38557Y34200D02*
X49200D01*
X38615Y33900D02*
X49200D01*
X38630Y33800D02*
X49200D01*
X38669Y33400D02*
X49200D01*
X38674Y33300D02*
X49200D01*
X38676Y33200D02*
X49200D01*
X38677Y33100D02*
X49200D01*
X38675Y33000D02*
X49200D01*
X38672Y32900D02*
X49200D01*
X38666Y32800D02*
X49200D01*
X38658Y32700D02*
X49200D01*
X38649Y32600D02*
X49200D01*
X38637Y32500D02*
X49200D01*
X38623Y32400D02*
X49200D01*
X38607Y32300D02*
X49200D01*
X38588Y32200D02*
X49200D01*
X38568Y32100D02*
X49200D01*
X38545Y32000D02*
X49200D01*
X38520Y31900D02*
X49200D01*
X38493Y31800D02*
X49200D01*
X38464Y31700D02*
X49200D01*
X38432Y31600D02*
X49200D01*
X38398Y31500D02*
X49200D01*
X38361Y31400D02*
X49200D01*
X38322Y31300D02*
X49200D01*
X38280Y31200D02*
X49200D01*
X38236Y31100D02*
X49200D01*
X38189Y31000D02*
X49200D01*
X38139Y30900D02*
X49200D01*
X38086Y30800D02*
X49200D01*
X38030Y30700D02*
X49200D01*
X37971Y30600D02*
X49200D01*
X37909Y30500D02*
X49200D01*
X37843Y30400D02*
X49200D01*
X37774Y30300D02*
X49200D01*
X37701Y30200D02*
X49200D01*
X37624Y30100D02*
X49200D01*
X37543Y30000D02*
X49200D01*
X37457Y29900D02*
X49200D01*
X37366Y29800D02*
X49200D01*
X25855Y46800D02*
X42513D01*
X25777Y46600D02*
X42630D01*
X25817Y46700D02*
X42570D01*
X25688Y46400D02*
X42759D01*
X25734Y46500D02*
X42693D01*
X25588Y46200D02*
X42904D01*
X25534Y46100D02*
X42982D01*
X25639Y46300D02*
X42830D01*
X25416Y45900D02*
X43151D01*
X25476Y46000D02*
X43064D01*
X25284Y45700D02*
X43341D01*
X25213Y45600D02*
X43444D01*
X25352Y45800D02*
X43244D01*
X25059Y45400D02*
X43671D01*
X25138Y45500D02*
X43554D01*
X24887Y45200D02*
X43929D01*
X24975Y45300D02*
X43796D01*
X24694Y45000D02*
X44229D01*
X24793Y45100D02*
X44073D01*
X26147Y48700D02*
X41930D01*
X26150Y48600D02*
X41940D01*
X26152Y48500D02*
X41952D01*
X26151Y48400D02*
X41967D01*
X26149Y48300D02*
X41984D01*
X26138Y48100D02*
X42023D01*
X26129Y48000D02*
X42047D01*
X26144Y48200D02*
X42002D01*
X26105Y47800D02*
X42100D01*
X26118Y47900D02*
X42072D01*
X26090Y47700D02*
X42130D01*
X26053Y47500D02*
X42197D01*
X26073Y47600D02*
X42162D01*
X26008Y47300D02*
X42274D01*
X26032Y47400D02*
X42234D01*
X25954Y47100D02*
X42361D01*
X25982Y47200D02*
X42316D01*
X25890Y46900D02*
X42460D01*
X25923Y47000D02*
X42409D01*
X23616Y44200D02*
X49200D01*
X34403Y38100D02*
X49200D01*
X34917Y38000D02*
X49200D01*
X35261Y37900D02*
X49200D01*
X35535Y37800D02*
X49200D01*
X23423Y44100D02*
X49200D01*
X23205Y44000D02*
X49200D01*
X22954Y43900D02*
X49200D01*
X22650Y43800D02*
X49200D01*
X22245Y43700D02*
X49200D01*
X36475Y37300D02*
X49200D01*
X36616Y37200D02*
X49200D01*
X36747Y37100D02*
X49200D01*
X36870Y37000D02*
X49200D01*
X36985Y36900D02*
X49200D01*
X35768Y37700D02*
X49200D01*
X35973Y37600D02*
X49200D01*
X36156Y37500D02*
X49200D01*
X36322Y37400D02*
X49200D01*
X24478Y44800D02*
X44588D01*
X24359Y44700D02*
X44798D01*
X24590Y44900D02*
X44400D01*
X37093Y36800D02*
X49200D01*
X37195Y36700D02*
X49200D01*
X24097Y44500D02*
X45328D01*
X24233Y44600D02*
X45040D01*
X23790Y44300D02*
X46324D01*
X23950Y44400D02*
X45699D01*
X37270Y29700D02*
X49200D01*
X37168Y29600D02*
X49200D01*
X37060Y29500D02*
X49200D01*
X36945Y29400D02*
X49200D01*
X36822Y29300D02*
X49200D01*
X36691Y29200D02*
X49200D01*
X36550Y29100D02*
X49200D01*
X36397Y29000D02*
X49200D01*
X36230Y28900D02*
X49200D01*
X35400Y37852D02*
Y64200D01*
X35300Y37887D02*
Y64200D01*
X35200Y37920D02*
Y64200D01*
X35600Y37774D02*
Y64200D01*
X35500Y37814D02*
Y64200D01*
X34900Y38004D02*
Y64200D01*
X34800Y38028D02*
Y64200D01*
X34700Y38049D02*
Y64200D01*
X35100Y37950D02*
Y64200D01*
X35000Y37978D02*
Y64200D01*
X34600Y38068D02*
Y64200D01*
X34500Y38085D02*
Y64200D01*
X34400Y38100D02*
Y64200D01*
X34300Y38113D02*
Y64200D01*
X34200Y38124D02*
Y64200D01*
X34100Y38133D02*
Y64200D01*
X34000Y38139D02*
Y64200D01*
X33900Y38144D02*
Y64200D01*
X33800Y38146D02*
Y64200D01*
X33700Y38146D02*
Y64200D01*
X33600Y38145D02*
Y64200D01*
X33500Y38141D02*
Y64200D01*
X33400Y38135D02*
Y64200D01*
X33300Y38128D02*
Y64200D01*
X33200Y38118D02*
Y64200D01*
X33100Y38106D02*
Y64200D01*
X33000Y38091D02*
Y64200D01*
X32900Y38075D02*
Y64200D01*
X32800Y38057D02*
Y64200D01*
X32700Y38036D02*
Y64200D01*
X32600Y38014D02*
Y64200D01*
X32500Y37989D02*
Y64200D01*
X32400Y37961D02*
Y64200D01*
X32300Y37932D02*
Y64200D01*
X32200Y37900D02*
Y64200D01*
X32100Y37866D02*
Y64200D01*
X32000Y37829D02*
Y64200D01*
X31900Y37790D02*
Y64200D01*
X38400Y34745D02*
Y64200D01*
X38300Y35004D02*
Y64200D01*
X38200Y35228D02*
Y64200D01*
X38600Y33989D02*
Y64200D01*
X38500Y34427D02*
Y64200D01*
X37900Y35795D02*
Y64200D01*
X37800Y35953D02*
Y64200D01*
X37700Y36099D02*
Y64200D01*
X38100Y35429D02*
Y64200D01*
X38000Y35621D02*
Y64200D01*
X37400Y36479D02*
Y64200D01*
X37300Y36590D02*
Y64200D01*
X37200Y36695D02*
Y64200D01*
X37600Y36235D02*
Y64200D01*
X37500Y36361D02*
Y64200D01*
X36900Y36975D02*
Y64200D01*
X36800Y37058D02*
Y64200D01*
X37100Y36793D02*
Y64200D01*
X37000Y36887D02*
Y64200D01*
X36500Y37283D02*
Y64200D01*
X36400Y37350D02*
Y64200D01*
X36300Y37414D02*
Y64200D01*
X36700Y37137D02*
Y64200D01*
X36600Y37212D02*
Y64200D01*
X36000Y37586D02*
Y64200D01*
X35900Y37637D02*
Y64200D01*
X36200Y37474D02*
Y64200D01*
X36100Y37532D02*
Y64200D01*
X35800Y37685D02*
Y64200D01*
X35700Y37731D02*
Y64200D01*
X31800Y37748D02*
Y64200D01*
X31700Y37703D02*
Y64200D01*
X31600Y37656D02*
Y64200D01*
X31500Y37606D02*
Y64200D01*
X31400Y37553D02*
Y64200D01*
X31300Y37497D02*
Y64200D01*
X31200Y37438D02*
Y64200D01*
X27700Y64200D02*
X39077D01*
X27700Y64200D02*
X39077D01*
X27700Y61800D02*
Y64200D01*
X24900Y61800D02*
Y64200D01*
X23500Y52812D02*
Y64200D01*
X20815Y64200D02*
X24900D01*
X20815Y64200D02*
X24900D01*
X23300Y52908D02*
Y64200D01*
X23400Y52861D02*
Y64200D01*
X23200Y52952D02*
Y64200D01*
X27700Y64000D02*
X39094D01*
X27700Y63900D02*
X39103D01*
X27700Y64100D02*
X39085D01*
X23100Y52994D02*
Y64200D01*
X23000Y53033D02*
Y64200D01*
X20920Y64100D02*
X24900D01*
X21019Y64000D02*
X24900D01*
X22900Y53070D02*
Y64200D01*
X22800Y53104D02*
Y64200D01*
X22700Y53135D02*
Y64200D01*
X22400Y53216D02*
Y64200D01*
X22300Y61488D02*
Y64200D01*
X22600Y53164D02*
Y64200D01*
X22500Y53191D02*
Y64200D01*
X22100Y62245D02*
Y64200D01*
X22000Y62504D02*
Y64200D01*
X21900Y62728D02*
Y64200D01*
X22200Y61927D02*
Y64200D01*
X21600Y63265D02*
Y64200D01*
X21500Y63414D02*
Y64200D01*
X21400Y63552D02*
Y64200D01*
X21800Y62925D02*
Y64200D01*
X21700Y63103D02*
Y64200D01*
X21100Y63913D02*
Y64200D01*
X21000Y64019D02*
Y64200D01*
X21300Y63680D02*
Y64200D01*
X21200Y63800D02*
Y64200D01*
X31100Y37375D02*
Y64200D01*
X31000Y37309D02*
Y64200D01*
X30900Y37240D02*
Y64200D01*
X30800Y37167D02*
Y64200D01*
X30700Y37089D02*
Y64200D01*
X30600Y37008D02*
Y64200D01*
X30500Y36921D02*
Y64200D01*
X30400Y36830D02*
Y64200D01*
X30300Y36734D02*
Y64200D01*
X30200Y36632D02*
Y64200D01*
X30100Y36523D02*
Y64200D01*
X30000Y36408D02*
Y64200D01*
X29900Y36285D02*
Y64200D01*
X29800Y36153D02*
Y64200D01*
X29700Y36011D02*
Y64200D01*
X29600Y35858D02*
Y64200D01*
X29500Y35691D02*
Y64200D01*
X29400Y35506D02*
Y64200D01*
X29300Y35300D02*
Y64200D01*
X29200Y35066D02*
Y64200D01*
X29100Y34788D02*
Y64200D01*
X24900Y51736D02*
Y64200D01*
X29000Y34439D02*
Y64200D01*
X28900Y33906D02*
Y64200D01*
X24600Y52041D02*
Y64200D01*
X24500Y52131D02*
Y64200D01*
X24800Y51843D02*
Y64200D01*
X24700Y51945D02*
Y64200D01*
X24200Y52375D02*
Y64200D01*
X24100Y52448D02*
Y64200D01*
X24000Y52517D02*
Y64200D01*
X24400Y52217D02*
Y64200D01*
X24300Y52298D02*
Y64200D01*
X23800Y52644D02*
Y64200D01*
X23600Y52759D02*
Y64200D01*
X23900Y52582D02*
Y64200D01*
X23700Y52703D02*
Y64200D01*
X27700Y62800D02*
X39271D01*
X27700Y62700D02*
X39292D01*
X27700Y62600D02*
X39314D01*
X27700Y62400D02*
X39361D01*
X27700Y62500D02*
X39337D01*
X27700Y62300D02*
X39386D01*
X27700Y62100D02*
X39439D01*
X27700Y62200D02*
X39412D01*
X27700Y62000D02*
X39467D01*
X27700Y61900D02*
X39496D01*
X22330Y61300D02*
X39692D01*
X22343Y61200D02*
X39728D01*
X22257Y61700D02*
X39557D01*
X22354Y61100D02*
X39766D01*
X22363Y61000D02*
X39805D01*
X22233Y61800D02*
X39526D01*
X22278Y61600D02*
X39589D01*
X22298Y61500D02*
X39622D01*
X22315Y61400D02*
X39657D01*
X27700Y63800D02*
X39114D01*
X27700Y63700D02*
X39125D01*
X27700Y63600D02*
X39138D01*
X27700Y63500D02*
X39151D01*
X27700Y63400D02*
X39166D01*
X27700Y63300D02*
X39181D01*
X27700Y63200D02*
X39197D01*
X27700Y63100D02*
X39214D01*
X27700Y63000D02*
X39232D01*
X27700Y62900D02*
X39251D01*
X24900Y61800D02*
X27700D01*
X22179Y62000D02*
X24900D01*
X22080Y62300D02*
X24900D01*
X22115Y62200D02*
X24900D01*
X22148Y62100D02*
X24900D01*
X22207Y61900D02*
X24900D01*
X22376Y60700D02*
X39928D01*
X22377Y60600D02*
X39971D01*
X22369Y60900D02*
X39844D01*
X22375Y60500D02*
X40015D01*
X22372Y60400D02*
X40061D01*
X22366Y60300D02*
X40108D01*
X22349Y60100D02*
X40205D01*
X22358Y60200D02*
X40156D01*
X22323Y59900D02*
X40308D01*
X22337Y60000D02*
X40256D01*
X22307Y59800D02*
X40361D01*
X22268Y59600D02*
X40472D01*
X22288Y59700D02*
X40416D01*
X22245Y59500D02*
X40529D01*
X22220Y59400D02*
X40588D01*
X22164Y59200D02*
X40710D01*
X22193Y59300D02*
X40648D01*
X22132Y59100D02*
X40773D01*
X22098Y59000D02*
X40838D01*
X25900Y50022D02*
Y61800D01*
X25800Y50293D02*
Y61800D01*
X25700Y50525D02*
Y61800D01*
X26100Y49186D02*
Y61800D01*
X26000Y49683D02*
Y61800D01*
X25400Y51075D02*
Y61800D01*
X25300Y51228D02*
Y61800D01*
X25600Y50728D02*
Y61800D01*
X25500Y50910D02*
Y61800D01*
X25200Y51368D02*
Y61800D01*
X25100Y51499D02*
Y61800D01*
X25000Y51621D02*
Y61800D01*
X22374Y60800D02*
X39885D01*
X22300Y53239D02*
Y59762D01*
X22200Y53259D02*
Y59323D01*
X22100Y53277D02*
Y59005D01*
X21510Y63400D02*
X24900D01*
X21577Y63300D02*
X24900D01*
X21641Y63200D02*
X24900D01*
X21702Y63100D02*
X24900D01*
X21759Y63000D02*
X24900D01*
X21112Y63900D02*
X24900D01*
X21200Y63800D02*
X24900D01*
X21284Y63700D02*
X24900D01*
X21363Y63600D02*
X24900D01*
X21438Y63500D02*
X24900D01*
X22061Y58900D02*
X40904D01*
X22022Y58800D02*
X40972D01*
X21865Y62800D02*
X24900D01*
X21936Y58600D02*
X41113D01*
X21980Y58700D02*
X41042D01*
X21889Y58500D02*
X41186D01*
X21813Y62900D02*
X24900D01*
X21839Y58400D02*
X41260D01*
X21786Y58300D02*
X41337D01*
X21913Y62700D02*
X24900D01*
X21959Y62600D02*
X24900D01*
X22002Y62500D02*
X24900D01*
X22042Y62400D02*
X24900D01*
X22000Y53293D02*
Y58746D01*
X21900Y53307D02*
Y58522D01*
X21800Y53319D02*
Y58325D01*
X21700Y53328D02*
Y58147D01*
X21600Y53336D02*
Y57985D01*
X21500Y53342D02*
Y57836D01*
X21400Y53345D02*
Y57698D01*
X21300Y53347D02*
Y57570D01*
X21200Y53346D02*
Y57450D01*
X21100Y53343D02*
Y57337D01*
X21000Y53339D02*
Y57231D01*
X20900Y53332D02*
Y57131D01*
X20800Y53323D02*
Y57036D01*
X20700Y53312D02*
Y56947D01*
X20600Y53299D02*
Y56862D01*
X20500Y53284D02*
Y56782D01*
X21000Y28911D02*
Y43611D01*
X20400Y53266D02*
Y56707D01*
X21100Y28862D02*
Y43607D01*
X20900Y28958D02*
Y43618D01*
X20300Y53247D02*
Y56635D01*
Y29185D02*
Y43703D01*
X20200Y53225D02*
Y56566D01*
X20400Y29154D02*
Y43684D01*
X20200Y29214D02*
Y43725D01*
X20800Y29002D02*
Y43627D01*
X20806Y29000D02*
X31214D01*
X20600Y29083D02*
Y43651D01*
X21023Y28900D02*
X31380D01*
X20700Y29044D02*
Y43638D01*
X20251Y29200D02*
X30920D01*
X19846Y29300D02*
X30789D01*
X20555Y29100D02*
X31061D01*
X20500Y29120D02*
Y43666D01*
X20100Y53201D02*
Y56502D01*
X20000Y53175D02*
Y56441D01*
X19900Y53147D02*
Y56382D01*
X19800Y53116D02*
Y56328D01*
X19700Y53083D02*
Y56276D01*
X19600Y53048D02*
Y56227D01*
X19500Y53010D02*
Y56180D01*
X19400Y52969D02*
Y56137D01*
X19300Y52926D02*
Y56096D01*
X20000Y29266D02*
Y43775D01*
X19900Y29289D02*
Y43803D01*
X19700Y29327D02*
Y43867D01*
X20100Y29241D02*
Y43749D01*
X19800Y29309D02*
Y43834D01*
X19600Y29343D02*
Y43902D01*
X19500Y29357D02*
Y43940D01*
X19400Y29369D02*
Y43981D01*
X19300Y29378D02*
Y44024D01*
X47900Y20704D02*
Y44409D01*
X47700Y20778D02*
Y44366D01*
X47600Y20812D02*
Y44348D01*
X48100Y20620D02*
Y44460D01*
X47800Y20742D02*
Y44386D01*
X47500Y20843D02*
Y44332D01*
X47200Y20922D02*
Y44296D01*
X47100Y20944D02*
Y44289D01*
X47400Y20871D02*
Y44318D01*
X47300Y20898D02*
Y44306D01*
X47000Y20964D02*
Y44283D01*
X46700Y21010D02*
Y44279D01*
X46600Y21021D02*
Y44282D01*
X46900Y20981D02*
Y44280D01*
X46800Y20997D02*
Y44278D01*
X46500Y21031D02*
Y44286D01*
X46400Y21038D02*
Y44293D01*
X46300Y21043D02*
Y44302D01*
X46200Y21046D02*
Y44313D01*
X45300Y20980D02*
Y44509D01*
X45200Y20962D02*
Y44542D01*
X45000Y20919D02*
Y44615D01*
X44900Y20895D02*
Y44656D01*
X44800Y20868D02*
Y44699D01*
X44600Y20808D02*
Y44794D01*
X44700Y20839D02*
Y44745D01*
X44500Y20774D02*
Y44845D01*
X44400Y20738D02*
Y44900D01*
X44300Y20700D02*
Y44957D01*
X46100Y21047D02*
Y44326D01*
X46000Y21045D02*
Y44341D01*
X45900Y21042D02*
Y44359D01*
X45800Y21037D02*
Y44378D01*
X45700Y21030D02*
Y44400D01*
X45600Y21020D02*
Y44424D01*
X45500Y21009D02*
Y44450D01*
X45400Y20995D02*
Y44478D01*
X45100Y20942D02*
Y44577D01*
X49100Y20018D02*
Y44866D01*
X49000Y20094D02*
Y44813D01*
X44200Y20658D02*
Y45018D01*
X49200Y19938D02*
Y44922D01*
X49200Y19937D02*
Y44922D01*
X44000Y20568D02*
Y45150D01*
X44100Y20615D02*
Y45082D01*
X43900Y20519D02*
Y45221D01*
X43800Y20466D02*
Y45297D01*
X43700Y20411D02*
Y45376D01*
X48700Y20298D02*
Y44672D01*
X48600Y20360D02*
Y44631D01*
X48500Y20418D02*
Y44592D01*
X48900Y20165D02*
Y44764D01*
X48800Y20234D02*
Y44717D01*
X48300Y20524D02*
Y44521D01*
X48000Y20663D02*
Y44433D01*
X48400Y20472D02*
Y44555D01*
X48200Y20573D02*
Y44490D01*
X42600Y19558D02*
Y46649D01*
X42700Y19658D02*
Y46489D01*
X42500Y19451D02*
Y46824D01*
X42400Y19337D02*
Y47019D01*
X42300Y19216D02*
Y47238D01*
X42200Y19087D02*
Y47491D01*
X42100Y18948D02*
Y47799D01*
X42000Y18797D02*
Y48213D01*
X41900Y18634D02*
Y57629D01*
X43500Y20291D02*
Y45549D01*
X43600Y20353D02*
Y45460D01*
X43400Y20226D02*
Y45642D01*
X43300Y20158D02*
Y45741D01*
X43200Y20085D02*
Y45847D01*
X43100Y20009D02*
Y45958D01*
X43000Y19928D02*
Y46078D01*
X42900Y19843D02*
Y46205D01*
X42800Y19753D02*
Y46341D01*
X36047Y28800D02*
X49200D01*
X35843Y28700D02*
X49200D01*
X35610Y28600D02*
X49200D01*
X35335Y28500D02*
X49200D01*
X34991Y28400D02*
X49200D01*
X34477Y28300D02*
X49200D01*
X22078Y28200D02*
X49200D01*
X22190Y28100D02*
X49200D01*
X22295Y28000D02*
X49200D01*
X22394Y27900D02*
X49200D01*
X22813Y27400D02*
X49200D01*
X22884Y27300D02*
X49200D01*
X22952Y27200D02*
X49200D01*
X23016Y27100D02*
X49200D01*
X23077Y27000D02*
X49200D01*
X22487Y27800D02*
X49200D01*
X22575Y27700D02*
X49200D01*
X22659Y27600D02*
X49200D01*
X22738Y27500D02*
X49200D01*
X23334Y26500D02*
X49200D01*
X23417Y26300D02*
X49200D01*
X23455Y26200D02*
X49200D01*
X23490Y26100D02*
X49200D01*
X23523Y26000D02*
X49200D01*
X23134Y26900D02*
X49200D01*
X23188Y26800D02*
X49200D01*
X23240Y26700D02*
X49200D01*
X23288Y26600D02*
X49200D01*
X23377Y26400D02*
X49200D01*
X23582Y25800D02*
X49200D01*
X23673Y25400D02*
X49200D01*
X23690Y25300D02*
X49200D01*
X23705Y25200D02*
X49200D01*
X23718Y25100D02*
X49200D01*
X23554Y25900D02*
X49200D01*
X23608Y25700D02*
X49200D01*
X23632Y25600D02*
X49200D01*
X23653Y25500D02*
X49200D01*
X23749Y24700D02*
X49200D01*
X23751Y24600D02*
X49200D01*
X23752Y24500D02*
X49200D01*
X23750Y24400D02*
X49200D01*
X23747Y24300D02*
X49200D01*
X23729Y25000D02*
X49200D01*
X23738Y24900D02*
X49200D01*
X23744Y24800D02*
X49200D01*
X23741Y24200D02*
X49200D01*
X23733Y24100D02*
X49200D01*
X23724Y24000D02*
X49200D01*
X23712Y23900D02*
X49200D01*
X23698Y23800D02*
X49200D01*
X23682Y23700D02*
X49200D01*
X23663Y23600D02*
X49200D01*
X23643Y23500D02*
X49200D01*
X23620Y23400D02*
X49200D01*
X23595Y23300D02*
X49200D01*
X23568Y23200D02*
X49200D01*
X41400Y17436D02*
Y58219D01*
X41500Y17763D02*
Y58094D01*
X41300Y16974D02*
Y58348D01*
X41200Y15930D02*
Y58481D01*
X41100Y15881D02*
Y58618D01*
X41000Y15830D02*
Y58760D01*
X40900Y15775D02*
Y58906D01*
X40800Y15718D02*
Y59058D01*
X40700Y15657D02*
Y59216D01*
X23539Y23100D02*
X49200D01*
X23507Y23000D02*
X49200D01*
X41800Y18454D02*
Y57740D01*
X41700Y18254D02*
Y57855D01*
X41600Y18028D02*
Y57973D01*
X23473Y22900D02*
X49200D01*
X23436Y22800D02*
X49200D01*
X23397Y22700D02*
X49200D01*
X23355Y22600D02*
X49200D01*
X48143Y20600D02*
X49200D01*
X48348Y20500D02*
X49200D01*
X48531Y20400D02*
X49200D01*
X48697Y20300D02*
X49200D01*
X48850Y20200D02*
X49200D01*
X46778Y21000D02*
X49200D01*
X47292Y20900D02*
X49200D01*
X47636Y20800D02*
X49200D01*
X47910Y20700D02*
X49200D01*
X48991Y20100D02*
X49200D01*
X46297Y7700D02*
X46450D01*
X46166Y7600D02*
X46450D01*
X46025Y7500D02*
X46450D01*
X45872Y7400D02*
X46450D01*
X45706Y7300D02*
X46450D01*
X45522Y7200D02*
X46450D01*
X45318Y7100D02*
X46450D01*
X45085Y7000D02*
X46450D01*
Y5850D02*
Y7826D01*
X46400Y5850D02*
Y7783D01*
X46300Y5850D02*
Y7702D01*
X46200Y5850D02*
Y7625D01*
X46100Y5850D02*
Y7552D01*
X46000Y5850D02*
Y7483D01*
X45900Y5850D02*
Y7418D01*
X45800Y5850D02*
Y7355D01*
X45700Y5850D02*
Y7297D01*
X45600Y5850D02*
Y7241D01*
X45500Y5850D02*
Y7188D01*
X45400Y5850D02*
Y7139D01*
X45300Y5850D02*
Y7092D01*
X45200Y5850D02*
Y7047D01*
X45100Y5850D02*
Y7006D01*
X44810Y6900D02*
X46450D01*
X44466Y6800D02*
X46450D01*
X43952Y6700D02*
X46450D01*
X45000Y5850D02*
Y6967D01*
X44900Y5850D02*
Y6930D01*
X44800Y5850D02*
Y6896D01*
X44700Y5850D02*
Y6865D01*
X44600Y5850D02*
Y6835D01*
X44500Y5850D02*
Y6809D01*
X44400Y5850D02*
Y6784D01*
X44300Y5850D02*
Y6761D01*
X44200Y5850D02*
Y6741D01*
X44100Y5850D02*
Y6723D01*
X44000Y5850D02*
Y6707D01*
X43900Y5850D02*
Y6693D01*
X43800Y5850D02*
Y6681D01*
X43700Y5850D02*
Y6672D01*
X43600Y5850D02*
Y6664D01*
X43500Y5850D02*
Y6658D01*
X43400Y5850D02*
Y6655D01*
X43300Y5850D02*
Y6653D01*
X43200Y5850D02*
Y6654D01*
X43100Y5850D02*
Y6657D01*
X42000Y5850D02*
Y6825D01*
X42400Y5850D02*
Y6734D01*
X41900Y5850D02*
Y6853D01*
X41800Y5850D02*
Y6884D01*
X41700Y5850D02*
Y6917D01*
X41600Y5850D02*
Y6952D01*
X41500Y5850D02*
Y6990D01*
X41400Y5850D02*
Y7031D01*
X41300Y5850D02*
Y7074D01*
X43000Y5850D02*
Y6662D01*
X42900Y5850D02*
Y6668D01*
X42800Y5850D02*
Y6677D01*
X42700Y5850D02*
Y6688D01*
X42600Y5850D02*
Y6701D01*
X42500Y5850D02*
Y6716D01*
X42300Y5850D02*
Y6753D01*
X42200Y5850D02*
Y6775D01*
X42100Y5850D02*
Y6799D01*
X23311Y22500D02*
X49200D01*
X23264Y22400D02*
X49200D01*
X23214Y22300D02*
X49200D01*
X23161Y22200D02*
X49200D01*
X23105Y22100D02*
X49200D01*
X23046Y22000D02*
X49200D01*
X22984Y21900D02*
X49200D01*
X22919Y21800D02*
X49200D01*
X22849Y21700D02*
X49200D01*
X22776Y21600D02*
X49200D01*
X22699Y21500D02*
X49200D01*
X22618Y21400D02*
X49200D01*
X22532Y21300D02*
X49200D01*
X22441Y21200D02*
X49200D01*
X22345Y21100D02*
X49200D01*
X22243Y21000D02*
X45433D01*
X22135Y20900D02*
X44919D01*
X22020Y20800D02*
X44575D01*
X21897Y20700D02*
X44301D01*
X21766Y20600D02*
X44068D01*
X21625Y20500D02*
X43863D01*
X21472Y20400D02*
X43680D01*
X21305Y20300D02*
X43514D01*
X21122Y20200D02*
X43361D01*
X20918Y20100D02*
X43220D01*
X20685Y20000D02*
X43088D01*
X20410Y19900D02*
X42966D01*
X20231Y19800D02*
X42851D01*
X20286Y19700D02*
X42743D01*
X20522Y19200D02*
X42287D01*
X20561Y19100D02*
X42210D01*
X20598Y19000D02*
X42137D01*
X20632Y18900D02*
X42067D01*
X20664Y18800D02*
X42001D01*
X20339Y19600D02*
X42641D01*
X20389Y19500D02*
X42545D01*
X20436Y19400D02*
X42454D01*
X20481Y19300D02*
X42368D01*
X20768Y18400D02*
X41772D01*
X20788Y18300D02*
X41722D01*
X20837Y18000D02*
X41589D01*
X20849Y17900D02*
X41549D01*
X20858Y17800D02*
X41513D01*
X20693Y18700D02*
X41939D01*
X20720Y18600D02*
X41880D01*
X20745Y18500D02*
X41824D01*
X20807Y18200D02*
X41675D01*
X20823Y18100D02*
X41630D01*
X20866Y17700D02*
X41479D01*
X20872Y17600D02*
X41447D01*
X20875Y17500D02*
X41417D01*
X20877Y17400D02*
X41390D01*
X20876Y17300D02*
X41365D01*
X20874Y17200D02*
X41343D01*
X20869Y17100D02*
X41322D01*
X20863Y17000D02*
X41304D01*
X20854Y16900D02*
X41288D01*
X20843Y16800D02*
X41274D01*
X20830Y16700D02*
X41262D01*
X20815Y16600D02*
X41252D01*
X20798Y16500D02*
X41245D01*
X20778Y16400D02*
X41239D01*
X20757Y16300D02*
X41235D01*
X20733Y16200D02*
X41234D01*
X20707Y16100D02*
X41234D01*
X41100Y5850D02*
Y7169D01*
X41200Y5850D02*
Y7120D01*
X41000Y5850D02*
Y7220D01*
X40900Y5850D02*
Y7275D01*
X40800Y5850D02*
Y7332D01*
X20679Y16000D02*
X41237D01*
X20648Y15900D02*
X41137D01*
X20615Y15800D02*
X40944D01*
X20580Y15700D02*
X40770D01*
X39600Y14717D02*
Y61567D01*
X39700Y14828D02*
Y61278D01*
X39500Y14597D02*
Y61887D01*
X39400Y14470D02*
Y62246D01*
X39300Y14333D02*
Y62665D01*
X39100Y14026D02*
Y63936D01*
X39200Y14186D02*
Y63183D01*
X39000Y13851D02*
Y64200D01*
X38900Y13656D02*
Y64200D01*
X38800Y13437D02*
Y64200D01*
X40500Y15525D02*
Y59551D01*
X40600Y15593D02*
Y59380D01*
X40400Y15454D02*
Y59729D01*
X40300Y15378D02*
Y59915D01*
X40200Y15299D02*
Y60111D01*
X40100Y15215D02*
Y60317D01*
X40000Y15126D02*
Y60534D01*
X39900Y15033D02*
Y60765D01*
X39800Y14934D02*
Y61012D01*
X38700Y13184D02*
Y64200D01*
X38600Y12876D02*
Y32261D01*
X38500Y12462D02*
Y31823D01*
X38400Y5850D02*
Y31505D01*
X38300Y5850D02*
Y31246D01*
X38200Y5850D02*
Y31022D01*
X38100Y5850D02*
Y30825D01*
X38000Y5850D02*
Y30647D01*
X37900Y5850D02*
Y30485D01*
X37800Y5850D02*
Y30336D01*
X37700Y5850D02*
Y30198D01*
X37600Y5850D02*
Y30070D01*
X37500Y5850D02*
Y29950D01*
X37400Y5850D02*
Y29837D01*
X37300Y5850D02*
Y29731D01*
X37200Y5850D02*
Y29631D01*
X37100Y5850D02*
Y29536D01*
X37000Y5850D02*
Y29447D01*
X36900Y5850D02*
Y29362D01*
X36800Y5850D02*
Y29282D01*
X36700Y5850D02*
Y29207D01*
X36600Y5850D02*
Y29135D01*
X31000Y5850D02*
Y29142D01*
X30800Y5850D02*
Y29291D01*
X30900Y5850D02*
Y29215D01*
X30700Y5850D02*
Y29372D01*
X30600Y5850D02*
Y29457D01*
X30500Y5850D02*
Y29546D01*
X36500Y5850D02*
Y29066D01*
X36400Y5850D02*
Y29002D01*
X36300Y5850D02*
Y28941D01*
X36200Y5850D02*
Y28882D01*
X36100Y5850D02*
Y28828D01*
X31400Y5850D02*
Y28889D01*
X31300Y5850D02*
Y28947D01*
X31200Y5850D02*
Y29009D01*
X31100Y5850D02*
Y29074D01*
X29400Y5850D02*
Y31044D01*
X29500Y5850D02*
Y30846D01*
X29300Y5850D02*
Y31250D01*
X29200Y5850D02*
Y31484D01*
X29100Y5850D02*
Y31762D01*
X29000Y5850D02*
Y32111D01*
X28900Y5850D02*
Y32644D01*
X28800Y5850D02*
Y64200D01*
X28700Y5850D02*
Y64200D01*
X30300Y5850D02*
Y29742D01*
X30400Y5850D02*
Y29642D01*
X30200Y5850D02*
Y29849D01*
X30100Y5850D02*
Y29963D01*
X30000Y5850D02*
Y30084D01*
X29900Y5850D02*
Y30213D01*
X29800Y5850D02*
Y30352D01*
X29700Y5850D02*
Y30503D01*
X29600Y5850D02*
Y30666D01*
X28600Y5850D02*
Y64200D01*
X28500Y5850D02*
Y64200D01*
X28400Y5850D02*
Y64200D01*
X28300Y5850D02*
Y64200D01*
X28200Y5850D02*
Y64200D01*
X28100Y5850D02*
Y64200D01*
X28000Y5850D02*
Y64200D01*
X27900Y5850D02*
Y64200D01*
X27800Y5850D02*
Y64200D01*
X27700Y5850D02*
Y61800D01*
X23700Y25236D02*
Y44247D01*
X23600Y25733D02*
Y44191D01*
X23500Y26072D02*
Y44138D01*
X27600Y5850D02*
Y61800D01*
X27500Y5850D02*
Y61800D01*
X23200Y26778D02*
Y43998D01*
X23100Y26960D02*
Y43956D01*
X23400Y26343D02*
Y44089D01*
X23300Y26575D02*
Y44042D01*
X22800Y27418D02*
Y43846D01*
X22700Y27549D02*
Y43815D01*
X22600Y27671D02*
Y43786D01*
X23000Y27125D02*
Y43917D01*
X22900Y27277D02*
Y43880D01*
X22300Y27995D02*
Y43711D01*
X22200Y28091D02*
Y43691D01*
X22100Y28181D02*
Y43673D01*
X22500Y27786D02*
Y43759D01*
X22400Y27893D02*
Y43734D01*
X21800Y28425D02*
Y43631D01*
X21700Y28498D02*
Y43622D01*
X21600Y28567D02*
Y43614D01*
X22000Y28267D02*
Y43657D01*
X21900Y28348D02*
Y43643D01*
X21300Y28753D02*
Y43603D01*
X21200Y28809D02*
Y43604D01*
X21500Y28632D02*
Y43608D01*
X21400Y28694D02*
Y43605D01*
X27400Y5850D02*
Y61800D01*
X27300Y5850D02*
Y61800D01*
X27200Y5850D02*
Y61800D01*
X27100Y5850D02*
Y61800D01*
X27000Y5850D02*
Y61800D01*
X26900Y5850D02*
Y61800D01*
X26800Y5850D02*
Y61800D01*
X26700Y5850D02*
Y61800D01*
X26600Y5850D02*
Y61800D01*
X26500Y5850D02*
Y61800D01*
X26400Y5850D02*
Y61800D01*
X26300Y5850D02*
Y61800D01*
X26200Y5850D02*
Y61800D01*
X26100Y5850D02*
Y47764D01*
X26000Y5850D02*
Y47267D01*
X25900Y5850D02*
Y46928D01*
X25800Y5850D02*
Y46657D01*
X25700Y5850D02*
Y46425D01*
X25600Y5850D02*
Y46222D01*
X25500Y5850D02*
Y46040D01*
X25400Y5850D02*
Y45875D01*
X25300Y5850D02*
Y45722D01*
X25200Y5850D02*
Y45582D01*
X25100Y5850D02*
Y45451D01*
X25000Y5850D02*
Y45329D01*
X24900Y5850D02*
Y45214D01*
X24800Y5850D02*
Y45107D01*
X24700Y5850D02*
Y45005D01*
X24600Y5850D02*
Y44909D01*
X24500Y5850D02*
Y44819D01*
X24400Y5850D02*
Y44733D01*
X24300Y5850D02*
Y44652D01*
X24200Y5850D02*
Y44575D01*
X24100Y5850D02*
Y44502D01*
X24000Y5850D02*
Y44433D01*
X23900Y5850D02*
Y44368D01*
X23800Y5850D02*
Y44306D01*
X39700Y5850D02*
Y8222D01*
X39800Y5850D02*
Y8116D01*
X39600Y5850D02*
Y8333D01*
X39500Y5850D02*
Y8453D01*
X39400Y5850D02*
Y8580D01*
X39200Y5850D02*
Y8864D01*
X39300Y5850D02*
Y8717D01*
X39100Y5850D02*
Y9024D01*
X39000Y5850D02*
Y9199D01*
X38900Y5850D02*
Y9394D01*
X40700Y5850D02*
Y7393D01*
X40600Y5850D02*
Y7457D01*
X40500Y5850D02*
Y7525D01*
X40400Y5850D02*
Y7596D01*
X40300Y5850D02*
Y7672D01*
X40200Y5850D02*
Y7751D01*
X40100Y5850D02*
Y7835D01*
X40000Y5850D02*
Y7924D01*
X39900Y5850D02*
Y8017D01*
X36000Y5850D02*
Y28776D01*
X35900Y5850D02*
Y28727D01*
X35800Y5850D02*
Y28680D01*
X35700Y5850D02*
Y28637D01*
X35600Y5850D02*
Y28596D01*
X35500Y5850D02*
Y28558D01*
X35400Y5850D02*
Y28522D01*
X35300Y5850D02*
Y28488D01*
X35200Y5850D02*
Y28457D01*
X35100Y5850D02*
Y28429D01*
X38700Y5850D02*
Y9866D01*
X38800Y5850D02*
Y9613D01*
X38600Y5850D02*
Y10174D01*
X38500Y5850D02*
Y10588D01*
X35000Y5850D02*
Y28402D01*
X34900Y5850D02*
Y28378D01*
X34800Y5850D02*
Y28356D01*
X34700Y5850D02*
Y28336D01*
X34600Y5850D02*
Y28319D01*
X34500Y5850D02*
Y28303D01*
X34400Y5850D02*
Y28290D01*
X34300Y5850D02*
Y28279D01*
X33300Y5850D02*
Y28280D01*
X33200Y5850D02*
Y28291D01*
X33100Y5850D02*
Y28305D01*
X33000Y5850D02*
Y28320D01*
X32900Y5850D02*
Y28338D01*
X32800Y5850D02*
Y28358D01*
X32700Y5850D02*
Y28381D01*
X34200Y5850D02*
Y28269D01*
X34100Y5850D02*
Y28262D01*
X34000Y5850D02*
Y28257D01*
X33900Y5850D02*
Y28254D01*
X33800Y5850D02*
Y28253D01*
X33700Y5850D02*
Y28255D01*
X33600Y5850D02*
Y28258D01*
X33500Y5850D02*
Y28263D01*
X33400Y5850D02*
Y28270D01*
X32400Y5850D02*
Y28461D01*
X32300Y5850D02*
Y28492D01*
X32100Y5850D02*
Y28562D01*
X32000Y5850D02*
Y28600D01*
X31900Y5850D02*
Y28642D01*
X31800Y5850D02*
Y28685D01*
X31700Y5850D02*
Y28732D01*
X31600Y5850D02*
Y28781D01*
X31500Y5850D02*
Y28834D01*
X32600Y5850D02*
Y28405D01*
X32500Y5850D02*
Y28432D01*
X32200Y5850D02*
Y28526D01*
X23700Y5850D02*
Y23814D01*
X23600Y5850D02*
Y23317D01*
X23500Y5850D02*
Y22978D01*
X23400Y5850D02*
Y22707D01*
X23300Y5850D02*
Y22475D01*
X23200Y5850D02*
Y22272D01*
X20542Y15600D02*
X40611D01*
X20502Y15500D02*
X40464D01*
X20459Y15400D02*
X40328D01*
X20413Y15300D02*
X40201D01*
X20364Y15200D02*
X40082D01*
X20313Y15100D02*
X39971D01*
X20259Y15000D02*
X39866D01*
X20201Y14900D02*
X39767D01*
X20141Y14800D02*
X39674D01*
X20077Y14700D02*
X39586D01*
X20009Y14600D02*
X39502D01*
X19938Y14500D02*
X39423D01*
X19863Y14400D02*
X39348D01*
X19784Y14300D02*
X39276D01*
X19700Y14200D02*
X39209D01*
X19612Y14100D02*
X39145D01*
X19518Y14000D02*
X39084D01*
X19420Y13900D02*
X39027D01*
X19315Y13800D02*
X38973D01*
X21833Y28400D02*
X32620D01*
X21960Y28300D02*
X33134D01*
X21697Y28500D02*
X32276D01*
X23100Y5850D02*
Y22090D01*
X23000Y5850D02*
Y21925D01*
X21391Y28700D02*
X31768D01*
X21217Y28800D02*
X31564D01*
X21550Y28600D02*
X32001D01*
X20700Y18677D02*
Y20006D01*
X20600Y18995D02*
Y19967D01*
X20500Y19254D02*
Y19930D01*
X22900Y5850D02*
Y21773D01*
X20800Y18238D02*
Y20048D01*
X20400Y19478D02*
Y19896D01*
X20300Y19675D02*
Y19865D01*
X19203Y13700D02*
X38921D01*
X22800Y5850D02*
Y21632D01*
X22700Y5850D02*
Y21501D01*
X22600Y5850D02*
Y21379D01*
X22500Y5850D02*
Y21264D01*
X22400Y5850D02*
Y21157D01*
X22300Y5850D02*
Y21055D01*
X22200Y5850D02*
Y20959D01*
X22100Y5850D02*
Y20869D01*
X22000Y5850D02*
Y20783D01*
X21900Y5850D02*
Y20702D01*
X21800Y5850D02*
Y20625D01*
X21700Y5850D02*
Y20552D01*
X21600Y5850D02*
Y20483D01*
X21500Y5850D02*
Y20418D01*
X21400Y5850D02*
Y20356D01*
X21300Y5850D02*
Y20297D01*
X21200Y5850D02*
Y20241D01*
X21100Y5850D02*
Y20188D01*
X21000Y5850D02*
Y20139D01*
X20900Y5850D02*
Y20092D01*
X20800Y5850D02*
Y16512D01*
X20700Y5850D02*
Y16073D01*
X20600Y5850D02*
Y15755D01*
X20500Y5850D02*
Y15496D01*
X20400Y5850D02*
Y15272D01*
X20300Y5850D02*
Y15075D01*
X20200Y5850D02*
Y14897D01*
X20100Y5850D02*
Y14735D01*
X20000Y5850D02*
Y14586D01*
X19900Y5850D02*
Y14448D01*
X19800Y5850D02*
Y14320D01*
X19700Y5850D02*
Y14200D01*
X19600Y5850D02*
Y14087D01*
X19500Y5850D02*
Y13981D01*
X19400Y5850D02*
Y13881D01*
X19300Y5850D02*
Y13786D01*
X19200Y5850D02*
Y13697D01*
X18176Y55800D02*
X44058D01*
X12590Y55700D02*
X44216D01*
X18691Y55900D02*
X43906D01*
X12517Y55500D02*
X44551D01*
X12555Y55600D02*
X44380D01*
X12434Y55300D02*
X44915D01*
X12388Y55200D02*
X45111D01*
X12477Y55400D02*
X44729D01*
X12288Y55000D02*
X45534D01*
X12339Y55100D02*
X45317D01*
X12176Y54800D02*
X46012D01*
X12116Y54700D02*
X46278D01*
X12234Y54900D02*
X45765D01*
X11984Y54500D02*
X46887D01*
X12052Y54600D02*
X46567D01*
X11838Y54300D02*
X47665D01*
X11913Y54400D02*
X47246D01*
X11675Y54100D02*
X48936D01*
X11759Y54200D02*
X48183D01*
X19035Y56000D02*
X43760D01*
X19200Y52880D02*
Y56058D01*
X19100Y52831D02*
Y56022D01*
X19000Y52780D02*
Y55988D01*
X18900Y52725D02*
Y55957D01*
X18800Y52668D02*
Y55929D01*
X18700Y52607D02*
Y55902D01*
X18600Y52543D02*
Y55878D01*
X18500Y52475D02*
Y55856D01*
X18400Y52404D02*
Y55836D01*
X18300Y52328D02*
Y55819D01*
X18200Y52249D02*
Y55803D01*
X18100Y52165D02*
Y55790D01*
X18000Y52076D02*
Y55779D01*
X17900Y51983D02*
Y55769D01*
X12623Y55800D02*
X16835D01*
X17800Y51884D02*
Y55762D01*
X17700Y51778D02*
Y55757D01*
X18200Y29349D02*
Y44701D01*
X18300Y29362D02*
Y44622D01*
X18100Y29334D02*
Y44785D01*
X18000Y29316D02*
Y44874D01*
X17900Y29297D02*
Y44967D01*
X17800Y29275D02*
Y45066D01*
X17600Y51667D02*
Y55754D01*
X17700Y29251D02*
Y45172D01*
X17600Y29225D02*
Y45283D01*
X19100Y29392D02*
Y44119D01*
X19200Y29386D02*
Y44070D01*
X19000Y29395D02*
Y44170D01*
X18900Y29397D02*
Y44225D01*
X18800Y29396D02*
Y44282D01*
X18700Y29393D02*
Y44343D01*
X18600Y29389D02*
Y44407D01*
X18500Y29382D02*
Y44475D01*
X18400Y29373D02*
Y44546D01*
X17500Y51547D02*
Y55753D01*
X17400Y51420D02*
Y55755D01*
X17300Y51284D02*
Y55758D01*
X17200Y51136D02*
Y55763D01*
X17100Y50976D02*
Y55770D01*
X17000Y50801D02*
Y55780D01*
X16900Y50607D02*
Y55791D01*
X16800Y50387D02*
Y55805D01*
X16700Y50134D02*
Y55820D01*
X17400Y29166D02*
Y45530D01*
X17500Y29197D02*
Y45403D01*
X17300Y29133D02*
Y45666D01*
X17200Y29098D02*
Y45814D01*
X17100Y29060D02*
Y45974D01*
X17000Y29019D02*
Y46149D01*
X16900Y28976D02*
Y46343D01*
X16800Y28930D02*
Y46563D01*
X16700Y28881D02*
Y46816D01*
X11587Y54000D02*
X46320D01*
X11493Y53900D02*
X45698D01*
X11394Y53800D02*
X45327D01*
X11290Y53700D02*
X45039D01*
X11178Y53600D02*
X44798D01*
X11059Y53500D02*
X44587D01*
X10933Y53400D02*
X44399D01*
X10797Y53300D02*
X20607D01*
X10650Y53200D02*
X20094D01*
X10490Y53100D02*
X19750D01*
X10316Y53000D02*
X19475D01*
X10123Y52900D02*
X19242D01*
X9905Y52800D02*
X19038D01*
X9654Y52700D02*
X18855D01*
X9350Y52600D02*
X18688D01*
X8945Y52500D02*
X18536D01*
X7698Y52400D02*
X18395D01*
X7701Y52300D02*
X18263D01*
X7702Y52200D02*
X18141D01*
X7701Y52100D02*
X18026D01*
X7698Y52000D02*
X17918D01*
X7693Y51900D02*
X17816D01*
X7686Y51800D02*
X17720D01*
X7676Y51700D02*
X17629D01*
X7665Y51600D02*
X17543D01*
X7651Y51500D02*
X17462D01*
X7636Y51400D02*
X17385D01*
X7618Y51300D02*
X17311D01*
X7598Y51200D02*
X17242D01*
X7576Y51100D02*
X17176D01*
X7552Y51000D02*
X17114D01*
X7525Y50900D02*
X17055D01*
X7496Y50800D02*
X16999D01*
X7465Y50700D02*
X16947D01*
X7432Y50600D02*
X16897D01*
X7396Y50500D02*
X16850D01*
X7357Y50400D02*
X16805D01*
X7316Y50300D02*
X16764D01*
X800Y45500D02*
X17423D01*
X800Y45400D02*
X17502D01*
X800Y45600D02*
X17348D01*
X800Y45200D02*
X17674D01*
X800Y45300D02*
X17586D01*
X800Y45000D02*
X17866D01*
X800Y44900D02*
X17971D01*
X800Y45100D02*
X17767D01*
X800Y44700D02*
X18201D01*
X800Y44800D02*
X18083D01*
X800Y44500D02*
X18464D01*
X800Y44400D02*
X18611D01*
X800Y44600D02*
X18328D01*
X800Y44200D02*
X18945D01*
X800Y44300D02*
X18770D01*
X800Y44000D02*
X19355D01*
X800Y44100D02*
X19138D01*
X800Y43800D02*
X19911D01*
X800Y43900D02*
X19607D01*
X7272Y50200D02*
X16724D01*
X7226Y50100D02*
X16688D01*
X7177Y50000D02*
X16654D01*
X7125Y49900D02*
X16622D01*
X800Y47000D02*
X16638D01*
X800Y46800D02*
X16706D01*
X800Y46900D02*
X16671D01*
X800Y46700D02*
X16744D01*
X800Y46600D02*
X16784D01*
X800Y46400D02*
X16873D01*
X800Y46300D02*
X16921D01*
X800Y46500D02*
X16827D01*
X800Y46200D02*
X16973D01*
X800Y46100D02*
X17027D01*
X800Y45900D02*
X17145D01*
X800Y46000D02*
X17084D01*
X800Y45800D02*
X17209D01*
X800Y45700D02*
X17277D01*
X800Y43600D02*
X49200D01*
X800Y43500D02*
X49200D01*
X800Y43400D02*
X49200D01*
X800Y43300D02*
X49200D01*
X800Y43200D02*
X49200D01*
X800Y43100D02*
X49200D01*
X800Y43000D02*
X49200D01*
X800Y42900D02*
X49200D01*
X800Y42800D02*
X49200D01*
X800Y42700D02*
X49200D01*
X800Y42600D02*
X49200D01*
X800Y42500D02*
X49200D01*
X800Y42400D02*
X49200D01*
X800Y42300D02*
X49200D01*
X800Y42200D02*
X49200D01*
X800Y42100D02*
X49200D01*
X800Y42000D02*
X49200D01*
X800Y41900D02*
X49200D01*
X800Y41800D02*
X49200D01*
X800Y41700D02*
X49200D01*
X800Y41600D02*
X49200D01*
X800Y43700D02*
X20316D01*
X800Y41500D02*
X49200D01*
X800Y41400D02*
X49200D01*
X800Y41300D02*
X49200D01*
X800Y41200D02*
X49200D01*
X800Y41100D02*
X49200D01*
X800Y41000D02*
X49200D01*
X800Y40900D02*
X49200D01*
X800Y40800D02*
X49200D01*
X800Y40700D02*
X49200D01*
X800Y40600D02*
X49200D01*
X800Y40500D02*
X49200D01*
X800Y40400D02*
X49200D01*
X800Y40300D02*
X49200D01*
X800Y40200D02*
X49200D01*
X800Y40100D02*
X49200D01*
X800Y40000D02*
X49200D01*
X800Y39900D02*
X49200D01*
X800Y39800D02*
X49200D01*
X800Y39700D02*
X49200D01*
X800Y39600D02*
X49200D01*
X800Y39500D02*
X49200D01*
X800Y39400D02*
X49200D01*
X800Y39300D02*
X49200D01*
X800Y39200D02*
X49200D01*
X800Y39100D02*
X49200D01*
X800Y39000D02*
X49200D01*
X800Y38900D02*
X49200D01*
X800Y38800D02*
X49200D01*
X800Y38700D02*
X49200D01*
X800Y38600D02*
X49200D01*
X800Y38500D02*
X49200D01*
X800Y38400D02*
X49200D01*
X800Y38300D02*
X49200D01*
X800Y38200D02*
X49200D01*
X800Y38100D02*
X33057D01*
X800Y38000D02*
X32544D01*
X800Y37900D02*
X32200D01*
X800Y37800D02*
X31925D01*
X800Y37700D02*
X31693D01*
X800Y37600D02*
X31488D01*
X800Y37500D02*
X31305D01*
X800Y37400D02*
X31139D01*
X800Y37300D02*
X30986D01*
X800Y37200D02*
X30845D01*
X800Y37100D02*
X30713D01*
X800Y37000D02*
X30591D01*
X800Y36900D02*
X30476D01*
X800Y36800D02*
X30368D01*
X800Y36700D02*
X30266D01*
X800Y36600D02*
X30170D01*
X800Y36500D02*
X30079D01*
X800Y36400D02*
X29993D01*
X800Y36300D02*
X29912D01*
X800Y36200D02*
X29835D01*
X800Y36100D02*
X29761D01*
X800Y36000D02*
X29692D01*
X800Y35900D02*
X29626D01*
X800Y35800D02*
X29564D01*
X800Y35700D02*
X29505D01*
X800Y35600D02*
X29449D01*
X800Y35500D02*
X29397D01*
X800Y35400D02*
X29347D01*
X800Y35300D02*
X29300D01*
X800Y35200D02*
X29255D01*
X800Y35100D02*
X29214D01*
X800Y35000D02*
X29174D01*
X800Y34900D02*
X29138D01*
X800Y34800D02*
X29104D01*
X800Y34700D02*
X29072D01*
X800Y34600D02*
X29042D01*
X800Y34500D02*
X29015D01*
X800Y34400D02*
X28990D01*
X800Y34300D02*
X28968D01*
X800Y34200D02*
X28947D01*
X800Y34100D02*
X28929D01*
X800Y34000D02*
X28913D01*
X800Y33900D02*
X28899D01*
X800Y33800D02*
X28887D01*
X800Y33700D02*
X28877D01*
X800Y33600D02*
X28870D01*
X800Y33500D02*
X28864D01*
X800Y33400D02*
X28860D01*
X800Y33300D02*
X28859D01*
X800Y33200D02*
X28859D01*
X800Y33100D02*
X28862D01*
X800Y33000D02*
X28867D01*
X800Y32900D02*
X28873D01*
X800Y32800D02*
X28882D01*
X800Y32700D02*
X28893D01*
X800Y32600D02*
X28906D01*
X800Y31100D02*
X29371D01*
X800Y31000D02*
X29422D01*
X800Y31300D02*
X29277D01*
X800Y30800D02*
X29525D01*
X800Y30900D02*
X29472D01*
X800Y30600D02*
X29639D01*
X800Y30500D02*
X29702D01*
X800Y30700D02*
X29580D01*
X800Y30300D02*
X29837D01*
X800Y30400D02*
X29767D01*
X800Y30100D02*
X29987D01*
X800Y30000D02*
X30068D01*
X800Y30200D02*
X29910D01*
X800Y29800D02*
X30245D01*
X800Y29900D02*
X30154D01*
X800Y29600D02*
X30443D01*
X800Y29700D02*
X30341D01*
X800Y29400D02*
X30666D01*
X800Y29500D02*
X30551D01*
X800Y32400D02*
X28938D01*
X800Y32300D02*
X28957D01*
X800Y32500D02*
X28921D01*
X800Y32200D02*
X28979D01*
X800Y32100D02*
X29003D01*
X800Y32000D02*
X29029D01*
X800Y31900D02*
X29057D01*
X800Y31700D02*
X29121D01*
X800Y31800D02*
X29088D01*
X800Y31500D02*
X29194D01*
X800Y31400D02*
X29234D01*
X800Y31600D02*
X29156D01*
X800Y31200D02*
X29323D01*
X800Y29300D02*
X17915D01*
X800Y29200D02*
X17510D01*
X800Y29100D02*
X17206D01*
X800Y29000D02*
X16955D01*
X800Y28900D02*
X16737D01*
X12849Y57100D02*
X14143D01*
X12844Y57000D02*
X14251D01*
X12851Y57200D02*
X14041D01*
X12829Y56800D02*
X14489D01*
X12838Y56900D02*
X14366D01*
X12805Y56600D02*
X14761D01*
X12790Y56500D02*
X14914D01*
X12818Y56700D02*
X14620D01*
X12753Y56300D02*
X15264D01*
X12773Y56400D02*
X15080D01*
X16600Y49826D02*
Y55838D01*
Y28830D02*
Y47124D01*
X16500Y49413D02*
Y55858D01*
Y28775D02*
Y47537D01*
X16400Y28718D02*
Y55881D01*
X12708Y56100D02*
X15701D01*
X12732Y56200D02*
X15468D01*
X12654Y55900D02*
X16320D01*
X12682Y56000D02*
X15976D01*
X12696Y58500D02*
X13122D01*
X12720Y58400D02*
X13172D01*
X12700Y58483D02*
Y59825D01*
X12763Y58200D02*
X13280D01*
X12800Y57986D02*
Y59364D01*
X12607Y58800D02*
X12989D01*
X12639Y58700D02*
X13030D01*
X12600Y58822D02*
Y60611D01*
X12743Y58300D02*
X13225D01*
X12668Y58600D02*
X13075D01*
X12798Y58000D02*
X13402D01*
X12847Y57500D02*
X13768D01*
X12782Y58100D02*
X13339D01*
X12852Y57300D02*
X13945D01*
X12850Y57400D02*
X13854D01*
X12812Y57900D02*
X13467D01*
X12824Y57800D02*
X13537D01*
X12841Y57600D02*
X13687D01*
X12833Y57700D02*
X13610D01*
X15300Y27828D02*
Y56281D01*
X15500Y28033D02*
Y56185D01*
X15200Y27717D02*
Y56334D01*
X15100Y27597D02*
Y56389D01*
X15000Y27470D02*
Y56447D01*
X14900Y27334D02*
Y56509D01*
X14800Y27186D02*
Y56574D01*
X14700Y27026D02*
Y56642D01*
X14600Y26851D02*
Y56715D01*
X14500Y26657D02*
Y56791D01*
X16200Y28593D02*
Y55932D01*
X16300Y28657D02*
Y55905D01*
X16100Y28525D02*
Y55961D01*
X16000Y28454D02*
Y55992D01*
X15900Y28378D02*
Y56026D01*
X15800Y28299D02*
Y56062D01*
X15700Y28215D02*
Y56100D01*
X15600Y28126D02*
Y56142D01*
X15400Y27934D02*
Y56232D01*
X13600Y21611D02*
Y57713D01*
X13700Y21666D02*
Y57584D01*
X13500Y21553D02*
Y57852D01*
X13400Y21491D02*
Y58003D01*
X13300Y21426D02*
Y58166D01*
X13200Y21358D02*
Y58346D01*
X13100Y21285D02*
Y58546D01*
X13000Y21209D02*
Y58772D01*
X12900Y21128D02*
Y59037D01*
X14300Y26184D02*
Y56957D01*
X14400Y26437D02*
Y56872D01*
X14200Y25876D02*
Y57046D01*
X14100Y25463D02*
Y57141D01*
X14000Y21815D02*
Y57242D01*
X13900Y21768D02*
Y57349D01*
X13800Y21719D02*
Y57462D01*
X12800Y21043D02*
Y56564D01*
X12700Y20954D02*
Y56067D01*
X12497Y59100D02*
X12879D01*
X12536Y59000D02*
X12913D01*
X12411Y59300D02*
X12818D01*
X7070Y49800D02*
X16592D01*
X12573Y58900D02*
X12950D01*
X7012Y49700D02*
X16565D01*
X6950Y49600D02*
X16540D01*
X6885Y49500D02*
X16518D01*
X6817Y49400D02*
X16497D01*
X6745Y49300D02*
X16479D01*
X6669Y49200D02*
X16463D01*
X6588Y49100D02*
X16449D01*
X6503Y49000D02*
X16437D01*
X6414Y48900D02*
X16427D01*
X6319Y48800D02*
X16420D01*
X6219Y48700D02*
X16414D01*
X6112Y48600D02*
X16410D01*
X5999Y48500D02*
X16409D01*
X5879Y48400D02*
X16409D01*
X12516Y60400D02*
X12639D01*
X12472Y60300D02*
X12645D01*
X12426Y60200D02*
X12652D01*
X12377Y60100D02*
X12662D01*
X12500Y59093D02*
Y60362D01*
X12325Y60000D02*
X12674D01*
X12270Y59900D02*
X12688D01*
X12400Y59325D02*
Y60146D01*
X12300Y59528D02*
Y59954D01*
X12261Y59600D02*
X12743D01*
X12314Y59500D02*
X12766D01*
X12364Y59400D02*
X12790D01*
X12456Y59200D02*
X12847D01*
X12206Y59700D02*
X12722D01*
X12211Y59800D02*
X12704D01*
X5750Y48300D02*
X16412D01*
X5611Y48200D02*
X16417D01*
X5461Y48100D02*
X16423D01*
X12600Y20858D02*
Y55728D01*
X12500Y20758D02*
Y55457D01*
X5298Y48000D02*
X16432D01*
X4921Y47800D02*
X16456D01*
X5120Y47900D02*
X16443D01*
X4696Y47700D02*
X16471D01*
X4434Y47600D02*
X16488D01*
X4111Y47500D02*
X16507D01*
X800Y47300D02*
X16553D01*
X3662Y47400D02*
X16529D01*
X800Y47200D02*
X16579D01*
X800Y47100D02*
X16607D01*
X800Y28800D02*
X16544D01*
X800Y28700D02*
X16370D01*
X800Y28600D02*
X16211D01*
X800Y28500D02*
X16064D01*
X12400Y20651D02*
Y55225D01*
X12300Y20538D02*
Y55022D01*
X12200Y20416D02*
Y54840D01*
X12100Y20287D02*
Y54675D01*
X12000Y20148D02*
Y54523D01*
X11900Y19997D02*
Y54382D01*
X11800Y19834D02*
Y54251D01*
X11700Y19654D02*
Y54129D01*
X11600Y19454D02*
Y54014D01*
X11500Y19228D02*
Y53907D01*
X11400Y18963D02*
Y53805D01*
X11300Y18636D02*
Y53709D01*
X11200Y18175D02*
Y53619D01*
X800Y47600D02*
X1227D01*
X800Y47700D02*
X965D01*
X800Y47400D02*
X1999D01*
X800Y47500D02*
X1549D01*
X800Y28400D02*
X15928D01*
X800Y28300D02*
X15801D01*
X800Y28200D02*
X15682D01*
X800Y28100D02*
X15571D01*
X800Y28000D02*
X15466D01*
X800Y27900D02*
X15367D01*
X800Y27800D02*
X15274D01*
X800Y27700D02*
X15186D01*
X800Y27600D02*
X15102D01*
X800Y27500D02*
X15023D01*
X800Y27400D02*
X14948D01*
X800Y27300D02*
X14876D01*
X800Y27200D02*
X14809D01*
X800Y27100D02*
X14745D01*
X800Y27000D02*
X14684D01*
X800Y26900D02*
X14627D01*
X800Y26800D02*
X14573D01*
X800Y26700D02*
X14521D01*
X800Y26600D02*
X14473D01*
X800Y26500D02*
X14427D01*
X800Y26400D02*
X14384D01*
X800Y26300D02*
X14344D01*
X800Y26200D02*
X14306D01*
X800Y26100D02*
X14270D01*
X800Y26000D02*
X14237D01*
X800Y25900D02*
X14207D01*
X800Y25800D02*
X14179D01*
X800Y25700D02*
X14153D01*
X800Y25600D02*
X14129D01*
X800Y25500D02*
X14107D01*
X800Y25400D02*
X14088D01*
X800Y25300D02*
X14071D01*
X800Y25200D02*
X14056D01*
X800Y25100D02*
X14043D01*
X800Y25000D02*
X14032D01*
X800Y24900D02*
X14023D01*
X800Y24800D02*
X14017D01*
X800Y24700D02*
X14012D01*
X800Y23400D02*
X14141D01*
X800Y23300D02*
X14165D01*
X800Y23200D02*
X14193D01*
X14300Y21938D02*
Y22866D01*
X800Y23100D02*
X14222D01*
X800Y23000D02*
X14254D01*
X800Y22800D02*
X14325D01*
X800Y22900D02*
X14288D01*
X800Y22600D02*
X14405D01*
X800Y22700D02*
X14364D01*
X800Y22400D02*
X14497D01*
X14600Y22039D02*
Y22199D01*
X800Y22500D02*
X14450D01*
X14500Y22008D02*
Y22393D01*
X14400Y21974D02*
Y22613D01*
X800Y22300D02*
X14547D01*
X800Y22200D02*
X14600D01*
X800Y22100D02*
X14655D01*
X800Y22000D02*
X14475D01*
X800Y24600D02*
X14009D01*
X800Y24500D02*
X14009D01*
X800Y24400D02*
X14010D01*
X800Y24300D02*
X14014D01*
X800Y24200D02*
X14020D01*
X800Y24100D02*
X14027D01*
X800Y24000D02*
X14037D01*
X800Y23900D02*
X14049D01*
X800Y23800D02*
X14063D01*
X800Y23700D02*
X14079D01*
X800Y23600D02*
X14097D01*
X800Y23500D02*
X14118D01*
X14200Y21900D02*
Y23174D01*
X14100Y21858D02*
Y23587D01*
X800Y21900D02*
X14201D01*
X800Y21800D02*
X13968D01*
X800Y21700D02*
X13763D01*
X800Y21600D02*
X13580D01*
X800Y21500D02*
X13414D01*
X800Y21400D02*
X13261D01*
X800Y21300D02*
X13120D01*
X800Y21200D02*
X12988D01*
X800Y21100D02*
X12866D01*
X800Y21000D02*
X12751D01*
X800Y20900D02*
X12643D01*
X800Y20800D02*
X12541D01*
X800Y20700D02*
X12445D01*
X800Y20600D02*
X12354D01*
X800Y20500D02*
X12268D01*
X800Y20400D02*
X12187D01*
X800Y20300D02*
X12110D01*
X800Y20200D02*
X12036D01*
X800Y20100D02*
X11967D01*
X800Y20000D02*
X11901D01*
X800Y19900D02*
X11839D01*
X800Y19800D02*
X11780D01*
X800Y19700D02*
X11724D01*
X800Y19600D02*
X11672D01*
X800Y19500D02*
X11622D01*
X800Y19400D02*
X11575D01*
X800Y19300D02*
X11530D01*
X800Y19200D02*
X11489D01*
X800Y19100D02*
X11449D01*
X800Y19000D02*
X11413D01*
X800Y18900D02*
X11379D01*
X800Y18800D02*
X11347D01*
X800Y18700D02*
X11317D01*
X800Y18600D02*
X11290D01*
X800Y18500D02*
X11265D01*
X800Y18400D02*
X11243D01*
X800Y18300D02*
X11222D01*
X800Y18200D02*
X11204D01*
X800Y18100D02*
X11188D01*
X800Y18000D02*
X11174D01*
X800Y17900D02*
X11162D01*
X800Y16100D02*
X11304D01*
X800Y15800D02*
X11395D01*
X800Y16000D02*
X11332D01*
X800Y15600D02*
X11469D01*
X800Y15700D02*
X11431D01*
X800Y15400D02*
X11552D01*
X800Y15300D02*
X11598D01*
X800Y15500D02*
X11509D01*
X800Y15200D02*
X11646D01*
X800Y15100D02*
X11698D01*
X800Y14900D02*
X11809D01*
X800Y14800D02*
X11870D01*
X800Y15000D02*
X11752D01*
X800Y14600D02*
X12002D01*
X800Y14700D02*
X11934D01*
X800Y14400D02*
X12148D01*
X800Y14500D02*
X12073D01*
X800Y14200D02*
X12311D01*
X800Y14300D02*
X12227D01*
X800Y17800D02*
X11152D01*
X800Y17700D02*
X11145D01*
X800Y17600D02*
X11139D01*
X800Y17500D02*
X11135D01*
X800Y17400D02*
X11134D01*
X800Y17300D02*
X11134D01*
X800Y17200D02*
X11137D01*
X800Y17100D02*
X11142D01*
X800Y17000D02*
X11148D01*
X800Y16900D02*
X11157D01*
X800Y16800D02*
X11168D01*
X800Y16700D02*
X11181D01*
X800Y16500D02*
X11213D01*
X800Y16600D02*
X11196D01*
X800Y16400D02*
X11232D01*
X800Y16300D02*
X11254D01*
X800Y15900D02*
X11363D01*
X800Y16200D02*
X11278D01*
X19085Y13600D02*
X38873D01*
X18958Y13500D02*
X38827D01*
X19100Y5850D02*
Y13612D01*
X19000Y5850D02*
Y13532D01*
X18900Y5850D02*
Y13457D01*
X18822Y13400D02*
X38784D01*
X18675Y13300D02*
X38744D01*
X18800Y5850D02*
Y13385D01*
X18700Y5850D02*
Y13316D01*
X18600Y5850D02*
Y13252D01*
X18516Y13200D02*
X38706D01*
X18341Y13100D02*
X38670D01*
X18148Y13000D02*
X38637D01*
X18500Y5850D02*
Y13191D01*
X18400Y5850D02*
Y13132D01*
X17930Y12900D02*
X38607D01*
X17679Y12800D02*
X38579D01*
X17375Y12700D02*
X38553D01*
X16970Y12600D02*
X38529D01*
X18300Y5850D02*
Y13078D01*
X18200Y5850D02*
Y13026D01*
X18100Y5850D02*
Y12977D01*
X18000Y5850D02*
Y12930D01*
X17900Y5850D02*
Y12887D01*
X17800Y5850D02*
Y12846D01*
X17700Y5850D02*
Y12808D01*
X17600Y5850D02*
Y12772D01*
X17500Y5850D02*
Y12738D01*
X17400Y5850D02*
Y12707D01*
X17300Y5850D02*
Y12679D01*
X17200Y5850D02*
Y12652D01*
X17100Y5850D02*
Y12628D01*
X17000Y5850D02*
Y12606D01*
X16900Y5850D02*
Y12586D01*
X16800Y5850D02*
Y12569D01*
X16700Y5850D02*
Y12553D01*
X16600Y5850D02*
Y12540D01*
X16500Y5850D02*
Y12529D01*
X16400Y5850D02*
Y12519D01*
X16300Y5850D02*
Y12512D01*
X15300Y5850D02*
Y12555D01*
X15200Y5850D02*
Y12570D01*
X15100Y5850D02*
Y12588D01*
X15000Y5850D02*
Y12608D01*
X14900Y5850D02*
Y12631D01*
X14800Y5850D02*
Y12655D01*
X14700Y5850D02*
Y12682D01*
X14600Y5850D02*
Y12711D01*
X16200Y5850D02*
Y12507D01*
X16100Y5850D02*
Y12504D01*
X16000Y5850D02*
Y12503D01*
X15900Y5850D02*
Y12505D01*
X15800Y5850D02*
Y12508D01*
X15700Y5850D02*
Y12513D01*
X15600Y5850D02*
Y12520D01*
X15500Y5850D02*
Y12530D01*
X15400Y5850D02*
Y12541D01*
X13600Y5850D02*
Y13139D01*
X13500Y5850D02*
Y13197D01*
X13400Y5850D02*
Y13259D01*
X13300Y5850D02*
Y13324D01*
X13200Y5850D02*
Y13392D01*
X13100Y5850D02*
Y13465D01*
X13000Y5850D02*
Y13541D01*
X12900Y5850D02*
Y13622D01*
X12800Y5850D02*
Y13707D01*
X14500Y5850D02*
Y12742D01*
X14400Y5850D02*
Y12776D01*
X14300Y5850D02*
Y12812D01*
X14200Y5850D02*
Y12850D01*
X14100Y5850D02*
Y12892D01*
X14000Y5850D02*
Y12935D01*
X13900Y5850D02*
Y12982D01*
X13800Y5850D02*
Y13031D01*
X13700Y5850D02*
Y13083D01*
X800Y12500D02*
X38507D01*
X800Y12400D02*
X38488D01*
X800Y12300D02*
X38471D01*
X800Y12200D02*
X38456D01*
X800Y12100D02*
X38443D01*
X800Y12000D02*
X38432D01*
X800Y11900D02*
X38423D01*
X800Y11800D02*
X38417D01*
X800Y11700D02*
X38412D01*
X800Y11600D02*
X38409D01*
X800Y11500D02*
X38409D01*
X800Y11100D02*
X38427D01*
X800Y11400D02*
X38410D01*
X800Y11000D02*
X38437D01*
X800Y10900D02*
X38449D01*
X800Y10800D02*
X38463D01*
X800Y10700D02*
X38479D01*
X800Y10500D02*
X38518D01*
X800Y10600D02*
X38497D01*
X800Y14000D02*
X12492D01*
X800Y13900D02*
X12591D01*
X800Y14100D02*
X12399D01*
X800Y13800D02*
X12696D01*
X800Y13600D02*
X12926D01*
X800Y13500D02*
X13053D01*
X800Y13700D02*
X12808D01*
X800Y13300D02*
X13336D01*
X800Y13400D02*
X13189D01*
X800Y13100D02*
X13670D01*
X800Y13000D02*
X13863D01*
X800Y13200D02*
X13495D01*
X800Y12800D02*
X14332D01*
X800Y12900D02*
X14080D01*
X800Y12600D02*
X15041D01*
X800Y12700D02*
X14636D01*
X800Y11300D02*
X38414D01*
X800Y11200D02*
X38420D01*
X800Y10400D02*
X38541D01*
X800Y10200D02*
X38593D01*
X800Y10300D02*
X38565D01*
X800Y10100D02*
X38622D01*
X12700Y5850D02*
Y13796D01*
X800Y9900D02*
X38688D01*
X800Y9800D02*
X38724D01*
X800Y10000D02*
X38654D01*
X800Y9700D02*
X38764D01*
X800Y9600D02*
X38805D01*
X800Y9500D02*
X38850D01*
X800Y9300D02*
X38947D01*
X800Y9400D02*
X38897D01*
X800Y9100D02*
X39055D01*
X800Y9200D02*
X38999D01*
X800Y8900D02*
X39177D01*
X800Y9000D02*
X39114D01*
X800Y8700D02*
X39312D01*
X800Y8800D02*
X39242D01*
X11400Y3900D02*
Y15787D01*
X11700Y-4225D02*
Y15096D01*
X11300Y3900D02*
Y16114D01*
X11600Y-4225D02*
Y15296D01*
X11500Y-4225D02*
Y15522D01*
X11200Y3900D02*
Y16575D01*
X11100Y3900D02*
Y53533D01*
X11000Y3900D02*
Y53452D01*
X10900Y3900D02*
Y53375D01*
X12500Y5850D02*
Y13992D01*
X12600Y5850D02*
Y13892D01*
X12400Y5844D02*
Y14099D01*
X12300Y5824D02*
Y14212D01*
X12200Y5790D02*
Y14334D01*
X12100Y5739D02*
Y14463D01*
X12000Y5667D02*
Y14602D01*
X11900Y5565D02*
Y14753D01*
X11800Y5407D02*
Y14916D01*
X12500Y5850D02*
X46450D01*
X11450Y3900D02*
X11725D01*
X11450Y3800D02*
X11725D01*
X11450Y3700D02*
X11725D01*
X11450Y3600D02*
X11725D01*
X11450Y3500D02*
X11725D01*
X11450Y3400D02*
X11725D01*
X11450Y3300D02*
X11725D01*
X11450Y3200D02*
X11725D01*
X11450Y3100D02*
X11725D01*
X11450Y3000D02*
X11725D01*
X11450Y2900D02*
X11725D01*
X11450Y2800D02*
X11725D01*
X11450Y2700D02*
X11725D01*
X11450Y2600D02*
X11725D01*
X11450Y2500D02*
X11725D01*
X11450Y2400D02*
X11725D01*
X11450Y2300D02*
X11725D01*
X11450Y2200D02*
X11725D01*
X11450Y2100D02*
X11725D01*
X11450Y2000D02*
X11725D01*
X11450Y1100D02*
Y3900D01*
Y1900D02*
X11725D01*
X11450Y1800D02*
X11725D01*
X8650Y3900D02*
X11450D01*
Y1700D02*
X11725D01*
X11450Y1600D02*
X11725D01*
X11450Y1500D02*
X11725D01*
X11450Y1400D02*
X11725D01*
X11450Y1300D02*
X11725D01*
X11450Y1200D02*
X11725D01*
X11400Y-1100D02*
Y1100D01*
X8602Y700D02*
X11725D01*
X8650Y1100D02*
X11450D01*
X11425Y-1100D02*
X11725D01*
X11300Y-1100D02*
Y1100D01*
X11425Y-1200D02*
X11725D01*
X11425Y-1300D02*
X11725D01*
X11425Y-1400D02*
X11725D01*
X11425Y-1500D02*
X11725D01*
X11425Y-1600D02*
X11725D01*
X11425Y-1700D02*
X11725D01*
X11425Y-1800D02*
X11725D01*
X11425Y-1900D02*
X11725D01*
X11425Y-2000D02*
X11725D01*
X11425Y-2100D02*
X11725D01*
X11425Y-2200D02*
X11725D01*
X11425Y-2300D02*
X11725D01*
X11425Y-2400D02*
X11725D01*
X11425Y-2500D02*
X11725D01*
X11425Y-2600D02*
X11725D01*
X11425Y-2700D02*
X11725D01*
X11425Y-2800D02*
X11725D01*
X11425Y-2900D02*
X11725D01*
X11425Y-3000D02*
X11725D01*
X11425Y-3100D02*
X11725D01*
X11425Y-3200D02*
X11725D01*
X11425Y-3300D02*
X11725D01*
Y-4225D02*
Y5075D01*
X11425Y-3900D02*
Y-1100D01*
X11200D02*
Y1100D01*
X11100Y-1100D02*
Y1100D01*
X11425Y-3400D02*
X11725D01*
X11000Y-1100D02*
Y1100D01*
X11425Y-3500D02*
X11725D01*
X11425Y-3600D02*
X11725D01*
X11425Y-3700D02*
X11725D01*
X11425Y-3800D02*
X11725D01*
X11400Y-4225D02*
Y-3900D01*
X11300Y-4225D02*
Y-3900D01*
X11200Y-4225D02*
Y-3900D01*
X11100Y-4225D02*
Y-3900D01*
X11000Y-4225D02*
Y-3900D01*
X6050Y7600D02*
X40395D01*
X6050Y7500D02*
X40536D01*
X6050Y7700D02*
X40264D01*
X6050Y7300D02*
X40855D01*
X6050Y7400D02*
X40689D01*
X6050Y7100D02*
X41243D01*
X6050Y7000D02*
X41476D01*
X6050Y7200D02*
X41039D01*
X6050Y6800D02*
X42095D01*
X6050Y6900D02*
X41750D01*
X6050Y6600D02*
X46450D01*
X6050Y6500D02*
X46450D01*
X6050Y6700D02*
X42609D01*
X6050Y6400D02*
X46450D01*
X6050Y6300D02*
X46450D01*
X6050Y6200D02*
X46450D01*
X6050Y6100D02*
X46450D01*
X6050Y6000D02*
X46450D01*
X6050Y5900D02*
X46450D01*
X6050Y8300D02*
X39629D01*
X6050Y8200D02*
X39720D01*
X6050Y8400D02*
X39543D01*
X6050Y8000D02*
X39918D01*
X6050Y8100D02*
X39816D01*
X800Y8500D02*
X39462D01*
X6050Y7900D02*
X40026D01*
X800Y8600D02*
X39385D01*
X6050Y7800D02*
X40141D01*
X6050Y5800D02*
X12226D01*
X6050Y5700D02*
X12042D01*
X800Y5600D02*
X11930D01*
X4216Y5100D02*
X11725D01*
X4734Y5000D02*
X11725D01*
X5085Y4900D02*
X11725D01*
X800Y5500D02*
X11852D01*
X800Y5400D02*
X11796D01*
X800Y5300D02*
X11758D01*
X800Y5200D02*
X11735D01*
X6334Y4300D02*
X11725D01*
X6480Y4200D02*
X11725D01*
X6617Y4100D02*
X11725D01*
X6744Y4000D02*
X11725D01*
X8531Y1100D02*
X11725D01*
X5366Y4800D02*
X11725D01*
X5606Y4700D02*
X11725D01*
X5816Y4600D02*
X11725D01*
X6005Y4500D02*
X11725D01*
X6176Y4400D02*
X11725D01*
X8615Y600D02*
X11725D01*
X8626Y500D02*
X11725D01*
X8634Y400D02*
X11725D01*
X8641Y300D02*
X11725D01*
X8646Y200D02*
X11725D01*
X8552Y1000D02*
X11725D01*
X8571Y900D02*
X11725D01*
X8587Y800D02*
X11725D01*
X8649Y100D02*
X11725D01*
X8650Y-0D02*
X11725D01*
X8649Y-100D02*
X11725D01*
X8646Y-200D02*
X11725D01*
X8641Y-300D02*
X11725D01*
X8634Y-400D02*
X11725D01*
X8626Y-500D02*
X11725D01*
X8615Y-600D02*
X11725D01*
X8602Y-700D02*
X11725D01*
X8587Y-800D02*
X11725D01*
X8571Y-900D02*
X11725D01*
X8552Y-1000D02*
X11725D01*
X8625Y-1100D02*
X11425D01*
X6863Y-3900D02*
X11725D01*
X8625Y-3900D02*
X11425D01*
X6744Y-4000D02*
X11725D01*
X6616Y-4100D02*
X11725D01*
X6480Y-4200D02*
X11725D01*
X6445Y-4225D02*
X11725D01*
X10800Y3900D02*
Y53302D01*
X6800Y3954D02*
Y49376D01*
X6700Y4035D02*
Y49240D01*
X10700Y3900D02*
Y53233D01*
X10600Y3900D02*
Y53168D01*
X6400Y4256D02*
Y48885D01*
X6300Y4322D02*
Y48780D01*
X6200Y4386D02*
Y48682D01*
X6600Y4113D02*
Y49114D01*
X6500Y4186D02*
Y48996D01*
X6000Y8475D02*
Y48500D01*
X6050Y5675D02*
Y8475D01*
X5900D02*
Y48417D01*
X6100Y4446D02*
Y48589D01*
X6000Y4503D02*
Y5675D01*
X5800Y8475D02*
Y48338D01*
X5700Y8475D02*
Y48263D01*
X5900Y4557D02*
Y5675D01*
X5800Y4608D02*
Y5675D01*
X5600Y8475D02*
Y48192D01*
X5500Y8475D02*
Y48125D01*
X5400Y8475D02*
Y48061D01*
X5700Y4656D02*
Y5675D01*
X5300Y8475D02*
Y48001D01*
X5200Y8475D02*
Y47944D01*
X5100Y8475D02*
Y47889D01*
X5000Y8475D02*
Y47838D01*
X4900Y8475D02*
Y47790D01*
X4800Y8475D02*
Y47744D01*
X5400Y4787D02*
Y5675D01*
X5300Y4825D02*
Y5675D01*
X5200Y4861D02*
Y5675D01*
X5600Y4702D02*
Y5675D01*
X5500Y4746D02*
Y5675D01*
X4900Y4956D02*
Y5675D01*
X4800Y4983D02*
Y5675D01*
X5100Y4895D02*
Y5675D01*
X5000Y4927D02*
Y5675D01*
X10500Y3900D02*
Y53106D01*
X10400Y3900D02*
Y53047D01*
X10300Y3900D02*
Y52991D01*
X10200Y3900D02*
Y52938D01*
X10100Y3900D02*
Y52889D01*
X10000Y3900D02*
Y52842D01*
X9900Y3900D02*
Y52798D01*
X9800Y3900D02*
Y52756D01*
X9700Y3900D02*
Y52717D01*
X9600Y3900D02*
Y52680D01*
X9500Y3900D02*
Y52646D01*
X9400Y3900D02*
Y52615D01*
X9300Y3900D02*
Y52586D01*
X9200Y3900D02*
Y52559D01*
X9100Y3900D02*
Y52534D01*
X9000Y3900D02*
Y52511D01*
X8900Y3900D02*
Y52491D01*
X8800Y3900D02*
Y52473D01*
X8700Y3900D02*
Y52457D01*
X8400Y1585D02*
Y52422D01*
X8300Y1866D02*
Y52414D01*
X8200Y2106D02*
Y52408D01*
X8600Y717D02*
Y52443D01*
X8500Y1234D02*
Y52431D01*
X7900Y2676D02*
Y52404D01*
X7800Y2834D02*
Y52407D01*
X8100Y2316D02*
Y52405D01*
X8000Y2505D02*
Y52403D01*
X7500Y3244D02*
Y50811D01*
X7400Y3364D02*
Y50511D01*
X7300Y3476D02*
Y50262D01*
X7700Y2980D02*
Y52057D01*
X7600Y3117D02*
Y51208D01*
X7000Y3778D02*
Y49681D01*
X6900Y3868D02*
Y49522D01*
X7200Y3582D02*
Y50046D01*
X7100Y3683D02*
Y49854D01*
X4700Y8475D02*
Y47701D01*
X4600Y8475D02*
Y47661D01*
X4500Y8475D02*
Y47623D01*
X4400Y8475D02*
Y47588D01*
X4300Y8475D02*
Y47555D01*
X4200Y8475D02*
Y47525D01*
X4100Y8475D02*
Y47497D01*
X4000Y8475D02*
Y47471D01*
X3900Y8475D02*
Y47447D01*
X3800Y8475D02*
Y47426D01*
X3700Y8475D02*
Y47407D01*
X3600Y8475D02*
Y47390D01*
X3500Y8475D02*
Y47375D01*
X3500Y8475D02*
X6050D01*
X3400D02*
Y47362D01*
X3300Y8475D02*
Y47351D01*
X3200Y8475D02*
Y47342D01*
X3250Y8475D02*
X3500D01*
X3250D02*
X3500D01*
X2500D02*
Y47340D01*
X2400Y8475D02*
Y47347D01*
X2300Y8475D02*
Y47357D01*
X2200Y8475D02*
Y47369D01*
X1800Y8475D02*
Y47439D01*
X1700Y8475D02*
Y47461D01*
X1600Y8475D02*
Y47486D01*
X1500Y8475D02*
Y47514D01*
X1400Y8475D02*
Y47543D01*
X1300Y8475D02*
Y47575D01*
X3100Y8475D02*
Y47336D01*
X3000Y8475D02*
Y47331D01*
X2900Y8475D02*
Y47329D01*
X2800Y8475D02*
Y47329D01*
X2700Y8475D02*
Y47330D01*
X2600Y8475D02*
Y47334D01*
X2100Y8475D02*
Y47383D01*
X2000Y8475D02*
Y47400D01*
X1900Y8475D02*
Y47418D01*
X4600Y5031D02*
Y5675D01*
X4500Y5052D02*
Y5675D01*
X4400Y5071D02*
Y5675D01*
X4700Y5008D02*
Y5675D01*
X4300Y5088D02*
Y5675D01*
X3500D02*
X6050D01*
X4100Y5115D02*
Y5675D01*
X800Y8475D02*
X3250D01*
X4200Y5102D02*
Y5675D01*
X4000Y5126D02*
Y5675D01*
X3900Y5134D02*
Y5675D01*
X3800Y5141D02*
Y5675D01*
X3700Y5146D02*
Y5675D01*
X3600Y5149D02*
Y5675D01*
X3500Y5150D02*
Y5675D01*
X3250D02*
X3500D01*
X3250D02*
X3500D01*
X3400Y5149D02*
Y5675D01*
X800D02*
X3250D01*
X3300Y5146D02*
Y5675D01*
X3200Y5141D02*
Y5675D01*
X1200Y8475D02*
Y47609D01*
X3100Y5134D02*
Y5675D01*
X3000Y5126D02*
Y5675D01*
X1100Y8475D02*
Y47646D01*
X1000Y8475D02*
Y47685D01*
X900Y8475D02*
Y47727D01*
X800Y8475D02*
Y47772D01*
X2900Y5115D02*
Y5675D01*
X2800Y5102D02*
Y5675D01*
X2700Y5087D02*
Y5675D01*
X2600Y5071D02*
Y5675D01*
X2500Y5052D02*
Y5675D01*
X2400Y5031D02*
Y5675D01*
X2300Y5008D02*
Y5675D01*
X2200Y4983D02*
Y5675D01*
X2100Y4956D02*
Y5675D01*
X10900Y-1100D02*
Y1100D01*
X10800Y-1100D02*
Y1100D01*
X10700Y-1100D02*
Y1100D01*
X10600Y-1100D02*
Y1100D01*
X10500Y-1100D02*
Y1100D01*
X10400Y-1100D02*
Y1100D01*
X10300Y-1100D02*
Y1100D01*
X10200Y-1100D02*
Y1100D01*
X10100Y-1100D02*
Y1100D01*
X10000Y-1100D02*
Y1100D01*
X9900Y-1100D02*
Y1100D01*
X9800Y-1100D02*
Y1100D01*
X9700Y-1100D02*
Y1100D01*
X9600Y-1100D02*
Y1100D01*
X9500Y-1100D02*
Y1100D01*
X9400Y-1100D02*
Y1100D01*
X9300Y-1100D02*
Y1100D01*
X9200Y-1100D02*
Y1100D01*
X9100Y-1100D02*
Y1100D01*
X8287Y1900D02*
X8650D01*
X8361Y1700D02*
X8650D01*
X8395Y1600D02*
X8650D01*
X8427Y1500D02*
X8650D01*
Y1100D02*
Y3900D01*
X8108Y2300D02*
X8650D01*
X8156Y2200D02*
X8650D01*
X8202Y2100D02*
X8650D01*
X8246Y2000D02*
X8650D01*
X8325Y1800D02*
X8650D01*
X9000Y-1100D02*
Y1100D01*
X8900Y-1100D02*
Y1100D01*
X8456Y1400D02*
X8650D01*
X8800Y-1100D02*
Y1100D01*
X8700Y-1100D02*
Y1100D01*
X8483Y1300D02*
X8650D01*
X8508Y1200D02*
X8650D01*
X8508Y-1200D02*
X8625D01*
X8483Y-1300D02*
X8625D01*
X10900Y-4225D02*
Y-3900D01*
X10800Y-4225D02*
Y-3900D01*
X10700Y-4225D02*
Y-3900D01*
X10600Y-4225D02*
Y-3900D01*
X10500Y-4225D02*
Y-3900D01*
X10400Y-4225D02*
Y-3900D01*
X10300Y-4225D02*
Y-3900D01*
X10200Y-4225D02*
Y-3900D01*
X10100Y-4225D02*
Y-3900D01*
X10000Y-4225D02*
Y-3900D01*
X9900Y-4225D02*
Y-3900D01*
X9800Y-4225D02*
Y-3900D01*
X9700Y-4225D02*
Y-3900D01*
X9600Y-4225D02*
Y-3900D01*
X9500Y-4225D02*
Y-3900D01*
X9400Y-4225D02*
Y-3900D01*
X9300Y-4225D02*
Y-3900D01*
X9200Y-4225D02*
Y-3900D01*
X9100Y-4225D02*
Y-3900D01*
X8456Y-1400D02*
X8625D01*
X8427Y-1500D02*
X8625D01*
Y-3900D02*
Y-1100D01*
X8600Y-4225D02*
Y-717D01*
X8500Y-4225D02*
Y-1234D01*
X8395Y-1600D02*
X8625D01*
X8361Y-1700D02*
X8625D01*
X8325Y-1800D02*
X8625D01*
X8400Y-4225D02*
Y-1585D01*
X9000Y-4225D02*
Y-3900D01*
X8900Y-4225D02*
Y-3900D01*
X8287Y-1900D02*
X8625D01*
X8800Y-4225D02*
Y-3900D01*
X8700Y-4225D02*
Y-3900D01*
X8246Y-2000D02*
X8625D01*
X8202Y-2100D02*
X8625D01*
X8300Y-4225D02*
Y-1866D01*
X8200Y-4225D02*
Y-2106D01*
X6863Y3900D02*
X8650D01*
X6976Y3800D02*
X8650D01*
X7082Y3700D02*
X8650D01*
X7183Y3600D02*
X8650D01*
X7278Y3500D02*
X8650D01*
X800Y5100D02*
X2784D01*
X800Y5000D02*
X2266D01*
X2000Y4927D02*
Y5675D01*
X1900Y4895D02*
Y5675D01*
X794Y4900D02*
X1915D01*
X7686Y3000D02*
X8650D01*
X7756Y2900D02*
X8650D01*
X7822Y2800D02*
X8650D01*
X7886Y2700D02*
X8650D01*
X7946Y2600D02*
X8650D01*
X7368Y3400D02*
X8650D01*
X7454Y3300D02*
X8650D01*
X7535Y3200D02*
X8650D01*
X7613Y3100D02*
X8650D01*
X1800Y4861D02*
Y5675D01*
X1700Y4825D02*
Y5675D01*
X1600Y4787D02*
Y5675D01*
X1500Y4746D02*
Y5675D01*
X1400Y4702D02*
Y5675D01*
X1300Y4656D02*
Y5675D01*
X1200Y4608D02*
Y5675D01*
X1100Y4557D02*
Y5675D01*
X1000Y4502D02*
Y5675D01*
X800Y5000D02*
Y5675D01*
X775Y4800D02*
X1634D01*
X900Y4445D02*
Y5675D01*
X800Y4385D02*
Y4989D01*
X775Y4700D02*
X1394D01*
X775Y4600D02*
X1184D01*
X775Y4500D02*
X995D01*
X775Y4370D02*
Y4802D01*
X8003Y2500D02*
X8650D01*
X8057Y2400D02*
X8650D01*
X8156Y-2200D02*
X8625D01*
X8108Y-2300D02*
X8625D01*
X8057Y-2400D02*
X8625D01*
X8002Y-2500D02*
X8625D01*
X7945Y-2600D02*
X8625D01*
X7885Y-2700D02*
X8625D01*
X7822Y-2800D02*
X8625D01*
X7756Y-2900D02*
X8625D01*
X7686Y-3000D02*
X8625D01*
X7612Y-3100D02*
X8625D01*
X7535Y-3200D02*
X8625D01*
X7454Y-3300D02*
X8625D01*
X7368Y-3400D02*
X8625D01*
X7278Y-3500D02*
X8625D01*
X7183Y-3600D02*
X8625D01*
X8100Y-4225D02*
Y-2316D01*
X8000Y-4225D02*
Y-2505D01*
X7900Y-4225D02*
Y-2676D01*
X7800Y-4225D02*
Y-2834D01*
X7700Y-4225D02*
Y-2980D01*
X7600Y-4225D02*
Y-3117D01*
X7500Y-4225D02*
Y-3244D01*
X7400Y-4225D02*
Y-3364D01*
X7300Y-4225D02*
Y-3476D01*
X7082Y-3700D02*
X8625D01*
X6976Y-3800D02*
X8625D01*
X7200Y-4225D02*
Y-3582D01*
X7100Y-4225D02*
Y-3683D01*
X7000Y-4225D02*
Y-3778D01*
X6900Y-4225D02*
Y-3868D01*
X6800Y-4225D02*
Y-3954D01*
X6700Y-4225D02*
Y-4035D01*
X6600Y-4225D02*
Y-4113D01*
D11*
X2100Y5300D02*
Y7075D01*
Y10175D02*
X2200Y10275D01*
X2100Y7075D02*
Y10175D01*
X11425Y-2475D02*
Y-2400D01*
X11400Y-2500D02*
X11425Y-2475D01*
X10025Y-2500D02*
X11400D01*
X8275Y-2500D02*
X8275Y-2500D01*
X10025D01*
Y-3975D02*
X10050Y-4000D01*
X10025Y-3975D02*
Y-2500D01*
X9950Y-100D02*
X10025Y-175D01*
Y-2500D02*
Y-175D01*
D12*
X26300Y63200D02*
X27550D01*
X25050D02*
X26300D01*
Y61950D02*
Y63200D01*
D13*
X3500Y0D02*
D03*
D14*
X10025Y-2500D02*
D03*
X2100Y7075D02*
D03*
X10050Y2500D02*
D03*
X4650Y7075D02*
D03*
X26300Y63200D02*
D03*
X47850Y7075D02*
D03*
M02*
