G04 (created by PCBNEW (2013-may-18)-stable) date Mon 25 May 2015 09:55:45 PM CEST*
%MOIN*%
G04 Gerber Fmt 3.4, Leading zero omitted, Abs format*
%FSLAX34Y34*%
G01*
G70*
G90*
G04 APERTURE LIST*
%ADD10C,0.00590551*%
%ADD11C,0.00787402*%
G04 APERTURE END LIST*
G54D10*
G54D11*
X56488Y-57649D02*
X56488Y-56799D01*
X76251Y-57661D02*
X76251Y-56799D01*
X56488Y-57661D02*
X76251Y-57661D01*
X56488Y-56811D02*
X56488Y-30425D01*
X76251Y-30425D02*
X76251Y-56811D01*
X56488Y-30425D02*
X76251Y-30425D01*
M02*
