G04 start of page 7 for group -4062 idx -4062 *
G04 Title: (unknown), soldermask *
G04 Creator: pcb 20110918 *
G04 CreationDate: Sun Sep  8 04:32:17 2013 UTC *
G04 For: mokus *
G04 Format: Gerber/RS-274X *
G04 PCB-Dimensions: 40000 100000 *
G04 PCB-Coordinate-Origin: lower left *
%MOIN*%
%FSLAX25Y25*%
%LNBOTTOMMASK*%
%ADD25C,0.0001*%
%ADD24C,0.0660*%
G54D24*X35000Y25000D03*
Y15000D03*
Y5000D03*
X5000Y65000D03*
Y55000D03*
Y45000D03*
Y35000D03*
Y25000D03*
Y15000D03*
Y5000D03*
X35000Y65000D03*
Y55000D03*
Y45000D03*
Y35000D03*
G54D25*G36*
X31700Y98300D02*Y91700D01*
X38300D01*
Y98300D01*
X31700D01*
G37*
G54D24*X35000Y85000D03*
Y75000D03*
X5000Y95000D03*
Y85000D03*
Y75000D03*
M02*
