G04 (created by PCBNEW-RS274X (2012-01-19 BZR 3256)-stable) date 7/31/2012 3:07:38 PM*
G01*
G70*
G90*
%MOIN*%
G04 Gerber Fmt 3.4, Leading zero omitted, Abs format*
%FSLAX34Y34*%
G04 APERTURE LIST*
%ADD10C,0.006000*%
%ADD11C,0.010000*%
%ADD12C,0.012000*%
%ADD13C,0.008000*%
%ADD14C,0.015000*%
%ADD15C,0.010600*%
%ADD16C,0.011300*%
G04 APERTURE END LIST*
G54D10*
G54D11*
X64256Y-45982D02*
X64523Y-46482D01*
X64523Y-45982D02*
X64256Y-46482D01*
X64656Y-46030D02*
X64675Y-46006D01*
X64713Y-45982D01*
X64809Y-45982D01*
X64847Y-46006D01*
X64866Y-46030D01*
X64885Y-46078D01*
X64885Y-46125D01*
X64866Y-46197D01*
X64637Y-46482D01*
X64885Y-46482D01*
X53355Y-36081D02*
X53317Y-36062D01*
X53260Y-36062D01*
X53202Y-36081D01*
X53164Y-36119D01*
X53145Y-36157D01*
X53126Y-36233D01*
X53126Y-36290D01*
X53145Y-36367D01*
X53164Y-36405D01*
X53202Y-36443D01*
X53260Y-36462D01*
X53298Y-36462D01*
X53355Y-36443D01*
X53374Y-36424D01*
X53374Y-36290D01*
X53298Y-36290D01*
X56860Y-42802D02*
X56726Y-42802D01*
X56726Y-43012D02*
X56726Y-42612D01*
X56917Y-42612D01*
X57012Y-42612D02*
X57241Y-42612D01*
X57126Y-43012D02*
X57126Y-42612D01*
X57374Y-43012D02*
X57374Y-42612D01*
X57469Y-42612D01*
X57527Y-42631D01*
X57565Y-42669D01*
X57584Y-42707D01*
X57603Y-42783D01*
X57603Y-42840D01*
X57584Y-42917D01*
X57565Y-42955D01*
X57527Y-42993D01*
X57469Y-43012D01*
X57374Y-43012D01*
X57774Y-43012D02*
X57774Y-42612D01*
G54D12*
X58772Y-42769D02*
X59229Y-42769D01*
G54D11*
X65067Y-41412D02*
X65067Y-41012D01*
X65162Y-41012D01*
X65220Y-41031D01*
X65258Y-41069D01*
X65277Y-41107D01*
X65296Y-41183D01*
X65296Y-41240D01*
X65277Y-41317D01*
X65258Y-41355D01*
X65220Y-41393D01*
X65162Y-41412D01*
X65067Y-41412D01*
X65639Y-41145D02*
X65639Y-41412D01*
X65543Y-40993D02*
X65448Y-41279D01*
X65696Y-41279D01*
X65848Y-41260D02*
X66153Y-41260D01*
X66343Y-41412D02*
X66343Y-41012D01*
X66438Y-41012D01*
X66496Y-41031D01*
X66534Y-41069D01*
X66553Y-41107D01*
X66572Y-41183D01*
X66572Y-41240D01*
X66553Y-41317D01*
X66534Y-41355D01*
X66496Y-41393D01*
X66438Y-41412D01*
X66343Y-41412D01*
X66915Y-41012D02*
X66838Y-41012D01*
X66800Y-41031D01*
X66781Y-41050D01*
X66743Y-41107D01*
X66724Y-41183D01*
X66724Y-41336D01*
X66743Y-41374D01*
X66762Y-41393D01*
X66800Y-41412D01*
X66877Y-41412D01*
X66915Y-41393D01*
X66934Y-41374D01*
X66953Y-41336D01*
X66953Y-41240D01*
X66934Y-41202D01*
X66915Y-41183D01*
X66877Y-41164D01*
X66800Y-41164D01*
X66762Y-41183D01*
X66743Y-41202D01*
X66724Y-41240D01*
X64215Y-44281D02*
X64177Y-44262D01*
X64120Y-44262D01*
X64062Y-44281D01*
X64024Y-44319D01*
X64005Y-44357D01*
X63986Y-44433D01*
X63986Y-44490D01*
X64005Y-44567D01*
X64024Y-44605D01*
X64062Y-44643D01*
X64120Y-44662D01*
X64158Y-44662D01*
X64215Y-44643D01*
X64234Y-44624D01*
X64234Y-44490D01*
X64158Y-44490D01*
X64405Y-44662D02*
X64405Y-44262D01*
X64558Y-44262D01*
X64596Y-44281D01*
X64615Y-44300D01*
X64634Y-44338D01*
X64634Y-44395D01*
X64615Y-44433D01*
X64596Y-44452D01*
X64558Y-44471D01*
X64405Y-44471D01*
X64786Y-44643D02*
X64843Y-44662D01*
X64939Y-44662D01*
X64977Y-44643D01*
X64996Y-44624D01*
X65015Y-44586D01*
X65015Y-44548D01*
X64996Y-44510D01*
X64977Y-44490D01*
X64939Y-44471D01*
X64862Y-44452D01*
X64824Y-44433D01*
X64805Y-44414D01*
X64786Y-44376D01*
X64786Y-44338D01*
X64805Y-44300D01*
X64824Y-44281D01*
X64862Y-44262D01*
X64958Y-44262D01*
X65015Y-44281D01*
X55745Y-35662D02*
X55745Y-35262D01*
X55974Y-35662D02*
X55802Y-35433D01*
X55974Y-35262D02*
X55745Y-35490D01*
X56145Y-35662D02*
X56145Y-35262D01*
X56298Y-35262D01*
X56336Y-35281D01*
X56355Y-35300D01*
X56374Y-35338D01*
X56374Y-35395D01*
X56355Y-35433D01*
X56336Y-35452D01*
X56298Y-35471D01*
X56145Y-35471D01*
G54D13*
X53114Y-35515D02*
X53305Y-35515D01*
X53076Y-35673D02*
X53209Y-35123D01*
X53343Y-35673D01*
X53667Y-35123D02*
X53476Y-35123D01*
X53457Y-35385D01*
X53476Y-35358D01*
X53514Y-35332D01*
X53610Y-35332D01*
X53648Y-35358D01*
X53667Y-35385D01*
X53686Y-35437D01*
X53686Y-35568D01*
X53667Y-35620D01*
X53648Y-35646D01*
X53610Y-35673D01*
X53514Y-35673D01*
X53476Y-35646D01*
X53457Y-35620D01*
G54D12*
X53272Y-41069D02*
X53729Y-41069D01*
X53500Y-41374D02*
X53500Y-40764D01*
X59772Y-44619D02*
X60229Y-44619D01*
X60000Y-44924D02*
X60000Y-44314D01*
X53369Y-43528D02*
X53369Y-43071D01*
X69045Y-39885D02*
X69045Y-39599D01*
X69274Y-39942D02*
X68474Y-39742D01*
X69274Y-39542D01*
X69045Y-39371D02*
X69045Y-39085D01*
X69274Y-39428D02*
X68474Y-39228D01*
X69274Y-39028D01*
X68474Y-38571D02*
X68474Y-38685D01*
X68512Y-38742D01*
X68550Y-38771D01*
X68664Y-38828D01*
X68817Y-38857D01*
X69121Y-38857D01*
X69198Y-38828D01*
X69236Y-38800D01*
X69274Y-38742D01*
X69274Y-38628D01*
X69236Y-38571D01*
X69198Y-38542D01*
X69121Y-38514D01*
X68931Y-38514D01*
X68855Y-38542D01*
X68817Y-38571D01*
X68779Y-38628D01*
X68779Y-38742D01*
X68817Y-38800D01*
X68855Y-38828D01*
X68931Y-38857D01*
X69274Y-38257D02*
X68474Y-38257D01*
X68474Y-38029D01*
X68512Y-37971D01*
X68550Y-37943D01*
X68626Y-37914D01*
X68740Y-37914D01*
X68817Y-37943D01*
X68855Y-37971D01*
X68893Y-38029D01*
X68893Y-38257D01*
X69274Y-37314D02*
X68893Y-37514D01*
X69274Y-37657D02*
X68474Y-37657D01*
X68474Y-37429D01*
X68512Y-37371D01*
X68550Y-37343D01*
X68626Y-37314D01*
X68740Y-37314D01*
X68817Y-37343D01*
X68855Y-37371D01*
X68893Y-37429D01*
X68893Y-37657D01*
X62433Y-45734D02*
X62433Y-44934D01*
X62633Y-45505D01*
X62833Y-44934D01*
X62833Y-45734D01*
X63119Y-45734D02*
X63119Y-44934D01*
X63405Y-45734D02*
X63405Y-44934D01*
X63748Y-45734D01*
X63748Y-44934D01*
X64034Y-45734D02*
X64034Y-44934D01*
X64320Y-45734D02*
X64320Y-44934D01*
X64463Y-44934D01*
X64548Y-44972D01*
X64606Y-45048D01*
X64634Y-45124D01*
X64663Y-45277D01*
X64663Y-45391D01*
X64634Y-45543D01*
X64606Y-45620D01*
X64548Y-45696D01*
X64463Y-45734D01*
X64320Y-45734D01*
X64920Y-44934D02*
X64920Y-45581D01*
X64948Y-45658D01*
X64977Y-45696D01*
X65034Y-45734D01*
X65148Y-45734D01*
X65206Y-45696D01*
X65234Y-45658D01*
X65263Y-45581D01*
X65263Y-44934D01*
X65549Y-45734D02*
X65549Y-44934D01*
X65835Y-45734D02*
X65835Y-44934D01*
X66178Y-45734D01*
X66178Y-44934D01*
X66578Y-44934D02*
X66692Y-44934D01*
X66750Y-44972D01*
X66807Y-45048D01*
X66835Y-45200D01*
X66835Y-45467D01*
X66807Y-45620D01*
X66750Y-45696D01*
X66692Y-45734D01*
X66578Y-45734D01*
X66521Y-45696D01*
X66464Y-45620D01*
X66435Y-45467D01*
X66435Y-45200D01*
X66464Y-45048D01*
X66521Y-44972D01*
X66578Y-44934D01*
G54D13*
X56400Y-44400D02*
X56400Y-43200D01*
X56400Y-43200D02*
X53600Y-43200D01*
X53600Y-43200D02*
X53600Y-44400D01*
X56400Y-45600D02*
X56400Y-45900D01*
X56400Y-45900D02*
X55800Y-46800D01*
X55800Y-46800D02*
X54200Y-46800D01*
X54200Y-46800D02*
X53600Y-45900D01*
X53600Y-45900D02*
X53600Y-45600D01*
G54D12*
X60000Y-42500D02*
X60000Y-41500D01*
X60000Y-41500D02*
X63000Y-41500D01*
X63000Y-41500D02*
X63000Y-42500D01*
X63000Y-42500D02*
X60000Y-42500D01*
X61000Y-41500D02*
X61000Y-42500D01*
X58500Y-46480D02*
X58500Y-44500D01*
X58500Y-44500D02*
X59500Y-44500D01*
X59500Y-44500D02*
X59500Y-46500D01*
X59500Y-46500D02*
X58500Y-46500D01*
X58750Y-46500D02*
X58500Y-46250D01*
X58570Y-43000D02*
X60550Y-43000D01*
X60550Y-43000D02*
X60550Y-44000D01*
X60550Y-44000D02*
X58550Y-44000D01*
X58550Y-44000D02*
X58550Y-43000D01*
X58550Y-43250D02*
X58800Y-43000D01*
X51500Y-39730D02*
X51500Y-37750D01*
X51500Y-37750D02*
X52500Y-37750D01*
X52500Y-37750D02*
X52500Y-39750D01*
X52500Y-39750D02*
X51500Y-39750D01*
X51750Y-39750D02*
X51500Y-39500D01*
X65020Y-34000D02*
X67000Y-34000D01*
X67000Y-34000D02*
X67000Y-35000D01*
X67000Y-35000D02*
X65000Y-35000D01*
X65000Y-35000D02*
X65000Y-34000D01*
X65000Y-34250D02*
X65250Y-34000D01*
G54D14*
X53000Y-38000D02*
X68000Y-38000D01*
X68000Y-38000D02*
X68000Y-40000D01*
X68000Y-40000D02*
X53000Y-40000D01*
X53000Y-40000D02*
X53000Y-38000D01*
X53000Y-38500D02*
X53500Y-38500D01*
X53500Y-38500D02*
X53500Y-39500D01*
X53500Y-39500D02*
X53000Y-39500D01*
G54D11*
X61500Y-45850D02*
X61500Y-46200D01*
X61900Y-45900D02*
X61900Y-45100D01*
X61900Y-45100D02*
X61850Y-45100D01*
X61850Y-45100D02*
X61850Y-45900D01*
X61800Y-44900D02*
X61800Y-46100D01*
X62000Y-45500D02*
X61980Y-45694D01*
X61924Y-45881D01*
X61832Y-46053D01*
X61709Y-46204D01*
X61559Y-46329D01*
X61387Y-46421D01*
X61201Y-46479D01*
X61006Y-46499D01*
X60813Y-46482D01*
X60626Y-46427D01*
X60453Y-46336D01*
X60301Y-46214D01*
X60175Y-46064D01*
X60081Y-45893D01*
X60022Y-45707D01*
X60001Y-45513D01*
X60017Y-45320D01*
X60071Y-45132D01*
X60160Y-44959D01*
X60281Y-44806D01*
X60430Y-44679D01*
X60600Y-44584D01*
X60786Y-44524D01*
X60980Y-44501D01*
X61173Y-44516D01*
X61361Y-44568D01*
X61535Y-44656D01*
X61689Y-44776D01*
X61817Y-44924D01*
X61913Y-45094D01*
X61975Y-45279D01*
X61999Y-45473D01*
X62000Y-45500D01*
G54D14*
X49882Y-40166D02*
X49886Y-44103D01*
X53122Y-40170D02*
X53122Y-44103D01*
X49925Y-44103D02*
X53075Y-44103D01*
X49886Y-40166D02*
X53114Y-40166D01*
G54D10*
X53500Y-36750D02*
X53500Y-35750D01*
X53500Y-35750D02*
X56500Y-35750D01*
X56500Y-35750D02*
X56500Y-36750D01*
X56500Y-36750D02*
X53500Y-36750D01*
X54500Y-35750D02*
X54500Y-36750D01*
G54D14*
X61000Y-43000D02*
X69000Y-43000D01*
X69000Y-43000D02*
X69000Y-44000D01*
X69000Y-44000D02*
X61000Y-44000D01*
G54D12*
X61000Y-44000D02*
X61000Y-43000D01*
X62000Y-44000D02*
X62000Y-43000D01*
X59500Y-41500D02*
X59500Y-42500D01*
X59500Y-42500D02*
X53500Y-42500D01*
X53500Y-42500D02*
X53500Y-41500D01*
X53500Y-41500D02*
X59500Y-41500D01*
X58500Y-41500D02*
X58500Y-42500D01*
X63500Y-42500D02*
X63500Y-41500D01*
X63500Y-41500D02*
X69500Y-41500D01*
X69500Y-41500D02*
X69500Y-42500D01*
X69500Y-42500D02*
X63500Y-42500D01*
X64500Y-42500D02*
X64500Y-41500D01*
X50900Y-36750D02*
X50900Y-37050D01*
X50900Y-37050D02*
X50500Y-37050D01*
X50500Y-37050D02*
X50500Y-39450D01*
X50500Y-39450D02*
X50900Y-39450D01*
X50900Y-39450D02*
X50900Y-39750D01*
X50900Y-39450D02*
X51300Y-39450D01*
X51300Y-39450D02*
X51300Y-37050D01*
X51300Y-37050D02*
X50900Y-37050D01*
X50500Y-37250D02*
X51300Y-37250D01*
X51300Y-37350D02*
X50500Y-37350D01*
G54D14*
X52750Y-37000D02*
X51750Y-37000D01*
X53309Y-37000D02*
X53298Y-37108D01*
X53266Y-37213D01*
X53215Y-37309D01*
X53146Y-37393D01*
X53062Y-37463D01*
X52966Y-37515D01*
X52862Y-37547D01*
X52753Y-37558D01*
X52646Y-37549D01*
X52541Y-37518D01*
X52444Y-37467D01*
X52359Y-37399D01*
X52289Y-37315D01*
X52237Y-37220D01*
X52204Y-37116D01*
X52192Y-37007D01*
X52201Y-36900D01*
X52231Y-36795D01*
X52281Y-36698D01*
X52348Y-36612D01*
X52431Y-36541D01*
X52527Y-36488D01*
X52630Y-36455D01*
X52739Y-36442D01*
X52847Y-36450D01*
X52952Y-36479D01*
X53049Y-36529D01*
X53135Y-36596D01*
X53206Y-36678D01*
X53260Y-36773D01*
X53295Y-36877D01*
X53308Y-36985D01*
X53309Y-37000D01*
X67000Y-36750D02*
X67000Y-35750D01*
X67000Y-36750D02*
X57000Y-36750D01*
X57000Y-36750D02*
X57000Y-35750D01*
X57000Y-35750D02*
X67000Y-35750D01*
G54D12*
X66000Y-35750D02*
X66000Y-36750D01*
G54D11*
X53000Y-34000D02*
X57000Y-34000D01*
X53000Y-35000D02*
X57000Y-35000D01*
X57000Y-35000D02*
X57000Y-34000D01*
X53000Y-34000D02*
X53000Y-35000D01*
G54D12*
X63500Y-34000D02*
X63500Y-35000D01*
X63500Y-35000D02*
X57500Y-35000D01*
X57500Y-35000D02*
X57500Y-34000D01*
X57500Y-34000D02*
X63500Y-34000D01*
X62500Y-34000D02*
X62500Y-35000D01*
G54D10*
X57000Y-43500D02*
X58000Y-43500D01*
X58000Y-43500D02*
X58000Y-46500D01*
X58000Y-46500D02*
X57000Y-46500D01*
X57000Y-46500D02*
X57000Y-43500D01*
X58000Y-44500D02*
X57000Y-44500D01*
G54D13*
X54695Y-45062D02*
X54695Y-45386D01*
X54714Y-45424D01*
X54733Y-45443D01*
X54771Y-45462D01*
X54848Y-45462D01*
X54886Y-45443D01*
X54905Y-45424D01*
X54924Y-45386D01*
X54924Y-45062D01*
X55095Y-45100D02*
X55114Y-45081D01*
X55152Y-45062D01*
X55248Y-45062D01*
X55286Y-45081D01*
X55305Y-45100D01*
X55324Y-45138D01*
X55324Y-45176D01*
X55305Y-45233D01*
X55076Y-45462D01*
X55324Y-45462D01*
X53943Y-44748D02*
X54134Y-44748D01*
X53905Y-44862D02*
X54038Y-44462D01*
X54172Y-44862D01*
X54305Y-44862D02*
X54305Y-44462D01*
X54458Y-44462D01*
X54496Y-44481D01*
X54515Y-44500D01*
X54534Y-44538D01*
X54534Y-44595D01*
X54515Y-44633D01*
X54496Y-44652D01*
X54458Y-44671D01*
X54305Y-44671D01*
X54915Y-44862D02*
X54686Y-44862D01*
X54800Y-44862D02*
X54800Y-44462D01*
X54762Y-44519D01*
X54724Y-44557D01*
X54686Y-44576D01*
X55296Y-44862D02*
X55067Y-44862D01*
X55181Y-44862D02*
X55181Y-44462D01*
X55143Y-44519D01*
X55105Y-44557D01*
X55067Y-44576D01*
X55677Y-44862D02*
X55448Y-44862D01*
X55562Y-44862D02*
X55562Y-44462D01*
X55524Y-44519D01*
X55486Y-44557D01*
X55448Y-44576D01*
X55810Y-44462D02*
X56077Y-44462D01*
X55905Y-44862D01*
G54D15*
X61449Y-41213D02*
X61449Y-41454D01*
X61307Y-40949D02*
X61449Y-41213D01*
X61590Y-40949D01*
X61953Y-41454D02*
X61711Y-41454D01*
X61832Y-41454D02*
X61832Y-40949D01*
X61792Y-41021D01*
X61751Y-41069D01*
X61711Y-41093D01*
G54D13*
X59974Y-46266D02*
X59993Y-46285D01*
X60012Y-46342D01*
X60012Y-46380D01*
X59993Y-46438D01*
X59955Y-46476D01*
X59917Y-46495D01*
X59840Y-46514D01*
X59783Y-46514D01*
X59707Y-46495D01*
X59669Y-46476D01*
X59631Y-46438D01*
X59612Y-46380D01*
X59612Y-46342D01*
X59631Y-46285D01*
X59650Y-46266D01*
X59612Y-45904D02*
X59612Y-46095D01*
X59802Y-46114D01*
X59783Y-46095D01*
X59764Y-46057D01*
X59764Y-45961D01*
X59783Y-45923D01*
X59802Y-45904D01*
X59840Y-45885D01*
X59936Y-45885D01*
X59974Y-45904D01*
X59993Y-45923D01*
X60012Y-45961D01*
X60012Y-46057D01*
X59993Y-46095D01*
X59974Y-46114D01*
X60534Y-44424D02*
X60515Y-44443D01*
X60458Y-44462D01*
X60420Y-44462D01*
X60362Y-44443D01*
X60324Y-44405D01*
X60305Y-44367D01*
X60286Y-44290D01*
X60286Y-44233D01*
X60305Y-44157D01*
X60324Y-44119D01*
X60362Y-44081D01*
X60420Y-44062D01*
X60458Y-44062D01*
X60515Y-44081D01*
X60534Y-44100D01*
X60667Y-44062D02*
X60915Y-44062D01*
X60781Y-44214D01*
X60839Y-44214D01*
X60877Y-44233D01*
X60896Y-44252D01*
X60915Y-44290D01*
X60915Y-44386D01*
X60896Y-44424D01*
X60877Y-44443D01*
X60839Y-44462D01*
X60724Y-44462D01*
X60686Y-44443D01*
X60667Y-44424D01*
X52494Y-40054D02*
X52475Y-40073D01*
X52418Y-40092D01*
X52380Y-40092D01*
X52322Y-40073D01*
X52284Y-40035D01*
X52265Y-39997D01*
X52246Y-39920D01*
X52246Y-39863D01*
X52265Y-39787D01*
X52284Y-39749D01*
X52322Y-39711D01*
X52380Y-39692D01*
X52418Y-39692D01*
X52475Y-39711D01*
X52494Y-39730D01*
X52646Y-39730D02*
X52665Y-39711D01*
X52703Y-39692D01*
X52799Y-39692D01*
X52837Y-39711D01*
X52856Y-39730D01*
X52875Y-39768D01*
X52875Y-39806D01*
X52856Y-39863D01*
X52627Y-40092D01*
X52875Y-40092D01*
X66034Y-35474D02*
X66015Y-35493D01*
X65958Y-35512D01*
X65920Y-35512D01*
X65862Y-35493D01*
X65824Y-35455D01*
X65805Y-35417D01*
X65786Y-35340D01*
X65786Y-35283D01*
X65805Y-35207D01*
X65824Y-35169D01*
X65862Y-35131D01*
X65920Y-35112D01*
X65958Y-35112D01*
X66015Y-35131D01*
X66034Y-35150D01*
X66415Y-35512D02*
X66186Y-35512D01*
X66300Y-35512D02*
X66300Y-35112D01*
X66262Y-35169D01*
X66224Y-35207D01*
X66186Y-35226D01*
G54D14*
X54143Y-38574D02*
X54143Y-39221D01*
X54171Y-39298D01*
X54200Y-39336D01*
X54257Y-39374D01*
X54371Y-39374D01*
X54429Y-39336D01*
X54457Y-39298D01*
X54486Y-39221D01*
X54486Y-38574D01*
X55086Y-39374D02*
X54743Y-39374D01*
X54915Y-39374D02*
X54915Y-38574D01*
X54858Y-38688D01*
X54800Y-38764D01*
X54743Y-38802D01*
G54D12*
X57665Y-39195D02*
X57951Y-39195D01*
X57608Y-39424D02*
X57808Y-38624D01*
X58008Y-39424D01*
X58122Y-38624D02*
X58465Y-38624D01*
X58294Y-39424D02*
X58294Y-38624D01*
X58665Y-39424D02*
X58665Y-38624D01*
X58865Y-39195D01*
X59065Y-38624D01*
X59065Y-39424D01*
X59351Y-39005D02*
X59551Y-39005D01*
X59637Y-39424D02*
X59351Y-39424D01*
X59351Y-38624D01*
X59637Y-38624D01*
X60208Y-38662D02*
X60151Y-38624D01*
X60065Y-38624D01*
X59980Y-38662D01*
X59922Y-38738D01*
X59894Y-38814D01*
X59865Y-38967D01*
X59865Y-39081D01*
X59894Y-39233D01*
X59922Y-39310D01*
X59980Y-39386D01*
X60065Y-39424D01*
X60122Y-39424D01*
X60208Y-39386D01*
X60237Y-39348D01*
X60237Y-39081D01*
X60122Y-39081D01*
X60465Y-39195D02*
X60751Y-39195D01*
X60408Y-39424D02*
X60608Y-38624D01*
X60808Y-39424D01*
X60951Y-38624D02*
X61322Y-38624D01*
X61122Y-38929D01*
X61208Y-38929D01*
X61265Y-38967D01*
X61294Y-39005D01*
X61322Y-39081D01*
X61322Y-39271D01*
X61294Y-39348D01*
X61265Y-39386D01*
X61208Y-39424D01*
X61036Y-39424D01*
X60979Y-39386D01*
X60951Y-39348D01*
X61550Y-38700D02*
X61579Y-38662D01*
X61636Y-38624D01*
X61779Y-38624D01*
X61836Y-38662D01*
X61865Y-38700D01*
X61893Y-38776D01*
X61893Y-38852D01*
X61865Y-38967D01*
X61522Y-39424D01*
X61893Y-39424D01*
X62236Y-38967D02*
X62178Y-38929D01*
X62150Y-38890D01*
X62121Y-38814D01*
X62121Y-38776D01*
X62150Y-38700D01*
X62178Y-38662D01*
X62236Y-38624D01*
X62350Y-38624D01*
X62407Y-38662D01*
X62436Y-38700D01*
X62464Y-38776D01*
X62464Y-38814D01*
X62436Y-38890D01*
X62407Y-38929D01*
X62350Y-38967D01*
X62236Y-38967D01*
X62178Y-39005D01*
X62150Y-39043D01*
X62121Y-39119D01*
X62121Y-39271D01*
X62150Y-39348D01*
X62178Y-39386D01*
X62236Y-39424D01*
X62350Y-39424D01*
X62407Y-39386D01*
X62436Y-39348D01*
X62464Y-39271D01*
X62464Y-39119D01*
X62436Y-39043D01*
X62407Y-39005D01*
X62350Y-38967D01*
X62721Y-39119D02*
X63178Y-39119D01*
X63464Y-39424D02*
X63464Y-38624D01*
X63692Y-38624D01*
X63750Y-38662D01*
X63778Y-38700D01*
X63807Y-38776D01*
X63807Y-38890D01*
X63778Y-38967D01*
X63750Y-39005D01*
X63692Y-39043D01*
X63464Y-39043D01*
X64064Y-38624D02*
X64064Y-39271D01*
X64092Y-39348D01*
X64121Y-39386D01*
X64178Y-39424D01*
X64292Y-39424D01*
X64350Y-39386D01*
X64378Y-39348D01*
X64407Y-39271D01*
X64407Y-38624D01*
G54D16*
X62075Y-46539D02*
X62054Y-46561D01*
X61990Y-46582D01*
X61947Y-46582D01*
X61882Y-46561D01*
X61840Y-46518D01*
X61818Y-46475D01*
X61797Y-46389D01*
X61797Y-46325D01*
X61818Y-46239D01*
X61840Y-46196D01*
X61882Y-46154D01*
X61947Y-46132D01*
X61990Y-46132D01*
X62054Y-46154D01*
X62075Y-46175D01*
X62461Y-46282D02*
X62461Y-46582D01*
X62354Y-46111D02*
X62247Y-46432D01*
X62525Y-46432D01*
G54D12*
X52393Y-43007D02*
X52393Y-42664D01*
X52993Y-42835D02*
X52393Y-42835D01*
X52679Y-42264D02*
X52707Y-42178D01*
X52736Y-42150D01*
X52793Y-42121D01*
X52879Y-42121D01*
X52936Y-42150D01*
X52964Y-42178D01*
X52993Y-42236D01*
X52993Y-42464D01*
X52393Y-42464D01*
X52393Y-42264D01*
X52421Y-42207D01*
X52450Y-42178D01*
X52507Y-42150D01*
X52564Y-42150D01*
X52621Y-42178D01*
X52650Y-42207D01*
X52679Y-42264D01*
X52679Y-42464D01*
X52993Y-41550D02*
X52993Y-41893D01*
X52993Y-41721D02*
X52393Y-41721D01*
X52479Y-41778D01*
X52536Y-41836D01*
X52564Y-41893D01*
G54D10*
X53967Y-35262D02*
X53967Y-35548D01*
X53947Y-35605D01*
X53909Y-35643D01*
X53852Y-35662D01*
X53814Y-35662D01*
X54138Y-35300D02*
X54157Y-35281D01*
X54195Y-35262D01*
X54291Y-35262D01*
X54329Y-35281D01*
X54348Y-35300D01*
X54367Y-35338D01*
X54367Y-35376D01*
X54348Y-35433D01*
X54119Y-35662D01*
X54367Y-35662D01*
G54D13*
X61517Y-44112D02*
X61517Y-44398D01*
X61497Y-44455D01*
X61459Y-44493D01*
X61402Y-44512D01*
X61364Y-44512D01*
X61669Y-44112D02*
X61917Y-44112D01*
X61783Y-44264D01*
X61841Y-44264D01*
X61879Y-44283D01*
X61898Y-44302D01*
X61917Y-44340D01*
X61917Y-44436D01*
X61898Y-44474D01*
X61879Y-44493D01*
X61841Y-44512D01*
X61726Y-44512D01*
X61688Y-44493D01*
X61669Y-44474D01*
X58867Y-40962D02*
X58867Y-41248D01*
X58847Y-41305D01*
X58809Y-41343D01*
X58752Y-41362D01*
X58714Y-41362D01*
X59229Y-41095D02*
X59229Y-41362D01*
X59133Y-40943D02*
X59038Y-41229D01*
X59286Y-41229D01*
X63817Y-41012D02*
X63817Y-41298D01*
X63797Y-41355D01*
X63759Y-41393D01*
X63702Y-41412D01*
X63664Y-41412D01*
X64179Y-41012D02*
X64102Y-41012D01*
X64064Y-41031D01*
X64045Y-41050D01*
X64007Y-41107D01*
X63988Y-41183D01*
X63988Y-41336D01*
X64007Y-41374D01*
X64026Y-41393D01*
X64064Y-41412D01*
X64141Y-41412D01*
X64179Y-41393D01*
X64198Y-41374D01*
X64217Y-41336D01*
X64217Y-41240D01*
X64198Y-41202D01*
X64179Y-41183D01*
X64141Y-41164D01*
X64064Y-41164D01*
X64026Y-41183D01*
X64007Y-41202D01*
X63988Y-41240D01*
X51062Y-38545D02*
X50662Y-38545D01*
X50662Y-38450D01*
X50681Y-38392D01*
X50719Y-38354D01*
X50757Y-38335D01*
X50833Y-38316D01*
X50890Y-38316D01*
X50967Y-38335D01*
X51005Y-38354D01*
X51043Y-38392D01*
X51062Y-38450D01*
X51062Y-38545D01*
X51062Y-37935D02*
X51062Y-38164D01*
X51062Y-38050D02*
X50662Y-38050D01*
X50719Y-38088D01*
X50757Y-38126D01*
X50776Y-38164D01*
X53244Y-37882D02*
X53110Y-37691D01*
X53015Y-37882D02*
X53015Y-37482D01*
X53168Y-37482D01*
X53206Y-37501D01*
X53225Y-37520D01*
X53244Y-37558D01*
X53244Y-37615D01*
X53225Y-37653D01*
X53206Y-37672D01*
X53168Y-37691D01*
X53015Y-37691D01*
X53625Y-37882D02*
X53396Y-37882D01*
X53510Y-37882D02*
X53510Y-37482D01*
X53472Y-37539D01*
X53434Y-37577D01*
X53396Y-37596D01*
X67267Y-36112D02*
X67267Y-36398D01*
X67247Y-36455D01*
X67209Y-36493D01*
X67152Y-36512D01*
X67114Y-36512D01*
X67667Y-36512D02*
X67438Y-36512D01*
X67552Y-36512D02*
X67552Y-36112D01*
X67514Y-36169D01*
X67476Y-36207D01*
X67438Y-36226D01*
X56767Y-35162D02*
X56767Y-35448D01*
X56747Y-35505D01*
X56709Y-35543D01*
X56652Y-35562D01*
X56614Y-35562D01*
X56919Y-35162D02*
X57186Y-35162D01*
X57014Y-35562D01*
X63767Y-34312D02*
X63767Y-34598D01*
X63747Y-34655D01*
X63709Y-34693D01*
X63652Y-34712D01*
X63614Y-34712D01*
X64148Y-34312D02*
X63957Y-34312D01*
X63938Y-34502D01*
X63957Y-34483D01*
X63995Y-34464D01*
X64091Y-34464D01*
X64129Y-34483D01*
X64148Y-34502D01*
X64167Y-34540D01*
X64167Y-34636D01*
X64148Y-34674D01*
X64129Y-34693D01*
X64091Y-34712D01*
X63995Y-34712D01*
X63957Y-34693D01*
X63938Y-34674D01*
G54D10*
X58062Y-44133D02*
X58348Y-44133D01*
X58405Y-44153D01*
X58443Y-44191D01*
X58462Y-44248D01*
X58462Y-44286D01*
X58233Y-43886D02*
X58214Y-43924D01*
X58195Y-43943D01*
X58157Y-43962D01*
X58138Y-43962D01*
X58100Y-43943D01*
X58081Y-43924D01*
X58062Y-43886D01*
X58062Y-43809D01*
X58081Y-43771D01*
X58100Y-43752D01*
X58138Y-43733D01*
X58157Y-43733D01*
X58195Y-43752D01*
X58214Y-43771D01*
X58233Y-43809D01*
X58233Y-43886D01*
X58252Y-43924D01*
X58271Y-43943D01*
X58310Y-43962D01*
X58386Y-43962D01*
X58424Y-43943D01*
X58443Y-43924D01*
X58462Y-43886D01*
X58462Y-43809D01*
X58443Y-43771D01*
X58424Y-43752D01*
X58386Y-43733D01*
X58310Y-43733D01*
X58271Y-43752D01*
X58252Y-43771D01*
X58233Y-43809D01*
M02*
