%FSLAX34Y34*%
G04 Gerber Fmt 3.4, Leading zero omitted, Abs format*
G04 (created by PCBNEW (2014-06-12 BZR 4942)-product) date Sun 15 Jun 2014 05:05:03 PM CDT*
%MOIN*%
G01*
G70*
G90*
G04 APERTURE LIST*
%ADD10C,0.003937*%
%ADD11C,0.005906*%
G04 APERTURE END LIST*
G54D10*
G54D11*
X25050Y-57550D02*
X25050Y-19000D01*
X101050Y-57550D02*
X25050Y-57550D01*
X101050Y-19000D02*
X101050Y-57550D01*
X25050Y-19000D02*
X101050Y-19000D01*
M02*
