G04 DipTrace 2.4.0.1*
%INinterface.front.gtl*%
%MOIN*%
%ADD13C,0.02*%
%ADD14C,0.01*%
%ADD16R,0.0787X0.0236*%
%ADD17R,0.0787X0.0472*%
%ADD18R,0.0394X0.0433*%
%ADD19R,0.0433X0.0394*%
%ADD20R,0.0531X0.0157*%
%ADD21O,0.0374X0.0492*%
%ADD22O,0.061X0.0394*%
%ADD23R,0.061X0.0571*%
%ADD24R,0.061X0.0591*%
%ADD25C,0.08*%
%ADD27R,0.0413X0.0256*%
%ADD29C,0.0236*%
%FSLAX44Y44*%
G04*
G70*
G90*
G75*
G01*
%LNTop*%
%LPD*%
X5600Y10749D2*
D13*
X6937D1*
D14*
X7937D1*
D13*
X8937D1*
X9500D1*
X9812Y10437D1*
Y8187D1*
X10062Y7937D1*
X11088D1*
X11138Y7987D1*
X8937Y13937D2*
Y13187D1*
Y12237D1*
Y10749D1*
X12562Y12237D2*
X11687D1*
D14*
X10562D1*
D13*
X8937D1*
X11138Y9987D2*
D14*
X11812D1*
X12562Y9237D1*
X5650Y10187D2*
X5600Y10237D1*
X6137D1*
X6312Y10062D1*
Y9062D1*
X6887Y8487D1*
X7437D1*
X5600Y10493D2*
X6256D1*
X6562Y10187D1*
Y9312D1*
X6887Y8987D1*
X7437D1*
X11437Y13189D2*
D13*
X11064D1*
X6062Y9687D2*
X5638D1*
X5600Y9725D1*
X7437Y7987D2*
X7062D1*
X9606Y7187D2*
Y6812D1*
X9812D1*
X9606Y13187D2*
X10312Y13189D1*
X10437Y7187D2*
Y7562D1*
X13812Y6437D2*
Y5812D1*
X7437Y11487D2*
X6862D1*
X6812Y11437D1*
X11138Y11987D2*
D14*
X11762D1*
X11937Y11812D1*
X10437Y6518D2*
X11240D1*
X11401Y6357D1*
X11138Y8487D2*
X11637D1*
X11687Y8437D1*
Y7812D1*
X12062Y7437D1*
Y6437D1*
X11982Y6357D1*
X11401D1*
X13812Y7106D2*
X12974D1*
X12857Y7223D1*
X12651D1*
X11937Y7937D1*
Y8687D1*
X11687Y8937D1*
X11188D1*
X11138Y8987D1*
X7437Y9487D2*
X8762D1*
X9062Y9187D1*
Y7312D1*
X8937Y7187D1*
X11138Y9487D2*
X10637D1*
X10562Y9562D1*
Y11687D1*
Y12812D2*
Y13687D1*
X10312Y13937D1*
X9606D1*
X12562Y11237D2*
D13*
X13112D1*
X13187Y11312D1*
Y13437D1*
X13062Y13562D1*
X12344D1*
X12343Y13563D1*
X11437Y13937D2*
D14*
X10937D1*
X10812Y13812D1*
Y12562D1*
X10937Y12437D1*
X11088D1*
X11138Y12487D1*
X5600Y11221D2*
X4744D1*
X4537Y11428D1*
X5600Y9253D2*
X4744D1*
X4537Y9046D1*
Y11428D2*
Y10631D1*
Y9843D1*
Y9046D1*
Y8761D2*
Y9046D1*
Y11713D2*
Y11428D1*
X7437Y12487D2*
Y13812D1*
X7937Y14312D1*
X13437D1*
X13687Y14062D1*
Y10562D1*
X13437Y10312D1*
X12637D1*
X12562Y10237D1*
D29*
X11064Y13189D3*
X6062Y9687D3*
X7062Y7987D3*
X9812Y6812D3*
X7062Y7987D3*
X10312Y13189D3*
X10437Y7562D3*
X13812Y5812D3*
X9812Y6812D3*
X6812Y11437D3*
X11937Y11812D3*
X10562Y11687D3*
Y12812D3*
D16*
X11138Y7987D3*
Y8487D3*
Y8987D3*
Y9487D3*
Y9987D3*
Y10487D3*
Y10987D3*
Y11487D3*
Y11987D3*
Y12487D3*
X7437D3*
Y11987D3*
Y11487D3*
Y10987D3*
Y10487D3*
Y9987D3*
Y9487D3*
Y8987D3*
Y8487D3*
Y7987D3*
D17*
X12857Y7223D3*
X11401D3*
Y6357D3*
X12857D3*
D18*
X10437Y7187D3*
Y6518D3*
X13812Y6437D3*
Y7106D3*
D19*
X8937Y7187D3*
X9606D3*
X8937Y13187D3*
X9606D3*
D20*
X5600Y10749D3*
Y10493D3*
Y10237D3*
Y9981D3*
Y9725D3*
D21*
Y11221D3*
Y9253D3*
D22*
X4537Y11713D3*
Y8761D3*
D23*
Y11428D3*
Y9046D3*
D24*
Y10631D3*
Y9843D3*
D19*
X9606Y13937D3*
X8937D3*
D25*
X12562Y12237D3*
Y11237D3*
Y10237D3*
Y9237D3*
Y8237D3*
D27*
X11437Y13937D3*
Y13189D3*
X12343Y13563D3*
M02*
