G04 (created by PCBNEW-RS274X (2011-07-08 BZR 3044)-stable) date 03/08/2011 00:28:50*
G01*
G70*
G90*
%MOIN*%
G04 Gerber Fmt 3.4, Leading zero omitted, Abs format*
%FSLAX34Y34*%
G04 APERTURE LIST*
%ADD10C,0.006000*%
%ADD11C,0.019700*%
G04 APERTURE END LIST*
G54D10*
G54D11*
X78691Y-33268D02*
X78667Y-33510D01*
X78596Y-33744D01*
X78482Y-33959D01*
X78327Y-34148D01*
X78139Y-34304D01*
X77925Y-34420D01*
X77692Y-34492D01*
X77449Y-34517D01*
X77207Y-34495D01*
X76973Y-34426D01*
X76757Y-34313D01*
X76567Y-34161D01*
X76410Y-33974D01*
X76293Y-33760D01*
X76219Y-33527D01*
X76192Y-33285D01*
X76212Y-33043D01*
X76279Y-32808D01*
X76391Y-32591D01*
X76542Y-32400D01*
X76728Y-32242D01*
X76941Y-32123D01*
X77173Y-32048D01*
X77415Y-32019D01*
X77658Y-32037D01*
X77893Y-32103D01*
X78110Y-32213D01*
X78303Y-32363D01*
X78462Y-32548D01*
X78582Y-32760D01*
X78659Y-32992D01*
X78690Y-33234D01*
X78691Y-33268D01*
X74941Y-33268D02*
X79941Y-33268D01*
X77441Y-30768D02*
X77441Y-35768D01*
X13927Y-33189D02*
X13903Y-33431D01*
X13832Y-33665D01*
X13718Y-33880D01*
X13563Y-34069D01*
X13375Y-34225D01*
X13161Y-34341D01*
X12928Y-34413D01*
X12685Y-34438D01*
X12443Y-34416D01*
X12209Y-34347D01*
X11993Y-34234D01*
X11803Y-34082D01*
X11646Y-33895D01*
X11529Y-33681D01*
X11455Y-33448D01*
X11428Y-33206D01*
X11448Y-32964D01*
X11515Y-32729D01*
X11627Y-32512D01*
X11778Y-32321D01*
X11964Y-32163D01*
X12177Y-32044D01*
X12409Y-31969D01*
X12651Y-31940D01*
X12894Y-31958D01*
X13129Y-32024D01*
X13346Y-32134D01*
X13539Y-32284D01*
X13698Y-32469D01*
X13818Y-32681D01*
X13895Y-32913D01*
X13926Y-33155D01*
X13927Y-33189D01*
X10177Y-33189D02*
X15177Y-33189D01*
X12677Y-30689D02*
X12677Y-35689D01*
X16167Y-33349D02*
X16013Y-33209D01*
X15848Y-33083D01*
X15672Y-32972D01*
X15487Y-32876D01*
X15295Y-32797D01*
X15096Y-32736D01*
X14893Y-32691D01*
X14687Y-32665D01*
X14480Y-32657D01*
X14397Y-32658D01*
X75802Y-32654D02*
X75595Y-32656D01*
X75387Y-32676D01*
X75183Y-32714D01*
X74982Y-32769D01*
X74787Y-32842D01*
X74599Y-32932D01*
X74419Y-33038D01*
X74250Y-33159D01*
X74092Y-33294D01*
X74017Y-33366D01*
X16181Y-33366D02*
X73986Y-33366D01*
X78248Y-11909D02*
X11909Y-11909D01*
X13091Y-30610D02*
X14390Y-32657D01*
X77264Y-30610D02*
X75807Y-32657D01*
X77264Y-21161D02*
X77264Y-30610D01*
X78248Y-19980D02*
X77264Y-21161D01*
X13091Y-21161D02*
X13091Y-30610D01*
X11909Y-19980D02*
X13091Y-21161D01*
X11909Y-11909D02*
X11909Y-19980D01*
X78248Y-11909D02*
X78248Y-19980D01*
M02*
