G04 start of page 8 for group 6 idx 6 *
G04 Title: (unknown), outline *
G04 Creator: pcb 20140316 *
G04 CreationDate: Mon 21 Apr 2014 02:33:18 PM GMT UTC *
G04 For: vince *
G04 Format: Gerber/RS-274X *
G04 PCB-Dimensions (mil): 2000.00 2000.00 *
G04 PCB-Coordinate-Origin: lower left *
%MOIN*%
%FSLAX25Y25*%
%LNOUTLINE*%
%ADD67C,0.0100*%
G54D67*X25000Y0D02*Y25000D01*
X0D01*
X200000Y200000D02*X0D01*
Y25000D01*
X200000Y35000D02*Y0D01*
X25000D01*
X200000D02*Y200000D01*
M02*
