G04 start of page 18 for group -3984 idx -3984 *
G04 Title: (unknown), fab *
G04 Creator: pcb 20140316 *
G04 CreationDate: Mon 21 Apr 2014 02:33:18 PM GMT UTC *
G04 For: vince *
G04 Format: Gerber/RS-274X *
G04 PCB-Dimensions (mil): 2000.00 2000.00 *
G04 PCB-Coordinate-Origin: lower left *
%MOIN*%
%FSLAX25Y25*%
%LNFAB*%
%ADD101C,0.0100*%
%ADD100C,0.0075*%
%ADD99C,0.0060*%
%ADD98C,0.0080*%
G54D98*X29400Y145600D02*X32600D01*
X29400D02*Y142400D01*
X32600D01*
Y145600D02*Y142400D01*
X142400Y35600D02*X145600D01*
X142400D02*Y32400D01*
X145600D01*
Y35600D02*Y32400D01*
X13400Y212850D02*X16600D01*
X13400D02*Y209650D01*
X16600D01*
Y212850D02*Y209650D01*
G54D99*X140000Y213500D02*Y207500D01*
Y213500D02*X143750Y207500D01*
Y213500D02*Y207500D01*
X145550Y212750D02*Y208250D01*
Y212750D02*X146300Y213500D01*
X147800D01*
X148550Y212750D01*
Y208250D01*
X147800Y207500D02*X148550Y208250D01*
X146300Y207500D02*X147800D01*
X145550Y208250D02*X146300Y207500D01*
X98000Y212750D02*X98750Y213500D01*
X101000D01*
X101750Y212750D01*
Y211250D01*
X98000Y207500D02*X101750Y211250D01*
X98000Y207500D02*X101750D01*
X45000Y208250D02*X45750Y207500D01*
X45000Y212750D02*Y208250D01*
Y212750D02*X45750Y213500D01*
X47250D01*
X48000Y212750D01*
Y208250D01*
X47250Y207500D02*X48000Y208250D01*
X45750Y207500D02*X47250D01*
X45000Y209000D02*X48000Y212000D01*
X49800Y207500D02*X50550D01*
X52350Y212300D02*X53550Y213500D01*
Y207500D01*
X52350D02*X54600D01*
X56400Y212750D02*X57150Y213500D01*
X59400D01*
X60150Y212750D01*
Y211250D01*
X56400Y207500D02*X60150Y211250D01*
X56400Y207500D02*X60150D01*
X64200Y213500D02*X64950Y212750D01*
X62700Y213500D02*X64200D01*
X61950Y212750D02*X62700Y213500D01*
X61950Y212750D02*Y208250D01*
X62700Y207500D01*
X64200Y210800D02*X64950Y210050D01*
X61950Y210800D02*X64200D01*
X62700Y207500D02*X64200D01*
X64950Y208250D01*
Y210050D02*Y208250D01*
X154200Y110000D02*G75*G03X155800Y110000I800J0D01*G01*
G75*G03X154200Y110000I-800J0D01*G01*
Y50000D02*G75*G03X155800Y50000I800J0D01*G01*
G75*G03X154200Y50000I-800J0D01*G01*
X61700Y90000D02*G75*G03X63300Y90000I800J0D01*G01*
G75*G03X61700Y90000I-800J0D01*G01*
Y30000D02*G75*G03X63300Y30000I800J0D01*G01*
G75*G03X61700Y30000I-800J0D01*G01*
X166700Y140000D02*G75*G03X168300Y140000I800J0D01*G01*
G75*G03X166700Y140000I-800J0D01*G01*
Y80000D02*G75*G03X168300Y80000I800J0D01*G01*
G75*G03X166700Y80000I-800J0D01*G01*
X116700Y140000D02*G75*G03X118300Y140000I800J0D01*G01*
G75*G03X116700Y140000I-800J0D01*G01*
Y80000D02*G75*G03X118300Y80000I800J0D01*G01*
G75*G03X116700Y80000I-800J0D01*G01*
X71700Y140000D02*G75*G03X73300Y140000I800J0D01*G01*
G75*G03X71700Y140000I-800J0D01*G01*
Y80000D02*G75*G03X73300Y80000I800J0D01*G01*
G75*G03X71700Y80000I-800J0D01*G01*
X176700Y90000D02*G75*G03X178300Y90000I800J0D01*G01*
G75*G03X176700Y90000I-800J0D01*G01*
Y30000D02*G75*G03X178300Y30000I800J0D01*G01*
G75*G03X176700Y30000I-800J0D01*G01*
X126700Y90000D02*G75*G03X128300Y90000I800J0D01*G01*
G75*G03X126700Y90000I-800J0D01*G01*
Y30000D02*G75*G03X128300Y30000I800J0D01*G01*
G75*G03X126700Y30000I-800J0D01*G01*
X84200Y90000D02*G75*G03X85800Y90000I800J0D01*G01*
G75*G03X84200Y90000I-800J0D01*G01*
Y30000D02*G75*G03X85800Y30000I800J0D01*G01*
G75*G03X84200Y30000I-800J0D01*G01*
X186700Y140000D02*G75*G03X188300Y140000I800J0D01*G01*
G75*G03X186700Y140000I-800J0D01*G01*
Y80000D02*G75*G03X188300Y80000I800J0D01*G01*
G75*G03X186700Y80000I-800J0D01*G01*
X139200Y140000D02*G75*G03X140800Y140000I800J0D01*G01*
G75*G03X139200Y140000I-800J0D01*G01*
Y80000D02*G75*G03X140800Y80000I800J0D01*G01*
G75*G03X139200Y80000I-800J0D01*G01*
X94200Y140000D02*G75*G03X95800Y140000I800J0D01*G01*
G75*G03X94200Y140000I-800J0D01*G01*
Y80000D02*G75*G03X95800Y80000I800J0D01*G01*
G75*G03X94200Y80000I-800J0D01*G01*
X106700Y90000D02*G75*G03X108300Y90000I800J0D01*G01*
G75*G03X106700Y90000I-800J0D01*G01*
Y30000D02*G75*G03X108300Y30000I800J0D01*G01*
G75*G03X106700Y30000I-800J0D01*G01*
X14200Y226250D02*G75*G03X15800Y226250I800J0D01*G01*
G75*G03X14200Y226250I-800J0D01*G01*
X135000Y228500D02*X136500Y225500D01*
X138000Y228500D01*
X136500Y225500D02*Y222500D01*
X139800Y225800D02*X142050D01*
X139800Y222500D02*X142800D01*
X139800Y228500D02*Y222500D01*
Y228500D02*X142800D01*
X147600D02*X148350Y227750D01*
X145350Y228500D02*X147600D01*
X144600Y227750D02*X145350Y228500D01*
X144600Y227750D02*Y226250D01*
X145350Y225500D01*
X147600D01*
X148350Y224750D01*
Y223250D01*
X147600Y222500D02*X148350Y223250D01*
X145350Y222500D02*X147600D01*
X144600Y223250D02*X145350Y222500D01*
X98000Y227750D02*X98750Y228500D01*
X101000D01*
X101750Y227750D01*
Y226250D01*
X98000Y222500D02*X101750Y226250D01*
X98000Y222500D02*X101750D01*
X103550Y224750D02*X106550Y228500D01*
X103550Y224750D02*X107300D01*
X106550Y228500D02*Y222500D01*
X45000Y223250D02*X45750Y222500D01*
X45000Y227750D02*Y223250D01*
Y227750D02*X45750Y228500D01*
X47250D01*
X48000Y227750D01*
Y223250D01*
X47250Y222500D02*X48000Y223250D01*
X45750Y222500D02*X47250D01*
X45000Y224000D02*X48000Y227000D01*
X49800Y222500D02*X50550D01*
X52350Y223250D02*X53100Y222500D01*
X52350Y227750D02*Y223250D01*
Y227750D02*X53100Y228500D01*
X54600D01*
X55350Y227750D01*
Y223250D01*
X54600Y222500D02*X55350Y223250D01*
X53100Y222500D02*X54600D01*
X52350Y224000D02*X55350Y227000D01*
X57150Y228500D02*X60150D01*
X57150D02*Y225500D01*
X57900Y226250D01*
X59400D01*
X60150Y225500D01*
Y223250D01*
X59400Y222500D02*X60150Y223250D01*
X57900Y222500D02*X59400D01*
X57150Y223250D02*X57900Y222500D01*
X61950Y223250D02*X62700Y222500D01*
X61950Y227750D02*Y223250D01*
Y227750D02*X62700Y228500D01*
X64200D01*
X64950Y227750D01*
Y223250D01*
X64200Y222500D02*X64950Y223250D01*
X62700Y222500D02*X64200D01*
X61950Y224000D02*X64950Y227000D01*
X16300Y51200D02*X18700Y48800D01*
X16300D02*X18700Y51200D01*
X26300D02*X28700Y48800D01*
X26300D02*X28700Y51200D01*
X16300Y41200D02*X18700Y38800D01*
X16300D02*X18700Y41200D01*
X26300D02*X28700Y38800D01*
X26300D02*X28700Y41200D01*
X16300Y76200D02*X18700Y73800D01*
X16300D02*X18700Y76200D01*
X26300D02*X28700Y73800D01*
X26300D02*X28700Y76200D01*
X16300Y66200D02*X18700Y63800D01*
X16300D02*X18700Y66200D01*
X26300D02*X28700Y63800D01*
X26300D02*X28700Y66200D01*
X16300Y101200D02*X18700Y98800D01*
X16300D02*X18700Y101200D01*
X26300D02*X28700Y98800D01*
X26300D02*X28700Y101200D01*
X16300Y91200D02*X18700Y88800D01*
X16300D02*X18700Y91200D01*
X26300D02*X28700Y88800D01*
X26300D02*X28700Y91200D01*
X16300Y126200D02*X18700Y123800D01*
X16300D02*X18700Y126200D01*
X26300D02*X28700Y123800D01*
X26300D02*X28700Y126200D01*
X16300Y116200D02*X18700Y113800D01*
X16300D02*X18700Y116200D01*
X26300D02*X28700Y113800D01*
X26300D02*X28700Y116200D01*
X16300Y186200D02*X18700Y183800D01*
X16300D02*X18700Y186200D01*
X26300D02*X28700Y183800D01*
X26300D02*X28700Y186200D01*
X16300Y176200D02*X18700Y173800D01*
X16300D02*X18700Y176200D01*
X26300D02*X28700Y173800D01*
X26300D02*X28700Y176200D01*
X46300Y16200D02*X48700Y13800D01*
X46300D02*X48700Y16200D01*
X56300D02*X58700Y13800D01*
X56300D02*X58700Y16200D01*
X66300D02*X68700Y13800D01*
X66300D02*X68700Y16200D01*
X76300D02*X78700Y13800D01*
X76300D02*X78700Y16200D01*
X86300D02*X88700Y13800D01*
X86300D02*X88700Y16200D01*
X96300D02*X98700Y13800D01*
X96300D02*X98700Y16200D01*
X106300D02*X108700Y13800D01*
X106300D02*X108700Y16200D01*
X116300D02*X118700Y13800D01*
X116300D02*X118700Y16200D01*
X126300D02*X128700Y13800D01*
X126300D02*X128700Y16200D01*
X136300D02*X138700Y13800D01*
X136300D02*X138700Y16200D01*
X146300D02*X148700Y13800D01*
X146300D02*X148700Y16200D01*
X156300D02*X158700Y13800D01*
X156300D02*X158700Y16200D01*
X166300D02*X168700Y13800D01*
X166300D02*X168700Y16200D01*
X176300D02*X178700Y13800D01*
X176300D02*X178700Y16200D01*
X13800Y242450D02*X16200Y240050D01*
X13800D02*X16200Y242450D01*
X135000Y243500D02*X136500Y240500D01*
X138000Y243500D01*
X136500Y240500D02*Y237500D01*
X139800Y240800D02*X142050D01*
X139800Y237500D02*X142800D01*
X139800Y243500D02*Y237500D01*
Y243500D02*X142800D01*
X147600D02*X148350Y242750D01*
X145350Y243500D02*X147600D01*
X144600Y242750D02*X145350Y243500D01*
X144600Y242750D02*Y241250D01*
X145350Y240500D01*
X147600D01*
X148350Y239750D01*
Y238250D01*
X147600Y237500D02*X148350Y238250D01*
X145350Y237500D02*X147600D01*
X144600Y238250D02*X145350Y237500D01*
X98000Y242750D02*X98750Y243500D01*
X100250D01*
X101000Y242750D01*
X100250Y237500D02*X101000Y238250D01*
X98750Y237500D02*X100250D01*
X98000Y238250D02*X98750Y237500D01*
Y240800D02*X100250D01*
X101000Y242750D02*Y241550D01*
Y240050D02*Y238250D01*
Y240050D02*X100250Y240800D01*
X101000Y241550D02*X100250Y240800D01*
X102800Y239750D02*X105800Y243500D01*
X102800Y239750D02*X106550D01*
X105800Y243500D02*Y237500D01*
X45000Y238250D02*X45750Y237500D01*
X45000Y242750D02*Y238250D01*
Y242750D02*X45750Y243500D01*
X47250D01*
X48000Y242750D01*
Y238250D01*
X47250Y237500D02*X48000Y238250D01*
X45750Y237500D02*X47250D01*
X45000Y239000D02*X48000Y242000D01*
X49800Y237500D02*X50550D01*
X52350Y238250D02*X53100Y237500D01*
X52350Y242750D02*Y238250D01*
Y242750D02*X53100Y243500D01*
X54600D01*
X55350Y242750D01*
Y238250D01*
X54600Y237500D02*X55350Y238250D01*
X53100Y237500D02*X54600D01*
X52350Y239000D02*X55350Y242000D01*
X57150Y242750D02*X57900Y243500D01*
X59400D01*
X60150Y242750D01*
X59400Y237500D02*X60150Y238250D01*
X57900Y237500D02*X59400D01*
X57150Y238250D02*X57900Y237500D01*
Y240800D02*X59400D01*
X60150Y242750D02*Y241550D01*
Y240050D02*Y238250D01*
Y240050D02*X59400Y240800D01*
X60150Y241550D02*X59400Y240800D01*
X61950Y238250D02*X62700Y237500D01*
X61950Y239450D02*Y238250D01*
Y239450D02*X63000Y240500D01*
X63900D01*
X64950Y239450D01*
Y238250D01*
X64200Y237500D02*X64950Y238250D01*
X62700Y237500D02*X64200D01*
X61950Y241550D02*X63000Y240500D01*
X61950Y242750D02*Y241550D01*
Y242750D02*X62700Y243500D01*
X64200D01*
X64950Y242750D01*
Y241550D01*
X63900Y240500D02*X64950Y241550D01*
X90000Y156600D02*Y153400D01*
X88400Y155000D02*X91600D01*
X100000Y156600D02*Y153400D01*
X98400Y155000D02*X101600D01*
X110000Y156600D02*Y153400D01*
X108400Y155000D02*X111600D01*
X120000Y156600D02*Y153400D01*
X118400Y155000D02*X121600D01*
X130000Y156600D02*Y153400D01*
X128400Y155000D02*X131600D01*
X140000Y156600D02*Y153400D01*
X138400Y155000D02*X141600D01*
X150000Y156600D02*Y153400D01*
X148400Y155000D02*X151600D01*
X160000Y156600D02*Y153400D01*
X158400Y155000D02*X161600D01*
X170000Y156600D02*Y153400D01*
X168400Y155000D02*X171600D01*
X180000Y156600D02*Y153400D01*
X178400Y155000D02*X181600D01*
X180000Y186600D02*Y183400D01*
X178400Y185000D02*X181600D01*
X170000Y186600D02*Y183400D01*
X168400Y185000D02*X171600D01*
X160000Y186600D02*Y183400D01*
X158400Y185000D02*X161600D01*
X150000Y186600D02*Y183400D01*
X148400Y185000D02*X151600D01*
X140000Y186600D02*Y183400D01*
X138400Y185000D02*X141600D01*
X130000Y186600D02*Y183400D01*
X128400Y185000D02*X131600D01*
X120000Y186600D02*Y183400D01*
X118400Y185000D02*X121600D01*
X110000Y186600D02*Y183400D01*
X108400Y185000D02*X111600D01*
X100000Y186600D02*Y183400D01*
X98400Y185000D02*X101600D01*
X90000Y186600D02*Y183400D01*
X88400Y185000D02*X91600D01*
X15000Y257850D02*Y254650D01*
X13400Y256250D02*X16600D01*
X135000Y258500D02*X136500Y255500D01*
X138000Y258500D01*
X136500Y255500D02*Y252500D01*
X139800Y255800D02*X142050D01*
X139800Y252500D02*X142800D01*
X139800Y258500D02*Y252500D01*
Y258500D02*X142800D01*
X147600D02*X148350Y257750D01*
X145350Y258500D02*X147600D01*
X144600Y257750D02*X145350Y258500D01*
X144600Y257750D02*Y256250D01*
X145350Y255500D01*
X147600D01*
X148350Y254750D01*
Y253250D01*
X147600Y252500D02*X148350Y253250D01*
X145350Y252500D02*X147600D01*
X144600Y253250D02*X145350Y252500D01*
X98000Y257750D02*X98750Y258500D01*
X101000D01*
X101750Y257750D01*
Y256250D01*
X98000Y252500D02*X101750Y256250D01*
X98000Y252500D02*X101750D01*
X103550Y253250D02*X104300Y252500D01*
X103550Y257750D02*Y253250D01*
Y257750D02*X104300Y258500D01*
X105800D01*
X106550Y257750D01*
Y253250D01*
X105800Y252500D02*X106550Y253250D01*
X104300Y252500D02*X105800D01*
X103550Y254000D02*X106550Y257000D01*
X45000Y253250D02*X45750Y252500D01*
X45000Y257750D02*Y253250D01*
Y257750D02*X45750Y258500D01*
X47250D01*
X48000Y257750D01*
Y253250D01*
X47250Y252500D02*X48000Y253250D01*
X45750Y252500D02*X47250D01*
X45000Y254000D02*X48000Y257000D01*
X49800Y252500D02*X50550D01*
X52350Y253250D02*X53100Y252500D01*
X52350Y257750D02*Y253250D01*
Y257750D02*X53100Y258500D01*
X54600D01*
X55350Y257750D01*
Y253250D01*
X54600Y252500D02*X55350Y253250D01*
X53100Y252500D02*X54600D01*
X52350Y254000D02*X55350Y257000D01*
X57150Y257750D02*X57900Y258500D01*
X59400D01*
X60150Y257750D01*
X59400Y252500D02*X60150Y253250D01*
X57900Y252500D02*X59400D01*
X57150Y253250D02*X57900Y252500D01*
Y255800D02*X59400D01*
X60150Y257750D02*Y256550D01*
Y255050D02*Y253250D01*
Y255050D02*X59400Y255800D01*
X60150Y256550D02*X59400Y255800D01*
X61950Y258500D02*X64950D01*
X61950D02*Y255500D01*
X62700Y256250D01*
X64200D01*
X64950Y255500D01*
Y253250D01*
X64200Y252500D02*X64950Y253250D01*
X62700Y252500D02*X64200D01*
X61950Y253250D02*X62700Y252500D01*
X47500Y147500D02*Y145900D01*
Y147500D02*X48887Y148300D01*
X47500Y147500D02*X46113Y148300D01*
X47500Y187500D02*Y185900D01*
Y187500D02*X48887Y188300D01*
X47500Y187500D02*X46113Y188300D01*
X62500Y147500D02*Y145900D01*
Y147500D02*X63887Y148300D01*
X62500Y147500D02*X61113Y148300D01*
X62500Y187500D02*Y185900D01*
Y187500D02*X63887Y188300D01*
X62500Y187500D02*X61113Y188300D01*
X181000Y147000D02*Y145400D01*
Y147000D02*X182387Y147800D01*
X181000Y147000D02*X179613Y147800D01*
X26500Y106300D02*Y104700D01*
Y106300D02*X27887Y107100D01*
X26500Y106300D02*X25113Y107100D01*
X15000Y271250D02*Y269650D01*
Y271250D02*X16387Y272050D01*
X15000Y271250D02*X13613Y272050D01*
X135000Y273500D02*X136500Y270500D01*
X138000Y273500D01*
X136500Y270500D02*Y267500D01*
X139800Y270800D02*X142050D01*
X139800Y267500D02*X142800D01*
X139800Y273500D02*Y267500D01*
Y273500D02*X142800D01*
X147600D02*X148350Y272750D01*
X145350Y273500D02*X147600D01*
X144600Y272750D02*X145350Y273500D01*
X144600Y272750D02*Y271250D01*
X145350Y270500D01*
X147600D01*
X148350Y269750D01*
Y268250D01*
X147600Y267500D02*X148350Y268250D01*
X145350Y267500D02*X147600D01*
X144600Y268250D02*X145350Y267500D01*
X100250Y273500D02*X101000Y272750D01*
X98750Y273500D02*X100250D01*
X98000Y272750D02*X98750Y273500D01*
X98000Y272750D02*Y268250D01*
X98750Y267500D01*
X100250Y270800D02*X101000Y270050D01*
X98000Y270800D02*X100250D01*
X98750Y267500D02*X100250D01*
X101000Y268250D01*
Y270050D02*Y268250D01*
X45000D02*X45750Y267500D01*
X45000Y272750D02*Y268250D01*
Y272750D02*X45750Y273500D01*
X47250D01*
X48000Y272750D01*
Y268250D01*
X47250Y267500D02*X48000Y268250D01*
X45750Y267500D02*X47250D01*
X45000Y269000D02*X48000Y272000D01*
X49800Y267500D02*X50550D01*
X52350Y268250D02*X53100Y267500D01*
X52350Y272750D02*Y268250D01*
Y272750D02*X53100Y273500D01*
X54600D01*
X55350Y272750D01*
Y268250D01*
X54600Y267500D02*X55350Y268250D01*
X53100Y267500D02*X54600D01*
X52350Y269000D02*X55350Y272000D01*
X57150Y272750D02*X57900Y273500D01*
X60150D01*
X60900Y272750D01*
Y271250D01*
X57150Y267500D02*X60900Y271250D01*
X57150Y267500D02*X60900D01*
X62700Y268250D02*X63450Y267500D01*
X62700Y272750D02*Y268250D01*
Y272750D02*X63450Y273500D01*
X64950D01*
X65700Y272750D01*
Y268250D01*
X64950Y267500D02*X65700Y268250D01*
X63450Y267500D02*X64950D01*
X62700Y269000D02*X65700Y272000D01*
X3000Y288500D02*X3750Y287750D01*
X750Y288500D02*X3000D01*
X0Y287750D02*X750Y288500D01*
X0Y287750D02*Y286250D01*
X750Y285500D01*
X3000D01*
X3750Y284750D01*
Y283250D01*
X3000Y282500D02*X3750Y283250D01*
X750Y282500D02*X3000D01*
X0Y283250D02*X750Y282500D01*
X5550Y285500D02*Y283250D01*
X6300Y282500D01*
X8550Y285500D02*Y281000D01*
X7800Y280250D02*X8550Y281000D01*
X6300Y280250D02*X7800D01*
X5550Y281000D02*X6300Y280250D01*
Y282500D02*X7800D01*
X8550Y283250D01*
X11100Y284750D02*Y282500D01*
Y284750D02*X11850Y285500D01*
X12600D01*
X13350Y284750D01*
Y282500D01*
Y284750D02*X14100Y285500D01*
X14850D01*
X15600Y284750D01*
Y282500D01*
X10350Y285500D02*X11100Y284750D01*
X17400Y288500D02*Y282500D01*
Y283250D02*X18150Y282500D01*
X19650D01*
X20400Y283250D01*
Y284750D02*Y283250D01*
X19650Y285500D02*X20400Y284750D01*
X18150Y285500D02*X19650D01*
X17400Y284750D02*X18150Y285500D01*
X22200Y284750D02*Y283250D01*
Y284750D02*X22950Y285500D01*
X24450D01*
X25200Y284750D01*
Y283250D01*
X24450Y282500D02*X25200Y283250D01*
X22950Y282500D02*X24450D01*
X22200Y283250D02*X22950Y282500D01*
X27000Y288500D02*Y283250D01*
X27750Y282500D01*
X0Y279250D02*X29250D01*
X41750Y288500D02*Y282500D01*
X43700Y288500D02*X44750Y287450D01*
Y283550D01*
X43700Y282500D02*X44750Y283550D01*
X41000Y282500D02*X43700D01*
X41000Y288500D02*X43700D01*
G54D100*X46550Y287000D02*Y286850D01*
G54D99*Y284750D02*Y282500D01*
X50300Y285500D02*X51050Y284750D01*
X48800Y285500D02*X50300D01*
X48050Y284750D02*X48800Y285500D01*
X48050Y284750D02*Y283250D01*
X48800Y282500D01*
X51050Y285500D02*Y283250D01*
X51800Y282500D01*
X48800D02*X50300D01*
X51050Y283250D01*
X54350Y284750D02*Y282500D01*
Y284750D02*X55100Y285500D01*
X55850D01*
X56600Y284750D01*
Y282500D01*
Y284750D02*X57350Y285500D01*
X58100D01*
X58850Y284750D01*
Y282500D01*
X53600Y285500D02*X54350Y284750D01*
X60650Y282500D02*X61400D01*
X65900Y283250D02*X66650Y282500D01*
X65900Y287750D02*X66650Y288500D01*
X65900Y287750D02*Y283250D01*
X68450Y288500D02*X69950D01*
X69200D02*Y282500D01*
X68450D02*X69950D01*
X72500Y284750D02*Y282500D01*
Y284750D02*X73250Y285500D01*
X74000D01*
X74750Y284750D01*
Y282500D01*
X71750Y285500D02*X72500Y284750D01*
X77300Y285500D02*X79550D01*
X76550Y284750D02*X77300Y285500D01*
X76550Y284750D02*Y283250D01*
X77300Y282500D01*
X79550D01*
X81350Y288500D02*Y282500D01*
Y284750D02*X82100Y285500D01*
X83600D01*
X84350Y284750D01*
Y282500D01*
X86150Y288500D02*X86900Y287750D01*
Y283250D01*
X86150Y282500D02*X86900Y283250D01*
X41000Y279250D02*X88700D01*
X96050Y282500D02*X98000D01*
X95000Y283550D02*X96050Y282500D01*
X95000Y287450D02*Y283550D01*
Y287450D02*X96050Y288500D01*
X98000D01*
X99800Y284750D02*Y283250D01*
Y284750D02*X100550Y285500D01*
X102050D01*
X102800Y284750D01*
Y283250D01*
X102050Y282500D02*X102800Y283250D01*
X100550Y282500D02*X102050D01*
X99800Y283250D02*X100550Y282500D01*
X104600Y285500D02*Y283250D01*
X105350Y282500D01*
X106850D01*
X107600Y283250D01*
Y285500D02*Y283250D01*
X110150Y284750D02*Y282500D01*
Y284750D02*X110900Y285500D01*
X111650D01*
X112400Y284750D01*
Y282500D01*
X109400Y285500D02*X110150Y284750D01*
X114950Y288500D02*Y283250D01*
X115700Y282500D01*
X114200Y286250D02*X115700D01*
X95000Y279250D02*X117200D01*
X130750Y288500D02*Y282500D01*
X130000Y288500D02*X133000D01*
X133750Y287750D01*
Y286250D01*
X133000Y285500D02*X133750Y286250D01*
X130750Y285500D02*X133000D01*
X135550Y288500D02*Y283250D01*
X136300Y282500D01*
X140050Y285500D02*X140800Y284750D01*
X138550Y285500D02*X140050D01*
X137800Y284750D02*X138550Y285500D01*
X137800Y284750D02*Y283250D01*
X138550Y282500D01*
X140800Y285500D02*Y283250D01*
X141550Y282500D01*
X138550D02*X140050D01*
X140800Y283250D01*
X144100Y288500D02*Y283250D01*
X144850Y282500D01*
X143350Y286250D02*X144850D01*
X147100Y282500D02*X149350D01*
X146350Y283250D02*X147100Y282500D01*
X146350Y284750D02*Y283250D01*
Y284750D02*X147100Y285500D01*
X148600D01*
X149350Y284750D01*
X146350Y284000D02*X149350D01*
Y284750D02*Y284000D01*
X154150Y288500D02*Y282500D01*
X153400D02*X154150Y283250D01*
X151900Y282500D02*X153400D01*
X151150Y283250D02*X151900Y282500D01*
X151150Y284750D02*Y283250D01*
Y284750D02*X151900Y285500D01*
X153400D01*
X154150Y284750D01*
X157450Y285500D02*Y284750D01*
Y283250D02*Y282500D01*
X155950Y287750D02*Y287000D01*
Y287750D02*X156700Y288500D01*
X158200D01*
X158950Y287750D01*
Y287000D01*
X157450Y285500D02*X158950Y287000D01*
X130000Y279250D02*X160750D01*
X0Y303500D02*X3000D01*
X1500D02*Y297500D01*
X4800Y303500D02*Y297500D01*
Y299750D02*X5550Y300500D01*
X7050D01*
X7800Y299750D01*
Y297500D01*
X10350D02*X12600D01*
X9600Y298250D02*X10350Y297500D01*
X9600Y299750D02*Y298250D01*
Y299750D02*X10350Y300500D01*
X11850D01*
X12600Y299750D01*
X9600Y299000D02*X12600D01*
Y299750D02*Y299000D01*
X15150Y299750D02*Y297500D01*
Y299750D02*X15900Y300500D01*
X17400D01*
X14400D02*X15150Y299750D01*
X19950Y297500D02*X22200D01*
X19200Y298250D02*X19950Y297500D01*
X19200Y299750D02*Y298250D01*
Y299750D02*X19950Y300500D01*
X21450D01*
X22200Y299750D01*
X19200Y299000D02*X22200D01*
Y299750D02*Y299000D01*
X28950Y300500D02*X29700Y299750D01*
X27450Y300500D02*X28950D01*
X26700Y299750D02*X27450Y300500D01*
X26700Y299750D02*Y298250D01*
X27450Y297500D01*
X29700Y300500D02*Y298250D01*
X30450Y297500D01*
X27450D02*X28950D01*
X29700Y298250D01*
X33000Y299750D02*Y297500D01*
Y299750D02*X33750Y300500D01*
X35250D01*
X32250D02*X33000Y299750D01*
X37800Y297500D02*X40050D01*
X37050Y298250D02*X37800Y297500D01*
X37050Y299750D02*Y298250D01*
Y299750D02*X37800Y300500D01*
X39300D01*
X40050Y299750D01*
X37050Y299000D02*X40050D01*
Y299750D02*Y299000D01*
X44550Y303500D02*X47550D01*
X44550D02*Y300500D01*
X45300Y301250D01*
X46800D01*
X47550Y300500D01*
Y298250D01*
X46800Y297500D02*X47550Y298250D01*
X45300Y297500D02*X46800D01*
X44550Y298250D02*X45300Y297500D01*
X55050Y303500D02*Y297500D01*
X54300D02*X55050Y298250D01*
X52800Y297500D02*X54300D01*
X52050Y298250D02*X52800Y297500D01*
X52050Y299750D02*Y298250D01*
Y299750D02*X52800Y300500D01*
X54300D01*
X55050Y299750D01*
G54D100*X56850Y302000D02*Y301850D01*
G54D99*Y299750D02*Y297500D01*
X59100Y302750D02*Y297500D01*
Y302750D02*X59850Y303500D01*
X60600D01*
X58350Y300500D02*X59850D01*
X62850Y302750D02*Y297500D01*
Y302750D02*X63600Y303500D01*
X64350D01*
X62100Y300500D02*X63600D01*
X66600Y297500D02*X68850D01*
X65850Y298250D02*X66600Y297500D01*
X65850Y299750D02*Y298250D01*
Y299750D02*X66600Y300500D01*
X68100D01*
X68850Y299750D01*
X65850Y299000D02*X68850D01*
Y299750D02*Y299000D01*
X71400Y299750D02*Y297500D01*
Y299750D02*X72150Y300500D01*
X73650D01*
X70650D02*X71400Y299750D01*
X76200Y297500D02*X78450D01*
X75450Y298250D02*X76200Y297500D01*
X75450Y299750D02*Y298250D01*
Y299750D02*X76200Y300500D01*
X77700D01*
X78450Y299750D01*
X75450Y299000D02*X78450D01*
Y299750D02*Y299000D01*
X81000Y299750D02*Y297500D01*
Y299750D02*X81750Y300500D01*
X82500D01*
X83250Y299750D01*
Y297500D01*
X80250Y300500D02*X81000Y299750D01*
X85800Y303500D02*Y298250D01*
X86550Y297500D01*
X85050Y301250D02*X86550D01*
X93750Y303500D02*Y297500D01*
X93000D02*X93750Y298250D01*
X91500Y297500D02*X93000D01*
X90750Y298250D02*X91500Y297500D01*
X90750Y299750D02*Y298250D01*
Y299750D02*X91500Y300500D01*
X93000D01*
X93750Y299750D01*
X96300D02*Y297500D01*
Y299750D02*X97050Y300500D01*
X98550D01*
X95550D02*X96300Y299750D01*
G54D100*X100350Y302000D02*Y301850D01*
G54D99*Y299750D02*Y297500D01*
X101850Y303500D02*Y298250D01*
X102600Y297500D01*
X104100Y303500D02*Y298250D01*
X104850Y297500D01*
X109800D02*X112050D01*
X112800Y298250D01*
X112050Y299000D02*X112800Y298250D01*
X109800Y299000D02*X112050D01*
X109050Y299750D02*X109800Y299000D01*
X109050Y299750D02*X109800Y300500D01*
X112050D01*
X112800Y299750D01*
X109050Y298250D02*X109800Y297500D01*
G54D100*X114600Y302000D02*Y301850D01*
G54D99*Y299750D02*Y297500D01*
X116100Y300500D02*X119100D01*
X116100Y297500D02*X119100Y300500D01*
X116100Y297500D02*X119100D01*
X121650D02*X123900D01*
X120900Y298250D02*X121650Y297500D01*
X120900Y299750D02*Y298250D01*
Y299750D02*X121650Y300500D01*
X123150D01*
X123900Y299750D01*
X120900Y299000D02*X123900D01*
Y299750D02*Y299000D01*
X126450Y297500D02*X128700D01*
X129450Y298250D01*
X128700Y299000D02*X129450Y298250D01*
X126450Y299000D02*X128700D01*
X125700Y299750D02*X126450Y299000D01*
X125700Y299750D02*X126450Y300500D01*
X128700D01*
X129450Y299750D01*
X125700Y298250D02*X126450Y297500D01*
X133950Y300500D02*Y298250D01*
X134700Y297500D01*
X136200D01*
X136950Y298250D01*
Y300500D02*Y298250D01*
X139500Y297500D02*X141750D01*
X142500Y298250D01*
X141750Y299000D02*X142500Y298250D01*
X139500Y299000D02*X141750D01*
X138750Y299750D02*X139500Y299000D01*
X138750Y299750D02*X139500Y300500D01*
X141750D01*
X142500Y299750D01*
X138750Y298250D02*X139500Y297500D01*
X145050D02*X147300D01*
X144300Y298250D02*X145050Y297500D01*
X144300Y299750D02*Y298250D01*
Y299750D02*X145050Y300500D01*
X146550D01*
X147300Y299750D01*
X144300Y299000D02*X147300D01*
Y299750D02*Y299000D01*
X152100Y303500D02*Y297500D01*
X151350D02*X152100Y298250D01*
X149850Y297500D02*X151350D01*
X149100Y298250D02*X149850Y297500D01*
X149100Y299750D02*Y298250D01*
Y299750D02*X149850Y300500D01*
X151350D01*
X152100Y299750D01*
G54D100*X156600Y302000D02*Y301850D01*
G54D99*Y299750D02*Y297500D01*
X158850Y299750D02*Y297500D01*
Y299750D02*X159600Y300500D01*
X160350D01*
X161100Y299750D01*
Y297500D01*
X158100Y300500D02*X158850Y299750D01*
X166350Y303500D02*Y298250D01*
X167100Y297500D01*
X165600Y301250D02*X167100D01*
X168600Y303500D02*Y297500D01*
Y299750D02*X169350Y300500D01*
X170850D01*
X171600Y299750D01*
Y297500D01*
G54D100*X173400Y302000D02*Y301850D01*
G54D99*Y299750D02*Y297500D01*
X175650D02*X177900D01*
X178650Y298250D01*
X177900Y299000D02*X178650Y298250D01*
X175650Y299000D02*X177900D01*
X174900Y299750D02*X175650Y299000D01*
X174900Y299750D02*X175650Y300500D01*
X177900D01*
X178650Y299750D01*
X174900Y298250D02*X175650Y297500D01*
X183150Y303500D02*Y298250D01*
X183900Y297500D01*
X187650Y300500D02*X188400Y299750D01*
X186150Y300500D02*X187650D01*
X185400Y299750D02*X186150Y300500D01*
X185400Y299750D02*Y298250D01*
X186150Y297500D01*
X188400Y300500D02*Y298250D01*
X189150Y297500D01*
X186150D02*X187650D01*
X188400Y298250D01*
X190950Y300500D02*Y298250D01*
X191700Y297500D01*
X193950Y300500D02*Y296000D01*
X193200Y295250D02*X193950Y296000D01*
X191700Y295250D02*X193200D01*
X190950Y296000D02*X191700Y295250D01*
Y297500D02*X193200D01*
X193950Y298250D01*
X195750Y299750D02*Y298250D01*
Y299750D02*X196500Y300500D01*
X198000D01*
X198750Y299750D01*
Y298250D01*
X198000Y297500D02*X198750Y298250D01*
X196500Y297500D02*X198000D01*
X195750Y298250D02*X196500Y297500D01*
X200550Y300500D02*Y298250D01*
X201300Y297500D01*
X202800D01*
X203550Y298250D01*
Y300500D02*Y298250D01*
X206100Y303500D02*Y298250D01*
X206850Y297500D01*
X205350Y301250D02*X206850D01*
X208350Y296000D02*X209850Y297500D01*
X214350Y298250D02*X215100Y297500D01*
X214350Y299450D02*Y298250D01*
Y299450D02*X215400Y300500D01*
X216300D01*
X217350Y299450D01*
Y298250D01*
X216600Y297500D02*X217350Y298250D01*
X215100Y297500D02*X216600D01*
X214350Y301550D02*X215400Y300500D01*
X214350Y302750D02*Y301550D01*
Y302750D02*X215100Y303500D01*
X216600D01*
X217350Y302750D01*
Y301550D01*
X216300Y300500D02*X217350Y301550D01*
X221400Y303500D02*X222150Y302750D01*
X219900Y303500D02*X221400D01*
X219150Y302750D02*X219900Y303500D01*
X219150Y302750D02*Y298250D01*
X219900Y297500D01*
X221400Y300800D02*X222150Y300050D01*
X219150Y300800D02*X221400D01*
X219900Y297500D02*X221400D01*
X222150Y298250D01*
Y300050D02*Y298250D01*
X226650Y303500D02*Y297500D01*
Y299750D02*X227400Y300500D01*
X228900D01*
X229650Y299750D01*
Y297500D01*
X231450Y299750D02*Y298250D01*
Y299750D02*X232200Y300500D01*
X233700D01*
X234450Y299750D01*
Y298250D01*
X233700Y297500D02*X234450Y298250D01*
X232200Y297500D02*X233700D01*
X231450Y298250D02*X232200Y297500D01*
X236250Y303500D02*Y298250D01*
X237000Y297500D01*
X239250D02*X241500D01*
X238500Y298250D02*X239250Y297500D01*
X238500Y299750D02*Y298250D01*
Y299750D02*X239250Y300500D01*
X240750D01*
X241500Y299750D01*
X238500Y299000D02*X241500D01*
Y299750D02*Y299000D01*
X244050Y297500D02*X246300D01*
X247050Y298250D01*
X246300Y299000D02*X247050Y298250D01*
X244050Y299000D02*X246300D01*
X243300Y299750D02*X244050Y299000D01*
X243300Y299750D02*X244050Y300500D01*
X246300D01*
X247050Y299750D01*
X243300Y298250D02*X244050Y297500D01*
X252300Y303500D02*Y298250D01*
X253050Y297500D01*
X251550Y301250D02*X253050D01*
X254550Y299750D02*Y298250D01*
Y299750D02*X255300Y300500D01*
X256800D01*
X257550Y299750D01*
Y298250D01*
X256800Y297500D02*X257550Y298250D01*
X255300Y297500D02*X256800D01*
X254550Y298250D02*X255300Y297500D01*
X260100Y303500D02*Y298250D01*
X260850Y297500D01*
X259350Y301250D02*X260850D01*
X264600Y300500D02*X265350Y299750D01*
X263100Y300500D02*X264600D01*
X262350Y299750D02*X263100Y300500D01*
X262350Y299750D02*Y298250D01*
X263100Y297500D01*
X265350Y300500D02*Y298250D01*
X266100Y297500D01*
X263100D02*X264600D01*
X265350Y298250D01*
X267900Y303500D02*Y298250D01*
X268650Y297500D01*
G54D101*X200000Y35000D02*Y0D01*
X25000D01*
Y25000D01*
X0D01*
X200000Y0D02*Y200000D01*
X0D01*
Y25000D01*
G54D99*X13675Y-9500D02*X16675D01*
X17425Y-8750D01*
Y-6950D02*Y-8750D01*
X16675Y-6200D02*X17425Y-6950D01*
X14425Y-6200D02*X16675D01*
X14425Y-3500D02*Y-9500D01*
X13675Y-3500D02*X16675D01*
X17425Y-4250D01*
Y-5450D01*
X16675Y-6200D02*X17425Y-5450D01*
X19225Y-7250D02*Y-8750D01*
Y-7250D02*X19975Y-6500D01*
X21475D01*
X22225Y-7250D01*
Y-8750D01*
X21475Y-9500D02*X22225Y-8750D01*
X19975Y-9500D02*X21475D01*
X19225Y-8750D02*X19975Y-9500D01*
X26275Y-6500D02*X27025Y-7250D01*
X24775Y-6500D02*X26275D01*
X24025Y-7250D02*X24775Y-6500D01*
X24025Y-7250D02*Y-8750D01*
X24775Y-9500D01*
X27025Y-6500D02*Y-8750D01*
X27775Y-9500D01*
X24775D02*X26275D01*
X27025Y-8750D01*
X30325Y-7250D02*Y-9500D01*
Y-7250D02*X31075Y-6500D01*
X32575D01*
X29575D02*X30325Y-7250D01*
X37375Y-3500D02*Y-9500D01*
X36625D02*X37375Y-8750D01*
X35125Y-9500D02*X36625D01*
X34375Y-8750D02*X35125Y-9500D01*
X34375Y-7250D02*Y-8750D01*
Y-7250D02*X35125Y-6500D01*
X36625D01*
X37375Y-7250D01*
X41875D02*Y-8750D01*
Y-7250D02*X42625Y-6500D01*
X44125D01*
X44875Y-7250D01*
Y-8750D01*
X44125Y-9500D02*X44875Y-8750D01*
X42625Y-9500D02*X44125D01*
X41875Y-8750D02*X42625Y-9500D01*
X46675Y-6500D02*Y-8750D01*
X47425Y-9500D01*
X48925D01*
X49675Y-8750D01*
Y-6500D02*Y-8750D01*
X52225Y-3500D02*Y-8750D01*
X52975Y-9500D01*
X51475Y-5750D02*X52975D01*
X54475Y-3500D02*Y-8750D01*
X55225Y-9500D01*
G54D100*X56725Y-5000D02*Y-5150D01*
G54D99*Y-7250D02*Y-9500D01*
X58975Y-7250D02*Y-9500D01*
Y-7250D02*X59725Y-6500D01*
X60475D01*
X61225Y-7250D01*
Y-9500D01*
X58225Y-6500D02*X58975Y-7250D01*
X63775Y-9500D02*X66025D01*
X63025Y-8750D02*X63775Y-9500D01*
X63025Y-7250D02*Y-8750D01*
Y-7250D02*X63775Y-6500D01*
X65275D01*
X66025Y-7250D01*
X63025Y-8000D02*X66025D01*
Y-7250D02*Y-8000D01*
G54D100*X70525Y-5000D02*Y-5150D01*
G54D99*Y-7250D02*Y-9500D01*
X72775D02*X75025D01*
X75775Y-8750D01*
X75025Y-8000D02*X75775Y-8750D01*
X72775Y-8000D02*X75025D01*
X72025Y-7250D02*X72775Y-8000D01*
X72025Y-7250D02*X72775Y-6500D01*
X75025D01*
X75775Y-7250D01*
X72025Y-8750D02*X72775Y-9500D01*
X81025Y-3500D02*Y-8750D01*
X81775Y-9500D01*
X80275Y-5750D02*X81775D01*
X83275Y-3500D02*Y-9500D01*
Y-7250D02*X84025Y-6500D01*
X85525D01*
X86275Y-7250D01*
Y-9500D01*
X88825D02*X91075D01*
X88075Y-8750D02*X88825Y-9500D01*
X88075Y-7250D02*Y-8750D01*
Y-7250D02*X88825Y-6500D01*
X90325D01*
X91075Y-7250D01*
X88075Y-8000D02*X91075D01*
Y-7250D02*Y-8000D01*
X96325Y-6500D02*X98575D01*
X95575Y-7250D02*X96325Y-6500D01*
X95575Y-7250D02*Y-8750D01*
X96325Y-9500D01*
X98575D01*
X101125D02*X103375D01*
X100375Y-8750D02*X101125Y-9500D01*
X100375Y-7250D02*Y-8750D01*
Y-7250D02*X101125Y-6500D01*
X102625D01*
X103375Y-7250D01*
X100375Y-8000D02*X103375D01*
Y-7250D02*Y-8000D01*
X105925Y-7250D02*Y-9500D01*
Y-7250D02*X106675Y-6500D01*
X107425D01*
X108175Y-7250D01*
Y-9500D01*
X105175Y-6500D02*X105925Y-7250D01*
X110725Y-3500D02*Y-8750D01*
X111475Y-9500D01*
X109975Y-5750D02*X111475D01*
X113725Y-9500D02*X115975D01*
X112975Y-8750D02*X113725Y-9500D01*
X112975Y-7250D02*Y-8750D01*
Y-7250D02*X113725Y-6500D01*
X115225D01*
X115975Y-7250D01*
X112975Y-8000D02*X115975D01*
Y-7250D02*Y-8000D01*
X118525Y-7250D02*Y-9500D01*
Y-7250D02*X119275Y-6500D01*
X120775D01*
X117775D02*X118525Y-7250D01*
X122575Y-3500D02*Y-8750D01*
X123325Y-9500D01*
G54D100*X124825Y-5000D02*Y-5150D01*
G54D99*Y-7250D02*Y-9500D01*
X127075Y-7250D02*Y-9500D01*
Y-7250D02*X127825Y-6500D01*
X128575D01*
X129325Y-7250D01*
Y-9500D01*
X126325Y-6500D02*X127075Y-7250D01*
X131875Y-9500D02*X134125D01*
X131125Y-8750D02*X131875Y-9500D01*
X131125Y-7250D02*Y-8750D01*
Y-7250D02*X131875Y-6500D01*
X133375D01*
X134125Y-7250D01*
X131125Y-8000D02*X134125D01*
Y-7250D02*Y-8000D01*
X138625Y-7250D02*Y-8750D01*
Y-7250D02*X139375Y-6500D01*
X140875D01*
X141625Y-7250D01*
Y-8750D01*
X140875Y-9500D02*X141625Y-8750D01*
X139375Y-9500D02*X140875D01*
X138625Y-8750D02*X139375Y-9500D01*
X144175Y-4250D02*Y-9500D01*
Y-4250D02*X144925Y-3500D01*
X145675D01*
X143425Y-6500D02*X144925D01*
X150625Y-3500D02*Y-8750D01*
X151375Y-9500D01*
X149875Y-5750D02*X151375D01*
X152875Y-3500D02*Y-9500D01*
Y-7250D02*X153625Y-6500D01*
X155125D01*
X155875Y-7250D01*
Y-9500D01*
G54D100*X157675Y-5000D02*Y-5150D01*
G54D99*Y-7250D02*Y-9500D01*
X159925D02*X162175D01*
X162925Y-8750D01*
X162175Y-8000D02*X162925Y-8750D01*
X159925Y-8000D02*X162175D01*
X159175Y-7250D02*X159925Y-8000D01*
X159175Y-7250D02*X159925Y-6500D01*
X162175D01*
X162925Y-7250D01*
X159175Y-8750D02*X159925Y-9500D01*
X168175Y-7250D02*Y-11750D01*
X167425Y-6500D02*X168175Y-7250D01*
X168925Y-6500D01*
X170425D01*
X171175Y-7250D01*
Y-8750D01*
X170425Y-9500D02*X171175Y-8750D01*
X168925Y-9500D02*X170425D01*
X168175Y-8750D02*X168925Y-9500D01*
X175225Y-6500D02*X175975Y-7250D01*
X173725Y-6500D02*X175225D01*
X172975Y-7250D02*X173725Y-6500D01*
X172975Y-7250D02*Y-8750D01*
X173725Y-9500D01*
X175975Y-6500D02*Y-8750D01*
X176725Y-9500D01*
X173725D02*X175225D01*
X175975Y-8750D01*
X179275Y-3500D02*Y-8750D01*
X180025Y-9500D01*
X178525Y-5750D02*X180025D01*
X181525Y-3500D02*Y-9500D01*
Y-7250D02*X182275Y-6500D01*
X183775D01*
X184525Y-7250D01*
Y-9500D01*
X200750Y228500D02*Y222500D01*
X202700Y228500D02*X203750Y227450D01*
Y223550D01*
X202700Y222500D02*X203750Y223550D01*
X200000Y222500D02*X202700D01*
X200000Y228500D02*X202700D01*
X207800Y225500D02*X208550Y224750D01*
X206300Y225500D02*X207800D01*
X205550Y224750D02*X206300Y225500D01*
X205550Y224750D02*Y223250D01*
X206300Y222500D01*
X208550Y225500D02*Y223250D01*
X209300Y222500D01*
X206300D02*X207800D01*
X208550Y223250D01*
X211850Y228500D02*Y223250D01*
X212600Y222500D01*
X211100Y226250D02*X212600D01*
X214850Y222500D02*X217100D01*
X214100Y223250D02*X214850Y222500D01*
X214100Y224750D02*Y223250D01*
Y224750D02*X214850Y225500D01*
X216350D01*
X217100Y224750D01*
X214100Y224000D02*X217100D01*
Y224750D02*Y224000D01*
X218900Y226250D02*X219650D01*
X218900Y224750D02*X219650D01*
X224150Y228500D02*Y222500D01*
Y228500D02*X226400Y225500D01*
X228650Y228500D01*
Y222500D01*
X230450Y224750D02*Y223250D01*
Y224750D02*X231200Y225500D01*
X232700D01*
X233450Y224750D01*
Y223250D01*
X232700Y222500D02*X233450Y223250D01*
X231200Y222500D02*X232700D01*
X230450Y223250D02*X231200Y222500D01*
X236000Y224750D02*Y222500D01*
Y224750D02*X236750Y225500D01*
X237500D01*
X238250Y224750D01*
Y222500D01*
X235250Y225500D02*X236000Y224750D01*
X242750Y227750D02*X243500Y228500D01*
X245750D01*
X246500Y227750D01*
Y226250D01*
X242750Y222500D02*X246500Y226250D01*
X242750Y222500D02*X246500D01*
X248300Y227300D02*X249500Y228500D01*
Y222500D01*
X248300D02*X250550D01*
X255050Y227000D02*Y222500D01*
Y227000D02*X256100Y228500D01*
X257750D01*
X258800Y227000D01*
Y222500D01*
X255050Y225500D02*X258800D01*
X261350Y224750D02*Y220250D01*
X260600Y225500D02*X261350Y224750D01*
X262100Y225500D01*
X263600D01*
X264350Y224750D01*
Y223250D01*
X263600Y222500D02*X264350Y223250D01*
X262100Y222500D02*X263600D01*
X261350Y223250D02*X262100Y222500D01*
X266900Y224750D02*Y222500D01*
Y224750D02*X267650Y225500D01*
X269150D01*
X266150D02*X266900Y224750D01*
X273650Y227750D02*X274400Y228500D01*
X276650D01*
X277400Y227750D01*
Y226250D01*
X273650Y222500D02*X277400Y226250D01*
X273650Y222500D02*X277400D01*
X279200Y223250D02*X279950Y222500D01*
X279200Y227750D02*Y223250D01*
Y227750D02*X279950Y228500D01*
X281450D01*
X282200Y227750D01*
Y223250D01*
X281450Y222500D02*X282200Y223250D01*
X279950Y222500D02*X281450D01*
X279200Y224000D02*X282200Y227000D01*
X284000Y227300D02*X285200Y228500D01*
Y222500D01*
X284000D02*X286250D01*
X288050Y224750D02*X291050Y228500D01*
X288050Y224750D02*X291800D01*
X291050Y228500D02*Y222500D01*
X296300Y223250D02*X297050Y222500D01*
X296300Y227750D02*Y223250D01*
Y227750D02*X297050Y228500D01*
X298550D01*
X299300Y227750D01*
Y223250D01*
X298550Y222500D02*X299300Y223250D01*
X297050Y222500D02*X298550D01*
X296300Y224000D02*X299300Y227000D01*
X301100Y227750D02*X301850Y228500D01*
X304100D01*
X304850Y227750D01*
Y226250D01*
X301100Y222500D02*X304850Y226250D01*
X301100Y222500D02*X304850D01*
X306650Y226250D02*X307400D01*
X306650Y224750D02*X307400D01*
X309200Y227750D02*X309950Y228500D01*
X311450D01*
X312200Y227750D01*
X311450Y222500D02*X312200Y223250D01*
X309950Y222500D02*X311450D01*
X309200Y223250D02*X309950Y222500D01*
Y225800D02*X311450D01*
X312200Y227750D02*Y226550D01*
Y225050D02*Y223250D01*
Y225050D02*X311450Y225800D01*
X312200Y226550D02*X311450Y225800D01*
X314000Y227750D02*X314750Y228500D01*
X316250D01*
X317000Y227750D01*
X316250Y222500D02*X317000Y223250D01*
X314750Y222500D02*X316250D01*
X314000Y223250D02*X314750Y222500D01*
Y225800D02*X316250D01*
X317000Y227750D02*Y226550D01*
Y225050D02*Y223250D01*
Y225050D02*X316250Y225800D01*
X317000Y226550D02*X316250Y225800D01*
X318800Y226250D02*X319550D01*
X318800Y224750D02*X319550D01*
X321350Y227300D02*X322550Y228500D01*
Y222500D01*
X321350D02*X323600D01*
X325400Y223250D02*X326150Y222500D01*
X325400Y224450D02*Y223250D01*
Y224450D02*X326450Y225500D01*
X327350D01*
X328400Y224450D01*
Y223250D01*
X327650Y222500D02*X328400Y223250D01*
X326150Y222500D02*X327650D01*
X325400Y226550D02*X326450Y225500D01*
X325400Y227750D02*Y226550D01*
Y227750D02*X326150Y228500D01*
X327650D01*
X328400Y227750D01*
Y226550D01*
X327350Y225500D02*X328400Y226550D01*
X333650Y228500D02*Y222500D01*
X332900Y228500D02*X335900D01*
X336650Y227750D01*
Y226250D01*
X335900Y225500D02*X336650Y226250D01*
X333650Y225500D02*X335900D01*
X338450Y228500D02*Y222500D01*
Y228500D02*X340700Y225500D01*
X342950Y228500D01*
Y222500D01*
X350450Y228500D02*X351200Y227750D01*
X348200Y228500D02*X350450D01*
X347450Y227750D02*X348200Y228500D01*
X347450Y227750D02*Y223250D01*
X348200Y222500D01*
X350450D01*
X351200Y223250D01*
Y224750D02*Y223250D01*
X350450Y225500D02*X351200Y224750D01*
X348950Y225500D02*X350450D01*
X353000Y228500D02*Y222500D01*
Y228500D02*X355250Y225500D01*
X357500Y228500D01*
Y222500D01*
X359300Y228500D02*X362300D01*
X360800D02*Y222500D01*
X366800Y228500D02*Y223250D01*
X367550Y222500D01*
X369050D01*
X369800Y223250D01*
Y228500D02*Y223250D01*
X371600Y228500D02*X374600D01*
X373100D02*Y222500D01*
X377450D02*X379400D01*
X376400Y223550D02*X377450Y222500D01*
X376400Y227450D02*Y223550D01*
Y227450D02*X377450Y228500D01*
X379400D01*
X200000Y242000D02*Y237500D01*
Y242000D02*X201050Y243500D01*
X202700D01*
X203750Y242000D01*
Y237500D01*
X200000Y240500D02*X203750D01*
X205550D02*Y238250D01*
X206300Y237500D01*
X207800D01*
X208550Y238250D01*
Y240500D02*Y238250D01*
X211100Y243500D02*Y238250D01*
X211850Y237500D01*
X210350Y241250D02*X211850D01*
X213350Y243500D02*Y237500D01*
Y239750D02*X214100Y240500D01*
X215600D01*
X216350Y239750D01*
Y237500D01*
X218150Y239750D02*Y238250D01*
Y239750D02*X218900Y240500D01*
X220400D01*
X221150Y239750D01*
Y238250D01*
X220400Y237500D02*X221150Y238250D01*
X218900Y237500D02*X220400D01*
X218150Y238250D02*X218900Y237500D01*
X223700Y239750D02*Y237500D01*
Y239750D02*X224450Y240500D01*
X225950D01*
X222950D02*X223700Y239750D01*
X227750Y241250D02*X228500D01*
X227750Y239750D02*X228500D01*
X233000Y243500D02*X234500Y237500D01*
X236000Y243500D01*
G54D100*X237800Y242000D02*Y241850D01*
G54D99*Y239750D02*Y237500D01*
X240050Y239750D02*Y237500D01*
Y239750D02*X240800Y240500D01*
X241550D01*
X242300Y239750D01*
Y237500D01*
X239300Y240500D02*X240050Y239750D01*
X244850Y240500D02*X247100D01*
X244100Y239750D02*X244850Y240500D01*
X244100Y239750D02*Y238250D01*
X244850Y237500D01*
X247100D01*
X249650D02*X251900D01*
X248900Y238250D02*X249650Y237500D01*
X248900Y239750D02*Y238250D01*
Y239750D02*X249650Y240500D01*
X251150D01*
X251900Y239750D01*
X248900Y239000D02*X251900D01*
Y239750D02*Y239000D01*
X254450Y239750D02*Y237500D01*
Y239750D02*X255200Y240500D01*
X255950D01*
X256700Y239750D01*
Y237500D01*
X253700Y240500D02*X254450Y239750D01*
X259250Y243500D02*Y238250D01*
X260000Y237500D01*
X258500Y241250D02*X260000D01*
X264200Y243500D02*Y240500D01*
X264950Y237500D01*
X266450Y240500D01*
X267950Y237500D01*
X268700Y240500D01*
Y243500D02*Y240500D01*
X271250Y237500D02*X273500D01*
X270500Y238250D02*X271250Y237500D01*
X270500Y239750D02*Y238250D01*
Y239750D02*X271250Y240500D01*
X272750D01*
X273500Y239750D01*
X270500Y239000D02*X273500D01*
Y239750D02*Y239000D01*
X277550Y240500D02*X278300Y239750D01*
X276050Y240500D02*X277550D01*
X275300Y239750D02*X276050Y240500D01*
X275300Y239750D02*Y238250D01*
X276050Y237500D01*
X278300Y240500D02*Y238250D01*
X279050Y237500D01*
X276050D02*X277550D01*
X278300Y238250D01*
X280850Y240500D02*X282350Y237500D01*
X283850Y240500D02*X282350Y237500D01*
X286400D02*X288650D01*
X285650Y238250D02*X286400Y237500D01*
X285650Y239750D02*Y238250D01*
Y239750D02*X286400Y240500D01*
X287900D01*
X288650Y239750D01*
X285650Y239000D02*X288650D01*
Y239750D02*Y239000D01*
X291200Y239750D02*Y237500D01*
Y239750D02*X291950Y240500D01*
X293450D01*
X290450D02*X291200Y239750D01*
X200000Y258500D02*X203000D01*
X201500D02*Y252500D01*
G54D100*X204800Y257000D02*Y256850D01*
G54D99*Y254750D02*Y252500D01*
X207050Y258500D02*Y253250D01*
X207800Y252500D01*
X206300Y256250D02*X207800D01*
X209300Y258500D02*Y253250D01*
X210050Y252500D01*
X212300D02*X214550D01*
X211550Y253250D02*X212300Y252500D01*
X211550Y254750D02*Y253250D01*
Y254750D02*X212300Y255500D01*
X213800D01*
X214550Y254750D01*
X211550Y254000D02*X214550D01*
Y254750D02*Y254000D01*
X216350Y256250D02*X217100D01*
X216350Y254750D02*X217100D01*
X221600Y253250D02*X222350Y252500D01*
X221600Y257750D02*X222350Y258500D01*
X221600Y257750D02*Y253250D01*
X224150Y255500D02*Y253250D01*
X224900Y252500D01*
X226400D01*
X227150Y253250D01*
Y255500D02*Y253250D01*
X229700Y254750D02*Y252500D01*
Y254750D02*X230450Y255500D01*
X231200D01*
X231950Y254750D01*
Y252500D01*
X228950Y255500D02*X229700Y254750D01*
X233750Y258500D02*Y252500D01*
Y254750D02*X236000Y252500D01*
X233750Y254750D02*X235250Y256250D01*
X238550Y254750D02*Y252500D01*
Y254750D02*X239300Y255500D01*
X240050D01*
X240800Y254750D01*
Y252500D01*
X237800Y255500D02*X238550Y254750D01*
X242600D02*Y253250D01*
Y254750D02*X243350Y255500D01*
X244850D01*
X245600Y254750D01*
Y253250D01*
X244850Y252500D02*X245600Y253250D01*
X243350Y252500D02*X244850D01*
X242600Y253250D02*X243350Y252500D01*
X247400Y255500D02*Y253250D01*
X248150Y252500D01*
X248900D01*
X249650Y253250D01*
Y255500D02*Y253250D01*
X250400Y252500D01*
X251150D01*
X251900Y253250D01*
Y255500D02*Y253250D01*
X254450Y254750D02*Y252500D01*
Y254750D02*X255200Y255500D01*
X255950D01*
X256700Y254750D01*
Y252500D01*
X253700Y255500D02*X254450Y254750D01*
X258500Y258500D02*X259250Y257750D01*
Y253250D01*
X258500Y252500D02*X259250Y253250D01*
X263750Y255500D02*X266750D01*
X271250Y258500D02*Y252500D01*
Y258500D02*X274250D01*
X271250Y255800D02*X273500D01*
X278300Y255500D02*X279050Y254750D01*
X276800Y255500D02*X278300D01*
X276050Y254750D02*X276800Y255500D01*
X276050Y254750D02*Y253250D01*
X276800Y252500D01*
X279050Y255500D02*Y253250D01*
X279800Y252500D01*
X276800D02*X278300D01*
X279050Y253250D01*
X281600Y258500D02*Y252500D01*
Y253250D02*X282350Y252500D01*
X283850D01*
X284600Y253250D01*
Y254750D02*Y253250D01*
X283850Y255500D02*X284600Y254750D01*
X282350Y255500D02*X283850D01*
X281600Y254750D02*X282350Y255500D01*
X287150Y254750D02*Y252500D01*
Y254750D02*X287900Y255500D01*
X289400D01*
X286400D02*X287150Y254750D01*
G54D100*X291200Y257000D02*Y256850D01*
G54D99*Y254750D02*Y252500D01*
X293450Y255500D02*X295700D01*
X292700Y254750D02*X293450Y255500D01*
X292700Y254750D02*Y253250D01*
X293450Y252500D01*
X295700D01*
X299750Y255500D02*X300500Y254750D01*
X298250Y255500D02*X299750D01*
X297500Y254750D02*X298250Y255500D01*
X297500Y254750D02*Y253250D01*
X298250Y252500D01*
X300500Y255500D02*Y253250D01*
X301250Y252500D01*
X298250D02*X299750D01*
X300500Y253250D01*
X303800Y258500D02*Y253250D01*
X304550Y252500D01*
X303050Y256250D02*X304550D01*
G54D100*X306050Y257000D02*Y256850D01*
G54D99*Y254750D02*Y252500D01*
X307550Y254750D02*Y253250D01*
Y254750D02*X308300Y255500D01*
X309800D01*
X310550Y254750D01*
Y253250D01*
X309800Y252500D02*X310550Y253250D01*
X308300Y252500D02*X309800D01*
X307550Y253250D02*X308300Y252500D01*
X313100Y254750D02*Y252500D01*
Y254750D02*X313850Y255500D01*
X314600D01*
X315350Y254750D01*
Y252500D01*
X312350Y255500D02*X313100Y254750D01*
X320600Y258500D02*Y252500D01*
X322550Y258500D02*X323600Y257450D01*
Y253550D01*
X322550Y252500D02*X323600Y253550D01*
X319850Y252500D02*X322550D01*
X319850Y258500D02*X322550D01*
X326150Y254750D02*Y252500D01*
Y254750D02*X326900Y255500D01*
X328400D01*
X325400D02*X326150Y254750D01*
X332450Y255500D02*X333200Y254750D01*
X330950Y255500D02*X332450D01*
X330200Y254750D02*X330950Y255500D01*
X330200Y254750D02*Y253250D01*
X330950Y252500D01*
X333200Y255500D02*Y253250D01*
X333950Y252500D01*
X330950D02*X332450D01*
X333200Y253250D01*
X335750Y255500D02*Y253250D01*
X336500Y252500D01*
X337250D01*
X338000Y253250D01*
Y255500D02*Y253250D01*
X338750Y252500D01*
X339500D01*
X340250Y253250D01*
Y255500D02*Y253250D01*
G54D100*X342050Y257000D02*Y256850D01*
G54D99*Y254750D02*Y252500D01*
X344300Y254750D02*Y252500D01*
Y254750D02*X345050Y255500D01*
X345800D01*
X346550Y254750D01*
Y252500D01*
X343550Y255500D02*X344300Y254750D01*
X350600Y255500D02*X351350Y254750D01*
X349100Y255500D02*X350600D01*
X348350Y254750D02*X349100Y255500D01*
X348350Y254750D02*Y253250D01*
X349100Y252500D01*
X350600D01*
X351350Y253250D01*
X348350Y251000D02*X349100Y250250D01*
X350600D01*
X351350Y251000D01*
Y255500D02*Y251000D01*
M02*
