G04 #@! TF.FileFunction,Legend,Top*
%FSLAX46Y46*%
G04 Gerber Fmt 4.6, Leading zero omitted, Abs format (unit mm)*
G04 Created by KiCad (PCBNEW 4.0.1-stable) date 5/1/2016 2:26:38 PM*
%MOMM*%
G01*
G04 APERTURE LIST*
%ADD10C,0.150000*%
%ADD11C,0.200000*%
%ADD12C,0.300000*%
%ADD13C,0.381000*%
%ADD14C,0.127000*%
%ADD15C,0.152400*%
G04 APERTURE END LIST*
D10*
D11*
X23368000Y-30480000D02*
X23749000Y-30480000D01*
X23368000Y-28956000D02*
X23749000Y-28956000D01*
X23368000Y-30480000D02*
X23495000Y-30480000D01*
X23368000Y-28956000D02*
X23495000Y-28956000D01*
X23368000Y-30480000D02*
X23495000Y-30480000D01*
X23368000Y-28956000D02*
X23368000Y-30480000D01*
X23495000Y-28956000D02*
X23495000Y-30480000D01*
D12*
X32329715Y-7139714D02*
X32258286Y-7211143D01*
X32044000Y-7282571D01*
X31901143Y-7282571D01*
X31686858Y-7211143D01*
X31544000Y-7068286D01*
X31472572Y-6925429D01*
X31401143Y-6639714D01*
X31401143Y-6425429D01*
X31472572Y-6139714D01*
X31544000Y-5996857D01*
X31686858Y-5854000D01*
X31901143Y-5782571D01*
X32044000Y-5782571D01*
X32258286Y-5854000D01*
X32329715Y-5925429D01*
X32901143Y-6854000D02*
X33615429Y-6854000D01*
X32758286Y-7282571D02*
X33258286Y-5782571D01*
X33758286Y-7282571D01*
X34758286Y-6496857D02*
X34972572Y-6568286D01*
X35044000Y-6639714D01*
X35115429Y-6782571D01*
X35115429Y-6996857D01*
X35044000Y-7139714D01*
X34972572Y-7211143D01*
X34829714Y-7282571D01*
X34258286Y-7282571D01*
X34258286Y-5782571D01*
X34758286Y-5782571D01*
X34901143Y-5854000D01*
X34972572Y-5925429D01*
X35044000Y-6068286D01*
X35044000Y-6211143D01*
X34972572Y-6354000D01*
X34901143Y-6425429D01*
X34758286Y-6496857D01*
X34258286Y-6496857D01*
X36472572Y-7282571D02*
X35758286Y-7282571D01*
X35758286Y-5782571D01*
X36972572Y-6496857D02*
X37472572Y-6496857D01*
X37686858Y-7282571D02*
X36972572Y-7282571D01*
X36972572Y-5782571D01*
X37686858Y-5782571D01*
X7275143Y-7338143D02*
X7489429Y-7409571D01*
X7846572Y-7409571D01*
X7989429Y-7338143D01*
X8060858Y-7266714D01*
X8132286Y-7123857D01*
X8132286Y-6981000D01*
X8060858Y-6838143D01*
X7989429Y-6766714D01*
X7846572Y-6695286D01*
X7560858Y-6623857D01*
X7418000Y-6552429D01*
X7346572Y-6481000D01*
X7275143Y-6338143D01*
X7275143Y-6195286D01*
X7346572Y-6052429D01*
X7418000Y-5981000D01*
X7560858Y-5909571D01*
X7918000Y-5909571D01*
X8132286Y-5981000D01*
X9632286Y-7266714D02*
X9560857Y-7338143D01*
X9346571Y-7409571D01*
X9203714Y-7409571D01*
X8989429Y-7338143D01*
X8846571Y-7195286D01*
X8775143Y-7052429D01*
X8703714Y-6766714D01*
X8703714Y-6552429D01*
X8775143Y-6266714D01*
X8846571Y-6123857D01*
X8989429Y-5981000D01*
X9203714Y-5909571D01*
X9346571Y-5909571D01*
X9560857Y-5981000D01*
X9632286Y-6052429D01*
X10560857Y-5909571D02*
X10846571Y-5909571D01*
X10989429Y-5981000D01*
X11132286Y-6123857D01*
X11203714Y-6409571D01*
X11203714Y-6909571D01*
X11132286Y-7195286D01*
X10989429Y-7338143D01*
X10846571Y-7409571D01*
X10560857Y-7409571D01*
X10418000Y-7338143D01*
X10275143Y-7195286D01*
X10203714Y-6909571D01*
X10203714Y-6409571D01*
X10275143Y-6123857D01*
X10418000Y-5981000D01*
X10560857Y-5909571D01*
X11846572Y-7409571D02*
X11846572Y-5909571D01*
X12418000Y-5909571D01*
X12560858Y-5981000D01*
X12632286Y-6052429D01*
X12703715Y-6195286D01*
X12703715Y-6409571D01*
X12632286Y-6552429D01*
X12560858Y-6623857D01*
X12418000Y-6695286D01*
X11846572Y-6695286D01*
X13346572Y-6623857D02*
X13846572Y-6623857D01*
X14060858Y-7409571D02*
X13346572Y-7409571D01*
X13346572Y-5909571D01*
X14060858Y-5909571D01*
X17538572Y-1810857D02*
X17038572Y-1810857D01*
X17038572Y-2596571D02*
X17038572Y-1096571D01*
X17752858Y-1096571D01*
X18967143Y-2596571D02*
X18967143Y-1810857D01*
X18895714Y-1668000D01*
X18752857Y-1596571D01*
X18467143Y-1596571D01*
X18324286Y-1668000D01*
X18967143Y-2525143D02*
X18824286Y-2596571D01*
X18467143Y-2596571D01*
X18324286Y-2525143D01*
X18252857Y-2382286D01*
X18252857Y-2239429D01*
X18324286Y-2096571D01*
X18467143Y-2025143D01*
X18824286Y-2025143D01*
X18967143Y-1953714D01*
X19610000Y-2525143D02*
X19752857Y-2596571D01*
X20038572Y-2596571D01*
X20181429Y-2525143D01*
X20252857Y-2382286D01*
X20252857Y-2310857D01*
X20181429Y-2168000D01*
X20038572Y-2096571D01*
X19824286Y-2096571D01*
X19681429Y-2025143D01*
X19610000Y-1882286D01*
X19610000Y-1810857D01*
X19681429Y-1668000D01*
X19824286Y-1596571D01*
X20038572Y-1596571D01*
X20181429Y-1668000D01*
X20681429Y-1596571D02*
X21252858Y-1596571D01*
X20895715Y-1096571D02*
X20895715Y-2382286D01*
X20967143Y-2525143D01*
X21110001Y-2596571D01*
X21252858Y-2596571D01*
X22895715Y-1810857D02*
X23395715Y-1810857D01*
X23610001Y-2596571D02*
X22895715Y-2596571D01*
X22895715Y-1096571D01*
X23610001Y-1096571D01*
X24895715Y-2596571D02*
X24895715Y-1096571D01*
X24895715Y-2525143D02*
X24752858Y-2596571D01*
X24467144Y-2596571D01*
X24324286Y-2525143D01*
X24252858Y-2453714D01*
X24181429Y-2310857D01*
X24181429Y-1882286D01*
X24252858Y-1739429D01*
X24324286Y-1668000D01*
X24467144Y-1596571D01*
X24752858Y-1596571D01*
X24895715Y-1668000D01*
X26252858Y-1596571D02*
X26252858Y-2810857D01*
X26181429Y-2953714D01*
X26110001Y-3025143D01*
X25967144Y-3096571D01*
X25752858Y-3096571D01*
X25610001Y-3025143D01*
X26252858Y-2525143D02*
X26110001Y-2596571D01*
X25824287Y-2596571D01*
X25681429Y-2525143D01*
X25610001Y-2453714D01*
X25538572Y-2310857D01*
X25538572Y-1882286D01*
X25610001Y-1739429D01*
X25681429Y-1668000D01*
X25824287Y-1596571D01*
X26110001Y-1596571D01*
X26252858Y-1668000D01*
X27538572Y-2525143D02*
X27395715Y-2596571D01*
X27110001Y-2596571D01*
X26967144Y-2525143D01*
X26895715Y-2382286D01*
X26895715Y-1810857D01*
X26967144Y-1668000D01*
X27110001Y-1596571D01*
X27395715Y-1596571D01*
X27538572Y-1668000D01*
X27610001Y-1810857D01*
X27610001Y-1953714D01*
X26895715Y-2096571D01*
X14145715Y-4996571D02*
X14145715Y-3496571D01*
X14717143Y-3496571D01*
X14860001Y-3568000D01*
X14931429Y-3639429D01*
X15002858Y-3782286D01*
X15002858Y-3996571D01*
X14931429Y-4139429D01*
X14860001Y-4210857D01*
X14717143Y-4282286D01*
X14145715Y-4282286D01*
X16288572Y-3996571D02*
X16288572Y-4996571D01*
X15645715Y-3996571D02*
X15645715Y-4782286D01*
X15717143Y-4925143D01*
X15860001Y-4996571D01*
X16074286Y-4996571D01*
X16217143Y-4925143D01*
X16288572Y-4853714D01*
X17217144Y-4996571D02*
X17074286Y-4925143D01*
X17002858Y-4782286D01*
X17002858Y-3496571D01*
X17717143Y-4925143D02*
X17860000Y-4996571D01*
X18145715Y-4996571D01*
X18288572Y-4925143D01*
X18360000Y-4782286D01*
X18360000Y-4710857D01*
X18288572Y-4568000D01*
X18145715Y-4496571D01*
X17931429Y-4496571D01*
X17788572Y-4425143D01*
X17717143Y-4282286D01*
X17717143Y-4210857D01*
X17788572Y-4068000D01*
X17931429Y-3996571D01*
X18145715Y-3996571D01*
X18288572Y-4068000D01*
X19574286Y-4925143D02*
X19431429Y-4996571D01*
X19145715Y-4996571D01*
X19002858Y-4925143D01*
X18931429Y-4782286D01*
X18931429Y-4210857D01*
X19002858Y-4068000D01*
X19145715Y-3996571D01*
X19431429Y-3996571D01*
X19574286Y-4068000D01*
X19645715Y-4210857D01*
X19645715Y-4353714D01*
X18931429Y-4496571D01*
X22217143Y-3568000D02*
X22074286Y-3496571D01*
X21860000Y-3496571D01*
X21645715Y-3568000D01*
X21502857Y-3710857D01*
X21431429Y-3853714D01*
X21360000Y-4139429D01*
X21360000Y-4353714D01*
X21431429Y-4639429D01*
X21502857Y-4782286D01*
X21645715Y-4925143D01*
X21860000Y-4996571D01*
X22002857Y-4996571D01*
X22217143Y-4925143D01*
X22288572Y-4853714D01*
X22288572Y-4353714D01*
X22002857Y-4353714D01*
X23502857Y-4925143D02*
X23360000Y-4996571D01*
X23074286Y-4996571D01*
X22931429Y-4925143D01*
X22860000Y-4782286D01*
X22860000Y-4210857D01*
X22931429Y-4068000D01*
X23074286Y-3996571D01*
X23360000Y-3996571D01*
X23502857Y-4068000D01*
X23574286Y-4210857D01*
X23574286Y-4353714D01*
X22860000Y-4496571D01*
X24217143Y-3996571D02*
X24217143Y-4996571D01*
X24217143Y-4139429D02*
X24288571Y-4068000D01*
X24431429Y-3996571D01*
X24645714Y-3996571D01*
X24788571Y-4068000D01*
X24860000Y-4210857D01*
X24860000Y-4996571D01*
X26145714Y-4925143D02*
X26002857Y-4996571D01*
X25717143Y-4996571D01*
X25574286Y-4925143D01*
X25502857Y-4782286D01*
X25502857Y-4210857D01*
X25574286Y-4068000D01*
X25717143Y-3996571D01*
X26002857Y-3996571D01*
X26145714Y-4068000D01*
X26217143Y-4210857D01*
X26217143Y-4353714D01*
X25502857Y-4496571D01*
X26860000Y-4996571D02*
X26860000Y-3996571D01*
X26860000Y-4282286D02*
X26931428Y-4139429D01*
X27002857Y-4068000D01*
X27145714Y-3996571D01*
X27288571Y-3996571D01*
X28431428Y-4996571D02*
X28431428Y-4210857D01*
X28359999Y-4068000D01*
X28217142Y-3996571D01*
X27931428Y-3996571D01*
X27788571Y-4068000D01*
X28431428Y-4925143D02*
X28288571Y-4996571D01*
X27931428Y-4996571D01*
X27788571Y-4925143D01*
X27717142Y-4782286D01*
X27717142Y-4639429D01*
X27788571Y-4496571D01*
X27931428Y-4425143D01*
X28288571Y-4425143D01*
X28431428Y-4353714D01*
X28931428Y-3996571D02*
X29502857Y-3996571D01*
X29145714Y-3496571D02*
X29145714Y-4782286D01*
X29217142Y-4925143D01*
X29360000Y-4996571D01*
X29502857Y-4996571D01*
X30217143Y-4996571D02*
X30074285Y-4925143D01*
X30002857Y-4853714D01*
X29931428Y-4710857D01*
X29931428Y-4282286D01*
X30002857Y-4139429D01*
X30074285Y-4068000D01*
X30217143Y-3996571D01*
X30431428Y-3996571D01*
X30574285Y-4068000D01*
X30645714Y-4139429D01*
X30717143Y-4282286D01*
X30717143Y-4710857D01*
X30645714Y-4853714D01*
X30574285Y-4925143D01*
X30431428Y-4996571D01*
X30217143Y-4996571D01*
X31360000Y-4996571D02*
X31360000Y-3996571D01*
X31360000Y-4282286D02*
X31431428Y-4139429D01*
X31502857Y-4068000D01*
X31645714Y-3996571D01*
X31788571Y-3996571D01*
X20110001Y-7396571D02*
X19610001Y-6682286D01*
X19252858Y-7396571D02*
X19252858Y-5896571D01*
X19824286Y-5896571D01*
X19967144Y-5968000D01*
X20038572Y-6039429D01*
X20110001Y-6182286D01*
X20110001Y-6396571D01*
X20038572Y-6539429D01*
X19967144Y-6610857D01*
X19824286Y-6682286D01*
X19252858Y-6682286D01*
X21324286Y-7325143D02*
X21181429Y-7396571D01*
X20895715Y-7396571D01*
X20752858Y-7325143D01*
X20681429Y-7182286D01*
X20681429Y-6610857D01*
X20752858Y-6468000D01*
X20895715Y-6396571D01*
X21181429Y-6396571D01*
X21324286Y-6468000D01*
X21395715Y-6610857D01*
X21395715Y-6753714D01*
X20681429Y-6896571D01*
X21895715Y-6396571D02*
X22252858Y-7396571D01*
X22610000Y-6396571D01*
X24181429Y-5896571D02*
X25181429Y-7396571D01*
X25181429Y-5896571D02*
X24181429Y-7396571D01*
X26467143Y-5896571D02*
X25752857Y-5896571D01*
X25681428Y-6610857D01*
X25752857Y-6539429D01*
X25895714Y-6468000D01*
X26252857Y-6468000D01*
X26395714Y-6539429D01*
X26467143Y-6610857D01*
X26538571Y-6753714D01*
X26538571Y-7110857D01*
X26467143Y-7253714D01*
X26395714Y-7325143D01*
X26252857Y-7396571D01*
X25895714Y-7396571D01*
X25752857Y-7325143D01*
X25681428Y-7253714D01*
X7861905Y-27069143D02*
X9410095Y-27069143D01*
X19418905Y-27196143D02*
X20967095Y-27196143D01*
X20193000Y-27970238D02*
X20193000Y-26422048D01*
D13*
X19018000Y-31678000D02*
X19018000Y-23678000D01*
X10018000Y-31678000D02*
X10018000Y-23678000D01*
X19018000Y-23678000D02*
X10018000Y-23678000D01*
X19018000Y-30678000D02*
X10018000Y-30678000D01*
X19018000Y-31678000D02*
X10018000Y-31678000D01*
D14*
X17907000Y-13258800D02*
X17907000Y-17221200D01*
X17907000Y-17221200D02*
X26543000Y-17221200D01*
X26543000Y-17221200D02*
X26543000Y-13258800D01*
X26543000Y-13258800D02*
X17907000Y-13258800D01*
X19685000Y-13258800D02*
X19685000Y-12166600D01*
X20955000Y-13258800D02*
X20955000Y-12166600D01*
X22225000Y-13258800D02*
X22225000Y-12166600D01*
X18415000Y-13258800D02*
X18415000Y-12166600D01*
X23495000Y-12166600D02*
X23495000Y-13258800D01*
X24765000Y-12166600D02*
X24765000Y-13258800D01*
X26035000Y-12166600D02*
X26035000Y-13258800D01*
X26035000Y-17221200D02*
X26035000Y-18313400D01*
X24765000Y-17221200D02*
X24765000Y-18313400D01*
X18415000Y-17221200D02*
X18415000Y-18313400D01*
X19685000Y-18313400D02*
X19685000Y-17221200D01*
X23495000Y-18313400D02*
X23495000Y-17221200D01*
X22225000Y-18313400D02*
X22225000Y-17221200D01*
X20955000Y-18313400D02*
X20955000Y-17221200D01*
X19116067Y-16484600D02*
G75*
G03X19116067Y-16484600I-472467J0D01*
G01*
D13*
X14117600Y-22218200D02*
X-83540Y-22218200D01*
X-78460Y-22223280D02*
X-78460Y-7824020D01*
X-83540Y-7818940D02*
X14117600Y-7818940D01*
X14135380Y-22218200D02*
X14135380Y-7818940D01*
X30882400Y-7841800D02*
X45083540Y-7841800D01*
X45078460Y-7836720D02*
X45078460Y-22235980D01*
X45083540Y-22241060D02*
X30882400Y-22241060D01*
X30864620Y-7841800D02*
X30864620Y-22241060D01*
D15*
X17018000Y-28194000D02*
X17018000Y-30734000D01*
X17018000Y-30734000D02*
X11938000Y-30734000D01*
X11938000Y-30734000D02*
X11938000Y-28194000D01*
X11938000Y-28194000D02*
X17018000Y-28194000D01*
D10*
X33456000Y-24552000D02*
X33456000Y-29550000D01*
X33596000Y-24560000D02*
X33596000Y-29542000D01*
X33736000Y-24576000D02*
X33736000Y-26956000D01*
X33736000Y-27146000D02*
X33736000Y-29526000D01*
X33876000Y-24600000D02*
X33876000Y-26561000D01*
X33876000Y-27541000D02*
X33876000Y-29502000D01*
X34016000Y-24633000D02*
X34016000Y-26394000D01*
X34016000Y-27708000D02*
X34016000Y-29469000D01*
X34156000Y-24674000D02*
X34156000Y-26287000D01*
X34156000Y-27815000D02*
X34156000Y-29428000D01*
X34296000Y-24724000D02*
X34296000Y-26216000D01*
X34296000Y-27886000D02*
X34296000Y-29378000D01*
X34436000Y-24785000D02*
X34436000Y-26172000D01*
X34436000Y-27930000D02*
X34436000Y-29317000D01*
X34576000Y-24855000D02*
X34576000Y-26153000D01*
X34576000Y-27949000D02*
X34576000Y-29247000D01*
X34716000Y-24937000D02*
X34716000Y-26155000D01*
X34716000Y-27947000D02*
X34716000Y-29165000D01*
X34856000Y-25032000D02*
X34856000Y-26180000D01*
X34856000Y-27922000D02*
X34856000Y-29070000D01*
X34996000Y-25143000D02*
X34996000Y-26228000D01*
X34996000Y-27874000D02*
X34996000Y-28959000D01*
X35136000Y-25271000D02*
X35136000Y-26306000D01*
X35136000Y-27796000D02*
X35136000Y-28831000D01*
X35276000Y-25420000D02*
X35276000Y-26423000D01*
X35276000Y-27679000D02*
X35276000Y-28682000D01*
X35416000Y-25599000D02*
X35416000Y-26611000D01*
X35416000Y-27491000D02*
X35416000Y-28503000D01*
X35556000Y-25818000D02*
X35556000Y-28284000D01*
X35696000Y-26107000D02*
X35696000Y-27995000D01*
X35836000Y-26579000D02*
X35836000Y-27523000D01*
X35531000Y-27051000D02*
G75*
G03X35531000Y-27051000I-900000J0D01*
G01*
X35918500Y-27051000D02*
G75*
G03X35918500Y-27051000I-2537500J0D01*
G01*
X18804000Y-22948000D02*
X19804000Y-22948000D01*
X19804000Y-21248000D02*
X18804000Y-21248000D01*
X15150000Y-11130000D02*
X15150000Y-12130000D01*
X16850000Y-12130000D02*
X16850000Y-11130000D01*
X29679000Y-17518000D02*
X29679000Y-16518000D01*
X27979000Y-16518000D02*
X27979000Y-17518000D01*
X25054000Y-28843000D02*
X26254000Y-28843000D01*
X26254000Y-30593000D02*
X25054000Y-30593000D01*
X24730000Y-22973000D02*
X23530000Y-22973000D01*
X23530000Y-21223000D02*
X24730000Y-21223000D01*
X26254000Y-27291000D02*
X25054000Y-27291000D01*
X25054000Y-25541000D02*
X26254000Y-25541000D01*
X7969905Y-30410381D02*
X7969905Y-29410381D01*
X8350858Y-29410381D01*
X8446096Y-29458000D01*
X8493715Y-29505619D01*
X8541334Y-29600857D01*
X8541334Y-29743714D01*
X8493715Y-29838952D01*
X8446096Y-29886571D01*
X8350858Y-29934190D01*
X7969905Y-29934190D01*
X8922286Y-29505619D02*
X8969905Y-29458000D01*
X9065143Y-29410381D01*
X9303239Y-29410381D01*
X9398477Y-29458000D01*
X9446096Y-29505619D01*
X9493715Y-29600857D01*
X9493715Y-29696095D01*
X9446096Y-29838952D01*
X8874667Y-30410381D01*
X9493715Y-30410381D01*
X16597381Y-17398905D02*
X17406905Y-17398905D01*
X17502143Y-17351286D01*
X17549762Y-17303667D01*
X17597381Y-17208429D01*
X17597381Y-17017952D01*
X17549762Y-16922714D01*
X17502143Y-16875095D01*
X17406905Y-16827476D01*
X16597381Y-16827476D01*
X17597381Y-15827476D02*
X17597381Y-16398905D01*
X17597381Y-16113191D02*
X16597381Y-16113191D01*
X16740238Y-16208429D01*
X16835476Y-16303667D01*
X16883095Y-16398905D01*
X15057381Y-28170095D02*
X14057381Y-28170095D01*
X14057381Y-27789142D01*
X14105000Y-27693904D01*
X14152619Y-27646285D01*
X14247857Y-27598666D01*
X14390714Y-27598666D01*
X14485952Y-27646285D01*
X14533571Y-27693904D01*
X14581190Y-27789142D01*
X14581190Y-28170095D01*
X15057381Y-26646285D02*
X15057381Y-27217714D01*
X15057381Y-26932000D02*
X14057381Y-26932000D01*
X14200238Y-27027238D01*
X14295476Y-27122476D01*
X14343095Y-27217714D01*
X30821334Y-24487143D02*
X30773715Y-24534762D01*
X30630858Y-24582381D01*
X30535620Y-24582381D01*
X30392762Y-24534762D01*
X30297524Y-24439524D01*
X30249905Y-24344286D01*
X30202286Y-24153810D01*
X30202286Y-24010952D01*
X30249905Y-23820476D01*
X30297524Y-23725238D01*
X30392762Y-23630000D01*
X30535620Y-23582381D01*
X30630858Y-23582381D01*
X30773715Y-23630000D01*
X30821334Y-23677619D01*
X31202286Y-23677619D02*
X31249905Y-23630000D01*
X31345143Y-23582381D01*
X31583239Y-23582381D01*
X31678477Y-23630000D01*
X31726096Y-23677619D01*
X31773715Y-23772857D01*
X31773715Y-23868095D01*
X31726096Y-24010952D01*
X31154667Y-24582381D01*
X31773715Y-24582381D01*
X17613334Y-20931143D02*
X17565715Y-20978762D01*
X17422858Y-21026381D01*
X17327620Y-21026381D01*
X17184762Y-20978762D01*
X17089524Y-20883524D01*
X17041905Y-20788286D01*
X16994286Y-20597810D01*
X16994286Y-20454952D01*
X17041905Y-20264476D01*
X17089524Y-20169238D01*
X17184762Y-20074000D01*
X17327620Y-20026381D01*
X17422858Y-20026381D01*
X17565715Y-20074000D01*
X17613334Y-20121619D01*
X18565715Y-21026381D02*
X17994286Y-21026381D01*
X18280000Y-21026381D02*
X18280000Y-20026381D01*
X18184762Y-20169238D01*
X18089524Y-20264476D01*
X17994286Y-20312095D01*
X15835334Y-8993143D02*
X15787715Y-9040762D01*
X15644858Y-9088381D01*
X15549620Y-9088381D01*
X15406762Y-9040762D01*
X15311524Y-8945524D01*
X15263905Y-8850286D01*
X15216286Y-8659810D01*
X15216286Y-8516952D01*
X15263905Y-8326476D01*
X15311524Y-8231238D01*
X15406762Y-8136000D01*
X15549620Y-8088381D01*
X15644858Y-8088381D01*
X15787715Y-8136000D01*
X15835334Y-8183619D01*
X16168667Y-8088381D02*
X16787715Y-8088381D01*
X16454381Y-8469333D01*
X16597239Y-8469333D01*
X16692477Y-8516952D01*
X16740096Y-8564571D01*
X16787715Y-8659810D01*
X16787715Y-8897905D01*
X16740096Y-8993143D01*
X16692477Y-9040762D01*
X16597239Y-9088381D01*
X16311524Y-9088381D01*
X16216286Y-9040762D01*
X16168667Y-8993143D01*
X28535334Y-20423143D02*
X28487715Y-20470762D01*
X28344858Y-20518381D01*
X28249620Y-20518381D01*
X28106762Y-20470762D01*
X28011524Y-20375524D01*
X27963905Y-20280286D01*
X27916286Y-20089810D01*
X27916286Y-19946952D01*
X27963905Y-19756476D01*
X28011524Y-19661238D01*
X28106762Y-19566000D01*
X28249620Y-19518381D01*
X28344858Y-19518381D01*
X28487715Y-19566000D01*
X28535334Y-19613619D01*
X29392477Y-19851714D02*
X29392477Y-20518381D01*
X29154381Y-19470762D02*
X28916286Y-20185048D01*
X29535334Y-20185048D01*
X28249714Y-30170381D02*
X28249714Y-29170381D01*
X28487809Y-29170381D01*
X28630667Y-29218000D01*
X28725905Y-29313238D01*
X28773524Y-29408476D01*
X28821143Y-29598952D01*
X28821143Y-29741810D01*
X28773524Y-29932286D01*
X28725905Y-30027524D01*
X28630667Y-30122762D01*
X28487809Y-30170381D01*
X28249714Y-30170381D01*
X29202095Y-30122762D02*
X29344952Y-30170381D01*
X29583048Y-30170381D01*
X29678286Y-30122762D01*
X29725905Y-30075143D01*
X29773524Y-29979905D01*
X29773524Y-29884667D01*
X29725905Y-29789429D01*
X29678286Y-29741810D01*
X29583048Y-29694190D01*
X29392571Y-29646571D01*
X29297333Y-29598952D01*
X29249714Y-29551333D01*
X29202095Y-29456095D01*
X29202095Y-29360857D01*
X29249714Y-29265619D01*
X29297333Y-29218000D01*
X29392571Y-29170381D01*
X29630667Y-29170381D01*
X29773524Y-29218000D01*
X30725905Y-30170381D02*
X30154476Y-30170381D01*
X30440190Y-30170381D02*
X30440190Y-29170381D01*
X30344952Y-29313238D01*
X30249714Y-29408476D01*
X30154476Y-29456095D01*
X23963334Y-21026381D02*
X23630000Y-20550190D01*
X23391905Y-21026381D02*
X23391905Y-20026381D01*
X23772858Y-20026381D01*
X23868096Y-20074000D01*
X23915715Y-20121619D01*
X23963334Y-20216857D01*
X23963334Y-20359714D01*
X23915715Y-20454952D01*
X23868096Y-20502571D01*
X23772858Y-20550190D01*
X23391905Y-20550190D01*
X24915715Y-21026381D02*
X24344286Y-21026381D01*
X24630000Y-21026381D02*
X24630000Y-20026381D01*
X24534762Y-20169238D01*
X24439524Y-20264476D01*
X24344286Y-20312095D01*
X28789334Y-26868381D02*
X28456000Y-26392190D01*
X28217905Y-26868381D02*
X28217905Y-25868381D01*
X28598858Y-25868381D01*
X28694096Y-25916000D01*
X28741715Y-25963619D01*
X28789334Y-26058857D01*
X28789334Y-26201714D01*
X28741715Y-26296952D01*
X28694096Y-26344571D01*
X28598858Y-26392190D01*
X28217905Y-26392190D01*
X29360762Y-26296952D02*
X29265524Y-26249333D01*
X29217905Y-26201714D01*
X29170286Y-26106476D01*
X29170286Y-26058857D01*
X29217905Y-25963619D01*
X29265524Y-25916000D01*
X29360762Y-25868381D01*
X29551239Y-25868381D01*
X29646477Y-25916000D01*
X29694096Y-25963619D01*
X29741715Y-26058857D01*
X29741715Y-26106476D01*
X29694096Y-26201714D01*
X29646477Y-26249333D01*
X29551239Y-26296952D01*
X29360762Y-26296952D01*
X29265524Y-26344571D01*
X29217905Y-26392190D01*
X29170286Y-26487429D01*
X29170286Y-26677905D01*
X29217905Y-26773143D01*
X29265524Y-26820762D01*
X29360762Y-26868381D01*
X29551239Y-26868381D01*
X29646477Y-26820762D01*
X29694096Y-26773143D01*
X29741715Y-26677905D01*
X29741715Y-26487429D01*
X29694096Y-26392190D01*
X29646477Y-26344571D01*
X29551239Y-26296952D01*
M02*
