G04 start of page 2 for group 0 idx 0 *
G04 Title: Basic Single Trace RS274-X Test, component *
G04 Creator: pcb 1.99y *
G04 CreationDate: Wed Jun 24 22:05:35 2009 UTC *
G04 For: dan *
G04 Format: Gerber/RS-274X *
G04 PCB-Dimensions: 200000 100000 *
G04 PCB-Coordinate-Origin: lower left *
%MOIN*%
%FSLAX25Y25*%
%LNFRONT*%
%ADD11C,0.0400*%
%ADD12C,0.0600*%
%ADD13C,0.0350*%
G54D11*X10000Y50000D02*X90000D01*
G54D12*D03*
G54D13*M02*
