%FSLAX25Y25*%
%MOIN*%
G70*
G01*
G75*
G04 Layer_Physical_Order=1*
G04 Layer_Color=255*
%ADD10R,0.04724X0.05315*%
%ADD11R,0.08071X0.01575*%
%ADD12R,0.04331X0.02559*%
%ADD13R,0.05315X0.04724*%
%ADD14R,0.04724X0.05512*%
%ADD15R,0.05512X0.04724*%
%ADD16R,0.07284X0.04724*%
%ADD17C,0.01500*%
%ADD18C,0.02500*%
%ADD19C,0.01000*%
%ADD20C,0.06000*%
%ADD21C,0.05906*%
%ADD22R,0.05906X0.05906*%
%ADD23R,0.05906X0.05906*%
%ADD24C,0.09843*%
%ADD25R,0.09843X0.09843*%
G04:AMPARAMS|DCode=26|XSize=78.74mil|YSize=60mil|CornerRadius=0mil|HoleSize=0mil|Usage=FLASHONLY|Rotation=0.000|XOffset=0mil|YOffset=0mil|HoleType=Round|Shape=Octagon|*
%AMOCTAGOND26*
4,1,8,0.03937,-0.01500,0.03937,0.01500,0.02437,0.03000,-0.02437,0.03000,-0.03937,0.01500,-0.03937,-0.01500,-0.02437,-0.03000,0.02437,-0.03000,0.03937,-0.01500,0.0*
%
%ADD26OCTAGOND26*%

%ADD27C,0.05000*%
G36*
X-138334Y496340D02*
X-138500Y496271D01*
X-139282Y495671D01*
X-139881Y494890D01*
X-140258Y493980D01*
X-140387Y493004D01*
X-140258Y492028D01*
X-139881Y491118D01*
X-139282Y490336D01*
X-138500Y489737D01*
X-138182Y489605D01*
Y489461D01*
X-138082Y488960D01*
X-138062Y488861D01*
X-137723Y488352D01*
X-133182Y483811D01*
Y479815D01*
X-133136Y479584D01*
X-133382Y479453D01*
X-133811Y479710D01*
Y482989D01*
X-133931Y483589D01*
X-134271Y484098D01*
X-137706Y487533D01*
X-138214Y487872D01*
X-138314Y487892D01*
X-138814Y487992D01*
X-142220D01*
X-144028Y489800D01*
X-143995Y490299D01*
X-143947Y490336D01*
X-143347Y491118D01*
X-142970Y492028D01*
X-142842Y493004D01*
X-142970Y493980D01*
X-143347Y494890D01*
X-143947Y495671D01*
X-144728Y496271D01*
X-144894Y496340D01*
X-144797Y496830D01*
X-138432D01*
X-138334Y496340D01*
D02*
G37*
G36*
X-131463Y470601D02*
X-134398Y467665D01*
X-134488Y467703D01*
X-135346Y467816D01*
X-136205Y467703D01*
X-137004Y467372D01*
X-137691Y466845D01*
X-138218Y466158D01*
X-138549Y465358D01*
X-138662Y464500D01*
X-138549Y463642D01*
X-138218Y462842D01*
X-137691Y462155D01*
X-137004Y461628D01*
X-136205Y461297D01*
X-135346Y461184D01*
X-134488Y461297D01*
X-133689Y461628D01*
X-133002Y462155D01*
X-132475Y462842D01*
X-132144Y463642D01*
X-132031Y464500D01*
X-132144Y465358D01*
X-132181Y465449D01*
X-129126Y468503D01*
X-110728D01*
Y468496D01*
Y466520D01*
X-116535D01*
Y466921D01*
X-122835D01*
Y460032D01*
X-116535D01*
Y463385D01*
X-110941D01*
Y462894D01*
X-105905D01*
Y461894D01*
X-110941D01*
Y460606D01*
X-110728D01*
Y458260D01*
X-105215D01*
X-104177Y458053D01*
X-103899Y457638D01*
X-103930Y457484D01*
Y454815D01*
X-105512D01*
Y451658D01*
X-107283D01*
Y453831D01*
X-114764D01*
Y446350D01*
X-109500D01*
X-105898Y442748D01*
Y440660D01*
X-106009Y440614D01*
X-106505Y440515D01*
X-106927Y440234D01*
X-107210Y440116D01*
X-108402Y439201D01*
X-109317Y438009D01*
X-109892Y436620D01*
X-110089Y435130D01*
X-109892Y433640D01*
X-109317Y432251D01*
X-108402Y431059D01*
X-107210Y430143D01*
X-106823Y429983D01*
X-106920Y429493D01*
X-115521D01*
X-115618Y429983D01*
X-115231Y430143D01*
X-114039Y431059D01*
X-113124Y432251D01*
X-112548Y433640D01*
X-112352Y435130D01*
X-112548Y436620D01*
X-113124Y438009D01*
X-114039Y439201D01*
X-115231Y440116D01*
X-116620Y440692D01*
X-118110Y440888D01*
X-119080Y440760D01*
X-119456Y441090D01*
Y446692D01*
X-119137Y446824D01*
X-118356Y447423D01*
X-117757Y448204D01*
X-117380Y449114D01*
X-117251Y450091D01*
X-117380Y451067D01*
X-117757Y451977D01*
X-118356Y452758D01*
X-119137Y453358D01*
X-120047Y453734D01*
X-121024Y453863D01*
X-122000Y453734D01*
X-122319Y453602D01*
X-125204Y456488D01*
Y460032D01*
X-123622D01*
Y466921D01*
X-129921D01*
Y460032D01*
X-128339D01*
Y455839D01*
X-128240Y455338D01*
X-128220Y455239D01*
X-127880Y454730D01*
X-124536Y451386D01*
X-124668Y451067D01*
X-124796Y450091D01*
X-124668Y449114D01*
X-124291Y448204D01*
X-123691Y447423D01*
X-122910Y446824D01*
X-122591Y446692D01*
Y440406D01*
X-122492Y439905D01*
X-122472Y439806D01*
X-122132Y439297D01*
X-122136Y439236D01*
X-122182Y439201D01*
X-123097Y438009D01*
X-123672Y436620D01*
X-123868Y435130D01*
X-123672Y433640D01*
X-123097Y432251D01*
X-122182Y431059D01*
X-120989Y430143D01*
X-120602Y429983D01*
X-120700Y429493D01*
X-128846D01*
X-128968Y429978D01*
X-128584Y430183D01*
X-127682Y430923D01*
X-126943Y431824D01*
X-126393Y432853D01*
X-126054Y433969D01*
X-125989Y434630D01*
X-137790D01*
X-137725Y433969D01*
X-137387Y432853D01*
X-136837Y431824D01*
X-136452Y431356D01*
X-136823Y431020D01*
X-144235Y438432D01*
X-144043Y438894D01*
X-143965D01*
Y441756D01*
X-147221D01*
Y439886D01*
X-154697D01*
X-155215Y440561D01*
X-155708Y440940D01*
X-155697Y440973D01*
Y444669D01*
X-158559D01*
Y441520D01*
X-158914Y441449D01*
X-159091Y441523D01*
X-159134Y441626D01*
X-159134Y441626D01*
X-159134Y441626D01*
Y448713D01*
X-160716D01*
Y450898D01*
X-159646D01*
Y454425D01*
X-159433D01*
Y455137D01*
X-156102D01*
Y455137D01*
Y455031D01*
X-156102Y454784D01*
X-156102Y454784D01*
X-156102D01*
Y450898D01*
X-153299D01*
X-151789Y449387D01*
X-151980Y448925D01*
X-154697D01*
Y445669D01*
X-151835D01*
Y448779D01*
X-151373Y448971D01*
X-150636Y448234D01*
X-150127Y447894D01*
X-149528Y447775D01*
X-147008D01*
Y446193D01*
X-139921D01*
Y452492D01*
X-147008D01*
Y450910D01*
X-148878D01*
X-150197Y452229D01*
Y454784D01*
X-150197Y454784D01*
D01*
D01*
X-150197Y455031D01*
D01*
X-150091Y455137D01*
X-148228D01*
X-147728Y455237D01*
X-147628Y455257D01*
X-147120Y455596D01*
X-145830Y456886D01*
X-145185D01*
Y459748D01*
X-148441D01*
Y458709D01*
X-148878Y458272D01*
X-150197D01*
Y458378D01*
X-150197D01*
Y462512D01*
X-151582D01*
Y463476D01*
X-151701Y464076D01*
X-152041Y464585D01*
X-156195Y468738D01*
Y469238D01*
X-154370Y471062D01*
X-146253D01*
Y470484D01*
X-148228D01*
Y464185D01*
X-141142D01*
Y470484D01*
X-143117D01*
Y471062D01*
X-131654D01*
X-131463Y470601D01*
D02*
G37*
G36*
X-154864Y462974D02*
X-155055Y462512D01*
X-156102D01*
Y458378D01*
D01*
Y458378D01*
X-156208Y458272D01*
X-159433D01*
Y458984D01*
X-159646D01*
Y462512D01*
X-165551D01*
Y462012D01*
X-170049D01*
Y466613D01*
X-169550Y466645D01*
X-169549Y466642D01*
X-169218Y465842D01*
X-168691Y465155D01*
X-168004Y464629D01*
X-167205Y464297D01*
X-166347Y464184D01*
X-165488Y464297D01*
X-164689Y464629D01*
X-164002Y465155D01*
X-163475Y465842D01*
X-163144Y466642D01*
X-163041Y467421D01*
X-159311D01*
X-154864Y462974D01*
D02*
G37*
G36*
X-165551Y450898D02*
X-163851D01*
Y448713D01*
X-165433D01*
Y441626D01*
X-159200D01*
X-159102Y441136D01*
X-159217Y441088D01*
X-159904Y440561D01*
X-160431Y439874D01*
X-160762Y439075D01*
X-160875Y438216D01*
X-160762Y437358D01*
X-160431Y436559D01*
X-160022Y436026D01*
X-160243Y435577D01*
X-167486D01*
X-170049Y438140D01*
Y451397D01*
X-165551D01*
Y450898D01*
D02*
G37*
G36*
X-102108Y495139D02*
X-102299Y494677D01*
X-110728D01*
Y494670D01*
X-115135D01*
X-115293Y494876D01*
X-115980Y495403D01*
X-116780Y495734D01*
X-117638Y495847D01*
X-118496Y495734D01*
X-119296Y495403D01*
X-119982Y494876D01*
X-120509Y494189D01*
X-120841Y493390D01*
X-120954Y492531D01*
X-120841Y491673D01*
X-120509Y490874D01*
X-119982Y490187D01*
X-119296Y489660D01*
X-118496Y489329D01*
X-117638Y489216D01*
X-117169Y489278D01*
X-116864Y488881D01*
X-117100Y488311D01*
X-117213Y487453D01*
X-117113Y486687D01*
X-117442Y486311D01*
X-122835D01*
Y479316D01*
X-123409D01*
Y482268D01*
X-126772D01*
Y483268D01*
X-123409D01*
Y486524D01*
X-125204D01*
Y489310D01*
X-124621Y489551D01*
X-123795Y490185D01*
X-123161Y491011D01*
X-122763Y491972D01*
X-122693Y492504D01*
X-130535D01*
X-130465Y491972D01*
X-130067Y491011D01*
X-129433Y490185D01*
X-128608Y489551D01*
X-128339Y489440D01*
Y486524D01*
X-130134D01*
Y485850D01*
X-130596Y485659D01*
X-134429Y489492D01*
X-134396Y489991D01*
X-133947Y490336D01*
X-133347Y491118D01*
X-132970Y492028D01*
X-132842Y493004D01*
X-132970Y493980D01*
X-133347Y494890D01*
X-133947Y495671D01*
X-134728Y496271D01*
X-134894Y496340D01*
X-134797Y496830D01*
X-128899D01*
X-128738Y496357D01*
X-129433Y495823D01*
X-130067Y494997D01*
X-130465Y494036D01*
X-130535Y493504D01*
X-122693D01*
X-122763Y494036D01*
X-123161Y494997D01*
X-123795Y495823D01*
X-124490Y496357D01*
X-124330Y496830D01*
X-103799D01*
X-102108Y495139D01*
D02*
G37*
G36*
X-148334Y496340D02*
X-148500Y496271D01*
X-149282Y495671D01*
X-149881Y494890D01*
X-150258Y493980D01*
X-150387Y493004D01*
X-150258Y492028D01*
X-149881Y491118D01*
X-149282Y490336D01*
X-148500Y489737D01*
X-148049Y489550D01*
X-147723Y489061D01*
X-143977Y485316D01*
X-143469Y484976D01*
X-143369Y484956D01*
X-142869Y484857D01*
X-139463D01*
X-136946Y482340D01*
Y478934D01*
X-136847Y478434D01*
X-136827Y478334D01*
X-136487Y477826D01*
X-133321Y474659D01*
X-133512Y474197D01*
X-155020D01*
X-155620Y474078D01*
X-156128Y473738D01*
X-159311Y470556D01*
X-164858D01*
X-165044Y470519D01*
X-165488Y470703D01*
X-166347Y470816D01*
X-167205Y470703D01*
X-168004Y470371D01*
X-168691Y469845D01*
X-169218Y469158D01*
X-169549Y468358D01*
X-169550Y468355D01*
X-170049Y468387D01*
Y469860D01*
X-160378Y479531D01*
X-160378Y479531D01*
X-160077Y479981D01*
X-159927Y480205D01*
X-159769Y481000D01*
X-159769Y481000D01*
Y486911D01*
X-157417Y489264D01*
X-152874D01*
Y496744D01*
D01*
Y496744D01*
X-152788Y496830D01*
X-148432D01*
X-148334Y496340D01*
D02*
G37*
G36*
X-194921Y500464D02*
Y499965D01*
X-195521Y499846D01*
X-196030Y499506D01*
X-208825Y486711D01*
X-209165Y486202D01*
X-209185Y486103D01*
X-209284Y485602D01*
Y441212D01*
X-215295Y435201D01*
X-217028D01*
Y437098D01*
X-223917D01*
Y430799D01*
X-217028D01*
Y432066D01*
X-214646D01*
X-214145Y432166D01*
X-214046Y432186D01*
X-213537Y432525D01*
X-206608Y439455D01*
X-206268Y439963D01*
X-206248Y440063D01*
X-206149Y440563D01*
Y484953D01*
X-194272Y496830D01*
X-160354D01*
Y496744D01*
X-160354D01*
Y492202D01*
X-163315Y489241D01*
X-163766Y488567D01*
X-163924Y487772D01*
Y487639D01*
X-164418Y487566D01*
X-164639Y488294D01*
X-165498Y489901D01*
X-166655Y491310D01*
X-168063Y492466D01*
X-169671Y493325D01*
X-171415Y493854D01*
X-173228Y494033D01*
X-175042Y493854D01*
X-176786Y493325D01*
X-178393Y492466D01*
X-179802Y491310D01*
X-180958Y489901D01*
X-181817Y488294D01*
X-182346Y486550D01*
X-182525Y484736D01*
X-182346Y482923D01*
X-181817Y481179D01*
X-180958Y479571D01*
X-180649Y479194D01*
X-180863Y478742D01*
X-188913D01*
Y469169D01*
X-175342D01*
Y475275D01*
X-174971Y475611D01*
X-173228Y475440D01*
X-171415Y475618D01*
X-170607Y475863D01*
X-170350Y475434D01*
X-173595Y472189D01*
X-174045Y471515D01*
X-174203Y470720D01*
Y460366D01*
Y460231D01*
X-174676Y460067D01*
X-175390Y460975D01*
X-176511Y461813D01*
X-176673Y461878D01*
Y466563D01*
X-185531D01*
Y464981D01*
X-188343D01*
X-189787Y466426D01*
X-189750Y466516D01*
X-189637Y467374D01*
X-189750Y468232D01*
X-190081Y469032D01*
X-190608Y469719D01*
X-191295Y470246D01*
X-192095Y470577D01*
X-192953Y470690D01*
X-193811Y470577D01*
X-194611Y470246D01*
X-195297Y469719D01*
X-195824Y469032D01*
X-196156Y468232D01*
X-196268Y467374D01*
X-196156Y466516D01*
X-195824Y465716D01*
X-195297Y465029D01*
X-194611Y464502D01*
X-194520Y464465D01*
Y440700D01*
X-207736Y427485D01*
X-226870D01*
X-227015Y427630D01*
Y453545D01*
X-226543Y453708D01*
X-226185Y453253D01*
X-225064Y452415D01*
X-224902Y452350D01*
Y447665D01*
X-221785D01*
Y444185D01*
X-223917D01*
Y437886D01*
X-217028D01*
Y444185D01*
X-219160D01*
Y447665D01*
X-216043D01*
Y452410D01*
X-215767Y452529D01*
X-214667Y453394D01*
X-213829Y454515D01*
X-213309Y455814D01*
X-213144Y457204D01*
X-213343Y458589D01*
X-213895Y459875D01*
X-214760Y460975D01*
X-215881Y461813D01*
X-216043Y461878D01*
Y466563D01*
X-224902D01*
Y464981D01*
X-226677D01*
X-227277Y464862D01*
X-227786Y464522D01*
X-229691Y462616D01*
X-230031Y462108D01*
X-230051Y462008D01*
X-230150Y461508D01*
Y427485D01*
X-267133D01*
Y454773D01*
X-266644Y454874D01*
X-266420Y454353D01*
X-265555Y453253D01*
X-264434Y452415D01*
X-264272Y452350D01*
Y447665D01*
X-261155D01*
Y444185D01*
X-263287D01*
Y437886D01*
X-256398D01*
Y444185D01*
X-258530D01*
Y447665D01*
X-255413D01*
Y452410D01*
X-255137Y452529D01*
X-254037Y453394D01*
X-253199Y454515D01*
X-252679Y455814D01*
X-252578Y456661D01*
X-252079Y456632D01*
Y436186D01*
X-256398D01*
Y437098D01*
X-263287D01*
Y430799D01*
X-256398D01*
Y433051D01*
X-251220D01*
X-250720Y433150D01*
X-250621Y433170D01*
X-250112Y433510D01*
X-249403Y434218D01*
X-249064Y434727D01*
X-248944Y435327D01*
X-248944Y435327D01*
X-248944Y435327D01*
Y435327D01*
Y487969D01*
X-248854Y488006D01*
X-248167Y488533D01*
X-247640Y489220D01*
X-247309Y490020D01*
X-247196Y490878D01*
X-247309Y491736D01*
X-247640Y492536D01*
X-248167Y493223D01*
X-248854Y493750D01*
X-249654Y494081D01*
X-250512Y494194D01*
X-251370Y494081D01*
X-252170Y493750D01*
X-252856Y493223D01*
X-253383Y492536D01*
X-253715Y491736D01*
X-253828Y490878D01*
X-253715Y490020D01*
X-253383Y489220D01*
X-252856Y488533D01*
X-252170Y488006D01*
X-252079Y487969D01*
Y457686D01*
X-252578Y457650D01*
X-252713Y458589D01*
X-253265Y459875D01*
X-254130Y460975D01*
X-255251Y461813D01*
X-255413Y461878D01*
Y466563D01*
X-264272D01*
Y464981D01*
X-265968D01*
X-266568Y464862D01*
X-267077Y464522D01*
X-269809Y461790D01*
X-270149Y461281D01*
X-270169Y461181D01*
X-270268Y460681D01*
Y427485D01*
X-302697D01*
X-308590Y433378D01*
Y460583D01*
X-307327Y461846D01*
X-304496D01*
X-304332Y461373D01*
X-305018Y460834D01*
X-305856Y459714D01*
X-306376Y458414D01*
X-306541Y457025D01*
X-306342Y455640D01*
X-305790Y454353D01*
X-304925Y453253D01*
X-303804Y452415D01*
X-303642Y452350D01*
Y447665D01*
X-300525D01*
Y444185D01*
X-302658D01*
Y437886D01*
X-295768D01*
Y444185D01*
X-297900D01*
Y447665D01*
X-294783D01*
Y452410D01*
X-294507Y452529D01*
X-293408Y453394D01*
X-292569Y454515D01*
X-292050Y455814D01*
X-291884Y457204D01*
X-292083Y458589D01*
X-292635Y459875D01*
X-293500Y460975D01*
X-294621Y461813D01*
X-294783Y461878D01*
Y466563D01*
X-303642D01*
Y464981D01*
X-307976D01*
X-308477Y464881D01*
X-308576Y464862D01*
X-309085Y464522D01*
X-311266Y462341D01*
X-311606Y461832D01*
X-311626Y461733D01*
X-311725Y461232D01*
Y432728D01*
X-311626Y432228D01*
X-311606Y432128D01*
X-311266Y431620D01*
X-304455Y424809D01*
X-303946Y424469D01*
X-303847Y424449D01*
X-303346Y424350D01*
X-207087D01*
X-206586Y424449D01*
X-206487Y424469D01*
X-205978Y424809D01*
X-191844Y438943D01*
X-191505Y439451D01*
X-191385Y440051D01*
X-191385Y440051D01*
X-191385Y440051D01*
Y440051D01*
Y462936D01*
X-190923Y463128D01*
X-190101Y462305D01*
X-189592Y461965D01*
X-189492Y461945D01*
X-188992Y461846D01*
X-186386D01*
X-186222Y461373D01*
X-186907Y460834D01*
X-187746Y459714D01*
X-188265Y458414D01*
X-188431Y457025D01*
X-188232Y455640D01*
X-187680Y454353D01*
X-186815Y453253D01*
X-185694Y452415D01*
X-185531Y452350D01*
Y447665D01*
X-182415D01*
Y444185D01*
X-184547D01*
Y437886D01*
X-177657D01*
Y444185D01*
X-179790D01*
Y447665D01*
X-176673D01*
Y452410D01*
X-176397Y452529D01*
X-175297Y453394D01*
X-174678Y454222D01*
X-174203Y454065D01*
Y453516D01*
Y437280D01*
X-174045Y436485D01*
X-173595Y435811D01*
X-173595Y435811D01*
X-173595Y435811D01*
X-169815Y432031D01*
X-169815Y432031D01*
X-169815D01*
X-169815Y432031D01*
X-169815D01*
X-169815Y432031D01*
Y432031D01*
Y432031D01*
D01*
D01*
X-169815D01*
Y432031D01*
X-169141Y431581D01*
X-169009Y431555D01*
X-168347Y431423D01*
X-168346Y431423D01*
X-147207D01*
X-138815Y423031D01*
X-138815Y423031D01*
X-138815D01*
X-138815Y423031D01*
X-138815D01*
X-138815Y423031D01*
Y423031D01*
Y423031D01*
D01*
D01*
X-138815D01*
Y423031D01*
X-138141Y422581D01*
X-137346Y422423D01*
X-70346D01*
X-69551Y422581D01*
X-68878Y423031D01*
X-68878Y423031D01*
X-68878Y423031D01*
X-62468Y429441D01*
X-61502Y429568D01*
X-60113Y430143D01*
X-58921Y431059D01*
X-58006Y432251D01*
X-57430Y433640D01*
X-57234Y435130D01*
X-57430Y436620D01*
X-58006Y438009D01*
X-58921Y439201D01*
X-60113Y440116D01*
X-61502Y440692D01*
X-62992Y440888D01*
X-64482Y440692D01*
X-65871Y440116D01*
X-67064Y439201D01*
X-67979Y438009D01*
X-68554Y436620D01*
X-68750Y435130D01*
X-68554Y433640D01*
X-67979Y432251D01*
X-67064Y431059D01*
X-67043Y430741D01*
X-71207Y426577D01*
X-98242D01*
X-98433Y427039D01*
X-96451Y429022D01*
X-96224Y429361D01*
X-96111Y429530D01*
X-95991Y430130D01*
Y432065D01*
X-95518Y432225D01*
X-94623Y431059D01*
X-93430Y430143D01*
X-92041Y429568D01*
X-90551Y429372D01*
X-89061Y429568D01*
X-87672Y430143D01*
X-86480Y431059D01*
X-85565Y432251D01*
X-84990Y433640D01*
X-84793Y435130D01*
X-84990Y436620D01*
X-85565Y438009D01*
X-86480Y439201D01*
X-87672Y440116D01*
X-89061Y440692D01*
X-90551Y440888D01*
X-92041Y440692D01*
X-93430Y440116D01*
X-94623Y439201D01*
X-95518Y438034D01*
X-95991Y438195D01*
Y439362D01*
X-92461Y442893D01*
X-68696D01*
X-68659Y442803D01*
X-68132Y442116D01*
X-67445Y441589D01*
X-66645Y441258D01*
X-65787Y441145D01*
X-64929Y441258D01*
X-64129Y441589D01*
X-63443Y442116D01*
X-62916Y442803D01*
X-62585Y443602D01*
X-62471Y444461D01*
X-62585Y445319D01*
X-62916Y446118D01*
X-63443Y446805D01*
X-64129Y447332D01*
X-64929Y447663D01*
X-65787Y447776D01*
X-66645Y447663D01*
X-67445Y447332D01*
X-68132Y446805D01*
X-68659Y446118D01*
X-68696Y446028D01*
X-93110D01*
X-93710Y445909D01*
X-93879Y445796D01*
X-94219Y445569D01*
X-98668Y441120D01*
X-99007Y440612D01*
X-99027Y440512D01*
X-99127Y440012D01*
Y438503D01*
X-99600Y438342D01*
X-100259Y439201D01*
X-101452Y440116D01*
X-102763Y440660D01*
Y443398D01*
X-102883Y443997D01*
X-102995Y444166D01*
X-103222Y444506D01*
X-106777Y448061D01*
X-106586Y448523D01*
X-105512D01*
Y447728D01*
X-99213D01*
Y454815D01*
X-100795D01*
Y456835D01*
X-98903Y458726D01*
X-97238Y460392D01*
X-97011Y460731D01*
X-96898Y460900D01*
X-96779Y461500D01*
Y471500D01*
X-96898Y472100D01*
X-97238Y472608D01*
Y472651D01*
X-95427Y474463D01*
X-95087Y474971D01*
X-95067Y475070D01*
X-94968Y475571D01*
Y476890D01*
X-94494Y477051D01*
X-94191Y476655D01*
X-93504Y476128D01*
X-92705Y475797D01*
X-91847Y475684D01*
X-90988Y475797D01*
X-90189Y476128D01*
X-89502Y476655D01*
X-88975Y477342D01*
X-88901Y477521D01*
X-88846Y477532D01*
X-88747Y477552D01*
X-88238Y477892D01*
X-84831Y481299D01*
X-83957D01*
Y481291D01*
Y479535D01*
X-84169D01*
Y478248D01*
X-74098D01*
Y479535D01*
X-74311D01*
Y480977D01*
X-73812Y481010D01*
X-73756Y480586D01*
X-73404Y479735D01*
X-72843Y479004D01*
X-72112Y478443D01*
X-71260Y478090D01*
X-70846Y478036D01*
Y481500D01*
Y484964D01*
X-71260Y484910D01*
X-72112Y484557D01*
X-72843Y483996D01*
X-73404Y483265D01*
X-73756Y482414D01*
X-73812Y481990D01*
X-74311Y482023D01*
Y483850D01*
Y486410D01*
Y486417D01*
X-69204D01*
X-68683Y485738D01*
X-67997Y485211D01*
X-67197Y484880D01*
X-66339Y484767D01*
X-65480Y484880D01*
X-64681Y485211D01*
X-63994Y485738D01*
X-63467Y486425D01*
X-63136Y487224D01*
X-63023Y488083D01*
X-63136Y488941D01*
X-63467Y489741D01*
X-63994Y490427D01*
X-64681Y490954D01*
X-65480Y491286D01*
X-66339Y491398D01*
X-67197Y491286D01*
X-67997Y490954D01*
X-68683Y490427D01*
X-69210Y489741D01*
X-69288Y489552D01*
X-71425D01*
X-71616Y490014D01*
X-70457Y491173D01*
X-69988Y491234D01*
X-69189Y491566D01*
X-68502Y492092D01*
X-67975Y492779D01*
X-67716Y493405D01*
X-41468D01*
X-22512Y474448D01*
X-22549Y474358D01*
X-22662Y473500D01*
X-22549Y472642D01*
X-22218Y471842D01*
X-21691Y471155D01*
X-21004Y470628D01*
X-20205Y470297D01*
X-19346Y470184D01*
X-18488Y470297D01*
X-17689Y470628D01*
X-17002Y471155D01*
X-16475Y471842D01*
X-16144Y472642D01*
X-16031Y473500D01*
X-16144Y474358D01*
X-16475Y475158D01*
X-17002Y475845D01*
X-17689Y476371D01*
X-18488Y476703D01*
X-19346Y476816D01*
X-20205Y476703D01*
X-20295Y476665D01*
X-39711Y496081D01*
X-40219Y496421D01*
X-40319Y496440D01*
X-40819Y496540D01*
X-68316D01*
X-68502Y496782D01*
X-69189Y497309D01*
X-69988Y497640D01*
X-70846Y497753D01*
X-71705Y497640D01*
X-72504Y497309D01*
X-73191Y496782D01*
X-73718Y496095D01*
X-74049Y495295D01*
X-74131Y494677D01*
X-74311D01*
Y494677D01*
X-81593D01*
X-81814Y495126D01*
X-81352Y495727D01*
X-80999Y496578D01*
X-80945Y496992D01*
X-87876D01*
X-88204Y496619D01*
X-89140D01*
X-89740Y496499D01*
X-89909Y496387D01*
X-90249Y496160D01*
X-90929Y495480D01*
X-91377Y495701D01*
X-91369Y495760D01*
X-91482Y496618D01*
X-91813Y497418D01*
X-92340Y498104D01*
X-93027Y498631D01*
X-93827Y498963D01*
X-94685Y499076D01*
X-95543Y498963D01*
X-96343Y498631D01*
X-97030Y498104D01*
X-97557Y497418D01*
X-97888Y496618D01*
X-97961Y496060D01*
X-98435Y495900D01*
X-102041Y499506D01*
X-102550Y499846D01*
X-102649Y499866D01*
X-103082Y499952D01*
X-103033Y500449D01*
X-87061Y500447D01*
X-86906Y499988D01*
X-87467Y499257D01*
X-87819Y498406D01*
X-87874Y497992D01*
X-80945D01*
X-80999Y498406D01*
X-81352Y499257D01*
X-81913Y499988D01*
X-81758Y500446D01*
X15787Y500430D01*
X15787Y500430D01*
X47244Y457177D01*
Y457059D01*
X47205Y457020D01*
Y437463D01*
X15787Y413900D01*
D01*
X15778Y413909D01*
X-318937D01*
X-334646Y429618D01*
Y429776D01*
X-334606Y429815D01*
Y484776D01*
X-318898Y500484D01*
X-318858D01*
X-194921Y500464D01*
D02*
G37*
%LPC*%
G36*
X-22154Y441051D02*
X-27575D01*
Y435630D01*
X-22154D01*
Y441051D01*
D02*
G37*
G36*
X-15732D02*
X-21154D01*
Y435630D01*
X-15732D01*
Y441051D01*
D02*
G37*
G36*
X-132390Y441031D02*
X-133051Y440966D01*
X-134167Y440627D01*
X-135195Y440077D01*
X-136097Y439337D01*
X-136837Y438436D01*
X-137387Y437407D01*
X-137725Y436291D01*
X-137790Y435630D01*
X-132390D01*
Y441031D01*
D02*
G37*
G36*
X-131390D02*
Y435630D01*
X-125989D01*
X-126054Y436291D01*
X-126393Y437407D01*
X-126943Y438436D01*
X-127682Y439337D01*
X-128584Y440077D01*
X-129613Y440627D01*
X-130729Y440966D01*
X-131390Y441031D01*
D02*
G37*
G36*
X-322008Y455529D02*
X-323822Y455350D01*
X-325566Y454821D01*
X-327173Y453962D01*
X-328582Y452806D01*
X-329738Y451397D01*
X-330597Y449790D01*
X-331126Y448046D01*
X-331305Y446232D01*
X-331126Y444419D01*
X-330597Y442675D01*
X-329738Y441067D01*
X-328582Y439658D01*
X-327173Y438502D01*
X-325566Y437643D01*
X-323822Y437114D01*
X-322008Y436936D01*
X-320194Y437114D01*
X-318450Y437643D01*
X-316843Y438502D01*
X-315434Y439658D01*
X-314278Y441067D01*
X-313419Y442675D01*
X-312890Y444419D01*
X-312711Y446232D01*
X-312890Y448046D01*
X-313419Y449790D01*
X-314278Y451397D01*
X-315434Y452806D01*
X-316843Y453962D01*
X-318450Y454821D01*
X-320194Y455350D01*
X-322008Y455529D01*
D02*
G37*
G36*
X-143965Y445618D02*
X-147221D01*
Y442756D01*
X-143965D01*
Y445618D01*
D02*
G37*
G36*
X-139709D02*
X-142965D01*
Y442756D01*
X-139709D01*
Y445618D01*
D02*
G37*
G36*
X-155697Y448925D02*
X-158559D01*
Y445669D01*
X-155697D01*
Y448925D01*
D02*
G37*
G36*
X-151835Y444669D02*
X-154697D01*
Y441413D01*
X-151835D01*
Y444669D01*
D02*
G37*
G36*
X34291Y455529D02*
X32478Y455350D01*
X30734Y454821D01*
X29126Y453962D01*
X27718Y452806D01*
X26561Y451397D01*
X25702Y449790D01*
X25173Y448046D01*
X24995Y446232D01*
X25173Y444419D01*
X25702Y442675D01*
X26561Y441067D01*
X27718Y439658D01*
X29126Y438502D01*
X30734Y437643D01*
X32478Y437114D01*
X34291Y436936D01*
X36105Y437114D01*
X37849Y437643D01*
X39456Y438502D01*
X40865Y439658D01*
X42021Y441067D01*
X42880Y442675D01*
X43409Y444419D01*
X43588Y446232D01*
X43409Y448046D01*
X42880Y449790D01*
X42021Y451397D01*
X40865Y452806D01*
X39456Y453962D01*
X37849Y454821D01*
X36105Y455350D01*
X34291Y455529D01*
D02*
G37*
G36*
X-139709Y441756D02*
X-142965D01*
Y438894D01*
X-139709D01*
Y441756D01*
D02*
G37*
G36*
X7480Y447485D02*
X6504Y447357D01*
X5594Y446980D01*
X4813Y446380D01*
X4213Y445599D01*
X3836Y444689D01*
X3708Y443713D01*
X3836Y442736D01*
X4213Y441826D01*
X4813Y441045D01*
X5594Y440446D01*
X6504Y440069D01*
X7480Y439940D01*
X8457Y440069D01*
X9366Y440446D01*
X10148Y441045D01*
X10747Y441826D01*
X11124Y442736D01*
X11253Y443713D01*
X11124Y444689D01*
X10747Y445599D01*
X10148Y446380D01*
X9366Y446980D01*
X8457Y447357D01*
X7480Y447485D01*
D02*
G37*
G36*
X0Y438915D02*
X-1814Y438736D01*
X-3558Y438207D01*
X-5165Y437348D01*
X-6574Y436192D01*
X-7730Y434783D01*
X-8589Y433176D01*
X-9118Y431432D01*
X-9297Y429618D01*
X-9118Y427804D01*
X-8589Y426060D01*
X-7730Y424453D01*
X-6574Y423044D01*
X-5165Y421888D01*
X-3558Y421029D01*
X-1814Y420500D01*
X0Y420321D01*
X1814Y420500D01*
X3558Y421029D01*
X5165Y421888D01*
X6574Y423044D01*
X7730Y424453D01*
X8589Y426060D01*
X9118Y427804D01*
X9297Y429618D01*
X9118Y431432D01*
X8589Y433176D01*
X7730Y434783D01*
X6574Y436192D01*
X5165Y437348D01*
X3558Y438207D01*
X1814Y438736D01*
X0Y438915D01*
D02*
G37*
G36*
X-180854Y426059D02*
X-181386Y425989D01*
X-182348Y425591D01*
X-183174Y424957D01*
X-183807Y424131D01*
X-184205Y423170D01*
X-184275Y422638D01*
X-180854D01*
Y426059D01*
D02*
G37*
G36*
X-179854D02*
Y422638D01*
X-176433D01*
X-176503Y423170D01*
X-176902Y424131D01*
X-177535Y424957D01*
X-178361Y425591D01*
X-179323Y425989D01*
X-179854Y426059D01*
D02*
G37*
G36*
X-150354Y425910D02*
X-151331Y425782D01*
X-152241Y425405D01*
X-153022Y424805D01*
X-153621Y424024D01*
X-153998Y423114D01*
X-154127Y422138D01*
X-153998Y421161D01*
X-153621Y420252D01*
X-153022Y419470D01*
X-152241Y418871D01*
X-151331Y418494D01*
X-150354Y418365D01*
X-149378Y418494D01*
X-148468Y418871D01*
X-147687Y419470D01*
X-147087Y420252D01*
X-146710Y421161D01*
X-146582Y422138D01*
X-146710Y423114D01*
X-147087Y424024D01*
X-147687Y424805D01*
X-148468Y425405D01*
X-149378Y425782D01*
X-150354Y425910D01*
D02*
G37*
G36*
X-180854Y421638D02*
X-184275D01*
X-184205Y421106D01*
X-183807Y420144D01*
X-183174Y419319D01*
X-182348Y418685D01*
X-181386Y418287D01*
X-180854Y418217D01*
Y421638D01*
D02*
G37*
G36*
X-176433D02*
X-179854D01*
Y418217D01*
X-179323Y418287D01*
X-178361Y418685D01*
X-177535Y419319D01*
X-176902Y420144D01*
X-176503Y421106D01*
X-176433Y421638D01*
D02*
G37*
G36*
X-170354Y425910D02*
X-171331Y425782D01*
X-172240Y425405D01*
X-173022Y424805D01*
X-173621Y424024D01*
X-173998Y423114D01*
X-174127Y422138D01*
X-173998Y421161D01*
X-173621Y420252D01*
X-173022Y419470D01*
X-172240Y418871D01*
X-171331Y418494D01*
X-170354Y418365D01*
X-169378Y418494D01*
X-168468Y418871D01*
X-167687Y419470D01*
X-167087Y420252D01*
X-166710Y421161D01*
X-166582Y422138D01*
X-166710Y423114D01*
X-167087Y424024D01*
X-167687Y424805D01*
X-168468Y425405D01*
X-169378Y425782D01*
X-170354Y425910D01*
D02*
G37*
G36*
X-35433Y440888D02*
X-36923Y440692D01*
X-38312Y440116D01*
X-39505Y439201D01*
X-40420Y438009D01*
X-40995Y436620D01*
X-41191Y435130D01*
X-40995Y433640D01*
X-40420Y432251D01*
X-39505Y431059D01*
X-38312Y430143D01*
X-36923Y429568D01*
X-35433Y429372D01*
X-33943Y429568D01*
X-32554Y430143D01*
X-31362Y431059D01*
X-30447Y432251D01*
X-29871Y433640D01*
X-29675Y435130D01*
X-29871Y436620D01*
X-30447Y438009D01*
X-31362Y439201D01*
X-32554Y440116D01*
X-33943Y440692D01*
X-35433Y440888D01*
D02*
G37*
G36*
X-177657Y437098D02*
X-184547D01*
Y435516D01*
X-189488D01*
X-190088Y435397D01*
X-190597Y435057D01*
X-191304Y434349D01*
X-191395Y434387D01*
X-192253Y434500D01*
X-193111Y434387D01*
X-193911Y434056D01*
X-194597Y433529D01*
X-195124Y432842D01*
X-195456Y432042D01*
X-195569Y431184D01*
X-195456Y430326D01*
X-195124Y429526D01*
X-194597Y428839D01*
X-193911Y428312D01*
X-193111Y427981D01*
X-192253Y427868D01*
X-191395Y427981D01*
X-190595Y428312D01*
X-189908Y428839D01*
X-189381Y429526D01*
X-189050Y430326D01*
X-188937Y431184D01*
X-189045Y432005D01*
X-188992Y432066D01*
X-188232Y432381D01*
X-184547D01*
Y430799D01*
X-177657D01*
Y437098D01*
D02*
G37*
G36*
X-287283Y475139D02*
X-288142Y475026D01*
X-288941Y474694D01*
X-289628Y474167D01*
X-290155Y473481D01*
X-290486Y472681D01*
X-290599Y471823D01*
X-290486Y470965D01*
X-290155Y470165D01*
X-289628Y469478D01*
X-288941Y468951D01*
X-288772Y468881D01*
Y438889D01*
X-292657Y435005D01*
X-295768D01*
Y437098D01*
X-302658D01*
Y430799D01*
X-295768D01*
Y431870D01*
X-292008D01*
X-291508Y431969D01*
X-291408Y431989D01*
X-290899Y432329D01*
X-286096Y437132D01*
X-285756Y437640D01*
X-285737Y437740D01*
X-285637Y438240D01*
Y468947D01*
X-285626Y468951D01*
X-284939Y469478D01*
X-284412Y470165D01*
X-284081Y470965D01*
X-283968Y471823D01*
X-284081Y472681D01*
X-284412Y473481D01*
X-284939Y474167D01*
X-285626Y474694D01*
X-286425Y475026D01*
X-287283Y475139D01*
D02*
G37*
G36*
X-49213Y440888D02*
X-50703Y440692D01*
X-52092Y440116D01*
X-53284Y439201D01*
X-54199Y438009D01*
X-54774Y436620D01*
X-54971Y435130D01*
X-54774Y433640D01*
X-54199Y432251D01*
X-53284Y431059D01*
X-52092Y430143D01*
X-50703Y429568D01*
X-49213Y429372D01*
X-47722Y429568D01*
X-46334Y430143D01*
X-45141Y431059D01*
X-44226Y432251D01*
X-43651Y433640D01*
X-43455Y435130D01*
X-43651Y436620D01*
X-44226Y438009D01*
X-45141Y439201D01*
X-46334Y440116D01*
X-47722Y440692D01*
X-49213Y440888D01*
D02*
G37*
G36*
X-22154Y434630D02*
X-27575D01*
Y429209D01*
X-22154D01*
Y434630D01*
D02*
G37*
G36*
X-15732D02*
X-21154D01*
Y429209D01*
X-15732D01*
Y434630D01*
D02*
G37*
G36*
X-76772Y440888D02*
X-78262Y440692D01*
X-79651Y440116D01*
X-80843Y439201D01*
X-81758Y438009D01*
X-82333Y436620D01*
X-82530Y435130D01*
X-82333Y433640D01*
X-81758Y432251D01*
X-80843Y431059D01*
X-79651Y430143D01*
X-78262Y429568D01*
X-76772Y429372D01*
X-75281Y429568D01*
X-73893Y430143D01*
X-72700Y431059D01*
X-71785Y432251D01*
X-71210Y433640D01*
X-71014Y435130D01*
X-71210Y436620D01*
X-71785Y438009D01*
X-72700Y439201D01*
X-73893Y440116D01*
X-75281Y440692D01*
X-76772Y440888D01*
D02*
G37*
G36*
X-131524Y449590D02*
X-134945D01*
X-134875Y449059D01*
X-134476Y448097D01*
X-133843Y447271D01*
X-133017Y446638D01*
X-132055Y446240D01*
X-131524Y446170D01*
Y449590D01*
D02*
G37*
G36*
X-4831Y476756D02*
X-7693D01*
Y473500D01*
X-4831D01*
Y476756D01*
D02*
G37*
G36*
X-8268Y498024D02*
X-14567D01*
Y491134D01*
X-12985D01*
Y489362D01*
X-14567D01*
Y482472D01*
X-12985D01*
Y480799D01*
X-14567D01*
Y473713D01*
X-8268D01*
Y480799D01*
X-9850D01*
Y482472D01*
X-8268D01*
Y489362D01*
X-9850D01*
Y491134D01*
X-8268D01*
Y498024D01*
D02*
G37*
G36*
X7980Y477634D02*
Y474213D01*
X11401D01*
X11331Y474745D01*
X10933Y475706D01*
X10300Y476532D01*
X9474Y477165D01*
X8512Y477564D01*
X7980Y477634D01*
D02*
G37*
G36*
X-292153Y480278D02*
X-305724D01*
Y470705D01*
X-292153D01*
Y480278D01*
D02*
G37*
G36*
X6980Y473213D02*
X3559D01*
X3629Y472681D01*
X4028Y471719D01*
X4661Y470893D01*
X5487Y470260D01*
X6448Y469862D01*
X6980Y469792D01*
Y473213D01*
D02*
G37*
G36*
X11401D02*
X7980D01*
Y469792D01*
X8512Y469862D01*
X9474Y470260D01*
X10300Y470893D01*
X10933Y471719D01*
X11331Y472681D01*
X11401Y473213D01*
D02*
G37*
G36*
X-969Y481012D02*
X-3831D01*
Y477256D01*
Y473500D01*
X-3615D01*
X-3454Y473027D01*
X-3691Y472845D01*
X-4218Y472158D01*
X-4255Y472067D01*
X-14346D01*
X-14946Y471948D01*
X-15455Y471608D01*
X-20543Y466520D01*
X-32456D01*
X-32647Y466982D01*
X-29295Y470335D01*
X-29205Y470297D01*
X-28346Y470184D01*
X-27488Y470297D01*
X-26689Y470628D01*
X-26002Y471155D01*
X-25475Y471842D01*
X-25144Y472642D01*
X-25031Y473500D01*
X-25144Y474358D01*
X-25475Y475158D01*
X-26002Y475845D01*
X-26689Y476371D01*
X-27488Y476703D01*
X-28346Y476816D01*
X-29205Y476703D01*
X-30004Y476371D01*
X-30691Y475845D01*
X-31218Y475158D01*
X-31549Y474358D01*
X-31662Y473500D01*
X-31549Y472642D01*
X-31512Y472551D01*
X-34996Y469067D01*
X-41697D01*
X-45789Y473160D01*
X-45598Y473622D01*
X-39769D01*
X-39662Y473500D01*
X-39549Y472642D01*
X-39218Y471842D01*
X-38691Y471155D01*
X-38004Y470628D01*
X-37205Y470297D01*
X-36347Y470184D01*
X-35488Y470297D01*
X-34689Y470628D01*
X-34002Y471155D01*
X-33475Y471842D01*
X-33144Y472642D01*
X-33031Y473500D01*
X-33144Y474358D01*
X-33475Y475158D01*
X-34002Y475845D01*
X-34689Y476371D01*
X-35488Y476703D01*
X-36347Y476816D01*
X-37205Y476703D01*
X-37408Y476619D01*
X-37436Y476637D01*
X-37535Y476657D01*
X-38035Y476756D01*
X-74098D01*
Y477248D01*
X-84169D01*
Y475961D01*
X-83957D01*
Y473614D01*
Y471646D01*
Y471638D01*
X-88549D01*
X-88644Y472358D01*
X-88975Y473158D01*
X-89502Y473845D01*
X-90189Y474371D01*
X-90988Y474703D01*
X-91847Y474816D01*
X-92705Y474703D01*
X-93504Y474371D01*
X-94191Y473845D01*
X-94718Y473158D01*
X-95049Y472358D01*
X-95162Y471500D01*
X-95049Y470642D01*
X-94718Y469842D01*
X-94191Y469155D01*
X-93504Y468629D01*
X-92705Y468297D01*
X-91847Y468184D01*
X-90988Y468297D01*
X-90467Y468513D01*
X-90417Y468503D01*
X-87213D01*
X-87022Y468041D01*
X-89898Y465165D01*
X-89988Y465203D01*
X-90847Y465316D01*
X-91705Y465203D01*
X-92504Y464872D01*
X-93191Y464345D01*
X-93718Y463658D01*
X-94049Y462858D01*
X-94162Y462000D01*
X-94049Y461142D01*
X-93718Y460342D01*
X-93191Y459655D01*
X-92504Y459129D01*
X-91705Y458797D01*
X-90847Y458684D01*
X-89988Y458797D01*
X-89189Y459129D01*
X-88502Y459655D01*
X-87975Y460342D01*
X-87644Y461142D01*
X-87531Y462000D01*
X-87644Y462858D01*
X-87681Y462949D01*
X-84685Y465944D01*
X-83957D01*
Y465937D01*
Y463378D01*
Y460819D01*
Y458260D01*
X-74311D01*
Y458267D01*
X-12590D01*
X-12553Y458177D01*
X-12026Y457490D01*
X-11339Y456963D01*
X-10539Y456632D01*
X-9681Y456519D01*
X-8823Y456632D01*
X-8023Y456963D01*
X-7337Y457490D01*
X-6810Y458177D01*
X-6478Y458977D01*
X-6365Y459835D01*
X-6478Y460693D01*
X-6810Y461492D01*
X-7337Y462179D01*
X-8023Y462706D01*
X-8823Y463037D01*
X-9681Y463150D01*
X-10539Y463037D01*
X-11339Y462706D01*
X-12026Y462179D01*
X-12553Y461492D01*
X-12590Y461402D01*
X-14574D01*
X-14765Y461864D01*
X-12697Y463933D01*
X3515D01*
X3708Y463713D01*
X3836Y462736D01*
X4213Y461826D01*
X4813Y461045D01*
X5594Y460446D01*
X6504Y460069D01*
X7480Y459940D01*
X8457Y460069D01*
X9366Y460446D01*
X10148Y461045D01*
X10747Y461826D01*
X11124Y462736D01*
X11253Y463713D01*
X11124Y464689D01*
X10747Y465599D01*
X10148Y466380D01*
X9366Y466980D01*
X8457Y467356D01*
X7480Y467485D01*
X6504Y467356D01*
X5770Y467052D01*
X5693Y467067D01*
X239D01*
X141Y467558D01*
X311Y467628D01*
X998Y468155D01*
X1525Y468842D01*
X1856Y469642D01*
X1969Y470500D01*
X1856Y471358D01*
X1525Y472158D01*
X998Y472845D01*
X311Y473372D01*
X-488Y473703D01*
X-969Y473766D01*
Y475688D01*
X3288D01*
X3806Y475170D01*
X3629Y474745D01*
X3559Y474213D01*
X6980D01*
Y477634D01*
X6448Y477564D01*
X6022Y477387D01*
X5045Y478364D01*
X4537Y478704D01*
X4437Y478724D01*
X3937Y478823D01*
X-969D01*
Y481012D01*
D02*
G37*
G36*
X-1181Y489362D02*
X-7480D01*
Y482472D01*
X-1181D01*
Y484350D01*
X3413D01*
X3742Y483974D01*
X3708Y483713D01*
X3836Y482736D01*
X4213Y481826D01*
X4813Y481045D01*
X5594Y480446D01*
X6504Y480069D01*
X7480Y479940D01*
X8457Y480069D01*
X9366Y480446D01*
X10148Y481045D01*
X10747Y481826D01*
X11124Y482736D01*
X11253Y483713D01*
X11124Y484689D01*
X10747Y485599D01*
X10148Y486380D01*
X9366Y486980D01*
X8457Y487357D01*
X7480Y487485D01*
X6504Y487357D01*
X6124Y487199D01*
X5875Y487365D01*
X5776Y487385D01*
X5276Y487485D01*
X-1181D01*
Y489362D01*
D02*
G37*
G36*
X-69846Y484964D02*
Y482000D01*
X-66882D01*
X-66936Y482414D01*
X-67289Y483265D01*
X-67850Y483996D01*
X-68581Y484557D01*
X-69433Y484910D01*
X-69846Y484964D01*
D02*
G37*
G36*
X-1181Y498024D02*
X-7480D01*
Y491134D01*
X-1181D01*
Y492145D01*
X3740D01*
Y489972D01*
X11220D01*
Y497453D01*
X3740D01*
Y495280D01*
X-1181D01*
Y498024D01*
D02*
G37*
G36*
X-66882Y481000D02*
X-69846D01*
Y478036D01*
X-69433Y478090D01*
X-68581Y478443D01*
X-67850Y479004D01*
X-67289Y479735D01*
X-66936Y480586D01*
X-66882Y481000D01*
D02*
G37*
G36*
X-141732Y482879D02*
X-142709Y482750D01*
X-143619Y482373D01*
X-144400Y481774D01*
X-144999Y480993D01*
X-145376Y480083D01*
X-145505Y479106D01*
X-145376Y478130D01*
X-144999Y477220D01*
X-144400Y476439D01*
X-143619Y475839D01*
X-142709Y475462D01*
X-141732Y475334D01*
X-140756Y475462D01*
X-139846Y475839D01*
X-139065Y476439D01*
X-138465Y477220D01*
X-138088Y478130D01*
X-137960Y479106D01*
X-138088Y480083D01*
X-138465Y480993D01*
X-139065Y481774D01*
X-139846Y482373D01*
X-140756Y482750D01*
X-141732Y482879D01*
D02*
G37*
G36*
X-147992Y482846D02*
X-155472D01*
Y475366D01*
X-147992D01*
Y482846D01*
D02*
G37*
G36*
X-4831Y481012D02*
X-7693D01*
Y477756D01*
X-4831D01*
Y481012D01*
D02*
G37*
G36*
X-131524Y454012D02*
X-132055Y453942D01*
X-133017Y453543D01*
X-133843Y452910D01*
X-134476Y452084D01*
X-134875Y451122D01*
X-134945Y450591D01*
X-131524D01*
Y454012D01*
D02*
G37*
G36*
X-130524D02*
Y450591D01*
X-127103D01*
X-127173Y451122D01*
X-127571Y452084D01*
X-128205Y452910D01*
X-129030Y453543D01*
X-129992Y453942D01*
X-130524Y454012D01*
D02*
G37*
G36*
X-95776Y455027D02*
X-98638D01*
Y451772D01*
X-95776D01*
Y455027D01*
D02*
G37*
G36*
X7480Y457485D02*
X6504Y457357D01*
X5594Y456980D01*
X4813Y456380D01*
X4213Y455599D01*
X3836Y454689D01*
X3708Y453713D01*
X3836Y452736D01*
X4213Y451826D01*
X4813Y451045D01*
X5594Y450446D01*
X6504Y450069D01*
X7480Y449940D01*
X8457Y450069D01*
X9366Y450446D01*
X10148Y451045D01*
X10747Y451826D01*
X11124Y452736D01*
X11253Y453713D01*
X11124Y454689D01*
X10747Y455599D01*
X10148Y456380D01*
X9366Y456980D01*
X8457Y457357D01*
X7480Y457485D01*
D02*
G37*
G36*
X-127103Y449590D02*
X-130524D01*
Y446170D01*
X-129992Y446240D01*
X-129030Y446638D01*
X-128205Y447271D01*
X-127571Y448097D01*
X-127173Y449059D01*
X-127103Y449590D01*
D02*
G37*
G36*
X-95776Y450772D02*
X-98638D01*
Y447516D01*
X-95776D01*
Y450772D01*
D02*
G37*
G36*
X-91913D02*
X-94776D01*
Y447516D01*
X-91913D01*
Y450772D01*
D02*
G37*
G36*
X-140929Y463610D02*
X-144185D01*
Y460748D01*
X-140929D01*
Y463610D01*
D02*
G37*
G36*
X-252783Y479175D02*
X-266354D01*
Y469602D01*
X-252783D01*
Y479175D01*
D02*
G37*
G36*
X-214310D02*
X-225882D01*
Y469602D01*
X-214310D01*
Y479175D01*
D02*
G37*
G36*
X-140929Y459748D02*
X-144185D01*
Y456886D01*
X-140929D01*
Y459748D01*
D02*
G37*
G36*
X-91913Y455027D02*
X-94776D01*
Y451772D01*
X-91913D01*
Y455027D01*
D02*
G37*
G36*
X-145185Y463610D02*
X-148441D01*
Y460748D01*
X-145185D01*
Y463610D01*
D02*
G37*
%LPD*%
G36*
X-44045Y466982D02*
X-44237Y466520D01*
X-74311D01*
Y468496D01*
Y471055D01*
Y471062D01*
X-48126D01*
X-44045Y466982D01*
D02*
G37*
D10*
X-119685Y463476D02*
D03*
X-126772D02*
D03*
X-11417Y494579D02*
D03*
X-4331D02*
D03*
X-4331Y485917D02*
D03*
X-11417D02*
D03*
D11*
X-79134Y459835D02*
D03*
Y462394D02*
D03*
Y464953D02*
D03*
Y467512D02*
D03*
Y470071D02*
D03*
Y472630D02*
D03*
Y475189D02*
D03*
Y477748D02*
D03*
Y480307D02*
D03*
Y482866D02*
D03*
Y485425D02*
D03*
Y487984D02*
D03*
Y490543D02*
D03*
Y493102D02*
D03*
X-105905Y459835D02*
D03*
Y462394D02*
D03*
Y464953D02*
D03*
Y467512D02*
D03*
Y470071D02*
D03*
Y472630D02*
D03*
Y475189D02*
D03*
Y477748D02*
D03*
Y480307D02*
D03*
Y482866D02*
D03*
Y485425D02*
D03*
Y487984D02*
D03*
Y490543D02*
D03*
Y493102D02*
D03*
D12*
X-153150Y460445D02*
D03*
Y452965D02*
D03*
X-162598D02*
D03*
Y456705D02*
D03*
Y460445D02*
D03*
D13*
X-181102Y433949D02*
D03*
Y441035D02*
D03*
X-259842Y433949D02*
D03*
Y441035D02*
D03*
X-220472Y433949D02*
D03*
Y441035D02*
D03*
X-299213Y433949D02*
D03*
Y441035D02*
D03*
D14*
X-102362Y451272D02*
D03*
X-95276D02*
D03*
X-126772Y482768D02*
D03*
X-119685D02*
D03*
X-11417Y477256D02*
D03*
X-4331D02*
D03*
X-162284Y445169D02*
D03*
X-155197D02*
D03*
D15*
X-143465Y449342D02*
D03*
Y442256D02*
D03*
X-144685Y467335D02*
D03*
Y460248D02*
D03*
D16*
X-181102Y463413D02*
D03*
Y450815D02*
D03*
X-299213Y463413D02*
D03*
Y450815D02*
D03*
X-220472Y463413D02*
D03*
Y450815D02*
D03*
X-259842Y463413D02*
D03*
Y450815D02*
D03*
D17*
X-91847Y471500D02*
X-90417Y470071D01*
X-79134D01*
X-90847Y462000D02*
X-85335Y467512D01*
X-79134D01*
X-91847Y479000D02*
X-89346D01*
X-85480Y482866D01*
X-79134D01*
X-117598Y493102D02*
X-105905D01*
X-102362Y457484D02*
X-100012Y459835D01*
X-102362Y451272D02*
Y457484D01*
X-103543Y450091D02*
X-102362Y451272D01*
X-111024Y450091D02*
X-103543D01*
X-111024D02*
X-104331Y443398D01*
Y437492D02*
Y443398D01*
X-121024Y440406D02*
X-118110Y437492D01*
X-121024Y440406D02*
Y450091D01*
X-126772Y455839D02*
X-121024Y450091D01*
X-126772Y455839D02*
Y463476D01*
X-119685D02*
X-118209Y464953D01*
X-105905D01*
X-40819Y494972D02*
X-19346Y473500D01*
X-14346Y470500D02*
X-1347D01*
X-19894Y464953D02*
X-14346Y470500D01*
X-79134Y464953D02*
X-19894D01*
X-13347Y465500D02*
X5693D01*
X-16453Y462394D02*
X-13347Y465500D01*
X-79134Y462394D02*
X-16453D01*
X-68874Y494972D02*
X-40819D01*
X-79209Y485500D02*
X-79134Y485425D01*
X-90346Y485500D02*
X-79209D01*
X-105905Y439067D02*
X-104331Y437492D01*
X-135346Y464500D02*
X-129776Y470071D01*
X-105905D01*
Y464953D02*
Y467512D01*
X-73303Y490543D02*
X-68874Y494972D01*
X-79134Y490543D02*
X-73303D01*
X-105905Y459835D02*
X-100012D01*
X-98347Y461500D01*
Y471500D01*
X-99476Y472630D02*
X-98347Y471500D01*
X-105905Y472630D02*
X-99476D01*
X-126772Y492846D02*
X-126614Y493004D01*
X-126772Y482768D02*
Y492846D01*
X-119685Y482768D02*
X-117224Y480307D01*
X-105905D01*
X-166347Y467500D02*
X-164858Y468988D01*
X-167323Y466524D02*
X-166347Y467500D01*
X-158661Y468988D02*
X-155020Y472630D01*
X5693Y465500D02*
X7480Y463713D01*
X-79134Y459835D02*
X-9681D01*
X-11417Y477256D02*
Y494579D01*
X-4331Y477256D02*
X3937D01*
X7480Y473713D01*
X-4331Y485917D02*
X5276D01*
X7480Y483713D01*
X-4331Y494579D02*
X-3465Y493713D01*
X7480D01*
X-34347Y467500D02*
X-28346Y473500D01*
X-42347Y467500D02*
X-34347D01*
X-47476Y472630D02*
X-42347Y467500D01*
X-79134Y472630D02*
X-47476D01*
X-38035Y475189D02*
X-36347Y473500D01*
X-79134Y475189D02*
X-38035D01*
X-164858Y468988D02*
X-158661D01*
X-149528Y449342D02*
X-143465D01*
X-153150Y452965D02*
X-149528Y449342D01*
X-162598Y456705D02*
X-148228D01*
X-144685Y460248D01*
Y467335D02*
Y472630D01*
X-155020D02*
X-144685D01*
X-105905D01*
X-158661Y468988D02*
X-153150Y463476D01*
Y460445D02*
Y463476D01*
X-172047Y460445D02*
X-162598D01*
X-172126Y460366D02*
X-172047Y460445D01*
X-171575Y452965D02*
X-162598D01*
X-172126Y453516D02*
X-171575Y452965D01*
X-162284Y445169D02*
Y452650D01*
X-162598Y452965D02*
X-162284Y452650D01*
X-94606Y494579D02*
X-94291Y494894D01*
Y495051D01*
X-111870Y485425D02*
X-105905D01*
X-113898Y487453D02*
X-111870Y485425D01*
X-66339Y488083D02*
X-66240Y487984D01*
X-157559Y438216D02*
Y438319D01*
X-192253Y431184D02*
X-189488Y433949D01*
X-181102D01*
X-79134Y487984D02*
X-66240D01*
X-146614Y490169D02*
Y493004D01*
X-138814Y486424D02*
X-135379Y482989D01*
X-131634Y475189D02*
X-105905D01*
X-129547Y477748D02*
X-105905D01*
X-131614Y479815D02*
X-129547Y477748D01*
X-131614Y479815D02*
Y484461D01*
X-136614Y489461D02*
X-131614Y484461D01*
X-136614Y489461D02*
Y493004D01*
X-142869Y486424D02*
X-138814D01*
X-146614Y490169D02*
X-142869Y486424D01*
X-135379Y478934D02*
Y482989D01*
Y478934D02*
X-131634Y475189D01*
X-194921Y498398D02*
X-103150D01*
X-99213Y494461D01*
X-97559Y430130D02*
Y440012D01*
X-93110Y444461D01*
X-65787D01*
X-135945Y427925D02*
X-99764D01*
X-97559Y430130D01*
X-157559Y438319D02*
X-146339D01*
X-135945Y427925D01*
X-207716Y485602D02*
X-194921Y498398D01*
X-207716Y440563D02*
Y485602D01*
X-214646Y433634D02*
X-207716Y440563D01*
X-220158Y433634D02*
X-214646D01*
X-220472Y433949D02*
X-220158Y433634D01*
X-250512Y435327D02*
Y490878D01*
X-251220Y434618D02*
X-250512Y435327D01*
X-259173Y434618D02*
X-251220D01*
X-259842Y433949D02*
X-259173Y434618D01*
X-287283Y471823D02*
X-287205Y471902D01*
X-292008Y433437D02*
X-287205Y438240D01*
X-298701Y433437D02*
X-292008D01*
X-299213Y433949D02*
X-298701Y433437D01*
X-287205Y438240D02*
Y471902D01*
X-192953Y467374D02*
X-188992Y463413D01*
X-181102D01*
X-192953Y440051D02*
Y467374D01*
X-207087Y425917D02*
X-192953Y440051D01*
X-307976Y463413D02*
X-299213D01*
X-265968D02*
X-259842D01*
X-268701Y460681D02*
X-265968Y463413D01*
X-268701Y425917D02*
Y460681D01*
Y425917D02*
X-227520D01*
X-207087D01*
X-310157Y461232D02*
X-307976Y463413D01*
X-310157Y432728D02*
Y461232D01*
Y432728D02*
X-303346Y425917D01*
X-268701D01*
X-99476Y472630D02*
X-96535Y475571D01*
X-105905Y487984D02*
X-100335D01*
X-94606Y493713D01*
Y494579D01*
X-105905Y490543D02*
X-101011D01*
X-99213Y492341D01*
Y494461D01*
X-105905Y482866D02*
X-99764Y482807D01*
X-96535Y481311D02*
X-94803Y483043D01*
X-96535Y475571D02*
Y481311D01*
X-94803Y483043D02*
Y486154D01*
X-90413Y490543D01*
X-79134D01*
X-99764Y482807D02*
X-97091Y485480D01*
Y487101D01*
X-89140Y495051D01*
X-87441D01*
X-85000Y497492D01*
X-84409D01*
X-228583Y426980D02*
X-227520Y425917D01*
X-228583Y426980D02*
Y461508D01*
X-226677Y463413D01*
X-220472D01*
D18*
X-161846Y487772D02*
X-156614Y493004D01*
X-161846Y481000D02*
Y487772D01*
X-62992Y431854D02*
Y437492D01*
X-70346Y424500D02*
X-62992Y431854D01*
X-137346Y424500D02*
X-70346D01*
X-146346Y433500D02*
X-137346Y424500D01*
X-168347Y433500D02*
X-146346D01*
X-172126Y437280D02*
X-168347Y433500D01*
X-172126Y470720D02*
X-161846Y481000D01*
X-172126Y460366D02*
Y470720D01*
Y453516D02*
Y460366D01*
Y437280D02*
Y453516D01*
D19*
X-181102Y441036D02*
Y450815D01*
Y441036D02*
X-181102Y441035D01*
X-220472Y441036D02*
Y450815D01*
Y441036D02*
X-220472Y441035D01*
X-259842Y441036D02*
Y450815D01*
Y441036D02*
X-259842Y441035D01*
X-299213Y441036D02*
Y450815D01*
Y441036D02*
X-299213Y441035D01*
X-187126Y476955D02*
Y470957D01*
X-183127D01*
X-181128Y475955D02*
X-180128Y476955D01*
X-178129D01*
X-177129Y475955D01*
Y471956D01*
X-178129Y470957D01*
X-180128D01*
X-181128Y471956D01*
Y475955D01*
X-224095Y477388D02*
Y471390D01*
X-220096D01*
X-218096D02*
X-216097D01*
X-217097D01*
Y477388D01*
X-218096Y476388D01*
X-264567Y477388D02*
Y471390D01*
X-260568D01*
X-254570D02*
X-258569D01*
X-254570Y475388D01*
Y476388D01*
X-255570Y477388D01*
X-257569D01*
X-258569Y476388D01*
X-303937Y478490D02*
Y472492D01*
X-299938D01*
X-297939Y477491D02*
X-296939Y478490D01*
X-294940D01*
X-293940Y477491D01*
Y476491D01*
X-294940Y475491D01*
X-295940D01*
X-294940D01*
X-293940Y474492D01*
Y473492D01*
X-294940Y472492D01*
X-296939D01*
X-297939Y473492D01*
D20*
X-173228Y484736D02*
D03*
X0Y429618D02*
D03*
X-322008Y446232D02*
D03*
X34291D02*
D03*
D21*
X-131024Y450091D02*
D03*
X-121024D02*
D03*
X-141732Y479106D02*
D03*
X-150354Y422138D02*
D03*
X-170354D02*
D03*
X-180354D02*
D03*
X-146614Y493004D02*
D03*
X-136614D02*
D03*
X-126614D02*
D03*
X7480Y483713D02*
D03*
Y473713D02*
D03*
Y463713D02*
D03*
Y453713D02*
D03*
Y443713D02*
D03*
D22*
X-111024Y450091D02*
D03*
X-151732Y479106D02*
D03*
X-156614Y493004D02*
D03*
D23*
X7480Y493713D02*
D03*
D24*
X-35433Y435130D02*
D03*
X-62992D02*
D03*
X-90551D02*
D03*
X-104331D02*
D03*
X-49213D02*
D03*
X-118110D02*
D03*
X-76772D02*
D03*
X-131890D02*
D03*
D25*
X-21654D02*
D03*
D26*
X-299213Y457114D02*
D03*
X-259842D02*
D03*
X-220472D02*
D03*
X-181102D02*
D03*
D27*
X-70346Y481500D02*
D03*
X-91847Y471500D02*
D03*
Y479000D02*
D03*
X-70846Y494437D02*
D03*
X-19346Y473500D02*
D03*
X-90847Y462000D02*
D03*
X-89677Y485500D02*
D03*
X-135346Y464500D02*
D03*
X-117638Y492531D02*
D03*
X-1347Y470500D02*
D03*
X-9681Y459835D02*
D03*
X-28346Y473500D02*
D03*
X-36347D02*
D03*
X-166347Y467500D02*
D03*
X-94685Y495760D02*
D03*
X-113898Y487453D02*
D03*
X-66339Y488083D02*
D03*
X-65787Y444461D02*
D03*
X-157559Y438216D02*
D03*
X-192253Y431184D02*
D03*
X-250512Y490878D02*
D03*
X-287283Y471823D02*
D03*
X-192953Y467374D02*
D03*
X-84409Y497492D02*
D03*
M02*
