G04 #@! TF.FileFunction,Legend,Top*
%FSLAX46Y46*%
G04 Gerber Fmt 4.6, Leading zero omitted, Abs format (unit mm)*
G04 Created by KiCad (PCBNEW (2015-08-28 BZR 6132, Git 156d5f5)-product) date 9/27/2015 8:45:32 PM*
%MOMM*%
G01*
G04 APERTURE LIST*
%ADD10C,0.100000*%
%ADD11C,0.300000*%
%ADD12C,0.200000*%
%ADD13C,0.150000*%
%ADD14C,0.040640*%
G04 APERTURE END LIST*
D10*
D11*
X143270161Y-112560491D02*
X142555875Y-112560491D01*
X142555875Y-111060491D01*
X144413018Y-111560491D02*
X144413018Y-112560491D01*
X144055875Y-110989063D02*
X143698732Y-112060491D01*
X144627304Y-112060491D01*
X151520081Y-112418251D02*
X150805795Y-112418251D01*
X150805795Y-110918251D01*
X151877224Y-110918251D02*
X152805795Y-110918251D01*
X152305795Y-111489680D01*
X152520081Y-111489680D01*
X152662938Y-111561109D01*
X152734367Y-111632537D01*
X152805795Y-111775394D01*
X152805795Y-112132537D01*
X152734367Y-112275394D01*
X152662938Y-112346823D01*
X152520081Y-112418251D01*
X152091509Y-112418251D01*
X151948652Y-112346823D01*
X151877224Y-112275394D01*
X151520081Y-104818571D02*
X150805795Y-104818571D01*
X150805795Y-103318571D01*
X151948652Y-103461429D02*
X152020081Y-103390000D01*
X152162938Y-103318571D01*
X152520081Y-103318571D01*
X152662938Y-103390000D01*
X152734367Y-103461429D01*
X152805795Y-103604286D01*
X152805795Y-103747143D01*
X152734367Y-103961429D01*
X151877224Y-104818571D01*
X152805795Y-104818571D01*
X143331121Y-104696651D02*
X142616835Y-104696651D01*
X142616835Y-103196651D01*
X144616835Y-104696651D02*
X143759692Y-104696651D01*
X144188264Y-104696651D02*
X144188264Y-103196651D01*
X144045407Y-103410937D01*
X143902549Y-103553794D01*
X143759692Y-103625223D01*
D12*
X154274520Y-113370360D02*
X153436320Y-114208560D01*
X146042380Y-113436400D02*
X145260060Y-114218720D01*
X146042380Y-106004360D02*
X145455640Y-106591100D01*
X153390600Y-106591100D02*
X154284680Y-105697020D01*
D13*
X146043020Y-101604440D02*
X141043020Y-101604440D01*
X141043020Y-101604440D02*
X141043020Y-106604440D01*
X141043020Y-106604440D02*
X146043020Y-106604440D01*
X146043020Y-106604440D02*
X146043020Y-101604440D01*
X154298020Y-101604440D02*
X149298020Y-101604440D01*
X149298020Y-101604440D02*
X149298020Y-106604440D01*
X149298020Y-106604440D02*
X154298020Y-106604440D01*
X154298020Y-106604440D02*
X154298020Y-101604440D01*
X146043020Y-109224440D02*
X141043020Y-109224440D01*
X141043020Y-109224440D02*
X141043020Y-114224440D01*
X141043020Y-114224440D02*
X146043020Y-114224440D01*
X146043020Y-114224440D02*
X146043020Y-109224440D01*
X154298020Y-109224440D02*
X149298020Y-109224440D01*
X149298020Y-109224440D02*
X149298020Y-114224440D01*
X149298020Y-114224440D02*
X154298020Y-114224440D01*
X154298020Y-114224440D02*
X154298020Y-109224440D01*
X136880000Y-102870000D02*
X136880000Y-101320000D01*
X136880000Y-101320000D02*
X139980000Y-101320000D01*
X139980000Y-101320000D02*
X139980000Y-102870000D01*
X139700000Y-104140000D02*
X139700000Y-114300000D01*
X139700000Y-114300000D02*
X137160000Y-114300000D01*
X137160000Y-114300000D02*
X137160000Y-104140000D01*
X139700000Y-104140000D02*
X137160000Y-104140000D01*
X155930000Y-102870000D02*
X155930000Y-101320000D01*
X155930000Y-101320000D02*
X159030000Y-101320000D01*
X159030000Y-101320000D02*
X159030000Y-102870000D01*
X158750000Y-104140000D02*
X158750000Y-114300000D01*
X158750000Y-114300000D02*
X156210000Y-114300000D01*
X156210000Y-114300000D02*
X156210000Y-104140000D01*
X158750000Y-104140000D02*
X156210000Y-104140000D01*
D14*
X140745452Y-103913275D02*
X140649899Y-103913275D01*
X140649899Y-103712615D01*
X140812338Y-103808167D02*
X140879225Y-103808167D01*
X140907891Y-103913275D02*
X140812338Y-103913275D01*
X140812338Y-103712615D01*
X140907891Y-103712615D01*
X140993888Y-103913275D02*
X140993888Y-103712615D01*
X141041664Y-103712615D01*
X141070330Y-103722170D01*
X141089441Y-103741280D01*
X141098996Y-103760391D01*
X141108551Y-103798612D01*
X141108551Y-103827278D01*
X141098996Y-103865499D01*
X141089441Y-103884609D01*
X141070330Y-103903720D01*
X141041664Y-103913275D01*
X140993888Y-103913275D01*
X141299656Y-103913275D02*
X141184993Y-103913275D01*
X141242324Y-103913275D02*
X141242324Y-103712615D01*
X141223214Y-103741280D01*
X141204103Y-103760391D01*
X141184993Y-103769946D01*
X149000452Y-103913275D02*
X148904899Y-103913275D01*
X148904899Y-103712615D01*
X149067338Y-103808167D02*
X149134225Y-103808167D01*
X149162891Y-103913275D02*
X149067338Y-103913275D01*
X149067338Y-103712615D01*
X149162891Y-103712615D01*
X149248888Y-103913275D02*
X149248888Y-103712615D01*
X149296664Y-103712615D01*
X149325330Y-103722170D01*
X149344441Y-103741280D01*
X149353996Y-103760391D01*
X149363551Y-103798612D01*
X149363551Y-103827278D01*
X149353996Y-103865499D01*
X149344441Y-103884609D01*
X149325330Y-103903720D01*
X149296664Y-103913275D01*
X149248888Y-103913275D01*
X149439993Y-103731725D02*
X149449548Y-103722170D01*
X149468659Y-103712615D01*
X149516435Y-103712615D01*
X149535545Y-103722170D01*
X149545101Y-103731725D01*
X149554656Y-103750836D01*
X149554656Y-103769946D01*
X149545101Y-103798612D01*
X149430438Y-103913275D01*
X149554656Y-103913275D01*
X140745452Y-111533275D02*
X140649899Y-111533275D01*
X140649899Y-111332615D01*
X140812338Y-111428167D02*
X140879225Y-111428167D01*
X140907891Y-111533275D02*
X140812338Y-111533275D01*
X140812338Y-111332615D01*
X140907891Y-111332615D01*
X140993888Y-111533275D02*
X140993888Y-111332615D01*
X141041664Y-111332615D01*
X141070330Y-111342170D01*
X141089441Y-111361280D01*
X141098996Y-111380391D01*
X141108551Y-111418612D01*
X141108551Y-111447278D01*
X141098996Y-111485499D01*
X141089441Y-111504609D01*
X141070330Y-111523720D01*
X141041664Y-111533275D01*
X140993888Y-111533275D01*
X141175438Y-111332615D02*
X141299656Y-111332615D01*
X141232769Y-111409057D01*
X141261435Y-111409057D01*
X141280545Y-111418612D01*
X141290101Y-111428167D01*
X141299656Y-111447278D01*
X141299656Y-111495054D01*
X141290101Y-111514164D01*
X141280545Y-111523720D01*
X141261435Y-111533275D01*
X141204103Y-111533275D01*
X141184993Y-111523720D01*
X141175438Y-111514164D01*
X149000452Y-111533275D02*
X148904899Y-111533275D01*
X148904899Y-111332615D01*
X149067338Y-111428167D02*
X149134225Y-111428167D01*
X149162891Y-111533275D02*
X149067338Y-111533275D01*
X149067338Y-111332615D01*
X149162891Y-111332615D01*
X149248888Y-111533275D02*
X149248888Y-111332615D01*
X149296664Y-111332615D01*
X149325330Y-111342170D01*
X149344441Y-111361280D01*
X149353996Y-111380391D01*
X149363551Y-111418612D01*
X149363551Y-111447278D01*
X149353996Y-111485499D01*
X149344441Y-111504609D01*
X149325330Y-111523720D01*
X149296664Y-111533275D01*
X149248888Y-111533275D01*
X149535545Y-111399501D02*
X149535545Y-111533275D01*
X149487769Y-111323060D02*
X149439993Y-111466388D01*
X149564211Y-111466388D01*
D13*
M02*
