G04 (created by PCBNEW (2013-05-18 BZR 4017)-stable) date Fri 27 Dec 2013 00:57:14 CST*
%MOIN*%
G04 Gerber Fmt 3.4, Leading zero omitted, Abs format*
%FSLAX34Y34*%
G01*
G70*
G90*
G04 APERTURE LIST*
%ADD10C,0.00590551*%
%ADD11R,0.055X0.055*%
%ADD12C,0.055*%
%ADD13O,0.0393701X0.0590551*%
%ADD14R,0.015748X0.0200787*%
%ADD15R,0.0315X0.0394*%
%ADD16R,0.019685X0.0393701*%
%ADD17C,0.0393701*%
%ADD18R,0.0700787X0.0216535*%
%ADD19R,0.0901575X0.1*%
%ADD20R,0.069X0.069*%
%ADD21C,0.069*%
%ADD22R,0.056X0.056*%
%ADD23C,0.056*%
%ADD24R,0.062X0.09*%
%ADD25O,0.062X0.09*%
%ADD26O,0.09X0.062*%
%ADD27R,0.09X0.062*%
%ADD28R,0.0511811X0.0748031*%
%ADD29O,0.0590551X0.0393701*%
%ADD30R,0.059X0.0512*%
%ADD31C,0.16*%
%ADD32C,0.035*%
%ADD33C,0.04*%
%ADD34C,0.014*%
%ADD35C,0.02*%
%ADD36C,0.01*%
%ADD37C,0.018*%
G04 APERTURE END LIST*
G54D10*
G54D11*
X57800Y-42300D03*
G54D12*
X56800Y-42300D03*
X56800Y-43300D03*
G54D13*
X55212Y-37500D03*
X56000Y-37500D03*
X56787Y-37500D03*
G54D14*
X60096Y-46255D03*
X59703Y-46255D03*
X59900Y-45744D03*
G54D15*
X50500Y-30667D03*
X50875Y-31533D03*
X50125Y-31533D03*
G54D16*
X60047Y-46900D03*
X59752Y-46900D03*
G54D12*
X60300Y-37400D03*
X60300Y-34400D03*
X56300Y-31400D03*
X53300Y-31400D03*
X53400Y-30100D03*
X56400Y-30100D03*
X58300Y-34400D03*
X58300Y-37400D03*
X61300Y-34400D03*
X61300Y-37400D03*
X66000Y-30400D03*
X66000Y-33400D03*
X59300Y-37400D03*
X59300Y-34400D03*
X58500Y-40700D03*
X55500Y-40700D03*
X64400Y-30300D03*
X64400Y-33300D03*
X62700Y-33300D03*
X62700Y-30300D03*
X40400Y-41200D03*
X43400Y-41200D03*
X43300Y-42300D03*
X43300Y-45300D03*
X58700Y-46800D03*
X58700Y-43800D03*
X53300Y-32400D03*
X56300Y-32400D03*
X49900Y-42100D03*
X46900Y-42100D03*
X47600Y-38300D03*
X44600Y-38300D03*
X46900Y-33200D03*
X43900Y-33200D03*
X47700Y-34000D03*
X47700Y-37000D03*
X48000Y-33100D03*
X51000Y-33100D03*
G54D17*
X40760Y-38839D02*
X40621Y-38978D01*
X42178Y-38978D02*
X42039Y-38839D01*
X42178Y-37421D02*
X42039Y-37560D01*
G54D18*
X55600Y-38700D03*
X55600Y-39200D03*
X55600Y-39700D03*
G54D19*
X59901Y-39200D03*
G54D20*
X49300Y-34300D03*
G54D21*
X49300Y-35300D03*
X49300Y-36300D03*
X49300Y-37300D03*
X49300Y-38300D03*
G54D20*
X44600Y-40600D03*
G54D21*
X44600Y-39600D03*
G54D20*
X45700Y-42100D03*
G54D21*
X44700Y-42100D03*
G54D20*
X46700Y-31800D03*
G54D21*
X46700Y-30800D03*
G54D22*
X42100Y-42300D03*
G54D23*
X42100Y-45300D03*
G54D22*
X44400Y-44000D03*
G54D23*
X44400Y-47000D03*
G54D24*
X58500Y-33300D03*
G54D25*
X59500Y-33300D03*
X60500Y-33300D03*
X61500Y-33300D03*
X61500Y-30300D03*
X60500Y-30300D03*
X59500Y-30300D03*
X58500Y-30300D03*
G54D26*
X51050Y-35100D03*
X51050Y-36100D03*
X51050Y-37100D03*
X51050Y-38100D03*
X51050Y-39100D03*
X51050Y-40100D03*
X51050Y-41100D03*
X51050Y-42100D03*
X51050Y-43100D03*
X51050Y-44100D03*
X51050Y-45100D03*
X51050Y-46100D03*
X51050Y-47100D03*
G54D27*
X51050Y-34100D03*
G54D26*
X54050Y-47100D03*
X54050Y-46100D03*
X54050Y-45100D03*
X54050Y-44100D03*
X54050Y-43100D03*
X54050Y-42100D03*
X54050Y-41100D03*
X54050Y-40100D03*
X54050Y-39100D03*
X54050Y-38100D03*
X54050Y-37100D03*
X54050Y-36100D03*
X54050Y-35100D03*
X54050Y-34100D03*
G54D28*
X48082Y-45229D03*
X45917Y-45229D03*
X48082Y-43970D03*
X45917Y-43970D03*
G54D29*
X63500Y-38400D03*
X63500Y-39400D03*
X44000Y-35869D03*
X44000Y-34530D03*
X46100Y-35869D03*
X46100Y-34530D03*
G54D30*
X59800Y-43625D03*
X59800Y-44375D03*
X49000Y-31575D03*
X49000Y-30825D03*
X52000Y-31475D03*
X52000Y-30725D03*
X49700Y-43225D03*
X49700Y-43975D03*
X49700Y-45875D03*
X49700Y-45125D03*
G54D31*
X40600Y-46700D03*
X56600Y-46200D03*
X41400Y-31800D03*
X64300Y-35300D03*
G54D29*
X40300Y-44603D03*
X40300Y-42596D03*
G54D11*
X44500Y-31800D03*
G54D12*
X44500Y-30800D03*
G54D11*
X40900Y-34700D03*
G54D12*
X41900Y-34700D03*
G54D32*
X52000Y-32300D03*
X59400Y-42600D03*
X56500Y-39700D03*
X63800Y-31200D03*
X57700Y-33400D03*
X60600Y-36000D03*
X48200Y-35700D03*
X52100Y-34500D03*
X54300Y-33100D03*
X52100Y-42600D03*
X52200Y-44400D03*
X59500Y-45700D03*
X61700Y-46900D03*
X61400Y-43500D03*
X59900Y-42100D03*
X65900Y-46600D03*
X65900Y-42400D03*
X61900Y-36800D03*
G54D33*
X52000Y-31475D02*
X52000Y-32300D01*
X50875Y-31533D02*
X51942Y-31533D01*
X51942Y-31533D02*
X52000Y-31475D01*
G54D34*
X59800Y-43625D02*
X59800Y-43000D01*
X59800Y-43000D02*
X59400Y-42600D01*
X55600Y-39700D02*
X56500Y-39700D01*
G54D33*
X49000Y-31575D02*
X50083Y-31575D01*
X50083Y-31575D02*
X50125Y-31533D01*
X46700Y-31800D02*
X48775Y-31800D01*
X48775Y-31800D02*
X49000Y-31575D01*
G54D35*
X50083Y-31575D02*
X50125Y-31533D01*
X48775Y-31800D02*
X49000Y-31575D01*
G54D36*
X44500Y-31800D02*
X46700Y-31800D01*
G54D34*
X54050Y-37100D02*
X54100Y-37100D01*
X56300Y-34900D02*
X56300Y-32400D01*
X54100Y-37100D02*
X56300Y-34900D01*
G54D36*
X54050Y-40100D02*
X53700Y-40100D01*
X48500Y-34800D02*
X47700Y-34000D01*
X49900Y-34800D02*
X48500Y-34800D01*
X50100Y-34600D02*
X49900Y-34800D01*
X51500Y-34600D02*
X50100Y-34600D01*
X51900Y-35000D02*
X51500Y-34600D01*
X51900Y-38300D02*
X51900Y-35000D01*
X53700Y-40100D02*
X51900Y-38300D01*
X56000Y-37500D02*
X56000Y-37900D01*
X53200Y-39250D02*
X54050Y-40100D01*
X53200Y-37700D02*
X53200Y-39250D01*
X53300Y-37600D02*
X53200Y-37700D01*
X54500Y-37600D02*
X53300Y-37600D01*
X54900Y-38000D02*
X54500Y-37600D01*
X55900Y-38000D02*
X54900Y-38000D01*
X56000Y-37900D02*
X55900Y-38000D01*
X46900Y-33200D02*
X47700Y-34000D01*
X55600Y-39200D02*
X54150Y-39200D01*
X54150Y-39200D02*
X54050Y-39100D01*
X44600Y-38300D02*
X44600Y-39600D01*
X49300Y-38300D02*
X48300Y-38300D01*
X45100Y-38800D02*
X44600Y-38300D01*
X47800Y-38800D02*
X45100Y-38800D01*
X48300Y-38300D02*
X47800Y-38800D01*
X51050Y-38100D02*
X49500Y-38100D01*
X49500Y-38100D02*
X49300Y-38300D01*
X49300Y-37300D02*
X48600Y-37300D01*
X48600Y-37300D02*
X47600Y-38300D01*
X51050Y-37100D02*
X49500Y-37100D01*
X49500Y-37100D02*
X49300Y-37300D01*
X51050Y-34100D02*
X49500Y-34100D01*
X49500Y-34100D02*
X49300Y-34300D01*
X51050Y-34100D02*
X51050Y-33150D01*
X51050Y-33150D02*
X51000Y-33100D01*
X56787Y-37500D02*
X56787Y-37712D01*
X56400Y-38300D02*
X54050Y-38300D01*
X56787Y-37712D02*
X56400Y-38300D01*
X51050Y-42100D02*
X49900Y-42100D01*
X47700Y-37000D02*
X47230Y-37000D01*
X47230Y-37000D02*
X46100Y-35869D01*
X51050Y-35100D02*
X50600Y-35100D01*
X48900Y-35800D02*
X47700Y-37000D01*
X49900Y-35800D02*
X48900Y-35800D01*
X50600Y-35100D02*
X49900Y-35800D01*
X43900Y-33200D02*
X43900Y-33400D01*
X43400Y-35269D02*
X44000Y-35869D01*
X43400Y-33900D02*
X43400Y-35269D01*
X43900Y-33400D02*
X43400Y-33900D01*
X51050Y-36100D02*
X50600Y-36100D01*
X45730Y-37600D02*
X44000Y-35869D01*
X47800Y-37600D02*
X45730Y-37600D01*
X48600Y-36800D02*
X47800Y-37600D01*
X49900Y-36800D02*
X48600Y-36800D01*
X50600Y-36100D02*
X49900Y-36800D01*
X59500Y-30300D02*
X59500Y-30500D01*
X53800Y-30900D02*
X53300Y-31400D01*
X56600Y-30900D02*
X53800Y-30900D01*
X56700Y-31000D02*
X56600Y-30900D01*
X59000Y-31000D02*
X56700Y-31000D01*
X59500Y-30500D02*
X59000Y-31000D01*
X54050Y-36100D02*
X54300Y-36100D01*
X54900Y-33000D02*
X53300Y-31400D01*
X54900Y-35500D02*
X54900Y-33000D01*
X54300Y-36100D02*
X54900Y-35500D01*
X51050Y-39100D02*
X46300Y-39100D01*
X43300Y-40100D02*
X42108Y-38908D01*
X45300Y-40100D02*
X43300Y-40100D01*
X46300Y-39100D02*
X45300Y-40100D01*
X55500Y-40700D02*
X54450Y-40700D01*
X54450Y-40700D02*
X54050Y-41100D01*
X56800Y-42300D02*
X56300Y-41700D01*
X56300Y-41700D02*
X55500Y-40700D01*
X59703Y-46255D02*
X59555Y-46255D01*
X58700Y-45400D02*
X58700Y-43800D01*
X59555Y-46255D02*
X58700Y-45400D01*
X51050Y-43100D02*
X52000Y-43100D01*
X55700Y-43800D02*
X58700Y-43800D01*
X55500Y-43600D02*
X55700Y-43800D01*
X52500Y-43600D02*
X55500Y-43600D01*
X52000Y-43100D02*
X52500Y-43600D01*
X51050Y-40100D02*
X47000Y-40100D01*
X43500Y-41300D02*
X43400Y-41200D01*
X45800Y-41300D02*
X43500Y-41300D01*
X47000Y-40100D02*
X45800Y-41300D01*
X43300Y-42300D02*
X43300Y-41300D01*
X43300Y-41300D02*
X43400Y-41200D01*
X44400Y-44000D02*
X44400Y-43400D01*
X44400Y-43400D02*
X43300Y-42300D01*
G54D34*
X48200Y-35700D02*
X48200Y-35600D01*
G54D33*
X52200Y-44400D02*
X52300Y-44400D01*
G54D34*
X59752Y-46900D02*
X58800Y-46900D01*
X58800Y-46900D02*
X58700Y-46800D01*
X59900Y-45744D02*
X59544Y-45744D01*
X59544Y-45744D02*
X59500Y-45700D01*
X60047Y-46900D02*
X60047Y-46305D01*
X60047Y-46305D02*
X60096Y-46255D01*
G54D33*
X61700Y-46900D02*
X61800Y-46800D01*
G54D36*
X60500Y-30300D02*
X60500Y-30500D01*
X59600Y-31400D02*
X56300Y-31400D01*
X60500Y-30500D02*
X59600Y-31400D01*
X60500Y-30300D02*
X60500Y-30200D01*
X57500Y-30100D02*
X56400Y-30100D01*
X57945Y-29655D02*
X57500Y-30100D01*
X59955Y-29655D02*
X57945Y-29655D01*
X60500Y-30200D02*
X59955Y-29655D01*
G54D34*
X63500Y-38400D02*
X65900Y-36000D01*
X65900Y-33500D02*
X66000Y-33400D01*
X65900Y-36000D02*
X65900Y-33500D01*
X63500Y-38400D02*
X63500Y-38300D01*
X62000Y-36800D02*
X61900Y-36800D01*
X63500Y-38300D02*
X62000Y-36800D01*
G54D36*
X49700Y-45125D02*
X48187Y-45125D01*
X48187Y-45125D02*
X48082Y-45229D01*
X51050Y-45100D02*
X49725Y-45100D01*
X49725Y-45100D02*
X49700Y-45125D01*
X46900Y-42100D02*
X45700Y-42100D01*
X40300Y-42596D02*
X41803Y-42596D01*
X41803Y-42596D02*
X42100Y-42300D01*
X40400Y-41200D02*
X40400Y-42496D01*
X40400Y-42496D02*
X40300Y-42596D01*
X49700Y-43975D02*
X48087Y-43975D01*
X48087Y-43975D02*
X48082Y-43970D01*
X51050Y-44100D02*
X49825Y-44100D01*
X49825Y-44100D02*
X49700Y-43975D01*
G54D10*
G36*
X66610Y-47910D02*
X59190Y-47910D01*
X59190Y-47240D01*
X59420Y-47240D01*
X59424Y-47249D01*
X59500Y-47325D01*
X59599Y-47366D01*
X59707Y-47366D01*
X59843Y-47366D01*
X59891Y-47386D01*
X59965Y-47386D01*
X60037Y-47314D01*
X60037Y-47291D01*
X60057Y-47271D01*
X60057Y-47314D01*
X60130Y-47386D01*
X60203Y-47386D01*
X60310Y-47342D01*
X60391Y-47261D01*
X60436Y-47154D01*
X60436Y-47039D01*
X60436Y-46982D01*
X60363Y-46910D01*
X60120Y-46910D01*
X60120Y-46890D01*
X60363Y-46890D01*
X60436Y-46817D01*
X60436Y-46760D01*
X60436Y-46645D01*
X60395Y-46546D01*
X60421Y-46520D01*
X60465Y-46414D01*
X60465Y-46298D01*
X60465Y-46338D01*
X60393Y-46265D01*
X60106Y-46265D01*
X60106Y-46273D01*
X60086Y-46273D01*
X60086Y-46265D01*
X60078Y-46265D01*
X60078Y-46245D01*
X60086Y-46245D01*
X60086Y-46238D01*
X60106Y-46238D01*
X60106Y-46245D01*
X60393Y-46245D01*
X60465Y-46173D01*
X60465Y-46212D01*
X60465Y-46097D01*
X60421Y-45991D01*
X60385Y-45954D01*
X60385Y-44688D01*
X60385Y-44457D01*
X60312Y-44385D01*
X59810Y-44385D01*
X59810Y-44848D01*
X59882Y-44921D01*
X60037Y-44921D01*
X60152Y-44920D01*
X60259Y-44876D01*
X60340Y-44795D01*
X60385Y-44688D01*
X60385Y-45954D01*
X60339Y-45909D01*
X60248Y-45871D01*
X60248Y-45791D01*
X60248Y-45590D01*
X60207Y-45490D01*
X60131Y-45414D01*
X60032Y-45373D01*
X59925Y-45373D01*
X59803Y-45373D01*
X59790Y-45360D01*
X59790Y-44848D01*
X59790Y-44385D01*
X59287Y-44385D01*
X59215Y-44457D01*
X59214Y-44688D01*
X59259Y-44795D01*
X59340Y-44876D01*
X59447Y-44920D01*
X59562Y-44921D01*
X59717Y-44921D01*
X59790Y-44848D01*
X59790Y-45360D01*
X59752Y-45322D01*
X59588Y-45255D01*
X59411Y-45254D01*
X59248Y-45322D01*
X59190Y-45380D01*
X59190Y-44041D01*
X59234Y-43932D01*
X59234Y-43934D01*
X59251Y-43973D01*
X59214Y-44061D01*
X59215Y-44292D01*
X59287Y-44365D01*
X59790Y-44365D01*
X59790Y-44357D01*
X59810Y-44357D01*
X59810Y-44365D01*
X60312Y-44365D01*
X60385Y-44292D01*
X60385Y-44061D01*
X60348Y-43973D01*
X60364Y-43934D01*
X60365Y-43827D01*
X60365Y-43315D01*
X60324Y-43216D01*
X60248Y-43140D01*
X60148Y-43099D01*
X60140Y-43099D01*
X60140Y-43000D01*
X60139Y-42999D01*
X60114Y-42869D01*
X60114Y-42869D01*
X60089Y-42833D01*
X60040Y-42759D01*
X60040Y-42759D01*
X59845Y-42564D01*
X59845Y-42511D01*
X59777Y-42348D01*
X59652Y-42222D01*
X59488Y-42155D01*
X59311Y-42154D01*
X59190Y-42205D01*
X59190Y-41390D01*
X66610Y-41390D01*
X66610Y-47910D01*
X66610Y-47910D01*
G37*
G54D37*
X66610Y-47910D02*
X59190Y-47910D01*
X59190Y-47240D01*
X59420Y-47240D01*
X59424Y-47249D01*
X59500Y-47325D01*
X59599Y-47366D01*
X59707Y-47366D01*
X59843Y-47366D01*
X59891Y-47386D01*
X59965Y-47386D01*
X60037Y-47314D01*
X60037Y-47291D01*
X60057Y-47271D01*
X60057Y-47314D01*
X60130Y-47386D01*
X60203Y-47386D01*
X60310Y-47342D01*
X60391Y-47261D01*
X60436Y-47154D01*
X60436Y-47039D01*
X60436Y-46982D01*
X60363Y-46910D01*
X60120Y-46910D01*
X60120Y-46890D01*
X60363Y-46890D01*
X60436Y-46817D01*
X60436Y-46760D01*
X60436Y-46645D01*
X60395Y-46546D01*
X60421Y-46520D01*
X60465Y-46414D01*
X60465Y-46298D01*
X60465Y-46338D01*
X60393Y-46265D01*
X60106Y-46265D01*
X60106Y-46273D01*
X60086Y-46273D01*
X60086Y-46265D01*
X60078Y-46265D01*
X60078Y-46245D01*
X60086Y-46245D01*
X60086Y-46238D01*
X60106Y-46238D01*
X60106Y-46245D01*
X60393Y-46245D01*
X60465Y-46173D01*
X60465Y-46212D01*
X60465Y-46097D01*
X60421Y-45991D01*
X60385Y-45954D01*
X60385Y-44688D01*
X60385Y-44457D01*
X60312Y-44385D01*
X59810Y-44385D01*
X59810Y-44848D01*
X59882Y-44921D01*
X60037Y-44921D01*
X60152Y-44920D01*
X60259Y-44876D01*
X60340Y-44795D01*
X60385Y-44688D01*
X60385Y-45954D01*
X60339Y-45909D01*
X60248Y-45871D01*
X60248Y-45791D01*
X60248Y-45590D01*
X60207Y-45490D01*
X60131Y-45414D01*
X60032Y-45373D01*
X59925Y-45373D01*
X59803Y-45373D01*
X59790Y-45360D01*
X59790Y-44848D01*
X59790Y-44385D01*
X59287Y-44385D01*
X59215Y-44457D01*
X59214Y-44688D01*
X59259Y-44795D01*
X59340Y-44876D01*
X59447Y-44920D01*
X59562Y-44921D01*
X59717Y-44921D01*
X59790Y-44848D01*
X59790Y-45360D01*
X59752Y-45322D01*
X59588Y-45255D01*
X59411Y-45254D01*
X59248Y-45322D01*
X59190Y-45380D01*
X59190Y-44041D01*
X59234Y-43932D01*
X59234Y-43934D01*
X59251Y-43973D01*
X59214Y-44061D01*
X59215Y-44292D01*
X59287Y-44365D01*
X59790Y-44365D01*
X59790Y-44357D01*
X59810Y-44357D01*
X59810Y-44365D01*
X60312Y-44365D01*
X60385Y-44292D01*
X60385Y-44061D01*
X60348Y-43973D01*
X60364Y-43934D01*
X60365Y-43827D01*
X60365Y-43315D01*
X60324Y-43216D01*
X60248Y-43140D01*
X60148Y-43099D01*
X60140Y-43099D01*
X60140Y-43000D01*
X60139Y-42999D01*
X60114Y-42869D01*
X60114Y-42869D01*
X60089Y-42833D01*
X60040Y-42759D01*
X60040Y-42759D01*
X59845Y-42564D01*
X59845Y-42511D01*
X59777Y-42348D01*
X59652Y-42222D01*
X59488Y-42155D01*
X59311Y-42154D01*
X59190Y-42205D01*
X59190Y-41390D01*
X66610Y-41390D01*
X66610Y-47910D01*
G54D10*
G36*
X66610Y-40910D02*
X66545Y-40910D01*
X66545Y-33292D01*
X66545Y-30292D01*
X66462Y-30091D01*
X66309Y-29938D01*
X66108Y-29855D01*
X65892Y-29854D01*
X65691Y-29937D01*
X65538Y-30090D01*
X65455Y-30291D01*
X65454Y-30507D01*
X65537Y-30708D01*
X65690Y-30861D01*
X65891Y-30944D01*
X66107Y-30945D01*
X66308Y-30862D01*
X66461Y-30709D01*
X66544Y-30508D01*
X66545Y-30292D01*
X66545Y-33292D01*
X66462Y-33091D01*
X66309Y-32938D01*
X66108Y-32855D01*
X65892Y-32854D01*
X65691Y-32937D01*
X65538Y-33090D01*
X65455Y-33291D01*
X65454Y-33507D01*
X65537Y-33708D01*
X65560Y-33730D01*
X65560Y-35859D01*
X65370Y-36048D01*
X65370Y-35088D01*
X65207Y-34694D01*
X64945Y-34431D01*
X64945Y-33192D01*
X64945Y-30192D01*
X64862Y-29991D01*
X64709Y-29838D01*
X64508Y-29755D01*
X64292Y-29754D01*
X64091Y-29837D01*
X63938Y-29990D01*
X63855Y-30191D01*
X63854Y-30407D01*
X63937Y-30608D01*
X64090Y-30761D01*
X64291Y-30844D01*
X64507Y-30845D01*
X64708Y-30762D01*
X64861Y-30609D01*
X64944Y-30408D01*
X64945Y-30192D01*
X64945Y-33192D01*
X64862Y-32991D01*
X64709Y-32838D01*
X64508Y-32755D01*
X64292Y-32754D01*
X64091Y-32837D01*
X63938Y-32990D01*
X63855Y-33191D01*
X63854Y-33407D01*
X63937Y-33608D01*
X64090Y-33761D01*
X64291Y-33844D01*
X64507Y-33845D01*
X64708Y-33762D01*
X64861Y-33609D01*
X64944Y-33408D01*
X64945Y-33192D01*
X64945Y-34431D01*
X64906Y-34393D01*
X64513Y-34230D01*
X64088Y-34229D01*
X63694Y-34392D01*
X63393Y-34693D01*
X63267Y-34996D01*
X63267Y-33200D01*
X63245Y-33142D01*
X63245Y-30192D01*
X63162Y-29991D01*
X63009Y-29838D01*
X62808Y-29755D01*
X62592Y-29754D01*
X62391Y-29837D01*
X62238Y-29990D01*
X62155Y-30191D01*
X62154Y-30407D01*
X62237Y-30608D01*
X62390Y-30761D01*
X62591Y-30844D01*
X62807Y-30845D01*
X63008Y-30762D01*
X63161Y-30609D01*
X63244Y-30408D01*
X63245Y-30192D01*
X63245Y-33142D01*
X63185Y-32990D01*
X63171Y-32969D01*
X63063Y-32951D01*
X63048Y-32965D01*
X63048Y-32936D01*
X63030Y-32828D01*
X62824Y-32737D01*
X62600Y-32732D01*
X62390Y-32814D01*
X62369Y-32828D01*
X62351Y-32936D01*
X62700Y-33285D01*
X63048Y-32936D01*
X63048Y-32965D01*
X62714Y-33300D01*
X63063Y-33648D01*
X63171Y-33630D01*
X63262Y-33424D01*
X63267Y-33200D01*
X63267Y-34996D01*
X63230Y-35086D01*
X63229Y-35511D01*
X63392Y-35905D01*
X63693Y-36206D01*
X64086Y-36369D01*
X64511Y-36370D01*
X64905Y-36207D01*
X65206Y-35906D01*
X65369Y-35513D01*
X65370Y-35088D01*
X65370Y-36048D01*
X63550Y-37869D01*
X63048Y-37368D01*
X63048Y-33663D01*
X62700Y-33314D01*
X62685Y-33328D01*
X62685Y-33300D01*
X62336Y-32951D01*
X62228Y-32969D01*
X62137Y-33175D01*
X62132Y-33399D01*
X62214Y-33609D01*
X62228Y-33630D01*
X62336Y-33648D01*
X62685Y-33300D01*
X62685Y-33328D01*
X62351Y-33663D01*
X62369Y-33771D01*
X62575Y-33862D01*
X62799Y-33867D01*
X63009Y-33785D01*
X63030Y-33771D01*
X63048Y-33663D01*
X63048Y-37368D01*
X62311Y-36630D01*
X62277Y-36548D01*
X62152Y-36422D01*
X62100Y-36401D01*
X62100Y-33450D01*
X62100Y-33310D01*
X62100Y-33290D01*
X62100Y-33150D01*
X62050Y-32921D01*
X61917Y-32728D01*
X61720Y-32601D01*
X61603Y-32569D01*
X61510Y-32632D01*
X61510Y-33290D01*
X62100Y-33290D01*
X62100Y-33310D01*
X61510Y-33310D01*
X61510Y-33317D01*
X61490Y-33317D01*
X61490Y-33310D01*
X61482Y-33310D01*
X61482Y-33290D01*
X61490Y-33290D01*
X61490Y-32632D01*
X61396Y-32569D01*
X61279Y-32601D01*
X61082Y-32728D01*
X60992Y-32859D01*
X60910Y-32735D01*
X60721Y-32610D01*
X60500Y-32565D01*
X60278Y-32610D01*
X60089Y-32735D01*
X60000Y-32870D01*
X59910Y-32735D01*
X59721Y-32610D01*
X59500Y-32565D01*
X59278Y-32610D01*
X59089Y-32735D01*
X59068Y-32768D01*
X59039Y-32697D01*
X58963Y-32621D01*
X58863Y-32580D01*
X58756Y-32579D01*
X58136Y-32579D01*
X58037Y-32620D01*
X57961Y-32696D01*
X57920Y-32796D01*
X57919Y-32903D01*
X57919Y-33803D01*
X57960Y-33902D01*
X57994Y-33936D01*
X57991Y-33937D01*
X57838Y-34090D01*
X57755Y-34291D01*
X57754Y-34507D01*
X57837Y-34708D01*
X57990Y-34861D01*
X58191Y-34944D01*
X58407Y-34945D01*
X58608Y-34862D01*
X58761Y-34709D01*
X58799Y-34617D01*
X58837Y-34708D01*
X58990Y-34861D01*
X59191Y-34944D01*
X59407Y-34945D01*
X59608Y-34862D01*
X59761Y-34709D01*
X59799Y-34617D01*
X59837Y-34708D01*
X59990Y-34861D01*
X60191Y-34944D01*
X60407Y-34945D01*
X60608Y-34862D01*
X60761Y-34709D01*
X60799Y-34617D01*
X60837Y-34708D01*
X60990Y-34861D01*
X61191Y-34944D01*
X61407Y-34945D01*
X61608Y-34862D01*
X61761Y-34709D01*
X61844Y-34508D01*
X61845Y-34292D01*
X61762Y-34091D01*
X61680Y-34009D01*
X61720Y-33998D01*
X61917Y-33871D01*
X62050Y-33678D01*
X62100Y-33450D01*
X62100Y-36401D01*
X61988Y-36355D01*
X61811Y-36354D01*
X61648Y-36422D01*
X61522Y-36547D01*
X61455Y-36711D01*
X61454Y-36874D01*
X61408Y-36855D01*
X61192Y-36854D01*
X60991Y-36937D01*
X60838Y-37090D01*
X60811Y-37155D01*
X60785Y-37090D01*
X60771Y-37069D01*
X60663Y-37051D01*
X60648Y-37065D01*
X60648Y-37036D01*
X60630Y-36928D01*
X60424Y-36837D01*
X60200Y-36832D01*
X59990Y-36914D01*
X59969Y-36928D01*
X59951Y-37036D01*
X60300Y-37385D01*
X60648Y-37036D01*
X60648Y-37065D01*
X60314Y-37400D01*
X60663Y-37748D01*
X60771Y-37730D01*
X60810Y-37642D01*
X60837Y-37708D01*
X60990Y-37861D01*
X61191Y-37944D01*
X61407Y-37945D01*
X61608Y-37862D01*
X61761Y-37709D01*
X61844Y-37508D01*
X61845Y-37292D01*
X61825Y-37244D01*
X61964Y-37245D01*
X62956Y-38236D01*
X62923Y-38400D01*
X62959Y-38578D01*
X63060Y-38730D01*
X63211Y-38831D01*
X63390Y-38866D01*
X63609Y-38866D01*
X63788Y-38831D01*
X63939Y-38730D01*
X64040Y-38578D01*
X64076Y-38400D01*
X64060Y-38320D01*
X66140Y-36240D01*
X66140Y-36240D01*
X66189Y-36166D01*
X66214Y-36130D01*
X66214Y-36130D01*
X66239Y-36000D01*
X66240Y-36000D01*
X66240Y-33890D01*
X66308Y-33862D01*
X66461Y-33709D01*
X66544Y-33508D01*
X66545Y-33292D01*
X66545Y-40910D01*
X64077Y-40910D01*
X64077Y-39486D01*
X64077Y-39313D01*
X64052Y-39222D01*
X63949Y-39062D01*
X63793Y-38954D01*
X63608Y-38913D01*
X63510Y-38913D01*
X63510Y-39390D01*
X64012Y-39390D01*
X64077Y-39313D01*
X64077Y-39486D01*
X64012Y-39410D01*
X63510Y-39410D01*
X63510Y-39886D01*
X63608Y-39886D01*
X63793Y-39845D01*
X63949Y-39737D01*
X64052Y-39577D01*
X64077Y-39486D01*
X64077Y-40910D01*
X63490Y-40910D01*
X63490Y-39886D01*
X63490Y-39410D01*
X63490Y-39390D01*
X63490Y-38913D01*
X63391Y-38913D01*
X63206Y-38954D01*
X63050Y-39062D01*
X62947Y-39222D01*
X62922Y-39313D01*
X62987Y-39390D01*
X63490Y-39390D01*
X63490Y-39410D01*
X62987Y-39410D01*
X62922Y-39486D01*
X62947Y-39577D01*
X63050Y-39737D01*
X63206Y-39845D01*
X63391Y-39886D01*
X63490Y-39886D01*
X63490Y-40910D01*
X60790Y-40910D01*
X60790Y-38110D01*
X60648Y-38110D01*
X60648Y-37763D01*
X60300Y-37414D01*
X60285Y-37428D01*
X60285Y-37400D01*
X59936Y-37051D01*
X59828Y-37069D01*
X59789Y-37157D01*
X59762Y-37091D01*
X59609Y-36938D01*
X59408Y-36855D01*
X59192Y-36854D01*
X58991Y-36937D01*
X58838Y-37090D01*
X58800Y-37182D01*
X58762Y-37091D01*
X58609Y-36938D01*
X58408Y-36855D01*
X58192Y-36854D01*
X57991Y-36937D01*
X57838Y-37090D01*
X57755Y-37291D01*
X57754Y-37507D01*
X57837Y-37708D01*
X57990Y-37861D01*
X58191Y-37944D01*
X58407Y-37945D01*
X58608Y-37862D01*
X58761Y-37709D01*
X58799Y-37617D01*
X58837Y-37708D01*
X58990Y-37861D01*
X59191Y-37944D01*
X59407Y-37945D01*
X59608Y-37862D01*
X59761Y-37709D01*
X59788Y-37644D01*
X59814Y-37709D01*
X59828Y-37730D01*
X59936Y-37748D01*
X60285Y-37400D01*
X60285Y-37428D01*
X59951Y-37763D01*
X59969Y-37871D01*
X60175Y-37962D01*
X60399Y-37967D01*
X60609Y-37885D01*
X60630Y-37871D01*
X60648Y-37763D01*
X60648Y-38110D01*
X57490Y-38110D01*
X57490Y-35810D01*
X55870Y-35810D01*
X56540Y-35140D01*
X56540Y-35140D01*
X56614Y-35030D01*
X56614Y-35030D01*
X56618Y-35008D01*
X56639Y-34900D01*
X56640Y-34900D01*
X56640Y-32830D01*
X56761Y-32709D01*
X56844Y-32508D01*
X56845Y-32292D01*
X56762Y-32091D01*
X56609Y-31938D01*
X56517Y-31900D01*
X56608Y-31862D01*
X56750Y-31720D01*
X59600Y-31720D01*
X59600Y-31719D01*
X59722Y-31695D01*
X59826Y-31626D01*
X60431Y-31020D01*
X60500Y-31034D01*
X60721Y-30989D01*
X60910Y-30864D01*
X61000Y-30729D01*
X61089Y-30864D01*
X61278Y-30989D01*
X61500Y-31034D01*
X61721Y-30989D01*
X61910Y-30864D01*
X62035Y-30676D01*
X62080Y-30454D01*
X62080Y-30145D01*
X62035Y-29923D01*
X61910Y-29735D01*
X61841Y-29689D01*
X66610Y-29689D01*
X66610Y-40910D01*
X66610Y-40910D01*
G37*
G54D37*
X66610Y-40910D02*
X66545Y-40910D01*
X66545Y-33292D01*
X66545Y-30292D01*
X66462Y-30091D01*
X66309Y-29938D01*
X66108Y-29855D01*
X65892Y-29854D01*
X65691Y-29937D01*
X65538Y-30090D01*
X65455Y-30291D01*
X65454Y-30507D01*
X65537Y-30708D01*
X65690Y-30861D01*
X65891Y-30944D01*
X66107Y-30945D01*
X66308Y-30862D01*
X66461Y-30709D01*
X66544Y-30508D01*
X66545Y-30292D01*
X66545Y-33292D01*
X66462Y-33091D01*
X66309Y-32938D01*
X66108Y-32855D01*
X65892Y-32854D01*
X65691Y-32937D01*
X65538Y-33090D01*
X65455Y-33291D01*
X65454Y-33507D01*
X65537Y-33708D01*
X65560Y-33730D01*
X65560Y-35859D01*
X65370Y-36048D01*
X65370Y-35088D01*
X65207Y-34694D01*
X64945Y-34431D01*
X64945Y-33192D01*
X64945Y-30192D01*
X64862Y-29991D01*
X64709Y-29838D01*
X64508Y-29755D01*
X64292Y-29754D01*
X64091Y-29837D01*
X63938Y-29990D01*
X63855Y-30191D01*
X63854Y-30407D01*
X63937Y-30608D01*
X64090Y-30761D01*
X64291Y-30844D01*
X64507Y-30845D01*
X64708Y-30762D01*
X64861Y-30609D01*
X64944Y-30408D01*
X64945Y-30192D01*
X64945Y-33192D01*
X64862Y-32991D01*
X64709Y-32838D01*
X64508Y-32755D01*
X64292Y-32754D01*
X64091Y-32837D01*
X63938Y-32990D01*
X63855Y-33191D01*
X63854Y-33407D01*
X63937Y-33608D01*
X64090Y-33761D01*
X64291Y-33844D01*
X64507Y-33845D01*
X64708Y-33762D01*
X64861Y-33609D01*
X64944Y-33408D01*
X64945Y-33192D01*
X64945Y-34431D01*
X64906Y-34393D01*
X64513Y-34230D01*
X64088Y-34229D01*
X63694Y-34392D01*
X63393Y-34693D01*
X63267Y-34996D01*
X63267Y-33200D01*
X63245Y-33142D01*
X63245Y-30192D01*
X63162Y-29991D01*
X63009Y-29838D01*
X62808Y-29755D01*
X62592Y-29754D01*
X62391Y-29837D01*
X62238Y-29990D01*
X62155Y-30191D01*
X62154Y-30407D01*
X62237Y-30608D01*
X62390Y-30761D01*
X62591Y-30844D01*
X62807Y-30845D01*
X63008Y-30762D01*
X63161Y-30609D01*
X63244Y-30408D01*
X63245Y-30192D01*
X63245Y-33142D01*
X63185Y-32990D01*
X63171Y-32969D01*
X63063Y-32951D01*
X63048Y-32965D01*
X63048Y-32936D01*
X63030Y-32828D01*
X62824Y-32737D01*
X62600Y-32732D01*
X62390Y-32814D01*
X62369Y-32828D01*
X62351Y-32936D01*
X62700Y-33285D01*
X63048Y-32936D01*
X63048Y-32965D01*
X62714Y-33300D01*
X63063Y-33648D01*
X63171Y-33630D01*
X63262Y-33424D01*
X63267Y-33200D01*
X63267Y-34996D01*
X63230Y-35086D01*
X63229Y-35511D01*
X63392Y-35905D01*
X63693Y-36206D01*
X64086Y-36369D01*
X64511Y-36370D01*
X64905Y-36207D01*
X65206Y-35906D01*
X65369Y-35513D01*
X65370Y-35088D01*
X65370Y-36048D01*
X63550Y-37869D01*
X63048Y-37368D01*
X63048Y-33663D01*
X62700Y-33314D01*
X62685Y-33328D01*
X62685Y-33300D01*
X62336Y-32951D01*
X62228Y-32969D01*
X62137Y-33175D01*
X62132Y-33399D01*
X62214Y-33609D01*
X62228Y-33630D01*
X62336Y-33648D01*
X62685Y-33300D01*
X62685Y-33328D01*
X62351Y-33663D01*
X62369Y-33771D01*
X62575Y-33862D01*
X62799Y-33867D01*
X63009Y-33785D01*
X63030Y-33771D01*
X63048Y-33663D01*
X63048Y-37368D01*
X62311Y-36630D01*
X62277Y-36548D01*
X62152Y-36422D01*
X62100Y-36401D01*
X62100Y-33450D01*
X62100Y-33310D01*
X62100Y-33290D01*
X62100Y-33150D01*
X62050Y-32921D01*
X61917Y-32728D01*
X61720Y-32601D01*
X61603Y-32569D01*
X61510Y-32632D01*
X61510Y-33290D01*
X62100Y-33290D01*
X62100Y-33310D01*
X61510Y-33310D01*
X61510Y-33317D01*
X61490Y-33317D01*
X61490Y-33310D01*
X61482Y-33310D01*
X61482Y-33290D01*
X61490Y-33290D01*
X61490Y-32632D01*
X61396Y-32569D01*
X61279Y-32601D01*
X61082Y-32728D01*
X60992Y-32859D01*
X60910Y-32735D01*
X60721Y-32610D01*
X60500Y-32565D01*
X60278Y-32610D01*
X60089Y-32735D01*
X60000Y-32870D01*
X59910Y-32735D01*
X59721Y-32610D01*
X59500Y-32565D01*
X59278Y-32610D01*
X59089Y-32735D01*
X59068Y-32768D01*
X59039Y-32697D01*
X58963Y-32621D01*
X58863Y-32580D01*
X58756Y-32579D01*
X58136Y-32579D01*
X58037Y-32620D01*
X57961Y-32696D01*
X57920Y-32796D01*
X57919Y-32903D01*
X57919Y-33803D01*
X57960Y-33902D01*
X57994Y-33936D01*
X57991Y-33937D01*
X57838Y-34090D01*
X57755Y-34291D01*
X57754Y-34507D01*
X57837Y-34708D01*
X57990Y-34861D01*
X58191Y-34944D01*
X58407Y-34945D01*
X58608Y-34862D01*
X58761Y-34709D01*
X58799Y-34617D01*
X58837Y-34708D01*
X58990Y-34861D01*
X59191Y-34944D01*
X59407Y-34945D01*
X59608Y-34862D01*
X59761Y-34709D01*
X59799Y-34617D01*
X59837Y-34708D01*
X59990Y-34861D01*
X60191Y-34944D01*
X60407Y-34945D01*
X60608Y-34862D01*
X60761Y-34709D01*
X60799Y-34617D01*
X60837Y-34708D01*
X60990Y-34861D01*
X61191Y-34944D01*
X61407Y-34945D01*
X61608Y-34862D01*
X61761Y-34709D01*
X61844Y-34508D01*
X61845Y-34292D01*
X61762Y-34091D01*
X61680Y-34009D01*
X61720Y-33998D01*
X61917Y-33871D01*
X62050Y-33678D01*
X62100Y-33450D01*
X62100Y-36401D01*
X61988Y-36355D01*
X61811Y-36354D01*
X61648Y-36422D01*
X61522Y-36547D01*
X61455Y-36711D01*
X61454Y-36874D01*
X61408Y-36855D01*
X61192Y-36854D01*
X60991Y-36937D01*
X60838Y-37090D01*
X60811Y-37155D01*
X60785Y-37090D01*
X60771Y-37069D01*
X60663Y-37051D01*
X60648Y-37065D01*
X60648Y-37036D01*
X60630Y-36928D01*
X60424Y-36837D01*
X60200Y-36832D01*
X59990Y-36914D01*
X59969Y-36928D01*
X59951Y-37036D01*
X60300Y-37385D01*
X60648Y-37036D01*
X60648Y-37065D01*
X60314Y-37400D01*
X60663Y-37748D01*
X60771Y-37730D01*
X60810Y-37642D01*
X60837Y-37708D01*
X60990Y-37861D01*
X61191Y-37944D01*
X61407Y-37945D01*
X61608Y-37862D01*
X61761Y-37709D01*
X61844Y-37508D01*
X61845Y-37292D01*
X61825Y-37244D01*
X61964Y-37245D01*
X62956Y-38236D01*
X62923Y-38400D01*
X62959Y-38578D01*
X63060Y-38730D01*
X63211Y-38831D01*
X63390Y-38866D01*
X63609Y-38866D01*
X63788Y-38831D01*
X63939Y-38730D01*
X64040Y-38578D01*
X64076Y-38400D01*
X64060Y-38320D01*
X66140Y-36240D01*
X66140Y-36240D01*
X66189Y-36166D01*
X66214Y-36130D01*
X66214Y-36130D01*
X66239Y-36000D01*
X66240Y-36000D01*
X66240Y-33890D01*
X66308Y-33862D01*
X66461Y-33709D01*
X66544Y-33508D01*
X66545Y-33292D01*
X66545Y-40910D01*
X64077Y-40910D01*
X64077Y-39486D01*
X64077Y-39313D01*
X64052Y-39222D01*
X63949Y-39062D01*
X63793Y-38954D01*
X63608Y-38913D01*
X63510Y-38913D01*
X63510Y-39390D01*
X64012Y-39390D01*
X64077Y-39313D01*
X64077Y-39486D01*
X64012Y-39410D01*
X63510Y-39410D01*
X63510Y-39886D01*
X63608Y-39886D01*
X63793Y-39845D01*
X63949Y-39737D01*
X64052Y-39577D01*
X64077Y-39486D01*
X64077Y-40910D01*
X63490Y-40910D01*
X63490Y-39886D01*
X63490Y-39410D01*
X63490Y-39390D01*
X63490Y-38913D01*
X63391Y-38913D01*
X63206Y-38954D01*
X63050Y-39062D01*
X62947Y-39222D01*
X62922Y-39313D01*
X62987Y-39390D01*
X63490Y-39390D01*
X63490Y-39410D01*
X62987Y-39410D01*
X62922Y-39486D01*
X62947Y-39577D01*
X63050Y-39737D01*
X63206Y-39845D01*
X63391Y-39886D01*
X63490Y-39886D01*
X63490Y-40910D01*
X60790Y-40910D01*
X60790Y-38110D01*
X60648Y-38110D01*
X60648Y-37763D01*
X60300Y-37414D01*
X60285Y-37428D01*
X60285Y-37400D01*
X59936Y-37051D01*
X59828Y-37069D01*
X59789Y-37157D01*
X59762Y-37091D01*
X59609Y-36938D01*
X59408Y-36855D01*
X59192Y-36854D01*
X58991Y-36937D01*
X58838Y-37090D01*
X58800Y-37182D01*
X58762Y-37091D01*
X58609Y-36938D01*
X58408Y-36855D01*
X58192Y-36854D01*
X57991Y-36937D01*
X57838Y-37090D01*
X57755Y-37291D01*
X57754Y-37507D01*
X57837Y-37708D01*
X57990Y-37861D01*
X58191Y-37944D01*
X58407Y-37945D01*
X58608Y-37862D01*
X58761Y-37709D01*
X58799Y-37617D01*
X58837Y-37708D01*
X58990Y-37861D01*
X59191Y-37944D01*
X59407Y-37945D01*
X59608Y-37862D01*
X59761Y-37709D01*
X59788Y-37644D01*
X59814Y-37709D01*
X59828Y-37730D01*
X59936Y-37748D01*
X60285Y-37400D01*
X60285Y-37428D01*
X59951Y-37763D01*
X59969Y-37871D01*
X60175Y-37962D01*
X60399Y-37967D01*
X60609Y-37885D01*
X60630Y-37871D01*
X60648Y-37763D01*
X60648Y-38110D01*
X57490Y-38110D01*
X57490Y-35810D01*
X55870Y-35810D01*
X56540Y-35140D01*
X56540Y-35140D01*
X56614Y-35030D01*
X56614Y-35030D01*
X56618Y-35008D01*
X56639Y-34900D01*
X56640Y-34900D01*
X56640Y-32830D01*
X56761Y-32709D01*
X56844Y-32508D01*
X56845Y-32292D01*
X56762Y-32091D01*
X56609Y-31938D01*
X56517Y-31900D01*
X56608Y-31862D01*
X56750Y-31720D01*
X59600Y-31720D01*
X59600Y-31719D01*
X59722Y-31695D01*
X59826Y-31626D01*
X60431Y-31020D01*
X60500Y-31034D01*
X60721Y-30989D01*
X60910Y-30864D01*
X61000Y-30729D01*
X61089Y-30864D01*
X61278Y-30989D01*
X61500Y-31034D01*
X61721Y-30989D01*
X61910Y-30864D01*
X62035Y-30676D01*
X62080Y-30454D01*
X62080Y-30145D01*
X62035Y-29923D01*
X61910Y-29735D01*
X61841Y-29689D01*
X66610Y-29689D01*
X66610Y-40910D01*
G54D10*
G36*
X49319Y-36305D02*
X49305Y-36319D01*
X49300Y-36314D01*
X49294Y-36319D01*
X49280Y-36305D01*
X49285Y-36300D01*
X49280Y-36294D01*
X49294Y-36280D01*
X49300Y-36285D01*
X49305Y-36280D01*
X49319Y-36294D01*
X49314Y-36300D01*
X49319Y-36305D01*
X49319Y-36305D01*
G37*
G54D37*
X49319Y-36305D02*
X49305Y-36319D01*
X49300Y-36314D01*
X49294Y-36319D01*
X49280Y-36305D01*
X49285Y-36300D01*
X49280Y-36294D01*
X49294Y-36280D01*
X49300Y-36285D01*
X49305Y-36280D01*
X49319Y-36294D01*
X49314Y-36300D01*
X49319Y-36305D01*
G54D10*
G36*
X57110Y-37055D02*
X56966Y-36959D01*
X56787Y-36923D01*
X56608Y-36959D01*
X56457Y-37060D01*
X56393Y-37155D01*
X56330Y-37060D01*
X56178Y-36959D01*
X56000Y-36923D01*
X55821Y-36959D01*
X55669Y-37060D01*
X55614Y-37143D01*
X55549Y-37050D01*
X55389Y-36947D01*
X55298Y-36922D01*
X55222Y-36987D01*
X55222Y-37490D01*
X55230Y-37490D01*
X55230Y-37510D01*
X55222Y-37510D01*
X55222Y-37517D01*
X55202Y-37517D01*
X55202Y-37510D01*
X55194Y-37510D01*
X55194Y-37490D01*
X55202Y-37490D01*
X55202Y-36987D01*
X55126Y-36922D01*
X55035Y-36947D01*
X54875Y-37050D01*
X54766Y-37206D01*
X54729Y-37376D01*
X54726Y-37373D01*
X54711Y-37364D01*
X54739Y-37321D01*
X54784Y-37100D01*
X54750Y-36930D01*
X55490Y-36190D01*
X57110Y-36190D01*
X57110Y-37055D01*
X57110Y-37055D01*
G37*
G54D37*
X57110Y-37055D02*
X56966Y-36959D01*
X56787Y-36923D01*
X56608Y-36959D01*
X56457Y-37060D01*
X56393Y-37155D01*
X56330Y-37060D01*
X56178Y-36959D01*
X56000Y-36923D01*
X55821Y-36959D01*
X55669Y-37060D01*
X55614Y-37143D01*
X55549Y-37050D01*
X55389Y-36947D01*
X55298Y-36922D01*
X55222Y-36987D01*
X55222Y-37490D01*
X55230Y-37490D01*
X55230Y-37510D01*
X55222Y-37510D01*
X55222Y-37517D01*
X55202Y-37517D01*
X55202Y-37510D01*
X55194Y-37510D01*
X55194Y-37490D01*
X55202Y-37490D01*
X55202Y-36987D01*
X55126Y-36922D01*
X55035Y-36947D01*
X54875Y-37050D01*
X54766Y-37206D01*
X54729Y-37376D01*
X54726Y-37373D01*
X54711Y-37364D01*
X54739Y-37321D01*
X54784Y-37100D01*
X54750Y-36930D01*
X55490Y-36190D01*
X57110Y-36190D01*
X57110Y-37055D01*
G54D10*
G36*
X60410Y-40910D02*
X59002Y-40910D01*
X59044Y-40808D01*
X59045Y-40592D01*
X58962Y-40391D01*
X58809Y-40238D01*
X58608Y-40155D01*
X58392Y-40154D01*
X58191Y-40237D01*
X58038Y-40390D01*
X57955Y-40591D01*
X57954Y-40807D01*
X58037Y-41008D01*
X58190Y-41161D01*
X58391Y-41244D01*
X58607Y-41245D01*
X58808Y-41162D01*
X58810Y-41160D01*
X58810Y-43255D01*
X58808Y-43255D01*
X58592Y-43254D01*
X58391Y-43337D01*
X58249Y-43480D01*
X57338Y-43480D01*
X57362Y-43424D01*
X57367Y-43200D01*
X57285Y-42990D01*
X57271Y-42969D01*
X57163Y-42951D01*
X56814Y-43300D01*
X56819Y-43305D01*
X56805Y-43319D01*
X56800Y-43314D01*
X56794Y-43319D01*
X56780Y-43305D01*
X56785Y-43300D01*
X56436Y-42951D01*
X56328Y-42969D01*
X56237Y-43175D01*
X56232Y-43399D01*
X56263Y-43480D01*
X55832Y-43480D01*
X55726Y-43373D01*
X55622Y-43304D01*
X55500Y-43280D01*
X54759Y-43280D01*
X54780Y-43203D01*
X54717Y-43110D01*
X54060Y-43110D01*
X54060Y-43117D01*
X54040Y-43117D01*
X54040Y-43110D01*
X53382Y-43110D01*
X53319Y-43203D01*
X53340Y-43280D01*
X52632Y-43280D01*
X52226Y-42873D01*
X52122Y-42804D01*
X52000Y-42780D01*
X51674Y-42780D01*
X51614Y-42689D01*
X51479Y-42600D01*
X51614Y-42510D01*
X51739Y-42321D01*
X51784Y-42100D01*
X51739Y-41878D01*
X51614Y-41689D01*
X51490Y-41607D01*
X51621Y-41517D01*
X51748Y-41320D01*
X51780Y-41203D01*
X51717Y-41110D01*
X51060Y-41110D01*
X51060Y-41117D01*
X51040Y-41117D01*
X51040Y-41110D01*
X50382Y-41110D01*
X50319Y-41203D01*
X50351Y-41320D01*
X50478Y-41517D01*
X50609Y-41607D01*
X50485Y-41689D01*
X50425Y-41780D01*
X50350Y-41780D01*
X50209Y-41638D01*
X50008Y-41555D01*
X49792Y-41554D01*
X49591Y-41637D01*
X49438Y-41790D01*
X49355Y-41991D01*
X49354Y-42207D01*
X49437Y-42408D01*
X49590Y-42561D01*
X49791Y-42644D01*
X50007Y-42645D01*
X50208Y-42562D01*
X50350Y-42420D01*
X50425Y-42420D01*
X50485Y-42510D01*
X50620Y-42600D01*
X50485Y-42689D01*
X50360Y-42878D01*
X50315Y-43100D01*
X50360Y-43321D01*
X50485Y-43510D01*
X50620Y-43600D01*
X50485Y-43689D01*
X50425Y-43780D01*
X50265Y-43780D01*
X50265Y-43665D01*
X50248Y-43626D01*
X50285Y-43538D01*
X50285Y-42911D01*
X50240Y-42804D01*
X50159Y-42723D01*
X50052Y-42679D01*
X49937Y-42678D01*
X49782Y-42679D01*
X49710Y-42751D01*
X49710Y-43215D01*
X50212Y-43215D01*
X50285Y-43142D01*
X50285Y-42911D01*
X50285Y-43538D01*
X50285Y-43307D01*
X50212Y-43235D01*
X49710Y-43235D01*
X49710Y-43242D01*
X49690Y-43242D01*
X49690Y-43235D01*
X49690Y-43215D01*
X49690Y-42751D01*
X49617Y-42679D01*
X49462Y-42678D01*
X49347Y-42679D01*
X49240Y-42723D01*
X49159Y-42804D01*
X49114Y-42911D01*
X49115Y-43142D01*
X49187Y-43215D01*
X49690Y-43215D01*
X49690Y-43235D01*
X49187Y-43235D01*
X49115Y-43307D01*
X49114Y-43538D01*
X49151Y-43626D01*
X49139Y-43655D01*
X48608Y-43655D01*
X48608Y-43542D01*
X48567Y-43443D01*
X48491Y-43367D01*
X48392Y-43326D01*
X48285Y-43326D01*
X47773Y-43326D01*
X47674Y-43367D01*
X47598Y-43442D01*
X47556Y-43542D01*
X47556Y-43649D01*
X47556Y-44397D01*
X47597Y-44496D01*
X47673Y-44572D01*
X47739Y-44600D01*
X47674Y-44626D01*
X47598Y-44702D01*
X47556Y-44801D01*
X47556Y-44909D01*
X47556Y-45657D01*
X47597Y-45756D01*
X47673Y-45832D01*
X47772Y-45873D01*
X47880Y-45873D01*
X48392Y-45873D01*
X48491Y-45832D01*
X48567Y-45757D01*
X48608Y-45657D01*
X48608Y-45550D01*
X48608Y-45445D01*
X49139Y-45445D01*
X49151Y-45473D01*
X49114Y-45561D01*
X49115Y-45792D01*
X49187Y-45865D01*
X49690Y-45865D01*
X49690Y-45857D01*
X49710Y-45857D01*
X49710Y-45865D01*
X50212Y-45865D01*
X50285Y-45792D01*
X50285Y-45561D01*
X50248Y-45473D01*
X50264Y-45434D01*
X50264Y-45420D01*
X50425Y-45420D01*
X50485Y-45510D01*
X50620Y-45600D01*
X50485Y-45689D01*
X50360Y-45878D01*
X50315Y-46100D01*
X50360Y-46321D01*
X50485Y-46510D01*
X50620Y-46600D01*
X50485Y-46689D01*
X50360Y-46878D01*
X50315Y-47100D01*
X50360Y-47321D01*
X50485Y-47510D01*
X50673Y-47635D01*
X50895Y-47680D01*
X51204Y-47680D01*
X51426Y-47635D01*
X51614Y-47510D01*
X51739Y-47321D01*
X51784Y-47100D01*
X51739Y-46878D01*
X51614Y-46689D01*
X51479Y-46600D01*
X51614Y-46510D01*
X51739Y-46321D01*
X51784Y-46100D01*
X51739Y-45878D01*
X51614Y-45689D01*
X51479Y-45600D01*
X51614Y-45510D01*
X51739Y-45321D01*
X51784Y-45100D01*
X51739Y-44878D01*
X51614Y-44689D01*
X51479Y-44600D01*
X51614Y-44510D01*
X51739Y-44321D01*
X51784Y-44100D01*
X51739Y-43878D01*
X51614Y-43689D01*
X51479Y-43600D01*
X51614Y-43510D01*
X51674Y-43420D01*
X51867Y-43420D01*
X52273Y-43826D01*
X52273Y-43826D01*
X52377Y-43895D01*
X52500Y-43920D01*
X53351Y-43920D01*
X53315Y-44100D01*
X53360Y-44321D01*
X53485Y-44510D01*
X53620Y-44600D01*
X53485Y-44689D01*
X53360Y-44878D01*
X53315Y-45100D01*
X53360Y-45321D01*
X53485Y-45510D01*
X53620Y-45600D01*
X53485Y-45689D01*
X53360Y-45878D01*
X53315Y-46100D01*
X53360Y-46321D01*
X53485Y-46510D01*
X53620Y-46600D01*
X53485Y-46689D01*
X53360Y-46878D01*
X53315Y-47100D01*
X53360Y-47321D01*
X53485Y-47510D01*
X53673Y-47635D01*
X53895Y-47680D01*
X54204Y-47680D01*
X54426Y-47635D01*
X54614Y-47510D01*
X54739Y-47321D01*
X54784Y-47100D01*
X54739Y-46878D01*
X54614Y-46689D01*
X54479Y-46600D01*
X54614Y-46510D01*
X54739Y-46321D01*
X54784Y-46100D01*
X54739Y-45878D01*
X54614Y-45689D01*
X54479Y-45600D01*
X54614Y-45510D01*
X54739Y-45321D01*
X54784Y-45100D01*
X54739Y-44878D01*
X54614Y-44689D01*
X54479Y-44600D01*
X54614Y-44510D01*
X54739Y-44321D01*
X54784Y-44100D01*
X54748Y-43920D01*
X55367Y-43920D01*
X55473Y-44026D01*
X55473Y-44026D01*
X55577Y-44095D01*
X55700Y-44120D01*
X58249Y-44120D01*
X58380Y-44250D01*
X58380Y-45400D01*
X58404Y-45522D01*
X58473Y-45626D01*
X58810Y-45962D01*
X58810Y-46237D01*
X58600Y-46232D01*
X58390Y-46314D01*
X58369Y-46328D01*
X58351Y-46436D01*
X58700Y-46785D01*
X58705Y-46780D01*
X58719Y-46794D01*
X58714Y-46800D01*
X58719Y-46805D01*
X58705Y-46819D01*
X58700Y-46814D01*
X58685Y-46828D01*
X58685Y-46800D01*
X58336Y-46451D01*
X58228Y-46469D01*
X58137Y-46675D01*
X58132Y-46899D01*
X58214Y-47109D01*
X58228Y-47130D01*
X58336Y-47148D01*
X58685Y-46800D01*
X58685Y-46828D01*
X58351Y-47163D01*
X58369Y-47271D01*
X58575Y-47362D01*
X58799Y-47367D01*
X58810Y-47363D01*
X58810Y-47910D01*
X57670Y-47910D01*
X57670Y-45988D01*
X57507Y-45594D01*
X57206Y-45293D01*
X56813Y-45130D01*
X56388Y-45129D01*
X55994Y-45292D01*
X55693Y-45593D01*
X55530Y-45986D01*
X55529Y-46411D01*
X55692Y-46805D01*
X55993Y-47106D01*
X56386Y-47269D01*
X56811Y-47270D01*
X57205Y-47107D01*
X57506Y-46806D01*
X57669Y-46413D01*
X57670Y-45988D01*
X57670Y-47910D01*
X50285Y-47910D01*
X50285Y-46188D01*
X50285Y-45957D01*
X50212Y-45885D01*
X49710Y-45885D01*
X49710Y-46348D01*
X49782Y-46421D01*
X49937Y-46421D01*
X50052Y-46420D01*
X50159Y-46376D01*
X50240Y-46295D01*
X50285Y-46188D01*
X50285Y-47910D01*
X49690Y-47910D01*
X49690Y-46348D01*
X49690Y-45885D01*
X49187Y-45885D01*
X49115Y-45957D01*
X49114Y-46188D01*
X49159Y-46295D01*
X49240Y-46376D01*
X49347Y-46420D01*
X49462Y-46421D01*
X49617Y-46421D01*
X49690Y-46348D01*
X49690Y-47910D01*
X46443Y-47910D01*
X46443Y-45550D01*
X46443Y-44802D01*
X46402Y-44703D01*
X46326Y-44627D01*
X46260Y-44599D01*
X46325Y-44573D01*
X46401Y-44497D01*
X46443Y-44398D01*
X46443Y-44290D01*
X46443Y-43542D01*
X46402Y-43443D01*
X46326Y-43367D01*
X46227Y-43326D01*
X46119Y-43326D01*
X45607Y-43326D01*
X45508Y-43367D01*
X45432Y-43442D01*
X45391Y-43542D01*
X45391Y-43649D01*
X45391Y-44397D01*
X45432Y-44496D01*
X45508Y-44572D01*
X45573Y-44600D01*
X45508Y-44626D01*
X45432Y-44702D01*
X45391Y-44801D01*
X45391Y-44909D01*
X45391Y-45657D01*
X45432Y-45756D01*
X45508Y-45832D01*
X45607Y-45873D01*
X45714Y-45873D01*
X46226Y-45873D01*
X46325Y-45832D01*
X46401Y-45757D01*
X46443Y-45657D01*
X46443Y-45550D01*
X46443Y-47910D01*
X44972Y-47910D01*
X44972Y-46899D01*
X44890Y-46687D01*
X44875Y-46666D01*
X44766Y-46647D01*
X44752Y-46661D01*
X44752Y-46633D01*
X44733Y-46524D01*
X44525Y-46432D01*
X44299Y-46427D01*
X44087Y-46509D01*
X44066Y-46524D01*
X44047Y-46633D01*
X44400Y-46985D01*
X44752Y-46633D01*
X44752Y-46661D01*
X44414Y-47000D01*
X44766Y-47352D01*
X44875Y-47333D01*
X44967Y-47125D01*
X44972Y-46899D01*
X44972Y-47910D01*
X44752Y-47910D01*
X44752Y-47366D01*
X44400Y-47014D01*
X44385Y-47028D01*
X44385Y-47000D01*
X44033Y-46647D01*
X43924Y-46666D01*
X43867Y-46795D01*
X43867Y-45200D01*
X43785Y-44990D01*
X43771Y-44969D01*
X43663Y-44951D01*
X43648Y-44965D01*
X43648Y-44936D01*
X43630Y-44828D01*
X43424Y-44737D01*
X43200Y-44732D01*
X42990Y-44814D01*
X42969Y-44828D01*
X42951Y-44936D01*
X43300Y-45285D01*
X43648Y-44936D01*
X43648Y-44965D01*
X43314Y-45300D01*
X43663Y-45648D01*
X43771Y-45630D01*
X43862Y-45424D01*
X43867Y-45200D01*
X43867Y-46795D01*
X43832Y-46874D01*
X43827Y-47100D01*
X43909Y-47312D01*
X43924Y-47333D01*
X44033Y-47352D01*
X44385Y-47000D01*
X44385Y-47028D01*
X44047Y-47366D01*
X44066Y-47475D01*
X44274Y-47567D01*
X44500Y-47572D01*
X44712Y-47490D01*
X44733Y-47475D01*
X44752Y-47366D01*
X44752Y-47910D01*
X43648Y-47910D01*
X43648Y-45663D01*
X43300Y-45314D01*
X43285Y-45328D01*
X43285Y-45300D01*
X42936Y-44951D01*
X42828Y-44969D01*
X42737Y-45175D01*
X42732Y-45399D01*
X42814Y-45609D01*
X42828Y-45630D01*
X42936Y-45648D01*
X43285Y-45300D01*
X43285Y-45328D01*
X42951Y-45663D01*
X42969Y-45771D01*
X43175Y-45862D01*
X43399Y-45867D01*
X43609Y-45785D01*
X43630Y-45771D01*
X43648Y-45663D01*
X43648Y-47910D01*
X42672Y-47910D01*
X42672Y-45199D01*
X42650Y-45141D01*
X42650Y-42526D01*
X42650Y-41966D01*
X42609Y-41867D01*
X42533Y-41791D01*
X42433Y-41750D01*
X42326Y-41749D01*
X41766Y-41749D01*
X41667Y-41790D01*
X41591Y-41866D01*
X41550Y-41966D01*
X41549Y-42073D01*
X41549Y-42276D01*
X41235Y-42276D01*
X41235Y-38831D01*
X41200Y-38652D01*
X41098Y-38501D01*
X40947Y-38399D01*
X40768Y-38364D01*
X40590Y-38399D01*
X40438Y-38501D01*
X40283Y-38655D01*
X40182Y-38807D01*
X40147Y-38986D01*
X40182Y-39164D01*
X40283Y-39316D01*
X40435Y-39417D01*
X40613Y-39452D01*
X40792Y-39417D01*
X40944Y-39316D01*
X41098Y-39161D01*
X41200Y-39009D01*
X41235Y-38831D01*
X41235Y-42276D01*
X40746Y-42276D01*
X40739Y-42265D01*
X40720Y-42252D01*
X40720Y-41650D01*
X40861Y-41509D01*
X40944Y-41308D01*
X40945Y-41092D01*
X40862Y-40891D01*
X40709Y-40738D01*
X40508Y-40655D01*
X40292Y-40654D01*
X40091Y-40737D01*
X39938Y-40890D01*
X39855Y-41091D01*
X39854Y-41307D01*
X39937Y-41508D01*
X40080Y-41650D01*
X40080Y-42151D01*
X40011Y-42164D01*
X39860Y-42265D01*
X39759Y-42417D01*
X39723Y-42596D01*
X39759Y-42774D01*
X39860Y-42926D01*
X40011Y-43027D01*
X40190Y-43062D01*
X40409Y-43062D01*
X40588Y-43027D01*
X40739Y-42926D01*
X40746Y-42916D01*
X41803Y-42916D01*
X41803Y-42916D01*
X41926Y-42891D01*
X41988Y-42850D01*
X42433Y-42850D01*
X42532Y-42809D01*
X42608Y-42733D01*
X42649Y-42633D01*
X42650Y-42526D01*
X42650Y-45141D01*
X42590Y-44987D01*
X42575Y-44966D01*
X42466Y-44947D01*
X42452Y-44961D01*
X42452Y-44933D01*
X42433Y-44824D01*
X42225Y-44732D01*
X41999Y-44727D01*
X41787Y-44809D01*
X41766Y-44824D01*
X41747Y-44933D01*
X42100Y-45285D01*
X42452Y-44933D01*
X42452Y-44961D01*
X42114Y-45300D01*
X42466Y-45652D01*
X42575Y-45633D01*
X42667Y-45425D01*
X42672Y-45199D01*
X42672Y-47910D01*
X42452Y-47910D01*
X42452Y-45666D01*
X42100Y-45314D01*
X42085Y-45328D01*
X42085Y-45300D01*
X41733Y-44947D01*
X41624Y-44966D01*
X41532Y-45174D01*
X41527Y-45400D01*
X41609Y-45612D01*
X41624Y-45633D01*
X41733Y-45652D01*
X42085Y-45300D01*
X42085Y-45328D01*
X41747Y-45666D01*
X41766Y-45775D01*
X41974Y-45867D01*
X42200Y-45872D01*
X42412Y-45790D01*
X42433Y-45775D01*
X42452Y-45666D01*
X42452Y-47910D01*
X41670Y-47910D01*
X41670Y-46488D01*
X41507Y-46094D01*
X41206Y-45793D01*
X40877Y-45656D01*
X40877Y-44689D01*
X40877Y-44517D01*
X40852Y-44426D01*
X40749Y-44266D01*
X40593Y-44157D01*
X40408Y-44117D01*
X40310Y-44117D01*
X40310Y-44593D01*
X40812Y-44593D01*
X40877Y-44517D01*
X40877Y-44689D01*
X40812Y-44613D01*
X40310Y-44613D01*
X40310Y-45090D01*
X40408Y-45090D01*
X40593Y-45049D01*
X40749Y-44941D01*
X40852Y-44781D01*
X40877Y-44689D01*
X40877Y-45656D01*
X40813Y-45630D01*
X40388Y-45629D01*
X40290Y-45670D01*
X40290Y-45090D01*
X40290Y-44613D01*
X40290Y-44593D01*
X40290Y-44117D01*
X40191Y-44117D01*
X40006Y-44157D01*
X39850Y-44266D01*
X39747Y-44426D01*
X39722Y-44517D01*
X39787Y-44593D01*
X40290Y-44593D01*
X40290Y-44613D01*
X39787Y-44613D01*
X39722Y-44689D01*
X39747Y-44781D01*
X39850Y-44941D01*
X40006Y-45049D01*
X40191Y-45090D01*
X40290Y-45090D01*
X40290Y-45670D01*
X39994Y-45792D01*
X39693Y-46093D01*
X39530Y-46486D01*
X39529Y-46911D01*
X39692Y-47305D01*
X39993Y-47606D01*
X40386Y-47769D01*
X40811Y-47770D01*
X41205Y-47607D01*
X41506Y-47306D01*
X41669Y-46913D01*
X41670Y-46488D01*
X41670Y-47910D01*
X39389Y-47910D01*
X39389Y-29689D01*
X53039Y-29689D01*
X52938Y-29790D01*
X52855Y-29991D01*
X52854Y-30207D01*
X52937Y-30408D01*
X53090Y-30561D01*
X53291Y-30644D01*
X53507Y-30645D01*
X53708Y-30562D01*
X53861Y-30409D01*
X53944Y-30208D01*
X53945Y-29992D01*
X53862Y-29791D01*
X53760Y-29689D01*
X55410Y-29689D01*
X55410Y-30580D01*
X53800Y-30580D01*
X53677Y-30604D01*
X53573Y-30673D01*
X53392Y-30855D01*
X53192Y-30854D01*
X52991Y-30937D01*
X52838Y-31090D01*
X52755Y-31291D01*
X52754Y-31507D01*
X52837Y-31708D01*
X52990Y-31861D01*
X53055Y-31888D01*
X52990Y-31914D01*
X52969Y-31928D01*
X52951Y-32036D01*
X53300Y-32385D01*
X53305Y-32380D01*
X53319Y-32394D01*
X53314Y-32400D01*
X53663Y-32748D01*
X53771Y-32730D01*
X53862Y-32524D01*
X53864Y-32417D01*
X54580Y-33132D01*
X54580Y-33667D01*
X54426Y-33564D01*
X54204Y-33520D01*
X53895Y-33520D01*
X53673Y-33564D01*
X53648Y-33580D01*
X53648Y-32763D01*
X53300Y-32414D01*
X53285Y-32428D01*
X53285Y-32400D01*
X52936Y-32051D01*
X52828Y-32069D01*
X52737Y-32275D01*
X52732Y-32499D01*
X52814Y-32709D01*
X52828Y-32730D01*
X52936Y-32748D01*
X53285Y-32400D01*
X53285Y-32428D01*
X52951Y-32763D01*
X52969Y-32871D01*
X53175Y-32962D01*
X53399Y-32967D01*
X53609Y-32885D01*
X53630Y-32871D01*
X53648Y-32763D01*
X53648Y-33580D01*
X53485Y-33689D01*
X53360Y-33878D01*
X53315Y-34100D01*
X53360Y-34321D01*
X53485Y-34510D01*
X53609Y-34592D01*
X53478Y-34682D01*
X53351Y-34879D01*
X53319Y-34996D01*
X53382Y-35090D01*
X54040Y-35090D01*
X54040Y-35082D01*
X54060Y-35082D01*
X54060Y-35090D01*
X54067Y-35090D01*
X54067Y-35110D01*
X54060Y-35110D01*
X54060Y-35117D01*
X54040Y-35117D01*
X54040Y-35110D01*
X53382Y-35110D01*
X53319Y-35203D01*
X53351Y-35320D01*
X53478Y-35517D01*
X53609Y-35607D01*
X53485Y-35689D01*
X53360Y-35878D01*
X53315Y-36100D01*
X53360Y-36321D01*
X53485Y-36510D01*
X53620Y-36600D01*
X53485Y-36689D01*
X53360Y-36878D01*
X53315Y-37100D01*
X53351Y-37280D01*
X53300Y-37280D01*
X53177Y-37304D01*
X53073Y-37373D01*
X52973Y-37473D01*
X52904Y-37577D01*
X52880Y-37700D01*
X52880Y-38827D01*
X52585Y-38532D01*
X52585Y-31038D01*
X52585Y-30411D01*
X52540Y-30304D01*
X52459Y-30223D01*
X52352Y-30179D01*
X52237Y-30178D01*
X52082Y-30179D01*
X52010Y-30251D01*
X52010Y-30715D01*
X52512Y-30715D01*
X52585Y-30642D01*
X52585Y-30411D01*
X52585Y-31038D01*
X52585Y-30807D01*
X52512Y-30735D01*
X52010Y-30735D01*
X52010Y-30742D01*
X51990Y-30742D01*
X51990Y-30735D01*
X51990Y-30715D01*
X51990Y-30251D01*
X51917Y-30179D01*
X51762Y-30178D01*
X51647Y-30179D01*
X51540Y-30223D01*
X51459Y-30304D01*
X51414Y-30411D01*
X51415Y-30642D01*
X51487Y-30715D01*
X51990Y-30715D01*
X51990Y-30735D01*
X51487Y-30735D01*
X51415Y-30807D01*
X51414Y-31038D01*
X51425Y-31063D01*
X50875Y-31063D01*
X50867Y-31064D01*
X50903Y-31028D01*
X50947Y-30921D01*
X50947Y-30806D01*
X50947Y-30527D01*
X50947Y-30412D01*
X50903Y-30305D01*
X50821Y-30224D01*
X50714Y-30179D01*
X50582Y-30180D01*
X50510Y-30252D01*
X50510Y-30657D01*
X50875Y-30657D01*
X50947Y-30584D01*
X50947Y-30527D01*
X50947Y-30806D01*
X50947Y-30749D01*
X50875Y-30677D01*
X50510Y-30677D01*
X50510Y-31081D01*
X50550Y-31121D01*
X50499Y-31171D01*
X50449Y-31121D01*
X50490Y-31081D01*
X50490Y-30677D01*
X50490Y-30657D01*
X50490Y-30252D01*
X50417Y-30180D01*
X50285Y-30179D01*
X50178Y-30224D01*
X50096Y-30305D01*
X50052Y-30412D01*
X50052Y-30527D01*
X50052Y-30584D01*
X50125Y-30657D01*
X50490Y-30657D01*
X50490Y-30677D01*
X50125Y-30677D01*
X50052Y-30749D01*
X50052Y-30806D01*
X50052Y-30921D01*
X50096Y-31028D01*
X50132Y-31064D01*
X50125Y-31063D01*
X50110Y-31065D01*
X49914Y-31065D01*
X49819Y-31105D01*
X49585Y-31105D01*
X49585Y-30511D01*
X49540Y-30404D01*
X49459Y-30323D01*
X49352Y-30279D01*
X49237Y-30278D01*
X49082Y-30279D01*
X49010Y-30351D01*
X49010Y-30815D01*
X49512Y-30815D01*
X49585Y-30742D01*
X49585Y-30511D01*
X49585Y-31105D01*
X49585Y-31105D01*
X49585Y-30907D01*
X49512Y-30835D01*
X49010Y-30835D01*
X49010Y-30842D01*
X48990Y-30842D01*
X48990Y-30835D01*
X48990Y-30815D01*
X48990Y-30351D01*
X48917Y-30279D01*
X48762Y-30278D01*
X48647Y-30279D01*
X48540Y-30323D01*
X48459Y-30404D01*
X48414Y-30511D01*
X48415Y-30742D01*
X48487Y-30815D01*
X48990Y-30815D01*
X48990Y-30835D01*
X48487Y-30835D01*
X48415Y-30907D01*
X48414Y-31138D01*
X48451Y-31226D01*
X48435Y-31265D01*
X48434Y-31330D01*
X47285Y-31330D01*
X47274Y-31302D01*
X47198Y-31226D01*
X47126Y-31196D01*
X47229Y-31172D01*
X47331Y-30941D01*
X47337Y-30688D01*
X47246Y-30453D01*
X47229Y-30427D01*
X47113Y-30400D01*
X47099Y-30414D01*
X47099Y-30386D01*
X47072Y-30270D01*
X46841Y-30168D01*
X46588Y-30162D01*
X46353Y-30253D01*
X46327Y-30270D01*
X46300Y-30386D01*
X46700Y-30785D01*
X47099Y-30386D01*
X47099Y-30414D01*
X46714Y-30800D01*
X46719Y-30805D01*
X46705Y-30819D01*
X46700Y-30814D01*
X46694Y-30819D01*
X46680Y-30805D01*
X46685Y-30800D01*
X46286Y-30400D01*
X46170Y-30427D01*
X46068Y-30658D01*
X46062Y-30911D01*
X46153Y-31146D01*
X46170Y-31172D01*
X46273Y-31196D01*
X46202Y-31225D01*
X46126Y-31301D01*
X46085Y-31401D01*
X46084Y-31480D01*
X45067Y-31480D01*
X45067Y-30700D01*
X44985Y-30490D01*
X44971Y-30469D01*
X44863Y-30451D01*
X44848Y-30465D01*
X44848Y-30436D01*
X44830Y-30328D01*
X44624Y-30237D01*
X44400Y-30232D01*
X44190Y-30314D01*
X44169Y-30328D01*
X44151Y-30436D01*
X44500Y-30785D01*
X44848Y-30436D01*
X44848Y-30465D01*
X44514Y-30800D01*
X44863Y-31148D01*
X44971Y-31130D01*
X45062Y-30924D01*
X45067Y-30700D01*
X45067Y-31480D01*
X45045Y-31480D01*
X45045Y-31471D01*
X45004Y-31372D01*
X44928Y-31296D01*
X44833Y-31256D01*
X44848Y-31163D01*
X44500Y-30814D01*
X44485Y-30828D01*
X44485Y-30800D01*
X44136Y-30451D01*
X44028Y-30469D01*
X43937Y-30675D01*
X43932Y-30899D01*
X44014Y-31109D01*
X44028Y-31130D01*
X44136Y-31148D01*
X44485Y-30800D01*
X44485Y-30828D01*
X44151Y-31163D01*
X44166Y-31256D01*
X44072Y-31295D01*
X43996Y-31371D01*
X43955Y-31471D01*
X43954Y-31578D01*
X43954Y-32128D01*
X43995Y-32227D01*
X44071Y-32303D01*
X44171Y-32344D01*
X44278Y-32345D01*
X44828Y-32345D01*
X44927Y-32304D01*
X45003Y-32228D01*
X45044Y-32128D01*
X45044Y-32120D01*
X46084Y-32120D01*
X46084Y-32198D01*
X46125Y-32297D01*
X46201Y-32373D01*
X46301Y-32414D01*
X46408Y-32415D01*
X47098Y-32415D01*
X47197Y-32374D01*
X47273Y-32298D01*
X47285Y-32270D01*
X48775Y-32270D01*
X48954Y-32234D01*
X48954Y-32234D01*
X49107Y-32132D01*
X49138Y-32101D01*
X49348Y-32101D01*
X49447Y-32060D01*
X49462Y-32045D01*
X50083Y-32045D01*
X50262Y-32009D01*
X50262Y-32009D01*
X50276Y-32000D01*
X50276Y-32000D01*
X50335Y-32000D01*
X50435Y-31959D01*
X50500Y-31894D01*
X50564Y-31958D01*
X50663Y-31999D01*
X50770Y-32000D01*
X50860Y-32000D01*
X50875Y-32003D01*
X51530Y-32003D01*
X51530Y-32300D01*
X51565Y-32479D01*
X51667Y-32632D01*
X51820Y-32734D01*
X52000Y-32770D01*
X52179Y-32734D01*
X52332Y-32632D01*
X52434Y-32479D01*
X52470Y-32300D01*
X52470Y-31937D01*
X52523Y-31884D01*
X52564Y-31784D01*
X52565Y-31677D01*
X52565Y-31165D01*
X52548Y-31126D01*
X52585Y-31038D01*
X52585Y-38532D01*
X52220Y-38167D01*
X52220Y-35000D01*
X52219Y-34999D01*
X52195Y-34877D01*
X52195Y-34877D01*
X52172Y-34843D01*
X52126Y-34773D01*
X52126Y-34773D01*
X51769Y-34417D01*
X51770Y-34356D01*
X51770Y-33736D01*
X51729Y-33637D01*
X51653Y-33561D01*
X51553Y-33520D01*
X51446Y-33519D01*
X51370Y-33519D01*
X51370Y-33500D01*
X51461Y-33409D01*
X51544Y-33208D01*
X51545Y-32992D01*
X51462Y-32791D01*
X51309Y-32638D01*
X51108Y-32555D01*
X50892Y-32554D01*
X50691Y-32637D01*
X50538Y-32790D01*
X50455Y-32991D01*
X50454Y-33207D01*
X50537Y-33408D01*
X50649Y-33519D01*
X50546Y-33519D01*
X50447Y-33560D01*
X50371Y-33636D01*
X50330Y-33736D01*
X50330Y-33780D01*
X49851Y-33780D01*
X49798Y-33726D01*
X49698Y-33685D01*
X49591Y-33684D01*
X48901Y-33684D01*
X48802Y-33725D01*
X48726Y-33801D01*
X48685Y-33901D01*
X48684Y-34008D01*
X48684Y-34480D01*
X48632Y-34480D01*
X48244Y-34092D01*
X48245Y-33892D01*
X48162Y-33691D01*
X48113Y-33642D01*
X48308Y-33562D01*
X48461Y-33409D01*
X48544Y-33208D01*
X48545Y-32992D01*
X48462Y-32791D01*
X48309Y-32638D01*
X48108Y-32555D01*
X47892Y-32554D01*
X47691Y-32637D01*
X47538Y-32790D01*
X47455Y-32991D01*
X47454Y-33207D01*
X47521Y-33368D01*
X47444Y-33292D01*
X47445Y-33092D01*
X47362Y-32891D01*
X47209Y-32738D01*
X47008Y-32655D01*
X46792Y-32654D01*
X46591Y-32737D01*
X46438Y-32890D01*
X46355Y-33091D01*
X46354Y-33307D01*
X46437Y-33508D01*
X46590Y-33661D01*
X46791Y-33744D01*
X46992Y-33745D01*
X47155Y-33907D01*
X47154Y-34107D01*
X47237Y-34308D01*
X47390Y-34461D01*
X47591Y-34544D01*
X47792Y-34545D01*
X48273Y-35026D01*
X48273Y-35026D01*
X48343Y-35072D01*
X48377Y-35095D01*
X48377Y-35095D01*
X48499Y-35119D01*
X48500Y-35120D01*
X48708Y-35120D01*
X48685Y-35177D01*
X48684Y-35421D01*
X48731Y-35535D01*
X48673Y-35573D01*
X47792Y-36455D01*
X47592Y-36454D01*
X47391Y-36537D01*
X47306Y-36622D01*
X46677Y-35994D01*
X46677Y-34616D01*
X46677Y-34444D01*
X46652Y-34353D01*
X46549Y-34193D01*
X46393Y-34084D01*
X46208Y-34043D01*
X46110Y-34043D01*
X46110Y-34520D01*
X46612Y-34520D01*
X46677Y-34444D01*
X46677Y-34616D01*
X46612Y-34540D01*
X46110Y-34540D01*
X46110Y-35017D01*
X46208Y-35017D01*
X46393Y-34976D01*
X46549Y-34867D01*
X46652Y-34707D01*
X46677Y-34616D01*
X46677Y-35994D01*
X46655Y-35972D01*
X46676Y-35869D01*
X46640Y-35690D01*
X46539Y-35539D01*
X46388Y-35437D01*
X46209Y-35402D01*
X46090Y-35402D01*
X46090Y-35017D01*
X46090Y-34540D01*
X46090Y-34520D01*
X46090Y-34043D01*
X45991Y-34043D01*
X45806Y-34084D01*
X45650Y-34193D01*
X45547Y-34353D01*
X45522Y-34444D01*
X45587Y-34520D01*
X46090Y-34520D01*
X46090Y-34540D01*
X45587Y-34540D01*
X45522Y-34616D01*
X45547Y-34707D01*
X45650Y-34867D01*
X45806Y-34976D01*
X45991Y-35017D01*
X46090Y-35017D01*
X46090Y-35402D01*
X45990Y-35402D01*
X45811Y-35437D01*
X45660Y-35539D01*
X45559Y-35690D01*
X45523Y-35869D01*
X45559Y-36047D01*
X45660Y-36199D01*
X45811Y-36300D01*
X45990Y-36336D01*
X46114Y-36336D01*
X47004Y-37226D01*
X47004Y-37226D01*
X47084Y-37280D01*
X45863Y-37280D01*
X44577Y-35994D01*
X44577Y-34616D01*
X44577Y-34444D01*
X44552Y-34353D01*
X44449Y-34193D01*
X44293Y-34084D01*
X44108Y-34043D01*
X44010Y-34043D01*
X44010Y-34520D01*
X44512Y-34520D01*
X44577Y-34444D01*
X44577Y-34616D01*
X44512Y-34540D01*
X44010Y-34540D01*
X44010Y-35017D01*
X44108Y-35017D01*
X44293Y-34976D01*
X44449Y-34867D01*
X44552Y-34707D01*
X44577Y-34616D01*
X44577Y-35994D01*
X44555Y-35972D01*
X44576Y-35869D01*
X44540Y-35690D01*
X44439Y-35539D01*
X44288Y-35437D01*
X44109Y-35402D01*
X43985Y-35402D01*
X43720Y-35136D01*
X43720Y-34979D01*
X43891Y-35017D01*
X43990Y-35017D01*
X43990Y-34540D01*
X43982Y-34540D01*
X43982Y-34520D01*
X43990Y-34520D01*
X43990Y-34043D01*
X43891Y-34043D01*
X43720Y-34081D01*
X43720Y-34032D01*
X44007Y-33745D01*
X44007Y-33745D01*
X44208Y-33662D01*
X44361Y-33509D01*
X44444Y-33308D01*
X44445Y-33092D01*
X44362Y-32891D01*
X44209Y-32738D01*
X44008Y-32655D01*
X43792Y-32654D01*
X43591Y-32737D01*
X43438Y-32890D01*
X43355Y-33091D01*
X43354Y-33307D01*
X43408Y-33438D01*
X43173Y-33673D01*
X43104Y-33777D01*
X43080Y-33900D01*
X43080Y-35269D01*
X43104Y-35391D01*
X43173Y-35495D01*
X43444Y-35766D01*
X43423Y-35869D01*
X43459Y-36047D01*
X43560Y-36199D01*
X43711Y-36300D01*
X43890Y-36336D01*
X44014Y-36336D01*
X45504Y-37826D01*
X45504Y-37826D01*
X45573Y-37872D01*
X45608Y-37895D01*
X45608Y-37895D01*
X45730Y-37919D01*
X45730Y-37920D01*
X47209Y-37920D01*
X47138Y-37990D01*
X47055Y-38191D01*
X47054Y-38407D01*
X47084Y-38480D01*
X45232Y-38480D01*
X45144Y-38392D01*
X45145Y-38192D01*
X45062Y-37991D01*
X44909Y-37838D01*
X44708Y-37755D01*
X44492Y-37754D01*
X44291Y-37837D01*
X44138Y-37990D01*
X44055Y-38191D01*
X44054Y-38407D01*
X44137Y-38608D01*
X44280Y-38750D01*
X44280Y-39066D01*
X44252Y-39078D01*
X44078Y-39251D01*
X43985Y-39477D01*
X43984Y-39721D01*
X44008Y-39780D01*
X43432Y-39780D01*
X42665Y-39012D01*
X42665Y-37411D01*
X42624Y-37226D01*
X42577Y-37143D01*
X42478Y-37135D01*
X42470Y-37143D01*
X42470Y-31588D01*
X42307Y-31194D01*
X42006Y-30893D01*
X41613Y-30730D01*
X41188Y-30729D01*
X40794Y-30892D01*
X40493Y-31193D01*
X40330Y-31586D01*
X40329Y-32011D01*
X40492Y-32405D01*
X40793Y-32706D01*
X41186Y-32869D01*
X41611Y-32870D01*
X42005Y-32707D01*
X42306Y-32406D01*
X42469Y-32013D01*
X42470Y-31588D01*
X42470Y-37143D01*
X42467Y-37146D01*
X42467Y-34600D01*
X42385Y-34390D01*
X42371Y-34369D01*
X42263Y-34351D01*
X42248Y-34365D01*
X42248Y-34336D01*
X42230Y-34228D01*
X42024Y-34137D01*
X41800Y-34132D01*
X41590Y-34214D01*
X41569Y-34228D01*
X41551Y-34336D01*
X41900Y-34685D01*
X42248Y-34336D01*
X42248Y-34365D01*
X41914Y-34700D01*
X42263Y-35048D01*
X42371Y-35030D01*
X42462Y-34824D01*
X42467Y-34600D01*
X42467Y-37146D01*
X42464Y-37150D01*
X42464Y-37121D01*
X42456Y-37022D01*
X42373Y-36975D01*
X42248Y-36948D01*
X42248Y-35063D01*
X41900Y-34714D01*
X41885Y-34728D01*
X41885Y-34700D01*
X41536Y-34351D01*
X41443Y-34366D01*
X41404Y-34272D01*
X41328Y-34196D01*
X41228Y-34155D01*
X41121Y-34154D01*
X40571Y-34154D01*
X40472Y-34195D01*
X40396Y-34271D01*
X40355Y-34371D01*
X40354Y-34478D01*
X40354Y-35028D01*
X40395Y-35127D01*
X40471Y-35203D01*
X40571Y-35244D01*
X40678Y-35245D01*
X41228Y-35245D01*
X41327Y-35204D01*
X41403Y-35128D01*
X41443Y-35033D01*
X41536Y-35048D01*
X41885Y-34700D01*
X41885Y-34728D01*
X41551Y-35063D01*
X41569Y-35171D01*
X41775Y-35262D01*
X41999Y-35267D01*
X42209Y-35185D01*
X42230Y-35171D01*
X42248Y-35063D01*
X42248Y-36948D01*
X42188Y-36934D01*
X42001Y-36968D01*
X41841Y-37070D01*
X41771Y-37140D01*
X42108Y-37477D01*
X42464Y-37121D01*
X42464Y-37150D01*
X42122Y-37491D01*
X42459Y-37828D01*
X42529Y-37758D01*
X42631Y-37598D01*
X42665Y-37411D01*
X42665Y-39012D01*
X42650Y-38998D01*
X42652Y-38986D01*
X42617Y-38807D01*
X42516Y-38655D01*
X42445Y-38585D01*
X42445Y-37842D01*
X42108Y-37505D01*
X42094Y-37519D01*
X42094Y-37491D01*
X41757Y-37154D01*
X41687Y-37223D01*
X41585Y-37383D01*
X41552Y-37570D01*
X41593Y-37756D01*
X41639Y-37838D01*
X41739Y-37846D01*
X42094Y-37491D01*
X42094Y-37519D01*
X41753Y-37860D01*
X41761Y-37960D01*
X41843Y-38006D01*
X42029Y-38047D01*
X42216Y-38014D01*
X42376Y-37912D01*
X42445Y-37842D01*
X42445Y-38585D01*
X42361Y-38501D01*
X42209Y-38399D01*
X42031Y-38364D01*
X41852Y-38399D01*
X41701Y-38501D01*
X41599Y-38652D01*
X41564Y-38831D01*
X41599Y-39009D01*
X41701Y-39161D01*
X41855Y-39316D01*
X42007Y-39417D01*
X42186Y-39452D01*
X42198Y-39450D01*
X43073Y-40326D01*
X43073Y-40326D01*
X43177Y-40395D01*
X43300Y-40420D01*
X43964Y-40420D01*
X43965Y-40517D01*
X44037Y-40590D01*
X44590Y-40590D01*
X44590Y-40582D01*
X44610Y-40582D01*
X44610Y-40590D01*
X45162Y-40590D01*
X45235Y-40517D01*
X45235Y-40420D01*
X45300Y-40420D01*
X45300Y-40419D01*
X45422Y-40395D01*
X45526Y-40326D01*
X46432Y-39420D01*
X50425Y-39420D01*
X50485Y-39510D01*
X50620Y-39600D01*
X50485Y-39689D01*
X50425Y-39780D01*
X47000Y-39780D01*
X46877Y-39804D01*
X46843Y-39827D01*
X46773Y-39873D01*
X45667Y-40980D01*
X45235Y-40980D01*
X45235Y-40682D01*
X45162Y-40610D01*
X44610Y-40610D01*
X44610Y-40617D01*
X44590Y-40617D01*
X44590Y-40610D01*
X44037Y-40610D01*
X43965Y-40682D01*
X43964Y-40980D01*
X43898Y-40980D01*
X43862Y-40891D01*
X43709Y-40738D01*
X43508Y-40655D01*
X43292Y-40654D01*
X43091Y-40737D01*
X42938Y-40890D01*
X42855Y-41091D01*
X42854Y-41307D01*
X42937Y-41508D01*
X42980Y-41550D01*
X42980Y-41849D01*
X42838Y-41990D01*
X42755Y-42191D01*
X42754Y-42407D01*
X42837Y-42608D01*
X42990Y-42761D01*
X43191Y-42844D01*
X43392Y-42845D01*
X44017Y-43470D01*
X43967Y-43490D01*
X43891Y-43566D01*
X43850Y-43666D01*
X43849Y-43773D01*
X43849Y-44333D01*
X43890Y-44432D01*
X43966Y-44508D01*
X44066Y-44549D01*
X44173Y-44550D01*
X44733Y-44550D01*
X44832Y-44509D01*
X44908Y-44433D01*
X44949Y-44333D01*
X44950Y-44226D01*
X44950Y-43666D01*
X44909Y-43567D01*
X44833Y-43491D01*
X44733Y-43450D01*
X44720Y-43450D01*
X44720Y-43400D01*
X44695Y-43277D01*
X44626Y-43173D01*
X44626Y-43173D01*
X43844Y-42392D01*
X43845Y-42192D01*
X43762Y-41991D01*
X43620Y-41849D01*
X43620Y-41698D01*
X43708Y-41662D01*
X43750Y-41620D01*
X44316Y-41620D01*
X44300Y-41686D01*
X44700Y-42085D01*
X44705Y-42080D01*
X44719Y-42094D01*
X44714Y-42100D01*
X44719Y-42105D01*
X44705Y-42119D01*
X44700Y-42114D01*
X44685Y-42128D01*
X44685Y-42100D01*
X44286Y-41700D01*
X44170Y-41727D01*
X44068Y-41958D01*
X44062Y-42211D01*
X44153Y-42446D01*
X44170Y-42472D01*
X44286Y-42499D01*
X44685Y-42100D01*
X44685Y-42128D01*
X44300Y-42513D01*
X44327Y-42629D01*
X44558Y-42731D01*
X44811Y-42737D01*
X45046Y-42646D01*
X45072Y-42629D01*
X45096Y-42526D01*
X45125Y-42597D01*
X45201Y-42673D01*
X45301Y-42714D01*
X45408Y-42715D01*
X46098Y-42715D01*
X46197Y-42674D01*
X46273Y-42598D01*
X46314Y-42498D01*
X46315Y-42420D01*
X46449Y-42420D01*
X46590Y-42561D01*
X46791Y-42644D01*
X47007Y-42645D01*
X47208Y-42562D01*
X47361Y-42409D01*
X47444Y-42208D01*
X47445Y-41992D01*
X47362Y-41791D01*
X47209Y-41638D01*
X47008Y-41555D01*
X46792Y-41554D01*
X46591Y-41637D01*
X46449Y-41780D01*
X46315Y-41780D01*
X46315Y-41701D01*
X46274Y-41602D01*
X46198Y-41526D01*
X46098Y-41485D01*
X46067Y-41485D01*
X47132Y-40420D01*
X50425Y-40420D01*
X50485Y-40510D01*
X50609Y-40592D01*
X50478Y-40682D01*
X50351Y-40879D01*
X50319Y-40996D01*
X50382Y-41090D01*
X51040Y-41090D01*
X51040Y-41082D01*
X51060Y-41082D01*
X51060Y-41090D01*
X51717Y-41090D01*
X51780Y-40996D01*
X51748Y-40879D01*
X51621Y-40682D01*
X51490Y-40592D01*
X51614Y-40510D01*
X51739Y-40321D01*
X51784Y-40100D01*
X51739Y-39878D01*
X51614Y-39689D01*
X51479Y-39600D01*
X51614Y-39510D01*
X51739Y-39321D01*
X51784Y-39100D01*
X51739Y-38878D01*
X51614Y-38689D01*
X51479Y-38600D01*
X51614Y-38510D01*
X51638Y-38473D01*
X51673Y-38526D01*
X53332Y-40185D01*
X53360Y-40321D01*
X53485Y-40510D01*
X53620Y-40600D01*
X53485Y-40689D01*
X53360Y-40878D01*
X53315Y-41100D01*
X53360Y-41321D01*
X53485Y-41510D01*
X53620Y-41600D01*
X53485Y-41689D01*
X53360Y-41878D01*
X53315Y-42100D01*
X53360Y-42321D01*
X53485Y-42510D01*
X53609Y-42592D01*
X53478Y-42682D01*
X53351Y-42879D01*
X53319Y-42996D01*
X53382Y-43090D01*
X54040Y-43090D01*
X54040Y-43082D01*
X54060Y-43082D01*
X54060Y-43090D01*
X54717Y-43090D01*
X54780Y-42996D01*
X54748Y-42879D01*
X54621Y-42682D01*
X54490Y-42592D01*
X54614Y-42510D01*
X54739Y-42321D01*
X54784Y-42100D01*
X54739Y-41878D01*
X54614Y-41689D01*
X54479Y-41600D01*
X54614Y-41510D01*
X54739Y-41321D01*
X54784Y-41100D01*
X54768Y-41020D01*
X55049Y-41020D01*
X55190Y-41161D01*
X55391Y-41244D01*
X55526Y-41245D01*
X56050Y-41899D01*
X56051Y-41899D01*
X56054Y-41904D01*
X56267Y-42161D01*
X56255Y-42191D01*
X56254Y-42407D01*
X56337Y-42608D01*
X56490Y-42761D01*
X56555Y-42788D01*
X56490Y-42814D01*
X56469Y-42828D01*
X56451Y-42936D01*
X56800Y-43285D01*
X57148Y-42936D01*
X57130Y-42828D01*
X57042Y-42789D01*
X57108Y-42762D01*
X57254Y-42615D01*
X57254Y-42628D01*
X57295Y-42727D01*
X57371Y-42803D01*
X57471Y-42844D01*
X57578Y-42845D01*
X58128Y-42845D01*
X58227Y-42804D01*
X58303Y-42728D01*
X58344Y-42628D01*
X58345Y-42521D01*
X58345Y-41971D01*
X58304Y-41872D01*
X58228Y-41796D01*
X58128Y-41755D01*
X58021Y-41754D01*
X57471Y-41754D01*
X57372Y-41795D01*
X57296Y-41871D01*
X57255Y-41971D01*
X57255Y-41984D01*
X57109Y-41838D01*
X56908Y-41755D01*
X56762Y-41754D01*
X56552Y-41502D01*
X56550Y-41499D01*
X56028Y-40848D01*
X56044Y-40808D01*
X56045Y-40592D01*
X55962Y-40391D01*
X55809Y-40238D01*
X55608Y-40155D01*
X55392Y-40154D01*
X55191Y-40237D01*
X55049Y-40380D01*
X54701Y-40380D01*
X54739Y-40321D01*
X54784Y-40100D01*
X54739Y-39878D01*
X54614Y-39689D01*
X54479Y-39600D01*
X54599Y-39520D01*
X54987Y-39520D01*
X54979Y-39537D01*
X54979Y-39645D01*
X54979Y-39861D01*
X55020Y-39961D01*
X55096Y-40037D01*
X55195Y-40078D01*
X55303Y-40078D01*
X56003Y-40078D01*
X56096Y-40040D01*
X56210Y-40040D01*
X56247Y-40077D01*
X56411Y-40144D01*
X56588Y-40145D01*
X56751Y-40077D01*
X56877Y-39952D01*
X56944Y-39788D01*
X56945Y-39611D01*
X56877Y-39448D01*
X56752Y-39322D01*
X56588Y-39255D01*
X56411Y-39254D01*
X56248Y-39322D01*
X56220Y-39350D01*
X56220Y-39254D01*
X56220Y-39038D01*
X56194Y-38974D01*
X56196Y-38972D01*
X56240Y-38865D01*
X56240Y-38782D01*
X56167Y-38710D01*
X55610Y-38710D01*
X55610Y-38717D01*
X55590Y-38717D01*
X55590Y-38710D01*
X55032Y-38710D01*
X54959Y-38782D01*
X54959Y-38865D01*
X54965Y-38880D01*
X54740Y-38880D01*
X54739Y-38878D01*
X54614Y-38689D01*
X54509Y-38620D01*
X54962Y-38620D01*
X55032Y-38690D01*
X55590Y-38690D01*
X55590Y-38682D01*
X55610Y-38682D01*
X55610Y-38690D01*
X56167Y-38690D01*
X56237Y-38620D01*
X56400Y-38620D01*
X56431Y-38613D01*
X56464Y-38613D01*
X56492Y-38601D01*
X56522Y-38595D01*
X56549Y-38577D01*
X56579Y-38564D01*
X56600Y-38543D01*
X56626Y-38526D01*
X56644Y-38499D01*
X56667Y-38476D01*
X56952Y-38043D01*
X56966Y-38040D01*
X57110Y-37944D01*
X57110Y-38490D01*
X59278Y-38490D01*
X59221Y-38546D01*
X59180Y-38646D01*
X59180Y-38753D01*
X59180Y-39753D01*
X59221Y-39852D01*
X59297Y-39928D01*
X59396Y-39969D01*
X59503Y-39970D01*
X60405Y-39970D01*
X60410Y-39968D01*
X60410Y-40910D01*
X60410Y-40910D01*
G37*
G54D37*
X60410Y-40910D02*
X59002Y-40910D01*
X59044Y-40808D01*
X59045Y-40592D01*
X58962Y-40391D01*
X58809Y-40238D01*
X58608Y-40155D01*
X58392Y-40154D01*
X58191Y-40237D01*
X58038Y-40390D01*
X57955Y-40591D01*
X57954Y-40807D01*
X58037Y-41008D01*
X58190Y-41161D01*
X58391Y-41244D01*
X58607Y-41245D01*
X58808Y-41162D01*
X58810Y-41160D01*
X58810Y-43255D01*
X58808Y-43255D01*
X58592Y-43254D01*
X58391Y-43337D01*
X58249Y-43480D01*
X57338Y-43480D01*
X57362Y-43424D01*
X57367Y-43200D01*
X57285Y-42990D01*
X57271Y-42969D01*
X57163Y-42951D01*
X56814Y-43300D01*
X56819Y-43305D01*
X56805Y-43319D01*
X56800Y-43314D01*
X56794Y-43319D01*
X56780Y-43305D01*
X56785Y-43300D01*
X56436Y-42951D01*
X56328Y-42969D01*
X56237Y-43175D01*
X56232Y-43399D01*
X56263Y-43480D01*
X55832Y-43480D01*
X55726Y-43373D01*
X55622Y-43304D01*
X55500Y-43280D01*
X54759Y-43280D01*
X54780Y-43203D01*
X54717Y-43110D01*
X54060Y-43110D01*
X54060Y-43117D01*
X54040Y-43117D01*
X54040Y-43110D01*
X53382Y-43110D01*
X53319Y-43203D01*
X53340Y-43280D01*
X52632Y-43280D01*
X52226Y-42873D01*
X52122Y-42804D01*
X52000Y-42780D01*
X51674Y-42780D01*
X51614Y-42689D01*
X51479Y-42600D01*
X51614Y-42510D01*
X51739Y-42321D01*
X51784Y-42100D01*
X51739Y-41878D01*
X51614Y-41689D01*
X51490Y-41607D01*
X51621Y-41517D01*
X51748Y-41320D01*
X51780Y-41203D01*
X51717Y-41110D01*
X51060Y-41110D01*
X51060Y-41117D01*
X51040Y-41117D01*
X51040Y-41110D01*
X50382Y-41110D01*
X50319Y-41203D01*
X50351Y-41320D01*
X50478Y-41517D01*
X50609Y-41607D01*
X50485Y-41689D01*
X50425Y-41780D01*
X50350Y-41780D01*
X50209Y-41638D01*
X50008Y-41555D01*
X49792Y-41554D01*
X49591Y-41637D01*
X49438Y-41790D01*
X49355Y-41991D01*
X49354Y-42207D01*
X49437Y-42408D01*
X49590Y-42561D01*
X49791Y-42644D01*
X50007Y-42645D01*
X50208Y-42562D01*
X50350Y-42420D01*
X50425Y-42420D01*
X50485Y-42510D01*
X50620Y-42600D01*
X50485Y-42689D01*
X50360Y-42878D01*
X50315Y-43100D01*
X50360Y-43321D01*
X50485Y-43510D01*
X50620Y-43600D01*
X50485Y-43689D01*
X50425Y-43780D01*
X50265Y-43780D01*
X50265Y-43665D01*
X50248Y-43626D01*
X50285Y-43538D01*
X50285Y-42911D01*
X50240Y-42804D01*
X50159Y-42723D01*
X50052Y-42679D01*
X49937Y-42678D01*
X49782Y-42679D01*
X49710Y-42751D01*
X49710Y-43215D01*
X50212Y-43215D01*
X50285Y-43142D01*
X50285Y-42911D01*
X50285Y-43538D01*
X50285Y-43307D01*
X50212Y-43235D01*
X49710Y-43235D01*
X49710Y-43242D01*
X49690Y-43242D01*
X49690Y-43235D01*
X49690Y-43215D01*
X49690Y-42751D01*
X49617Y-42679D01*
X49462Y-42678D01*
X49347Y-42679D01*
X49240Y-42723D01*
X49159Y-42804D01*
X49114Y-42911D01*
X49115Y-43142D01*
X49187Y-43215D01*
X49690Y-43215D01*
X49690Y-43235D01*
X49187Y-43235D01*
X49115Y-43307D01*
X49114Y-43538D01*
X49151Y-43626D01*
X49139Y-43655D01*
X48608Y-43655D01*
X48608Y-43542D01*
X48567Y-43443D01*
X48491Y-43367D01*
X48392Y-43326D01*
X48285Y-43326D01*
X47773Y-43326D01*
X47674Y-43367D01*
X47598Y-43442D01*
X47556Y-43542D01*
X47556Y-43649D01*
X47556Y-44397D01*
X47597Y-44496D01*
X47673Y-44572D01*
X47739Y-44600D01*
X47674Y-44626D01*
X47598Y-44702D01*
X47556Y-44801D01*
X47556Y-44909D01*
X47556Y-45657D01*
X47597Y-45756D01*
X47673Y-45832D01*
X47772Y-45873D01*
X47880Y-45873D01*
X48392Y-45873D01*
X48491Y-45832D01*
X48567Y-45757D01*
X48608Y-45657D01*
X48608Y-45550D01*
X48608Y-45445D01*
X49139Y-45445D01*
X49151Y-45473D01*
X49114Y-45561D01*
X49115Y-45792D01*
X49187Y-45865D01*
X49690Y-45865D01*
X49690Y-45857D01*
X49710Y-45857D01*
X49710Y-45865D01*
X50212Y-45865D01*
X50285Y-45792D01*
X50285Y-45561D01*
X50248Y-45473D01*
X50264Y-45434D01*
X50264Y-45420D01*
X50425Y-45420D01*
X50485Y-45510D01*
X50620Y-45600D01*
X50485Y-45689D01*
X50360Y-45878D01*
X50315Y-46100D01*
X50360Y-46321D01*
X50485Y-46510D01*
X50620Y-46600D01*
X50485Y-46689D01*
X50360Y-46878D01*
X50315Y-47100D01*
X50360Y-47321D01*
X50485Y-47510D01*
X50673Y-47635D01*
X50895Y-47680D01*
X51204Y-47680D01*
X51426Y-47635D01*
X51614Y-47510D01*
X51739Y-47321D01*
X51784Y-47100D01*
X51739Y-46878D01*
X51614Y-46689D01*
X51479Y-46600D01*
X51614Y-46510D01*
X51739Y-46321D01*
X51784Y-46100D01*
X51739Y-45878D01*
X51614Y-45689D01*
X51479Y-45600D01*
X51614Y-45510D01*
X51739Y-45321D01*
X51784Y-45100D01*
X51739Y-44878D01*
X51614Y-44689D01*
X51479Y-44600D01*
X51614Y-44510D01*
X51739Y-44321D01*
X51784Y-44100D01*
X51739Y-43878D01*
X51614Y-43689D01*
X51479Y-43600D01*
X51614Y-43510D01*
X51674Y-43420D01*
X51867Y-43420D01*
X52273Y-43826D01*
X52273Y-43826D01*
X52377Y-43895D01*
X52500Y-43920D01*
X53351Y-43920D01*
X53315Y-44100D01*
X53360Y-44321D01*
X53485Y-44510D01*
X53620Y-44600D01*
X53485Y-44689D01*
X53360Y-44878D01*
X53315Y-45100D01*
X53360Y-45321D01*
X53485Y-45510D01*
X53620Y-45600D01*
X53485Y-45689D01*
X53360Y-45878D01*
X53315Y-46100D01*
X53360Y-46321D01*
X53485Y-46510D01*
X53620Y-46600D01*
X53485Y-46689D01*
X53360Y-46878D01*
X53315Y-47100D01*
X53360Y-47321D01*
X53485Y-47510D01*
X53673Y-47635D01*
X53895Y-47680D01*
X54204Y-47680D01*
X54426Y-47635D01*
X54614Y-47510D01*
X54739Y-47321D01*
X54784Y-47100D01*
X54739Y-46878D01*
X54614Y-46689D01*
X54479Y-46600D01*
X54614Y-46510D01*
X54739Y-46321D01*
X54784Y-46100D01*
X54739Y-45878D01*
X54614Y-45689D01*
X54479Y-45600D01*
X54614Y-45510D01*
X54739Y-45321D01*
X54784Y-45100D01*
X54739Y-44878D01*
X54614Y-44689D01*
X54479Y-44600D01*
X54614Y-44510D01*
X54739Y-44321D01*
X54784Y-44100D01*
X54748Y-43920D01*
X55367Y-43920D01*
X55473Y-44026D01*
X55473Y-44026D01*
X55577Y-44095D01*
X55700Y-44120D01*
X58249Y-44120D01*
X58380Y-44250D01*
X58380Y-45400D01*
X58404Y-45522D01*
X58473Y-45626D01*
X58810Y-45962D01*
X58810Y-46237D01*
X58600Y-46232D01*
X58390Y-46314D01*
X58369Y-46328D01*
X58351Y-46436D01*
X58700Y-46785D01*
X58705Y-46780D01*
X58719Y-46794D01*
X58714Y-46800D01*
X58719Y-46805D01*
X58705Y-46819D01*
X58700Y-46814D01*
X58685Y-46828D01*
X58685Y-46800D01*
X58336Y-46451D01*
X58228Y-46469D01*
X58137Y-46675D01*
X58132Y-46899D01*
X58214Y-47109D01*
X58228Y-47130D01*
X58336Y-47148D01*
X58685Y-46800D01*
X58685Y-46828D01*
X58351Y-47163D01*
X58369Y-47271D01*
X58575Y-47362D01*
X58799Y-47367D01*
X58810Y-47363D01*
X58810Y-47910D01*
X57670Y-47910D01*
X57670Y-45988D01*
X57507Y-45594D01*
X57206Y-45293D01*
X56813Y-45130D01*
X56388Y-45129D01*
X55994Y-45292D01*
X55693Y-45593D01*
X55530Y-45986D01*
X55529Y-46411D01*
X55692Y-46805D01*
X55993Y-47106D01*
X56386Y-47269D01*
X56811Y-47270D01*
X57205Y-47107D01*
X57506Y-46806D01*
X57669Y-46413D01*
X57670Y-45988D01*
X57670Y-47910D01*
X50285Y-47910D01*
X50285Y-46188D01*
X50285Y-45957D01*
X50212Y-45885D01*
X49710Y-45885D01*
X49710Y-46348D01*
X49782Y-46421D01*
X49937Y-46421D01*
X50052Y-46420D01*
X50159Y-46376D01*
X50240Y-46295D01*
X50285Y-46188D01*
X50285Y-47910D01*
X49690Y-47910D01*
X49690Y-46348D01*
X49690Y-45885D01*
X49187Y-45885D01*
X49115Y-45957D01*
X49114Y-46188D01*
X49159Y-46295D01*
X49240Y-46376D01*
X49347Y-46420D01*
X49462Y-46421D01*
X49617Y-46421D01*
X49690Y-46348D01*
X49690Y-47910D01*
X46443Y-47910D01*
X46443Y-45550D01*
X46443Y-44802D01*
X46402Y-44703D01*
X46326Y-44627D01*
X46260Y-44599D01*
X46325Y-44573D01*
X46401Y-44497D01*
X46443Y-44398D01*
X46443Y-44290D01*
X46443Y-43542D01*
X46402Y-43443D01*
X46326Y-43367D01*
X46227Y-43326D01*
X46119Y-43326D01*
X45607Y-43326D01*
X45508Y-43367D01*
X45432Y-43442D01*
X45391Y-43542D01*
X45391Y-43649D01*
X45391Y-44397D01*
X45432Y-44496D01*
X45508Y-44572D01*
X45573Y-44600D01*
X45508Y-44626D01*
X45432Y-44702D01*
X45391Y-44801D01*
X45391Y-44909D01*
X45391Y-45657D01*
X45432Y-45756D01*
X45508Y-45832D01*
X45607Y-45873D01*
X45714Y-45873D01*
X46226Y-45873D01*
X46325Y-45832D01*
X46401Y-45757D01*
X46443Y-45657D01*
X46443Y-45550D01*
X46443Y-47910D01*
X44972Y-47910D01*
X44972Y-46899D01*
X44890Y-46687D01*
X44875Y-46666D01*
X44766Y-46647D01*
X44752Y-46661D01*
X44752Y-46633D01*
X44733Y-46524D01*
X44525Y-46432D01*
X44299Y-46427D01*
X44087Y-46509D01*
X44066Y-46524D01*
X44047Y-46633D01*
X44400Y-46985D01*
X44752Y-46633D01*
X44752Y-46661D01*
X44414Y-47000D01*
X44766Y-47352D01*
X44875Y-47333D01*
X44967Y-47125D01*
X44972Y-46899D01*
X44972Y-47910D01*
X44752Y-47910D01*
X44752Y-47366D01*
X44400Y-47014D01*
X44385Y-47028D01*
X44385Y-47000D01*
X44033Y-46647D01*
X43924Y-46666D01*
X43867Y-46795D01*
X43867Y-45200D01*
X43785Y-44990D01*
X43771Y-44969D01*
X43663Y-44951D01*
X43648Y-44965D01*
X43648Y-44936D01*
X43630Y-44828D01*
X43424Y-44737D01*
X43200Y-44732D01*
X42990Y-44814D01*
X42969Y-44828D01*
X42951Y-44936D01*
X43300Y-45285D01*
X43648Y-44936D01*
X43648Y-44965D01*
X43314Y-45300D01*
X43663Y-45648D01*
X43771Y-45630D01*
X43862Y-45424D01*
X43867Y-45200D01*
X43867Y-46795D01*
X43832Y-46874D01*
X43827Y-47100D01*
X43909Y-47312D01*
X43924Y-47333D01*
X44033Y-47352D01*
X44385Y-47000D01*
X44385Y-47028D01*
X44047Y-47366D01*
X44066Y-47475D01*
X44274Y-47567D01*
X44500Y-47572D01*
X44712Y-47490D01*
X44733Y-47475D01*
X44752Y-47366D01*
X44752Y-47910D01*
X43648Y-47910D01*
X43648Y-45663D01*
X43300Y-45314D01*
X43285Y-45328D01*
X43285Y-45300D01*
X42936Y-44951D01*
X42828Y-44969D01*
X42737Y-45175D01*
X42732Y-45399D01*
X42814Y-45609D01*
X42828Y-45630D01*
X42936Y-45648D01*
X43285Y-45300D01*
X43285Y-45328D01*
X42951Y-45663D01*
X42969Y-45771D01*
X43175Y-45862D01*
X43399Y-45867D01*
X43609Y-45785D01*
X43630Y-45771D01*
X43648Y-45663D01*
X43648Y-47910D01*
X42672Y-47910D01*
X42672Y-45199D01*
X42650Y-45141D01*
X42650Y-42526D01*
X42650Y-41966D01*
X42609Y-41867D01*
X42533Y-41791D01*
X42433Y-41750D01*
X42326Y-41749D01*
X41766Y-41749D01*
X41667Y-41790D01*
X41591Y-41866D01*
X41550Y-41966D01*
X41549Y-42073D01*
X41549Y-42276D01*
X41235Y-42276D01*
X41235Y-38831D01*
X41200Y-38652D01*
X41098Y-38501D01*
X40947Y-38399D01*
X40768Y-38364D01*
X40590Y-38399D01*
X40438Y-38501D01*
X40283Y-38655D01*
X40182Y-38807D01*
X40147Y-38986D01*
X40182Y-39164D01*
X40283Y-39316D01*
X40435Y-39417D01*
X40613Y-39452D01*
X40792Y-39417D01*
X40944Y-39316D01*
X41098Y-39161D01*
X41200Y-39009D01*
X41235Y-38831D01*
X41235Y-42276D01*
X40746Y-42276D01*
X40739Y-42265D01*
X40720Y-42252D01*
X40720Y-41650D01*
X40861Y-41509D01*
X40944Y-41308D01*
X40945Y-41092D01*
X40862Y-40891D01*
X40709Y-40738D01*
X40508Y-40655D01*
X40292Y-40654D01*
X40091Y-40737D01*
X39938Y-40890D01*
X39855Y-41091D01*
X39854Y-41307D01*
X39937Y-41508D01*
X40080Y-41650D01*
X40080Y-42151D01*
X40011Y-42164D01*
X39860Y-42265D01*
X39759Y-42417D01*
X39723Y-42596D01*
X39759Y-42774D01*
X39860Y-42926D01*
X40011Y-43027D01*
X40190Y-43062D01*
X40409Y-43062D01*
X40588Y-43027D01*
X40739Y-42926D01*
X40746Y-42916D01*
X41803Y-42916D01*
X41803Y-42916D01*
X41926Y-42891D01*
X41988Y-42850D01*
X42433Y-42850D01*
X42532Y-42809D01*
X42608Y-42733D01*
X42649Y-42633D01*
X42650Y-42526D01*
X42650Y-45141D01*
X42590Y-44987D01*
X42575Y-44966D01*
X42466Y-44947D01*
X42452Y-44961D01*
X42452Y-44933D01*
X42433Y-44824D01*
X42225Y-44732D01*
X41999Y-44727D01*
X41787Y-44809D01*
X41766Y-44824D01*
X41747Y-44933D01*
X42100Y-45285D01*
X42452Y-44933D01*
X42452Y-44961D01*
X42114Y-45300D01*
X42466Y-45652D01*
X42575Y-45633D01*
X42667Y-45425D01*
X42672Y-45199D01*
X42672Y-47910D01*
X42452Y-47910D01*
X42452Y-45666D01*
X42100Y-45314D01*
X42085Y-45328D01*
X42085Y-45300D01*
X41733Y-44947D01*
X41624Y-44966D01*
X41532Y-45174D01*
X41527Y-45400D01*
X41609Y-45612D01*
X41624Y-45633D01*
X41733Y-45652D01*
X42085Y-45300D01*
X42085Y-45328D01*
X41747Y-45666D01*
X41766Y-45775D01*
X41974Y-45867D01*
X42200Y-45872D01*
X42412Y-45790D01*
X42433Y-45775D01*
X42452Y-45666D01*
X42452Y-47910D01*
X41670Y-47910D01*
X41670Y-46488D01*
X41507Y-46094D01*
X41206Y-45793D01*
X40877Y-45656D01*
X40877Y-44689D01*
X40877Y-44517D01*
X40852Y-44426D01*
X40749Y-44266D01*
X40593Y-44157D01*
X40408Y-44117D01*
X40310Y-44117D01*
X40310Y-44593D01*
X40812Y-44593D01*
X40877Y-44517D01*
X40877Y-44689D01*
X40812Y-44613D01*
X40310Y-44613D01*
X40310Y-45090D01*
X40408Y-45090D01*
X40593Y-45049D01*
X40749Y-44941D01*
X40852Y-44781D01*
X40877Y-44689D01*
X40877Y-45656D01*
X40813Y-45630D01*
X40388Y-45629D01*
X40290Y-45670D01*
X40290Y-45090D01*
X40290Y-44613D01*
X40290Y-44593D01*
X40290Y-44117D01*
X40191Y-44117D01*
X40006Y-44157D01*
X39850Y-44266D01*
X39747Y-44426D01*
X39722Y-44517D01*
X39787Y-44593D01*
X40290Y-44593D01*
X40290Y-44613D01*
X39787Y-44613D01*
X39722Y-44689D01*
X39747Y-44781D01*
X39850Y-44941D01*
X40006Y-45049D01*
X40191Y-45090D01*
X40290Y-45090D01*
X40290Y-45670D01*
X39994Y-45792D01*
X39693Y-46093D01*
X39530Y-46486D01*
X39529Y-46911D01*
X39692Y-47305D01*
X39993Y-47606D01*
X40386Y-47769D01*
X40811Y-47770D01*
X41205Y-47607D01*
X41506Y-47306D01*
X41669Y-46913D01*
X41670Y-46488D01*
X41670Y-47910D01*
X39389Y-47910D01*
X39389Y-29689D01*
X53039Y-29689D01*
X52938Y-29790D01*
X52855Y-29991D01*
X52854Y-30207D01*
X52937Y-30408D01*
X53090Y-30561D01*
X53291Y-30644D01*
X53507Y-30645D01*
X53708Y-30562D01*
X53861Y-30409D01*
X53944Y-30208D01*
X53945Y-29992D01*
X53862Y-29791D01*
X53760Y-29689D01*
X55410Y-29689D01*
X55410Y-30580D01*
X53800Y-30580D01*
X53677Y-30604D01*
X53573Y-30673D01*
X53392Y-30855D01*
X53192Y-30854D01*
X52991Y-30937D01*
X52838Y-31090D01*
X52755Y-31291D01*
X52754Y-31507D01*
X52837Y-31708D01*
X52990Y-31861D01*
X53055Y-31888D01*
X52990Y-31914D01*
X52969Y-31928D01*
X52951Y-32036D01*
X53300Y-32385D01*
X53305Y-32380D01*
X53319Y-32394D01*
X53314Y-32400D01*
X53663Y-32748D01*
X53771Y-32730D01*
X53862Y-32524D01*
X53864Y-32417D01*
X54580Y-33132D01*
X54580Y-33667D01*
X54426Y-33564D01*
X54204Y-33520D01*
X53895Y-33520D01*
X53673Y-33564D01*
X53648Y-33580D01*
X53648Y-32763D01*
X53300Y-32414D01*
X53285Y-32428D01*
X53285Y-32400D01*
X52936Y-32051D01*
X52828Y-32069D01*
X52737Y-32275D01*
X52732Y-32499D01*
X52814Y-32709D01*
X52828Y-32730D01*
X52936Y-32748D01*
X53285Y-32400D01*
X53285Y-32428D01*
X52951Y-32763D01*
X52969Y-32871D01*
X53175Y-32962D01*
X53399Y-32967D01*
X53609Y-32885D01*
X53630Y-32871D01*
X53648Y-32763D01*
X53648Y-33580D01*
X53485Y-33689D01*
X53360Y-33878D01*
X53315Y-34100D01*
X53360Y-34321D01*
X53485Y-34510D01*
X53609Y-34592D01*
X53478Y-34682D01*
X53351Y-34879D01*
X53319Y-34996D01*
X53382Y-35090D01*
X54040Y-35090D01*
X54040Y-35082D01*
X54060Y-35082D01*
X54060Y-35090D01*
X54067Y-35090D01*
X54067Y-35110D01*
X54060Y-35110D01*
X54060Y-35117D01*
X54040Y-35117D01*
X54040Y-35110D01*
X53382Y-35110D01*
X53319Y-35203D01*
X53351Y-35320D01*
X53478Y-35517D01*
X53609Y-35607D01*
X53485Y-35689D01*
X53360Y-35878D01*
X53315Y-36100D01*
X53360Y-36321D01*
X53485Y-36510D01*
X53620Y-36600D01*
X53485Y-36689D01*
X53360Y-36878D01*
X53315Y-37100D01*
X53351Y-37280D01*
X53300Y-37280D01*
X53177Y-37304D01*
X53073Y-37373D01*
X52973Y-37473D01*
X52904Y-37577D01*
X52880Y-37700D01*
X52880Y-38827D01*
X52585Y-38532D01*
X52585Y-31038D01*
X52585Y-30411D01*
X52540Y-30304D01*
X52459Y-30223D01*
X52352Y-30179D01*
X52237Y-30178D01*
X52082Y-30179D01*
X52010Y-30251D01*
X52010Y-30715D01*
X52512Y-30715D01*
X52585Y-30642D01*
X52585Y-30411D01*
X52585Y-31038D01*
X52585Y-30807D01*
X52512Y-30735D01*
X52010Y-30735D01*
X52010Y-30742D01*
X51990Y-30742D01*
X51990Y-30735D01*
X51990Y-30715D01*
X51990Y-30251D01*
X51917Y-30179D01*
X51762Y-30178D01*
X51647Y-30179D01*
X51540Y-30223D01*
X51459Y-30304D01*
X51414Y-30411D01*
X51415Y-30642D01*
X51487Y-30715D01*
X51990Y-30715D01*
X51990Y-30735D01*
X51487Y-30735D01*
X51415Y-30807D01*
X51414Y-31038D01*
X51425Y-31063D01*
X50875Y-31063D01*
X50867Y-31064D01*
X50903Y-31028D01*
X50947Y-30921D01*
X50947Y-30806D01*
X50947Y-30527D01*
X50947Y-30412D01*
X50903Y-30305D01*
X50821Y-30224D01*
X50714Y-30179D01*
X50582Y-30180D01*
X50510Y-30252D01*
X50510Y-30657D01*
X50875Y-30657D01*
X50947Y-30584D01*
X50947Y-30527D01*
X50947Y-30806D01*
X50947Y-30749D01*
X50875Y-30677D01*
X50510Y-30677D01*
X50510Y-31081D01*
X50550Y-31121D01*
X50499Y-31171D01*
X50449Y-31121D01*
X50490Y-31081D01*
X50490Y-30677D01*
X50490Y-30657D01*
X50490Y-30252D01*
X50417Y-30180D01*
X50285Y-30179D01*
X50178Y-30224D01*
X50096Y-30305D01*
X50052Y-30412D01*
X50052Y-30527D01*
X50052Y-30584D01*
X50125Y-30657D01*
X50490Y-30657D01*
X50490Y-30677D01*
X50125Y-30677D01*
X50052Y-30749D01*
X50052Y-30806D01*
X50052Y-30921D01*
X50096Y-31028D01*
X50132Y-31064D01*
X50125Y-31063D01*
X50110Y-31065D01*
X49914Y-31065D01*
X49819Y-31105D01*
X49585Y-31105D01*
X49585Y-30511D01*
X49540Y-30404D01*
X49459Y-30323D01*
X49352Y-30279D01*
X49237Y-30278D01*
X49082Y-30279D01*
X49010Y-30351D01*
X49010Y-30815D01*
X49512Y-30815D01*
X49585Y-30742D01*
X49585Y-30511D01*
X49585Y-31105D01*
X49585Y-31105D01*
X49585Y-30907D01*
X49512Y-30835D01*
X49010Y-30835D01*
X49010Y-30842D01*
X48990Y-30842D01*
X48990Y-30835D01*
X48990Y-30815D01*
X48990Y-30351D01*
X48917Y-30279D01*
X48762Y-30278D01*
X48647Y-30279D01*
X48540Y-30323D01*
X48459Y-30404D01*
X48414Y-30511D01*
X48415Y-30742D01*
X48487Y-30815D01*
X48990Y-30815D01*
X48990Y-30835D01*
X48487Y-30835D01*
X48415Y-30907D01*
X48414Y-31138D01*
X48451Y-31226D01*
X48435Y-31265D01*
X48434Y-31330D01*
X47285Y-31330D01*
X47274Y-31302D01*
X47198Y-31226D01*
X47126Y-31196D01*
X47229Y-31172D01*
X47331Y-30941D01*
X47337Y-30688D01*
X47246Y-30453D01*
X47229Y-30427D01*
X47113Y-30400D01*
X47099Y-30414D01*
X47099Y-30386D01*
X47072Y-30270D01*
X46841Y-30168D01*
X46588Y-30162D01*
X46353Y-30253D01*
X46327Y-30270D01*
X46300Y-30386D01*
X46700Y-30785D01*
X47099Y-30386D01*
X47099Y-30414D01*
X46714Y-30800D01*
X46719Y-30805D01*
X46705Y-30819D01*
X46700Y-30814D01*
X46694Y-30819D01*
X46680Y-30805D01*
X46685Y-30800D01*
X46286Y-30400D01*
X46170Y-30427D01*
X46068Y-30658D01*
X46062Y-30911D01*
X46153Y-31146D01*
X46170Y-31172D01*
X46273Y-31196D01*
X46202Y-31225D01*
X46126Y-31301D01*
X46085Y-31401D01*
X46084Y-31480D01*
X45067Y-31480D01*
X45067Y-30700D01*
X44985Y-30490D01*
X44971Y-30469D01*
X44863Y-30451D01*
X44848Y-30465D01*
X44848Y-30436D01*
X44830Y-30328D01*
X44624Y-30237D01*
X44400Y-30232D01*
X44190Y-30314D01*
X44169Y-30328D01*
X44151Y-30436D01*
X44500Y-30785D01*
X44848Y-30436D01*
X44848Y-30465D01*
X44514Y-30800D01*
X44863Y-31148D01*
X44971Y-31130D01*
X45062Y-30924D01*
X45067Y-30700D01*
X45067Y-31480D01*
X45045Y-31480D01*
X45045Y-31471D01*
X45004Y-31372D01*
X44928Y-31296D01*
X44833Y-31256D01*
X44848Y-31163D01*
X44500Y-30814D01*
X44485Y-30828D01*
X44485Y-30800D01*
X44136Y-30451D01*
X44028Y-30469D01*
X43937Y-30675D01*
X43932Y-30899D01*
X44014Y-31109D01*
X44028Y-31130D01*
X44136Y-31148D01*
X44485Y-30800D01*
X44485Y-30828D01*
X44151Y-31163D01*
X44166Y-31256D01*
X44072Y-31295D01*
X43996Y-31371D01*
X43955Y-31471D01*
X43954Y-31578D01*
X43954Y-32128D01*
X43995Y-32227D01*
X44071Y-32303D01*
X44171Y-32344D01*
X44278Y-32345D01*
X44828Y-32345D01*
X44927Y-32304D01*
X45003Y-32228D01*
X45044Y-32128D01*
X45044Y-32120D01*
X46084Y-32120D01*
X46084Y-32198D01*
X46125Y-32297D01*
X46201Y-32373D01*
X46301Y-32414D01*
X46408Y-32415D01*
X47098Y-32415D01*
X47197Y-32374D01*
X47273Y-32298D01*
X47285Y-32270D01*
X48775Y-32270D01*
X48954Y-32234D01*
X48954Y-32234D01*
X49107Y-32132D01*
X49138Y-32101D01*
X49348Y-32101D01*
X49447Y-32060D01*
X49462Y-32045D01*
X50083Y-32045D01*
X50262Y-32009D01*
X50262Y-32009D01*
X50276Y-32000D01*
X50276Y-32000D01*
X50335Y-32000D01*
X50435Y-31959D01*
X50500Y-31894D01*
X50564Y-31958D01*
X50663Y-31999D01*
X50770Y-32000D01*
X50860Y-32000D01*
X50875Y-32003D01*
X51530Y-32003D01*
X51530Y-32300D01*
X51565Y-32479D01*
X51667Y-32632D01*
X51820Y-32734D01*
X52000Y-32770D01*
X52179Y-32734D01*
X52332Y-32632D01*
X52434Y-32479D01*
X52470Y-32300D01*
X52470Y-31937D01*
X52523Y-31884D01*
X52564Y-31784D01*
X52565Y-31677D01*
X52565Y-31165D01*
X52548Y-31126D01*
X52585Y-31038D01*
X52585Y-38532D01*
X52220Y-38167D01*
X52220Y-35000D01*
X52219Y-34999D01*
X52195Y-34877D01*
X52195Y-34877D01*
X52172Y-34843D01*
X52126Y-34773D01*
X52126Y-34773D01*
X51769Y-34417D01*
X51770Y-34356D01*
X51770Y-33736D01*
X51729Y-33637D01*
X51653Y-33561D01*
X51553Y-33520D01*
X51446Y-33519D01*
X51370Y-33519D01*
X51370Y-33500D01*
X51461Y-33409D01*
X51544Y-33208D01*
X51545Y-32992D01*
X51462Y-32791D01*
X51309Y-32638D01*
X51108Y-32555D01*
X50892Y-32554D01*
X50691Y-32637D01*
X50538Y-32790D01*
X50455Y-32991D01*
X50454Y-33207D01*
X50537Y-33408D01*
X50649Y-33519D01*
X50546Y-33519D01*
X50447Y-33560D01*
X50371Y-33636D01*
X50330Y-33736D01*
X50330Y-33780D01*
X49851Y-33780D01*
X49798Y-33726D01*
X49698Y-33685D01*
X49591Y-33684D01*
X48901Y-33684D01*
X48802Y-33725D01*
X48726Y-33801D01*
X48685Y-33901D01*
X48684Y-34008D01*
X48684Y-34480D01*
X48632Y-34480D01*
X48244Y-34092D01*
X48245Y-33892D01*
X48162Y-33691D01*
X48113Y-33642D01*
X48308Y-33562D01*
X48461Y-33409D01*
X48544Y-33208D01*
X48545Y-32992D01*
X48462Y-32791D01*
X48309Y-32638D01*
X48108Y-32555D01*
X47892Y-32554D01*
X47691Y-32637D01*
X47538Y-32790D01*
X47455Y-32991D01*
X47454Y-33207D01*
X47521Y-33368D01*
X47444Y-33292D01*
X47445Y-33092D01*
X47362Y-32891D01*
X47209Y-32738D01*
X47008Y-32655D01*
X46792Y-32654D01*
X46591Y-32737D01*
X46438Y-32890D01*
X46355Y-33091D01*
X46354Y-33307D01*
X46437Y-33508D01*
X46590Y-33661D01*
X46791Y-33744D01*
X46992Y-33745D01*
X47155Y-33907D01*
X47154Y-34107D01*
X47237Y-34308D01*
X47390Y-34461D01*
X47591Y-34544D01*
X47792Y-34545D01*
X48273Y-35026D01*
X48273Y-35026D01*
X48343Y-35072D01*
X48377Y-35095D01*
X48377Y-35095D01*
X48499Y-35119D01*
X48500Y-35120D01*
X48708Y-35120D01*
X48685Y-35177D01*
X48684Y-35421D01*
X48731Y-35535D01*
X48673Y-35573D01*
X47792Y-36455D01*
X47592Y-36454D01*
X47391Y-36537D01*
X47306Y-36622D01*
X46677Y-35994D01*
X46677Y-34616D01*
X46677Y-34444D01*
X46652Y-34353D01*
X46549Y-34193D01*
X46393Y-34084D01*
X46208Y-34043D01*
X46110Y-34043D01*
X46110Y-34520D01*
X46612Y-34520D01*
X46677Y-34444D01*
X46677Y-34616D01*
X46612Y-34540D01*
X46110Y-34540D01*
X46110Y-35017D01*
X46208Y-35017D01*
X46393Y-34976D01*
X46549Y-34867D01*
X46652Y-34707D01*
X46677Y-34616D01*
X46677Y-35994D01*
X46655Y-35972D01*
X46676Y-35869D01*
X46640Y-35690D01*
X46539Y-35539D01*
X46388Y-35437D01*
X46209Y-35402D01*
X46090Y-35402D01*
X46090Y-35017D01*
X46090Y-34540D01*
X46090Y-34520D01*
X46090Y-34043D01*
X45991Y-34043D01*
X45806Y-34084D01*
X45650Y-34193D01*
X45547Y-34353D01*
X45522Y-34444D01*
X45587Y-34520D01*
X46090Y-34520D01*
X46090Y-34540D01*
X45587Y-34540D01*
X45522Y-34616D01*
X45547Y-34707D01*
X45650Y-34867D01*
X45806Y-34976D01*
X45991Y-35017D01*
X46090Y-35017D01*
X46090Y-35402D01*
X45990Y-35402D01*
X45811Y-35437D01*
X45660Y-35539D01*
X45559Y-35690D01*
X45523Y-35869D01*
X45559Y-36047D01*
X45660Y-36199D01*
X45811Y-36300D01*
X45990Y-36336D01*
X46114Y-36336D01*
X47004Y-37226D01*
X47004Y-37226D01*
X47084Y-37280D01*
X45863Y-37280D01*
X44577Y-35994D01*
X44577Y-34616D01*
X44577Y-34444D01*
X44552Y-34353D01*
X44449Y-34193D01*
X44293Y-34084D01*
X44108Y-34043D01*
X44010Y-34043D01*
X44010Y-34520D01*
X44512Y-34520D01*
X44577Y-34444D01*
X44577Y-34616D01*
X44512Y-34540D01*
X44010Y-34540D01*
X44010Y-35017D01*
X44108Y-35017D01*
X44293Y-34976D01*
X44449Y-34867D01*
X44552Y-34707D01*
X44577Y-34616D01*
X44577Y-35994D01*
X44555Y-35972D01*
X44576Y-35869D01*
X44540Y-35690D01*
X44439Y-35539D01*
X44288Y-35437D01*
X44109Y-35402D01*
X43985Y-35402D01*
X43720Y-35136D01*
X43720Y-34979D01*
X43891Y-35017D01*
X43990Y-35017D01*
X43990Y-34540D01*
X43982Y-34540D01*
X43982Y-34520D01*
X43990Y-34520D01*
X43990Y-34043D01*
X43891Y-34043D01*
X43720Y-34081D01*
X43720Y-34032D01*
X44007Y-33745D01*
X44007Y-33745D01*
X44208Y-33662D01*
X44361Y-33509D01*
X44444Y-33308D01*
X44445Y-33092D01*
X44362Y-32891D01*
X44209Y-32738D01*
X44008Y-32655D01*
X43792Y-32654D01*
X43591Y-32737D01*
X43438Y-32890D01*
X43355Y-33091D01*
X43354Y-33307D01*
X43408Y-33438D01*
X43173Y-33673D01*
X43104Y-33777D01*
X43080Y-33900D01*
X43080Y-35269D01*
X43104Y-35391D01*
X43173Y-35495D01*
X43444Y-35766D01*
X43423Y-35869D01*
X43459Y-36047D01*
X43560Y-36199D01*
X43711Y-36300D01*
X43890Y-36336D01*
X44014Y-36336D01*
X45504Y-37826D01*
X45504Y-37826D01*
X45573Y-37872D01*
X45608Y-37895D01*
X45608Y-37895D01*
X45730Y-37919D01*
X45730Y-37920D01*
X47209Y-37920D01*
X47138Y-37990D01*
X47055Y-38191D01*
X47054Y-38407D01*
X47084Y-38480D01*
X45232Y-38480D01*
X45144Y-38392D01*
X45145Y-38192D01*
X45062Y-37991D01*
X44909Y-37838D01*
X44708Y-37755D01*
X44492Y-37754D01*
X44291Y-37837D01*
X44138Y-37990D01*
X44055Y-38191D01*
X44054Y-38407D01*
X44137Y-38608D01*
X44280Y-38750D01*
X44280Y-39066D01*
X44252Y-39078D01*
X44078Y-39251D01*
X43985Y-39477D01*
X43984Y-39721D01*
X44008Y-39780D01*
X43432Y-39780D01*
X42665Y-39012D01*
X42665Y-37411D01*
X42624Y-37226D01*
X42577Y-37143D01*
X42478Y-37135D01*
X42470Y-37143D01*
X42470Y-31588D01*
X42307Y-31194D01*
X42006Y-30893D01*
X41613Y-30730D01*
X41188Y-30729D01*
X40794Y-30892D01*
X40493Y-31193D01*
X40330Y-31586D01*
X40329Y-32011D01*
X40492Y-32405D01*
X40793Y-32706D01*
X41186Y-32869D01*
X41611Y-32870D01*
X42005Y-32707D01*
X42306Y-32406D01*
X42469Y-32013D01*
X42470Y-31588D01*
X42470Y-37143D01*
X42467Y-37146D01*
X42467Y-34600D01*
X42385Y-34390D01*
X42371Y-34369D01*
X42263Y-34351D01*
X42248Y-34365D01*
X42248Y-34336D01*
X42230Y-34228D01*
X42024Y-34137D01*
X41800Y-34132D01*
X41590Y-34214D01*
X41569Y-34228D01*
X41551Y-34336D01*
X41900Y-34685D01*
X42248Y-34336D01*
X42248Y-34365D01*
X41914Y-34700D01*
X42263Y-35048D01*
X42371Y-35030D01*
X42462Y-34824D01*
X42467Y-34600D01*
X42467Y-37146D01*
X42464Y-37150D01*
X42464Y-37121D01*
X42456Y-37022D01*
X42373Y-36975D01*
X42248Y-36948D01*
X42248Y-35063D01*
X41900Y-34714D01*
X41885Y-34728D01*
X41885Y-34700D01*
X41536Y-34351D01*
X41443Y-34366D01*
X41404Y-34272D01*
X41328Y-34196D01*
X41228Y-34155D01*
X41121Y-34154D01*
X40571Y-34154D01*
X40472Y-34195D01*
X40396Y-34271D01*
X40355Y-34371D01*
X40354Y-34478D01*
X40354Y-35028D01*
X40395Y-35127D01*
X40471Y-35203D01*
X40571Y-35244D01*
X40678Y-35245D01*
X41228Y-35245D01*
X41327Y-35204D01*
X41403Y-35128D01*
X41443Y-35033D01*
X41536Y-35048D01*
X41885Y-34700D01*
X41885Y-34728D01*
X41551Y-35063D01*
X41569Y-35171D01*
X41775Y-35262D01*
X41999Y-35267D01*
X42209Y-35185D01*
X42230Y-35171D01*
X42248Y-35063D01*
X42248Y-36948D01*
X42188Y-36934D01*
X42001Y-36968D01*
X41841Y-37070D01*
X41771Y-37140D01*
X42108Y-37477D01*
X42464Y-37121D01*
X42464Y-37150D01*
X42122Y-37491D01*
X42459Y-37828D01*
X42529Y-37758D01*
X42631Y-37598D01*
X42665Y-37411D01*
X42665Y-39012D01*
X42650Y-38998D01*
X42652Y-38986D01*
X42617Y-38807D01*
X42516Y-38655D01*
X42445Y-38585D01*
X42445Y-37842D01*
X42108Y-37505D01*
X42094Y-37519D01*
X42094Y-37491D01*
X41757Y-37154D01*
X41687Y-37223D01*
X41585Y-37383D01*
X41552Y-37570D01*
X41593Y-37756D01*
X41639Y-37838D01*
X41739Y-37846D01*
X42094Y-37491D01*
X42094Y-37519D01*
X41753Y-37860D01*
X41761Y-37960D01*
X41843Y-38006D01*
X42029Y-38047D01*
X42216Y-38014D01*
X42376Y-37912D01*
X42445Y-37842D01*
X42445Y-38585D01*
X42361Y-38501D01*
X42209Y-38399D01*
X42031Y-38364D01*
X41852Y-38399D01*
X41701Y-38501D01*
X41599Y-38652D01*
X41564Y-38831D01*
X41599Y-39009D01*
X41701Y-39161D01*
X41855Y-39316D01*
X42007Y-39417D01*
X42186Y-39452D01*
X42198Y-39450D01*
X43073Y-40326D01*
X43073Y-40326D01*
X43177Y-40395D01*
X43300Y-40420D01*
X43964Y-40420D01*
X43965Y-40517D01*
X44037Y-40590D01*
X44590Y-40590D01*
X44590Y-40582D01*
X44610Y-40582D01*
X44610Y-40590D01*
X45162Y-40590D01*
X45235Y-40517D01*
X45235Y-40420D01*
X45300Y-40420D01*
X45300Y-40419D01*
X45422Y-40395D01*
X45526Y-40326D01*
X46432Y-39420D01*
X50425Y-39420D01*
X50485Y-39510D01*
X50620Y-39600D01*
X50485Y-39689D01*
X50425Y-39780D01*
X47000Y-39780D01*
X46877Y-39804D01*
X46843Y-39827D01*
X46773Y-39873D01*
X45667Y-40980D01*
X45235Y-40980D01*
X45235Y-40682D01*
X45162Y-40610D01*
X44610Y-40610D01*
X44610Y-40617D01*
X44590Y-40617D01*
X44590Y-40610D01*
X44037Y-40610D01*
X43965Y-40682D01*
X43964Y-40980D01*
X43898Y-40980D01*
X43862Y-40891D01*
X43709Y-40738D01*
X43508Y-40655D01*
X43292Y-40654D01*
X43091Y-40737D01*
X42938Y-40890D01*
X42855Y-41091D01*
X42854Y-41307D01*
X42937Y-41508D01*
X42980Y-41550D01*
X42980Y-41849D01*
X42838Y-41990D01*
X42755Y-42191D01*
X42754Y-42407D01*
X42837Y-42608D01*
X42990Y-42761D01*
X43191Y-42844D01*
X43392Y-42845D01*
X44017Y-43470D01*
X43967Y-43490D01*
X43891Y-43566D01*
X43850Y-43666D01*
X43849Y-43773D01*
X43849Y-44333D01*
X43890Y-44432D01*
X43966Y-44508D01*
X44066Y-44549D01*
X44173Y-44550D01*
X44733Y-44550D01*
X44832Y-44509D01*
X44908Y-44433D01*
X44949Y-44333D01*
X44950Y-44226D01*
X44950Y-43666D01*
X44909Y-43567D01*
X44833Y-43491D01*
X44733Y-43450D01*
X44720Y-43450D01*
X44720Y-43400D01*
X44695Y-43277D01*
X44626Y-43173D01*
X44626Y-43173D01*
X43844Y-42392D01*
X43845Y-42192D01*
X43762Y-41991D01*
X43620Y-41849D01*
X43620Y-41698D01*
X43708Y-41662D01*
X43750Y-41620D01*
X44316Y-41620D01*
X44300Y-41686D01*
X44700Y-42085D01*
X44705Y-42080D01*
X44719Y-42094D01*
X44714Y-42100D01*
X44719Y-42105D01*
X44705Y-42119D01*
X44700Y-42114D01*
X44685Y-42128D01*
X44685Y-42100D01*
X44286Y-41700D01*
X44170Y-41727D01*
X44068Y-41958D01*
X44062Y-42211D01*
X44153Y-42446D01*
X44170Y-42472D01*
X44286Y-42499D01*
X44685Y-42100D01*
X44685Y-42128D01*
X44300Y-42513D01*
X44327Y-42629D01*
X44558Y-42731D01*
X44811Y-42737D01*
X45046Y-42646D01*
X45072Y-42629D01*
X45096Y-42526D01*
X45125Y-42597D01*
X45201Y-42673D01*
X45301Y-42714D01*
X45408Y-42715D01*
X46098Y-42715D01*
X46197Y-42674D01*
X46273Y-42598D01*
X46314Y-42498D01*
X46315Y-42420D01*
X46449Y-42420D01*
X46590Y-42561D01*
X46791Y-42644D01*
X47007Y-42645D01*
X47208Y-42562D01*
X47361Y-42409D01*
X47444Y-42208D01*
X47445Y-41992D01*
X47362Y-41791D01*
X47209Y-41638D01*
X47008Y-41555D01*
X46792Y-41554D01*
X46591Y-41637D01*
X46449Y-41780D01*
X46315Y-41780D01*
X46315Y-41701D01*
X46274Y-41602D01*
X46198Y-41526D01*
X46098Y-41485D01*
X46067Y-41485D01*
X47132Y-40420D01*
X50425Y-40420D01*
X50485Y-40510D01*
X50609Y-40592D01*
X50478Y-40682D01*
X50351Y-40879D01*
X50319Y-40996D01*
X50382Y-41090D01*
X51040Y-41090D01*
X51040Y-41082D01*
X51060Y-41082D01*
X51060Y-41090D01*
X51717Y-41090D01*
X51780Y-40996D01*
X51748Y-40879D01*
X51621Y-40682D01*
X51490Y-40592D01*
X51614Y-40510D01*
X51739Y-40321D01*
X51784Y-40100D01*
X51739Y-39878D01*
X51614Y-39689D01*
X51479Y-39600D01*
X51614Y-39510D01*
X51739Y-39321D01*
X51784Y-39100D01*
X51739Y-38878D01*
X51614Y-38689D01*
X51479Y-38600D01*
X51614Y-38510D01*
X51638Y-38473D01*
X51673Y-38526D01*
X53332Y-40185D01*
X53360Y-40321D01*
X53485Y-40510D01*
X53620Y-40600D01*
X53485Y-40689D01*
X53360Y-40878D01*
X53315Y-41100D01*
X53360Y-41321D01*
X53485Y-41510D01*
X53620Y-41600D01*
X53485Y-41689D01*
X53360Y-41878D01*
X53315Y-42100D01*
X53360Y-42321D01*
X53485Y-42510D01*
X53609Y-42592D01*
X53478Y-42682D01*
X53351Y-42879D01*
X53319Y-42996D01*
X53382Y-43090D01*
X54040Y-43090D01*
X54040Y-43082D01*
X54060Y-43082D01*
X54060Y-43090D01*
X54717Y-43090D01*
X54780Y-42996D01*
X54748Y-42879D01*
X54621Y-42682D01*
X54490Y-42592D01*
X54614Y-42510D01*
X54739Y-42321D01*
X54784Y-42100D01*
X54739Y-41878D01*
X54614Y-41689D01*
X54479Y-41600D01*
X54614Y-41510D01*
X54739Y-41321D01*
X54784Y-41100D01*
X54768Y-41020D01*
X55049Y-41020D01*
X55190Y-41161D01*
X55391Y-41244D01*
X55526Y-41245D01*
X56050Y-41899D01*
X56051Y-41899D01*
X56054Y-41904D01*
X56267Y-42161D01*
X56255Y-42191D01*
X56254Y-42407D01*
X56337Y-42608D01*
X56490Y-42761D01*
X56555Y-42788D01*
X56490Y-42814D01*
X56469Y-42828D01*
X56451Y-42936D01*
X56800Y-43285D01*
X57148Y-42936D01*
X57130Y-42828D01*
X57042Y-42789D01*
X57108Y-42762D01*
X57254Y-42615D01*
X57254Y-42628D01*
X57295Y-42727D01*
X57371Y-42803D01*
X57471Y-42844D01*
X57578Y-42845D01*
X58128Y-42845D01*
X58227Y-42804D01*
X58303Y-42728D01*
X58344Y-42628D01*
X58345Y-42521D01*
X58345Y-41971D01*
X58304Y-41872D01*
X58228Y-41796D01*
X58128Y-41755D01*
X58021Y-41754D01*
X57471Y-41754D01*
X57372Y-41795D01*
X57296Y-41871D01*
X57255Y-41971D01*
X57255Y-41984D01*
X57109Y-41838D01*
X56908Y-41755D01*
X56762Y-41754D01*
X56552Y-41502D01*
X56550Y-41499D01*
X56028Y-40848D01*
X56044Y-40808D01*
X56045Y-40592D01*
X55962Y-40391D01*
X55809Y-40238D01*
X55608Y-40155D01*
X55392Y-40154D01*
X55191Y-40237D01*
X55049Y-40380D01*
X54701Y-40380D01*
X54739Y-40321D01*
X54784Y-40100D01*
X54739Y-39878D01*
X54614Y-39689D01*
X54479Y-39600D01*
X54599Y-39520D01*
X54987Y-39520D01*
X54979Y-39537D01*
X54979Y-39645D01*
X54979Y-39861D01*
X55020Y-39961D01*
X55096Y-40037D01*
X55195Y-40078D01*
X55303Y-40078D01*
X56003Y-40078D01*
X56096Y-40040D01*
X56210Y-40040D01*
X56247Y-40077D01*
X56411Y-40144D01*
X56588Y-40145D01*
X56751Y-40077D01*
X56877Y-39952D01*
X56944Y-39788D01*
X56945Y-39611D01*
X56877Y-39448D01*
X56752Y-39322D01*
X56588Y-39255D01*
X56411Y-39254D01*
X56248Y-39322D01*
X56220Y-39350D01*
X56220Y-39254D01*
X56220Y-39038D01*
X56194Y-38974D01*
X56196Y-38972D01*
X56240Y-38865D01*
X56240Y-38782D01*
X56167Y-38710D01*
X55610Y-38710D01*
X55610Y-38717D01*
X55590Y-38717D01*
X55590Y-38710D01*
X55032Y-38710D01*
X54959Y-38782D01*
X54959Y-38865D01*
X54965Y-38880D01*
X54740Y-38880D01*
X54739Y-38878D01*
X54614Y-38689D01*
X54509Y-38620D01*
X54962Y-38620D01*
X55032Y-38690D01*
X55590Y-38690D01*
X55590Y-38682D01*
X55610Y-38682D01*
X55610Y-38690D01*
X56167Y-38690D01*
X56237Y-38620D01*
X56400Y-38620D01*
X56431Y-38613D01*
X56464Y-38613D01*
X56492Y-38601D01*
X56522Y-38595D01*
X56549Y-38577D01*
X56579Y-38564D01*
X56600Y-38543D01*
X56626Y-38526D01*
X56644Y-38499D01*
X56667Y-38476D01*
X56952Y-38043D01*
X56966Y-38040D01*
X57110Y-37944D01*
X57110Y-38490D01*
X59278Y-38490D01*
X59221Y-38546D01*
X59180Y-38646D01*
X59180Y-38753D01*
X59180Y-39753D01*
X59221Y-39852D01*
X59297Y-39928D01*
X59396Y-39969D01*
X59503Y-39970D01*
X60405Y-39970D01*
X60410Y-39968D01*
X60410Y-40910D01*
M02*
