G04 (created by PCBNEW (2013-05-18 BZR 4017)-stable) date Fri 27 Dec 2013 00:57:14 CST*
%MOIN*%
G04 Gerber Fmt 3.4, Leading zero omitted, Abs format*
%FSLAX34Y34*%
G01*
G70*
G90*
G04 APERTURE LIST*
%ADD10C,0.00590551*%
%ADD11C,0.00393701*%
G04 APERTURE END LIST*
G54D10*
G54D11*
X66900Y-29500D02*
X66900Y-29400D01*
X39100Y-29500D02*
X39100Y-29400D01*
X39100Y-29500D02*
X39100Y-48200D01*
X66900Y-29400D02*
X39100Y-29400D01*
X66900Y-48200D02*
X66900Y-29500D01*
X39100Y-48200D02*
X66900Y-48200D01*
M02*
