G04 #@! TF.FileFunction,Copper,L2,Bot,Signal*
%FSLAX46Y46*%
G04 Gerber Fmt 4.6, Leading zero omitted, Abs format (unit mm)*
G04 Created by KiCad (PCBNEW 4.0.0-rc2-1-stable) date Wednesday, 18 November 2015 'pmt' 21:12:13*
%MOMM*%
G01*
G04 APERTURE LIST*
%ADD10C,0.150000*%
%ADD11R,14.000000X6.000000*%
%ADD12C,0.889000*%
%ADD13C,0.254000*%
G04 APERTURE END LIST*
D10*
D11*
X171967200Y-128858000D03*
D12*
X166903400Y-131165600D03*
D13*
X166903400Y-131165600D02*
X166903400Y-131216400D01*
M02*
