G04 #@! TF.FileFunction,Copper,L1,Top,Signal*
%FSLAX46Y46*%
G04 Gerber Fmt 4.6, Leading zero omitted, Abs format (unit mm)*
G04 Created by KiCad (PCBNEW 4.0.0-rc2-stable) date 21/01/2016 13:03:49*
%MOMM*%
G01*
G04 APERTURE LIST*
%ADD10C,0.150000*%
%ADD11R,1.000760X0.599440*%
%ADD12R,0.899160X1.000760*%
%ADD13R,2.000000X2.500000*%
%ADD14R,2.500000X2.000000*%
%ADD15R,0.711200X0.457200*%
%ADD16C,0.889000*%
%ADD17C,0.254000*%
G04 APERTURE END LIST*
D10*
D11*
X171465240Y-129730500D03*
X169351960Y-128778000D03*
X171465240Y-127825500D03*
D12*
X168285160Y-131140200D03*
X169788840Y-131140200D03*
X174030640Y-131114800D03*
X172526960Y-131114800D03*
D13*
X167039600Y-128774200D03*
D14*
X177770800Y-130597600D03*
X177770800Y-127092400D03*
D12*
X169357040Y-126441200D03*
X167853360Y-126441200D03*
D15*
X173355000Y-127406400D03*
X173355000Y-128727200D03*
X175387000Y-128066800D03*
D16*
X177673000Y-128905000D03*
X171246800Y-131140200D03*
D17*
X177770800Y-130597600D02*
X177770800Y-129002800D01*
X177770800Y-129002800D02*
X177673000Y-128905000D01*
X175387000Y-128066800D02*
X175387000Y-129311400D01*
X175387000Y-129311400D02*
X176673200Y-130597600D01*
X176673200Y-130597600D02*
X177770800Y-130597600D01*
X169788840Y-131140200D02*
X171246800Y-131140200D01*
X171246800Y-131140200D02*
X172501560Y-131140200D01*
X172501560Y-131140200D02*
X172526960Y-131114800D01*
X167853360Y-126441200D02*
X167853360Y-127960440D01*
X167853360Y-127960440D02*
X167039600Y-128774200D01*
X171465240Y-129730500D02*
X173291500Y-129730500D01*
X174030640Y-130469640D02*
X174030640Y-131114800D01*
X173291500Y-129730500D02*
X174030640Y-130469640D01*
X173355000Y-128727200D02*
X169402760Y-128727200D01*
X169402760Y-128727200D02*
X169351960Y-128778000D01*
X169357040Y-126441200D02*
X169357040Y-128772920D01*
X169357040Y-128772920D02*
X169351960Y-128778000D01*
X168285160Y-131140200D02*
X168285160Y-130876040D01*
X168285160Y-130876040D02*
X169351960Y-129809240D01*
X169351960Y-129809240D02*
X169351960Y-128778000D01*
X173355000Y-126339600D02*
X173355000Y-127406400D01*
X171465240Y-127825500D02*
X171465240Y-126857760D01*
X171983400Y-126339600D02*
X173355000Y-126339600D01*
X173355000Y-126339600D02*
X177018000Y-126339600D01*
X171465240Y-126857760D02*
X171983400Y-126339600D01*
X177018000Y-126339600D02*
X177770800Y-127092400D01*
X177017500Y-126347500D02*
X177870000Y-127200000D01*
M02*
