G04*
G04  File:            POLYCAM.GBL, Tue Nov 04 13:19:36 2008*
G04  Source:          P-CAD 2004 PCB, Version 18.00.269, (Z:\trjones\school\polycam\polycam-pcad\polycam.pcb)*
G04  Format:          Gerber Format (RS-274-D), ASCII*
G04*
G04  Format Options:  Absolute Positioning*
G04                   Leading-Zero Suppression*
G04                   Scale Factor 1:1*
G04                   NO Circular Interpolation*
G04                   Inch Units*
G04                   Numeric Format: 4.4 (XXXX.XXXX)*
G04                   G54 NOT Used for Aperture Change*
G04                   Apertures Embedded*
G04*
G04  File Options:    Offset = (0.0mil,0.0mil)*
G04                   Drill Symbol Size = 80.0mil*
G04                   No Pad/Via Holes*
G04*
G04  File Contents:   Pads*
G04                   Vias*
G04                   No Designators*
G04                   No Types*
G04                   No Values*
G04                   No Drill Symbols*
G04                   Bottom*
G04                   Board*
G04*
%INPOLYCAM.GBL*%
%ICAS*%
%MOIN*%
G04*
G04  Aperture MACROs for general use --- invoked via D-code assignment *
G04*
G04  General MACRO for flashed round with rotation and/or offset hole *
%AMROTOFFROUND*
1,1,$1,0.0000,0.0000*
1,0,$2,$3,$4*%
G04*
G04  General MACRO for flashed oval (obround) with rotation and/or offset hole *
%AMROTOFFOVAL*
21,1,$1,$2,0.0000,0.0000,$3*
1,1,$4,$5,$6*
1,1,$4,0-$5,0-$6*
1,0,$7,$8,$9*%
G04*
G04  General MACRO for flashed oval (obround) with rotation and no hole *
%AMROTOVALNOHOLE*
21,1,$1,$2,0.0000,0.0000,$3*
1,1,$4,$5,$6*
1,1,$4,0-$5,0-$6*%
G04*
G04  General MACRO for flashed rectangle with rotation and/or offset hole *
%AMROTOFFRECT*
21,1,$1,$2,0.0000,0.0000,$3*
1,0,$4,$5,$6*%
G04*
G04  General MACRO for flashed rectangle with rotation and no hole *
%AMROTRECTNOHOLE*
21,1,$1,$2,0.0000,0.0000,$3*%
G04*
G04  General MACRO for flashed rounded-rectangle *
%AMROUNDRECT*
21,1,$1,$2-$4,0.0000,0.0000,$3*
21,1,$1-$4,$2,0.0000,0.0000,$3*
1,1,$4,$5,$6*
1,1,$4,$7,$8*
1,1,$4,0-$5,0-$6*
1,1,$4,0-$7,0-$8*
1,0,$9,$10,$11*%
G04*
G04  General MACRO for flashed rounded-rectangle with rotation and no hole *
%AMROUNDRECTNOHOLE*
21,1,$1,$2-$4,0.0000,0.0000,$3*
21,1,$1-$4,$2,0.0000,0.0000,$3*
1,1,$4,$5,$6*
1,1,$4,$7,$8*
1,1,$4,0-$5,0-$6*
1,1,$4,0-$7,0-$8*%
G04*
G04  General MACRO for flashed regular polygon *
%AMREGPOLY*
5,1,$1,0.0000,0.0000,$2,$3+$4*
1,0,$5,$6,$7*%
G04*
G04  General MACRO for flashed regular polygon with no hole *
%AMREGPOLYNOHOLE*
5,1,$1,0.0000,0.0000,$2,$3+$4*%
G04*
G04  General MACRO for target *
%AMTARGET*
6,0,0,$1,$2,$3,4,$4,$5,$6*%
G04*
G04  General MACRO for mounting hole *
%AMMTHOLE*
1,1,$1,0,0*
1,0,$2,0,0*
$1=$1-$2*
$1=$1/2*
21,1,$2+$1,$3,0,0,$4*
21,1,$3,$2+$1,0,0,$4*%
G04*
G04*
G04  D10 : "Ellipse X10.0mil Y10.0mil H0.0mil 0.0deg (0.0mil,0.0mil) Draw"*
G04  Disc: OuterDia=0.0100*
%ADD10C, 0.0100*%
G04  D11 : "Ellipse X11.8mil Y11.8mil H0.0mil 0.0deg (0.0mil,0.0mil) Draw"*
G04  Disc: OuterDia=0.0118*
%ADD11C, 0.0118*%
G04  D12 : "Ellipse X12.0mil Y12.0mil H0.0mil 0.0deg (0.0mil,0.0mil) Draw"*
G04  Disc: OuterDia=0.0120*
%ADD12C, 0.0120*%
G04  D13 : "Ellipse X15.0mil Y15.0mil H0.0mil 0.0deg (0.0mil,0.0mil) Draw"*
G04  Disc: OuterDia=0.0150*
%ADD13C, 0.0150*%
G04  D14 : "Ellipse X16.0mil Y16.0mil H0.0mil 0.0deg (0.0mil,0.0mil) Draw"*
G04  Disc: OuterDia=0.0160*
%ADD14C, 0.0160*%
G04  D15 : "Ellipse X2.0mil Y2.0mil H0.0mil 0.0deg (0.0mil,0.0mil) Draw"*
G04  Disc: OuterDia=0.0020*
%ADD15C, 0.0020*%
G04  D16 : "Ellipse X22.0mil Y22.0mil H0.0mil 0.0deg (0.0mil,0.0mil) Draw"*
G04  Disc: OuterDia=0.0220*
%ADD16C, 0.0220*%
G04  D17 : "Ellipse X28.0mil Y28.0mil H0.0mil 0.0deg (0.0mil,0.0mil) Draw"*
G04  Disc: OuterDia=0.0280*
%ADD17C, 0.0280*%
G04  D18 : "Ellipse X3.9mil Y3.9mil H0.0mil 0.0deg (0.0mil,0.0mil) Draw"*
G04  Disc: OuterDia=0.0039*
%ADD18C, 0.0039*%
G04  D19 : "Ellipse X4.0mil Y4.0mil H0.0mil 0.0deg (0.0mil,0.0mil) Draw"*
G04  Disc: OuterDia=0.0040*
%ADD19C, 0.0040*%
G04  D20 : "Ellipse X5.0mil Y5.0mil H0.0mil 0.0deg (0.0mil,0.0mil) Draw"*
G04  Disc: OuterDia=0.0050*
%ADD20C, 0.0050*%
G04  D21 : "Ellipse X6.0mil Y6.0mil H0.0mil 0.0deg (0.0mil,0.0mil) Draw"*
G04  Disc: OuterDia=0.0060*
%ADD21C, 0.0060*%
G04  D22 : "Ellipse X6.0mil Y6.0mil H0.0mil 0.0deg (0.0mil,0.0mil) Draw"*
G04  Disc: OuterDia=0.0060*
%ADD22C, 0.0060*%
G04  D23 : "Ellipse X7.0mil Y7.0mil H0.0mil 0.0deg (0.0mil,0.0mil) Draw"*
G04  Disc: OuterDia=0.0070*
%ADD23C, 0.0070*%
G04  D24 : "Ellipse X7.9mil Y7.9mil H0.0mil 0.0deg (0.0mil,0.0mil) Draw"*
G04  Disc: OuterDia=0.0079*
%ADD24C, 0.0079*%
G04  D25 : "Ellipse X8.0mil Y8.0mil H0.0mil 0.0deg (0.0mil,0.0mil) Draw"*
G04  Disc: OuterDia=0.0080*
%ADD25C, 0.0080*%
G04  D26 : "Ellipse X9.8mil Y9.8mil H0.0mil 0.0deg (0.0mil,0.0mil) Draw"*
G04  Disc: OuterDia=0.0098*
%ADD26C, 0.0098*%
G04  D27 : "Ellipse X9.8mil Y9.8mil H0.0mil 0.0deg (0.0mil,0.0mil) Draw"*
G04  Disc: OuterDia=0.0098*
%ADD27C, 0.0098*%
G04  D28 : "Ellipse X35.4mil Y35.4mil H0.0mil 0.0deg (0.0mil,0.0mil) Flash"*
G04  Disc: OuterDia=0.0354*
%ADD28C, 0.0354*%
G04  D29 : "Ellipse X50.4mil Y50.4mil H0.0mil 0.0deg (0.0mil,0.0mil) Flash"*
G04  Disc: OuterDia=0.0504*
%ADD29C, 0.0504*%
G04  D30 : "Ellipse X55.4mil Y55.4mil H0.0mil 0.0deg (0.0mil,0.0mil) Flash"*
G04  Disc: OuterDia=0.0554*
%ADD30C, 0.0554*%
G04  D31 : "Ellipse X58.0mil Y58.0mil H0.0mil 0.0deg (0.0mil,0.0mil) Flash"*
G04  Disc: OuterDia=0.0580*
%ADD31C, 0.0580*%
G04  D32 : "Ellipse X60.0mil Y60.0mil H0.0mil 0.0deg (0.0mil,0.0mil) Flash"*
G04  Disc: OuterDia=0.0600*
%ADD32C, 0.0600*%
G04  D33 : "Ellipse X75.0mil Y75.0mil H0.0mil 0.0deg (0.0mil,0.0mil) Flash"*
G04  Disc: OuterDia=0.0750*
%ADD33C, 0.0750*%
G04  D34 : "Mounting Hole X35.4mil Y35.4mil H0.0mil 0.0deg (0.0mil,0.0mil) Flash"*
G04  Mounting Hole: Diameter=0.0354, Rotation=0.0, LineWidth=0.0050 *
%ADD34MTHOLE, 0.0354 X0.0154 X0.0050 X0.0*%
G04  D35 : "Ellipse X59.1mil Y59.1mil H0.0mil 0.0deg (0.0mil,0.0mil) Flash"*
G04  Disc: OuterDia=0.0591*
%ADD35C, 0.0591*%
G04  D36 : "Ellipse X74.1mil Y74.1mil H0.0mil 0.0deg (0.0mil,0.0mil) Flash"*
G04  Disc: OuterDia=0.0741*
%ADD36C, 0.0741*%
G04  D37 : "Rectangle X11.8mil Y65.0mil H0.0mil 0.0deg (0.0mil,0.0mil) Flash"*
G04  Rectangular: DimX=0.0118, DimY=0.0650, Rotation=0.0, OffsetX=0.0000, OffsetY=0.0000, HoleDia=0.0000 *
%ADD37R, 0.0118 X0.0650*%
G04  D38 : "Rectangle X101.6mil Y113.4mil H0.0mil 0.0deg (0.0mil,0.0mil) Flash"*
G04  Rectangular: DimX=0.1016, DimY=0.1134, Rotation=0.0, OffsetX=0.0000, OffsetY=0.0000, HoleDia=0.0000 *
%ADD38R, 0.1016 X0.1134*%
G04  D39 : "Rectangle X78.7mil Y19.7mil H0.0mil 0.0deg (0.0mil,0.0mil) Flash"*
G04  Rectangular: DimX=0.0787, DimY=0.0197, Rotation=0.0, OffsetX=0.0000, OffsetY=0.0000, HoleDia=0.0000 *
%ADD39R, 0.0787 X0.0197*%
G04  D40 : "Rectangle X23.6mil Y86.6mil H0.0mil 0.0deg (0.0mil,0.0mil) Flash"*
G04  Rectangular: DimX=0.0236, DimY=0.0866, Rotation=0.0, OffsetX=0.0000, OffsetY=0.0000, HoleDia=0.0000 *
%ADD40R, 0.0236 X0.0866*%
G04  D41 : "Rectangle X23.7mil Y38.6mil H0.0mil 0.0deg (0.0mil,0.0mil) Flash"*
G04  Rectangular: DimX=0.0237, DimY=0.0386, Rotation=0.0, OffsetX=0.0000, OffsetY=0.0000, HoleDia=0.0000 *
%ADD41R, 0.0237 X0.0386*%
G04  D42 : "Rectangle X38.6mil Y23.7mil H0.0mil 0.0deg (0.0mil,0.0mil) Flash"*
G04  Rectangular: DimX=0.0386, DimY=0.0237, Rotation=0.0, OffsetX=0.0000, OffsetY=0.0000, HoleDia=0.0000 *
%ADD42R, 0.0386 X0.0237*%
G04  D43 : "Rectangle X26.8mil Y80.0mil H0.0mil 0.0deg (0.0mil,0.0mil) Flash"*
G04  Rectangular: DimX=0.0268, DimY=0.0800, Rotation=0.0, OffsetX=0.0000, OffsetY=0.0000, HoleDia=0.0000 *
%ADD43R, 0.0268 X0.0800*%
G04  D44 : "Rectangle X300.0mil Y500.0mil H0.0mil 0.0deg (0.0mil,0.0mil) Flash"*
G04  Rectangular: DimX=0.3000, DimY=0.5000, Rotation=0.0, OffsetX=0.0000, OffsetY=0.0000, HoleDia=0.0000 *
%ADD44R, 0.3000 X0.5000*%
G04  D45 : "Rectangle X315.0mil Y515.0mil H0.0mil 0.0deg (0.0mil,0.0mil) Flash"*
G04  Rectangular: DimX=0.3150, DimY=0.5150, Rotation=0.0, OffsetX=0.0000, OffsetY=0.0000, HoleDia=0.0000 *
%ADD45R, 0.3150 X0.5150*%
G04  D46 : "Rectangle X93.7mil Y34.7mil H0.0mil 0.0deg (0.0mil,0.0mil) Flash"*
G04  Rectangular: DimX=0.0937, DimY=0.0347, Rotation=0.0, OffsetX=0.0000, OffsetY=0.0000, HoleDia=0.0000 *
%ADD46R, 0.0937 X0.0347*%
G04  D47 : "Rectangle X75.0mil Y35.0mil H0.0mil 0.0deg (0.0mil,0.0mil) Flash"*
G04  Rectangular: DimX=0.0750, DimY=0.0350, Rotation=0.0, OffsetX=0.0000, OffsetY=0.0000, HoleDia=0.0000 *
%ADD47R, 0.0750 X0.0350*%
G04  D48 : "Rectangle X35.4mil Y27.6mil H0.0mil 0.0deg (0.0mil,0.0mil) Flash"*
G04  Rectangular: DimX=0.0354, DimY=0.0276, Rotation=0.0, OffsetX=0.0000, OffsetY=0.0000, HoleDia=0.0000 *
%ADD48R, 0.0354 X0.0276*%
G04  D49 : "Rectangle X27.6mil Y35.4mil H0.0mil 0.0deg (0.0mil,0.0mil) Flash"*
G04  Rectangular: DimX=0.0276, DimY=0.0354, Rotation=0.0, OffsetX=0.0000, OffsetY=0.0000, HoleDia=0.0000 *
%ADD49R, 0.0276 X0.0354*%
G04  D50 : "Rectangle X35.4mil Y29.5mil H0.0mil 0.0deg (0.0mil,0.0mil) Flash"*
G04  Rectangular: DimX=0.0354, DimY=0.0295, Rotation=0.0, OffsetX=0.0000, OffsetY=0.0000, HoleDia=0.0000 *
%ADD50R, 0.0354 X0.0295*%
G04  D51 : "Rectangle X29.5mil Y35.4mil H0.0mil 0.0deg (0.0mil,0.0mil) Flash"*
G04  Rectangular: DimX=0.0295, DimY=0.0354, Rotation=0.0, OffsetX=0.0000, OffsetY=0.0000, HoleDia=0.0000 *
%ADD51R, 0.0295 X0.0354*%
G04  D52 : "Rectangle X38.6mil Y101.6mil H0.0mil 0.0deg (0.0mil,0.0mil) Flash"*
G04  Rectangular: DimX=0.0386, DimY=0.1016, Rotation=0.0, OffsetX=0.0000, OffsetY=0.0000, HoleDia=0.0000 *
%ADD52R, 0.0386 X0.1016*%
G04  D53 : "Rectangle X90.0mil Y50.0mil H0.0mil 0.0deg (0.0mil,0.0mil) Flash"*
G04  Rectangular: DimX=0.0900, DimY=0.0500, Rotation=0.0, OffsetX=0.0000, OffsetY=0.0000, HoleDia=0.0000 *
%ADD53R, 0.0900 X0.0500*%
G04  D54 : "Rectangle X50.4mil Y42.6mil H0.0mil 0.0deg (0.0mil,0.0mil) Flash"*
G04  Rectangular: DimX=0.0504, DimY=0.0426, Rotation=0.0, OffsetX=0.0000, OffsetY=0.0000, HoleDia=0.0000 *
%ADD54R, 0.0504 X0.0426*%
G04  D55 : "Rectangle X42.6mil Y50.4mil H0.0mil 0.0deg (0.0mil,0.0mil) Flash"*
G04  Rectangular: DimX=0.0426, DimY=0.0504, Rotation=0.0, OffsetX=0.0000, OffsetY=0.0000, HoleDia=0.0000 *
%ADD55R, 0.0426 X0.0504*%
G04  D56 : "Rectangle X50.4mil Y44.5mil H0.0mil 0.0deg (0.0mil,0.0mil) Flash"*
G04  Rectangular: DimX=0.0504, DimY=0.0445, Rotation=0.0, OffsetX=0.0000, OffsetY=0.0000, HoleDia=0.0000 *
%ADD56R, 0.0504 X0.0445*%
G04  D57 : "Rectangle X44.5mil Y50.4mil H0.0mil 0.0deg (0.0mil,0.0mil) Flash"*
G04  Rectangular: DimX=0.0445, DimY=0.0504, Rotation=0.0, OffsetX=0.0000, OffsetY=0.0000, HoleDia=0.0000 *
%ADD57R, 0.0445 X0.0504*%
G04  D58 : "Rectangle X59.1mil Y19.7mil H0.0mil 0.0deg (0.0mil,0.0mil) Flash"*
G04  Rectangular: DimX=0.0591, DimY=0.0197, Rotation=0.0, OffsetX=0.0000, OffsetY=0.0000, HoleDia=0.0000 *
%ADD58R, 0.0591 X0.0197*%
G04  D59 : "Rectangle X59.1mil Y59.1mil H0.0mil 0.0deg (0.0mil,0.0mil) Flash"*
G04  Square: Side=0.0591, Rotation=0.0, OffsetX=0.0000, OffsetY=0.0000, HoleDia=0.0000*
%ADD59R, 0.0591 X0.0591*%
G04  D60 : "Rectangle X65.0mil Y11.8mil H0.0mil 0.0deg (0.0mil,0.0mil) Flash"*
G04  Rectangular: DimX=0.0650, DimY=0.0118, Rotation=0.0, OffsetX=0.0000, OffsetY=0.0000, HoleDia=0.0000 *
%ADD60R, 0.0650 X0.0118*%
G04  D61 : "Rectangle X66.9mil Y43.3mil H0.0mil 0.0deg (0.0mil,0.0mil) Flash"*
G04  Rectangular: DimX=0.0669, DimY=0.0433, Rotation=0.0, OffsetX=0.0000, OffsetY=0.0000, HoleDia=0.0000 *
%ADD61R, 0.0669 X0.0433*%
G04  D62 : "Rectangle X43.3mil Y66.9mil H0.0mil 0.0deg (0.0mil,0.0mil) Flash"*
G04  Rectangular: DimX=0.0433, DimY=0.0669, Rotation=0.0, OffsetX=0.0000, OffsetY=0.0000, HoleDia=0.0000 *
%ADD62R, 0.0433 X0.0669*%
G04  D63 : "Rectangle X74.1mil Y34.7mil H0.0mil 0.0deg (0.0mil,0.0mil) Flash"*
G04  Rectangular: DimX=0.0741, DimY=0.0347, Rotation=0.0, OffsetX=0.0000, OffsetY=0.0000, HoleDia=0.0000 *
%ADD63R, 0.0741 X0.0347*%
G04  D64 : "Rectangle X74.1mil Y74.1mil H0.0mil 0.0deg (0.0mil,0.0mil) Flash"*
G04  Square: Side=0.0741, Rotation=0.0, OffsetX=0.0000, OffsetY=0.0000, HoleDia=0.0000*
%ADD64R, 0.0741 X0.0741*%
G04  D65 : "Rectangle X8.7mil Y23.6mil H0.0mil 0.0deg (0.0mil,0.0mil) Flash"*
G04  Rectangular: DimX=0.0087, DimY=0.0236, Rotation=0.0, OffsetX=0.0000, OffsetY=0.0000, HoleDia=0.0000 *
%ADD65R, 0.0087 X0.0236*%
G04  D66 : "Rectangle X23.6mil Y8.7mil H0.0mil 0.0deg (0.0mil,0.0mil) Flash"*
G04  Rectangular: DimX=0.0236, DimY=0.0087, Rotation=0.0, OffsetX=0.0000, OffsetY=0.0000, HoleDia=0.0000 *
%ADD66R, 0.0236 X0.0087*%
G04  D67 : "Rectangle X80.0mil Y12.0mil H0.0mil 0.0deg (0.0mil,0.0mil) Flash"*
G04  Rectangular: DimX=0.0800, DimY=0.0120, Rotation=0.0, OffsetX=0.0000, OffsetY=0.0000, HoleDia=0.0000 *
%ADD67R, 0.0800 X0.0120*%
G04  D68 : "Rectangle X80.0mil Y26.8mil H0.0mil 0.0deg (0.0mil,0.0mil) Flash"*
G04  Rectangular: DimX=0.0800, DimY=0.0268, Rotation=0.0, OffsetX=0.0000, OffsetY=0.0000, HoleDia=0.0000 *
%ADD68R, 0.0800 X0.0268*%
G04  D69 : "Rectangle X81.9mil Y58.3mil H0.0mil 0.0deg (0.0mil,0.0mil) Flash"*
G04  Rectangular: DimX=0.0819, DimY=0.0583, Rotation=0.0, OffsetX=0.0000, OffsetY=0.0000, HoleDia=0.0000 *
%ADD69R, 0.0819 X0.0583*%
G04  D70 : "Rectangle X58.3mil Y81.9mil H0.0mil 0.0deg (0.0mil,0.0mil) Flash"*
G04  Rectangular: DimX=0.0583, DimY=0.0819, Rotation=0.0, OffsetX=0.0000, OffsetY=0.0000, HoleDia=0.0000 *
%ADD70R, 0.0583 X0.0819*%
G04  D71 : "Rectangle X95.0mil Y27.0mil H0.0mil 0.0deg (0.0mil,0.0mil) Flash"*
G04  Rectangular: DimX=0.0950, DimY=0.0270, Rotation=0.0, OffsetX=0.0000, OffsetY=0.0000, HoleDia=0.0000 *
%ADD71R, 0.0950 X0.0270*%
G04  D72 : "Rectangle X86.6mil Y98.4mil H0.0mil 0.0deg (0.0mil,0.0mil) Flash"*
G04  Rectangular: DimX=0.0866, DimY=0.0984, Rotation=0.0, OffsetX=0.0000, OffsetY=0.0000, HoleDia=0.0000 *
%ADD72R, 0.0866 X0.0984*%
G04  D73 : "Thermal 4 Spoke/45 O84.0mil I60.0mil G15.0mil 0.0deg (0.0mil,0.0mil) Flash"*
G04  Thermal Relief: OuterDia=0.0840, InnerDia=0.0600, GapWidth=0.0150, Rotation=45.0000 *
%AMTHERMAL4D73*
1,1,0.0840,0,0*
1,0,0.0600,0,0*
21,0,0.0840,0.0150,0,0,45.0000*
21,0,0.0150,0.0840,0,0,45.0000*%
%ADD73THERMAL4D73*%
G04  D74 : "Ellipse X120.4mil Y120.4mil H0.0mil 0.0deg (0.0mil,0.0mil) Flash"*
G04  Disc: OuterDia=0.1204*
%ADD74C, 0.1204*%
G04  D75 : "Ellipse X196.9mil Y196.9mil H0.0mil 0.0deg (0.0mil,0.0mil) Flash"*
G04  Disc: OuterDia=0.1969*
%ADD75C, 0.1969*%
G04  D76 : "Ellipse X211.9mil Y211.9mil H0.0mil 0.0deg (0.0mil,0.0mil) Flash"*
G04  Disc: OuterDia=0.2119*
%ADD76C, 0.2119*%
G04  D77 : "Ellipse X22.0mil Y22.0mil H0.0mil 0.0deg (0.0mil,0.0mil) Flash"*
G04  Disc: OuterDia=0.0220*
%ADD77C, 0.0220*%
G04  D78 : "Ellipse X30.0mil Y30.0mil H0.0mil 0.0deg (0.0mil,0.0mil) Flash"*
G04  Disc: OuterDia=0.0300*
%ADD78C, 0.0300*%
G04  D79 : "Ellipse X37.0mil Y37.0mil H0.0mil 0.0deg (0.0mil,0.0mil) Flash"*
G04  Disc: OuterDia=0.0370*
%ADD79C, 0.0370*%
G04  D80 : "Thermal 4 Spoke/45 O20.0mil I15.0mil G3.3mil 0.0deg (0.0mil,0.0mil) Flash"*
G04  Thermal Relief: OuterDia=0.0200, InnerDia=0.0150, GapWidth=0.0033, Rotation=45.0000 *
%AMTHERMAL4D80*
1,1,0.0200,0,0*
1,0,0.0150,0,0*
21,0,0.0200,0.0033,0,0,45.0000*
21,0,0.0033,0.0200,0,0,45.0000*%
%ADD80THERMAL4D80*%
G04*
%FSLAX44Y44*%
%SFA1B1*%
%OFA0.0000B0.0000*%
G04*
G70*
G90*
G01*
D2*
%LNBottom*%
D12*
X41650Y48975*
Y49500D1*
D2*
D25*
X41224Y50900*
Y50504D1*
X41220Y50500*
D2*
D22*
X40750Y53311*
X40738Y53300D1*
X40728Y51668D2*
X40700Y51639D1*
X41775Y51644D2*
X41752Y51668D1*
D2*
D10*
X40750Y55825*
Y56050D1*
Y56150*
Y56050D2*
Y56150D1*
Y56450*
X41800Y57500D2*
Y58450D1*
D2*
D22*
X43150Y43650*
Y44350D1*
X43355Y47607D2*
Y47034D1*
X44580Y45810*
D2*
D11*
X43867Y47607*
X44137D1*
D2*
D12*
X44140Y47610D1*
D2*
D22*
X44850Y45881*
X43611Y47120D1*
X44850Y45881D2*
Y45450D1*
X43611Y47120D2*
Y47607D1*
X43099Y47607D2*
Y46950D1*
X43575Y46475*
X43549Y46500D2*
X43575Y46475D1*
X42844Y46845D2*
Y47607D1*
X44050Y49100D2*
X44500Y49550D1*
X43850Y49100D2*
X44050D1*
X43611Y49338D2*
X43850Y49100D1*
X43611Y49338D2*
Y49792D1*
X43800Y48900D2*
X44500D1*
X43355Y49344D2*
X43800Y48900D1*
X43355Y49344D2*
Y49792D1*
X43100Y49350D2*
X43750Y48700D1*
X43100Y49350D2*
Y49792D1*
X43099Y49792D2*
X43100Y49792D1*
X44500Y48500D2*
X43700D1*
X43920Y48300D2*
X43600D1*
D2*
D10*
X43867Y49792*
Y50317D1*
X44250Y50700*
D2*
D22*
X43600Y48300*
X42900D1*
X43700Y48500D2*
X42844Y49355D1*
Y49792*
D2*
D12*
X44693Y54993*
X44550Y54850D1*
X44524Y54225D2*
X44550Y54250D1*
D2*
D22*
X47174Y41650*
X46350D1*
X46200Y41300D2*
X45850Y41650D1*
D2*
D12*
X46575Y40600*
X46500Y40675D1*
Y40900*
X46024Y40600D2*
X46050Y40625D1*
Y40900*
D2*
D25*
X47188Y43950*
X47300Y44011D1*
D2*
D22*
X45610Y43350*
X46450D1*
X45460Y44590D2*
Y43850D1*
X45600Y44700D2*
X47500D1*
X47800Y44400*
D2*
D12*
X47300Y44011*
Y44450D1*
D2*
D25*
X45525Y45224*
X45400Y45350D1*
X46050Y45224D2*
X45525D1*
X46025Y45800D2*
X45450D1*
X46050Y45775D2*
X46025Y45800D1*
D2*
D22*
X47650Y46150*
X46070D1*
D2*
D25*
X47775Y50950*
X47800Y50925D1*
X46874Y50150D2*
X46850Y50125D1*
X46860Y49500D2*
X46800Y49440D1*
D2*
D12*
X47910Y49090*
X46940D1*
X47174Y49500D2*
X46860D1*
X47425Y50150D2*
X47650D1*
X47800Y50000*
X46850Y50125D2*
Y49800D1*
X47800Y50925D2*
Y50600D1*
D2*
D25*
X47325Y51750*
X47300Y51724D1*
D2*
D22*
X46280Y53770*
Y51410D1*
X46080Y53969D2*
X46280Y53770D1*
X46080Y53969D2*
X45176D1*
X46000Y53100D2*
X45641Y53458D1*
X45176*
Y53714D2*
X45735D1*
X45750Y53700*
D2*
D12*
X46950Y51800*
X47224D1*
X47300Y51724*
X47345Y51770*
X47700*
X47224Y52200D2*
X46950D1*
X47300Y52275D2*
X47224Y52200D1*
D2*
D22*
X47695Y56787*
X46262D1*
X46250Y56800*
X46581Y56531D2*
X47695D1*
X46550Y56500D2*
X46581Y56531D1*
X46000Y55700D2*
X45670Y56029D1*
X45175D2*
X45670D1*
X47695Y56275D2*
X46675D1*
X46600Y56200*
X46150*
X45875Y56474*
X45818Y54481D2*
X45176D1*
X46987Y54737D2*
X46450Y54200D1*
X46987Y54737D2*
X47696D1*
D2*
D12*
Y55498*
X47001D1*
X47000Y55500*
X47696Y55248D2*
X47248D1*
X47000Y55000*
D2*
D22*
X46000Y55700*
Y54650D1*
D2*
D12*
X47695Y56019*
X46980Y56020D1*
X47144Y54225D2*
X47140Y54230D1*
X47696Y54225D2*
X47144D1*
D2*
D22*
X47800Y57450*
X47550Y57200D1*
D2*
D25*
X48750Y42574*
Y42950D1*
X48774Y42550D2*
X48750Y42574D1*
D2*
D12*
X48211Y43950*
X48161Y43900D1*
D2*
D22*
X49325Y42925*
X49330Y42950D1*
X49325Y42550D2*
Y42925D1*
D2*
D12*
X48974Y43675*
X49100Y43550D1*
X48974Y43950D2*
Y43675D1*
X50525Y43724D2*
X50700Y43550D1*
X50525Y43950D2*
Y43724D1*
X49525Y43950D2*
X49550Y43974D1*
Y44350*
X50000Y43975D2*
X50150Y44350D1*
X49974Y43950D2*
X50000Y43975D1*
D2*
D22*
X48300Y47030*
X48365Y46965D1*
X49120Y46210D2*
X48365Y46965D1*
X49560Y46210D2*
X49120D1*
X50720Y45050D2*
X49560Y46210D1*
X49480Y46030D2*
X49040D1*
X48810Y46780D2*
X48880Y46710D1*
X48690Y46900D2*
X48880Y46710D1*
X49200Y46390*
X49640D2*
X49200D1*
X50780Y45250D2*
X49640Y46390D1*
X48990Y47560D2*
Y47700D1*
Y46860D2*
Y47560D1*
X49200Y46650D2*
X48990Y46860D1*
X49280Y46570D2*
X49200Y46650D1*
X49245Y46605D2*
X49200Y46650D1*
X49390Y46570D2*
X49320D1*
X49390D2*
X49280D1*
X49720D2*
X49390D1*
X50840Y45450D2*
X49720Y46570D1*
X49280Y47060D2*
Y47380D1*
X49590Y46750D2*
X49280Y47060D1*
X49680Y46750D2*
X49590D1*
X49800D2*
X49680D1*
X50900Y45650D2*
X49800Y46750D1*
Y47010D2*
X49790Y47040D1*
X50960Y45850D2*
X49800Y47010D1*
D2*
D12*
X50364Y47455*
X50400Y47420D1*
Y47250*
X50750Y46900*
D2*
D22*
X48580Y45670*
X49320D1*
X48650Y45850D2*
X49400D1*
X50364Y47770D2*
X50385Y47730D1*
X50900*
D2*
D12*
X50364Y50920*
X49745D1*
X50364Y49030D2*
X50384Y49050D1*
X49705Y49030D2*
X49700Y49024D1*
X50364Y49030D2*
X49705D1*
X50364Y48085D2*
X50379Y48100D1*
X50825Y49975D2*
X50850Y50000D1*
X50364Y49975D2*
X50825D1*
X50364D2*
X49825D1*
X49700Y49850*
Y49575*
D2*
D22*
X50364Y50290*
X50374Y50300D1*
X50364Y49345D2*
X50369Y49350D1*
D2*
D12*
X49700Y48625*
Y49024D1*
X50364Y48085D2*
X49711D1*
X49700Y48074*
D2*
D22*
X50364Y48715*
X50329Y48680D1*
X50835Y48665D2*
X50890Y48680D1*
X50329D2*
X50890D1*
D2*
D12*
X50384Y49050*
X50900D1*
X50379Y48100D2*
X50850D1*
D2*
D22*
X50370Y50600*
X50364Y50605D1*
X49425Y52224D2*
X49450Y52200D1*
D2*
D25*
X49550Y53474*
Y53250D1*
X49575Y53500D2*
X49550Y53474D1*
X48250Y51324D2*
Y51100D1*
X49100Y53424D2*
Y53250D1*
X49024Y53500D2*
X49100Y53424D1*
D2*
D22*
X48250Y51875*
X48275Y51850D1*
X49824Y53124D2*
X49250Y52550D1*
X50364Y53124D2*
X49824D1*
X50344Y52200D2*
X49850D1*
X50364Y52179D2*
X50344Y52200D1*
X49655Y52494D2*
X49650Y52500D1*
X50364Y52494D2*
X49655D1*
D2*
D12*
X48850Y52675*
Y53000D1*
X49100Y53250*
D2*
D22*
X48850Y52124*
X48925Y52200D1*
X49450*
X50364Y52809D2*
X49859D1*
X49850Y52800*
D2*
D12*
X49000Y51550*
X48750Y51300D1*
X49000Y51550D2*
X50364D1*
D2*
D22*
X48275Y51850*
X49300D1*
X50950Y55550D2*
X50729Y55329D1*
X50364*
X50880Y54250D2*
X50900D1*
X50700Y54069D2*
X50880Y54250D1*
X50700Y54069D2*
X50364D1*
Y54384D2*
X50634D1*
X50750Y54500*
X50364Y55014D2*
X50379Y55000D1*
D2*
D12*
X49625Y54275*
X49750Y54400D1*
X49050Y54650D2*
X48950D1*
X48900D2*
X48700Y54450D1*
X49500Y54650D2*
X49750Y54400D1*
X49500Y54650D2*
X49050D1*
X48950*
X48900*
X48700Y54450D2*
Y54350D1*
X50514Y55644D2*
X50364D1*
X50514Y55954D2*
X50520Y55960D1*
X50514Y55844D2*
Y55954D1*
Y55644D2*
Y55844D1*
X50890Y56330D2*
X50520Y55960D1*
D2*
D22*
X53400Y41410*
X53431Y41341D1*
X53400Y42605D2*
Y42615D1*
D2*
D25*
X53415Y42600D1*
X53750*
D2*
D22*
X52140Y42850*
X52150D1*
X52000Y43250D2*
X52150Y43100D1*
X51950Y43300D2*
X52000Y43250D1*
X51620Y43630D2*
X51950Y43300D1*
D2*
D12*
X52424Y44450*
X52050D1*
X53000Y44425D2*
Y43500D1*
X52975Y44450D2*
X53000Y44425D1*
X51874Y43950D2*
Y43725D1*
Y43775D2*
Y43950D1*
Y43725D2*
X52050Y43550D1*
X53375Y43950D2*
Y43514D1*
X53380Y43510*
X52824Y43950D2*
Y43675D1*
X53000Y43500*
X52425Y43950D2*
Y43624D1*
X52550Y43500*
X53075Y46850D2*
X53900D1*
X52000Y46600D2*
X52100Y46500D1*
X52000Y46825D2*
Y46600D1*
X51975Y46850D2*
X52000Y46825D1*
X52524Y47175D2*
X52400Y47300D1*
X52524Y47175D2*
Y46850D1*
D2*
D22*
X51300Y46250*
X51030Y46520D1*
D2*
D25*
X51424Y46850*
X51400D1*
X51350Y46900*
X51374*
X51400D2*
Y46874D1*
X51424Y46850*
X51374Y46900D2*
X51400Y46874D1*
X51424Y46850*
D2*
D12*
X51250Y46900*
X51350D1*
X51374*
X51400*
D2*
D22*
X51439Y49660*
X51450Y49650D1*
X52150Y49200D2*
Y48150D1*
X52300Y49350D2*
X52150Y49200D1*
X52650Y49700D2*
X52300Y49350D1*
X53555Y50605D2*
X52650Y49700D1*
X52600Y49400D2*
X52450Y49250D1*
X53490Y50290D2*
X52600Y49400D1*
X52800Y49350D2*
X52750Y49300D1*
X53110Y49660D2*
X52800Y49350D1*
X53100Y49250D2*
X53050Y49200D1*
X53195Y49345D2*
X53100Y49250D1*
X53350Y48200D2*
X53850Y48700D1*
Y48400D2*
X53650Y48200D1*
X52364Y50850D2*
X52700D1*
X52800Y50950*
X51200Y48400D2*
X51230D1*
X51820Y49120D2*
Y48300D1*
X51600Y50450D2*
X51450Y50600D1*
X52160Y51780D2*
Y52490D1*
X51210Y53439D2*
X52160Y52490D1*
X52550Y52360D2*
X51155Y53754D1*
X51404Y51235D2*
X51410Y51230D1*
X52550Y52360D2*
Y51100D1*
X53820Y52179D2*
X53570D1*
X53955Y52494D2*
X53650Y52800D1*
X53570Y52179D2*
X53300Y52450D1*
X53250Y52500*
Y53600*
X53910Y53090D2*
X53500D1*
X53349Y54699D2*
X53350Y54700D1*
X53900Y54910D2*
X53260Y55550D1*
D2*
D12*
X52134Y56300*
X52164Y56330D1*
D2*
D22*
X53035Y55014*
X53050Y55000D1*
X53349Y54699D2*
X53350Y54700D1*
X53100Y54500D2*
X53250Y54350D1*
X55420Y41352D2*
X55431Y41341D1*
X54100Y41672D2*
X54431Y41341D1*
X56650Y44450D2*
X56600Y44500D1*
X55004Y42535D2*
X55000Y42540D1*
X55420Y42535D2*
X55004D1*
D2*
D25*
X54100Y42625*
X54074Y42600D1*
X54670Y43550D2*
X54660Y43560D1*
D2*
D22*
X54100Y43450*
Y44300D1*
Y43450D2*
X54431Y43118D1*
D2*
D12*
X55925Y43550*
X56600D1*
X55374D2*
X54670D1*
X54660Y43560D2*
Y44290D1*
X54100Y47850D2*
Y47050D1*
X54735Y47085D2*
X54700Y47050D1*
X54735Y47455D2*
Y47085D1*
X54150Y46500D2*
X54700Y47050D1*
D2*
D22*
X56600Y46750*
X55550D1*
X56800Y46950D2*
X56600Y46750D1*
X56590Y46500D2*
X54850D1*
X56644Y46554D2*
X56590Y46500D1*
X56644Y46554D2*
X56870Y46780D1*
X55129Y47770D2*
X55900Y47000D1*
X54735Y47770D2*
X55129D1*
X56600Y46250D2*
X56950Y46600D1*
D2*
D12*
X54735Y48085*
X54335D1*
X56450Y50724D2*
X56125D1*
D2*
D22*
X54735Y48715*
X54715D1*
X54700Y48700*
X54300*
X54719D2*
X54300D1*
X54735Y48400D2*
X54400D1*
X54400Y48400*
X54734D2*
X54400D1*
D2*
D25*
X55350Y50924*
X55154D1*
X55150Y50920*
D2*
D12*
X54735*
X55150D1*
X55344*
X54735D2*
X54734Y50920D1*
X54120*
X54735Y49975D2*
X54735Y49975D1*
X55624D2*
X55750Y49850D1*
X54735Y49975D2*
X55350D1*
X55624*
X54735Y49030D2*
X55180D1*
X55350Y49200*
X55824Y49424D2*
X56200Y49800D1*
X55350Y49200D2*
Y49424D1*
X55824*
D2*
D22*
X55554Y53754*
X54735D1*
Y52809D2*
X54190D1*
X55189Y53439D2*
X55200Y53400D1*
X54735Y53439D2*
X54774Y53400D1*
X55200*
D2*
D12*
X54735Y51550*
X54200D1*
X55275D2*
X55350Y51475D1*
X54735Y51550D2*
X55275D1*
D2*
D25*
X56750Y53775*
X56775Y53750D1*
D2*
D12*
X56450Y51275*
X56375Y51350D1*
D2*
D22*
X55100Y53124*
X55050D1*
X54735*
D2*
D25*
X56450Y52624*
X56274Y52800D1*
D2*
D22*
X55825Y53124*
X56100Y52850D1*
X55825Y53124D2*
X55050D1*
X56100Y52850D2*
Y52350D1*
X56280Y52170D2*
X56300D1*
X56280D2*
X56100Y52350D1*
X56300Y52170D2*
X56430D1*
X56450Y52150*
X56200Y51620D2*
X55650Y52170D1*
Y52550*
D2*
D12*
X56375Y51350*
X56050D1*
X56424Y53150D2*
X56450Y53175D1*
X56200Y53150D2*
X56424D1*
X56200D2*
X55800Y53550D1*
D2*
D22*
X55384Y54384*
X55550Y54550D1*
X54735Y54384D2*
X55384D1*
X54735Y54069D2*
X55469D1*
X55700Y55329D2*
X55750D1*
X54735D2*
X55700D1*
X54244Y55014D2*
X54240Y55010D1*
X54735Y55014D2*
X54244D1*
X55199Y54699D2*
X55200Y54700D1*
X54735Y54699D2*
X55199D1*
D2*
D12*
X54735Y55644*
Y55834D1*
X54600Y55970*
X54240Y56330D2*
X54250D1*
X54600Y55970D2*
X54250Y56330D1*
D2*
D22*
X56070Y55329*
X55950D1*
X55700D2*
X55950D1*
X56050*
X55469Y54069D2*
X55900Y54500D1*
Y54700*
D2*
D12*
X56500Y54300*
Y54450D1*
D2*
D22*
X56780Y57610*
X56620Y57770D1*
X57750Y43110D2*
X58789D1*
X59228Y42550D2*
X58050D1*
X59789Y43110D2*
X59228Y42550D1*
X58449Y44450D2*
X58789Y44110D1*
X59249Y44650D2*
X59789Y44110D1*
X58789Y45211D2*
Y45110D1*
X58350Y45650D2*
X58789Y45211D1*
X58399Y45850D2*
X58700Y45549D1*
X59349*
X59789Y45110*
X58300Y46050D2*
X58360Y46110D1*
X58789D2*
X58360D1*
X59789D2*
X59299Y46600D1*
D2*
D12*
X57454Y47624*
X57680Y47850D1*
X57250Y47624D2*
X57454D1*
D2*
D22*
X58789Y49110*
X58320Y48641D1*
X58660Y48110D2*
X58789D1*
D2*
D25*
X57250Y48175*
X57275Y48150D1*
D2*
D12*
X58000D1*
X57300Y50024D2*
X57325Y50050D1*
X57700*
X57300Y50575D2*
X57674D1*
X57690Y50540*
D2*
D22*
X59789Y51110*
X59279Y51620D1*
X58850Y52550D2*
X58600D1*
X59339Y53039D2*
X58850Y52550D1*
X58600D2*
X57950Y51900D1*
D2*
D12*
X58000Y53838*
Y53300D1*
D2*
D22*
X59339Y54660*
X59789Y55110D1*
D2*
D12*
X58000Y54861*
Y55300D1*
D2*
D22*
X60650Y57220*
X60260Y57610D1*
D2*
D12*
X41650Y48424*
Y47900D1*
D2*
D22*
X40750Y55274*
Y53311D1*
D2*
D10*
Y56450*
X41800Y57500D1*
D2*
D22*
X40700Y51639*
Y50800D1*
X41775Y50900D2*
Y51644D1*
X47940Y48330D2*
Y47130D1*
D2*
D12*
X47224Y50950*
X47174Y51000D1*
X46900*
D2*
D22*
X45875Y56474*
Y57450D1*
X45818Y54481D2*
X46540Y53760D1*
D2*
D12*
X47696Y53968*
X47058D1*
X46900Y53800*
D2*
D22*
X48300Y48350*
Y47030D1*
X50660Y44850D2*
X49480Y46030D1*
X48690Y46900D2*
Y48030D1*
D2*
D12*
X49261Y44950*
X49550D1*
X49750Y44750*
X48238Y44950D2*
X48200Y44988D1*
Y45500*
X49745Y50920D2*
X49675Y50950D1*
D2*
D25*
X48250Y51100*
X48400Y50950D1*
D2*
D12*
X49124*
X49100Y50874D1*
D2*
D22*
X48400Y53500*
Y54700D1*
D2*
D12*
X49124Y50950*
X48850D1*
X48750Y51050*
Y51300*
D2*
D25*
X48700Y53450*
Y54350D1*
D2*
D12*
X49100Y54025*
Y54350D1*
X49625Y54000D2*
Y54275D1*
X49074Y54000D2*
X49100Y54025D1*
X48700Y54350D2*
Y53450D1*
D2*
D22*
X53400Y42064*
Y41410D1*
D2*
D12*
X52400Y47300*
X51600Y48100D1*
D2*
D22*
X52450Y49250*
Y47950D1*
X52750Y49300D2*
Y47750D1*
X53050Y49200D2*
Y47550D1*
X53350Y48200D2*
Y47350D1*
X53650Y48200D2*
Y47150D1*
X53900Y54910D2*
Y53550D1*
X52364Y50850D2*
X51350Y51864D1*
X52800Y50950D2*
Y53500D1*
X51410Y51230D2*
X51950Y50700D1*
X55860Y45250D2*
X56600Y44500D1*
X56720Y44650D2*
X55920Y45450D1*
X55420Y41984D2*
Y41352D1*
X54100Y42074D2*
Y41672D1*
X54431Y43118D2*
Y41341D1*
D2*
D12*
X54335Y48085*
X54100Y47850D1*
X56125Y50724D2*
X55900Y50950D1*
D2*
D22*
X55554Y53754*
X56100Y54300D1*
D2*
D12*
X56750Y54150*
Y53775D1*
X56224Y54024D2*
X56500Y54300D1*
X56224Y53750D2*
Y54024D1*
D2*
D22*
X58320Y48020*
X57250Y46950D1*
X58320Y48020D2*
Y48641D1*
X57330Y46780D2*
X58660Y48110D1*
X59339Y54660D2*
Y53039D1*
D2*
D16*
X57450Y56000*
Y53800D1*
D2*
D22*
X60650Y47971*
Y49250D1*
X46000Y48250D2*
Y53100D1*
X46540Y47960D2*
Y53760D1*
X51820Y49120D2*
X53935Y51235D1*
X60650Y49250D2*
Y57220D1*
D2*
D25*
X47725Y41650*
X48850D1*
D2*
D12*
X48161Y43900*
X47800D1*
D2*
D22*
X45610Y43350*
X44340Y44620D1*
X49040Y46030D2*
X47940Y47130D1*
X48650Y45850D2*
X46540Y47960D1*
D2*
D11*
X42332Y47607*
X41957D1*
D2*
D12*
X41950Y47600D1*
X41650Y47900D2*
X41950Y47600D1*
D2*
D22*
X44500Y48900*
X45300Y49700D1*
X43750Y48700D2*
X45300D1*
D2*
D11*
X42332Y49792*
X41957D1*
D2*
D12*
X41950Y49800D1*
X41650Y49500D2*
X41950Y49800D1*
X47725Y49500D2*
X48050D1*
D2*
D25*
X41761Y53300*
X42200D1*
D2*
D12*
X45176Y54993*
X44693D1*
X45176Y54225D2*
X44524D1*
X45324Y57450D2*
X44900D1*
D2*
D22*
X50660Y44850*
X55750D1*
X58050Y42550*
X58449Y44450D2*
X56650D1*
X56720Y44650D2*
X59249D1*
D2*
D25*
X54074Y42600*
X53750D1*
D2*
D22*
X52150Y43100*
X54100D1*
X50720Y45050D2*
X55810D1*
X50780Y45250D2*
X55860D1*
X50840Y45450D2*
X55920D1*
X58350Y45650D2*
X50900D1*
X58399Y45850D2*
X50960D1*
D2*
D12*
X53900Y46850*
X54100Y47050D1*
X52100Y46500D2*
X54150D1*
D2*
D22*
X51110Y46050*
X50380Y46780D1*
X51110Y46050D2*
X58300D1*
X56600Y46250D2*
X51300D1*
X59299Y46600D2*
X56950D1*
D2*
D12*
X51250Y46900*
X50750D1*
D2*
D22*
X57250Y46950*
X56800D1*
X57330Y46780D2*
X56870D1*
X51029Y50920D2*
X51050Y50900D1*
D2*
D12*
X50364Y50920*
X51029D1*
D2*
D22*
X50374Y50300*
X51140D1*
X50364Y49660D2*
X51439D1*
X50369Y49350D2*
X51250D1*
X54735Y50605D2*
X53555D1*
X54735Y50290D2*
X53490D1*
X54735Y49660D2*
X53110D1*
X54735Y49345D2*
X53195D1*
X54300Y48700D2*
X53850D1*
X54400Y48400D2*
X53850D1*
X50364Y48400D2*
X51200Y48400D1*
D2*
D12*
X51600Y48100*
X50850D1*
D2*
D22*
X51450Y50600*
X50370D1*
D2*
D12*
X57750Y49550*
X56850D1*
D2*
D22*
X51210Y53439*
X50364D1*
Y53754D2*
X51155D1*
X54735Y52179D2*
X53820D1*
X50364Y51235D2*
X51404D1*
X54735D2*
X53935D1*
X50364Y51864D2*
X51350D1*
X53955Y52494D2*
X54735D1*
X56200Y51620D2*
X59279D1*
X57950Y51900D2*
X56900D1*
X53910Y53090D2*
X54190Y52809D1*
D2*
D16*
X56950Y53300*
X57450Y53800D1*
D2*
D22*
X53260Y55550*
X50950D1*
D2*
D12*
X52715Y56330*
X54240D1*
D2*
D22*
X57100Y54300*
X56070Y55329D1*
X50379Y55000D2*
X53050D1*
X53349Y54699D2*
X50364D1*
X53100Y54500D2*
X50750D1*
D2*
D12*
X50890Y56330*
X52164D1*
D2*
D22*
X56780Y57610*
X60260D1*
X44850Y45450D2*
X45600Y44700D1*
X44500Y48500D2*
X45300Y47700D1*
X46070Y46150D2*
X43920Y48300D1*
X43575Y46475D2*
X45460Y44590D1*
X42844Y46845D2*
X45070Y44620D1*
X48580Y45670D2*
X46000Y48250D1*
X45400Y41400D2*
X43150Y43650D1*
D2*
D25*
X43621Y58915*
X43183Y58828D1*
X42744Y58915*
X42692Y58950*
X42400*
Y58000*
X43700*
Y56624*
X43704Y56600*
X43700Y56575*
Y50600*
X44000Y50300*
X45750*
Y51150*
X44600*
Y54005*
X44550Y53995*
X44452Y54014*
X44369Y54069*
X44314Y54152*
X44295Y54250*
X44314Y54347*
X44369Y54430*
X44452Y54485*
X44550Y54504*
X44600Y54494*
Y54605*
X44550Y54595*
X44452Y54614*
X44369Y54669*
X44314Y54752*
X44295Y54850*
X44314Y54947*
X44369Y55030*
X44452Y55085*
X44486Y55092*
X44540Y55146*
X44600Y55171*
Y58700*
X44300Y58950*
X43673*
X43621Y58915*
X44000Y50300D2*
X45750D1*
X43940Y50360D2*
X45750D1*
X43880Y50420D2*
X45750D1*
X43820Y50480D2*
X45750D1*
X43760Y50540D2*
X45750D1*
X43700Y50600D2*
X45750D1*
X43700Y50660D2*
X45750D1*
X43700Y50720D2*
X45750D1*
X43700Y50780D2*
X45750D1*
X43700Y50840D2*
X45750D1*
X43700Y50900D2*
X45750D1*
X43700Y50960D2*
X45750D1*
X43700Y51020D2*
X45750D1*
X43700Y51080D2*
X45750D1*
X43700Y51140D2*
X45750D1*
X43700Y51200D2*
X44600D1*
X43700Y51260D2*
X44600D1*
X43700Y51320D2*
X44600D1*
X43700Y51380D2*
X44600D1*
X43700Y51440D2*
X44600D1*
X43700Y51500D2*
X44600D1*
X43700Y51560D2*
X44600D1*
X43700Y51620D2*
X44600D1*
X43700Y51680D2*
X44600D1*
X43700Y51740D2*
X44600D1*
X43700Y51800D2*
X44600D1*
X43700Y51860D2*
X44600D1*
X43700Y51920D2*
X44600D1*
X43700Y51980D2*
X44600D1*
X43700Y52040D2*
X44600D1*
X43700Y52100D2*
X44600D1*
X43700Y52160D2*
X44600D1*
X43700Y52220D2*
X44600D1*
X43700Y52280D2*
X44600D1*
X43700Y52340D2*
X44600D1*
X43700Y52400D2*
X44600D1*
X43700Y52460D2*
X44600D1*
X43700Y52520D2*
X44600D1*
X43700Y52580D2*
X44600D1*
X43700Y52640D2*
X44600D1*
X43700Y52700D2*
X44600D1*
X43700Y52760D2*
X44600D1*
X43700Y52820D2*
X44600D1*
X43700Y52880D2*
X44600D1*
X43700Y52940D2*
X44600D1*
X43700Y53000D2*
X44600D1*
X43700Y53060D2*
X44600D1*
X43700Y53120D2*
X44600D1*
X43700Y53180D2*
X44600D1*
X43700Y53240D2*
X44600D1*
X43700Y53300D2*
X44600D1*
X43700Y53360D2*
X44600D1*
X43700Y53420D2*
X44600D1*
X43700Y53480D2*
X44600D1*
X43700Y53540D2*
X44600D1*
X43700Y53600D2*
X44600D1*
X43700Y53660D2*
X44600D1*
X43700Y53720D2*
X44600D1*
X43700Y53780D2*
X44600D1*
X43700Y53840D2*
X44600D1*
X43700Y53900D2*
X44600D1*
X43700Y53960D2*
X44600D1*
X43700Y54020D2*
X44444D1*
X43700Y54080D2*
X44362D1*
X43700Y54140D2*
X44322D1*
X43700Y54200D2*
X44305D1*
X43700Y54260D2*
X44297D1*
X43700Y54320D2*
X44309D1*
X43700Y54380D2*
X44336D1*
X43700Y54440D2*
X44384D1*
X43700Y54500D2*
X44525D1*
X44574D2*
X44600D1*
X43700Y54560D2*
X44600D1*
X43700Y54620D2*
X44444D1*
X43700Y54680D2*
X44362D1*
X43700Y54740D2*
X44322D1*
X43700Y54800D2*
X44305D1*
X43700Y54860D2*
X44297D1*
X43700Y54920D2*
X44309D1*
X43700Y54980D2*
X44336D1*
X43700Y55040D2*
X44384D1*
X43700Y55100D2*
X44493D1*
X43700Y55160D2*
X44572D1*
X43700Y55220D2*
X44600D1*
X43700Y55280D2*
X44600D1*
X43700Y55340D2*
X44600D1*
X43700Y55400D2*
X44600D1*
X43700Y55460D2*
X44600D1*
X43700Y55520D2*
X44600D1*
X43700Y55580D2*
X44600D1*
X43700Y55640D2*
X44600D1*
X43700Y55700D2*
X44600D1*
X43700Y55760D2*
X44600D1*
X43700Y55820D2*
X44600D1*
X43700Y55880D2*
X44600D1*
X43700Y55940D2*
X44600D1*
X43700Y56000D2*
X44600D1*
X43700Y56060D2*
X44600D1*
X43700Y56120D2*
X44600D1*
X43700Y56180D2*
X44600D1*
X43700Y56240D2*
X44600D1*
X43700Y56300D2*
X44600D1*
X43700Y56360D2*
X44600D1*
X43700Y56420D2*
X44600D1*
X43700Y56480D2*
X44600D1*
X43700Y56540D2*
X44600D1*
X43704Y56600D2*
X44600D1*
X43700Y56660D2*
X44600D1*
X43700Y56720D2*
X44600D1*
X43700Y56780D2*
X44600D1*
X43700Y56840D2*
X44600D1*
X43700Y56900D2*
X44600D1*
X43700Y56960D2*
X44600D1*
X43700Y57020D2*
X44600D1*
X43700Y57080D2*
X44600D1*
X43700Y57140D2*
X44600D1*
X43700Y57200D2*
X44600D1*
X43700Y57260D2*
X44600D1*
X43700Y57320D2*
X44600D1*
X43700Y57380D2*
X44600D1*
X43700Y57440D2*
X44600D1*
X43700Y57500D2*
X44600D1*
X43700Y57560D2*
X44600D1*
X43700Y57620D2*
X44600D1*
X43700Y57680D2*
X44600D1*
X43700Y57740D2*
X44600D1*
X43700Y57800D2*
X44600D1*
X43700Y57860D2*
X44600D1*
X43700Y57920D2*
X44600D1*
X43700Y57980D2*
X44600D1*
X42400Y58040D2*
X44600D1*
X42400Y58100D2*
X44600D1*
X42400Y58160D2*
X44600D1*
X42400Y58220D2*
X44600D1*
X42400Y58280D2*
X44600D1*
X42400Y58340D2*
X44600D1*
X42400Y58400D2*
X44600D1*
X42400Y58460D2*
X44600D1*
X42400Y58520D2*
X44600D1*
X42400Y58580D2*
X44600D1*
X42400Y58640D2*
X44600D1*
X42400Y58700D2*
X44600D1*
X42400Y58760D2*
X44528D1*
X42400Y58820D2*
X44456D1*
X42400Y58880D2*
X42922D1*
X43443D2*
X44384D1*
X42400Y58940D2*
X42707D1*
X43658D2*
X44312D1*
D2*
D22*
X55810Y45050*
X57750Y43110D1*
X59789Y47110D2*
X60650Y47971D1*
X46200Y41300D2*
X49950D1*
X47800Y57450D2*
X54450D1*
X52140Y42850D2*
X49320Y45670D1*
X49400Y45850D2*
X51620Y43630D1*
D2*
D23*
X48200Y53294*
X48096Y53251D1*
X48021*
X48052Y53175*
X48100Y53195*
X48287Y53117*
X48365Y52930*
X48287Y52742*
X48100Y52664*
X47912Y52742*
X47837Y52924*
X47790Y52904*
X47602Y52982*
X47524Y53170*
X47558Y53251*
X47500*
Y52559*
X47580Y52526*
X47623Y52423*
Y52127*
X47580Y52024*
X47521Y52000*
X47566Y51981*
X47569*
X47700Y52035*
X47887Y51957*
X47926Y51862*
Y52013*
X47969Y52116*
X48072Y52159*
X48427*
X48526Y52118*
Y52262*
X48569Y52365*
X48652Y52400*
X48569Y52434*
X48526Y52537*
Y52813*
X48569Y52916*
X48638Y52945*
Y53000*
X48700Y53149*
X48772Y53221*
X48730Y53322*
Y53677*
X48740Y53700*
X48578*
Y53691*
X48587Y53687*
X48665Y53500*
X48587Y53312*
X48400Y53234*
X48212Y53312*
X48209Y53318*
X48200Y53294*
X47904Y51915D2*
X47926D1*
X47862Y51967D2*
X47926D1*
X47570Y52020D2*
X47664D1*
X47735D2*
X47929D1*
X47600Y52072D2*
X47951D1*
X47622Y52125D2*
X47990D1*
X48509D2*
X48526D1*
X47623Y52177D2*
X48526D1*
X47623Y52230D2*
X48526D1*
X47623Y52282D2*
X48535D1*
X47623Y52335D2*
X48557D1*
X47623Y52387D2*
X48623D1*
X47616Y52440D2*
X48567D1*
X47594Y52492D2*
X48545D1*
X47535Y52545D2*
X48526D1*
X47500Y52597D2*
X48526D1*
X47500Y52650D2*
X48526D1*
X47500Y52702D2*
X48008D1*
X48191D2*
X48526D1*
X47500Y52755D2*
X47907D1*
X48292D2*
X48526D1*
X47500Y52807D2*
X47885D1*
X48314D2*
X48526D1*
X47500Y52860D2*
X47863D1*
X48336D2*
X48546D1*
X47500Y52912D2*
X47770D1*
X47809D2*
X47841D1*
X48358D2*
X48567D1*
X47500Y52965D2*
X47643D1*
X48350D2*
X48638D1*
X47500Y53017D2*
X47587D1*
X48328D2*
X48646D1*
X47500Y53070D2*
X47566D1*
X48307D2*
X48668D1*
X47500Y53122D2*
X47544D1*
X48274D2*
X48689D1*
X47500Y53175D2*
X47527D1*
X48147D2*
X48726D1*
X47500Y53227D2*
X47548D1*
X48031D2*
X48769D1*
X48165Y53280D2*
X48290D1*
X48509D2*
X48748D1*
X48595Y53332D2*
X48730D1*
X48617Y53385D2*
X48730D1*
X48639Y53437D2*
X48730D1*
X48661Y53490D2*
X48730D1*
X48647Y53542D2*
X48730D1*
X48625Y53595D2*
X48730D1*
X48603Y53647D2*
X48730D1*
X55676Y44671D2*
X53251D1*
X53269Y44627*
Y44273*
X53523*
X53626Y44230*
X53659Y44150*
X53896*
X53834Y44300*
X53912Y44487*
X54100Y44565*
X54287Y44487*
X54365Y44300*
X54303Y44150*
X56197*
X55676Y44671*
X53659Y44150D2*
X53896D1*
X54303D2*
X56197D1*
X53638Y44202D2*
X53875D1*
X54324D2*
X56144D1*
X53567Y44255D2*
X53853D1*
X54346D2*
X56092D1*
X53269Y44307D2*
X53837D1*
X54362D2*
X56039D1*
X53269Y44360D2*
X53859D1*
X54340D2*
X55987D1*
X53269Y44412D2*
X53881D1*
X54318D2*
X55934D1*
X53269Y44465D2*
X53903D1*
X54296D2*
X55882D1*
X53269Y44517D2*
X53984D1*
X54215D2*
X55829D1*
X53269Y44570D2*
X55777D1*
X53269Y44622D2*
X55724D1*
X51352Y44150D2*
X51590D1*
X51623Y44230*
X51726Y44273*
X52022*
X52125Y44230*
X52150Y44171*
X52161Y44198*
X52130Y44272*
Y44627*
X52148Y44671*
X50831*
X51352Y44150*
X51590*
X51300Y44202D2*
X51611D1*
X52136D2*
X52159D1*
X51247Y44255D2*
X51682D1*
X52066D2*
X52138D1*
X51195Y44307D2*
X52130D1*
X51142Y44360D2*
X52130D1*
X51090Y44412D2*
X52130D1*
X51037Y44465D2*
X52130D1*
X50985Y44517D2*
X52130D1*
X50932Y44570D2*
X52130D1*
X50880Y44622D2*
X52130D1*
D2*
D10*
X51776Y44077*
X51623Y44230D1*
X51972Y44077D2*
X52125Y44230D1*
D2*
D23*
X56730Y53426*
X56730Y53426D1*
X56773Y53323*
Y53027*
X56730Y52924*
X56671Y52900*
X56730Y52875*
X56773Y52772*
Y52741*
X56950Y52815*
X57050Y52773*
Y53526*
X57026Y53469*
X56923Y53426*
X56730*
X56763Y52794D2*
X56900D1*
X56999D2*
X57050D1*
X56742Y52846D2*
X57050D1*
X56672Y52899D2*
X57050D1*
X56741Y52951D2*
X57050D1*
X56763Y53004D2*
X57050D1*
X56773Y53056D2*
X57050D1*
X56773Y53109D2*
X57050D1*
X56773Y53161D2*
X57050D1*
X56773Y53214D2*
X57050D1*
X56773Y53266D2*
X57050D1*
X56773Y53319D2*
X57050D1*
X56753Y53371D2*
X57050D1*
X56731Y53424D2*
X57050D1*
X57029Y53476D2*
X57050D1*
D2*
D10*
X56577Y52722*
X56730Y52875D1*
D2*
D23*
X56969Y47924*
X56926Y48027D1*
Y48323*
X56969Y48426*
X57050Y48459*
Y49760*
X57019Y49773*
X56976Y49876*
Y50172*
X57019Y50275*
X57050Y50288*
Y50312*
X57019Y50324*
X56976Y50427*
Y50723*
X57019Y50826*
X57050Y50839*
Y51441*
X56765*
X56773Y51423*
Y51127*
X56730Y51024*
X56671Y51000*
X56730Y50975*
X56773Y50872*
Y50576*
X56730Y50473*
X56627Y50430*
X56272*
X56169Y50473*
X56126Y50576*
Y50872*
X56169Y50975*
X56228Y51000*
X56169Y51024*
X56130Y51118*
X56050Y51084*
X55862Y51162*
X55784Y51350*
X55862Y51537*
X55980Y51586*
X55523Y52043*
X55471Y52170*
Y52358*
X55462Y52362*
X55384Y52550*
X55462Y52737*
X55650Y52815*
X55837Y52737*
X55915Y52550*
X55837Y52362*
X55828Y52358*
Y52243*
X56273Y51798*
X56676*
X56634Y51900*
X56712Y52087*
X56900Y52165*
X57050Y52103*
Y52326*
X56950Y52284*
X56762Y52362*
X56744Y52406*
X56730Y52373*
X56638Y52335*
X56715Y52150*
X56637Y51962*
X56450Y51884*
X56262Y51962*
X56244Y52006*
X56153Y52043*
X55973Y52223*
X55921Y52350*
Y52776*
X55751Y52946*
X55160*
X55176Y52908*
Y52711*
X55151Y52652*
X55176Y52593*
Y52396*
X55151Y52337*
X55176Y52278*
Y52081*
X55151Y52022*
X55176Y51963*
Y51769*
X55527*
X55630Y51726*
X55673Y51623*
Y51327*
X55630Y51224*
X55571Y51200*
X55630Y51175*
X55673Y51072*
Y50776*
X55630Y50673*
X55527Y50630*
X55176*
Y50506*
X55151Y50447*
X55176Y50388*
Y50269*
X55527*
X55630Y50226*
X55651Y50175*
X55773Y50124*
X55806Y50091*
X55937Y50037*
X55985Y49922*
X56012Y49987*
X56200Y50065*
X56387Y49987*
X56465Y49800*
X56387Y49612*
X56256Y49558*
X55973Y49275*
X55824Y49213*
X55647*
X55630Y49173*
X55533Y49133*
X55499Y49050*
X55329Y48881*
X55180Y48819*
X55174*
X55176Y48813*
Y48616*
X55151Y48557*
X55176Y48498*
Y48301*
X55151Y48242*
X55176Y48183*
Y47987*
X55156Y47938*
X55255Y47896*
X55891Y47261*
X55900Y47265*
X56087Y47187*
X56165Y47000*
X56135Y46928*
X56526*
X56673Y47076*
X56800Y47128*
X57050*
Y47340*
X56969Y47373*
X56926Y47476*
Y47772*
X56969Y47875*
X57028Y47900*
X56969Y47924*
X56135Y46928D2*
X56526D1*
X56157Y46981D2*
X56578D1*
X56151Y47033D2*
X56631D1*
X56129Y47086D2*
X56697D1*
X56107Y47138D2*
X57050D1*
X56078Y47191D2*
X57050D1*
X55952Y47243D2*
X57050D1*
X55856Y47296D2*
X57050D1*
X55803Y47348D2*
X57029D1*
X55751Y47401D2*
X56958D1*
X55698Y47453D2*
X56936D1*
X55646Y47506D2*
X56926D1*
X55593Y47558D2*
X56926D1*
X55541Y47611D2*
X56926D1*
X55488Y47663D2*
X56926D1*
X55436Y47716D2*
X56926D1*
X55383Y47768D2*
X56926D1*
X55331Y47821D2*
X56947D1*
X55278Y47873D2*
X56968D1*
X55184Y47926D2*
X56968D1*
X55172Y47978D2*
X56947D1*
X55176Y48031D2*
X56926D1*
X55176Y48083D2*
X56926D1*
X55176Y48136D2*
X56926D1*
X55174Y48188D2*
X56926D1*
X55152Y48241D2*
X56926D1*
X55172Y48293D2*
X56926D1*
X55176Y48346D2*
X56936D1*
X55176Y48398D2*
X56957D1*
X55176Y48451D2*
X57028D1*
X55174Y48503D2*
X57050D1*
X55152Y48556D2*
X57050D1*
X55172Y48608D2*
X57050D1*
X55176Y48661D2*
X57050D1*
X55176Y48713D2*
X57050D1*
X55176Y48766D2*
X57050D1*
X55174Y48818D2*
X57050D1*
X55305Y48871D2*
X57050D1*
X55372Y48923D2*
X57050D1*
X55424Y48976D2*
X57050D1*
X55477Y49028D2*
X57050D1*
X55511Y49081D2*
X57050D1*
X55534Y49133D2*
X57050D1*
X55635Y49186D2*
X57050D1*
X55885Y49238D2*
X57050D1*
X55989Y49291D2*
X57050D1*
X56042Y49343D2*
X57050D1*
X56094Y49396D2*
X57050D1*
X56147Y49448D2*
X57050D1*
X56199Y49501D2*
X57050D1*
X56252Y49553D2*
X57050D1*
X56372Y49606D2*
X57050D1*
X56406Y49658D2*
X57050D1*
X56428Y49711D2*
X57050D1*
X56450Y49763D2*
X57043D1*
X56458Y49816D2*
X57001D1*
X56436Y49868D2*
X56980D1*
X56415Y49921D2*
X56976D1*
X55963Y49973D2*
X56006D1*
X56393D2*
X56976D1*
X55942Y50026D2*
X56105D1*
X56294D2*
X56976D1*
X55838Y50078D2*
X56976D1*
X55758Y50131D2*
X56976D1*
X55648Y50183D2*
X56981D1*
X55607Y50236D2*
X57003D1*
X55176Y50288D2*
X57050D1*
X55176Y50341D2*
X57012D1*
X55174Y50393D2*
X56990D1*
X55152Y50446D2*
X56235D1*
X56664D2*
X56976D1*
X55173Y50498D2*
X56159D1*
X56740D2*
X56976D1*
X55176Y50551D2*
X56137D1*
X56762D2*
X56976D1*
X55176Y50603D2*
X56126D1*
X56773D2*
X56976D1*
X55588Y50656D2*
X56126D1*
X56773D2*
X56976D1*
X55645Y50708D2*
X56126D1*
X56773D2*
X56976D1*
X55666Y50761D2*
X56126D1*
X56773D2*
X56992D1*
X55673Y50813D2*
X56126D1*
X56773D2*
X57014D1*
X55673Y50866D2*
X56126D1*
X56773D2*
X57050D1*
X55673Y50918D2*
X56145D1*
X56754D2*
X57050D1*
X55673Y50971D2*
X56167D1*
X56732D2*
X57050D1*
X55673Y51023D2*
X56172D1*
X56727D2*
X57050D1*
X55671Y51076D2*
X56148D1*
X56751D2*
X57050D1*
X55649Y51128D2*
X55944D1*
X56773D2*
X57050D1*
X55616Y51181D2*
X55854D1*
X56773D2*
X57050D1*
X55634Y51233D2*
X55833D1*
X56773D2*
X57050D1*
X55655Y51286D2*
X55811D1*
X56773D2*
X57050D1*
X55673Y51338D2*
X55789D1*
X56773D2*
X57050D1*
X55673Y51391D2*
X55801D1*
X56773D2*
X57050D1*
X55673Y51443D2*
X55823D1*
X55673Y51496D2*
X55845D1*
X55673Y51548D2*
X55889D1*
X55673Y51601D2*
X55966D1*
X55660Y51653D2*
X55913D1*
X55638Y51706D2*
X55861D1*
X55553Y51758D2*
X55808D1*
X55176Y51811D2*
X55756D1*
X56261D2*
X56671D1*
X55176Y51863D2*
X55703D1*
X56208D2*
X56649D1*
X55176Y51916D2*
X55651D1*
X56156D2*
X56374D1*
X56525D2*
X56641D1*
X55174Y51968D2*
X55598D1*
X56103D2*
X56259D1*
X56640D2*
X56663D1*
X55152Y52021D2*
X55546D1*
X56051D2*
X56208D1*
X56661D2*
X56684D1*
X55173Y52073D2*
X55511D1*
X55998D2*
X56123D1*
X56683D2*
X56706D1*
X55176Y52126D2*
X55489D1*
X55946D2*
X56071D1*
X56705D2*
X56805D1*
X56994D2*
X57050D1*
X55176Y52178D2*
X55471D1*
X55893D2*
X56018D1*
X56703D2*
X57050D1*
X55176Y52231D2*
X55471D1*
X55841D2*
X55970D1*
X56681D2*
X57050D1*
X55174Y52283D2*
X55471D1*
X55828D2*
X55948D1*
X56659D2*
X57050D1*
X55152Y52336D2*
X55471D1*
X55828D2*
X55927D1*
X56640D2*
X56826D1*
X55173Y52388D2*
X55451D1*
X55848D2*
X55921D1*
X56736D2*
X56751D1*
X55176Y52441D2*
X55429D1*
X55870D2*
X55921D1*
X55176Y52493D2*
X55408D1*
X55891D2*
X55921D1*
X55176Y52546D2*
X55386D1*
X55913D2*
X55921D1*
X55174Y52598D2*
X55404D1*
X55895D2*
X55921D1*
X55152Y52651D2*
X55426D1*
X55873D2*
X55921D1*
X55173Y52703D2*
X55448D1*
X55851D2*
X55921D1*
X55176Y52756D2*
X55507D1*
X55792D2*
X55921D1*
X55176Y52808D2*
X55634D1*
X55665D2*
X55888D1*
X55176Y52861D2*
X55836D1*
X55174Y52913D2*
X55783D1*
D2*
D10*
X56577Y52526*
X56730Y52373D1*
X56577Y50626D2*
X56730Y50473D1*
X56322Y50626D2*
X56169Y50473D1*
X56322Y50822D2*
X56169Y50975D1*
X56577Y50822D2*
X56730Y50975D1*
D2*
D23*
X50007Y44730*
X49937Y44562D1*
X49750Y44484*
X49596Y44548*
X49581Y44512*
X49478Y44469*
X49045*
X48941Y44512*
X48899Y44615*
Y45284*
X48941Y45387*
X49045Y45430*
X49306*
X49246Y45491*
X48580*
X48453Y45543*
X47895Y46102*
X47837Y45962*
X47760Y45930*
X47937Y45857*
X48015Y45670*
X47937Y45482*
X47896Y45465*
X47927Y45391*
X48021Y45430*
X48454*
X48558Y45387*
X48600Y45284*
Y44615*
X48558Y44512*
X48454Y44469*
X48036*
X48052Y44430*
X48428*
X48531Y44387*
X48574Y44284*
Y44150*
X48690*
X48723Y44230*
X48826Y44273*
X49122*
X49225Y44230*
X49250Y44171*
X49274Y44230*
X49377Y44273*
X49673*
X49750Y44241*
X49826Y44273*
X49891*
X49904Y44303*
X49884Y44350*
X49962Y44537*
X50130Y44607*
X50007Y44730*
X48574Y44150D2*
X48690D1*
X48574Y44202D2*
X48711D1*
X49236D2*
X49263D1*
X48574Y44255D2*
X48782D1*
X49166D2*
X49333D1*
X49717D2*
X49782D1*
X48565Y44307D2*
X49902D1*
X48543Y44360D2*
X49888D1*
X48472Y44412D2*
X49910D1*
X48038Y44465D2*
X49932D1*
X48560Y44517D2*
X48939D1*
X49583D2*
X49671D1*
X49828D2*
X49954D1*
X48582Y44570D2*
X48917D1*
X49940D2*
X50040D1*
X48600Y44622D2*
X48899D1*
X49962D2*
X50114D1*
X48600Y44675D2*
X48899D1*
X49984D2*
X50062D1*
X48600Y44727D2*
X48899D1*
X50005D2*
X50009D1*
X48600Y44780D2*
X48899D1*
X48600Y44832D2*
X48899D1*
X48600Y44885D2*
X48899D1*
X48600Y44937D2*
X48899D1*
X48600Y44990D2*
X48899D1*
X48600Y45042D2*
X48899D1*
X48600Y45095D2*
X48899D1*
X48600Y45147D2*
X48899D1*
X48600Y45200D2*
X48899D1*
X48600Y45252D2*
X48899D1*
X48592Y45305D2*
X48907D1*
X48570Y45357D2*
X48929D1*
X47919Y45410D2*
X47971D1*
X48504D2*
X48995D1*
X47897Y45462D2*
X49274D1*
X47950Y45515D2*
X48523D1*
X47972Y45567D2*
X48429D1*
X47994Y45620D2*
X48377D1*
X48014Y45672D2*
X48324D1*
X47992Y45725D2*
X48272D1*
X47970Y45777D2*
X48219D1*
X47948Y45830D2*
X48167D1*
X47877Y45882D2*
X48114D1*
X47771Y45935D2*
X48062D1*
X47847Y45987D2*
X48009D1*
X47869Y46040D2*
X47957D1*
X47891Y46092D2*
X47904D1*
D2*
D10*
X49427Y44077*
X49274Y44230D1*
X48404Y45234D2*
X48558Y45387D1*
X48404Y44665D2*
X48558Y44512D1*
D2*
D23*
X48069Y50772*
X48031Y50681D1*
X48065Y50600*
X47987Y50412*
X47800Y50334*
X47698Y50376*
X47716Y50333*
X47799Y50299*
X47856Y50241*
X47987Y50187*
X48065Y50000*
X47987Y49812*
X47943Y49794*
X47976Y49780*
X47992Y49741*
X48050Y49765*
X48237Y49687*
X48315Y49500*
X48237Y49312*
X48050Y49234*
X47992Y49258*
X47976Y49219*
X47873Y49176*
X47577*
X47500Y49209*
Y47457*
X47512Y47487*
X47700Y47565*
X47761Y47539*
Y48138*
X47752Y48142*
X47674Y48330*
X47752Y48517*
X47940Y48595*
X48107Y48525*
X48112Y48537*
X48300Y48615*
X48487Y48537*
X48565Y48350*
X48511Y48221*
X48690Y48295*
X48877Y48217*
X48955Y48030*
X48915Y47934*
X48990Y47965*
X49177Y47887*
X49255Y47700*
X49222Y47621*
X49280Y47645*
X49467Y47567*
X49545Y47380*
X49467Y47192*
X49458Y47188*
Y47133*
X49532Y47059*
X49602Y47227*
X49790Y47305*
X49977Y47227*
X50055Y47040*
X50045Y47016*
X50163Y46898*
X50192Y46967*
X50327Y47023*
X50250Y47100*
X50205Y47210*
X50069*
X49966Y47253*
X49923Y47357*
Y47553*
X49948Y47612*
X49923Y47672*
Y47799*
X49877Y47780*
X49522*
X49419Y47823*
X49376Y47926*
Y48222*
X49419Y48325*
X49478Y48350*
X49419Y48374*
X49376Y48477*
Y48773*
X49398Y48825*
X49376Y48876*
Y49172*
X49419Y49275*
X49478Y49300*
X49419Y49324*
X49376Y49427*
Y49723*
X49419Y49826*
X49491Y49856*
X49550Y49999*
X49675Y50124*
X49825Y50186*
X49925*
X49923Y50191*
Y50388*
X49948Y50447*
X49923Y50506*
Y50668*
X49823Y50626*
X49527*
X49424Y50669*
X49400Y50728*
X49375Y50669*
X49272Y50626*
X48976*
X48873Y50669*
X48843Y50741*
X48700Y50800*
X48631Y50869*
X48587Y50762*
X48400Y50684*
X48212Y50762*
X48136Y50945*
X48116Y50966*
X48085Y51040*
X48072*
X48069Y51041*
Y50772*
X50111Y46951D2*
X50185D1*
X50058Y47003D2*
X50279D1*
X50048Y47056D2*
X50295D1*
X49483Y47108D2*
X49553D1*
X50026D2*
X50247D1*
X49458Y47161D2*
X49574D1*
X50005D2*
X50225D1*
X49476Y47213D2*
X49596D1*
X49983D2*
X50063D1*
X49498Y47266D2*
X49695D1*
X49884D2*
X49961D1*
X49519Y47318D2*
X49939D1*
X49541Y47371D2*
X49923D1*
X49527Y47423D2*
X49923D1*
X47500Y47476D2*
X47507D1*
X49505D2*
X49923D1*
X47500Y47528D2*
X47611D1*
X49483D2*
X49923D1*
X47500Y47581D2*
X47761D1*
X49434D2*
X49934D1*
X47500Y47633D2*
X47761D1*
X49227D2*
X49252D1*
X49307D2*
X49939D1*
X47500Y47686D2*
X47761D1*
X49249D2*
X49923D1*
X47500Y47738D2*
X47761D1*
X49239D2*
X49923D1*
X47500Y47791D2*
X47761D1*
X49217D2*
X49497D1*
X49902D2*
X49923D1*
X47500Y47843D2*
X47761D1*
X49195D2*
X49411D1*
X47500Y47896D2*
X47761D1*
X49156D2*
X49389D1*
X47500Y47948D2*
X47761D1*
X48921D2*
X48950D1*
X49029D2*
X49376D1*
X47500Y48001D2*
X47761D1*
X48943D2*
X49376D1*
X47500Y48053D2*
X47761D1*
X48945D2*
X49376D1*
X47500Y48106D2*
X47761D1*
X48923D2*
X49376D1*
X47500Y48158D2*
X47745D1*
X48901D2*
X49376D1*
X47500Y48211D2*
X47724D1*
X48880D2*
X49376D1*
X47500Y48263D2*
X47702D1*
X48529D2*
X48613D1*
X48766D2*
X49393D1*
X47500Y48316D2*
X47680D1*
X48551D2*
X49415D1*
X47500Y48368D2*
X47690D1*
X48557D2*
X49434D1*
X47500Y48421D2*
X47712D1*
X48535D2*
X49400D1*
X47500Y48473D2*
X47734D1*
X48513D2*
X49378D1*
X47500Y48526D2*
X47773D1*
X48106D2*
X48107D1*
X48492D2*
X49376D1*
X47500Y48578D2*
X47900D1*
X47979D2*
X48211D1*
X48388D2*
X49376D1*
X47500Y48631D2*
X49376D1*
X47500Y48683D2*
X49376D1*
X47500Y48736D2*
X49376D1*
X47500Y48788D2*
X49383D1*
X47500Y48841D2*
X49391D1*
X47500Y48893D2*
X49376D1*
X47500Y48946D2*
X49376D1*
X47500Y48998D2*
X49376D1*
X47500Y49051D2*
X49376D1*
X47500Y49103D2*
X49376D1*
X47500Y49156D2*
X49376D1*
X47500Y49208D2*
X47500D1*
X47950D2*
X49391D1*
X48113Y49261D2*
X49413D1*
X48237Y49313D2*
X49446D1*
X48259Y49366D2*
X49402D1*
X48281Y49418D2*
X49380D1*
X48303Y49471D2*
X49376D1*
X48305Y49523D2*
X49376D1*
X48283Y49576D2*
X49376D1*
X48261Y49628D2*
X49376D1*
X48240Y49681D2*
X49376D1*
X48126Y49733D2*
X49381D1*
X47962Y49786D2*
X49402D1*
X47998Y49838D2*
X49448D1*
X48020Y49891D2*
X49505D1*
X48041Y49943D2*
X49527D1*
X48063Y49996D2*
X49549D1*
X48045Y50048D2*
X49600D1*
X48023Y50101D2*
X49652D1*
X48001Y50153D2*
X49746D1*
X47942Y50206D2*
X49923D1*
X47839Y50258D2*
X49923D1*
X47770Y50311D2*
X49923D1*
X47704Y50363D2*
X47730D1*
X47869D2*
X49923D1*
X47989Y50416D2*
X49934D1*
X48010Y50468D2*
X49939D1*
X48032Y50521D2*
X49923D1*
X48054Y50573D2*
X49923D1*
X48054Y50626D2*
X49923D1*
X48032Y50678D2*
X48869D1*
X49379D2*
X49420D1*
X48052Y50731D2*
X48288D1*
X48511D2*
X48847D1*
X48069Y50783D2*
X48203D1*
X48596D2*
X48742D1*
X48069Y50836D2*
X48181D1*
X48618D2*
X48665D1*
X48069Y50888D2*
X48160D1*
X48069Y50941D2*
X48138D1*
X48069Y50993D2*
X48104D1*
D2*
D77*
X40700Y50800D3*
X41220Y50500D3*
D48*
X40750Y55274D3*
Y55825D3*
D77*
X44350Y43850D3*
X44340Y44620D3*
X43150Y44350D3*
X44580Y45810D3*
X43050Y45200D3*
X44140Y47610D3*
X44500Y49550D3*
X42900Y48300D3*
X42200Y53300D3*
X44530Y55350D3*
X44130D3*
X44550Y54850D3*
Y54250D3*
X43450Y56600D3*
X46500Y40900D3*
X46050D3*
X46350Y41650D3*
X45400Y41400D3*
X45850Y41650D3*
D51*
X46024Y40600D3*
X46575D3*
D77*
X47300Y44450D3*
X47800Y43900D3*
X46450Y43350D3*
X45460Y43850D3*
X47800Y44400D3*
X45400Y45350D3*
X46900Y45450D3*
X47750Y45670D3*
X47700Y45300D3*
Y47300D3*
X45450Y45800D3*
X46850Y46550D3*
X47650Y46150D3*
X46900Y50550D3*
X47800Y50600D3*
Y50000D3*
X46850Y49800D3*
X46800Y49440D3*
X46940Y49090D3*
X46280Y51410D3*
X45750Y53700D3*
X46900Y53800D3*
X46800Y52950D3*
X46900Y52600D3*
X46950Y53300D3*
X47790Y53170D3*
X46950Y51800D3*
X47700Y51770D3*
X46950Y52200D3*
X46250Y56800D3*
X46550Y56500D3*
X46980Y56020D3*
X47140Y54230D3*
X46450Y54200D3*
X47000Y55500D3*
Y55000D3*
X46000Y54650D3*
X47550Y57200D3*
X49950Y39950D3*
X48850Y41650D3*
X49950Y41300D3*
X49100Y43550D3*
X48750Y42950D3*
X50700Y43550D3*
X49330Y42950D3*
X49550Y44350D3*
X48750Y44400D3*
X49750Y44750D3*
X50150Y44350D3*
D51*
X49525Y43950D3*
X48974D3*
X50525D3*
X49974D3*
D77*
X48990Y47700D3*
X49280Y47380D3*
X49790Y47040D3*
X50750Y46900D3*
X50380Y46780D3*
X48200Y45500D3*
X48300Y48350D3*
X48450Y49650D3*
X49400Y50550D3*
X49250Y49050D3*
X48600Y48550D3*
D50*
X49700Y49575D3*
Y49024D3*
D77*
X49450Y52200D3*
X49550Y53250D3*
X49100D3*
X49250Y52550D3*
X49850Y52200D3*
X49650Y52500D3*
X48400Y53500D3*
X49850Y52800D3*
D48*
X48850Y52124D3*
Y52675D3*
D77*
X48750Y51300D3*
X49300Y51850D3*
X49100Y54350D3*
X48500Y56470D3*
X49750Y54400D3*
X48400Y54700D3*
X50520Y55960D3*
X48500Y57770D3*
X52550Y43500D3*
X53000D3*
X53750Y42600D3*
X51900Y42250D3*
X53380Y43510D3*
X52050Y43550D3*
X52150Y42850D3*
X53700Y44450D3*
X51300Y44500D3*
X52050Y44450D3*
D51*
X53375Y43950D3*
X52824D3*
X51874D3*
X52425D3*
D77*
X52750Y47750D3*
X53050Y47550D3*
X53350Y47350D3*
X53650Y47150D3*
D51*
X52524Y46850D3*
X53075D3*
D77*
X51450Y49650D3*
X51250Y49350D3*
X51200Y48400D3*
X51950Y50700D3*
X51820Y48300D3*
X51600Y50450D3*
X52800Y53500D3*
X52160Y51780D3*
X53650Y52800D3*
X52150Y53550D3*
X53250Y53600D3*
X53500Y53090D3*
X53050Y55000D3*
X53350Y54700D3*
X53250Y54350D3*
X52200Y54200D3*
X55000Y42540D3*
X56600Y43550D3*
X54660Y43560D3*
D51*
X55374Y43550D3*
X55925D3*
D77*
X54700Y47050D3*
X55550Y46750D3*
X54850Y46500D3*
X55900Y47000D3*
X55750Y49850D3*
X56200Y49800D3*
D50*
X55350Y49424D3*
Y49975D3*
D77*
X55200Y53400D3*
X55800Y53550D3*
X54200Y53300D3*
Y51550D3*
X55650Y52550D3*
X56450Y52150D3*
X55350Y52800D3*
D50*
X56450Y52624D3*
Y53175D3*
D77*
X56050Y51350D3*
X55550Y54550D3*
X54240Y55010D3*
X55200Y54700D3*
X54250Y56330D3*
X56500Y54450D3*
X55900Y54700D3*
X56100Y54300D3*
X54450Y57450D3*
X56620Y57770D3*
X57450Y44200D3*
X57750Y46350D3*
X58250Y45350D3*
Y47250D3*
X57700Y50050D3*
X57690Y50540D3*
X58200Y48950D3*
X57750Y49550D3*
X58010Y52950D3*
X57750Y52600D3*
X57800Y52180D3*
X58000Y53300D3*
Y55300D3*
X57450Y56000D3*
X57700Y59750D3*
D75*
X43183Y41246D3*
Y59974D3*
D77*
X44450Y59850D3*
X46900Y45050D3*
Y47950D3*
D50*
X46050Y45775D3*
Y45224D3*
D49*
X47725Y41650D3*
X47174D3*
D77*
X47750Y44900D3*
X46900Y51000D3*
D51*
X45875Y57450D3*
X45324D3*
D77*
X48690Y48030D3*
D49*
X48774Y42550D3*
X49325D3*
D50*
X49700Y48074D3*
Y48625D3*
D77*
X48500Y57120D3*
X48400Y50950D3*
D51*
X49024Y53500D3*
X49575D3*
X49625Y54000D3*
X49074D3*
X49124Y50950D3*
X49675D3*
D77*
X52150Y48150D3*
X52450Y47950D3*
D51*
X52424Y44450D3*
X52975D3*
D48*
X53400Y42064D3*
Y42615D3*
D77*
X52550Y51100D3*
D51*
X52164Y56330D3*
X52715D3*
D48*
X55420Y42535D3*
Y41984D3*
D77*
X56750Y54150D3*
X55900Y50950D3*
D50*
X55350Y50924D3*
Y51475D3*
D77*
X57680Y47850D3*
X58000Y48150D3*
X57800Y50900D3*
D61*
X58000Y54861D3*
Y53838D3*
D37*
X43867Y47607D3*
X42844Y49792D3*
X43099D3*
X43355D3*
X43611Y49792D3*
X43867Y49792D3*
X43611Y47607D3*
X43355Y47607D3*
X43099D3*
X42844D3*
X42588Y47607D3*
X42332Y47607D3*
Y49792D3*
X42588Y49792D3*
D77*
X45070Y44620D3*
D62*
X48211Y43950D3*
X47188D3*
D77*
X41950Y47600D3*
X47940Y48330D3*
X48050Y49500D3*
X41950Y49800D3*
D50*
X41650Y48975D3*
Y48424D3*
D51*
X47174Y49500D3*
X47725D3*
X46874Y50150D3*
X47425D3*
D50*
X47300Y52275D3*
Y51724D3*
D77*
X48100Y52930D3*
X48150Y52570D3*
D62*
X41752Y51668D3*
X40728D3*
D77*
X44900Y57450D3*
X48070Y59080D3*
D59*
X42800Y58450D3*
D35*
X40800D3*
X41800D3*
D77*
X54100Y43100D3*
Y44300D3*
Y47050D3*
X56950Y45350D3*
X51030Y46520D3*
D51*
X51424Y46850D3*
X51975D3*
D77*
X50900Y47730D3*
X50850Y50000D3*
X51140Y50300D3*
D50*
X57300Y50575D3*
Y50024D3*
D77*
X50890Y48680D3*
X50900Y49050D3*
X53900Y53550D3*
X56950Y52550D3*
X56900Y51900D3*
X51100Y55250D3*
X53900D3*
X50900Y54250D3*
X57100Y54300D3*
X56850Y55000D3*
D59*
X41950Y46200D3*
D32*
X40950D3*
D34*
X42664Y56359D3*
Y54981D3*
D51*
X47224Y50950D3*
X47775D3*
D48*
X48250Y51875D3*
Y51324D3*
D67*
X45176Y55249D3*
Y54993D3*
Y55505D3*
Y55771D3*
X45175Y56029D3*
Y56285D3*
Y56541D3*
Y56797D3*
X45176Y54225D3*
Y53969D3*
Y53714D3*
Y53458D3*
X47696Y54998D3*
X47695Y56019D3*
Y56275D3*
Y56531D3*
Y56787D3*
X47696Y55248D3*
Y55498D3*
Y55778D3*
Y53714D3*
Y53458D3*
Y54225D3*
Y53968D3*
X45176Y54737D3*
Y54481D3*
X47696D3*
Y54737D3*
D59*
X40800Y59800D3*
D32*
Y60800D3*
D62*
X40738Y53300D3*
X41761D3*
D32*
X45200Y58140D3*
Y60700D3*
X46971Y58140D3*
Y60700D3*
D49*
X41775Y50900D3*
X41224D3*
D75*
X59289Y41246D3*
D77*
X56850Y45000D3*
X56950Y41900D3*
D32*
X52431Y40341D3*
X53431D3*
X55431D3*
X56431D3*
X52431Y41341D3*
X53431D3*
X55431D3*
X56431D3*
X54431Y40341D3*
X57431D3*
X51431Y41341D3*
X54431D3*
X57431D3*
D59*
X51431Y40341D3*
D48*
X54100Y42074D3*
Y42625D3*
D50*
X57250Y48175D3*
Y47624D3*
D77*
X50850Y48100D3*
D75*
X59289Y59974D3*
D77*
X51050Y50900D3*
X54120Y50920D3*
D50*
X56450Y50724D3*
Y51275D3*
D51*
X56224Y53750D3*
X56775D3*
D32*
X45300Y51700D3*
Y50700D3*
Y48700D3*
Y47700D3*
Y52700D3*
Y49700D3*
D59*
X58789Y43110D3*
D32*
X59789D3*
X58789Y44110D3*
X59789D3*
X58789Y45110D3*
X59789D3*
X58789Y46110D3*
X59789D3*
X58789Y47110D3*
X59789D3*
X58789Y48110D3*
X59789D3*
X58789Y49110D3*
X59789D3*
X58789Y50110D3*
X59789D3*
X58789Y51110D3*
X59789D3*
X58789Y52110D3*
X59789D3*
X58789Y53110D3*
X59789D3*
X58789Y54110D3*
X59789D3*
X58789Y55110D3*
X59789D3*
X58789Y56110D3*
X59789D3*
X58789Y57110D3*
X59789D3*
X58789Y58110D3*
X59789D3*
D58*
X50364Y47455D3*
Y47770D3*
Y48085D3*
Y48400D3*
Y48715D3*
Y49030D3*
Y49345D3*
Y49660D3*
Y49975D3*
Y50290D3*
Y50605D3*
Y50920D3*
Y51235D3*
Y51550D3*
Y51864D3*
Y52179D3*
Y52494D3*
Y52809D3*
Y53124D3*
Y53439D3*
Y53754D3*
Y54069D3*
Y54384D3*
Y54699D3*
Y55014D3*
Y55329D3*
Y55644D3*
X54735D3*
Y55329D3*
Y55014D3*
Y54699D3*
Y54384D3*
Y54069D3*
Y53754D3*
Y53439D3*
Y53124D3*
Y52809D3*
Y52494D3*
Y52179D3*
Y51864D3*
Y51550D3*
Y51235D3*
Y50920D3*
Y50605D3*
Y50290D3*
Y49975D3*
Y49660D3*
Y49345D3*
Y49030D3*
Y48715D3*
Y48400D3*
Y48085D3*
Y47770D3*
Y47455D3*
D62*
X48238Y44950D3*
X49261D3*
%LNBoard*%
D25*
X40150Y61850*
Y39400D1*
X61150Y61850D2*
Y39400D1*
X40150D2*
X61150D1*
X40150Y61850D2*
X61150D1*
D02M02*
