G04 (created by PCBNEW-RS274X (2012-01-19 BZR 3256)-stable) date 21/02/2013 14:30:42*
G01*
G70*
G90*
%MOIN*%
G04 Gerber Fmt 3.4, Leading zero omitted, Abs format*
%FSLAX34Y34*%
G04 APERTURE LIST*
%ADD10C,0.006000*%
%ADD11C,0.015000*%
G04 APERTURE END LIST*
G54D10*
G54D11*
X47250Y-31750D02*
X56250Y-31750D01*
X45750Y-27250D02*
X45750Y-30250D01*
X56250Y-25750D02*
X47250Y-25750D01*
X57750Y-27250D02*
X57750Y-30250D01*
X57750Y-27250D02*
X57744Y-27120D01*
X57727Y-26990D01*
X57698Y-26862D01*
X57659Y-26737D01*
X57609Y-26617D01*
X57549Y-26501D01*
X57478Y-26390D01*
X57399Y-26286D01*
X57310Y-26190D01*
X57214Y-26101D01*
X57110Y-26022D01*
X57000Y-25951D01*
X56883Y-25891D01*
X56763Y-25841D01*
X56638Y-25802D01*
X56510Y-25773D01*
X56380Y-25756D01*
X56250Y-25750D01*
X56250Y-31750D02*
X56380Y-31744D01*
X56510Y-31727D01*
X56638Y-31698D01*
X56763Y-31659D01*
X56883Y-31609D01*
X57000Y-31549D01*
X57110Y-31478D01*
X57214Y-31399D01*
X57310Y-31310D01*
X57399Y-31214D01*
X57478Y-31110D01*
X57549Y-30999D01*
X57609Y-30883D01*
X57659Y-30763D01*
X57698Y-30638D01*
X57727Y-30510D01*
X57744Y-30380D01*
X57750Y-30250D01*
X45750Y-30250D02*
X45756Y-30380D01*
X45773Y-30510D01*
X45802Y-30638D01*
X45841Y-30763D01*
X45891Y-30883D01*
X45951Y-30999D01*
X46022Y-31110D01*
X46101Y-31214D01*
X46190Y-31310D01*
X46286Y-31399D01*
X46390Y-31478D01*
X46501Y-31549D01*
X46617Y-31609D01*
X46737Y-31659D01*
X46862Y-31698D01*
X46990Y-31727D01*
X47120Y-31744D01*
X47250Y-31750D01*
X47250Y-25750D02*
X47120Y-25756D01*
X46990Y-25773D01*
X46862Y-25802D01*
X46737Y-25841D01*
X46617Y-25891D01*
X46501Y-25951D01*
X46390Y-26022D01*
X46286Y-26101D01*
X46190Y-26190D01*
X46101Y-26286D01*
X46022Y-26390D01*
X45951Y-26501D01*
X45891Y-26617D01*
X45841Y-26737D01*
X45802Y-26862D01*
X45773Y-26990D01*
X45756Y-27120D01*
X45750Y-27250D01*
M02*
