G04 start of page 8 for group -4079 idx -4079 *
G04 Title: (unknown), topsilk *
G04 Creator: pcb 1.99z *
G04 CreationDate: Wed 06 Nov 2013 06:55:18 PM GMT UTC *
G04 For: commonadmin *
G04 Format: Gerber/RS-274X *
G04 PCB-Dimensions: 600000 500000 *
G04 PCB-Coordinate-Origin: lower left *
%MOIN*%
%FSLAX25Y25*%
%LNTOPSILK*%
%ADD103C,0.0040*%
%ADD102C,0.0200*%
%ADD101C,0.0080*%
%ADD100C,0.0250*%
%ADD99C,0.0100*%
G54D99*X276437Y408602D02*X261437D01*
X273937Y383602D02*Y378602D01*
X271437Y381102D02*X276437D01*
X261437D02*X266437D01*
X221437Y384102D02*Y379102D01*
X218937Y381602D01*
X221437Y379102D02*X223937Y381602D01*
X231437Y384102D02*Y379102D01*
X26437Y448602D02*Y433602D01*
X51437Y437602D02*Y434602D01*
X50437Y446102D02*X52437D01*
X51437Y447102D02*Y445102D01*
G54D100*X72835Y346457D02*X80709Y354331D01*
X116142D01*
X118110Y356299D01*
X72835Y346457D02*X19685D01*
X118110Y356299D02*X157480D01*
X161417Y360236D01*
Y375984D01*
X116142Y421260D01*
Y438976D01*
X120079Y442913D01*
Y456693D01*
X122047Y458661D01*
Y496063D01*
G54D99*X2823Y255346D02*X37323D01*
X2823Y302746D02*Y255346D01*
Y302746D02*X37323D01*
X49323Y255346D02*X66823D01*
Y302746D02*Y255346D01*
X49323Y302746D02*X66823D01*
X43323Y249346D02*G75*G03X43323Y249346I0J6000D01*G01*
Y296746D02*G75*G03X43323Y296746I0J6000D01*G01*
X44323Y239746D02*X74323D01*
X44323D02*Y219746D01*
X74323D01*
Y239746D02*Y219746D01*
X64323Y239746D02*Y229746D01*
X74323D01*
G54D101*X10866Y253486D02*X15590D01*
X10866Y246006D02*X15590D01*
X82866Y238786D02*X87590D01*
X82866Y231306D02*X87590D01*
X82866Y229786D02*X87590D01*
X82866Y222306D02*X87590D01*
X93740Y266457D02*Y261733D01*
X86260Y266457D02*Y261733D01*
X99980Y370533D02*X104704D01*
X99980Y363053D02*X104704D01*
X100177Y385059D02*Y380335D01*
X92697Y385059D02*Y380335D01*
X112677Y385059D02*Y380335D01*
X105197Y385059D02*Y380335D01*
X76240Y266457D02*Y261733D01*
X68760Y266457D02*Y261733D01*
X75650Y282255D02*X76436D01*
X75650Y276745D02*X76436D01*
X75650Y290255D02*X76436D01*
X75650Y284745D02*X76436D01*
G54D99*X76500Y275000D02*X86500D01*
X76500D02*Y255000D01*
X86500D01*
Y275000D02*Y255000D01*
X76500Y275000D02*Y265000D01*
X86500D01*
X135323Y213746D02*X140323D01*
X120323D02*X125323D01*
Y212146D02*X135323D01*
X125323Y215346D02*Y212146D01*
Y215346D02*X135323D01*
Y212146D01*
G54D101*X161866Y218486D02*X166590D01*
X161866Y211006D02*X166590D01*
X132568Y202682D02*Y201896D01*
X138078Y202682D02*Y201896D01*
X123568Y202682D02*Y201896D01*
X129078Y202682D02*Y201896D01*
X129866Y219006D02*X134590D01*
X129866Y226486D02*X134590D01*
X174866Y229586D02*X179590D01*
X174866Y222106D02*X179590D01*
X111068Y299782D02*Y298996D01*
X116578Y299782D02*Y298996D01*
X100083Y307303D02*Y302579D01*
X107563Y307303D02*Y302579D01*
X100083Y289803D02*Y285079D01*
X107563Y289803D02*Y285079D01*
X104871Y227712D02*X109595D01*
X104871Y220232D02*X109595D01*
X113623Y277779D02*X149293D01*
Y239209D01*
X110723D02*X149293D01*
X110723Y274879D02*Y239209D01*
Y274879D02*X113623Y277779D01*
X112623Y274879D02*G75*G03X112623Y274879I1000J0D01*G01*
X159563Y288803D02*Y284079D01*
X152083Y288803D02*Y284079D01*
G54D99*X167923Y248646D02*X181823D01*
X167923D02*Y235846D01*
X181823D01*
Y248646D02*Y235846D01*
G54D101*X174650Y254755D02*X175436D01*
X174650Y249245D02*X175436D01*
X150083Y307303D02*Y302579D01*
X157563Y307303D02*Y302579D01*
X175063Y329114D02*Y324390D01*
X167583Y329114D02*Y324390D01*
G54D99*X135123Y327346D02*Y316346D01*
Y343346D02*Y332346D01*
Y343346D02*X157523D01*
Y316346D01*
X135123D02*X157523D01*
X135123Y327346D02*G75*G03X135123Y332346I0J2500D01*G01*
G54D101*X140083Y307303D02*Y302579D01*
X147563Y307303D02*Y302579D01*
X130083Y307303D02*Y302579D01*
X137563Y307303D02*Y302579D01*
X170556Y344606D02*X175280D01*
X170556Y352086D02*X175280D01*
X191041Y253980D02*X195765D01*
X191041Y261460D02*X195765D01*
X189740Y244957D02*Y240233D01*
X182260Y244957D02*Y240233D01*
X193083Y276614D02*Y271890D01*
X200563Y276614D02*Y271890D01*
X183068Y272006D02*Y271220D01*
X188578Y272006D02*Y271220D01*
G54D99*X190000Y232500D02*X200000D01*
Y252500D02*Y232500D01*
X190000Y252500D02*X200000D01*
X190000D02*Y232500D01*
X200000Y242500D02*Y232500D01*
X190000Y242500D02*X200000D01*
G54D101*X201556Y302106D02*X206280D01*
X201556Y309586D02*X206280D01*
G54D99*X260023Y318346D02*X273323D01*
X233323D02*X246623D01*
X260023D02*X246623Y311746D01*
Y324946D02*Y311746D01*
Y324946D02*X260023Y318346D01*
Y324946D02*Y311746D01*
G54D101*X251055Y307086D02*X255779D01*
X251055Y299606D02*X255779D01*
X269387Y306101D02*X270173D01*
X269387Y300591D02*X270173D01*
G54D99*X224523Y293846D02*X237823D01*
X197823D02*X211123D01*
X224523D02*X211123Y287246D01*
Y300446D02*Y287246D01*
Y300446D02*X224523Y293846D01*
Y300446D02*Y287246D01*
G54D101*X231866Y307086D02*X236590D01*
X231866Y299606D02*X236590D01*
X225366Y264586D02*X230090D01*
X225366Y257106D02*X230090D01*
X183068Y286093D02*Y285307D01*
X188578Y286093D02*Y285307D01*
G54D99*X202573Y285346D02*Y266346D01*
X233573D01*
Y285346D01*
X202573D02*X215573D01*
X233573D02*X220573D01*
X215573D02*G75*G03X220573Y285346I2500J0D01*G01*
X208750Y251500D02*Y232500D01*
X239750D01*
Y251500D01*
X208750D02*X221750D01*
X239750D02*X226750D01*
X221750D02*G75*G03X226750Y251500I2500J0D01*G01*
G54D101*X201260Y243957D02*Y239233D01*
X208740Y243957D02*Y239233D01*
G54D99*X239823Y287346D02*X294823D01*
Y229346D01*
X239823D01*
Y287346D01*
G54D101*X169980Y427342D02*X174704D01*
X169980Y419862D02*X174704D01*
G54D102*X234337Y447802D02*Y424402D01*
G54D99*Y447802D02*X228237Y451102D01*
X191537D02*X228237D01*
X191537D02*Y421102D01*
X228237D01*
X234337Y424402D01*
G54D101*X149980Y477362D02*X154704D01*
X149980Y484842D02*X154704D01*
X149980Y464862D02*X154704D01*
X149980Y472342D02*X154704D01*
X173170Y464862D02*X177894D01*
X173170Y472342D02*X177894D01*
X154311Y454038D02*X155097D01*
X154311Y459548D02*X155097D01*
X171397Y454038D02*X172183D01*
X171397Y459548D02*X172183D01*
X173170Y477362D02*X177894D01*
X173170Y484842D02*X177894D01*
G54D102*X234337Y482802D02*Y459402D01*
G54D99*Y482802D02*X228237Y486102D01*
X191537D02*X228237D01*
X191537D02*Y456102D01*
X228237D01*
X234337Y459402D01*
G54D102*X238837Y477802D02*Y459402D01*
G54D99*X246037Y456802D01*
X281237D01*
Y480402D01*
X246037D01*
X238837Y477802D01*
G54D102*Y447802D02*Y429402D01*
G54D99*X246037Y426802D01*
X281237D01*
Y450402D01*
X246037D01*
X238837Y447802D01*
X216437Y406102D02*Y386102D01*
X236437D01*
Y406102D02*Y386102D01*
X216437Y406102D02*X236437D01*
X216437Y396102D02*X226437D01*
Y406102D02*Y396102D01*
G54D102*X208137Y410302D02*Y391902D01*
G54D99*Y410302D02*X200937Y412902D01*
X165737D02*X200937D01*
X165737D02*Y389302D01*
X200937D01*
X208137Y391902D01*
X278937Y406102D02*Y386102D01*
X258937Y406102D02*X278937D01*
X258937D02*Y386102D01*
X278937D01*
X268937Y396102D02*X278937D01*
X268937D02*Y386102D01*
X39037Y418502D02*X69037D01*
X39037Y348502D02*X69037D01*
X38137Y418502D02*Y348502D01*
X62137Y418502D02*Y416502D01*
Y350502D02*Y348502D01*
X69037Y418502D02*Y348502D01*
X16837D02*X39137D01*
X16837Y418502D02*X39137D01*
X16837D02*Y348502D01*
G54D101*X59980Y447362D02*X64704D01*
X59980Y454842D02*X64704D01*
X86790Y447362D02*X91514D01*
X86790Y454842D02*X91514D01*
X86790Y442342D02*X91514D01*
X86790Y434862D02*X91514D01*
X59980Y442342D02*X64704D01*
X59980Y434862D02*X64704D01*
G54D99*X28937Y451102D02*X48937D01*
X28937D02*Y431102D01*
X48937D01*
Y451102D02*Y431102D01*
X38937Y451102D02*Y441102D01*
X48937D01*
G54D102*X77237Y480302D02*Y461902D01*
G54D99*X84437Y459302D01*
X119637D01*
Y482902D02*Y459302D01*
X84437Y482902D02*X119637D01*
X84437D02*X77237Y480302D01*
G54D102*X29737D02*Y461902D01*
G54D99*X36937Y459302D01*
X72137D01*
Y482902D02*Y459302D01*
X36937Y482902D02*X72137D01*
X36937D02*X29737Y480302D01*
X158937Y438602D02*Y358602D01*
X118937Y438602D02*X158937D01*
X118937D02*Y358602D01*
X143937D02*X158937D01*
X118937D02*X133937D01*
X143937D02*G75*G03X133937Y358602I-5000J0D01*G01*
G54D103*X140323Y216646D02*Y213146D01*
Y216646D02*X139823Y217146D01*
X138823D02*X139823D01*
X138823D02*X138323Y216646D01*
Y213146D01*
X137123Y213646D02*X136623Y213146D01*
X135123D02*X136623D01*
X135123D02*X134623Y213646D01*
Y214646D02*Y213646D01*
X137123Y217146D02*X134623Y214646D01*
Y217146D02*X137123D01*
X133423Y216646D02*X132923Y217146D01*
X133423Y216646D02*Y213646D01*
X132923Y213146D01*
X131923D02*X132923D01*
X131923D02*X131423Y213646D01*
Y216646D02*Y213646D01*
X131923Y217146D02*X131423Y216646D01*
X131923Y217146D02*X132923D01*
X133423Y216146D02*X131423Y214146D01*
X130223Y213646D02*X129723Y213146D01*
X128223D02*X129723D01*
X128223D02*X127723Y213646D01*
Y214646D02*Y213646D01*
X130223Y217146D02*X127723Y214646D01*
Y217146D02*X130223D01*
X161778Y212896D02*X163078D01*
X161078Y213596D02*X161778Y212896D01*
X161078Y216196D02*Y213596D01*
Y216196D02*X161778Y216896D01*
X163078D01*
X164278Y216396D02*X164778Y216896D01*
X166278D01*
X166778Y216396D01*
Y215396D01*
X164278Y212896D02*X166778Y215396D01*
X164278Y212896D02*X166778D01*
X167978Y213396D02*X168478Y212896D01*
X167978Y216396D02*Y213396D01*
Y216396D02*X168478Y216896D01*
X169478D01*
X169978Y216396D01*
Y213396D01*
X169478Y212896D02*X169978Y213396D01*
X168478Y212896D02*X169478D01*
X167978Y213896D02*X169978Y215896D01*
X171178Y214396D02*X173178Y216896D01*
X171178Y214396D02*X173678D01*
X173178Y216896D02*Y212896D01*
X137173Y201139D02*Y199839D01*
X136473Y199139D02*X137173Y199839D01*
X133873Y199139D02*X136473D01*
X133873D02*X133173Y199839D01*
Y201139D02*Y199839D01*
X133673Y202339D02*X133173Y202839D01*
Y204339D02*Y202839D01*
Y204339D02*X133673Y204839D01*
X134673D01*
X137173Y202339D02*X134673Y204839D01*
X137173D02*Y202339D01*
X136673Y206039D02*X137173Y206539D01*
X133673Y206039D02*X136673D01*
X133673D02*X133173Y206539D01*
Y207539D02*Y206539D01*
Y207539D02*X133673Y208039D01*
X136673D01*
X137173Y207539D02*X136673Y208039D01*
X137173Y207539D02*Y206539D01*
X136173Y206039D02*X134173Y208039D01*
X133173Y211239D02*Y209239D01*
X135173D01*
X134673Y209739D01*
Y210739D02*Y209739D01*
Y210739D02*X135173Y211239D01*
X136673D01*
X137173Y210739D02*X136673Y211239D01*
X137173Y210739D02*Y209739D01*
X136673Y209239D02*X137173Y209739D01*
X128173Y201139D02*Y199839D01*
X127473Y199139D02*X128173Y199839D01*
X124873Y199139D02*X127473D01*
X124873D02*X124173Y199839D01*
Y201139D02*Y199839D01*
X124673Y202339D02*X124173Y202839D01*
Y204339D02*Y202839D01*
Y204339D02*X124673Y204839D01*
X125673D01*
X128173Y202339D02*X125673Y204839D01*
X128173D02*Y202339D01*
X127673Y206039D02*X128173Y206539D01*
X124673Y206039D02*X127673D01*
X124673D02*X124173Y206539D01*
Y207539D02*Y206539D01*
Y207539D02*X124673Y208039D01*
X127673D01*
X128173Y207539D02*X127673Y208039D01*
X128173Y207539D02*Y206539D01*
X127173Y206039D02*X125173Y208039D01*
X124173Y210739D02*X124673Y211239D01*
X124173Y210739D02*Y209739D01*
X124673Y209239D02*X124173Y209739D01*
X124673Y209239D02*X127673D01*
X128173Y209739D01*
X125973Y210739D02*X126473Y211239D01*
X125973Y210739D02*Y209239D01*
X128173Y210739D02*Y209739D01*
Y210739D02*X127673Y211239D01*
X126473D02*X127673D01*
X105673Y303791D02*Y302491D01*
X104973Y301791D02*X105673Y302491D01*
X102373Y301791D02*X104973D01*
X102373D02*X101673Y302491D01*
Y303791D02*Y302491D01*
X102173Y304991D02*X101673Y305491D01*
Y306991D02*Y305491D01*
Y306991D02*X102173Y307491D01*
X103173D01*
X105673Y304991D02*X103173Y307491D01*
X105673D02*Y304991D01*
X105173Y308691D02*X105673Y309191D01*
X102173Y308691D02*X105173D01*
X102173D02*X101673Y309191D01*
Y310191D02*Y309191D01*
Y310191D02*X102173Y310691D01*
X105173D01*
X105673Y310191D02*X105173Y310691D01*
X105673Y310191D02*Y309191D01*
X104673Y308691D02*X102673Y310691D01*
X102173Y311891D02*X101673Y312391D01*
Y313391D02*Y312391D01*
Y313391D02*X102173Y313891D01*
X105673Y313391D02*X105173Y313891D01*
X105673Y313391D02*Y312391D01*
X105173Y311891D02*X105673Y312391D01*
X103473Y313391D02*Y312391D01*
X102173Y313891D02*X102973D01*
X103973D02*X105173D01*
X103973D02*X103473Y313391D01*
X102973Y313891D02*X103473Y313391D01*
X101673Y286291D02*Y284291D01*
Y286291D02*X102173Y286791D01*
X103173D01*
X103673Y286291D02*X103173Y286791D01*
X103673Y286291D02*Y284791D01*
X101673D02*X105673D01*
X103673Y285591D02*X105673Y286791D01*
X102173Y287991D02*X101673Y288491D01*
Y289991D02*Y288491D01*
Y289991D02*X102173Y290491D01*
X103173D01*
X105673Y287991D02*X103173Y290491D01*
X105673D02*Y287991D01*
X105173Y291691D02*X105673Y292191D01*
X102173Y291691D02*X105173D01*
X102173D02*X101673Y292191D01*
Y293191D02*Y292191D01*
Y293191D02*X102173Y293691D01*
X105173D01*
X105673Y293191D02*X105173Y293691D01*
X105673Y293191D02*Y292191D01*
X104673Y291691D02*X102673Y293691D01*
X104173Y294891D02*X101673Y296891D01*
X104173Y297391D02*Y294891D01*
X101673Y296891D02*X105673D01*
X104083Y226122D02*X106083D01*
X106583Y225622D01*
Y224622D01*
X106083Y224122D02*X106583Y224622D01*
X104583Y224122D02*X106083D01*
X104583Y226122D02*Y222122D01*
X105383Y224122D02*X106583Y222122D01*
X107783Y225622D02*X108283Y226122D01*
X109783D01*
X110283Y225622D01*
Y224622D01*
X107783Y222122D02*X110283Y224622D01*
X107783Y222122D02*X110283D01*
X111483Y222622D02*X111983Y222122D01*
X111483Y225622D02*Y222622D01*
Y225622D02*X111983Y226122D01*
X112983D01*
X113483Y225622D01*
Y222622D01*
X112983Y222122D02*X113483Y222622D01*
X111983Y222122D02*X112983D01*
X111483Y223122D02*X113483Y225122D01*
X116183Y226122D02*X116683Y225622D01*
X115183Y226122D02*X116183D01*
X114683Y225622D02*X115183Y226122D01*
X114683Y225622D02*Y222622D01*
X115183Y222122D01*
X116183Y224322D02*X116683Y223822D01*
X114683Y224322D02*X116183D01*
X115183Y222122D02*X116183D01*
X116683Y222622D01*
Y223822D02*Y222622D01*
X133378Y220596D02*X135378D01*
X133378D02*X132878Y221096D01*
Y222096D02*Y221096D01*
X133378Y222596D02*X132878Y222096D01*
X133378Y222596D02*X134878D01*
Y224596D02*Y220596D01*
X134078Y222596D02*X132878Y224596D01*
X131678Y221096D02*X131178Y220596D01*
X129678D02*X131178D01*
X129678D02*X129178Y221096D01*
Y222096D02*Y221096D01*
X131678Y224596D02*X129178Y222096D01*
Y224596D02*X131678D01*
X127978Y224096D02*X127478Y224596D01*
X127978Y224096D02*Y221096D01*
X127478Y220596D01*
X126478D02*X127478D01*
X126478D02*X125978Y221096D01*
Y224096D02*Y221096D01*
X126478Y224596D02*X125978Y224096D01*
X126478Y224596D02*X127478D01*
X127978Y223596D02*X125978Y221596D01*
X122778Y220596D02*X124778D01*
Y222596D02*Y220596D01*
Y222596D02*X124278Y222096D01*
X123278D02*X124278D01*
X123278D02*X122778Y222596D01*
Y224096D02*Y222596D01*
X123278Y224596D02*X122778Y224096D01*
X123278Y224596D02*X124278D01*
X124778Y224096D02*X124278Y224596D01*
X174778Y223996D02*X176078D01*
X174078Y224696D02*X174778Y223996D01*
X174078Y227296D02*Y224696D01*
Y227296D02*X174778Y227996D01*
X176078D01*
X177278Y227496D02*X177778Y227996D01*
X179278D01*
X179778Y227496D01*
Y226496D01*
X177278Y223996D02*X179778Y226496D01*
X177278Y223996D02*X179778D01*
X180978Y227196D02*X181778Y227996D01*
Y223996D01*
X180978D02*X182478D01*
X183678Y224496D02*X184178Y223996D01*
X183678Y227496D02*Y224496D01*
Y227496D02*X184178Y227996D01*
X185178D01*
X185678Y227496D01*
Y224496D01*
X185178Y223996D02*X185678Y224496D01*
X184178Y223996D02*X185178D01*
X183678Y224996D02*X185678Y226996D01*
X157973Y289591D02*Y287591D01*
X157473Y287091D01*
X156473D02*X157473D01*
X155973Y287591D02*X156473Y287091D01*
X155973Y289091D02*Y287591D01*
X153973Y289091D02*X157973D01*
X155973Y288291D02*X153973Y287091D01*
X157473Y285891D02*X157973Y285391D01*
Y283891D01*
X157473Y283391D01*
X156473D02*X157473D01*
X153973Y285891D02*X156473Y283391D01*
X153973Y285891D02*Y283391D01*
X157173Y282191D02*X157973Y281391D01*
X153973D02*X157973D01*
X153973Y282191D02*Y280691D01*
X157473Y279491D02*X157973Y278991D01*
Y277491D01*
X157473Y276991D01*
X156473D02*X157473D01*
X153973Y279491D02*X156473Y276991D01*
X153973Y279491D02*Y276991D01*
X179323Y234846D02*X181823D01*
Y238846D02*X179323Y234846D01*
Y238846D02*X181823D01*
X178123Y235346D02*X177623Y234846D01*
X176123D02*X177623D01*
X176123D02*X175623Y235346D01*
Y236346D02*Y235346D01*
X178123Y238846D02*X175623Y236346D01*
Y238846D02*X178123D01*
X174423Y238346D02*X173923Y238846D01*
X174423Y238346D02*Y235346D01*
X173923Y234846D01*
X172923D02*X173923D01*
X172923D02*X172423Y235346D01*
Y238346D02*Y235346D01*
X172923Y238846D02*X172423Y238346D01*
X172923Y238846D02*X173923D01*
X174423Y237846D02*X172423Y235846D01*
X171223Y235346D02*X170723Y234846D01*
X169723D02*X170723D01*
X169723D02*X169223Y235346D01*
X169723Y238846D02*X169223Y238346D01*
X169723Y238846D02*X170723D01*
X171223Y238346D02*X170723Y238846D01*
X169723Y236646D02*X170723D01*
X169223Y236146D02*Y235346D01*
Y238346D02*Y237146D01*
X169723Y236646D01*
X169223Y236146D02*X169723Y236646D01*
X170807Y254150D02*X172807D01*
X173307Y253650D01*
Y252650D01*
X172807Y252150D02*X173307Y252650D01*
X171307Y252150D02*X172807D01*
X171307Y254150D02*Y250150D01*
X172107Y252150D02*X173307Y250150D01*
X174507Y253650D02*X175007Y254150D01*
X176507D01*
X177007Y253650D01*
Y252650D01*
X174507Y250150D02*X177007Y252650D01*
X174507Y250150D02*X177007D01*
X178207Y253350D02*X179007Y254150D01*
Y250150D01*
X178207D02*X179707D01*
X180907Y250650D02*X181407Y250150D01*
X180907Y251450D02*Y250650D01*
Y251450D02*X181607Y252150D01*
X182207D01*
X182907Y251450D01*
Y250650D01*
X182407Y250150D02*X182907Y250650D01*
X181407Y250150D02*X182407D01*
X180907Y252850D02*X181607Y252150D01*
X180907Y253650D02*Y252850D01*
Y253650D02*X181407Y254150D01*
X182407D01*
X182907Y253650D01*
Y252850D01*
X182207Y252150D02*X182907Y252850D01*
X57614Y318896D02*Y315396D01*
X58114Y314896D01*
X59114D01*
X59614Y315396D01*
Y318896D02*Y315396D01*
X60814Y318396D02*X61314Y318896D01*
X62814D01*
X63314Y318396D01*
Y317396D01*
X60814Y314896D02*X63314Y317396D01*
X60814Y314896D02*X63314D01*
X64514Y315396D02*X65014Y314896D01*
X64514Y318396D02*Y315396D01*
Y318396D02*X65014Y318896D01*
X66014D01*
X66514Y318396D01*
Y315396D01*
X66014Y314896D02*X66514Y315396D01*
X65014Y314896D02*X66014D01*
X64514Y315896D02*X66514Y317896D01*
X67714Y318396D02*X68214Y318896D01*
X69214D01*
X69714Y318396D01*
X69214Y314896D02*X69714Y315396D01*
X68214Y314896D02*X69214D01*
X67714Y315396D02*X68214Y314896D01*
Y317096D02*X69214D01*
X69714Y318396D02*Y317596D01*
Y316596D02*Y315396D01*
Y316596D02*X69214Y317096D01*
X69714Y317596D02*X69214Y317096D01*
X64037Y383502D02*X60037Y386002D01*
Y383502D02*X64037Y386002D01*
X60837Y387202D02*X60037Y388002D01*
X64037D01*
Y388702D02*Y387202D01*
X63537Y389902D02*X64037Y390402D01*
X60537Y389902D02*X63537D01*
X60537D02*X60037Y390402D01*
Y391402D02*Y390402D01*
Y391402D02*X60537Y391902D01*
X63537D01*
X64037Y391402D02*X63537Y391902D01*
X64037Y391402D02*Y390402D01*
X63037Y389902D02*X61037Y391902D01*
X60837Y393102D02*X60037Y393902D01*
X64037D01*
Y394602D02*Y393102D01*
X63492Y452952D02*X64792D01*
X65492Y452252D02*X64792Y452952D01*
X65492Y452252D02*Y449652D01*
X64792Y448952D01*
X63492D02*X64792D01*
X62292Y449752D02*X61492Y448952D01*
Y452952D02*Y448952D01*
X60792Y452952D02*X62292D01*
X59592Y449752D02*X58792Y448952D01*
Y452952D02*Y448952D01*
X58092Y452952D02*X59592D01*
X56892Y452452D02*X56392Y452952D01*
X56892Y452452D02*Y449452D01*
X56392Y448952D01*
X55392D02*X56392D01*
X55392D02*X54892Y449452D01*
Y452452D02*Y449452D01*
X55392Y452952D02*X54892Y452452D01*
X55392Y452952D02*X56392D01*
X56892Y451952D02*X54892Y449952D01*
X59892Y436752D02*X61192D01*
X59192Y437452D02*X59892Y436752D01*
X59192Y440052D02*Y437452D01*
Y440052D02*X59892Y440752D01*
X61192D01*
X62392Y439952D02*X63192Y440752D01*
Y436752D01*
X62392D02*X63892D01*
X65092Y439952D02*X65892Y440752D01*
Y436752D01*
X65092D02*X66592D01*
X67792Y440252D02*X68292Y440752D01*
X69792D01*
X70292Y440252D01*
Y439252D01*
X67792Y436752D02*X70292Y439252D01*
X67792Y436752D02*X70292D01*
X46937Y430102D02*X48237D01*
X48937Y429402D02*X48237Y430102D01*
X48937Y429402D02*Y426802D01*
X48237Y426102D01*
X46937D02*X48237D01*
X45737Y429602D02*Y426602D01*
X45237Y426102D01*
X44237D02*X45237D01*
X44237D02*X43737Y426602D01*
Y429602D02*Y426602D01*
X44237Y430102D02*X43737Y429602D01*
X44237Y430102D02*X45237D01*
X45737Y429602D02*X45237Y430102D01*
X42537D02*Y426102D01*
X40037Y430102D01*
Y426102D01*
X38837Y430102D02*Y426102D01*
X36337Y430102D01*
Y426102D01*
X35137Y426902D02*X34337Y426102D01*
Y430102D02*Y426102D01*
X33637Y430102D02*X35137D01*
X32437Y429602D02*X31937Y430102D01*
X32437Y429602D02*Y426602D01*
X31937Y426102D01*
X30937D02*X31937D01*
X30937D02*X30437Y426602D01*
Y429602D02*Y426602D01*
X30937Y430102D02*X30437Y429602D01*
X30937Y430102D02*X31937D01*
X32437Y429102D02*X30437Y427102D01*
X29237Y426902D02*X28437Y426102D01*
Y430102D02*Y426102D01*
X27737Y430102D02*X29237D01*
X69137Y470602D02*X73137D01*
Y469302D02*X72437Y468602D01*
X69837D02*X72437D01*
X69137Y469302D02*X69837Y468602D01*
X69137Y471102D02*Y469302D01*
X73137Y471102D02*Y469302D01*
X72337Y467402D02*X73137Y466602D01*
X69137D02*X73137D01*
X69137Y467402D02*Y465902D01*
X69637Y464702D02*X69137Y464202D01*
X69637Y464702D02*X72637D01*
X73137Y464202D01*
Y463202D01*
X72637Y462702D01*
X69637D02*X72637D01*
X69137Y463202D02*X69637Y462702D01*
X69137Y464202D02*Y463202D01*
X70137Y464702D02*X72137Y462702D01*
X72637Y461502D02*X73137Y461002D01*
Y459502D01*
X72637Y459002D01*
X71637D02*X72637D01*
X69137Y461502D02*X71637Y459002D01*
X69137Y461502D02*Y459002D01*
G54D101*X25323Y261846D02*Y259246D01*
X23923Y257846D02*X25323Y259246D01*
X18723Y257846D02*X23923D01*
X18723D02*X17323Y259246D01*
Y261846D02*Y259246D01*
X18323Y264246D02*X24323D01*
X18323D02*X17323Y265246D01*
Y267246D02*Y265246D01*
Y267246D02*X18323Y268246D01*
X24323D01*
X25323Y267246D02*X24323Y268246D01*
X25323Y267246D02*Y265246D01*
X24323Y264246D02*X25323Y265246D01*
X17323Y270646D02*X25323D01*
X17323D02*X25323Y275646D01*
X17323D02*X25323D01*
X17323Y278046D02*X25323D01*
X17323D02*X25323Y283046D01*
X17323D02*X25323D01*
X18323Y285446D02*X17323Y286446D01*
Y289446D02*Y286446D01*
Y289446D02*X18323Y290446D01*
X20323D01*
X25323Y285446D02*X20323Y290446D01*
X25323D02*Y285446D01*
X24323Y292846D02*X25323Y293846D01*
X18323Y292846D02*X24323D01*
X18323D02*X17323Y293846D01*
Y295846D02*Y293846D01*
Y295846D02*X18323Y296846D01*
X24323D01*
X25323Y295846D02*X24323Y296846D01*
X25323Y295846D02*Y293846D01*
X23323Y292846D02*X19323Y296846D01*
X18923Y299247D02*X17323Y300847D01*
X25323D01*
Y302247D02*Y299247D01*
G54D103*X63914Y310096D02*Y306596D01*
Y310096D02*X63414Y310596D01*
X62414D02*X63414D01*
X62414D02*X61914Y310096D01*
Y306596D01*
X60714Y307096D02*X60214Y306596D01*
X58714D02*X60214D01*
X58714D02*X58214Y307096D01*
Y308096D02*Y307096D01*
X60714Y310596D02*X58214Y308096D01*
Y310596D02*X60714D01*
X57014Y310096D02*X56514Y310596D01*
X57014Y310096D02*Y307096D01*
X56514Y306596D01*
X55514D02*X56514D01*
X55514D02*X55014Y307096D01*
Y310096D02*Y307096D01*
X55514Y310596D02*X55014Y310096D01*
X55514Y310596D02*X56514D01*
X57014Y309596D02*X55014Y307596D01*
X53814Y309096D02*X51814Y306596D01*
X51314Y309096D02*X53814D01*
X51814Y310596D02*Y306596D01*
X72323Y244746D02*X73623D01*
X74323Y244046D02*X73623Y244746D01*
X74323Y244046D02*Y241446D01*
X73623Y240746D01*
X72323D02*X73623D01*
X71123Y244246D02*Y241246D01*
X70623Y240746D01*
X69623D02*X70623D01*
X69623D02*X69123Y241246D01*
Y244246D02*Y241246D01*
X69623Y244746D02*X69123Y244246D01*
X69623Y244746D02*X70623D01*
X71123Y244246D02*X70623Y244746D01*
X67923D02*Y240746D01*
X65423Y244746D01*
Y240746D01*
X64223Y244746D02*Y240746D01*
X61723Y244746D01*
Y240746D01*
X60523Y241246D02*X60023Y240746D01*
X58523D02*X60023D01*
X58523D02*X58023Y241246D01*
Y242246D02*Y241246D01*
X60523Y244746D02*X58023Y242246D01*
Y244746D02*X60523D01*
X56823Y244246D02*X56323Y244746D01*
X56823Y244246D02*Y241246D01*
X56323Y240746D01*
X55323D02*X56323D01*
X55323D02*X54823Y241246D01*
Y244246D02*Y241246D01*
X55323Y244746D02*X54823Y244246D01*
X55323Y244746D02*X56323D01*
X56823Y243746D02*X54823Y241746D01*
X53623Y241246D02*X53123Y240746D01*
X51623D02*X53123D01*
X51623D02*X51123Y241246D01*
Y242246D02*Y241246D01*
X53623Y244746D02*X51123Y242246D01*
Y244746D02*X53623D01*
X74650Y267245D02*Y265245D01*
X74150Y264745D01*
X73150D02*X74150D01*
X72650Y265245D02*X73150Y264745D01*
X72650Y266745D02*Y265245D01*
X70650Y266745D02*X74650D01*
X72650Y265945D02*X70650Y264745D01*
X74150Y263545D02*X74650Y263045D01*
Y261545D01*
X74150Y261045D01*
X73150D02*X74150D01*
X70650Y263545D02*X73150Y261045D01*
X70650Y263545D02*Y261045D01*
X73850Y259845D02*X74650Y259045D01*
X70650D02*X74650D01*
X70650Y259845D02*Y258345D01*
Y256645D02*X72650Y255145D01*
X74150D01*
X74650Y255645D02*X74150Y255145D01*
X74650Y256645D02*Y255645D01*
X74150Y257145D02*X74650Y256645D01*
X73150Y257145D02*X74150D01*
X73150D02*X72650Y256645D01*
Y255145D01*
X82778Y233196D02*X84078D01*
X82078Y233896D02*X82778Y233196D01*
X82078Y236496D02*Y233896D01*
Y236496D02*X82778Y237196D01*
X84078D01*
X85278Y236696D02*X85778Y237196D01*
X87278D01*
X87778Y236696D01*
Y235696D01*
X85278Y233196D02*X87778Y235696D01*
X85278Y233196D02*X87778D01*
X88978Y233696D02*X89478Y233196D01*
X88978Y236696D02*Y233696D01*
Y236696D02*X89478Y237196D01*
X90478D01*
X90978Y236696D01*
Y233696D01*
X90478Y233196D02*X90978Y233696D01*
X89478Y233196D02*X90478D01*
X88978Y234196D02*X90978Y236196D01*
X92178Y236396D02*X92978Y237196D01*
Y233196D01*
X92178D02*X93678D01*
X85500Y266500D02*X86800D01*
X87500Y265800D02*X86800Y266500D01*
X87500Y265800D02*Y263200D01*
X86800Y262500D01*
X85500D02*X86800D01*
X84300Y263000D02*X83800Y262500D01*
X82300D02*X83800D01*
X82300D02*X81800Y263000D01*
Y264000D02*Y263000D01*
X84300Y266500D02*X81800Y264000D01*
Y266500D02*X84300D01*
X80600Y263300D02*X79800Y262500D01*
Y266500D02*Y262500D01*
X79100Y266500D02*X80600D01*
X77400D02*X75400Y262500D01*
X77900D01*
X72893Y281650D02*X74893D01*
X75393Y281150D01*
Y280150D01*
X74893Y279650D02*X75393Y280150D01*
X73393Y279650D02*X74893D01*
X73393Y281650D02*Y277650D01*
X74193Y279650D02*X75393Y277650D01*
X76593Y281150D02*X77093Y281650D01*
X78593D01*
X79093Y281150D01*
Y280150D01*
X76593Y277650D02*X79093Y280150D01*
X76593Y277650D02*X79093D01*
X80293Y278150D02*X80793Y277650D01*
X80293Y281150D02*Y278150D01*
Y281150D02*X80793Y281650D01*
X81793D01*
X82293Y281150D01*
Y278150D01*
X81793Y277650D02*X82293Y278150D01*
X80793Y277650D02*X81793D01*
X80293Y278650D02*X82293Y280650D01*
X83493Y280850D02*X84293Y281650D01*
Y277650D01*
X83493D02*X84993D01*
X72893Y289650D02*X74893D01*
X75393Y289150D01*
Y288150D01*
X74893Y287650D02*X75393Y288150D01*
X73393Y287650D02*X74893D01*
X73393Y289650D02*Y285650D01*
X74193Y287650D02*X75393Y285650D01*
X76593Y289150D02*X77093Y289650D01*
X78593D01*
X79093Y289150D01*
Y288150D01*
X76593Y285650D02*X79093Y288150D01*
X76593Y285650D02*X79093D01*
X80293Y286150D02*X80793Y285650D01*
X80293Y289150D02*Y286150D01*
Y289150D02*X80793Y289650D01*
X81793D01*
X82293Y289150D01*
Y286150D01*
X81793Y285650D02*X82293Y286150D01*
X80793Y285650D02*X81793D01*
X80293Y286650D02*X82293Y288650D01*
X83493Y289150D02*X83993Y289650D01*
X85493D01*
X85993Y289150D01*
Y288150D01*
X83493Y285650D02*X85993Y288150D01*
X83493Y285650D02*X85993D01*
X82778Y224196D02*X84078D01*
X82078Y224896D02*X82778Y224196D01*
X82078Y227496D02*Y224896D01*
Y227496D02*X82778Y228196D01*
X84078D01*
X85278Y227696D02*X85778Y228196D01*
X87278D01*
X87778Y227696D01*
Y226696D01*
X85278Y224196D02*X87778Y226696D01*
X85278Y224196D02*X87778D01*
X88978Y224696D02*X89478Y224196D01*
X88978Y227696D02*Y224696D01*
Y227696D02*X89478Y228196D01*
X90478D01*
X90978Y227696D01*
Y224696D01*
X90478Y224196D02*X90978Y224696D01*
X89478Y224196D02*X90478D01*
X88978Y225196D02*X90978Y227196D01*
X92178Y227696D02*X92678Y228196D01*
X94178D01*
X94678Y227696D01*
Y226696D01*
X92178Y224196D02*X94678Y226696D01*
X92178Y224196D02*X94678D01*
X88150Y266545D02*Y265245D01*
X88850Y267245D02*X88150Y266545D01*
X88850Y267245D02*X91450D01*
X92150Y266545D01*
Y265245D01*
X91650Y264045D02*X92150Y263545D01*
Y262045D01*
X91650Y261545D01*
X90650D02*X91650D01*
X88150Y264045D02*X90650Y261545D01*
X88150Y264045D02*Y261545D01*
X88650Y260345D02*X88150Y259845D01*
X88650Y260345D02*X91650D01*
X92150Y259845D01*
Y258845D01*
X91650Y258345D01*
X88650D02*X91650D01*
X88150Y258845D02*X88650Y258345D01*
X88150Y259845D02*Y258845D01*
X89150Y260345D02*X91150Y258345D01*
X88150Y256645D02*X92150Y254645D01*
Y257145D02*Y254645D01*
X90302Y452952D02*X91602D01*
X92302Y452252D02*X91602Y452952D01*
X92302Y452252D02*Y449652D01*
X91602Y448952D01*
X90302D02*X91602D01*
X89102Y449752D02*X88302Y448952D01*
Y452952D02*Y448952D01*
X87602Y452952D02*X89102D01*
X86402Y452452D02*X85902Y452952D01*
X86402Y452452D02*Y449452D01*
X85902Y448952D01*
X84902D02*X85902D01*
X84902D02*X84402Y449452D01*
Y452452D02*Y449452D01*
X84902Y452952D02*X84402Y452452D01*
X84902Y452952D02*X85902D01*
X86402Y451952D02*X84402Y449952D01*
X82702Y452952D02*X81202Y450952D01*
Y449452D01*
X81702Y448952D02*X81202Y449452D01*
X81702Y448952D02*X82702D01*
X83202Y449452D02*X82702Y448952D01*
X83202Y450452D02*Y449452D01*
Y450452D02*X82702Y450952D01*
X81202D02*X82702D01*
X86702Y436752D02*X88002D01*
X86002Y437452D02*X86702Y436752D01*
X86002Y440052D02*Y437452D01*
Y440052D02*X86702Y440752D01*
X88002D01*
X89202Y439952D02*X90002Y440752D01*
Y436752D01*
X89202D02*X90702D01*
X91902Y439952D02*X92702Y440752D01*
Y436752D01*
X91902D02*X93402D01*
X94602Y439952D02*X95402Y440752D01*
Y436752D01*
X94602D02*X96102D01*
X94587Y385147D02*Y383847D01*
X95287Y385847D02*X94587Y385147D01*
X95287Y385847D02*X97887D01*
X98587Y385147D01*
Y383847D01*
X97787Y382647D02*X98587Y381847D01*
X94587D02*X98587D01*
X94587Y382647D02*Y381147D01*
X97787Y379947D02*X98587Y379147D01*
X94587D02*X98587D01*
X94587Y379947D02*Y378447D01*
X98087Y377247D02*X98587Y376747D01*
Y375747D01*
X98087Y375247D01*
X94587Y375747D02*X95087Y375247D01*
X94587Y376747D02*Y375747D01*
X95087Y377247D02*X94587Y376747D01*
X96787D02*Y375747D01*
X97287Y375247D02*X98087D01*
X95087D02*X96287D01*
X96787Y375747D01*
X97287Y375247D02*X96787Y375747D01*
X10078Y251896D02*X12078D01*
X12578Y251396D01*
Y250396D01*
X12078Y249896D02*X12578Y250396D01*
X10578Y249896D02*X12078D01*
X10578Y251896D02*Y247896D01*
X11378Y249896D02*X12578Y247896D01*
X13778Y251396D02*X14278Y251896D01*
X15778D01*
X16278Y251396D01*
Y250396D01*
X13778Y247896D02*X16278Y250396D01*
X13778Y247896D02*X16278D01*
X17478Y248396D02*X17978Y247896D01*
X17478Y251396D02*Y248396D01*
Y251396D02*X17978Y251896D01*
X18978D01*
X19478Y251396D01*
Y248396D01*
X18978Y247896D02*X19478Y248396D01*
X17978Y247896D02*X18978D01*
X17478Y248896D02*X19478Y250896D01*
X20678Y251396D02*X21178Y251896D01*
X22178D01*
X22678Y251396D01*
X22178Y247896D02*X22678Y248396D01*
X21178Y247896D02*X22178D01*
X20678Y248396D02*X21178Y247896D01*
Y250096D02*X22178D01*
X22678Y251396D02*Y250596D01*
Y249596D02*Y248396D01*
Y249596D02*X22178Y250096D01*
X22678Y250596D02*X22178Y250096D01*
X111673Y298239D02*Y296239D01*
Y298239D02*X112173Y298739D01*
X113173D01*
X113673Y298239D02*X113173Y298739D01*
X113673Y298239D02*Y296739D01*
X111673D02*X115673D01*
X113673Y297539D02*X115673Y298739D01*
X112173Y299939D02*X111673Y300439D01*
Y301939D02*Y300439D01*
Y301939D02*X112173Y302439D01*
X113173D01*
X115673Y299939D02*X113173Y302439D01*
X115673D02*Y299939D01*
X115173Y303639D02*X115673Y304139D01*
X112173Y303639D02*X115173D01*
X112173D02*X111673Y304139D01*
Y305139D02*Y304139D01*
Y305139D02*X112173Y305639D01*
X115173D01*
X115673Y305139D02*X115173Y305639D01*
X115673Y305139D02*Y304139D01*
X114673Y303639D02*X112673Y305639D01*
X115673Y307339D02*X113673Y308839D01*
X112173D02*X113673D01*
X111673Y308339D02*X112173Y308839D01*
X111673Y308339D02*Y307339D01*
X112173Y306839D02*X111673Y307339D01*
X112173Y306839D02*X113173D01*
X113673Y307339D01*
Y308839D02*Y307339D01*
X169473Y329202D02*Y327902D01*
X170173Y329902D02*X169473Y329202D01*
X170173Y329902D02*X172773D01*
X173473Y329202D01*
Y327902D01*
X172973Y326702D02*X173473Y326202D01*
Y324702D01*
X172973Y324202D01*
X171973D02*X172973D01*
X169473Y326702D02*X171973Y324202D01*
X169473Y326702D02*Y324202D01*
X172673Y323002D02*X173473Y322202D01*
X169473D02*X173473D01*
X169473Y323002D02*Y321502D01*
X173473Y320302D02*Y318302D01*
X171473Y320302D02*X173473D01*
X171473D02*X171973Y319802D01*
Y318802D01*
X171473Y318302D01*
X169973D02*X171473D01*
X169473Y318802D02*X169973Y318302D01*
X169473Y319802D02*Y318802D01*
X169973Y320302D02*X169473Y319802D01*
X150123Y333346D02*Y329846D01*
X150623Y329346D01*
X151623D01*
X152123Y329846D01*
Y333346D02*Y329846D01*
X153323Y332846D02*X153823Y333346D01*
X155323D01*
X155823Y332846D01*
Y331846D01*
X153323Y329346D02*X155823Y331846D01*
X153323Y329346D02*X155823D01*
X157023Y329846D02*X157523Y329346D01*
X157023Y332846D02*Y329846D01*
Y332846D02*X157523Y333346D01*
X158523D01*
X159023Y332846D01*
Y329846D01*
X158523Y329346D02*X159023Y329846D01*
X157523Y329346D02*X158523D01*
X157023Y330346D02*X159023Y332346D01*
X160223Y333346D02*X162223D01*
X160223D02*Y331346D01*
X160723Y331846D01*
X161723D01*
X162223Y331346D01*
Y329846D01*
X161723Y329346D02*X162223Y329846D01*
X160723Y329346D02*X161723D01*
X160223Y329846D02*X160723Y329346D01*
X125247Y292996D02*Y288996D01*
X126547Y292996D02*X127247Y292296D01*
Y289696D01*
X126547Y288996D02*X127247Y289696D01*
X124747Y288996D02*X126547D01*
X124747Y292996D02*X126547D01*
X128447Y292496D02*X128947Y292996D01*
X130447D01*
X130947Y292496D01*
Y291496D01*
X128447Y288996D02*X130947Y291496D01*
X128447Y288996D02*X130947D01*
X132147Y289496D02*X132647Y288996D01*
X132147Y292496D02*Y289496D01*
Y292496D02*X132647Y292996D01*
X133647D01*
X134147Y292496D01*
Y289496D01*
X133647Y288996D02*X134147Y289496D01*
X132647Y288996D02*X133647D01*
X132147Y289996D02*X134147Y291996D01*
X135347Y292196D02*X136147Y292996D01*
Y288996D01*
X135347D02*X136847D01*
X145673Y303791D02*Y302491D01*
X144973Y301791D02*X145673Y302491D01*
X142373Y301791D02*X144973D01*
X142373D02*X141673Y302491D01*
Y303791D02*Y302491D01*
X142173Y304991D02*X141673Y305491D01*
Y306991D02*Y305491D01*
Y306991D02*X142173Y307491D01*
X143173D01*
X145673Y304991D02*X143173Y307491D01*
X145673D02*Y304991D01*
X142473Y308691D02*X141673Y309491D01*
X145673D01*
Y310191D02*Y308691D01*
X142173Y311391D02*X141673Y311891D01*
Y312891D02*Y311891D01*
Y312891D02*X142173Y313391D01*
X145673Y312891D02*X145173Y313391D01*
X145673Y312891D02*Y311891D01*
X145173Y311391D02*X145673Y311891D01*
X143473Y312891D02*Y311891D01*
X142173Y313391D02*X142973D01*
X143973D02*X145173D01*
X143973D02*X143473Y312891D01*
X142973Y313391D02*X143473Y312891D01*
X135673Y303791D02*Y302491D01*
X134973Y301791D02*X135673Y302491D01*
X132373Y301791D02*X134973D01*
X132373D02*X131673Y302491D01*
Y303791D02*Y302491D01*
X132173Y304991D02*X131673Y305491D01*
Y306991D02*Y305491D01*
Y306991D02*X132173Y307491D01*
X133173D01*
X135673Y304991D02*X133173Y307491D01*
X135673D02*Y304991D01*
X132473Y308691D02*X131673Y309491D01*
X135673D01*
Y310191D02*Y308691D01*
X134173Y311391D02*X131673Y313391D01*
X134173Y313891D02*Y311391D01*
X131673Y313391D02*X135673D01*
X155673Y303791D02*Y302491D01*
X154973Y301791D02*X155673Y302491D01*
X152373Y301791D02*X154973D01*
X152373D02*X151673Y302491D01*
Y303791D02*Y302491D01*
X152173Y304991D02*X151673Y305491D01*
Y306991D02*Y305491D01*
Y306991D02*X152173Y307491D01*
X153173D01*
X155673Y304991D02*X153173Y307491D01*
X155673D02*Y304991D01*
X152473Y308691D02*X151673Y309491D01*
X155673D01*
Y310191D02*Y308691D01*
X152473Y311391D02*X151673Y312191D01*
X155673D01*
Y312891D02*Y311391D01*
X128008Y263494D02*Y259994D01*
X128508Y259494D01*
X129508D01*
X130008Y259994D01*
Y263494D02*Y259994D01*
X131208Y262994D02*X131708Y263494D01*
X133208D01*
X133708Y262994D01*
Y261994D01*
X131208Y259494D02*X133708Y261994D01*
X131208Y259494D02*X133708D01*
X134908Y259994D02*X135408Y259494D01*
X134908Y262994D02*Y259994D01*
Y262994D02*X135408Y263494D01*
X136408D01*
X136908Y262994D01*
Y259994D01*
X136408Y259494D02*X136908Y259994D01*
X135408Y259494D02*X136408D01*
X134908Y260494D02*X136908Y262494D01*
X138108Y262694D02*X138908Y263494D01*
Y259494D01*
X138108D02*X139608D01*
X174068Y346196D02*X176068D01*
X174068D02*X173568Y346696D01*
Y347696D02*Y346696D01*
X174068Y348196D02*X173568Y347696D01*
X174068Y348196D02*X175568D01*
Y350196D02*Y346196D01*
X174768Y348196D02*X173568Y350196D01*
X172368Y346696D02*X171868Y346196D01*
X170368D02*X171868D01*
X170368D02*X169868Y346696D01*
Y347696D02*Y346696D01*
X172368Y350196D02*X169868Y347696D01*
Y350196D02*X172368D01*
X168668Y346996D02*X167868Y346196D01*
Y350196D02*Y346196D01*
X167168Y350196D02*X168668D01*
X165468D02*X163468Y346196D01*
X165968D01*
X194553Y255570D02*X196553D01*
X194553D02*X194053Y256070D01*
Y257070D02*Y256070D01*
X194553Y257570D02*X194053Y257070D01*
X194553Y257570D02*X196053D01*
Y259570D02*Y255570D01*
X195253Y257570D02*X194053Y259570D01*
X192853Y256070D02*X192353Y255570D01*
X190853D02*X192353D01*
X190853D02*X190353Y256070D01*
Y257070D02*Y256070D01*
X192853Y259570D02*X190353Y257070D01*
Y259570D02*X192853D01*
X189153Y256370D02*X188353Y255570D01*
Y259570D02*Y255570D01*
X187653Y259570D02*X189153D01*
X186453Y258070D02*X184453Y255570D01*
X183953Y258070D02*X186453D01*
X184453Y259570D02*Y255570D01*
X188150Y245745D02*Y243745D01*
X187650Y243245D01*
X186650D02*X187650D01*
X186150Y243745D02*X186650Y243245D01*
X186150Y245245D02*Y243745D01*
X184150Y245245D02*X188150D01*
X186150Y244445D02*X184150Y243245D01*
X187650Y242045D02*X188150Y241545D01*
Y240045D01*
X187650Y239545D01*
X186650D02*X187650D01*
X184150Y242045D02*X186650Y239545D01*
X184150Y242045D02*Y239545D01*
X187350Y238345D02*X188150Y237545D01*
X184150D02*X188150D01*
X184150Y238345D02*Y236845D01*
X188150Y234145D02*X187650Y233645D01*
X188150Y235145D02*Y234145D01*
X187650Y235645D02*X188150Y235145D01*
X184650Y235645D02*X187650D01*
X184650D02*X184150Y235145D01*
X186350Y234145D02*X185850Y233645D01*
X186350Y235645D02*Y234145D01*
X184150Y235145D02*Y234145D01*
X184650Y233645D01*
X185850D01*
X183673Y270463D02*Y268463D01*
Y270463D02*X184173Y270963D01*
X185173D01*
X185673Y270463D02*X185173Y270963D01*
X185673Y270463D02*Y268963D01*
X183673D02*X187673D01*
X185673Y269763D02*X187673Y270963D01*
X184173Y272163D02*X183673Y272663D01*
Y274163D02*Y272663D01*
Y274163D02*X184173Y274663D01*
X185173D01*
X187673Y272163D02*X185173Y274663D01*
X187673D02*Y272163D01*
X187173Y275863D02*X187673Y276363D01*
X184173Y275863D02*X187173D01*
X184173D02*X183673Y276363D01*
Y277363D02*Y276363D01*
Y277363D02*X184173Y277863D01*
X187173D01*
X187673Y277363D02*X187173Y277863D01*
X187673Y277363D02*Y276363D01*
X186673Y275863D02*X184673Y277863D01*
X187673Y279563D02*X183673Y281563D01*
Y279063D01*
X190700Y241000D02*X192000D01*
X190000Y241700D02*X190700Y241000D01*
X190000Y244300D02*Y241700D01*
Y244300D02*X190700Y245000D01*
X192000D01*
X193200Y244500D02*X193700Y245000D01*
X195200D01*
X195700Y244500D01*
Y243500D01*
X193200Y241000D02*X195700Y243500D01*
X193200Y241000D02*X195700D01*
X196900Y244200D02*X197700Y245000D01*
Y241000D01*
X196900D02*X198400D01*
X201100Y245000D02*X201600Y244500D01*
X200100Y245000D02*X201100D01*
X199600Y244500D02*X200100Y245000D01*
X199600Y244500D02*Y241500D01*
X200100Y241000D01*
X201100Y243200D02*X201600Y242700D01*
X199600Y243200D02*X201100D01*
X200100Y241000D02*X201100D01*
X201600Y241500D01*
Y242700D02*Y241500D01*
X206850Y240445D02*Y239145D01*
X206150Y238445D02*X206850Y239145D01*
X203550Y238445D02*X206150D01*
X203550D02*X202850Y239145D01*
Y240445D02*Y239145D01*
X203350Y241645D02*X202850Y242145D01*
Y243645D02*Y242145D01*
Y243645D02*X203350Y244145D01*
X204350D01*
X206850Y241645D02*X204350Y244145D01*
X206850D02*Y241645D01*
X203650Y245345D02*X202850Y246145D01*
X206850D01*
Y246845D02*Y245345D01*
X203350Y248045D02*X202850Y248545D01*
Y250045D02*Y248545D01*
Y250045D02*X203350Y250545D01*
X204350D01*
X206850Y248045D02*X204350Y250545D01*
X206850D02*Y248045D01*
X205068Y303696D02*X207068D01*
X205068D02*X204568Y304196D01*
Y305196D02*Y304196D01*
X205068Y305696D02*X204568Y305196D01*
X205068Y305696D02*X206568D01*
Y307696D02*Y303696D01*
X205768Y305696D02*X204568Y307696D01*
X203368Y304196D02*X202868Y303696D01*
X201368D02*X202868D01*
X201368D02*X200868Y304196D01*
Y305196D02*Y304196D01*
X203368Y307696D02*X200868Y305196D01*
Y307696D02*X203368D01*
X199668Y304496D02*X198868Y303696D01*
Y307696D02*Y303696D01*
X198168Y307696D02*X199668D01*
X194968Y303696D02*X196968D01*
Y305696D02*Y303696D01*
Y305696D02*X196468Y305196D01*
X195468D02*X196468D01*
X195468D02*X194968Y305696D01*
Y307196D02*Y305696D01*
X195468Y307696D02*X194968Y307196D01*
X195468Y307696D02*X196468D01*
X196968Y307196D02*X196468Y307696D01*
X198673Y273102D02*Y271802D01*
X197973Y271102D02*X198673Y271802D01*
X195373Y271102D02*X197973D01*
X195373D02*X194673Y271802D01*
Y273102D02*Y271802D01*
X195173Y274302D02*X194673Y274802D01*
Y276302D02*Y274802D01*
Y276302D02*X195173Y276802D01*
X196173D01*
X198673Y274302D02*X196173Y276802D01*
X198673D02*Y274302D01*
X198173Y278002D02*X198673Y278502D01*
X195173Y278002D02*X198173D01*
X195173D02*X194673Y278502D01*
Y279502D02*Y278502D01*
Y279502D02*X195173Y280002D01*
X198173D01*
X198673Y279502D02*X198173Y280002D01*
X198673Y279502D02*Y278502D01*
X197673Y278002D02*X195673Y280002D01*
X198173Y281202D02*X198673Y281702D01*
X197373Y281202D02*X198173D01*
X197373D02*X196673Y281902D01*
Y282502D02*Y281902D01*
Y282502D02*X197373Y283202D01*
X198173D01*
X198673Y282702D02*X198173Y283202D01*
X198673Y282702D02*Y281702D01*
X195973Y281202D02*X196673Y281902D01*
X195173Y281202D02*X195973D01*
X195173D02*X194673Y281702D01*
Y282702D02*Y281702D01*
Y282702D02*X195173Y283202D01*
X195973D01*
X196673Y282502D02*X195973Y283202D01*
X183673Y284550D02*Y282550D01*
Y284550D02*X184173Y285050D01*
X185173D01*
X185673Y284550D02*X185173Y285050D01*
X185673Y284550D02*Y283050D01*
X183673D02*X187673D01*
X185673Y283850D02*X187673Y285050D01*
X184173Y286250D02*X183673Y286750D01*
Y288250D02*Y286750D01*
Y288250D02*X184173Y288750D01*
X185173D01*
X187673Y286250D02*X185173Y288750D01*
X187673D02*Y286250D01*
X187173Y289950D02*X187673Y290450D01*
X184173Y289950D02*X187173D01*
X184173D02*X183673Y290450D01*
Y291450D02*Y290450D01*
Y291450D02*X184173Y291950D01*
X187173D01*
X187673Y291450D02*X187173Y291950D01*
X187673Y291450D02*Y290450D01*
X186673Y289950D02*X184673Y291950D01*
X187173Y293150D02*X187673Y293650D01*
X186373Y293150D02*X187173D01*
X186373D02*X185673Y293850D01*
Y294450D02*Y293850D01*
Y294450D02*X186373Y295150D01*
X187173D01*
X187673Y294650D02*X187173Y295150D01*
X187673Y294650D02*Y293650D01*
X184973Y293150D02*X185673Y293850D01*
X184173Y293150D02*X184973D01*
X184173D02*X183673Y293650D01*
Y294650D02*Y293650D01*
Y294650D02*X184173Y295150D01*
X184973D01*
X185673Y294450D02*X184973Y295150D01*
X206623Y288246D02*X209123D01*
Y292246D02*X206623Y288246D01*
Y292246D02*X209123D01*
X205423Y288746D02*X204923Y288246D01*
X203423D02*X204923D01*
X203423D02*X202923Y288746D01*
Y289746D02*Y288746D01*
X205423Y292246D02*X202923Y289746D01*
Y292246D02*X205423D01*
X201723Y291746D02*X201223Y292246D01*
X201723Y291746D02*Y288746D01*
X201223Y288246D01*
X200223D02*X201223D01*
X200223D02*X199723Y288746D01*
Y291746D02*Y288746D01*
X200223Y292246D02*X199723Y291746D01*
X200223Y292246D02*X201223D01*
X201723Y291246D02*X199723Y289246D01*
X198523Y288746D02*X198023Y288246D01*
X196523D02*X198023D01*
X196523D02*X196023Y288746D01*
Y289746D02*Y288746D01*
X198523Y292246D02*X196023Y289746D01*
Y292246D02*X198523D01*
X216073Y280846D02*Y277346D01*
X216573Y276846D01*
X217573D01*
X218073Y277346D01*
Y280846D02*Y277346D01*
X219273Y280346D02*X219773Y280846D01*
X221273D01*
X221773Y280346D01*
Y279346D01*
X219273Y276846D02*X221773Y279346D01*
X219273Y276846D02*X221773D01*
X222973Y277346D02*X223473Y276846D01*
X222973Y280346D02*Y277346D01*
Y280346D02*X223473Y280846D01*
X224473D01*
X224973Y280346D01*
Y277346D01*
X224473Y276846D02*X224973Y277346D01*
X223473Y276846D02*X224473D01*
X222973Y277846D02*X224973Y279846D01*
X227673Y280846D02*X228173Y280346D01*
X226673Y280846D02*X227673D01*
X226173Y280346D02*X226673Y280846D01*
X226173Y280346D02*Y277346D01*
X226673Y276846D01*
X227673Y279046D02*X228173Y278546D01*
X226173Y279046D02*X227673D01*
X226673Y276846D02*X227673D01*
X228173Y277346D01*
Y278546D02*Y277346D01*
X224578Y262996D02*X226578D01*
X227078Y262496D01*
Y261496D01*
X226578Y260996D02*X227078Y261496D01*
X225078Y260996D02*X226578D01*
X225078Y262996D02*Y258996D01*
X225878Y260996D02*X227078Y258996D01*
X228278Y262496D02*X228778Y262996D01*
X230278D01*
X230778Y262496D01*
Y261496D01*
X228278Y258996D02*X230778Y261496D01*
X228278Y258996D02*X230778D01*
X231978Y262196D02*X232778Y262996D01*
Y258996D01*
X231978D02*X233478D01*
X234678Y262496D02*X235178Y262996D01*
X236178D01*
X236678Y262496D01*
X236178Y258996D02*X236678Y259496D01*
X235178Y258996D02*X236178D01*
X234678Y259496D02*X235178Y258996D01*
Y261196D02*X236178D01*
X236678Y262496D02*Y261696D01*
Y260696D02*Y259496D01*
Y260696D02*X236178Y261196D01*
X236678Y261696D02*X236178Y261196D01*
X222250Y247000D02*Y243500D01*
X222750Y243000D01*
X223750D01*
X224250Y243500D01*
Y247000D02*Y243500D01*
X225450Y246500D02*X225950Y247000D01*
X227450D01*
X227950Y246500D01*
Y245500D01*
X225450Y243000D02*X227950Y245500D01*
X225450Y243000D02*X227950D01*
X229150Y243500D02*X229650Y243000D01*
X229150Y246500D02*Y243500D01*
Y246500D02*X229650Y247000D01*
X230650D01*
X231150Y246500D01*
Y243500D01*
X230650Y243000D02*X231150Y243500D01*
X229650Y243000D02*X230650D01*
X229150Y244000D02*X231150Y246000D01*
X232850Y243000D02*X234850Y247000D01*
X232350D02*X234850D01*
X240823Y258346D02*Y256346D01*
X241323Y255846D01*
X242523D01*
X243023Y256346D02*X242523Y255846D01*
X243023Y257846D02*Y256346D01*
X240823Y257846D02*X244823D01*
Y258346D02*Y256346D01*
X244323Y255846D01*
X243523D02*X244323D01*
X243023Y256346D02*X243523Y255846D01*
X240823Y254646D02*X244823D01*
X240823Y252146D01*
X244823D01*
X240823Y250246D02*Y248946D01*
X241523Y250946D02*X240823Y250246D01*
X241523Y250946D02*X244123D01*
X244823Y250246D01*
Y248946D01*
X244323Y247746D02*X244823Y247246D01*
Y245746D01*
X244323Y245246D01*
X243323D02*X244323D01*
X240823Y247746D02*X243323Y245246D01*
X240823Y247746D02*Y245246D01*
X241323Y244046D02*X240823Y243546D01*
X241323Y244046D02*X244323D01*
X244823Y243546D01*
Y242546D01*
X244323Y242046D01*
X241323D02*X244323D01*
X240823Y242546D02*X241323Y242046D01*
X240823Y243546D02*Y242546D01*
X241823Y244046D02*X243823Y242046D01*
X244023Y240846D02*X244823Y240046D01*
X240823D02*X244823D01*
X240823Y240846D02*Y239346D01*
X231778Y301496D02*X233078D01*
X231078Y302196D02*X231778Y301496D01*
X231078Y304796D02*Y302196D01*
Y304796D02*X231778Y305496D01*
X233078D01*
X234278Y304996D02*X234778Y305496D01*
X236278D01*
X236778Y304996D01*
Y303996D01*
X234278Y301496D02*X236778Y303996D01*
X234278Y301496D02*X236778D01*
X237978Y301996D02*X238478Y301496D01*
X237978Y304996D02*Y301996D01*
Y304996D02*X238478Y305496D01*
X239478D01*
X239978Y304996D01*
Y301996D01*
X239478Y301496D02*X239978Y301996D01*
X238478Y301496D02*X239478D01*
X237978Y302496D02*X239978Y304496D01*
X241678Y301496D02*X243178Y303496D01*
Y304996D02*Y303496D01*
X242678Y305496D02*X243178Y304996D01*
X241678Y305496D02*X242678D01*
X241178Y304996D02*X241678Y305496D01*
X241178Y304996D02*Y303996D01*
X241678Y303496D01*
X243178D01*
X250267Y305496D02*X252267D01*
X252767Y304996D01*
Y303996D01*
X252267Y303496D02*X252767Y303996D01*
X250767Y303496D02*X252267D01*
X250767Y305496D02*Y301496D01*
X251567Y303496D02*X252767Y301496D01*
X253967Y304996D02*X254467Y305496D01*
X255967D01*
X256467Y304996D01*
Y303996D01*
X253967Y301496D02*X256467Y303996D01*
X253967Y301496D02*X256467D01*
X257667Y304696D02*X258467Y305496D01*
Y301496D01*
X257667D02*X259167D01*
X260367Y301996D02*X260867Y301496D01*
X260367Y304996D02*Y301996D01*
Y304996D02*X260867Y305496D01*
X261867D01*
X262367Y304996D01*
Y301996D01*
X261867Y301496D02*X262367Y301996D01*
X260867Y301496D02*X261867D01*
X260367Y302496D02*X262367Y304496D01*
X266630Y305496D02*X268630D01*
X269130Y304996D01*
Y303996D01*
X268630Y303496D02*X269130Y303996D01*
X267130Y303496D02*X268630D01*
X267130Y305496D02*Y301496D01*
X267930Y303496D02*X269130Y301496D01*
X270330Y304996D02*X270830Y305496D01*
X272330D01*
X272830Y304996D01*
Y303996D01*
X270330Y301496D02*X272830Y303996D01*
X270330Y301496D02*X272830D01*
X274030Y304696D02*X274830Y305496D01*
Y301496D01*
X274030D02*X275530D01*
X276730Y304696D02*X277530Y305496D01*
Y301496D01*
X276730D02*X278230D01*
X250823Y309346D02*X253323D01*
Y313346D02*X250823Y309346D01*
Y313346D02*X253323D01*
X249623Y309846D02*X249123Y309346D01*
X247623D02*X249123D01*
X247623D02*X247123Y309846D01*
Y310846D02*Y309846D01*
X249623Y313346D02*X247123Y310846D01*
Y313346D02*X249623D01*
X245923Y312846D02*X245423Y313346D01*
X245923Y312846D02*Y309846D01*
X245423Y309346D01*
X244423D02*X245423D01*
X244423D02*X243923Y309846D01*
Y312846D02*Y309846D01*
X244423Y313346D02*X243923Y312846D01*
X244423Y313346D02*X245423D01*
X245923Y312346D02*X243923Y310346D01*
X242723Y310146D02*X241923Y309346D01*
Y313346D02*Y309346D01*
X241223Y313346D02*X242723D01*
X169192Y425752D02*X171192D01*
X171692Y425252D01*
Y424252D01*
X171192Y423752D02*X171692Y424252D01*
X169692Y423752D02*X171192D01*
X169692Y425752D02*Y421752D01*
X170492Y423752D02*X171692Y421752D01*
X172892Y424952D02*X173692Y425752D01*
Y421752D01*
X172892D02*X174392D01*
X175592Y422252D02*X176092Y421752D01*
X175592Y425252D02*Y422252D01*
Y425252D02*X176092Y425752D01*
X177092D01*
X177592Y425252D01*
Y422252D01*
X177092Y421752D02*X177592Y422252D01*
X176092Y421752D02*X177092D01*
X175592Y422752D02*X177592Y424752D01*
X178792Y425252D02*X179292Y425752D01*
X180292D01*
X180792Y425252D01*
X180292Y421752D02*X180792Y422252D01*
X179292Y421752D02*X180292D01*
X178792Y422252D02*X179292Y421752D01*
Y423952D02*X180292D01*
X180792Y425252D02*Y424452D01*
Y423452D02*Y422252D01*
Y423452D02*X180292Y423952D01*
X180792Y424452D02*X180292Y423952D01*
X194537Y438102D02*Y436802D01*
X193837Y436102D02*X194537Y436802D01*
X191237Y436102D02*X193837D01*
X191237D02*X190537Y436802D01*
Y438102D02*Y436802D01*
X191337Y439302D02*X190537Y440102D01*
X194537D01*
Y440802D02*Y439302D01*
X194037Y442002D02*X194537Y442502D01*
X191037Y442002D02*X194037D01*
X191037D02*X190537Y442502D01*
Y443502D02*Y442502D01*
Y443502D02*X191037Y444002D01*
X194037D01*
X194537Y443502D02*X194037Y444002D01*
X194537Y443502D02*Y442502D01*
X193537Y442002D02*X191537Y444002D01*
X191337Y445202D02*X190537Y446002D01*
X194537D01*
Y446702D02*Y445202D01*
X153492Y482952D02*X154792D01*
X155492Y482252D02*X154792Y482952D01*
X155492Y482252D02*Y479652D01*
X154792Y478952D01*
X153492D02*X154792D01*
X152292Y479752D02*X151492Y478952D01*
Y482952D02*Y478952D01*
X150792Y482952D02*X152292D01*
X149592Y482452D02*X149092Y482952D01*
X149592Y482452D02*Y479452D01*
X149092Y478952D01*
X148092D02*X149092D01*
X148092D02*X147592Y479452D01*
Y482452D02*Y479452D01*
X148092Y482952D02*X147592Y482452D01*
X148092Y482952D02*X149092D01*
X149592Y481952D02*X147592Y479952D01*
X146392Y481452D02*X144392Y478952D01*
X143892Y481452D02*X146392D01*
X144392Y482952D02*Y478952D01*
X153492Y470452D02*X154792D01*
X155492Y469752D02*X154792Y470452D01*
X155492Y469752D02*Y467152D01*
X154792Y466452D01*
X153492D02*X154792D01*
X152292Y467252D02*X151492Y466452D01*
Y470452D02*Y466452D01*
X150792Y470452D02*X152292D01*
X149592Y469952D02*X149092Y470452D01*
X149592Y469952D02*Y466952D01*
X149092Y466452D01*
X148092D02*X149092D01*
X148092D02*X147592Y466952D01*
Y469952D02*Y466952D01*
X148092Y470452D02*X147592Y469952D01*
X148092Y470452D02*X149092D01*
X149592Y469452D02*X147592Y467452D01*
X144892Y466452D02*X144392Y466952D01*
X144892Y466452D02*X145892D01*
X146392Y466952D02*X145892Y466452D01*
X146392Y469952D02*Y466952D01*
Y469952D02*X145892Y470452D01*
X144892Y468252D02*X144392Y468752D01*
X144892Y468252D02*X146392D01*
X144892Y470452D02*X145892D01*
X144892D02*X144392Y469952D01*
Y468752D01*
X176682Y470452D02*X177982D01*
X178682Y469752D02*X177982Y470452D01*
X178682Y469752D02*Y467152D01*
X177982Y466452D01*
X176682D02*X177982D01*
X175482Y467252D02*X174682Y466452D01*
Y470452D02*Y466452D01*
X173982Y470452D02*X175482D01*
X172782Y469952D02*X172282Y470452D01*
X172782Y469952D02*Y466952D01*
X172282Y466452D01*
X171282D02*X172282D01*
X171282D02*X170782Y466952D01*
Y469952D02*Y466952D01*
X171282Y470452D02*X170782Y469952D01*
X171282Y470452D02*X172282D01*
X172782Y469452D02*X170782Y467452D01*
X167582Y466452D02*X169582D01*
Y468452D02*Y466452D01*
Y468452D02*X169082Y467952D01*
X168082D02*X169082D01*
X168082D02*X167582Y468452D01*
Y469952D02*Y468452D01*
X168082Y470452D02*X167582Y469952D01*
X168082Y470452D02*X169082D01*
X169582Y469952D02*X169082Y470452D01*
X155854Y458643D02*X157154D01*
X157854Y457943D02*X157154Y458643D01*
X157854Y457943D02*Y455343D01*
X157154Y454643D01*
X155854D02*X157154D01*
X154654Y455443D02*X153854Y454643D01*
Y458643D02*Y454643D01*
X153154Y458643D02*X154654D01*
X151954Y458143D02*X151454Y458643D01*
X151954Y458143D02*Y455143D01*
X151454Y454643D01*
X150454D02*X151454D01*
X150454D02*X149954Y455143D01*
Y458143D02*Y455143D01*
X150454Y458643D02*X149954Y458143D01*
X150454Y458643D02*X151454D01*
X151954Y457643D02*X149954Y455643D01*
X148754Y458143D02*X148254Y458643D01*
X148754Y458143D02*Y457343D01*
X148054Y456643D01*
X147454D02*X148054D01*
X147454D02*X146754Y457343D01*
Y458143D02*Y457343D01*
X147254Y458643D02*X146754Y458143D01*
X147254Y458643D02*X148254D01*
X148754Y455943D02*X148054Y456643D01*
X148754Y455943D02*Y455143D01*
X148254Y454643D01*
X147254D02*X148254D01*
X147254D02*X146754Y455143D01*
Y455943D02*Y455143D01*
X147454Y456643D02*X146754Y455943D01*
X172940Y458643D02*X174240D01*
X174940Y457943D02*X174240Y458643D01*
X174940Y457943D02*Y455343D01*
X174240Y454643D01*
X172940D02*X174240D01*
X171740Y455443D02*X170940Y454643D01*
Y458643D02*Y454643D01*
X170240Y458643D02*X171740D01*
X169040Y458143D02*X168540Y458643D01*
X169040Y458143D02*Y455143D01*
X168540Y454643D01*
X167540D02*X168540D01*
X167540D02*X167040Y455143D01*
Y458143D02*Y455143D01*
X167540Y458643D02*X167040Y458143D01*
X167540Y458643D02*X168540D01*
X169040Y457643D02*X167040Y455643D01*
X165340Y458643D02*X163340Y454643D01*
X165840D01*
X176682Y482952D02*X177982D01*
X178682Y482252D02*X177982Y482952D01*
X178682Y482252D02*Y479652D01*
X177982Y478952D01*
X176682D02*X177982D01*
X175482Y479752D02*X174682Y478952D01*
Y482952D02*Y478952D01*
X173982Y482952D02*X175482D01*
X172782Y482452D02*X172282Y482952D01*
X172782Y482452D02*Y479452D01*
X172282Y478952D01*
X171282D02*X172282D01*
X171282D02*X170782Y479452D01*
Y482452D02*Y479452D01*
X171282Y482952D02*X170782Y482452D01*
X171282Y482952D02*X172282D01*
X172782Y481952D02*X170782Y479952D01*
X169582Y479452D02*X169082Y478952D01*
X168082D02*X169082D01*
X168082D02*X167582Y479452D01*
X168082Y482952D02*X167582Y482452D01*
X168082Y482952D02*X169082D01*
X169582Y482452D02*X169082Y482952D01*
X168082Y480752D02*X169082D01*
X167582Y480252D02*Y479452D01*
Y482452D02*Y481252D01*
X168082Y480752D01*
X167582Y480252D02*X168082Y480752D01*
X194537Y473102D02*Y471802D01*
X193837Y471102D02*X194537Y471802D01*
X191237Y471102D02*X193837D01*
X191237D02*X190537Y471802D01*
Y473102D02*Y471802D01*
X191337Y474302D02*X190537Y475102D01*
X194537D01*
Y475802D02*Y474302D01*
X194037Y477002D02*X194537Y477502D01*
X191037Y477002D02*X194037D01*
X191037D02*X190537Y477502D01*
Y478502D02*Y477502D01*
Y478502D02*X191037Y479002D01*
X194037D01*
X194537Y478502D02*X194037Y479002D01*
X194537Y478502D02*Y477502D01*
X193537Y477002D02*X191537Y479002D01*
X191037Y480202D02*X190537Y480702D01*
Y482202D02*Y480702D01*
Y482202D02*X191037Y482702D01*
X192037D01*
X194537Y480202D02*X192037Y482702D01*
X194537D02*Y480202D01*
X278237Y468102D02*X282237D01*
Y466802D02*X281537Y466102D01*
X278937D02*X281537D01*
X278237Y466802D02*X278937Y466102D01*
X278237Y468602D02*Y466802D01*
X282237Y468602D02*Y466802D01*
X281437Y464902D02*X282237Y464102D01*
X278237D02*X282237D01*
X278237Y464902D02*Y463402D01*
X278737Y462202D02*X278237Y461702D01*
X278737Y462202D02*X281737D01*
X282237Y461702D01*
Y460702D01*
X281737Y460202D01*
X278737D02*X281737D01*
X278237Y460702D02*X278737Y460202D01*
X278237Y461702D02*Y460702D01*
X279237Y462202D02*X281237Y460202D01*
X279737Y459002D02*X282237Y457002D01*
X279737Y459002D02*Y456502D01*
X278237Y457002D02*X282237D01*
X278237Y438102D02*X282237D01*
Y436802D02*X281537Y436102D01*
X278937D02*X281537D01*
X278237Y436802D02*X278937Y436102D01*
X278237Y438602D02*Y436802D01*
X282237Y438602D02*Y436802D01*
X281437Y434902D02*X282237Y434102D01*
X278237D02*X282237D01*
X278237Y434902D02*Y433402D01*
X278737Y432202D02*X278237Y431702D01*
X278737Y432202D02*X281737D01*
X282237Y431702D01*
Y430702D01*
X281737Y430202D01*
X278737D02*X281737D01*
X278237Y430702D02*X278737Y430202D01*
X278237Y431702D02*Y430702D01*
X279237Y432202D02*X281237Y430202D01*
X282237Y429002D02*Y427002D01*
X280237Y429002D02*X282237D01*
X280237D02*X280737Y428502D01*
Y427502D01*
X280237Y427002D01*
X278737D02*X280237D01*
X278237Y427502D02*X278737Y427002D01*
X278237Y428502D02*Y427502D01*
X278737Y429002D02*X278237Y428502D01*
X237437Y405402D02*Y404102D01*
X238137Y406102D02*X237437Y405402D01*
X238137Y406102D02*X240737D01*
X241437Y405402D01*
Y404102D01*
X237937Y402902D02*X240937D01*
X241437Y402402D01*
Y401402D01*
X240937Y400902D01*
X237937D02*X240937D01*
X237437Y401402D02*X237937Y400902D01*
X237437Y402402D02*Y401402D01*
X237937Y402902D02*X237437Y402402D01*
Y399702D02*X241437D01*
X237437Y397202D01*
X241437D01*
X237437Y396002D02*X241437D01*
X237437Y393502D01*
X241437D01*
X240637Y392302D02*X241437Y391502D01*
X237437D02*X241437D01*
X237437Y392302D02*Y390802D01*
X237937Y389602D02*X237437Y389102D01*
X237937Y389602D02*X240937D01*
X241437Y389102D01*
Y388102D01*
X240937Y387602D01*
X237937D02*X240937D01*
X237437Y388102D02*X237937Y387602D01*
X237437Y389102D02*Y388102D01*
X238437Y389602D02*X240437Y387602D01*
X240937Y386402D02*X241437Y385902D01*
Y384902D01*
X240937Y384402D01*
X237437Y384902D02*X237937Y384402D01*
X237437Y385902D02*Y384902D01*
X237937Y386402D02*X237437Y385902D01*
X239637D02*Y384902D01*
X240137Y384402D02*X240937D01*
X237937D02*X239137D01*
X239637Y384902D01*
X240137Y384402D02*X239637Y384902D01*
X257937Y388102D02*Y386802D01*
X257237Y386102D02*X257937Y386802D01*
X254637Y386102D02*X257237D01*
X254637D02*X253937Y386802D01*
Y388102D02*Y386802D01*
X254437Y389302D02*X257437D01*
X254437D02*X253937Y389802D01*
Y390802D02*Y389802D01*
Y390802D02*X254437Y391302D01*
X257437D01*
X257937Y390802D02*X257437Y391302D01*
X257937Y390802D02*Y389802D01*
X257437Y389302D02*X257937Y389802D01*
X253937Y392502D02*X257937D01*
X253937D02*X257937Y395002D01*
X253937D02*X257937D01*
X253937Y396202D02*X257937D01*
X253937D02*X257937Y398702D01*
X253937D02*X257937D01*
X254737Y399902D02*X253937Y400702D01*
X257937D01*
Y401402D02*Y399902D01*
X257437Y402602D02*X257937Y403102D01*
X254437Y402602D02*X257437D01*
X254437D02*X253937Y403102D01*
Y404102D02*Y403102D01*
Y404102D02*X254437Y404602D01*
X257437D01*
X257937Y404102D02*X257437Y404602D01*
X257937Y404102D02*Y403102D01*
X256937Y402602D02*X254937Y404602D01*
X254437Y405802D02*X253937Y406302D01*
Y407802D02*Y406302D01*
Y407802D02*X254437Y408302D01*
X255437D01*
X257937Y405802D02*X255437Y408302D01*
X257937D02*Y405802D01*
X164737Y401602D02*X168737D01*
X164737Y402902D02*X165437Y403602D01*
X168037D01*
X168737Y402902D02*X168037Y403602D01*
X168737Y402902D02*Y401102D01*
X164737Y402902D02*Y401102D01*
X165537Y404802D02*X164737Y405602D01*
X168737D01*
Y406302D02*Y404802D01*
X168237Y407502D02*X168737Y408002D01*
X165237Y407502D02*X168237D01*
X165237D02*X164737Y408002D01*
Y409002D02*Y408002D01*
Y409002D02*X165237Y409502D01*
X168237D01*
X168737Y409002D02*X168237Y409502D01*
X168737Y409002D02*Y408002D01*
X167737Y407502D02*X165737Y409502D01*
X165237Y410702D02*X164737Y411202D01*
Y412202D02*Y411202D01*
Y412202D02*X165237Y412702D01*
X168737Y412202D02*X168237Y412702D01*
X168737Y412202D02*Y411202D01*
X168237Y410702D02*X168737Y411202D01*
X166537Y412202D02*Y411202D01*
X165237Y412702D02*X166037D01*
X167037D02*X168237D01*
X167037D02*X166537Y412202D01*
X166037Y412702D02*X166537Y412202D01*
X99192Y368943D02*X101192D01*
X101692Y368443D01*
Y367443D01*
X101192Y366943D02*X101692Y367443D01*
X99692Y366943D02*X101192D01*
X99692Y368943D02*Y364943D01*
X100492Y366943D02*X101692Y364943D01*
X102892Y368143D02*X103692Y368943D01*
Y364943D01*
X102892D02*X104392D01*
X105592Y365443D02*X106092Y364943D01*
X105592Y368443D02*Y365443D01*
Y368443D02*X106092Y368943D01*
X107092D01*
X107592Y368443D01*
Y365443D01*
X107092Y364943D02*X107592Y365443D01*
X106092Y364943D02*X107092D01*
X105592Y365943D02*X107592Y367943D01*
X108792Y368443D02*X109292Y368943D01*
X110792D01*
X111292Y368443D01*
Y367443D01*
X108792Y364943D02*X111292Y367443D01*
X108792Y364943D02*X111292D01*
X111087Y385847D02*Y383847D01*
X110587Y383347D01*
X109587D02*X110587D01*
X109087Y383847D02*X109587Y383347D01*
X109087Y385347D02*Y383847D01*
X107087Y385347D02*X111087D01*
X109087Y384547D02*X107087Y383347D01*
X110287Y382147D02*X111087Y381347D01*
X107087D02*X111087D01*
X107087Y382147D02*Y380647D01*
X107587Y379447D02*X107087Y378947D01*
X107587Y379447D02*X110587D01*
X111087Y378947D01*
Y377947D01*
X110587Y377447D01*
X107587D02*X110587D01*
X107087Y377947D02*X107587Y377447D01*
X107087Y378947D02*Y377947D01*
X108087Y379447D02*X110087Y377447D01*
X110287Y376247D02*X111087Y375447D01*
X107087D02*X111087D01*
X107087Y376247D02*Y374747D01*
X116637Y470602D02*X120637D01*
Y469302D02*X119937Y468602D01*
X117337D02*X119937D01*
X116637Y469302D02*X117337Y468602D01*
X116637Y471102D02*Y469302D01*
X120637Y471102D02*Y469302D01*
X119837Y467402D02*X120637Y466602D01*
X116637D02*X120637D01*
X116637Y467402D02*Y465902D01*
X117137Y464702D02*X116637Y464202D01*
X117137Y464702D02*X120137D01*
X120637Y464202D01*
Y463202D01*
X120137Y462702D01*
X117137D02*X120137D01*
X116637Y463202D02*X117137Y462702D01*
X116637Y464202D02*Y463202D01*
X117637Y464702D02*X119637Y462702D01*
X119837Y461502D02*X120637Y460702D01*
X116637D02*X120637D01*
X116637Y461502D02*Y460002D01*
X134937Y373602D02*X138437D01*
X138937Y374102D01*
Y375102D02*Y374102D01*
Y375102D02*X138437Y375602D01*
X134937D02*X138437D01*
X135737Y376802D02*X134937Y377602D01*
X138937D01*
Y378302D02*Y376802D01*
X138437Y379502D02*X138937Y380002D01*
X135437Y379502D02*X138437D01*
X135437D02*X134937Y380002D01*
Y381002D02*Y380002D01*
Y381002D02*X135437Y381502D01*
X138437D01*
X138937Y381002D02*X138437Y381502D01*
X138937Y381002D02*Y380002D01*
X137937Y379502D02*X135937Y381502D01*
X135737Y382702D02*X134937Y383502D01*
X138937D01*
Y384202D02*Y382702D01*
M02*
