G04 Layer_Physical_Order=2*
G04 Layer_Color=16711680*
%FSAX24Y24*%
%MOIN*%
G70*
G01*
G75*
%ADD12C,0.0543*%
%ADD13C,0.1575*%
%ADD14O,0.0600X0.1200*%
%ADD15C,0.2500*%
%ADD16R,0.9800X0.5900*%
G36*
X017866Y034750D02*
X018204Y034694D01*
X018421Y034620D01*
X018627Y034519D01*
X018818Y034391D01*
X018990Y034240D01*
X019141Y034068D01*
X019269Y033877D01*
X019370Y033671D01*
X019444Y033454D01*
X019489Y033229D01*
X019504Y033000D01*
X019489Y032771D01*
X019444Y032546D01*
X019370Y032329D01*
X019269Y032123D01*
X019141Y031932D01*
X018990Y031760D01*
X018818Y031609D01*
X018627Y031481D01*
X018421Y031380D01*
X018204Y031306D01*
X017880Y031251D01*
X017770Y031250D01*
X012250Y031250D01*
X012135D01*
X011796Y031306D01*
X011579Y031380D01*
X011373Y031481D01*
X011182Y031609D01*
X011010Y031760D01*
X010859Y031932D01*
X010731Y032123D01*
X010630Y032329D01*
X010556Y032546D01*
X010500Y032885D01*
Y033000D01*
X010500Y033000D01*
X010500Y033057D01*
X010511Y033229D01*
X010556Y033454D01*
X010630Y033671D01*
X010731Y033877D01*
X010859Y034068D01*
X011010Y034240D01*
X011182Y034391D01*
X011373Y034519D01*
X011579Y034620D01*
X011796Y034694D01*
X012135Y034750D01*
X012250D01*
X012250Y034750D01*
X017752Y034750D01*
X017866Y034750D01*
D02*
G37*
G36*
X019900Y014500D02*
X010100D01*
Y025000D01*
X019900D01*
Y014500D01*
D02*
G37*
G36*
X017866Y048187D02*
X018204Y048131D01*
X018421Y048057D01*
X018627Y047956D01*
X018818Y047828D01*
X018990Y047677D01*
X019141Y047505D01*
X019269Y047314D01*
X019370Y047108D01*
X019444Y046891D01*
X019489Y046666D01*
X019504Y046437D01*
X019489Y046208D01*
X019444Y045983D01*
X019370Y045766D01*
X019269Y045560D01*
X019141Y045369D01*
X018990Y045197D01*
X018818Y045046D01*
X018627Y044918D01*
X018421Y044817D01*
X018204Y044743D01*
X017880Y044688D01*
X017770Y044687D01*
X012250Y044687D01*
X012135D01*
X011796Y044743D01*
X011579Y044817D01*
X011373Y044918D01*
X011182Y045046D01*
X011010Y045197D01*
X010859Y045369D01*
X010731Y045560D01*
X010630Y045766D01*
X010556Y045983D01*
X010500Y046322D01*
Y046437D01*
X010500Y046437D01*
X010500Y046494D01*
X010511Y046666D01*
X010556Y046891D01*
X010630Y047108D01*
X010731Y047314D01*
X010859Y047505D01*
X011010Y047677D01*
X011182Y047828D01*
X011373Y047956D01*
X011579Y048057D01*
X011796Y048131D01*
X012135Y048187D01*
X012250D01*
X012250Y048187D01*
X017752Y048187D01*
X017866Y048187D01*
D02*
G37*
G36*
X017700Y044300D02*
X017759D01*
X017935Y044288D01*
X018167Y044242D01*
X018390Y044167D01*
X018602Y044062D01*
X018798Y043931D01*
X018976Y043776D01*
X019131Y043598D01*
X019262Y043402D01*
X019367Y043190D01*
X019442Y042967D01*
X019488Y042735D01*
X019500Y042559D01*
Y042500D01*
Y037000D01*
Y037000D01*
Y036941D01*
X019488Y036765D01*
X019442Y036533D01*
X019367Y036310D01*
X019262Y036098D01*
X019131Y035902D01*
X018976Y035724D01*
X018798Y035569D01*
X018602Y035438D01*
X018390Y035333D01*
X018167Y035258D01*
X017935Y035212D01*
X017759Y035200D01*
X017700D01*
X012300Y035200D01*
X012300Y035200D01*
X012241D01*
X012065Y035212D01*
X011833Y035258D01*
X011610Y035333D01*
X011398Y035438D01*
X011202Y035569D01*
X011024Y035724D01*
X010869Y035902D01*
X010738Y036098D01*
X010633Y036310D01*
X010558Y036533D01*
X010512Y036765D01*
X010500Y036941D01*
Y037000D01*
X010500Y042500D01*
X010500Y042500D01*
Y042559D01*
X010512Y042735D01*
X010558Y042967D01*
X010633Y043190D01*
X010738Y043402D01*
X010869Y043598D01*
X011024Y043776D01*
X011202Y043931D01*
X011398Y044062D01*
X011610Y044167D01*
X011833Y044242D01*
X012065Y044288D01*
X012241Y044300D01*
X012300D01*
X017700Y044300D01*
X017700Y044300D01*
D02*
G37*
%LPC*%
G36*
X011500Y023203D02*
X011396Y023190D01*
X011298Y023149D01*
X011215Y023085D01*
X011151Y023002D01*
X011110Y022904D01*
X011097Y022800D01*
Y022200D01*
X011110Y022096D01*
X011151Y021998D01*
X011215Y021915D01*
X011281Y021864D01*
X011287Y021813D01*
X011284Y021803D01*
X011235Y021765D01*
X011175Y021687D01*
X011138Y021597D01*
X011125Y021500D01*
X011138Y021403D01*
X011175Y021313D01*
X011223Y021250D01*
X011175Y021187D01*
X011138Y021097D01*
X011125Y021000D01*
X011138Y020903D01*
X011175Y020813D01*
X011235Y020735D01*
X011313Y020675D01*
X011403Y020638D01*
X011500Y020625D01*
X011597Y020638D01*
X011687Y020675D01*
X011765Y020735D01*
X011825Y020813D01*
X011862Y020903D01*
X011875Y021000D01*
X011862Y021097D01*
X011825Y021187D01*
X011777Y021250D01*
X011825Y021313D01*
X011862Y021403D01*
X011875Y021500D01*
X011862Y021597D01*
X011825Y021687D01*
X011765Y021765D01*
X011716Y021803D01*
X011713Y021813D01*
X011719Y021864D01*
X011785Y021915D01*
X011849Y021998D01*
X011890Y022096D01*
X011903Y022200D01*
Y022800D01*
X011890Y022904D01*
X011849Y023002D01*
X011785Y023085D01*
X011702Y023149D01*
X011604Y023190D01*
X011500Y023203D01*
D02*
G37*
G36*
X016500D02*
X016396Y023190D01*
X016298Y023149D01*
X016215Y023085D01*
X016151Y023002D01*
X016110Y022904D01*
X016097Y022800D01*
Y022200D01*
X016110Y022096D01*
X016151Y021998D01*
X016215Y021915D01*
X016281Y021864D01*
X016287Y021813D01*
X016284Y021803D01*
X016235Y021765D01*
X016175Y021687D01*
X016138Y021597D01*
X016125Y021500D01*
X016138Y021403D01*
X016175Y021313D01*
X016223Y021250D01*
X016175Y021187D01*
X016138Y021097D01*
X016125Y021000D01*
X016138Y020903D01*
X016175Y020813D01*
X016235Y020735D01*
X016313Y020675D01*
X016403Y020638D01*
X016500Y020625D01*
X016597Y020638D01*
X016687Y020675D01*
X016765Y020735D01*
X016825Y020813D01*
X016862Y020903D01*
X016875Y021000D01*
X016862Y021097D01*
X016825Y021187D01*
X016777Y021250D01*
X016825Y021313D01*
X016862Y021403D01*
X016875Y021500D01*
X016862Y021597D01*
X016825Y021687D01*
X016765Y021765D01*
X016716Y021803D01*
X016713Y021813D01*
X016719Y021864D01*
X016785Y021915D01*
X016849Y021998D01*
X016890Y022096D01*
X016903Y022200D01*
Y022800D01*
X016890Y022904D01*
X016849Y023002D01*
X016785Y023085D01*
X016702Y023149D01*
X016604Y023190D01*
X016500Y023203D01*
D02*
G37*
G36*
X018500D02*
X018396Y023190D01*
X018298Y023149D01*
X018215Y023085D01*
X018151Y023002D01*
X018110Y022904D01*
X018097Y022800D01*
Y022200D01*
X018110Y022096D01*
X018151Y021998D01*
X018215Y021915D01*
X018298Y021851D01*
X018396Y021810D01*
X018500Y021797D01*
X018604Y021810D01*
X018702Y021851D01*
X018785Y021915D01*
X018849Y021998D01*
X018890Y022096D01*
X018903Y022200D01*
Y022800D01*
X018890Y022904D01*
X018849Y023002D01*
X018785Y023085D01*
X018702Y023149D01*
X018604Y023190D01*
X018500Y023203D01*
D02*
G37*
G36*
X013500D02*
X013396Y023190D01*
X013298Y023149D01*
X013215Y023085D01*
X013151Y023002D01*
X013110Y022904D01*
X013097Y022800D01*
Y022200D01*
X013110Y022096D01*
X013151Y021998D01*
X013215Y021915D01*
X013298Y021851D01*
X013396Y021810D01*
X013500Y021797D01*
X013604Y021810D01*
X013702Y021851D01*
X013785Y021915D01*
X013849Y021998D01*
X013890Y022096D01*
X013903Y022200D01*
Y022800D01*
X013890Y022904D01*
X013849Y023002D01*
X013785Y023085D01*
X013702Y023149D01*
X013604Y023190D01*
X013500Y023203D01*
D02*
G37*
%LPD*%
D12*
X016500Y021500D02*
D03*
X011500D02*
D03*
Y021000D02*
D03*
X016500D02*
D03*
D13*
X015000Y042531D02*
D03*
Y046469D02*
D03*
Y033031D02*
D03*
Y036969D02*
D03*
D14*
X013500Y022500D02*
D03*
X012500D02*
D03*
X011500D02*
D03*
X018500D02*
D03*
X017500D02*
D03*
X016500D02*
D03*
D15*
X012500Y027000D02*
D03*
X017500D02*
D03*
X012500Y017500D02*
D03*
X017500D02*
D03*
D16*
X015000Y017450D02*
D03*
M02*
