G75*
G70*
%OFA0B0*%
%FSLAX24Y24*%
%IPPOS*%
%LPD*%
%AMOC8*
5,1,8,0,0,1.08239X$1,22.5*
%
%ADD10C,0.0600*%
%ADD11C,0.1266*%
%ADD12C,0.0640*%
%ADD13R,0.0640X0.0640*%
%ADD14C,0.0560*%
%ADD15C,0.0400*%
%ADD16C,0.0080*%
%ADD17C,0.0436*%
%ADD18C,0.0160*%
%ADD19C,0.0100*%
%ADD20C,0.0240*%
D10*
X008107Y006640D03*
X008107Y007624D03*
X008107Y008412D03*
X008107Y009396D03*
D11*
X007162Y010301D03*
X007162Y005734D03*
D12*
X005957Y003518D03*
X005957Y002518D03*
X009957Y002518D03*
X010957Y002518D03*
X011957Y002518D03*
X012957Y002518D03*
X013957Y002518D03*
X014957Y002518D03*
X015957Y002518D03*
X017957Y002518D03*
X018957Y002518D03*
X019957Y002518D03*
X020957Y002518D03*
X021957Y002518D03*
X022957Y002518D03*
X023957Y002518D03*
X005957Y012518D03*
X005957Y013518D03*
X009957Y013518D03*
X010957Y013518D03*
X011957Y013518D03*
X012957Y013518D03*
X013957Y013518D03*
X014957Y013518D03*
X015957Y013518D03*
X017957Y013518D03*
X018957Y013518D03*
X019957Y013518D03*
X020957Y013518D03*
X021957Y013518D03*
X022957Y013518D03*
X023957Y013518D03*
D13*
X016957Y013518D03*
X008957Y013518D03*
X008957Y002518D03*
X016957Y002518D03*
D14*
X011288Y004463D03*
X009288Y004463D03*
D15*
X009992Y006038D03*
X009107Y006234D03*
X011764Y007416D03*
X012355Y007711D03*
X012355Y008400D03*
X011174Y008597D03*
X011174Y008105D03*
X010386Y009089D03*
X012650Y010860D03*
X013634Y011254D03*
X013437Y011746D03*
X014028Y012238D03*
X014618Y012238D03*
X012355Y012829D03*
X011453Y012148D03*
X010583Y011648D03*
X011075Y011353D03*
X010681Y010959D03*
X011075Y013026D03*
X014422Y010860D03*
X014225Y010073D03*
X014914Y009975D03*
X013733Y007219D03*
X019244Y012238D03*
D16*
X003957Y013401D02*
X003957Y002635D01*
X004009Y002688D01*
X004300Y002808D01*
X004614Y002808D01*
X004904Y002688D01*
X005127Y002465D01*
X005247Y002175D01*
X005247Y001861D01*
X005127Y001570D01*
X005074Y001518D01*
X024840Y001518D01*
X024787Y001570D01*
X024667Y001861D01*
X024667Y002175D01*
X024787Y002465D01*
X025009Y002688D01*
X025300Y002808D01*
X025614Y002808D01*
X025904Y002688D01*
X025957Y002635D01*
X025957Y013401D01*
X025904Y013348D01*
X025614Y013228D01*
X025300Y013228D01*
X025009Y013348D01*
X024787Y013570D01*
X024667Y013861D01*
X024667Y014175D01*
X024787Y014465D01*
X024840Y014518D01*
X005074Y014518D01*
X005127Y014465D01*
X005247Y014175D01*
X005247Y013861D01*
X005127Y013570D01*
X004904Y013348D01*
X004614Y013228D01*
X004300Y013228D01*
X004009Y013348D01*
X003957Y013401D01*
X003957Y013349D02*
X004008Y013349D01*
X003957Y013271D02*
X004197Y013271D01*
X003957Y013192D02*
X005632Y013192D01*
X005696Y013128D02*
X005865Y013058D01*
X005917Y013058D01*
X005917Y013478D01*
X005497Y013478D01*
X005497Y013426D01*
X005567Y013257D01*
X005696Y013128D01*
X005731Y013114D02*
X003957Y013114D01*
X003957Y013035D02*
X010333Y013035D01*
X010255Y013114D02*
X010131Y013114D01*
X010206Y013145D02*
X010045Y013078D01*
X009869Y013078D01*
X009708Y013145D01*
X009584Y013269D01*
X009517Y013430D01*
X009517Y013605D01*
X009584Y013767D01*
X009708Y013891D01*
X009869Y013958D01*
X010045Y013958D01*
X010206Y013891D01*
X010330Y013767D01*
X010397Y013605D01*
X010397Y013452D01*
X010753Y013096D01*
X010753Y012955D01*
X010753Y011924D01*
X010764Y011919D01*
X010854Y011829D01*
X010875Y011779D01*
X010875Y012773D01*
X010804Y012845D01*
X010755Y012962D01*
X010755Y013089D01*
X010768Y013120D01*
X010708Y013145D01*
X010584Y013269D01*
X010517Y013430D01*
X010517Y013605D01*
X010584Y013767D01*
X010708Y013891D01*
X010869Y013958D01*
X011045Y013958D01*
X011206Y013891D01*
X011330Y013767D01*
X011397Y013605D01*
X011397Y013430D01*
X011330Y013269D01*
X011307Y013246D01*
X011346Y013207D01*
X011395Y013089D01*
X011395Y012962D01*
X011346Y012845D01*
X011275Y012773D01*
X011275Y011605D01*
X011346Y011534D01*
X011395Y011416D01*
X011395Y011289D01*
X011346Y011171D01*
X011256Y011081D01*
X011139Y011033D01*
X011011Y011033D01*
X010894Y011081D01*
X010804Y011171D01*
X010755Y011289D01*
X010755Y011373D01*
X010647Y011328D01*
X010519Y011328D01*
X010402Y011377D01*
X010312Y011467D01*
X010263Y011584D01*
X010263Y011712D01*
X010312Y011829D01*
X010402Y011919D01*
X010413Y011924D01*
X010413Y012955D01*
X010215Y013154D01*
X010206Y013145D01*
X010412Y012957D02*
X006048Y012957D01*
X006045Y012958D02*
X005869Y012958D01*
X005708Y012891D01*
X005584Y012767D01*
X005517Y012605D01*
X005517Y012430D01*
X005584Y012269D01*
X005708Y012145D01*
X005869Y012078D01*
X006045Y012078D01*
X006206Y012145D01*
X006330Y012269D01*
X006397Y012430D01*
X006397Y012605D01*
X006330Y012767D01*
X006206Y012891D01*
X006045Y012958D01*
X006049Y013058D02*
X006218Y013128D01*
X006347Y013257D01*
X006417Y013426D01*
X006417Y013478D01*
X005997Y013478D01*
X005997Y013558D01*
X005917Y013558D01*
X005917Y013978D01*
X005865Y013978D01*
X005247Y013978D01*
X005247Y014056D02*
X024667Y014056D01*
X024667Y013978D02*
X024049Y013978D01*
X024218Y013908D01*
X024347Y013779D01*
X024417Y013609D01*
X024417Y013558D01*
X023997Y013558D01*
X023917Y013558D01*
X023917Y013978D01*
X023865Y013978D01*
X023049Y013978D01*
X023218Y013908D01*
X023347Y013779D01*
X023417Y013609D01*
X023417Y013558D01*
X022997Y013558D01*
X022917Y013558D01*
X022917Y013978D01*
X022865Y013978D01*
X006049Y013978D01*
X005997Y013978D01*
X005997Y013558D01*
X006417Y013558D01*
X006417Y013609D01*
X006347Y013779D01*
X006218Y013908D01*
X006049Y013978D01*
X005997Y013978D02*
X005917Y013978D01*
X005865Y013978D02*
X005696Y013908D01*
X005567Y013779D01*
X005497Y013609D01*
X005497Y013558D01*
X005917Y013558D01*
X005917Y013478D01*
X005997Y013478D01*
X005997Y013058D01*
X006049Y013058D01*
X005997Y013114D02*
X005917Y013114D01*
X005917Y013192D02*
X005997Y013192D01*
X005997Y013271D02*
X005917Y013271D01*
X005917Y013349D02*
X005997Y013349D01*
X005997Y013428D02*
X005917Y013428D01*
X005917Y013506D02*
X005063Y013506D01*
X005133Y013585D02*
X005497Y013585D01*
X005519Y013663D02*
X005165Y013663D01*
X005198Y013742D02*
X005552Y013742D01*
X005609Y013821D02*
X005230Y013821D01*
X005247Y013899D02*
X005688Y013899D01*
X005917Y013899D02*
X005997Y013899D01*
X005997Y013821D02*
X005917Y013821D01*
X005917Y013742D02*
X005997Y013742D01*
X005997Y013663D02*
X005917Y013663D01*
X005917Y013585D02*
X005997Y013585D01*
X005997Y013506D02*
X008517Y013506D01*
X008517Y013428D02*
X006417Y013428D01*
X006385Y013349D02*
X008517Y013349D01*
X008517Y013271D02*
X006352Y013271D01*
X006282Y013192D02*
X008517Y013192D01*
X008517Y013148D02*
X008587Y013078D01*
X009327Y013078D01*
X009397Y013148D01*
X009397Y013888D01*
X009327Y013958D01*
X008587Y013958D01*
X008517Y013888D01*
X008517Y013148D01*
X008552Y013114D02*
X006183Y013114D01*
X006219Y012878D02*
X010413Y012878D01*
X010413Y012799D02*
X006298Y012799D01*
X006349Y012721D02*
X010413Y012721D01*
X010413Y012642D02*
X006382Y012642D01*
X006397Y012564D02*
X010413Y012564D01*
X010413Y012485D02*
X006397Y012485D01*
X006387Y012407D02*
X010413Y012407D01*
X010413Y012328D02*
X006355Y012328D01*
X006311Y012250D02*
X010413Y012250D01*
X010413Y012171D02*
X006232Y012171D01*
X006080Y012093D02*
X010413Y012093D01*
X010413Y012014D02*
X003957Y012014D01*
X003957Y011935D02*
X010413Y011935D01*
X010339Y011857D02*
X003957Y011857D01*
X003957Y011778D02*
X010291Y011778D01*
X010263Y011700D02*
X003957Y011700D01*
X003957Y011621D02*
X010263Y011621D01*
X010280Y011543D02*
X003957Y011543D01*
X003957Y011464D02*
X010314Y011464D01*
X010393Y011386D02*
X003957Y011386D01*
X003957Y011307D02*
X010755Y011307D01*
X010780Y011229D02*
X003957Y011229D01*
X003957Y011150D02*
X010825Y011150D01*
X010917Y011071D02*
X003957Y011071D01*
X003957Y010993D02*
X006863Y010993D01*
X006735Y010940D02*
X006523Y010728D01*
X006409Y010451D01*
X006409Y010152D01*
X006523Y009875D01*
X006735Y009663D01*
X007012Y009548D01*
X007312Y009548D01*
X007588Y009663D01*
X007800Y009875D01*
X007915Y010152D01*
X007915Y010451D01*
X007800Y010728D01*
X007588Y010940D01*
X007312Y011054D01*
X007012Y011054D01*
X006735Y010940D01*
X006710Y010914D02*
X003957Y010914D01*
X003957Y010836D02*
X006631Y010836D01*
X006553Y010757D02*
X003957Y010757D01*
X003957Y010679D02*
X006503Y010679D01*
X006470Y010600D02*
X003957Y010600D01*
X003957Y010522D02*
X006438Y010522D01*
X006409Y010443D02*
X003957Y010443D01*
X003957Y010365D02*
X006409Y010365D01*
X006409Y010286D02*
X003957Y010286D01*
X003957Y010208D02*
X006409Y010208D01*
X006418Y010129D02*
X003957Y010129D01*
X003957Y010050D02*
X006451Y010050D01*
X006483Y009972D02*
X003957Y009972D01*
X003957Y009893D02*
X006516Y009893D01*
X006583Y009815D02*
X003957Y009815D01*
X003957Y009736D02*
X006662Y009736D01*
X006748Y009658D02*
X003957Y009658D01*
X003957Y009579D02*
X006937Y009579D01*
X007386Y009579D02*
X007728Y009579D01*
X007751Y009634D02*
X007687Y009479D01*
X007687Y009327D01*
X007598Y009238D01*
X006336Y009238D01*
X006137Y009238D01*
X005717Y008818D01*
X005717Y008619D01*
X005717Y003895D01*
X005708Y003891D01*
X005584Y003767D01*
X003957Y003767D01*
X003957Y003846D02*
X005662Y003846D01*
X005717Y003924D02*
X003957Y003924D01*
X003957Y004003D02*
X005717Y004003D01*
X005717Y004081D02*
X003957Y004081D01*
X003957Y004160D02*
X005717Y004160D01*
X005717Y004238D02*
X003957Y004238D01*
X003957Y004317D02*
X005717Y004317D01*
X005717Y004395D02*
X003957Y004395D01*
X003957Y004474D02*
X005717Y004474D01*
X005717Y004552D02*
X003957Y004552D01*
X003957Y004631D02*
X005717Y004631D01*
X005717Y004709D02*
X003957Y004709D01*
X003957Y004788D02*
X005717Y004788D01*
X005717Y004867D02*
X003957Y004867D01*
X003957Y004945D02*
X005717Y004945D01*
X005717Y005024D02*
X003957Y005024D01*
X003957Y005102D02*
X005717Y005102D01*
X005717Y005181D02*
X003957Y005181D01*
X003957Y005259D02*
X005717Y005259D01*
X005717Y005338D02*
X003957Y005338D01*
X003957Y005416D02*
X005717Y005416D01*
X005717Y005495D02*
X003957Y005495D01*
X003957Y005573D02*
X005717Y005573D01*
X005717Y005652D02*
X003957Y005652D01*
X003957Y005731D02*
X005717Y005731D01*
X005717Y005809D02*
X003957Y005809D01*
X003957Y005888D02*
X005717Y005888D01*
X005717Y005966D02*
X003957Y005966D01*
X003957Y006045D02*
X005717Y006045D01*
X005717Y006123D02*
X003957Y006123D01*
X003957Y006202D02*
X005717Y006202D01*
X005717Y006280D02*
X003957Y006280D01*
X003957Y006359D02*
X005717Y006359D01*
X005717Y006437D02*
X003957Y006437D01*
X003957Y006516D02*
X005717Y006516D01*
X005717Y006595D02*
X003957Y006595D01*
X003957Y006673D02*
X005717Y006673D01*
X005717Y006752D02*
X003957Y006752D01*
X003957Y006830D02*
X005717Y006830D01*
X005717Y006909D02*
X003957Y006909D01*
X003957Y006987D02*
X005717Y006987D01*
X005717Y007066D02*
X003957Y007066D01*
X003957Y007144D02*
X005717Y007144D01*
X005717Y007223D02*
X003957Y007223D01*
X003957Y007301D02*
X005717Y007301D01*
X005717Y007380D02*
X003957Y007380D01*
X003957Y007459D02*
X005717Y007459D01*
X005717Y007537D02*
X003957Y007537D01*
X003957Y007616D02*
X005717Y007616D01*
X005717Y007694D02*
X003957Y007694D01*
X003957Y007773D02*
X005717Y007773D01*
X005717Y007851D02*
X003957Y007851D01*
X003957Y007930D02*
X005717Y007930D01*
X005717Y008008D02*
X003957Y008008D01*
X003957Y008087D02*
X005717Y008087D01*
X005717Y008165D02*
X003957Y008165D01*
X003957Y008244D02*
X005717Y008244D01*
X005717Y008322D02*
X003957Y008322D01*
X003957Y008401D02*
X005717Y008401D01*
X005717Y008480D02*
X003957Y008480D01*
X003957Y008558D02*
X005717Y008558D01*
X005717Y008637D02*
X003957Y008637D01*
X003957Y008715D02*
X005717Y008715D01*
X005717Y008794D02*
X003957Y008794D01*
X003957Y008872D02*
X005771Y008872D01*
X005850Y008951D02*
X003957Y008951D01*
X003957Y009029D02*
X005928Y009029D01*
X006007Y009108D02*
X003957Y009108D01*
X003957Y009186D02*
X006085Y009186D01*
X006336Y008758D02*
X007598Y008758D01*
X007797Y008758D01*
X008017Y008979D01*
X008023Y008976D01*
X008190Y008976D01*
X008344Y009040D01*
X008463Y009158D01*
X008527Y009312D01*
X008527Y009479D01*
X008463Y009634D01*
X008344Y009752D01*
X008190Y009816D01*
X008023Y009816D01*
X007869Y009752D01*
X007751Y009634D01*
X007774Y009658D02*
X007576Y009658D01*
X007662Y009736D02*
X007853Y009736D01*
X007740Y009815D02*
X008020Y009815D01*
X008193Y009815D02*
X010708Y009815D01*
X010708Y009893D02*
X007808Y009893D01*
X007840Y009972D02*
X010708Y009972D01*
X010708Y010050D02*
X007873Y010050D01*
X007905Y010129D02*
X010708Y010129D01*
X010708Y010208D02*
X007915Y010208D01*
X007915Y010286D02*
X010708Y010286D01*
X010708Y010365D02*
X007915Y010365D01*
X007915Y010443D02*
X010708Y010443D01*
X010708Y010522D02*
X007886Y010522D01*
X007853Y010600D02*
X010771Y010600D01*
X010808Y010637D02*
X010708Y010537D01*
X010708Y008822D01*
X010808Y008722D01*
X010858Y008672D01*
X010854Y008660D01*
X010854Y008533D01*
X010902Y008415D01*
X010992Y008325D01*
X011110Y008277D01*
X011237Y008277D01*
X011355Y008325D01*
X011445Y008415D01*
X011494Y008533D01*
X011494Y008660D01*
X011445Y008778D01*
X011355Y008868D01*
X011237Y008917D01*
X011110Y008917D01*
X011099Y008912D01*
X011048Y008962D01*
X011048Y010396D01*
X011153Y010501D01*
X011481Y010501D01*
X011622Y010501D01*
X012032Y010912D01*
X012032Y011053D01*
X012032Y013078D01*
X012045Y013078D01*
X012206Y013145D01*
X012298Y013236D01*
X012385Y013149D01*
X012291Y013149D01*
X012173Y013100D01*
X012083Y013010D01*
X012035Y012893D01*
X012035Y012765D01*
X012083Y012648D01*
X012155Y012576D01*
X012155Y012026D01*
X012155Y011860D01*
X012351Y011663D01*
X012469Y011546D01*
X013185Y011546D01*
X013256Y011475D01*
X013361Y011431D01*
X013314Y011318D01*
X013314Y011190D01*
X013336Y011138D01*
X013336Y010648D01*
X013158Y010470D01*
X012339Y010470D01*
X012186Y010470D01*
X012173Y010470D01*
X012123Y010419D01*
X011694Y010076D01*
X011681Y010076D01*
X011631Y010025D01*
X011605Y010000D01*
X011564Y009959D01*
X011564Y007668D01*
X011493Y007597D01*
X011444Y007479D01*
X011444Y007352D01*
X011493Y007234D01*
X011583Y007144D01*
X011700Y007096D01*
X011828Y007096D01*
X011945Y007144D01*
X012035Y007234D01*
X012084Y007352D01*
X012084Y007479D01*
X012035Y007597D01*
X011964Y007668D01*
X011964Y009780D01*
X012326Y010070D01*
X013323Y010070D01*
X013440Y010187D01*
X013736Y010482D01*
X013736Y010648D01*
X013736Y010950D01*
X013815Y010983D01*
X013905Y011073D01*
X013954Y011190D01*
X013954Y011318D01*
X013905Y011435D01*
X013815Y011525D01*
X013710Y011569D01*
X013757Y011683D01*
X013757Y011810D01*
X013709Y011928D01*
X013619Y012018D01*
X013501Y012066D01*
X013374Y012066D01*
X013256Y012018D01*
X013185Y011946D01*
X012634Y011946D01*
X012555Y012026D01*
X012555Y012576D01*
X012626Y012648D01*
X012675Y012765D01*
X012675Y012859D01*
X012678Y012856D01*
X013072Y012856D01*
X013169Y012759D01*
X013268Y012659D01*
X013367Y012659D01*
X013464Y012562D01*
X013564Y012462D01*
X013761Y012462D01*
X013780Y012443D01*
X013757Y012420D01*
X013708Y012302D01*
X013708Y012175D01*
X013757Y012057D01*
X013847Y011967D01*
X013964Y011918D01*
X014092Y011918D01*
X014209Y011967D01*
X014299Y012057D01*
X014323Y012115D01*
X014347Y012057D01*
X014437Y011967D01*
X014555Y011918D01*
X014682Y011918D01*
X014800Y011967D01*
X014871Y012038D01*
X018992Y012038D01*
X019063Y011967D01*
X019181Y011918D01*
X019308Y011918D01*
X019426Y011967D01*
X019516Y012057D01*
X019564Y012175D01*
X019564Y012302D01*
X019516Y012420D01*
X019426Y012510D01*
X019308Y012558D01*
X019181Y012558D01*
X019063Y012510D01*
X018992Y012438D01*
X014871Y012438D01*
X014800Y012510D01*
X014682Y012558D01*
X014555Y012558D01*
X014437Y012510D01*
X014347Y012420D01*
X014323Y012362D01*
X014299Y012420D01*
X014209Y012510D01*
X014183Y012520D01*
X013901Y012802D01*
X013761Y012802D01*
X013705Y012802D01*
X013508Y012999D01*
X013409Y012999D01*
X013235Y013173D01*
X013330Y013269D01*
X013397Y013430D01*
X013397Y013605D01*
X013330Y013767D01*
X013206Y013891D01*
X013045Y013958D01*
X012869Y013958D01*
X012708Y013891D01*
X012584Y013767D01*
X012517Y013605D01*
X012517Y013497D01*
X012388Y013626D01*
X012330Y013767D01*
X012206Y013891D01*
X012045Y013958D01*
X011869Y013958D01*
X011708Y013891D01*
X011584Y013767D01*
X011517Y013605D01*
X011517Y013430D01*
X011584Y013269D01*
X011693Y013160D01*
X011693Y011053D01*
X011481Y010841D01*
X011013Y010841D01*
X010913Y010742D01*
X010808Y010637D01*
X010808Y010637D01*
X010850Y010679D02*
X007821Y010679D01*
X007771Y010757D02*
X010928Y010757D01*
X011007Y010836D02*
X007692Y010836D01*
X007614Y010914D02*
X011554Y010914D01*
X011633Y010993D02*
X007460Y010993D01*
X005834Y012093D02*
X003957Y012093D01*
X003957Y012171D02*
X005682Y012171D01*
X005603Y012250D02*
X003957Y012250D01*
X003957Y012328D02*
X005559Y012328D01*
X005527Y012407D02*
X003957Y012407D01*
X003957Y012485D02*
X005517Y012485D01*
X005517Y012564D02*
X003957Y012564D01*
X003957Y012642D02*
X005532Y012642D01*
X005565Y012721D02*
X003957Y012721D01*
X003957Y012799D02*
X005616Y012799D01*
X005695Y012878D02*
X003957Y012878D01*
X003957Y012957D02*
X005866Y012957D01*
X005561Y013271D02*
X004717Y013271D01*
X004906Y013349D02*
X005529Y013349D01*
X005497Y013428D02*
X004984Y013428D01*
X005247Y014135D02*
X024667Y014135D01*
X024683Y014213D02*
X005231Y014213D01*
X005199Y014292D02*
X024715Y014292D01*
X024748Y014370D02*
X005166Y014370D01*
X005134Y014449D02*
X024780Y014449D01*
X024049Y013978D02*
X023997Y013978D01*
X023997Y013558D01*
X023997Y013478D01*
X024417Y013478D01*
X024417Y013426D01*
X024347Y013257D01*
X024218Y013128D01*
X024049Y013058D01*
X023997Y013058D01*
X023997Y013478D01*
X023917Y013478D01*
X023497Y013478D01*
X023497Y013426D01*
X023567Y013257D01*
X023696Y013128D01*
X023865Y013058D01*
X023917Y013058D01*
X023917Y013478D01*
X023917Y013558D01*
X023497Y013558D01*
X023497Y013609D01*
X023567Y013779D01*
X023696Y013908D01*
X023865Y013978D01*
X023917Y013978D02*
X023997Y013978D01*
X023997Y013899D02*
X023917Y013899D01*
X023917Y013821D02*
X023997Y013821D01*
X023997Y013742D02*
X023917Y013742D01*
X023917Y013663D02*
X023997Y013663D01*
X023997Y013585D02*
X023917Y013585D01*
X023917Y013506D02*
X022997Y013506D01*
X022997Y013478D02*
X022997Y013558D01*
X022997Y013978D01*
X023049Y013978D01*
X022997Y013978D02*
X022917Y013978D01*
X022865Y013978D02*
X022696Y013908D01*
X022567Y013779D01*
X022497Y013609D01*
X022497Y013558D01*
X022917Y013558D01*
X022917Y013478D01*
X022497Y013478D01*
X022497Y013426D01*
X022567Y013257D01*
X022696Y013128D01*
X022865Y013058D01*
X022917Y013058D01*
X022917Y013478D01*
X022997Y013478D01*
X023417Y013478D01*
X023417Y013426D01*
X023347Y013257D01*
X023218Y013128D01*
X023049Y013058D01*
X022997Y013058D01*
X022997Y013478D01*
X022997Y013428D02*
X022917Y013428D01*
X022917Y013506D02*
X022397Y013506D01*
X022397Y013430D02*
X022397Y013605D01*
X022330Y013767D01*
X022206Y013891D01*
X022045Y013958D01*
X021869Y013958D01*
X021708Y013891D01*
X021584Y013767D01*
X021517Y013605D01*
X021517Y013430D01*
X021584Y013269D01*
X021708Y013145D01*
X021869Y013078D01*
X022045Y013078D01*
X022206Y013145D01*
X022330Y013269D01*
X022397Y013430D01*
X022396Y013428D02*
X022497Y013428D01*
X022529Y013349D02*
X022363Y013349D01*
X022331Y013271D02*
X022561Y013271D01*
X022632Y013192D02*
X022253Y013192D01*
X022131Y013114D02*
X022731Y013114D01*
X022917Y013114D02*
X022997Y013114D01*
X022997Y013192D02*
X022917Y013192D01*
X022917Y013271D02*
X022997Y013271D01*
X022997Y013349D02*
X022917Y013349D01*
X022917Y013585D02*
X022997Y013585D01*
X022997Y013663D02*
X022917Y013663D01*
X022917Y013742D02*
X022997Y013742D01*
X022997Y013821D02*
X022917Y013821D01*
X022917Y013899D02*
X022997Y013899D01*
X023226Y013899D02*
X023688Y013899D01*
X023609Y013821D02*
X023305Y013821D01*
X023362Y013742D02*
X023552Y013742D01*
X023519Y013663D02*
X023395Y013663D01*
X023417Y013585D02*
X023497Y013585D01*
X023497Y013428D02*
X023417Y013428D01*
X023385Y013349D02*
X023529Y013349D01*
X023561Y013271D02*
X023352Y013271D01*
X023282Y013192D02*
X023632Y013192D01*
X023731Y013114D02*
X023183Y013114D01*
X023917Y013114D02*
X023997Y013114D01*
X023997Y013192D02*
X023917Y013192D01*
X023917Y013271D02*
X023997Y013271D01*
X023997Y013349D02*
X023917Y013349D01*
X023917Y013428D02*
X023997Y013428D01*
X023997Y013506D02*
X024851Y013506D01*
X024781Y013585D02*
X024417Y013585D01*
X024395Y013663D02*
X024749Y013663D01*
X024716Y013742D02*
X024362Y013742D01*
X024305Y013821D02*
X024684Y013821D01*
X024667Y013899D02*
X024226Y013899D01*
X024417Y013428D02*
X024930Y013428D01*
X025008Y013349D02*
X024385Y013349D01*
X024352Y013271D02*
X025197Y013271D01*
X025717Y013271D02*
X025957Y013271D01*
X025957Y013349D02*
X025906Y013349D01*
X025957Y013192D02*
X024282Y013192D01*
X024183Y013114D02*
X025957Y013114D01*
X025957Y013035D02*
X013373Y013035D01*
X013295Y013114D02*
X013783Y013114D01*
X013708Y013145D02*
X013869Y013078D01*
X014045Y013078D01*
X014206Y013145D01*
X014330Y013269D01*
X014397Y013430D01*
X014397Y013605D01*
X014330Y013767D01*
X014206Y013891D01*
X014045Y013958D01*
X013869Y013958D01*
X013708Y013891D01*
X013584Y013767D01*
X013517Y013605D01*
X013517Y013430D01*
X013584Y013269D01*
X013708Y013145D01*
X013661Y013192D02*
X013253Y013192D01*
X013331Y013271D02*
X013583Y013271D01*
X013551Y013349D02*
X013363Y013349D01*
X013396Y013428D02*
X013518Y013428D01*
X013517Y013506D02*
X013397Y013506D01*
X013397Y013585D02*
X013517Y013585D01*
X013541Y013663D02*
X013373Y013663D01*
X013340Y013742D02*
X013574Y013742D01*
X013637Y013821D02*
X013277Y013821D01*
X013187Y013899D02*
X013727Y013899D01*
X014187Y013899D02*
X014727Y013899D01*
X014708Y013891D02*
X014584Y013767D01*
X014517Y013605D01*
X014517Y013430D01*
X014584Y013269D01*
X014708Y013145D01*
X014869Y013078D01*
X015045Y013078D01*
X015206Y013145D01*
X015330Y013269D01*
X015397Y013430D01*
X015397Y013605D01*
X015330Y013767D01*
X015206Y013891D01*
X015045Y013958D01*
X014869Y013958D01*
X014708Y013891D01*
X014637Y013821D02*
X014277Y013821D01*
X014340Y013742D02*
X014574Y013742D01*
X014541Y013663D02*
X014373Y013663D01*
X014397Y013585D02*
X014517Y013585D01*
X014517Y013506D02*
X014397Y013506D01*
X014396Y013428D02*
X014518Y013428D01*
X014551Y013349D02*
X014363Y013349D01*
X014331Y013271D02*
X014583Y013271D01*
X014661Y013192D02*
X014253Y013192D01*
X014131Y013114D02*
X014783Y013114D01*
X015131Y013114D02*
X015783Y013114D01*
X015708Y013145D02*
X015869Y013078D01*
X016045Y013078D01*
X016206Y013145D01*
X016330Y013269D01*
X016397Y013430D01*
X016397Y013605D01*
X016330Y013767D01*
X016206Y013891D01*
X016045Y013958D01*
X015869Y013958D01*
X015708Y013891D01*
X015584Y013767D01*
X015517Y013605D01*
X015517Y013430D01*
X015584Y013269D01*
X015708Y013145D01*
X015661Y013192D02*
X015253Y013192D01*
X015331Y013271D02*
X015583Y013271D01*
X015551Y013349D02*
X015363Y013349D01*
X015396Y013428D02*
X015518Y013428D01*
X015517Y013506D02*
X015397Y013506D01*
X015397Y013585D02*
X015517Y013585D01*
X015541Y013663D02*
X015373Y013663D01*
X015340Y013742D02*
X015574Y013742D01*
X015637Y013821D02*
X015277Y013821D01*
X015187Y013899D02*
X015727Y013899D01*
X016187Y013899D02*
X016528Y013899D01*
X016517Y013888D02*
X016517Y013148D01*
X016587Y013078D01*
X017327Y013078D01*
X017397Y013148D01*
X017397Y013888D01*
X017327Y013958D01*
X016587Y013958D01*
X016517Y013888D01*
X016517Y013821D02*
X016277Y013821D01*
X016340Y013742D02*
X016517Y013742D01*
X016517Y013663D02*
X016373Y013663D01*
X016397Y013585D02*
X016517Y013585D01*
X016517Y013506D02*
X016397Y013506D01*
X016396Y013428D02*
X016517Y013428D01*
X016517Y013349D02*
X016363Y013349D01*
X016331Y013271D02*
X016517Y013271D01*
X016517Y013192D02*
X016253Y013192D01*
X016131Y013114D02*
X016552Y013114D01*
X017362Y013114D02*
X017783Y013114D01*
X017708Y013145D02*
X017869Y013078D01*
X018045Y013078D01*
X018206Y013145D01*
X018330Y013269D01*
X018397Y013430D01*
X018397Y013605D01*
X018330Y013767D01*
X018206Y013891D01*
X018045Y013958D01*
X017869Y013958D01*
X017708Y013891D01*
X017584Y013767D01*
X017517Y013605D01*
X017517Y013430D01*
X017584Y013269D01*
X017708Y013145D01*
X017661Y013192D02*
X017397Y013192D01*
X017397Y013271D02*
X017583Y013271D01*
X017551Y013349D02*
X017397Y013349D01*
X017397Y013428D02*
X017518Y013428D01*
X017517Y013506D02*
X017397Y013506D01*
X017397Y013585D02*
X017517Y013585D01*
X017541Y013663D02*
X017397Y013663D01*
X017397Y013742D02*
X017574Y013742D01*
X017637Y013821D02*
X017397Y013821D01*
X017386Y013899D02*
X017727Y013899D01*
X018187Y013899D02*
X018727Y013899D01*
X018708Y013891D02*
X018584Y013767D01*
X018517Y013605D01*
X018517Y013430D01*
X018584Y013269D01*
X018708Y013145D01*
X018869Y013078D01*
X019045Y013078D01*
X019206Y013145D01*
X019330Y013269D01*
X019397Y013430D01*
X019397Y013605D01*
X019330Y013767D01*
X019206Y013891D01*
X019045Y013958D01*
X018869Y013958D01*
X018708Y013891D01*
X018637Y013821D02*
X018277Y013821D01*
X018340Y013742D02*
X018574Y013742D01*
X018541Y013663D02*
X018373Y013663D01*
X018397Y013585D02*
X018517Y013585D01*
X018517Y013506D02*
X018397Y013506D01*
X018396Y013428D02*
X018518Y013428D01*
X018551Y013349D02*
X018363Y013349D01*
X018331Y013271D02*
X018583Y013271D01*
X018661Y013192D02*
X018253Y013192D01*
X018131Y013114D02*
X018783Y013114D01*
X019131Y013114D02*
X019783Y013114D01*
X019708Y013145D02*
X019869Y013078D01*
X020045Y013078D01*
X020206Y013145D01*
X020330Y013269D01*
X020397Y013430D01*
X020397Y013605D01*
X020330Y013767D01*
X020206Y013891D01*
X020045Y013958D01*
X019869Y013958D01*
X019708Y013891D01*
X019584Y013767D01*
X019517Y013605D01*
X019517Y013430D01*
X019584Y013269D01*
X019708Y013145D01*
X019661Y013192D02*
X019253Y013192D01*
X019331Y013271D02*
X019583Y013271D01*
X019551Y013349D02*
X019363Y013349D01*
X019396Y013428D02*
X019518Y013428D01*
X019517Y013506D02*
X019397Y013506D01*
X019397Y013585D02*
X019517Y013585D01*
X019541Y013663D02*
X019373Y013663D01*
X019340Y013742D02*
X019574Y013742D01*
X019637Y013821D02*
X019277Y013821D01*
X019187Y013899D02*
X019727Y013899D01*
X020187Y013899D02*
X020727Y013899D01*
X020708Y013891D02*
X020584Y013767D01*
X020517Y013605D01*
X020517Y013430D01*
X020584Y013269D01*
X020708Y013145D01*
X020869Y013078D01*
X021045Y013078D01*
X021206Y013145D01*
X021330Y013269D01*
X021397Y013430D01*
X021397Y013605D01*
X021330Y013767D01*
X021206Y013891D01*
X021045Y013958D01*
X020869Y013958D01*
X020708Y013891D01*
X020637Y013821D02*
X020277Y013821D01*
X020340Y013742D02*
X020574Y013742D01*
X020541Y013663D02*
X020373Y013663D01*
X020397Y013585D02*
X020517Y013585D01*
X020517Y013506D02*
X020397Y013506D01*
X020396Y013428D02*
X020518Y013428D01*
X020551Y013349D02*
X020363Y013349D01*
X020331Y013271D02*
X020583Y013271D01*
X020661Y013192D02*
X020253Y013192D01*
X020131Y013114D02*
X020783Y013114D01*
X021131Y013114D02*
X021783Y013114D01*
X021661Y013192D02*
X021253Y013192D01*
X021331Y013271D02*
X021583Y013271D01*
X021551Y013349D02*
X021363Y013349D01*
X021396Y013428D02*
X021518Y013428D01*
X021517Y013506D02*
X021397Y013506D01*
X021397Y013585D02*
X021517Y013585D01*
X021541Y013663D02*
X021373Y013663D01*
X021340Y013742D02*
X021574Y013742D01*
X021637Y013821D02*
X021277Y013821D01*
X021187Y013899D02*
X021727Y013899D01*
X022187Y013899D02*
X022688Y013899D01*
X022609Y013821D02*
X022277Y013821D01*
X022340Y013742D02*
X022552Y013742D01*
X022519Y013663D02*
X022373Y013663D01*
X022397Y013585D02*
X022497Y013585D01*
X019554Y012328D02*
X025957Y012328D01*
X025957Y012250D02*
X019564Y012250D01*
X019563Y012171D02*
X025957Y012171D01*
X025957Y012093D02*
X019530Y012093D01*
X019473Y012014D02*
X025957Y012014D01*
X025957Y011935D02*
X019349Y011935D01*
X019140Y011935D02*
X014723Y011935D01*
X014847Y012014D02*
X019016Y012014D01*
X019039Y012485D02*
X014824Y012485D01*
X014817Y012258D02*
X014618Y012238D01*
X014817Y012238D02*
X014817Y012258D01*
X014413Y012485D02*
X014234Y012485D01*
X014305Y012407D02*
X014342Y012407D01*
X014140Y012564D02*
X025957Y012564D01*
X025957Y012642D02*
X014061Y012642D01*
X013983Y012721D02*
X025957Y012721D01*
X025957Y012799D02*
X013904Y012799D01*
X013629Y012878D02*
X025957Y012878D01*
X025957Y012957D02*
X013550Y012957D01*
X013207Y012721D02*
X012656Y012721D01*
X012675Y012799D02*
X013128Y012799D01*
X013384Y012642D02*
X012621Y012642D01*
X012555Y012564D02*
X013462Y012564D01*
X013541Y012485D02*
X012555Y012485D01*
X012555Y012407D02*
X013751Y012407D01*
X013719Y012328D02*
X012555Y012328D01*
X012555Y012250D02*
X013708Y012250D01*
X013709Y012171D02*
X012555Y012171D01*
X012555Y012093D02*
X013742Y012093D01*
X013800Y012014D02*
X013622Y012014D01*
X013701Y011935D02*
X013923Y011935D01*
X013738Y011857D02*
X025957Y011857D01*
X025957Y011778D02*
X013757Y011778D01*
X013757Y011700D02*
X025957Y011700D01*
X025957Y011621D02*
X013732Y011621D01*
X013774Y011543D02*
X025957Y011543D01*
X025957Y011464D02*
X013877Y011464D01*
X013926Y011386D02*
X025957Y011386D01*
X025957Y011307D02*
X013954Y011307D01*
X013954Y011229D02*
X025957Y011229D01*
X025957Y011150D02*
X013937Y011150D01*
X013904Y011071D02*
X025957Y011071D01*
X025957Y010993D02*
X013826Y010993D01*
X013736Y010914D02*
X025957Y010914D01*
X025957Y010836D02*
X013736Y010836D01*
X013736Y010757D02*
X025957Y010757D01*
X025957Y010679D02*
X013736Y010679D01*
X013736Y010600D02*
X025957Y010600D01*
X025957Y010522D02*
X013736Y010522D01*
X013696Y010443D02*
X025957Y010443D01*
X025957Y010365D02*
X014357Y010365D01*
X014406Y010344D02*
X014288Y010393D01*
X014161Y010393D01*
X014043Y010344D01*
X013953Y010254D01*
X013949Y010243D01*
X013705Y010243D01*
X013564Y010243D01*
X013367Y010046D01*
X012481Y010046D01*
X012381Y009947D01*
X012186Y009751D01*
X012086Y009651D01*
X012086Y008584D01*
X012083Y008581D01*
X012035Y008464D01*
X012035Y008336D01*
X012083Y008219D01*
X012173Y008129D01*
X012291Y008080D01*
X012418Y008080D01*
X012536Y008129D01*
X012626Y008219D01*
X012675Y008336D01*
X012675Y008464D01*
X012626Y008581D01*
X012536Y008671D01*
X012426Y008717D01*
X012426Y009511D01*
X012622Y009706D01*
X013367Y009706D01*
X013508Y009706D01*
X013705Y009903D01*
X013949Y009903D01*
X013953Y009892D01*
X014043Y009802D01*
X014161Y009753D01*
X014288Y009753D01*
X014406Y009802D01*
X014496Y009892D01*
X014545Y010009D01*
X014545Y010137D01*
X014496Y010254D01*
X014406Y010344D01*
X014464Y010286D02*
X014829Y010286D01*
X014850Y010295D02*
X014732Y010246D01*
X014642Y010156D01*
X014594Y010038D01*
X014594Y009911D01*
X014598Y009900D01*
X013956Y009258D01*
X013956Y009117D01*
X013956Y007683D01*
X013808Y007534D01*
X013796Y007539D01*
X013669Y007539D01*
X013551Y007490D01*
X013461Y007400D01*
X013413Y007282D01*
X013413Y007155D01*
X013461Y007037D01*
X013551Y006947D01*
X013669Y006899D01*
X013796Y006899D01*
X013914Y006947D01*
X014004Y007037D01*
X014053Y007155D01*
X014053Y007282D01*
X014048Y007294D01*
X014197Y007442D01*
X014296Y007542D01*
X014296Y009117D01*
X014839Y009659D01*
X014850Y009655D01*
X014977Y009655D01*
X015095Y009703D01*
X015185Y009793D01*
X015234Y009911D01*
X015234Y010038D01*
X015185Y010156D01*
X015095Y010246D01*
X014977Y010295D01*
X014850Y010295D01*
X014998Y010286D02*
X025957Y010286D01*
X025957Y010208D02*
X015133Y010208D01*
X015196Y010129D02*
X025957Y010129D01*
X025957Y010050D02*
X015229Y010050D01*
X015234Y009972D02*
X025957Y009972D01*
X025957Y009893D02*
X015226Y009893D01*
X015194Y009815D02*
X025957Y009815D01*
X025957Y009736D02*
X015128Y009736D01*
X014985Y009658D02*
X025957Y009658D01*
X025957Y009579D02*
X014759Y009579D01*
X014837Y009658D02*
X014843Y009658D01*
X014680Y009501D02*
X025957Y009501D01*
X025957Y009422D02*
X014601Y009422D01*
X014523Y009344D02*
X025957Y009344D01*
X025957Y009265D02*
X014444Y009265D01*
X014366Y009186D02*
X025957Y009186D01*
X025957Y009108D02*
X014296Y009108D01*
X014296Y009029D02*
X025957Y009029D01*
X025957Y008951D02*
X014296Y008951D01*
X014296Y008872D02*
X025957Y008872D01*
X025957Y008794D02*
X014296Y008794D01*
X014296Y008715D02*
X025957Y008715D01*
X025957Y008637D02*
X014296Y008637D01*
X014296Y008558D02*
X025957Y008558D01*
X025957Y008480D02*
X014296Y008480D01*
X014296Y008401D02*
X025957Y008401D01*
X025957Y008322D02*
X014296Y008322D01*
X014296Y008244D02*
X025957Y008244D01*
X025957Y008165D02*
X014296Y008165D01*
X014296Y008087D02*
X025957Y008087D01*
X025957Y008008D02*
X014296Y008008D01*
X014296Y007930D02*
X025957Y007930D01*
X025957Y007851D02*
X014296Y007851D01*
X014296Y007773D02*
X025957Y007773D01*
X025957Y007694D02*
X014296Y007694D01*
X014296Y007616D02*
X025957Y007616D01*
X025957Y007537D02*
X014291Y007537D01*
X014213Y007459D02*
X025957Y007459D01*
X025957Y007380D02*
X014134Y007380D01*
X014056Y007301D02*
X025957Y007301D01*
X025957Y007223D02*
X014053Y007223D01*
X014048Y007144D02*
X025957Y007144D01*
X025957Y007066D02*
X014016Y007066D01*
X013954Y006987D02*
X025957Y006987D01*
X025957Y006909D02*
X013820Y006909D01*
X013645Y006909D02*
X008460Y006909D01*
X008480Y006889D02*
X008356Y007013D01*
X008194Y007080D01*
X008147Y007080D01*
X008147Y006680D01*
X008547Y006680D01*
X008547Y006728D01*
X008480Y006889D01*
X008504Y006830D02*
X025957Y006830D01*
X025957Y006752D02*
X008537Y006752D01*
X008547Y006600D02*
X008147Y006600D01*
X008147Y006680D01*
X008067Y006680D01*
X008067Y007080D01*
X008019Y007080D01*
X007857Y007013D01*
X007734Y006889D01*
X007667Y006728D01*
X007667Y006680D01*
X008066Y006680D01*
X008066Y006600D01*
X007667Y006600D01*
X007667Y006552D01*
X007734Y006391D01*
X007857Y006267D01*
X008019Y006200D01*
X008067Y006200D01*
X008067Y006600D01*
X008147Y006600D01*
X008147Y006200D01*
X008194Y006200D01*
X008356Y006267D01*
X008480Y006391D01*
X008547Y006552D01*
X008547Y006600D01*
X008547Y006595D02*
X025957Y006595D01*
X025957Y006673D02*
X008147Y006673D01*
X008147Y006595D02*
X008067Y006595D01*
X008066Y006673D02*
X006197Y006673D01*
X006197Y006595D02*
X007667Y006595D01*
X007682Y006516D02*
X006197Y006516D01*
X006197Y006437D02*
X006891Y006437D01*
X007012Y006488D02*
X006735Y006373D01*
X006523Y006161D01*
X006409Y005884D01*
X006409Y005585D01*
X006523Y005308D01*
X006735Y005096D01*
X007012Y004981D01*
X007312Y004981D01*
X007588Y005096D01*
X007800Y005308D01*
X007915Y005585D01*
X007915Y005884D01*
X007800Y006161D01*
X007588Y006373D01*
X007312Y006488D01*
X007012Y006488D01*
X006721Y006359D02*
X006197Y006359D01*
X006197Y006280D02*
X006643Y006280D01*
X006564Y006202D02*
X006197Y006202D01*
X006197Y006123D02*
X006508Y006123D01*
X006475Y006045D02*
X006197Y006045D01*
X006197Y005966D02*
X006443Y005966D01*
X006410Y005888D02*
X006197Y005888D01*
X006197Y005809D02*
X006409Y005809D01*
X006409Y005731D02*
X006197Y005731D01*
X006197Y005652D02*
X006409Y005652D01*
X006413Y005573D02*
X006197Y005573D01*
X006197Y005495D02*
X006446Y005495D01*
X006478Y005416D02*
X006197Y005416D01*
X006197Y005338D02*
X006511Y005338D01*
X006572Y005259D02*
X006197Y005259D01*
X006197Y005181D02*
X006650Y005181D01*
X006729Y005102D02*
X006197Y005102D01*
X006197Y005024D02*
X006910Y005024D01*
X007414Y005024D02*
X025957Y005024D01*
X025957Y005102D02*
X007594Y005102D01*
X007673Y005181D02*
X025957Y005181D01*
X025957Y005259D02*
X007752Y005259D01*
X007813Y005338D02*
X025957Y005338D01*
X025957Y005416D02*
X007845Y005416D01*
X007878Y005495D02*
X025957Y005495D01*
X025957Y005573D02*
X007910Y005573D01*
X007915Y005652D02*
X025957Y005652D01*
X025957Y005731D02*
X007915Y005731D01*
X007915Y005809D02*
X025957Y005809D01*
X025957Y005888D02*
X007913Y005888D01*
X007881Y005966D02*
X025957Y005966D01*
X025957Y006045D02*
X007848Y006045D01*
X007816Y006123D02*
X025957Y006123D01*
X025957Y006202D02*
X008199Y006202D01*
X008147Y006202D02*
X008067Y006202D01*
X008015Y006202D02*
X007759Y006202D01*
X007681Y006280D02*
X007844Y006280D01*
X007765Y006359D02*
X007602Y006359D01*
X007714Y006437D02*
X007432Y006437D01*
X007677Y006752D02*
X006197Y006752D01*
X006197Y006830D02*
X007709Y006830D01*
X007753Y006909D02*
X006197Y006909D01*
X006197Y006987D02*
X007832Y006987D01*
X007985Y007066D02*
X006197Y007066D01*
X006197Y007144D02*
X011583Y007144D01*
X011504Y007223D02*
X008235Y007223D01*
X008190Y007204D02*
X008344Y007268D01*
X008463Y007386D01*
X008527Y007541D01*
X008527Y007708D01*
X008463Y007862D01*
X008344Y007980D01*
X008254Y008018D01*
X008344Y008056D01*
X008463Y008174D01*
X008527Y008328D01*
X008527Y008495D01*
X008463Y008650D01*
X008344Y008768D01*
X008190Y008832D01*
X008023Y008832D01*
X007869Y008768D01*
X007751Y008650D01*
X007687Y008495D01*
X007687Y008328D01*
X007751Y008174D01*
X007869Y008056D01*
X007960Y008018D01*
X007869Y007980D01*
X007751Y007862D01*
X007687Y007708D01*
X007687Y007541D01*
X007751Y007386D01*
X007869Y007268D01*
X008023Y007204D01*
X008190Y007204D01*
X008228Y007066D02*
X013450Y007066D01*
X013417Y007144D02*
X011945Y007144D01*
X012024Y007223D02*
X013413Y007223D01*
X013421Y007301D02*
X012063Y007301D01*
X012084Y007380D02*
X013453Y007380D01*
X013520Y007459D02*
X012084Y007459D01*
X012060Y007537D02*
X013665Y007537D01*
X013800Y007537D02*
X013811Y007537D01*
X013889Y007616D02*
X012017Y007616D01*
X011964Y007694D02*
X013956Y007694D01*
X013956Y007773D02*
X011964Y007773D01*
X011964Y007851D02*
X013956Y007851D01*
X013956Y007930D02*
X011964Y007930D01*
X011964Y008008D02*
X013956Y008008D01*
X013956Y008087D02*
X012435Y008087D01*
X012573Y008165D02*
X013956Y008165D01*
X013956Y008244D02*
X012636Y008244D01*
X012669Y008322D02*
X013956Y008322D01*
X013956Y008401D02*
X012675Y008401D01*
X012668Y008480D02*
X013956Y008480D01*
X013956Y008558D02*
X012635Y008558D01*
X012570Y008637D02*
X013956Y008637D01*
X013956Y008715D02*
X012429Y008715D01*
X012426Y008794D02*
X013956Y008794D01*
X013956Y008872D02*
X012426Y008872D01*
X012426Y008951D02*
X013956Y008951D01*
X013956Y009029D02*
X012426Y009029D01*
X012426Y009108D02*
X013956Y009108D01*
X013956Y009186D02*
X012426Y009186D01*
X012426Y009265D02*
X013964Y009265D01*
X014042Y009344D02*
X012426Y009344D01*
X012426Y009422D02*
X014121Y009422D01*
X014199Y009501D02*
X012426Y009501D01*
X012495Y009579D02*
X014278Y009579D01*
X014356Y009658D02*
X012573Y009658D01*
X012328Y009893D02*
X012106Y009893D01*
X012204Y009972D02*
X012407Y009972D01*
X012302Y010050D02*
X013371Y010050D01*
X013382Y010129D02*
X013450Y010129D01*
X013461Y010208D02*
X013528Y010208D01*
X013539Y010286D02*
X013985Y010286D01*
X014092Y010365D02*
X013618Y010365D01*
X013288Y010600D02*
X011721Y010600D01*
X011799Y010679D02*
X013336Y010679D01*
X013336Y010757D02*
X011878Y010757D01*
X011956Y010836D02*
X013336Y010836D01*
X013336Y010914D02*
X012032Y010914D01*
X012032Y010993D02*
X013336Y010993D01*
X013336Y011071D02*
X012032Y011071D01*
X012032Y011150D02*
X013331Y011150D01*
X013314Y011229D02*
X012032Y011229D01*
X012032Y011307D02*
X013314Y011307D01*
X013342Y011386D02*
X012032Y011386D01*
X012032Y011464D02*
X013282Y011464D01*
X013188Y011543D02*
X012032Y011543D01*
X012032Y011621D02*
X012394Y011621D01*
X012315Y011700D02*
X012032Y011700D01*
X012032Y011778D02*
X012237Y011778D01*
X012158Y011857D02*
X012032Y011857D01*
X012032Y011935D02*
X012155Y011935D01*
X012155Y012014D02*
X012032Y012014D01*
X012032Y012093D02*
X012155Y012093D01*
X012155Y012171D02*
X012032Y012171D01*
X012032Y012250D02*
X012155Y012250D01*
X012155Y012328D02*
X012032Y012328D01*
X012032Y012407D02*
X012155Y012407D01*
X012155Y012485D02*
X012032Y012485D01*
X012032Y012564D02*
X012155Y012564D01*
X012089Y012642D02*
X012032Y012642D01*
X012032Y012721D02*
X012053Y012721D01*
X012032Y012799D02*
X012035Y012799D01*
X012032Y012878D02*
X012035Y012878D01*
X012032Y012957D02*
X012061Y012957D01*
X012032Y013035D02*
X012108Y013035D01*
X012131Y013114D02*
X012206Y013114D01*
X012253Y013192D02*
X012342Y013192D01*
X012508Y013506D02*
X012517Y013506D01*
X012517Y013585D02*
X012430Y013585D01*
X012373Y013663D02*
X012541Y013663D01*
X012574Y013742D02*
X012340Y013742D01*
X012277Y013821D02*
X012637Y013821D01*
X012727Y013899D02*
X012187Y013899D01*
X011727Y013899D02*
X011187Y013899D01*
X011277Y013821D02*
X011637Y013821D01*
X011574Y013742D02*
X011340Y013742D01*
X011373Y013663D02*
X011541Y013663D01*
X011517Y013585D02*
X011397Y013585D01*
X011397Y013506D02*
X011517Y013506D01*
X011518Y013428D02*
X011396Y013428D01*
X011363Y013349D02*
X011551Y013349D01*
X011583Y013271D02*
X011331Y013271D01*
X011353Y013192D02*
X011661Y013192D01*
X011693Y013114D02*
X011385Y013114D01*
X011395Y013035D02*
X011693Y013035D01*
X011693Y012957D02*
X011393Y012957D01*
X011360Y012878D02*
X011693Y012878D01*
X011693Y012799D02*
X011301Y012799D01*
X011275Y012721D02*
X011693Y012721D01*
X011693Y012642D02*
X011275Y012642D01*
X011275Y012564D02*
X011693Y012564D01*
X011693Y012485D02*
X011275Y012485D01*
X011275Y012407D02*
X011693Y012407D01*
X011693Y012328D02*
X011275Y012328D01*
X011275Y012250D02*
X011693Y012250D01*
X011693Y012171D02*
X011275Y012171D01*
X011275Y012093D02*
X011693Y012093D01*
X011693Y012014D02*
X011275Y012014D01*
X011275Y011935D02*
X011693Y011935D01*
X011693Y011857D02*
X011275Y011857D01*
X011275Y011778D02*
X011693Y011778D01*
X011693Y011700D02*
X011275Y011700D01*
X011275Y011621D02*
X011693Y011621D01*
X011693Y011543D02*
X011337Y011543D01*
X011375Y011464D02*
X011693Y011464D01*
X011693Y011386D02*
X011395Y011386D01*
X011395Y011307D02*
X011693Y011307D01*
X011693Y011229D02*
X011370Y011229D01*
X011325Y011150D02*
X011693Y011150D01*
X011693Y011071D02*
X011233Y011071D01*
X011095Y010443D02*
X012147Y010443D01*
X012054Y010365D02*
X011048Y010365D01*
X011048Y010286D02*
X011956Y010286D01*
X011858Y010208D02*
X011048Y010208D01*
X011048Y010129D02*
X011760Y010129D01*
X011656Y010050D02*
X011048Y010050D01*
X011048Y009972D02*
X011577Y009972D01*
X011564Y009893D02*
X011048Y009893D01*
X011048Y009815D02*
X011564Y009815D01*
X011564Y009736D02*
X011048Y009736D01*
X011048Y009658D02*
X011564Y009658D01*
X011564Y009579D02*
X011048Y009579D01*
X011048Y009501D02*
X011564Y009501D01*
X011564Y009422D02*
X011048Y009422D01*
X011048Y009344D02*
X011564Y009344D01*
X011564Y009265D02*
X011048Y009265D01*
X011048Y009186D02*
X011564Y009186D01*
X011564Y009108D02*
X011048Y009108D01*
X011048Y009029D02*
X011564Y009029D01*
X011564Y008951D02*
X011060Y008951D01*
X011344Y008872D02*
X011564Y008872D01*
X011564Y008794D02*
X011429Y008794D01*
X011471Y008715D02*
X011564Y008715D01*
X011564Y008637D02*
X011494Y008637D01*
X011494Y008558D02*
X011564Y008558D01*
X011564Y008480D02*
X011471Y008480D01*
X011430Y008401D02*
X011564Y008401D01*
X011564Y008322D02*
X011348Y008322D01*
X011564Y008244D02*
X008492Y008244D01*
X008524Y008322D02*
X010999Y008322D01*
X010917Y008401D02*
X008527Y008401D01*
X008527Y008480D02*
X010876Y008480D01*
X010854Y008558D02*
X008501Y008558D01*
X008468Y008637D02*
X010854Y008637D01*
X010815Y008715D02*
X008397Y008715D01*
X008282Y008794D02*
X010736Y008794D01*
X010708Y008872D02*
X007911Y008872D01*
X007932Y008794D02*
X007832Y008794D01*
X007816Y008715D02*
X006293Y008715D01*
X006336Y008758D02*
X006197Y008619D01*
X006197Y003895D01*
X006206Y003891D01*
X006330Y003767D01*
X025957Y003767D01*
X025957Y003846D02*
X006252Y003846D01*
X006197Y003924D02*
X025957Y003924D01*
X025957Y004003D02*
X006197Y004003D01*
X006197Y004081D02*
X009164Y004081D01*
X009208Y004063D02*
X009367Y004063D01*
X009514Y004124D01*
X009627Y004236D01*
X009688Y004383D01*
X009688Y004542D01*
X009627Y004689D01*
X009514Y004802D01*
X009367Y004863D01*
X009208Y004863D01*
X009061Y004802D01*
X008949Y004689D01*
X008888Y004542D01*
X008888Y004383D01*
X008949Y004236D01*
X009061Y004124D01*
X009208Y004063D01*
X009411Y004081D02*
X011164Y004081D01*
X011208Y004063D02*
X011061Y004124D01*
X010949Y004236D01*
X010888Y004383D01*
X010888Y004542D01*
X010949Y004689D01*
X011061Y004802D01*
X011208Y004863D01*
X011367Y004863D01*
X011514Y004802D01*
X011627Y004689D01*
X011688Y004542D01*
X011688Y004383D01*
X011627Y004236D01*
X011514Y004124D01*
X011367Y004063D01*
X011208Y004063D01*
X011411Y004081D02*
X025957Y004081D01*
X025957Y004160D02*
X011550Y004160D01*
X011628Y004238D02*
X025957Y004238D01*
X025957Y004317D02*
X011660Y004317D01*
X011688Y004395D02*
X025957Y004395D01*
X025957Y004474D02*
X011688Y004474D01*
X011684Y004552D02*
X025957Y004552D01*
X025957Y004631D02*
X011651Y004631D01*
X011607Y004709D02*
X025957Y004709D01*
X025957Y004788D02*
X011528Y004788D01*
X011047Y004788D02*
X009528Y004788D01*
X009607Y004709D02*
X010969Y004709D01*
X010924Y004631D02*
X009651Y004631D01*
X009684Y004552D02*
X010892Y004552D01*
X010888Y004474D02*
X009688Y004474D01*
X009688Y004395D02*
X010888Y004395D01*
X010915Y004317D02*
X009660Y004317D01*
X009628Y004238D02*
X010948Y004238D01*
X011025Y004160D02*
X009550Y004160D01*
X009025Y004160D02*
X006197Y004160D01*
X006197Y004238D02*
X008948Y004238D01*
X008915Y004317D02*
X006197Y004317D01*
X006197Y004395D02*
X008888Y004395D01*
X008888Y004474D02*
X006197Y004474D01*
X006197Y004552D02*
X008892Y004552D01*
X008924Y004631D02*
X006197Y004631D01*
X006197Y004709D02*
X008969Y004709D01*
X009047Y004788D02*
X006197Y004788D01*
X006197Y004867D02*
X025957Y004867D01*
X025957Y004945D02*
X006197Y004945D01*
X006330Y003767D02*
X006397Y003605D01*
X006397Y003430D01*
X006330Y003269D01*
X006206Y003145D01*
X006045Y003078D01*
X005869Y003078D01*
X005708Y003145D01*
X005584Y003269D01*
X005517Y003430D01*
X005517Y003605D01*
X005584Y003767D01*
X005551Y003688D02*
X003957Y003688D01*
X003957Y003610D02*
X005519Y003610D01*
X005517Y003531D02*
X003957Y003531D01*
X003957Y003453D02*
X005517Y003453D01*
X005540Y003374D02*
X003957Y003374D01*
X003957Y003296D02*
X005573Y003296D01*
X005636Y003217D02*
X003957Y003217D01*
X003957Y003139D02*
X005723Y003139D01*
X005865Y002978D02*
X005696Y002908D01*
X005567Y002779D01*
X005497Y002609D01*
X005497Y002558D01*
X005917Y002558D01*
X005917Y002978D01*
X005865Y002978D01*
X005917Y002903D02*
X005997Y002903D01*
X005997Y002978D02*
X005997Y002558D01*
X005917Y002558D01*
X005917Y002478D01*
X005497Y002478D01*
X005497Y002426D01*
X005567Y002257D01*
X005696Y002128D01*
X005865Y002058D01*
X005917Y002058D01*
X005917Y002478D01*
X005997Y002478D01*
X005997Y002558D01*
X006417Y002558D01*
X006417Y002609D01*
X006347Y002779D01*
X006218Y002908D01*
X006049Y002978D01*
X005997Y002978D01*
X005997Y002824D02*
X005917Y002824D01*
X005917Y002746D02*
X005997Y002746D01*
X005997Y002667D02*
X005917Y002667D01*
X005917Y002589D02*
X005997Y002589D01*
X005997Y002510D02*
X008517Y002510D01*
X008517Y002432D02*
X006417Y002432D01*
X006417Y002426D02*
X006417Y002478D01*
X005997Y002478D01*
X005997Y002058D01*
X006049Y002058D01*
X006218Y002128D01*
X006347Y002257D01*
X006417Y002426D01*
X006387Y002353D02*
X008517Y002353D01*
X008517Y002275D02*
X006354Y002275D01*
X006286Y002196D02*
X008517Y002196D01*
X008517Y002148D02*
X008587Y002078D01*
X009327Y002078D01*
X009397Y002148D01*
X009397Y002888D01*
X009327Y002958D01*
X008587Y002958D01*
X008517Y002888D01*
X008517Y002148D01*
X008548Y002118D02*
X006192Y002118D01*
X005997Y002118D02*
X005917Y002118D01*
X005917Y002196D02*
X005997Y002196D01*
X005997Y002275D02*
X005917Y002275D01*
X005917Y002353D02*
X005997Y002353D01*
X005997Y002432D02*
X005917Y002432D01*
X005917Y002510D02*
X005082Y002510D01*
X005141Y002432D02*
X005497Y002432D01*
X005527Y002353D02*
X005173Y002353D01*
X005206Y002275D02*
X005560Y002275D01*
X005628Y002196D02*
X005238Y002196D01*
X005247Y002118D02*
X005722Y002118D01*
X005247Y002039D02*
X024667Y002039D01*
X024667Y001960D02*
X005247Y001960D01*
X005247Y001882D02*
X024667Y001882D01*
X024691Y001803D02*
X005223Y001803D01*
X005191Y001725D02*
X024723Y001725D01*
X024756Y001646D02*
X005158Y001646D01*
X005124Y001568D02*
X024790Y001568D01*
X024206Y002145D02*
X024045Y002078D01*
X023869Y002078D01*
X023708Y002145D01*
X023584Y002269D01*
X023517Y002430D01*
X023517Y002605D01*
X023584Y002767D01*
X023708Y002891D01*
X023869Y002958D01*
X024045Y002958D01*
X024206Y002891D01*
X024330Y002767D01*
X024397Y002605D01*
X024397Y002430D01*
X024330Y002269D01*
X024206Y002145D01*
X024140Y002118D02*
X024667Y002118D01*
X024676Y002196D02*
X024257Y002196D01*
X024332Y002275D02*
X024708Y002275D01*
X024741Y002353D02*
X024365Y002353D01*
X024397Y002432D02*
X024773Y002432D01*
X024832Y002510D02*
X024397Y002510D01*
X024397Y002589D02*
X024911Y002589D01*
X024989Y002667D02*
X024371Y002667D01*
X024339Y002746D02*
X025150Y002746D01*
X025764Y002746D02*
X025957Y002746D01*
X025957Y002824D02*
X024273Y002824D01*
X024177Y002903D02*
X025957Y002903D01*
X025957Y002982D02*
X003957Y002982D01*
X003957Y003060D02*
X025957Y003060D01*
X025957Y003139D02*
X006191Y003139D01*
X006278Y003217D02*
X025957Y003217D01*
X025957Y003296D02*
X006341Y003296D01*
X006374Y003374D02*
X025957Y003374D01*
X025957Y003453D02*
X006397Y003453D01*
X006397Y003531D02*
X025957Y003531D01*
X025957Y003610D02*
X006395Y003610D01*
X006363Y003688D02*
X025957Y003688D01*
X025925Y002667D02*
X025957Y002667D01*
X023774Y002118D02*
X023140Y002118D01*
X023206Y002145D02*
X023330Y002269D01*
X023397Y002430D01*
X023397Y002605D01*
X023330Y002767D01*
X023206Y002891D01*
X023045Y002958D01*
X022869Y002958D01*
X022708Y002891D01*
X022584Y002767D01*
X022517Y002605D01*
X022517Y002430D01*
X022584Y002269D01*
X022708Y002145D01*
X022869Y002078D01*
X023045Y002078D01*
X023206Y002145D01*
X023257Y002196D02*
X023657Y002196D01*
X023581Y002275D02*
X023332Y002275D01*
X023365Y002353D02*
X023549Y002353D01*
X023517Y002432D02*
X023397Y002432D01*
X023397Y002510D02*
X023517Y002510D01*
X023517Y002589D02*
X023397Y002589D01*
X023371Y002667D02*
X023543Y002667D01*
X023575Y002746D02*
X023339Y002746D01*
X023273Y002824D02*
X023641Y002824D01*
X023737Y002903D02*
X023177Y002903D01*
X022737Y002903D02*
X022177Y002903D01*
X022206Y002891D02*
X022045Y002958D01*
X021869Y002958D01*
X021708Y002891D01*
X021584Y002767D01*
X021517Y002605D01*
X021517Y002430D01*
X021584Y002269D01*
X021708Y002145D01*
X021869Y002078D01*
X022045Y002078D01*
X022206Y002145D01*
X022330Y002269D01*
X022397Y002430D01*
X022397Y002605D01*
X022330Y002767D01*
X022206Y002891D01*
X022273Y002824D02*
X022641Y002824D01*
X022575Y002746D02*
X022339Y002746D01*
X022371Y002667D02*
X022543Y002667D01*
X022517Y002589D02*
X022397Y002589D01*
X022397Y002510D02*
X022517Y002510D01*
X022517Y002432D02*
X022397Y002432D01*
X022365Y002353D02*
X022549Y002353D01*
X022581Y002275D02*
X022332Y002275D01*
X022257Y002196D02*
X022657Y002196D01*
X022774Y002118D02*
X022140Y002118D01*
X021774Y002118D02*
X021140Y002118D01*
X021206Y002145D02*
X021330Y002269D01*
X021397Y002430D01*
X021397Y002605D01*
X021330Y002767D01*
X021206Y002891D01*
X021045Y002958D01*
X020869Y002958D01*
X020708Y002891D01*
X020584Y002767D01*
X020517Y002605D01*
X020517Y002430D01*
X020584Y002269D01*
X020708Y002145D01*
X020869Y002078D01*
X021045Y002078D01*
X021206Y002145D01*
X021257Y002196D02*
X021657Y002196D01*
X021581Y002275D02*
X021332Y002275D01*
X021365Y002353D02*
X021549Y002353D01*
X021517Y002432D02*
X021397Y002432D01*
X021397Y002510D02*
X021517Y002510D01*
X021517Y002589D02*
X021397Y002589D01*
X021371Y002667D02*
X021543Y002667D01*
X021575Y002746D02*
X021339Y002746D01*
X021273Y002824D02*
X021641Y002824D01*
X021737Y002903D02*
X021177Y002903D01*
X020737Y002903D02*
X020177Y002903D01*
X020206Y002891D02*
X020045Y002958D01*
X019869Y002958D01*
X019708Y002891D01*
X019584Y002767D01*
X019517Y002605D01*
X019517Y002430D01*
X019584Y002269D01*
X019708Y002145D01*
X019869Y002078D01*
X020045Y002078D01*
X020206Y002145D01*
X020330Y002269D01*
X020397Y002430D01*
X020397Y002605D01*
X020330Y002767D01*
X020206Y002891D01*
X020273Y002824D02*
X020641Y002824D01*
X020575Y002746D02*
X020339Y002746D01*
X020371Y002667D02*
X020543Y002667D01*
X020517Y002589D02*
X020397Y002589D01*
X020397Y002510D02*
X020517Y002510D01*
X020517Y002432D02*
X020397Y002432D01*
X020365Y002353D02*
X020549Y002353D01*
X020581Y002275D02*
X020332Y002275D01*
X020257Y002196D02*
X020657Y002196D01*
X020774Y002118D02*
X020140Y002118D01*
X019774Y002118D02*
X019140Y002118D01*
X019206Y002145D02*
X019330Y002269D01*
X019397Y002430D01*
X019397Y002605D01*
X019330Y002767D01*
X019206Y002891D01*
X019045Y002958D01*
X018869Y002958D01*
X018708Y002891D01*
X018584Y002767D01*
X018517Y002605D01*
X018517Y002430D01*
X018584Y002269D01*
X018708Y002145D01*
X018869Y002078D01*
X019045Y002078D01*
X019206Y002145D01*
X019257Y002196D02*
X019657Y002196D01*
X019581Y002275D02*
X019332Y002275D01*
X019365Y002353D02*
X019549Y002353D01*
X019517Y002432D02*
X019397Y002432D01*
X019397Y002510D02*
X019517Y002510D01*
X019517Y002589D02*
X019397Y002589D01*
X019371Y002667D02*
X019543Y002667D01*
X019575Y002746D02*
X019339Y002746D01*
X019273Y002824D02*
X019641Y002824D01*
X019737Y002903D02*
X019177Y002903D01*
X018737Y002903D02*
X018177Y002903D01*
X018206Y002891D02*
X018045Y002958D01*
X017869Y002958D01*
X017708Y002891D01*
X017584Y002767D01*
X017517Y002605D01*
X017517Y002430D01*
X017584Y002269D01*
X017708Y002145D01*
X017869Y002078D01*
X018045Y002078D01*
X018206Y002145D01*
X018330Y002269D01*
X018397Y002430D01*
X018397Y002605D01*
X018330Y002767D01*
X018206Y002891D01*
X018273Y002824D02*
X018641Y002824D01*
X018575Y002746D02*
X018339Y002746D01*
X018371Y002667D02*
X018543Y002667D01*
X018517Y002589D02*
X018397Y002589D01*
X018397Y002510D02*
X018517Y002510D01*
X018517Y002432D02*
X018397Y002432D01*
X018365Y002353D02*
X018549Y002353D01*
X018581Y002275D02*
X018332Y002275D01*
X018257Y002196D02*
X018657Y002196D01*
X018774Y002118D02*
X018140Y002118D01*
X017774Y002118D02*
X017366Y002118D01*
X017397Y002148D02*
X017327Y002078D01*
X016587Y002078D01*
X016517Y002148D01*
X016517Y002888D01*
X016587Y002958D01*
X017327Y002958D01*
X017397Y002888D01*
X017397Y002148D01*
X017397Y002196D02*
X017657Y002196D01*
X017581Y002275D02*
X017397Y002275D01*
X017397Y002353D02*
X017549Y002353D01*
X017517Y002432D02*
X017397Y002432D01*
X017397Y002510D02*
X017517Y002510D01*
X017517Y002589D02*
X017397Y002589D01*
X017397Y002667D02*
X017543Y002667D01*
X017575Y002746D02*
X017397Y002746D01*
X017397Y002824D02*
X017641Y002824D01*
X017737Y002903D02*
X017382Y002903D01*
X016532Y002903D02*
X016177Y002903D01*
X016206Y002891D02*
X016045Y002958D01*
X015869Y002958D01*
X015708Y002891D01*
X015584Y002767D01*
X015517Y002605D01*
X015517Y002430D01*
X015584Y002269D01*
X015708Y002145D01*
X015869Y002078D01*
X016045Y002078D01*
X016206Y002145D01*
X016330Y002269D01*
X016397Y002430D01*
X016397Y002605D01*
X016330Y002767D01*
X016206Y002891D01*
X016273Y002824D02*
X016517Y002824D01*
X016517Y002746D02*
X016339Y002746D01*
X016371Y002667D02*
X016517Y002667D01*
X016517Y002589D02*
X016397Y002589D01*
X016397Y002510D02*
X016517Y002510D01*
X016517Y002432D02*
X016397Y002432D01*
X016365Y002353D02*
X016517Y002353D01*
X016517Y002275D02*
X016332Y002275D01*
X016257Y002196D02*
X016517Y002196D01*
X016548Y002118D02*
X016140Y002118D01*
X015774Y002118D02*
X015140Y002118D01*
X015206Y002145D02*
X015330Y002269D01*
X015397Y002430D01*
X015397Y002605D01*
X015330Y002767D01*
X015206Y002891D01*
X015045Y002958D01*
X014869Y002958D01*
X014708Y002891D01*
X014584Y002767D01*
X014517Y002605D01*
X014517Y002430D01*
X014584Y002269D01*
X014708Y002145D01*
X014869Y002078D01*
X015045Y002078D01*
X015206Y002145D01*
X015257Y002196D02*
X015657Y002196D01*
X015581Y002275D02*
X015332Y002275D01*
X015365Y002353D02*
X015549Y002353D01*
X015517Y002432D02*
X015397Y002432D01*
X015397Y002510D02*
X015517Y002510D01*
X015517Y002589D02*
X015397Y002589D01*
X015371Y002667D02*
X015543Y002667D01*
X015575Y002746D02*
X015339Y002746D01*
X015273Y002824D02*
X015641Y002824D01*
X015737Y002903D02*
X015177Y002903D01*
X014737Y002903D02*
X014177Y002903D01*
X014206Y002891D02*
X014045Y002958D01*
X013869Y002958D01*
X013708Y002891D01*
X013584Y002767D01*
X013517Y002605D01*
X013517Y002430D01*
X013584Y002269D01*
X013708Y002145D01*
X013869Y002078D01*
X014045Y002078D01*
X014206Y002145D01*
X014330Y002269D01*
X014397Y002430D01*
X014397Y002605D01*
X014330Y002767D01*
X014206Y002891D01*
X014273Y002824D02*
X014641Y002824D01*
X014575Y002746D02*
X014339Y002746D01*
X014371Y002667D02*
X014543Y002667D01*
X014517Y002589D02*
X014397Y002589D01*
X014397Y002510D02*
X014517Y002510D01*
X014517Y002432D02*
X014397Y002432D01*
X014365Y002353D02*
X014549Y002353D01*
X014581Y002275D02*
X014332Y002275D01*
X014257Y002196D02*
X014657Y002196D01*
X014774Y002118D02*
X014140Y002118D01*
X013774Y002118D02*
X013140Y002118D01*
X013206Y002145D02*
X013330Y002269D01*
X013397Y002430D01*
X013397Y002605D01*
X013330Y002767D01*
X013206Y002891D01*
X013045Y002958D01*
X012869Y002958D01*
X012708Y002891D01*
X012584Y002767D01*
X012517Y002605D01*
X012517Y002430D01*
X012584Y002269D01*
X012708Y002145D01*
X012869Y002078D01*
X013045Y002078D01*
X013206Y002145D01*
X013257Y002196D02*
X013657Y002196D01*
X013581Y002275D02*
X013332Y002275D01*
X013365Y002353D02*
X013549Y002353D01*
X013517Y002432D02*
X013397Y002432D01*
X013397Y002510D02*
X013517Y002510D01*
X013517Y002589D02*
X013397Y002589D01*
X013371Y002667D02*
X013543Y002667D01*
X013575Y002746D02*
X013339Y002746D01*
X013273Y002824D02*
X013641Y002824D01*
X013737Y002903D02*
X013177Y002903D01*
X012737Y002903D02*
X012177Y002903D01*
X012206Y002891D02*
X012045Y002958D01*
X011869Y002958D01*
X011708Y002891D01*
X011584Y002767D01*
X011517Y002605D01*
X011517Y002430D01*
X011584Y002269D01*
X011708Y002145D01*
X011869Y002078D01*
X012045Y002078D01*
X012206Y002145D01*
X012330Y002269D01*
X012397Y002430D01*
X012397Y002605D01*
X012330Y002767D01*
X012206Y002891D01*
X012273Y002824D02*
X012641Y002824D01*
X012575Y002746D02*
X012339Y002746D01*
X012371Y002667D02*
X012543Y002667D01*
X012517Y002589D02*
X012397Y002589D01*
X012397Y002510D02*
X012517Y002510D01*
X012517Y002432D02*
X012397Y002432D01*
X012365Y002353D02*
X012549Y002353D01*
X012581Y002275D02*
X012332Y002275D01*
X012257Y002196D02*
X012657Y002196D01*
X012774Y002118D02*
X012140Y002118D01*
X011774Y002118D02*
X011140Y002118D01*
X011206Y002145D02*
X011330Y002269D01*
X011397Y002430D01*
X011397Y002605D01*
X011330Y002767D01*
X011206Y002891D01*
X011045Y002958D01*
X010869Y002958D01*
X010708Y002891D01*
X010584Y002767D01*
X010517Y002605D01*
X010517Y002430D01*
X010584Y002269D01*
X010708Y002145D01*
X010869Y002078D01*
X011045Y002078D01*
X011206Y002145D01*
X011257Y002196D02*
X011657Y002196D01*
X011581Y002275D02*
X011332Y002275D01*
X011365Y002353D02*
X011549Y002353D01*
X011517Y002432D02*
X011397Y002432D01*
X011397Y002510D02*
X011517Y002510D01*
X011517Y002589D02*
X011397Y002589D01*
X011371Y002667D02*
X011543Y002667D01*
X011575Y002746D02*
X011339Y002746D01*
X011273Y002824D02*
X011641Y002824D01*
X011737Y002903D02*
X011177Y002903D01*
X010737Y002903D02*
X010177Y002903D01*
X010206Y002891D02*
X010045Y002958D01*
X009869Y002958D01*
X009708Y002891D01*
X009584Y002767D01*
X009517Y002605D01*
X009517Y002430D01*
X009584Y002269D01*
X009708Y002145D01*
X009869Y002078D01*
X010045Y002078D01*
X010206Y002145D01*
X010330Y002269D01*
X010397Y002430D01*
X010397Y002605D01*
X010330Y002767D01*
X010206Y002891D01*
X010273Y002824D02*
X010641Y002824D01*
X010575Y002746D02*
X010339Y002746D01*
X010371Y002667D02*
X010543Y002667D01*
X010517Y002589D02*
X010397Y002589D01*
X010397Y002510D02*
X010517Y002510D01*
X010517Y002432D02*
X010397Y002432D01*
X010365Y002353D02*
X010549Y002353D01*
X010581Y002275D02*
X010332Y002275D01*
X010257Y002196D02*
X010657Y002196D01*
X010774Y002118D02*
X010140Y002118D01*
X009774Y002118D02*
X009366Y002118D01*
X009397Y002196D02*
X009657Y002196D01*
X009581Y002275D02*
X009397Y002275D01*
X009397Y002353D02*
X009549Y002353D01*
X009517Y002432D02*
X009397Y002432D01*
X009397Y002510D02*
X009517Y002510D01*
X009517Y002589D02*
X009397Y002589D01*
X009397Y002667D02*
X009543Y002667D01*
X009575Y002746D02*
X009397Y002746D01*
X009397Y002824D02*
X009641Y002824D01*
X009737Y002903D02*
X009382Y002903D01*
X008532Y002903D02*
X006222Y002903D01*
X006301Y002824D02*
X008517Y002824D01*
X008517Y002746D02*
X006360Y002746D01*
X006393Y002667D02*
X008517Y002667D01*
X008517Y002589D02*
X006417Y002589D01*
X005692Y002903D02*
X003957Y002903D01*
X003957Y002824D02*
X005613Y002824D01*
X005554Y002746D02*
X004764Y002746D01*
X004925Y002667D02*
X005521Y002667D01*
X005497Y002589D02*
X005003Y002589D01*
X004150Y002746D02*
X003957Y002746D01*
X003957Y002667D02*
X003989Y002667D01*
X008067Y006280D02*
X008147Y006280D01*
X008147Y006359D02*
X008067Y006359D01*
X008067Y006437D02*
X008147Y006437D01*
X008147Y006516D02*
X008067Y006516D01*
X008369Y006280D02*
X025957Y006280D01*
X025957Y006359D02*
X008448Y006359D01*
X008499Y006437D02*
X025957Y006437D01*
X025957Y006516D02*
X008531Y006516D01*
X008147Y006752D02*
X008067Y006752D01*
X008067Y006830D02*
X008147Y006830D01*
X008147Y006909D02*
X008067Y006909D01*
X008067Y006987D02*
X008147Y006987D01*
X008147Y007066D02*
X008067Y007066D01*
X007978Y007223D02*
X006197Y007223D01*
X006197Y007301D02*
X007835Y007301D01*
X007757Y007380D02*
X006197Y007380D01*
X006197Y007459D02*
X007721Y007459D01*
X007688Y007537D02*
X006197Y007537D01*
X006197Y007616D02*
X007687Y007616D01*
X007687Y007694D02*
X006197Y007694D01*
X006197Y007773D02*
X007714Y007773D01*
X007746Y007851D02*
X006197Y007851D01*
X006197Y007930D02*
X007818Y007930D01*
X007936Y008008D02*
X006197Y008008D01*
X006197Y008087D02*
X007837Y008087D01*
X007759Y008165D02*
X006197Y008165D01*
X006197Y008244D02*
X007721Y008244D01*
X007689Y008322D02*
X006197Y008322D01*
X006197Y008401D02*
X007687Y008401D01*
X007687Y008480D02*
X006197Y008480D01*
X006197Y008558D02*
X007713Y008558D01*
X007745Y008637D02*
X006214Y008637D01*
X007614Y008998D02*
X007697Y008998D01*
X007625Y009265D02*
X003957Y009265D01*
X003957Y009344D02*
X007687Y009344D01*
X007687Y009422D02*
X003957Y009422D01*
X003957Y009501D02*
X007695Y009501D01*
X008095Y009396D02*
X008107Y009396D01*
X008485Y009579D02*
X010708Y009579D01*
X010708Y009501D02*
X008518Y009501D01*
X008527Y009422D02*
X010708Y009422D01*
X010708Y009344D02*
X008527Y009344D01*
X008507Y009265D02*
X010708Y009265D01*
X010708Y009186D02*
X008474Y009186D01*
X008413Y009108D02*
X010708Y009108D01*
X010708Y009029D02*
X008319Y009029D01*
X007989Y008951D02*
X010708Y008951D01*
X011964Y008951D02*
X012086Y008951D01*
X012086Y009029D02*
X011964Y009029D01*
X011964Y009108D02*
X012086Y009108D01*
X012086Y009186D02*
X011964Y009186D01*
X011964Y009265D02*
X012086Y009265D01*
X012086Y009344D02*
X011964Y009344D01*
X011964Y009422D02*
X012086Y009422D01*
X012086Y009501D02*
X011964Y009501D01*
X011964Y009579D02*
X012086Y009579D01*
X012093Y009658D02*
X011964Y009658D01*
X011964Y009736D02*
X012171Y009736D01*
X012250Y009815D02*
X012007Y009815D01*
X011642Y010522D02*
X013209Y010522D01*
X013695Y009893D02*
X013953Y009893D01*
X014030Y009815D02*
X013616Y009815D01*
X013538Y009736D02*
X014435Y009736D01*
X014419Y009815D02*
X014514Y009815D01*
X014497Y009893D02*
X014592Y009893D01*
X014594Y009972D02*
X014529Y009972D01*
X014545Y010050D02*
X014599Y010050D01*
X014631Y010129D02*
X014545Y010129D01*
X014515Y010208D02*
X014694Y010208D01*
X012086Y008872D02*
X011964Y008872D01*
X011964Y008794D02*
X012086Y008794D01*
X012086Y008715D02*
X011964Y008715D01*
X011964Y008637D02*
X012086Y008637D01*
X012074Y008558D02*
X011964Y008558D01*
X011964Y008480D02*
X012041Y008480D01*
X012035Y008401D02*
X011964Y008401D01*
X011964Y008322D02*
X012040Y008322D01*
X012073Y008244D02*
X011964Y008244D01*
X011964Y008165D02*
X012136Y008165D01*
X012274Y008087D02*
X011964Y008087D01*
X011564Y008087D02*
X008376Y008087D01*
X008454Y008165D02*
X011564Y008165D01*
X011564Y008008D02*
X008277Y008008D01*
X008395Y007930D02*
X011564Y007930D01*
X011564Y007851D02*
X008467Y007851D01*
X008500Y007773D02*
X011564Y007773D01*
X011564Y007694D02*
X008527Y007694D01*
X008527Y007616D02*
X011512Y007616D01*
X011468Y007537D02*
X008525Y007537D01*
X008493Y007459D02*
X011444Y007459D01*
X011444Y007380D02*
X008456Y007380D01*
X008378Y007301D02*
X011465Y007301D01*
X013511Y006987D02*
X008382Y006987D01*
X008439Y009658D02*
X010708Y009658D01*
X010708Y009736D02*
X008360Y009736D01*
X010826Y011857D02*
X010875Y011857D01*
X010875Y011935D02*
X010753Y011935D01*
X010753Y012014D02*
X010875Y012014D01*
X010875Y012093D02*
X010753Y012093D01*
X010753Y012171D02*
X010875Y012171D01*
X010875Y012250D02*
X010753Y012250D01*
X010753Y012328D02*
X010875Y012328D01*
X010875Y012407D02*
X010753Y012407D01*
X010753Y012485D02*
X010875Y012485D01*
X010875Y012564D02*
X010753Y012564D01*
X010753Y012642D02*
X010875Y012642D01*
X010875Y012721D02*
X010753Y012721D01*
X010753Y012799D02*
X010849Y012799D01*
X010790Y012878D02*
X010753Y012878D01*
X010753Y012957D02*
X010757Y012957D01*
X010753Y013035D02*
X010755Y013035D01*
X010765Y013114D02*
X010736Y013114D01*
X010661Y013192D02*
X010657Y013192D01*
X010583Y013271D02*
X010578Y013271D01*
X010551Y013349D02*
X010500Y013349D01*
X010518Y013428D02*
X010421Y013428D01*
X010397Y013506D02*
X010517Y013506D01*
X010517Y013585D02*
X010397Y013585D01*
X010373Y013663D02*
X010541Y013663D01*
X010574Y013742D02*
X010340Y013742D01*
X010277Y013821D02*
X010637Y013821D01*
X010727Y013899D02*
X010187Y013899D01*
X009727Y013899D02*
X009386Y013899D01*
X009397Y013821D02*
X009637Y013821D01*
X009574Y013742D02*
X009397Y013742D01*
X009397Y013663D02*
X009541Y013663D01*
X009517Y013585D02*
X009397Y013585D01*
X009397Y013506D02*
X009517Y013506D01*
X009518Y013428D02*
X009397Y013428D01*
X009397Y013349D02*
X009551Y013349D01*
X009583Y013271D02*
X009397Y013271D01*
X009397Y013192D02*
X009661Y013192D01*
X009783Y013114D02*
X009362Y013114D01*
X008517Y013585D02*
X006417Y013585D01*
X006395Y013663D02*
X008517Y013663D01*
X008517Y013742D02*
X006362Y013742D01*
X006305Y013821D02*
X008517Y013821D01*
X008528Y013899D02*
X006226Y013899D01*
X012567Y012014D02*
X013253Y012014D01*
X014133Y011935D02*
X014514Y011935D01*
X014390Y012014D02*
X014256Y012014D01*
X014314Y012093D02*
X014332Y012093D01*
X019450Y012485D02*
X025957Y012485D01*
X025957Y012407D02*
X019521Y012407D01*
D17*
X013595Y005841D03*
D18*
X011764Y007416D02*
X011764Y009876D01*
X012256Y010270D01*
X013240Y010270D01*
X013536Y010565D01*
X013536Y011156D01*
X013634Y011254D01*
X013437Y011746D02*
X012551Y011746D01*
X012355Y011943D01*
X012355Y012829D01*
X011075Y013026D02*
X011075Y011353D01*
X014658Y012238D02*
X014817Y012238D01*
X019244Y012238D01*
D19*
X014914Y009975D02*
X014126Y009187D01*
X014126Y007612D01*
X013733Y007219D01*
X012355Y008400D02*
X012347Y008400D01*
X012256Y008490D01*
X012256Y009581D01*
X012551Y009876D01*
X013437Y009876D01*
X013634Y010073D01*
X014225Y010073D01*
X011863Y010983D02*
X011551Y010671D01*
X011083Y010671D01*
X010878Y010467D01*
X010878Y008892D01*
X011174Y008597D01*
X011863Y010983D02*
X011863Y013420D01*
X011961Y013518D01*
X012256Y013518D01*
X012748Y013026D01*
X013142Y013026D01*
X013339Y012829D01*
X013437Y012829D01*
X013634Y012632D01*
X013831Y012632D01*
X014028Y012435D01*
X014028Y012238D01*
X011961Y013518D02*
X011957Y013518D01*
X010583Y013026D02*
X010083Y013526D01*
X009965Y013526D01*
X009957Y013518D01*
X010583Y013026D02*
X010583Y011648D01*
D20*
X008095Y009396D02*
X007697Y008998D01*
X007614Y008998D02*
X006237Y008998D01*
X005957Y008719D01*
X005957Y003518D01*
M02*
