G04 start of page 15 for group -4015 idx -4015 *
G04 Title: (unknown), toppaste *
G04 Creator: pcb 20140316 *
G04 CreationDate: Tue 22 Dec 2015 07:16:43 PM GMT UTC *
G04 For: vince *
G04 Format: Gerber/RS-274X *
G04 PCB-Dimensions (mil): 1950.00 850.00 *
G04 PCB-Coordinate-Origin: lower left *
%MOIN*%
%FSLAX25Y25*%
%LNTOPPASTE*%
%ADD122C,0.0600*%
G54D122*X8500Y70000D02*X11500D01*
X8500Y60000D02*X11500D01*
X8500Y50000D02*X11500D01*
X8500Y40000D02*X11500D01*
X8500Y30000D02*X11500D01*
X8500Y20000D02*X11500D01*
X48500D02*X51500D01*
X48500Y30000D02*X51500D01*
X48500Y40000D02*X51500D01*
X48500Y50000D02*X51500D01*
X48500Y60000D02*X51500D01*
X48500Y70000D02*X51500D01*
M02*
