G04 start of page 2 for group 0 idx 0 *
G04 Title: (unknown), top *
G04 Creator: pcb 1.99z *
G04 CreationDate: Fri Jun 17 03:18:51 2011 UTC *
G04 For: apoelstra *
G04 Format: Gerber/RS-274X *
G04 PCB-Dimensions: 3000000 2000000 *
G04 PCB-Coordinate-Origin: lower left *
%MOIN*%
%FSLAX25Y25*%
%LNTOP*%
%ADD16C,0.2500*%
%ADD15C,0.5000*%
%ADD14C,1.0000*%
%ADD13C,0.6500*%
%ADD12C,0.7500*%
%ADD11C,0.0100*%
G54D11*X1266000Y1791000D02*G75*G02X775000Y1300000I-491000J0D01*G01*
X772000Y1303000D02*G75*G03X286000Y817000I0J-486000D01*G01*
X285999D02*G75*G03X772000Y1303000I0J486000D01*G01*
X775000Y1300000D02*G75*G02X1266000Y1791000I491000J0D01*G01*
G54D12*X600000Y450000D03*
G54D13*Y290000D03*
G54D14*X450000Y600000D03*
X600000D03*
G54D13*X450000Y290000D03*
G54D12*Y450000D03*
G54D15*G54D16*G54D15*G54D16*G54D15*M02*
