G04 Layer_Physical_Order=1*
G04 Layer_Color=255*
%FSLAX24Y24*%
%MOIN*%
G70*
G01*
G75*
%ADD10R,0.0532X0.0453*%
%ADD11R,0.0551X0.0472*%
%ADD12R,0.0315X0.0236*%
%ADD13R,0.0295X0.0157*%
%ADD14C,0.0080*%
%ADD15C,0.0100*%
%ADD16C,0.0200*%
%ADD17C,0.0500*%
%ADD18C,0.0150*%
G36*
X5500Y18933D02*
X5350Y18923D01*
X5341Y18991D01*
X5306Y19077D01*
X5250Y19150D01*
X5177Y19206D01*
X5091Y19241D01*
X5050Y19246D01*
Y18900D01*
X4950D01*
Y19246D01*
X4909Y19241D01*
X4823Y19206D01*
X4750Y19150D01*
X4694Y19077D01*
X4680Y19041D01*
X4520D01*
X4506Y19077D01*
X4450Y19150D01*
X4377Y19206D01*
X4291Y19241D01*
X4250Y19246D01*
Y18900D01*
X4150D01*
Y19246D01*
X4109Y19241D01*
X4023Y19206D01*
X3950Y19150D01*
X3894Y19077D01*
X3880Y19041D01*
X3720D01*
X3706Y19077D01*
X3650Y19150D01*
X3577Y19206D01*
X3491Y19241D01*
X3450Y19246D01*
Y18900D01*
X3400D01*
Y18850D01*
X3054D01*
X3059Y18809D01*
X3094Y18723D01*
X3150Y18650D01*
X3223Y18594D01*
X3289Y18567D01*
X3300Y18500D01*
X3288Y18411D01*
X3234Y18388D01*
X3165Y18335D01*
X3112Y18266D01*
X3078Y18186D01*
X3067Y18100D01*
X3078Y18014D01*
X3093Y17980D01*
X3006Y17894D01*
X2978Y17851D01*
X2967Y17800D01*
Y17151D01*
X2754D01*
Y16612D01*
X2754Y16538D01*
Y16445D01*
X2648Y16339D01*
X1231D01*
X1161Y16325D01*
X1101Y16285D01*
X1092Y16272D01*
X948Y16259D01*
X852D01*
Y16259D01*
X397D01*
X300Y16369D01*
Y18942D01*
X343Y18988D01*
X450Y19054D01*
Y19400D01*
X550D01*
Y19054D01*
X591Y19059D01*
X677Y19094D01*
X750Y19150D01*
X806Y19223D01*
X833Y19289D01*
X900Y19300D01*
X989Y19288D01*
X1012Y19234D01*
X1065Y19165D01*
X1134Y19112D01*
X1214Y19078D01*
X1300Y19067D01*
X1386Y19078D01*
X1466Y19112D01*
X1535Y19165D01*
X1588Y19234D01*
X1622Y19314D01*
X1633Y19400D01*
X1622Y19486D01*
X1595Y19550D01*
X1618Y19613D01*
X1675Y19700D01*
X5500D01*
Y18933D01*
D02*
G37*
G36*
Y18867D02*
Y5730D01*
X5350Y5668D01*
X5122Y5896D01*
Y5977D01*
X5113Y6024D01*
X5108Y6031D01*
X5105Y6053D01*
X5122Y6137D01*
X5155Y6207D01*
X5166Y6212D01*
X5235Y6265D01*
X5288Y6334D01*
X5322Y6414D01*
X5333Y6500D01*
X5322Y6586D01*
X5288Y6666D01*
X5235Y6735D01*
X5166Y6788D01*
X5086Y6822D01*
X5065Y6824D01*
Y6976D01*
X5086Y6978D01*
X5166Y7012D01*
X5235Y7065D01*
X5288Y7134D01*
X5322Y7214D01*
X5333Y7300D01*
X5322Y7386D01*
X5288Y7466D01*
X5235Y7535D01*
X5166Y7588D01*
X5086Y7622D01*
X5000Y7633D01*
X4914Y7622D01*
X4834Y7588D01*
X4765Y7535D01*
X4725Y7484D01*
X4600D01*
X4530Y7470D01*
X4470Y7430D01*
X3858Y6818D01*
X3819Y6758D01*
X3805Y6688D01*
Y5342D01*
X3783Y5330D01*
X3633Y5419D01*
Y7045D01*
X4494Y7906D01*
X4522Y7949D01*
X4533Y8000D01*
Y9780D01*
X4534Y9929D01*
X4850D01*
Y10256D01*
X4900D01*
Y10306D01*
X5266D01*
Y10582D01*
X5266D01*
X5266Y10582D01*
X5246Y10724D01*
Y11251D01*
X5033D01*
Y11798D01*
X5066Y11812D01*
X5135Y11865D01*
X5188Y11934D01*
X5222Y12014D01*
X5233Y12100D01*
X5222Y12186D01*
X5188Y12266D01*
X5135Y12335D01*
X5066Y12388D01*
X4986Y12422D01*
X4965Y12424D01*
Y12576D01*
X4986Y12578D01*
X5066Y12612D01*
X5135Y12665D01*
X5188Y12734D01*
X5222Y12814D01*
X5233Y12900D01*
X5222Y12986D01*
X5188Y13066D01*
X5135Y13135D01*
X5066Y13188D01*
X5033Y13202D01*
Y13649D01*
X5246D01*
Y14176D01*
X5266Y14318D01*
X5266Y14404D01*
Y14594D01*
X4534D01*
Y14404D01*
X4534Y14318D01*
X4554Y14176D01*
Y13649D01*
X4767D01*
Y13202D01*
X4734Y13188D01*
X4665Y13135D01*
X4612Y13066D01*
X4578Y12986D01*
X4576Y12965D01*
X4424D01*
X4422Y12986D01*
X4388Y13066D01*
X4335Y13135D01*
X4266Y13188D01*
X4186Y13222D01*
X4100Y13233D01*
X4060Y13228D01*
X3777Y13511D01*
X3834Y13649D01*
X3846D01*
Y14262D01*
X3846Y14262D01*
X3866Y14318D01*
X3866D01*
X3866Y14404D01*
Y14594D01*
X3500D01*
Y14644D01*
X3450D01*
Y14971D01*
X3218D01*
Y15849D01*
X3446D01*
Y15972D01*
X3654D01*
Y15849D01*
X4346D01*
Y15972D01*
X4554D01*
Y15849D01*
X5246D01*
Y16388D01*
X5246Y16500D01*
X5246Y16612D01*
Y17151D01*
X5033D01*
Y17771D01*
X5086Y17778D01*
X5166Y17812D01*
X5235Y17865D01*
X5288Y17934D01*
X5322Y18014D01*
X5333Y18100D01*
X5322Y18186D01*
X5288Y18266D01*
X5235Y18335D01*
X5166Y18388D01*
X5112Y18411D01*
X5100Y18500D01*
X5111Y18567D01*
X5177Y18594D01*
X5250Y18650D01*
X5306Y18723D01*
X5341Y18809D01*
X5350Y18877D01*
X5500Y18867D01*
D02*
G37*
G36*
X2754Y15849D02*
X2851D01*
Y15690D01*
X2835Y15666D01*
X2750Y15611D01*
Y15400D01*
Y15189D01*
X2835Y15134D01*
X2851Y15110D01*
Y13166D01*
X2865Y13096D01*
X2904Y13036D01*
X2976Y12965D01*
X2967Y12900D01*
X2976Y12835D01*
X2361Y12220D01*
X2222Y12278D01*
Y12649D01*
X2456D01*
Y13157D01*
X2476Y13298D01*
X2476Y13423D01*
Y13585D01*
X1724D01*
Y13423D01*
X1724Y13298D01*
X1732Y13248D01*
X1626Y13108D01*
X1479Y13114D01*
X1423Y13221D01*
X1423Y13248D01*
Y13350D01*
X1176D01*
Y13400D01*
X1126D01*
Y13579D01*
X994D01*
X928Y13579D01*
X883Y13572D01*
X733Y13688D01*
Y14498D01*
X766Y14512D01*
X835Y14565D01*
X888Y14634D01*
X922Y14714D01*
X933Y14800D01*
X922Y14886D01*
X888Y14966D01*
X835Y15035D01*
X766Y15088D01*
X757Y15092D01*
Y15831D01*
X770Y15845D01*
X842Y15891D01*
X992Y15812D01*
Y15424D01*
X1006Y15354D01*
X1046Y15295D01*
X1076Y15265D01*
X1067Y15200D01*
X1078Y15114D01*
X1112Y15034D01*
X1165Y14965D01*
X1234Y14912D01*
X1288Y14889D01*
X1300Y14800D01*
X1289Y14733D01*
X1223Y14706D01*
X1150Y14650D01*
X1094Y14577D01*
X1059Y14491D01*
X1054Y14450D01*
X1400D01*
X1746D01*
X1741Y14491D01*
X1706Y14577D01*
X1650Y14650D01*
X1577Y14706D01*
X1511Y14733D01*
X1500Y14800D01*
X1512Y14889D01*
X1566Y14912D01*
X1635Y14965D01*
X1688Y15034D01*
X1722Y15114D01*
X1733Y15200D01*
X1722Y15286D01*
X1688Y15366D01*
X1635Y15435D01*
X1566Y15488D01*
X1486Y15522D01*
X1400Y15533D01*
X1359Y15569D01*
Y15941D01*
X1403D01*
Y15972D01*
X2754D01*
Y15849D01*
D02*
G37*
G36*
X2750Y9929D02*
X2917D01*
X3066Y9929D01*
X3067Y9780D01*
Y8079D01*
X3042Y8050D01*
X2950Y7995D01*
Y7800D01*
Y7605D01*
X3042Y7550D01*
X3067Y7521D01*
Y6281D01*
X3054Y6260D01*
X3042Y6200D01*
X3054Y6140D01*
X3088Y6088D01*
X3140Y6054D01*
X3200Y6042D01*
X3217Y6045D01*
X3336Y5977D01*
X3367Y5945D01*
Y5671D01*
X3150D01*
Y5344D01*
X3050D01*
Y5671D01*
X2774D01*
X2760Y5678D01*
X2656Y5788D01*
X2658Y5800D01*
X2646Y5860D01*
X2612Y5912D01*
X2560Y5946D01*
X2500Y5958D01*
X2392Y6081D01*
Y9232D01*
X2531Y9322D01*
X2542Y9321D01*
X2574Y9274D01*
X2632Y9235D01*
X2650Y9232D01*
Y9400D01*
Y9568D01*
X2632Y9565D01*
X2574Y9526D01*
X2542Y9479D01*
X2531Y9478D01*
X2392Y9568D01*
Y9830D01*
X2515Y9929D01*
X2650D01*
Y10256D01*
X2750D01*
Y9929D01*
D02*
G37*
G36*
X3397Y10505D02*
X3534Y10426D01*
Y10306D01*
X3900D01*
Y10256D01*
X3950D01*
Y9929D01*
X4117D01*
X4266Y9929D01*
X4267Y9780D01*
Y8055D01*
X3483Y7270D01*
X3333Y7332D01*
Y7715D01*
X3435Y7758D01*
X3483Y7768D01*
X3532Y7735D01*
X3550Y7732D01*
Y7900D01*
Y8068D01*
X3532Y8065D01*
X3483Y8032D01*
X3435Y8042D01*
X3333Y8085D01*
Y10471D01*
X3384Y10506D01*
X3397Y10505D01*
D02*
G37*
G36*
X2042Y9903D02*
X2042Y9900D01*
X2054Y9840D01*
X2088Y9788D01*
X2140Y9754D01*
X2148Y9752D01*
Y7074D01*
X2014Y6987D01*
X1998Y6987D01*
X1950Y7050D01*
X1877Y7106D01*
X1791Y7141D01*
X1750Y7146D01*
Y6800D01*
X1650D01*
Y7146D01*
X1609Y7141D01*
X1583Y7130D01*
X1451Y7201D01*
X1433Y7225D01*
Y9505D01*
X1904Y9977D01*
X2042Y9903D01*
D02*
G37*
G36*
X4554Y5859D02*
X4542Y5800D01*
X4554Y5740D01*
X4588Y5688D01*
X4640Y5654D01*
X4710Y5616D01*
X4754Y5500D01*
Y5424D01*
X5012D01*
Y5324D01*
X4754D01*
Y5156D01*
X4813D01*
X4839Y5138D01*
X4895Y5050D01*
X5100D01*
Y4950D01*
X4913D01*
X4859Y4856D01*
X4827Y4824D01*
X4774D01*
Y4788D01*
X4370D01*
X4226Y4802D01*
Y5198D01*
X4172D01*
Y6029D01*
X4322Y6091D01*
X4554Y5859D01*
D02*
G37*
G36*
X4774Y4428D02*
X5249D01*
X5278Y4290D01*
Y3951D01*
X5129Y3802D01*
X4455D01*
X4408Y3793D01*
X4368Y3767D01*
X3850Y3248D01*
X3800Y3258D01*
X3740Y3246D01*
X3688Y3212D01*
X3654Y3160D01*
X3642Y3100D01*
X3654Y3040D01*
X3688Y2988D01*
X3740Y2954D01*
X3800Y2942D01*
X3860Y2954D01*
X3905Y2984D01*
X3922Y2987D01*
X3961Y3013D01*
X4078Y3130D01*
X4216Y3073D01*
Y2699D01*
X4100Y2578D01*
X4032Y2565D01*
X3974Y2526D01*
X3935Y2468D01*
X3932Y2450D01*
X4100D01*
Y2350D01*
X3932D01*
X3935Y2332D01*
X3974Y2274D01*
X4032Y2235D01*
X4100Y2222D01*
X4216Y2101D01*
Y1888D01*
X3927Y1598D01*
X3751D01*
Y1344D01*
X3601Y1270D01*
X3550Y1309D01*
X3566Y1418D01*
X3566Y1418D01*
X3566D01*
Y1694D01*
X3200D01*
Y1744D01*
X3150D01*
Y2071D01*
X2834D01*
Y1789D01*
X2696Y1732D01*
X2223Y2204D01*
X2297Y2343D01*
X2300Y2342D01*
X2360Y2354D01*
X2381Y2367D01*
X2544D01*
X2595Y2378D01*
X2638Y2406D01*
X4194Y3962D01*
X4211Y3988D01*
X4212Y3988D01*
X4246Y4040D01*
X4258Y4100D01*
X4246Y4160D01*
X4212Y4212D01*
X4160Y4246D01*
X4100Y4258D01*
X4040Y4246D01*
X4004Y4222D01*
X3904Y4241D01*
X3846Y4260D01*
X3812Y4312D01*
X3760Y4346D01*
X3700Y4358D01*
X3640Y4346D01*
X3588Y4312D01*
X3571Y4309D01*
X3446Y4409D01*
Y4523D01*
X4774D01*
Y4428D01*
D02*
G37*
G36*
X5500Y3615D02*
Y300D01*
X3958D01*
X3946Y360D01*
X3912Y412D01*
X3860Y446D01*
X3837Y451D01*
X3794Y494D01*
X3751Y522D01*
X3700Y533D01*
X3274D01*
X3223Y599D01*
X3296Y749D01*
X3546D01*
Y923D01*
X4774D01*
Y828D01*
X5249D01*
Y1224D01*
X4873D01*
X4841Y1256D01*
X4787Y1350D01*
X4600D01*
Y1450D01*
X4805D01*
X4861Y1538D01*
X4887Y1556D01*
X4962D01*
Y1774D01*
Y1992D01*
X4754D01*
Y1798D01*
X4604Y1701D01*
X4578Y1714D01*
X4570Y1742D01*
X4584Y1812D01*
Y2138D01*
X4734Y2212D01*
X4734Y2212D01*
X4814Y2178D01*
X4900Y2167D01*
X4986Y2178D01*
X5066Y2212D01*
X5135Y2265D01*
X5188Y2334D01*
X5222Y2414D01*
X5233Y2500D01*
X5222Y2586D01*
X5188Y2666D01*
X5135Y2735D01*
X5066Y2788D01*
X4986Y2822D01*
X4965Y2824D01*
Y2976D01*
X4986Y2978D01*
X5066Y3012D01*
X5135Y3065D01*
X5188Y3134D01*
X5222Y3214D01*
X5233Y3300D01*
X5222Y3386D01*
X5211Y3411D01*
X5222Y3522D01*
X5267Y3593D01*
X5350Y3677D01*
X5500Y3615D01*
D02*
G37*
%LPC*%
G36*
X3350Y19246D02*
X3309Y19241D01*
X3223Y19206D01*
X3150Y19150D01*
X3094Y19077D01*
X3059Y18991D01*
X3054Y18950D01*
X3350D01*
Y19246D01*
D02*
G37*
G36*
X1650Y18268D02*
Y18150D01*
X1768D01*
X1765Y18168D01*
X1726Y18226D01*
X1668Y18265D01*
X1650Y18268D01*
D02*
G37*
G36*
X1550D02*
X1532Y18265D01*
X1474Y18226D01*
X1435Y18168D01*
X1432Y18150D01*
X1550D01*
Y18268D01*
D02*
G37*
G36*
X1768Y18050D02*
X1650D01*
Y17932D01*
X1668Y17935D01*
X1726Y17974D01*
X1765Y18032D01*
X1768Y18050D01*
D02*
G37*
G36*
X1550D02*
X1432D01*
X1435Y18032D01*
X1474Y17974D01*
X1532Y17935D01*
X1550Y17932D01*
Y18050D01*
D02*
G37*
G36*
X3650Y15568D02*
Y15450D01*
X3768D01*
X3765Y15468D01*
X3726Y15526D01*
X3668Y15565D01*
X3650Y15568D01*
D02*
G37*
G36*
X3550D02*
X3532Y15565D01*
X3474Y15526D01*
X3435Y15468D01*
X3432Y15450D01*
X3550D01*
Y15568D01*
D02*
G37*
G36*
X3768Y15350D02*
X3650D01*
Y15232D01*
X3668Y15235D01*
X3726Y15274D01*
X3765Y15332D01*
X3768Y15350D01*
D02*
G37*
G36*
X3550D02*
X3432D01*
X3435Y15332D01*
X3474Y15274D01*
X3532Y15235D01*
X3550Y15232D01*
Y15350D01*
D02*
G37*
G36*
X5266Y14971D02*
X4950D01*
Y14694D01*
X5266D01*
Y14971D01*
D02*
G37*
G36*
X4850D02*
X4534D01*
Y14694D01*
X4850D01*
Y14971D01*
D02*
G37*
G36*
X3866D02*
X3550D01*
Y14694D01*
X3866D01*
Y14971D01*
D02*
G37*
G36*
X5266Y10206D02*
X4950D01*
Y9929D01*
X5266D01*
Y10206D01*
D02*
G37*
G36*
X4950Y9268D02*
Y9150D01*
X5068D01*
X5065Y9168D01*
X5026Y9226D01*
X4968Y9265D01*
X4950Y9268D01*
D02*
G37*
G36*
X4850D02*
X4832Y9265D01*
X4774Y9226D01*
X4735Y9168D01*
X4732Y9150D01*
X4850D01*
Y9268D01*
D02*
G37*
G36*
X5068Y9050D02*
X4950D01*
Y8932D01*
X4968Y8935D01*
X5026Y8974D01*
X5065Y9032D01*
X5068Y9050D01*
D02*
G37*
G36*
X4850D02*
X4732D01*
X4735Y9032D01*
X4774Y8974D01*
X4832Y8935D01*
X4850Y8932D01*
Y9050D01*
D02*
G37*
G36*
X2650Y15568D02*
X2632Y15565D01*
X2574Y15526D01*
X2535Y15468D01*
X2532Y15450D01*
X2650D01*
Y15568D01*
D02*
G37*
G36*
Y15350D02*
X2532D01*
X2535Y15332D01*
X2574Y15274D01*
X2632Y15235D01*
X2650Y15232D01*
Y15350D01*
D02*
G37*
G36*
X1746Y14350D02*
X1450D01*
Y14054D01*
X1491Y14059D01*
X1577Y14094D01*
X1650Y14150D01*
X1706Y14223D01*
X1741Y14309D01*
X1746Y14350D01*
D02*
G37*
G36*
X1350D02*
X1054D01*
X1059Y14309D01*
X1094Y14223D01*
X1150Y14150D01*
X1223Y14094D01*
X1309Y14059D01*
X1350Y14054D01*
Y14350D01*
D02*
G37*
G36*
X2476Y13971D02*
X2150D01*
Y13685D01*
X2476D01*
Y13971D01*
D02*
G37*
G36*
X2050D02*
X1724D01*
Y13685D01*
X2050D01*
Y13971D01*
D02*
G37*
G36*
X1226Y13579D02*
Y13450D01*
X1423D01*
Y13579D01*
X1226D01*
D02*
G37*
G36*
X2750Y9568D02*
Y9450D01*
X2868D01*
X2865Y9468D01*
X2826Y9526D01*
X2768Y9565D01*
X2750Y9568D01*
D02*
G37*
G36*
X2868Y9350D02*
X2750D01*
Y9232D01*
X2768Y9235D01*
X2826Y9274D01*
X2865Y9332D01*
X2868Y9350D01*
D02*
G37*
G36*
X2850Y7968D02*
X2832Y7965D01*
X2774Y7926D01*
X2735Y7868D01*
X2732Y7850D01*
X2850D01*
Y7968D01*
D02*
G37*
G36*
Y7750D02*
X2732D01*
X2735Y7732D01*
X2774Y7674D01*
X2832Y7635D01*
X2850Y7632D01*
Y7750D01*
D02*
G37*
G36*
X3850Y10206D02*
X3534D01*
Y9929D01*
X3850D01*
Y10206D01*
D02*
G37*
G36*
Y9268D02*
Y9150D01*
X3968D01*
X3965Y9168D01*
X3926Y9226D01*
X3868Y9265D01*
X3850Y9268D01*
D02*
G37*
G36*
X3750D02*
X3732Y9265D01*
X3674Y9226D01*
X3635Y9168D01*
X3632Y9150D01*
X3750D01*
Y9268D01*
D02*
G37*
G36*
X3968Y9050D02*
X3850D01*
Y8932D01*
X3868Y8935D01*
X3926Y8974D01*
X3965Y9032D01*
X3968Y9050D01*
D02*
G37*
G36*
X3750D02*
X3632D01*
X3635Y9032D01*
X3674Y8974D01*
X3732Y8935D01*
X3750Y8932D01*
Y9050D01*
D02*
G37*
G36*
X3650Y8068D02*
Y7950D01*
X3768D01*
X3765Y7968D01*
X3726Y8026D01*
X3668Y8065D01*
X3650Y8068D01*
D02*
G37*
G36*
X3768Y7850D02*
X3650D01*
Y7732D01*
X3668Y7735D01*
X3726Y7774D01*
X3765Y7832D01*
X3768Y7850D01*
D02*
G37*
G36*
X3566Y2071D02*
X3250D01*
Y1794D01*
X3566D01*
Y2071D01*
D02*
G37*
G36*
X5269Y1992D02*
X5062D01*
Y1824D01*
X5269D01*
Y1992D01*
D02*
G37*
G36*
Y1724D02*
X5062D01*
Y1556D01*
X5269D01*
Y1724D01*
D02*
G37*
%LPD*%
D10*
X3200Y1056D02*
D03*
Y1744D02*
D03*
X3100Y16156D02*
D03*
Y16844D02*
D03*
X4000Y16156D02*
D03*
Y16844D02*
D03*
X4900Y16156D02*
D03*
Y16844D02*
D03*
X3500Y13956D02*
D03*
Y14644D02*
D03*
X4900Y13956D02*
D03*
Y14644D02*
D03*
X2700Y10256D02*
D03*
Y10944D02*
D03*
X3900D02*
D03*
Y10256D02*
D03*
X4900Y10944D02*
D03*
Y10256D02*
D03*
X3100Y4656D02*
D03*
Y5344D02*
D03*
D11*
X2100Y12965D02*
D03*
Y13635D02*
D03*
D12*
X5012Y1026D02*
D03*
Y1774D02*
D03*
X3988Y1400D02*
D03*
X5012Y4626D02*
D03*
Y5374D02*
D03*
X3988Y5000D02*
D03*
D13*
X1176Y16100D02*
D03*
X624D02*
D03*
X624Y13400D02*
D03*
X1176D02*
D03*
D14*
X2200Y3200D02*
X2700Y3700D01*
Y3900D01*
X350Y5250D02*
X400Y5200D01*
X900D01*
X3800Y3100D02*
X3875D01*
X4455Y3680D01*
X5180D01*
X5400Y3900D01*
Y5445D01*
X5000Y5845D02*
X5400Y5445D01*
X5000Y5845D02*
Y5977D01*
X4500Y6477D02*
X5000Y5977D01*
X4500Y6477D02*
Y6800D01*
X1100Y10000D02*
X1300D01*
X2000Y10700D01*
X2200Y9900D02*
X2270Y9830D01*
Y4570D02*
Y9830D01*
X2200Y4500D02*
X2270Y4570D01*
X350Y10850D02*
X1500Y12000D01*
X350Y5250D02*
Y10850D01*
X900Y2800D02*
X1290Y2410D01*
X1844D01*
X510Y6390D02*
X900Y6000D01*
X510Y6390D02*
Y10449D01*
X1844Y2410D02*
X3199Y1056D01*
X3200D01*
X510Y10449D02*
X2100Y12039D01*
Y12965D01*
D15*
X2600Y3100D02*
X2905Y3405D01*
Y4095D01*
X2900Y4100D02*
X2905Y4095D01*
X2590Y2800D02*
X3700Y3910D01*
X1700Y2800D02*
X2590D01*
X3700Y3910D02*
Y4200D01*
X2300Y2500D02*
X2544D01*
X4100Y4056D01*
Y4100D01*
X3700Y17300D02*
Y17800D01*
X3400Y18100D02*
X3700Y17800D01*
X4000Y16844D02*
Y17900D01*
X4700Y5800D02*
Y5900D01*
X3100Y4656D02*
X4982D01*
X4300Y6300D02*
X4700Y5900D01*
X3500Y7100D02*
X4400Y8000D01*
X3500Y5000D02*
Y7100D01*
Y5000D02*
X3600Y4900D01*
X3700Y400D02*
X3800Y300D01*
X3180Y400D02*
X3700D01*
X2804Y775D02*
X3180Y400D01*
X2804Y775D02*
Y996D01*
X2200Y1600D02*
X2804Y996D01*
X1300Y9560D02*
X2685Y10944D01*
X4300Y6300D02*
Y6400D01*
X4400Y8000D02*
Y10460D01*
X4572Y10632D01*
X4587D01*
X4900Y10944D01*
X3544D02*
X3900D01*
X3200Y6200D02*
Y10600D01*
X3544Y10944D01*
X2685D02*
X2700D01*
X1300Y6634D02*
Y9560D01*
Y6634D02*
X1534Y6400D01*
X1866D01*
X2100Y6166D01*
Y5034D02*
Y6166D01*
X1866Y4800D02*
X2100Y5034D01*
X734Y4800D02*
X1866D01*
X500Y4566D02*
X734Y4800D01*
X500Y1834D02*
Y4566D01*
Y1834D02*
X734Y1600D01*
X1700D01*
Y1200D02*
Y1600D01*
X2500Y4500D02*
Y5800D01*
X900Y3600D02*
X1300Y4000D01*
X2444D01*
X3100Y4656D01*
X3200Y1056D02*
X4982D01*
X624Y14824D02*
Y16100D01*
X683Y12965D02*
X2100D01*
X624Y13024D02*
X683Y12965D01*
X624Y13024D02*
Y13400D01*
X600Y13424D02*
Y14800D01*
X4900Y10944D02*
Y12100D01*
X3900Y11900D02*
X4100Y12100D01*
X3900Y10944D02*
Y11900D01*
X2700Y11500D02*
X3300Y12100D01*
X2700Y10944D02*
Y11500D01*
X4900Y12900D02*
Y13956D01*
X4100Y12900D02*
Y13000D01*
X3500Y13600D02*
X4100Y13000D01*
X3500Y13600D02*
Y13956D01*
X4900Y18000D02*
X5000Y18100D01*
X4900Y16844D02*
Y18000D01*
X4000Y17900D02*
X4200Y18100D01*
X3100Y17800D02*
X3400Y18100D01*
X3100Y16844D02*
Y17800D01*
D16*
X4600Y7300D02*
X5000D01*
X3988Y6688D02*
X4600Y7300D01*
X3988Y5000D02*
Y6688D01*
X4400Y3300D02*
X4900D01*
X4400Y1812D02*
Y3300D01*
X3988Y1400D02*
X4400Y1812D01*
X800Y6900D02*
Y10400D01*
Y6900D02*
X900Y6800D01*
X800Y10400D02*
X3300Y12900D01*
X1176Y15424D02*
X1400Y15200D01*
X1176Y15424D02*
Y16100D01*
X3034Y13166D02*
Y16156D01*
X3100D01*
X1231D02*
X3034D01*
X3100D02*
X4000D01*
X4900D01*
X3034Y13166D02*
X3300Y12900D01*
D17*
X1700Y6800D02*
D03*
Y6000D02*
D03*
Y5200D02*
D03*
Y4400D02*
D03*
Y3600D02*
D03*
Y2800D02*
D03*
Y2000D02*
D03*
Y1200D02*
D03*
Y400D02*
D03*
X900D02*
D03*
Y1200D02*
D03*
Y2000D02*
D03*
Y2800D02*
D03*
Y3600D02*
D03*
Y4400D02*
D03*
Y5200D02*
D03*
Y6000D02*
D03*
Y6800D02*
D03*
X4900Y3300D02*
D03*
Y2500D02*
D03*
X5000Y18900D02*
D03*
Y18100D02*
D03*
X4200Y18900D02*
D03*
X3400D02*
D03*
Y18100D02*
D03*
X4200D02*
D03*
X4900Y12100D02*
D03*
X4100D02*
D03*
X3300D02*
D03*
X4100Y12900D02*
D03*
X3300D02*
D03*
X4900D02*
D03*
X600Y14800D02*
D03*
X1400Y15200D02*
D03*
Y14400D02*
D03*
X5000Y7300D02*
D03*
Y6500D02*
D03*
X500Y19400D02*
D03*
X1300D02*
D03*
D18*
X3700Y17300D02*
D03*
X2900Y4100D02*
D03*
X5100Y5000D02*
D03*
X4600Y1400D02*
D03*
X4100Y2400D02*
D03*
X2700Y15400D02*
D03*
X3600D02*
D03*
X1600Y18100D02*
D03*
X3600Y7900D02*
D03*
X2900Y7800D02*
D03*
X4900Y9100D02*
D03*
X3800D02*
D03*
X2700Y9400D02*
D03*
X4700Y5800D02*
D03*
X4500Y6800D02*
D03*
X3800Y3100D02*
D03*
Y300D02*
D03*
X2200Y1600D02*
D03*
Y3200D02*
D03*
X2600Y3100D02*
D03*
X1100Y10000D02*
D03*
X2200Y9900D02*
D03*
X2000Y10700D02*
D03*
X2200Y4500D02*
D03*
X2700Y3900D02*
D03*
X1500Y12000D02*
D03*
X4300Y6400D02*
D03*
X3200Y6200D02*
D03*
X4100Y4100D02*
D03*
X2300Y2500D02*
D03*
X3700Y4200D02*
D03*
X3600Y4900D02*
D03*
X2500Y5800D02*
D03*
Y4500D02*
D03*
M02*
