G04 Layer_Physical_Order=2*
G04 Layer_Color=16711680*
%FSLAX24Y24*%
%MOIN*%
G70*
G01*
G75*
%ADD14C,0.0080*%
%ADD15C,0.0100*%
%ADD16C,0.0200*%
%ADD17C,0.0500*%
%ADD18C,0.0150*%
%ADD19C,0.0150*%
G36*
X5500Y18933D02*
X5350Y18923D01*
X5341Y18991D01*
X5306Y19077D01*
X5250Y19150D01*
X5177Y19206D01*
X5091Y19241D01*
X5050Y19246D01*
Y18900D01*
X4950D01*
Y19246D01*
X4909Y19241D01*
X4823Y19206D01*
X4750Y19150D01*
X4694Y19077D01*
X4680Y19041D01*
X4520D01*
X4506Y19077D01*
X4450Y19150D01*
X4377Y19206D01*
X4291Y19241D01*
X4250Y19246D01*
Y18900D01*
X4150D01*
Y19246D01*
X4109Y19241D01*
X4023Y19206D01*
X3950Y19150D01*
X3894Y19077D01*
X3880Y19041D01*
X3720D01*
X3706Y19077D01*
X3650Y19150D01*
X3577Y19206D01*
X3491Y19241D01*
X3450Y19246D01*
Y18900D01*
X3400D01*
Y18850D01*
X3054D01*
X3059Y18809D01*
X3094Y18723D01*
X3150Y18650D01*
X3223Y18594D01*
X3289Y18567D01*
X3300Y18500D01*
X3288Y18411D01*
X3234Y18388D01*
X3165Y18335D01*
X3112Y18266D01*
X3078Y18186D01*
X3067Y18100D01*
X3078Y18014D01*
X3096Y17972D01*
X3045Y17862D01*
X3008Y17822D01*
X2278D01*
X2231Y17813D01*
X2191Y17787D01*
X2165Y17747D01*
X2155Y17700D01*
Y12828D01*
X1481Y12154D01*
X1440Y12146D01*
X1388Y12112D01*
X1354Y12060D01*
X1342Y12000D01*
X1354Y11940D01*
X1388Y11888D01*
X1440Y11854D01*
X1464Y11849D01*
X1515Y11747D01*
X1523Y11696D01*
X1161Y11334D01*
X1022Y11391D01*
Y14071D01*
X1089Y14112D01*
X1172Y14134D01*
X1223Y14094D01*
X1309Y14059D01*
X1350Y14054D01*
Y14400D01*
X1400D01*
Y14450D01*
X1746D01*
X1741Y14491D01*
X1706Y14577D01*
X1650Y14650D01*
X1577Y14706D01*
X1511Y14733D01*
X1500Y14800D01*
X1512Y14889D01*
X1566Y14912D01*
X1635Y14965D01*
X1688Y15034D01*
X1722Y15114D01*
X1733Y15200D01*
X1722Y15286D01*
X1688Y15366D01*
X1635Y15435D01*
X1566Y15488D01*
X1486Y15522D01*
X1400Y15533D01*
X1314Y15522D01*
X1234Y15488D01*
X1172Y15441D01*
X1137Y15447D01*
X1022Y15496D01*
Y18949D01*
X1170Y19097D01*
X1214Y19078D01*
X1300Y19067D01*
X1386Y19078D01*
X1466Y19112D01*
X1535Y19165D01*
X1588Y19234D01*
X1622Y19314D01*
X1633Y19400D01*
X1622Y19486D01*
X1595Y19550D01*
X1618Y19613D01*
X1675Y19700D01*
X5500D01*
Y18933D01*
D02*
G37*
G36*
X550Y19054D02*
X591Y19059D01*
X643Y19080D01*
X744Y19020D01*
X778Y18983D01*
Y15246D01*
X753Y15212D01*
X628Y15129D01*
X600Y15133D01*
X514Y15122D01*
X450Y15095D01*
X387Y15118D01*
X300Y15175D01*
Y18942D01*
X343Y18988D01*
X450Y19054D01*
Y19400D01*
X550D01*
Y19054D01*
D02*
G37*
G36*
X3542Y17300D02*
X3554Y17240D01*
X3567Y17219D01*
Y17100D01*
X3578Y17049D01*
X3606Y17006D01*
X4267Y16345D01*
Y13937D01*
X4278Y13887D01*
X4306Y13844D01*
X4785Y13365D01*
X4788Y13352D01*
X4745Y13193D01*
X4734Y13188D01*
X4665Y13135D01*
X4612Y13066D01*
X4578Y12986D01*
X4576Y12965D01*
X4424D01*
X4422Y12986D01*
X4388Y13066D01*
X4335Y13135D01*
X4266Y13188D01*
X4186Y13222D01*
X4100Y13233D01*
X4014Y13222D01*
X3934Y13188D01*
X3865Y13135D01*
X3812Y13066D01*
X3778Y12986D01*
X3776Y12965D01*
X3624D01*
X3622Y12986D01*
X3588Y13066D01*
X3535Y13135D01*
X3466Y13188D01*
X3386Y13222D01*
X3300Y13233D01*
X3214Y13222D01*
X3134Y13188D01*
X3065Y13135D01*
X3012Y13066D01*
X2978Y12986D01*
X2967Y12900D01*
X2978Y12814D01*
X3012Y12734D01*
X3035Y12618D01*
X2984Y12537D01*
X1451Y11004D01*
X1291Y11056D01*
X1282Y11109D01*
X2587Y12413D01*
X2613Y12453D01*
X2622Y12500D01*
Y15084D01*
X2700Y15222D01*
X2768Y15235D01*
X2826Y15274D01*
X2865Y15332D01*
X2868Y15350D01*
X2700D01*
Y15450D01*
X2868D01*
X2865Y15468D01*
X2826Y15526D01*
X2768Y15565D01*
X2700Y15578D01*
X2622Y15716D01*
Y17378D01*
X3404D01*
X3542Y17300D01*
D02*
G37*
G36*
X3341Y11429D02*
X3006Y11094D01*
X2978Y11051D01*
X2967Y11000D01*
Y9585D01*
X2865Y9542D01*
X2817Y9532D01*
X2768Y9565D01*
X2750Y9568D01*
Y9400D01*
Y9232D01*
X2768Y9235D01*
X2817Y9268D01*
X2865Y9258D01*
X2967Y9215D01*
Y8655D01*
X2586Y8274D01*
X2558Y8231D01*
X2547Y8180D01*
Y7220D01*
X2558Y7169D01*
X2586Y7126D01*
X2906Y6806D01*
X2949Y6778D01*
X3000Y6767D01*
X3600D01*
X3651Y6778D01*
X3694Y6806D01*
X4000Y7113D01*
X4349Y6763D01*
X4354Y6740D01*
X4384Y6694D01*
X4378Y6668D01*
X4319Y6554D01*
X4300Y6558D01*
X4240Y6546D01*
X4188Y6512D01*
X4154Y6460D01*
X4149Y6437D01*
X4045Y6333D01*
X3281D01*
X3260Y6346D01*
X3200Y6358D01*
X3140Y6346D01*
X3088Y6312D01*
X3054Y6260D01*
X3042Y6200D01*
X3054Y6140D01*
X3088Y6088D01*
X3140Y6054D01*
X3200Y6042D01*
X3260Y6054D01*
X3281Y6067D01*
X4096D01*
X4105Y6058D01*
X4169Y5928D01*
X3624Y5384D01*
X1975D01*
X1935Y5435D01*
X1866Y5488D01*
X1812Y5511D01*
X1800Y5600D01*
X1811Y5667D01*
X1877Y5694D01*
X1950Y5750D01*
X2006Y5823D01*
X2041Y5909D01*
X2046Y5950D01*
X1700D01*
Y6050D01*
X2046D01*
X2041Y6091D01*
X2006Y6177D01*
X1950Y6250D01*
X1877Y6306D01*
X1841Y6320D01*
Y6480D01*
X1877Y6494D01*
X1950Y6550D01*
X2006Y6623D01*
X2041Y6709D01*
X2046Y6750D01*
X1700D01*
Y6850D01*
X2046D01*
X2046Y6855D01*
X2151Y6925D01*
X2180Y6933D01*
X2367Y6745D01*
Y5881D01*
X2354Y5860D01*
X2342Y5800D01*
X2354Y5740D01*
X2388Y5688D01*
X2440Y5654D01*
X2500Y5642D01*
X2560Y5654D01*
X2612Y5688D01*
X2646Y5740D01*
X2658Y5800D01*
X2646Y5860D01*
X2633Y5881D01*
Y6800D01*
X2622Y6851D01*
X2594Y6894D01*
X1813Y7675D01*
Y9853D01*
X1955Y9920D01*
X2051Y9857D01*
X2054Y9840D01*
X2088Y9788D01*
X2140Y9754D01*
X2200Y9742D01*
X2260Y9754D01*
X2312Y9788D01*
X2346Y9840D01*
X2358Y9900D01*
X2346Y9960D01*
X2312Y10012D01*
X2260Y10046D01*
X2219Y10054D01*
X2122Y10151D01*
Y10604D01*
X2146Y10640D01*
X2158Y10700D01*
X2146Y10760D01*
X2112Y10812D01*
X2115Y10976D01*
X2706Y11567D01*
X3284D01*
X3341Y11429D01*
D02*
G37*
G36*
X5443Y11804D02*
X5500Y11768D01*
Y300D01*
X3958D01*
X3946Y360D01*
X3933Y381D01*
Y2121D01*
X3958Y2150D01*
X4050Y2205D01*
Y2400D01*
Y2595D01*
X3958Y2650D01*
X3933Y2679D01*
Y2996D01*
X3977Y3028D01*
X4038Y3041D01*
X4099Y3041D01*
X4576Y2565D01*
X4567Y2500D01*
X4578Y2414D01*
X4612Y2334D01*
X4665Y2265D01*
X4734Y2212D01*
X4814Y2178D01*
X4900Y2167D01*
X4986Y2178D01*
X5066Y2212D01*
X5135Y2265D01*
X5188Y2334D01*
X5222Y2414D01*
X5233Y2500D01*
X5222Y2586D01*
X5188Y2666D01*
X5135Y2735D01*
X5066Y2788D01*
X4986Y2822D01*
X4965Y2824D01*
Y2976D01*
X4986Y2978D01*
X5066Y3012D01*
X5135Y3065D01*
X5188Y3134D01*
X5222Y3214D01*
X5233Y3300D01*
X5222Y3386D01*
X5188Y3466D01*
X5135Y3535D01*
X5066Y3588D01*
X4986Y3622D01*
X4900Y3633D01*
X4814Y3622D01*
X4734Y3588D01*
X4665Y3535D01*
X4612Y3466D01*
X4578Y3386D01*
X4568Y3304D01*
X4555Y3295D01*
X4424Y3235D01*
X4086Y3573D01*
X4144Y3712D01*
X4195D01*
X4256Y3724D01*
X4307Y3758D01*
X5117Y4568D01*
X5151Y4619D01*
X5163Y4680D01*
Y4834D01*
X5168Y4835D01*
X5226Y4874D01*
X5265Y4932D01*
X5268Y4950D01*
X5100D01*
Y5000D01*
X5050D01*
Y5168D01*
X5032Y5165D01*
X4983Y5132D01*
X4935Y5142D01*
X4833Y5185D01*
Y5719D01*
X4846Y5740D01*
X4858Y5800D01*
X4846Y5860D01*
X4812Y5912D01*
X4833Y6073D01*
X4935Y6176D01*
X5000Y6167D01*
X5086Y6178D01*
X5166Y6212D01*
X5235Y6265D01*
X5288Y6334D01*
X5322Y6414D01*
X5333Y6500D01*
X5322Y6586D01*
X5288Y6666D01*
X5235Y6735D01*
X5166Y6788D01*
X5086Y6822D01*
X5065Y6824D01*
Y6976D01*
X5086Y6978D01*
X5166Y7012D01*
X5235Y7065D01*
X5288Y7134D01*
X5322Y7214D01*
X5333Y7300D01*
X5322Y7386D01*
X5288Y7466D01*
X5235Y7535D01*
X5166Y7588D01*
X5086Y7622D01*
X5000Y7633D01*
X4914Y7622D01*
X4834Y7588D01*
X4765Y7535D01*
X4712Y7466D01*
X4678Y7386D01*
X4667Y7300D01*
X4678Y7214D01*
X4712Y7134D01*
X4765Y7065D01*
X4834Y7012D01*
X4914Y6978D01*
X4935Y6976D01*
Y6824D01*
X4914Y6822D01*
X4834Y6788D01*
X4804Y6766D01*
X4734Y6782D01*
X4676Y6810D01*
X4652Y6830D01*
X4646Y6860D01*
X4612Y6912D01*
X4560Y6946D01*
X4537Y6951D01*
X4094Y7394D01*
X4051Y7422D01*
X4000Y7433D01*
X3949Y7422D01*
X3906Y7394D01*
X3545Y7033D01*
X3055D01*
X2813Y7275D01*
Y7486D01*
X2900Y7622D01*
X2968Y7635D01*
X3026Y7674D01*
X3065Y7732D01*
X3068Y7750D01*
X2900D01*
Y7850D01*
X3068D01*
X3065Y7868D01*
X3026Y7926D01*
X2968Y7965D01*
X2900Y7978D01*
X2813Y8114D01*
Y8125D01*
X3194Y8506D01*
X3222Y8549D01*
X3233Y8600D01*
Y10945D01*
X3675Y11387D01*
X4857D01*
X4908Y11398D01*
X4951Y11426D01*
X5350Y11825D01*
X5443Y11804D01*
D02*
G37*
%LPC*%
G36*
X3350Y19246D02*
X3309Y19241D01*
X3223Y19206D01*
X3150Y19150D01*
X3094Y19077D01*
X3059Y18991D01*
X3054Y18950D01*
X3350D01*
Y19246D01*
D02*
G37*
G36*
X1650Y18268D02*
Y18150D01*
X1768D01*
X1765Y18168D01*
X1726Y18226D01*
X1668Y18265D01*
X1650Y18268D01*
D02*
G37*
G36*
X1550D02*
X1532Y18265D01*
X1474Y18226D01*
X1435Y18168D01*
X1432Y18150D01*
X1550D01*
Y18268D01*
D02*
G37*
G36*
X1768Y18050D02*
X1650D01*
Y17932D01*
X1668Y17935D01*
X1726Y17974D01*
X1765Y18032D01*
X1768Y18050D01*
D02*
G37*
G36*
X1550D02*
X1432D01*
X1435Y18032D01*
X1474Y17974D01*
X1532Y17935D01*
X1550Y17932D01*
Y18050D01*
D02*
G37*
G36*
X1746Y14350D02*
X1450D01*
Y14054D01*
X1491Y14059D01*
X1577Y14094D01*
X1650Y14150D01*
X1706Y14223D01*
X1741Y14309D01*
X1746Y14350D01*
D02*
G37*
G36*
X3650Y15568D02*
Y15450D01*
X3768D01*
X3765Y15468D01*
X3726Y15526D01*
X3668Y15565D01*
X3650Y15568D01*
D02*
G37*
G36*
X3550D02*
X3532Y15565D01*
X3474Y15526D01*
X3435Y15468D01*
X3432Y15450D01*
X3550D01*
Y15568D01*
D02*
G37*
G36*
X3768Y15350D02*
X3650D01*
Y15232D01*
X3668Y15235D01*
X3726Y15274D01*
X3765Y15332D01*
X3768Y15350D01*
D02*
G37*
G36*
X3550D02*
X3432D01*
X3435Y15332D01*
X3474Y15274D01*
X3532Y15235D01*
X3550Y15232D01*
Y15350D01*
D02*
G37*
G36*
X2650Y9568D02*
X2632Y9565D01*
X2574Y9526D01*
X2535Y9468D01*
X2532Y9450D01*
X2650D01*
Y9568D01*
D02*
G37*
G36*
Y9350D02*
X2532D01*
X2535Y9332D01*
X2574Y9274D01*
X2632Y9235D01*
X2650Y9232D01*
Y9350D01*
D02*
G37*
G36*
X4950Y9268D02*
Y9150D01*
X5068D01*
X5065Y9168D01*
X5026Y9226D01*
X4968Y9265D01*
X4950Y9268D01*
D02*
G37*
G36*
X4850D02*
X4832Y9265D01*
X4774Y9226D01*
X4735Y9168D01*
X4732Y9150D01*
X4850D01*
Y9268D01*
D02*
G37*
G36*
X3850D02*
Y9150D01*
X3968D01*
X3965Y9168D01*
X3926Y9226D01*
X3868Y9265D01*
X3850Y9268D01*
D02*
G37*
G36*
X3750D02*
X3732Y9265D01*
X3674Y9226D01*
X3635Y9168D01*
X3632Y9150D01*
X3750D01*
Y9268D01*
D02*
G37*
G36*
X5068Y9050D02*
X4950D01*
Y8932D01*
X4968Y8935D01*
X5026Y8974D01*
X5065Y9032D01*
X5068Y9050D01*
D02*
G37*
G36*
X4850D02*
X4732D01*
X4735Y9032D01*
X4774Y8974D01*
X4832Y8935D01*
X4850Y8932D01*
Y9050D01*
D02*
G37*
G36*
X3968D02*
X3850D01*
Y8932D01*
X3868Y8935D01*
X3926Y8974D01*
X3965Y9032D01*
X3968Y9050D01*
D02*
G37*
G36*
X3750D02*
X3632D01*
X3635Y9032D01*
X3674Y8974D01*
X3732Y8935D01*
X3750Y8932D01*
Y9050D01*
D02*
G37*
G36*
X3650Y8068D02*
Y7950D01*
X3768D01*
X3765Y7968D01*
X3726Y8026D01*
X3668Y8065D01*
X3650Y8068D01*
D02*
G37*
G36*
X3550D02*
X3532Y8065D01*
X3474Y8026D01*
X3435Y7968D01*
X3432Y7950D01*
X3550D01*
Y8068D01*
D02*
G37*
G36*
X3768Y7850D02*
X3650D01*
Y7732D01*
X3668Y7735D01*
X3726Y7774D01*
X3765Y7832D01*
X3768Y7850D01*
D02*
G37*
G36*
X3550D02*
X3432D01*
X3435Y7832D01*
X3474Y7774D01*
X3532Y7735D01*
X3550Y7732D01*
Y7850D01*
D02*
G37*
G36*
X5150Y5168D02*
Y5050D01*
X5268D01*
X5265Y5068D01*
X5226Y5126D01*
X5168Y5165D01*
X5150Y5168D01*
D02*
G37*
G36*
X4150Y2568D02*
Y2450D01*
X4268D01*
X4265Y2468D01*
X4226Y2526D01*
X4168Y2565D01*
X4150Y2568D01*
D02*
G37*
G36*
X4268Y2350D02*
X4150D01*
Y2232D01*
X4168Y2235D01*
X4226Y2274D01*
X4265Y2332D01*
X4268Y2350D01*
D02*
G37*
G36*
X4650Y1568D02*
Y1450D01*
X4768D01*
X4765Y1468D01*
X4726Y1526D01*
X4668Y1565D01*
X4650Y1568D01*
D02*
G37*
G36*
X4550D02*
X4532Y1565D01*
X4474Y1526D01*
X4435Y1468D01*
X4432Y1450D01*
X4550D01*
Y1568D01*
D02*
G37*
G36*
X4768Y1350D02*
X4650D01*
Y1232D01*
X4668Y1235D01*
X4726Y1274D01*
X4765Y1332D01*
X4768Y1350D01*
D02*
G37*
G36*
X4550D02*
X4432D01*
X4435Y1332D01*
X4474Y1274D01*
X4532Y1235D01*
X4550Y1232D01*
Y1350D01*
D02*
G37*
%LPD*%
D14*
X1500Y12000D02*
X2278Y12778D01*
Y17700D02*
X3228D01*
X2278Y12778D02*
Y17700D01*
X2200Y2777D02*
Y3200D01*
X1853Y2430D02*
X2200Y2777D01*
X1330Y2430D02*
X1853D01*
X900Y2000D02*
X1330Y2430D01*
X2500Y17500D02*
X4400D01*
X2500Y12500D02*
Y17500D01*
X1100Y11100D02*
X2500Y12500D01*
X3228Y17700D02*
X3238Y17710D01*
X3810D01*
X4200Y18100D01*
X1100Y10000D02*
Y11100D01*
X900Y7352D02*
Y14458D01*
X990Y14548D01*
X2000Y10100D02*
X2200Y9900D01*
X2000Y10100D02*
Y10700D01*
X2200Y4400D02*
Y4500D01*
Y4400D02*
X2700Y3900D01*
X510Y4790D02*
X900Y4400D01*
X510Y4790D02*
Y6962D01*
X900Y7352D01*
X990Y14548D02*
Y14962D01*
X900Y15052D02*
X990Y14962D01*
X900Y15052D02*
Y19000D01*
X1300Y19400D01*
X4400Y17500D02*
X5000Y18100D01*
D15*
X1680Y10729D02*
X2651Y11700D01*
X500Y400D02*
X900D01*
X1700Y2000D02*
X1800D01*
X2300Y2500D01*
X3700Y17100D02*
Y17300D01*
Y17100D02*
X4400Y16400D01*
X1300Y3200D02*
Y9910D01*
X734Y3200D02*
X1300D01*
X1305Y9915D02*
Y10671D01*
X1300Y9910D02*
X1305Y9915D01*
X500Y2966D02*
X734Y3200D01*
X4400Y13937D02*
Y16400D01*
Y13937D02*
X5280Y13057D01*
X4700Y4900D02*
Y5800D01*
Y4900D02*
X4800Y4800D01*
X4000Y7300D02*
X4500Y6800D01*
X3600Y6900D02*
X4000Y7300D01*
X3000Y6900D02*
X3600D01*
X2680Y7220D02*
X3000Y6900D01*
X2680Y7220D02*
Y8180D01*
X3800Y300D02*
Y3100D01*
X1300Y1600D02*
X2200D01*
X900Y1200D02*
X1300Y1600D01*
X2600Y1300D02*
Y3100D01*
X1305Y10671D02*
X3134Y12500D01*
X1680Y10210D02*
Y10729D01*
Y7620D02*
Y10180D01*
Y7620D02*
X2500Y6800D01*
X2680Y8180D02*
X3100Y8600D01*
Y11000D01*
X3620Y11520D01*
X4857D01*
X5280Y11943D01*
Y13057D01*
X4100Y6200D02*
X4300Y6400D01*
X3200Y6200D02*
X4100D01*
Y4100D02*
X4800Y4800D01*
X3600Y4900D02*
X3700Y4800D01*
Y4200D02*
Y4800D01*
X2500Y4500D02*
X2900Y4100D01*
X2500Y5800D02*
Y6800D01*
X1700Y400D02*
X2600Y1300D01*
X2651Y11700D02*
X4266D01*
X4500Y11934D01*
Y12500D01*
X4900Y12900D01*
X3700Y12500D02*
X4100Y12900D01*
X3134Y12500D02*
X3700D01*
X500Y400D02*
Y2966D01*
D16*
X3700Y5200D02*
X5000Y6500D01*
X1700Y3600D02*
X3800D01*
X1700Y5200D02*
X3700D01*
X3800Y3600D02*
X4900Y2500D01*
D17*
X1700Y6800D02*
D03*
Y6000D02*
D03*
Y5200D02*
D03*
Y4400D02*
D03*
Y3600D02*
D03*
Y2800D02*
D03*
Y2000D02*
D03*
Y1200D02*
D03*
Y400D02*
D03*
X900D02*
D03*
Y1200D02*
D03*
Y2000D02*
D03*
Y2800D02*
D03*
Y3600D02*
D03*
Y4400D02*
D03*
Y5200D02*
D03*
Y6000D02*
D03*
Y6800D02*
D03*
X4900Y3300D02*
D03*
Y2500D02*
D03*
X5000Y18900D02*
D03*
Y18100D02*
D03*
X4200Y18900D02*
D03*
X3400D02*
D03*
Y18100D02*
D03*
X4200D02*
D03*
X4900Y12100D02*
D03*
X4100D02*
D03*
X3300D02*
D03*
X4100Y12900D02*
D03*
X3300D02*
D03*
X4900D02*
D03*
X600Y14800D02*
D03*
X1400Y15200D02*
D03*
Y14400D02*
D03*
X5000Y7300D02*
D03*
Y6500D02*
D03*
X500Y19400D02*
D03*
X1300D02*
D03*
D18*
X3700Y17300D02*
D03*
X2900Y4100D02*
D03*
X5100Y5000D02*
D03*
X4600Y1400D02*
D03*
X4100Y2400D02*
D03*
X2700Y15400D02*
D03*
X3600D02*
D03*
X1600Y18100D02*
D03*
X3600Y7900D02*
D03*
X2900Y7800D02*
D03*
X4900Y9100D02*
D03*
X3800D02*
D03*
X2700Y9400D02*
D03*
X4700Y5800D02*
D03*
X4500Y6800D02*
D03*
X3800Y3100D02*
D03*
Y300D02*
D03*
X2200Y1600D02*
D03*
Y3200D02*
D03*
X2600Y3100D02*
D03*
X1100Y10000D02*
D03*
X2200Y9900D02*
D03*
X2000Y10700D02*
D03*
X2200Y4500D02*
D03*
X2700Y3900D02*
D03*
X1500Y12000D02*
D03*
X4300Y6400D02*
D03*
X3200Y6200D02*
D03*
X4100Y4100D02*
D03*
X2300Y2500D02*
D03*
X3700Y4200D02*
D03*
X3600Y4900D02*
D03*
X2500Y5800D02*
D03*
Y4500D02*
D03*
D19*
X3470Y4030D02*
X3630Y3870D01*
X2870Y4855D02*
X3470Y4255D01*
X5005Y4905D02*
X5100Y5000D01*
X5005Y4680D02*
Y4905D01*
X4195Y3870D02*
X5005Y4680D01*
X3630Y3870D02*
X4195D01*
X3470Y4030D02*
Y4206D01*
X3445Y4231D02*
X3470Y4206D01*
X2100Y4855D02*
X2870D01*
X1970Y4725D02*
X2100Y4855D01*
X1970Y4405D02*
Y4725D01*
Y4405D02*
X1975Y4400D01*
X1700D02*
X1975D01*
M02*
