G04 (created by PCBNEW-RS274X (2011-05-25)-stable) date Tue 03 Jul 2012 06:38:09 AM EDT*
G01*
G70*
G90*
%MOIN*%
G04 Gerber Fmt 3.4, Leading zero omitted, Abs format*
%FSLAX34Y34*%
G04 APERTURE LIST*
%ADD10C,0.006000*%
%ADD11R,0.075000X0.075000*%
%ADD12C,0.075000*%
%ADD13C,0.266100*%
G04 APERTURE END LIST*
G54D10*
G54D11*
X65500Y-46000D03*
G54D12*
X65500Y-45000D03*
X65500Y-44000D03*
X65500Y-43000D03*
G54D11*
X76000Y-39500D03*
G54D12*
X75000Y-39500D03*
X74000Y-39500D03*
G54D11*
X66000Y-34500D03*
G54D12*
X67000Y-34500D03*
X68000Y-34500D03*
G54D11*
X66000Y-35500D03*
G54D12*
X67000Y-35500D03*
X68000Y-35500D03*
G54D11*
X66000Y-36500D03*
G54D12*
X67000Y-36500D03*
X68000Y-36500D03*
G54D11*
X66000Y-37500D03*
G54D12*
X67000Y-37500D03*
X68000Y-37500D03*
G54D11*
X66000Y-38500D03*
G54D12*
X67000Y-38500D03*
X68000Y-38500D03*
G54D11*
X66000Y-39500D03*
G54D12*
X67000Y-39500D03*
X68000Y-39500D03*
G54D11*
X66000Y-40500D03*
G54D12*
X67000Y-40500D03*
X68000Y-40500D03*
G54D11*
X66000Y-41500D03*
G54D12*
X67000Y-41500D03*
X68000Y-41500D03*
G54D11*
X76000Y-43500D03*
G54D12*
X75000Y-43500D03*
X74000Y-43500D03*
G54D11*
X76000Y-41500D03*
G54D12*
X75000Y-41500D03*
X74000Y-41500D03*
G54D11*
X76000Y-40500D03*
G54D12*
X75000Y-40500D03*
X74000Y-40500D03*
G54D11*
X76000Y-38500D03*
G54D12*
X75000Y-38500D03*
X74000Y-38500D03*
G54D11*
X76000Y-37500D03*
G54D12*
X75000Y-37500D03*
X74000Y-37500D03*
G54D11*
X76000Y-36500D03*
G54D12*
X75000Y-36500D03*
X74000Y-36500D03*
G54D11*
X76000Y-35500D03*
G54D12*
X75000Y-35500D03*
X74000Y-35500D03*
G54D11*
X76000Y-34500D03*
G54D12*
X75000Y-34500D03*
X74000Y-34500D03*
G54D11*
X76000Y-42500D03*
G54D12*
X75000Y-42500D03*
X74000Y-42500D03*
G54D11*
X74000Y-45500D03*
G54D12*
X75000Y-45500D03*
G54D11*
X74000Y-46500D03*
G54D12*
X75000Y-46500D03*
G54D11*
X74000Y-47500D03*
G54D12*
X75000Y-47500D03*
X67500Y-47500D03*
X67500Y-46500D03*
X76750Y-47500D03*
X75750Y-47500D03*
X68000Y-44000D03*
X68000Y-45000D03*
X72000Y-49500D03*
X73000Y-49500D03*
X76800Y-46400D03*
X75800Y-46400D03*
X69500Y-49500D03*
X70500Y-49500D03*
G54D13*
X66000Y-32500D03*
X76000Y-32500D03*
X66000Y-49500D03*
X76000Y-49500D03*
G54D12*
X69500Y-35500D03*
X69500Y-36500D03*
X69500Y-37500D03*
X69500Y-38500D03*
X69500Y-39500D03*
X69500Y-40500D03*
X69500Y-41500D03*
X69500Y-42500D03*
X69500Y-43500D03*
X69500Y-44500D03*
X69500Y-45500D03*
X69500Y-46500D03*
X69500Y-47500D03*
G54D11*
X69500Y-34500D03*
G54D12*
X72500Y-47500D03*
X72500Y-46500D03*
X72500Y-45500D03*
X72500Y-44500D03*
X72500Y-43500D03*
X72500Y-42500D03*
X72500Y-41500D03*
X72500Y-40500D03*
X72500Y-39500D03*
X72500Y-38500D03*
X72500Y-37500D03*
X72500Y-36500D03*
X72500Y-35500D03*
X72500Y-34500D03*
X71500Y-32000D03*
X70500Y-32000D03*
M02*
