G04 #@! TF.FileFunction,Profile,NP*
%FSLAX46Y46*%
G04 Gerber Fmt 4.6, Leading zero omitted, Abs format (unit mm)*
G04 Created by KiCad (PCBNEW (2015-01-02 BZR 5348)-product) date 1/14/2015 2:26:51 AM*
%MOMM*%
G01*
G04 APERTURE LIST*
%ADD10C,0.150000*%
%ADD11C,0.100000*%
G04 APERTURE END LIST*
D10*
D11*
X86000000Y-102000000D02*
G75*
G03X87000000Y-103000000I1000000J0D01*
G01*
X87000000Y-103000000D02*
X123000000Y-103000000D01*
X86000000Y-98000000D02*
X86000000Y-102000000D01*
X75000000Y-98000000D02*
X86000000Y-98000000D01*
X123000000Y-81000000D02*
X87000000Y-81000000D01*
X124000000Y-102000000D02*
X124000000Y-82000000D01*
X123000000Y-103000000D02*
G75*
G03X124000000Y-102000000I0J1000000D01*
G01*
X124000000Y-82000000D02*
G75*
G03X123000000Y-81000000I-1000000J0D01*
G01*
X87000000Y-81000000D02*
G75*
G03X86000000Y-82000000I0J-1000000D01*
G01*
X86000000Y-86000000D02*
X86000000Y-82000000D01*
X75000000Y-86000000D02*
X86000000Y-86000000D01*
X74000000Y-97000000D02*
X74000000Y-87000000D01*
X74000000Y-97000000D02*
G75*
G03X75000000Y-98000000I1000000J0D01*
G01*
X75000000Y-86000000D02*
G75*
G03X74000000Y-87000000I0J-1000000D01*
G01*
M02*
