G04 (created by PCBNEW-RS274X (2012-01-19 BZR 3256)-stable) date 10/25/2012 9:32:47 PM*
G01*
G70*
G90*
%MOIN*%
G04 Gerber Fmt 3.4, Leading zero omitted, Abs format*
%FSLAX34Y34*%
G04 APERTURE LIST*
%ADD10C,0.006000*%
%ADD11C,0.015000*%
%ADD12C,0.055000*%
%ADD13C,0.056000*%
%ADD14R,0.060000X0.060000*%
%ADD15C,0.060000*%
%ADD16C,0.177100*%
%ADD17C,0.160000*%
%ADD18C,0.035000*%
%ADD19C,0.008000*%
%ADD20C,0.010000*%
G04 APERTURE END LIST*
G54D10*
G54D11*
X40354Y-39370D02*
X40269Y-39374D01*
X40184Y-39385D01*
X40100Y-39404D01*
X40018Y-39430D01*
X39939Y-39463D01*
X39863Y-39502D01*
X39790Y-39548D01*
X39722Y-39601D01*
X39659Y-39659D01*
X39601Y-39722D01*
X39548Y-39790D01*
X39502Y-39863D01*
X39463Y-39939D01*
X39430Y-40018D01*
X39404Y-40100D01*
X39385Y-40184D01*
X39374Y-40269D01*
X39370Y-40354D01*
X59055Y-40354D02*
X59051Y-40269D01*
X59040Y-40184D01*
X59021Y-40100D01*
X58995Y-40018D01*
X58962Y-39939D01*
X58923Y-39863D01*
X58877Y-39790D01*
X58824Y-39722D01*
X58766Y-39659D01*
X58703Y-39601D01*
X58635Y-39548D01*
X58563Y-39502D01*
X58486Y-39463D01*
X58407Y-39430D01*
X58325Y-39404D01*
X58241Y-39385D01*
X58156Y-39374D01*
X58071Y-39370D01*
X39370Y-58071D02*
X39374Y-58156D01*
X39385Y-58241D01*
X39404Y-58325D01*
X39430Y-58407D01*
X39463Y-58486D01*
X39502Y-58562D01*
X39548Y-58635D01*
X39601Y-58703D01*
X39659Y-58766D01*
X39722Y-58824D01*
X39790Y-58877D01*
X39863Y-58923D01*
X39939Y-58962D01*
X40018Y-58995D01*
X40100Y-59021D01*
X40184Y-59040D01*
X40269Y-59051D01*
X40354Y-59055D01*
X58071Y-59055D02*
X58156Y-59051D01*
X58241Y-59040D01*
X58325Y-59021D01*
X58407Y-58995D01*
X58486Y-58962D01*
X58563Y-58923D01*
X58635Y-58877D01*
X58703Y-58824D01*
X58766Y-58766D01*
X58824Y-58703D01*
X58877Y-58635D01*
X58923Y-58562D01*
X58962Y-58486D01*
X58995Y-58407D01*
X59021Y-58325D01*
X59040Y-58241D01*
X59051Y-58156D01*
X59055Y-58071D01*
X39370Y-40354D02*
X39370Y-58071D01*
X40354Y-59055D02*
X58071Y-59055D01*
X59055Y-40354D02*
X59055Y-58071D01*
X40354Y-39370D02*
X58071Y-39370D01*
G54D12*
X56300Y-44500D03*
X58300Y-44500D03*
X56300Y-47500D03*
X58300Y-47500D03*
G54D13*
X57300Y-53100D03*
X57300Y-51100D03*
G54D14*
X56400Y-43100D03*
G54D15*
X56400Y-42100D03*
G54D16*
X43596Y-54997D03*
X45368Y-56178D03*
X43596Y-57406D03*
G54D17*
X40400Y-40400D03*
X58000Y-40400D03*
X40400Y-58000D03*
X58000Y-58000D03*
G54D15*
X43100Y-41500D03*
X43100Y-42500D03*
X43100Y-43500D03*
X43100Y-44500D03*
X43100Y-45500D03*
X45100Y-45500D03*
X45100Y-44500D03*
X45100Y-43500D03*
X45100Y-42500D03*
X45100Y-41500D03*
X46400Y-41500D03*
X46400Y-42500D03*
X46400Y-43500D03*
X46400Y-44500D03*
X46400Y-45500D03*
X48400Y-45500D03*
X48400Y-44500D03*
X48400Y-43500D03*
X48400Y-42500D03*
X48400Y-41500D03*
X49700Y-41500D03*
X49700Y-42500D03*
X49700Y-43500D03*
X49700Y-44500D03*
X49700Y-45500D03*
X51700Y-45500D03*
X51700Y-44500D03*
X51700Y-43500D03*
X51700Y-42500D03*
X51700Y-41500D03*
X53000Y-41500D03*
X53000Y-42500D03*
X53000Y-43500D03*
X53000Y-44500D03*
X53000Y-45500D03*
X55000Y-45500D03*
X55000Y-44500D03*
X55000Y-43500D03*
X55000Y-42500D03*
X55000Y-41500D03*
G54D14*
X45200Y-50100D03*
G54D15*
X46200Y-50100D03*
X45200Y-51100D03*
X46200Y-51100D03*
X45200Y-52100D03*
X46200Y-52100D03*
G54D18*
X45000Y-47300D03*
X56600Y-51300D03*
X56100Y-51300D03*
X48300Y-47300D03*
X54900Y-54500D03*
X44100Y-43600D03*
X55200Y-54900D03*
X55800Y-55700D03*
X55500Y-55300D03*
X43700Y-42600D03*
X53500Y-53600D03*
X55100Y-47800D03*
X55100Y-46600D03*
X56000Y-54200D03*
X55700Y-47800D03*
X52600Y-47300D03*
X52100Y-47600D03*
X51700Y-47300D03*
X53200Y-58500D03*
X44200Y-53300D03*
X48000Y-57700D03*
X44200Y-52300D03*
X53100Y-57200D03*
X52500Y-53700D03*
X57800Y-54100D03*
X55600Y-49600D03*
X41600Y-41800D03*
X49000Y-46800D03*
X49100Y-53400D03*
X50700Y-49700D03*
X40700Y-46100D03*
X42600Y-48600D03*
X53100Y-47900D03*
X56200Y-46700D03*
G54D19*
X44600Y-41800D02*
X44600Y-45000D01*
X44600Y-45000D02*
X45100Y-45500D01*
X44300Y-41500D02*
X44600Y-41800D01*
X43100Y-41500D02*
X44300Y-41500D01*
X48000Y-54900D02*
X54000Y-54900D01*
X56600Y-53100D02*
X56600Y-51300D01*
X54800Y-54100D02*
X55600Y-54100D01*
X54000Y-54900D02*
X54800Y-54100D01*
X47400Y-54300D02*
X48000Y-54900D01*
X55600Y-54100D02*
X56600Y-53100D01*
X45400Y-48500D02*
X47400Y-50500D01*
X45000Y-47300D02*
X45400Y-47700D01*
X45400Y-47700D02*
X45400Y-48500D01*
X47400Y-50500D02*
X47400Y-54300D01*
X47400Y-44500D02*
X48400Y-45500D01*
X46400Y-41500D02*
X47400Y-42500D01*
X47400Y-42500D02*
X47400Y-44500D01*
X48100Y-54718D02*
X53882Y-54718D01*
X47600Y-54218D02*
X48100Y-54718D01*
X56400Y-53018D02*
X56400Y-51600D01*
X48300Y-47300D02*
X47600Y-48000D01*
X47600Y-48000D02*
X47600Y-54218D01*
X56400Y-51600D02*
X56100Y-51300D01*
X53882Y-54718D02*
X54700Y-53900D01*
X55518Y-53900D02*
X56400Y-53018D01*
X54700Y-53900D02*
X55518Y-53900D01*
X49700Y-41500D02*
X50700Y-42500D01*
X50700Y-42500D02*
X50700Y-44500D01*
X50700Y-44500D02*
X51700Y-45500D01*
X54000Y-44500D02*
X55000Y-45500D01*
X54000Y-42500D02*
X54000Y-44500D01*
X53000Y-41500D02*
X54000Y-42500D01*
X47900Y-55100D02*
X54300Y-55100D01*
X47200Y-51300D02*
X47200Y-54400D01*
X45958Y-50600D02*
X46500Y-50600D01*
X47200Y-54400D02*
X47900Y-55100D01*
X45200Y-50100D02*
X45458Y-50100D01*
X54300Y-55100D02*
X54900Y-54500D01*
X46500Y-50600D02*
X47200Y-51300D01*
X45458Y-50100D02*
X45958Y-50600D01*
X47000Y-54500D02*
X47800Y-55300D01*
X44300Y-50600D02*
X45700Y-50600D01*
X45700Y-50600D02*
X46200Y-51100D01*
X46300Y-51100D02*
X47000Y-51800D01*
X46200Y-51100D02*
X46300Y-51100D01*
X47000Y-51800D02*
X47000Y-54500D01*
X54800Y-55300D02*
X55200Y-54900D01*
X47800Y-55300D02*
X54800Y-55300D01*
X44100Y-48600D02*
X44100Y-49900D01*
X44100Y-49900D02*
X44100Y-50400D01*
X44100Y-43600D02*
X44100Y-48600D01*
X44100Y-50400D02*
X44300Y-50600D01*
X47600Y-55700D02*
X55800Y-55700D01*
X45200Y-53300D02*
X47600Y-55700D01*
X45200Y-52100D02*
X45200Y-53300D01*
X43700Y-50600D02*
X44200Y-51100D01*
X55300Y-55500D02*
X55500Y-55300D01*
X47682Y-55500D02*
X55300Y-55500D01*
X45700Y-51600D02*
X45700Y-53518D01*
X45200Y-51100D02*
X45700Y-51600D01*
X45700Y-53518D02*
X47682Y-55500D01*
X44200Y-51100D02*
X45200Y-51100D01*
X43700Y-42600D02*
X43700Y-48400D01*
X43700Y-48400D02*
X43700Y-50600D01*
X55100Y-52000D02*
X55100Y-47800D01*
X53500Y-53600D02*
X55100Y-52000D01*
X55700Y-42200D02*
X55000Y-41500D01*
X55700Y-46000D02*
X55700Y-42200D01*
X55100Y-46600D02*
X55700Y-46000D01*
X55700Y-48700D02*
X55700Y-47800D01*
X57800Y-51500D02*
X57800Y-50800D01*
X56800Y-53400D02*
X56800Y-52500D01*
X56000Y-54200D02*
X56800Y-53400D01*
X56800Y-52500D02*
X57800Y-51500D01*
X57800Y-50800D02*
X55700Y-48700D01*
X52600Y-47300D02*
X52500Y-47200D01*
X52500Y-45000D02*
X53000Y-44500D01*
X52500Y-47200D02*
X52500Y-45000D01*
X52100Y-47600D02*
X52200Y-47500D01*
X52200Y-47500D02*
X52200Y-43300D01*
X52200Y-43300D02*
X53000Y-42500D01*
X50500Y-44300D02*
X49700Y-43500D01*
X51700Y-47300D02*
X51100Y-46700D01*
X51100Y-45200D02*
X50500Y-44600D01*
X50500Y-44600D02*
X50500Y-44300D01*
X51100Y-46700D02*
X51100Y-45200D01*
X44200Y-52300D02*
X44200Y-53300D01*
X53200Y-58500D02*
X53100Y-58600D01*
X53100Y-58600D02*
X48900Y-58600D01*
X48900Y-58600D02*
X48000Y-57700D01*
X41800Y-47800D02*
X42600Y-48600D01*
X41800Y-46500D02*
X41800Y-47800D01*
X41400Y-46100D02*
X41800Y-46500D01*
X40700Y-46100D02*
X41400Y-46100D01*
X53100Y-47900D02*
X54000Y-47000D01*
X54000Y-47000D02*
X55900Y-47000D01*
X55900Y-47000D02*
X56200Y-46700D01*
G54D10*
G36*
X46810Y-54359D02*
X46646Y-54195D01*
X46646Y-52156D01*
X46633Y-51980D01*
X46591Y-51877D01*
X46525Y-51846D01*
X46454Y-51917D01*
X46271Y-52100D01*
X46525Y-52354D01*
X46591Y-52323D01*
X46646Y-52156D01*
X46646Y-54195D01*
X46454Y-54003D01*
X45890Y-53439D01*
X45890Y-52436D01*
X45948Y-52494D01*
X45968Y-52473D01*
X45977Y-52491D01*
X46144Y-52546D01*
X46320Y-52533D01*
X46423Y-52491D01*
X46454Y-52425D01*
X46235Y-52206D01*
X46200Y-52171D01*
X46129Y-52100D01*
X46200Y-52029D01*
X46235Y-51994D01*
X46454Y-51775D01*
X46423Y-51709D01*
X46256Y-51654D01*
X46080Y-51667D01*
X45977Y-51709D01*
X45968Y-51726D01*
X45948Y-51706D01*
X45890Y-51764D01*
X45890Y-51600D01*
X45876Y-51527D01*
X45834Y-51466D01*
X45622Y-51254D01*
X45649Y-51190D01*
X45649Y-51011D01*
X45581Y-50846D01*
X45525Y-50790D01*
X45622Y-50790D01*
X45777Y-50945D01*
X45751Y-51010D01*
X45751Y-51189D01*
X45819Y-51354D01*
X45945Y-51480D01*
X46110Y-51549D01*
X46289Y-51549D01*
X46424Y-51493D01*
X46810Y-51878D01*
X46810Y-54359D01*
X46810Y-54359D01*
G37*
G54D20*
X46810Y-54359D02*
X46646Y-54195D01*
X46646Y-52156D01*
X46633Y-51980D01*
X46591Y-51877D01*
X46525Y-51846D01*
X46454Y-51917D01*
X46271Y-52100D01*
X46525Y-52354D01*
X46591Y-52323D01*
X46646Y-52156D01*
X46646Y-54195D01*
X46454Y-54003D01*
X45890Y-53439D01*
X45890Y-52436D01*
X45948Y-52494D01*
X45968Y-52473D01*
X45977Y-52491D01*
X46144Y-52546D01*
X46320Y-52533D01*
X46423Y-52491D01*
X46454Y-52425D01*
X46235Y-52206D01*
X46200Y-52171D01*
X46129Y-52100D01*
X46200Y-52029D01*
X46235Y-51994D01*
X46454Y-51775D01*
X46423Y-51709D01*
X46256Y-51654D01*
X46080Y-51667D01*
X45977Y-51709D01*
X45968Y-51726D01*
X45948Y-51706D01*
X45890Y-51764D01*
X45890Y-51600D01*
X45876Y-51527D01*
X45834Y-51466D01*
X45622Y-51254D01*
X45649Y-51190D01*
X45649Y-51011D01*
X45581Y-50846D01*
X45525Y-50790D01*
X45622Y-50790D01*
X45777Y-50945D01*
X45751Y-51010D01*
X45751Y-51189D01*
X45819Y-51354D01*
X45945Y-51480D01*
X46110Y-51549D01*
X46289Y-51549D01*
X46424Y-51493D01*
X46810Y-51878D01*
X46810Y-54359D01*
G54D10*
G36*
X58750Y-57179D02*
X58725Y-57203D01*
X58725Y-47585D01*
X58725Y-47416D01*
X58725Y-44585D01*
X58725Y-44416D01*
X58661Y-44260D01*
X58541Y-44140D01*
X58385Y-44075D01*
X58216Y-44075D01*
X58060Y-44139D01*
X57940Y-44259D01*
X57875Y-44415D01*
X57875Y-44584D01*
X57939Y-44740D01*
X58059Y-44860D01*
X58215Y-44925D01*
X58384Y-44925D01*
X58540Y-44861D01*
X58660Y-44741D01*
X58725Y-44585D01*
X58725Y-47416D01*
X58661Y-47260D01*
X58541Y-47140D01*
X58385Y-47075D01*
X58216Y-47075D01*
X58060Y-47139D01*
X57940Y-47259D01*
X57875Y-47415D01*
X57875Y-47584D01*
X57939Y-47740D01*
X58059Y-47860D01*
X58215Y-47925D01*
X58384Y-47925D01*
X58540Y-47861D01*
X58660Y-47741D01*
X58725Y-47585D01*
X58725Y-57203D01*
X58636Y-57292D01*
X58539Y-57195D01*
X58190Y-57050D01*
X57990Y-57050D01*
X57990Y-51500D01*
X57990Y-50800D01*
X57989Y-50799D01*
X57976Y-50727D01*
X57950Y-50690D01*
X57934Y-50666D01*
X57934Y-50665D01*
X56849Y-49580D01*
X56849Y-43429D01*
X56849Y-43370D01*
X56849Y-42770D01*
X56846Y-42762D01*
X56846Y-42156D01*
X56833Y-41980D01*
X56791Y-41877D01*
X56725Y-41846D01*
X56654Y-41917D01*
X56654Y-41775D01*
X56623Y-41709D01*
X56456Y-41654D01*
X56280Y-41667D01*
X56177Y-41709D01*
X56146Y-41775D01*
X56400Y-42029D01*
X56654Y-41775D01*
X56654Y-41917D01*
X56471Y-42100D01*
X56725Y-42354D01*
X56791Y-42323D01*
X56846Y-42156D01*
X56846Y-42762D01*
X56826Y-42715D01*
X56784Y-42673D01*
X56729Y-42651D01*
X56670Y-42651D01*
X56654Y-42651D01*
X56654Y-42425D01*
X56400Y-42171D01*
X56329Y-42242D01*
X56329Y-42100D01*
X56075Y-41846D01*
X56009Y-41877D01*
X55954Y-42044D01*
X55967Y-42220D01*
X56009Y-42323D01*
X56075Y-42354D01*
X56329Y-42100D01*
X56329Y-42242D01*
X56146Y-42425D01*
X56177Y-42491D01*
X56344Y-42546D01*
X56520Y-42533D01*
X56623Y-42491D01*
X56654Y-42425D01*
X56654Y-42651D01*
X56070Y-42651D01*
X56015Y-42674D01*
X55973Y-42716D01*
X55951Y-42771D01*
X55951Y-42830D01*
X55951Y-43430D01*
X55974Y-43485D01*
X56016Y-43527D01*
X56071Y-43549D01*
X56130Y-43549D01*
X56730Y-43549D01*
X56785Y-43526D01*
X56827Y-43484D01*
X56849Y-43429D01*
X56849Y-49580D01*
X56722Y-49453D01*
X56722Y-47550D01*
X56722Y-44550D01*
X56709Y-44385D01*
X56671Y-44292D01*
X56607Y-44264D01*
X56536Y-44335D01*
X56536Y-44193D01*
X56508Y-44129D01*
X56350Y-44078D01*
X56185Y-44091D01*
X56092Y-44129D01*
X56064Y-44193D01*
X56300Y-44429D01*
X56536Y-44193D01*
X56536Y-44335D01*
X56371Y-44500D01*
X56607Y-44736D01*
X56671Y-44708D01*
X56722Y-44550D01*
X56722Y-47550D01*
X56709Y-47385D01*
X56671Y-47292D01*
X56607Y-47264D01*
X56536Y-47335D01*
X56536Y-47193D01*
X56536Y-44807D01*
X56300Y-44571D01*
X56064Y-44807D01*
X56092Y-44871D01*
X56250Y-44922D01*
X56415Y-44909D01*
X56508Y-44871D01*
X56536Y-44807D01*
X56536Y-47193D01*
X56525Y-47167D01*
X56525Y-46765D01*
X56525Y-46636D01*
X56476Y-46516D01*
X56385Y-46425D01*
X56265Y-46375D01*
X56136Y-46375D01*
X56016Y-46424D01*
X55925Y-46515D01*
X55875Y-46635D01*
X55875Y-46756D01*
X55821Y-46810D01*
X55350Y-46810D01*
X55375Y-46785D01*
X55425Y-46665D01*
X55425Y-46543D01*
X55834Y-46135D01*
X55834Y-46134D01*
X55876Y-46073D01*
X55889Y-46000D01*
X55890Y-46000D01*
X55890Y-44602D01*
X55891Y-44615D01*
X55929Y-44708D01*
X55993Y-44736D01*
X56229Y-44500D01*
X55993Y-44264D01*
X55929Y-44292D01*
X55890Y-44412D01*
X55890Y-42200D01*
X55889Y-42199D01*
X55876Y-42127D01*
X55875Y-42126D01*
X55862Y-42107D01*
X55834Y-42066D01*
X55834Y-42065D01*
X55422Y-41653D01*
X55449Y-41590D01*
X55449Y-41411D01*
X55381Y-41246D01*
X55255Y-41120D01*
X55090Y-41051D01*
X54911Y-41051D01*
X54746Y-41119D01*
X54620Y-41245D01*
X54551Y-41410D01*
X54551Y-41589D01*
X54619Y-41754D01*
X54745Y-41880D01*
X54910Y-41949D01*
X55089Y-41949D01*
X55153Y-41922D01*
X55510Y-42278D01*
X55510Y-45921D01*
X55449Y-45982D01*
X55449Y-45590D01*
X55449Y-45411D01*
X55449Y-44590D01*
X55449Y-44411D01*
X55449Y-43590D01*
X55449Y-43411D01*
X55449Y-42590D01*
X55449Y-42411D01*
X55381Y-42246D01*
X55255Y-42120D01*
X55090Y-42051D01*
X54911Y-42051D01*
X54746Y-42119D01*
X54620Y-42245D01*
X54551Y-42410D01*
X54551Y-42589D01*
X54619Y-42754D01*
X54745Y-42880D01*
X54910Y-42949D01*
X55089Y-42949D01*
X55254Y-42881D01*
X55380Y-42755D01*
X55449Y-42590D01*
X55449Y-43411D01*
X55381Y-43246D01*
X55255Y-43120D01*
X55090Y-43051D01*
X54911Y-43051D01*
X54746Y-43119D01*
X54620Y-43245D01*
X54551Y-43410D01*
X54551Y-43589D01*
X54619Y-43754D01*
X54745Y-43880D01*
X54910Y-43949D01*
X55089Y-43949D01*
X55254Y-43881D01*
X55380Y-43755D01*
X55449Y-43590D01*
X55449Y-44411D01*
X55381Y-44246D01*
X55255Y-44120D01*
X55090Y-44051D01*
X54911Y-44051D01*
X54746Y-44119D01*
X54620Y-44245D01*
X54551Y-44410D01*
X54551Y-44589D01*
X54619Y-44754D01*
X54745Y-44880D01*
X54910Y-44949D01*
X55089Y-44949D01*
X55254Y-44881D01*
X55380Y-44755D01*
X55449Y-44590D01*
X55449Y-45411D01*
X55381Y-45246D01*
X55255Y-45120D01*
X55090Y-45051D01*
X54911Y-45051D01*
X54846Y-45077D01*
X54190Y-44421D01*
X54190Y-42500D01*
X54176Y-42427D01*
X54134Y-42366D01*
X54134Y-42365D01*
X53422Y-41653D01*
X53449Y-41590D01*
X53449Y-41411D01*
X53381Y-41246D01*
X53255Y-41120D01*
X53090Y-41051D01*
X52911Y-41051D01*
X52746Y-41119D01*
X52620Y-41245D01*
X52551Y-41410D01*
X52551Y-41589D01*
X52619Y-41754D01*
X52745Y-41880D01*
X52910Y-41949D01*
X53089Y-41949D01*
X53153Y-41922D01*
X53810Y-42578D01*
X53810Y-44500D01*
X53824Y-44573D01*
X53866Y-44634D01*
X54577Y-45346D01*
X54551Y-45410D01*
X54551Y-45589D01*
X54619Y-45754D01*
X54745Y-45880D01*
X54910Y-45949D01*
X55089Y-45949D01*
X55254Y-45881D01*
X55380Y-45755D01*
X55449Y-45590D01*
X55449Y-45982D01*
X55156Y-46275D01*
X55036Y-46275D01*
X54916Y-46324D01*
X54825Y-46415D01*
X54775Y-46535D01*
X54775Y-46664D01*
X54824Y-46784D01*
X54850Y-46810D01*
X54000Y-46810D01*
X53927Y-46824D01*
X53865Y-46866D01*
X53449Y-47282D01*
X53449Y-45590D01*
X53449Y-45411D01*
X53381Y-45246D01*
X53255Y-45120D01*
X53090Y-45051D01*
X52911Y-45051D01*
X52746Y-45119D01*
X52690Y-45175D01*
X52690Y-45078D01*
X52845Y-44922D01*
X52910Y-44949D01*
X53089Y-44949D01*
X53254Y-44881D01*
X53380Y-44755D01*
X53449Y-44590D01*
X53449Y-44411D01*
X53449Y-43590D01*
X53449Y-43411D01*
X53381Y-43246D01*
X53255Y-43120D01*
X53090Y-43051D01*
X52911Y-43051D01*
X52746Y-43119D01*
X52620Y-43245D01*
X52551Y-43410D01*
X52551Y-43589D01*
X52619Y-43754D01*
X52745Y-43880D01*
X52910Y-43949D01*
X53089Y-43949D01*
X53254Y-43881D01*
X53380Y-43755D01*
X53449Y-43590D01*
X53449Y-44411D01*
X53381Y-44246D01*
X53255Y-44120D01*
X53090Y-44051D01*
X52911Y-44051D01*
X52746Y-44119D01*
X52620Y-44245D01*
X52551Y-44410D01*
X52551Y-44589D01*
X52577Y-44654D01*
X52390Y-44842D01*
X52390Y-43378D01*
X52846Y-42922D01*
X52910Y-42949D01*
X53089Y-42949D01*
X53254Y-42881D01*
X53380Y-42755D01*
X53449Y-42590D01*
X53449Y-42411D01*
X53381Y-42246D01*
X53255Y-42120D01*
X53090Y-42051D01*
X52911Y-42051D01*
X52746Y-42119D01*
X52620Y-42245D01*
X52551Y-42410D01*
X52551Y-42589D01*
X52577Y-42653D01*
X52149Y-43082D01*
X52149Y-42590D01*
X52149Y-42411D01*
X52149Y-41590D01*
X52149Y-41411D01*
X52081Y-41246D01*
X51955Y-41120D01*
X51790Y-41051D01*
X51611Y-41051D01*
X51446Y-41119D01*
X51320Y-41245D01*
X51251Y-41410D01*
X51251Y-41589D01*
X51319Y-41754D01*
X51445Y-41880D01*
X51610Y-41949D01*
X51789Y-41949D01*
X51954Y-41881D01*
X52080Y-41755D01*
X52149Y-41590D01*
X52149Y-42411D01*
X52081Y-42246D01*
X51955Y-42120D01*
X51790Y-42051D01*
X51611Y-42051D01*
X51446Y-42119D01*
X51320Y-42245D01*
X51251Y-42410D01*
X51251Y-42589D01*
X51319Y-42754D01*
X51445Y-42880D01*
X51610Y-42949D01*
X51789Y-42949D01*
X51954Y-42881D01*
X52080Y-42755D01*
X52149Y-42590D01*
X52149Y-43082D01*
X52066Y-43166D01*
X52039Y-43204D01*
X51955Y-43120D01*
X51790Y-43051D01*
X51611Y-43051D01*
X51446Y-43119D01*
X51320Y-43245D01*
X51251Y-43410D01*
X51251Y-43589D01*
X51319Y-43754D01*
X51445Y-43880D01*
X51610Y-43949D01*
X51789Y-43949D01*
X51954Y-43881D01*
X52010Y-43825D01*
X52010Y-44175D01*
X51955Y-44120D01*
X51790Y-44051D01*
X51611Y-44051D01*
X51446Y-44119D01*
X51320Y-44245D01*
X51251Y-44410D01*
X51251Y-44589D01*
X51319Y-44754D01*
X51445Y-44880D01*
X51610Y-44949D01*
X51789Y-44949D01*
X51954Y-44881D01*
X52010Y-44825D01*
X52010Y-45175D01*
X51955Y-45120D01*
X51790Y-45051D01*
X51611Y-45051D01*
X51546Y-45077D01*
X50890Y-44421D01*
X50890Y-42500D01*
X50876Y-42427D01*
X50834Y-42366D01*
X50834Y-42365D01*
X50122Y-41653D01*
X50149Y-41590D01*
X50149Y-41411D01*
X50081Y-41246D01*
X49955Y-41120D01*
X49790Y-41051D01*
X49611Y-41051D01*
X49446Y-41119D01*
X49320Y-41245D01*
X49251Y-41410D01*
X49251Y-41589D01*
X49319Y-41754D01*
X49445Y-41880D01*
X49610Y-41949D01*
X49789Y-41949D01*
X49853Y-41922D01*
X50510Y-42578D01*
X50510Y-44041D01*
X50122Y-43653D01*
X50149Y-43590D01*
X50149Y-43411D01*
X50149Y-42590D01*
X50149Y-42411D01*
X50081Y-42246D01*
X49955Y-42120D01*
X49790Y-42051D01*
X49611Y-42051D01*
X49446Y-42119D01*
X49320Y-42245D01*
X49251Y-42410D01*
X49251Y-42589D01*
X49319Y-42754D01*
X49445Y-42880D01*
X49610Y-42949D01*
X49789Y-42949D01*
X49954Y-42881D01*
X50080Y-42755D01*
X50149Y-42590D01*
X50149Y-43411D01*
X50081Y-43246D01*
X49955Y-43120D01*
X49790Y-43051D01*
X49611Y-43051D01*
X49446Y-43119D01*
X49320Y-43245D01*
X49251Y-43410D01*
X49251Y-43589D01*
X49319Y-43754D01*
X49445Y-43880D01*
X49610Y-43949D01*
X49789Y-43949D01*
X49853Y-43922D01*
X50310Y-44378D01*
X50310Y-44600D01*
X50324Y-44673D01*
X50366Y-44734D01*
X50910Y-45278D01*
X50910Y-46700D01*
X50924Y-46773D01*
X50966Y-46834D01*
X51375Y-47243D01*
X51375Y-47364D01*
X51424Y-47484D01*
X51515Y-47575D01*
X51635Y-47625D01*
X51764Y-47625D01*
X51775Y-47620D01*
X51775Y-47664D01*
X51824Y-47784D01*
X51915Y-47875D01*
X52035Y-47925D01*
X52164Y-47925D01*
X52284Y-47876D01*
X52375Y-47785D01*
X52425Y-47665D01*
X52425Y-47579D01*
X52535Y-47625D01*
X52664Y-47625D01*
X52784Y-47576D01*
X52875Y-47485D01*
X52925Y-47365D01*
X52925Y-47236D01*
X52876Y-47116D01*
X52785Y-47025D01*
X52690Y-46985D01*
X52690Y-45825D01*
X52745Y-45880D01*
X52910Y-45949D01*
X53089Y-45949D01*
X53254Y-45881D01*
X53380Y-45755D01*
X53449Y-45590D01*
X53449Y-47282D01*
X53156Y-47575D01*
X53036Y-47575D01*
X52916Y-47624D01*
X52825Y-47715D01*
X52775Y-47835D01*
X52775Y-47964D01*
X52824Y-48084D01*
X52915Y-48175D01*
X53035Y-48225D01*
X53164Y-48225D01*
X53284Y-48176D01*
X53375Y-48085D01*
X53425Y-47965D01*
X53425Y-47843D01*
X54078Y-47190D01*
X55900Y-47190D01*
X55973Y-47176D01*
X56034Y-47134D01*
X56143Y-47025D01*
X56264Y-47025D01*
X56384Y-46976D01*
X56475Y-46885D01*
X56525Y-46765D01*
X56525Y-47167D01*
X56508Y-47129D01*
X56350Y-47078D01*
X56185Y-47091D01*
X56092Y-47129D01*
X56064Y-47193D01*
X56300Y-47429D01*
X56536Y-47193D01*
X56536Y-47335D01*
X56371Y-47500D01*
X56607Y-47736D01*
X56671Y-47708D01*
X56722Y-47550D01*
X56722Y-49453D01*
X56536Y-49267D01*
X55890Y-48621D01*
X55890Y-48070D01*
X55975Y-47985D01*
X56025Y-47865D01*
X56025Y-47836D01*
X56065Y-47876D01*
X56085Y-47855D01*
X56092Y-47871D01*
X56250Y-47922D01*
X56415Y-47909D01*
X56508Y-47871D01*
X56536Y-47807D01*
X56335Y-47606D01*
X56300Y-47571D01*
X56229Y-47500D01*
X56194Y-47465D01*
X55993Y-47264D01*
X55929Y-47292D01*
X55878Y-47450D01*
X55883Y-47524D01*
X55765Y-47475D01*
X55636Y-47475D01*
X55516Y-47524D01*
X55425Y-47615D01*
X55400Y-47674D01*
X55376Y-47616D01*
X55285Y-47525D01*
X55165Y-47475D01*
X55036Y-47475D01*
X54916Y-47524D01*
X54825Y-47615D01*
X54775Y-47735D01*
X54775Y-47864D01*
X54824Y-47984D01*
X54910Y-48070D01*
X54910Y-51921D01*
X53556Y-53275D01*
X53436Y-53275D01*
X53316Y-53324D01*
X53225Y-53415D01*
X53175Y-53535D01*
X53175Y-53664D01*
X53224Y-53784D01*
X53315Y-53875D01*
X53435Y-53925D01*
X53564Y-53925D01*
X53684Y-53876D01*
X53775Y-53785D01*
X53825Y-53665D01*
X53825Y-53543D01*
X55234Y-52135D01*
X55234Y-52134D01*
X55276Y-52073D01*
X55289Y-52001D01*
X55290Y-52000D01*
X55290Y-48070D01*
X55375Y-47985D01*
X55399Y-47925D01*
X55424Y-47984D01*
X55510Y-48070D01*
X55510Y-48700D01*
X55524Y-48773D01*
X55566Y-48834D01*
X57411Y-50680D01*
X57386Y-50670D01*
X57215Y-50670D01*
X57057Y-50735D01*
X56936Y-50856D01*
X56870Y-51014D01*
X56870Y-51110D01*
X56785Y-51025D01*
X56665Y-50975D01*
X56536Y-50975D01*
X56416Y-51024D01*
X56350Y-51090D01*
X56285Y-51025D01*
X56165Y-50975D01*
X56036Y-50975D01*
X55916Y-51024D01*
X55825Y-51115D01*
X55775Y-51235D01*
X55775Y-51364D01*
X55824Y-51484D01*
X55915Y-51575D01*
X56035Y-51625D01*
X56156Y-51625D01*
X56210Y-51678D01*
X56210Y-52939D01*
X55439Y-53710D01*
X54700Y-53710D01*
X54627Y-53724D01*
X54590Y-53749D01*
X54565Y-53766D01*
X53803Y-54528D01*
X50149Y-54528D01*
X50149Y-45590D01*
X50149Y-45411D01*
X50149Y-44590D01*
X50149Y-44411D01*
X50081Y-44246D01*
X49955Y-44120D01*
X49790Y-44051D01*
X49611Y-44051D01*
X49446Y-44119D01*
X49320Y-44245D01*
X49251Y-44410D01*
X49251Y-44589D01*
X49319Y-44754D01*
X49445Y-44880D01*
X49610Y-44949D01*
X49789Y-44949D01*
X49954Y-44881D01*
X50080Y-44755D01*
X50149Y-44590D01*
X50149Y-45411D01*
X50081Y-45246D01*
X49955Y-45120D01*
X49790Y-45051D01*
X49611Y-45051D01*
X49446Y-45119D01*
X49320Y-45245D01*
X49251Y-45410D01*
X49251Y-45589D01*
X49319Y-45754D01*
X49445Y-45880D01*
X49610Y-45949D01*
X49789Y-45949D01*
X49954Y-45881D01*
X50080Y-45755D01*
X50149Y-45590D01*
X50149Y-54528D01*
X48849Y-54528D01*
X48849Y-45590D01*
X48849Y-45411D01*
X48849Y-44590D01*
X48849Y-44411D01*
X48849Y-43590D01*
X48849Y-43411D01*
X48849Y-42590D01*
X48849Y-42411D01*
X48849Y-41590D01*
X48849Y-41411D01*
X48781Y-41246D01*
X48655Y-41120D01*
X48490Y-41051D01*
X48311Y-41051D01*
X48146Y-41119D01*
X48020Y-41245D01*
X47951Y-41410D01*
X47951Y-41589D01*
X48019Y-41754D01*
X48145Y-41880D01*
X48310Y-41949D01*
X48489Y-41949D01*
X48654Y-41881D01*
X48780Y-41755D01*
X48849Y-41590D01*
X48849Y-42411D01*
X48781Y-42246D01*
X48655Y-42120D01*
X48490Y-42051D01*
X48311Y-42051D01*
X48146Y-42119D01*
X48020Y-42245D01*
X47951Y-42410D01*
X47951Y-42589D01*
X48019Y-42754D01*
X48145Y-42880D01*
X48310Y-42949D01*
X48489Y-42949D01*
X48654Y-42881D01*
X48780Y-42755D01*
X48849Y-42590D01*
X48849Y-43411D01*
X48781Y-43246D01*
X48655Y-43120D01*
X48490Y-43051D01*
X48311Y-43051D01*
X48146Y-43119D01*
X48020Y-43245D01*
X47951Y-43410D01*
X47951Y-43589D01*
X48019Y-43754D01*
X48145Y-43880D01*
X48310Y-43949D01*
X48489Y-43949D01*
X48654Y-43881D01*
X48780Y-43755D01*
X48849Y-43590D01*
X48849Y-44411D01*
X48781Y-44246D01*
X48655Y-44120D01*
X48490Y-44051D01*
X48311Y-44051D01*
X48146Y-44119D01*
X48020Y-44245D01*
X47951Y-44410D01*
X47951Y-44589D01*
X48019Y-44754D01*
X48145Y-44880D01*
X48310Y-44949D01*
X48489Y-44949D01*
X48654Y-44881D01*
X48780Y-44755D01*
X48849Y-44590D01*
X48849Y-45411D01*
X48781Y-45246D01*
X48655Y-45120D01*
X48490Y-45051D01*
X48311Y-45051D01*
X48246Y-45077D01*
X47590Y-44421D01*
X47590Y-42500D01*
X47576Y-42427D01*
X47534Y-42366D01*
X47534Y-42365D01*
X46822Y-41653D01*
X46849Y-41590D01*
X46849Y-41411D01*
X46781Y-41246D01*
X46655Y-41120D01*
X46490Y-41051D01*
X46311Y-41051D01*
X46146Y-41119D01*
X46020Y-41245D01*
X45951Y-41410D01*
X45951Y-41589D01*
X46019Y-41754D01*
X46145Y-41880D01*
X46310Y-41949D01*
X46489Y-41949D01*
X46553Y-41922D01*
X47210Y-42578D01*
X47210Y-44500D01*
X47224Y-44573D01*
X47266Y-44634D01*
X47977Y-45346D01*
X47951Y-45410D01*
X47951Y-45589D01*
X48019Y-45754D01*
X48145Y-45880D01*
X48310Y-45949D01*
X48489Y-45949D01*
X48654Y-45881D01*
X48780Y-45755D01*
X48849Y-45590D01*
X48849Y-54528D01*
X48178Y-54528D01*
X47790Y-54140D01*
X47790Y-48078D01*
X48243Y-47625D01*
X48364Y-47625D01*
X48484Y-47576D01*
X48575Y-47485D01*
X48625Y-47365D01*
X48625Y-47236D01*
X48576Y-47116D01*
X48485Y-47025D01*
X48365Y-46975D01*
X48236Y-46975D01*
X48116Y-47024D01*
X48025Y-47115D01*
X47975Y-47235D01*
X47975Y-47356D01*
X47466Y-47866D01*
X47424Y-47927D01*
X47410Y-48000D01*
X47410Y-50241D01*
X46849Y-49680D01*
X46849Y-45590D01*
X46849Y-45411D01*
X46849Y-44590D01*
X46849Y-44411D01*
X46849Y-43590D01*
X46849Y-43411D01*
X46849Y-42590D01*
X46849Y-42411D01*
X46781Y-42246D01*
X46655Y-42120D01*
X46490Y-42051D01*
X46311Y-42051D01*
X46146Y-42119D01*
X46020Y-42245D01*
X45951Y-42410D01*
X45951Y-42589D01*
X46019Y-42754D01*
X46145Y-42880D01*
X46310Y-42949D01*
X46489Y-42949D01*
X46654Y-42881D01*
X46780Y-42755D01*
X46849Y-42590D01*
X46849Y-43411D01*
X46781Y-43246D01*
X46655Y-43120D01*
X46490Y-43051D01*
X46311Y-43051D01*
X46146Y-43119D01*
X46020Y-43245D01*
X45951Y-43410D01*
X45951Y-43589D01*
X46019Y-43754D01*
X46145Y-43880D01*
X46310Y-43949D01*
X46489Y-43949D01*
X46654Y-43881D01*
X46780Y-43755D01*
X46849Y-43590D01*
X46849Y-44411D01*
X46781Y-44246D01*
X46655Y-44120D01*
X46490Y-44051D01*
X46311Y-44051D01*
X46146Y-44119D01*
X46020Y-44245D01*
X45951Y-44410D01*
X45951Y-44589D01*
X46019Y-44754D01*
X46145Y-44880D01*
X46310Y-44949D01*
X46489Y-44949D01*
X46654Y-44881D01*
X46780Y-44755D01*
X46849Y-44590D01*
X46849Y-45411D01*
X46781Y-45246D01*
X46655Y-45120D01*
X46490Y-45051D01*
X46311Y-45051D01*
X46146Y-45119D01*
X46020Y-45245D01*
X45951Y-45410D01*
X45951Y-45589D01*
X46019Y-45754D01*
X46145Y-45880D01*
X46310Y-45949D01*
X46489Y-45949D01*
X46654Y-45881D01*
X46780Y-45755D01*
X46849Y-45590D01*
X46849Y-49680D01*
X45590Y-48421D01*
X45590Y-47700D01*
X45576Y-47627D01*
X45534Y-47566D01*
X45534Y-47565D01*
X45325Y-47356D01*
X45325Y-47236D01*
X45276Y-47116D01*
X45185Y-47025D01*
X45065Y-46975D01*
X44936Y-46975D01*
X44816Y-47024D01*
X44725Y-47115D01*
X44675Y-47235D01*
X44675Y-47364D01*
X44724Y-47484D01*
X44815Y-47575D01*
X44935Y-47625D01*
X45056Y-47625D01*
X45210Y-47778D01*
X45210Y-48500D01*
X45224Y-48573D01*
X45266Y-48634D01*
X46282Y-49651D01*
X46111Y-49651D01*
X45946Y-49719D01*
X45820Y-49845D01*
X45751Y-50010D01*
X45751Y-50125D01*
X45649Y-50023D01*
X45649Y-49770D01*
X45626Y-49715D01*
X45584Y-49673D01*
X45529Y-49651D01*
X45470Y-49651D01*
X44870Y-49651D01*
X44815Y-49674D01*
X44773Y-49716D01*
X44751Y-49771D01*
X44751Y-49830D01*
X44751Y-50410D01*
X44378Y-50410D01*
X44290Y-50321D01*
X44290Y-49900D01*
X44290Y-48600D01*
X44290Y-43870D01*
X44375Y-43785D01*
X44410Y-43701D01*
X44410Y-45000D01*
X44424Y-45073D01*
X44466Y-45134D01*
X44677Y-45345D01*
X44651Y-45410D01*
X44651Y-45589D01*
X44719Y-45754D01*
X44845Y-45880D01*
X45010Y-45949D01*
X45189Y-45949D01*
X45354Y-45881D01*
X45480Y-45755D01*
X45549Y-45590D01*
X45549Y-45411D01*
X45481Y-45246D01*
X45355Y-45120D01*
X45190Y-45051D01*
X45011Y-45051D01*
X44945Y-45077D01*
X44790Y-44922D01*
X44790Y-44825D01*
X44845Y-44880D01*
X45010Y-44949D01*
X45189Y-44949D01*
X45354Y-44881D01*
X45480Y-44755D01*
X45549Y-44590D01*
X45549Y-44411D01*
X45481Y-44246D01*
X45355Y-44120D01*
X45190Y-44051D01*
X45011Y-44051D01*
X44846Y-44119D01*
X44790Y-44175D01*
X44790Y-43825D01*
X44845Y-43880D01*
X45010Y-43949D01*
X45189Y-43949D01*
X45354Y-43881D01*
X45480Y-43755D01*
X45549Y-43590D01*
X45549Y-43411D01*
X45481Y-43246D01*
X45355Y-43120D01*
X45190Y-43051D01*
X45011Y-43051D01*
X44846Y-43119D01*
X44790Y-43175D01*
X44790Y-42825D01*
X44845Y-42880D01*
X45010Y-42949D01*
X45189Y-42949D01*
X45354Y-42881D01*
X45480Y-42755D01*
X45549Y-42590D01*
X45549Y-42411D01*
X45481Y-42246D01*
X45355Y-42120D01*
X45190Y-42051D01*
X45011Y-42051D01*
X44846Y-42119D01*
X44790Y-42175D01*
X44790Y-41825D01*
X44845Y-41880D01*
X45010Y-41949D01*
X45189Y-41949D01*
X45354Y-41881D01*
X45480Y-41755D01*
X45549Y-41590D01*
X45549Y-41411D01*
X45481Y-41246D01*
X45355Y-41120D01*
X45190Y-41051D01*
X45011Y-41051D01*
X44846Y-41119D01*
X44720Y-41245D01*
X44651Y-41410D01*
X44651Y-41582D01*
X44434Y-41366D01*
X44373Y-41324D01*
X44300Y-41310D01*
X43507Y-41310D01*
X43481Y-41246D01*
X43355Y-41120D01*
X43190Y-41051D01*
X43011Y-41051D01*
X42846Y-41119D01*
X42720Y-41245D01*
X42651Y-41410D01*
X42651Y-41589D01*
X42719Y-41754D01*
X42845Y-41880D01*
X43010Y-41949D01*
X43189Y-41949D01*
X43354Y-41881D01*
X43480Y-41755D01*
X43507Y-41690D01*
X44221Y-41690D01*
X44410Y-41878D01*
X44410Y-43499D01*
X44376Y-43416D01*
X44285Y-43325D01*
X44165Y-43275D01*
X44036Y-43275D01*
X43916Y-43324D01*
X43890Y-43350D01*
X43890Y-42870D01*
X43975Y-42785D01*
X44025Y-42665D01*
X44025Y-42536D01*
X43976Y-42416D01*
X43885Y-42325D01*
X43765Y-42275D01*
X43636Y-42275D01*
X43516Y-42324D01*
X43513Y-42326D01*
X43481Y-42246D01*
X43355Y-42120D01*
X43190Y-42051D01*
X43011Y-42051D01*
X42846Y-42119D01*
X42720Y-42245D01*
X42651Y-42410D01*
X42651Y-42589D01*
X42719Y-42754D01*
X42845Y-42880D01*
X43010Y-42949D01*
X43189Y-42949D01*
X43354Y-42881D01*
X43437Y-42797D01*
X43510Y-42870D01*
X43510Y-43316D01*
X43481Y-43246D01*
X43355Y-43120D01*
X43190Y-43051D01*
X43011Y-43051D01*
X42846Y-43119D01*
X42720Y-43245D01*
X42651Y-43410D01*
X42651Y-43589D01*
X42719Y-43754D01*
X42845Y-43880D01*
X43010Y-43949D01*
X43189Y-43949D01*
X43354Y-43881D01*
X43480Y-43755D01*
X43510Y-43683D01*
X43510Y-44316D01*
X43481Y-44246D01*
X43355Y-44120D01*
X43190Y-44051D01*
X43011Y-44051D01*
X42846Y-44119D01*
X42720Y-44245D01*
X42651Y-44410D01*
X42651Y-44589D01*
X42719Y-44754D01*
X42845Y-44880D01*
X43010Y-44949D01*
X43189Y-44949D01*
X43354Y-44881D01*
X43480Y-44755D01*
X43510Y-44683D01*
X43510Y-45316D01*
X43481Y-45246D01*
X43355Y-45120D01*
X43190Y-45051D01*
X43011Y-45051D01*
X42846Y-45119D01*
X42720Y-45245D01*
X42651Y-45410D01*
X42651Y-45589D01*
X42719Y-45754D01*
X42845Y-45880D01*
X43010Y-45949D01*
X43189Y-45949D01*
X43354Y-45881D01*
X43480Y-45755D01*
X43510Y-45683D01*
X43510Y-48400D01*
X43510Y-50600D01*
X43524Y-50673D01*
X43566Y-50734D01*
X44066Y-51234D01*
X44127Y-51276D01*
X44200Y-51290D01*
X44792Y-51290D01*
X44819Y-51354D01*
X44945Y-51480D01*
X45110Y-51549D01*
X45289Y-51549D01*
X45354Y-51522D01*
X45510Y-51678D01*
X45510Y-51775D01*
X45455Y-51720D01*
X45290Y-51651D01*
X45111Y-51651D01*
X44946Y-51719D01*
X44820Y-51845D01*
X44751Y-52010D01*
X44751Y-52189D01*
X44819Y-52354D01*
X44945Y-52480D01*
X45010Y-52507D01*
X45010Y-53300D01*
X45024Y-53373D01*
X45066Y-53434D01*
X47466Y-55834D01*
X47527Y-55876D01*
X47600Y-55890D01*
X55530Y-55890D01*
X55615Y-55975D01*
X55735Y-56025D01*
X55864Y-56025D01*
X55984Y-55976D01*
X56075Y-55885D01*
X56125Y-55765D01*
X56125Y-55636D01*
X56076Y-55516D01*
X55985Y-55425D01*
X55865Y-55375D01*
X55820Y-55375D01*
X55825Y-55365D01*
X55825Y-55236D01*
X55776Y-55116D01*
X55685Y-55025D01*
X55565Y-54975D01*
X55520Y-54975D01*
X55525Y-54965D01*
X55525Y-54836D01*
X55476Y-54716D01*
X55385Y-54625D01*
X55265Y-54575D01*
X55220Y-54575D01*
X55225Y-54565D01*
X55225Y-54436D01*
X55176Y-54316D01*
X55150Y-54290D01*
X55600Y-54290D01*
X55673Y-54276D01*
X55678Y-54272D01*
X55724Y-54384D01*
X55815Y-54475D01*
X55935Y-54525D01*
X56064Y-54525D01*
X56184Y-54476D01*
X56275Y-54385D01*
X56325Y-54265D01*
X56325Y-54143D01*
X56934Y-53535D01*
X56934Y-53534D01*
X56976Y-53473D01*
X56989Y-53400D01*
X56990Y-53400D01*
X56990Y-53398D01*
X57056Y-53464D01*
X57214Y-53530D01*
X57385Y-53530D01*
X57543Y-53465D01*
X57664Y-53344D01*
X57730Y-53186D01*
X57730Y-53015D01*
X57665Y-52857D01*
X57544Y-52736D01*
X57386Y-52670D01*
X57215Y-52670D01*
X57057Y-52735D01*
X56990Y-52802D01*
X56990Y-52578D01*
X57934Y-51635D01*
X57934Y-51634D01*
X57976Y-51573D01*
X57989Y-51500D01*
X57990Y-51500D01*
X57990Y-57050D01*
X57812Y-57050D01*
X57463Y-57194D01*
X57195Y-57461D01*
X57050Y-57810D01*
X57050Y-58188D01*
X57194Y-58537D01*
X57292Y-58636D01*
X57179Y-58750D01*
X53410Y-58750D01*
X53475Y-58685D01*
X53525Y-58565D01*
X53525Y-58436D01*
X53476Y-58316D01*
X53385Y-58225D01*
X53265Y-58175D01*
X53136Y-58175D01*
X53016Y-58224D01*
X52925Y-58315D01*
X52885Y-58410D01*
X48978Y-58410D01*
X48325Y-57756D01*
X48325Y-57636D01*
X48276Y-57516D01*
X48185Y-57425D01*
X48065Y-57375D01*
X47936Y-57375D01*
X47816Y-57424D01*
X47725Y-57515D01*
X47675Y-57635D01*
X47675Y-57764D01*
X47724Y-57884D01*
X47815Y-57975D01*
X47935Y-58025D01*
X48056Y-58025D01*
X48765Y-58734D01*
X48766Y-58734D01*
X48788Y-58750D01*
X46383Y-58750D01*
X46383Y-56370D01*
X46380Y-55967D01*
X46233Y-55612D01*
X46108Y-55509D01*
X46037Y-55580D01*
X46037Y-55438D01*
X45934Y-55313D01*
X45560Y-55163D01*
X45157Y-55166D01*
X44802Y-55313D01*
X44699Y-55438D01*
X45368Y-56107D01*
X46037Y-55438D01*
X46037Y-55580D01*
X45439Y-56178D01*
X46108Y-56847D01*
X46233Y-56744D01*
X46383Y-56370D01*
X46383Y-58750D01*
X46037Y-58750D01*
X46037Y-56918D01*
X45368Y-56249D01*
X45297Y-56320D01*
X45297Y-56178D01*
X44631Y-55512D01*
X44631Y-55204D01*
X44631Y-54792D01*
X44525Y-54535D01*
X44525Y-53365D01*
X44525Y-53236D01*
X44476Y-53116D01*
X44390Y-53030D01*
X44390Y-52570D01*
X44475Y-52485D01*
X44525Y-52365D01*
X44525Y-52236D01*
X44476Y-52116D01*
X44385Y-52025D01*
X44265Y-51975D01*
X44136Y-51975D01*
X44016Y-52024D01*
X43925Y-52115D01*
X43875Y-52235D01*
X43875Y-52364D01*
X43924Y-52484D01*
X44010Y-52570D01*
X44010Y-53030D01*
X43925Y-53115D01*
X43875Y-53235D01*
X43875Y-53364D01*
X43924Y-53484D01*
X44015Y-53575D01*
X44135Y-53625D01*
X44264Y-53625D01*
X44384Y-53576D01*
X44475Y-53485D01*
X44525Y-53365D01*
X44525Y-54535D01*
X44474Y-54412D01*
X44183Y-54120D01*
X43803Y-53962D01*
X43391Y-53962D01*
X43011Y-54119D01*
X42925Y-54204D01*
X42925Y-48665D01*
X42925Y-48536D01*
X42876Y-48416D01*
X42785Y-48325D01*
X42665Y-48275D01*
X42543Y-48275D01*
X41990Y-47721D01*
X41990Y-46500D01*
X41976Y-46427D01*
X41934Y-46366D01*
X41934Y-46365D01*
X41534Y-45966D01*
X41473Y-45924D01*
X41400Y-45910D01*
X40970Y-45910D01*
X40885Y-45825D01*
X40765Y-45775D01*
X40636Y-45775D01*
X40516Y-45824D01*
X40425Y-45915D01*
X40375Y-46035D01*
X40375Y-46164D01*
X40424Y-46284D01*
X40515Y-46375D01*
X40635Y-46425D01*
X40764Y-46425D01*
X40884Y-46376D01*
X40970Y-46290D01*
X41321Y-46290D01*
X41610Y-46578D01*
X41610Y-47800D01*
X41624Y-47873D01*
X41666Y-47934D01*
X42275Y-48543D01*
X42275Y-48664D01*
X42324Y-48784D01*
X42415Y-48875D01*
X42535Y-48925D01*
X42664Y-48925D01*
X42784Y-48876D01*
X42875Y-48785D01*
X42925Y-48665D01*
X42925Y-54204D01*
X42719Y-54410D01*
X42561Y-54790D01*
X42561Y-55202D01*
X42718Y-55582D01*
X43009Y-55874D01*
X43389Y-56032D01*
X43801Y-56032D01*
X44181Y-55875D01*
X44473Y-55584D01*
X44631Y-55204D01*
X44631Y-55512D01*
X44628Y-55509D01*
X44503Y-55612D01*
X44353Y-55986D01*
X44356Y-56389D01*
X44503Y-56744D01*
X44628Y-56847D01*
X45297Y-56178D01*
X45297Y-56320D01*
X44699Y-56918D01*
X44802Y-57043D01*
X45176Y-57193D01*
X45579Y-57190D01*
X45934Y-57043D01*
X46037Y-56918D01*
X46037Y-58750D01*
X44611Y-58750D01*
X44611Y-57598D01*
X44608Y-57195D01*
X44461Y-56840D01*
X44336Y-56737D01*
X44265Y-56808D01*
X44265Y-56666D01*
X44162Y-56541D01*
X43788Y-56391D01*
X43385Y-56394D01*
X43030Y-56541D01*
X42927Y-56666D01*
X43596Y-57335D01*
X44265Y-56666D01*
X44265Y-56808D01*
X43667Y-57406D01*
X44336Y-58075D01*
X44461Y-57972D01*
X44611Y-57598D01*
X44611Y-58750D01*
X44265Y-58750D01*
X44265Y-58146D01*
X43596Y-57477D01*
X43525Y-57548D01*
X43525Y-57406D01*
X42856Y-56737D01*
X42731Y-56840D01*
X42581Y-57214D01*
X42584Y-57617D01*
X42731Y-57972D01*
X42856Y-58075D01*
X43525Y-57406D01*
X43525Y-57548D01*
X42927Y-58146D01*
X43030Y-58271D01*
X43404Y-58421D01*
X43807Y-58418D01*
X44162Y-58271D01*
X44265Y-58146D01*
X44265Y-58750D01*
X41221Y-58750D01*
X41107Y-58636D01*
X41205Y-58539D01*
X41350Y-58190D01*
X41350Y-57812D01*
X41206Y-57463D01*
X40939Y-57195D01*
X40590Y-57050D01*
X40212Y-57050D01*
X39863Y-57194D01*
X39763Y-57292D01*
X39650Y-57179D01*
X39650Y-41221D01*
X39763Y-41107D01*
X39861Y-41205D01*
X40210Y-41350D01*
X40588Y-41350D01*
X40937Y-41206D01*
X41205Y-40939D01*
X41350Y-40590D01*
X41350Y-40212D01*
X41206Y-39863D01*
X41107Y-39763D01*
X41221Y-39650D01*
X57179Y-39650D01*
X57292Y-39763D01*
X57195Y-39861D01*
X57050Y-40210D01*
X57050Y-40588D01*
X57194Y-40937D01*
X57461Y-41205D01*
X57810Y-41350D01*
X58188Y-41350D01*
X58537Y-41206D01*
X58636Y-41107D01*
X58750Y-41221D01*
X58750Y-57179D01*
X58750Y-57179D01*
G37*
G54D20*
X58750Y-57179D02*
X58725Y-57203D01*
X58725Y-47585D01*
X58725Y-47416D01*
X58725Y-44585D01*
X58725Y-44416D01*
X58661Y-44260D01*
X58541Y-44140D01*
X58385Y-44075D01*
X58216Y-44075D01*
X58060Y-44139D01*
X57940Y-44259D01*
X57875Y-44415D01*
X57875Y-44584D01*
X57939Y-44740D01*
X58059Y-44860D01*
X58215Y-44925D01*
X58384Y-44925D01*
X58540Y-44861D01*
X58660Y-44741D01*
X58725Y-44585D01*
X58725Y-47416D01*
X58661Y-47260D01*
X58541Y-47140D01*
X58385Y-47075D01*
X58216Y-47075D01*
X58060Y-47139D01*
X57940Y-47259D01*
X57875Y-47415D01*
X57875Y-47584D01*
X57939Y-47740D01*
X58059Y-47860D01*
X58215Y-47925D01*
X58384Y-47925D01*
X58540Y-47861D01*
X58660Y-47741D01*
X58725Y-47585D01*
X58725Y-57203D01*
X58636Y-57292D01*
X58539Y-57195D01*
X58190Y-57050D01*
X57990Y-57050D01*
X57990Y-51500D01*
X57990Y-50800D01*
X57989Y-50799D01*
X57976Y-50727D01*
X57950Y-50690D01*
X57934Y-50666D01*
X57934Y-50665D01*
X56849Y-49580D01*
X56849Y-43429D01*
X56849Y-43370D01*
X56849Y-42770D01*
X56846Y-42762D01*
X56846Y-42156D01*
X56833Y-41980D01*
X56791Y-41877D01*
X56725Y-41846D01*
X56654Y-41917D01*
X56654Y-41775D01*
X56623Y-41709D01*
X56456Y-41654D01*
X56280Y-41667D01*
X56177Y-41709D01*
X56146Y-41775D01*
X56400Y-42029D01*
X56654Y-41775D01*
X56654Y-41917D01*
X56471Y-42100D01*
X56725Y-42354D01*
X56791Y-42323D01*
X56846Y-42156D01*
X56846Y-42762D01*
X56826Y-42715D01*
X56784Y-42673D01*
X56729Y-42651D01*
X56670Y-42651D01*
X56654Y-42651D01*
X56654Y-42425D01*
X56400Y-42171D01*
X56329Y-42242D01*
X56329Y-42100D01*
X56075Y-41846D01*
X56009Y-41877D01*
X55954Y-42044D01*
X55967Y-42220D01*
X56009Y-42323D01*
X56075Y-42354D01*
X56329Y-42100D01*
X56329Y-42242D01*
X56146Y-42425D01*
X56177Y-42491D01*
X56344Y-42546D01*
X56520Y-42533D01*
X56623Y-42491D01*
X56654Y-42425D01*
X56654Y-42651D01*
X56070Y-42651D01*
X56015Y-42674D01*
X55973Y-42716D01*
X55951Y-42771D01*
X55951Y-42830D01*
X55951Y-43430D01*
X55974Y-43485D01*
X56016Y-43527D01*
X56071Y-43549D01*
X56130Y-43549D01*
X56730Y-43549D01*
X56785Y-43526D01*
X56827Y-43484D01*
X56849Y-43429D01*
X56849Y-49580D01*
X56722Y-49453D01*
X56722Y-47550D01*
X56722Y-44550D01*
X56709Y-44385D01*
X56671Y-44292D01*
X56607Y-44264D01*
X56536Y-44335D01*
X56536Y-44193D01*
X56508Y-44129D01*
X56350Y-44078D01*
X56185Y-44091D01*
X56092Y-44129D01*
X56064Y-44193D01*
X56300Y-44429D01*
X56536Y-44193D01*
X56536Y-44335D01*
X56371Y-44500D01*
X56607Y-44736D01*
X56671Y-44708D01*
X56722Y-44550D01*
X56722Y-47550D01*
X56709Y-47385D01*
X56671Y-47292D01*
X56607Y-47264D01*
X56536Y-47335D01*
X56536Y-47193D01*
X56536Y-44807D01*
X56300Y-44571D01*
X56064Y-44807D01*
X56092Y-44871D01*
X56250Y-44922D01*
X56415Y-44909D01*
X56508Y-44871D01*
X56536Y-44807D01*
X56536Y-47193D01*
X56525Y-47167D01*
X56525Y-46765D01*
X56525Y-46636D01*
X56476Y-46516D01*
X56385Y-46425D01*
X56265Y-46375D01*
X56136Y-46375D01*
X56016Y-46424D01*
X55925Y-46515D01*
X55875Y-46635D01*
X55875Y-46756D01*
X55821Y-46810D01*
X55350Y-46810D01*
X55375Y-46785D01*
X55425Y-46665D01*
X55425Y-46543D01*
X55834Y-46135D01*
X55834Y-46134D01*
X55876Y-46073D01*
X55889Y-46000D01*
X55890Y-46000D01*
X55890Y-44602D01*
X55891Y-44615D01*
X55929Y-44708D01*
X55993Y-44736D01*
X56229Y-44500D01*
X55993Y-44264D01*
X55929Y-44292D01*
X55890Y-44412D01*
X55890Y-42200D01*
X55889Y-42199D01*
X55876Y-42127D01*
X55875Y-42126D01*
X55862Y-42107D01*
X55834Y-42066D01*
X55834Y-42065D01*
X55422Y-41653D01*
X55449Y-41590D01*
X55449Y-41411D01*
X55381Y-41246D01*
X55255Y-41120D01*
X55090Y-41051D01*
X54911Y-41051D01*
X54746Y-41119D01*
X54620Y-41245D01*
X54551Y-41410D01*
X54551Y-41589D01*
X54619Y-41754D01*
X54745Y-41880D01*
X54910Y-41949D01*
X55089Y-41949D01*
X55153Y-41922D01*
X55510Y-42278D01*
X55510Y-45921D01*
X55449Y-45982D01*
X55449Y-45590D01*
X55449Y-45411D01*
X55449Y-44590D01*
X55449Y-44411D01*
X55449Y-43590D01*
X55449Y-43411D01*
X55449Y-42590D01*
X55449Y-42411D01*
X55381Y-42246D01*
X55255Y-42120D01*
X55090Y-42051D01*
X54911Y-42051D01*
X54746Y-42119D01*
X54620Y-42245D01*
X54551Y-42410D01*
X54551Y-42589D01*
X54619Y-42754D01*
X54745Y-42880D01*
X54910Y-42949D01*
X55089Y-42949D01*
X55254Y-42881D01*
X55380Y-42755D01*
X55449Y-42590D01*
X55449Y-43411D01*
X55381Y-43246D01*
X55255Y-43120D01*
X55090Y-43051D01*
X54911Y-43051D01*
X54746Y-43119D01*
X54620Y-43245D01*
X54551Y-43410D01*
X54551Y-43589D01*
X54619Y-43754D01*
X54745Y-43880D01*
X54910Y-43949D01*
X55089Y-43949D01*
X55254Y-43881D01*
X55380Y-43755D01*
X55449Y-43590D01*
X55449Y-44411D01*
X55381Y-44246D01*
X55255Y-44120D01*
X55090Y-44051D01*
X54911Y-44051D01*
X54746Y-44119D01*
X54620Y-44245D01*
X54551Y-44410D01*
X54551Y-44589D01*
X54619Y-44754D01*
X54745Y-44880D01*
X54910Y-44949D01*
X55089Y-44949D01*
X55254Y-44881D01*
X55380Y-44755D01*
X55449Y-44590D01*
X55449Y-45411D01*
X55381Y-45246D01*
X55255Y-45120D01*
X55090Y-45051D01*
X54911Y-45051D01*
X54846Y-45077D01*
X54190Y-44421D01*
X54190Y-42500D01*
X54176Y-42427D01*
X54134Y-42366D01*
X54134Y-42365D01*
X53422Y-41653D01*
X53449Y-41590D01*
X53449Y-41411D01*
X53381Y-41246D01*
X53255Y-41120D01*
X53090Y-41051D01*
X52911Y-41051D01*
X52746Y-41119D01*
X52620Y-41245D01*
X52551Y-41410D01*
X52551Y-41589D01*
X52619Y-41754D01*
X52745Y-41880D01*
X52910Y-41949D01*
X53089Y-41949D01*
X53153Y-41922D01*
X53810Y-42578D01*
X53810Y-44500D01*
X53824Y-44573D01*
X53866Y-44634D01*
X54577Y-45346D01*
X54551Y-45410D01*
X54551Y-45589D01*
X54619Y-45754D01*
X54745Y-45880D01*
X54910Y-45949D01*
X55089Y-45949D01*
X55254Y-45881D01*
X55380Y-45755D01*
X55449Y-45590D01*
X55449Y-45982D01*
X55156Y-46275D01*
X55036Y-46275D01*
X54916Y-46324D01*
X54825Y-46415D01*
X54775Y-46535D01*
X54775Y-46664D01*
X54824Y-46784D01*
X54850Y-46810D01*
X54000Y-46810D01*
X53927Y-46824D01*
X53865Y-46866D01*
X53449Y-47282D01*
X53449Y-45590D01*
X53449Y-45411D01*
X53381Y-45246D01*
X53255Y-45120D01*
X53090Y-45051D01*
X52911Y-45051D01*
X52746Y-45119D01*
X52690Y-45175D01*
X52690Y-45078D01*
X52845Y-44922D01*
X52910Y-44949D01*
X53089Y-44949D01*
X53254Y-44881D01*
X53380Y-44755D01*
X53449Y-44590D01*
X53449Y-44411D01*
X53449Y-43590D01*
X53449Y-43411D01*
X53381Y-43246D01*
X53255Y-43120D01*
X53090Y-43051D01*
X52911Y-43051D01*
X52746Y-43119D01*
X52620Y-43245D01*
X52551Y-43410D01*
X52551Y-43589D01*
X52619Y-43754D01*
X52745Y-43880D01*
X52910Y-43949D01*
X53089Y-43949D01*
X53254Y-43881D01*
X53380Y-43755D01*
X53449Y-43590D01*
X53449Y-44411D01*
X53381Y-44246D01*
X53255Y-44120D01*
X53090Y-44051D01*
X52911Y-44051D01*
X52746Y-44119D01*
X52620Y-44245D01*
X52551Y-44410D01*
X52551Y-44589D01*
X52577Y-44654D01*
X52390Y-44842D01*
X52390Y-43378D01*
X52846Y-42922D01*
X52910Y-42949D01*
X53089Y-42949D01*
X53254Y-42881D01*
X53380Y-42755D01*
X53449Y-42590D01*
X53449Y-42411D01*
X53381Y-42246D01*
X53255Y-42120D01*
X53090Y-42051D01*
X52911Y-42051D01*
X52746Y-42119D01*
X52620Y-42245D01*
X52551Y-42410D01*
X52551Y-42589D01*
X52577Y-42653D01*
X52149Y-43082D01*
X52149Y-42590D01*
X52149Y-42411D01*
X52149Y-41590D01*
X52149Y-41411D01*
X52081Y-41246D01*
X51955Y-41120D01*
X51790Y-41051D01*
X51611Y-41051D01*
X51446Y-41119D01*
X51320Y-41245D01*
X51251Y-41410D01*
X51251Y-41589D01*
X51319Y-41754D01*
X51445Y-41880D01*
X51610Y-41949D01*
X51789Y-41949D01*
X51954Y-41881D01*
X52080Y-41755D01*
X52149Y-41590D01*
X52149Y-42411D01*
X52081Y-42246D01*
X51955Y-42120D01*
X51790Y-42051D01*
X51611Y-42051D01*
X51446Y-42119D01*
X51320Y-42245D01*
X51251Y-42410D01*
X51251Y-42589D01*
X51319Y-42754D01*
X51445Y-42880D01*
X51610Y-42949D01*
X51789Y-42949D01*
X51954Y-42881D01*
X52080Y-42755D01*
X52149Y-42590D01*
X52149Y-43082D01*
X52066Y-43166D01*
X52039Y-43204D01*
X51955Y-43120D01*
X51790Y-43051D01*
X51611Y-43051D01*
X51446Y-43119D01*
X51320Y-43245D01*
X51251Y-43410D01*
X51251Y-43589D01*
X51319Y-43754D01*
X51445Y-43880D01*
X51610Y-43949D01*
X51789Y-43949D01*
X51954Y-43881D01*
X52010Y-43825D01*
X52010Y-44175D01*
X51955Y-44120D01*
X51790Y-44051D01*
X51611Y-44051D01*
X51446Y-44119D01*
X51320Y-44245D01*
X51251Y-44410D01*
X51251Y-44589D01*
X51319Y-44754D01*
X51445Y-44880D01*
X51610Y-44949D01*
X51789Y-44949D01*
X51954Y-44881D01*
X52010Y-44825D01*
X52010Y-45175D01*
X51955Y-45120D01*
X51790Y-45051D01*
X51611Y-45051D01*
X51546Y-45077D01*
X50890Y-44421D01*
X50890Y-42500D01*
X50876Y-42427D01*
X50834Y-42366D01*
X50834Y-42365D01*
X50122Y-41653D01*
X50149Y-41590D01*
X50149Y-41411D01*
X50081Y-41246D01*
X49955Y-41120D01*
X49790Y-41051D01*
X49611Y-41051D01*
X49446Y-41119D01*
X49320Y-41245D01*
X49251Y-41410D01*
X49251Y-41589D01*
X49319Y-41754D01*
X49445Y-41880D01*
X49610Y-41949D01*
X49789Y-41949D01*
X49853Y-41922D01*
X50510Y-42578D01*
X50510Y-44041D01*
X50122Y-43653D01*
X50149Y-43590D01*
X50149Y-43411D01*
X50149Y-42590D01*
X50149Y-42411D01*
X50081Y-42246D01*
X49955Y-42120D01*
X49790Y-42051D01*
X49611Y-42051D01*
X49446Y-42119D01*
X49320Y-42245D01*
X49251Y-42410D01*
X49251Y-42589D01*
X49319Y-42754D01*
X49445Y-42880D01*
X49610Y-42949D01*
X49789Y-42949D01*
X49954Y-42881D01*
X50080Y-42755D01*
X50149Y-42590D01*
X50149Y-43411D01*
X50081Y-43246D01*
X49955Y-43120D01*
X49790Y-43051D01*
X49611Y-43051D01*
X49446Y-43119D01*
X49320Y-43245D01*
X49251Y-43410D01*
X49251Y-43589D01*
X49319Y-43754D01*
X49445Y-43880D01*
X49610Y-43949D01*
X49789Y-43949D01*
X49853Y-43922D01*
X50310Y-44378D01*
X50310Y-44600D01*
X50324Y-44673D01*
X50366Y-44734D01*
X50910Y-45278D01*
X50910Y-46700D01*
X50924Y-46773D01*
X50966Y-46834D01*
X51375Y-47243D01*
X51375Y-47364D01*
X51424Y-47484D01*
X51515Y-47575D01*
X51635Y-47625D01*
X51764Y-47625D01*
X51775Y-47620D01*
X51775Y-47664D01*
X51824Y-47784D01*
X51915Y-47875D01*
X52035Y-47925D01*
X52164Y-47925D01*
X52284Y-47876D01*
X52375Y-47785D01*
X52425Y-47665D01*
X52425Y-47579D01*
X52535Y-47625D01*
X52664Y-47625D01*
X52784Y-47576D01*
X52875Y-47485D01*
X52925Y-47365D01*
X52925Y-47236D01*
X52876Y-47116D01*
X52785Y-47025D01*
X52690Y-46985D01*
X52690Y-45825D01*
X52745Y-45880D01*
X52910Y-45949D01*
X53089Y-45949D01*
X53254Y-45881D01*
X53380Y-45755D01*
X53449Y-45590D01*
X53449Y-47282D01*
X53156Y-47575D01*
X53036Y-47575D01*
X52916Y-47624D01*
X52825Y-47715D01*
X52775Y-47835D01*
X52775Y-47964D01*
X52824Y-48084D01*
X52915Y-48175D01*
X53035Y-48225D01*
X53164Y-48225D01*
X53284Y-48176D01*
X53375Y-48085D01*
X53425Y-47965D01*
X53425Y-47843D01*
X54078Y-47190D01*
X55900Y-47190D01*
X55973Y-47176D01*
X56034Y-47134D01*
X56143Y-47025D01*
X56264Y-47025D01*
X56384Y-46976D01*
X56475Y-46885D01*
X56525Y-46765D01*
X56525Y-47167D01*
X56508Y-47129D01*
X56350Y-47078D01*
X56185Y-47091D01*
X56092Y-47129D01*
X56064Y-47193D01*
X56300Y-47429D01*
X56536Y-47193D01*
X56536Y-47335D01*
X56371Y-47500D01*
X56607Y-47736D01*
X56671Y-47708D01*
X56722Y-47550D01*
X56722Y-49453D01*
X56536Y-49267D01*
X55890Y-48621D01*
X55890Y-48070D01*
X55975Y-47985D01*
X56025Y-47865D01*
X56025Y-47836D01*
X56065Y-47876D01*
X56085Y-47855D01*
X56092Y-47871D01*
X56250Y-47922D01*
X56415Y-47909D01*
X56508Y-47871D01*
X56536Y-47807D01*
X56335Y-47606D01*
X56300Y-47571D01*
X56229Y-47500D01*
X56194Y-47465D01*
X55993Y-47264D01*
X55929Y-47292D01*
X55878Y-47450D01*
X55883Y-47524D01*
X55765Y-47475D01*
X55636Y-47475D01*
X55516Y-47524D01*
X55425Y-47615D01*
X55400Y-47674D01*
X55376Y-47616D01*
X55285Y-47525D01*
X55165Y-47475D01*
X55036Y-47475D01*
X54916Y-47524D01*
X54825Y-47615D01*
X54775Y-47735D01*
X54775Y-47864D01*
X54824Y-47984D01*
X54910Y-48070D01*
X54910Y-51921D01*
X53556Y-53275D01*
X53436Y-53275D01*
X53316Y-53324D01*
X53225Y-53415D01*
X53175Y-53535D01*
X53175Y-53664D01*
X53224Y-53784D01*
X53315Y-53875D01*
X53435Y-53925D01*
X53564Y-53925D01*
X53684Y-53876D01*
X53775Y-53785D01*
X53825Y-53665D01*
X53825Y-53543D01*
X55234Y-52135D01*
X55234Y-52134D01*
X55276Y-52073D01*
X55289Y-52001D01*
X55290Y-52000D01*
X55290Y-48070D01*
X55375Y-47985D01*
X55399Y-47925D01*
X55424Y-47984D01*
X55510Y-48070D01*
X55510Y-48700D01*
X55524Y-48773D01*
X55566Y-48834D01*
X57411Y-50680D01*
X57386Y-50670D01*
X57215Y-50670D01*
X57057Y-50735D01*
X56936Y-50856D01*
X56870Y-51014D01*
X56870Y-51110D01*
X56785Y-51025D01*
X56665Y-50975D01*
X56536Y-50975D01*
X56416Y-51024D01*
X56350Y-51090D01*
X56285Y-51025D01*
X56165Y-50975D01*
X56036Y-50975D01*
X55916Y-51024D01*
X55825Y-51115D01*
X55775Y-51235D01*
X55775Y-51364D01*
X55824Y-51484D01*
X55915Y-51575D01*
X56035Y-51625D01*
X56156Y-51625D01*
X56210Y-51678D01*
X56210Y-52939D01*
X55439Y-53710D01*
X54700Y-53710D01*
X54627Y-53724D01*
X54590Y-53749D01*
X54565Y-53766D01*
X53803Y-54528D01*
X50149Y-54528D01*
X50149Y-45590D01*
X50149Y-45411D01*
X50149Y-44590D01*
X50149Y-44411D01*
X50081Y-44246D01*
X49955Y-44120D01*
X49790Y-44051D01*
X49611Y-44051D01*
X49446Y-44119D01*
X49320Y-44245D01*
X49251Y-44410D01*
X49251Y-44589D01*
X49319Y-44754D01*
X49445Y-44880D01*
X49610Y-44949D01*
X49789Y-44949D01*
X49954Y-44881D01*
X50080Y-44755D01*
X50149Y-44590D01*
X50149Y-45411D01*
X50081Y-45246D01*
X49955Y-45120D01*
X49790Y-45051D01*
X49611Y-45051D01*
X49446Y-45119D01*
X49320Y-45245D01*
X49251Y-45410D01*
X49251Y-45589D01*
X49319Y-45754D01*
X49445Y-45880D01*
X49610Y-45949D01*
X49789Y-45949D01*
X49954Y-45881D01*
X50080Y-45755D01*
X50149Y-45590D01*
X50149Y-54528D01*
X48849Y-54528D01*
X48849Y-45590D01*
X48849Y-45411D01*
X48849Y-44590D01*
X48849Y-44411D01*
X48849Y-43590D01*
X48849Y-43411D01*
X48849Y-42590D01*
X48849Y-42411D01*
X48849Y-41590D01*
X48849Y-41411D01*
X48781Y-41246D01*
X48655Y-41120D01*
X48490Y-41051D01*
X48311Y-41051D01*
X48146Y-41119D01*
X48020Y-41245D01*
X47951Y-41410D01*
X47951Y-41589D01*
X48019Y-41754D01*
X48145Y-41880D01*
X48310Y-41949D01*
X48489Y-41949D01*
X48654Y-41881D01*
X48780Y-41755D01*
X48849Y-41590D01*
X48849Y-42411D01*
X48781Y-42246D01*
X48655Y-42120D01*
X48490Y-42051D01*
X48311Y-42051D01*
X48146Y-42119D01*
X48020Y-42245D01*
X47951Y-42410D01*
X47951Y-42589D01*
X48019Y-42754D01*
X48145Y-42880D01*
X48310Y-42949D01*
X48489Y-42949D01*
X48654Y-42881D01*
X48780Y-42755D01*
X48849Y-42590D01*
X48849Y-43411D01*
X48781Y-43246D01*
X48655Y-43120D01*
X48490Y-43051D01*
X48311Y-43051D01*
X48146Y-43119D01*
X48020Y-43245D01*
X47951Y-43410D01*
X47951Y-43589D01*
X48019Y-43754D01*
X48145Y-43880D01*
X48310Y-43949D01*
X48489Y-43949D01*
X48654Y-43881D01*
X48780Y-43755D01*
X48849Y-43590D01*
X48849Y-44411D01*
X48781Y-44246D01*
X48655Y-44120D01*
X48490Y-44051D01*
X48311Y-44051D01*
X48146Y-44119D01*
X48020Y-44245D01*
X47951Y-44410D01*
X47951Y-44589D01*
X48019Y-44754D01*
X48145Y-44880D01*
X48310Y-44949D01*
X48489Y-44949D01*
X48654Y-44881D01*
X48780Y-44755D01*
X48849Y-44590D01*
X48849Y-45411D01*
X48781Y-45246D01*
X48655Y-45120D01*
X48490Y-45051D01*
X48311Y-45051D01*
X48246Y-45077D01*
X47590Y-44421D01*
X47590Y-42500D01*
X47576Y-42427D01*
X47534Y-42366D01*
X47534Y-42365D01*
X46822Y-41653D01*
X46849Y-41590D01*
X46849Y-41411D01*
X46781Y-41246D01*
X46655Y-41120D01*
X46490Y-41051D01*
X46311Y-41051D01*
X46146Y-41119D01*
X46020Y-41245D01*
X45951Y-41410D01*
X45951Y-41589D01*
X46019Y-41754D01*
X46145Y-41880D01*
X46310Y-41949D01*
X46489Y-41949D01*
X46553Y-41922D01*
X47210Y-42578D01*
X47210Y-44500D01*
X47224Y-44573D01*
X47266Y-44634D01*
X47977Y-45346D01*
X47951Y-45410D01*
X47951Y-45589D01*
X48019Y-45754D01*
X48145Y-45880D01*
X48310Y-45949D01*
X48489Y-45949D01*
X48654Y-45881D01*
X48780Y-45755D01*
X48849Y-45590D01*
X48849Y-54528D01*
X48178Y-54528D01*
X47790Y-54140D01*
X47790Y-48078D01*
X48243Y-47625D01*
X48364Y-47625D01*
X48484Y-47576D01*
X48575Y-47485D01*
X48625Y-47365D01*
X48625Y-47236D01*
X48576Y-47116D01*
X48485Y-47025D01*
X48365Y-46975D01*
X48236Y-46975D01*
X48116Y-47024D01*
X48025Y-47115D01*
X47975Y-47235D01*
X47975Y-47356D01*
X47466Y-47866D01*
X47424Y-47927D01*
X47410Y-48000D01*
X47410Y-50241D01*
X46849Y-49680D01*
X46849Y-45590D01*
X46849Y-45411D01*
X46849Y-44590D01*
X46849Y-44411D01*
X46849Y-43590D01*
X46849Y-43411D01*
X46849Y-42590D01*
X46849Y-42411D01*
X46781Y-42246D01*
X46655Y-42120D01*
X46490Y-42051D01*
X46311Y-42051D01*
X46146Y-42119D01*
X46020Y-42245D01*
X45951Y-42410D01*
X45951Y-42589D01*
X46019Y-42754D01*
X46145Y-42880D01*
X46310Y-42949D01*
X46489Y-42949D01*
X46654Y-42881D01*
X46780Y-42755D01*
X46849Y-42590D01*
X46849Y-43411D01*
X46781Y-43246D01*
X46655Y-43120D01*
X46490Y-43051D01*
X46311Y-43051D01*
X46146Y-43119D01*
X46020Y-43245D01*
X45951Y-43410D01*
X45951Y-43589D01*
X46019Y-43754D01*
X46145Y-43880D01*
X46310Y-43949D01*
X46489Y-43949D01*
X46654Y-43881D01*
X46780Y-43755D01*
X46849Y-43590D01*
X46849Y-44411D01*
X46781Y-44246D01*
X46655Y-44120D01*
X46490Y-44051D01*
X46311Y-44051D01*
X46146Y-44119D01*
X46020Y-44245D01*
X45951Y-44410D01*
X45951Y-44589D01*
X46019Y-44754D01*
X46145Y-44880D01*
X46310Y-44949D01*
X46489Y-44949D01*
X46654Y-44881D01*
X46780Y-44755D01*
X46849Y-44590D01*
X46849Y-45411D01*
X46781Y-45246D01*
X46655Y-45120D01*
X46490Y-45051D01*
X46311Y-45051D01*
X46146Y-45119D01*
X46020Y-45245D01*
X45951Y-45410D01*
X45951Y-45589D01*
X46019Y-45754D01*
X46145Y-45880D01*
X46310Y-45949D01*
X46489Y-45949D01*
X46654Y-45881D01*
X46780Y-45755D01*
X46849Y-45590D01*
X46849Y-49680D01*
X45590Y-48421D01*
X45590Y-47700D01*
X45576Y-47627D01*
X45534Y-47566D01*
X45534Y-47565D01*
X45325Y-47356D01*
X45325Y-47236D01*
X45276Y-47116D01*
X45185Y-47025D01*
X45065Y-46975D01*
X44936Y-46975D01*
X44816Y-47024D01*
X44725Y-47115D01*
X44675Y-47235D01*
X44675Y-47364D01*
X44724Y-47484D01*
X44815Y-47575D01*
X44935Y-47625D01*
X45056Y-47625D01*
X45210Y-47778D01*
X45210Y-48500D01*
X45224Y-48573D01*
X45266Y-48634D01*
X46282Y-49651D01*
X46111Y-49651D01*
X45946Y-49719D01*
X45820Y-49845D01*
X45751Y-50010D01*
X45751Y-50125D01*
X45649Y-50023D01*
X45649Y-49770D01*
X45626Y-49715D01*
X45584Y-49673D01*
X45529Y-49651D01*
X45470Y-49651D01*
X44870Y-49651D01*
X44815Y-49674D01*
X44773Y-49716D01*
X44751Y-49771D01*
X44751Y-49830D01*
X44751Y-50410D01*
X44378Y-50410D01*
X44290Y-50321D01*
X44290Y-49900D01*
X44290Y-48600D01*
X44290Y-43870D01*
X44375Y-43785D01*
X44410Y-43701D01*
X44410Y-45000D01*
X44424Y-45073D01*
X44466Y-45134D01*
X44677Y-45345D01*
X44651Y-45410D01*
X44651Y-45589D01*
X44719Y-45754D01*
X44845Y-45880D01*
X45010Y-45949D01*
X45189Y-45949D01*
X45354Y-45881D01*
X45480Y-45755D01*
X45549Y-45590D01*
X45549Y-45411D01*
X45481Y-45246D01*
X45355Y-45120D01*
X45190Y-45051D01*
X45011Y-45051D01*
X44945Y-45077D01*
X44790Y-44922D01*
X44790Y-44825D01*
X44845Y-44880D01*
X45010Y-44949D01*
X45189Y-44949D01*
X45354Y-44881D01*
X45480Y-44755D01*
X45549Y-44590D01*
X45549Y-44411D01*
X45481Y-44246D01*
X45355Y-44120D01*
X45190Y-44051D01*
X45011Y-44051D01*
X44846Y-44119D01*
X44790Y-44175D01*
X44790Y-43825D01*
X44845Y-43880D01*
X45010Y-43949D01*
X45189Y-43949D01*
X45354Y-43881D01*
X45480Y-43755D01*
X45549Y-43590D01*
X45549Y-43411D01*
X45481Y-43246D01*
X45355Y-43120D01*
X45190Y-43051D01*
X45011Y-43051D01*
X44846Y-43119D01*
X44790Y-43175D01*
X44790Y-42825D01*
X44845Y-42880D01*
X45010Y-42949D01*
X45189Y-42949D01*
X45354Y-42881D01*
X45480Y-42755D01*
X45549Y-42590D01*
X45549Y-42411D01*
X45481Y-42246D01*
X45355Y-42120D01*
X45190Y-42051D01*
X45011Y-42051D01*
X44846Y-42119D01*
X44790Y-42175D01*
X44790Y-41825D01*
X44845Y-41880D01*
X45010Y-41949D01*
X45189Y-41949D01*
X45354Y-41881D01*
X45480Y-41755D01*
X45549Y-41590D01*
X45549Y-41411D01*
X45481Y-41246D01*
X45355Y-41120D01*
X45190Y-41051D01*
X45011Y-41051D01*
X44846Y-41119D01*
X44720Y-41245D01*
X44651Y-41410D01*
X44651Y-41582D01*
X44434Y-41366D01*
X44373Y-41324D01*
X44300Y-41310D01*
X43507Y-41310D01*
X43481Y-41246D01*
X43355Y-41120D01*
X43190Y-41051D01*
X43011Y-41051D01*
X42846Y-41119D01*
X42720Y-41245D01*
X42651Y-41410D01*
X42651Y-41589D01*
X42719Y-41754D01*
X42845Y-41880D01*
X43010Y-41949D01*
X43189Y-41949D01*
X43354Y-41881D01*
X43480Y-41755D01*
X43507Y-41690D01*
X44221Y-41690D01*
X44410Y-41878D01*
X44410Y-43499D01*
X44376Y-43416D01*
X44285Y-43325D01*
X44165Y-43275D01*
X44036Y-43275D01*
X43916Y-43324D01*
X43890Y-43350D01*
X43890Y-42870D01*
X43975Y-42785D01*
X44025Y-42665D01*
X44025Y-42536D01*
X43976Y-42416D01*
X43885Y-42325D01*
X43765Y-42275D01*
X43636Y-42275D01*
X43516Y-42324D01*
X43513Y-42326D01*
X43481Y-42246D01*
X43355Y-42120D01*
X43190Y-42051D01*
X43011Y-42051D01*
X42846Y-42119D01*
X42720Y-42245D01*
X42651Y-42410D01*
X42651Y-42589D01*
X42719Y-42754D01*
X42845Y-42880D01*
X43010Y-42949D01*
X43189Y-42949D01*
X43354Y-42881D01*
X43437Y-42797D01*
X43510Y-42870D01*
X43510Y-43316D01*
X43481Y-43246D01*
X43355Y-43120D01*
X43190Y-43051D01*
X43011Y-43051D01*
X42846Y-43119D01*
X42720Y-43245D01*
X42651Y-43410D01*
X42651Y-43589D01*
X42719Y-43754D01*
X42845Y-43880D01*
X43010Y-43949D01*
X43189Y-43949D01*
X43354Y-43881D01*
X43480Y-43755D01*
X43510Y-43683D01*
X43510Y-44316D01*
X43481Y-44246D01*
X43355Y-44120D01*
X43190Y-44051D01*
X43011Y-44051D01*
X42846Y-44119D01*
X42720Y-44245D01*
X42651Y-44410D01*
X42651Y-44589D01*
X42719Y-44754D01*
X42845Y-44880D01*
X43010Y-44949D01*
X43189Y-44949D01*
X43354Y-44881D01*
X43480Y-44755D01*
X43510Y-44683D01*
X43510Y-45316D01*
X43481Y-45246D01*
X43355Y-45120D01*
X43190Y-45051D01*
X43011Y-45051D01*
X42846Y-45119D01*
X42720Y-45245D01*
X42651Y-45410D01*
X42651Y-45589D01*
X42719Y-45754D01*
X42845Y-45880D01*
X43010Y-45949D01*
X43189Y-45949D01*
X43354Y-45881D01*
X43480Y-45755D01*
X43510Y-45683D01*
X43510Y-48400D01*
X43510Y-50600D01*
X43524Y-50673D01*
X43566Y-50734D01*
X44066Y-51234D01*
X44127Y-51276D01*
X44200Y-51290D01*
X44792Y-51290D01*
X44819Y-51354D01*
X44945Y-51480D01*
X45110Y-51549D01*
X45289Y-51549D01*
X45354Y-51522D01*
X45510Y-51678D01*
X45510Y-51775D01*
X45455Y-51720D01*
X45290Y-51651D01*
X45111Y-51651D01*
X44946Y-51719D01*
X44820Y-51845D01*
X44751Y-52010D01*
X44751Y-52189D01*
X44819Y-52354D01*
X44945Y-52480D01*
X45010Y-52507D01*
X45010Y-53300D01*
X45024Y-53373D01*
X45066Y-53434D01*
X47466Y-55834D01*
X47527Y-55876D01*
X47600Y-55890D01*
X55530Y-55890D01*
X55615Y-55975D01*
X55735Y-56025D01*
X55864Y-56025D01*
X55984Y-55976D01*
X56075Y-55885D01*
X56125Y-55765D01*
X56125Y-55636D01*
X56076Y-55516D01*
X55985Y-55425D01*
X55865Y-55375D01*
X55820Y-55375D01*
X55825Y-55365D01*
X55825Y-55236D01*
X55776Y-55116D01*
X55685Y-55025D01*
X55565Y-54975D01*
X55520Y-54975D01*
X55525Y-54965D01*
X55525Y-54836D01*
X55476Y-54716D01*
X55385Y-54625D01*
X55265Y-54575D01*
X55220Y-54575D01*
X55225Y-54565D01*
X55225Y-54436D01*
X55176Y-54316D01*
X55150Y-54290D01*
X55600Y-54290D01*
X55673Y-54276D01*
X55678Y-54272D01*
X55724Y-54384D01*
X55815Y-54475D01*
X55935Y-54525D01*
X56064Y-54525D01*
X56184Y-54476D01*
X56275Y-54385D01*
X56325Y-54265D01*
X56325Y-54143D01*
X56934Y-53535D01*
X56934Y-53534D01*
X56976Y-53473D01*
X56989Y-53400D01*
X56990Y-53400D01*
X56990Y-53398D01*
X57056Y-53464D01*
X57214Y-53530D01*
X57385Y-53530D01*
X57543Y-53465D01*
X57664Y-53344D01*
X57730Y-53186D01*
X57730Y-53015D01*
X57665Y-52857D01*
X57544Y-52736D01*
X57386Y-52670D01*
X57215Y-52670D01*
X57057Y-52735D01*
X56990Y-52802D01*
X56990Y-52578D01*
X57934Y-51635D01*
X57934Y-51634D01*
X57976Y-51573D01*
X57989Y-51500D01*
X57990Y-51500D01*
X57990Y-57050D01*
X57812Y-57050D01*
X57463Y-57194D01*
X57195Y-57461D01*
X57050Y-57810D01*
X57050Y-58188D01*
X57194Y-58537D01*
X57292Y-58636D01*
X57179Y-58750D01*
X53410Y-58750D01*
X53475Y-58685D01*
X53525Y-58565D01*
X53525Y-58436D01*
X53476Y-58316D01*
X53385Y-58225D01*
X53265Y-58175D01*
X53136Y-58175D01*
X53016Y-58224D01*
X52925Y-58315D01*
X52885Y-58410D01*
X48978Y-58410D01*
X48325Y-57756D01*
X48325Y-57636D01*
X48276Y-57516D01*
X48185Y-57425D01*
X48065Y-57375D01*
X47936Y-57375D01*
X47816Y-57424D01*
X47725Y-57515D01*
X47675Y-57635D01*
X47675Y-57764D01*
X47724Y-57884D01*
X47815Y-57975D01*
X47935Y-58025D01*
X48056Y-58025D01*
X48765Y-58734D01*
X48766Y-58734D01*
X48788Y-58750D01*
X46383Y-58750D01*
X46383Y-56370D01*
X46380Y-55967D01*
X46233Y-55612D01*
X46108Y-55509D01*
X46037Y-55580D01*
X46037Y-55438D01*
X45934Y-55313D01*
X45560Y-55163D01*
X45157Y-55166D01*
X44802Y-55313D01*
X44699Y-55438D01*
X45368Y-56107D01*
X46037Y-55438D01*
X46037Y-55580D01*
X45439Y-56178D01*
X46108Y-56847D01*
X46233Y-56744D01*
X46383Y-56370D01*
X46383Y-58750D01*
X46037Y-58750D01*
X46037Y-56918D01*
X45368Y-56249D01*
X45297Y-56320D01*
X45297Y-56178D01*
X44631Y-55512D01*
X44631Y-55204D01*
X44631Y-54792D01*
X44525Y-54535D01*
X44525Y-53365D01*
X44525Y-53236D01*
X44476Y-53116D01*
X44390Y-53030D01*
X44390Y-52570D01*
X44475Y-52485D01*
X44525Y-52365D01*
X44525Y-52236D01*
X44476Y-52116D01*
X44385Y-52025D01*
X44265Y-51975D01*
X44136Y-51975D01*
X44016Y-52024D01*
X43925Y-52115D01*
X43875Y-52235D01*
X43875Y-52364D01*
X43924Y-52484D01*
X44010Y-52570D01*
X44010Y-53030D01*
X43925Y-53115D01*
X43875Y-53235D01*
X43875Y-53364D01*
X43924Y-53484D01*
X44015Y-53575D01*
X44135Y-53625D01*
X44264Y-53625D01*
X44384Y-53576D01*
X44475Y-53485D01*
X44525Y-53365D01*
X44525Y-54535D01*
X44474Y-54412D01*
X44183Y-54120D01*
X43803Y-53962D01*
X43391Y-53962D01*
X43011Y-54119D01*
X42925Y-54204D01*
X42925Y-48665D01*
X42925Y-48536D01*
X42876Y-48416D01*
X42785Y-48325D01*
X42665Y-48275D01*
X42543Y-48275D01*
X41990Y-47721D01*
X41990Y-46500D01*
X41976Y-46427D01*
X41934Y-46366D01*
X41934Y-46365D01*
X41534Y-45966D01*
X41473Y-45924D01*
X41400Y-45910D01*
X40970Y-45910D01*
X40885Y-45825D01*
X40765Y-45775D01*
X40636Y-45775D01*
X40516Y-45824D01*
X40425Y-45915D01*
X40375Y-46035D01*
X40375Y-46164D01*
X40424Y-46284D01*
X40515Y-46375D01*
X40635Y-46425D01*
X40764Y-46425D01*
X40884Y-46376D01*
X40970Y-46290D01*
X41321Y-46290D01*
X41610Y-46578D01*
X41610Y-47800D01*
X41624Y-47873D01*
X41666Y-47934D01*
X42275Y-48543D01*
X42275Y-48664D01*
X42324Y-48784D01*
X42415Y-48875D01*
X42535Y-48925D01*
X42664Y-48925D01*
X42784Y-48876D01*
X42875Y-48785D01*
X42925Y-48665D01*
X42925Y-54204D01*
X42719Y-54410D01*
X42561Y-54790D01*
X42561Y-55202D01*
X42718Y-55582D01*
X43009Y-55874D01*
X43389Y-56032D01*
X43801Y-56032D01*
X44181Y-55875D01*
X44473Y-55584D01*
X44631Y-55204D01*
X44631Y-55512D01*
X44628Y-55509D01*
X44503Y-55612D01*
X44353Y-55986D01*
X44356Y-56389D01*
X44503Y-56744D01*
X44628Y-56847D01*
X45297Y-56178D01*
X45297Y-56320D01*
X44699Y-56918D01*
X44802Y-57043D01*
X45176Y-57193D01*
X45579Y-57190D01*
X45934Y-57043D01*
X46037Y-56918D01*
X46037Y-58750D01*
X44611Y-58750D01*
X44611Y-57598D01*
X44608Y-57195D01*
X44461Y-56840D01*
X44336Y-56737D01*
X44265Y-56808D01*
X44265Y-56666D01*
X44162Y-56541D01*
X43788Y-56391D01*
X43385Y-56394D01*
X43030Y-56541D01*
X42927Y-56666D01*
X43596Y-57335D01*
X44265Y-56666D01*
X44265Y-56808D01*
X43667Y-57406D01*
X44336Y-58075D01*
X44461Y-57972D01*
X44611Y-57598D01*
X44611Y-58750D01*
X44265Y-58750D01*
X44265Y-58146D01*
X43596Y-57477D01*
X43525Y-57548D01*
X43525Y-57406D01*
X42856Y-56737D01*
X42731Y-56840D01*
X42581Y-57214D01*
X42584Y-57617D01*
X42731Y-57972D01*
X42856Y-58075D01*
X43525Y-57406D01*
X43525Y-57548D01*
X42927Y-58146D01*
X43030Y-58271D01*
X43404Y-58421D01*
X43807Y-58418D01*
X44162Y-58271D01*
X44265Y-58146D01*
X44265Y-58750D01*
X41221Y-58750D01*
X41107Y-58636D01*
X41205Y-58539D01*
X41350Y-58190D01*
X41350Y-57812D01*
X41206Y-57463D01*
X40939Y-57195D01*
X40590Y-57050D01*
X40212Y-57050D01*
X39863Y-57194D01*
X39763Y-57292D01*
X39650Y-57179D01*
X39650Y-41221D01*
X39763Y-41107D01*
X39861Y-41205D01*
X40210Y-41350D01*
X40588Y-41350D01*
X40937Y-41206D01*
X41205Y-40939D01*
X41350Y-40590D01*
X41350Y-40212D01*
X41206Y-39863D01*
X41107Y-39763D01*
X41221Y-39650D01*
X57179Y-39650D01*
X57292Y-39763D01*
X57195Y-39861D01*
X57050Y-40210D01*
X57050Y-40588D01*
X57194Y-40937D01*
X57461Y-41205D01*
X57810Y-41350D01*
X58188Y-41350D01*
X58537Y-41206D01*
X58636Y-41107D01*
X58750Y-41221D01*
X58750Y-57179D01*
M02*
