G04 start of page 16 for group -4015 idx -4015 *
G04 Title: (unknown), toppaste *
G04 Creator: pcb 20110918 *
G04 CreationDate: Tue 14 Jan 2014 03:41:54 PM GMT UTC *
G04 For: vince *
G04 Format: Gerber/RS-274X *
G04 PCB-Dimensions: 1000000 160000 *
G04 PCB-Coordinate-Origin: lower left *
%MOIN*%
%FSLAX25Y25*%
%LNTOPPASTE*%
%ADD97C,0.0600*%
G54D97*X119500Y120500D02*X122500D01*
X119500Y110500D02*X122500D01*
X119500Y100500D02*X122500D01*
X119500Y90500D02*X122500D01*
X119500Y80500D02*X122500D01*
X119500Y70500D02*X122500D01*
X119500Y60500D02*X122500D01*
X119500Y50500D02*X122500D01*
X119500Y40500D02*X122500D01*
X169500D02*X172500D01*
X169500Y50500D02*X172500D01*
X169500Y60500D02*X172500D01*
X169500Y70500D02*X172500D01*
X169500Y80500D02*X172500D01*
X169500Y90500D02*X172500D01*
X169500Y100500D02*X172500D01*
X169500Y110500D02*X172500D01*
X169500Y120500D02*X172500D01*
X859500Y52500D02*Y49500D01*
X869500Y52500D02*Y49500D01*
X879500Y52500D02*Y49500D01*
X889500Y52500D02*Y49500D01*
X899500Y52500D02*Y49500D01*
X909500Y52500D02*Y49500D01*
X919500Y52500D02*Y49500D01*
X929500Y52500D02*Y49500D01*
X939500Y52500D02*Y49500D01*
Y112500D02*Y109500D01*
X929500Y112500D02*Y109500D01*
X919500Y112500D02*Y109500D01*
X909500Y112500D02*Y109500D01*
X899500Y112500D02*Y109500D01*
X889500Y112500D02*Y109500D01*
X879500Y112500D02*Y109500D01*
X869500Y112500D02*Y109500D01*
X859500Y112500D02*Y109500D01*
X709500Y52500D02*Y49500D01*
X719500Y52500D02*Y49500D01*
X729500Y52500D02*Y49500D01*
X739500Y52500D02*Y49500D01*
X749500Y52500D02*Y49500D01*
X759500Y52500D02*Y49500D01*
X769500Y52500D02*Y49500D01*
X779500Y52500D02*Y49500D01*
X789500Y52500D02*Y49500D01*
Y112500D02*Y109500D01*
X779500Y112500D02*Y109500D01*
X769500Y112500D02*Y109500D01*
X759500Y112500D02*Y109500D01*
X749500Y112500D02*Y109500D01*
X739500Y112500D02*Y109500D01*
X729500Y112500D02*Y109500D01*
X719500Y112500D02*Y109500D01*
X709500Y112500D02*Y109500D01*
X309500Y52500D02*Y49500D01*
X319500Y52500D02*Y49500D01*
X329500Y52500D02*Y49500D01*
X339500Y52500D02*Y49500D01*
X349500Y52500D02*Y49500D01*
X359500Y52500D02*Y49500D01*
X369500Y52500D02*Y49500D01*
X379500Y52500D02*Y49500D01*
X389500Y52500D02*Y49500D01*
Y112500D02*Y109500D01*
X379500Y112500D02*Y109500D01*
X369500Y112500D02*Y109500D01*
X359500Y112500D02*Y109500D01*
X349500Y112500D02*Y109500D01*
X339500Y112500D02*Y109500D01*
X329500Y112500D02*Y109500D01*
X319500Y112500D02*Y109500D01*
X309500Y112500D02*Y109500D01*
X183500Y120500D02*X186500D01*
X183500Y110500D02*X186500D01*
X183500Y100500D02*X186500D01*
X183500Y90500D02*X186500D01*
X183500Y80500D02*X186500D01*
X183500Y70500D02*X186500D01*
X183500Y60500D02*X186500D01*
X183500Y50500D02*X186500D01*
X183500Y40500D02*X186500D01*
X233500D02*X236500D01*
X233500Y50500D02*X236500D01*
X233500Y60500D02*X236500D01*
X233500Y70500D02*X236500D01*
X233500Y80500D02*X236500D01*
X233500Y90500D02*X236500D01*
X233500Y100500D02*X236500D01*
X233500Y110500D02*X236500D01*
X233500Y120500D02*X236500D01*
X55500D02*X58500D01*
X55500Y110500D02*X58500D01*
X55500Y100500D02*X58500D01*
X55500Y90500D02*X58500D01*
X55500Y80500D02*X58500D01*
X55500Y70500D02*X58500D01*
X55500Y60500D02*X58500D01*
X55500Y50500D02*X58500D01*
X55500Y40500D02*X58500D01*
X105500D02*X108500D01*
X105500Y50500D02*X108500D01*
X105500Y60500D02*X108500D01*
X105500Y70500D02*X108500D01*
X105500Y80500D02*X108500D01*
X105500Y90500D02*X108500D01*
X105500Y100500D02*X108500D01*
X105500Y110500D02*X108500D01*
X105500Y120500D02*X108500D01*
X459500Y52500D02*Y49500D01*
X469500Y52500D02*Y49500D01*
X479500Y52500D02*Y49500D01*
X489500Y52500D02*Y49500D01*
X499500Y52500D02*Y49500D01*
X509500Y52500D02*Y49500D01*
X519500Y52500D02*Y49500D01*
X529500Y52500D02*Y49500D01*
X539500Y52500D02*Y49500D01*
Y112500D02*Y109500D01*
X529500Y112500D02*Y109500D01*
X519500Y112500D02*Y109500D01*
X509500Y112500D02*Y109500D01*
X499500Y112500D02*Y109500D01*
X489500Y112500D02*Y109500D01*
X479500Y112500D02*Y109500D01*
X469500Y112500D02*Y109500D01*
X459500Y112500D02*Y109500D01*
X41500Y31000D02*X44500D01*
X41500Y41000D02*X44500D01*
X41500Y51000D02*X44500D01*
X41500Y61000D02*X44500D01*
X41500Y71000D02*X44500D01*
X41500Y81000D02*X44500D01*
X41500Y91000D02*X44500D01*
X41500Y101000D02*X44500D01*
X41500Y111000D02*X44500D01*
X41500Y121000D02*X44500D01*
X71500D02*X74500D01*
X71500Y111000D02*X74500D01*
X71500Y101000D02*X74500D01*
X71500Y91000D02*X74500D01*
X71500Y81000D02*X74500D01*
X71500Y71000D02*X74500D01*
X71500Y61000D02*X74500D01*
X71500Y51000D02*X74500D01*
X71500Y41000D02*X74500D01*
X71500Y31000D02*X74500D01*
X500000Y137000D02*Y134000D01*
X510000Y137000D02*Y134000D01*
X520000Y137000D02*Y134000D01*
X530000Y137000D02*Y134000D01*
X540000Y137000D02*Y134000D01*
X550000Y137000D02*Y134000D01*
X560000Y137000D02*Y134000D01*
X570000Y137000D02*Y134000D01*
X580000Y137000D02*Y134000D01*
X590000Y137000D02*Y134000D01*
X600000Y137000D02*Y134000D01*
X610000Y137000D02*Y134000D01*
X620000Y137000D02*Y134000D01*
X630000Y137000D02*Y134000D01*
Y67000D02*Y64000D01*
X620000Y67000D02*Y64000D01*
X610000Y67000D02*Y64000D01*
X600000Y67000D02*Y64000D01*
X590000Y67000D02*Y64000D01*
X580000Y67000D02*Y64000D01*
X570000Y67000D02*Y64000D01*
X560000Y67000D02*Y64000D01*
X550000Y67000D02*Y64000D01*
X540000Y67000D02*Y64000D01*
X530000Y67000D02*Y64000D01*
X520000Y67000D02*Y64000D01*
X510000Y67000D02*Y64000D01*
X500000Y67000D02*Y64000D01*
X559500Y52500D02*Y49500D01*
X569500Y52500D02*Y49500D01*
X579500Y52500D02*Y49500D01*
X589500Y52500D02*Y49500D01*
X599500Y52500D02*Y49500D01*
X609500Y52500D02*Y49500D01*
X619500Y52500D02*Y49500D01*
X629500Y52500D02*Y49500D01*
X639500Y52500D02*Y49500D01*
Y112500D02*Y109500D01*
X629500Y112500D02*Y109500D01*
X619500Y112500D02*Y109500D01*
X609500Y112500D02*Y109500D01*
X599500Y112500D02*Y109500D01*
X589500Y112500D02*Y109500D01*
X579500Y112500D02*Y109500D01*
X569500Y112500D02*Y109500D01*
X559500Y112500D02*Y109500D01*
M02*
