G04 (created by PCBNEW-RS274X (2010-05-05 BZR 2356)-stable) date 12/23/10 16:21:38*
G01*
G70*
G90*
%MOIN*%
G04 Gerber Fmt 3.4, Leading zero omitted, Abs format*
%FSLAX34Y34*%
G04 APERTURE LIST*
%ADD10C,0.005000*%
%ADD11C,0.015000*%
G04 APERTURE END LIST*
G54D10*
G54D11*
X10000Y-22000D02*
X10000Y-10000D01*
X22000Y-22000D02*
X10000Y-22000D01*
X22000Y-10000D02*
X22000Y-22000D01*
X10000Y-10000D02*
X22000Y-10000D01*
M02*
