G04 DipTrace 2.4.0.2*
%INBottomMask.gbr*%
%MOMM*%
%ADD33C,1.422*%
%ADD73O,1.7X1.2*%
%ADD83O,2.5X2.3*%
%ADD85R,2.5X2.3*%
%ADD101C,2.0*%
%ADD103R,2.0X2.0*%
%FSLAX53Y53*%
G04*
G71*
G90*
G75*
G01*
%LNBotMask*%
%LPD*%
D103*
X21130Y2962D3*
D101*
X23670D3*
X26210D3*
Y5502D3*
X23670D3*
X21130D3*
D33*
X5123Y6572D3*
Y4572D3*
X9905Y25186D3*
X7905D3*
D85*
X33779Y20406D3*
D83*
Y17866D3*
Y15326D3*
Y12786D3*
Y10246D3*
D73*
X3059Y16687D3*
Y12287D3*
M02*
