G04 #@! TF.FileFunction,Profile,NP*
%FSLAX46Y46*%
G04 Gerber Fmt 4.6, Leading zero omitted, Abs format (unit mm)*
G04 Created by KiCad (PCBNEW (2015-04-08 BZR 5585)-product) date Tue 21 Apr 2015 12:26:37 BST*
%MOMM*%
G01*
G04 APERTURE LIST*
%ADD10C,0.100000*%
G04 APERTURE END LIST*
D10*
X119354600Y-110007400D02*
X119354600Y-111023400D01*
X119354600Y-110007400D02*
G75*
G03X117830600Y-108483400I-1524000J0D01*
G01*
X87858600Y-123723400D02*
G75*
G03X89382600Y-125247400I1524000J0D01*
G01*
X89382600Y-108483400D02*
G75*
G03X87858600Y-110007400I0J-1524000D01*
G01*
X119354600Y-111023400D02*
G75*
G03X120878600Y-112547400I1524000J0D01*
G01*
X117830600Y-125247400D02*
G75*
G03X119354600Y-123723400I0J1524000D01*
G01*
X120878600Y-121183400D02*
G75*
G03X119354600Y-122707400I0J-1524000D01*
G01*
X87858600Y-123723400D02*
X87858600Y-110007400D01*
X117830600Y-125247400D02*
X89382600Y-125247400D01*
X119354600Y-122707400D02*
X119354600Y-123723400D01*
X130530600Y-121183400D02*
X120878600Y-121183400D01*
X130530600Y-112547400D02*
X130530600Y-121183400D01*
X120878600Y-112547400D02*
X130530600Y-112547400D01*
X89382600Y-108483400D02*
X117830600Y-108483400D01*
M02*
