G04 (created by PCBNEW-RS274X (2012-01-19 BZR 3256)-stable) date 7/25/2012 10:56:42 AM*
G01*
G70*
G90*
%MOIN*%
G04 Gerber Fmt 3.4, Leading zero omitted, Abs format*
%FSLAX34Y34*%
G04 APERTURE LIST*
%ADD10C,0.006000*%
%ADD11R,0.080000X0.144000*%
%ADD12R,0.080000X0.040000*%
%ADD13R,0.055000X0.055000*%
%ADD14C,0.055000*%
%ADD15C,0.250000*%
%ADD16R,0.078700X0.078700*%
%ADD17C,0.078700*%
%ADD18C,0.098400*%
%ADD19R,0.060000X0.060000*%
%ADD20C,0.060000*%
%ADD21C,0.070000*%
%ADD22R,0.070000X0.070000*%
%ADD23C,0.035000*%
%ADD24C,0.025000*%
%ADD25C,0.008000*%
%ADD26C,0.010000*%
G04 APERTURE END LIST*
G54D10*
G54D11*
X71800Y-42000D03*
G54D12*
X69200Y-42000D03*
X69200Y-42900D03*
X69200Y-41100D03*
G54D13*
X60500Y-42000D03*
G54D14*
X61500Y-42000D03*
X62500Y-42000D03*
G54D15*
X52000Y-35000D03*
X71000Y-35000D03*
X52000Y-44750D03*
X71000Y-44750D03*
G54D14*
X61500Y-36250D03*
X60500Y-36250D03*
X68000Y-42000D03*
X68000Y-43000D03*
X54000Y-44000D03*
X54000Y-43000D03*
X62010Y-35260D03*
X61010Y-35260D03*
X55000Y-40500D03*
X56000Y-40500D03*
X57000Y-40500D03*
X58000Y-40500D03*
X59000Y-40500D03*
X60000Y-40500D03*
X61000Y-40500D03*
X62000Y-40500D03*
X63000Y-40500D03*
X64000Y-40500D03*
X65000Y-40500D03*
X66000Y-40500D03*
X67000Y-40500D03*
G54D13*
X54000Y-40500D03*
G54D14*
X67000Y-37500D03*
X66000Y-37500D03*
X65000Y-37500D03*
X64000Y-37500D03*
X63000Y-37500D03*
X62000Y-37500D03*
X61000Y-37500D03*
X60000Y-37500D03*
X59000Y-37500D03*
X58000Y-37500D03*
X57000Y-37500D03*
X56000Y-37500D03*
X55000Y-37500D03*
X54000Y-37500D03*
G54D16*
X69010Y-45010D03*
G54D17*
X68010Y-45010D03*
G54D18*
X70600Y-39350D03*
X70600Y-37381D03*
G54D19*
X60000Y-45500D03*
G54D20*
X59000Y-45500D03*
X58000Y-45500D03*
X57000Y-45500D03*
X56000Y-45500D03*
X55000Y-45500D03*
G54D19*
X59000Y-44000D03*
G54D20*
X59000Y-43000D03*
X59000Y-42000D03*
G54D19*
X63000Y-34250D03*
G54D20*
X63000Y-35250D03*
X63000Y-36250D03*
G54D19*
X64000Y-34250D03*
G54D20*
X64000Y-35250D03*
X64000Y-36250D03*
G54D19*
X65000Y-34250D03*
G54D20*
X65000Y-35250D03*
X65000Y-36250D03*
G54D19*
X66000Y-34250D03*
G54D20*
X66000Y-35250D03*
X66000Y-36250D03*
G54D19*
X67000Y-34250D03*
G54D20*
X67000Y-35250D03*
X67000Y-36250D03*
G54D19*
X67000Y-44000D03*
G54D20*
X67000Y-43000D03*
X67000Y-42000D03*
G54D19*
X66000Y-44000D03*
G54D20*
X66000Y-43000D03*
X66000Y-42000D03*
G54D19*
X65000Y-44000D03*
G54D20*
X65000Y-43000D03*
X65000Y-42000D03*
G54D19*
X64000Y-44000D03*
G54D20*
X64000Y-43000D03*
X64000Y-42000D03*
G54D19*
X59000Y-34250D03*
G54D20*
X59000Y-35250D03*
X59000Y-36250D03*
G54D19*
X58000Y-44000D03*
G54D20*
X58000Y-43000D03*
X58000Y-42000D03*
G54D19*
X57000Y-44000D03*
G54D20*
X57000Y-43000D03*
X57000Y-42000D03*
G54D19*
X56000Y-44000D03*
G54D20*
X56000Y-43000D03*
X56000Y-42000D03*
G54D19*
X55000Y-44000D03*
G54D20*
X55000Y-43000D03*
X55000Y-42000D03*
G54D19*
X54000Y-34250D03*
G54D20*
X54000Y-35250D03*
X54000Y-36250D03*
G54D19*
X55000Y-34250D03*
G54D20*
X55000Y-35250D03*
X55000Y-36250D03*
G54D19*
X56000Y-34250D03*
G54D20*
X56000Y-35250D03*
X56000Y-36250D03*
G54D19*
X57000Y-34250D03*
G54D20*
X57000Y-35250D03*
X57000Y-36250D03*
G54D19*
X58000Y-34250D03*
G54D20*
X58000Y-35250D03*
X58000Y-36250D03*
G54D21*
X52260Y-41760D03*
G54D22*
X52260Y-37760D03*
G54D20*
X51260Y-37760D03*
X51260Y-41760D03*
G54D19*
X60010Y-34260D03*
G54D20*
X61010Y-34260D03*
X62010Y-34260D03*
G54D23*
X69600Y-40450D03*
G54D24*
X59000Y-37500D02*
X59000Y-36250D01*
X58000Y-37500D02*
X58000Y-36250D01*
X57000Y-37500D02*
X57000Y-36250D01*
X56000Y-37500D02*
X56000Y-36250D01*
X55000Y-37500D02*
X55000Y-36250D01*
X54000Y-36250D02*
X54000Y-37500D01*
X55000Y-45500D02*
X54000Y-44500D01*
X54000Y-44500D02*
X54000Y-44000D01*
G54D25*
X62010Y-35260D02*
X62010Y-34260D01*
X62010Y-35260D02*
X62010Y-35510D01*
X61490Y-37010D02*
X61000Y-37500D01*
X61760Y-37010D02*
X61490Y-37010D01*
X62260Y-36510D02*
X61760Y-37010D01*
X62260Y-35760D02*
X62260Y-36510D01*
X62010Y-35510D02*
X62260Y-35760D01*
G54D24*
X55000Y-40500D02*
X55000Y-42000D01*
X56000Y-40500D02*
X56000Y-42000D01*
G54D25*
X56000Y-42000D02*
X56500Y-42500D01*
X56000Y-45250D02*
X56000Y-45500D01*
X56500Y-42500D02*
X56500Y-44750D01*
X56500Y-44750D02*
X56000Y-45250D01*
G54D24*
X66000Y-37500D02*
X66000Y-36250D01*
X65000Y-37500D02*
X65000Y-36250D01*
X64000Y-37500D02*
X64000Y-36250D01*
X63000Y-37500D02*
X63000Y-36250D01*
X57000Y-42000D02*
X57000Y-40500D01*
X58000Y-42000D02*
X58000Y-40500D01*
X59000Y-42000D02*
X59000Y-40500D01*
X64000Y-40500D02*
X64000Y-42000D01*
X65000Y-40500D02*
X65000Y-42000D01*
X66000Y-40500D02*
X66000Y-42000D01*
X67000Y-40500D02*
X67000Y-42000D01*
X67000Y-37500D02*
X67000Y-36250D01*
X60500Y-42000D02*
X60500Y-41770D01*
X62000Y-40770D02*
X62000Y-40500D01*
X61510Y-41260D02*
X62000Y-40770D01*
X61010Y-41260D02*
X61510Y-41260D01*
X60500Y-41770D02*
X61010Y-41260D01*
X63000Y-40500D02*
X63000Y-41500D01*
X63000Y-41500D02*
X62500Y-42000D01*
G54D25*
X68750Y-42900D02*
X68600Y-42750D01*
X68600Y-42600D02*
X68000Y-42000D01*
X68600Y-42750D02*
X68600Y-42600D01*
X69200Y-42900D02*
X68750Y-42900D01*
G54D24*
X68000Y-39770D02*
X68000Y-42000D01*
X70600Y-39350D02*
X68420Y-39350D01*
X69010Y-43090D02*
X69200Y-42900D01*
X69010Y-45010D02*
X69010Y-43090D01*
X68420Y-39350D02*
X68000Y-39770D01*
G54D25*
X69200Y-41100D02*
X69200Y-40850D01*
X69200Y-40850D02*
X69600Y-40450D01*
G54D24*
X52260Y-41760D02*
X53200Y-41300D01*
X51260Y-41760D02*
X52260Y-41760D01*
X53200Y-41300D02*
X54000Y-40500D01*
X54000Y-40500D02*
X54000Y-43000D01*
G54D25*
X59000Y-35250D02*
X60020Y-35250D01*
X60020Y-35250D02*
X61010Y-34260D01*
G54D24*
X57000Y-35250D02*
X56000Y-35250D01*
X56000Y-35250D02*
X55000Y-35250D01*
X55000Y-35250D02*
X54000Y-35250D01*
G54D10*
G36*
X72210Y-43210D02*
X71750Y-43210D01*
X71750Y-42908D01*
X71750Y-42050D01*
X71750Y-41950D01*
X71750Y-41092D01*
X71688Y-41030D01*
X71449Y-41031D01*
X71350Y-41031D01*
X71259Y-41069D01*
X71189Y-41139D01*
X71151Y-41231D01*
X71150Y-41888D01*
X71212Y-41950D01*
X71750Y-41950D01*
X71750Y-42050D01*
X71212Y-42050D01*
X71150Y-42112D01*
X71151Y-42769D01*
X71189Y-42861D01*
X71259Y-42931D01*
X71350Y-42969D01*
X71449Y-42969D01*
X71688Y-42970D01*
X71750Y-42908D01*
X71750Y-43210D01*
X69944Y-43210D01*
X69944Y-40519D01*
X69944Y-40382D01*
X69892Y-40256D01*
X69795Y-40159D01*
X69669Y-40106D01*
X69532Y-40106D01*
X69406Y-40158D01*
X69309Y-40255D01*
X69256Y-40381D01*
X69256Y-40497D01*
X69052Y-40702D01*
X69032Y-40730D01*
X68766Y-40730D01*
X68704Y-40756D01*
X68656Y-40804D01*
X68630Y-40866D01*
X68630Y-40934D01*
X68630Y-41334D01*
X68656Y-41396D01*
X68704Y-41444D01*
X68766Y-41470D01*
X68834Y-41470D01*
X69634Y-41470D01*
X69696Y-41444D01*
X69744Y-41396D01*
X69770Y-41334D01*
X69770Y-41266D01*
X69770Y-40866D01*
X69744Y-40804D01*
X69714Y-40774D01*
X69794Y-40742D01*
X69891Y-40645D01*
X69944Y-40519D01*
X69944Y-43210D01*
X69850Y-43210D01*
X69850Y-42112D01*
X69850Y-41888D01*
X69849Y-41751D01*
X69811Y-41659D01*
X69741Y-41589D01*
X69650Y-41551D01*
X69551Y-41551D01*
X69312Y-41550D01*
X69250Y-41612D01*
X69250Y-41950D01*
X69788Y-41950D01*
X69850Y-41888D01*
X69850Y-42112D01*
X69788Y-42050D01*
X69250Y-42050D01*
X69250Y-42388D01*
X69312Y-42450D01*
X69551Y-42449D01*
X69650Y-42449D01*
X69741Y-42411D01*
X69811Y-42341D01*
X69849Y-42249D01*
X69850Y-42112D01*
X69850Y-43210D01*
X69730Y-43210D01*
X69744Y-43196D01*
X69770Y-43134D01*
X69770Y-43066D01*
X69770Y-42666D01*
X69744Y-42604D01*
X69696Y-42556D01*
X69634Y-42530D01*
X69566Y-42530D01*
X68796Y-42530D01*
X68794Y-42520D01*
X68793Y-42519D01*
X68778Y-42497D01*
X68748Y-42452D01*
X68748Y-42451D01*
X68743Y-42446D01*
X68750Y-42449D01*
X68849Y-42449D01*
X69088Y-42450D01*
X69150Y-42388D01*
X69150Y-42050D01*
X69150Y-41950D01*
X69150Y-41612D01*
X69088Y-41550D01*
X68849Y-41551D01*
X68750Y-41551D01*
X68659Y-41589D01*
X68589Y-41659D01*
X68551Y-41751D01*
X68550Y-41888D01*
X68612Y-41950D01*
X69150Y-41950D01*
X69150Y-42050D01*
X68612Y-42050D01*
X68550Y-42112D01*
X68551Y-42249D01*
X68554Y-42258D01*
X68426Y-42130D01*
X68444Y-42089D01*
X68444Y-41912D01*
X68377Y-41749D01*
X68295Y-41667D01*
X68295Y-39892D01*
X68542Y-39645D01*
X70006Y-39645D01*
X70039Y-39724D01*
X70225Y-39910D01*
X70468Y-40011D01*
X70731Y-40011D01*
X70974Y-39911D01*
X71160Y-39725D01*
X71261Y-39482D01*
X71261Y-39219D01*
X71261Y-37513D01*
X71261Y-37250D01*
X71161Y-37007D01*
X70975Y-36821D01*
X70732Y-36720D01*
X70469Y-36720D01*
X70226Y-36820D01*
X70040Y-37006D01*
X69939Y-37249D01*
X69939Y-37512D01*
X70039Y-37755D01*
X70225Y-37941D01*
X70468Y-38042D01*
X70731Y-38042D01*
X70974Y-37942D01*
X71160Y-37756D01*
X71261Y-37513D01*
X71261Y-39219D01*
X71161Y-38976D01*
X70975Y-38790D01*
X70732Y-38689D01*
X70469Y-38689D01*
X70226Y-38789D01*
X70040Y-38975D01*
X70006Y-39055D01*
X68420Y-39055D01*
X68419Y-39055D01*
X68397Y-39059D01*
X68307Y-39077D01*
X68211Y-39141D01*
X68209Y-39143D01*
X67791Y-39561D01*
X67727Y-39657D01*
X67704Y-39770D01*
X67705Y-39774D01*
X67705Y-41667D01*
X67624Y-41748D01*
X67556Y-41911D01*
X67556Y-42088D01*
X67623Y-42251D01*
X67748Y-42376D01*
X67911Y-42444D01*
X68088Y-42444D01*
X68130Y-42426D01*
X68390Y-42686D01*
X68390Y-42750D01*
X68401Y-42809D01*
X68377Y-42749D01*
X68252Y-42624D01*
X68089Y-42556D01*
X67912Y-42556D01*
X67749Y-42623D01*
X67624Y-42748D01*
X67556Y-42911D01*
X67556Y-43088D01*
X67623Y-43251D01*
X67748Y-43376D01*
X67911Y-43444D01*
X68088Y-43444D01*
X68251Y-43377D01*
X68376Y-43252D01*
X68444Y-43089D01*
X68444Y-42912D01*
X68417Y-42848D01*
X68452Y-42898D01*
X68601Y-43048D01*
X68602Y-43048D01*
X68630Y-43067D01*
X68630Y-43134D01*
X68656Y-43196D01*
X68704Y-43244D01*
X68715Y-43248D01*
X68715Y-44447D01*
X68583Y-44447D01*
X68521Y-44473D01*
X68473Y-44521D01*
X68447Y-44583D01*
X68447Y-44650D01*
X68330Y-44533D01*
X68123Y-44447D01*
X67899Y-44447D01*
X67692Y-44532D01*
X67543Y-44680D01*
X67543Y-43079D01*
X67543Y-35329D01*
X67532Y-35116D01*
X67472Y-34969D01*
X67378Y-34942D01*
X67071Y-35250D01*
X67378Y-35558D01*
X67472Y-35531D01*
X67543Y-35329D01*
X67543Y-43079D01*
X67532Y-42866D01*
X67472Y-42719D01*
X67470Y-42718D01*
X67470Y-42094D01*
X67470Y-41907D01*
X67470Y-36344D01*
X67470Y-36157D01*
X67399Y-35984D01*
X67267Y-35852D01*
X67102Y-35783D01*
X67134Y-35782D01*
X67281Y-35722D01*
X67308Y-35628D01*
X67000Y-35321D01*
X66929Y-35391D01*
X66929Y-35250D01*
X66622Y-34942D01*
X66528Y-34969D01*
X66502Y-35042D01*
X66472Y-34969D01*
X66378Y-34942D01*
X66071Y-35250D01*
X66378Y-35558D01*
X66472Y-35531D01*
X66497Y-35457D01*
X66528Y-35531D01*
X66622Y-35558D01*
X66929Y-35250D01*
X66929Y-35391D01*
X66692Y-35628D01*
X66719Y-35722D01*
X66896Y-35784D01*
X66734Y-35851D01*
X66602Y-35983D01*
X66530Y-36156D01*
X66530Y-36343D01*
X66601Y-36516D01*
X66705Y-36620D01*
X66705Y-37167D01*
X66624Y-37248D01*
X66556Y-37411D01*
X66556Y-37588D01*
X66623Y-37751D01*
X66748Y-37876D01*
X66911Y-37944D01*
X67088Y-37944D01*
X67251Y-37877D01*
X67376Y-37752D01*
X67444Y-37589D01*
X67444Y-37412D01*
X67377Y-37249D01*
X67295Y-37167D01*
X67295Y-36620D01*
X67398Y-36517D01*
X67470Y-36344D01*
X67470Y-41907D01*
X67399Y-41734D01*
X67295Y-41630D01*
X67295Y-40833D01*
X67376Y-40752D01*
X67444Y-40589D01*
X67444Y-40412D01*
X67377Y-40249D01*
X67252Y-40124D01*
X67089Y-40056D01*
X66912Y-40056D01*
X66749Y-40123D01*
X66624Y-40248D01*
X66556Y-40411D01*
X66556Y-40588D01*
X66623Y-40751D01*
X66705Y-40833D01*
X66705Y-41630D01*
X66602Y-41733D01*
X66530Y-41906D01*
X66530Y-42093D01*
X66601Y-42266D01*
X66733Y-42398D01*
X66897Y-42466D01*
X66866Y-42468D01*
X66719Y-42528D01*
X66692Y-42622D01*
X67000Y-42929D01*
X67308Y-42622D01*
X67281Y-42528D01*
X67103Y-42465D01*
X67266Y-42399D01*
X67398Y-42267D01*
X67470Y-42094D01*
X67470Y-42718D01*
X67378Y-42692D01*
X67071Y-43000D01*
X67378Y-43308D01*
X67472Y-43281D01*
X67543Y-43079D01*
X67543Y-44680D01*
X67533Y-44690D01*
X67470Y-44841D01*
X67470Y-44334D01*
X67470Y-44266D01*
X67470Y-43666D01*
X67444Y-43604D01*
X67396Y-43556D01*
X67334Y-43530D01*
X67266Y-43530D01*
X67138Y-43530D01*
X67281Y-43472D01*
X67308Y-43378D01*
X67000Y-43071D01*
X66929Y-43141D01*
X66929Y-43000D01*
X66622Y-42692D01*
X66528Y-42719D01*
X66502Y-42792D01*
X66472Y-42719D01*
X66470Y-42718D01*
X66470Y-42094D01*
X66470Y-41907D01*
X66470Y-36344D01*
X66470Y-36157D01*
X66399Y-35984D01*
X66267Y-35852D01*
X66102Y-35783D01*
X66134Y-35782D01*
X66281Y-35722D01*
X66308Y-35628D01*
X66000Y-35321D01*
X65929Y-35391D01*
X65929Y-35250D01*
X65622Y-34942D01*
X65528Y-34969D01*
X65502Y-35042D01*
X65472Y-34969D01*
X65378Y-34942D01*
X65071Y-35250D01*
X65378Y-35558D01*
X65472Y-35531D01*
X65497Y-35457D01*
X65528Y-35531D01*
X65622Y-35558D01*
X65929Y-35250D01*
X65929Y-35391D01*
X65692Y-35628D01*
X65719Y-35722D01*
X65896Y-35784D01*
X65734Y-35851D01*
X65602Y-35983D01*
X65530Y-36156D01*
X65530Y-36343D01*
X65601Y-36516D01*
X65705Y-36620D01*
X65705Y-37167D01*
X65624Y-37248D01*
X65556Y-37411D01*
X65556Y-37588D01*
X65623Y-37751D01*
X65748Y-37876D01*
X65911Y-37944D01*
X66088Y-37944D01*
X66251Y-37877D01*
X66376Y-37752D01*
X66444Y-37589D01*
X66444Y-37412D01*
X66377Y-37249D01*
X66295Y-37167D01*
X66295Y-36620D01*
X66398Y-36517D01*
X66470Y-36344D01*
X66470Y-41907D01*
X66399Y-41734D01*
X66295Y-41630D01*
X66295Y-40833D01*
X66376Y-40752D01*
X66444Y-40589D01*
X66444Y-40412D01*
X66377Y-40249D01*
X66252Y-40124D01*
X66089Y-40056D01*
X65912Y-40056D01*
X65749Y-40123D01*
X65624Y-40248D01*
X65556Y-40411D01*
X65556Y-40588D01*
X65623Y-40751D01*
X65705Y-40833D01*
X65705Y-41630D01*
X65602Y-41733D01*
X65530Y-41906D01*
X65530Y-42093D01*
X65601Y-42266D01*
X65733Y-42398D01*
X65897Y-42466D01*
X65866Y-42468D01*
X65719Y-42528D01*
X65692Y-42622D01*
X66000Y-42929D01*
X66308Y-42622D01*
X66281Y-42528D01*
X66103Y-42465D01*
X66266Y-42399D01*
X66398Y-42267D01*
X66470Y-42094D01*
X66470Y-42718D01*
X66378Y-42692D01*
X66071Y-43000D01*
X66378Y-43308D01*
X66472Y-43281D01*
X66497Y-43207D01*
X66528Y-43281D01*
X66622Y-43308D01*
X66929Y-43000D01*
X66929Y-43141D01*
X66692Y-43378D01*
X66719Y-43472D01*
X66884Y-43530D01*
X66666Y-43530D01*
X66604Y-43556D01*
X66556Y-43604D01*
X66530Y-43666D01*
X66530Y-43734D01*
X66530Y-44334D01*
X66556Y-44396D01*
X66604Y-44444D01*
X66666Y-44470D01*
X66734Y-44470D01*
X67334Y-44470D01*
X67396Y-44444D01*
X67444Y-44396D01*
X67470Y-44334D01*
X67470Y-44841D01*
X67447Y-44897D01*
X67447Y-45121D01*
X67532Y-45328D01*
X67690Y-45487D01*
X67897Y-45573D01*
X68121Y-45573D01*
X68328Y-45488D01*
X68447Y-45369D01*
X68447Y-45437D01*
X68473Y-45499D01*
X68521Y-45547D01*
X68583Y-45573D01*
X68651Y-45573D01*
X69437Y-45573D01*
X69460Y-45563D01*
X69460Y-45960D01*
X66470Y-45960D01*
X66470Y-44334D01*
X66470Y-44266D01*
X66470Y-43666D01*
X66444Y-43604D01*
X66396Y-43556D01*
X66334Y-43530D01*
X66266Y-43530D01*
X66138Y-43530D01*
X66281Y-43472D01*
X66308Y-43378D01*
X66000Y-43071D01*
X65929Y-43141D01*
X65929Y-43000D01*
X65622Y-42692D01*
X65528Y-42719D01*
X65502Y-42792D01*
X65472Y-42719D01*
X65470Y-42718D01*
X65470Y-42094D01*
X65470Y-41907D01*
X65470Y-36344D01*
X65470Y-36157D01*
X65399Y-35984D01*
X65267Y-35852D01*
X65102Y-35783D01*
X65134Y-35782D01*
X65281Y-35722D01*
X65308Y-35628D01*
X65000Y-35321D01*
X64929Y-35391D01*
X64929Y-35250D01*
X64622Y-34942D01*
X64528Y-34969D01*
X64502Y-35042D01*
X64472Y-34969D01*
X64378Y-34942D01*
X64071Y-35250D01*
X64378Y-35558D01*
X64472Y-35531D01*
X64497Y-35457D01*
X64528Y-35531D01*
X64622Y-35558D01*
X64929Y-35250D01*
X64929Y-35391D01*
X64692Y-35628D01*
X64719Y-35722D01*
X64896Y-35784D01*
X64734Y-35851D01*
X64602Y-35983D01*
X64530Y-36156D01*
X64530Y-36343D01*
X64601Y-36516D01*
X64705Y-36620D01*
X64705Y-37167D01*
X64624Y-37248D01*
X64556Y-37411D01*
X64556Y-37588D01*
X64623Y-37751D01*
X64748Y-37876D01*
X64911Y-37944D01*
X65088Y-37944D01*
X65251Y-37877D01*
X65376Y-37752D01*
X65444Y-37589D01*
X65444Y-37412D01*
X65377Y-37249D01*
X65295Y-37167D01*
X65295Y-36620D01*
X65398Y-36517D01*
X65470Y-36344D01*
X65470Y-41907D01*
X65399Y-41734D01*
X65295Y-41630D01*
X65295Y-40833D01*
X65376Y-40752D01*
X65444Y-40589D01*
X65444Y-40412D01*
X65377Y-40249D01*
X65252Y-40124D01*
X65089Y-40056D01*
X64912Y-40056D01*
X64749Y-40123D01*
X64624Y-40248D01*
X64556Y-40411D01*
X64556Y-40588D01*
X64623Y-40751D01*
X64705Y-40833D01*
X64705Y-41630D01*
X64602Y-41733D01*
X64530Y-41906D01*
X64530Y-42093D01*
X64601Y-42266D01*
X64733Y-42398D01*
X64897Y-42466D01*
X64866Y-42468D01*
X64719Y-42528D01*
X64692Y-42622D01*
X65000Y-42929D01*
X65308Y-42622D01*
X65281Y-42528D01*
X65103Y-42465D01*
X65266Y-42399D01*
X65398Y-42267D01*
X65470Y-42094D01*
X65470Y-42718D01*
X65378Y-42692D01*
X65071Y-43000D01*
X65378Y-43308D01*
X65472Y-43281D01*
X65497Y-43207D01*
X65528Y-43281D01*
X65622Y-43308D01*
X65929Y-43000D01*
X65929Y-43141D01*
X65692Y-43378D01*
X65719Y-43472D01*
X65884Y-43530D01*
X65666Y-43530D01*
X65604Y-43556D01*
X65556Y-43604D01*
X65530Y-43666D01*
X65530Y-43734D01*
X65530Y-44334D01*
X65556Y-44396D01*
X65604Y-44444D01*
X65666Y-44470D01*
X65734Y-44470D01*
X66334Y-44470D01*
X66396Y-44444D01*
X66444Y-44396D01*
X66470Y-44334D01*
X66470Y-45960D01*
X65470Y-45960D01*
X65470Y-44334D01*
X65470Y-44266D01*
X65470Y-43666D01*
X65444Y-43604D01*
X65396Y-43556D01*
X65334Y-43530D01*
X65266Y-43530D01*
X65138Y-43530D01*
X65281Y-43472D01*
X65308Y-43378D01*
X65000Y-43071D01*
X64929Y-43141D01*
X64929Y-43000D01*
X64622Y-42692D01*
X64528Y-42719D01*
X64502Y-42792D01*
X64472Y-42719D01*
X64470Y-42718D01*
X64470Y-42094D01*
X64470Y-41907D01*
X64470Y-36344D01*
X64470Y-36157D01*
X64399Y-35984D01*
X64267Y-35852D01*
X64102Y-35783D01*
X64134Y-35782D01*
X64281Y-35722D01*
X64308Y-35628D01*
X64000Y-35321D01*
X63929Y-35391D01*
X63929Y-35250D01*
X63622Y-34942D01*
X63528Y-34969D01*
X63502Y-35042D01*
X63472Y-34969D01*
X63378Y-34942D01*
X63071Y-35250D01*
X63378Y-35558D01*
X63472Y-35531D01*
X63497Y-35457D01*
X63528Y-35531D01*
X63622Y-35558D01*
X63929Y-35250D01*
X63929Y-35391D01*
X63692Y-35628D01*
X63719Y-35722D01*
X63896Y-35784D01*
X63734Y-35851D01*
X63602Y-35983D01*
X63530Y-36156D01*
X63530Y-36343D01*
X63601Y-36516D01*
X63705Y-36620D01*
X63705Y-37167D01*
X63624Y-37248D01*
X63556Y-37411D01*
X63556Y-37588D01*
X63623Y-37751D01*
X63748Y-37876D01*
X63911Y-37944D01*
X64088Y-37944D01*
X64251Y-37877D01*
X64376Y-37752D01*
X64444Y-37589D01*
X64444Y-37412D01*
X64377Y-37249D01*
X64295Y-37167D01*
X64295Y-36620D01*
X64398Y-36517D01*
X64470Y-36344D01*
X64470Y-41907D01*
X64399Y-41734D01*
X64295Y-41630D01*
X64295Y-40833D01*
X64376Y-40752D01*
X64444Y-40589D01*
X64444Y-40412D01*
X64377Y-40249D01*
X64252Y-40124D01*
X64089Y-40056D01*
X63912Y-40056D01*
X63749Y-40123D01*
X63624Y-40248D01*
X63556Y-40411D01*
X63556Y-40588D01*
X63623Y-40751D01*
X63705Y-40833D01*
X63705Y-41630D01*
X63602Y-41733D01*
X63530Y-41906D01*
X63530Y-42093D01*
X63601Y-42266D01*
X63733Y-42398D01*
X63897Y-42466D01*
X63866Y-42468D01*
X63719Y-42528D01*
X63692Y-42622D01*
X64000Y-42929D01*
X64308Y-42622D01*
X64281Y-42528D01*
X64103Y-42465D01*
X64266Y-42399D01*
X64398Y-42267D01*
X64470Y-42094D01*
X64470Y-42718D01*
X64378Y-42692D01*
X64071Y-43000D01*
X64378Y-43308D01*
X64472Y-43281D01*
X64497Y-43207D01*
X64528Y-43281D01*
X64622Y-43308D01*
X64929Y-43000D01*
X64929Y-43141D01*
X64692Y-43378D01*
X64719Y-43472D01*
X64884Y-43530D01*
X64666Y-43530D01*
X64604Y-43556D01*
X64556Y-43604D01*
X64530Y-43666D01*
X64530Y-43734D01*
X64530Y-44334D01*
X64556Y-44396D01*
X64604Y-44444D01*
X64666Y-44470D01*
X64734Y-44470D01*
X65334Y-44470D01*
X65396Y-44444D01*
X65444Y-44396D01*
X65470Y-44334D01*
X65470Y-45960D01*
X64470Y-45960D01*
X64470Y-44334D01*
X64470Y-44266D01*
X64470Y-43666D01*
X64444Y-43604D01*
X64396Y-43556D01*
X64334Y-43530D01*
X64266Y-43530D01*
X64138Y-43530D01*
X64281Y-43472D01*
X64308Y-43378D01*
X64000Y-43071D01*
X63929Y-43141D01*
X63929Y-43000D01*
X63622Y-42692D01*
X63528Y-42719D01*
X63470Y-42884D01*
X63470Y-36344D01*
X63470Y-36157D01*
X63399Y-35984D01*
X63267Y-35852D01*
X63102Y-35783D01*
X63134Y-35782D01*
X63281Y-35722D01*
X63308Y-35628D01*
X63000Y-35321D01*
X62929Y-35391D01*
X62929Y-35250D01*
X62622Y-34942D01*
X62528Y-34969D01*
X62457Y-35171D01*
X62468Y-35384D01*
X62528Y-35531D01*
X62622Y-35558D01*
X62929Y-35250D01*
X62929Y-35391D01*
X62692Y-35628D01*
X62719Y-35722D01*
X62896Y-35784D01*
X62734Y-35851D01*
X62602Y-35983D01*
X62530Y-36156D01*
X62530Y-36343D01*
X62601Y-36516D01*
X62705Y-36620D01*
X62705Y-37167D01*
X62624Y-37248D01*
X62556Y-37411D01*
X62556Y-37588D01*
X62623Y-37751D01*
X62748Y-37876D01*
X62911Y-37944D01*
X63088Y-37944D01*
X63251Y-37877D01*
X63376Y-37752D01*
X63444Y-37589D01*
X63444Y-37412D01*
X63377Y-37249D01*
X63295Y-37167D01*
X63295Y-36620D01*
X63398Y-36517D01*
X63470Y-36344D01*
X63470Y-42884D01*
X63457Y-42921D01*
X63468Y-43134D01*
X63528Y-43281D01*
X63622Y-43308D01*
X63929Y-43000D01*
X63929Y-43141D01*
X63692Y-43378D01*
X63719Y-43472D01*
X63884Y-43530D01*
X63666Y-43530D01*
X63604Y-43556D01*
X63556Y-43604D01*
X63530Y-43666D01*
X63530Y-43734D01*
X63530Y-44334D01*
X63556Y-44396D01*
X63604Y-44444D01*
X63666Y-44470D01*
X63734Y-44470D01*
X64334Y-44470D01*
X64396Y-44444D01*
X64444Y-44396D01*
X64470Y-44334D01*
X64470Y-45960D01*
X63444Y-45960D01*
X63444Y-40589D01*
X63444Y-40412D01*
X63377Y-40249D01*
X63252Y-40124D01*
X63089Y-40056D01*
X62912Y-40056D01*
X62749Y-40123D01*
X62624Y-40248D01*
X62556Y-40411D01*
X62556Y-40588D01*
X62623Y-40751D01*
X62705Y-40833D01*
X62705Y-41377D01*
X62526Y-41556D01*
X62519Y-41556D01*
X62519Y-37574D01*
X62508Y-37370D01*
X62452Y-37233D01*
X62361Y-37210D01*
X62071Y-37500D01*
X62361Y-37790D01*
X62452Y-37767D01*
X62519Y-37574D01*
X62519Y-41556D01*
X62444Y-41556D01*
X62444Y-40589D01*
X62444Y-40412D01*
X62377Y-40249D01*
X62290Y-40162D01*
X62290Y-37861D01*
X62000Y-37571D01*
X61710Y-37861D01*
X61733Y-37952D01*
X61926Y-38019D01*
X62130Y-38008D01*
X62267Y-37952D01*
X62290Y-37861D01*
X62290Y-40162D01*
X62252Y-40124D01*
X62089Y-40056D01*
X61912Y-40056D01*
X61749Y-40123D01*
X61624Y-40248D01*
X61556Y-40411D01*
X61556Y-40588D01*
X61616Y-40735D01*
X61444Y-40907D01*
X61444Y-40589D01*
X61444Y-40412D01*
X61377Y-40249D01*
X61252Y-40124D01*
X61089Y-40056D01*
X60912Y-40056D01*
X60749Y-40123D01*
X60624Y-40248D01*
X60556Y-40411D01*
X60556Y-40588D01*
X60623Y-40751D01*
X60748Y-40876D01*
X60911Y-40944D01*
X61088Y-40944D01*
X61251Y-40877D01*
X61376Y-40752D01*
X61444Y-40589D01*
X61444Y-40907D01*
X61387Y-40965D01*
X61010Y-40965D01*
X60897Y-40987D01*
X60801Y-41051D01*
X60799Y-41053D01*
X60519Y-41333D01*
X60519Y-40574D01*
X60508Y-40370D01*
X60452Y-40233D01*
X60444Y-40230D01*
X60444Y-37589D01*
X60444Y-37412D01*
X60377Y-37249D01*
X60252Y-37124D01*
X60089Y-37056D01*
X59912Y-37056D01*
X59749Y-37123D01*
X59624Y-37248D01*
X59556Y-37411D01*
X59556Y-37588D01*
X59623Y-37751D01*
X59748Y-37876D01*
X59911Y-37944D01*
X60088Y-37944D01*
X60251Y-37877D01*
X60376Y-37752D01*
X60444Y-37589D01*
X60444Y-40230D01*
X60361Y-40210D01*
X60290Y-40281D01*
X60290Y-40139D01*
X60267Y-40048D01*
X60074Y-39981D01*
X59870Y-39992D01*
X59733Y-40048D01*
X59710Y-40139D01*
X60000Y-40429D01*
X60290Y-40139D01*
X60290Y-40281D01*
X60071Y-40500D01*
X60361Y-40790D01*
X60452Y-40767D01*
X60519Y-40574D01*
X60519Y-41333D01*
X60297Y-41555D01*
X60290Y-41555D01*
X60290Y-40861D01*
X60000Y-40571D01*
X59929Y-40642D01*
X59929Y-40500D01*
X59639Y-40210D01*
X59548Y-40233D01*
X59481Y-40426D01*
X59492Y-40630D01*
X59548Y-40767D01*
X59639Y-40790D01*
X59929Y-40500D01*
X59929Y-40642D01*
X59710Y-40861D01*
X59733Y-40952D01*
X59926Y-41019D01*
X60130Y-41008D01*
X60267Y-40952D01*
X60290Y-40861D01*
X60290Y-41555D01*
X60191Y-41555D01*
X60129Y-41581D01*
X60081Y-41629D01*
X60055Y-41691D01*
X60055Y-41759D01*
X60055Y-42309D01*
X60081Y-42371D01*
X60129Y-42419D01*
X60191Y-42445D01*
X60259Y-42445D01*
X60809Y-42445D01*
X60871Y-42419D01*
X60919Y-42371D01*
X60945Y-42309D01*
X60945Y-42241D01*
X60945Y-41742D01*
X61132Y-41555D01*
X61505Y-41555D01*
X61510Y-41556D01*
X61412Y-41556D01*
X61249Y-41623D01*
X61124Y-41748D01*
X61056Y-41911D01*
X61056Y-42088D01*
X61123Y-42251D01*
X61248Y-42376D01*
X61411Y-42444D01*
X61588Y-42444D01*
X61751Y-42377D01*
X61876Y-42252D01*
X61944Y-42089D01*
X61944Y-41912D01*
X61877Y-41749D01*
X61752Y-41624D01*
X61589Y-41556D01*
X61510Y-41556D01*
X61510Y-41555D01*
X61623Y-41533D01*
X61719Y-41469D01*
X62206Y-40980D01*
X62208Y-40979D01*
X62209Y-40979D01*
X62272Y-40884D01*
X62273Y-40883D01*
X62279Y-40848D01*
X62376Y-40752D01*
X62444Y-40589D01*
X62444Y-41556D01*
X62412Y-41556D01*
X62249Y-41623D01*
X62124Y-41748D01*
X62056Y-41911D01*
X62056Y-42088D01*
X62123Y-42251D01*
X62248Y-42376D01*
X62411Y-42444D01*
X62588Y-42444D01*
X62751Y-42377D01*
X62876Y-42252D01*
X62944Y-42089D01*
X62944Y-41974D01*
X63209Y-41709D01*
X63273Y-41613D01*
X63295Y-41500D01*
X63295Y-40833D01*
X63376Y-40752D01*
X63444Y-40589D01*
X63444Y-45960D01*
X60357Y-45960D01*
X60396Y-45944D01*
X60444Y-45896D01*
X60470Y-45834D01*
X60470Y-45766D01*
X60470Y-45166D01*
X60444Y-45104D01*
X60396Y-45056D01*
X60334Y-45030D01*
X60266Y-45030D01*
X59666Y-45030D01*
X59604Y-45056D01*
X59556Y-45104D01*
X59543Y-45135D01*
X59543Y-43079D01*
X59532Y-42866D01*
X59472Y-42719D01*
X59470Y-42718D01*
X59470Y-42094D01*
X59470Y-41907D01*
X59470Y-36344D01*
X59470Y-36157D01*
X59399Y-35984D01*
X59267Y-35852D01*
X59094Y-35780D01*
X58907Y-35780D01*
X58734Y-35851D01*
X58602Y-35983D01*
X58530Y-36156D01*
X58530Y-36343D01*
X58601Y-36516D01*
X58705Y-36620D01*
X58705Y-37167D01*
X58624Y-37248D01*
X58556Y-37411D01*
X58556Y-37588D01*
X58623Y-37751D01*
X58748Y-37876D01*
X58911Y-37944D01*
X59088Y-37944D01*
X59251Y-37877D01*
X59376Y-37752D01*
X59444Y-37589D01*
X59444Y-37412D01*
X59377Y-37249D01*
X59295Y-37167D01*
X59295Y-36620D01*
X59398Y-36517D01*
X59470Y-36344D01*
X59470Y-41907D01*
X59399Y-41734D01*
X59295Y-41630D01*
X59295Y-40833D01*
X59376Y-40752D01*
X59444Y-40589D01*
X59444Y-40412D01*
X59377Y-40249D01*
X59252Y-40124D01*
X59089Y-40056D01*
X58912Y-40056D01*
X58749Y-40123D01*
X58624Y-40248D01*
X58556Y-40411D01*
X58556Y-40588D01*
X58623Y-40751D01*
X58705Y-40833D01*
X58705Y-41630D01*
X58602Y-41733D01*
X58530Y-41906D01*
X58530Y-42093D01*
X58601Y-42266D01*
X58733Y-42398D01*
X58897Y-42466D01*
X58866Y-42468D01*
X58719Y-42528D01*
X58692Y-42622D01*
X59000Y-42929D01*
X59308Y-42622D01*
X59281Y-42528D01*
X59103Y-42465D01*
X59266Y-42399D01*
X59398Y-42267D01*
X59470Y-42094D01*
X59470Y-42718D01*
X59378Y-42692D01*
X59071Y-43000D01*
X59378Y-43308D01*
X59472Y-43281D01*
X59543Y-43079D01*
X59543Y-45135D01*
X59530Y-45166D01*
X59530Y-45234D01*
X59530Y-45834D01*
X59556Y-45896D01*
X59604Y-45944D01*
X59642Y-45960D01*
X59117Y-45960D01*
X59266Y-45899D01*
X59398Y-45767D01*
X59470Y-45594D01*
X59470Y-45407D01*
X59470Y-44334D01*
X59470Y-44266D01*
X59470Y-43666D01*
X59444Y-43604D01*
X59396Y-43556D01*
X59334Y-43530D01*
X59266Y-43530D01*
X59138Y-43530D01*
X59281Y-43472D01*
X59308Y-43378D01*
X59000Y-43071D01*
X58929Y-43141D01*
X58929Y-43000D01*
X58622Y-42692D01*
X58528Y-42719D01*
X58502Y-42792D01*
X58472Y-42719D01*
X58470Y-42718D01*
X58470Y-42094D01*
X58470Y-41907D01*
X58470Y-36344D01*
X58470Y-36157D01*
X58470Y-35344D01*
X58470Y-35157D01*
X58399Y-34984D01*
X58267Y-34852D01*
X58094Y-34780D01*
X57907Y-34780D01*
X57734Y-34851D01*
X57602Y-34983D01*
X57530Y-35156D01*
X57530Y-35343D01*
X57601Y-35516D01*
X57733Y-35648D01*
X57906Y-35720D01*
X58093Y-35720D01*
X58266Y-35649D01*
X58398Y-35517D01*
X58470Y-35344D01*
X58470Y-36157D01*
X58399Y-35984D01*
X58267Y-35852D01*
X58094Y-35780D01*
X57907Y-35780D01*
X57734Y-35851D01*
X57602Y-35983D01*
X57530Y-36156D01*
X57530Y-36343D01*
X57601Y-36516D01*
X57705Y-36620D01*
X57705Y-37167D01*
X57624Y-37248D01*
X57556Y-37411D01*
X57556Y-37588D01*
X57623Y-37751D01*
X57748Y-37876D01*
X57911Y-37944D01*
X58088Y-37944D01*
X58251Y-37877D01*
X58376Y-37752D01*
X58444Y-37589D01*
X58444Y-37412D01*
X58377Y-37249D01*
X58295Y-37167D01*
X58295Y-36620D01*
X58398Y-36517D01*
X58470Y-36344D01*
X58470Y-41907D01*
X58399Y-41734D01*
X58295Y-41630D01*
X58295Y-40833D01*
X58376Y-40752D01*
X58444Y-40589D01*
X58444Y-40412D01*
X58377Y-40249D01*
X58252Y-40124D01*
X58089Y-40056D01*
X57912Y-40056D01*
X57749Y-40123D01*
X57624Y-40248D01*
X57556Y-40411D01*
X57556Y-40588D01*
X57623Y-40751D01*
X57705Y-40833D01*
X57705Y-41630D01*
X57602Y-41733D01*
X57530Y-41906D01*
X57530Y-42093D01*
X57601Y-42266D01*
X57733Y-42398D01*
X57897Y-42466D01*
X57866Y-42468D01*
X57719Y-42528D01*
X57692Y-42622D01*
X58000Y-42929D01*
X58308Y-42622D01*
X58281Y-42528D01*
X58103Y-42465D01*
X58266Y-42399D01*
X58398Y-42267D01*
X58470Y-42094D01*
X58470Y-42718D01*
X58378Y-42692D01*
X58071Y-43000D01*
X58378Y-43308D01*
X58472Y-43281D01*
X58497Y-43207D01*
X58528Y-43281D01*
X58622Y-43308D01*
X58929Y-43000D01*
X58929Y-43141D01*
X58692Y-43378D01*
X58719Y-43472D01*
X58884Y-43530D01*
X58666Y-43530D01*
X58604Y-43556D01*
X58556Y-43604D01*
X58530Y-43666D01*
X58530Y-43734D01*
X58530Y-44334D01*
X58556Y-44396D01*
X58604Y-44444D01*
X58666Y-44470D01*
X58734Y-44470D01*
X59334Y-44470D01*
X59396Y-44444D01*
X59444Y-44396D01*
X59470Y-44334D01*
X59470Y-45407D01*
X59399Y-45234D01*
X59267Y-45102D01*
X59094Y-45030D01*
X58907Y-45030D01*
X58734Y-45101D01*
X58602Y-45233D01*
X58533Y-45397D01*
X58532Y-45366D01*
X58472Y-45219D01*
X58470Y-45218D01*
X58470Y-44334D01*
X58470Y-44266D01*
X58470Y-43666D01*
X58444Y-43604D01*
X58396Y-43556D01*
X58334Y-43530D01*
X58266Y-43530D01*
X58138Y-43530D01*
X58281Y-43472D01*
X58308Y-43378D01*
X58000Y-43071D01*
X57929Y-43141D01*
X57929Y-43000D01*
X57622Y-42692D01*
X57528Y-42719D01*
X57502Y-42792D01*
X57472Y-42719D01*
X57378Y-42692D01*
X57071Y-43000D01*
X57378Y-43308D01*
X57472Y-43281D01*
X57497Y-43207D01*
X57528Y-43281D01*
X57622Y-43308D01*
X57929Y-43000D01*
X57929Y-43141D01*
X57692Y-43378D01*
X57719Y-43472D01*
X57884Y-43530D01*
X57666Y-43530D01*
X57604Y-43556D01*
X57556Y-43604D01*
X57530Y-43666D01*
X57530Y-43734D01*
X57530Y-44334D01*
X57556Y-44396D01*
X57604Y-44444D01*
X57666Y-44470D01*
X57734Y-44470D01*
X58334Y-44470D01*
X58396Y-44444D01*
X58444Y-44396D01*
X58470Y-44334D01*
X58470Y-45218D01*
X58378Y-45192D01*
X58308Y-45262D01*
X58308Y-45122D01*
X58281Y-45028D01*
X58079Y-44957D01*
X57866Y-44968D01*
X57719Y-45028D01*
X57692Y-45122D01*
X58000Y-45429D01*
X58308Y-45122D01*
X58308Y-45262D01*
X58071Y-45500D01*
X58378Y-45808D01*
X58472Y-45781D01*
X58534Y-45603D01*
X58601Y-45766D01*
X58733Y-45898D01*
X58881Y-45960D01*
X58284Y-45960D01*
X58308Y-45878D01*
X58000Y-45571D01*
X57692Y-45878D01*
X57715Y-45960D01*
X57117Y-45960D01*
X57266Y-45899D01*
X57398Y-45767D01*
X57466Y-45602D01*
X57468Y-45634D01*
X57528Y-45781D01*
X57622Y-45808D01*
X57929Y-45500D01*
X57622Y-45192D01*
X57528Y-45219D01*
X57465Y-45396D01*
X57399Y-45234D01*
X57267Y-45102D01*
X57094Y-45030D01*
X56907Y-45030D01*
X56734Y-45101D01*
X56602Y-45233D01*
X56530Y-45406D01*
X56530Y-45593D01*
X56601Y-45766D01*
X56733Y-45898D01*
X56881Y-45960D01*
X56117Y-45960D01*
X56266Y-45899D01*
X56398Y-45767D01*
X56470Y-45594D01*
X56470Y-45407D01*
X56399Y-45234D01*
X56355Y-45190D01*
X56648Y-44899D01*
X56648Y-44898D01*
X56694Y-44831D01*
X56694Y-44830D01*
X56696Y-44817D01*
X56709Y-44750D01*
X56710Y-44750D01*
X56710Y-44470D01*
X56734Y-44470D01*
X57334Y-44470D01*
X57396Y-44444D01*
X57444Y-44396D01*
X57470Y-44334D01*
X57470Y-44266D01*
X57470Y-43666D01*
X57444Y-43604D01*
X57396Y-43556D01*
X57334Y-43530D01*
X57266Y-43530D01*
X57138Y-43530D01*
X57281Y-43472D01*
X57308Y-43378D01*
X57035Y-43106D01*
X57000Y-43071D01*
X56929Y-43000D01*
X57000Y-42929D01*
X57035Y-42894D01*
X57308Y-42622D01*
X57281Y-42528D01*
X57103Y-42465D01*
X57266Y-42399D01*
X57398Y-42267D01*
X57470Y-42094D01*
X57470Y-41907D01*
X57470Y-36344D01*
X57470Y-36157D01*
X57399Y-35984D01*
X57267Y-35852D01*
X57094Y-35780D01*
X56907Y-35780D01*
X56734Y-35851D01*
X56602Y-35983D01*
X56530Y-36156D01*
X56530Y-36343D01*
X56601Y-36516D01*
X56705Y-36620D01*
X56705Y-37167D01*
X56624Y-37248D01*
X56556Y-37411D01*
X56556Y-37588D01*
X56623Y-37751D01*
X56748Y-37876D01*
X56911Y-37944D01*
X57088Y-37944D01*
X57251Y-37877D01*
X57376Y-37752D01*
X57444Y-37589D01*
X57444Y-37412D01*
X57377Y-37249D01*
X57295Y-37167D01*
X57295Y-36620D01*
X57398Y-36517D01*
X57470Y-36344D01*
X57470Y-41907D01*
X57399Y-41734D01*
X57295Y-41630D01*
X57295Y-40833D01*
X57376Y-40752D01*
X57444Y-40589D01*
X57444Y-40412D01*
X57377Y-40249D01*
X57252Y-40124D01*
X57089Y-40056D01*
X56912Y-40056D01*
X56749Y-40123D01*
X56624Y-40248D01*
X56556Y-40411D01*
X56556Y-40588D01*
X56623Y-40751D01*
X56705Y-40833D01*
X56705Y-41630D01*
X56602Y-41733D01*
X56530Y-41906D01*
X56530Y-42093D01*
X56601Y-42266D01*
X56733Y-42398D01*
X56897Y-42466D01*
X56866Y-42468D01*
X56719Y-42528D01*
X56710Y-42559D01*
X56710Y-42500D01*
X56696Y-42432D01*
X56694Y-42420D01*
X56694Y-42419D01*
X56648Y-42352D01*
X56648Y-42351D01*
X56446Y-42150D01*
X56470Y-42094D01*
X56470Y-41907D01*
X56470Y-36344D01*
X56470Y-36157D01*
X56399Y-35984D01*
X56267Y-35852D01*
X56094Y-35780D01*
X55907Y-35780D01*
X55734Y-35851D01*
X55602Y-35983D01*
X55530Y-36156D01*
X55530Y-36343D01*
X55601Y-36516D01*
X55705Y-36620D01*
X55705Y-37167D01*
X55624Y-37248D01*
X55556Y-37411D01*
X55556Y-37588D01*
X55623Y-37751D01*
X55748Y-37876D01*
X55911Y-37944D01*
X56088Y-37944D01*
X56251Y-37877D01*
X56376Y-37752D01*
X56444Y-37589D01*
X56444Y-37412D01*
X56377Y-37249D01*
X56295Y-37167D01*
X56295Y-36620D01*
X56398Y-36517D01*
X56470Y-36344D01*
X56470Y-41907D01*
X56399Y-41734D01*
X56295Y-41630D01*
X56295Y-40833D01*
X56376Y-40752D01*
X56444Y-40589D01*
X56444Y-40412D01*
X56377Y-40249D01*
X56252Y-40124D01*
X56089Y-40056D01*
X55912Y-40056D01*
X55749Y-40123D01*
X55624Y-40248D01*
X55556Y-40411D01*
X55556Y-40588D01*
X55623Y-40751D01*
X55705Y-40833D01*
X55705Y-41630D01*
X55602Y-41733D01*
X55530Y-41906D01*
X55530Y-42093D01*
X55601Y-42266D01*
X55733Y-42398D01*
X55897Y-42466D01*
X55866Y-42468D01*
X55719Y-42528D01*
X55692Y-42622D01*
X55965Y-42894D01*
X56000Y-42929D01*
X56071Y-43000D01*
X56000Y-43071D01*
X55929Y-43141D01*
X55929Y-43000D01*
X55622Y-42692D01*
X55528Y-42719D01*
X55502Y-42792D01*
X55472Y-42719D01*
X55470Y-42718D01*
X55470Y-42094D01*
X55470Y-41907D01*
X55470Y-36344D01*
X55470Y-36157D01*
X55399Y-35984D01*
X55267Y-35852D01*
X55094Y-35780D01*
X54907Y-35780D01*
X54734Y-35851D01*
X54602Y-35983D01*
X54530Y-36156D01*
X54530Y-36343D01*
X54601Y-36516D01*
X54705Y-36620D01*
X54705Y-37167D01*
X54624Y-37248D01*
X54556Y-37411D01*
X54556Y-37588D01*
X54623Y-37751D01*
X54748Y-37876D01*
X54911Y-37944D01*
X55088Y-37944D01*
X55251Y-37877D01*
X55376Y-37752D01*
X55444Y-37589D01*
X55444Y-37412D01*
X55377Y-37249D01*
X55295Y-37167D01*
X55295Y-36620D01*
X55398Y-36517D01*
X55470Y-36344D01*
X55470Y-41907D01*
X55399Y-41734D01*
X55295Y-41630D01*
X55295Y-40833D01*
X55376Y-40752D01*
X55444Y-40589D01*
X55444Y-40412D01*
X55377Y-40249D01*
X55252Y-40124D01*
X55089Y-40056D01*
X54912Y-40056D01*
X54749Y-40123D01*
X54624Y-40248D01*
X54556Y-40411D01*
X54556Y-40588D01*
X54623Y-40751D01*
X54705Y-40833D01*
X54705Y-41630D01*
X54602Y-41733D01*
X54530Y-41906D01*
X54530Y-42093D01*
X54601Y-42266D01*
X54733Y-42398D01*
X54897Y-42466D01*
X54866Y-42468D01*
X54719Y-42528D01*
X54692Y-42622D01*
X55000Y-42929D01*
X55308Y-42622D01*
X55281Y-42528D01*
X55103Y-42465D01*
X55266Y-42399D01*
X55398Y-42267D01*
X55470Y-42094D01*
X55470Y-42718D01*
X55378Y-42692D01*
X55071Y-43000D01*
X55378Y-43308D01*
X55472Y-43281D01*
X55497Y-43207D01*
X55528Y-43281D01*
X55622Y-43308D01*
X55929Y-43000D01*
X55929Y-43141D01*
X55692Y-43378D01*
X55719Y-43472D01*
X55884Y-43530D01*
X55666Y-43530D01*
X55604Y-43556D01*
X55556Y-43604D01*
X55530Y-43666D01*
X55530Y-43734D01*
X55530Y-44334D01*
X55556Y-44396D01*
X55604Y-44444D01*
X55666Y-44470D01*
X55734Y-44470D01*
X56290Y-44470D01*
X56290Y-44663D01*
X55923Y-45030D01*
X55907Y-45030D01*
X55734Y-45101D01*
X55602Y-45233D01*
X55530Y-45406D01*
X55530Y-45593D01*
X55601Y-45766D01*
X55733Y-45898D01*
X55881Y-45960D01*
X55117Y-45960D01*
X55266Y-45899D01*
X55398Y-45767D01*
X55470Y-45594D01*
X55470Y-45407D01*
X55470Y-44334D01*
X55470Y-44266D01*
X55470Y-43666D01*
X55444Y-43604D01*
X55396Y-43556D01*
X55334Y-43530D01*
X55266Y-43530D01*
X55138Y-43530D01*
X55281Y-43472D01*
X55308Y-43378D01*
X55000Y-43071D01*
X54929Y-43141D01*
X54929Y-43000D01*
X54622Y-42692D01*
X54528Y-42719D01*
X54457Y-42921D01*
X54468Y-43134D01*
X54528Y-43281D01*
X54622Y-43308D01*
X54929Y-43000D01*
X54929Y-43141D01*
X54692Y-43378D01*
X54719Y-43472D01*
X54884Y-43530D01*
X54666Y-43530D01*
X54604Y-43556D01*
X54556Y-43604D01*
X54530Y-43666D01*
X54530Y-43734D01*
X54530Y-44334D01*
X54556Y-44396D01*
X54604Y-44444D01*
X54666Y-44470D01*
X54734Y-44470D01*
X55334Y-44470D01*
X55396Y-44444D01*
X55444Y-44396D01*
X55470Y-44334D01*
X55470Y-45407D01*
X55399Y-45234D01*
X55267Y-45102D01*
X55094Y-45030D01*
X54947Y-45030D01*
X54295Y-44377D01*
X54295Y-44333D01*
X54376Y-44252D01*
X54444Y-44089D01*
X54444Y-43912D01*
X54377Y-43749D01*
X54252Y-43624D01*
X54089Y-43556D01*
X53912Y-43556D01*
X53749Y-43623D01*
X53624Y-43748D01*
X53556Y-43911D01*
X53556Y-44088D01*
X53623Y-44251D01*
X53705Y-44333D01*
X53705Y-44495D01*
X53704Y-44500D01*
X53727Y-44613D01*
X53791Y-44709D01*
X54530Y-45447D01*
X54530Y-45593D01*
X54601Y-45766D01*
X54733Y-45898D01*
X54881Y-45960D01*
X53310Y-45960D01*
X53310Y-45295D01*
X53419Y-45033D01*
X53419Y-44469D01*
X53310Y-44205D01*
X53310Y-43210D01*
X50810Y-43210D01*
X50810Y-41901D01*
X50861Y-42026D01*
X50993Y-42158D01*
X51166Y-42230D01*
X51353Y-42230D01*
X51526Y-42159D01*
X51630Y-42055D01*
X51819Y-42055D01*
X51965Y-42201D01*
X52156Y-42280D01*
X52363Y-42280D01*
X52554Y-42201D01*
X52701Y-42055D01*
X52780Y-41864D01*
X52780Y-41833D01*
X53312Y-41573D01*
X53313Y-41573D01*
X53313Y-41572D01*
X53329Y-41565D01*
X53357Y-41543D01*
X53409Y-41509D01*
X53421Y-41495D01*
X53705Y-41212D01*
X53705Y-42667D01*
X53624Y-42748D01*
X53556Y-42911D01*
X53556Y-43088D01*
X53623Y-43251D01*
X53748Y-43376D01*
X53911Y-43444D01*
X54088Y-43444D01*
X54251Y-43377D01*
X54376Y-43252D01*
X54444Y-43089D01*
X54444Y-42912D01*
X54377Y-42749D01*
X54295Y-42667D01*
X54295Y-40945D01*
X54309Y-40945D01*
X54371Y-40919D01*
X54419Y-40871D01*
X54445Y-40809D01*
X54445Y-40741D01*
X54445Y-40191D01*
X54419Y-40129D01*
X54371Y-40081D01*
X54309Y-40055D01*
X54241Y-40055D01*
X53691Y-40055D01*
X53629Y-40081D01*
X53581Y-40129D01*
X53555Y-40191D01*
X53555Y-40259D01*
X53555Y-40527D01*
X53025Y-41057D01*
X52860Y-41137D01*
X52860Y-37872D01*
X52860Y-37648D01*
X52859Y-37361D01*
X52821Y-37269D01*
X52751Y-37199D01*
X52660Y-37161D01*
X52561Y-37161D01*
X52372Y-37160D01*
X52310Y-37222D01*
X52310Y-37710D01*
X52798Y-37710D01*
X52860Y-37648D01*
X52860Y-37872D01*
X52798Y-37810D01*
X52310Y-37810D01*
X52310Y-38298D01*
X52372Y-38360D01*
X52561Y-38359D01*
X52660Y-38359D01*
X52751Y-38321D01*
X52821Y-38251D01*
X52859Y-38159D01*
X52860Y-37872D01*
X52860Y-41137D01*
X52519Y-41304D01*
X52364Y-41240D01*
X52210Y-41240D01*
X52210Y-38298D01*
X52210Y-37860D01*
X52210Y-37810D01*
X52210Y-37710D01*
X52210Y-37660D01*
X52210Y-37222D01*
X52148Y-37160D01*
X51959Y-37161D01*
X51860Y-37161D01*
X51769Y-37199D01*
X51699Y-37269D01*
X51661Y-37361D01*
X51660Y-37458D01*
X51638Y-37452D01*
X51568Y-37522D01*
X51568Y-37382D01*
X51541Y-37288D01*
X51339Y-37217D01*
X51126Y-37228D01*
X50979Y-37288D01*
X50952Y-37382D01*
X51260Y-37689D01*
X51568Y-37382D01*
X51568Y-37522D01*
X51331Y-37760D01*
X51638Y-38068D01*
X51660Y-38061D01*
X51661Y-38159D01*
X51699Y-38251D01*
X51769Y-38321D01*
X51860Y-38359D01*
X51959Y-38359D01*
X52148Y-38360D01*
X52210Y-38298D01*
X52210Y-41240D01*
X52157Y-41240D01*
X51966Y-41319D01*
X51819Y-41465D01*
X51630Y-41465D01*
X51568Y-41403D01*
X51568Y-38138D01*
X51260Y-37831D01*
X50952Y-38138D01*
X50979Y-38232D01*
X51181Y-38303D01*
X51394Y-38292D01*
X51541Y-38232D01*
X51568Y-38138D01*
X51568Y-41403D01*
X51527Y-41362D01*
X51354Y-41290D01*
X51167Y-41290D01*
X50994Y-41361D01*
X50862Y-41493D01*
X50810Y-41617D01*
X50810Y-38047D01*
X50882Y-38068D01*
X51189Y-37760D01*
X50882Y-37452D01*
X50810Y-37472D01*
X50810Y-36560D01*
X53560Y-36560D01*
X53560Y-36416D01*
X53601Y-36516D01*
X53705Y-36620D01*
X53705Y-37167D01*
X53624Y-37248D01*
X53556Y-37411D01*
X53556Y-37588D01*
X53623Y-37751D01*
X53748Y-37876D01*
X53911Y-37944D01*
X54088Y-37944D01*
X54251Y-37877D01*
X54376Y-37752D01*
X54444Y-37589D01*
X54444Y-37412D01*
X54377Y-37249D01*
X54295Y-37167D01*
X54295Y-36620D01*
X54398Y-36517D01*
X54470Y-36344D01*
X54470Y-36157D01*
X54399Y-35984D01*
X54267Y-35852D01*
X54094Y-35780D01*
X53907Y-35780D01*
X53734Y-35851D01*
X53602Y-35983D01*
X53560Y-36083D01*
X53560Y-35416D01*
X53601Y-35516D01*
X53733Y-35648D01*
X53906Y-35720D01*
X54093Y-35720D01*
X54266Y-35649D01*
X54370Y-35545D01*
X54630Y-35545D01*
X54733Y-35648D01*
X54906Y-35720D01*
X55093Y-35720D01*
X55266Y-35649D01*
X55370Y-35545D01*
X55630Y-35545D01*
X55733Y-35648D01*
X55906Y-35720D01*
X56093Y-35720D01*
X56266Y-35649D01*
X56370Y-35545D01*
X56630Y-35545D01*
X56733Y-35648D01*
X56906Y-35720D01*
X57093Y-35720D01*
X57266Y-35649D01*
X57398Y-35517D01*
X57470Y-35344D01*
X57470Y-35157D01*
X57399Y-34984D01*
X57267Y-34852D01*
X57094Y-34780D01*
X56907Y-34780D01*
X56734Y-34851D01*
X56630Y-34955D01*
X56370Y-34955D01*
X56267Y-34852D01*
X56094Y-34780D01*
X55907Y-34780D01*
X55734Y-34851D01*
X55630Y-34955D01*
X55370Y-34955D01*
X55267Y-34852D01*
X55094Y-34780D01*
X54907Y-34780D01*
X54734Y-34851D01*
X54630Y-34955D01*
X54370Y-34955D01*
X54267Y-34852D01*
X54094Y-34780D01*
X53907Y-34780D01*
X53734Y-34851D01*
X53602Y-34983D01*
X53560Y-35083D01*
X53560Y-34650D01*
X53604Y-34694D01*
X53666Y-34720D01*
X53734Y-34720D01*
X54334Y-34720D01*
X54396Y-34694D01*
X54444Y-34646D01*
X54470Y-34584D01*
X54470Y-34516D01*
X54470Y-33916D01*
X54444Y-33854D01*
X54400Y-33810D01*
X54600Y-33810D01*
X54556Y-33854D01*
X54530Y-33916D01*
X54530Y-33984D01*
X54530Y-34584D01*
X54556Y-34646D01*
X54604Y-34694D01*
X54666Y-34720D01*
X54734Y-34720D01*
X55334Y-34720D01*
X55396Y-34694D01*
X55444Y-34646D01*
X55470Y-34584D01*
X55470Y-34516D01*
X55470Y-33916D01*
X55444Y-33854D01*
X55400Y-33810D01*
X55600Y-33810D01*
X55556Y-33854D01*
X55530Y-33916D01*
X55530Y-33984D01*
X55530Y-34584D01*
X55556Y-34646D01*
X55604Y-34694D01*
X55666Y-34720D01*
X55734Y-34720D01*
X56334Y-34720D01*
X56396Y-34694D01*
X56444Y-34646D01*
X56470Y-34584D01*
X56470Y-34516D01*
X56470Y-33916D01*
X56444Y-33854D01*
X56400Y-33810D01*
X56600Y-33810D01*
X56556Y-33854D01*
X56530Y-33916D01*
X56530Y-33984D01*
X56530Y-34584D01*
X56556Y-34646D01*
X56604Y-34694D01*
X56666Y-34720D01*
X56734Y-34720D01*
X57334Y-34720D01*
X57396Y-34694D01*
X57444Y-34646D01*
X57470Y-34584D01*
X57470Y-34516D01*
X57470Y-33916D01*
X57444Y-33854D01*
X57400Y-33810D01*
X57600Y-33810D01*
X57556Y-33854D01*
X57530Y-33916D01*
X57530Y-33984D01*
X57530Y-34584D01*
X57556Y-34646D01*
X57604Y-34694D01*
X57666Y-34720D01*
X57734Y-34720D01*
X58334Y-34720D01*
X58396Y-34694D01*
X58444Y-34646D01*
X58470Y-34584D01*
X58470Y-34516D01*
X58470Y-33916D01*
X58444Y-33854D01*
X58400Y-33810D01*
X58600Y-33810D01*
X58556Y-33854D01*
X58530Y-33916D01*
X58530Y-33984D01*
X58530Y-34584D01*
X58556Y-34646D01*
X58604Y-34694D01*
X58666Y-34720D01*
X58734Y-34720D01*
X59334Y-34720D01*
X59396Y-34694D01*
X59444Y-34646D01*
X59461Y-34605D01*
X59461Y-34610D01*
X59499Y-34701D01*
X59569Y-34771D01*
X59661Y-34809D01*
X59898Y-34810D01*
X59960Y-34748D01*
X59960Y-34360D01*
X59960Y-34310D01*
X59960Y-34210D01*
X60060Y-34210D01*
X60060Y-34310D01*
X60060Y-34360D01*
X60060Y-34748D01*
X60122Y-34810D01*
X60163Y-34809D01*
X59933Y-35040D01*
X59421Y-35040D01*
X59399Y-34984D01*
X59267Y-34852D01*
X59094Y-34780D01*
X58907Y-34780D01*
X58734Y-34851D01*
X58602Y-34983D01*
X58530Y-35156D01*
X58530Y-35343D01*
X58601Y-35516D01*
X58733Y-35648D01*
X58906Y-35720D01*
X59093Y-35720D01*
X59266Y-35649D01*
X59398Y-35517D01*
X59421Y-35460D01*
X60020Y-35460D01*
X60020Y-35459D01*
X60087Y-35446D01*
X60100Y-35444D01*
X60101Y-35444D01*
X60168Y-35398D01*
X60860Y-34706D01*
X60916Y-34730D01*
X61103Y-34730D01*
X61276Y-34659D01*
X61408Y-34527D01*
X61480Y-34354D01*
X61480Y-34167D01*
X61409Y-33994D01*
X61277Y-33862D01*
X61152Y-33810D01*
X61868Y-33810D01*
X61744Y-33861D01*
X61612Y-33993D01*
X61540Y-34166D01*
X61540Y-34353D01*
X61611Y-34526D01*
X61743Y-34658D01*
X61800Y-34681D01*
X61800Y-34866D01*
X61759Y-34883D01*
X61634Y-35008D01*
X61566Y-35171D01*
X61566Y-35348D01*
X61633Y-35511D01*
X61758Y-35636D01*
X61898Y-35694D01*
X62050Y-35846D01*
X62050Y-36423D01*
X62019Y-36454D01*
X61932Y-36541D01*
X61916Y-36525D01*
X61952Y-36517D01*
X62019Y-36324D01*
X62008Y-36120D01*
X61952Y-35983D01*
X61861Y-35960D01*
X61790Y-36031D01*
X61790Y-35889D01*
X61767Y-35798D01*
X61574Y-35731D01*
X61454Y-35737D01*
X61454Y-35349D01*
X61454Y-35172D01*
X61387Y-35009D01*
X61262Y-34884D01*
X61099Y-34816D01*
X60922Y-34816D01*
X60759Y-34883D01*
X60634Y-35008D01*
X60566Y-35171D01*
X60566Y-35348D01*
X60633Y-35511D01*
X60758Y-35636D01*
X60921Y-35704D01*
X61098Y-35704D01*
X61261Y-35637D01*
X61386Y-35512D01*
X61454Y-35349D01*
X61454Y-35737D01*
X61370Y-35742D01*
X61233Y-35798D01*
X61210Y-35889D01*
X61500Y-36179D01*
X61790Y-35889D01*
X61790Y-36031D01*
X61606Y-36215D01*
X61571Y-36250D01*
X61500Y-36321D01*
X61465Y-36356D01*
X61429Y-36392D01*
X61429Y-36250D01*
X61139Y-35960D01*
X61048Y-35983D01*
X60981Y-36176D01*
X60992Y-36380D01*
X61048Y-36517D01*
X61139Y-36540D01*
X61429Y-36250D01*
X61429Y-36392D01*
X61210Y-36611D01*
X61233Y-36702D01*
X61426Y-36769D01*
X61630Y-36758D01*
X61767Y-36702D01*
X61775Y-36666D01*
X61790Y-36681D01*
X61791Y-36682D01*
X61790Y-36683D01*
X61673Y-36800D01*
X61490Y-36800D01*
X61410Y-36816D01*
X61387Y-36831D01*
X61341Y-36862D01*
X61130Y-37073D01*
X61089Y-37056D01*
X60944Y-37056D01*
X60944Y-36339D01*
X60944Y-36162D01*
X60877Y-35999D01*
X60752Y-35874D01*
X60589Y-35806D01*
X60412Y-35806D01*
X60249Y-35873D01*
X60124Y-35998D01*
X60056Y-36161D01*
X60056Y-36338D01*
X60123Y-36501D01*
X60248Y-36626D01*
X60411Y-36694D01*
X60588Y-36694D01*
X60751Y-36627D01*
X60876Y-36502D01*
X60944Y-36339D01*
X60944Y-37056D01*
X60912Y-37056D01*
X60749Y-37123D01*
X60624Y-37248D01*
X60556Y-37411D01*
X60556Y-37588D01*
X60623Y-37751D01*
X60748Y-37876D01*
X60911Y-37944D01*
X61088Y-37944D01*
X61251Y-37877D01*
X61376Y-37752D01*
X61444Y-37589D01*
X61444Y-37412D01*
X61426Y-37369D01*
X61539Y-37257D01*
X61481Y-37426D01*
X61492Y-37630D01*
X61548Y-37767D01*
X61639Y-37790D01*
X61894Y-37535D01*
X61929Y-37500D01*
X62000Y-37429D01*
X62035Y-37394D01*
X62290Y-37139D01*
X62267Y-37048D01*
X62082Y-36983D01*
X62408Y-36659D01*
X62408Y-36658D01*
X62454Y-36591D01*
X62454Y-36590D01*
X62456Y-36577D01*
X62469Y-36510D01*
X62470Y-36510D01*
X62470Y-35760D01*
X62454Y-35680D01*
X62453Y-35679D01*
X62438Y-35657D01*
X62408Y-35612D01*
X62408Y-35611D01*
X62347Y-35550D01*
X62386Y-35512D01*
X62454Y-35349D01*
X62454Y-35172D01*
X62387Y-35009D01*
X62262Y-34884D01*
X62220Y-34866D01*
X62220Y-34681D01*
X62276Y-34659D01*
X62408Y-34527D01*
X62480Y-34354D01*
X62480Y-34167D01*
X62409Y-33994D01*
X62277Y-33862D01*
X62152Y-33810D01*
X62600Y-33810D01*
X62556Y-33854D01*
X62530Y-33916D01*
X62530Y-33984D01*
X62530Y-34584D01*
X62556Y-34646D01*
X62604Y-34694D01*
X62666Y-34720D01*
X62734Y-34720D01*
X62861Y-34720D01*
X62719Y-34778D01*
X62692Y-34872D01*
X63000Y-35179D01*
X63308Y-34872D01*
X63281Y-34778D01*
X63115Y-34720D01*
X63334Y-34720D01*
X63396Y-34694D01*
X63444Y-34646D01*
X63470Y-34584D01*
X63470Y-34516D01*
X63470Y-33916D01*
X63444Y-33854D01*
X63400Y-33810D01*
X63600Y-33810D01*
X63556Y-33854D01*
X63530Y-33916D01*
X63530Y-33984D01*
X63530Y-34584D01*
X63556Y-34646D01*
X63604Y-34694D01*
X63666Y-34720D01*
X63734Y-34720D01*
X63861Y-34720D01*
X63719Y-34778D01*
X63692Y-34872D01*
X64000Y-35179D01*
X64308Y-34872D01*
X64281Y-34778D01*
X64115Y-34720D01*
X64334Y-34720D01*
X64396Y-34694D01*
X64444Y-34646D01*
X64470Y-34584D01*
X64470Y-34516D01*
X64470Y-33916D01*
X64444Y-33854D01*
X64400Y-33810D01*
X64600Y-33810D01*
X64556Y-33854D01*
X64530Y-33916D01*
X64530Y-33984D01*
X64530Y-34584D01*
X64556Y-34646D01*
X64604Y-34694D01*
X64666Y-34720D01*
X64734Y-34720D01*
X64861Y-34720D01*
X64719Y-34778D01*
X64692Y-34872D01*
X65000Y-35179D01*
X65308Y-34872D01*
X65281Y-34778D01*
X65115Y-34720D01*
X65334Y-34720D01*
X65396Y-34694D01*
X65444Y-34646D01*
X65470Y-34584D01*
X65470Y-34516D01*
X65470Y-33916D01*
X65444Y-33854D01*
X65400Y-33810D01*
X65600Y-33810D01*
X65556Y-33854D01*
X65530Y-33916D01*
X65530Y-33984D01*
X65530Y-34584D01*
X65556Y-34646D01*
X65604Y-34694D01*
X65666Y-34720D01*
X65734Y-34720D01*
X65861Y-34720D01*
X65719Y-34778D01*
X65692Y-34872D01*
X66000Y-35179D01*
X66308Y-34872D01*
X66281Y-34778D01*
X66115Y-34720D01*
X66334Y-34720D01*
X66396Y-34694D01*
X66444Y-34646D01*
X66470Y-34584D01*
X66470Y-34516D01*
X66470Y-33916D01*
X66444Y-33854D01*
X66400Y-33810D01*
X66600Y-33810D01*
X66556Y-33854D01*
X66530Y-33916D01*
X66530Y-33984D01*
X66530Y-34584D01*
X66556Y-34646D01*
X66604Y-34694D01*
X66666Y-34720D01*
X66734Y-34720D01*
X66861Y-34720D01*
X66719Y-34778D01*
X66692Y-34872D01*
X67000Y-35179D01*
X67308Y-34872D01*
X67281Y-34778D01*
X67115Y-34720D01*
X67334Y-34720D01*
X67396Y-34694D01*
X67444Y-34646D01*
X67470Y-34584D01*
X67470Y-34516D01*
X67470Y-33916D01*
X67444Y-33854D01*
X67400Y-33810D01*
X69560Y-33810D01*
X69560Y-36560D01*
X72210Y-36560D01*
X72210Y-41031D01*
X72151Y-41031D01*
X71912Y-41030D01*
X71850Y-41092D01*
X71850Y-41900D01*
X71850Y-41950D01*
X71850Y-42050D01*
X71850Y-42100D01*
X71850Y-42908D01*
X71912Y-42970D01*
X72151Y-42969D01*
X72210Y-42969D01*
X72210Y-43210D01*
X72210Y-43210D01*
G37*
G54D26*
X72210Y-43210D02*
X71750Y-43210D01*
X71750Y-42908D01*
X71750Y-42050D01*
X71750Y-41950D01*
X71750Y-41092D01*
X71688Y-41030D01*
X71449Y-41031D01*
X71350Y-41031D01*
X71259Y-41069D01*
X71189Y-41139D01*
X71151Y-41231D01*
X71150Y-41888D01*
X71212Y-41950D01*
X71750Y-41950D01*
X71750Y-42050D01*
X71212Y-42050D01*
X71150Y-42112D01*
X71151Y-42769D01*
X71189Y-42861D01*
X71259Y-42931D01*
X71350Y-42969D01*
X71449Y-42969D01*
X71688Y-42970D01*
X71750Y-42908D01*
X71750Y-43210D01*
X69944Y-43210D01*
X69944Y-40519D01*
X69944Y-40382D01*
X69892Y-40256D01*
X69795Y-40159D01*
X69669Y-40106D01*
X69532Y-40106D01*
X69406Y-40158D01*
X69309Y-40255D01*
X69256Y-40381D01*
X69256Y-40497D01*
X69052Y-40702D01*
X69032Y-40730D01*
X68766Y-40730D01*
X68704Y-40756D01*
X68656Y-40804D01*
X68630Y-40866D01*
X68630Y-40934D01*
X68630Y-41334D01*
X68656Y-41396D01*
X68704Y-41444D01*
X68766Y-41470D01*
X68834Y-41470D01*
X69634Y-41470D01*
X69696Y-41444D01*
X69744Y-41396D01*
X69770Y-41334D01*
X69770Y-41266D01*
X69770Y-40866D01*
X69744Y-40804D01*
X69714Y-40774D01*
X69794Y-40742D01*
X69891Y-40645D01*
X69944Y-40519D01*
X69944Y-43210D01*
X69850Y-43210D01*
X69850Y-42112D01*
X69850Y-41888D01*
X69849Y-41751D01*
X69811Y-41659D01*
X69741Y-41589D01*
X69650Y-41551D01*
X69551Y-41551D01*
X69312Y-41550D01*
X69250Y-41612D01*
X69250Y-41950D01*
X69788Y-41950D01*
X69850Y-41888D01*
X69850Y-42112D01*
X69788Y-42050D01*
X69250Y-42050D01*
X69250Y-42388D01*
X69312Y-42450D01*
X69551Y-42449D01*
X69650Y-42449D01*
X69741Y-42411D01*
X69811Y-42341D01*
X69849Y-42249D01*
X69850Y-42112D01*
X69850Y-43210D01*
X69730Y-43210D01*
X69744Y-43196D01*
X69770Y-43134D01*
X69770Y-43066D01*
X69770Y-42666D01*
X69744Y-42604D01*
X69696Y-42556D01*
X69634Y-42530D01*
X69566Y-42530D01*
X68796Y-42530D01*
X68794Y-42520D01*
X68793Y-42519D01*
X68778Y-42497D01*
X68748Y-42452D01*
X68748Y-42451D01*
X68743Y-42446D01*
X68750Y-42449D01*
X68849Y-42449D01*
X69088Y-42450D01*
X69150Y-42388D01*
X69150Y-42050D01*
X69150Y-41950D01*
X69150Y-41612D01*
X69088Y-41550D01*
X68849Y-41551D01*
X68750Y-41551D01*
X68659Y-41589D01*
X68589Y-41659D01*
X68551Y-41751D01*
X68550Y-41888D01*
X68612Y-41950D01*
X69150Y-41950D01*
X69150Y-42050D01*
X68612Y-42050D01*
X68550Y-42112D01*
X68551Y-42249D01*
X68554Y-42258D01*
X68426Y-42130D01*
X68444Y-42089D01*
X68444Y-41912D01*
X68377Y-41749D01*
X68295Y-41667D01*
X68295Y-39892D01*
X68542Y-39645D01*
X70006Y-39645D01*
X70039Y-39724D01*
X70225Y-39910D01*
X70468Y-40011D01*
X70731Y-40011D01*
X70974Y-39911D01*
X71160Y-39725D01*
X71261Y-39482D01*
X71261Y-39219D01*
X71261Y-37513D01*
X71261Y-37250D01*
X71161Y-37007D01*
X70975Y-36821D01*
X70732Y-36720D01*
X70469Y-36720D01*
X70226Y-36820D01*
X70040Y-37006D01*
X69939Y-37249D01*
X69939Y-37512D01*
X70039Y-37755D01*
X70225Y-37941D01*
X70468Y-38042D01*
X70731Y-38042D01*
X70974Y-37942D01*
X71160Y-37756D01*
X71261Y-37513D01*
X71261Y-39219D01*
X71161Y-38976D01*
X70975Y-38790D01*
X70732Y-38689D01*
X70469Y-38689D01*
X70226Y-38789D01*
X70040Y-38975D01*
X70006Y-39055D01*
X68420Y-39055D01*
X68419Y-39055D01*
X68397Y-39059D01*
X68307Y-39077D01*
X68211Y-39141D01*
X68209Y-39143D01*
X67791Y-39561D01*
X67727Y-39657D01*
X67704Y-39770D01*
X67705Y-39774D01*
X67705Y-41667D01*
X67624Y-41748D01*
X67556Y-41911D01*
X67556Y-42088D01*
X67623Y-42251D01*
X67748Y-42376D01*
X67911Y-42444D01*
X68088Y-42444D01*
X68130Y-42426D01*
X68390Y-42686D01*
X68390Y-42750D01*
X68401Y-42809D01*
X68377Y-42749D01*
X68252Y-42624D01*
X68089Y-42556D01*
X67912Y-42556D01*
X67749Y-42623D01*
X67624Y-42748D01*
X67556Y-42911D01*
X67556Y-43088D01*
X67623Y-43251D01*
X67748Y-43376D01*
X67911Y-43444D01*
X68088Y-43444D01*
X68251Y-43377D01*
X68376Y-43252D01*
X68444Y-43089D01*
X68444Y-42912D01*
X68417Y-42848D01*
X68452Y-42898D01*
X68601Y-43048D01*
X68602Y-43048D01*
X68630Y-43067D01*
X68630Y-43134D01*
X68656Y-43196D01*
X68704Y-43244D01*
X68715Y-43248D01*
X68715Y-44447D01*
X68583Y-44447D01*
X68521Y-44473D01*
X68473Y-44521D01*
X68447Y-44583D01*
X68447Y-44650D01*
X68330Y-44533D01*
X68123Y-44447D01*
X67899Y-44447D01*
X67692Y-44532D01*
X67543Y-44680D01*
X67543Y-43079D01*
X67543Y-35329D01*
X67532Y-35116D01*
X67472Y-34969D01*
X67378Y-34942D01*
X67071Y-35250D01*
X67378Y-35558D01*
X67472Y-35531D01*
X67543Y-35329D01*
X67543Y-43079D01*
X67532Y-42866D01*
X67472Y-42719D01*
X67470Y-42718D01*
X67470Y-42094D01*
X67470Y-41907D01*
X67470Y-36344D01*
X67470Y-36157D01*
X67399Y-35984D01*
X67267Y-35852D01*
X67102Y-35783D01*
X67134Y-35782D01*
X67281Y-35722D01*
X67308Y-35628D01*
X67000Y-35321D01*
X66929Y-35391D01*
X66929Y-35250D01*
X66622Y-34942D01*
X66528Y-34969D01*
X66502Y-35042D01*
X66472Y-34969D01*
X66378Y-34942D01*
X66071Y-35250D01*
X66378Y-35558D01*
X66472Y-35531D01*
X66497Y-35457D01*
X66528Y-35531D01*
X66622Y-35558D01*
X66929Y-35250D01*
X66929Y-35391D01*
X66692Y-35628D01*
X66719Y-35722D01*
X66896Y-35784D01*
X66734Y-35851D01*
X66602Y-35983D01*
X66530Y-36156D01*
X66530Y-36343D01*
X66601Y-36516D01*
X66705Y-36620D01*
X66705Y-37167D01*
X66624Y-37248D01*
X66556Y-37411D01*
X66556Y-37588D01*
X66623Y-37751D01*
X66748Y-37876D01*
X66911Y-37944D01*
X67088Y-37944D01*
X67251Y-37877D01*
X67376Y-37752D01*
X67444Y-37589D01*
X67444Y-37412D01*
X67377Y-37249D01*
X67295Y-37167D01*
X67295Y-36620D01*
X67398Y-36517D01*
X67470Y-36344D01*
X67470Y-41907D01*
X67399Y-41734D01*
X67295Y-41630D01*
X67295Y-40833D01*
X67376Y-40752D01*
X67444Y-40589D01*
X67444Y-40412D01*
X67377Y-40249D01*
X67252Y-40124D01*
X67089Y-40056D01*
X66912Y-40056D01*
X66749Y-40123D01*
X66624Y-40248D01*
X66556Y-40411D01*
X66556Y-40588D01*
X66623Y-40751D01*
X66705Y-40833D01*
X66705Y-41630D01*
X66602Y-41733D01*
X66530Y-41906D01*
X66530Y-42093D01*
X66601Y-42266D01*
X66733Y-42398D01*
X66897Y-42466D01*
X66866Y-42468D01*
X66719Y-42528D01*
X66692Y-42622D01*
X67000Y-42929D01*
X67308Y-42622D01*
X67281Y-42528D01*
X67103Y-42465D01*
X67266Y-42399D01*
X67398Y-42267D01*
X67470Y-42094D01*
X67470Y-42718D01*
X67378Y-42692D01*
X67071Y-43000D01*
X67378Y-43308D01*
X67472Y-43281D01*
X67543Y-43079D01*
X67543Y-44680D01*
X67533Y-44690D01*
X67470Y-44841D01*
X67470Y-44334D01*
X67470Y-44266D01*
X67470Y-43666D01*
X67444Y-43604D01*
X67396Y-43556D01*
X67334Y-43530D01*
X67266Y-43530D01*
X67138Y-43530D01*
X67281Y-43472D01*
X67308Y-43378D01*
X67000Y-43071D01*
X66929Y-43141D01*
X66929Y-43000D01*
X66622Y-42692D01*
X66528Y-42719D01*
X66502Y-42792D01*
X66472Y-42719D01*
X66470Y-42718D01*
X66470Y-42094D01*
X66470Y-41907D01*
X66470Y-36344D01*
X66470Y-36157D01*
X66399Y-35984D01*
X66267Y-35852D01*
X66102Y-35783D01*
X66134Y-35782D01*
X66281Y-35722D01*
X66308Y-35628D01*
X66000Y-35321D01*
X65929Y-35391D01*
X65929Y-35250D01*
X65622Y-34942D01*
X65528Y-34969D01*
X65502Y-35042D01*
X65472Y-34969D01*
X65378Y-34942D01*
X65071Y-35250D01*
X65378Y-35558D01*
X65472Y-35531D01*
X65497Y-35457D01*
X65528Y-35531D01*
X65622Y-35558D01*
X65929Y-35250D01*
X65929Y-35391D01*
X65692Y-35628D01*
X65719Y-35722D01*
X65896Y-35784D01*
X65734Y-35851D01*
X65602Y-35983D01*
X65530Y-36156D01*
X65530Y-36343D01*
X65601Y-36516D01*
X65705Y-36620D01*
X65705Y-37167D01*
X65624Y-37248D01*
X65556Y-37411D01*
X65556Y-37588D01*
X65623Y-37751D01*
X65748Y-37876D01*
X65911Y-37944D01*
X66088Y-37944D01*
X66251Y-37877D01*
X66376Y-37752D01*
X66444Y-37589D01*
X66444Y-37412D01*
X66377Y-37249D01*
X66295Y-37167D01*
X66295Y-36620D01*
X66398Y-36517D01*
X66470Y-36344D01*
X66470Y-41907D01*
X66399Y-41734D01*
X66295Y-41630D01*
X66295Y-40833D01*
X66376Y-40752D01*
X66444Y-40589D01*
X66444Y-40412D01*
X66377Y-40249D01*
X66252Y-40124D01*
X66089Y-40056D01*
X65912Y-40056D01*
X65749Y-40123D01*
X65624Y-40248D01*
X65556Y-40411D01*
X65556Y-40588D01*
X65623Y-40751D01*
X65705Y-40833D01*
X65705Y-41630D01*
X65602Y-41733D01*
X65530Y-41906D01*
X65530Y-42093D01*
X65601Y-42266D01*
X65733Y-42398D01*
X65897Y-42466D01*
X65866Y-42468D01*
X65719Y-42528D01*
X65692Y-42622D01*
X66000Y-42929D01*
X66308Y-42622D01*
X66281Y-42528D01*
X66103Y-42465D01*
X66266Y-42399D01*
X66398Y-42267D01*
X66470Y-42094D01*
X66470Y-42718D01*
X66378Y-42692D01*
X66071Y-43000D01*
X66378Y-43308D01*
X66472Y-43281D01*
X66497Y-43207D01*
X66528Y-43281D01*
X66622Y-43308D01*
X66929Y-43000D01*
X66929Y-43141D01*
X66692Y-43378D01*
X66719Y-43472D01*
X66884Y-43530D01*
X66666Y-43530D01*
X66604Y-43556D01*
X66556Y-43604D01*
X66530Y-43666D01*
X66530Y-43734D01*
X66530Y-44334D01*
X66556Y-44396D01*
X66604Y-44444D01*
X66666Y-44470D01*
X66734Y-44470D01*
X67334Y-44470D01*
X67396Y-44444D01*
X67444Y-44396D01*
X67470Y-44334D01*
X67470Y-44841D01*
X67447Y-44897D01*
X67447Y-45121D01*
X67532Y-45328D01*
X67690Y-45487D01*
X67897Y-45573D01*
X68121Y-45573D01*
X68328Y-45488D01*
X68447Y-45369D01*
X68447Y-45437D01*
X68473Y-45499D01*
X68521Y-45547D01*
X68583Y-45573D01*
X68651Y-45573D01*
X69437Y-45573D01*
X69460Y-45563D01*
X69460Y-45960D01*
X66470Y-45960D01*
X66470Y-44334D01*
X66470Y-44266D01*
X66470Y-43666D01*
X66444Y-43604D01*
X66396Y-43556D01*
X66334Y-43530D01*
X66266Y-43530D01*
X66138Y-43530D01*
X66281Y-43472D01*
X66308Y-43378D01*
X66000Y-43071D01*
X65929Y-43141D01*
X65929Y-43000D01*
X65622Y-42692D01*
X65528Y-42719D01*
X65502Y-42792D01*
X65472Y-42719D01*
X65470Y-42718D01*
X65470Y-42094D01*
X65470Y-41907D01*
X65470Y-36344D01*
X65470Y-36157D01*
X65399Y-35984D01*
X65267Y-35852D01*
X65102Y-35783D01*
X65134Y-35782D01*
X65281Y-35722D01*
X65308Y-35628D01*
X65000Y-35321D01*
X64929Y-35391D01*
X64929Y-35250D01*
X64622Y-34942D01*
X64528Y-34969D01*
X64502Y-35042D01*
X64472Y-34969D01*
X64378Y-34942D01*
X64071Y-35250D01*
X64378Y-35558D01*
X64472Y-35531D01*
X64497Y-35457D01*
X64528Y-35531D01*
X64622Y-35558D01*
X64929Y-35250D01*
X64929Y-35391D01*
X64692Y-35628D01*
X64719Y-35722D01*
X64896Y-35784D01*
X64734Y-35851D01*
X64602Y-35983D01*
X64530Y-36156D01*
X64530Y-36343D01*
X64601Y-36516D01*
X64705Y-36620D01*
X64705Y-37167D01*
X64624Y-37248D01*
X64556Y-37411D01*
X64556Y-37588D01*
X64623Y-37751D01*
X64748Y-37876D01*
X64911Y-37944D01*
X65088Y-37944D01*
X65251Y-37877D01*
X65376Y-37752D01*
X65444Y-37589D01*
X65444Y-37412D01*
X65377Y-37249D01*
X65295Y-37167D01*
X65295Y-36620D01*
X65398Y-36517D01*
X65470Y-36344D01*
X65470Y-41907D01*
X65399Y-41734D01*
X65295Y-41630D01*
X65295Y-40833D01*
X65376Y-40752D01*
X65444Y-40589D01*
X65444Y-40412D01*
X65377Y-40249D01*
X65252Y-40124D01*
X65089Y-40056D01*
X64912Y-40056D01*
X64749Y-40123D01*
X64624Y-40248D01*
X64556Y-40411D01*
X64556Y-40588D01*
X64623Y-40751D01*
X64705Y-40833D01*
X64705Y-41630D01*
X64602Y-41733D01*
X64530Y-41906D01*
X64530Y-42093D01*
X64601Y-42266D01*
X64733Y-42398D01*
X64897Y-42466D01*
X64866Y-42468D01*
X64719Y-42528D01*
X64692Y-42622D01*
X65000Y-42929D01*
X65308Y-42622D01*
X65281Y-42528D01*
X65103Y-42465D01*
X65266Y-42399D01*
X65398Y-42267D01*
X65470Y-42094D01*
X65470Y-42718D01*
X65378Y-42692D01*
X65071Y-43000D01*
X65378Y-43308D01*
X65472Y-43281D01*
X65497Y-43207D01*
X65528Y-43281D01*
X65622Y-43308D01*
X65929Y-43000D01*
X65929Y-43141D01*
X65692Y-43378D01*
X65719Y-43472D01*
X65884Y-43530D01*
X65666Y-43530D01*
X65604Y-43556D01*
X65556Y-43604D01*
X65530Y-43666D01*
X65530Y-43734D01*
X65530Y-44334D01*
X65556Y-44396D01*
X65604Y-44444D01*
X65666Y-44470D01*
X65734Y-44470D01*
X66334Y-44470D01*
X66396Y-44444D01*
X66444Y-44396D01*
X66470Y-44334D01*
X66470Y-45960D01*
X65470Y-45960D01*
X65470Y-44334D01*
X65470Y-44266D01*
X65470Y-43666D01*
X65444Y-43604D01*
X65396Y-43556D01*
X65334Y-43530D01*
X65266Y-43530D01*
X65138Y-43530D01*
X65281Y-43472D01*
X65308Y-43378D01*
X65000Y-43071D01*
X64929Y-43141D01*
X64929Y-43000D01*
X64622Y-42692D01*
X64528Y-42719D01*
X64502Y-42792D01*
X64472Y-42719D01*
X64470Y-42718D01*
X64470Y-42094D01*
X64470Y-41907D01*
X64470Y-36344D01*
X64470Y-36157D01*
X64399Y-35984D01*
X64267Y-35852D01*
X64102Y-35783D01*
X64134Y-35782D01*
X64281Y-35722D01*
X64308Y-35628D01*
X64000Y-35321D01*
X63929Y-35391D01*
X63929Y-35250D01*
X63622Y-34942D01*
X63528Y-34969D01*
X63502Y-35042D01*
X63472Y-34969D01*
X63378Y-34942D01*
X63071Y-35250D01*
X63378Y-35558D01*
X63472Y-35531D01*
X63497Y-35457D01*
X63528Y-35531D01*
X63622Y-35558D01*
X63929Y-35250D01*
X63929Y-35391D01*
X63692Y-35628D01*
X63719Y-35722D01*
X63896Y-35784D01*
X63734Y-35851D01*
X63602Y-35983D01*
X63530Y-36156D01*
X63530Y-36343D01*
X63601Y-36516D01*
X63705Y-36620D01*
X63705Y-37167D01*
X63624Y-37248D01*
X63556Y-37411D01*
X63556Y-37588D01*
X63623Y-37751D01*
X63748Y-37876D01*
X63911Y-37944D01*
X64088Y-37944D01*
X64251Y-37877D01*
X64376Y-37752D01*
X64444Y-37589D01*
X64444Y-37412D01*
X64377Y-37249D01*
X64295Y-37167D01*
X64295Y-36620D01*
X64398Y-36517D01*
X64470Y-36344D01*
X64470Y-41907D01*
X64399Y-41734D01*
X64295Y-41630D01*
X64295Y-40833D01*
X64376Y-40752D01*
X64444Y-40589D01*
X64444Y-40412D01*
X64377Y-40249D01*
X64252Y-40124D01*
X64089Y-40056D01*
X63912Y-40056D01*
X63749Y-40123D01*
X63624Y-40248D01*
X63556Y-40411D01*
X63556Y-40588D01*
X63623Y-40751D01*
X63705Y-40833D01*
X63705Y-41630D01*
X63602Y-41733D01*
X63530Y-41906D01*
X63530Y-42093D01*
X63601Y-42266D01*
X63733Y-42398D01*
X63897Y-42466D01*
X63866Y-42468D01*
X63719Y-42528D01*
X63692Y-42622D01*
X64000Y-42929D01*
X64308Y-42622D01*
X64281Y-42528D01*
X64103Y-42465D01*
X64266Y-42399D01*
X64398Y-42267D01*
X64470Y-42094D01*
X64470Y-42718D01*
X64378Y-42692D01*
X64071Y-43000D01*
X64378Y-43308D01*
X64472Y-43281D01*
X64497Y-43207D01*
X64528Y-43281D01*
X64622Y-43308D01*
X64929Y-43000D01*
X64929Y-43141D01*
X64692Y-43378D01*
X64719Y-43472D01*
X64884Y-43530D01*
X64666Y-43530D01*
X64604Y-43556D01*
X64556Y-43604D01*
X64530Y-43666D01*
X64530Y-43734D01*
X64530Y-44334D01*
X64556Y-44396D01*
X64604Y-44444D01*
X64666Y-44470D01*
X64734Y-44470D01*
X65334Y-44470D01*
X65396Y-44444D01*
X65444Y-44396D01*
X65470Y-44334D01*
X65470Y-45960D01*
X64470Y-45960D01*
X64470Y-44334D01*
X64470Y-44266D01*
X64470Y-43666D01*
X64444Y-43604D01*
X64396Y-43556D01*
X64334Y-43530D01*
X64266Y-43530D01*
X64138Y-43530D01*
X64281Y-43472D01*
X64308Y-43378D01*
X64000Y-43071D01*
X63929Y-43141D01*
X63929Y-43000D01*
X63622Y-42692D01*
X63528Y-42719D01*
X63470Y-42884D01*
X63470Y-36344D01*
X63470Y-36157D01*
X63399Y-35984D01*
X63267Y-35852D01*
X63102Y-35783D01*
X63134Y-35782D01*
X63281Y-35722D01*
X63308Y-35628D01*
X63000Y-35321D01*
X62929Y-35391D01*
X62929Y-35250D01*
X62622Y-34942D01*
X62528Y-34969D01*
X62457Y-35171D01*
X62468Y-35384D01*
X62528Y-35531D01*
X62622Y-35558D01*
X62929Y-35250D01*
X62929Y-35391D01*
X62692Y-35628D01*
X62719Y-35722D01*
X62896Y-35784D01*
X62734Y-35851D01*
X62602Y-35983D01*
X62530Y-36156D01*
X62530Y-36343D01*
X62601Y-36516D01*
X62705Y-36620D01*
X62705Y-37167D01*
X62624Y-37248D01*
X62556Y-37411D01*
X62556Y-37588D01*
X62623Y-37751D01*
X62748Y-37876D01*
X62911Y-37944D01*
X63088Y-37944D01*
X63251Y-37877D01*
X63376Y-37752D01*
X63444Y-37589D01*
X63444Y-37412D01*
X63377Y-37249D01*
X63295Y-37167D01*
X63295Y-36620D01*
X63398Y-36517D01*
X63470Y-36344D01*
X63470Y-42884D01*
X63457Y-42921D01*
X63468Y-43134D01*
X63528Y-43281D01*
X63622Y-43308D01*
X63929Y-43000D01*
X63929Y-43141D01*
X63692Y-43378D01*
X63719Y-43472D01*
X63884Y-43530D01*
X63666Y-43530D01*
X63604Y-43556D01*
X63556Y-43604D01*
X63530Y-43666D01*
X63530Y-43734D01*
X63530Y-44334D01*
X63556Y-44396D01*
X63604Y-44444D01*
X63666Y-44470D01*
X63734Y-44470D01*
X64334Y-44470D01*
X64396Y-44444D01*
X64444Y-44396D01*
X64470Y-44334D01*
X64470Y-45960D01*
X63444Y-45960D01*
X63444Y-40589D01*
X63444Y-40412D01*
X63377Y-40249D01*
X63252Y-40124D01*
X63089Y-40056D01*
X62912Y-40056D01*
X62749Y-40123D01*
X62624Y-40248D01*
X62556Y-40411D01*
X62556Y-40588D01*
X62623Y-40751D01*
X62705Y-40833D01*
X62705Y-41377D01*
X62526Y-41556D01*
X62519Y-41556D01*
X62519Y-37574D01*
X62508Y-37370D01*
X62452Y-37233D01*
X62361Y-37210D01*
X62071Y-37500D01*
X62361Y-37790D01*
X62452Y-37767D01*
X62519Y-37574D01*
X62519Y-41556D01*
X62444Y-41556D01*
X62444Y-40589D01*
X62444Y-40412D01*
X62377Y-40249D01*
X62290Y-40162D01*
X62290Y-37861D01*
X62000Y-37571D01*
X61710Y-37861D01*
X61733Y-37952D01*
X61926Y-38019D01*
X62130Y-38008D01*
X62267Y-37952D01*
X62290Y-37861D01*
X62290Y-40162D01*
X62252Y-40124D01*
X62089Y-40056D01*
X61912Y-40056D01*
X61749Y-40123D01*
X61624Y-40248D01*
X61556Y-40411D01*
X61556Y-40588D01*
X61616Y-40735D01*
X61444Y-40907D01*
X61444Y-40589D01*
X61444Y-40412D01*
X61377Y-40249D01*
X61252Y-40124D01*
X61089Y-40056D01*
X60912Y-40056D01*
X60749Y-40123D01*
X60624Y-40248D01*
X60556Y-40411D01*
X60556Y-40588D01*
X60623Y-40751D01*
X60748Y-40876D01*
X60911Y-40944D01*
X61088Y-40944D01*
X61251Y-40877D01*
X61376Y-40752D01*
X61444Y-40589D01*
X61444Y-40907D01*
X61387Y-40965D01*
X61010Y-40965D01*
X60897Y-40987D01*
X60801Y-41051D01*
X60799Y-41053D01*
X60519Y-41333D01*
X60519Y-40574D01*
X60508Y-40370D01*
X60452Y-40233D01*
X60444Y-40230D01*
X60444Y-37589D01*
X60444Y-37412D01*
X60377Y-37249D01*
X60252Y-37124D01*
X60089Y-37056D01*
X59912Y-37056D01*
X59749Y-37123D01*
X59624Y-37248D01*
X59556Y-37411D01*
X59556Y-37588D01*
X59623Y-37751D01*
X59748Y-37876D01*
X59911Y-37944D01*
X60088Y-37944D01*
X60251Y-37877D01*
X60376Y-37752D01*
X60444Y-37589D01*
X60444Y-40230D01*
X60361Y-40210D01*
X60290Y-40281D01*
X60290Y-40139D01*
X60267Y-40048D01*
X60074Y-39981D01*
X59870Y-39992D01*
X59733Y-40048D01*
X59710Y-40139D01*
X60000Y-40429D01*
X60290Y-40139D01*
X60290Y-40281D01*
X60071Y-40500D01*
X60361Y-40790D01*
X60452Y-40767D01*
X60519Y-40574D01*
X60519Y-41333D01*
X60297Y-41555D01*
X60290Y-41555D01*
X60290Y-40861D01*
X60000Y-40571D01*
X59929Y-40642D01*
X59929Y-40500D01*
X59639Y-40210D01*
X59548Y-40233D01*
X59481Y-40426D01*
X59492Y-40630D01*
X59548Y-40767D01*
X59639Y-40790D01*
X59929Y-40500D01*
X59929Y-40642D01*
X59710Y-40861D01*
X59733Y-40952D01*
X59926Y-41019D01*
X60130Y-41008D01*
X60267Y-40952D01*
X60290Y-40861D01*
X60290Y-41555D01*
X60191Y-41555D01*
X60129Y-41581D01*
X60081Y-41629D01*
X60055Y-41691D01*
X60055Y-41759D01*
X60055Y-42309D01*
X60081Y-42371D01*
X60129Y-42419D01*
X60191Y-42445D01*
X60259Y-42445D01*
X60809Y-42445D01*
X60871Y-42419D01*
X60919Y-42371D01*
X60945Y-42309D01*
X60945Y-42241D01*
X60945Y-41742D01*
X61132Y-41555D01*
X61505Y-41555D01*
X61510Y-41556D01*
X61412Y-41556D01*
X61249Y-41623D01*
X61124Y-41748D01*
X61056Y-41911D01*
X61056Y-42088D01*
X61123Y-42251D01*
X61248Y-42376D01*
X61411Y-42444D01*
X61588Y-42444D01*
X61751Y-42377D01*
X61876Y-42252D01*
X61944Y-42089D01*
X61944Y-41912D01*
X61877Y-41749D01*
X61752Y-41624D01*
X61589Y-41556D01*
X61510Y-41556D01*
X61510Y-41555D01*
X61623Y-41533D01*
X61719Y-41469D01*
X62206Y-40980D01*
X62208Y-40979D01*
X62209Y-40979D01*
X62272Y-40884D01*
X62273Y-40883D01*
X62279Y-40848D01*
X62376Y-40752D01*
X62444Y-40589D01*
X62444Y-41556D01*
X62412Y-41556D01*
X62249Y-41623D01*
X62124Y-41748D01*
X62056Y-41911D01*
X62056Y-42088D01*
X62123Y-42251D01*
X62248Y-42376D01*
X62411Y-42444D01*
X62588Y-42444D01*
X62751Y-42377D01*
X62876Y-42252D01*
X62944Y-42089D01*
X62944Y-41974D01*
X63209Y-41709D01*
X63273Y-41613D01*
X63295Y-41500D01*
X63295Y-40833D01*
X63376Y-40752D01*
X63444Y-40589D01*
X63444Y-45960D01*
X60357Y-45960D01*
X60396Y-45944D01*
X60444Y-45896D01*
X60470Y-45834D01*
X60470Y-45766D01*
X60470Y-45166D01*
X60444Y-45104D01*
X60396Y-45056D01*
X60334Y-45030D01*
X60266Y-45030D01*
X59666Y-45030D01*
X59604Y-45056D01*
X59556Y-45104D01*
X59543Y-45135D01*
X59543Y-43079D01*
X59532Y-42866D01*
X59472Y-42719D01*
X59470Y-42718D01*
X59470Y-42094D01*
X59470Y-41907D01*
X59470Y-36344D01*
X59470Y-36157D01*
X59399Y-35984D01*
X59267Y-35852D01*
X59094Y-35780D01*
X58907Y-35780D01*
X58734Y-35851D01*
X58602Y-35983D01*
X58530Y-36156D01*
X58530Y-36343D01*
X58601Y-36516D01*
X58705Y-36620D01*
X58705Y-37167D01*
X58624Y-37248D01*
X58556Y-37411D01*
X58556Y-37588D01*
X58623Y-37751D01*
X58748Y-37876D01*
X58911Y-37944D01*
X59088Y-37944D01*
X59251Y-37877D01*
X59376Y-37752D01*
X59444Y-37589D01*
X59444Y-37412D01*
X59377Y-37249D01*
X59295Y-37167D01*
X59295Y-36620D01*
X59398Y-36517D01*
X59470Y-36344D01*
X59470Y-41907D01*
X59399Y-41734D01*
X59295Y-41630D01*
X59295Y-40833D01*
X59376Y-40752D01*
X59444Y-40589D01*
X59444Y-40412D01*
X59377Y-40249D01*
X59252Y-40124D01*
X59089Y-40056D01*
X58912Y-40056D01*
X58749Y-40123D01*
X58624Y-40248D01*
X58556Y-40411D01*
X58556Y-40588D01*
X58623Y-40751D01*
X58705Y-40833D01*
X58705Y-41630D01*
X58602Y-41733D01*
X58530Y-41906D01*
X58530Y-42093D01*
X58601Y-42266D01*
X58733Y-42398D01*
X58897Y-42466D01*
X58866Y-42468D01*
X58719Y-42528D01*
X58692Y-42622D01*
X59000Y-42929D01*
X59308Y-42622D01*
X59281Y-42528D01*
X59103Y-42465D01*
X59266Y-42399D01*
X59398Y-42267D01*
X59470Y-42094D01*
X59470Y-42718D01*
X59378Y-42692D01*
X59071Y-43000D01*
X59378Y-43308D01*
X59472Y-43281D01*
X59543Y-43079D01*
X59543Y-45135D01*
X59530Y-45166D01*
X59530Y-45234D01*
X59530Y-45834D01*
X59556Y-45896D01*
X59604Y-45944D01*
X59642Y-45960D01*
X59117Y-45960D01*
X59266Y-45899D01*
X59398Y-45767D01*
X59470Y-45594D01*
X59470Y-45407D01*
X59470Y-44334D01*
X59470Y-44266D01*
X59470Y-43666D01*
X59444Y-43604D01*
X59396Y-43556D01*
X59334Y-43530D01*
X59266Y-43530D01*
X59138Y-43530D01*
X59281Y-43472D01*
X59308Y-43378D01*
X59000Y-43071D01*
X58929Y-43141D01*
X58929Y-43000D01*
X58622Y-42692D01*
X58528Y-42719D01*
X58502Y-42792D01*
X58472Y-42719D01*
X58470Y-42718D01*
X58470Y-42094D01*
X58470Y-41907D01*
X58470Y-36344D01*
X58470Y-36157D01*
X58470Y-35344D01*
X58470Y-35157D01*
X58399Y-34984D01*
X58267Y-34852D01*
X58094Y-34780D01*
X57907Y-34780D01*
X57734Y-34851D01*
X57602Y-34983D01*
X57530Y-35156D01*
X57530Y-35343D01*
X57601Y-35516D01*
X57733Y-35648D01*
X57906Y-35720D01*
X58093Y-35720D01*
X58266Y-35649D01*
X58398Y-35517D01*
X58470Y-35344D01*
X58470Y-36157D01*
X58399Y-35984D01*
X58267Y-35852D01*
X58094Y-35780D01*
X57907Y-35780D01*
X57734Y-35851D01*
X57602Y-35983D01*
X57530Y-36156D01*
X57530Y-36343D01*
X57601Y-36516D01*
X57705Y-36620D01*
X57705Y-37167D01*
X57624Y-37248D01*
X57556Y-37411D01*
X57556Y-37588D01*
X57623Y-37751D01*
X57748Y-37876D01*
X57911Y-37944D01*
X58088Y-37944D01*
X58251Y-37877D01*
X58376Y-37752D01*
X58444Y-37589D01*
X58444Y-37412D01*
X58377Y-37249D01*
X58295Y-37167D01*
X58295Y-36620D01*
X58398Y-36517D01*
X58470Y-36344D01*
X58470Y-41907D01*
X58399Y-41734D01*
X58295Y-41630D01*
X58295Y-40833D01*
X58376Y-40752D01*
X58444Y-40589D01*
X58444Y-40412D01*
X58377Y-40249D01*
X58252Y-40124D01*
X58089Y-40056D01*
X57912Y-40056D01*
X57749Y-40123D01*
X57624Y-40248D01*
X57556Y-40411D01*
X57556Y-40588D01*
X57623Y-40751D01*
X57705Y-40833D01*
X57705Y-41630D01*
X57602Y-41733D01*
X57530Y-41906D01*
X57530Y-42093D01*
X57601Y-42266D01*
X57733Y-42398D01*
X57897Y-42466D01*
X57866Y-42468D01*
X57719Y-42528D01*
X57692Y-42622D01*
X58000Y-42929D01*
X58308Y-42622D01*
X58281Y-42528D01*
X58103Y-42465D01*
X58266Y-42399D01*
X58398Y-42267D01*
X58470Y-42094D01*
X58470Y-42718D01*
X58378Y-42692D01*
X58071Y-43000D01*
X58378Y-43308D01*
X58472Y-43281D01*
X58497Y-43207D01*
X58528Y-43281D01*
X58622Y-43308D01*
X58929Y-43000D01*
X58929Y-43141D01*
X58692Y-43378D01*
X58719Y-43472D01*
X58884Y-43530D01*
X58666Y-43530D01*
X58604Y-43556D01*
X58556Y-43604D01*
X58530Y-43666D01*
X58530Y-43734D01*
X58530Y-44334D01*
X58556Y-44396D01*
X58604Y-44444D01*
X58666Y-44470D01*
X58734Y-44470D01*
X59334Y-44470D01*
X59396Y-44444D01*
X59444Y-44396D01*
X59470Y-44334D01*
X59470Y-45407D01*
X59399Y-45234D01*
X59267Y-45102D01*
X59094Y-45030D01*
X58907Y-45030D01*
X58734Y-45101D01*
X58602Y-45233D01*
X58533Y-45397D01*
X58532Y-45366D01*
X58472Y-45219D01*
X58470Y-45218D01*
X58470Y-44334D01*
X58470Y-44266D01*
X58470Y-43666D01*
X58444Y-43604D01*
X58396Y-43556D01*
X58334Y-43530D01*
X58266Y-43530D01*
X58138Y-43530D01*
X58281Y-43472D01*
X58308Y-43378D01*
X58000Y-43071D01*
X57929Y-43141D01*
X57929Y-43000D01*
X57622Y-42692D01*
X57528Y-42719D01*
X57502Y-42792D01*
X57472Y-42719D01*
X57378Y-42692D01*
X57071Y-43000D01*
X57378Y-43308D01*
X57472Y-43281D01*
X57497Y-43207D01*
X57528Y-43281D01*
X57622Y-43308D01*
X57929Y-43000D01*
X57929Y-43141D01*
X57692Y-43378D01*
X57719Y-43472D01*
X57884Y-43530D01*
X57666Y-43530D01*
X57604Y-43556D01*
X57556Y-43604D01*
X57530Y-43666D01*
X57530Y-43734D01*
X57530Y-44334D01*
X57556Y-44396D01*
X57604Y-44444D01*
X57666Y-44470D01*
X57734Y-44470D01*
X58334Y-44470D01*
X58396Y-44444D01*
X58444Y-44396D01*
X58470Y-44334D01*
X58470Y-45218D01*
X58378Y-45192D01*
X58308Y-45262D01*
X58308Y-45122D01*
X58281Y-45028D01*
X58079Y-44957D01*
X57866Y-44968D01*
X57719Y-45028D01*
X57692Y-45122D01*
X58000Y-45429D01*
X58308Y-45122D01*
X58308Y-45262D01*
X58071Y-45500D01*
X58378Y-45808D01*
X58472Y-45781D01*
X58534Y-45603D01*
X58601Y-45766D01*
X58733Y-45898D01*
X58881Y-45960D01*
X58284Y-45960D01*
X58308Y-45878D01*
X58000Y-45571D01*
X57692Y-45878D01*
X57715Y-45960D01*
X57117Y-45960D01*
X57266Y-45899D01*
X57398Y-45767D01*
X57466Y-45602D01*
X57468Y-45634D01*
X57528Y-45781D01*
X57622Y-45808D01*
X57929Y-45500D01*
X57622Y-45192D01*
X57528Y-45219D01*
X57465Y-45396D01*
X57399Y-45234D01*
X57267Y-45102D01*
X57094Y-45030D01*
X56907Y-45030D01*
X56734Y-45101D01*
X56602Y-45233D01*
X56530Y-45406D01*
X56530Y-45593D01*
X56601Y-45766D01*
X56733Y-45898D01*
X56881Y-45960D01*
X56117Y-45960D01*
X56266Y-45899D01*
X56398Y-45767D01*
X56470Y-45594D01*
X56470Y-45407D01*
X56399Y-45234D01*
X56355Y-45190D01*
X56648Y-44899D01*
X56648Y-44898D01*
X56694Y-44831D01*
X56694Y-44830D01*
X56696Y-44817D01*
X56709Y-44750D01*
X56710Y-44750D01*
X56710Y-44470D01*
X56734Y-44470D01*
X57334Y-44470D01*
X57396Y-44444D01*
X57444Y-44396D01*
X57470Y-44334D01*
X57470Y-44266D01*
X57470Y-43666D01*
X57444Y-43604D01*
X57396Y-43556D01*
X57334Y-43530D01*
X57266Y-43530D01*
X57138Y-43530D01*
X57281Y-43472D01*
X57308Y-43378D01*
X57035Y-43106D01*
X57000Y-43071D01*
X56929Y-43000D01*
X57000Y-42929D01*
X57035Y-42894D01*
X57308Y-42622D01*
X57281Y-42528D01*
X57103Y-42465D01*
X57266Y-42399D01*
X57398Y-42267D01*
X57470Y-42094D01*
X57470Y-41907D01*
X57470Y-36344D01*
X57470Y-36157D01*
X57399Y-35984D01*
X57267Y-35852D01*
X57094Y-35780D01*
X56907Y-35780D01*
X56734Y-35851D01*
X56602Y-35983D01*
X56530Y-36156D01*
X56530Y-36343D01*
X56601Y-36516D01*
X56705Y-36620D01*
X56705Y-37167D01*
X56624Y-37248D01*
X56556Y-37411D01*
X56556Y-37588D01*
X56623Y-37751D01*
X56748Y-37876D01*
X56911Y-37944D01*
X57088Y-37944D01*
X57251Y-37877D01*
X57376Y-37752D01*
X57444Y-37589D01*
X57444Y-37412D01*
X57377Y-37249D01*
X57295Y-37167D01*
X57295Y-36620D01*
X57398Y-36517D01*
X57470Y-36344D01*
X57470Y-41907D01*
X57399Y-41734D01*
X57295Y-41630D01*
X57295Y-40833D01*
X57376Y-40752D01*
X57444Y-40589D01*
X57444Y-40412D01*
X57377Y-40249D01*
X57252Y-40124D01*
X57089Y-40056D01*
X56912Y-40056D01*
X56749Y-40123D01*
X56624Y-40248D01*
X56556Y-40411D01*
X56556Y-40588D01*
X56623Y-40751D01*
X56705Y-40833D01*
X56705Y-41630D01*
X56602Y-41733D01*
X56530Y-41906D01*
X56530Y-42093D01*
X56601Y-42266D01*
X56733Y-42398D01*
X56897Y-42466D01*
X56866Y-42468D01*
X56719Y-42528D01*
X56710Y-42559D01*
X56710Y-42500D01*
X56696Y-42432D01*
X56694Y-42420D01*
X56694Y-42419D01*
X56648Y-42352D01*
X56648Y-42351D01*
X56446Y-42150D01*
X56470Y-42094D01*
X56470Y-41907D01*
X56470Y-36344D01*
X56470Y-36157D01*
X56399Y-35984D01*
X56267Y-35852D01*
X56094Y-35780D01*
X55907Y-35780D01*
X55734Y-35851D01*
X55602Y-35983D01*
X55530Y-36156D01*
X55530Y-36343D01*
X55601Y-36516D01*
X55705Y-36620D01*
X55705Y-37167D01*
X55624Y-37248D01*
X55556Y-37411D01*
X55556Y-37588D01*
X55623Y-37751D01*
X55748Y-37876D01*
X55911Y-37944D01*
X56088Y-37944D01*
X56251Y-37877D01*
X56376Y-37752D01*
X56444Y-37589D01*
X56444Y-37412D01*
X56377Y-37249D01*
X56295Y-37167D01*
X56295Y-36620D01*
X56398Y-36517D01*
X56470Y-36344D01*
X56470Y-41907D01*
X56399Y-41734D01*
X56295Y-41630D01*
X56295Y-40833D01*
X56376Y-40752D01*
X56444Y-40589D01*
X56444Y-40412D01*
X56377Y-40249D01*
X56252Y-40124D01*
X56089Y-40056D01*
X55912Y-40056D01*
X55749Y-40123D01*
X55624Y-40248D01*
X55556Y-40411D01*
X55556Y-40588D01*
X55623Y-40751D01*
X55705Y-40833D01*
X55705Y-41630D01*
X55602Y-41733D01*
X55530Y-41906D01*
X55530Y-42093D01*
X55601Y-42266D01*
X55733Y-42398D01*
X55897Y-42466D01*
X55866Y-42468D01*
X55719Y-42528D01*
X55692Y-42622D01*
X55965Y-42894D01*
X56000Y-42929D01*
X56071Y-43000D01*
X56000Y-43071D01*
X55929Y-43141D01*
X55929Y-43000D01*
X55622Y-42692D01*
X55528Y-42719D01*
X55502Y-42792D01*
X55472Y-42719D01*
X55470Y-42718D01*
X55470Y-42094D01*
X55470Y-41907D01*
X55470Y-36344D01*
X55470Y-36157D01*
X55399Y-35984D01*
X55267Y-35852D01*
X55094Y-35780D01*
X54907Y-35780D01*
X54734Y-35851D01*
X54602Y-35983D01*
X54530Y-36156D01*
X54530Y-36343D01*
X54601Y-36516D01*
X54705Y-36620D01*
X54705Y-37167D01*
X54624Y-37248D01*
X54556Y-37411D01*
X54556Y-37588D01*
X54623Y-37751D01*
X54748Y-37876D01*
X54911Y-37944D01*
X55088Y-37944D01*
X55251Y-37877D01*
X55376Y-37752D01*
X55444Y-37589D01*
X55444Y-37412D01*
X55377Y-37249D01*
X55295Y-37167D01*
X55295Y-36620D01*
X55398Y-36517D01*
X55470Y-36344D01*
X55470Y-41907D01*
X55399Y-41734D01*
X55295Y-41630D01*
X55295Y-40833D01*
X55376Y-40752D01*
X55444Y-40589D01*
X55444Y-40412D01*
X55377Y-40249D01*
X55252Y-40124D01*
X55089Y-40056D01*
X54912Y-40056D01*
X54749Y-40123D01*
X54624Y-40248D01*
X54556Y-40411D01*
X54556Y-40588D01*
X54623Y-40751D01*
X54705Y-40833D01*
X54705Y-41630D01*
X54602Y-41733D01*
X54530Y-41906D01*
X54530Y-42093D01*
X54601Y-42266D01*
X54733Y-42398D01*
X54897Y-42466D01*
X54866Y-42468D01*
X54719Y-42528D01*
X54692Y-42622D01*
X55000Y-42929D01*
X55308Y-42622D01*
X55281Y-42528D01*
X55103Y-42465D01*
X55266Y-42399D01*
X55398Y-42267D01*
X55470Y-42094D01*
X55470Y-42718D01*
X55378Y-42692D01*
X55071Y-43000D01*
X55378Y-43308D01*
X55472Y-43281D01*
X55497Y-43207D01*
X55528Y-43281D01*
X55622Y-43308D01*
X55929Y-43000D01*
X55929Y-43141D01*
X55692Y-43378D01*
X55719Y-43472D01*
X55884Y-43530D01*
X55666Y-43530D01*
X55604Y-43556D01*
X55556Y-43604D01*
X55530Y-43666D01*
X55530Y-43734D01*
X55530Y-44334D01*
X55556Y-44396D01*
X55604Y-44444D01*
X55666Y-44470D01*
X55734Y-44470D01*
X56290Y-44470D01*
X56290Y-44663D01*
X55923Y-45030D01*
X55907Y-45030D01*
X55734Y-45101D01*
X55602Y-45233D01*
X55530Y-45406D01*
X55530Y-45593D01*
X55601Y-45766D01*
X55733Y-45898D01*
X55881Y-45960D01*
X55117Y-45960D01*
X55266Y-45899D01*
X55398Y-45767D01*
X55470Y-45594D01*
X55470Y-45407D01*
X55470Y-44334D01*
X55470Y-44266D01*
X55470Y-43666D01*
X55444Y-43604D01*
X55396Y-43556D01*
X55334Y-43530D01*
X55266Y-43530D01*
X55138Y-43530D01*
X55281Y-43472D01*
X55308Y-43378D01*
X55000Y-43071D01*
X54929Y-43141D01*
X54929Y-43000D01*
X54622Y-42692D01*
X54528Y-42719D01*
X54457Y-42921D01*
X54468Y-43134D01*
X54528Y-43281D01*
X54622Y-43308D01*
X54929Y-43000D01*
X54929Y-43141D01*
X54692Y-43378D01*
X54719Y-43472D01*
X54884Y-43530D01*
X54666Y-43530D01*
X54604Y-43556D01*
X54556Y-43604D01*
X54530Y-43666D01*
X54530Y-43734D01*
X54530Y-44334D01*
X54556Y-44396D01*
X54604Y-44444D01*
X54666Y-44470D01*
X54734Y-44470D01*
X55334Y-44470D01*
X55396Y-44444D01*
X55444Y-44396D01*
X55470Y-44334D01*
X55470Y-45407D01*
X55399Y-45234D01*
X55267Y-45102D01*
X55094Y-45030D01*
X54947Y-45030D01*
X54295Y-44377D01*
X54295Y-44333D01*
X54376Y-44252D01*
X54444Y-44089D01*
X54444Y-43912D01*
X54377Y-43749D01*
X54252Y-43624D01*
X54089Y-43556D01*
X53912Y-43556D01*
X53749Y-43623D01*
X53624Y-43748D01*
X53556Y-43911D01*
X53556Y-44088D01*
X53623Y-44251D01*
X53705Y-44333D01*
X53705Y-44495D01*
X53704Y-44500D01*
X53727Y-44613D01*
X53791Y-44709D01*
X54530Y-45447D01*
X54530Y-45593D01*
X54601Y-45766D01*
X54733Y-45898D01*
X54881Y-45960D01*
X53310Y-45960D01*
X53310Y-45295D01*
X53419Y-45033D01*
X53419Y-44469D01*
X53310Y-44205D01*
X53310Y-43210D01*
X50810Y-43210D01*
X50810Y-41901D01*
X50861Y-42026D01*
X50993Y-42158D01*
X51166Y-42230D01*
X51353Y-42230D01*
X51526Y-42159D01*
X51630Y-42055D01*
X51819Y-42055D01*
X51965Y-42201D01*
X52156Y-42280D01*
X52363Y-42280D01*
X52554Y-42201D01*
X52701Y-42055D01*
X52780Y-41864D01*
X52780Y-41833D01*
X53312Y-41573D01*
X53313Y-41573D01*
X53313Y-41572D01*
X53329Y-41565D01*
X53357Y-41543D01*
X53409Y-41509D01*
X53421Y-41495D01*
X53705Y-41212D01*
X53705Y-42667D01*
X53624Y-42748D01*
X53556Y-42911D01*
X53556Y-43088D01*
X53623Y-43251D01*
X53748Y-43376D01*
X53911Y-43444D01*
X54088Y-43444D01*
X54251Y-43377D01*
X54376Y-43252D01*
X54444Y-43089D01*
X54444Y-42912D01*
X54377Y-42749D01*
X54295Y-42667D01*
X54295Y-40945D01*
X54309Y-40945D01*
X54371Y-40919D01*
X54419Y-40871D01*
X54445Y-40809D01*
X54445Y-40741D01*
X54445Y-40191D01*
X54419Y-40129D01*
X54371Y-40081D01*
X54309Y-40055D01*
X54241Y-40055D01*
X53691Y-40055D01*
X53629Y-40081D01*
X53581Y-40129D01*
X53555Y-40191D01*
X53555Y-40259D01*
X53555Y-40527D01*
X53025Y-41057D01*
X52860Y-41137D01*
X52860Y-37872D01*
X52860Y-37648D01*
X52859Y-37361D01*
X52821Y-37269D01*
X52751Y-37199D01*
X52660Y-37161D01*
X52561Y-37161D01*
X52372Y-37160D01*
X52310Y-37222D01*
X52310Y-37710D01*
X52798Y-37710D01*
X52860Y-37648D01*
X52860Y-37872D01*
X52798Y-37810D01*
X52310Y-37810D01*
X52310Y-38298D01*
X52372Y-38360D01*
X52561Y-38359D01*
X52660Y-38359D01*
X52751Y-38321D01*
X52821Y-38251D01*
X52859Y-38159D01*
X52860Y-37872D01*
X52860Y-41137D01*
X52519Y-41304D01*
X52364Y-41240D01*
X52210Y-41240D01*
X52210Y-38298D01*
X52210Y-37860D01*
X52210Y-37810D01*
X52210Y-37710D01*
X52210Y-37660D01*
X52210Y-37222D01*
X52148Y-37160D01*
X51959Y-37161D01*
X51860Y-37161D01*
X51769Y-37199D01*
X51699Y-37269D01*
X51661Y-37361D01*
X51660Y-37458D01*
X51638Y-37452D01*
X51568Y-37522D01*
X51568Y-37382D01*
X51541Y-37288D01*
X51339Y-37217D01*
X51126Y-37228D01*
X50979Y-37288D01*
X50952Y-37382D01*
X51260Y-37689D01*
X51568Y-37382D01*
X51568Y-37522D01*
X51331Y-37760D01*
X51638Y-38068D01*
X51660Y-38061D01*
X51661Y-38159D01*
X51699Y-38251D01*
X51769Y-38321D01*
X51860Y-38359D01*
X51959Y-38359D01*
X52148Y-38360D01*
X52210Y-38298D01*
X52210Y-41240D01*
X52157Y-41240D01*
X51966Y-41319D01*
X51819Y-41465D01*
X51630Y-41465D01*
X51568Y-41403D01*
X51568Y-38138D01*
X51260Y-37831D01*
X50952Y-38138D01*
X50979Y-38232D01*
X51181Y-38303D01*
X51394Y-38292D01*
X51541Y-38232D01*
X51568Y-38138D01*
X51568Y-41403D01*
X51527Y-41362D01*
X51354Y-41290D01*
X51167Y-41290D01*
X50994Y-41361D01*
X50862Y-41493D01*
X50810Y-41617D01*
X50810Y-38047D01*
X50882Y-38068D01*
X51189Y-37760D01*
X50882Y-37452D01*
X50810Y-37472D01*
X50810Y-36560D01*
X53560Y-36560D01*
X53560Y-36416D01*
X53601Y-36516D01*
X53705Y-36620D01*
X53705Y-37167D01*
X53624Y-37248D01*
X53556Y-37411D01*
X53556Y-37588D01*
X53623Y-37751D01*
X53748Y-37876D01*
X53911Y-37944D01*
X54088Y-37944D01*
X54251Y-37877D01*
X54376Y-37752D01*
X54444Y-37589D01*
X54444Y-37412D01*
X54377Y-37249D01*
X54295Y-37167D01*
X54295Y-36620D01*
X54398Y-36517D01*
X54470Y-36344D01*
X54470Y-36157D01*
X54399Y-35984D01*
X54267Y-35852D01*
X54094Y-35780D01*
X53907Y-35780D01*
X53734Y-35851D01*
X53602Y-35983D01*
X53560Y-36083D01*
X53560Y-35416D01*
X53601Y-35516D01*
X53733Y-35648D01*
X53906Y-35720D01*
X54093Y-35720D01*
X54266Y-35649D01*
X54370Y-35545D01*
X54630Y-35545D01*
X54733Y-35648D01*
X54906Y-35720D01*
X55093Y-35720D01*
X55266Y-35649D01*
X55370Y-35545D01*
X55630Y-35545D01*
X55733Y-35648D01*
X55906Y-35720D01*
X56093Y-35720D01*
X56266Y-35649D01*
X56370Y-35545D01*
X56630Y-35545D01*
X56733Y-35648D01*
X56906Y-35720D01*
X57093Y-35720D01*
X57266Y-35649D01*
X57398Y-35517D01*
X57470Y-35344D01*
X57470Y-35157D01*
X57399Y-34984D01*
X57267Y-34852D01*
X57094Y-34780D01*
X56907Y-34780D01*
X56734Y-34851D01*
X56630Y-34955D01*
X56370Y-34955D01*
X56267Y-34852D01*
X56094Y-34780D01*
X55907Y-34780D01*
X55734Y-34851D01*
X55630Y-34955D01*
X55370Y-34955D01*
X55267Y-34852D01*
X55094Y-34780D01*
X54907Y-34780D01*
X54734Y-34851D01*
X54630Y-34955D01*
X54370Y-34955D01*
X54267Y-34852D01*
X54094Y-34780D01*
X53907Y-34780D01*
X53734Y-34851D01*
X53602Y-34983D01*
X53560Y-35083D01*
X53560Y-34650D01*
X53604Y-34694D01*
X53666Y-34720D01*
X53734Y-34720D01*
X54334Y-34720D01*
X54396Y-34694D01*
X54444Y-34646D01*
X54470Y-34584D01*
X54470Y-34516D01*
X54470Y-33916D01*
X54444Y-33854D01*
X54400Y-33810D01*
X54600Y-33810D01*
X54556Y-33854D01*
X54530Y-33916D01*
X54530Y-33984D01*
X54530Y-34584D01*
X54556Y-34646D01*
X54604Y-34694D01*
X54666Y-34720D01*
X54734Y-34720D01*
X55334Y-34720D01*
X55396Y-34694D01*
X55444Y-34646D01*
X55470Y-34584D01*
X55470Y-34516D01*
X55470Y-33916D01*
X55444Y-33854D01*
X55400Y-33810D01*
X55600Y-33810D01*
X55556Y-33854D01*
X55530Y-33916D01*
X55530Y-33984D01*
X55530Y-34584D01*
X55556Y-34646D01*
X55604Y-34694D01*
X55666Y-34720D01*
X55734Y-34720D01*
X56334Y-34720D01*
X56396Y-34694D01*
X56444Y-34646D01*
X56470Y-34584D01*
X56470Y-34516D01*
X56470Y-33916D01*
X56444Y-33854D01*
X56400Y-33810D01*
X56600Y-33810D01*
X56556Y-33854D01*
X56530Y-33916D01*
X56530Y-33984D01*
X56530Y-34584D01*
X56556Y-34646D01*
X56604Y-34694D01*
X56666Y-34720D01*
X56734Y-34720D01*
X57334Y-34720D01*
X57396Y-34694D01*
X57444Y-34646D01*
X57470Y-34584D01*
X57470Y-34516D01*
X57470Y-33916D01*
X57444Y-33854D01*
X57400Y-33810D01*
X57600Y-33810D01*
X57556Y-33854D01*
X57530Y-33916D01*
X57530Y-33984D01*
X57530Y-34584D01*
X57556Y-34646D01*
X57604Y-34694D01*
X57666Y-34720D01*
X57734Y-34720D01*
X58334Y-34720D01*
X58396Y-34694D01*
X58444Y-34646D01*
X58470Y-34584D01*
X58470Y-34516D01*
X58470Y-33916D01*
X58444Y-33854D01*
X58400Y-33810D01*
X58600Y-33810D01*
X58556Y-33854D01*
X58530Y-33916D01*
X58530Y-33984D01*
X58530Y-34584D01*
X58556Y-34646D01*
X58604Y-34694D01*
X58666Y-34720D01*
X58734Y-34720D01*
X59334Y-34720D01*
X59396Y-34694D01*
X59444Y-34646D01*
X59461Y-34605D01*
X59461Y-34610D01*
X59499Y-34701D01*
X59569Y-34771D01*
X59661Y-34809D01*
X59898Y-34810D01*
X59960Y-34748D01*
X59960Y-34360D01*
X59960Y-34310D01*
X59960Y-34210D01*
X60060Y-34210D01*
X60060Y-34310D01*
X60060Y-34360D01*
X60060Y-34748D01*
X60122Y-34810D01*
X60163Y-34809D01*
X59933Y-35040D01*
X59421Y-35040D01*
X59399Y-34984D01*
X59267Y-34852D01*
X59094Y-34780D01*
X58907Y-34780D01*
X58734Y-34851D01*
X58602Y-34983D01*
X58530Y-35156D01*
X58530Y-35343D01*
X58601Y-35516D01*
X58733Y-35648D01*
X58906Y-35720D01*
X59093Y-35720D01*
X59266Y-35649D01*
X59398Y-35517D01*
X59421Y-35460D01*
X60020Y-35460D01*
X60020Y-35459D01*
X60087Y-35446D01*
X60100Y-35444D01*
X60101Y-35444D01*
X60168Y-35398D01*
X60860Y-34706D01*
X60916Y-34730D01*
X61103Y-34730D01*
X61276Y-34659D01*
X61408Y-34527D01*
X61480Y-34354D01*
X61480Y-34167D01*
X61409Y-33994D01*
X61277Y-33862D01*
X61152Y-33810D01*
X61868Y-33810D01*
X61744Y-33861D01*
X61612Y-33993D01*
X61540Y-34166D01*
X61540Y-34353D01*
X61611Y-34526D01*
X61743Y-34658D01*
X61800Y-34681D01*
X61800Y-34866D01*
X61759Y-34883D01*
X61634Y-35008D01*
X61566Y-35171D01*
X61566Y-35348D01*
X61633Y-35511D01*
X61758Y-35636D01*
X61898Y-35694D01*
X62050Y-35846D01*
X62050Y-36423D01*
X62019Y-36454D01*
X61932Y-36541D01*
X61916Y-36525D01*
X61952Y-36517D01*
X62019Y-36324D01*
X62008Y-36120D01*
X61952Y-35983D01*
X61861Y-35960D01*
X61790Y-36031D01*
X61790Y-35889D01*
X61767Y-35798D01*
X61574Y-35731D01*
X61454Y-35737D01*
X61454Y-35349D01*
X61454Y-35172D01*
X61387Y-35009D01*
X61262Y-34884D01*
X61099Y-34816D01*
X60922Y-34816D01*
X60759Y-34883D01*
X60634Y-35008D01*
X60566Y-35171D01*
X60566Y-35348D01*
X60633Y-35511D01*
X60758Y-35636D01*
X60921Y-35704D01*
X61098Y-35704D01*
X61261Y-35637D01*
X61386Y-35512D01*
X61454Y-35349D01*
X61454Y-35737D01*
X61370Y-35742D01*
X61233Y-35798D01*
X61210Y-35889D01*
X61500Y-36179D01*
X61790Y-35889D01*
X61790Y-36031D01*
X61606Y-36215D01*
X61571Y-36250D01*
X61500Y-36321D01*
X61465Y-36356D01*
X61429Y-36392D01*
X61429Y-36250D01*
X61139Y-35960D01*
X61048Y-35983D01*
X60981Y-36176D01*
X60992Y-36380D01*
X61048Y-36517D01*
X61139Y-36540D01*
X61429Y-36250D01*
X61429Y-36392D01*
X61210Y-36611D01*
X61233Y-36702D01*
X61426Y-36769D01*
X61630Y-36758D01*
X61767Y-36702D01*
X61775Y-36666D01*
X61790Y-36681D01*
X61791Y-36682D01*
X61790Y-36683D01*
X61673Y-36800D01*
X61490Y-36800D01*
X61410Y-36816D01*
X61387Y-36831D01*
X61341Y-36862D01*
X61130Y-37073D01*
X61089Y-37056D01*
X60944Y-37056D01*
X60944Y-36339D01*
X60944Y-36162D01*
X60877Y-35999D01*
X60752Y-35874D01*
X60589Y-35806D01*
X60412Y-35806D01*
X60249Y-35873D01*
X60124Y-35998D01*
X60056Y-36161D01*
X60056Y-36338D01*
X60123Y-36501D01*
X60248Y-36626D01*
X60411Y-36694D01*
X60588Y-36694D01*
X60751Y-36627D01*
X60876Y-36502D01*
X60944Y-36339D01*
X60944Y-37056D01*
X60912Y-37056D01*
X60749Y-37123D01*
X60624Y-37248D01*
X60556Y-37411D01*
X60556Y-37588D01*
X60623Y-37751D01*
X60748Y-37876D01*
X60911Y-37944D01*
X61088Y-37944D01*
X61251Y-37877D01*
X61376Y-37752D01*
X61444Y-37589D01*
X61444Y-37412D01*
X61426Y-37369D01*
X61539Y-37257D01*
X61481Y-37426D01*
X61492Y-37630D01*
X61548Y-37767D01*
X61639Y-37790D01*
X61894Y-37535D01*
X61929Y-37500D01*
X62000Y-37429D01*
X62035Y-37394D01*
X62290Y-37139D01*
X62267Y-37048D01*
X62082Y-36983D01*
X62408Y-36659D01*
X62408Y-36658D01*
X62454Y-36591D01*
X62454Y-36590D01*
X62456Y-36577D01*
X62469Y-36510D01*
X62470Y-36510D01*
X62470Y-35760D01*
X62454Y-35680D01*
X62453Y-35679D01*
X62438Y-35657D01*
X62408Y-35612D01*
X62408Y-35611D01*
X62347Y-35550D01*
X62386Y-35512D01*
X62454Y-35349D01*
X62454Y-35172D01*
X62387Y-35009D01*
X62262Y-34884D01*
X62220Y-34866D01*
X62220Y-34681D01*
X62276Y-34659D01*
X62408Y-34527D01*
X62480Y-34354D01*
X62480Y-34167D01*
X62409Y-33994D01*
X62277Y-33862D01*
X62152Y-33810D01*
X62600Y-33810D01*
X62556Y-33854D01*
X62530Y-33916D01*
X62530Y-33984D01*
X62530Y-34584D01*
X62556Y-34646D01*
X62604Y-34694D01*
X62666Y-34720D01*
X62734Y-34720D01*
X62861Y-34720D01*
X62719Y-34778D01*
X62692Y-34872D01*
X63000Y-35179D01*
X63308Y-34872D01*
X63281Y-34778D01*
X63115Y-34720D01*
X63334Y-34720D01*
X63396Y-34694D01*
X63444Y-34646D01*
X63470Y-34584D01*
X63470Y-34516D01*
X63470Y-33916D01*
X63444Y-33854D01*
X63400Y-33810D01*
X63600Y-33810D01*
X63556Y-33854D01*
X63530Y-33916D01*
X63530Y-33984D01*
X63530Y-34584D01*
X63556Y-34646D01*
X63604Y-34694D01*
X63666Y-34720D01*
X63734Y-34720D01*
X63861Y-34720D01*
X63719Y-34778D01*
X63692Y-34872D01*
X64000Y-35179D01*
X64308Y-34872D01*
X64281Y-34778D01*
X64115Y-34720D01*
X64334Y-34720D01*
X64396Y-34694D01*
X64444Y-34646D01*
X64470Y-34584D01*
X64470Y-34516D01*
X64470Y-33916D01*
X64444Y-33854D01*
X64400Y-33810D01*
X64600Y-33810D01*
X64556Y-33854D01*
X64530Y-33916D01*
X64530Y-33984D01*
X64530Y-34584D01*
X64556Y-34646D01*
X64604Y-34694D01*
X64666Y-34720D01*
X64734Y-34720D01*
X64861Y-34720D01*
X64719Y-34778D01*
X64692Y-34872D01*
X65000Y-35179D01*
X65308Y-34872D01*
X65281Y-34778D01*
X65115Y-34720D01*
X65334Y-34720D01*
X65396Y-34694D01*
X65444Y-34646D01*
X65470Y-34584D01*
X65470Y-34516D01*
X65470Y-33916D01*
X65444Y-33854D01*
X65400Y-33810D01*
X65600Y-33810D01*
X65556Y-33854D01*
X65530Y-33916D01*
X65530Y-33984D01*
X65530Y-34584D01*
X65556Y-34646D01*
X65604Y-34694D01*
X65666Y-34720D01*
X65734Y-34720D01*
X65861Y-34720D01*
X65719Y-34778D01*
X65692Y-34872D01*
X66000Y-35179D01*
X66308Y-34872D01*
X66281Y-34778D01*
X66115Y-34720D01*
X66334Y-34720D01*
X66396Y-34694D01*
X66444Y-34646D01*
X66470Y-34584D01*
X66470Y-34516D01*
X66470Y-33916D01*
X66444Y-33854D01*
X66400Y-33810D01*
X66600Y-33810D01*
X66556Y-33854D01*
X66530Y-33916D01*
X66530Y-33984D01*
X66530Y-34584D01*
X66556Y-34646D01*
X66604Y-34694D01*
X66666Y-34720D01*
X66734Y-34720D01*
X66861Y-34720D01*
X66719Y-34778D01*
X66692Y-34872D01*
X67000Y-35179D01*
X67308Y-34872D01*
X67281Y-34778D01*
X67115Y-34720D01*
X67334Y-34720D01*
X67396Y-34694D01*
X67444Y-34646D01*
X67470Y-34584D01*
X67470Y-34516D01*
X67470Y-33916D01*
X67444Y-33854D01*
X67400Y-33810D01*
X69560Y-33810D01*
X69560Y-36560D01*
X72210Y-36560D01*
X72210Y-41031D01*
X72151Y-41031D01*
X71912Y-41030D01*
X71850Y-41092D01*
X71850Y-41900D01*
X71850Y-41950D01*
X71850Y-42050D01*
X71850Y-42100D01*
X71850Y-42908D01*
X71912Y-42970D01*
X72151Y-42969D01*
X72210Y-42969D01*
X72210Y-43210D01*
M02*
