G04 #@! TF.FileFunction,Copper,L2,Bot,Signal*
%FSLAX46Y46*%
G04 Gerber Fmt 4.6, Leading zero omitted, Abs format (unit mm)*
G04 Created by KiCad (PCBNEW (2015-08-30 BZR 6133)-product) date Fr 30 Okt 2015 20:46:54 CET*
%MOMM*%
G01*
G04 APERTURE LIST*
%ADD10C,0.100000*%
%ADD11C,0.150000*%
%ADD12R,1.651000X1.651000*%
%ADD13C,1.600200*%
%ADD14C,1.524000*%
%ADD15C,2.540000*%
%ADD16R,0.889000X1.397000*%
%ADD17R,1.600200X3.500120*%
%ADD18R,1.143000X0.508000*%
%ADD19C,3.500000*%
%ADD20R,1.524000X1.524000*%
%ADD21C,0.800000*%
%ADD22C,0.600000*%
%ADD23C,0.600000*%
%ADD24C,0.300000*%
%ADD25C,0.254000*%
G04 APERTURE END LIST*
D10*
D11*
X114336905Y-80254285D02*
X113536905Y-80254285D01*
X113841667Y-80254285D02*
X113803571Y-80330476D01*
X113803571Y-80482857D01*
X113841667Y-80559047D01*
X113879762Y-80597142D01*
X113955952Y-80635238D01*
X114184524Y-80635238D01*
X114260714Y-80597142D01*
X114298810Y-80559047D01*
X114336905Y-80482857D01*
X114336905Y-80330476D01*
X114298810Y-80254285D01*
X114336905Y-81092381D02*
X114298810Y-81016190D01*
X114260714Y-80978095D01*
X114184524Y-80940000D01*
X113955952Y-80940000D01*
X113879762Y-80978095D01*
X113841667Y-81016190D01*
X113803571Y-81092381D01*
X113803571Y-81206667D01*
X113841667Y-81282857D01*
X113879762Y-81320952D01*
X113955952Y-81359048D01*
X114184524Y-81359048D01*
X114260714Y-81320952D01*
X114298810Y-81282857D01*
X114336905Y-81206667D01*
X114336905Y-81092381D01*
X113803571Y-81587619D02*
X113803571Y-81892381D01*
X113536905Y-81701905D02*
X114222619Y-81701905D01*
X114298810Y-81740000D01*
X114336905Y-81816191D01*
X114336905Y-81892381D01*
X113803571Y-82044762D02*
X113803571Y-82349524D01*
X113536905Y-82159048D02*
X114222619Y-82159048D01*
X114298810Y-82197143D01*
X114336905Y-82273334D01*
X114336905Y-82349524D01*
X114336905Y-82730477D02*
X114298810Y-82654286D01*
X114260714Y-82616191D01*
X114184524Y-82578096D01*
X113955952Y-82578096D01*
X113879762Y-82616191D01*
X113841667Y-82654286D01*
X113803571Y-82730477D01*
X113803571Y-82844763D01*
X113841667Y-82920953D01*
X113879762Y-82959048D01*
X113955952Y-82997144D01*
X114184524Y-82997144D01*
X114260714Y-82959048D01*
X114298810Y-82920953D01*
X114336905Y-82844763D01*
X114336905Y-82730477D01*
X114336905Y-83340001D02*
X113803571Y-83340001D01*
X113879762Y-83340001D02*
X113841667Y-83378096D01*
X113803571Y-83454287D01*
X113803571Y-83568573D01*
X113841667Y-83644763D01*
X113917857Y-83682858D01*
X114336905Y-83682858D01*
X113917857Y-83682858D02*
X113841667Y-83720954D01*
X113803571Y-83797144D01*
X113803571Y-83911430D01*
X113841667Y-83987620D01*
X113917857Y-84025715D01*
X114336905Y-84025715D01*
D12*
X88575000Y-118970000D03*
D13*
X88575000Y-116430000D03*
X91115000Y-118970000D03*
X91115000Y-116430000D03*
X93655000Y-118970000D03*
X93655000Y-116430000D03*
X96195000Y-118970000D03*
X96195000Y-116430000D03*
X98735000Y-118970000D03*
X98735000Y-116430000D03*
X101275000Y-118970000D03*
X101275000Y-116430000D03*
D14*
X103815000Y-118970000D03*
X103815000Y-116430000D03*
D12*
X88575000Y-83410000D03*
D13*
X88575000Y-80870000D03*
X91115000Y-83410000D03*
X91115000Y-80870000D03*
X93655000Y-83410000D03*
X93655000Y-80870000D03*
X96195000Y-83410000D03*
X96195000Y-80870000D03*
X98735000Y-83410000D03*
X98735000Y-80870000D03*
X101275000Y-83410000D03*
X101275000Y-80870000D03*
D14*
X103815000Y-83410000D03*
X103815000Y-80870000D03*
X106355000Y-83410000D03*
X106355000Y-80870000D03*
X108895000Y-83410000D03*
X108895000Y-80870000D03*
X111435000Y-83410000D03*
X111435000Y-80870000D03*
D12*
X112250000Y-112210000D03*
D13*
X109710000Y-112210000D03*
X112250000Y-114750000D03*
X109710000Y-114750000D03*
X112250000Y-117290000D03*
X109710000Y-117290000D03*
D15*
X87175000Y-101010000D03*
D16*
X94452500Y-88500000D03*
X92547500Y-88500000D03*
D17*
X102800000Y-98300360D03*
X102800000Y-102699640D03*
D15*
X87175000Y-89410000D03*
X87175000Y-95210000D03*
X87175000Y-106810000D03*
D18*
X92333000Y-90845000D03*
X97667000Y-90845000D03*
X92333000Y-92115000D03*
X92333000Y-93385000D03*
X92333000Y-94655000D03*
X97667000Y-92115000D03*
X97667000Y-93385000D03*
X97667000Y-94655000D03*
D19*
X110500000Y-105000000D03*
D20*
X92750000Y-106750000D03*
D14*
X92750000Y-104210000D03*
X92750000Y-101670000D03*
X92750000Y-99130000D03*
D21*
X108895000Y-108048000D03*
X100838000Y-101346000D03*
X101337577Y-87732696D03*
X90953102Y-114683096D03*
X93375000Y-87010000D03*
X108800000Y-92000000D03*
X106817491Y-105038553D03*
X104559296Y-106939986D03*
D22*
X93194994Y-111378999D03*
X96095488Y-112529414D03*
X99374474Y-96855924D03*
X98701430Y-97507667D03*
X106893927Y-95106073D03*
X107798536Y-95048566D03*
X107070006Y-93085721D03*
X107716362Y-93676983D03*
X103413541Y-91647944D03*
X98976975Y-98258729D03*
X104274499Y-92406351D03*
X98096656Y-98297677D03*
X104729138Y-93064623D03*
X99587329Y-99699900D03*
X92802249Y-110580229D03*
X95995045Y-111231774D03*
X100942140Y-94324170D03*
X99963464Y-96218659D03*
X100429671Y-95157015D03*
X107000000Y-89250000D03*
X93172218Y-109870904D03*
X95281401Y-109900605D03*
D21*
X106250000Y-102250000D03*
X105300538Y-104625592D03*
D22*
X96775000Y-106970498D03*
X102575000Y-110210000D03*
X98127417Y-109901353D03*
X103175000Y-111610000D03*
X91349089Y-87506405D03*
X84184812Y-93809485D03*
X82200000Y-93800000D03*
D23*
X93375000Y-87010000D02*
X93375000Y-87422500D01*
X93375000Y-87422500D02*
X94452500Y-88500000D01*
X87020200Y-89474834D02*
X87020200Y-88960000D01*
D24*
X106817491Y-111775915D02*
X106817491Y-105604238D01*
X95044899Y-115877951D02*
X96722850Y-114200000D01*
X93655000Y-118970000D02*
X95044899Y-117580101D01*
X106817491Y-105604238D02*
X106817491Y-105038553D01*
X96722850Y-114200000D02*
X104393406Y-114200000D01*
X95044899Y-117580101D02*
X95044899Y-115877951D01*
X104393406Y-114200000D02*
X106817491Y-111775915D01*
X104559296Y-107505671D02*
X104559296Y-106939986D01*
X96521449Y-113563551D02*
X104129327Y-113563551D01*
X104559296Y-113133582D02*
X104559296Y-107505671D01*
X93655000Y-116430000D02*
X96521449Y-113563551D01*
X104129327Y-113563551D02*
X104559296Y-113133582D01*
X94345409Y-112529414D02*
X93194994Y-111378999D01*
X96095488Y-112529414D02*
X94345409Y-112529414D01*
X97578778Y-96855924D02*
X99374474Y-96855924D01*
X96000000Y-95277146D02*
X97578778Y-96855924D01*
X93655000Y-83410000D02*
X96000000Y-85755000D01*
X96000000Y-85755000D02*
X96000000Y-95277146D01*
X98701430Y-97507667D02*
X97414509Y-97507667D01*
X97414509Y-97507667D02*
X95435910Y-95529068D01*
X95435910Y-95529068D02*
X95435910Y-87035910D01*
X95435910Y-87035910D02*
X92504899Y-84104899D01*
X92504899Y-84104899D02*
X92504899Y-82020101D01*
X92504899Y-82020101D02*
X93655000Y-80870000D01*
X105919976Y-94132122D02*
X105919976Y-91256794D01*
X105919976Y-91256794D02*
X102087578Y-87424396D01*
X102087578Y-87424396D02*
X102087578Y-87372695D01*
X102087578Y-87372695D02*
X101697578Y-86982695D01*
X99767695Y-86982695D02*
X96195000Y-83410000D01*
X106893927Y-95106073D02*
X105919976Y-94132122D01*
X101697578Y-86982695D02*
X99767695Y-86982695D01*
X97345101Y-82020101D02*
X96195000Y-80870000D01*
X97345101Y-83688401D02*
X97345101Y-82020101D01*
X107798536Y-95048566D02*
X106419987Y-93670017D01*
X100139384Y-86482684D02*
X97345101Y-83688401D01*
X102587588Y-87165583D02*
X101904689Y-86482684D01*
X106419986Y-91049682D02*
X102587589Y-87217285D01*
X102587589Y-87217285D02*
X102587588Y-87165583D01*
X106419987Y-93670017D02*
X106419986Y-91049682D01*
X101904689Y-86482684D02*
X100139384Y-86482684D01*
X107070006Y-90992580D02*
X107070006Y-93085721D01*
X103087598Y-87010172D02*
X107070006Y-90992580D01*
X98735000Y-83410000D02*
X101307674Y-85982674D01*
X101307674Y-85982674D02*
X102111801Y-85982674D01*
X103087598Y-86958471D02*
X103087598Y-87010172D01*
X102111801Y-85982674D02*
X103087598Y-86958471D01*
X99885101Y-82020101D02*
X98735000Y-80870000D01*
X99885101Y-83655168D02*
X99885101Y-82020101D01*
X102318913Y-85482664D02*
X101712579Y-85482665D01*
X101712579Y-85482665D02*
X99885101Y-83655168D01*
X103587609Y-86751360D02*
X102318913Y-85482664D01*
X108016361Y-91231813D02*
X103587609Y-86803061D01*
X108016361Y-93376984D02*
X108016361Y-91231813D01*
X107716362Y-93676983D02*
X108016361Y-93376984D01*
X103587609Y-86803061D02*
X103587609Y-86751360D01*
X100649877Y-96585827D02*
X100649877Y-95856077D01*
X98976975Y-98258729D02*
X100649877Y-96585827D01*
X100649877Y-95856077D02*
X102062042Y-94443912D01*
X102062042Y-92999443D02*
X103413541Y-91647944D01*
X102062042Y-94443912D02*
X102062042Y-92999443D01*
X98096656Y-98297677D02*
X98798979Y-99000000D01*
X101149888Y-97240138D02*
X101149888Y-96063188D01*
X101149888Y-96063188D02*
X103760580Y-93452496D01*
X103760580Y-93452496D02*
X103760580Y-92920270D01*
X103760580Y-92920270D02*
X104274499Y-92406351D01*
X99390026Y-99000000D02*
X101149888Y-97240138D01*
X98798979Y-99000000D02*
X99390026Y-99000000D01*
X104429139Y-93491059D02*
X104429139Y-93364622D01*
X99587329Y-99699900D02*
X101649899Y-97637330D01*
X101649899Y-96270299D02*
X104429139Y-93491059D01*
X101649899Y-97637330D02*
X101649899Y-96270299D01*
X104429139Y-93364622D02*
X104729138Y-93064623D01*
X95343500Y-110580229D02*
X92802249Y-110580229D01*
X95995045Y-111231774D02*
X95343500Y-110580229D01*
X100002970Y-93385000D02*
X100942140Y-94324170D01*
X97667000Y-93385000D02*
X100002970Y-93385000D01*
X97667000Y-92115000D02*
X97667000Y-93385000D01*
X99663465Y-95918660D02*
X99963464Y-96218659D01*
X96500011Y-94943513D02*
X97475158Y-95918660D01*
X97475158Y-95918660D02*
X99663465Y-95918660D01*
X96500011Y-91694489D02*
X96500011Y-94943513D01*
X97349500Y-90845000D02*
X96500011Y-91694489D01*
X97667000Y-90845000D02*
X97349500Y-90845000D01*
X99927656Y-94655000D02*
X100429671Y-95157015D01*
X97667000Y-94655000D02*
X99927656Y-94655000D01*
X112250000Y-117290000D02*
X112710000Y-117290000D01*
X112710000Y-117290000D02*
X113750000Y-116250000D01*
X113000000Y-89250000D02*
X107000000Y-89250000D01*
X113750000Y-90000000D02*
X113000000Y-89250000D01*
X113750000Y-116250000D02*
X113750000Y-90000000D01*
X93201919Y-109900605D02*
X93172218Y-109870904D01*
X95281401Y-109900605D02*
X93201919Y-109900605D01*
X106051243Y-104711043D02*
X106051243Y-105003471D01*
X105850001Y-102649999D02*
X106250000Y-102250000D01*
X104694583Y-114705417D02*
X107502509Y-111897491D01*
X104400000Y-104100000D02*
X105850001Y-102649999D01*
X104400000Y-105137064D02*
X104400000Y-104100000D01*
X107567493Y-104678551D02*
X107177493Y-104288551D01*
X106051243Y-105003471D02*
X105677680Y-105377034D01*
X104639970Y-105377034D02*
X104400000Y-105137064D01*
X105677680Y-105377034D02*
X104639970Y-105377034D01*
X107567493Y-105398555D02*
X107567493Y-104678551D01*
X107177493Y-104288551D02*
X106473735Y-104288551D01*
X96195000Y-116430000D02*
X97919583Y-114705417D01*
X107502509Y-105463539D02*
X107567493Y-105398555D01*
X97919583Y-114705417D02*
X104694583Y-114705417D01*
X107502509Y-111897491D02*
X107502509Y-105463539D01*
X106473735Y-104288551D02*
X106051243Y-104711043D01*
X108067503Y-104471439D02*
X107384604Y-103788540D01*
X108067503Y-106044309D02*
X108067503Y-104471439D01*
X105194572Y-115205428D02*
X108022828Y-112377172D01*
X108022828Y-112377172D02*
X108022828Y-106088984D01*
X98129817Y-115205428D02*
X105194572Y-115205428D01*
X108022828Y-106088984D02*
X108067503Y-106044309D01*
X97345101Y-117819899D02*
X97345101Y-115990144D01*
X106137590Y-103788540D02*
X105700537Y-104225593D01*
X96195000Y-118970000D02*
X97345101Y-117819899D01*
X107384604Y-103788540D02*
X106137590Y-103788540D01*
X105700537Y-104225593D02*
X105300538Y-104625592D01*
X97345101Y-115990144D02*
X98129817Y-115205428D01*
X102575000Y-110210000D02*
X99335498Y-106970498D01*
X99335498Y-106970498D02*
X96775000Y-106970498D01*
X99836064Y-111610000D02*
X98127417Y-109901353D01*
X103175000Y-111610000D02*
X99836064Y-111610000D01*
X92547500Y-88500000D02*
X92342684Y-88500000D01*
X92342684Y-88500000D02*
X91349089Y-87506405D01*
X99899940Y-100650420D02*
X94270420Y-100650420D01*
X102250000Y-98300360D02*
X99899940Y-100650420D01*
X94270420Y-100650420D02*
X92750000Y-99130000D01*
X92333000Y-90267000D02*
X92547500Y-90052500D01*
X92547500Y-90052500D02*
X92547500Y-88500000D01*
X92333000Y-90845000D02*
X92333000Y-90267000D01*
X84484811Y-93509486D02*
X84184812Y-93809485D01*
X84609297Y-93385000D02*
X84484811Y-93509486D01*
X92333000Y-93385000D02*
X84609297Y-93385000D01*
X82200000Y-93000000D02*
X82200000Y-93800000D01*
X83085000Y-92115000D02*
X82200000Y-93000000D01*
X92333000Y-92115000D02*
X83085000Y-92115000D01*
D25*
G36*
X109722717Y-77844155D02*
X111162164Y-78563617D01*
X112832869Y-79607808D01*
X112809000Y-79607808D01*
X112809000Y-84672191D01*
X114373000Y-84672191D01*
X114373000Y-119830628D01*
X108228606Y-122903636D01*
X106976970Y-123373000D01*
X93026951Y-123373000D01*
X90163531Y-122100369D01*
X88026199Y-121031498D01*
X85627000Y-119432032D01*
X85627000Y-119203750D01*
X87322500Y-119203750D01*
X87322500Y-119880436D01*
X87387507Y-120037376D01*
X87507624Y-120157493D01*
X87664565Y-120222500D01*
X88341250Y-120222500D01*
X88448000Y-120115750D01*
X88448000Y-119097000D01*
X88702000Y-119097000D01*
X88702000Y-120115750D01*
X88808750Y-120222500D01*
X89485435Y-120222500D01*
X89642376Y-120157493D01*
X89762493Y-120037376D01*
X89827500Y-119880436D01*
X89827500Y-119203905D01*
X89933696Y-119203905D01*
X90113128Y-119638165D01*
X90445087Y-119970704D01*
X90879034Y-120150894D01*
X91348905Y-120151304D01*
X91783165Y-119971872D01*
X92115704Y-119639913D01*
X92295894Y-119205966D01*
X92296304Y-118736095D01*
X92116872Y-118301835D01*
X91784913Y-117969296D01*
X91350966Y-117789106D01*
X90881095Y-117788696D01*
X90446835Y-117968128D01*
X90114296Y-118300087D01*
X89934106Y-118734034D01*
X89933696Y-119203905D01*
X89827500Y-119203905D01*
X89827500Y-119203750D01*
X89720750Y-119097000D01*
X88702000Y-119097000D01*
X88448000Y-119097000D01*
X87429250Y-119097000D01*
X87322500Y-119203750D01*
X85627000Y-119203750D01*
X85627000Y-118059564D01*
X87322500Y-118059564D01*
X87322500Y-118736250D01*
X87429250Y-118843000D01*
X88448000Y-118843000D01*
X88448000Y-117824250D01*
X88702000Y-117824250D01*
X88702000Y-118843000D01*
X89720750Y-118843000D01*
X89827500Y-118736250D01*
X89827500Y-118059564D01*
X89762493Y-117902624D01*
X89642376Y-117782507D01*
X89485435Y-117717500D01*
X88808750Y-117717500D01*
X88702000Y-117824250D01*
X88448000Y-117824250D01*
X88341250Y-117717500D01*
X87664565Y-117717500D01*
X87507624Y-117782507D01*
X87387507Y-117902624D01*
X87322500Y-118059564D01*
X85627000Y-118059564D01*
X85627000Y-117324010D01*
X87860595Y-117324010D01*
X87946142Y-117511615D01*
X88407927Y-117669935D01*
X88895148Y-117639487D01*
X89203858Y-117511615D01*
X89289405Y-117324010D01*
X88575000Y-116609605D01*
X87860595Y-117324010D01*
X85627000Y-117324010D01*
X85627000Y-116262927D01*
X87335065Y-116262927D01*
X87365513Y-116750148D01*
X87493385Y-117058858D01*
X87680990Y-117144405D01*
X88395395Y-116430000D01*
X88754605Y-116430000D01*
X89469010Y-117144405D01*
X89656615Y-117058858D01*
X89792022Y-116663905D01*
X89933696Y-116663905D01*
X90113128Y-117098165D01*
X90445087Y-117430704D01*
X90879034Y-117610894D01*
X91348905Y-117611304D01*
X91783165Y-117431872D01*
X92115704Y-117099913D01*
X92295894Y-116665966D01*
X92296304Y-116196095D01*
X92116872Y-115761835D01*
X91784913Y-115429296D01*
X91350966Y-115249106D01*
X90881095Y-115248696D01*
X90446835Y-115428128D01*
X90114296Y-115760087D01*
X89934106Y-116194034D01*
X89933696Y-116663905D01*
X89792022Y-116663905D01*
X89814935Y-116597073D01*
X89784487Y-116109852D01*
X89656615Y-115801142D01*
X89469010Y-115715595D01*
X88754605Y-116430000D01*
X88395395Y-116430000D01*
X87680990Y-115715595D01*
X87493385Y-115801142D01*
X87335065Y-116262927D01*
X85627000Y-116262927D01*
X85627000Y-115535990D01*
X87860595Y-115535990D01*
X88575000Y-116250395D01*
X89289405Y-115535990D01*
X89203858Y-115348385D01*
X88742073Y-115190065D01*
X88254852Y-115220513D01*
X87946142Y-115348385D01*
X87860595Y-115535990D01*
X85627000Y-115535990D01*
X85627000Y-110715094D01*
X92121131Y-110715094D01*
X92224588Y-110965481D01*
X92415990Y-111157216D01*
X92530044Y-111204576D01*
X92514112Y-111242945D01*
X92513876Y-111513864D01*
X92617333Y-111764251D01*
X92808735Y-111955986D01*
X93058940Y-112059881D01*
X93124986Y-112059939D01*
X93969933Y-112904885D01*
X93969935Y-112904888D01*
X94142204Y-113019994D01*
X94345409Y-113060414D01*
X95663322Y-113060414D01*
X95709229Y-113106401D01*
X95959434Y-113210296D01*
X96123613Y-113210439D01*
X94028032Y-115306020D01*
X93890966Y-115249106D01*
X93421095Y-115248696D01*
X92986835Y-115428128D01*
X92654296Y-115760087D01*
X92474106Y-116194034D01*
X92473696Y-116663905D01*
X92653128Y-117098165D01*
X92985087Y-117430704D01*
X93419034Y-117610894D01*
X93888905Y-117611304D01*
X94323165Y-117431872D01*
X94513899Y-117241471D01*
X94513899Y-117360153D01*
X94028032Y-117846020D01*
X93890966Y-117789106D01*
X93421095Y-117788696D01*
X92986835Y-117968128D01*
X92654296Y-118300087D01*
X92474106Y-118734034D01*
X92473696Y-119203905D01*
X92653128Y-119638165D01*
X92985087Y-119970704D01*
X93419034Y-120150894D01*
X93888905Y-120151304D01*
X94323165Y-119971872D01*
X94655704Y-119639913D01*
X94835894Y-119205966D01*
X94836304Y-118736095D01*
X94778865Y-118597083D01*
X95420373Y-117955575D01*
X95535479Y-117783306D01*
X95575899Y-117580101D01*
X95575899Y-117451803D01*
X95959034Y-117610894D01*
X96428905Y-117611304D01*
X96814101Y-117452145D01*
X96814101Y-117599952D01*
X96568032Y-117846021D01*
X96430966Y-117789106D01*
X95961095Y-117788696D01*
X95526835Y-117968128D01*
X95194296Y-118300087D01*
X95014106Y-118734034D01*
X95013696Y-119203905D01*
X95193128Y-119638165D01*
X95525087Y-119970704D01*
X95959034Y-120150894D01*
X96428905Y-120151304D01*
X96863165Y-119971872D01*
X97195704Y-119639913D01*
X97375894Y-119205966D01*
X97375895Y-119203905D01*
X97553696Y-119203905D01*
X97733128Y-119638165D01*
X98065087Y-119970704D01*
X98499034Y-120150894D01*
X98968905Y-120151304D01*
X99403165Y-119971872D01*
X99735704Y-119639913D01*
X99915894Y-119205966D01*
X99915895Y-119203905D01*
X100093696Y-119203905D01*
X100273128Y-119638165D01*
X100605087Y-119970704D01*
X101039034Y-120150894D01*
X101508905Y-120151304D01*
X101943165Y-119971872D01*
X102275704Y-119639913D01*
X102455894Y-119205966D01*
X102455902Y-119196359D01*
X102671802Y-119196359D01*
X102845446Y-119616612D01*
X103166697Y-119938423D01*
X103586646Y-120112801D01*
X104041359Y-120113198D01*
X104461612Y-119939554D01*
X104783423Y-119618303D01*
X104957801Y-119198354D01*
X104958198Y-118743641D01*
X104784554Y-118323388D01*
X104645419Y-118184010D01*
X108995595Y-118184010D01*
X109081142Y-118371615D01*
X109542927Y-118529935D01*
X110030148Y-118499487D01*
X110338858Y-118371615D01*
X110424405Y-118184010D01*
X109710000Y-117469605D01*
X108995595Y-118184010D01*
X104645419Y-118184010D01*
X104463303Y-118001577D01*
X104043354Y-117827199D01*
X103588641Y-117826802D01*
X103168388Y-118000446D01*
X102846577Y-118321697D01*
X102672199Y-118741646D01*
X102671802Y-119196359D01*
X102455902Y-119196359D01*
X102456304Y-118736095D01*
X102276872Y-118301835D01*
X101944913Y-117969296D01*
X101510966Y-117789106D01*
X101041095Y-117788696D01*
X100606835Y-117968128D01*
X100274296Y-118300087D01*
X100094106Y-118734034D01*
X100093696Y-119203905D01*
X99915895Y-119203905D01*
X99916304Y-118736095D01*
X99736872Y-118301835D01*
X99404913Y-117969296D01*
X98970966Y-117789106D01*
X98501095Y-117788696D01*
X98066835Y-117968128D01*
X97734296Y-118300087D01*
X97554106Y-118734034D01*
X97553696Y-119203905D01*
X97375895Y-119203905D01*
X97376304Y-118736095D01*
X97318865Y-118597082D01*
X97720572Y-118195375D01*
X97720575Y-118195373D01*
X97835681Y-118023104D01*
X97876101Y-117819899D01*
X97876101Y-117241388D01*
X98065087Y-117430704D01*
X98499034Y-117610894D01*
X98968905Y-117611304D01*
X99403165Y-117431872D01*
X99735704Y-117099913D01*
X99915894Y-116665966D01*
X99916304Y-116196095D01*
X99736872Y-115761835D01*
X99711509Y-115736428D01*
X100297996Y-115736428D01*
X100274296Y-115760087D01*
X100094106Y-116194034D01*
X100093696Y-116663905D01*
X100273128Y-117098165D01*
X100605087Y-117430704D01*
X101039034Y-117610894D01*
X101508905Y-117611304D01*
X101943165Y-117431872D01*
X102275704Y-117099913D01*
X102455894Y-116665966D01*
X102456304Y-116196095D01*
X102276872Y-115761835D01*
X102251509Y-115736428D01*
X102891925Y-115736428D01*
X102846577Y-115781697D01*
X102672199Y-116201646D01*
X102671802Y-116656359D01*
X102845446Y-117076612D01*
X103166697Y-117398423D01*
X103586646Y-117572801D01*
X104041359Y-117573198D01*
X104461612Y-117399554D01*
X104738721Y-117122927D01*
X108470065Y-117122927D01*
X108500513Y-117610148D01*
X108628385Y-117918858D01*
X108815990Y-118004405D01*
X109530395Y-117290000D01*
X109889605Y-117290000D01*
X110604010Y-118004405D01*
X110791615Y-117918858D01*
X110949935Y-117457073D01*
X110919487Y-116969852D01*
X110791615Y-116661142D01*
X110604010Y-116575595D01*
X109889605Y-117290000D01*
X109530395Y-117290000D01*
X108815990Y-116575595D01*
X108628385Y-116661142D01*
X108470065Y-117122927D01*
X104738721Y-117122927D01*
X104783423Y-117078303D01*
X104957801Y-116658354D01*
X104958030Y-116395990D01*
X108995595Y-116395990D01*
X109710000Y-117110395D01*
X110424405Y-116395990D01*
X110338858Y-116208385D01*
X109877073Y-116050065D01*
X109389852Y-116080513D01*
X109081142Y-116208385D01*
X108995595Y-116395990D01*
X104958030Y-116395990D01*
X104958198Y-116203641D01*
X104784554Y-115783388D01*
X104737676Y-115736428D01*
X105194572Y-115736428D01*
X105397777Y-115696008D01*
X105570046Y-115580902D01*
X106167043Y-114983905D01*
X108528696Y-114983905D01*
X108708128Y-115418165D01*
X109040087Y-115750704D01*
X109474034Y-115930894D01*
X109943905Y-115931304D01*
X110378165Y-115751872D01*
X110710704Y-115419913D01*
X110890894Y-114985966D01*
X110891304Y-114516095D01*
X110711872Y-114081835D01*
X110379913Y-113749296D01*
X109945966Y-113569106D01*
X109476095Y-113568696D01*
X109041835Y-113748128D01*
X108709296Y-114080087D01*
X108529106Y-114514034D01*
X108528696Y-114983905D01*
X106167043Y-114983905D01*
X108398302Y-112752646D01*
X108513408Y-112580377D01*
X108536701Y-112463278D01*
X108708128Y-112878165D01*
X109040087Y-113210704D01*
X109474034Y-113390894D01*
X109943905Y-113391304D01*
X110378165Y-113211872D01*
X110710704Y-112879913D01*
X110890894Y-112445966D01*
X110891304Y-111976095D01*
X110711872Y-111541835D01*
X110379913Y-111209296D01*
X109945966Y-111029106D01*
X109476095Y-111028696D01*
X109041835Y-111208128D01*
X108709296Y-111540087D01*
X108553828Y-111914497D01*
X108553828Y-106253882D01*
X108558083Y-106247514D01*
X108598503Y-106044309D01*
X108598503Y-105978355D01*
X108692373Y-106205538D01*
X109291309Y-106805521D01*
X110074258Y-107130630D01*
X110922022Y-107131369D01*
X111705538Y-106807627D01*
X112305521Y-106208691D01*
X112630630Y-105425742D01*
X112631369Y-104577978D01*
X112307627Y-103794462D01*
X111708691Y-103194479D01*
X110925742Y-102869370D01*
X110077978Y-102868631D01*
X109294462Y-103192373D01*
X108694479Y-103791309D01*
X108520067Y-104211339D01*
X108442977Y-104095965D01*
X107760078Y-103413066D01*
X107587809Y-103297960D01*
X107384604Y-103257540D01*
X106137590Y-103257540D01*
X105957607Y-103293341D01*
X106219974Y-103030974D01*
X106404669Y-103031136D01*
X106691823Y-102912486D01*
X106911714Y-102692979D01*
X107030864Y-102406032D01*
X107031136Y-102095331D01*
X106912486Y-101808177D01*
X106692979Y-101588286D01*
X106406032Y-101469136D01*
X106095331Y-101468864D01*
X105808177Y-101587514D01*
X105588286Y-101807021D01*
X105469136Y-102093968D01*
X105468973Y-102280079D01*
X104027100Y-103721952D01*
X104027100Y-102933390D01*
X103920350Y-102826640D01*
X102927000Y-102826640D01*
X102927000Y-104769950D01*
X103033750Y-104876700D01*
X103685035Y-104876700D01*
X103841976Y-104811693D01*
X103869000Y-104784669D01*
X103869000Y-105137064D01*
X103909420Y-105340269D01*
X104024526Y-105512538D01*
X104264496Y-105752508D01*
X104436765Y-105867614D01*
X104639970Y-105908035D01*
X104639975Y-105908034D01*
X105677680Y-105908034D01*
X105880885Y-105867614D01*
X106053154Y-105752508D01*
X106240071Y-105565591D01*
X106286491Y-105612092D01*
X106286491Y-111555967D01*
X105090296Y-112752162D01*
X105090296Y-107513451D01*
X105221010Y-107382965D01*
X105340160Y-107096018D01*
X105340432Y-106785317D01*
X105221782Y-106498163D01*
X105002275Y-106278272D01*
X104715328Y-106159122D01*
X104404627Y-106158850D01*
X104117473Y-106277500D01*
X103897582Y-106497007D01*
X103778432Y-106783954D01*
X103778160Y-107094655D01*
X103896810Y-107381809D01*
X104028296Y-107513525D01*
X104028296Y-112913634D01*
X103909379Y-113032551D01*
X96555394Y-113032551D01*
X96672475Y-112915673D01*
X96776370Y-112665468D01*
X96776606Y-112394549D01*
X96673149Y-112144162D01*
X96481747Y-111952427D01*
X96258541Y-111859743D01*
X96380297Y-111809435D01*
X96572032Y-111618033D01*
X96675927Y-111367828D01*
X96676163Y-111096909D01*
X96572706Y-110846522D01*
X96381304Y-110654787D01*
X96131099Y-110550892D01*
X96065053Y-110550834D01*
X95829711Y-110315492D01*
X95858388Y-110286864D01*
X95962283Y-110036659D01*
X95962283Y-110036218D01*
X97446299Y-110036218D01*
X97549756Y-110286605D01*
X97741158Y-110478340D01*
X97991363Y-110582235D01*
X98057409Y-110582293D01*
X99460590Y-111985474D01*
X99632859Y-112100580D01*
X99836064Y-112141001D01*
X99836069Y-112141000D01*
X102742834Y-112141000D01*
X102788741Y-112186987D01*
X103038946Y-112290882D01*
X103309865Y-112291118D01*
X103560252Y-112187661D01*
X103751987Y-111996259D01*
X103855882Y-111746054D01*
X103856118Y-111475135D01*
X103752661Y-111224748D01*
X103561259Y-111033013D01*
X103311054Y-110929118D01*
X103040135Y-110928882D01*
X102789748Y-111032339D01*
X102743006Y-111079000D01*
X100056012Y-111079000D01*
X98808478Y-109831466D01*
X98808535Y-109766488D01*
X98705078Y-109516101D01*
X98513676Y-109324366D01*
X98263471Y-109220471D01*
X97992552Y-109220235D01*
X97742165Y-109323692D01*
X97550430Y-109515094D01*
X97446535Y-109765299D01*
X97446299Y-110036218D01*
X95962283Y-110036218D01*
X95962519Y-109765740D01*
X95859062Y-109515353D01*
X95667660Y-109323618D01*
X95417455Y-109219723D01*
X95146536Y-109219487D01*
X94896149Y-109322944D01*
X94849407Y-109369605D01*
X93634034Y-109369605D01*
X93558477Y-109293917D01*
X93308272Y-109190022D01*
X93037353Y-109189786D01*
X92786966Y-109293243D01*
X92595231Y-109484645D01*
X92491336Y-109734850D01*
X92491129Y-109971937D01*
X92416997Y-110002568D01*
X92225262Y-110193970D01*
X92121367Y-110444175D01*
X92121131Y-110715094D01*
X85627000Y-110715094D01*
X85627000Y-109500000D01*
X85616994Y-109450590D01*
X85589803Y-109410197D01*
X85089803Y-108910197D01*
X85047789Y-108882334D01*
X85000000Y-108873000D01*
X81052606Y-108873000D01*
X80627000Y-108447394D01*
X80627000Y-107136963D01*
X85523714Y-107136963D01*
X85774534Y-107743995D01*
X86238563Y-108208834D01*
X86845155Y-108460713D01*
X87501963Y-108461286D01*
X88108995Y-108210466D01*
X88573834Y-107746437D01*
X88825713Y-107139845D01*
X88825849Y-106983750D01*
X91561000Y-106983750D01*
X91561000Y-107596935D01*
X91626007Y-107753876D01*
X91746124Y-107873993D01*
X91903064Y-107939000D01*
X92516250Y-107939000D01*
X92623000Y-107832250D01*
X92623000Y-106877000D01*
X92877000Y-106877000D01*
X92877000Y-107832250D01*
X92983750Y-107939000D01*
X93596936Y-107939000D01*
X93753876Y-107873993D01*
X93873993Y-107753876D01*
X93939000Y-107596935D01*
X93939000Y-107105363D01*
X96093882Y-107105363D01*
X96197339Y-107355750D01*
X96388741Y-107547485D01*
X96638946Y-107651380D01*
X96909865Y-107651616D01*
X97160252Y-107548159D01*
X97206994Y-107501498D01*
X99115550Y-107501498D01*
X101893939Y-110279886D01*
X101893882Y-110344865D01*
X101997339Y-110595252D01*
X102188741Y-110786987D01*
X102438946Y-110890882D01*
X102709865Y-110891118D01*
X102960252Y-110787661D01*
X103151987Y-110596259D01*
X103255882Y-110346054D01*
X103256118Y-110075135D01*
X103152661Y-109824748D01*
X102961259Y-109633013D01*
X102711054Y-109529118D01*
X102645008Y-109529060D01*
X99710972Y-106595024D01*
X99538703Y-106479918D01*
X99335498Y-106439498D01*
X97207166Y-106439498D01*
X97161259Y-106393511D01*
X96911054Y-106289616D01*
X96640135Y-106289380D01*
X96389748Y-106392837D01*
X96198013Y-106584239D01*
X96094118Y-106834444D01*
X96093882Y-107105363D01*
X93939000Y-107105363D01*
X93939000Y-106983750D01*
X93832250Y-106877000D01*
X92877000Y-106877000D01*
X92623000Y-106877000D01*
X91667750Y-106877000D01*
X91561000Y-106983750D01*
X88825849Y-106983750D01*
X88826286Y-106483037D01*
X88586647Y-105903065D01*
X91561000Y-105903065D01*
X91561000Y-106516250D01*
X91667750Y-106623000D01*
X92623000Y-106623000D01*
X92623000Y-105667750D01*
X92877000Y-105667750D01*
X92877000Y-106623000D01*
X93832250Y-106623000D01*
X93939000Y-106516250D01*
X93939000Y-105903065D01*
X93873993Y-105746124D01*
X93753876Y-105626007D01*
X93596936Y-105561000D01*
X92983750Y-105561000D01*
X92877000Y-105667750D01*
X92623000Y-105667750D01*
X92516250Y-105561000D01*
X91903064Y-105561000D01*
X91746124Y-105626007D01*
X91626007Y-105746124D01*
X91561000Y-105903065D01*
X88586647Y-105903065D01*
X88575466Y-105876005D01*
X88111437Y-105411166D01*
X87504845Y-105159287D01*
X86848037Y-105158714D01*
X86241005Y-105409534D01*
X85776166Y-105873563D01*
X85524287Y-106480155D01*
X85523714Y-107136963D01*
X80627000Y-107136963D01*
X80627000Y-104436359D01*
X91606802Y-104436359D01*
X91780446Y-104856612D01*
X92101697Y-105178423D01*
X92521646Y-105352801D01*
X92976359Y-105353198D01*
X93396612Y-105179554D01*
X93718423Y-104858303D01*
X93892801Y-104438354D01*
X93893198Y-103983641D01*
X93719554Y-103563388D01*
X93398303Y-103241577D01*
X92978354Y-103067199D01*
X92523641Y-103066802D01*
X92103388Y-103240446D01*
X91781577Y-103561697D01*
X91607199Y-103981646D01*
X91606802Y-104436359D01*
X80627000Y-104436359D01*
X80627000Y-102933390D01*
X101572900Y-102933390D01*
X101572900Y-104534636D01*
X101637907Y-104691576D01*
X101758024Y-104811693D01*
X101914965Y-104876700D01*
X102566250Y-104876700D01*
X102673000Y-104769950D01*
X102673000Y-102826640D01*
X101679650Y-102826640D01*
X101572900Y-102933390D01*
X80627000Y-102933390D01*
X80627000Y-101336963D01*
X85523714Y-101336963D01*
X85774534Y-101943995D01*
X86238563Y-102408834D01*
X86845155Y-102660713D01*
X87501963Y-102661286D01*
X87804295Y-102536365D01*
X92063240Y-102536365D01*
X92144097Y-102720018D01*
X92592043Y-102871959D01*
X93064037Y-102840913D01*
X93355903Y-102720018D01*
X93436760Y-102536365D01*
X92750000Y-101849605D01*
X92063240Y-102536365D01*
X87804295Y-102536365D01*
X88108995Y-102410466D01*
X88573834Y-101946437D01*
X88754210Y-101512043D01*
X91548041Y-101512043D01*
X91579087Y-101984037D01*
X91699982Y-102275903D01*
X91883635Y-102356760D01*
X92570395Y-101670000D01*
X92929605Y-101670000D01*
X93616365Y-102356760D01*
X93800018Y-102275903D01*
X93951959Y-101827957D01*
X93920913Y-101355963D01*
X93800018Y-101064097D01*
X93616365Y-100983240D01*
X92929605Y-101670000D01*
X92570395Y-101670000D01*
X91883635Y-100983240D01*
X91699982Y-101064097D01*
X91548041Y-101512043D01*
X88754210Y-101512043D01*
X88825713Y-101339845D01*
X88826180Y-100803635D01*
X92063240Y-100803635D01*
X92750000Y-101490395D01*
X93436760Y-100803635D01*
X93355903Y-100619982D01*
X92907957Y-100468041D01*
X92435963Y-100499087D01*
X92144097Y-100619982D01*
X92063240Y-100803635D01*
X88826180Y-100803635D01*
X88826286Y-100683037D01*
X88575466Y-100076005D01*
X88111437Y-99611166D01*
X87504845Y-99359287D01*
X86848037Y-99358714D01*
X86241005Y-99609534D01*
X85776166Y-100073563D01*
X85524287Y-100680155D01*
X85523714Y-101336963D01*
X80627000Y-101336963D01*
X80627000Y-93934865D01*
X81518882Y-93934865D01*
X81622339Y-94185252D01*
X81813741Y-94376987D01*
X82063946Y-94480882D01*
X82334865Y-94481118D01*
X82585252Y-94377661D01*
X82776987Y-94186259D01*
X82880882Y-93936054D01*
X82881118Y-93665135D01*
X82777661Y-93414748D01*
X82731000Y-93368006D01*
X82731000Y-93219948D01*
X83304948Y-92646000D01*
X91492025Y-92646000D01*
X91610366Y-92726859D01*
X91723288Y-92749726D01*
X91620310Y-92769103D01*
X91490635Y-92852546D01*
X91489642Y-92854000D01*
X84609302Y-92854000D01*
X84609297Y-92853999D01*
X84406092Y-92894420D01*
X84233823Y-93009526D01*
X84114925Y-93128424D01*
X84049947Y-93128367D01*
X83799560Y-93231824D01*
X83607825Y-93423226D01*
X83503930Y-93673431D01*
X83503694Y-93944350D01*
X83607151Y-94194737D01*
X83798553Y-94386472D01*
X84048758Y-94490367D01*
X84319677Y-94490603D01*
X84570064Y-94387146D01*
X84761799Y-94195744D01*
X84865694Y-93945539D01*
X84865720Y-93916000D01*
X86134353Y-93916000D01*
X85776166Y-94273563D01*
X85524287Y-94880155D01*
X85523714Y-95536963D01*
X85774534Y-96143995D01*
X86238563Y-96608834D01*
X86845155Y-96860713D01*
X87501963Y-96861286D01*
X88108995Y-96610466D01*
X88573834Y-96146437D01*
X88825713Y-95539845D01*
X88826281Y-94888750D01*
X91334500Y-94888750D01*
X91334500Y-94993935D01*
X91399507Y-95150876D01*
X91519624Y-95270993D01*
X91676564Y-95336000D01*
X92099250Y-95336000D01*
X92206000Y-95229250D01*
X92206000Y-94782000D01*
X92460000Y-94782000D01*
X92460000Y-95229250D01*
X92566750Y-95336000D01*
X92989436Y-95336000D01*
X93146376Y-95270993D01*
X93266493Y-95150876D01*
X93331500Y-94993935D01*
X93331500Y-94888750D01*
X93224750Y-94782000D01*
X92460000Y-94782000D01*
X92206000Y-94782000D01*
X91441250Y-94782000D01*
X91334500Y-94888750D01*
X88826281Y-94888750D01*
X88826286Y-94883037D01*
X88575466Y-94276005D01*
X88216088Y-93916000D01*
X91492025Y-93916000D01*
X91610366Y-93996859D01*
X91617762Y-93998357D01*
X91519624Y-94039007D01*
X91399507Y-94159124D01*
X91334500Y-94316065D01*
X91334500Y-94421250D01*
X91441250Y-94528000D01*
X92206000Y-94528000D01*
X92206000Y-94508000D01*
X92460000Y-94508000D01*
X92460000Y-94528000D01*
X93224750Y-94528000D01*
X93331500Y-94421250D01*
X93331500Y-94316065D01*
X93266493Y-94159124D01*
X93146376Y-94039007D01*
X93049090Y-93998709D01*
X93175365Y-93917454D01*
X93262359Y-93790134D01*
X93292964Y-93639000D01*
X93292964Y-93131000D01*
X93266397Y-92989810D01*
X93182954Y-92860135D01*
X93055634Y-92773141D01*
X92942712Y-92750274D01*
X93045690Y-92730897D01*
X93175365Y-92647454D01*
X93262359Y-92520134D01*
X93292964Y-92369000D01*
X93292964Y-91861000D01*
X93266397Y-91719810D01*
X93182954Y-91590135D01*
X93055634Y-91503141D01*
X92942712Y-91480274D01*
X93045690Y-91460897D01*
X93175365Y-91377454D01*
X93262359Y-91250134D01*
X93292964Y-91099000D01*
X93292964Y-90591000D01*
X93266397Y-90449810D01*
X93182954Y-90320135D01*
X93055634Y-90233141D01*
X93043074Y-90230598D01*
X93078501Y-90052500D01*
X93078500Y-90052495D01*
X93078500Y-89570688D01*
X93133190Y-89560397D01*
X93262865Y-89476954D01*
X93349859Y-89349634D01*
X93380464Y-89198500D01*
X93380464Y-88733750D01*
X93581000Y-88733750D01*
X93581000Y-89283436D01*
X93646007Y-89440376D01*
X93766124Y-89560493D01*
X93923065Y-89625500D01*
X94218750Y-89625500D01*
X94325500Y-89518750D01*
X94325500Y-88627000D01*
X93687750Y-88627000D01*
X93581000Y-88733750D01*
X93380464Y-88733750D01*
X93380464Y-87801500D01*
X93364483Y-87716564D01*
X93581000Y-87716564D01*
X93581000Y-88266250D01*
X93687750Y-88373000D01*
X94325500Y-88373000D01*
X94325500Y-87481250D01*
X94218750Y-87374500D01*
X93923065Y-87374500D01*
X93766124Y-87439507D01*
X93646007Y-87559624D01*
X93581000Y-87716564D01*
X93364483Y-87716564D01*
X93353897Y-87660310D01*
X93270454Y-87530635D01*
X93143134Y-87443641D01*
X92992000Y-87413036D01*
X92103000Y-87413036D01*
X92030159Y-87426742D01*
X92030207Y-87371540D01*
X91926750Y-87121153D01*
X91735348Y-86929418D01*
X91485143Y-86825523D01*
X91214224Y-86825287D01*
X90963837Y-86928744D01*
X90772102Y-87120146D01*
X90668207Y-87370351D01*
X90667971Y-87641270D01*
X90771428Y-87891657D01*
X90962830Y-88083392D01*
X91213035Y-88187287D01*
X91279081Y-88187345D01*
X91714536Y-88622799D01*
X91714536Y-89198500D01*
X91741103Y-89339690D01*
X91824546Y-89469365D01*
X91951866Y-89556359D01*
X92016500Y-89569448D01*
X92016500Y-89832552D01*
X91957526Y-89891526D01*
X91842420Y-90063795D01*
X91814823Y-90202536D01*
X91761500Y-90202536D01*
X91620310Y-90229103D01*
X91490635Y-90312546D01*
X91403641Y-90439866D01*
X91373036Y-90591000D01*
X91373036Y-91099000D01*
X91399603Y-91240190D01*
X91483046Y-91369865D01*
X91610366Y-91456859D01*
X91723288Y-91479726D01*
X91620310Y-91499103D01*
X91490635Y-91582546D01*
X91489642Y-91584000D01*
X83085000Y-91584000D01*
X82881795Y-91624420D01*
X82709526Y-91739526D01*
X81824526Y-92624526D01*
X81709420Y-92796795D01*
X81669000Y-93000000D01*
X81669000Y-93367834D01*
X81623013Y-93413741D01*
X81519118Y-93663946D01*
X81518882Y-93934865D01*
X80627000Y-93934865D01*
X80627000Y-90644270D01*
X86120335Y-90644270D01*
X86263475Y-90880671D01*
X86895662Y-91117548D01*
X87570376Y-91094467D01*
X88086525Y-90880671D01*
X88229665Y-90644270D01*
X87175000Y-89589605D01*
X86120335Y-90644270D01*
X80627000Y-90644270D01*
X80627000Y-89130662D01*
X85467452Y-89130662D01*
X85490533Y-89805376D01*
X85704329Y-90321525D01*
X85940730Y-90464665D01*
X86995395Y-89410000D01*
X87354605Y-89410000D01*
X88409270Y-90464665D01*
X88645671Y-90321525D01*
X88882548Y-89689338D01*
X88859467Y-89014624D01*
X88645671Y-88498475D01*
X88409270Y-88355335D01*
X87354605Y-89410000D01*
X86995395Y-89410000D01*
X85940730Y-88355335D01*
X85704329Y-88498475D01*
X85467452Y-89130662D01*
X80627000Y-89130662D01*
X80627000Y-88175730D01*
X86120335Y-88175730D01*
X87175000Y-89230395D01*
X88229665Y-88175730D01*
X88086525Y-87939329D01*
X87454338Y-87702452D01*
X86779624Y-87725533D01*
X86263475Y-87939329D01*
X86120335Y-88175730D01*
X80627000Y-88175730D01*
X80627000Y-87052606D01*
X81052606Y-86627000D01*
X85000000Y-86627000D01*
X85049410Y-86616994D01*
X85089803Y-86589803D01*
X85589803Y-86089803D01*
X85617666Y-86047789D01*
X85627000Y-86000000D01*
X85627000Y-83643750D01*
X87322500Y-83643750D01*
X87322500Y-84320436D01*
X87387507Y-84477376D01*
X87507624Y-84597493D01*
X87664565Y-84662500D01*
X88341250Y-84662500D01*
X88448000Y-84555750D01*
X88448000Y-83537000D01*
X88702000Y-83537000D01*
X88702000Y-84555750D01*
X88808750Y-84662500D01*
X89485435Y-84662500D01*
X89642376Y-84597493D01*
X89762493Y-84477376D01*
X89827500Y-84320436D01*
X89827500Y-83643905D01*
X89933696Y-83643905D01*
X90113128Y-84078165D01*
X90445087Y-84410704D01*
X90879034Y-84590894D01*
X91348905Y-84591304D01*
X91783165Y-84411872D01*
X91993245Y-84202158D01*
X92014319Y-84308104D01*
X92129425Y-84480373D01*
X94904910Y-87255857D01*
X94904910Y-87374500D01*
X94686250Y-87374500D01*
X94579500Y-87481250D01*
X94579500Y-88373000D01*
X94599500Y-88373000D01*
X94599500Y-88627000D01*
X94579500Y-88627000D01*
X94579500Y-89518750D01*
X94686250Y-89625500D01*
X94904910Y-89625500D01*
X94904910Y-95529068D01*
X94945330Y-95732273D01*
X95060436Y-95904542D01*
X97039033Y-97883138D01*
X97039035Y-97883141D01*
X97211304Y-97998247D01*
X97245019Y-98004953D01*
X97414509Y-98038668D01*
X97414514Y-98038667D01*
X97466830Y-98038667D01*
X97415774Y-98161623D01*
X97415538Y-98432542D01*
X97518995Y-98682929D01*
X97710397Y-98874664D01*
X97960602Y-98978559D01*
X98026648Y-98978617D01*
X98423503Y-99375471D01*
X98423505Y-99375474D01*
X98595774Y-99490580D01*
X98798979Y-99531001D01*
X98798984Y-99531000D01*
X98920086Y-99531000D01*
X98906447Y-99563846D01*
X98906211Y-99834765D01*
X99009668Y-100085152D01*
X99043876Y-100119420D01*
X94490367Y-100119420D01*
X93844830Y-99473882D01*
X93892801Y-99358354D01*
X93893198Y-98903641D01*
X93719554Y-98483388D01*
X93398303Y-98161577D01*
X92978354Y-97987199D01*
X92523641Y-97986802D01*
X92103388Y-98160446D01*
X91781577Y-98481697D01*
X91607199Y-98901646D01*
X91606802Y-99356359D01*
X91780446Y-99776612D01*
X92101697Y-100098423D01*
X92521646Y-100272801D01*
X92976359Y-100273198D01*
X93093747Y-100224695D01*
X93894944Y-101025891D01*
X93894946Y-101025894D01*
X94067215Y-101141000D01*
X94270420Y-101181421D01*
X94270425Y-101181420D01*
X99899940Y-101181420D01*
X100103145Y-101141000D01*
X100275414Y-101025894D01*
X100436664Y-100864644D01*
X101572900Y-100864644D01*
X101572900Y-102465890D01*
X101679650Y-102572640D01*
X102673000Y-102572640D01*
X102673000Y-100629330D01*
X102927000Y-100629330D01*
X102927000Y-102572640D01*
X103920350Y-102572640D01*
X104027100Y-102465890D01*
X104027100Y-100864644D01*
X103962093Y-100707704D01*
X103841976Y-100587587D01*
X103685035Y-100522580D01*
X103033750Y-100522580D01*
X102927000Y-100629330D01*
X102673000Y-100629330D01*
X102566250Y-100522580D01*
X101914965Y-100522580D01*
X101758024Y-100587587D01*
X101637907Y-100707704D01*
X101572900Y-100864644D01*
X100436664Y-100864644D01*
X101611436Y-99689872D01*
X101611436Y-100050420D01*
X101638003Y-100191610D01*
X101721446Y-100321285D01*
X101848766Y-100408279D01*
X101999900Y-100438884D01*
X103600100Y-100438884D01*
X103741290Y-100412317D01*
X103870965Y-100328874D01*
X103957959Y-100201554D01*
X103988564Y-100050420D01*
X103988564Y-96550300D01*
X103961997Y-96409110D01*
X103878554Y-96279435D01*
X103751234Y-96192441D01*
X103600100Y-96161836D01*
X102509310Y-96161836D01*
X104804613Y-93866533D01*
X104893454Y-93733572D01*
X105114390Y-93642284D01*
X105306125Y-93450882D01*
X105388976Y-93251356D01*
X105388976Y-94132122D01*
X105429396Y-94335327D01*
X105544502Y-94507596D01*
X106212866Y-95175959D01*
X106212809Y-95240938D01*
X106316266Y-95491325D01*
X106507668Y-95683060D01*
X106757873Y-95786955D01*
X107028792Y-95787191D01*
X107279179Y-95683734D01*
X107374934Y-95588145D01*
X107412277Y-95625553D01*
X107662482Y-95729448D01*
X107933401Y-95729684D01*
X108183788Y-95626227D01*
X108375523Y-95434825D01*
X108479418Y-95184620D01*
X108479654Y-94913701D01*
X108376197Y-94663314D01*
X108184795Y-94471579D01*
X107934590Y-94367684D01*
X107868544Y-94367626D01*
X107856740Y-94355823D01*
X108101614Y-94254644D01*
X108293349Y-94063242D01*
X108397244Y-93813037D01*
X108397304Y-93744273D01*
X108506941Y-93580189D01*
X108514750Y-93540929D01*
X108547362Y-93376984D01*
X108547361Y-93376979D01*
X108547361Y-91231813D01*
X108506941Y-91028608D01*
X108391835Y-90856339D01*
X107369617Y-89834121D01*
X107385252Y-89827661D01*
X107431994Y-89781000D01*
X112780052Y-89781000D01*
X113219000Y-90219948D01*
X113219000Y-111025095D01*
X113075500Y-110996036D01*
X111424500Y-110996036D01*
X111283310Y-111022603D01*
X111153635Y-111106046D01*
X111066641Y-111233366D01*
X111036036Y-111384500D01*
X111036036Y-113035500D01*
X111062603Y-113176690D01*
X111146046Y-113306365D01*
X111273366Y-113393359D01*
X111424500Y-113423964D01*
X113075500Y-113423964D01*
X113216690Y-113397397D01*
X113219000Y-113395911D01*
X113219000Y-114048906D01*
X112919913Y-113749296D01*
X112485966Y-113569106D01*
X112016095Y-113568696D01*
X111581835Y-113748128D01*
X111249296Y-114080087D01*
X111069106Y-114514034D01*
X111068696Y-114983905D01*
X111248128Y-115418165D01*
X111580087Y-115750704D01*
X112014034Y-115930894D01*
X112483905Y-115931304D01*
X112918165Y-115751872D01*
X113219000Y-115451562D01*
X113219000Y-116030052D01*
X112939817Y-116309235D01*
X112919913Y-116289296D01*
X112485966Y-116109106D01*
X112016095Y-116108696D01*
X111581835Y-116288128D01*
X111249296Y-116620087D01*
X111069106Y-117054034D01*
X111068696Y-117523905D01*
X111248128Y-117958165D01*
X111580087Y-118290704D01*
X112014034Y-118470894D01*
X112483905Y-118471304D01*
X112918165Y-118291872D01*
X113250704Y-117959913D01*
X113430894Y-117525966D01*
X113431074Y-117319874D01*
X114125474Y-116625474D01*
X114240580Y-116453205D01*
X114281000Y-116250000D01*
X114281000Y-90000000D01*
X114240580Y-89796795D01*
X114125474Y-89624526D01*
X113375474Y-88874526D01*
X113203205Y-88759420D01*
X113000000Y-88719000D01*
X107432166Y-88719000D01*
X107386259Y-88673013D01*
X107136054Y-88569118D01*
X106865135Y-88568882D01*
X106614748Y-88672339D01*
X106423013Y-88863741D01*
X106416037Y-88880541D01*
X104067190Y-86531694D01*
X103963083Y-86375886D01*
X102694387Y-85107190D01*
X102522118Y-84992084D01*
X102318913Y-84951664D01*
X102318912Y-84951664D01*
X101932527Y-84951665D01*
X101553673Y-84572806D01*
X101943165Y-84411872D01*
X102275704Y-84079913D01*
X102455894Y-83645966D01*
X102455902Y-83636359D01*
X102671802Y-83636359D01*
X102845446Y-84056612D01*
X103166697Y-84378423D01*
X103586646Y-84552801D01*
X104041359Y-84553198D01*
X104461612Y-84379554D01*
X104783423Y-84058303D01*
X104957801Y-83638354D01*
X104957802Y-83636359D01*
X105211802Y-83636359D01*
X105385446Y-84056612D01*
X105706697Y-84378423D01*
X106126646Y-84552801D01*
X106581359Y-84553198D01*
X107001612Y-84379554D01*
X107323423Y-84058303D01*
X107497801Y-83638354D01*
X107497802Y-83636359D01*
X107751802Y-83636359D01*
X107925446Y-84056612D01*
X108246697Y-84378423D01*
X108666646Y-84552801D01*
X109121359Y-84553198D01*
X109541612Y-84379554D01*
X109863423Y-84058303D01*
X110037801Y-83638354D01*
X110037802Y-83636359D01*
X110291802Y-83636359D01*
X110465446Y-84056612D01*
X110786697Y-84378423D01*
X111206646Y-84552801D01*
X111661359Y-84553198D01*
X112081612Y-84379554D01*
X112403423Y-84058303D01*
X112577801Y-83638354D01*
X112578198Y-83183641D01*
X112404554Y-82763388D01*
X112083303Y-82441577D01*
X111663354Y-82267199D01*
X111208641Y-82266802D01*
X110788388Y-82440446D01*
X110466577Y-82761697D01*
X110292199Y-83181646D01*
X110291802Y-83636359D01*
X110037802Y-83636359D01*
X110038198Y-83183641D01*
X109864554Y-82763388D01*
X109543303Y-82441577D01*
X109123354Y-82267199D01*
X108668641Y-82266802D01*
X108248388Y-82440446D01*
X107926577Y-82761697D01*
X107752199Y-83181646D01*
X107751802Y-83636359D01*
X107497802Y-83636359D01*
X107498198Y-83183641D01*
X107324554Y-82763388D01*
X107003303Y-82441577D01*
X106583354Y-82267199D01*
X106128641Y-82266802D01*
X105708388Y-82440446D01*
X105386577Y-82761697D01*
X105212199Y-83181646D01*
X105211802Y-83636359D01*
X104957802Y-83636359D01*
X104958198Y-83183641D01*
X104784554Y-82763388D01*
X104463303Y-82441577D01*
X104043354Y-82267199D01*
X103588641Y-82266802D01*
X103168388Y-82440446D01*
X102846577Y-82761697D01*
X102672199Y-83181646D01*
X102671802Y-83636359D01*
X102455902Y-83636359D01*
X102456304Y-83176095D01*
X102276872Y-82741835D01*
X101944913Y-82409296D01*
X101510966Y-82229106D01*
X101041095Y-82228696D01*
X100606835Y-82408128D01*
X100416101Y-82598529D01*
X100416101Y-82020101D01*
X100375681Y-81816896D01*
X100260575Y-81644627D01*
X100260572Y-81644625D01*
X99858979Y-81243032D01*
X99915894Y-81105966D01*
X99915895Y-81103905D01*
X100093696Y-81103905D01*
X100273128Y-81538165D01*
X100605087Y-81870704D01*
X101039034Y-82050894D01*
X101508905Y-82051304D01*
X101943165Y-81871872D01*
X102275704Y-81539913D01*
X102455894Y-81105966D01*
X102455902Y-81096359D01*
X102671802Y-81096359D01*
X102845446Y-81516612D01*
X103166697Y-81838423D01*
X103586646Y-82012801D01*
X104041359Y-82013198D01*
X104461612Y-81839554D01*
X104783423Y-81518303D01*
X104957801Y-81098354D01*
X104957802Y-81096359D01*
X105211802Y-81096359D01*
X105385446Y-81516612D01*
X105706697Y-81838423D01*
X106126646Y-82012801D01*
X106581359Y-82013198D01*
X107001612Y-81839554D01*
X107323423Y-81518303D01*
X107497801Y-81098354D01*
X107497802Y-81096359D01*
X107751802Y-81096359D01*
X107925446Y-81516612D01*
X108246697Y-81838423D01*
X108666646Y-82012801D01*
X109121359Y-82013198D01*
X109541612Y-81839554D01*
X109863423Y-81518303D01*
X110037801Y-81098354D01*
X110037802Y-81096359D01*
X110291802Y-81096359D01*
X110465446Y-81516612D01*
X110786697Y-81838423D01*
X111206646Y-82012801D01*
X111661359Y-82013198D01*
X112081612Y-81839554D01*
X112403423Y-81518303D01*
X112577801Y-81098354D01*
X112578198Y-80643641D01*
X112404554Y-80223388D01*
X112083303Y-79901577D01*
X111663354Y-79727199D01*
X111208641Y-79726802D01*
X110788388Y-79900446D01*
X110466577Y-80221697D01*
X110292199Y-80641646D01*
X110291802Y-81096359D01*
X110037802Y-81096359D01*
X110038198Y-80643641D01*
X109864554Y-80223388D01*
X109543303Y-79901577D01*
X109123354Y-79727199D01*
X108668641Y-79726802D01*
X108248388Y-79900446D01*
X107926577Y-80221697D01*
X107752199Y-80641646D01*
X107751802Y-81096359D01*
X107497802Y-81096359D01*
X107498198Y-80643641D01*
X107324554Y-80223388D01*
X107003303Y-79901577D01*
X106583354Y-79727199D01*
X106128641Y-79726802D01*
X105708388Y-79900446D01*
X105386577Y-80221697D01*
X105212199Y-80641646D01*
X105211802Y-81096359D01*
X104957802Y-81096359D01*
X104958198Y-80643641D01*
X104784554Y-80223388D01*
X104463303Y-79901577D01*
X104043354Y-79727199D01*
X103588641Y-79726802D01*
X103168388Y-79900446D01*
X102846577Y-80221697D01*
X102672199Y-80641646D01*
X102671802Y-81096359D01*
X102455902Y-81096359D01*
X102456304Y-80636095D01*
X102276872Y-80201835D01*
X101944913Y-79869296D01*
X101510966Y-79689106D01*
X101041095Y-79688696D01*
X100606835Y-79868128D01*
X100274296Y-80200087D01*
X100094106Y-80634034D01*
X100093696Y-81103905D01*
X99915895Y-81103905D01*
X99916304Y-80636095D01*
X99736872Y-80201835D01*
X99404913Y-79869296D01*
X98970966Y-79689106D01*
X98501095Y-79688696D01*
X98066835Y-79868128D01*
X97734296Y-80200087D01*
X97554106Y-80634034D01*
X97553696Y-81103905D01*
X97733128Y-81538165D01*
X98065087Y-81870704D01*
X98499034Y-82050894D01*
X98968905Y-82051304D01*
X99107918Y-81993865D01*
X99354101Y-82240048D01*
X99354101Y-82388197D01*
X98970966Y-82229106D01*
X98501095Y-82228696D01*
X98066835Y-82408128D01*
X97876101Y-82598529D01*
X97876101Y-82020101D01*
X97835681Y-81816896D01*
X97720575Y-81644627D01*
X97720572Y-81644625D01*
X97318979Y-81243032D01*
X97375894Y-81105966D01*
X97376304Y-80636095D01*
X97196872Y-80201835D01*
X96864913Y-79869296D01*
X96430966Y-79689106D01*
X95961095Y-79688696D01*
X95526835Y-79868128D01*
X95194296Y-80200087D01*
X95014106Y-80634034D01*
X95013696Y-81103905D01*
X95193128Y-81538165D01*
X95525087Y-81870704D01*
X95959034Y-82050894D01*
X96428905Y-82051304D01*
X96567918Y-81993865D01*
X96814101Y-82240048D01*
X96814101Y-82388197D01*
X96430966Y-82229106D01*
X95961095Y-82228696D01*
X95526835Y-82408128D01*
X95194296Y-82740087D01*
X95014106Y-83174034D01*
X95013696Y-83643905D01*
X95193128Y-84078165D01*
X95525087Y-84410704D01*
X95959034Y-84590894D01*
X96428905Y-84591304D01*
X96567917Y-84533865D01*
X99392221Y-87358169D01*
X99564490Y-87473275D01*
X99767695Y-87513696D01*
X99767700Y-87513695D01*
X101477630Y-87513695D01*
X101607995Y-87644059D01*
X101712104Y-87799870D01*
X105388976Y-91476742D01*
X105388976Y-92878256D01*
X105306799Y-92679371D01*
X105115397Y-92487636D01*
X104955487Y-92421235D01*
X104955617Y-92271486D01*
X104852160Y-92021099D01*
X104660758Y-91829364D01*
X104410553Y-91725469D01*
X104139634Y-91725233D01*
X104094458Y-91743899D01*
X104094659Y-91513079D01*
X103991202Y-91262692D01*
X103799800Y-91070957D01*
X103549595Y-90967062D01*
X103278676Y-90966826D01*
X103028289Y-91070283D01*
X102836554Y-91261685D01*
X102732659Y-91511890D01*
X102732601Y-91577936D01*
X101686568Y-92623969D01*
X101571462Y-92796238D01*
X101531042Y-92999443D01*
X101531042Y-93966124D01*
X101519801Y-93938918D01*
X101328399Y-93747183D01*
X101078194Y-93643288D01*
X101012148Y-93643230D01*
X100378444Y-93009526D01*
X100206175Y-92894420D01*
X100002970Y-92854000D01*
X98507975Y-92854000D01*
X98389634Y-92773141D01*
X98276712Y-92750274D01*
X98379690Y-92730897D01*
X98509365Y-92647454D01*
X98596359Y-92520134D01*
X98626964Y-92369000D01*
X98626964Y-91861000D01*
X98600397Y-91719810D01*
X98516954Y-91590135D01*
X98389634Y-91503141D01*
X98276712Y-91480274D01*
X98379690Y-91460897D01*
X98509365Y-91377454D01*
X98596359Y-91250134D01*
X98626964Y-91099000D01*
X98626964Y-90591000D01*
X98600397Y-90449810D01*
X98516954Y-90320135D01*
X98389634Y-90233141D01*
X98238500Y-90202536D01*
X97095500Y-90202536D01*
X96954310Y-90229103D01*
X96824635Y-90312546D01*
X96737641Y-90439866D01*
X96707036Y-90591000D01*
X96707036Y-90736516D01*
X96531000Y-90912552D01*
X96531000Y-85755005D01*
X96531001Y-85755000D01*
X96490580Y-85551795D01*
X96375474Y-85379526D01*
X94778980Y-83783032D01*
X94835894Y-83645966D01*
X94836304Y-83176095D01*
X94656872Y-82741835D01*
X94324913Y-82409296D01*
X93890966Y-82229106D01*
X93421095Y-82228696D01*
X93035899Y-82387855D01*
X93035899Y-82240049D01*
X93281968Y-81993979D01*
X93419034Y-82050894D01*
X93888905Y-82051304D01*
X94323165Y-81871872D01*
X94655704Y-81539913D01*
X94835894Y-81105966D01*
X94836304Y-80636095D01*
X94656872Y-80201835D01*
X94324913Y-79869296D01*
X93890966Y-79689106D01*
X93421095Y-79688696D01*
X92986835Y-79868128D01*
X92654296Y-80200087D01*
X92474106Y-80634034D01*
X92473696Y-81103905D01*
X92531135Y-81242918D01*
X92129425Y-81644627D01*
X92014319Y-81816896D01*
X91973899Y-82020101D01*
X91973899Y-82598612D01*
X91784913Y-82409296D01*
X91350966Y-82229106D01*
X90881095Y-82228696D01*
X90446835Y-82408128D01*
X90114296Y-82740087D01*
X89934106Y-83174034D01*
X89933696Y-83643905D01*
X89827500Y-83643905D01*
X89827500Y-83643750D01*
X89720750Y-83537000D01*
X88702000Y-83537000D01*
X88448000Y-83537000D01*
X87429250Y-83537000D01*
X87322500Y-83643750D01*
X85627000Y-83643750D01*
X85627000Y-82499564D01*
X87322500Y-82499564D01*
X87322500Y-83176250D01*
X87429250Y-83283000D01*
X88448000Y-83283000D01*
X88448000Y-82264250D01*
X88702000Y-82264250D01*
X88702000Y-83283000D01*
X89720750Y-83283000D01*
X89827500Y-83176250D01*
X89827500Y-82499564D01*
X89762493Y-82342624D01*
X89642376Y-82222507D01*
X89485435Y-82157500D01*
X88808750Y-82157500D01*
X88702000Y-82264250D01*
X88448000Y-82264250D01*
X88341250Y-82157500D01*
X87664565Y-82157500D01*
X87507624Y-82222507D01*
X87387507Y-82342624D01*
X87322500Y-82499564D01*
X85627000Y-82499564D01*
X85627000Y-81764010D01*
X87860595Y-81764010D01*
X87946142Y-81951615D01*
X88407927Y-82109935D01*
X88895148Y-82079487D01*
X89203858Y-81951615D01*
X89289405Y-81764010D01*
X88575000Y-81049605D01*
X87860595Y-81764010D01*
X85627000Y-81764010D01*
X85627000Y-80702927D01*
X87335065Y-80702927D01*
X87365513Y-81190148D01*
X87493385Y-81498858D01*
X87680990Y-81584405D01*
X88395395Y-80870000D01*
X88754605Y-80870000D01*
X89469010Y-81584405D01*
X89656615Y-81498858D01*
X89792022Y-81103905D01*
X89933696Y-81103905D01*
X90113128Y-81538165D01*
X90445087Y-81870704D01*
X90879034Y-82050894D01*
X91348905Y-82051304D01*
X91783165Y-81871872D01*
X92115704Y-81539913D01*
X92295894Y-81105966D01*
X92296304Y-80636095D01*
X92116872Y-80201835D01*
X91784913Y-79869296D01*
X91350966Y-79689106D01*
X90881095Y-79688696D01*
X90446835Y-79868128D01*
X90114296Y-80200087D01*
X89934106Y-80634034D01*
X89933696Y-81103905D01*
X89792022Y-81103905D01*
X89814935Y-81037073D01*
X89784487Y-80549852D01*
X89656615Y-80241142D01*
X89469010Y-80155595D01*
X88754605Y-80870000D01*
X88395395Y-80870000D01*
X87680990Y-80155595D01*
X87493385Y-80241142D01*
X87335065Y-80702927D01*
X85627000Y-80702927D01*
X85627000Y-80570390D01*
X86578040Y-79975990D01*
X87860595Y-79975990D01*
X88575000Y-80690395D01*
X89289405Y-79975990D01*
X89203858Y-79788385D01*
X88742073Y-79630065D01*
X88254852Y-79660513D01*
X87946142Y-79788385D01*
X87860595Y-79975990D01*
X86578040Y-79975990D01*
X88844296Y-78559580D01*
X90269111Y-77847220D01*
X93523030Y-76627000D01*
X106476970Y-76627000D01*
X109722717Y-77844155D01*
X109722717Y-77844155D01*
G37*
X109722717Y-77844155D02*
X111162164Y-78563617D01*
X112832869Y-79607808D01*
X112809000Y-79607808D01*
X112809000Y-84672191D01*
X114373000Y-84672191D01*
X114373000Y-119830628D01*
X108228606Y-122903636D01*
X106976970Y-123373000D01*
X93026951Y-123373000D01*
X90163531Y-122100369D01*
X88026199Y-121031498D01*
X85627000Y-119432032D01*
X85627000Y-119203750D01*
X87322500Y-119203750D01*
X87322500Y-119880436D01*
X87387507Y-120037376D01*
X87507624Y-120157493D01*
X87664565Y-120222500D01*
X88341250Y-120222500D01*
X88448000Y-120115750D01*
X88448000Y-119097000D01*
X88702000Y-119097000D01*
X88702000Y-120115750D01*
X88808750Y-120222500D01*
X89485435Y-120222500D01*
X89642376Y-120157493D01*
X89762493Y-120037376D01*
X89827500Y-119880436D01*
X89827500Y-119203905D01*
X89933696Y-119203905D01*
X90113128Y-119638165D01*
X90445087Y-119970704D01*
X90879034Y-120150894D01*
X91348905Y-120151304D01*
X91783165Y-119971872D01*
X92115704Y-119639913D01*
X92295894Y-119205966D01*
X92296304Y-118736095D01*
X92116872Y-118301835D01*
X91784913Y-117969296D01*
X91350966Y-117789106D01*
X90881095Y-117788696D01*
X90446835Y-117968128D01*
X90114296Y-118300087D01*
X89934106Y-118734034D01*
X89933696Y-119203905D01*
X89827500Y-119203905D01*
X89827500Y-119203750D01*
X89720750Y-119097000D01*
X88702000Y-119097000D01*
X88448000Y-119097000D01*
X87429250Y-119097000D01*
X87322500Y-119203750D01*
X85627000Y-119203750D01*
X85627000Y-118059564D01*
X87322500Y-118059564D01*
X87322500Y-118736250D01*
X87429250Y-118843000D01*
X88448000Y-118843000D01*
X88448000Y-117824250D01*
X88702000Y-117824250D01*
X88702000Y-118843000D01*
X89720750Y-118843000D01*
X89827500Y-118736250D01*
X89827500Y-118059564D01*
X89762493Y-117902624D01*
X89642376Y-117782507D01*
X89485435Y-117717500D01*
X88808750Y-117717500D01*
X88702000Y-117824250D01*
X88448000Y-117824250D01*
X88341250Y-117717500D01*
X87664565Y-117717500D01*
X87507624Y-117782507D01*
X87387507Y-117902624D01*
X87322500Y-118059564D01*
X85627000Y-118059564D01*
X85627000Y-117324010D01*
X87860595Y-117324010D01*
X87946142Y-117511615D01*
X88407927Y-117669935D01*
X88895148Y-117639487D01*
X89203858Y-117511615D01*
X89289405Y-117324010D01*
X88575000Y-116609605D01*
X87860595Y-117324010D01*
X85627000Y-117324010D01*
X85627000Y-116262927D01*
X87335065Y-116262927D01*
X87365513Y-116750148D01*
X87493385Y-117058858D01*
X87680990Y-117144405D01*
X88395395Y-116430000D01*
X88754605Y-116430000D01*
X89469010Y-117144405D01*
X89656615Y-117058858D01*
X89792022Y-116663905D01*
X89933696Y-116663905D01*
X90113128Y-117098165D01*
X90445087Y-117430704D01*
X90879034Y-117610894D01*
X91348905Y-117611304D01*
X91783165Y-117431872D01*
X92115704Y-117099913D01*
X92295894Y-116665966D01*
X92296304Y-116196095D01*
X92116872Y-115761835D01*
X91784913Y-115429296D01*
X91350966Y-115249106D01*
X90881095Y-115248696D01*
X90446835Y-115428128D01*
X90114296Y-115760087D01*
X89934106Y-116194034D01*
X89933696Y-116663905D01*
X89792022Y-116663905D01*
X89814935Y-116597073D01*
X89784487Y-116109852D01*
X89656615Y-115801142D01*
X89469010Y-115715595D01*
X88754605Y-116430000D01*
X88395395Y-116430000D01*
X87680990Y-115715595D01*
X87493385Y-115801142D01*
X87335065Y-116262927D01*
X85627000Y-116262927D01*
X85627000Y-115535990D01*
X87860595Y-115535990D01*
X88575000Y-116250395D01*
X89289405Y-115535990D01*
X89203858Y-115348385D01*
X88742073Y-115190065D01*
X88254852Y-115220513D01*
X87946142Y-115348385D01*
X87860595Y-115535990D01*
X85627000Y-115535990D01*
X85627000Y-110715094D01*
X92121131Y-110715094D01*
X92224588Y-110965481D01*
X92415990Y-111157216D01*
X92530044Y-111204576D01*
X92514112Y-111242945D01*
X92513876Y-111513864D01*
X92617333Y-111764251D01*
X92808735Y-111955986D01*
X93058940Y-112059881D01*
X93124986Y-112059939D01*
X93969933Y-112904885D01*
X93969935Y-112904888D01*
X94142204Y-113019994D01*
X94345409Y-113060414D01*
X95663322Y-113060414D01*
X95709229Y-113106401D01*
X95959434Y-113210296D01*
X96123613Y-113210439D01*
X94028032Y-115306020D01*
X93890966Y-115249106D01*
X93421095Y-115248696D01*
X92986835Y-115428128D01*
X92654296Y-115760087D01*
X92474106Y-116194034D01*
X92473696Y-116663905D01*
X92653128Y-117098165D01*
X92985087Y-117430704D01*
X93419034Y-117610894D01*
X93888905Y-117611304D01*
X94323165Y-117431872D01*
X94513899Y-117241471D01*
X94513899Y-117360153D01*
X94028032Y-117846020D01*
X93890966Y-117789106D01*
X93421095Y-117788696D01*
X92986835Y-117968128D01*
X92654296Y-118300087D01*
X92474106Y-118734034D01*
X92473696Y-119203905D01*
X92653128Y-119638165D01*
X92985087Y-119970704D01*
X93419034Y-120150894D01*
X93888905Y-120151304D01*
X94323165Y-119971872D01*
X94655704Y-119639913D01*
X94835894Y-119205966D01*
X94836304Y-118736095D01*
X94778865Y-118597083D01*
X95420373Y-117955575D01*
X95535479Y-117783306D01*
X95575899Y-117580101D01*
X95575899Y-117451803D01*
X95959034Y-117610894D01*
X96428905Y-117611304D01*
X96814101Y-117452145D01*
X96814101Y-117599952D01*
X96568032Y-117846021D01*
X96430966Y-117789106D01*
X95961095Y-117788696D01*
X95526835Y-117968128D01*
X95194296Y-118300087D01*
X95014106Y-118734034D01*
X95013696Y-119203905D01*
X95193128Y-119638165D01*
X95525087Y-119970704D01*
X95959034Y-120150894D01*
X96428905Y-120151304D01*
X96863165Y-119971872D01*
X97195704Y-119639913D01*
X97375894Y-119205966D01*
X97375895Y-119203905D01*
X97553696Y-119203905D01*
X97733128Y-119638165D01*
X98065087Y-119970704D01*
X98499034Y-120150894D01*
X98968905Y-120151304D01*
X99403165Y-119971872D01*
X99735704Y-119639913D01*
X99915894Y-119205966D01*
X99915895Y-119203905D01*
X100093696Y-119203905D01*
X100273128Y-119638165D01*
X100605087Y-119970704D01*
X101039034Y-120150894D01*
X101508905Y-120151304D01*
X101943165Y-119971872D01*
X102275704Y-119639913D01*
X102455894Y-119205966D01*
X102455902Y-119196359D01*
X102671802Y-119196359D01*
X102845446Y-119616612D01*
X103166697Y-119938423D01*
X103586646Y-120112801D01*
X104041359Y-120113198D01*
X104461612Y-119939554D01*
X104783423Y-119618303D01*
X104957801Y-119198354D01*
X104958198Y-118743641D01*
X104784554Y-118323388D01*
X104645419Y-118184010D01*
X108995595Y-118184010D01*
X109081142Y-118371615D01*
X109542927Y-118529935D01*
X110030148Y-118499487D01*
X110338858Y-118371615D01*
X110424405Y-118184010D01*
X109710000Y-117469605D01*
X108995595Y-118184010D01*
X104645419Y-118184010D01*
X104463303Y-118001577D01*
X104043354Y-117827199D01*
X103588641Y-117826802D01*
X103168388Y-118000446D01*
X102846577Y-118321697D01*
X102672199Y-118741646D01*
X102671802Y-119196359D01*
X102455902Y-119196359D01*
X102456304Y-118736095D01*
X102276872Y-118301835D01*
X101944913Y-117969296D01*
X101510966Y-117789106D01*
X101041095Y-117788696D01*
X100606835Y-117968128D01*
X100274296Y-118300087D01*
X100094106Y-118734034D01*
X100093696Y-119203905D01*
X99915895Y-119203905D01*
X99916304Y-118736095D01*
X99736872Y-118301835D01*
X99404913Y-117969296D01*
X98970966Y-117789106D01*
X98501095Y-117788696D01*
X98066835Y-117968128D01*
X97734296Y-118300087D01*
X97554106Y-118734034D01*
X97553696Y-119203905D01*
X97375895Y-119203905D01*
X97376304Y-118736095D01*
X97318865Y-118597082D01*
X97720572Y-118195375D01*
X97720575Y-118195373D01*
X97835681Y-118023104D01*
X97876101Y-117819899D01*
X97876101Y-117241388D01*
X98065087Y-117430704D01*
X98499034Y-117610894D01*
X98968905Y-117611304D01*
X99403165Y-117431872D01*
X99735704Y-117099913D01*
X99915894Y-116665966D01*
X99916304Y-116196095D01*
X99736872Y-115761835D01*
X99711509Y-115736428D01*
X100297996Y-115736428D01*
X100274296Y-115760087D01*
X100094106Y-116194034D01*
X100093696Y-116663905D01*
X100273128Y-117098165D01*
X100605087Y-117430704D01*
X101039034Y-117610894D01*
X101508905Y-117611304D01*
X101943165Y-117431872D01*
X102275704Y-117099913D01*
X102455894Y-116665966D01*
X102456304Y-116196095D01*
X102276872Y-115761835D01*
X102251509Y-115736428D01*
X102891925Y-115736428D01*
X102846577Y-115781697D01*
X102672199Y-116201646D01*
X102671802Y-116656359D01*
X102845446Y-117076612D01*
X103166697Y-117398423D01*
X103586646Y-117572801D01*
X104041359Y-117573198D01*
X104461612Y-117399554D01*
X104738721Y-117122927D01*
X108470065Y-117122927D01*
X108500513Y-117610148D01*
X108628385Y-117918858D01*
X108815990Y-118004405D01*
X109530395Y-117290000D01*
X109889605Y-117290000D01*
X110604010Y-118004405D01*
X110791615Y-117918858D01*
X110949935Y-117457073D01*
X110919487Y-116969852D01*
X110791615Y-116661142D01*
X110604010Y-116575595D01*
X109889605Y-117290000D01*
X109530395Y-117290000D01*
X108815990Y-116575595D01*
X108628385Y-116661142D01*
X108470065Y-117122927D01*
X104738721Y-117122927D01*
X104783423Y-117078303D01*
X104957801Y-116658354D01*
X104958030Y-116395990D01*
X108995595Y-116395990D01*
X109710000Y-117110395D01*
X110424405Y-116395990D01*
X110338858Y-116208385D01*
X109877073Y-116050065D01*
X109389852Y-116080513D01*
X109081142Y-116208385D01*
X108995595Y-116395990D01*
X104958030Y-116395990D01*
X104958198Y-116203641D01*
X104784554Y-115783388D01*
X104737676Y-115736428D01*
X105194572Y-115736428D01*
X105397777Y-115696008D01*
X105570046Y-115580902D01*
X106167043Y-114983905D01*
X108528696Y-114983905D01*
X108708128Y-115418165D01*
X109040087Y-115750704D01*
X109474034Y-115930894D01*
X109943905Y-115931304D01*
X110378165Y-115751872D01*
X110710704Y-115419913D01*
X110890894Y-114985966D01*
X110891304Y-114516095D01*
X110711872Y-114081835D01*
X110379913Y-113749296D01*
X109945966Y-113569106D01*
X109476095Y-113568696D01*
X109041835Y-113748128D01*
X108709296Y-114080087D01*
X108529106Y-114514034D01*
X108528696Y-114983905D01*
X106167043Y-114983905D01*
X108398302Y-112752646D01*
X108513408Y-112580377D01*
X108536701Y-112463278D01*
X108708128Y-112878165D01*
X109040087Y-113210704D01*
X109474034Y-113390894D01*
X109943905Y-113391304D01*
X110378165Y-113211872D01*
X110710704Y-112879913D01*
X110890894Y-112445966D01*
X110891304Y-111976095D01*
X110711872Y-111541835D01*
X110379913Y-111209296D01*
X109945966Y-111029106D01*
X109476095Y-111028696D01*
X109041835Y-111208128D01*
X108709296Y-111540087D01*
X108553828Y-111914497D01*
X108553828Y-106253882D01*
X108558083Y-106247514D01*
X108598503Y-106044309D01*
X108598503Y-105978355D01*
X108692373Y-106205538D01*
X109291309Y-106805521D01*
X110074258Y-107130630D01*
X110922022Y-107131369D01*
X111705538Y-106807627D01*
X112305521Y-106208691D01*
X112630630Y-105425742D01*
X112631369Y-104577978D01*
X112307627Y-103794462D01*
X111708691Y-103194479D01*
X110925742Y-102869370D01*
X110077978Y-102868631D01*
X109294462Y-103192373D01*
X108694479Y-103791309D01*
X108520067Y-104211339D01*
X108442977Y-104095965D01*
X107760078Y-103413066D01*
X107587809Y-103297960D01*
X107384604Y-103257540D01*
X106137590Y-103257540D01*
X105957607Y-103293341D01*
X106219974Y-103030974D01*
X106404669Y-103031136D01*
X106691823Y-102912486D01*
X106911714Y-102692979D01*
X107030864Y-102406032D01*
X107031136Y-102095331D01*
X106912486Y-101808177D01*
X106692979Y-101588286D01*
X106406032Y-101469136D01*
X106095331Y-101468864D01*
X105808177Y-101587514D01*
X105588286Y-101807021D01*
X105469136Y-102093968D01*
X105468973Y-102280079D01*
X104027100Y-103721952D01*
X104027100Y-102933390D01*
X103920350Y-102826640D01*
X102927000Y-102826640D01*
X102927000Y-104769950D01*
X103033750Y-104876700D01*
X103685035Y-104876700D01*
X103841976Y-104811693D01*
X103869000Y-104784669D01*
X103869000Y-105137064D01*
X103909420Y-105340269D01*
X104024526Y-105512538D01*
X104264496Y-105752508D01*
X104436765Y-105867614D01*
X104639970Y-105908035D01*
X104639975Y-105908034D01*
X105677680Y-105908034D01*
X105880885Y-105867614D01*
X106053154Y-105752508D01*
X106240071Y-105565591D01*
X106286491Y-105612092D01*
X106286491Y-111555967D01*
X105090296Y-112752162D01*
X105090296Y-107513451D01*
X105221010Y-107382965D01*
X105340160Y-107096018D01*
X105340432Y-106785317D01*
X105221782Y-106498163D01*
X105002275Y-106278272D01*
X104715328Y-106159122D01*
X104404627Y-106158850D01*
X104117473Y-106277500D01*
X103897582Y-106497007D01*
X103778432Y-106783954D01*
X103778160Y-107094655D01*
X103896810Y-107381809D01*
X104028296Y-107513525D01*
X104028296Y-112913634D01*
X103909379Y-113032551D01*
X96555394Y-113032551D01*
X96672475Y-112915673D01*
X96776370Y-112665468D01*
X96776606Y-112394549D01*
X96673149Y-112144162D01*
X96481747Y-111952427D01*
X96258541Y-111859743D01*
X96380297Y-111809435D01*
X96572032Y-111618033D01*
X96675927Y-111367828D01*
X96676163Y-111096909D01*
X96572706Y-110846522D01*
X96381304Y-110654787D01*
X96131099Y-110550892D01*
X96065053Y-110550834D01*
X95829711Y-110315492D01*
X95858388Y-110286864D01*
X95962283Y-110036659D01*
X95962283Y-110036218D01*
X97446299Y-110036218D01*
X97549756Y-110286605D01*
X97741158Y-110478340D01*
X97991363Y-110582235D01*
X98057409Y-110582293D01*
X99460590Y-111985474D01*
X99632859Y-112100580D01*
X99836064Y-112141001D01*
X99836069Y-112141000D01*
X102742834Y-112141000D01*
X102788741Y-112186987D01*
X103038946Y-112290882D01*
X103309865Y-112291118D01*
X103560252Y-112187661D01*
X103751987Y-111996259D01*
X103855882Y-111746054D01*
X103856118Y-111475135D01*
X103752661Y-111224748D01*
X103561259Y-111033013D01*
X103311054Y-110929118D01*
X103040135Y-110928882D01*
X102789748Y-111032339D01*
X102743006Y-111079000D01*
X100056012Y-111079000D01*
X98808478Y-109831466D01*
X98808535Y-109766488D01*
X98705078Y-109516101D01*
X98513676Y-109324366D01*
X98263471Y-109220471D01*
X97992552Y-109220235D01*
X97742165Y-109323692D01*
X97550430Y-109515094D01*
X97446535Y-109765299D01*
X97446299Y-110036218D01*
X95962283Y-110036218D01*
X95962519Y-109765740D01*
X95859062Y-109515353D01*
X95667660Y-109323618D01*
X95417455Y-109219723D01*
X95146536Y-109219487D01*
X94896149Y-109322944D01*
X94849407Y-109369605D01*
X93634034Y-109369605D01*
X93558477Y-109293917D01*
X93308272Y-109190022D01*
X93037353Y-109189786D01*
X92786966Y-109293243D01*
X92595231Y-109484645D01*
X92491336Y-109734850D01*
X92491129Y-109971937D01*
X92416997Y-110002568D01*
X92225262Y-110193970D01*
X92121367Y-110444175D01*
X92121131Y-110715094D01*
X85627000Y-110715094D01*
X85627000Y-109500000D01*
X85616994Y-109450590D01*
X85589803Y-109410197D01*
X85089803Y-108910197D01*
X85047789Y-108882334D01*
X85000000Y-108873000D01*
X81052606Y-108873000D01*
X80627000Y-108447394D01*
X80627000Y-107136963D01*
X85523714Y-107136963D01*
X85774534Y-107743995D01*
X86238563Y-108208834D01*
X86845155Y-108460713D01*
X87501963Y-108461286D01*
X88108995Y-108210466D01*
X88573834Y-107746437D01*
X88825713Y-107139845D01*
X88825849Y-106983750D01*
X91561000Y-106983750D01*
X91561000Y-107596935D01*
X91626007Y-107753876D01*
X91746124Y-107873993D01*
X91903064Y-107939000D01*
X92516250Y-107939000D01*
X92623000Y-107832250D01*
X92623000Y-106877000D01*
X92877000Y-106877000D01*
X92877000Y-107832250D01*
X92983750Y-107939000D01*
X93596936Y-107939000D01*
X93753876Y-107873993D01*
X93873993Y-107753876D01*
X93939000Y-107596935D01*
X93939000Y-107105363D01*
X96093882Y-107105363D01*
X96197339Y-107355750D01*
X96388741Y-107547485D01*
X96638946Y-107651380D01*
X96909865Y-107651616D01*
X97160252Y-107548159D01*
X97206994Y-107501498D01*
X99115550Y-107501498D01*
X101893939Y-110279886D01*
X101893882Y-110344865D01*
X101997339Y-110595252D01*
X102188741Y-110786987D01*
X102438946Y-110890882D01*
X102709865Y-110891118D01*
X102960252Y-110787661D01*
X103151987Y-110596259D01*
X103255882Y-110346054D01*
X103256118Y-110075135D01*
X103152661Y-109824748D01*
X102961259Y-109633013D01*
X102711054Y-109529118D01*
X102645008Y-109529060D01*
X99710972Y-106595024D01*
X99538703Y-106479918D01*
X99335498Y-106439498D01*
X97207166Y-106439498D01*
X97161259Y-106393511D01*
X96911054Y-106289616D01*
X96640135Y-106289380D01*
X96389748Y-106392837D01*
X96198013Y-106584239D01*
X96094118Y-106834444D01*
X96093882Y-107105363D01*
X93939000Y-107105363D01*
X93939000Y-106983750D01*
X93832250Y-106877000D01*
X92877000Y-106877000D01*
X92623000Y-106877000D01*
X91667750Y-106877000D01*
X91561000Y-106983750D01*
X88825849Y-106983750D01*
X88826286Y-106483037D01*
X88586647Y-105903065D01*
X91561000Y-105903065D01*
X91561000Y-106516250D01*
X91667750Y-106623000D01*
X92623000Y-106623000D01*
X92623000Y-105667750D01*
X92877000Y-105667750D01*
X92877000Y-106623000D01*
X93832250Y-106623000D01*
X93939000Y-106516250D01*
X93939000Y-105903065D01*
X93873993Y-105746124D01*
X93753876Y-105626007D01*
X93596936Y-105561000D01*
X92983750Y-105561000D01*
X92877000Y-105667750D01*
X92623000Y-105667750D01*
X92516250Y-105561000D01*
X91903064Y-105561000D01*
X91746124Y-105626007D01*
X91626007Y-105746124D01*
X91561000Y-105903065D01*
X88586647Y-105903065D01*
X88575466Y-105876005D01*
X88111437Y-105411166D01*
X87504845Y-105159287D01*
X86848037Y-105158714D01*
X86241005Y-105409534D01*
X85776166Y-105873563D01*
X85524287Y-106480155D01*
X85523714Y-107136963D01*
X80627000Y-107136963D01*
X80627000Y-104436359D01*
X91606802Y-104436359D01*
X91780446Y-104856612D01*
X92101697Y-105178423D01*
X92521646Y-105352801D01*
X92976359Y-105353198D01*
X93396612Y-105179554D01*
X93718423Y-104858303D01*
X93892801Y-104438354D01*
X93893198Y-103983641D01*
X93719554Y-103563388D01*
X93398303Y-103241577D01*
X92978354Y-103067199D01*
X92523641Y-103066802D01*
X92103388Y-103240446D01*
X91781577Y-103561697D01*
X91607199Y-103981646D01*
X91606802Y-104436359D01*
X80627000Y-104436359D01*
X80627000Y-102933390D01*
X101572900Y-102933390D01*
X101572900Y-104534636D01*
X101637907Y-104691576D01*
X101758024Y-104811693D01*
X101914965Y-104876700D01*
X102566250Y-104876700D01*
X102673000Y-104769950D01*
X102673000Y-102826640D01*
X101679650Y-102826640D01*
X101572900Y-102933390D01*
X80627000Y-102933390D01*
X80627000Y-101336963D01*
X85523714Y-101336963D01*
X85774534Y-101943995D01*
X86238563Y-102408834D01*
X86845155Y-102660713D01*
X87501963Y-102661286D01*
X87804295Y-102536365D01*
X92063240Y-102536365D01*
X92144097Y-102720018D01*
X92592043Y-102871959D01*
X93064037Y-102840913D01*
X93355903Y-102720018D01*
X93436760Y-102536365D01*
X92750000Y-101849605D01*
X92063240Y-102536365D01*
X87804295Y-102536365D01*
X88108995Y-102410466D01*
X88573834Y-101946437D01*
X88754210Y-101512043D01*
X91548041Y-101512043D01*
X91579087Y-101984037D01*
X91699982Y-102275903D01*
X91883635Y-102356760D01*
X92570395Y-101670000D01*
X92929605Y-101670000D01*
X93616365Y-102356760D01*
X93800018Y-102275903D01*
X93951959Y-101827957D01*
X93920913Y-101355963D01*
X93800018Y-101064097D01*
X93616365Y-100983240D01*
X92929605Y-101670000D01*
X92570395Y-101670000D01*
X91883635Y-100983240D01*
X91699982Y-101064097D01*
X91548041Y-101512043D01*
X88754210Y-101512043D01*
X88825713Y-101339845D01*
X88826180Y-100803635D01*
X92063240Y-100803635D01*
X92750000Y-101490395D01*
X93436760Y-100803635D01*
X93355903Y-100619982D01*
X92907957Y-100468041D01*
X92435963Y-100499087D01*
X92144097Y-100619982D01*
X92063240Y-100803635D01*
X88826180Y-100803635D01*
X88826286Y-100683037D01*
X88575466Y-100076005D01*
X88111437Y-99611166D01*
X87504845Y-99359287D01*
X86848037Y-99358714D01*
X86241005Y-99609534D01*
X85776166Y-100073563D01*
X85524287Y-100680155D01*
X85523714Y-101336963D01*
X80627000Y-101336963D01*
X80627000Y-93934865D01*
X81518882Y-93934865D01*
X81622339Y-94185252D01*
X81813741Y-94376987D01*
X82063946Y-94480882D01*
X82334865Y-94481118D01*
X82585252Y-94377661D01*
X82776987Y-94186259D01*
X82880882Y-93936054D01*
X82881118Y-93665135D01*
X82777661Y-93414748D01*
X82731000Y-93368006D01*
X82731000Y-93219948D01*
X83304948Y-92646000D01*
X91492025Y-92646000D01*
X91610366Y-92726859D01*
X91723288Y-92749726D01*
X91620310Y-92769103D01*
X91490635Y-92852546D01*
X91489642Y-92854000D01*
X84609302Y-92854000D01*
X84609297Y-92853999D01*
X84406092Y-92894420D01*
X84233823Y-93009526D01*
X84114925Y-93128424D01*
X84049947Y-93128367D01*
X83799560Y-93231824D01*
X83607825Y-93423226D01*
X83503930Y-93673431D01*
X83503694Y-93944350D01*
X83607151Y-94194737D01*
X83798553Y-94386472D01*
X84048758Y-94490367D01*
X84319677Y-94490603D01*
X84570064Y-94387146D01*
X84761799Y-94195744D01*
X84865694Y-93945539D01*
X84865720Y-93916000D01*
X86134353Y-93916000D01*
X85776166Y-94273563D01*
X85524287Y-94880155D01*
X85523714Y-95536963D01*
X85774534Y-96143995D01*
X86238563Y-96608834D01*
X86845155Y-96860713D01*
X87501963Y-96861286D01*
X88108995Y-96610466D01*
X88573834Y-96146437D01*
X88825713Y-95539845D01*
X88826281Y-94888750D01*
X91334500Y-94888750D01*
X91334500Y-94993935D01*
X91399507Y-95150876D01*
X91519624Y-95270993D01*
X91676564Y-95336000D01*
X92099250Y-95336000D01*
X92206000Y-95229250D01*
X92206000Y-94782000D01*
X92460000Y-94782000D01*
X92460000Y-95229250D01*
X92566750Y-95336000D01*
X92989436Y-95336000D01*
X93146376Y-95270993D01*
X93266493Y-95150876D01*
X93331500Y-94993935D01*
X93331500Y-94888750D01*
X93224750Y-94782000D01*
X92460000Y-94782000D01*
X92206000Y-94782000D01*
X91441250Y-94782000D01*
X91334500Y-94888750D01*
X88826281Y-94888750D01*
X88826286Y-94883037D01*
X88575466Y-94276005D01*
X88216088Y-93916000D01*
X91492025Y-93916000D01*
X91610366Y-93996859D01*
X91617762Y-93998357D01*
X91519624Y-94039007D01*
X91399507Y-94159124D01*
X91334500Y-94316065D01*
X91334500Y-94421250D01*
X91441250Y-94528000D01*
X92206000Y-94528000D01*
X92206000Y-94508000D01*
X92460000Y-94508000D01*
X92460000Y-94528000D01*
X93224750Y-94528000D01*
X93331500Y-94421250D01*
X93331500Y-94316065D01*
X93266493Y-94159124D01*
X93146376Y-94039007D01*
X93049090Y-93998709D01*
X93175365Y-93917454D01*
X93262359Y-93790134D01*
X93292964Y-93639000D01*
X93292964Y-93131000D01*
X93266397Y-92989810D01*
X93182954Y-92860135D01*
X93055634Y-92773141D01*
X92942712Y-92750274D01*
X93045690Y-92730897D01*
X93175365Y-92647454D01*
X93262359Y-92520134D01*
X93292964Y-92369000D01*
X93292964Y-91861000D01*
X93266397Y-91719810D01*
X93182954Y-91590135D01*
X93055634Y-91503141D01*
X92942712Y-91480274D01*
X93045690Y-91460897D01*
X93175365Y-91377454D01*
X93262359Y-91250134D01*
X93292964Y-91099000D01*
X93292964Y-90591000D01*
X93266397Y-90449810D01*
X93182954Y-90320135D01*
X93055634Y-90233141D01*
X93043074Y-90230598D01*
X93078501Y-90052500D01*
X93078500Y-90052495D01*
X93078500Y-89570688D01*
X93133190Y-89560397D01*
X93262865Y-89476954D01*
X93349859Y-89349634D01*
X93380464Y-89198500D01*
X93380464Y-88733750D01*
X93581000Y-88733750D01*
X93581000Y-89283436D01*
X93646007Y-89440376D01*
X93766124Y-89560493D01*
X93923065Y-89625500D01*
X94218750Y-89625500D01*
X94325500Y-89518750D01*
X94325500Y-88627000D01*
X93687750Y-88627000D01*
X93581000Y-88733750D01*
X93380464Y-88733750D01*
X93380464Y-87801500D01*
X93364483Y-87716564D01*
X93581000Y-87716564D01*
X93581000Y-88266250D01*
X93687750Y-88373000D01*
X94325500Y-88373000D01*
X94325500Y-87481250D01*
X94218750Y-87374500D01*
X93923065Y-87374500D01*
X93766124Y-87439507D01*
X93646007Y-87559624D01*
X93581000Y-87716564D01*
X93364483Y-87716564D01*
X93353897Y-87660310D01*
X93270454Y-87530635D01*
X93143134Y-87443641D01*
X92992000Y-87413036D01*
X92103000Y-87413036D01*
X92030159Y-87426742D01*
X92030207Y-87371540D01*
X91926750Y-87121153D01*
X91735348Y-86929418D01*
X91485143Y-86825523D01*
X91214224Y-86825287D01*
X90963837Y-86928744D01*
X90772102Y-87120146D01*
X90668207Y-87370351D01*
X90667971Y-87641270D01*
X90771428Y-87891657D01*
X90962830Y-88083392D01*
X91213035Y-88187287D01*
X91279081Y-88187345D01*
X91714536Y-88622799D01*
X91714536Y-89198500D01*
X91741103Y-89339690D01*
X91824546Y-89469365D01*
X91951866Y-89556359D01*
X92016500Y-89569448D01*
X92016500Y-89832552D01*
X91957526Y-89891526D01*
X91842420Y-90063795D01*
X91814823Y-90202536D01*
X91761500Y-90202536D01*
X91620310Y-90229103D01*
X91490635Y-90312546D01*
X91403641Y-90439866D01*
X91373036Y-90591000D01*
X91373036Y-91099000D01*
X91399603Y-91240190D01*
X91483046Y-91369865D01*
X91610366Y-91456859D01*
X91723288Y-91479726D01*
X91620310Y-91499103D01*
X91490635Y-91582546D01*
X91489642Y-91584000D01*
X83085000Y-91584000D01*
X82881795Y-91624420D01*
X82709526Y-91739526D01*
X81824526Y-92624526D01*
X81709420Y-92796795D01*
X81669000Y-93000000D01*
X81669000Y-93367834D01*
X81623013Y-93413741D01*
X81519118Y-93663946D01*
X81518882Y-93934865D01*
X80627000Y-93934865D01*
X80627000Y-90644270D01*
X86120335Y-90644270D01*
X86263475Y-90880671D01*
X86895662Y-91117548D01*
X87570376Y-91094467D01*
X88086525Y-90880671D01*
X88229665Y-90644270D01*
X87175000Y-89589605D01*
X86120335Y-90644270D01*
X80627000Y-90644270D01*
X80627000Y-89130662D01*
X85467452Y-89130662D01*
X85490533Y-89805376D01*
X85704329Y-90321525D01*
X85940730Y-90464665D01*
X86995395Y-89410000D01*
X87354605Y-89410000D01*
X88409270Y-90464665D01*
X88645671Y-90321525D01*
X88882548Y-89689338D01*
X88859467Y-89014624D01*
X88645671Y-88498475D01*
X88409270Y-88355335D01*
X87354605Y-89410000D01*
X86995395Y-89410000D01*
X85940730Y-88355335D01*
X85704329Y-88498475D01*
X85467452Y-89130662D01*
X80627000Y-89130662D01*
X80627000Y-88175730D01*
X86120335Y-88175730D01*
X87175000Y-89230395D01*
X88229665Y-88175730D01*
X88086525Y-87939329D01*
X87454338Y-87702452D01*
X86779624Y-87725533D01*
X86263475Y-87939329D01*
X86120335Y-88175730D01*
X80627000Y-88175730D01*
X80627000Y-87052606D01*
X81052606Y-86627000D01*
X85000000Y-86627000D01*
X85049410Y-86616994D01*
X85089803Y-86589803D01*
X85589803Y-86089803D01*
X85617666Y-86047789D01*
X85627000Y-86000000D01*
X85627000Y-83643750D01*
X87322500Y-83643750D01*
X87322500Y-84320436D01*
X87387507Y-84477376D01*
X87507624Y-84597493D01*
X87664565Y-84662500D01*
X88341250Y-84662500D01*
X88448000Y-84555750D01*
X88448000Y-83537000D01*
X88702000Y-83537000D01*
X88702000Y-84555750D01*
X88808750Y-84662500D01*
X89485435Y-84662500D01*
X89642376Y-84597493D01*
X89762493Y-84477376D01*
X89827500Y-84320436D01*
X89827500Y-83643905D01*
X89933696Y-83643905D01*
X90113128Y-84078165D01*
X90445087Y-84410704D01*
X90879034Y-84590894D01*
X91348905Y-84591304D01*
X91783165Y-84411872D01*
X91993245Y-84202158D01*
X92014319Y-84308104D01*
X92129425Y-84480373D01*
X94904910Y-87255857D01*
X94904910Y-87374500D01*
X94686250Y-87374500D01*
X94579500Y-87481250D01*
X94579500Y-88373000D01*
X94599500Y-88373000D01*
X94599500Y-88627000D01*
X94579500Y-88627000D01*
X94579500Y-89518750D01*
X94686250Y-89625500D01*
X94904910Y-89625500D01*
X94904910Y-95529068D01*
X94945330Y-95732273D01*
X95060436Y-95904542D01*
X97039033Y-97883138D01*
X97039035Y-97883141D01*
X97211304Y-97998247D01*
X97245019Y-98004953D01*
X97414509Y-98038668D01*
X97414514Y-98038667D01*
X97466830Y-98038667D01*
X97415774Y-98161623D01*
X97415538Y-98432542D01*
X97518995Y-98682929D01*
X97710397Y-98874664D01*
X97960602Y-98978559D01*
X98026648Y-98978617D01*
X98423503Y-99375471D01*
X98423505Y-99375474D01*
X98595774Y-99490580D01*
X98798979Y-99531001D01*
X98798984Y-99531000D01*
X98920086Y-99531000D01*
X98906447Y-99563846D01*
X98906211Y-99834765D01*
X99009668Y-100085152D01*
X99043876Y-100119420D01*
X94490367Y-100119420D01*
X93844830Y-99473882D01*
X93892801Y-99358354D01*
X93893198Y-98903641D01*
X93719554Y-98483388D01*
X93398303Y-98161577D01*
X92978354Y-97987199D01*
X92523641Y-97986802D01*
X92103388Y-98160446D01*
X91781577Y-98481697D01*
X91607199Y-98901646D01*
X91606802Y-99356359D01*
X91780446Y-99776612D01*
X92101697Y-100098423D01*
X92521646Y-100272801D01*
X92976359Y-100273198D01*
X93093747Y-100224695D01*
X93894944Y-101025891D01*
X93894946Y-101025894D01*
X94067215Y-101141000D01*
X94270420Y-101181421D01*
X94270425Y-101181420D01*
X99899940Y-101181420D01*
X100103145Y-101141000D01*
X100275414Y-101025894D01*
X100436664Y-100864644D01*
X101572900Y-100864644D01*
X101572900Y-102465890D01*
X101679650Y-102572640D01*
X102673000Y-102572640D01*
X102673000Y-100629330D01*
X102927000Y-100629330D01*
X102927000Y-102572640D01*
X103920350Y-102572640D01*
X104027100Y-102465890D01*
X104027100Y-100864644D01*
X103962093Y-100707704D01*
X103841976Y-100587587D01*
X103685035Y-100522580D01*
X103033750Y-100522580D01*
X102927000Y-100629330D01*
X102673000Y-100629330D01*
X102566250Y-100522580D01*
X101914965Y-100522580D01*
X101758024Y-100587587D01*
X101637907Y-100707704D01*
X101572900Y-100864644D01*
X100436664Y-100864644D01*
X101611436Y-99689872D01*
X101611436Y-100050420D01*
X101638003Y-100191610D01*
X101721446Y-100321285D01*
X101848766Y-100408279D01*
X101999900Y-100438884D01*
X103600100Y-100438884D01*
X103741290Y-100412317D01*
X103870965Y-100328874D01*
X103957959Y-100201554D01*
X103988564Y-100050420D01*
X103988564Y-96550300D01*
X103961997Y-96409110D01*
X103878554Y-96279435D01*
X103751234Y-96192441D01*
X103600100Y-96161836D01*
X102509310Y-96161836D01*
X104804613Y-93866533D01*
X104893454Y-93733572D01*
X105114390Y-93642284D01*
X105306125Y-93450882D01*
X105388976Y-93251356D01*
X105388976Y-94132122D01*
X105429396Y-94335327D01*
X105544502Y-94507596D01*
X106212866Y-95175959D01*
X106212809Y-95240938D01*
X106316266Y-95491325D01*
X106507668Y-95683060D01*
X106757873Y-95786955D01*
X107028792Y-95787191D01*
X107279179Y-95683734D01*
X107374934Y-95588145D01*
X107412277Y-95625553D01*
X107662482Y-95729448D01*
X107933401Y-95729684D01*
X108183788Y-95626227D01*
X108375523Y-95434825D01*
X108479418Y-95184620D01*
X108479654Y-94913701D01*
X108376197Y-94663314D01*
X108184795Y-94471579D01*
X107934590Y-94367684D01*
X107868544Y-94367626D01*
X107856740Y-94355823D01*
X108101614Y-94254644D01*
X108293349Y-94063242D01*
X108397244Y-93813037D01*
X108397304Y-93744273D01*
X108506941Y-93580189D01*
X108514750Y-93540929D01*
X108547362Y-93376984D01*
X108547361Y-93376979D01*
X108547361Y-91231813D01*
X108506941Y-91028608D01*
X108391835Y-90856339D01*
X107369617Y-89834121D01*
X107385252Y-89827661D01*
X107431994Y-89781000D01*
X112780052Y-89781000D01*
X113219000Y-90219948D01*
X113219000Y-111025095D01*
X113075500Y-110996036D01*
X111424500Y-110996036D01*
X111283310Y-111022603D01*
X111153635Y-111106046D01*
X111066641Y-111233366D01*
X111036036Y-111384500D01*
X111036036Y-113035500D01*
X111062603Y-113176690D01*
X111146046Y-113306365D01*
X111273366Y-113393359D01*
X111424500Y-113423964D01*
X113075500Y-113423964D01*
X113216690Y-113397397D01*
X113219000Y-113395911D01*
X113219000Y-114048906D01*
X112919913Y-113749296D01*
X112485966Y-113569106D01*
X112016095Y-113568696D01*
X111581835Y-113748128D01*
X111249296Y-114080087D01*
X111069106Y-114514034D01*
X111068696Y-114983905D01*
X111248128Y-115418165D01*
X111580087Y-115750704D01*
X112014034Y-115930894D01*
X112483905Y-115931304D01*
X112918165Y-115751872D01*
X113219000Y-115451562D01*
X113219000Y-116030052D01*
X112939817Y-116309235D01*
X112919913Y-116289296D01*
X112485966Y-116109106D01*
X112016095Y-116108696D01*
X111581835Y-116288128D01*
X111249296Y-116620087D01*
X111069106Y-117054034D01*
X111068696Y-117523905D01*
X111248128Y-117958165D01*
X111580087Y-118290704D01*
X112014034Y-118470894D01*
X112483905Y-118471304D01*
X112918165Y-118291872D01*
X113250704Y-117959913D01*
X113430894Y-117525966D01*
X113431074Y-117319874D01*
X114125474Y-116625474D01*
X114240580Y-116453205D01*
X114281000Y-116250000D01*
X114281000Y-90000000D01*
X114240580Y-89796795D01*
X114125474Y-89624526D01*
X113375474Y-88874526D01*
X113203205Y-88759420D01*
X113000000Y-88719000D01*
X107432166Y-88719000D01*
X107386259Y-88673013D01*
X107136054Y-88569118D01*
X106865135Y-88568882D01*
X106614748Y-88672339D01*
X106423013Y-88863741D01*
X106416037Y-88880541D01*
X104067190Y-86531694D01*
X103963083Y-86375886D01*
X102694387Y-85107190D01*
X102522118Y-84992084D01*
X102318913Y-84951664D01*
X102318912Y-84951664D01*
X101932527Y-84951665D01*
X101553673Y-84572806D01*
X101943165Y-84411872D01*
X102275704Y-84079913D01*
X102455894Y-83645966D01*
X102455902Y-83636359D01*
X102671802Y-83636359D01*
X102845446Y-84056612D01*
X103166697Y-84378423D01*
X103586646Y-84552801D01*
X104041359Y-84553198D01*
X104461612Y-84379554D01*
X104783423Y-84058303D01*
X104957801Y-83638354D01*
X104957802Y-83636359D01*
X105211802Y-83636359D01*
X105385446Y-84056612D01*
X105706697Y-84378423D01*
X106126646Y-84552801D01*
X106581359Y-84553198D01*
X107001612Y-84379554D01*
X107323423Y-84058303D01*
X107497801Y-83638354D01*
X107497802Y-83636359D01*
X107751802Y-83636359D01*
X107925446Y-84056612D01*
X108246697Y-84378423D01*
X108666646Y-84552801D01*
X109121359Y-84553198D01*
X109541612Y-84379554D01*
X109863423Y-84058303D01*
X110037801Y-83638354D01*
X110037802Y-83636359D01*
X110291802Y-83636359D01*
X110465446Y-84056612D01*
X110786697Y-84378423D01*
X111206646Y-84552801D01*
X111661359Y-84553198D01*
X112081612Y-84379554D01*
X112403423Y-84058303D01*
X112577801Y-83638354D01*
X112578198Y-83183641D01*
X112404554Y-82763388D01*
X112083303Y-82441577D01*
X111663354Y-82267199D01*
X111208641Y-82266802D01*
X110788388Y-82440446D01*
X110466577Y-82761697D01*
X110292199Y-83181646D01*
X110291802Y-83636359D01*
X110037802Y-83636359D01*
X110038198Y-83183641D01*
X109864554Y-82763388D01*
X109543303Y-82441577D01*
X109123354Y-82267199D01*
X108668641Y-82266802D01*
X108248388Y-82440446D01*
X107926577Y-82761697D01*
X107752199Y-83181646D01*
X107751802Y-83636359D01*
X107497802Y-83636359D01*
X107498198Y-83183641D01*
X107324554Y-82763388D01*
X107003303Y-82441577D01*
X106583354Y-82267199D01*
X106128641Y-82266802D01*
X105708388Y-82440446D01*
X105386577Y-82761697D01*
X105212199Y-83181646D01*
X105211802Y-83636359D01*
X104957802Y-83636359D01*
X104958198Y-83183641D01*
X104784554Y-82763388D01*
X104463303Y-82441577D01*
X104043354Y-82267199D01*
X103588641Y-82266802D01*
X103168388Y-82440446D01*
X102846577Y-82761697D01*
X102672199Y-83181646D01*
X102671802Y-83636359D01*
X102455902Y-83636359D01*
X102456304Y-83176095D01*
X102276872Y-82741835D01*
X101944913Y-82409296D01*
X101510966Y-82229106D01*
X101041095Y-82228696D01*
X100606835Y-82408128D01*
X100416101Y-82598529D01*
X100416101Y-82020101D01*
X100375681Y-81816896D01*
X100260575Y-81644627D01*
X100260572Y-81644625D01*
X99858979Y-81243032D01*
X99915894Y-81105966D01*
X99915895Y-81103905D01*
X100093696Y-81103905D01*
X100273128Y-81538165D01*
X100605087Y-81870704D01*
X101039034Y-82050894D01*
X101508905Y-82051304D01*
X101943165Y-81871872D01*
X102275704Y-81539913D01*
X102455894Y-81105966D01*
X102455902Y-81096359D01*
X102671802Y-81096359D01*
X102845446Y-81516612D01*
X103166697Y-81838423D01*
X103586646Y-82012801D01*
X104041359Y-82013198D01*
X104461612Y-81839554D01*
X104783423Y-81518303D01*
X104957801Y-81098354D01*
X104957802Y-81096359D01*
X105211802Y-81096359D01*
X105385446Y-81516612D01*
X105706697Y-81838423D01*
X106126646Y-82012801D01*
X106581359Y-82013198D01*
X107001612Y-81839554D01*
X107323423Y-81518303D01*
X107497801Y-81098354D01*
X107497802Y-81096359D01*
X107751802Y-81096359D01*
X107925446Y-81516612D01*
X108246697Y-81838423D01*
X108666646Y-82012801D01*
X109121359Y-82013198D01*
X109541612Y-81839554D01*
X109863423Y-81518303D01*
X110037801Y-81098354D01*
X110037802Y-81096359D01*
X110291802Y-81096359D01*
X110465446Y-81516612D01*
X110786697Y-81838423D01*
X111206646Y-82012801D01*
X111661359Y-82013198D01*
X112081612Y-81839554D01*
X112403423Y-81518303D01*
X112577801Y-81098354D01*
X112578198Y-80643641D01*
X112404554Y-80223388D01*
X112083303Y-79901577D01*
X111663354Y-79727199D01*
X111208641Y-79726802D01*
X110788388Y-79900446D01*
X110466577Y-80221697D01*
X110292199Y-80641646D01*
X110291802Y-81096359D01*
X110037802Y-81096359D01*
X110038198Y-80643641D01*
X109864554Y-80223388D01*
X109543303Y-79901577D01*
X109123354Y-79727199D01*
X108668641Y-79726802D01*
X108248388Y-79900446D01*
X107926577Y-80221697D01*
X107752199Y-80641646D01*
X107751802Y-81096359D01*
X107497802Y-81096359D01*
X107498198Y-80643641D01*
X107324554Y-80223388D01*
X107003303Y-79901577D01*
X106583354Y-79727199D01*
X106128641Y-79726802D01*
X105708388Y-79900446D01*
X105386577Y-80221697D01*
X105212199Y-80641646D01*
X105211802Y-81096359D01*
X104957802Y-81096359D01*
X104958198Y-80643641D01*
X104784554Y-80223388D01*
X104463303Y-79901577D01*
X104043354Y-79727199D01*
X103588641Y-79726802D01*
X103168388Y-79900446D01*
X102846577Y-80221697D01*
X102672199Y-80641646D01*
X102671802Y-81096359D01*
X102455902Y-81096359D01*
X102456304Y-80636095D01*
X102276872Y-80201835D01*
X101944913Y-79869296D01*
X101510966Y-79689106D01*
X101041095Y-79688696D01*
X100606835Y-79868128D01*
X100274296Y-80200087D01*
X100094106Y-80634034D01*
X100093696Y-81103905D01*
X99915895Y-81103905D01*
X99916304Y-80636095D01*
X99736872Y-80201835D01*
X99404913Y-79869296D01*
X98970966Y-79689106D01*
X98501095Y-79688696D01*
X98066835Y-79868128D01*
X97734296Y-80200087D01*
X97554106Y-80634034D01*
X97553696Y-81103905D01*
X97733128Y-81538165D01*
X98065087Y-81870704D01*
X98499034Y-82050894D01*
X98968905Y-82051304D01*
X99107918Y-81993865D01*
X99354101Y-82240048D01*
X99354101Y-82388197D01*
X98970966Y-82229106D01*
X98501095Y-82228696D01*
X98066835Y-82408128D01*
X97876101Y-82598529D01*
X97876101Y-82020101D01*
X97835681Y-81816896D01*
X97720575Y-81644627D01*
X97720572Y-81644625D01*
X97318979Y-81243032D01*
X97375894Y-81105966D01*
X97376304Y-80636095D01*
X97196872Y-80201835D01*
X96864913Y-79869296D01*
X96430966Y-79689106D01*
X95961095Y-79688696D01*
X95526835Y-79868128D01*
X95194296Y-80200087D01*
X95014106Y-80634034D01*
X95013696Y-81103905D01*
X95193128Y-81538165D01*
X95525087Y-81870704D01*
X95959034Y-82050894D01*
X96428905Y-82051304D01*
X96567918Y-81993865D01*
X96814101Y-82240048D01*
X96814101Y-82388197D01*
X96430966Y-82229106D01*
X95961095Y-82228696D01*
X95526835Y-82408128D01*
X95194296Y-82740087D01*
X95014106Y-83174034D01*
X95013696Y-83643905D01*
X95193128Y-84078165D01*
X95525087Y-84410704D01*
X95959034Y-84590894D01*
X96428905Y-84591304D01*
X96567917Y-84533865D01*
X99392221Y-87358169D01*
X99564490Y-87473275D01*
X99767695Y-87513696D01*
X99767700Y-87513695D01*
X101477630Y-87513695D01*
X101607995Y-87644059D01*
X101712104Y-87799870D01*
X105388976Y-91476742D01*
X105388976Y-92878256D01*
X105306799Y-92679371D01*
X105115397Y-92487636D01*
X104955487Y-92421235D01*
X104955617Y-92271486D01*
X104852160Y-92021099D01*
X104660758Y-91829364D01*
X104410553Y-91725469D01*
X104139634Y-91725233D01*
X104094458Y-91743899D01*
X104094659Y-91513079D01*
X103991202Y-91262692D01*
X103799800Y-91070957D01*
X103549595Y-90967062D01*
X103278676Y-90966826D01*
X103028289Y-91070283D01*
X102836554Y-91261685D01*
X102732659Y-91511890D01*
X102732601Y-91577936D01*
X101686568Y-92623969D01*
X101571462Y-92796238D01*
X101531042Y-92999443D01*
X101531042Y-93966124D01*
X101519801Y-93938918D01*
X101328399Y-93747183D01*
X101078194Y-93643288D01*
X101012148Y-93643230D01*
X100378444Y-93009526D01*
X100206175Y-92894420D01*
X100002970Y-92854000D01*
X98507975Y-92854000D01*
X98389634Y-92773141D01*
X98276712Y-92750274D01*
X98379690Y-92730897D01*
X98509365Y-92647454D01*
X98596359Y-92520134D01*
X98626964Y-92369000D01*
X98626964Y-91861000D01*
X98600397Y-91719810D01*
X98516954Y-91590135D01*
X98389634Y-91503141D01*
X98276712Y-91480274D01*
X98379690Y-91460897D01*
X98509365Y-91377454D01*
X98596359Y-91250134D01*
X98626964Y-91099000D01*
X98626964Y-90591000D01*
X98600397Y-90449810D01*
X98516954Y-90320135D01*
X98389634Y-90233141D01*
X98238500Y-90202536D01*
X97095500Y-90202536D01*
X96954310Y-90229103D01*
X96824635Y-90312546D01*
X96737641Y-90439866D01*
X96707036Y-90591000D01*
X96707036Y-90736516D01*
X96531000Y-90912552D01*
X96531000Y-85755005D01*
X96531001Y-85755000D01*
X96490580Y-85551795D01*
X96375474Y-85379526D01*
X94778980Y-83783032D01*
X94835894Y-83645966D01*
X94836304Y-83176095D01*
X94656872Y-82741835D01*
X94324913Y-82409296D01*
X93890966Y-82229106D01*
X93421095Y-82228696D01*
X93035899Y-82387855D01*
X93035899Y-82240049D01*
X93281968Y-81993979D01*
X93419034Y-82050894D01*
X93888905Y-82051304D01*
X94323165Y-81871872D01*
X94655704Y-81539913D01*
X94835894Y-81105966D01*
X94836304Y-80636095D01*
X94656872Y-80201835D01*
X94324913Y-79869296D01*
X93890966Y-79689106D01*
X93421095Y-79688696D01*
X92986835Y-79868128D01*
X92654296Y-80200087D01*
X92474106Y-80634034D01*
X92473696Y-81103905D01*
X92531135Y-81242918D01*
X92129425Y-81644627D01*
X92014319Y-81816896D01*
X91973899Y-82020101D01*
X91973899Y-82598612D01*
X91784913Y-82409296D01*
X91350966Y-82229106D01*
X90881095Y-82228696D01*
X90446835Y-82408128D01*
X90114296Y-82740087D01*
X89934106Y-83174034D01*
X89933696Y-83643905D01*
X89827500Y-83643905D01*
X89827500Y-83643750D01*
X89720750Y-83537000D01*
X88702000Y-83537000D01*
X88448000Y-83537000D01*
X87429250Y-83537000D01*
X87322500Y-83643750D01*
X85627000Y-83643750D01*
X85627000Y-82499564D01*
X87322500Y-82499564D01*
X87322500Y-83176250D01*
X87429250Y-83283000D01*
X88448000Y-83283000D01*
X88448000Y-82264250D01*
X88702000Y-82264250D01*
X88702000Y-83283000D01*
X89720750Y-83283000D01*
X89827500Y-83176250D01*
X89827500Y-82499564D01*
X89762493Y-82342624D01*
X89642376Y-82222507D01*
X89485435Y-82157500D01*
X88808750Y-82157500D01*
X88702000Y-82264250D01*
X88448000Y-82264250D01*
X88341250Y-82157500D01*
X87664565Y-82157500D01*
X87507624Y-82222507D01*
X87387507Y-82342624D01*
X87322500Y-82499564D01*
X85627000Y-82499564D01*
X85627000Y-81764010D01*
X87860595Y-81764010D01*
X87946142Y-81951615D01*
X88407927Y-82109935D01*
X88895148Y-82079487D01*
X89203858Y-81951615D01*
X89289405Y-81764010D01*
X88575000Y-81049605D01*
X87860595Y-81764010D01*
X85627000Y-81764010D01*
X85627000Y-80702927D01*
X87335065Y-80702927D01*
X87365513Y-81190148D01*
X87493385Y-81498858D01*
X87680990Y-81584405D01*
X88395395Y-80870000D01*
X88754605Y-80870000D01*
X89469010Y-81584405D01*
X89656615Y-81498858D01*
X89792022Y-81103905D01*
X89933696Y-81103905D01*
X90113128Y-81538165D01*
X90445087Y-81870704D01*
X90879034Y-82050894D01*
X91348905Y-82051304D01*
X91783165Y-81871872D01*
X92115704Y-81539913D01*
X92295894Y-81105966D01*
X92296304Y-80636095D01*
X92116872Y-80201835D01*
X91784913Y-79869296D01*
X91350966Y-79689106D01*
X90881095Y-79688696D01*
X90446835Y-79868128D01*
X90114296Y-80200087D01*
X89934106Y-80634034D01*
X89933696Y-81103905D01*
X89792022Y-81103905D01*
X89814935Y-81037073D01*
X89784487Y-80549852D01*
X89656615Y-80241142D01*
X89469010Y-80155595D01*
X88754605Y-80870000D01*
X88395395Y-80870000D01*
X87680990Y-80155595D01*
X87493385Y-80241142D01*
X87335065Y-80702927D01*
X85627000Y-80702927D01*
X85627000Y-80570390D01*
X86578040Y-79975990D01*
X87860595Y-79975990D01*
X88575000Y-80690395D01*
X89289405Y-79975990D01*
X89203858Y-79788385D01*
X88742073Y-79630065D01*
X88254852Y-79660513D01*
X87946142Y-79788385D01*
X87860595Y-79975990D01*
X86578040Y-79975990D01*
X88844296Y-78559580D01*
X90269111Y-77847220D01*
X93523030Y-76627000D01*
X106476970Y-76627000D01*
X109722717Y-77844155D01*
M02*
