G04 (created by PCBNEW (2013-05-31 BZR 4019)-stable) date 6/28/2014 2:43:39 PM*
%MOIN*%
G04 Gerber Fmt 3.4, Leading zero omitted, Abs format*
%FSLAX34Y34*%
G01*
G70*
G90*
G04 APERTURE LIST*
%ADD10C,0.00590551*%
%ADD11C,0.00393701*%
G04 APERTURE END LIST*
G54D10*
G54D11*
X0Y-35039D02*
X0Y-2362D01*
X35039Y-37401D02*
X2362Y-37401D01*
X37401Y-2362D02*
X37401Y-35039D01*
X2362Y0D02*
X35039Y0D01*
X0Y-35039D02*
G75*
G03X2362Y-37401I2362J0D01*
G74*
G01*
X35039Y-37401D02*
G75*
G03X37401Y-35039I0J2362D01*
G74*
G01*
X37401Y-2362D02*
G75*
G03X35039Y0I-2362J0D01*
G74*
G01*
X2362Y0D02*
G75*
G03X0Y-2362I0J-2362D01*
G74*
G01*
M02*
