G04 (created by PCBNEW (2013-05-31 BZR 4019)-stable) date 6/28/2014 2:43:38 PM*
%MOIN*%
G04 Gerber Fmt 3.4, Leading zero omitted, Abs format*
%FSLAX34Y34*%
G01*
G70*
G90*
G04 APERTURE LIST*
%ADD10C,0.00590551*%
%ADD11C,0.375*%
%ADD12C,0.0393701*%
%ADD13R,0.06X0.06*%
%ADD14C,0.06*%
%ADD15C,0.15*%
%ADD16R,0.055X0.055*%
%ADD17C,0.055*%
%ADD18R,0.06X0.08*%
%ADD19C,0.035*%
%ADD20C,0.01*%
G04 APERTURE END LIST*
G54D10*
G54D11*
X2362Y-2362D03*
X35039Y-2362D03*
X2362Y-35039D03*
X35039Y-35039D03*
G54D12*
X5250Y-1500D03*
X32500Y-36500D03*
G54D13*
X35000Y-18000D03*
G54D14*
X35000Y-17000D03*
X35000Y-16000D03*
X35000Y-15000D03*
G54D13*
X35000Y-21250D03*
G54D14*
X36000Y-21250D03*
X35000Y-22250D03*
X36000Y-22250D03*
X35000Y-23250D03*
X36000Y-23250D03*
G54D15*
X4500Y-9450D03*
X4500Y-27950D03*
G54D13*
X5500Y-25200D03*
G54D14*
X5500Y-24100D03*
X5500Y-23050D03*
X5500Y-21950D03*
X5500Y-20850D03*
X5500Y-19750D03*
X5500Y-18700D03*
X5500Y-17600D03*
X5500Y-16500D03*
X5500Y-15400D03*
X5500Y-14350D03*
X5500Y-13250D03*
X5500Y-12150D03*
X4500Y-24580D03*
X4500Y-23580D03*
X4500Y-22480D03*
X4500Y-21400D03*
X4500Y-20320D03*
X4500Y-19220D03*
X4500Y-18140D03*
X4500Y-17060D03*
X4500Y-15940D03*
X4500Y-14880D03*
X4500Y-13800D03*
X4500Y-12700D03*
G54D16*
X30000Y-23000D03*
G54D17*
X30000Y-22000D03*
X30000Y-21000D03*
X30000Y-20000D03*
X30000Y-19000D03*
X30000Y-18000D03*
X30000Y-17000D03*
X30000Y-16000D03*
X30000Y-15000D03*
X30000Y-14000D03*
G54D13*
X33000Y-18000D03*
G54D14*
X33000Y-17000D03*
X33000Y-16000D03*
X33000Y-15000D03*
G54D13*
X35000Y-8500D03*
G54D14*
X35000Y-7500D03*
X35000Y-6500D03*
G54D13*
X35000Y-31000D03*
G54D14*
X35000Y-30000D03*
X35000Y-29000D03*
G54D16*
X27250Y-28500D03*
G54D17*
X27250Y-27500D03*
X27250Y-26500D03*
X27250Y-25500D03*
X24250Y-25500D03*
X24250Y-26500D03*
X24250Y-27500D03*
X24250Y-28500D03*
X19500Y-24000D03*
X19500Y-23000D03*
X19500Y-22000D03*
X19500Y-21000D03*
X19500Y-20000D03*
X19500Y-19000D03*
X19500Y-18000D03*
X19500Y-17000D03*
X19500Y-16000D03*
X19500Y-15000D03*
X19500Y-14000D03*
X19500Y-13000D03*
X19500Y-12000D03*
G54D16*
X19500Y-25000D03*
G54D17*
X16500Y-12000D03*
X16500Y-13000D03*
X16500Y-14000D03*
X16500Y-15000D03*
X16500Y-16000D03*
X16500Y-17000D03*
X16500Y-18000D03*
X16500Y-19000D03*
X16500Y-20000D03*
X16500Y-21000D03*
X16500Y-22000D03*
X16500Y-23000D03*
X16500Y-24000D03*
X16500Y-25000D03*
G54D18*
X12150Y-28500D03*
X10850Y-28500D03*
G54D19*
X28500Y-11500D03*
X28500Y-18000D03*
X27500Y-12500D03*
X27500Y-19000D03*
X34250Y-20250D03*
X27000Y-13500D03*
X27000Y-20000D03*
X28000Y-20000D03*
X26000Y-14000D03*
X26000Y-12000D03*
X33000Y-12000D03*
X22500Y-14000D03*
X22500Y-26500D03*
X28000Y-16500D03*
X28000Y-13000D03*
X23000Y-13000D03*
X23000Y-25500D03*
X26500Y-14500D03*
X26500Y-21000D03*
X32250Y-23250D03*
X32250Y-26250D03*
X32250Y-30000D03*
X28000Y-17000D03*
X28000Y-18500D03*
G54D20*
X30000Y-18000D02*
X28500Y-18000D01*
X28500Y-11500D02*
X25000Y-11500D01*
X17000Y-11500D02*
X16500Y-12000D01*
X25000Y-11500D02*
X17500Y-11500D01*
X17500Y-11500D02*
X17000Y-11500D01*
X31700Y-18700D02*
X35700Y-18700D01*
X35700Y-18700D02*
X37100Y-20100D01*
X36000Y-23250D02*
X36650Y-23250D01*
X36650Y-23250D02*
X37100Y-22800D01*
X37100Y-22800D02*
X37100Y-20100D01*
X30100Y-18100D02*
X30000Y-18000D01*
X31100Y-18100D02*
X30100Y-18100D01*
X31700Y-18700D02*
X31100Y-18100D01*
X16500Y-13000D02*
X17000Y-13000D01*
X17000Y-13000D02*
X17500Y-12500D01*
X17500Y-12500D02*
X27500Y-12500D01*
X27500Y-19000D02*
X28000Y-19000D01*
X30000Y-19000D02*
X28000Y-19000D01*
X34250Y-20250D02*
X36350Y-20250D01*
X36450Y-22250D02*
X36000Y-22250D01*
X36800Y-21900D02*
X36450Y-22250D01*
X36800Y-20700D02*
X36800Y-21900D01*
X36350Y-20250D02*
X36800Y-20700D01*
X31250Y-19750D02*
X33750Y-19750D01*
X33750Y-19750D02*
X34250Y-20250D01*
X30000Y-19000D02*
X30500Y-19000D01*
X30500Y-19000D02*
X31250Y-19750D01*
X16500Y-14000D02*
X17000Y-14000D01*
X17000Y-14000D02*
X17500Y-13500D01*
X17500Y-13500D02*
X27000Y-13500D01*
X27000Y-20000D02*
X28000Y-20000D01*
X30000Y-20000D02*
X28000Y-20000D01*
X30000Y-20000D02*
X32600Y-20000D01*
X35350Y-20600D02*
X36000Y-21250D01*
X33200Y-20600D02*
X35350Y-20600D01*
X32600Y-20000D02*
X33200Y-20600D01*
X24000Y-14000D02*
X26000Y-14000D01*
X24000Y-14000D02*
X22500Y-14000D01*
X26000Y-12000D02*
X33000Y-12000D01*
X24250Y-26500D02*
X22500Y-26500D01*
X22500Y-14000D02*
X19500Y-14000D01*
X33000Y-15000D02*
X35000Y-15000D01*
X33000Y-16000D02*
X32000Y-16000D01*
X31500Y-16500D02*
X28000Y-16500D01*
X32000Y-16000D02*
X31500Y-16500D01*
X28000Y-13000D02*
X25500Y-13000D01*
X24500Y-13000D02*
X23000Y-13000D01*
X25500Y-13000D02*
X24500Y-13000D01*
X24250Y-25500D02*
X23000Y-25500D01*
X23000Y-13000D02*
X19500Y-13000D01*
X33000Y-16000D02*
X35000Y-16000D01*
X35000Y-18000D02*
X33000Y-18000D01*
X5500Y-13250D02*
X5749Y-13250D01*
X15000Y-18000D02*
X16500Y-18000D01*
X5500Y-19750D02*
X13249Y-19750D01*
X13249Y-19750D02*
X15000Y-18000D01*
X4500Y-23580D02*
X7080Y-23580D01*
X7080Y-23580D02*
X8500Y-25000D01*
X8500Y-25000D02*
X16500Y-25000D01*
X5500Y-23050D02*
X7550Y-23050D01*
X7550Y-23050D02*
X8500Y-24000D01*
X8500Y-24000D02*
X16500Y-24000D01*
X4500Y-22480D02*
X7980Y-22480D01*
X7980Y-22480D02*
X8500Y-23000D01*
X8500Y-23000D02*
X16500Y-23000D01*
X16450Y-21950D02*
X16500Y-22000D01*
X5500Y-21950D02*
X16450Y-21950D01*
X4500Y-21400D02*
X15099Y-21400D01*
X15099Y-21400D02*
X15500Y-21000D01*
X15500Y-21000D02*
X16500Y-21000D01*
X15500Y-20000D02*
X16500Y-20000D01*
X5500Y-20850D02*
X14649Y-20850D01*
X14649Y-20850D02*
X15500Y-20000D01*
X15500Y-19000D02*
X16500Y-19000D01*
X4500Y-20320D02*
X14179Y-20320D01*
X14179Y-20320D02*
X15500Y-19000D01*
X5500Y-24100D02*
X5500Y-25200D01*
X4500Y-24580D02*
X4880Y-24580D01*
X4880Y-24580D02*
X5500Y-25200D01*
X10850Y-28500D02*
X9500Y-28500D01*
X6200Y-25200D02*
X5500Y-25200D01*
X9500Y-28500D02*
X6200Y-25200D01*
X16500Y-15000D02*
X17250Y-15000D01*
X17750Y-14500D02*
X26500Y-14500D01*
X17250Y-15000D02*
X17750Y-14500D01*
X30000Y-21000D02*
X26500Y-21000D01*
X35000Y-30000D02*
X32250Y-30000D01*
X32250Y-26250D02*
X32250Y-23250D01*
X24750Y-18503D02*
X27996Y-18503D01*
X28000Y-17000D02*
X30000Y-17000D01*
X27996Y-18503D02*
X28000Y-18500D01*
X16500Y-17000D02*
X17250Y-17000D01*
X24750Y-18503D02*
X18753Y-18503D01*
X17250Y-17000D02*
X18753Y-18503D01*
X5749Y-16500D02*
X5500Y-16500D01*
G54D10*
G36*
X37231Y-33995D02*
X37096Y-33667D01*
X36414Y-32984D01*
X35523Y-32614D01*
X35450Y-32614D01*
X35450Y-29910D01*
X35450Y-28910D01*
X35450Y-23160D01*
X35450Y-22160D01*
X35381Y-21995D01*
X35255Y-21868D01*
X35089Y-21800D01*
X34910Y-21799D01*
X34745Y-21868D01*
X34618Y-21994D01*
X34550Y-22160D01*
X34549Y-22339D01*
X34618Y-22504D01*
X34744Y-22631D01*
X34910Y-22699D01*
X35089Y-22700D01*
X35254Y-22631D01*
X35381Y-22505D01*
X35449Y-22339D01*
X35450Y-22160D01*
X35450Y-23160D01*
X35381Y-22995D01*
X35255Y-22868D01*
X35089Y-22800D01*
X34910Y-22799D01*
X34745Y-22868D01*
X34618Y-22994D01*
X34550Y-23160D01*
X34549Y-23339D01*
X34618Y-23504D01*
X34744Y-23631D01*
X34910Y-23699D01*
X35089Y-23700D01*
X35254Y-23631D01*
X35381Y-23505D01*
X35449Y-23339D01*
X35450Y-23160D01*
X35450Y-28910D01*
X35381Y-28745D01*
X35255Y-28618D01*
X35089Y-28550D01*
X34910Y-28549D01*
X34745Y-28618D01*
X34618Y-28744D01*
X34550Y-28910D01*
X34549Y-29089D01*
X34618Y-29254D01*
X34744Y-29381D01*
X34910Y-29449D01*
X35089Y-29450D01*
X35254Y-29381D01*
X35381Y-29255D01*
X35449Y-29089D01*
X35450Y-28910D01*
X35450Y-29910D01*
X35381Y-29745D01*
X35255Y-29618D01*
X35089Y-29550D01*
X34910Y-29549D01*
X34745Y-29618D01*
X34618Y-29744D01*
X34595Y-29800D01*
X32575Y-29800D01*
X32575Y-26185D01*
X32525Y-26066D01*
X32450Y-25990D01*
X32450Y-23509D01*
X32525Y-23434D01*
X32574Y-23314D01*
X32575Y-23185D01*
X32525Y-23066D01*
X32434Y-22974D01*
X32314Y-22925D01*
X32185Y-22924D01*
X32066Y-22974D01*
X31974Y-23065D01*
X31925Y-23185D01*
X31924Y-23314D01*
X31974Y-23433D01*
X32050Y-23509D01*
X32050Y-25990D01*
X31974Y-26065D01*
X31925Y-26185D01*
X31924Y-26314D01*
X31974Y-26433D01*
X32065Y-26525D01*
X32185Y-26574D01*
X32314Y-26575D01*
X32433Y-26525D01*
X32525Y-26434D01*
X32574Y-26314D01*
X32575Y-26185D01*
X32575Y-29800D01*
X32509Y-29800D01*
X32434Y-29724D01*
X32314Y-29675D01*
X32185Y-29674D01*
X32066Y-29724D01*
X31974Y-29815D01*
X31925Y-29935D01*
X31924Y-30064D01*
X31974Y-30183D01*
X32065Y-30275D01*
X32185Y-30324D01*
X32314Y-30325D01*
X32433Y-30275D01*
X32509Y-30200D01*
X34595Y-30200D01*
X34618Y-30254D01*
X34744Y-30381D01*
X34910Y-30449D01*
X35089Y-30450D01*
X35254Y-30381D01*
X35381Y-30255D01*
X35449Y-30089D01*
X35450Y-29910D01*
X35450Y-32614D01*
X35450Y-32614D01*
X35450Y-31270D01*
X35450Y-30670D01*
X35427Y-30615D01*
X35385Y-30572D01*
X35329Y-30550D01*
X35270Y-30549D01*
X34670Y-30549D01*
X34615Y-30572D01*
X34572Y-30614D01*
X34550Y-30670D01*
X34549Y-30729D01*
X34549Y-31329D01*
X34572Y-31384D01*
X34614Y-31427D01*
X34670Y-31449D01*
X34729Y-31450D01*
X35329Y-31450D01*
X35384Y-31427D01*
X35427Y-31385D01*
X35449Y-31329D01*
X35450Y-31270D01*
X35450Y-32614D01*
X34559Y-32613D01*
X33667Y-32982D01*
X32984Y-33663D01*
X32614Y-34554D01*
X32613Y-35519D01*
X32780Y-35922D01*
X32627Y-35859D01*
X32373Y-35859D01*
X32137Y-35956D01*
X31957Y-36136D01*
X31859Y-36372D01*
X31859Y-36626D01*
X31956Y-36862D01*
X32136Y-37042D01*
X32372Y-37140D01*
X32626Y-37140D01*
X32862Y-37043D01*
X33042Y-36863D01*
X33140Y-36627D01*
X33140Y-36569D01*
X33663Y-37093D01*
X33996Y-37231D01*
X30525Y-37231D01*
X30525Y-23324D01*
X30525Y-22675D01*
X30487Y-22583D01*
X30425Y-22521D01*
X30425Y-21915D01*
X30425Y-20915D01*
X30360Y-20759D01*
X30241Y-20639D01*
X30084Y-20575D01*
X29915Y-20574D01*
X29759Y-20639D01*
X29639Y-20758D01*
X29622Y-20800D01*
X26759Y-20800D01*
X26684Y-20724D01*
X26564Y-20675D01*
X26435Y-20674D01*
X26316Y-20724D01*
X26224Y-20815D01*
X26175Y-20935D01*
X26174Y-21064D01*
X26224Y-21183D01*
X26315Y-21275D01*
X26435Y-21324D01*
X26564Y-21325D01*
X26683Y-21275D01*
X26759Y-21200D01*
X29622Y-21200D01*
X29639Y-21240D01*
X29758Y-21360D01*
X29915Y-21424D01*
X30084Y-21425D01*
X30240Y-21360D01*
X30360Y-21241D01*
X30424Y-21084D01*
X30425Y-20915D01*
X30425Y-21915D01*
X30360Y-21759D01*
X30241Y-21639D01*
X30084Y-21575D01*
X29915Y-21574D01*
X29759Y-21639D01*
X29639Y-21758D01*
X29575Y-21915D01*
X29574Y-22084D01*
X29639Y-22240D01*
X29758Y-22360D01*
X29915Y-22424D01*
X30084Y-22425D01*
X30240Y-22360D01*
X30360Y-22241D01*
X30424Y-22084D01*
X30425Y-21915D01*
X30425Y-22521D01*
X30416Y-22513D01*
X30324Y-22475D01*
X30225Y-22474D01*
X30112Y-22475D01*
X30050Y-22537D01*
X30050Y-22950D01*
X30462Y-22950D01*
X30525Y-22887D01*
X30525Y-22675D01*
X30525Y-23324D01*
X30525Y-23112D01*
X30462Y-23050D01*
X30050Y-23050D01*
X30050Y-23462D01*
X30112Y-23525D01*
X30225Y-23525D01*
X30324Y-23524D01*
X30416Y-23486D01*
X30487Y-23416D01*
X30525Y-23324D01*
X30525Y-37231D01*
X29950Y-37231D01*
X29950Y-23462D01*
X29950Y-23050D01*
X29950Y-22950D01*
X29950Y-22537D01*
X29887Y-22475D01*
X29774Y-22474D01*
X29675Y-22475D01*
X29583Y-22513D01*
X29512Y-22583D01*
X29474Y-22675D01*
X29475Y-22887D01*
X29537Y-22950D01*
X29950Y-22950D01*
X29950Y-23050D01*
X29537Y-23050D01*
X29475Y-23112D01*
X29474Y-23324D01*
X29512Y-23416D01*
X29583Y-23486D01*
X29675Y-23524D01*
X29774Y-23525D01*
X29887Y-23525D01*
X29950Y-23462D01*
X29950Y-37231D01*
X27675Y-37231D01*
X27675Y-27415D01*
X27675Y-26415D01*
X27675Y-25415D01*
X27610Y-25259D01*
X27491Y-25139D01*
X27334Y-25075D01*
X27165Y-25074D01*
X27009Y-25139D01*
X26889Y-25258D01*
X26825Y-25415D01*
X26824Y-25584D01*
X26889Y-25740D01*
X27008Y-25860D01*
X27165Y-25924D01*
X27334Y-25925D01*
X27490Y-25860D01*
X27610Y-25741D01*
X27674Y-25584D01*
X27675Y-25415D01*
X27675Y-26415D01*
X27610Y-26259D01*
X27491Y-26139D01*
X27334Y-26075D01*
X27165Y-26074D01*
X27009Y-26139D01*
X26889Y-26258D01*
X26825Y-26415D01*
X26824Y-26584D01*
X26889Y-26740D01*
X27008Y-26860D01*
X27165Y-26924D01*
X27334Y-26925D01*
X27490Y-26860D01*
X27610Y-26741D01*
X27674Y-26584D01*
X27675Y-26415D01*
X27675Y-27415D01*
X27610Y-27259D01*
X27491Y-27139D01*
X27334Y-27075D01*
X27165Y-27074D01*
X27009Y-27139D01*
X26889Y-27258D01*
X26825Y-27415D01*
X26824Y-27584D01*
X26889Y-27740D01*
X27008Y-27860D01*
X27165Y-27924D01*
X27334Y-27925D01*
X27490Y-27860D01*
X27610Y-27741D01*
X27674Y-27584D01*
X27675Y-27415D01*
X27675Y-37231D01*
X27675Y-37231D01*
X27675Y-28745D01*
X27675Y-28195D01*
X27652Y-28140D01*
X27610Y-28097D01*
X27554Y-28075D01*
X27495Y-28074D01*
X26945Y-28074D01*
X26890Y-28097D01*
X26847Y-28139D01*
X26825Y-28195D01*
X26824Y-28254D01*
X26824Y-28804D01*
X26847Y-28859D01*
X26889Y-28902D01*
X26945Y-28924D01*
X27004Y-28925D01*
X27554Y-28925D01*
X27609Y-28902D01*
X27652Y-28860D01*
X27674Y-28804D01*
X27675Y-28745D01*
X27675Y-37231D01*
X24779Y-37231D01*
X24779Y-28575D01*
X24768Y-28367D01*
X24710Y-28227D01*
X24675Y-28217D01*
X24675Y-27415D01*
X24675Y-26415D01*
X24675Y-25415D01*
X24610Y-25259D01*
X24491Y-25139D01*
X24334Y-25075D01*
X24165Y-25074D01*
X24009Y-25139D01*
X23889Y-25258D01*
X23872Y-25300D01*
X23259Y-25300D01*
X23184Y-25224D01*
X23064Y-25175D01*
X22935Y-25174D01*
X22816Y-25224D01*
X22724Y-25315D01*
X22675Y-25435D01*
X22674Y-25564D01*
X22724Y-25683D01*
X22815Y-25775D01*
X22935Y-25824D01*
X23064Y-25825D01*
X23183Y-25775D01*
X23259Y-25700D01*
X23872Y-25700D01*
X23889Y-25740D01*
X24008Y-25860D01*
X24165Y-25924D01*
X24334Y-25925D01*
X24490Y-25860D01*
X24610Y-25741D01*
X24674Y-25584D01*
X24675Y-25415D01*
X24675Y-26415D01*
X24610Y-26259D01*
X24491Y-26139D01*
X24334Y-26075D01*
X24165Y-26074D01*
X24009Y-26139D01*
X23889Y-26258D01*
X23872Y-26300D01*
X22759Y-26300D01*
X22684Y-26224D01*
X22564Y-26175D01*
X22435Y-26174D01*
X22316Y-26224D01*
X22224Y-26315D01*
X22175Y-26435D01*
X22174Y-26564D01*
X22224Y-26683D01*
X22315Y-26775D01*
X22435Y-26824D01*
X22564Y-26825D01*
X22683Y-26775D01*
X22759Y-26700D01*
X23872Y-26700D01*
X23889Y-26740D01*
X24008Y-26860D01*
X24165Y-26924D01*
X24334Y-26925D01*
X24490Y-26860D01*
X24610Y-26741D01*
X24674Y-26584D01*
X24675Y-26415D01*
X24675Y-27415D01*
X24610Y-27259D01*
X24491Y-27139D01*
X24334Y-27075D01*
X24165Y-27074D01*
X24009Y-27139D01*
X23889Y-27258D01*
X23825Y-27415D01*
X23824Y-27584D01*
X23889Y-27740D01*
X24008Y-27860D01*
X24165Y-27924D01*
X24334Y-27925D01*
X24490Y-27860D01*
X24610Y-27741D01*
X24674Y-27584D01*
X24675Y-27415D01*
X24675Y-28217D01*
X24617Y-28202D01*
X24547Y-28273D01*
X24547Y-28132D01*
X24522Y-28039D01*
X24325Y-27970D01*
X24117Y-27981D01*
X23977Y-28039D01*
X23952Y-28132D01*
X24250Y-28429D01*
X24547Y-28132D01*
X24547Y-28273D01*
X24320Y-28500D01*
X24617Y-28797D01*
X24710Y-28772D01*
X24779Y-28575D01*
X24779Y-37231D01*
X24547Y-37231D01*
X24547Y-28867D01*
X24250Y-28570D01*
X24179Y-28641D01*
X24179Y-28500D01*
X23882Y-28202D01*
X23789Y-28227D01*
X23720Y-28424D01*
X23731Y-28632D01*
X23789Y-28772D01*
X23882Y-28797D01*
X24179Y-28500D01*
X24179Y-28641D01*
X23952Y-28867D01*
X23977Y-28960D01*
X24174Y-29029D01*
X24382Y-29018D01*
X24522Y-28960D01*
X24547Y-28867D01*
X24547Y-37231D01*
X19925Y-37231D01*
X19925Y-23915D01*
X19925Y-22915D01*
X19925Y-21915D01*
X19925Y-20915D01*
X19925Y-19915D01*
X19860Y-19759D01*
X19741Y-19639D01*
X19584Y-19575D01*
X19415Y-19574D01*
X19259Y-19639D01*
X19139Y-19758D01*
X19075Y-19915D01*
X19074Y-20084D01*
X19139Y-20240D01*
X19258Y-20360D01*
X19415Y-20424D01*
X19584Y-20425D01*
X19740Y-20360D01*
X19860Y-20241D01*
X19924Y-20084D01*
X19925Y-19915D01*
X19925Y-20915D01*
X19860Y-20759D01*
X19741Y-20639D01*
X19584Y-20575D01*
X19415Y-20574D01*
X19259Y-20639D01*
X19139Y-20758D01*
X19075Y-20915D01*
X19074Y-21084D01*
X19139Y-21240D01*
X19258Y-21360D01*
X19415Y-21424D01*
X19584Y-21425D01*
X19740Y-21360D01*
X19860Y-21241D01*
X19924Y-21084D01*
X19925Y-20915D01*
X19925Y-21915D01*
X19860Y-21759D01*
X19741Y-21639D01*
X19584Y-21575D01*
X19415Y-21574D01*
X19259Y-21639D01*
X19139Y-21758D01*
X19075Y-21915D01*
X19074Y-22084D01*
X19139Y-22240D01*
X19258Y-22360D01*
X19415Y-22424D01*
X19584Y-22425D01*
X19740Y-22360D01*
X19860Y-22241D01*
X19924Y-22084D01*
X19925Y-21915D01*
X19925Y-22915D01*
X19860Y-22759D01*
X19741Y-22639D01*
X19584Y-22575D01*
X19415Y-22574D01*
X19259Y-22639D01*
X19139Y-22758D01*
X19075Y-22915D01*
X19074Y-23084D01*
X19139Y-23240D01*
X19258Y-23360D01*
X19415Y-23424D01*
X19584Y-23425D01*
X19740Y-23360D01*
X19860Y-23241D01*
X19924Y-23084D01*
X19925Y-22915D01*
X19925Y-23915D01*
X19860Y-23759D01*
X19741Y-23639D01*
X19584Y-23575D01*
X19415Y-23574D01*
X19259Y-23639D01*
X19139Y-23758D01*
X19075Y-23915D01*
X19074Y-24084D01*
X19139Y-24240D01*
X19258Y-24360D01*
X19415Y-24424D01*
X19584Y-24425D01*
X19740Y-24360D01*
X19860Y-24241D01*
X19924Y-24084D01*
X19925Y-23915D01*
X19925Y-37231D01*
X19925Y-37231D01*
X19925Y-25245D01*
X19925Y-24695D01*
X19902Y-24640D01*
X19860Y-24597D01*
X19804Y-24575D01*
X19745Y-24574D01*
X19195Y-24574D01*
X19140Y-24597D01*
X19097Y-24639D01*
X19075Y-24695D01*
X19074Y-24754D01*
X19074Y-25304D01*
X19097Y-25359D01*
X19139Y-25402D01*
X19195Y-25424D01*
X19254Y-25425D01*
X19804Y-25425D01*
X19859Y-25402D01*
X19902Y-25360D01*
X19924Y-25304D01*
X19925Y-25245D01*
X19925Y-37231D01*
X16925Y-37231D01*
X16925Y-24915D01*
X16860Y-24759D01*
X16741Y-24639D01*
X16584Y-24575D01*
X16415Y-24574D01*
X16259Y-24639D01*
X16139Y-24758D01*
X16122Y-24800D01*
X8582Y-24800D01*
X7222Y-23439D01*
X7157Y-23396D01*
X7080Y-23380D01*
X5806Y-23380D01*
X5881Y-23306D01*
X5904Y-23250D01*
X7467Y-23250D01*
X8358Y-24141D01*
X8358Y-24141D01*
X8401Y-24170D01*
X8423Y-24184D01*
X8423Y-24184D01*
X8499Y-24199D01*
X8500Y-24200D01*
X16122Y-24200D01*
X16139Y-24240D01*
X16258Y-24360D01*
X16415Y-24424D01*
X16584Y-24425D01*
X16740Y-24360D01*
X16860Y-24241D01*
X16924Y-24084D01*
X16925Y-23915D01*
X16860Y-23759D01*
X16741Y-23639D01*
X16584Y-23575D01*
X16415Y-23574D01*
X16259Y-23639D01*
X16139Y-23758D01*
X16122Y-23800D01*
X8582Y-23800D01*
X7692Y-22909D01*
X7627Y-22866D01*
X7550Y-22850D01*
X5904Y-22850D01*
X5881Y-22796D01*
X5766Y-22680D01*
X7897Y-22680D01*
X8358Y-23141D01*
X8358Y-23141D01*
X8401Y-23170D01*
X8423Y-23184D01*
X8423Y-23184D01*
X8499Y-23199D01*
X8500Y-23200D01*
X16122Y-23200D01*
X16139Y-23240D01*
X16258Y-23360D01*
X16415Y-23424D01*
X16584Y-23425D01*
X16740Y-23360D01*
X16860Y-23241D01*
X16924Y-23084D01*
X16925Y-22915D01*
X16860Y-22759D01*
X16741Y-22639D01*
X16584Y-22575D01*
X16415Y-22574D01*
X16259Y-22639D01*
X16139Y-22758D01*
X16122Y-22800D01*
X8582Y-22800D01*
X8122Y-22339D01*
X8057Y-22296D01*
X7980Y-22280D01*
X5806Y-22280D01*
X5881Y-22206D01*
X5904Y-22150D01*
X16102Y-22150D01*
X16139Y-22240D01*
X16258Y-22360D01*
X16415Y-22424D01*
X16584Y-22425D01*
X16740Y-22360D01*
X16860Y-22241D01*
X16924Y-22084D01*
X16925Y-21915D01*
X16860Y-21759D01*
X16741Y-21639D01*
X16584Y-21575D01*
X16415Y-21574D01*
X16259Y-21639D01*
X16148Y-21750D01*
X5904Y-21750D01*
X5881Y-21696D01*
X5786Y-21600D01*
X15099Y-21600D01*
X15175Y-21585D01*
X15240Y-21542D01*
X15582Y-21200D01*
X16122Y-21200D01*
X16139Y-21240D01*
X16258Y-21360D01*
X16415Y-21424D01*
X16584Y-21425D01*
X16740Y-21360D01*
X16860Y-21241D01*
X16924Y-21084D01*
X16925Y-20915D01*
X16860Y-20759D01*
X16741Y-20639D01*
X16584Y-20575D01*
X16415Y-20574D01*
X16259Y-20639D01*
X16139Y-20758D01*
X16122Y-20800D01*
X15500Y-20800D01*
X15436Y-20812D01*
X15423Y-20815D01*
X15358Y-20858D01*
X15016Y-21200D01*
X5786Y-21200D01*
X5881Y-21106D01*
X5904Y-21050D01*
X14649Y-21050D01*
X14725Y-21035D01*
X14790Y-20992D01*
X15582Y-20200D01*
X16122Y-20200D01*
X16139Y-20240D01*
X16258Y-20360D01*
X16415Y-20424D01*
X16584Y-20425D01*
X16740Y-20360D01*
X16860Y-20241D01*
X16924Y-20084D01*
X16925Y-19915D01*
X16860Y-19759D01*
X16741Y-19639D01*
X16584Y-19575D01*
X16415Y-19574D01*
X16259Y-19639D01*
X16139Y-19758D01*
X16122Y-19800D01*
X15500Y-19800D01*
X15423Y-19815D01*
X15401Y-19829D01*
X15358Y-19858D01*
X14566Y-20650D01*
X5904Y-20650D01*
X5881Y-20596D01*
X5806Y-20520D01*
X14179Y-20520D01*
X14255Y-20505D01*
X14320Y-20462D01*
X15582Y-19200D01*
X16122Y-19200D01*
X16139Y-19240D01*
X16258Y-19360D01*
X16415Y-19424D01*
X16584Y-19425D01*
X16740Y-19360D01*
X16860Y-19241D01*
X16924Y-19084D01*
X16925Y-18915D01*
X16860Y-18759D01*
X16741Y-18639D01*
X16584Y-18575D01*
X16415Y-18574D01*
X16259Y-18639D01*
X16139Y-18758D01*
X16122Y-18800D01*
X15500Y-18800D01*
X15423Y-18815D01*
X15401Y-18829D01*
X15358Y-18858D01*
X14096Y-20120D01*
X5766Y-20120D01*
X5881Y-20006D01*
X5904Y-19950D01*
X13249Y-19950D01*
X13325Y-19935D01*
X13390Y-19892D01*
X15082Y-18200D01*
X16122Y-18200D01*
X16139Y-18240D01*
X16258Y-18360D01*
X16415Y-18424D01*
X16584Y-18425D01*
X16740Y-18360D01*
X16860Y-18241D01*
X16924Y-18084D01*
X16925Y-17915D01*
X16860Y-17759D01*
X16741Y-17639D01*
X16584Y-17575D01*
X16415Y-17574D01*
X16259Y-17639D01*
X16139Y-17758D01*
X16122Y-17800D01*
X15000Y-17800D01*
X14923Y-17815D01*
X14901Y-17829D01*
X14858Y-17858D01*
X13166Y-19550D01*
X5950Y-19550D01*
X5950Y-18611D01*
X5950Y-17511D01*
X5950Y-16411D01*
X5950Y-15311D01*
X5950Y-14261D01*
X5950Y-13161D01*
X5950Y-12061D01*
X5890Y-11917D01*
X5890Y-1373D01*
X5793Y-1137D01*
X5613Y-957D01*
X5377Y-859D01*
X5123Y-859D01*
X4887Y-956D01*
X4707Y-1136D01*
X4609Y-1372D01*
X4609Y-1626D01*
X4706Y-1862D01*
X4886Y-2042D01*
X5122Y-2140D01*
X5376Y-2140D01*
X5612Y-2043D01*
X5792Y-1863D01*
X5890Y-1627D01*
X5890Y-1373D01*
X5890Y-11917D01*
X5881Y-11896D01*
X5755Y-11769D01*
X5589Y-11700D01*
X5410Y-11700D01*
X5400Y-11705D01*
X5400Y-9272D01*
X5263Y-8941D01*
X5010Y-8688D01*
X4679Y-8550D01*
X4321Y-8550D01*
X3990Y-8687D01*
X3737Y-8940D01*
X3600Y-9270D01*
X3599Y-9629D01*
X3736Y-9959D01*
X3989Y-10213D01*
X4320Y-10350D01*
X4678Y-10350D01*
X5009Y-10214D01*
X5262Y-9961D01*
X5399Y-9630D01*
X5400Y-9272D01*
X5400Y-11705D01*
X5245Y-11769D01*
X5118Y-11895D01*
X5050Y-12060D01*
X5049Y-12239D01*
X5118Y-12405D01*
X5244Y-12532D01*
X5410Y-12600D01*
X5589Y-12600D01*
X5754Y-12532D01*
X5881Y-12406D01*
X5949Y-12240D01*
X5950Y-12061D01*
X5950Y-13161D01*
X5881Y-12996D01*
X5755Y-12869D01*
X5589Y-12800D01*
X5410Y-12800D01*
X5245Y-12869D01*
X5118Y-12995D01*
X5050Y-13160D01*
X5049Y-13339D01*
X5118Y-13505D01*
X5244Y-13632D01*
X5410Y-13700D01*
X5589Y-13700D01*
X5754Y-13632D01*
X5881Y-13506D01*
X5949Y-13340D01*
X5950Y-13161D01*
X5950Y-14261D01*
X5881Y-14096D01*
X5755Y-13969D01*
X5589Y-13900D01*
X5410Y-13900D01*
X5245Y-13969D01*
X5118Y-14095D01*
X5050Y-14260D01*
X5049Y-14439D01*
X5118Y-14605D01*
X5244Y-14732D01*
X5410Y-14800D01*
X5589Y-14800D01*
X5754Y-14732D01*
X5881Y-14606D01*
X5949Y-14440D01*
X5950Y-14261D01*
X5950Y-15311D01*
X5881Y-15146D01*
X5755Y-15019D01*
X5589Y-14950D01*
X5410Y-14950D01*
X5245Y-15019D01*
X5118Y-15145D01*
X5050Y-15310D01*
X5049Y-15489D01*
X5118Y-15655D01*
X5244Y-15782D01*
X5410Y-15850D01*
X5589Y-15850D01*
X5754Y-15782D01*
X5881Y-15656D01*
X5949Y-15490D01*
X5950Y-15311D01*
X5950Y-16411D01*
X5881Y-16246D01*
X5755Y-16119D01*
X5589Y-16050D01*
X5410Y-16050D01*
X5245Y-16119D01*
X5118Y-16245D01*
X5050Y-16410D01*
X5049Y-16589D01*
X5118Y-16755D01*
X5244Y-16882D01*
X5410Y-16950D01*
X5589Y-16950D01*
X5754Y-16882D01*
X5881Y-16756D01*
X5949Y-16590D01*
X5950Y-16411D01*
X5950Y-17511D01*
X5881Y-17346D01*
X5755Y-17219D01*
X5589Y-17150D01*
X5410Y-17150D01*
X5245Y-17219D01*
X5118Y-17345D01*
X5050Y-17510D01*
X5049Y-17689D01*
X5118Y-17855D01*
X5244Y-17982D01*
X5410Y-18050D01*
X5589Y-18050D01*
X5754Y-17982D01*
X5881Y-17856D01*
X5949Y-17690D01*
X5950Y-17511D01*
X5950Y-18611D01*
X5881Y-18446D01*
X5755Y-18319D01*
X5589Y-18250D01*
X5410Y-18250D01*
X5245Y-18319D01*
X5118Y-18445D01*
X5050Y-18610D01*
X5049Y-18789D01*
X5118Y-18955D01*
X5244Y-19082D01*
X5410Y-19150D01*
X5589Y-19150D01*
X5754Y-19082D01*
X5881Y-18956D01*
X5949Y-18790D01*
X5950Y-18611D01*
X5950Y-19550D01*
X5904Y-19550D01*
X5881Y-19496D01*
X5755Y-19369D01*
X5589Y-19300D01*
X5410Y-19300D01*
X5245Y-19369D01*
X5118Y-19495D01*
X5050Y-19660D01*
X5049Y-19839D01*
X5118Y-20005D01*
X5233Y-20120D01*
X4950Y-20120D01*
X4950Y-19131D01*
X4950Y-18051D01*
X4950Y-16971D01*
X4950Y-15851D01*
X4950Y-14791D01*
X4950Y-13711D01*
X4950Y-12611D01*
X4881Y-12446D01*
X4755Y-12319D01*
X4589Y-12250D01*
X4410Y-12250D01*
X4245Y-12319D01*
X4118Y-12445D01*
X4050Y-12610D01*
X4049Y-12789D01*
X4118Y-12955D01*
X4244Y-13082D01*
X4410Y-13150D01*
X4589Y-13150D01*
X4754Y-13082D01*
X4881Y-12956D01*
X4949Y-12790D01*
X4950Y-12611D01*
X4950Y-13711D01*
X4881Y-13546D01*
X4755Y-13419D01*
X4589Y-13350D01*
X4410Y-13350D01*
X4245Y-13419D01*
X4118Y-13545D01*
X4050Y-13710D01*
X4049Y-13889D01*
X4118Y-14055D01*
X4244Y-14182D01*
X4410Y-14250D01*
X4589Y-14250D01*
X4754Y-14182D01*
X4881Y-14056D01*
X4949Y-13890D01*
X4950Y-13711D01*
X4950Y-14791D01*
X4881Y-14626D01*
X4755Y-14499D01*
X4589Y-14430D01*
X4410Y-14430D01*
X4245Y-14499D01*
X4118Y-14625D01*
X4050Y-14790D01*
X4049Y-14969D01*
X4118Y-15135D01*
X4244Y-15262D01*
X4410Y-15330D01*
X4589Y-15330D01*
X4754Y-15262D01*
X4881Y-15136D01*
X4949Y-14970D01*
X4950Y-14791D01*
X4950Y-15851D01*
X4881Y-15686D01*
X4755Y-15559D01*
X4589Y-15490D01*
X4410Y-15490D01*
X4245Y-15559D01*
X4118Y-15685D01*
X4050Y-15850D01*
X4049Y-16029D01*
X4118Y-16195D01*
X4244Y-16322D01*
X4410Y-16390D01*
X4589Y-16390D01*
X4754Y-16322D01*
X4881Y-16196D01*
X4949Y-16030D01*
X4950Y-15851D01*
X4950Y-16971D01*
X4881Y-16806D01*
X4755Y-16679D01*
X4589Y-16610D01*
X4410Y-16610D01*
X4245Y-16679D01*
X4118Y-16805D01*
X4050Y-16970D01*
X4049Y-17149D01*
X4118Y-17315D01*
X4244Y-17442D01*
X4410Y-17510D01*
X4589Y-17510D01*
X4754Y-17442D01*
X4881Y-17316D01*
X4949Y-17150D01*
X4950Y-16971D01*
X4950Y-18051D01*
X4881Y-17886D01*
X4755Y-17759D01*
X4589Y-17690D01*
X4410Y-17690D01*
X4245Y-17759D01*
X4118Y-17885D01*
X4050Y-18050D01*
X4049Y-18229D01*
X4118Y-18395D01*
X4244Y-18522D01*
X4410Y-18590D01*
X4589Y-18590D01*
X4754Y-18522D01*
X4881Y-18396D01*
X4949Y-18230D01*
X4950Y-18051D01*
X4950Y-19131D01*
X4881Y-18966D01*
X4755Y-18839D01*
X4589Y-18770D01*
X4410Y-18770D01*
X4245Y-18839D01*
X4118Y-18965D01*
X4050Y-19130D01*
X4049Y-19309D01*
X4118Y-19475D01*
X4244Y-19602D01*
X4410Y-19670D01*
X4589Y-19670D01*
X4754Y-19602D01*
X4881Y-19476D01*
X4949Y-19310D01*
X4950Y-19131D01*
X4950Y-20120D01*
X4904Y-20120D01*
X4881Y-20066D01*
X4755Y-19939D01*
X4589Y-19870D01*
X4410Y-19870D01*
X4245Y-19939D01*
X4118Y-20065D01*
X4050Y-20230D01*
X4049Y-20409D01*
X4118Y-20575D01*
X4244Y-20702D01*
X4410Y-20770D01*
X4589Y-20770D01*
X4754Y-20702D01*
X4881Y-20576D01*
X4904Y-20520D01*
X5193Y-20520D01*
X5118Y-20595D01*
X5050Y-20760D01*
X5049Y-20939D01*
X5118Y-21105D01*
X5213Y-21200D01*
X4904Y-21200D01*
X4881Y-21146D01*
X4755Y-21019D01*
X4589Y-20950D01*
X4410Y-20950D01*
X4245Y-21019D01*
X4118Y-21145D01*
X4050Y-21310D01*
X4049Y-21489D01*
X4118Y-21655D01*
X4244Y-21782D01*
X4410Y-21850D01*
X4589Y-21850D01*
X4754Y-21782D01*
X4881Y-21656D01*
X4904Y-21600D01*
X5213Y-21600D01*
X5118Y-21695D01*
X5050Y-21860D01*
X5049Y-22039D01*
X5118Y-22205D01*
X5193Y-22280D01*
X4904Y-22280D01*
X4881Y-22226D01*
X4755Y-22099D01*
X4589Y-22030D01*
X4410Y-22030D01*
X4245Y-22099D01*
X4118Y-22225D01*
X4050Y-22390D01*
X4049Y-22569D01*
X4118Y-22735D01*
X4244Y-22862D01*
X4410Y-22930D01*
X4589Y-22930D01*
X4754Y-22862D01*
X4881Y-22736D01*
X4904Y-22680D01*
X5233Y-22680D01*
X5118Y-22795D01*
X5050Y-22960D01*
X5049Y-23139D01*
X5118Y-23305D01*
X5193Y-23380D01*
X4904Y-23380D01*
X4881Y-23326D01*
X4755Y-23199D01*
X4589Y-23130D01*
X4410Y-23130D01*
X4245Y-23199D01*
X4118Y-23325D01*
X4050Y-23490D01*
X4049Y-23669D01*
X4118Y-23835D01*
X4244Y-23962D01*
X4410Y-24030D01*
X4589Y-24030D01*
X4754Y-23962D01*
X4881Y-23836D01*
X4904Y-23780D01*
X5183Y-23780D01*
X5118Y-23845D01*
X5050Y-24010D01*
X5049Y-24189D01*
X5118Y-24355D01*
X5244Y-24482D01*
X5300Y-24504D01*
X5300Y-24717D01*
X5021Y-24439D01*
X4956Y-24396D01*
X4906Y-24386D01*
X4881Y-24326D01*
X4755Y-24199D01*
X4589Y-24130D01*
X4410Y-24130D01*
X4245Y-24199D01*
X4118Y-24325D01*
X4050Y-24490D01*
X4049Y-24669D01*
X4118Y-24835D01*
X4244Y-24962D01*
X4410Y-25030D01*
X4589Y-25030D01*
X4754Y-24962D01*
X4866Y-24850D01*
X5049Y-25033D01*
X5049Y-25530D01*
X5072Y-25585D01*
X5114Y-25627D01*
X5170Y-25650D01*
X5229Y-25650D01*
X5829Y-25650D01*
X5884Y-25628D01*
X5927Y-25585D01*
X5949Y-25530D01*
X5950Y-25471D01*
X5950Y-25400D01*
X6117Y-25400D01*
X9358Y-28641D01*
X9358Y-28641D01*
X9401Y-28670D01*
X9423Y-28684D01*
X9423Y-28684D01*
X9500Y-28700D01*
X10399Y-28700D01*
X10399Y-28929D01*
X10422Y-28984D01*
X10464Y-29027D01*
X10520Y-29049D01*
X10579Y-29050D01*
X11179Y-29050D01*
X11234Y-29027D01*
X11277Y-28985D01*
X11299Y-28929D01*
X11300Y-28870D01*
X11300Y-28070D01*
X11277Y-28015D01*
X11235Y-27972D01*
X11179Y-27950D01*
X11120Y-27949D01*
X10520Y-27949D01*
X10465Y-27972D01*
X10422Y-28014D01*
X10400Y-28070D01*
X10399Y-28129D01*
X10399Y-28300D01*
X9582Y-28300D01*
X6342Y-25059D01*
X6277Y-25016D01*
X6200Y-25000D01*
X5950Y-25000D01*
X5950Y-24871D01*
X5927Y-24815D01*
X5885Y-24773D01*
X5829Y-24750D01*
X5770Y-24750D01*
X5700Y-24750D01*
X5700Y-24505D01*
X5754Y-24482D01*
X5881Y-24356D01*
X5949Y-24190D01*
X5950Y-24011D01*
X5881Y-23846D01*
X5816Y-23780D01*
X6997Y-23780D01*
X8358Y-25141D01*
X8423Y-25184D01*
X8500Y-25200D01*
X16122Y-25200D01*
X16139Y-25240D01*
X16258Y-25360D01*
X16415Y-25424D01*
X16584Y-25425D01*
X16740Y-25360D01*
X16860Y-25241D01*
X16924Y-25084D01*
X16925Y-24915D01*
X16925Y-37231D01*
X12700Y-37231D01*
X12700Y-28850D01*
X12700Y-28149D01*
X12699Y-28050D01*
X12661Y-27958D01*
X12591Y-27887D01*
X12499Y-27849D01*
X12262Y-27850D01*
X12200Y-27912D01*
X12200Y-28450D01*
X12637Y-28450D01*
X12700Y-28387D01*
X12700Y-28149D01*
X12700Y-28850D01*
X12700Y-28612D01*
X12637Y-28550D01*
X12200Y-28550D01*
X12200Y-29087D01*
X12262Y-29150D01*
X12499Y-29150D01*
X12591Y-29112D01*
X12661Y-29041D01*
X12699Y-28949D01*
X12700Y-28850D01*
X12700Y-37231D01*
X12100Y-37231D01*
X12100Y-29087D01*
X12100Y-28550D01*
X12100Y-28450D01*
X12100Y-27912D01*
X12037Y-27850D01*
X11800Y-27849D01*
X11708Y-27887D01*
X11638Y-27958D01*
X11600Y-28050D01*
X11599Y-28149D01*
X11600Y-28387D01*
X11662Y-28450D01*
X12100Y-28450D01*
X12100Y-28550D01*
X11662Y-28550D01*
X11600Y-28612D01*
X11599Y-28850D01*
X11600Y-28949D01*
X11638Y-29041D01*
X11708Y-29112D01*
X11800Y-29150D01*
X12037Y-29150D01*
X12100Y-29087D01*
X12100Y-37231D01*
X5400Y-37231D01*
X5400Y-27772D01*
X5263Y-27441D01*
X5010Y-27188D01*
X4679Y-27050D01*
X4321Y-27050D01*
X3990Y-27187D01*
X3737Y-27440D01*
X3600Y-27770D01*
X3599Y-28129D01*
X3736Y-28459D01*
X3989Y-28713D01*
X4320Y-28850D01*
X4678Y-28850D01*
X5009Y-28714D01*
X5262Y-28461D01*
X5399Y-28130D01*
X5400Y-27772D01*
X5400Y-37231D01*
X2374Y-37231D01*
X2235Y-37204D01*
X2095Y-37064D01*
X2763Y-37064D01*
X3507Y-36757D01*
X4077Y-36187D01*
X4386Y-35443D01*
X4387Y-34638D01*
X4079Y-33893D01*
X3510Y-33323D01*
X2766Y-33014D01*
X1961Y-33014D01*
X1216Y-33321D01*
X646Y-33890D01*
X337Y-34634D01*
X336Y-35305D01*
X198Y-35167D01*
X169Y-35022D01*
X169Y-2378D01*
X192Y-2262D01*
X337Y-2138D01*
X336Y-2763D01*
X644Y-3507D01*
X1213Y-4077D01*
X1957Y-4386D01*
X2763Y-4387D01*
X3507Y-4079D01*
X4077Y-3510D01*
X4386Y-2766D01*
X4387Y-1961D01*
X4079Y-1216D01*
X3510Y-646D01*
X2766Y-337D01*
X2439Y-337D01*
X2634Y-169D01*
X33995Y-169D01*
X33667Y-305D01*
X32984Y-986D01*
X32614Y-1877D01*
X32613Y-2842D01*
X32982Y-3734D01*
X33663Y-4416D01*
X34554Y-4786D01*
X35519Y-4787D01*
X36411Y-4419D01*
X37093Y-3737D01*
X37231Y-3405D01*
X37231Y-19949D01*
X35841Y-18558D01*
X35776Y-18515D01*
X35700Y-18500D01*
X35554Y-18500D01*
X35554Y-17081D01*
X35554Y-7581D01*
X35543Y-7363D01*
X35481Y-7212D01*
X35450Y-7203D01*
X35450Y-6410D01*
X35381Y-6245D01*
X35255Y-6118D01*
X35089Y-6050D01*
X34910Y-6049D01*
X34745Y-6118D01*
X34618Y-6244D01*
X34550Y-6410D01*
X34549Y-6589D01*
X34618Y-6754D01*
X34744Y-6881D01*
X34910Y-6949D01*
X34986Y-6949D01*
X34863Y-6956D01*
X34712Y-7018D01*
X34684Y-7114D01*
X35000Y-7429D01*
X35315Y-7114D01*
X35287Y-7018D01*
X35092Y-6948D01*
X35254Y-6881D01*
X35381Y-6755D01*
X35449Y-6589D01*
X35450Y-6410D01*
X35450Y-7203D01*
X35385Y-7184D01*
X35070Y-7500D01*
X35385Y-7815D01*
X35481Y-7787D01*
X35554Y-7581D01*
X35554Y-17081D01*
X35543Y-16863D01*
X35481Y-16712D01*
X35450Y-16703D01*
X35450Y-15910D01*
X35450Y-14910D01*
X35450Y-14910D01*
X35450Y-8770D01*
X35450Y-8170D01*
X35427Y-8115D01*
X35385Y-8072D01*
X35329Y-8050D01*
X35270Y-8049D01*
X35014Y-8049D01*
X35136Y-8043D01*
X35287Y-7981D01*
X35315Y-7885D01*
X35000Y-7570D01*
X34929Y-7641D01*
X34929Y-7500D01*
X34614Y-7184D01*
X34518Y-7212D01*
X34445Y-7418D01*
X34456Y-7636D01*
X34518Y-7787D01*
X34614Y-7815D01*
X34929Y-7500D01*
X34929Y-7641D01*
X34684Y-7885D01*
X34712Y-7981D01*
X34904Y-8049D01*
X34670Y-8049D01*
X34615Y-8072D01*
X34572Y-8114D01*
X34550Y-8170D01*
X34549Y-8229D01*
X34549Y-8829D01*
X34572Y-8884D01*
X34614Y-8927D01*
X34670Y-8949D01*
X34729Y-8950D01*
X35329Y-8950D01*
X35384Y-8927D01*
X35427Y-8885D01*
X35449Y-8829D01*
X35450Y-8770D01*
X35450Y-14910D01*
X35381Y-14745D01*
X35255Y-14618D01*
X35089Y-14550D01*
X34910Y-14549D01*
X34745Y-14618D01*
X34618Y-14744D01*
X34595Y-14800D01*
X33404Y-14800D01*
X33381Y-14745D01*
X33325Y-14688D01*
X33325Y-11935D01*
X33275Y-11816D01*
X33184Y-11724D01*
X33064Y-11675D01*
X32935Y-11674D01*
X32816Y-11724D01*
X32740Y-11800D01*
X28625Y-11800D01*
X28683Y-11775D01*
X28775Y-11684D01*
X28824Y-11564D01*
X28825Y-11435D01*
X28775Y-11316D01*
X28684Y-11224D01*
X28564Y-11175D01*
X28435Y-11174D01*
X28316Y-11224D01*
X28240Y-11300D01*
X25000Y-11300D01*
X17500Y-11300D01*
X17000Y-11300D01*
X16936Y-11312D01*
X16923Y-11315D01*
X16858Y-11358D01*
X16625Y-11591D01*
X16584Y-11575D01*
X16415Y-11574D01*
X16259Y-11639D01*
X16139Y-11758D01*
X16075Y-11915D01*
X16074Y-12084D01*
X16139Y-12240D01*
X16258Y-12360D01*
X16415Y-12424D01*
X16584Y-12425D01*
X16740Y-12360D01*
X16860Y-12241D01*
X16924Y-12084D01*
X16925Y-11915D01*
X16908Y-11874D01*
X17082Y-11700D01*
X17500Y-11700D01*
X19198Y-11700D01*
X19139Y-11758D01*
X19075Y-11915D01*
X19074Y-12084D01*
X19139Y-12240D01*
X19198Y-12300D01*
X17500Y-12300D01*
X17436Y-12312D01*
X17423Y-12315D01*
X17358Y-12358D01*
X16917Y-12800D01*
X16877Y-12800D01*
X16860Y-12759D01*
X16741Y-12639D01*
X16584Y-12575D01*
X16415Y-12574D01*
X16259Y-12639D01*
X16139Y-12758D01*
X16075Y-12915D01*
X16074Y-13084D01*
X16139Y-13240D01*
X16258Y-13360D01*
X16415Y-13424D01*
X16584Y-13425D01*
X16740Y-13360D01*
X16860Y-13241D01*
X16877Y-13200D01*
X17000Y-13200D01*
X17076Y-13184D01*
X17141Y-13141D01*
X17582Y-12700D01*
X19198Y-12700D01*
X19139Y-12758D01*
X19075Y-12915D01*
X19074Y-13084D01*
X19139Y-13240D01*
X19198Y-13300D01*
X17500Y-13300D01*
X17436Y-13312D01*
X17423Y-13315D01*
X17358Y-13358D01*
X16917Y-13800D01*
X16877Y-13800D01*
X16860Y-13759D01*
X16741Y-13639D01*
X16584Y-13575D01*
X16415Y-13574D01*
X16259Y-13639D01*
X16139Y-13758D01*
X16075Y-13915D01*
X16074Y-14084D01*
X16139Y-14240D01*
X16258Y-14360D01*
X16415Y-14424D01*
X16584Y-14425D01*
X16740Y-14360D01*
X16860Y-14241D01*
X16877Y-14200D01*
X17000Y-14200D01*
X17076Y-14184D01*
X17141Y-14141D01*
X17582Y-13700D01*
X19198Y-13700D01*
X19139Y-13758D01*
X19075Y-13915D01*
X19074Y-14084D01*
X19139Y-14240D01*
X19198Y-14300D01*
X17750Y-14300D01*
X17686Y-14312D01*
X17673Y-14315D01*
X17608Y-14358D01*
X17167Y-14800D01*
X16877Y-14800D01*
X16860Y-14759D01*
X16741Y-14639D01*
X16584Y-14575D01*
X16415Y-14574D01*
X16259Y-14639D01*
X16139Y-14758D01*
X16075Y-14915D01*
X16074Y-15084D01*
X16139Y-15240D01*
X16258Y-15360D01*
X16415Y-15424D01*
X16584Y-15425D01*
X16740Y-15360D01*
X16860Y-15241D01*
X16877Y-15200D01*
X17250Y-15200D01*
X17326Y-15184D01*
X17391Y-15141D01*
X17832Y-14700D01*
X19198Y-14700D01*
X19139Y-14758D01*
X19075Y-14915D01*
X19074Y-15084D01*
X19139Y-15240D01*
X19258Y-15360D01*
X19415Y-15424D01*
X19584Y-15425D01*
X19740Y-15360D01*
X19860Y-15241D01*
X19924Y-15084D01*
X19925Y-14915D01*
X19860Y-14759D01*
X19801Y-14700D01*
X26240Y-14700D01*
X26315Y-14775D01*
X26435Y-14824D01*
X26564Y-14825D01*
X26683Y-14775D01*
X26775Y-14684D01*
X26824Y-14564D01*
X26825Y-14435D01*
X26775Y-14316D01*
X26684Y-14224D01*
X26564Y-14175D01*
X26435Y-14174D01*
X26316Y-14224D01*
X26240Y-14300D01*
X26125Y-14300D01*
X26183Y-14275D01*
X26275Y-14184D01*
X26324Y-14064D01*
X26325Y-13935D01*
X26275Y-13816D01*
X26184Y-13724D01*
X26125Y-13700D01*
X26740Y-13700D01*
X26815Y-13775D01*
X26935Y-13824D01*
X27064Y-13825D01*
X27183Y-13775D01*
X27275Y-13684D01*
X27324Y-13564D01*
X27325Y-13435D01*
X27275Y-13316D01*
X27184Y-13224D01*
X27125Y-13200D01*
X27740Y-13200D01*
X27815Y-13275D01*
X27935Y-13324D01*
X28064Y-13325D01*
X28183Y-13275D01*
X28275Y-13184D01*
X28324Y-13064D01*
X28325Y-12935D01*
X28275Y-12816D01*
X28184Y-12724D01*
X28064Y-12675D01*
X27935Y-12674D01*
X27816Y-12724D01*
X27740Y-12800D01*
X27625Y-12800D01*
X27683Y-12775D01*
X27775Y-12684D01*
X27824Y-12564D01*
X27825Y-12435D01*
X27775Y-12316D01*
X27684Y-12224D01*
X27625Y-12200D01*
X32740Y-12200D01*
X32815Y-12275D01*
X32935Y-12324D01*
X33064Y-12325D01*
X33183Y-12275D01*
X33275Y-12184D01*
X33324Y-12064D01*
X33325Y-11935D01*
X33325Y-14688D01*
X33255Y-14618D01*
X33089Y-14550D01*
X32910Y-14549D01*
X32745Y-14618D01*
X32618Y-14744D01*
X32550Y-14910D01*
X32549Y-15089D01*
X32618Y-15254D01*
X32744Y-15381D01*
X32910Y-15449D01*
X33089Y-15450D01*
X33254Y-15381D01*
X33381Y-15255D01*
X33404Y-15200D01*
X34595Y-15200D01*
X34618Y-15254D01*
X34744Y-15381D01*
X34910Y-15449D01*
X35089Y-15450D01*
X35254Y-15381D01*
X35381Y-15255D01*
X35449Y-15089D01*
X35450Y-14910D01*
X35450Y-15910D01*
X35381Y-15745D01*
X35255Y-15618D01*
X35089Y-15550D01*
X34910Y-15549D01*
X34745Y-15618D01*
X34618Y-15744D01*
X34595Y-15800D01*
X33404Y-15800D01*
X33381Y-15745D01*
X33255Y-15618D01*
X33089Y-15550D01*
X32910Y-15549D01*
X32745Y-15618D01*
X32618Y-15744D01*
X32595Y-15800D01*
X32000Y-15800D01*
X31936Y-15812D01*
X31923Y-15815D01*
X31858Y-15858D01*
X31417Y-16300D01*
X30301Y-16300D01*
X30360Y-16241D01*
X30424Y-16084D01*
X30425Y-15915D01*
X30425Y-14915D01*
X30425Y-13915D01*
X30360Y-13759D01*
X30241Y-13639D01*
X30084Y-13575D01*
X29915Y-13574D01*
X29759Y-13639D01*
X29639Y-13758D01*
X29575Y-13915D01*
X29574Y-14084D01*
X29639Y-14240D01*
X29758Y-14360D01*
X29915Y-14424D01*
X30084Y-14425D01*
X30240Y-14360D01*
X30360Y-14241D01*
X30424Y-14084D01*
X30425Y-13915D01*
X30425Y-14915D01*
X30360Y-14759D01*
X30241Y-14639D01*
X30084Y-14575D01*
X29915Y-14574D01*
X29759Y-14639D01*
X29639Y-14758D01*
X29575Y-14915D01*
X29574Y-15084D01*
X29639Y-15240D01*
X29758Y-15360D01*
X29915Y-15424D01*
X30084Y-15425D01*
X30240Y-15360D01*
X30360Y-15241D01*
X30424Y-15084D01*
X30425Y-14915D01*
X30425Y-15915D01*
X30360Y-15759D01*
X30241Y-15639D01*
X30084Y-15575D01*
X29915Y-15574D01*
X29759Y-15639D01*
X29639Y-15758D01*
X29575Y-15915D01*
X29574Y-16084D01*
X29639Y-16240D01*
X29698Y-16300D01*
X28259Y-16300D01*
X28184Y-16224D01*
X28064Y-16175D01*
X27935Y-16174D01*
X27816Y-16224D01*
X27724Y-16315D01*
X27675Y-16435D01*
X27674Y-16564D01*
X27724Y-16683D01*
X27790Y-16750D01*
X27724Y-16815D01*
X27675Y-16935D01*
X27674Y-17064D01*
X27724Y-17183D01*
X27815Y-17275D01*
X27935Y-17324D01*
X28064Y-17325D01*
X28183Y-17275D01*
X28259Y-17200D01*
X29622Y-17200D01*
X29639Y-17240D01*
X29758Y-17360D01*
X29915Y-17424D01*
X30084Y-17425D01*
X30240Y-17360D01*
X30360Y-17241D01*
X30424Y-17084D01*
X30425Y-16915D01*
X30360Y-16759D01*
X30301Y-16700D01*
X31500Y-16700D01*
X31576Y-16684D01*
X31641Y-16641D01*
X32082Y-16200D01*
X32595Y-16200D01*
X32618Y-16254D01*
X32744Y-16381D01*
X32910Y-16449D01*
X32986Y-16449D01*
X32863Y-16456D01*
X32712Y-16518D01*
X32684Y-16614D01*
X33000Y-16929D01*
X33315Y-16614D01*
X33287Y-16518D01*
X33092Y-16448D01*
X33254Y-16381D01*
X33381Y-16255D01*
X33404Y-16200D01*
X34595Y-16200D01*
X34618Y-16254D01*
X34744Y-16381D01*
X34910Y-16449D01*
X34986Y-16449D01*
X34863Y-16456D01*
X34712Y-16518D01*
X34684Y-16614D01*
X35000Y-16929D01*
X35315Y-16614D01*
X35287Y-16518D01*
X35092Y-16448D01*
X35254Y-16381D01*
X35381Y-16255D01*
X35449Y-16089D01*
X35450Y-15910D01*
X35450Y-16703D01*
X35385Y-16684D01*
X35070Y-17000D01*
X35385Y-17315D01*
X35481Y-17287D01*
X35554Y-17081D01*
X35554Y-18500D01*
X35450Y-18500D01*
X35450Y-18270D01*
X35450Y-17670D01*
X35427Y-17615D01*
X35385Y-17572D01*
X35329Y-17550D01*
X35270Y-17549D01*
X35014Y-17549D01*
X35136Y-17543D01*
X35287Y-17481D01*
X35315Y-17385D01*
X35000Y-17070D01*
X34929Y-17141D01*
X34929Y-17000D01*
X34614Y-16684D01*
X34518Y-16712D01*
X34445Y-16918D01*
X34456Y-17136D01*
X34518Y-17287D01*
X34614Y-17315D01*
X34929Y-17000D01*
X34929Y-17141D01*
X34684Y-17385D01*
X34712Y-17481D01*
X34904Y-17549D01*
X34670Y-17549D01*
X34615Y-17572D01*
X34572Y-17614D01*
X34550Y-17670D01*
X34549Y-17729D01*
X34549Y-17800D01*
X33554Y-17800D01*
X33554Y-17081D01*
X33543Y-16863D01*
X33481Y-16712D01*
X33385Y-16684D01*
X33070Y-17000D01*
X33385Y-17315D01*
X33481Y-17287D01*
X33554Y-17081D01*
X33554Y-17800D01*
X33450Y-17800D01*
X33450Y-17670D01*
X33427Y-17615D01*
X33385Y-17572D01*
X33329Y-17550D01*
X33270Y-17549D01*
X33014Y-17549D01*
X33136Y-17543D01*
X33287Y-17481D01*
X33315Y-17385D01*
X33000Y-17070D01*
X32929Y-17141D01*
X32929Y-17000D01*
X32614Y-16684D01*
X32518Y-16712D01*
X32445Y-16918D01*
X32456Y-17136D01*
X32518Y-17287D01*
X32614Y-17315D01*
X32929Y-17000D01*
X32929Y-17141D01*
X32684Y-17385D01*
X32712Y-17481D01*
X32904Y-17549D01*
X32670Y-17549D01*
X32615Y-17572D01*
X32572Y-17614D01*
X32550Y-17670D01*
X32549Y-17729D01*
X32549Y-18329D01*
X32572Y-18384D01*
X32614Y-18427D01*
X32670Y-18449D01*
X32729Y-18450D01*
X33329Y-18450D01*
X33384Y-18427D01*
X33427Y-18385D01*
X33449Y-18329D01*
X33450Y-18270D01*
X33450Y-18200D01*
X34549Y-18200D01*
X34549Y-18329D01*
X34572Y-18384D01*
X34614Y-18427D01*
X34670Y-18449D01*
X34729Y-18450D01*
X35329Y-18450D01*
X35384Y-18427D01*
X35427Y-18385D01*
X35449Y-18329D01*
X35450Y-18270D01*
X35450Y-18500D01*
X31782Y-18500D01*
X31241Y-17958D01*
X31176Y-17915D01*
X31100Y-17900D01*
X30418Y-17900D01*
X30360Y-17759D01*
X30241Y-17639D01*
X30084Y-17575D01*
X29915Y-17574D01*
X29759Y-17639D01*
X29639Y-17758D01*
X29622Y-17800D01*
X28759Y-17800D01*
X28684Y-17724D01*
X28564Y-17675D01*
X28435Y-17674D01*
X28316Y-17724D01*
X28224Y-17815D01*
X28175Y-17935D01*
X28174Y-18064D01*
X28224Y-18183D01*
X28315Y-18275D01*
X28435Y-18324D01*
X28564Y-18325D01*
X28683Y-18275D01*
X28759Y-18200D01*
X29622Y-18200D01*
X29639Y-18240D01*
X29758Y-18360D01*
X29915Y-18424D01*
X30084Y-18425D01*
X30240Y-18360D01*
X30301Y-18300D01*
X31017Y-18300D01*
X31558Y-18841D01*
X31558Y-18841D01*
X31601Y-18870D01*
X31623Y-18884D01*
X31623Y-18884D01*
X31700Y-18900D01*
X35617Y-18900D01*
X36900Y-20182D01*
X36900Y-20517D01*
X36491Y-20108D01*
X36426Y-20065D01*
X36350Y-20050D01*
X34509Y-20050D01*
X34434Y-19974D01*
X34314Y-19925D01*
X34207Y-19924D01*
X33891Y-19608D01*
X33826Y-19565D01*
X33750Y-19550D01*
X31332Y-19550D01*
X30641Y-18858D01*
X30576Y-18815D01*
X30500Y-18800D01*
X30377Y-18800D01*
X30360Y-18759D01*
X30241Y-18639D01*
X30084Y-18575D01*
X29915Y-18574D01*
X29759Y-18639D01*
X29639Y-18758D01*
X29622Y-18800D01*
X28125Y-18800D01*
X28183Y-18775D01*
X28275Y-18684D01*
X28324Y-18564D01*
X28325Y-18435D01*
X28275Y-18316D01*
X28184Y-18224D01*
X28064Y-18175D01*
X27935Y-18174D01*
X27816Y-18224D01*
X27736Y-18303D01*
X24750Y-18303D01*
X20029Y-18303D01*
X20029Y-17075D01*
X20018Y-16867D01*
X19960Y-16727D01*
X19925Y-16717D01*
X19925Y-15915D01*
X19860Y-15759D01*
X19741Y-15639D01*
X19584Y-15575D01*
X19415Y-15574D01*
X19259Y-15639D01*
X19139Y-15758D01*
X19075Y-15915D01*
X19074Y-16084D01*
X19139Y-16240D01*
X19258Y-16360D01*
X19415Y-16424D01*
X19584Y-16425D01*
X19740Y-16360D01*
X19860Y-16241D01*
X19924Y-16084D01*
X19925Y-15915D01*
X19925Y-16717D01*
X19867Y-16702D01*
X19797Y-16773D01*
X19797Y-16632D01*
X19772Y-16539D01*
X19575Y-16470D01*
X19367Y-16481D01*
X19227Y-16539D01*
X19202Y-16632D01*
X19500Y-16929D01*
X19797Y-16632D01*
X19797Y-16773D01*
X19570Y-17000D01*
X19867Y-17297D01*
X19960Y-17272D01*
X20029Y-17075D01*
X20029Y-18303D01*
X19797Y-18303D01*
X19860Y-18241D01*
X19924Y-18084D01*
X19925Y-17915D01*
X19860Y-17759D01*
X19797Y-17696D01*
X19797Y-17367D01*
X19500Y-17070D01*
X19429Y-17141D01*
X19429Y-17000D01*
X19132Y-16702D01*
X19039Y-16727D01*
X18970Y-16924D01*
X18981Y-17132D01*
X19039Y-17272D01*
X19132Y-17297D01*
X19429Y-17000D01*
X19429Y-17141D01*
X19202Y-17367D01*
X19227Y-17460D01*
X19424Y-17529D01*
X19632Y-17518D01*
X19772Y-17460D01*
X19797Y-17367D01*
X19797Y-17696D01*
X19741Y-17639D01*
X19584Y-17575D01*
X19415Y-17574D01*
X19259Y-17639D01*
X19139Y-17758D01*
X19075Y-17915D01*
X19074Y-18084D01*
X19139Y-18240D01*
X19202Y-18303D01*
X18836Y-18303D01*
X17391Y-16858D01*
X17326Y-16815D01*
X17250Y-16800D01*
X16925Y-16800D01*
X16925Y-15915D01*
X16860Y-15759D01*
X16741Y-15639D01*
X16584Y-15575D01*
X16415Y-15574D01*
X16259Y-15639D01*
X16139Y-15758D01*
X16075Y-15915D01*
X16074Y-16084D01*
X16139Y-16240D01*
X16258Y-16360D01*
X16415Y-16424D01*
X16584Y-16425D01*
X16740Y-16360D01*
X16860Y-16241D01*
X16924Y-16084D01*
X16925Y-15915D01*
X16925Y-16800D01*
X16877Y-16800D01*
X16860Y-16759D01*
X16741Y-16639D01*
X16584Y-16575D01*
X16415Y-16574D01*
X16259Y-16639D01*
X16139Y-16758D01*
X16075Y-16915D01*
X16074Y-17084D01*
X16139Y-17240D01*
X16258Y-17360D01*
X16415Y-17424D01*
X16584Y-17425D01*
X16740Y-17360D01*
X16860Y-17241D01*
X16877Y-17200D01*
X17167Y-17200D01*
X18612Y-18645D01*
X18612Y-18645D01*
X18655Y-18674D01*
X18677Y-18688D01*
X18677Y-18688D01*
X18753Y-18703D01*
X18753Y-18703D01*
X19195Y-18703D01*
X19139Y-18758D01*
X19075Y-18915D01*
X19074Y-19084D01*
X19139Y-19240D01*
X19258Y-19360D01*
X19415Y-19424D01*
X19584Y-19425D01*
X19740Y-19360D01*
X19860Y-19241D01*
X19924Y-19084D01*
X19925Y-18915D01*
X19860Y-18759D01*
X19804Y-18703D01*
X24750Y-18703D01*
X27365Y-18703D01*
X27316Y-18724D01*
X27224Y-18815D01*
X27175Y-18935D01*
X27174Y-19064D01*
X27224Y-19183D01*
X27315Y-19275D01*
X27435Y-19324D01*
X27564Y-19325D01*
X27683Y-19275D01*
X27759Y-19200D01*
X28000Y-19200D01*
X29622Y-19200D01*
X29639Y-19240D01*
X29758Y-19360D01*
X29915Y-19424D01*
X30084Y-19425D01*
X30240Y-19360D01*
X30360Y-19241D01*
X30377Y-19200D01*
X30417Y-19200D01*
X31017Y-19800D01*
X30377Y-19800D01*
X30360Y-19759D01*
X30241Y-19639D01*
X30084Y-19575D01*
X29915Y-19574D01*
X29759Y-19639D01*
X29639Y-19758D01*
X29622Y-19800D01*
X28259Y-19800D01*
X28184Y-19724D01*
X28064Y-19675D01*
X27935Y-19674D01*
X27816Y-19724D01*
X27740Y-19800D01*
X27259Y-19800D01*
X27184Y-19724D01*
X27064Y-19675D01*
X26935Y-19674D01*
X26816Y-19724D01*
X26724Y-19815D01*
X26675Y-19935D01*
X26674Y-20064D01*
X26724Y-20183D01*
X26815Y-20275D01*
X26935Y-20324D01*
X27064Y-20325D01*
X27183Y-20275D01*
X27259Y-20200D01*
X27740Y-20200D01*
X27815Y-20275D01*
X27935Y-20324D01*
X28064Y-20325D01*
X28183Y-20275D01*
X28259Y-20200D01*
X29622Y-20200D01*
X29639Y-20240D01*
X29758Y-20360D01*
X29915Y-20424D01*
X30084Y-20425D01*
X30240Y-20360D01*
X30360Y-20241D01*
X30377Y-20200D01*
X32517Y-20200D01*
X33058Y-20741D01*
X33058Y-20741D01*
X33101Y-20770D01*
X33123Y-20784D01*
X33123Y-20784D01*
X33200Y-20800D01*
X34670Y-20800D01*
X34615Y-20822D01*
X34572Y-20864D01*
X34550Y-20920D01*
X34549Y-20979D01*
X34549Y-21579D01*
X34572Y-21634D01*
X34614Y-21677D01*
X34670Y-21699D01*
X34729Y-21700D01*
X35329Y-21700D01*
X35384Y-21677D01*
X35427Y-21635D01*
X35449Y-21579D01*
X35450Y-21520D01*
X35450Y-20982D01*
X35572Y-21105D01*
X35550Y-21160D01*
X35549Y-21339D01*
X35618Y-21504D01*
X35744Y-21631D01*
X35910Y-21699D01*
X36089Y-21700D01*
X36254Y-21631D01*
X36381Y-21505D01*
X36449Y-21339D01*
X36450Y-21160D01*
X36381Y-20995D01*
X36255Y-20868D01*
X36089Y-20800D01*
X35910Y-20799D01*
X35855Y-20822D01*
X35491Y-20458D01*
X35478Y-20450D01*
X36267Y-20450D01*
X36600Y-20782D01*
X36600Y-21817D01*
X36393Y-22023D01*
X36381Y-21995D01*
X36255Y-21868D01*
X36089Y-21800D01*
X35910Y-21799D01*
X35745Y-21868D01*
X35618Y-21994D01*
X35550Y-22160D01*
X35549Y-22339D01*
X35618Y-22504D01*
X35744Y-22631D01*
X35910Y-22699D01*
X36089Y-22700D01*
X36254Y-22631D01*
X36381Y-22505D01*
X36404Y-22450D01*
X36450Y-22450D01*
X36526Y-22434D01*
X36591Y-22391D01*
X36900Y-22082D01*
X36900Y-22717D01*
X36567Y-23050D01*
X36404Y-23050D01*
X36381Y-22995D01*
X36255Y-22868D01*
X36089Y-22800D01*
X35910Y-22799D01*
X35745Y-22868D01*
X35618Y-22994D01*
X35550Y-23160D01*
X35549Y-23339D01*
X35618Y-23504D01*
X35744Y-23631D01*
X35910Y-23699D01*
X36089Y-23700D01*
X36254Y-23631D01*
X36381Y-23505D01*
X36404Y-23450D01*
X36650Y-23450D01*
X36726Y-23434D01*
X36791Y-23391D01*
X37231Y-22950D01*
X37231Y-33995D01*
X37231Y-33995D01*
G37*
G54D20*
X37231Y-33995D02*
X37096Y-33667D01*
X36414Y-32984D01*
X35523Y-32614D01*
X35450Y-32614D01*
X35450Y-29910D01*
X35450Y-28910D01*
X35450Y-23160D01*
X35450Y-22160D01*
X35381Y-21995D01*
X35255Y-21868D01*
X35089Y-21800D01*
X34910Y-21799D01*
X34745Y-21868D01*
X34618Y-21994D01*
X34550Y-22160D01*
X34549Y-22339D01*
X34618Y-22504D01*
X34744Y-22631D01*
X34910Y-22699D01*
X35089Y-22700D01*
X35254Y-22631D01*
X35381Y-22505D01*
X35449Y-22339D01*
X35450Y-22160D01*
X35450Y-23160D01*
X35381Y-22995D01*
X35255Y-22868D01*
X35089Y-22800D01*
X34910Y-22799D01*
X34745Y-22868D01*
X34618Y-22994D01*
X34550Y-23160D01*
X34549Y-23339D01*
X34618Y-23504D01*
X34744Y-23631D01*
X34910Y-23699D01*
X35089Y-23700D01*
X35254Y-23631D01*
X35381Y-23505D01*
X35449Y-23339D01*
X35450Y-23160D01*
X35450Y-28910D01*
X35381Y-28745D01*
X35255Y-28618D01*
X35089Y-28550D01*
X34910Y-28549D01*
X34745Y-28618D01*
X34618Y-28744D01*
X34550Y-28910D01*
X34549Y-29089D01*
X34618Y-29254D01*
X34744Y-29381D01*
X34910Y-29449D01*
X35089Y-29450D01*
X35254Y-29381D01*
X35381Y-29255D01*
X35449Y-29089D01*
X35450Y-28910D01*
X35450Y-29910D01*
X35381Y-29745D01*
X35255Y-29618D01*
X35089Y-29550D01*
X34910Y-29549D01*
X34745Y-29618D01*
X34618Y-29744D01*
X34595Y-29800D01*
X32575Y-29800D01*
X32575Y-26185D01*
X32525Y-26066D01*
X32450Y-25990D01*
X32450Y-23509D01*
X32525Y-23434D01*
X32574Y-23314D01*
X32575Y-23185D01*
X32525Y-23066D01*
X32434Y-22974D01*
X32314Y-22925D01*
X32185Y-22924D01*
X32066Y-22974D01*
X31974Y-23065D01*
X31925Y-23185D01*
X31924Y-23314D01*
X31974Y-23433D01*
X32050Y-23509D01*
X32050Y-25990D01*
X31974Y-26065D01*
X31925Y-26185D01*
X31924Y-26314D01*
X31974Y-26433D01*
X32065Y-26525D01*
X32185Y-26574D01*
X32314Y-26575D01*
X32433Y-26525D01*
X32525Y-26434D01*
X32574Y-26314D01*
X32575Y-26185D01*
X32575Y-29800D01*
X32509Y-29800D01*
X32434Y-29724D01*
X32314Y-29675D01*
X32185Y-29674D01*
X32066Y-29724D01*
X31974Y-29815D01*
X31925Y-29935D01*
X31924Y-30064D01*
X31974Y-30183D01*
X32065Y-30275D01*
X32185Y-30324D01*
X32314Y-30325D01*
X32433Y-30275D01*
X32509Y-30200D01*
X34595Y-30200D01*
X34618Y-30254D01*
X34744Y-30381D01*
X34910Y-30449D01*
X35089Y-30450D01*
X35254Y-30381D01*
X35381Y-30255D01*
X35449Y-30089D01*
X35450Y-29910D01*
X35450Y-32614D01*
X35450Y-32614D01*
X35450Y-31270D01*
X35450Y-30670D01*
X35427Y-30615D01*
X35385Y-30572D01*
X35329Y-30550D01*
X35270Y-30549D01*
X34670Y-30549D01*
X34615Y-30572D01*
X34572Y-30614D01*
X34550Y-30670D01*
X34549Y-30729D01*
X34549Y-31329D01*
X34572Y-31384D01*
X34614Y-31427D01*
X34670Y-31449D01*
X34729Y-31450D01*
X35329Y-31450D01*
X35384Y-31427D01*
X35427Y-31385D01*
X35449Y-31329D01*
X35450Y-31270D01*
X35450Y-32614D01*
X34559Y-32613D01*
X33667Y-32982D01*
X32984Y-33663D01*
X32614Y-34554D01*
X32613Y-35519D01*
X32780Y-35922D01*
X32627Y-35859D01*
X32373Y-35859D01*
X32137Y-35956D01*
X31957Y-36136D01*
X31859Y-36372D01*
X31859Y-36626D01*
X31956Y-36862D01*
X32136Y-37042D01*
X32372Y-37140D01*
X32626Y-37140D01*
X32862Y-37043D01*
X33042Y-36863D01*
X33140Y-36627D01*
X33140Y-36569D01*
X33663Y-37093D01*
X33996Y-37231D01*
X30525Y-37231D01*
X30525Y-23324D01*
X30525Y-22675D01*
X30487Y-22583D01*
X30425Y-22521D01*
X30425Y-21915D01*
X30425Y-20915D01*
X30360Y-20759D01*
X30241Y-20639D01*
X30084Y-20575D01*
X29915Y-20574D01*
X29759Y-20639D01*
X29639Y-20758D01*
X29622Y-20800D01*
X26759Y-20800D01*
X26684Y-20724D01*
X26564Y-20675D01*
X26435Y-20674D01*
X26316Y-20724D01*
X26224Y-20815D01*
X26175Y-20935D01*
X26174Y-21064D01*
X26224Y-21183D01*
X26315Y-21275D01*
X26435Y-21324D01*
X26564Y-21325D01*
X26683Y-21275D01*
X26759Y-21200D01*
X29622Y-21200D01*
X29639Y-21240D01*
X29758Y-21360D01*
X29915Y-21424D01*
X30084Y-21425D01*
X30240Y-21360D01*
X30360Y-21241D01*
X30424Y-21084D01*
X30425Y-20915D01*
X30425Y-21915D01*
X30360Y-21759D01*
X30241Y-21639D01*
X30084Y-21575D01*
X29915Y-21574D01*
X29759Y-21639D01*
X29639Y-21758D01*
X29575Y-21915D01*
X29574Y-22084D01*
X29639Y-22240D01*
X29758Y-22360D01*
X29915Y-22424D01*
X30084Y-22425D01*
X30240Y-22360D01*
X30360Y-22241D01*
X30424Y-22084D01*
X30425Y-21915D01*
X30425Y-22521D01*
X30416Y-22513D01*
X30324Y-22475D01*
X30225Y-22474D01*
X30112Y-22475D01*
X30050Y-22537D01*
X30050Y-22950D01*
X30462Y-22950D01*
X30525Y-22887D01*
X30525Y-22675D01*
X30525Y-23324D01*
X30525Y-23112D01*
X30462Y-23050D01*
X30050Y-23050D01*
X30050Y-23462D01*
X30112Y-23525D01*
X30225Y-23525D01*
X30324Y-23524D01*
X30416Y-23486D01*
X30487Y-23416D01*
X30525Y-23324D01*
X30525Y-37231D01*
X29950Y-37231D01*
X29950Y-23462D01*
X29950Y-23050D01*
X29950Y-22950D01*
X29950Y-22537D01*
X29887Y-22475D01*
X29774Y-22474D01*
X29675Y-22475D01*
X29583Y-22513D01*
X29512Y-22583D01*
X29474Y-22675D01*
X29475Y-22887D01*
X29537Y-22950D01*
X29950Y-22950D01*
X29950Y-23050D01*
X29537Y-23050D01*
X29475Y-23112D01*
X29474Y-23324D01*
X29512Y-23416D01*
X29583Y-23486D01*
X29675Y-23524D01*
X29774Y-23525D01*
X29887Y-23525D01*
X29950Y-23462D01*
X29950Y-37231D01*
X27675Y-37231D01*
X27675Y-27415D01*
X27675Y-26415D01*
X27675Y-25415D01*
X27610Y-25259D01*
X27491Y-25139D01*
X27334Y-25075D01*
X27165Y-25074D01*
X27009Y-25139D01*
X26889Y-25258D01*
X26825Y-25415D01*
X26824Y-25584D01*
X26889Y-25740D01*
X27008Y-25860D01*
X27165Y-25924D01*
X27334Y-25925D01*
X27490Y-25860D01*
X27610Y-25741D01*
X27674Y-25584D01*
X27675Y-25415D01*
X27675Y-26415D01*
X27610Y-26259D01*
X27491Y-26139D01*
X27334Y-26075D01*
X27165Y-26074D01*
X27009Y-26139D01*
X26889Y-26258D01*
X26825Y-26415D01*
X26824Y-26584D01*
X26889Y-26740D01*
X27008Y-26860D01*
X27165Y-26924D01*
X27334Y-26925D01*
X27490Y-26860D01*
X27610Y-26741D01*
X27674Y-26584D01*
X27675Y-26415D01*
X27675Y-27415D01*
X27610Y-27259D01*
X27491Y-27139D01*
X27334Y-27075D01*
X27165Y-27074D01*
X27009Y-27139D01*
X26889Y-27258D01*
X26825Y-27415D01*
X26824Y-27584D01*
X26889Y-27740D01*
X27008Y-27860D01*
X27165Y-27924D01*
X27334Y-27925D01*
X27490Y-27860D01*
X27610Y-27741D01*
X27674Y-27584D01*
X27675Y-27415D01*
X27675Y-37231D01*
X27675Y-37231D01*
X27675Y-28745D01*
X27675Y-28195D01*
X27652Y-28140D01*
X27610Y-28097D01*
X27554Y-28075D01*
X27495Y-28074D01*
X26945Y-28074D01*
X26890Y-28097D01*
X26847Y-28139D01*
X26825Y-28195D01*
X26824Y-28254D01*
X26824Y-28804D01*
X26847Y-28859D01*
X26889Y-28902D01*
X26945Y-28924D01*
X27004Y-28925D01*
X27554Y-28925D01*
X27609Y-28902D01*
X27652Y-28860D01*
X27674Y-28804D01*
X27675Y-28745D01*
X27675Y-37231D01*
X24779Y-37231D01*
X24779Y-28575D01*
X24768Y-28367D01*
X24710Y-28227D01*
X24675Y-28217D01*
X24675Y-27415D01*
X24675Y-26415D01*
X24675Y-25415D01*
X24610Y-25259D01*
X24491Y-25139D01*
X24334Y-25075D01*
X24165Y-25074D01*
X24009Y-25139D01*
X23889Y-25258D01*
X23872Y-25300D01*
X23259Y-25300D01*
X23184Y-25224D01*
X23064Y-25175D01*
X22935Y-25174D01*
X22816Y-25224D01*
X22724Y-25315D01*
X22675Y-25435D01*
X22674Y-25564D01*
X22724Y-25683D01*
X22815Y-25775D01*
X22935Y-25824D01*
X23064Y-25825D01*
X23183Y-25775D01*
X23259Y-25700D01*
X23872Y-25700D01*
X23889Y-25740D01*
X24008Y-25860D01*
X24165Y-25924D01*
X24334Y-25925D01*
X24490Y-25860D01*
X24610Y-25741D01*
X24674Y-25584D01*
X24675Y-25415D01*
X24675Y-26415D01*
X24610Y-26259D01*
X24491Y-26139D01*
X24334Y-26075D01*
X24165Y-26074D01*
X24009Y-26139D01*
X23889Y-26258D01*
X23872Y-26300D01*
X22759Y-26300D01*
X22684Y-26224D01*
X22564Y-26175D01*
X22435Y-26174D01*
X22316Y-26224D01*
X22224Y-26315D01*
X22175Y-26435D01*
X22174Y-26564D01*
X22224Y-26683D01*
X22315Y-26775D01*
X22435Y-26824D01*
X22564Y-26825D01*
X22683Y-26775D01*
X22759Y-26700D01*
X23872Y-26700D01*
X23889Y-26740D01*
X24008Y-26860D01*
X24165Y-26924D01*
X24334Y-26925D01*
X24490Y-26860D01*
X24610Y-26741D01*
X24674Y-26584D01*
X24675Y-26415D01*
X24675Y-27415D01*
X24610Y-27259D01*
X24491Y-27139D01*
X24334Y-27075D01*
X24165Y-27074D01*
X24009Y-27139D01*
X23889Y-27258D01*
X23825Y-27415D01*
X23824Y-27584D01*
X23889Y-27740D01*
X24008Y-27860D01*
X24165Y-27924D01*
X24334Y-27925D01*
X24490Y-27860D01*
X24610Y-27741D01*
X24674Y-27584D01*
X24675Y-27415D01*
X24675Y-28217D01*
X24617Y-28202D01*
X24547Y-28273D01*
X24547Y-28132D01*
X24522Y-28039D01*
X24325Y-27970D01*
X24117Y-27981D01*
X23977Y-28039D01*
X23952Y-28132D01*
X24250Y-28429D01*
X24547Y-28132D01*
X24547Y-28273D01*
X24320Y-28500D01*
X24617Y-28797D01*
X24710Y-28772D01*
X24779Y-28575D01*
X24779Y-37231D01*
X24547Y-37231D01*
X24547Y-28867D01*
X24250Y-28570D01*
X24179Y-28641D01*
X24179Y-28500D01*
X23882Y-28202D01*
X23789Y-28227D01*
X23720Y-28424D01*
X23731Y-28632D01*
X23789Y-28772D01*
X23882Y-28797D01*
X24179Y-28500D01*
X24179Y-28641D01*
X23952Y-28867D01*
X23977Y-28960D01*
X24174Y-29029D01*
X24382Y-29018D01*
X24522Y-28960D01*
X24547Y-28867D01*
X24547Y-37231D01*
X19925Y-37231D01*
X19925Y-23915D01*
X19925Y-22915D01*
X19925Y-21915D01*
X19925Y-20915D01*
X19925Y-19915D01*
X19860Y-19759D01*
X19741Y-19639D01*
X19584Y-19575D01*
X19415Y-19574D01*
X19259Y-19639D01*
X19139Y-19758D01*
X19075Y-19915D01*
X19074Y-20084D01*
X19139Y-20240D01*
X19258Y-20360D01*
X19415Y-20424D01*
X19584Y-20425D01*
X19740Y-20360D01*
X19860Y-20241D01*
X19924Y-20084D01*
X19925Y-19915D01*
X19925Y-20915D01*
X19860Y-20759D01*
X19741Y-20639D01*
X19584Y-20575D01*
X19415Y-20574D01*
X19259Y-20639D01*
X19139Y-20758D01*
X19075Y-20915D01*
X19074Y-21084D01*
X19139Y-21240D01*
X19258Y-21360D01*
X19415Y-21424D01*
X19584Y-21425D01*
X19740Y-21360D01*
X19860Y-21241D01*
X19924Y-21084D01*
X19925Y-20915D01*
X19925Y-21915D01*
X19860Y-21759D01*
X19741Y-21639D01*
X19584Y-21575D01*
X19415Y-21574D01*
X19259Y-21639D01*
X19139Y-21758D01*
X19075Y-21915D01*
X19074Y-22084D01*
X19139Y-22240D01*
X19258Y-22360D01*
X19415Y-22424D01*
X19584Y-22425D01*
X19740Y-22360D01*
X19860Y-22241D01*
X19924Y-22084D01*
X19925Y-21915D01*
X19925Y-22915D01*
X19860Y-22759D01*
X19741Y-22639D01*
X19584Y-22575D01*
X19415Y-22574D01*
X19259Y-22639D01*
X19139Y-22758D01*
X19075Y-22915D01*
X19074Y-23084D01*
X19139Y-23240D01*
X19258Y-23360D01*
X19415Y-23424D01*
X19584Y-23425D01*
X19740Y-23360D01*
X19860Y-23241D01*
X19924Y-23084D01*
X19925Y-22915D01*
X19925Y-23915D01*
X19860Y-23759D01*
X19741Y-23639D01*
X19584Y-23575D01*
X19415Y-23574D01*
X19259Y-23639D01*
X19139Y-23758D01*
X19075Y-23915D01*
X19074Y-24084D01*
X19139Y-24240D01*
X19258Y-24360D01*
X19415Y-24424D01*
X19584Y-24425D01*
X19740Y-24360D01*
X19860Y-24241D01*
X19924Y-24084D01*
X19925Y-23915D01*
X19925Y-37231D01*
X19925Y-37231D01*
X19925Y-25245D01*
X19925Y-24695D01*
X19902Y-24640D01*
X19860Y-24597D01*
X19804Y-24575D01*
X19745Y-24574D01*
X19195Y-24574D01*
X19140Y-24597D01*
X19097Y-24639D01*
X19075Y-24695D01*
X19074Y-24754D01*
X19074Y-25304D01*
X19097Y-25359D01*
X19139Y-25402D01*
X19195Y-25424D01*
X19254Y-25425D01*
X19804Y-25425D01*
X19859Y-25402D01*
X19902Y-25360D01*
X19924Y-25304D01*
X19925Y-25245D01*
X19925Y-37231D01*
X16925Y-37231D01*
X16925Y-24915D01*
X16860Y-24759D01*
X16741Y-24639D01*
X16584Y-24575D01*
X16415Y-24574D01*
X16259Y-24639D01*
X16139Y-24758D01*
X16122Y-24800D01*
X8582Y-24800D01*
X7222Y-23439D01*
X7157Y-23396D01*
X7080Y-23380D01*
X5806Y-23380D01*
X5881Y-23306D01*
X5904Y-23250D01*
X7467Y-23250D01*
X8358Y-24141D01*
X8358Y-24141D01*
X8401Y-24170D01*
X8423Y-24184D01*
X8423Y-24184D01*
X8499Y-24199D01*
X8500Y-24200D01*
X16122Y-24200D01*
X16139Y-24240D01*
X16258Y-24360D01*
X16415Y-24424D01*
X16584Y-24425D01*
X16740Y-24360D01*
X16860Y-24241D01*
X16924Y-24084D01*
X16925Y-23915D01*
X16860Y-23759D01*
X16741Y-23639D01*
X16584Y-23575D01*
X16415Y-23574D01*
X16259Y-23639D01*
X16139Y-23758D01*
X16122Y-23800D01*
X8582Y-23800D01*
X7692Y-22909D01*
X7627Y-22866D01*
X7550Y-22850D01*
X5904Y-22850D01*
X5881Y-22796D01*
X5766Y-22680D01*
X7897Y-22680D01*
X8358Y-23141D01*
X8358Y-23141D01*
X8401Y-23170D01*
X8423Y-23184D01*
X8423Y-23184D01*
X8499Y-23199D01*
X8500Y-23200D01*
X16122Y-23200D01*
X16139Y-23240D01*
X16258Y-23360D01*
X16415Y-23424D01*
X16584Y-23425D01*
X16740Y-23360D01*
X16860Y-23241D01*
X16924Y-23084D01*
X16925Y-22915D01*
X16860Y-22759D01*
X16741Y-22639D01*
X16584Y-22575D01*
X16415Y-22574D01*
X16259Y-22639D01*
X16139Y-22758D01*
X16122Y-22800D01*
X8582Y-22800D01*
X8122Y-22339D01*
X8057Y-22296D01*
X7980Y-22280D01*
X5806Y-22280D01*
X5881Y-22206D01*
X5904Y-22150D01*
X16102Y-22150D01*
X16139Y-22240D01*
X16258Y-22360D01*
X16415Y-22424D01*
X16584Y-22425D01*
X16740Y-22360D01*
X16860Y-22241D01*
X16924Y-22084D01*
X16925Y-21915D01*
X16860Y-21759D01*
X16741Y-21639D01*
X16584Y-21575D01*
X16415Y-21574D01*
X16259Y-21639D01*
X16148Y-21750D01*
X5904Y-21750D01*
X5881Y-21696D01*
X5786Y-21600D01*
X15099Y-21600D01*
X15175Y-21585D01*
X15240Y-21542D01*
X15582Y-21200D01*
X16122Y-21200D01*
X16139Y-21240D01*
X16258Y-21360D01*
X16415Y-21424D01*
X16584Y-21425D01*
X16740Y-21360D01*
X16860Y-21241D01*
X16924Y-21084D01*
X16925Y-20915D01*
X16860Y-20759D01*
X16741Y-20639D01*
X16584Y-20575D01*
X16415Y-20574D01*
X16259Y-20639D01*
X16139Y-20758D01*
X16122Y-20800D01*
X15500Y-20800D01*
X15436Y-20812D01*
X15423Y-20815D01*
X15358Y-20858D01*
X15016Y-21200D01*
X5786Y-21200D01*
X5881Y-21106D01*
X5904Y-21050D01*
X14649Y-21050D01*
X14725Y-21035D01*
X14790Y-20992D01*
X15582Y-20200D01*
X16122Y-20200D01*
X16139Y-20240D01*
X16258Y-20360D01*
X16415Y-20424D01*
X16584Y-20425D01*
X16740Y-20360D01*
X16860Y-20241D01*
X16924Y-20084D01*
X16925Y-19915D01*
X16860Y-19759D01*
X16741Y-19639D01*
X16584Y-19575D01*
X16415Y-19574D01*
X16259Y-19639D01*
X16139Y-19758D01*
X16122Y-19800D01*
X15500Y-19800D01*
X15423Y-19815D01*
X15401Y-19829D01*
X15358Y-19858D01*
X14566Y-20650D01*
X5904Y-20650D01*
X5881Y-20596D01*
X5806Y-20520D01*
X14179Y-20520D01*
X14255Y-20505D01*
X14320Y-20462D01*
X15582Y-19200D01*
X16122Y-19200D01*
X16139Y-19240D01*
X16258Y-19360D01*
X16415Y-19424D01*
X16584Y-19425D01*
X16740Y-19360D01*
X16860Y-19241D01*
X16924Y-19084D01*
X16925Y-18915D01*
X16860Y-18759D01*
X16741Y-18639D01*
X16584Y-18575D01*
X16415Y-18574D01*
X16259Y-18639D01*
X16139Y-18758D01*
X16122Y-18800D01*
X15500Y-18800D01*
X15423Y-18815D01*
X15401Y-18829D01*
X15358Y-18858D01*
X14096Y-20120D01*
X5766Y-20120D01*
X5881Y-20006D01*
X5904Y-19950D01*
X13249Y-19950D01*
X13325Y-19935D01*
X13390Y-19892D01*
X15082Y-18200D01*
X16122Y-18200D01*
X16139Y-18240D01*
X16258Y-18360D01*
X16415Y-18424D01*
X16584Y-18425D01*
X16740Y-18360D01*
X16860Y-18241D01*
X16924Y-18084D01*
X16925Y-17915D01*
X16860Y-17759D01*
X16741Y-17639D01*
X16584Y-17575D01*
X16415Y-17574D01*
X16259Y-17639D01*
X16139Y-17758D01*
X16122Y-17800D01*
X15000Y-17800D01*
X14923Y-17815D01*
X14901Y-17829D01*
X14858Y-17858D01*
X13166Y-19550D01*
X5950Y-19550D01*
X5950Y-18611D01*
X5950Y-17511D01*
X5950Y-16411D01*
X5950Y-15311D01*
X5950Y-14261D01*
X5950Y-13161D01*
X5950Y-12061D01*
X5890Y-11917D01*
X5890Y-1373D01*
X5793Y-1137D01*
X5613Y-957D01*
X5377Y-859D01*
X5123Y-859D01*
X4887Y-956D01*
X4707Y-1136D01*
X4609Y-1372D01*
X4609Y-1626D01*
X4706Y-1862D01*
X4886Y-2042D01*
X5122Y-2140D01*
X5376Y-2140D01*
X5612Y-2043D01*
X5792Y-1863D01*
X5890Y-1627D01*
X5890Y-1373D01*
X5890Y-11917D01*
X5881Y-11896D01*
X5755Y-11769D01*
X5589Y-11700D01*
X5410Y-11700D01*
X5400Y-11705D01*
X5400Y-9272D01*
X5263Y-8941D01*
X5010Y-8688D01*
X4679Y-8550D01*
X4321Y-8550D01*
X3990Y-8687D01*
X3737Y-8940D01*
X3600Y-9270D01*
X3599Y-9629D01*
X3736Y-9959D01*
X3989Y-10213D01*
X4320Y-10350D01*
X4678Y-10350D01*
X5009Y-10214D01*
X5262Y-9961D01*
X5399Y-9630D01*
X5400Y-9272D01*
X5400Y-11705D01*
X5245Y-11769D01*
X5118Y-11895D01*
X5050Y-12060D01*
X5049Y-12239D01*
X5118Y-12405D01*
X5244Y-12532D01*
X5410Y-12600D01*
X5589Y-12600D01*
X5754Y-12532D01*
X5881Y-12406D01*
X5949Y-12240D01*
X5950Y-12061D01*
X5950Y-13161D01*
X5881Y-12996D01*
X5755Y-12869D01*
X5589Y-12800D01*
X5410Y-12800D01*
X5245Y-12869D01*
X5118Y-12995D01*
X5050Y-13160D01*
X5049Y-13339D01*
X5118Y-13505D01*
X5244Y-13632D01*
X5410Y-13700D01*
X5589Y-13700D01*
X5754Y-13632D01*
X5881Y-13506D01*
X5949Y-13340D01*
X5950Y-13161D01*
X5950Y-14261D01*
X5881Y-14096D01*
X5755Y-13969D01*
X5589Y-13900D01*
X5410Y-13900D01*
X5245Y-13969D01*
X5118Y-14095D01*
X5050Y-14260D01*
X5049Y-14439D01*
X5118Y-14605D01*
X5244Y-14732D01*
X5410Y-14800D01*
X5589Y-14800D01*
X5754Y-14732D01*
X5881Y-14606D01*
X5949Y-14440D01*
X5950Y-14261D01*
X5950Y-15311D01*
X5881Y-15146D01*
X5755Y-15019D01*
X5589Y-14950D01*
X5410Y-14950D01*
X5245Y-15019D01*
X5118Y-15145D01*
X5050Y-15310D01*
X5049Y-15489D01*
X5118Y-15655D01*
X5244Y-15782D01*
X5410Y-15850D01*
X5589Y-15850D01*
X5754Y-15782D01*
X5881Y-15656D01*
X5949Y-15490D01*
X5950Y-15311D01*
X5950Y-16411D01*
X5881Y-16246D01*
X5755Y-16119D01*
X5589Y-16050D01*
X5410Y-16050D01*
X5245Y-16119D01*
X5118Y-16245D01*
X5050Y-16410D01*
X5049Y-16589D01*
X5118Y-16755D01*
X5244Y-16882D01*
X5410Y-16950D01*
X5589Y-16950D01*
X5754Y-16882D01*
X5881Y-16756D01*
X5949Y-16590D01*
X5950Y-16411D01*
X5950Y-17511D01*
X5881Y-17346D01*
X5755Y-17219D01*
X5589Y-17150D01*
X5410Y-17150D01*
X5245Y-17219D01*
X5118Y-17345D01*
X5050Y-17510D01*
X5049Y-17689D01*
X5118Y-17855D01*
X5244Y-17982D01*
X5410Y-18050D01*
X5589Y-18050D01*
X5754Y-17982D01*
X5881Y-17856D01*
X5949Y-17690D01*
X5950Y-17511D01*
X5950Y-18611D01*
X5881Y-18446D01*
X5755Y-18319D01*
X5589Y-18250D01*
X5410Y-18250D01*
X5245Y-18319D01*
X5118Y-18445D01*
X5050Y-18610D01*
X5049Y-18789D01*
X5118Y-18955D01*
X5244Y-19082D01*
X5410Y-19150D01*
X5589Y-19150D01*
X5754Y-19082D01*
X5881Y-18956D01*
X5949Y-18790D01*
X5950Y-18611D01*
X5950Y-19550D01*
X5904Y-19550D01*
X5881Y-19496D01*
X5755Y-19369D01*
X5589Y-19300D01*
X5410Y-19300D01*
X5245Y-19369D01*
X5118Y-19495D01*
X5050Y-19660D01*
X5049Y-19839D01*
X5118Y-20005D01*
X5233Y-20120D01*
X4950Y-20120D01*
X4950Y-19131D01*
X4950Y-18051D01*
X4950Y-16971D01*
X4950Y-15851D01*
X4950Y-14791D01*
X4950Y-13711D01*
X4950Y-12611D01*
X4881Y-12446D01*
X4755Y-12319D01*
X4589Y-12250D01*
X4410Y-12250D01*
X4245Y-12319D01*
X4118Y-12445D01*
X4050Y-12610D01*
X4049Y-12789D01*
X4118Y-12955D01*
X4244Y-13082D01*
X4410Y-13150D01*
X4589Y-13150D01*
X4754Y-13082D01*
X4881Y-12956D01*
X4949Y-12790D01*
X4950Y-12611D01*
X4950Y-13711D01*
X4881Y-13546D01*
X4755Y-13419D01*
X4589Y-13350D01*
X4410Y-13350D01*
X4245Y-13419D01*
X4118Y-13545D01*
X4050Y-13710D01*
X4049Y-13889D01*
X4118Y-14055D01*
X4244Y-14182D01*
X4410Y-14250D01*
X4589Y-14250D01*
X4754Y-14182D01*
X4881Y-14056D01*
X4949Y-13890D01*
X4950Y-13711D01*
X4950Y-14791D01*
X4881Y-14626D01*
X4755Y-14499D01*
X4589Y-14430D01*
X4410Y-14430D01*
X4245Y-14499D01*
X4118Y-14625D01*
X4050Y-14790D01*
X4049Y-14969D01*
X4118Y-15135D01*
X4244Y-15262D01*
X4410Y-15330D01*
X4589Y-15330D01*
X4754Y-15262D01*
X4881Y-15136D01*
X4949Y-14970D01*
X4950Y-14791D01*
X4950Y-15851D01*
X4881Y-15686D01*
X4755Y-15559D01*
X4589Y-15490D01*
X4410Y-15490D01*
X4245Y-15559D01*
X4118Y-15685D01*
X4050Y-15850D01*
X4049Y-16029D01*
X4118Y-16195D01*
X4244Y-16322D01*
X4410Y-16390D01*
X4589Y-16390D01*
X4754Y-16322D01*
X4881Y-16196D01*
X4949Y-16030D01*
X4950Y-15851D01*
X4950Y-16971D01*
X4881Y-16806D01*
X4755Y-16679D01*
X4589Y-16610D01*
X4410Y-16610D01*
X4245Y-16679D01*
X4118Y-16805D01*
X4050Y-16970D01*
X4049Y-17149D01*
X4118Y-17315D01*
X4244Y-17442D01*
X4410Y-17510D01*
X4589Y-17510D01*
X4754Y-17442D01*
X4881Y-17316D01*
X4949Y-17150D01*
X4950Y-16971D01*
X4950Y-18051D01*
X4881Y-17886D01*
X4755Y-17759D01*
X4589Y-17690D01*
X4410Y-17690D01*
X4245Y-17759D01*
X4118Y-17885D01*
X4050Y-18050D01*
X4049Y-18229D01*
X4118Y-18395D01*
X4244Y-18522D01*
X4410Y-18590D01*
X4589Y-18590D01*
X4754Y-18522D01*
X4881Y-18396D01*
X4949Y-18230D01*
X4950Y-18051D01*
X4950Y-19131D01*
X4881Y-18966D01*
X4755Y-18839D01*
X4589Y-18770D01*
X4410Y-18770D01*
X4245Y-18839D01*
X4118Y-18965D01*
X4050Y-19130D01*
X4049Y-19309D01*
X4118Y-19475D01*
X4244Y-19602D01*
X4410Y-19670D01*
X4589Y-19670D01*
X4754Y-19602D01*
X4881Y-19476D01*
X4949Y-19310D01*
X4950Y-19131D01*
X4950Y-20120D01*
X4904Y-20120D01*
X4881Y-20066D01*
X4755Y-19939D01*
X4589Y-19870D01*
X4410Y-19870D01*
X4245Y-19939D01*
X4118Y-20065D01*
X4050Y-20230D01*
X4049Y-20409D01*
X4118Y-20575D01*
X4244Y-20702D01*
X4410Y-20770D01*
X4589Y-20770D01*
X4754Y-20702D01*
X4881Y-20576D01*
X4904Y-20520D01*
X5193Y-20520D01*
X5118Y-20595D01*
X5050Y-20760D01*
X5049Y-20939D01*
X5118Y-21105D01*
X5213Y-21200D01*
X4904Y-21200D01*
X4881Y-21146D01*
X4755Y-21019D01*
X4589Y-20950D01*
X4410Y-20950D01*
X4245Y-21019D01*
X4118Y-21145D01*
X4050Y-21310D01*
X4049Y-21489D01*
X4118Y-21655D01*
X4244Y-21782D01*
X4410Y-21850D01*
X4589Y-21850D01*
X4754Y-21782D01*
X4881Y-21656D01*
X4904Y-21600D01*
X5213Y-21600D01*
X5118Y-21695D01*
X5050Y-21860D01*
X5049Y-22039D01*
X5118Y-22205D01*
X5193Y-22280D01*
X4904Y-22280D01*
X4881Y-22226D01*
X4755Y-22099D01*
X4589Y-22030D01*
X4410Y-22030D01*
X4245Y-22099D01*
X4118Y-22225D01*
X4050Y-22390D01*
X4049Y-22569D01*
X4118Y-22735D01*
X4244Y-22862D01*
X4410Y-22930D01*
X4589Y-22930D01*
X4754Y-22862D01*
X4881Y-22736D01*
X4904Y-22680D01*
X5233Y-22680D01*
X5118Y-22795D01*
X5050Y-22960D01*
X5049Y-23139D01*
X5118Y-23305D01*
X5193Y-23380D01*
X4904Y-23380D01*
X4881Y-23326D01*
X4755Y-23199D01*
X4589Y-23130D01*
X4410Y-23130D01*
X4245Y-23199D01*
X4118Y-23325D01*
X4050Y-23490D01*
X4049Y-23669D01*
X4118Y-23835D01*
X4244Y-23962D01*
X4410Y-24030D01*
X4589Y-24030D01*
X4754Y-23962D01*
X4881Y-23836D01*
X4904Y-23780D01*
X5183Y-23780D01*
X5118Y-23845D01*
X5050Y-24010D01*
X5049Y-24189D01*
X5118Y-24355D01*
X5244Y-24482D01*
X5300Y-24504D01*
X5300Y-24717D01*
X5021Y-24439D01*
X4956Y-24396D01*
X4906Y-24386D01*
X4881Y-24326D01*
X4755Y-24199D01*
X4589Y-24130D01*
X4410Y-24130D01*
X4245Y-24199D01*
X4118Y-24325D01*
X4050Y-24490D01*
X4049Y-24669D01*
X4118Y-24835D01*
X4244Y-24962D01*
X4410Y-25030D01*
X4589Y-25030D01*
X4754Y-24962D01*
X4866Y-24850D01*
X5049Y-25033D01*
X5049Y-25530D01*
X5072Y-25585D01*
X5114Y-25627D01*
X5170Y-25650D01*
X5229Y-25650D01*
X5829Y-25650D01*
X5884Y-25628D01*
X5927Y-25585D01*
X5949Y-25530D01*
X5950Y-25471D01*
X5950Y-25400D01*
X6117Y-25400D01*
X9358Y-28641D01*
X9358Y-28641D01*
X9401Y-28670D01*
X9423Y-28684D01*
X9423Y-28684D01*
X9500Y-28700D01*
X10399Y-28700D01*
X10399Y-28929D01*
X10422Y-28984D01*
X10464Y-29027D01*
X10520Y-29049D01*
X10579Y-29050D01*
X11179Y-29050D01*
X11234Y-29027D01*
X11277Y-28985D01*
X11299Y-28929D01*
X11300Y-28870D01*
X11300Y-28070D01*
X11277Y-28015D01*
X11235Y-27972D01*
X11179Y-27950D01*
X11120Y-27949D01*
X10520Y-27949D01*
X10465Y-27972D01*
X10422Y-28014D01*
X10400Y-28070D01*
X10399Y-28129D01*
X10399Y-28300D01*
X9582Y-28300D01*
X6342Y-25059D01*
X6277Y-25016D01*
X6200Y-25000D01*
X5950Y-25000D01*
X5950Y-24871D01*
X5927Y-24815D01*
X5885Y-24773D01*
X5829Y-24750D01*
X5770Y-24750D01*
X5700Y-24750D01*
X5700Y-24505D01*
X5754Y-24482D01*
X5881Y-24356D01*
X5949Y-24190D01*
X5950Y-24011D01*
X5881Y-23846D01*
X5816Y-23780D01*
X6997Y-23780D01*
X8358Y-25141D01*
X8423Y-25184D01*
X8500Y-25200D01*
X16122Y-25200D01*
X16139Y-25240D01*
X16258Y-25360D01*
X16415Y-25424D01*
X16584Y-25425D01*
X16740Y-25360D01*
X16860Y-25241D01*
X16924Y-25084D01*
X16925Y-24915D01*
X16925Y-37231D01*
X12700Y-37231D01*
X12700Y-28850D01*
X12700Y-28149D01*
X12699Y-28050D01*
X12661Y-27958D01*
X12591Y-27887D01*
X12499Y-27849D01*
X12262Y-27850D01*
X12200Y-27912D01*
X12200Y-28450D01*
X12637Y-28450D01*
X12700Y-28387D01*
X12700Y-28149D01*
X12700Y-28850D01*
X12700Y-28612D01*
X12637Y-28550D01*
X12200Y-28550D01*
X12200Y-29087D01*
X12262Y-29150D01*
X12499Y-29150D01*
X12591Y-29112D01*
X12661Y-29041D01*
X12699Y-28949D01*
X12700Y-28850D01*
X12700Y-37231D01*
X12100Y-37231D01*
X12100Y-29087D01*
X12100Y-28550D01*
X12100Y-28450D01*
X12100Y-27912D01*
X12037Y-27850D01*
X11800Y-27849D01*
X11708Y-27887D01*
X11638Y-27958D01*
X11600Y-28050D01*
X11599Y-28149D01*
X11600Y-28387D01*
X11662Y-28450D01*
X12100Y-28450D01*
X12100Y-28550D01*
X11662Y-28550D01*
X11600Y-28612D01*
X11599Y-28850D01*
X11600Y-28949D01*
X11638Y-29041D01*
X11708Y-29112D01*
X11800Y-29150D01*
X12037Y-29150D01*
X12100Y-29087D01*
X12100Y-37231D01*
X5400Y-37231D01*
X5400Y-27772D01*
X5263Y-27441D01*
X5010Y-27188D01*
X4679Y-27050D01*
X4321Y-27050D01*
X3990Y-27187D01*
X3737Y-27440D01*
X3600Y-27770D01*
X3599Y-28129D01*
X3736Y-28459D01*
X3989Y-28713D01*
X4320Y-28850D01*
X4678Y-28850D01*
X5009Y-28714D01*
X5262Y-28461D01*
X5399Y-28130D01*
X5400Y-27772D01*
X5400Y-37231D01*
X2374Y-37231D01*
X2235Y-37204D01*
X2095Y-37064D01*
X2763Y-37064D01*
X3507Y-36757D01*
X4077Y-36187D01*
X4386Y-35443D01*
X4387Y-34638D01*
X4079Y-33893D01*
X3510Y-33323D01*
X2766Y-33014D01*
X1961Y-33014D01*
X1216Y-33321D01*
X646Y-33890D01*
X337Y-34634D01*
X336Y-35305D01*
X198Y-35167D01*
X169Y-35022D01*
X169Y-2378D01*
X192Y-2262D01*
X337Y-2138D01*
X336Y-2763D01*
X644Y-3507D01*
X1213Y-4077D01*
X1957Y-4386D01*
X2763Y-4387D01*
X3507Y-4079D01*
X4077Y-3510D01*
X4386Y-2766D01*
X4387Y-1961D01*
X4079Y-1216D01*
X3510Y-646D01*
X2766Y-337D01*
X2439Y-337D01*
X2634Y-169D01*
X33995Y-169D01*
X33667Y-305D01*
X32984Y-986D01*
X32614Y-1877D01*
X32613Y-2842D01*
X32982Y-3734D01*
X33663Y-4416D01*
X34554Y-4786D01*
X35519Y-4787D01*
X36411Y-4419D01*
X37093Y-3737D01*
X37231Y-3405D01*
X37231Y-19949D01*
X35841Y-18558D01*
X35776Y-18515D01*
X35700Y-18500D01*
X35554Y-18500D01*
X35554Y-17081D01*
X35554Y-7581D01*
X35543Y-7363D01*
X35481Y-7212D01*
X35450Y-7203D01*
X35450Y-6410D01*
X35381Y-6245D01*
X35255Y-6118D01*
X35089Y-6050D01*
X34910Y-6049D01*
X34745Y-6118D01*
X34618Y-6244D01*
X34550Y-6410D01*
X34549Y-6589D01*
X34618Y-6754D01*
X34744Y-6881D01*
X34910Y-6949D01*
X34986Y-6949D01*
X34863Y-6956D01*
X34712Y-7018D01*
X34684Y-7114D01*
X35000Y-7429D01*
X35315Y-7114D01*
X35287Y-7018D01*
X35092Y-6948D01*
X35254Y-6881D01*
X35381Y-6755D01*
X35449Y-6589D01*
X35450Y-6410D01*
X35450Y-7203D01*
X35385Y-7184D01*
X35070Y-7500D01*
X35385Y-7815D01*
X35481Y-7787D01*
X35554Y-7581D01*
X35554Y-17081D01*
X35543Y-16863D01*
X35481Y-16712D01*
X35450Y-16703D01*
X35450Y-15910D01*
X35450Y-14910D01*
X35450Y-14910D01*
X35450Y-8770D01*
X35450Y-8170D01*
X35427Y-8115D01*
X35385Y-8072D01*
X35329Y-8050D01*
X35270Y-8049D01*
X35014Y-8049D01*
X35136Y-8043D01*
X35287Y-7981D01*
X35315Y-7885D01*
X35000Y-7570D01*
X34929Y-7641D01*
X34929Y-7500D01*
X34614Y-7184D01*
X34518Y-7212D01*
X34445Y-7418D01*
X34456Y-7636D01*
X34518Y-7787D01*
X34614Y-7815D01*
X34929Y-7500D01*
X34929Y-7641D01*
X34684Y-7885D01*
X34712Y-7981D01*
X34904Y-8049D01*
X34670Y-8049D01*
X34615Y-8072D01*
X34572Y-8114D01*
X34550Y-8170D01*
X34549Y-8229D01*
X34549Y-8829D01*
X34572Y-8884D01*
X34614Y-8927D01*
X34670Y-8949D01*
X34729Y-8950D01*
X35329Y-8950D01*
X35384Y-8927D01*
X35427Y-8885D01*
X35449Y-8829D01*
X35450Y-8770D01*
X35450Y-14910D01*
X35381Y-14745D01*
X35255Y-14618D01*
X35089Y-14550D01*
X34910Y-14549D01*
X34745Y-14618D01*
X34618Y-14744D01*
X34595Y-14800D01*
X33404Y-14800D01*
X33381Y-14745D01*
X33325Y-14688D01*
X33325Y-11935D01*
X33275Y-11816D01*
X33184Y-11724D01*
X33064Y-11675D01*
X32935Y-11674D01*
X32816Y-11724D01*
X32740Y-11800D01*
X28625Y-11800D01*
X28683Y-11775D01*
X28775Y-11684D01*
X28824Y-11564D01*
X28825Y-11435D01*
X28775Y-11316D01*
X28684Y-11224D01*
X28564Y-11175D01*
X28435Y-11174D01*
X28316Y-11224D01*
X28240Y-11300D01*
X25000Y-11300D01*
X17500Y-11300D01*
X17000Y-11300D01*
X16936Y-11312D01*
X16923Y-11315D01*
X16858Y-11358D01*
X16625Y-11591D01*
X16584Y-11575D01*
X16415Y-11574D01*
X16259Y-11639D01*
X16139Y-11758D01*
X16075Y-11915D01*
X16074Y-12084D01*
X16139Y-12240D01*
X16258Y-12360D01*
X16415Y-12424D01*
X16584Y-12425D01*
X16740Y-12360D01*
X16860Y-12241D01*
X16924Y-12084D01*
X16925Y-11915D01*
X16908Y-11874D01*
X17082Y-11700D01*
X17500Y-11700D01*
X19198Y-11700D01*
X19139Y-11758D01*
X19075Y-11915D01*
X19074Y-12084D01*
X19139Y-12240D01*
X19198Y-12300D01*
X17500Y-12300D01*
X17436Y-12312D01*
X17423Y-12315D01*
X17358Y-12358D01*
X16917Y-12800D01*
X16877Y-12800D01*
X16860Y-12759D01*
X16741Y-12639D01*
X16584Y-12575D01*
X16415Y-12574D01*
X16259Y-12639D01*
X16139Y-12758D01*
X16075Y-12915D01*
X16074Y-13084D01*
X16139Y-13240D01*
X16258Y-13360D01*
X16415Y-13424D01*
X16584Y-13425D01*
X16740Y-13360D01*
X16860Y-13241D01*
X16877Y-13200D01*
X17000Y-13200D01*
X17076Y-13184D01*
X17141Y-13141D01*
X17582Y-12700D01*
X19198Y-12700D01*
X19139Y-12758D01*
X19075Y-12915D01*
X19074Y-13084D01*
X19139Y-13240D01*
X19198Y-13300D01*
X17500Y-13300D01*
X17436Y-13312D01*
X17423Y-13315D01*
X17358Y-13358D01*
X16917Y-13800D01*
X16877Y-13800D01*
X16860Y-13759D01*
X16741Y-13639D01*
X16584Y-13575D01*
X16415Y-13574D01*
X16259Y-13639D01*
X16139Y-13758D01*
X16075Y-13915D01*
X16074Y-14084D01*
X16139Y-14240D01*
X16258Y-14360D01*
X16415Y-14424D01*
X16584Y-14425D01*
X16740Y-14360D01*
X16860Y-14241D01*
X16877Y-14200D01*
X17000Y-14200D01*
X17076Y-14184D01*
X17141Y-14141D01*
X17582Y-13700D01*
X19198Y-13700D01*
X19139Y-13758D01*
X19075Y-13915D01*
X19074Y-14084D01*
X19139Y-14240D01*
X19198Y-14300D01*
X17750Y-14300D01*
X17686Y-14312D01*
X17673Y-14315D01*
X17608Y-14358D01*
X17167Y-14800D01*
X16877Y-14800D01*
X16860Y-14759D01*
X16741Y-14639D01*
X16584Y-14575D01*
X16415Y-14574D01*
X16259Y-14639D01*
X16139Y-14758D01*
X16075Y-14915D01*
X16074Y-15084D01*
X16139Y-15240D01*
X16258Y-15360D01*
X16415Y-15424D01*
X16584Y-15425D01*
X16740Y-15360D01*
X16860Y-15241D01*
X16877Y-15200D01*
X17250Y-15200D01*
X17326Y-15184D01*
X17391Y-15141D01*
X17832Y-14700D01*
X19198Y-14700D01*
X19139Y-14758D01*
X19075Y-14915D01*
X19074Y-15084D01*
X19139Y-15240D01*
X19258Y-15360D01*
X19415Y-15424D01*
X19584Y-15425D01*
X19740Y-15360D01*
X19860Y-15241D01*
X19924Y-15084D01*
X19925Y-14915D01*
X19860Y-14759D01*
X19801Y-14700D01*
X26240Y-14700D01*
X26315Y-14775D01*
X26435Y-14824D01*
X26564Y-14825D01*
X26683Y-14775D01*
X26775Y-14684D01*
X26824Y-14564D01*
X26825Y-14435D01*
X26775Y-14316D01*
X26684Y-14224D01*
X26564Y-14175D01*
X26435Y-14174D01*
X26316Y-14224D01*
X26240Y-14300D01*
X26125Y-14300D01*
X26183Y-14275D01*
X26275Y-14184D01*
X26324Y-14064D01*
X26325Y-13935D01*
X26275Y-13816D01*
X26184Y-13724D01*
X26125Y-13700D01*
X26740Y-13700D01*
X26815Y-13775D01*
X26935Y-13824D01*
X27064Y-13825D01*
X27183Y-13775D01*
X27275Y-13684D01*
X27324Y-13564D01*
X27325Y-13435D01*
X27275Y-13316D01*
X27184Y-13224D01*
X27125Y-13200D01*
X27740Y-13200D01*
X27815Y-13275D01*
X27935Y-13324D01*
X28064Y-13325D01*
X28183Y-13275D01*
X28275Y-13184D01*
X28324Y-13064D01*
X28325Y-12935D01*
X28275Y-12816D01*
X28184Y-12724D01*
X28064Y-12675D01*
X27935Y-12674D01*
X27816Y-12724D01*
X27740Y-12800D01*
X27625Y-12800D01*
X27683Y-12775D01*
X27775Y-12684D01*
X27824Y-12564D01*
X27825Y-12435D01*
X27775Y-12316D01*
X27684Y-12224D01*
X27625Y-12200D01*
X32740Y-12200D01*
X32815Y-12275D01*
X32935Y-12324D01*
X33064Y-12325D01*
X33183Y-12275D01*
X33275Y-12184D01*
X33324Y-12064D01*
X33325Y-11935D01*
X33325Y-14688D01*
X33255Y-14618D01*
X33089Y-14550D01*
X32910Y-14549D01*
X32745Y-14618D01*
X32618Y-14744D01*
X32550Y-14910D01*
X32549Y-15089D01*
X32618Y-15254D01*
X32744Y-15381D01*
X32910Y-15449D01*
X33089Y-15450D01*
X33254Y-15381D01*
X33381Y-15255D01*
X33404Y-15200D01*
X34595Y-15200D01*
X34618Y-15254D01*
X34744Y-15381D01*
X34910Y-15449D01*
X35089Y-15450D01*
X35254Y-15381D01*
X35381Y-15255D01*
X35449Y-15089D01*
X35450Y-14910D01*
X35450Y-15910D01*
X35381Y-15745D01*
X35255Y-15618D01*
X35089Y-15550D01*
X34910Y-15549D01*
X34745Y-15618D01*
X34618Y-15744D01*
X34595Y-15800D01*
X33404Y-15800D01*
X33381Y-15745D01*
X33255Y-15618D01*
X33089Y-15550D01*
X32910Y-15549D01*
X32745Y-15618D01*
X32618Y-15744D01*
X32595Y-15800D01*
X32000Y-15800D01*
X31936Y-15812D01*
X31923Y-15815D01*
X31858Y-15858D01*
X31417Y-16300D01*
X30301Y-16300D01*
X30360Y-16241D01*
X30424Y-16084D01*
X30425Y-15915D01*
X30425Y-14915D01*
X30425Y-13915D01*
X30360Y-13759D01*
X30241Y-13639D01*
X30084Y-13575D01*
X29915Y-13574D01*
X29759Y-13639D01*
X29639Y-13758D01*
X29575Y-13915D01*
X29574Y-14084D01*
X29639Y-14240D01*
X29758Y-14360D01*
X29915Y-14424D01*
X30084Y-14425D01*
X30240Y-14360D01*
X30360Y-14241D01*
X30424Y-14084D01*
X30425Y-13915D01*
X30425Y-14915D01*
X30360Y-14759D01*
X30241Y-14639D01*
X30084Y-14575D01*
X29915Y-14574D01*
X29759Y-14639D01*
X29639Y-14758D01*
X29575Y-14915D01*
X29574Y-15084D01*
X29639Y-15240D01*
X29758Y-15360D01*
X29915Y-15424D01*
X30084Y-15425D01*
X30240Y-15360D01*
X30360Y-15241D01*
X30424Y-15084D01*
X30425Y-14915D01*
X30425Y-15915D01*
X30360Y-15759D01*
X30241Y-15639D01*
X30084Y-15575D01*
X29915Y-15574D01*
X29759Y-15639D01*
X29639Y-15758D01*
X29575Y-15915D01*
X29574Y-16084D01*
X29639Y-16240D01*
X29698Y-16300D01*
X28259Y-16300D01*
X28184Y-16224D01*
X28064Y-16175D01*
X27935Y-16174D01*
X27816Y-16224D01*
X27724Y-16315D01*
X27675Y-16435D01*
X27674Y-16564D01*
X27724Y-16683D01*
X27790Y-16750D01*
X27724Y-16815D01*
X27675Y-16935D01*
X27674Y-17064D01*
X27724Y-17183D01*
X27815Y-17275D01*
X27935Y-17324D01*
X28064Y-17325D01*
X28183Y-17275D01*
X28259Y-17200D01*
X29622Y-17200D01*
X29639Y-17240D01*
X29758Y-17360D01*
X29915Y-17424D01*
X30084Y-17425D01*
X30240Y-17360D01*
X30360Y-17241D01*
X30424Y-17084D01*
X30425Y-16915D01*
X30360Y-16759D01*
X30301Y-16700D01*
X31500Y-16700D01*
X31576Y-16684D01*
X31641Y-16641D01*
X32082Y-16200D01*
X32595Y-16200D01*
X32618Y-16254D01*
X32744Y-16381D01*
X32910Y-16449D01*
X32986Y-16449D01*
X32863Y-16456D01*
X32712Y-16518D01*
X32684Y-16614D01*
X33000Y-16929D01*
X33315Y-16614D01*
X33287Y-16518D01*
X33092Y-16448D01*
X33254Y-16381D01*
X33381Y-16255D01*
X33404Y-16200D01*
X34595Y-16200D01*
X34618Y-16254D01*
X34744Y-16381D01*
X34910Y-16449D01*
X34986Y-16449D01*
X34863Y-16456D01*
X34712Y-16518D01*
X34684Y-16614D01*
X35000Y-16929D01*
X35315Y-16614D01*
X35287Y-16518D01*
X35092Y-16448D01*
X35254Y-16381D01*
X35381Y-16255D01*
X35449Y-16089D01*
X35450Y-15910D01*
X35450Y-16703D01*
X35385Y-16684D01*
X35070Y-17000D01*
X35385Y-17315D01*
X35481Y-17287D01*
X35554Y-17081D01*
X35554Y-18500D01*
X35450Y-18500D01*
X35450Y-18270D01*
X35450Y-17670D01*
X35427Y-17615D01*
X35385Y-17572D01*
X35329Y-17550D01*
X35270Y-17549D01*
X35014Y-17549D01*
X35136Y-17543D01*
X35287Y-17481D01*
X35315Y-17385D01*
X35000Y-17070D01*
X34929Y-17141D01*
X34929Y-17000D01*
X34614Y-16684D01*
X34518Y-16712D01*
X34445Y-16918D01*
X34456Y-17136D01*
X34518Y-17287D01*
X34614Y-17315D01*
X34929Y-17000D01*
X34929Y-17141D01*
X34684Y-17385D01*
X34712Y-17481D01*
X34904Y-17549D01*
X34670Y-17549D01*
X34615Y-17572D01*
X34572Y-17614D01*
X34550Y-17670D01*
X34549Y-17729D01*
X34549Y-17800D01*
X33554Y-17800D01*
X33554Y-17081D01*
X33543Y-16863D01*
X33481Y-16712D01*
X33385Y-16684D01*
X33070Y-17000D01*
X33385Y-17315D01*
X33481Y-17287D01*
X33554Y-17081D01*
X33554Y-17800D01*
X33450Y-17800D01*
X33450Y-17670D01*
X33427Y-17615D01*
X33385Y-17572D01*
X33329Y-17550D01*
X33270Y-17549D01*
X33014Y-17549D01*
X33136Y-17543D01*
X33287Y-17481D01*
X33315Y-17385D01*
X33000Y-17070D01*
X32929Y-17141D01*
X32929Y-17000D01*
X32614Y-16684D01*
X32518Y-16712D01*
X32445Y-16918D01*
X32456Y-17136D01*
X32518Y-17287D01*
X32614Y-17315D01*
X32929Y-17000D01*
X32929Y-17141D01*
X32684Y-17385D01*
X32712Y-17481D01*
X32904Y-17549D01*
X32670Y-17549D01*
X32615Y-17572D01*
X32572Y-17614D01*
X32550Y-17670D01*
X32549Y-17729D01*
X32549Y-18329D01*
X32572Y-18384D01*
X32614Y-18427D01*
X32670Y-18449D01*
X32729Y-18450D01*
X33329Y-18450D01*
X33384Y-18427D01*
X33427Y-18385D01*
X33449Y-18329D01*
X33450Y-18270D01*
X33450Y-18200D01*
X34549Y-18200D01*
X34549Y-18329D01*
X34572Y-18384D01*
X34614Y-18427D01*
X34670Y-18449D01*
X34729Y-18450D01*
X35329Y-18450D01*
X35384Y-18427D01*
X35427Y-18385D01*
X35449Y-18329D01*
X35450Y-18270D01*
X35450Y-18500D01*
X31782Y-18500D01*
X31241Y-17958D01*
X31176Y-17915D01*
X31100Y-17900D01*
X30418Y-17900D01*
X30360Y-17759D01*
X30241Y-17639D01*
X30084Y-17575D01*
X29915Y-17574D01*
X29759Y-17639D01*
X29639Y-17758D01*
X29622Y-17800D01*
X28759Y-17800D01*
X28684Y-17724D01*
X28564Y-17675D01*
X28435Y-17674D01*
X28316Y-17724D01*
X28224Y-17815D01*
X28175Y-17935D01*
X28174Y-18064D01*
X28224Y-18183D01*
X28315Y-18275D01*
X28435Y-18324D01*
X28564Y-18325D01*
X28683Y-18275D01*
X28759Y-18200D01*
X29622Y-18200D01*
X29639Y-18240D01*
X29758Y-18360D01*
X29915Y-18424D01*
X30084Y-18425D01*
X30240Y-18360D01*
X30301Y-18300D01*
X31017Y-18300D01*
X31558Y-18841D01*
X31558Y-18841D01*
X31601Y-18870D01*
X31623Y-18884D01*
X31623Y-18884D01*
X31700Y-18900D01*
X35617Y-18900D01*
X36900Y-20182D01*
X36900Y-20517D01*
X36491Y-20108D01*
X36426Y-20065D01*
X36350Y-20050D01*
X34509Y-20050D01*
X34434Y-19974D01*
X34314Y-19925D01*
X34207Y-19924D01*
X33891Y-19608D01*
X33826Y-19565D01*
X33750Y-19550D01*
X31332Y-19550D01*
X30641Y-18858D01*
X30576Y-18815D01*
X30500Y-18800D01*
X30377Y-18800D01*
X30360Y-18759D01*
X30241Y-18639D01*
X30084Y-18575D01*
X29915Y-18574D01*
X29759Y-18639D01*
X29639Y-18758D01*
X29622Y-18800D01*
X28125Y-18800D01*
X28183Y-18775D01*
X28275Y-18684D01*
X28324Y-18564D01*
X28325Y-18435D01*
X28275Y-18316D01*
X28184Y-18224D01*
X28064Y-18175D01*
X27935Y-18174D01*
X27816Y-18224D01*
X27736Y-18303D01*
X24750Y-18303D01*
X20029Y-18303D01*
X20029Y-17075D01*
X20018Y-16867D01*
X19960Y-16727D01*
X19925Y-16717D01*
X19925Y-15915D01*
X19860Y-15759D01*
X19741Y-15639D01*
X19584Y-15575D01*
X19415Y-15574D01*
X19259Y-15639D01*
X19139Y-15758D01*
X19075Y-15915D01*
X19074Y-16084D01*
X19139Y-16240D01*
X19258Y-16360D01*
X19415Y-16424D01*
X19584Y-16425D01*
X19740Y-16360D01*
X19860Y-16241D01*
X19924Y-16084D01*
X19925Y-15915D01*
X19925Y-16717D01*
X19867Y-16702D01*
X19797Y-16773D01*
X19797Y-16632D01*
X19772Y-16539D01*
X19575Y-16470D01*
X19367Y-16481D01*
X19227Y-16539D01*
X19202Y-16632D01*
X19500Y-16929D01*
X19797Y-16632D01*
X19797Y-16773D01*
X19570Y-17000D01*
X19867Y-17297D01*
X19960Y-17272D01*
X20029Y-17075D01*
X20029Y-18303D01*
X19797Y-18303D01*
X19860Y-18241D01*
X19924Y-18084D01*
X19925Y-17915D01*
X19860Y-17759D01*
X19797Y-17696D01*
X19797Y-17367D01*
X19500Y-17070D01*
X19429Y-17141D01*
X19429Y-17000D01*
X19132Y-16702D01*
X19039Y-16727D01*
X18970Y-16924D01*
X18981Y-17132D01*
X19039Y-17272D01*
X19132Y-17297D01*
X19429Y-17000D01*
X19429Y-17141D01*
X19202Y-17367D01*
X19227Y-17460D01*
X19424Y-17529D01*
X19632Y-17518D01*
X19772Y-17460D01*
X19797Y-17367D01*
X19797Y-17696D01*
X19741Y-17639D01*
X19584Y-17575D01*
X19415Y-17574D01*
X19259Y-17639D01*
X19139Y-17758D01*
X19075Y-17915D01*
X19074Y-18084D01*
X19139Y-18240D01*
X19202Y-18303D01*
X18836Y-18303D01*
X17391Y-16858D01*
X17326Y-16815D01*
X17250Y-16800D01*
X16925Y-16800D01*
X16925Y-15915D01*
X16860Y-15759D01*
X16741Y-15639D01*
X16584Y-15575D01*
X16415Y-15574D01*
X16259Y-15639D01*
X16139Y-15758D01*
X16075Y-15915D01*
X16074Y-16084D01*
X16139Y-16240D01*
X16258Y-16360D01*
X16415Y-16424D01*
X16584Y-16425D01*
X16740Y-16360D01*
X16860Y-16241D01*
X16924Y-16084D01*
X16925Y-15915D01*
X16925Y-16800D01*
X16877Y-16800D01*
X16860Y-16759D01*
X16741Y-16639D01*
X16584Y-16575D01*
X16415Y-16574D01*
X16259Y-16639D01*
X16139Y-16758D01*
X16075Y-16915D01*
X16074Y-17084D01*
X16139Y-17240D01*
X16258Y-17360D01*
X16415Y-17424D01*
X16584Y-17425D01*
X16740Y-17360D01*
X16860Y-17241D01*
X16877Y-17200D01*
X17167Y-17200D01*
X18612Y-18645D01*
X18612Y-18645D01*
X18655Y-18674D01*
X18677Y-18688D01*
X18677Y-18688D01*
X18753Y-18703D01*
X18753Y-18703D01*
X19195Y-18703D01*
X19139Y-18758D01*
X19075Y-18915D01*
X19074Y-19084D01*
X19139Y-19240D01*
X19258Y-19360D01*
X19415Y-19424D01*
X19584Y-19425D01*
X19740Y-19360D01*
X19860Y-19241D01*
X19924Y-19084D01*
X19925Y-18915D01*
X19860Y-18759D01*
X19804Y-18703D01*
X24750Y-18703D01*
X27365Y-18703D01*
X27316Y-18724D01*
X27224Y-18815D01*
X27175Y-18935D01*
X27174Y-19064D01*
X27224Y-19183D01*
X27315Y-19275D01*
X27435Y-19324D01*
X27564Y-19325D01*
X27683Y-19275D01*
X27759Y-19200D01*
X28000Y-19200D01*
X29622Y-19200D01*
X29639Y-19240D01*
X29758Y-19360D01*
X29915Y-19424D01*
X30084Y-19425D01*
X30240Y-19360D01*
X30360Y-19241D01*
X30377Y-19200D01*
X30417Y-19200D01*
X31017Y-19800D01*
X30377Y-19800D01*
X30360Y-19759D01*
X30241Y-19639D01*
X30084Y-19575D01*
X29915Y-19574D01*
X29759Y-19639D01*
X29639Y-19758D01*
X29622Y-19800D01*
X28259Y-19800D01*
X28184Y-19724D01*
X28064Y-19675D01*
X27935Y-19674D01*
X27816Y-19724D01*
X27740Y-19800D01*
X27259Y-19800D01*
X27184Y-19724D01*
X27064Y-19675D01*
X26935Y-19674D01*
X26816Y-19724D01*
X26724Y-19815D01*
X26675Y-19935D01*
X26674Y-20064D01*
X26724Y-20183D01*
X26815Y-20275D01*
X26935Y-20324D01*
X27064Y-20325D01*
X27183Y-20275D01*
X27259Y-20200D01*
X27740Y-20200D01*
X27815Y-20275D01*
X27935Y-20324D01*
X28064Y-20325D01*
X28183Y-20275D01*
X28259Y-20200D01*
X29622Y-20200D01*
X29639Y-20240D01*
X29758Y-20360D01*
X29915Y-20424D01*
X30084Y-20425D01*
X30240Y-20360D01*
X30360Y-20241D01*
X30377Y-20200D01*
X32517Y-20200D01*
X33058Y-20741D01*
X33058Y-20741D01*
X33101Y-20770D01*
X33123Y-20784D01*
X33123Y-20784D01*
X33200Y-20800D01*
X34670Y-20800D01*
X34615Y-20822D01*
X34572Y-20864D01*
X34550Y-20920D01*
X34549Y-20979D01*
X34549Y-21579D01*
X34572Y-21634D01*
X34614Y-21677D01*
X34670Y-21699D01*
X34729Y-21700D01*
X35329Y-21700D01*
X35384Y-21677D01*
X35427Y-21635D01*
X35449Y-21579D01*
X35450Y-21520D01*
X35450Y-20982D01*
X35572Y-21105D01*
X35550Y-21160D01*
X35549Y-21339D01*
X35618Y-21504D01*
X35744Y-21631D01*
X35910Y-21699D01*
X36089Y-21700D01*
X36254Y-21631D01*
X36381Y-21505D01*
X36449Y-21339D01*
X36450Y-21160D01*
X36381Y-20995D01*
X36255Y-20868D01*
X36089Y-20800D01*
X35910Y-20799D01*
X35855Y-20822D01*
X35491Y-20458D01*
X35478Y-20450D01*
X36267Y-20450D01*
X36600Y-20782D01*
X36600Y-21817D01*
X36393Y-22023D01*
X36381Y-21995D01*
X36255Y-21868D01*
X36089Y-21800D01*
X35910Y-21799D01*
X35745Y-21868D01*
X35618Y-21994D01*
X35550Y-22160D01*
X35549Y-22339D01*
X35618Y-22504D01*
X35744Y-22631D01*
X35910Y-22699D01*
X36089Y-22700D01*
X36254Y-22631D01*
X36381Y-22505D01*
X36404Y-22450D01*
X36450Y-22450D01*
X36526Y-22434D01*
X36591Y-22391D01*
X36900Y-22082D01*
X36900Y-22717D01*
X36567Y-23050D01*
X36404Y-23050D01*
X36381Y-22995D01*
X36255Y-22868D01*
X36089Y-22800D01*
X35910Y-22799D01*
X35745Y-22868D01*
X35618Y-22994D01*
X35550Y-23160D01*
X35549Y-23339D01*
X35618Y-23504D01*
X35744Y-23631D01*
X35910Y-23699D01*
X36089Y-23700D01*
X36254Y-23631D01*
X36381Y-23505D01*
X36404Y-23450D01*
X36650Y-23450D01*
X36726Y-23434D01*
X36791Y-23391D01*
X37231Y-22950D01*
X37231Y-33995D01*
M02*
