G04 DipTrace 2.4.0.2*
%INtsunami.back.gbl*%
%MOIN*%
%ADD15C,0.01*%
%ADD19C,0.008*%
%ADD31R,0.0669X0.0669*%
%ADD33C,0.0669*%
%ADD41C,0.0236*%
%ADD52R,0.0591X0.0591*%
%ADD54C,0.0591*%
%ADD55C,0.1299*%
%ADD60O,0.0354X0.063*%
%ADD62R,0.0598X0.1598*%
%ADD65C,0.0709*%
%FSLAX44Y44*%
G04*
G70*
G90*
G75*
G01*
%LNBottom*%
%LPD*%
X12312Y24562D2*
D15*
X11937Y24187D1*
Y18187D1*
X13062Y17062D1*
X18437Y17562D2*
Y22125D1*
X17437D2*
Y17500D1*
X18187Y17750D2*
Y21812D1*
X12312Y22812D2*
X12562Y22562D1*
X17812D1*
X17937Y22437D1*
Y17500D1*
X17687Y22312D2*
Y17750D1*
X17187Y29437D2*
D19*
Y29375D1*
X17687Y28875D1*
Y23875D1*
X16562Y22750D1*
X12750D1*
X12375Y23125D1*
Y23750D1*
X15312Y23000D2*
X15562Y23250D1*
X16500D1*
X17500Y24250D1*
Y28812D1*
X16875Y29437D1*
X16562D2*
X17312Y28687D1*
Y24437D1*
X16625Y23750D1*
X16938Y28690D2*
D15*
X14626D1*
X13876Y29440D1*
X13501D1*
X8687Y23437D2*
X10687D1*
X10937Y23187D1*
Y22437D1*
X13562Y20187D2*
Y17402D1*
Y16937D1*
X17687D1*
X7687Y22437D2*
X8187Y22937D1*
X10562D1*
X10687Y23062D1*
X13562Y17568D2*
Y17402D1*
X16312Y14937D2*
Y12687D1*
X11938Y16188D2*
X12125Y16001D1*
X20439D1*
X21501Y17063D1*
X16687Y15562D2*
X16187D1*
X16062Y15437D1*
Y12750D1*
X16000Y12687D1*
X13937D1*
X12062Y29437D2*
X11687Y29062D1*
Y14687D1*
X11062Y21937D2*
X10062D1*
X14698Y34687D2*
X14687D1*
Y34187D1*
X6687Y26187D1*
Y23437D1*
X17687Y16562D2*
X13312D1*
Y17312D1*
Y19937D1*
X17375Y15750D2*
X21687D1*
X21812Y15875D1*
Y25000D1*
X18437Y28375D1*
X18375D1*
X17063Y28065D2*
X16498Y27500D1*
X14094D1*
X13437Y12437D2*
Y14312D1*
X12312Y15437D1*
D41*
X14562Y10812D3*
X18062Y11812D3*
X9011Y16789D3*
X20562Y14937D3*
X9562Y26562D3*
X12062Y25562D3*
X11081Y24062D3*
X16812Y13272D3*
X10187Y30937D3*
X12125Y29812D3*
X15737Y26999D3*
X12187Y20812D3*
X13312Y16300D3*
X15437Y17687D3*
X16687Y28062D3*
X15188Y32282D3*
X12312Y24562D3*
X13062Y17062D3*
X18437Y17562D3*
Y22125D3*
X17437D3*
Y17500D3*
X18187Y17750D3*
Y21812D3*
X12312Y22812D3*
X17937Y17500D3*
X17687Y22312D3*
Y17750D3*
X17187Y29437D3*
X12375Y23750D3*
X15312Y23000D3*
X16875Y29437D3*
X16562D3*
X16625Y23750D3*
X16938Y28690D3*
X13501Y29440D3*
X13062Y10812D3*
X11937Y13937D3*
X14562Y14937D3*
X15352Y13687D3*
X17812Y10812D3*
X18812Y12562D3*
X7687Y15687D3*
X17001Y15688D3*
X9562Y24187D3*
X16876Y22187D3*
X7312Y32815D3*
X10563D3*
X20812Y24937D3*
X12125Y30562D3*
X14187Y28687D3*
X15039Y26125D3*
X12937Y20812D3*
X11187Y17312D3*
Y15812D3*
X15937Y17687D3*
X12937Y16312D3*
X21272Y14937D3*
X6871Y33937D3*
X12397Y27949D3*
X16250Y28312D3*
X17500Y29437D3*
X15188Y30752D3*
X10690Y28315D3*
X17063Y27690D3*
X10937Y22437D3*
X13562Y20187D3*
X17687Y16937D3*
X10687Y23062D3*
X13562Y17568D3*
X16312Y14937D3*
Y12687D3*
X11938Y16188D3*
X21501Y17063D3*
X16687Y15562D3*
X13937Y12687D3*
X12062Y29437D3*
X11687Y14687D3*
X11062Y21937D3*
X10062D3*
X17687Y16562D3*
X13312Y19937D3*
Y17312D3*
X17375Y15750D3*
X18375Y28375D3*
X17063Y28065D3*
X14094Y27500D3*
X13437Y12437D3*
X12312Y15437D3*
X15875Y19437D3*
X14062Y21375D3*
X13625Y20812D3*
X14625Y20687D3*
X14187Y20250D3*
X15187Y20125D3*
X14750Y19687D3*
X15437Y19000D3*
X16562Y18750D3*
X17187Y18687D3*
X18750D3*
X19562D3*
X16250Y18187D3*
X17187D3*
X18750D3*
X19375D3*
X20062Y17937D3*
X19375Y17250D3*
Y16312D3*
Y15312D3*
X20000D3*
X19375Y14125D3*
X9750Y13812D3*
X18062Y13625D3*
X20000D3*
X9750Y13312D3*
X8812Y13062D3*
X9312D3*
X8812Y11812D3*
X9312D3*
X8812Y10312D3*
X9312D3*
X10062Y10187D3*
X10812D3*
X8437Y9312D3*
X9062D3*
X11062Y9187D3*
X11812D3*
X9062Y8312D3*
X12062Y8187D3*
X12812D3*
X14812D3*
X15812D3*
X16812D3*
X17812D3*
X8437Y8062D3*
X19062D3*
X14812Y7687D3*
X15812D3*
X16812D3*
X17812D3*
X12812Y7437D3*
X13812D3*
X8437Y7062D3*
X9062D3*
X18437D3*
X19062D3*
X8437Y6062D3*
X9062D3*
X18437D3*
X19062D3*
D31*
X8687Y23437D3*
D33*
Y22437D3*
X7687Y23437D3*
Y22437D3*
X6687Y23437D3*
Y22437D3*
D52*
X18780Y30562D3*
D54*
X17795D3*
D55*
X20787Y32570D3*
X16772D3*
D60*
X10079Y35005D3*
X7480D3*
D62*
X17780Y34377D3*
X19780D3*
D52*
X19937Y23937D3*
D54*
Y22937D3*
Y21937D3*
Y20937D3*
D52*
X20937Y23937D3*
D54*
Y22937D3*
Y21937D3*
Y20937D3*
D52*
X8780Y8812D3*
D54*
X9764D3*
D55*
X6772Y6804D3*
X10787D3*
D52*
X18780Y8812D3*
D54*
X19764D3*
D55*
X16772Y6804D3*
X20787D3*
D62*
X9780Y4987D3*
X7780D3*
X19780D3*
X17780D3*
D31*
X12926Y34687D3*
D33*
X14698D3*
D65*
X12434Y33703D3*
X15190D3*
D54*
X7000Y30752D3*
M02*
