G04 (created by PCBNEW (2013-mar-13)-testing) date Tue 12 Nov 2013 09:09:01 PM EST*
%MOIN*%
G04 Gerber Fmt 3.4, Leading zero omitted, Abs format*
%FSLAX34Y34*%
G01*
G70*
G90*
G04 APERTURE LIST*
%ADD10C,0.005906*%
%ADD11O,0.080000X0.100000*%
%ADD12R,0.062000X0.062000*%
%ADD13C,0.062000*%
%ADD14O,0.100000X0.075000*%
%ADD15O,0.070000X0.090000*%
%ADD16C,0.100000*%
%ADD17R,0.062000X0.100000*%
%ADD18O,0.062000X0.100000*%
%ADD19O,0.100000X0.062000*%
%ADD20R,0.100000X0.062000*%
%ADD21C,0.188976*%
%ADD22C,0.055000*%
%ADD23C,0.035000*%
%ADD24C,0.020000*%
%ADD25C,0.010000*%
G04 APERTURE END LIST*
G54D10*
G54D11*
X72500Y-33000D03*
X70500Y-33000D03*
X68500Y-33000D03*
X66500Y-33000D03*
X64500Y-33000D03*
X62500Y-33000D03*
X60500Y-33000D03*
X58500Y-33000D03*
G54D12*
X63150Y-38250D03*
G54D13*
X62350Y-38250D03*
G54D12*
X63150Y-36000D03*
G54D13*
X62350Y-36000D03*
G54D14*
X82250Y-34000D03*
X82250Y-32000D03*
X75250Y-32000D03*
X75250Y-34000D03*
G54D15*
X69850Y-35000D03*
X70750Y-35000D03*
X71650Y-35000D03*
G54D16*
X73250Y-53000D03*
X74750Y-53000D03*
X84500Y-38250D03*
X83000Y-38250D03*
X81500Y-38250D03*
G54D17*
X59000Y-49000D03*
G54D18*
X60000Y-49000D03*
X61000Y-49000D03*
X62000Y-49000D03*
X63000Y-49000D03*
X64000Y-49000D03*
X65000Y-49000D03*
X66000Y-49000D03*
X67000Y-49000D03*
X68000Y-49000D03*
X69000Y-49000D03*
X70000Y-49000D03*
X71000Y-49000D03*
X72000Y-49000D03*
X72000Y-46000D03*
X71000Y-46000D03*
X70000Y-46000D03*
X69000Y-46000D03*
X68000Y-46000D03*
X67000Y-46000D03*
X66000Y-46000D03*
X65000Y-46000D03*
X64000Y-46000D03*
X63000Y-46000D03*
X62000Y-46000D03*
X61000Y-46000D03*
X60000Y-46000D03*
X59000Y-46000D03*
X57250Y-38000D03*
X58250Y-38000D03*
X59250Y-38000D03*
X59250Y-35000D03*
X58250Y-35000D03*
X57250Y-35000D03*
X56250Y-35000D03*
X55250Y-35000D03*
X54250Y-35000D03*
X53250Y-35000D03*
X54250Y-38000D03*
G54D17*
X53250Y-38000D03*
G54D18*
X55250Y-38000D03*
X56250Y-38000D03*
G54D19*
X65500Y-37250D03*
G54D20*
X65500Y-38250D03*
G54D19*
X65500Y-36250D03*
G54D13*
X68500Y-51000D03*
X66500Y-51000D03*
G54D19*
X69500Y-41250D03*
X69500Y-42250D03*
X69500Y-43250D03*
X69500Y-44250D03*
X72500Y-44250D03*
X72500Y-43250D03*
X72500Y-42250D03*
X72500Y-41250D03*
X72500Y-40250D03*
X72500Y-39250D03*
X72500Y-38250D03*
X72500Y-37250D03*
X69500Y-40250D03*
X69500Y-39250D03*
X69500Y-38250D03*
X69500Y-37250D03*
G54D13*
X47500Y-42500D03*
X47500Y-43500D03*
X56500Y-42500D03*
X56500Y-43500D03*
X47500Y-52500D03*
X47500Y-51500D03*
X56500Y-51500D03*
X56500Y-52500D03*
X82500Y-42500D03*
X82500Y-43500D03*
X91500Y-42500D03*
X91500Y-43500D03*
X82500Y-52500D03*
X82500Y-51500D03*
X91500Y-51500D03*
X91500Y-52500D03*
G54D21*
X52000Y-31750D03*
X86250Y-31750D03*
X80000Y-53500D03*
X63250Y-53500D03*
G54D22*
X52250Y-39500D03*
X55250Y-39500D03*
X59250Y-39500D03*
X56250Y-39500D03*
X62000Y-50500D03*
X59000Y-50500D03*
X79500Y-39750D03*
X79500Y-36750D03*
X77750Y-36750D03*
X77750Y-39750D03*
X79500Y-43750D03*
X79500Y-40750D03*
X77750Y-40750D03*
X77750Y-43750D03*
X75500Y-41250D03*
X75500Y-38250D03*
X73750Y-41250D03*
X73750Y-38250D03*
X76750Y-42250D03*
X73750Y-42250D03*
X73500Y-45750D03*
X76500Y-45750D03*
X73500Y-47500D03*
X76500Y-47500D03*
X73500Y-49250D03*
X76500Y-49250D03*
X73500Y-51000D03*
X76500Y-51000D03*
X80750Y-45750D03*
X77750Y-45750D03*
X80750Y-47500D03*
X77750Y-47500D03*
X80750Y-49250D03*
X77750Y-49250D03*
X80750Y-51000D03*
X77750Y-51000D03*
X71000Y-53500D03*
X71000Y-50500D03*
X59000Y-52250D03*
X62000Y-52250D03*
X52000Y-35500D03*
X52000Y-34500D03*
X75250Y-37000D03*
X74250Y-37000D03*
X68250Y-41250D03*
X68250Y-42250D03*
X69000Y-52750D03*
X68000Y-52750D03*
X66000Y-52750D03*
X67000Y-52750D03*
X63750Y-50500D03*
X64750Y-50500D03*
X66000Y-44250D03*
X65000Y-44250D03*
G54D23*
X53500Y-42500D03*
X76750Y-45000D03*
X68000Y-36250D03*
X73000Y-36250D03*
X68250Y-38500D03*
X62000Y-47500D03*
X62750Y-51000D03*
X58250Y-48500D03*
X58000Y-43500D03*
X73750Y-38250D03*
G54D24*
X72500Y-33000D02*
X72500Y-31750D01*
X84500Y-33000D02*
X84500Y-32750D01*
X84500Y-32750D02*
X83000Y-31250D01*
X83000Y-31250D02*
X73250Y-31250D01*
X84500Y-33000D02*
X84500Y-38250D01*
X73000Y-31250D02*
X73250Y-31250D01*
X72500Y-31750D02*
X73000Y-31250D01*
X87000Y-42500D02*
X87000Y-42250D01*
X66500Y-36250D02*
X67500Y-35250D01*
X67500Y-35250D02*
X67500Y-31500D01*
X67500Y-31500D02*
X68250Y-30750D01*
X68250Y-30750D02*
X83250Y-30750D01*
X83250Y-30750D02*
X87000Y-34500D01*
X87000Y-34500D02*
X87000Y-42250D01*
X66500Y-36250D02*
X65500Y-36250D01*
X91500Y-42500D02*
X87000Y-42500D01*
X87000Y-42500D02*
X82500Y-42500D01*
G54D25*
X59250Y-39500D02*
X61500Y-39500D01*
G54D24*
X50750Y-42500D02*
X53500Y-42500D01*
X52000Y-35500D02*
X50750Y-36750D01*
X50750Y-42500D02*
X47500Y-42500D01*
X50750Y-36750D02*
X50750Y-42500D01*
G54D25*
X63750Y-50500D02*
X62000Y-50500D01*
G54D24*
X65000Y-49000D02*
X65000Y-49250D01*
X65000Y-49250D02*
X63750Y-50500D01*
X66000Y-44250D02*
X61500Y-39750D01*
X61500Y-39750D02*
X61500Y-39500D01*
X61500Y-39500D02*
X61500Y-36750D01*
X66000Y-44250D02*
X66000Y-46000D01*
X66000Y-46000D02*
X67000Y-46000D01*
X53250Y-35000D02*
X52500Y-35000D01*
X52500Y-35000D02*
X52000Y-35500D01*
X63150Y-36000D02*
X63150Y-36100D01*
X63150Y-36100D02*
X62500Y-36750D01*
X62500Y-36750D02*
X61500Y-36750D01*
X56000Y-36750D02*
X54250Y-35000D01*
X61500Y-36750D02*
X56000Y-36750D01*
X65500Y-36250D02*
X64750Y-36250D01*
X64750Y-36250D02*
X64500Y-36250D01*
X64500Y-36250D02*
X64250Y-36000D01*
X64250Y-36000D02*
X63150Y-36000D01*
X53250Y-35000D02*
X54250Y-35000D01*
X68500Y-33000D02*
X68500Y-35000D01*
X68750Y-38500D02*
X68750Y-35250D01*
X68750Y-35250D02*
X68500Y-35000D01*
X68750Y-38500D02*
X69500Y-39250D01*
G54D25*
X80750Y-49250D02*
X80750Y-51000D01*
G54D24*
X69500Y-39250D02*
X68750Y-40000D01*
X68750Y-40500D02*
X69500Y-41250D01*
X68750Y-40000D02*
X68750Y-40500D01*
X73500Y-45750D02*
X73000Y-45250D01*
X73000Y-45250D02*
X71200Y-45250D01*
X71200Y-45250D02*
X70250Y-44300D01*
X70250Y-44300D02*
X70250Y-42000D01*
X70250Y-42000D02*
X69500Y-41250D01*
G54D25*
X69500Y-41250D02*
X68250Y-41250D01*
G54D24*
X73500Y-45750D02*
X73500Y-47500D01*
X73500Y-47500D02*
X73500Y-49250D01*
X73500Y-51000D02*
X73500Y-49250D01*
X73500Y-51000D02*
X74250Y-51750D01*
X74250Y-51750D02*
X80000Y-51750D01*
X80750Y-47500D02*
X80750Y-45750D01*
X80750Y-51000D02*
X80750Y-47500D01*
X80000Y-51750D02*
X80750Y-51000D01*
X65000Y-46000D02*
X65000Y-44250D01*
G54D25*
X59000Y-49000D02*
X59000Y-50500D01*
X75250Y-37000D02*
X75250Y-37750D01*
X73750Y-39250D02*
X72500Y-39250D01*
X75250Y-37750D02*
X73750Y-39250D01*
X68000Y-49000D02*
X68000Y-50500D01*
X68000Y-50500D02*
X68500Y-51000D01*
X69000Y-52750D02*
X68500Y-52250D01*
X68500Y-52250D02*
X68500Y-51000D01*
X67000Y-49000D02*
X67000Y-50500D01*
X67000Y-50500D02*
X66500Y-51000D01*
X66000Y-52750D02*
X66500Y-52250D01*
X66500Y-52250D02*
X66500Y-51000D01*
X55250Y-38000D02*
X55250Y-39500D01*
X56250Y-38000D02*
X56250Y-39500D01*
X82500Y-43500D02*
X91500Y-43500D01*
X81000Y-45000D02*
X82500Y-43500D01*
X76750Y-45000D02*
X81000Y-45000D01*
G54D24*
X82250Y-32000D02*
X82250Y-34000D01*
X82250Y-34000D02*
X83000Y-34750D01*
X83000Y-34750D02*
X83000Y-38250D01*
X65500Y-38250D02*
X63150Y-38250D01*
X81500Y-38250D02*
X81500Y-37500D01*
X67500Y-36250D02*
X65500Y-38250D01*
X68000Y-36250D02*
X67500Y-36250D01*
X73250Y-36000D02*
X73000Y-36250D01*
X80000Y-36000D02*
X73250Y-36000D01*
X81500Y-37500D02*
X80000Y-36000D01*
G54D25*
X67750Y-42500D02*
X69500Y-44250D01*
X67750Y-39000D02*
X67750Y-42500D01*
X68250Y-38500D02*
X67750Y-39000D01*
X77750Y-40750D02*
X79500Y-40750D01*
X77250Y-40250D02*
X77750Y-39750D01*
X72500Y-40250D02*
X77250Y-40250D01*
X77250Y-40250D02*
X77750Y-40750D01*
X64000Y-49000D02*
X63000Y-49000D01*
X59000Y-46000D02*
X60000Y-46000D01*
X60000Y-46000D02*
X62000Y-48000D01*
X62000Y-48000D02*
X62000Y-49000D01*
X62000Y-52250D02*
X61500Y-51750D01*
X62000Y-49750D02*
X62000Y-49000D01*
X61500Y-50250D02*
X62000Y-49750D01*
X61500Y-51750D02*
X61500Y-50250D01*
X68000Y-46000D02*
X68000Y-48000D01*
X69000Y-49000D02*
X68000Y-48000D01*
X65000Y-48000D02*
X64000Y-49000D01*
X68000Y-48000D02*
X65000Y-48000D01*
X72000Y-46000D02*
X71000Y-46000D01*
X71000Y-46000D02*
X70000Y-46000D01*
X70000Y-46000D02*
X69000Y-46000D01*
X69000Y-46000D02*
X68000Y-46000D01*
X69000Y-49000D02*
X70000Y-49000D01*
X70000Y-49000D02*
X70750Y-48250D01*
X70750Y-48250D02*
X71250Y-48250D01*
X71250Y-48250D02*
X72000Y-49000D01*
X62000Y-49000D02*
X64000Y-49000D01*
X72500Y-43250D02*
X74250Y-43250D01*
X80250Y-40500D02*
X79500Y-39750D01*
X80250Y-41000D02*
X80250Y-40500D01*
X80000Y-41250D02*
X80250Y-41000D01*
X76750Y-41250D02*
X80000Y-41250D01*
X74750Y-43250D02*
X76750Y-41250D01*
X74250Y-43250D02*
X74750Y-43250D01*
X82500Y-51500D02*
X81250Y-51500D01*
X62000Y-47500D02*
X62000Y-46000D01*
X65750Y-54000D02*
X62750Y-51000D01*
X75000Y-54000D02*
X65750Y-54000D01*
X76750Y-52250D02*
X75000Y-54000D01*
X80500Y-52250D02*
X76750Y-52250D01*
X81250Y-51500D02*
X80500Y-52250D01*
X91500Y-51500D02*
X82500Y-51500D01*
X47500Y-51500D02*
X56500Y-51500D01*
X56500Y-51500D02*
X58250Y-49750D01*
X58250Y-49750D02*
X58250Y-48500D01*
X73750Y-41250D02*
X72500Y-41250D01*
X73750Y-42250D02*
X73750Y-41250D01*
X64000Y-46000D02*
X64000Y-45500D01*
X62250Y-43500D02*
X58000Y-43500D01*
X64000Y-45250D02*
X62250Y-43500D01*
X64000Y-45500D02*
X64000Y-45250D01*
G54D24*
X69850Y-35000D02*
X69850Y-35600D01*
X70500Y-37250D02*
X69500Y-38250D01*
X70500Y-36250D02*
X70500Y-37250D01*
X69850Y-35600D02*
X70500Y-36250D01*
G54D25*
X69500Y-38250D02*
X70250Y-39000D01*
X70250Y-39000D02*
X70250Y-41000D01*
G54D24*
X76500Y-45750D02*
X75650Y-44900D01*
X75650Y-44900D02*
X71900Y-44900D01*
X71900Y-44900D02*
X70750Y-43750D01*
X70750Y-43750D02*
X70750Y-41500D01*
X70750Y-41500D02*
X70250Y-41000D01*
X70250Y-41000D02*
X69500Y-40250D01*
X77750Y-49250D02*
X77750Y-51000D01*
X77750Y-47500D02*
X77750Y-49250D01*
X77750Y-45750D02*
X77750Y-47500D01*
X76500Y-51000D02*
X76500Y-49250D01*
X76500Y-49250D02*
X76500Y-47500D01*
X76500Y-47500D02*
X76500Y-45750D01*
X76500Y-45750D02*
X77750Y-45750D01*
G54D25*
X75500Y-41250D02*
X74000Y-42750D01*
X73000Y-42750D02*
X72500Y-42250D01*
X73250Y-42750D02*
X73000Y-42750D01*
X74000Y-42750D02*
X73250Y-42750D01*
G54D24*
X75250Y-34000D02*
X71250Y-34000D01*
X71250Y-34000D02*
X70750Y-34500D01*
X70750Y-34500D02*
X70750Y-35000D01*
G54D25*
X73750Y-38250D02*
X72500Y-38250D01*
G54D24*
X75250Y-32000D02*
X75250Y-34000D01*
X71650Y-35000D02*
X72500Y-35850D01*
X72500Y-35850D02*
X72500Y-37250D01*
G54D25*
X77750Y-36750D02*
X79500Y-36750D01*
X76750Y-42250D02*
X77750Y-43250D01*
X77750Y-43250D02*
X77750Y-43750D01*
X71000Y-50500D02*
X72500Y-52000D01*
X72500Y-52250D02*
X73250Y-53000D01*
X72500Y-52000D02*
X72500Y-52250D01*
X71000Y-49000D02*
X71000Y-50500D01*
X60750Y-35750D02*
X61750Y-35750D01*
X56000Y-35750D02*
X60750Y-35750D01*
X55250Y-35000D02*
X56000Y-35750D01*
X61750Y-35750D02*
X64500Y-33000D01*
X62500Y-33000D02*
X61750Y-32250D01*
X56250Y-34250D02*
X56250Y-35000D01*
X58250Y-32250D02*
X56250Y-34250D01*
X61750Y-32250D02*
X58250Y-32250D01*
X54250Y-38000D02*
X54250Y-45750D01*
X60000Y-48250D02*
X60000Y-49000D01*
X59500Y-47750D02*
X60000Y-48250D01*
X56250Y-47750D02*
X59500Y-47750D01*
X54250Y-45750D02*
X56250Y-47750D01*
X57250Y-38000D02*
X57250Y-46500D01*
X61000Y-48250D02*
X61000Y-49000D01*
X60000Y-47250D02*
X61000Y-48250D01*
X58000Y-47250D02*
X60000Y-47250D01*
X57250Y-46500D02*
X58000Y-47250D01*
X60500Y-33000D02*
X60000Y-33000D01*
X58250Y-34500D02*
X58250Y-35000D01*
X59750Y-33000D02*
X58250Y-34500D01*
X60000Y-33000D02*
X59750Y-33000D01*
X58500Y-33000D02*
X58500Y-33750D01*
X58500Y-33750D02*
X57250Y-35000D01*
M02*
