G04 DipTrace 2.4.0.2*
%INroutetab.gbr*%
%MOIN*%
%FSLAX44Y44*%
G04*
G70*
G90*
G75*
G01*
%LNroutetab*%
%LPD*%
G36*
X3349Y7295D2*
X3880Y7826D1*
X4587Y7119D1*
X4056Y6588D1*
X3349Y7295D1*
G37*
G36*
X3897Y3365D2*
X3367Y3895D1*
X4074Y4602D1*
X4605Y4072D1*
X3897Y3365D1*
G37*
G36*
X7848Y3907D2*
X7317Y3376D1*
X6610Y4083D1*
X7140Y4614D1*
X7848Y3907D1*
G37*
G36*
X7318Y7822D2*
X7848Y7292D1*
X7141Y6585D1*
X6611Y7115D1*
X7318Y7822D1*
G37*
G36*
X9669Y7295D2*
X10200Y7826D1*
X10907Y7119D1*
X10376Y6588D1*
X9669Y7295D1*
G37*
G36*
X10217Y3365D2*
X9687Y3895D1*
X10394Y4602D1*
X10925Y4072D1*
X10217Y3365D1*
G37*
G36*
X14168Y3907D2*
X13637Y3376D1*
X12930Y4083D1*
X13460Y4614D1*
X14168Y3907D1*
G37*
G36*
X13638Y7822D2*
X14168Y7292D1*
X13461Y6585D1*
X12931Y7115D1*
X13638Y7822D1*
G37*
G36*
X15989Y7295D2*
X16520Y7826D1*
X17227Y7119D1*
X16696Y6588D1*
X15989Y7295D1*
G37*
G36*
X16537Y3365D2*
X16007Y3895D1*
X16714Y4602D1*
X17245Y4072D1*
X16537Y3365D1*
G37*
G36*
X20488Y3907D2*
X19957Y3376D1*
X19250Y4083D1*
X19780Y4614D1*
X20488Y3907D1*
G37*
G36*
X19958Y7822D2*
X20488Y7292D1*
X19781Y6585D1*
X19251Y7115D1*
X19958Y7822D1*
G37*
G36*
X22309Y7295D2*
X22840Y7826D1*
X23547Y7119D1*
X23016Y6588D1*
X22309Y7295D1*
G37*
G36*
X22857Y3365D2*
X22327Y3895D1*
X23034Y4602D1*
X23565Y4072D1*
X22857Y3365D1*
G37*
G36*
X26808Y3907D2*
X26277Y3376D1*
X25570Y4083D1*
X26100Y4614D1*
X26808Y3907D1*
G37*
G36*
X26278Y7822D2*
X26808Y7292D1*
X26101Y6585D1*
X25571Y7115D1*
X26278Y7822D1*
G37*
G36*
X28629Y7295D2*
X29160Y7826D1*
X29867Y7119D1*
X29336Y6588D1*
X28629Y7295D1*
G37*
G36*
X29177Y3365D2*
X28647Y3895D1*
X29354Y4602D1*
X29885Y4072D1*
X29177Y3365D1*
G37*
G36*
X33128Y3907D2*
X32597Y3376D1*
X31890Y4083D1*
X32420Y4614D1*
X33128Y3907D1*
G37*
G36*
X32598Y7822D2*
X33128Y7292D1*
X32421Y6585D1*
X31891Y7115D1*
X32598Y7822D1*
G37*
G36*
X34949Y7295D2*
X35480Y7826D1*
X36187Y7119D1*
X35656Y6588D1*
X34949Y7295D1*
G37*
G36*
X35497Y3365D2*
X34967Y3895D1*
X35674Y4602D1*
X36205Y4072D1*
X35497Y3365D1*
G37*
G36*
X39448Y3907D2*
X38917Y3376D1*
X38210Y4083D1*
X38740Y4614D1*
X39448Y3907D1*
G37*
G36*
X38918Y7822D2*
X39448Y7292D1*
X38741Y6585D1*
X38211Y7115D1*
X38918Y7822D1*
G37*
G36*
X41269Y7295D2*
X41800Y7826D1*
X42507Y7119D1*
X41976Y6588D1*
X41269Y7295D1*
G37*
G36*
X41817Y3365D2*
X41287Y3895D1*
X41994Y4602D1*
X42525Y4072D1*
X41817Y3365D1*
G37*
G36*
X45768Y3907D2*
X45237Y3376D1*
X44530Y4083D1*
X45060Y4614D1*
X45768Y3907D1*
G37*
G36*
X45238Y7822D2*
X45768Y7292D1*
X45061Y6585D1*
X44531Y7115D1*
X45238Y7822D1*
G37*
G36*
X47589Y7295D2*
X48120Y7826D1*
X48827Y7119D1*
X48296Y6588D1*
X47589Y7295D1*
G37*
G36*
X48137Y3365D2*
X47607Y3895D1*
X48314Y4602D1*
X48845Y4072D1*
X48137Y3365D1*
G37*
G36*
X52088Y3907D2*
X51557Y3376D1*
X50850Y4083D1*
X51380Y4614D1*
X52088Y3907D1*
G37*
G36*
X51558Y7822D2*
X52088Y7292D1*
X51381Y6585D1*
X50851Y7115D1*
X51558Y7822D1*
G37*
G36*
X53909Y7295D2*
X54440Y7826D1*
X55147Y7119D1*
X54616Y6588D1*
X53909Y7295D1*
G37*
G36*
X54457Y3365D2*
X53927Y3895D1*
X54634Y4602D1*
X55165Y4072D1*
X54457Y3365D1*
G37*
G36*
X58408Y3907D2*
X57877Y3376D1*
X57170Y4083D1*
X57700Y4614D1*
X58408Y3907D1*
G37*
G36*
X57878Y7822D2*
X58408Y7292D1*
X57701Y6585D1*
X57171Y7115D1*
X57878Y7822D1*
G37*
G36*
X60229Y7295D2*
X60760Y7826D1*
X61467Y7119D1*
X60936Y6588D1*
X60229Y7295D1*
G37*
G36*
X60777Y3365D2*
X60247Y3895D1*
X60954Y4602D1*
X61485Y4072D1*
X60777Y3365D1*
G37*
G36*
X64728Y3907D2*
X64197Y3376D1*
X63490Y4083D1*
X64020Y4614D1*
X64728Y3907D1*
G37*
G36*
X64198Y7822D2*
X64728Y7292D1*
X64021Y6585D1*
X63491Y7115D1*
X64198Y7822D1*
G37*
G36*
X66549Y7295D2*
X67080Y7826D1*
X67787Y7119D1*
X67256Y6588D1*
X66549Y7295D1*
G37*
G36*
X67097Y3365D2*
X66567Y3895D1*
X67274Y4602D1*
X67805Y4072D1*
X67097Y3365D1*
G37*
G36*
X71048Y3907D2*
X70517Y3376D1*
X69810Y4083D1*
X70340Y4614D1*
X71048Y3907D1*
G37*
G36*
X70518Y7822D2*
X71048Y7292D1*
X70341Y6585D1*
X69811Y7115D1*
X70518Y7822D1*
G37*
G36*
X72869Y7295D2*
X73400Y7826D1*
X74107Y7119D1*
X73576Y6588D1*
X72869Y7295D1*
G37*
G36*
X73417Y3365D2*
X72887Y3895D1*
X73594Y4602D1*
X74125Y4072D1*
X73417Y3365D1*
G37*
G36*
X77368Y3907D2*
X76837Y3376D1*
X76130Y4083D1*
X76660Y4614D1*
X77368Y3907D1*
G37*
G36*
X76838Y7822D2*
X77368Y7292D1*
X76661Y6585D1*
X76131Y7115D1*
X76838Y7822D1*
G37*
G36*
X3349Y13615D2*
X3880Y14146D1*
X4587Y13439D1*
X4056Y12908D1*
X3349Y13615D1*
G37*
G36*
X3897Y9685D2*
X3367Y10215D1*
X4074Y10922D1*
X4605Y10392D1*
X3897Y9685D1*
G37*
G36*
X7848Y10227D2*
X7317Y9696D1*
X6610Y10403D1*
X7140Y10934D1*
X7848Y10227D1*
G37*
G36*
X7318Y14142D2*
X7848Y13612D1*
X7141Y12905D1*
X6611Y13435D1*
X7318Y14142D1*
G37*
G36*
X9669Y13615D2*
X10200Y14146D1*
X10907Y13439D1*
X10376Y12908D1*
X9669Y13615D1*
G37*
G36*
X10217Y9685D2*
X9687Y10215D1*
X10394Y10922D1*
X10925Y10392D1*
X10217Y9685D1*
G37*
G36*
X14168Y10227D2*
X13637Y9696D1*
X12930Y10403D1*
X13460Y10934D1*
X14168Y10227D1*
G37*
G36*
X13638Y14142D2*
X14168Y13612D1*
X13461Y12905D1*
X12931Y13435D1*
X13638Y14142D1*
G37*
G36*
X15989Y13615D2*
X16520Y14146D1*
X17227Y13439D1*
X16696Y12908D1*
X15989Y13615D1*
G37*
G36*
X16537Y9685D2*
X16007Y10215D1*
X16714Y10922D1*
X17245Y10392D1*
X16537Y9685D1*
G37*
G36*
X20488Y10227D2*
X19957Y9696D1*
X19250Y10403D1*
X19780Y10934D1*
X20488Y10227D1*
G37*
G36*
X19958Y14142D2*
X20488Y13612D1*
X19781Y12905D1*
X19251Y13435D1*
X19958Y14142D1*
G37*
G36*
X22309Y13615D2*
X22840Y14146D1*
X23547Y13439D1*
X23016Y12908D1*
X22309Y13615D1*
G37*
G36*
X22857Y9685D2*
X22327Y10215D1*
X23034Y10922D1*
X23565Y10392D1*
X22857Y9685D1*
G37*
G36*
X26808Y10227D2*
X26277Y9696D1*
X25570Y10403D1*
X26100Y10934D1*
X26808Y10227D1*
G37*
G36*
X26278Y14142D2*
X26808Y13612D1*
X26101Y12905D1*
X25571Y13435D1*
X26278Y14142D1*
G37*
G36*
X28629Y13615D2*
X29160Y14146D1*
X29867Y13439D1*
X29336Y12908D1*
X28629Y13615D1*
G37*
G36*
X29177Y9685D2*
X28647Y10215D1*
X29354Y10922D1*
X29885Y10392D1*
X29177Y9685D1*
G37*
G36*
X33128Y10227D2*
X32597Y9696D1*
X31890Y10403D1*
X32420Y10934D1*
X33128Y10227D1*
G37*
G36*
X32598Y14142D2*
X33128Y13612D1*
X32421Y12905D1*
X31891Y13435D1*
X32598Y14142D1*
G37*
G36*
X34949Y13615D2*
X35480Y14146D1*
X36187Y13439D1*
X35656Y12908D1*
X34949Y13615D1*
G37*
G36*
X35497Y9685D2*
X34967Y10215D1*
X35674Y10922D1*
X36205Y10392D1*
X35497Y9685D1*
G37*
G36*
X39448Y10227D2*
X38917Y9696D1*
X38210Y10403D1*
X38740Y10934D1*
X39448Y10227D1*
G37*
G36*
X38918Y14142D2*
X39448Y13612D1*
X38741Y12905D1*
X38211Y13435D1*
X38918Y14142D1*
G37*
G36*
X41269Y13615D2*
X41800Y14146D1*
X42507Y13439D1*
X41976Y12908D1*
X41269Y13615D1*
G37*
G36*
X41817Y9685D2*
X41287Y10215D1*
X41994Y10922D1*
X42525Y10392D1*
X41817Y9685D1*
G37*
G36*
X45768Y10227D2*
X45237Y9696D1*
X44530Y10403D1*
X45060Y10934D1*
X45768Y10227D1*
G37*
G36*
X45238Y14142D2*
X45768Y13612D1*
X45061Y12905D1*
X44531Y13435D1*
X45238Y14142D1*
G37*
G36*
X47589Y13615D2*
X48120Y14146D1*
X48827Y13439D1*
X48296Y12908D1*
X47589Y13615D1*
G37*
G36*
X48137Y9685D2*
X47607Y10215D1*
X48314Y10922D1*
X48845Y10392D1*
X48137Y9685D1*
G37*
G36*
X52088Y10227D2*
X51557Y9696D1*
X50850Y10403D1*
X51380Y10934D1*
X52088Y10227D1*
G37*
G36*
X51558Y14142D2*
X52088Y13612D1*
X51381Y12905D1*
X50851Y13435D1*
X51558Y14142D1*
G37*
G36*
X53909Y13615D2*
X54440Y14146D1*
X55147Y13439D1*
X54616Y12908D1*
X53909Y13615D1*
G37*
G36*
X54457Y9685D2*
X53927Y10215D1*
X54634Y10922D1*
X55165Y10392D1*
X54457Y9685D1*
G37*
G36*
X58408Y10227D2*
X57877Y9696D1*
X57170Y10403D1*
X57700Y10934D1*
X58408Y10227D1*
G37*
G36*
X57878Y14142D2*
X58408Y13612D1*
X57701Y12905D1*
X57171Y13435D1*
X57878Y14142D1*
G37*
G36*
X60229Y13615D2*
X60760Y14146D1*
X61467Y13439D1*
X60936Y12908D1*
X60229Y13615D1*
G37*
G36*
X60777Y9685D2*
X60247Y10215D1*
X60954Y10922D1*
X61485Y10392D1*
X60777Y9685D1*
G37*
G36*
X64728Y10227D2*
X64197Y9696D1*
X63490Y10403D1*
X64020Y10934D1*
X64728Y10227D1*
G37*
G36*
X64198Y14142D2*
X64728Y13612D1*
X64021Y12905D1*
X63491Y13435D1*
X64198Y14142D1*
G37*
G36*
X66549Y13615D2*
X67080Y14146D1*
X67787Y13439D1*
X67256Y12908D1*
X66549Y13615D1*
G37*
G36*
X67097Y9685D2*
X66567Y10215D1*
X67274Y10922D1*
X67805Y10392D1*
X67097Y9685D1*
G37*
G36*
X71048Y10227D2*
X70517Y9696D1*
X69810Y10403D1*
X70340Y10934D1*
X71048Y10227D1*
G37*
G36*
X70518Y14142D2*
X71048Y13612D1*
X70341Y12905D1*
X69811Y13435D1*
X70518Y14142D1*
G37*
G36*
X72869Y13615D2*
X73400Y14146D1*
X74107Y13439D1*
X73576Y12908D1*
X72869Y13615D1*
G37*
G36*
X73417Y9685D2*
X72887Y10215D1*
X73594Y10922D1*
X74125Y10392D1*
X73417Y9685D1*
G37*
G36*
X77368Y10227D2*
X76837Y9696D1*
X76130Y10403D1*
X76660Y10934D1*
X77368Y10227D1*
G37*
G36*
X76838Y14142D2*
X77368Y13612D1*
X76661Y12905D1*
X76131Y13435D1*
X76838Y14142D1*
G37*
G36*
X3349Y19935D2*
X3880Y20466D1*
X4587Y19759D1*
X4056Y19228D1*
X3349Y19935D1*
G37*
G36*
X3897Y16005D2*
X3367Y16535D1*
X4074Y17242D1*
X4605Y16712D1*
X3897Y16005D1*
G37*
G36*
X7848Y16547D2*
X7317Y16016D1*
X6610Y16723D1*
X7140Y17254D1*
X7848Y16547D1*
G37*
G36*
X7318Y20462D2*
X7848Y19932D1*
X7141Y19225D1*
X6611Y19755D1*
X7318Y20462D1*
G37*
G36*
X9669Y19935D2*
X10200Y20466D1*
X10907Y19759D1*
X10376Y19228D1*
X9669Y19935D1*
G37*
G36*
X10217Y16005D2*
X9687Y16535D1*
X10394Y17242D1*
X10925Y16712D1*
X10217Y16005D1*
G37*
G36*
X14168Y16547D2*
X13637Y16016D1*
X12930Y16723D1*
X13460Y17254D1*
X14168Y16547D1*
G37*
G36*
X13638Y20462D2*
X14168Y19932D1*
X13461Y19225D1*
X12931Y19755D1*
X13638Y20462D1*
G37*
G36*
X15989Y19935D2*
X16520Y20466D1*
X17227Y19759D1*
X16696Y19228D1*
X15989Y19935D1*
G37*
G36*
X16537Y16005D2*
X16007Y16535D1*
X16714Y17242D1*
X17245Y16712D1*
X16537Y16005D1*
G37*
G36*
X20488Y16547D2*
X19957Y16016D1*
X19250Y16723D1*
X19780Y17254D1*
X20488Y16547D1*
G37*
G36*
X19958Y20462D2*
X20488Y19932D1*
X19781Y19225D1*
X19251Y19755D1*
X19958Y20462D1*
G37*
G36*
X22309Y19935D2*
X22840Y20466D1*
X23547Y19759D1*
X23016Y19228D1*
X22309Y19935D1*
G37*
G36*
X22857Y16005D2*
X22327Y16535D1*
X23034Y17242D1*
X23565Y16712D1*
X22857Y16005D1*
G37*
G36*
X26808Y16547D2*
X26277Y16016D1*
X25570Y16723D1*
X26100Y17254D1*
X26808Y16547D1*
G37*
G36*
X26278Y20462D2*
X26808Y19932D1*
X26101Y19225D1*
X25571Y19755D1*
X26278Y20462D1*
G37*
G36*
X28629Y19935D2*
X29160Y20466D1*
X29867Y19759D1*
X29336Y19228D1*
X28629Y19935D1*
G37*
G36*
X29177Y16005D2*
X28647Y16535D1*
X29354Y17242D1*
X29885Y16712D1*
X29177Y16005D1*
G37*
G36*
X33128Y16547D2*
X32597Y16016D1*
X31890Y16723D1*
X32420Y17254D1*
X33128Y16547D1*
G37*
G36*
X32598Y20462D2*
X33128Y19932D1*
X32421Y19225D1*
X31891Y19755D1*
X32598Y20462D1*
G37*
G36*
X34949Y19935D2*
X35480Y20466D1*
X36187Y19759D1*
X35656Y19228D1*
X34949Y19935D1*
G37*
G36*
X35497Y16005D2*
X34967Y16535D1*
X35674Y17242D1*
X36205Y16712D1*
X35497Y16005D1*
G37*
G36*
X39448Y16547D2*
X38917Y16016D1*
X38210Y16723D1*
X38740Y17254D1*
X39448Y16547D1*
G37*
G36*
X38918Y20462D2*
X39448Y19932D1*
X38741Y19225D1*
X38211Y19755D1*
X38918Y20462D1*
G37*
G36*
X41269Y19935D2*
X41800Y20466D1*
X42507Y19759D1*
X41976Y19228D1*
X41269Y19935D1*
G37*
G36*
X41817Y16005D2*
X41287Y16535D1*
X41994Y17242D1*
X42525Y16712D1*
X41817Y16005D1*
G37*
G36*
X45768Y16547D2*
X45237Y16016D1*
X44530Y16723D1*
X45060Y17254D1*
X45768Y16547D1*
G37*
G36*
X45238Y20462D2*
X45768Y19932D1*
X45061Y19225D1*
X44531Y19755D1*
X45238Y20462D1*
G37*
G36*
X47589Y19935D2*
X48120Y20466D1*
X48827Y19759D1*
X48296Y19228D1*
X47589Y19935D1*
G37*
G36*
X48137Y16005D2*
X47607Y16535D1*
X48314Y17242D1*
X48845Y16712D1*
X48137Y16005D1*
G37*
G36*
X52088Y16547D2*
X51557Y16016D1*
X50850Y16723D1*
X51380Y17254D1*
X52088Y16547D1*
G37*
G36*
X51558Y20462D2*
X52088Y19932D1*
X51381Y19225D1*
X50851Y19755D1*
X51558Y20462D1*
G37*
G36*
X53909Y19935D2*
X54440Y20466D1*
X55147Y19759D1*
X54616Y19228D1*
X53909Y19935D1*
G37*
G36*
X54457Y16005D2*
X53927Y16535D1*
X54634Y17242D1*
X55165Y16712D1*
X54457Y16005D1*
G37*
G36*
X58408Y16547D2*
X57877Y16016D1*
X57170Y16723D1*
X57700Y17254D1*
X58408Y16547D1*
G37*
G36*
X57878Y20462D2*
X58408Y19932D1*
X57701Y19225D1*
X57171Y19755D1*
X57878Y20462D1*
G37*
G36*
X60229Y19935D2*
X60760Y20466D1*
X61467Y19759D1*
X60936Y19228D1*
X60229Y19935D1*
G37*
G36*
X60777Y16005D2*
X60247Y16535D1*
X60954Y17242D1*
X61485Y16712D1*
X60777Y16005D1*
G37*
G36*
X64728Y16547D2*
X64197Y16016D1*
X63490Y16723D1*
X64020Y17254D1*
X64728Y16547D1*
G37*
G36*
X64198Y20462D2*
X64728Y19932D1*
X64021Y19225D1*
X63491Y19755D1*
X64198Y20462D1*
G37*
G36*
X66549Y19935D2*
X67080Y20466D1*
X67787Y19759D1*
X67256Y19228D1*
X66549Y19935D1*
G37*
G36*
X67097Y16005D2*
X66567Y16535D1*
X67274Y17242D1*
X67805Y16712D1*
X67097Y16005D1*
G37*
G36*
X71048Y16547D2*
X70517Y16016D1*
X69810Y16723D1*
X70340Y17254D1*
X71048Y16547D1*
G37*
G36*
X70518Y20462D2*
X71048Y19932D1*
X70341Y19225D1*
X69811Y19755D1*
X70518Y20462D1*
G37*
G36*
X72869Y19935D2*
X73400Y20466D1*
X74107Y19759D1*
X73576Y19228D1*
X72869Y19935D1*
G37*
G36*
X73417Y16005D2*
X72887Y16535D1*
X73594Y17242D1*
X74125Y16712D1*
X73417Y16005D1*
G37*
G36*
X77368Y16547D2*
X76837Y16016D1*
X76130Y16723D1*
X76660Y17254D1*
X77368Y16547D1*
G37*
G36*
X76838Y20462D2*
X77368Y19932D1*
X76661Y19225D1*
X76131Y19755D1*
X76838Y20462D1*
G37*
G36*
X3349Y26255D2*
X3880Y26786D1*
X4587Y26079D1*
X4056Y25548D1*
X3349Y26255D1*
G37*
G36*
X3897Y22325D2*
X3367Y22855D1*
X4074Y23562D1*
X4605Y23032D1*
X3897Y22325D1*
G37*
G36*
X7848Y22867D2*
X7317Y22336D1*
X6610Y23043D1*
X7140Y23574D1*
X7848Y22867D1*
G37*
G36*
X7318Y26782D2*
X7848Y26252D1*
X7141Y25545D1*
X6611Y26075D1*
X7318Y26782D1*
G37*
G36*
X9669Y26255D2*
X10200Y26786D1*
X10907Y26079D1*
X10376Y25548D1*
X9669Y26255D1*
G37*
G36*
X10217Y22325D2*
X9687Y22855D1*
X10394Y23562D1*
X10925Y23032D1*
X10217Y22325D1*
G37*
G36*
X14168Y22867D2*
X13637Y22336D1*
X12930Y23043D1*
X13460Y23574D1*
X14168Y22867D1*
G37*
G36*
X13638Y26782D2*
X14168Y26252D1*
X13461Y25545D1*
X12931Y26075D1*
X13638Y26782D1*
G37*
G36*
X15989Y26255D2*
X16520Y26786D1*
X17227Y26079D1*
X16696Y25548D1*
X15989Y26255D1*
G37*
G36*
X16537Y22325D2*
X16007Y22855D1*
X16714Y23562D1*
X17245Y23032D1*
X16537Y22325D1*
G37*
G36*
X20488Y22867D2*
X19957Y22336D1*
X19250Y23043D1*
X19780Y23574D1*
X20488Y22867D1*
G37*
G36*
X19958Y26782D2*
X20488Y26252D1*
X19781Y25545D1*
X19251Y26075D1*
X19958Y26782D1*
G37*
G36*
X22309Y26255D2*
X22840Y26786D1*
X23547Y26079D1*
X23016Y25548D1*
X22309Y26255D1*
G37*
G36*
X22857Y22325D2*
X22327Y22855D1*
X23034Y23562D1*
X23565Y23032D1*
X22857Y22325D1*
G37*
G36*
X26808Y22867D2*
X26277Y22336D1*
X25570Y23043D1*
X26100Y23574D1*
X26808Y22867D1*
G37*
G36*
X26278Y26782D2*
X26808Y26252D1*
X26101Y25545D1*
X25571Y26075D1*
X26278Y26782D1*
G37*
G36*
X28629Y26255D2*
X29160Y26786D1*
X29867Y26079D1*
X29336Y25548D1*
X28629Y26255D1*
G37*
G36*
X29177Y22325D2*
X28647Y22855D1*
X29354Y23562D1*
X29885Y23032D1*
X29177Y22325D1*
G37*
G36*
X33128Y22867D2*
X32597Y22336D1*
X31890Y23043D1*
X32420Y23574D1*
X33128Y22867D1*
G37*
G36*
X32598Y26782D2*
X33128Y26252D1*
X32421Y25545D1*
X31891Y26075D1*
X32598Y26782D1*
G37*
G36*
X34949Y26255D2*
X35480Y26786D1*
X36187Y26079D1*
X35656Y25548D1*
X34949Y26255D1*
G37*
G36*
X35497Y22325D2*
X34967Y22855D1*
X35674Y23562D1*
X36205Y23032D1*
X35497Y22325D1*
G37*
G36*
X39448Y22867D2*
X38917Y22336D1*
X38210Y23043D1*
X38740Y23574D1*
X39448Y22867D1*
G37*
G36*
X38918Y26782D2*
X39448Y26252D1*
X38741Y25545D1*
X38211Y26075D1*
X38918Y26782D1*
G37*
G36*
X41269Y26255D2*
X41800Y26786D1*
X42507Y26079D1*
X41976Y25548D1*
X41269Y26255D1*
G37*
G36*
X41817Y22325D2*
X41287Y22855D1*
X41994Y23562D1*
X42525Y23032D1*
X41817Y22325D1*
G37*
G36*
X45768Y22867D2*
X45237Y22336D1*
X44530Y23043D1*
X45060Y23574D1*
X45768Y22867D1*
G37*
G36*
X45238Y26782D2*
X45768Y26252D1*
X45061Y25545D1*
X44531Y26075D1*
X45238Y26782D1*
G37*
G36*
X47589Y26255D2*
X48120Y26786D1*
X48827Y26079D1*
X48296Y25548D1*
X47589Y26255D1*
G37*
G36*
X48137Y22325D2*
X47607Y22855D1*
X48314Y23562D1*
X48845Y23032D1*
X48137Y22325D1*
G37*
G36*
X52088Y22867D2*
X51557Y22336D1*
X50850Y23043D1*
X51380Y23574D1*
X52088Y22867D1*
G37*
G36*
X51558Y26782D2*
X52088Y26252D1*
X51381Y25545D1*
X50851Y26075D1*
X51558Y26782D1*
G37*
G36*
X53909Y26255D2*
X54440Y26786D1*
X55147Y26079D1*
X54616Y25548D1*
X53909Y26255D1*
G37*
G36*
X54457Y22325D2*
X53927Y22855D1*
X54634Y23562D1*
X55165Y23032D1*
X54457Y22325D1*
G37*
G36*
X58408Y22867D2*
X57877Y22336D1*
X57170Y23043D1*
X57700Y23574D1*
X58408Y22867D1*
G37*
G36*
X57878Y26782D2*
X58408Y26252D1*
X57701Y25545D1*
X57171Y26075D1*
X57878Y26782D1*
G37*
G36*
X60229Y26255D2*
X60760Y26786D1*
X61467Y26079D1*
X60936Y25548D1*
X60229Y26255D1*
G37*
G36*
X60777Y22325D2*
X60247Y22855D1*
X60954Y23562D1*
X61485Y23032D1*
X60777Y22325D1*
G37*
G36*
X64728Y22867D2*
X64197Y22336D1*
X63490Y23043D1*
X64020Y23574D1*
X64728Y22867D1*
G37*
G36*
X64198Y26782D2*
X64728Y26252D1*
X64021Y25545D1*
X63491Y26075D1*
X64198Y26782D1*
G37*
G36*
X66549Y26255D2*
X67080Y26786D1*
X67787Y26079D1*
X67256Y25548D1*
X66549Y26255D1*
G37*
G36*
X67097Y22325D2*
X66567Y22855D1*
X67274Y23562D1*
X67805Y23032D1*
X67097Y22325D1*
G37*
G36*
X71048Y22867D2*
X70517Y22336D1*
X69810Y23043D1*
X70340Y23574D1*
X71048Y22867D1*
G37*
G36*
X70518Y26782D2*
X71048Y26252D1*
X70341Y25545D1*
X69811Y26075D1*
X70518Y26782D1*
G37*
G36*
X72869Y26255D2*
X73400Y26786D1*
X74107Y26079D1*
X73576Y25548D1*
X72869Y26255D1*
G37*
G36*
X73417Y22325D2*
X72887Y22855D1*
X73594Y23562D1*
X74125Y23032D1*
X73417Y22325D1*
G37*
G36*
X77368Y22867D2*
X76837Y22336D1*
X76130Y23043D1*
X76660Y23574D1*
X77368Y22867D1*
G37*
G36*
X76838Y26782D2*
X77368Y26252D1*
X76661Y25545D1*
X76131Y26075D1*
X76838Y26782D1*
G37*
G36*
X3349Y32575D2*
X3880Y33106D1*
X4587Y32399D1*
X4056Y31868D1*
X3349Y32575D1*
G37*
G36*
X3897Y28645D2*
X3367Y29175D1*
X4074Y29882D1*
X4605Y29352D1*
X3897Y28645D1*
G37*
G36*
X7848Y29187D2*
X7317Y28656D1*
X6610Y29363D1*
X7140Y29894D1*
X7848Y29187D1*
G37*
G36*
X7318Y33102D2*
X7848Y32572D1*
X7141Y31865D1*
X6611Y32395D1*
X7318Y33102D1*
G37*
G36*
X9669Y32575D2*
X10200Y33106D1*
X10907Y32399D1*
X10376Y31868D1*
X9669Y32575D1*
G37*
G36*
X10217Y28645D2*
X9687Y29175D1*
X10394Y29882D1*
X10925Y29352D1*
X10217Y28645D1*
G37*
G36*
X14168Y29187D2*
X13637Y28656D1*
X12930Y29363D1*
X13460Y29894D1*
X14168Y29187D1*
G37*
G36*
X13638Y33102D2*
X14168Y32572D1*
X13461Y31865D1*
X12931Y32395D1*
X13638Y33102D1*
G37*
G36*
X15989Y32575D2*
X16520Y33106D1*
X17227Y32399D1*
X16696Y31868D1*
X15989Y32575D1*
G37*
G36*
X16537Y28645D2*
X16007Y29175D1*
X16714Y29882D1*
X17245Y29352D1*
X16537Y28645D1*
G37*
G36*
X20488Y29187D2*
X19957Y28656D1*
X19250Y29363D1*
X19780Y29894D1*
X20488Y29187D1*
G37*
G36*
X19958Y33102D2*
X20488Y32572D1*
X19781Y31865D1*
X19251Y32395D1*
X19958Y33102D1*
G37*
G36*
X22309Y32575D2*
X22840Y33106D1*
X23547Y32399D1*
X23016Y31868D1*
X22309Y32575D1*
G37*
G36*
X22857Y28645D2*
X22327Y29175D1*
X23034Y29882D1*
X23565Y29352D1*
X22857Y28645D1*
G37*
G36*
X26808Y29187D2*
X26277Y28656D1*
X25570Y29363D1*
X26100Y29894D1*
X26808Y29187D1*
G37*
G36*
X26278Y33102D2*
X26808Y32572D1*
X26101Y31865D1*
X25571Y32395D1*
X26278Y33102D1*
G37*
G36*
X28629Y32575D2*
X29160Y33106D1*
X29867Y32399D1*
X29336Y31868D1*
X28629Y32575D1*
G37*
G36*
X29177Y28645D2*
X28647Y29175D1*
X29354Y29882D1*
X29885Y29352D1*
X29177Y28645D1*
G37*
G36*
X33128Y29187D2*
X32597Y28656D1*
X31890Y29363D1*
X32420Y29894D1*
X33128Y29187D1*
G37*
G36*
X32598Y33102D2*
X33128Y32572D1*
X32421Y31865D1*
X31891Y32395D1*
X32598Y33102D1*
G37*
G36*
X34949Y32575D2*
X35480Y33106D1*
X36187Y32399D1*
X35656Y31868D1*
X34949Y32575D1*
G37*
G36*
X35497Y28645D2*
X34967Y29175D1*
X35674Y29882D1*
X36205Y29352D1*
X35497Y28645D1*
G37*
G36*
X39448Y29187D2*
X38917Y28656D1*
X38210Y29363D1*
X38740Y29894D1*
X39448Y29187D1*
G37*
G36*
X38918Y33102D2*
X39448Y32572D1*
X38741Y31865D1*
X38211Y32395D1*
X38918Y33102D1*
G37*
G36*
X41269Y32575D2*
X41800Y33106D1*
X42507Y32399D1*
X41976Y31868D1*
X41269Y32575D1*
G37*
G36*
X41817Y28645D2*
X41287Y29175D1*
X41994Y29882D1*
X42525Y29352D1*
X41817Y28645D1*
G37*
G36*
X45768Y29187D2*
X45237Y28656D1*
X44530Y29363D1*
X45060Y29894D1*
X45768Y29187D1*
G37*
G36*
X45238Y33102D2*
X45768Y32572D1*
X45061Y31865D1*
X44531Y32395D1*
X45238Y33102D1*
G37*
G36*
X47589Y32575D2*
X48120Y33106D1*
X48827Y32399D1*
X48296Y31868D1*
X47589Y32575D1*
G37*
G36*
X48137Y28645D2*
X47607Y29175D1*
X48314Y29882D1*
X48845Y29352D1*
X48137Y28645D1*
G37*
G36*
X52088Y29187D2*
X51557Y28656D1*
X50850Y29363D1*
X51380Y29894D1*
X52088Y29187D1*
G37*
G36*
X51558Y33102D2*
X52088Y32572D1*
X51381Y31865D1*
X50851Y32395D1*
X51558Y33102D1*
G37*
G36*
X53909Y32575D2*
X54440Y33106D1*
X55147Y32399D1*
X54616Y31868D1*
X53909Y32575D1*
G37*
G36*
X54457Y28645D2*
X53927Y29175D1*
X54634Y29882D1*
X55165Y29352D1*
X54457Y28645D1*
G37*
G36*
X58408Y29187D2*
X57877Y28656D1*
X57170Y29363D1*
X57700Y29894D1*
X58408Y29187D1*
G37*
G36*
X57878Y33102D2*
X58408Y32572D1*
X57701Y31865D1*
X57171Y32395D1*
X57878Y33102D1*
G37*
G36*
X60229Y32575D2*
X60760Y33106D1*
X61467Y32399D1*
X60936Y31868D1*
X60229Y32575D1*
G37*
G36*
X60777Y28645D2*
X60247Y29175D1*
X60954Y29882D1*
X61485Y29352D1*
X60777Y28645D1*
G37*
G36*
X64728Y29187D2*
X64197Y28656D1*
X63490Y29363D1*
X64020Y29894D1*
X64728Y29187D1*
G37*
G36*
X64198Y33102D2*
X64728Y32572D1*
X64021Y31865D1*
X63491Y32395D1*
X64198Y33102D1*
G37*
G36*
X66549Y32575D2*
X67080Y33106D1*
X67787Y32399D1*
X67256Y31868D1*
X66549Y32575D1*
G37*
G36*
X67097Y28645D2*
X66567Y29175D1*
X67274Y29882D1*
X67805Y29352D1*
X67097Y28645D1*
G37*
G36*
X71048Y29187D2*
X70517Y28656D1*
X69810Y29363D1*
X70340Y29894D1*
X71048Y29187D1*
G37*
G36*
X70518Y33102D2*
X71048Y32572D1*
X70341Y31865D1*
X69811Y32395D1*
X70518Y33102D1*
G37*
G36*
X72869Y32575D2*
X73400Y33106D1*
X74107Y32399D1*
X73576Y31868D1*
X72869Y32575D1*
G37*
G36*
X73417Y28645D2*
X72887Y29175D1*
X73594Y29882D1*
X74125Y29352D1*
X73417Y28645D1*
G37*
G36*
X77368Y29187D2*
X76837Y28656D1*
X76130Y29363D1*
X76660Y29894D1*
X77368Y29187D1*
G37*
G36*
X76838Y33102D2*
X77368Y32572D1*
X76661Y31865D1*
X76131Y32395D1*
X76838Y33102D1*
G37*
G36*
X3349Y38895D2*
X3880Y39426D1*
X4587Y38719D1*
X4056Y38188D1*
X3349Y38895D1*
G37*
G36*
X3897Y34965D2*
X3367Y35495D1*
X4074Y36202D1*
X4605Y35672D1*
X3897Y34965D1*
G37*
G36*
X7848Y35507D2*
X7317Y34976D1*
X6610Y35683D1*
X7140Y36214D1*
X7848Y35507D1*
G37*
G36*
X7318Y39422D2*
X7848Y38892D1*
X7141Y38185D1*
X6611Y38715D1*
X7318Y39422D1*
G37*
G36*
X9669Y38895D2*
X10200Y39426D1*
X10907Y38719D1*
X10376Y38188D1*
X9669Y38895D1*
G37*
G36*
X10217Y34965D2*
X9687Y35495D1*
X10394Y36202D1*
X10925Y35672D1*
X10217Y34965D1*
G37*
G36*
X14168Y35507D2*
X13637Y34976D1*
X12930Y35683D1*
X13460Y36214D1*
X14168Y35507D1*
G37*
G36*
X13638Y39422D2*
X14168Y38892D1*
X13461Y38185D1*
X12931Y38715D1*
X13638Y39422D1*
G37*
G36*
X15989Y38895D2*
X16520Y39426D1*
X17227Y38719D1*
X16696Y38188D1*
X15989Y38895D1*
G37*
G36*
X16537Y34965D2*
X16007Y35495D1*
X16714Y36202D1*
X17245Y35672D1*
X16537Y34965D1*
G37*
G36*
X20488Y35507D2*
X19957Y34976D1*
X19250Y35683D1*
X19780Y36214D1*
X20488Y35507D1*
G37*
G36*
X19958Y39422D2*
X20488Y38892D1*
X19781Y38185D1*
X19251Y38715D1*
X19958Y39422D1*
G37*
G36*
X22309Y38895D2*
X22840Y39426D1*
X23547Y38719D1*
X23016Y38188D1*
X22309Y38895D1*
G37*
G36*
X22857Y34965D2*
X22327Y35495D1*
X23034Y36202D1*
X23565Y35672D1*
X22857Y34965D1*
G37*
G36*
X26808Y35507D2*
X26277Y34976D1*
X25570Y35683D1*
X26100Y36214D1*
X26808Y35507D1*
G37*
G36*
X26278Y39422D2*
X26808Y38892D1*
X26101Y38185D1*
X25571Y38715D1*
X26278Y39422D1*
G37*
G36*
X28629Y38895D2*
X29160Y39426D1*
X29867Y38719D1*
X29336Y38188D1*
X28629Y38895D1*
G37*
G36*
X29177Y34965D2*
X28647Y35495D1*
X29354Y36202D1*
X29885Y35672D1*
X29177Y34965D1*
G37*
G36*
X33128Y35507D2*
X32597Y34976D1*
X31890Y35683D1*
X32420Y36214D1*
X33128Y35507D1*
G37*
G36*
X32598Y39422D2*
X33128Y38892D1*
X32421Y38185D1*
X31891Y38715D1*
X32598Y39422D1*
G37*
G36*
X34949Y38895D2*
X35480Y39426D1*
X36187Y38719D1*
X35656Y38188D1*
X34949Y38895D1*
G37*
G36*
X35497Y34965D2*
X34967Y35495D1*
X35674Y36202D1*
X36205Y35672D1*
X35497Y34965D1*
G37*
G36*
X39448Y35507D2*
X38917Y34976D1*
X38210Y35683D1*
X38740Y36214D1*
X39448Y35507D1*
G37*
G36*
X38918Y39422D2*
X39448Y38892D1*
X38741Y38185D1*
X38211Y38715D1*
X38918Y39422D1*
G37*
G36*
X41269Y38895D2*
X41800Y39426D1*
X42507Y38719D1*
X41976Y38188D1*
X41269Y38895D1*
G37*
G36*
X41817Y34965D2*
X41287Y35495D1*
X41994Y36202D1*
X42525Y35672D1*
X41817Y34965D1*
G37*
G36*
X45768Y35507D2*
X45237Y34976D1*
X44530Y35683D1*
X45060Y36214D1*
X45768Y35507D1*
G37*
G36*
X45238Y39422D2*
X45768Y38892D1*
X45061Y38185D1*
X44531Y38715D1*
X45238Y39422D1*
G37*
G36*
X47589Y38895D2*
X48120Y39426D1*
X48827Y38719D1*
X48296Y38188D1*
X47589Y38895D1*
G37*
G36*
X48137Y34965D2*
X47607Y35495D1*
X48314Y36202D1*
X48845Y35672D1*
X48137Y34965D1*
G37*
G36*
X52088Y35507D2*
X51557Y34976D1*
X50850Y35683D1*
X51380Y36214D1*
X52088Y35507D1*
G37*
G36*
X51558Y39422D2*
X52088Y38892D1*
X51381Y38185D1*
X50851Y38715D1*
X51558Y39422D1*
G37*
G36*
X53909Y38895D2*
X54440Y39426D1*
X55147Y38719D1*
X54616Y38188D1*
X53909Y38895D1*
G37*
G36*
X54457Y34965D2*
X53927Y35495D1*
X54634Y36202D1*
X55165Y35672D1*
X54457Y34965D1*
G37*
G36*
X58408Y35507D2*
X57877Y34976D1*
X57170Y35683D1*
X57700Y36214D1*
X58408Y35507D1*
G37*
G36*
X57878Y39422D2*
X58408Y38892D1*
X57701Y38185D1*
X57171Y38715D1*
X57878Y39422D1*
G37*
G36*
X60229Y38895D2*
X60760Y39426D1*
X61467Y38719D1*
X60936Y38188D1*
X60229Y38895D1*
G37*
G36*
X60777Y34965D2*
X60247Y35495D1*
X60954Y36202D1*
X61485Y35672D1*
X60777Y34965D1*
G37*
G36*
X64728Y35507D2*
X64197Y34976D1*
X63490Y35683D1*
X64020Y36214D1*
X64728Y35507D1*
G37*
G36*
X64198Y39422D2*
X64728Y38892D1*
X64021Y38185D1*
X63491Y38715D1*
X64198Y39422D1*
G37*
G36*
X66549Y38895D2*
X67080Y39426D1*
X67787Y38719D1*
X67256Y38188D1*
X66549Y38895D1*
G37*
G36*
X67097Y34965D2*
X66567Y35495D1*
X67274Y36202D1*
X67805Y35672D1*
X67097Y34965D1*
G37*
G36*
X71048Y35507D2*
X70517Y34976D1*
X69810Y35683D1*
X70340Y36214D1*
X71048Y35507D1*
G37*
G36*
X70518Y39422D2*
X71048Y38892D1*
X70341Y38185D1*
X69811Y38715D1*
X70518Y39422D1*
G37*
G36*
X72869Y38895D2*
X73400Y39426D1*
X74107Y38719D1*
X73576Y38188D1*
X72869Y38895D1*
G37*
G36*
X73417Y34965D2*
X72887Y35495D1*
X73594Y36202D1*
X74125Y35672D1*
X73417Y34965D1*
G37*
G36*
X77368Y35507D2*
X76837Y34976D1*
X76130Y35683D1*
X76660Y36214D1*
X77368Y35507D1*
G37*
G36*
X76838Y39422D2*
X77368Y38892D1*
X76661Y38185D1*
X76131Y38715D1*
X76838Y39422D1*
G37*
G36*
X3349Y45215D2*
X3880Y45746D1*
X4587Y45039D1*
X4056Y44508D1*
X3349Y45215D1*
G37*
G36*
X3897Y41285D2*
X3367Y41815D1*
X4074Y42522D1*
X4605Y41992D1*
X3897Y41285D1*
G37*
G36*
X7848Y41827D2*
X7317Y41296D1*
X6610Y42003D1*
X7140Y42534D1*
X7848Y41827D1*
G37*
G36*
X7318Y45742D2*
X7848Y45212D1*
X7141Y44505D1*
X6611Y45035D1*
X7318Y45742D1*
G37*
G36*
X9669Y45215D2*
X10200Y45746D1*
X10907Y45039D1*
X10376Y44508D1*
X9669Y45215D1*
G37*
G36*
X10217Y41285D2*
X9687Y41815D1*
X10394Y42522D1*
X10925Y41992D1*
X10217Y41285D1*
G37*
G36*
X14168Y41827D2*
X13637Y41296D1*
X12930Y42003D1*
X13460Y42534D1*
X14168Y41827D1*
G37*
G36*
X13638Y45742D2*
X14168Y45212D1*
X13461Y44505D1*
X12931Y45035D1*
X13638Y45742D1*
G37*
G36*
X15989Y45215D2*
X16520Y45746D1*
X17227Y45039D1*
X16696Y44508D1*
X15989Y45215D1*
G37*
G36*
X16537Y41285D2*
X16007Y41815D1*
X16714Y42522D1*
X17245Y41992D1*
X16537Y41285D1*
G37*
G36*
X20488Y41827D2*
X19957Y41296D1*
X19250Y42003D1*
X19780Y42534D1*
X20488Y41827D1*
G37*
G36*
X19958Y45742D2*
X20488Y45212D1*
X19781Y44505D1*
X19251Y45035D1*
X19958Y45742D1*
G37*
G36*
X22309Y45215D2*
X22840Y45746D1*
X23547Y45039D1*
X23016Y44508D1*
X22309Y45215D1*
G37*
G36*
X22857Y41285D2*
X22327Y41815D1*
X23034Y42522D1*
X23565Y41992D1*
X22857Y41285D1*
G37*
G36*
X26808Y41827D2*
X26277Y41296D1*
X25570Y42003D1*
X26100Y42534D1*
X26808Y41827D1*
G37*
G36*
X26278Y45742D2*
X26808Y45212D1*
X26101Y44505D1*
X25571Y45035D1*
X26278Y45742D1*
G37*
G36*
X28629Y45215D2*
X29160Y45746D1*
X29867Y45039D1*
X29336Y44508D1*
X28629Y45215D1*
G37*
G36*
X29177Y41285D2*
X28647Y41815D1*
X29354Y42522D1*
X29885Y41992D1*
X29177Y41285D1*
G37*
G36*
X33128Y41827D2*
X32597Y41296D1*
X31890Y42003D1*
X32420Y42534D1*
X33128Y41827D1*
G37*
G36*
X32598Y45742D2*
X33128Y45212D1*
X32421Y44505D1*
X31891Y45035D1*
X32598Y45742D1*
G37*
G36*
X34949Y45215D2*
X35480Y45746D1*
X36187Y45039D1*
X35656Y44508D1*
X34949Y45215D1*
G37*
G36*
X35497Y41285D2*
X34967Y41815D1*
X35674Y42522D1*
X36205Y41992D1*
X35497Y41285D1*
G37*
G36*
X39448Y41827D2*
X38917Y41296D1*
X38210Y42003D1*
X38740Y42534D1*
X39448Y41827D1*
G37*
G36*
X38918Y45742D2*
X39448Y45212D1*
X38741Y44505D1*
X38211Y45035D1*
X38918Y45742D1*
G37*
G36*
X41269Y45215D2*
X41800Y45746D1*
X42507Y45039D1*
X41976Y44508D1*
X41269Y45215D1*
G37*
G36*
X41817Y41285D2*
X41287Y41815D1*
X41994Y42522D1*
X42525Y41992D1*
X41817Y41285D1*
G37*
G36*
X45768Y41827D2*
X45237Y41296D1*
X44530Y42003D1*
X45060Y42534D1*
X45768Y41827D1*
G37*
G36*
X45238Y45742D2*
X45768Y45212D1*
X45061Y44505D1*
X44531Y45035D1*
X45238Y45742D1*
G37*
G36*
X47589Y45215D2*
X48120Y45746D1*
X48827Y45039D1*
X48296Y44508D1*
X47589Y45215D1*
G37*
G36*
X48137Y41285D2*
X47607Y41815D1*
X48314Y42522D1*
X48845Y41992D1*
X48137Y41285D1*
G37*
G36*
X52088Y41827D2*
X51557Y41296D1*
X50850Y42003D1*
X51380Y42534D1*
X52088Y41827D1*
G37*
G36*
X51558Y45742D2*
X52088Y45212D1*
X51381Y44505D1*
X50851Y45035D1*
X51558Y45742D1*
G37*
G36*
X53909Y45215D2*
X54440Y45746D1*
X55147Y45039D1*
X54616Y44508D1*
X53909Y45215D1*
G37*
G36*
X54457Y41285D2*
X53927Y41815D1*
X54634Y42522D1*
X55165Y41992D1*
X54457Y41285D1*
G37*
G36*
X58408Y41827D2*
X57877Y41296D1*
X57170Y42003D1*
X57700Y42534D1*
X58408Y41827D1*
G37*
G36*
X57878Y45742D2*
X58408Y45212D1*
X57701Y44505D1*
X57171Y45035D1*
X57878Y45742D1*
G37*
G36*
X60229Y45215D2*
X60760Y45746D1*
X61467Y45039D1*
X60936Y44508D1*
X60229Y45215D1*
G37*
G36*
X60777Y41285D2*
X60247Y41815D1*
X60954Y42522D1*
X61485Y41992D1*
X60777Y41285D1*
G37*
G36*
X64728Y41827D2*
X64197Y41296D1*
X63490Y42003D1*
X64020Y42534D1*
X64728Y41827D1*
G37*
G36*
X64198Y45742D2*
X64728Y45212D1*
X64021Y44505D1*
X63491Y45035D1*
X64198Y45742D1*
G37*
G36*
X66549Y45215D2*
X67080Y45746D1*
X67787Y45039D1*
X67256Y44508D1*
X66549Y45215D1*
G37*
G36*
X67097Y41285D2*
X66567Y41815D1*
X67274Y42522D1*
X67805Y41992D1*
X67097Y41285D1*
G37*
G36*
X71048Y41827D2*
X70517Y41296D1*
X69810Y42003D1*
X70340Y42534D1*
X71048Y41827D1*
G37*
G36*
X70518Y45742D2*
X71048Y45212D1*
X70341Y44505D1*
X69811Y45035D1*
X70518Y45742D1*
G37*
G36*
X72869Y45215D2*
X73400Y45746D1*
X74107Y45039D1*
X73576Y44508D1*
X72869Y45215D1*
G37*
G36*
X73417Y41285D2*
X72887Y41815D1*
X73594Y42522D1*
X74125Y41992D1*
X73417Y41285D1*
G37*
G36*
X77368Y41827D2*
X76837Y41296D1*
X76130Y42003D1*
X76660Y42534D1*
X77368Y41827D1*
G37*
G36*
X76838Y45742D2*
X77368Y45212D1*
X76661Y44505D1*
X76131Y45035D1*
X76838Y45742D1*
G37*
G36*
X3349Y51535D2*
X3880Y52066D1*
X4587Y51359D1*
X4056Y50828D1*
X3349Y51535D1*
G37*
G36*
X3897Y47605D2*
X3367Y48135D1*
X4074Y48842D1*
X4605Y48312D1*
X3897Y47605D1*
G37*
G36*
X7848Y48147D2*
X7317Y47616D1*
X6610Y48323D1*
X7140Y48854D1*
X7848Y48147D1*
G37*
G36*
X7318Y52062D2*
X7848Y51532D1*
X7141Y50825D1*
X6611Y51355D1*
X7318Y52062D1*
G37*
G36*
X9669Y51535D2*
X10200Y52066D1*
X10907Y51359D1*
X10376Y50828D1*
X9669Y51535D1*
G37*
G36*
X10217Y47605D2*
X9687Y48135D1*
X10394Y48842D1*
X10925Y48312D1*
X10217Y47605D1*
G37*
G36*
X14168Y48147D2*
X13637Y47616D1*
X12930Y48323D1*
X13460Y48854D1*
X14168Y48147D1*
G37*
G36*
X13638Y52062D2*
X14168Y51532D1*
X13461Y50825D1*
X12931Y51355D1*
X13638Y52062D1*
G37*
G36*
X15989Y51535D2*
X16520Y52066D1*
X17227Y51359D1*
X16696Y50828D1*
X15989Y51535D1*
G37*
G36*
X16537Y47605D2*
X16007Y48135D1*
X16714Y48842D1*
X17245Y48312D1*
X16537Y47605D1*
G37*
G36*
X20488Y48147D2*
X19957Y47616D1*
X19250Y48323D1*
X19780Y48854D1*
X20488Y48147D1*
G37*
G36*
X19958Y52062D2*
X20488Y51532D1*
X19781Y50825D1*
X19251Y51355D1*
X19958Y52062D1*
G37*
G36*
X22309Y51535D2*
X22840Y52066D1*
X23547Y51359D1*
X23016Y50828D1*
X22309Y51535D1*
G37*
G36*
X22857Y47605D2*
X22327Y48135D1*
X23034Y48842D1*
X23565Y48312D1*
X22857Y47605D1*
G37*
G36*
X26808Y48147D2*
X26277Y47616D1*
X25570Y48323D1*
X26100Y48854D1*
X26808Y48147D1*
G37*
G36*
X26278Y52062D2*
X26808Y51532D1*
X26101Y50825D1*
X25571Y51355D1*
X26278Y52062D1*
G37*
G36*
X28629Y51535D2*
X29160Y52066D1*
X29867Y51359D1*
X29336Y50828D1*
X28629Y51535D1*
G37*
G36*
X29177Y47605D2*
X28647Y48135D1*
X29354Y48842D1*
X29885Y48312D1*
X29177Y47605D1*
G37*
G36*
X33128Y48147D2*
X32597Y47616D1*
X31890Y48323D1*
X32420Y48854D1*
X33128Y48147D1*
G37*
G36*
X32598Y52062D2*
X33128Y51532D1*
X32421Y50825D1*
X31891Y51355D1*
X32598Y52062D1*
G37*
G36*
X34949Y51535D2*
X35480Y52066D1*
X36187Y51359D1*
X35656Y50828D1*
X34949Y51535D1*
G37*
G36*
X35497Y47605D2*
X34967Y48135D1*
X35674Y48842D1*
X36205Y48312D1*
X35497Y47605D1*
G37*
G36*
X39448Y48147D2*
X38917Y47616D1*
X38210Y48323D1*
X38740Y48854D1*
X39448Y48147D1*
G37*
G36*
X38918Y52062D2*
X39448Y51532D1*
X38741Y50825D1*
X38211Y51355D1*
X38918Y52062D1*
G37*
G36*
X41269Y51535D2*
X41800Y52066D1*
X42507Y51359D1*
X41976Y50828D1*
X41269Y51535D1*
G37*
G36*
X41817Y47605D2*
X41287Y48135D1*
X41994Y48842D1*
X42525Y48312D1*
X41817Y47605D1*
G37*
G36*
X45768Y48147D2*
X45237Y47616D1*
X44530Y48323D1*
X45060Y48854D1*
X45768Y48147D1*
G37*
G36*
X45238Y52062D2*
X45768Y51532D1*
X45061Y50825D1*
X44531Y51355D1*
X45238Y52062D1*
G37*
G36*
X47589Y51535D2*
X48120Y52066D1*
X48827Y51359D1*
X48296Y50828D1*
X47589Y51535D1*
G37*
G36*
X48137Y47605D2*
X47607Y48135D1*
X48314Y48842D1*
X48845Y48312D1*
X48137Y47605D1*
G37*
G36*
X52088Y48147D2*
X51557Y47616D1*
X50850Y48323D1*
X51380Y48854D1*
X52088Y48147D1*
G37*
G36*
X51558Y52062D2*
X52088Y51532D1*
X51381Y50825D1*
X50851Y51355D1*
X51558Y52062D1*
G37*
G36*
X53909Y51535D2*
X54440Y52066D1*
X55147Y51359D1*
X54616Y50828D1*
X53909Y51535D1*
G37*
G36*
X54457Y47605D2*
X53927Y48135D1*
X54634Y48842D1*
X55165Y48312D1*
X54457Y47605D1*
G37*
G36*
X58408Y48147D2*
X57877Y47616D1*
X57170Y48323D1*
X57700Y48854D1*
X58408Y48147D1*
G37*
G36*
X57878Y52062D2*
X58408Y51532D1*
X57701Y50825D1*
X57171Y51355D1*
X57878Y52062D1*
G37*
G36*
X60229Y51535D2*
X60760Y52066D1*
X61467Y51359D1*
X60936Y50828D1*
X60229Y51535D1*
G37*
G36*
X60777Y47605D2*
X60247Y48135D1*
X60954Y48842D1*
X61485Y48312D1*
X60777Y47605D1*
G37*
G36*
X64728Y48147D2*
X64197Y47616D1*
X63490Y48323D1*
X64020Y48854D1*
X64728Y48147D1*
G37*
G36*
X64198Y52062D2*
X64728Y51532D1*
X64021Y50825D1*
X63491Y51355D1*
X64198Y52062D1*
G37*
G36*
X66549Y51535D2*
X67080Y52066D1*
X67787Y51359D1*
X67256Y50828D1*
X66549Y51535D1*
G37*
G36*
X67097Y47605D2*
X66567Y48135D1*
X67274Y48842D1*
X67805Y48312D1*
X67097Y47605D1*
G37*
G36*
X71048Y48147D2*
X70517Y47616D1*
X69810Y48323D1*
X70340Y48854D1*
X71048Y48147D1*
G37*
G36*
X70518Y52062D2*
X71048Y51532D1*
X70341Y50825D1*
X69811Y51355D1*
X70518Y52062D1*
G37*
G36*
X72869Y51535D2*
X73400Y52066D1*
X74107Y51359D1*
X73576Y50828D1*
X72869Y51535D1*
G37*
G36*
X73417Y47605D2*
X72887Y48135D1*
X73594Y48842D1*
X74125Y48312D1*
X73417Y47605D1*
G37*
G36*
X77368Y48147D2*
X76837Y47616D1*
X76130Y48323D1*
X76660Y48854D1*
X77368Y48147D1*
G37*
G36*
X76838Y52062D2*
X77368Y51532D1*
X76661Y50825D1*
X76131Y51355D1*
X76838Y52062D1*
G37*
M02*
