%FSLAX43Y43*%
%MOMM*%
G71*
G01*
G75*
G04 Layer_Physical_Order=2*
G04 Layer_Color=16711680*
G04:AMPARAMS|DCode=10|XSize=1mm|YSize=0.8mm|CornerRadius=0.12mm|HoleSize=0mm|Usage=FLASHONLY|Rotation=270.000|XOffset=0mm|YOffset=0mm|HoleType=Round|Shape=RoundedRectangle|*
%AMROUNDEDRECTD10*
21,1,1.000,0.560,0,0,270.0*
21,1,0.760,0.800,0,0,270.0*
1,1,0.240,-0.280,-0.380*
1,1,0.240,-0.280,0.380*
1,1,0.240,0.280,0.380*
1,1,0.240,0.280,-0.380*
%
%ADD10ROUNDEDRECTD10*%
G04:AMPARAMS|DCode=11|XSize=1mm|YSize=0.8mm|CornerRadius=0.12mm|HoleSize=0mm|Usage=FLASHONLY|Rotation=0.000|XOffset=0mm|YOffset=0mm|HoleType=Round|Shape=RoundedRectangle|*
%AMROUNDEDRECTD11*
21,1,1.000,0.560,0,0,0.0*
21,1,0.760,0.800,0,0,0.0*
1,1,0.240,0.380,-0.280*
1,1,0.240,-0.380,-0.280*
1,1,0.240,-0.380,0.280*
1,1,0.240,0.380,0.280*
%
%ADD11ROUNDEDRECTD11*%
%ADD12R,1.100X0.550*%
%ADD13R,0.550X1.100*%
G04:AMPARAMS|DCode=14|XSize=0.8mm|YSize=3mm|CornerRadius=0.08mm|HoleSize=0mm|Usage=FLASHONLY|Rotation=270.000|XOffset=0mm|YOffset=0mm|HoleType=Round|Shape=RoundedRectangle|*
%AMROUNDEDRECTD14*
21,1,0.800,2.840,0,0,270.0*
21,1,0.640,3.000,0,0,270.0*
1,1,0.160,-1.420,-0.320*
1,1,0.160,-1.420,0.320*
1,1,0.160,1.420,0.320*
1,1,0.160,1.420,-0.320*
%
%ADD14ROUNDEDRECTD14*%
%ADD15R,1.100X0.850*%
G04:AMPARAMS|DCode=16|XSize=2.1mm|YSize=3mm|CornerRadius=0.21mm|HoleSize=0mm|Usage=FLASHONLY|Rotation=270.000|XOffset=0mm|YOffset=0mm|HoleType=Round|Shape=RoundedRectangle|*
%AMROUNDEDRECTD16*
21,1,2.100,2.580,0,0,270.0*
21,1,1.680,3.000,0,0,270.0*
1,1,0.420,-1.290,-0.840*
1,1,0.420,-1.290,0.840*
1,1,0.420,1.290,0.840*
1,1,0.420,1.290,-0.840*
%
%ADD16ROUNDEDRECTD16*%
%ADD17R,3.000X0.800*%
G04:AMPARAMS|DCode=18|XSize=1.8mm|YSize=0.8mm|CornerRadius=0.08mm|HoleSize=0mm|Usage=FLASHONLY|Rotation=180.000|XOffset=0mm|YOffset=0mm|HoleType=Round|Shape=RoundedRectangle|*
%AMROUNDEDRECTD18*
21,1,1.800,0.640,0,0,180.0*
21,1,1.640,0.800,0,0,180.0*
1,1,0.160,-0.820,0.320*
1,1,0.160,0.820,0.320*
1,1,0.160,0.820,-0.320*
1,1,0.160,-0.820,-0.320*
%
%ADD18ROUNDEDRECTD18*%
%ADD19R,4.000X0.500*%
%ADD20R,3.500X2.700*%
%ADD21R,5.000X2.700*%
%ADD22C,0.300*%
%ADD23C,0.200*%
%ADD24C,0.500*%
%ADD25C,5.000*%
%ADD26C,1.500*%
%ADD27C,1.500*%
%ADD28R,1.500X1.500*%
%ADD29C,2.000*%
%ADD30C,0.900*%
%ADD31C,1.400*%
G36*
X149800Y100200D02*
X149800Y100200D01*
X100200D01*
X100200Y144710D01*
X100290Y144800D01*
X149800D01*
Y100200D01*
D02*
G37*
%LPC*%
G36*
X122973Y121973D02*
X122461D01*
X122467Y121930D01*
X122532Y121772D01*
X122636Y121636D01*
X122772Y121532D01*
X122930Y121467D01*
X122973Y121461D01*
Y121973D01*
D02*
G37*
G36*
X123739D02*
X123227D01*
Y121461D01*
X123270Y121467D01*
X123428Y121532D01*
X123564Y121636D01*
X123668Y121772D01*
X123733Y121930D01*
X123739Y121973D01*
D02*
G37*
G36*
X103573Y121939D02*
X103530Y121933D01*
X103372Y121868D01*
X103236Y121764D01*
X103132Y121628D01*
X103067Y121470D01*
X103061Y121427D01*
X103573D01*
Y121939D01*
D02*
G37*
G36*
X103827D02*
Y121427D01*
X104339D01*
X104333Y121470D01*
X104268Y121628D01*
X104164Y121764D01*
X104028Y121868D01*
X103870Y121933D01*
X103827Y121939D01*
D02*
G37*
G36*
X122973Y122739D02*
X122930Y122733D01*
X122772Y122668D01*
X122636Y122564D01*
X122532Y122428D01*
X122467Y122270D01*
X122461Y122227D01*
X122973D01*
Y122739D01*
D02*
G37*
G36*
X128539Y122773D02*
X128027D01*
Y122261D01*
X128070Y122267D01*
X128228Y122332D01*
X128364Y122436D01*
X128468Y122572D01*
X128533Y122730D01*
X128539Y122773D01*
D02*
G37*
G36*
X139473Y122873D02*
X138961D01*
X138967Y122830D01*
X139032Y122672D01*
X139136Y122536D01*
X139272Y122432D01*
X139430Y122367D01*
X139473Y122361D01*
Y122873D01*
D02*
G37*
G36*
X123227Y122739D02*
Y122227D01*
X123739D01*
X123733Y122270D01*
X123668Y122428D01*
X123564Y122564D01*
X123428Y122668D01*
X123270Y122733D01*
X123227Y122739D01*
D02*
G37*
G36*
X127773Y122773D02*
X127261D01*
X127267Y122730D01*
X127332Y122572D01*
X127436Y122436D01*
X127572Y122332D01*
X127730Y122267D01*
X127773Y122261D01*
Y122773D01*
D02*
G37*
G36*
X104339Y121173D02*
X103827D01*
Y120661D01*
X103870Y120667D01*
X104028Y120732D01*
X104164Y120836D01*
X104268Y120972D01*
X104333Y121130D01*
X104339Y121173D01*
D02*
G37*
G36*
X125673Y117939D02*
X125630Y117933D01*
X125472Y117868D01*
X125336Y117764D01*
X125232Y117628D01*
X125167Y117470D01*
X125161Y117427D01*
X125673D01*
Y117939D01*
D02*
G37*
G36*
X125927D02*
Y117427D01*
X126439D01*
X126433Y117470D01*
X126368Y117628D01*
X126264Y117764D01*
X126128Y117868D01*
X125970Y117933D01*
X125927Y117939D01*
D02*
G37*
G36*
X116373Y117339D02*
X116330Y117333D01*
X116172Y117268D01*
X116036Y117164D01*
X115932Y117028D01*
X115867Y116870D01*
X115861Y116827D01*
X116373D01*
Y117339D01*
D02*
G37*
G36*
X116627D02*
Y116827D01*
X117139D01*
X117133Y116870D01*
X117068Y117028D01*
X116964Y117164D01*
X116828Y117268D01*
X116670Y117333D01*
X116627Y117339D01*
D02*
G37*
G36*
X140473Y118073D02*
X139961D01*
X139967Y118030D01*
X140032Y117872D01*
X140136Y117736D01*
X140272Y117632D01*
X140430Y117567D01*
X140473Y117561D01*
Y118073D01*
D02*
G37*
G36*
X140727Y118839D02*
Y118327D01*
X141239D01*
X141233Y118370D01*
X141168Y118528D01*
X141064Y118664D01*
X140928Y118768D01*
X140770Y118833D01*
X140727Y118839D01*
D02*
G37*
G36*
X103573Y121173D02*
X103061D01*
X103067Y121130D01*
X103132Y120972D01*
X103236Y120836D01*
X103372Y120732D01*
X103530Y120667D01*
X103573Y120661D01*
Y121173D01*
D02*
G37*
G36*
X141239Y118073D02*
X140727D01*
Y117561D01*
X140770Y117567D01*
X140928Y117632D01*
X141064Y117736D01*
X141168Y117872D01*
X141233Y118030D01*
X141239Y118073D01*
D02*
G37*
G36*
X140473Y118839D02*
X140430Y118833D01*
X140272Y118768D01*
X140136Y118664D01*
X140032Y118528D01*
X139967Y118370D01*
X139961Y118327D01*
X140473D01*
Y118839D01*
D02*
G37*
G36*
X140239Y122873D02*
X139727D01*
Y122361D01*
X139770Y122367D01*
X139928Y122432D01*
X140064Y122536D01*
X140168Y122672D01*
X140233Y122830D01*
X140239Y122873D01*
D02*
G37*
G36*
X128027Y125839D02*
Y125327D01*
X128539D01*
X128533Y125370D01*
X128468Y125528D01*
X128364Y125664D01*
X128228Y125768D01*
X128070Y125833D01*
X128027Y125839D01*
D02*
G37*
G36*
X132473Y125873D02*
X131961D01*
X131967Y125830D01*
X132032Y125672D01*
X132136Y125536D01*
X132272Y125432D01*
X132430Y125367D01*
X132473Y125361D01*
Y125873D01*
D02*
G37*
G36*
X128539Y125073D02*
X128027D01*
Y124561D01*
X128070Y124567D01*
X128228Y124632D01*
X128364Y124736D01*
X128468Y124872D01*
X128533Y125030D01*
X128539Y125073D01*
D02*
G37*
G36*
X127773Y125839D02*
X127730Y125833D01*
X127572Y125768D01*
X127436Y125664D01*
X127332Y125528D01*
X127267Y125370D01*
X127261Y125327D01*
X127773D01*
Y125839D01*
D02*
G37*
G36*
X133239Y125873D02*
X132727D01*
Y125361D01*
X132770Y125367D01*
X132928Y125432D01*
X133064Y125536D01*
X133168Y125672D01*
X133233Y125830D01*
X133239Y125873D01*
D02*
G37*
G36*
X113273Y126373D02*
X112761D01*
X112767Y126330D01*
X112832Y126172D01*
X112936Y126036D01*
X113072Y125932D01*
X113230Y125867D01*
X113273Y125861D01*
Y126373D01*
D02*
G37*
G36*
X114039D02*
X113527D01*
Y125861D01*
X113570Y125867D01*
X113728Y125932D01*
X113864Y126036D01*
X113968Y126172D01*
X114033Y126330D01*
X114039Y126373D01*
D02*
G37*
G36*
X122973Y126073D02*
X122461D01*
X122467Y126030D01*
X122532Y125872D01*
X122636Y125736D01*
X122772Y125632D01*
X122930Y125567D01*
X122973Y125561D01*
Y126073D01*
D02*
G37*
G36*
X123739D02*
X123227D01*
Y125561D01*
X123270Y125567D01*
X123428Y125632D01*
X123564Y125736D01*
X123668Y125872D01*
X123733Y126030D01*
X123739Y126073D01*
D02*
G37*
G36*
X127773Y125073D02*
X127261D01*
X127267Y125030D01*
X127332Y124872D01*
X127436Y124736D01*
X127572Y124632D01*
X127730Y124567D01*
X127773Y124561D01*
Y125073D01*
D02*
G37*
G36*
X139473Y123639D02*
X139430Y123633D01*
X139272Y123568D01*
X139136Y123464D01*
X139032Y123328D01*
X138967Y123170D01*
X138961Y123127D01*
X139473D01*
Y123639D01*
D02*
G37*
G36*
X139727D02*
Y123127D01*
X140239D01*
X140233Y123170D01*
X140168Y123328D01*
X140064Y123464D01*
X139928Y123568D01*
X139770Y123633D01*
X139727Y123639D01*
D02*
G37*
G36*
X127773Y123539D02*
X127730Y123533D01*
X127572Y123468D01*
X127436Y123364D01*
X127332Y123228D01*
X127267Y123070D01*
X127261Y123027D01*
X127773D01*
Y123539D01*
D02*
G37*
G36*
X128027D02*
Y123027D01*
X128539D01*
X128533Y123070D01*
X128468Y123228D01*
X128364Y123364D01*
X128228Y123468D01*
X128070Y123533D01*
X128027Y123539D01*
D02*
G37*
G36*
X123100Y125108D02*
X122865Y125077D01*
X122646Y124986D01*
X122458Y124842D01*
X122314Y124654D01*
X122223Y124435D01*
X122192Y124200D01*
X122223Y123965D01*
X122314Y123746D01*
X122458Y123558D01*
X122646Y123414D01*
X122865Y123323D01*
X123100Y123292D01*
X123335Y123323D01*
X123554Y123414D01*
X123742Y123558D01*
X123886Y123746D01*
X123977Y123965D01*
X124008Y124200D01*
X123977Y124435D01*
X123886Y124654D01*
X123742Y124842D01*
X123554Y124986D01*
X123335Y125077D01*
X123100Y125108D01*
D02*
G37*
G36*
X120473Y124939D02*
X120430Y124933D01*
X120272Y124868D01*
X120136Y124764D01*
X120032Y124628D01*
X119967Y124470D01*
X119961Y124427D01*
X120473D01*
Y124939D01*
D02*
G37*
G36*
X120727D02*
Y124427D01*
X121239D01*
X121233Y124470D01*
X121168Y124628D01*
X121064Y124764D01*
X120928Y124868D01*
X120770Y124933D01*
X120727Y124939D01*
D02*
G37*
G36*
X120473Y124173D02*
X119961D01*
X119967Y124130D01*
X120032Y123972D01*
X120136Y123836D01*
X120272Y123732D01*
X120430Y123667D01*
X120473Y123661D01*
Y124173D01*
D02*
G37*
G36*
X121239D02*
X120727D01*
Y123661D01*
X120770Y123667D01*
X120928Y123732D01*
X121064Y123836D01*
X121168Y123972D01*
X121233Y124130D01*
X121239Y124173D01*
D02*
G37*
G36*
X126439Y117173D02*
X125927D01*
Y116661D01*
X125970Y116667D01*
X126128Y116732D01*
X126264Y116836D01*
X126368Y116972D01*
X126433Y117130D01*
X126439Y117173D01*
D02*
G37*
G36*
X114273Y102039D02*
X114230Y102033D01*
X114072Y101968D01*
X113936Y101864D01*
X113832Y101728D01*
X113767Y101570D01*
X113761Y101527D01*
X114273D01*
Y102039D01*
D02*
G37*
G36*
X114527D02*
Y101527D01*
X115039D01*
X115033Y101570D01*
X114968Y101728D01*
X114864Y101864D01*
X114728Y101968D01*
X114570Y102033D01*
X114527Y102039D01*
D02*
G37*
G36*
X125773Y101939D02*
X125730Y101933D01*
X125572Y101868D01*
X125436Y101764D01*
X125332Y101628D01*
X125267Y101470D01*
X125261Y101427D01*
X125773D01*
Y101939D01*
D02*
G37*
G36*
X126027D02*
Y101427D01*
X126539D01*
X126533Y101470D01*
X126468Y101628D01*
X126364Y101764D01*
X126228Y101868D01*
X126070Y101933D01*
X126027Y101939D01*
D02*
G37*
G36*
X137073Y102039D02*
X137030Y102033D01*
X136872Y101968D01*
X136736Y101864D01*
X136632Y101728D01*
X136567Y101570D01*
X136561Y101527D01*
X137073D01*
Y102039D01*
D02*
G37*
G36*
X103627Y106198D02*
Y103627D01*
X106198D01*
X106175Y103924D01*
X106076Y104337D01*
X105913Y104730D01*
X105691Y105092D01*
X105415Y105415D01*
X105092Y105691D01*
X104730Y105913D01*
X104337Y106076D01*
X103924Y106175D01*
X103627Y106198D01*
D02*
G37*
G36*
X146373D02*
X146076Y106175D01*
X145663Y106076D01*
X145270Y105913D01*
X144908Y105691D01*
X144585Y105415D01*
X144309Y105092D01*
X144087Y104730D01*
X143924Y104337D01*
X143825Y103924D01*
X143802Y103627D01*
X146373D01*
Y106198D01*
D02*
G37*
G36*
X137327Y102039D02*
Y101527D01*
X137839D01*
X137833Y101570D01*
X137768Y101728D01*
X137664Y101864D01*
X137528Y101968D01*
X137370Y102033D01*
X137327Y102039D01*
D02*
G37*
G36*
X103373Y106198D02*
X103076Y106175D01*
X102663Y106076D01*
X102270Y105913D01*
X101908Y105691D01*
X101585Y105415D01*
X101309Y105092D01*
X101087Y104730D01*
X100924Y104337D01*
X100825Y103924D01*
X100802Y103627D01*
X103373D01*
Y106198D01*
D02*
G37*
G36*
X149198Y103373D02*
X146627D01*
Y100802D01*
X146924Y100825D01*
X147337Y100924D01*
X147730Y101087D01*
X148092Y101309D01*
X148415Y101585D01*
X148691Y101908D01*
X148913Y102270D01*
X149076Y102663D01*
X149175Y103076D01*
X149198Y103373D01*
D02*
G37*
G36*
X114273Y101273D02*
X113761D01*
X113767Y101230D01*
X113832Y101072D01*
X113936Y100936D01*
X114072Y100832D01*
X114230Y100767D01*
X114273Y100761D01*
Y101273D01*
D02*
G37*
G36*
X115039D02*
X114527D01*
Y100761D01*
X114570Y100767D01*
X114728Y100832D01*
X114864Y100936D01*
X114968Y101072D01*
X115033Y101230D01*
X115039Y101273D01*
D02*
G37*
G36*
X125773Y101173D02*
X125261D01*
X125267Y101130D01*
X125332Y100972D01*
X125436Y100836D01*
X125572Y100732D01*
X125730Y100667D01*
X125773Y100661D01*
Y101173D01*
D02*
G37*
G36*
X126539D02*
X126027D01*
Y100661D01*
X126070Y100667D01*
X126228Y100732D01*
X126364Y100836D01*
X126468Y100972D01*
X126533Y101130D01*
X126539Y101173D01*
D02*
G37*
G36*
X137073Y101273D02*
X136561D01*
X136567Y101230D01*
X136632Y101072D01*
X136736Y100936D01*
X136872Y100832D01*
X137030Y100767D01*
X137073Y100761D01*
Y101273D01*
D02*
G37*
G36*
X106198Y103373D02*
X103627D01*
Y100802D01*
X103924Y100825D01*
X104337Y100924D01*
X104730Y101087D01*
X105092Y101309D01*
X105415Y101585D01*
X105691Y101908D01*
X105913Y102270D01*
X106076Y102663D01*
X106175Y103076D01*
X106198Y103373D01*
D02*
G37*
G36*
X146373D02*
X143802D01*
X143825Y103076D01*
X143924Y102663D01*
X144087Y102270D01*
X144309Y101908D01*
X144585Y101585D01*
X144908Y101309D01*
X145270Y101087D01*
X145663Y100924D01*
X146076Y100825D01*
X146373Y100802D01*
Y103373D01*
D02*
G37*
G36*
X137839Y101273D02*
X137327D01*
Y100761D01*
X137370Y100767D01*
X137528Y100832D01*
X137664Y100936D01*
X137768Y101072D01*
X137833Y101230D01*
X137839Y101273D01*
D02*
G37*
G36*
X103373Y103373D02*
X100802D01*
X100825Y103076D01*
X100924Y102663D01*
X101087Y102270D01*
X101309Y101908D01*
X101585Y101585D01*
X101908Y101309D01*
X102270Y101087D01*
X102663Y100924D01*
X103076Y100825D01*
X103373Y100802D01*
Y103373D01*
D02*
G37*
G36*
X146627Y106198D02*
Y103627D01*
X149198D01*
X149175Y103924D01*
X149076Y104337D01*
X148913Y104730D01*
X148691Y105092D01*
X148415Y105415D01*
X148092Y105691D01*
X147730Y105913D01*
X147337Y106076D01*
X146924Y106175D01*
X146627Y106198D01*
D02*
G37*
G36*
X141573Y115039D02*
X141530Y115033D01*
X141372Y114968D01*
X141236Y114864D01*
X141132Y114728D01*
X141067Y114570D01*
X141061Y114527D01*
X141573D01*
Y115039D01*
D02*
G37*
G36*
X141827D02*
Y114527D01*
X142339D01*
X142333Y114570D01*
X142268Y114728D01*
X142164Y114864D01*
X142028Y114968D01*
X141870Y115033D01*
X141827Y115039D01*
D02*
G37*
G36*
X134873Y114373D02*
X134361D01*
X134367Y114330D01*
X134432Y114172D01*
X134536Y114036D01*
X134672Y113932D01*
X134830Y113867D01*
X134873Y113861D01*
Y114373D01*
D02*
G37*
G36*
X135639D02*
X135127D01*
Y113861D01*
X135170Y113867D01*
X135328Y113932D01*
X135464Y114036D01*
X135568Y114172D01*
X135633Y114330D01*
X135639Y114373D01*
D02*
G37*
G36*
X134873Y115139D02*
X134830Y115133D01*
X134672Y115068D01*
X134536Y114964D01*
X134432Y114828D01*
X134367Y114670D01*
X134361Y114627D01*
X134873D01*
Y115139D01*
D02*
G37*
G36*
X117139Y116573D02*
X116627D01*
Y116061D01*
X116670Y116067D01*
X116828Y116132D01*
X116964Y116236D01*
X117068Y116372D01*
X117133Y116530D01*
X117139Y116573D01*
D02*
G37*
G36*
X125673Y117173D02*
X125161D01*
X125167Y117130D01*
X125232Y116972D01*
X125336Y116836D01*
X125472Y116732D01*
X125630Y116667D01*
X125673Y116661D01*
Y117173D01*
D02*
G37*
G36*
X135127Y115139D02*
Y114627D01*
X135639D01*
X135633Y114670D01*
X135568Y114828D01*
X135464Y114964D01*
X135328Y115068D01*
X135170Y115133D01*
X135127Y115139D01*
D02*
G37*
G36*
X116373Y116573D02*
X115861D01*
X115867Y116530D01*
X115932Y116372D01*
X116036Y116236D01*
X116172Y116132D01*
X116330Y116067D01*
X116373Y116061D01*
Y116573D01*
D02*
G37*
G36*
X142339Y114273D02*
X141827D01*
Y113761D01*
X141870Y113767D01*
X142028Y113832D01*
X142164Y113936D01*
X142268Y114072D01*
X142333Y114230D01*
X142339Y114273D01*
D02*
G37*
G36*
X141473Y110239D02*
X141430Y110233D01*
X141272Y110168D01*
X141136Y110064D01*
X141032Y109928D01*
X140967Y109770D01*
X140961Y109727D01*
X141473D01*
Y110239D01*
D02*
G37*
G36*
X141727D02*
Y109727D01*
X142239D01*
X142233Y109770D01*
X142168Y109928D01*
X142064Y110064D01*
X141928Y110168D01*
X141770Y110233D01*
X141727Y110239D01*
D02*
G37*
G36*
X141473Y109473D02*
X140961D01*
X140967Y109430D01*
X141032Y109272D01*
X141136Y109136D01*
X141272Y109032D01*
X141430Y108967D01*
X141473Y108961D01*
Y109473D01*
D02*
G37*
G36*
X142239D02*
X141727D01*
Y108961D01*
X141770Y108967D01*
X141928Y109032D01*
X142064Y109136D01*
X142168Y109272D01*
X142233Y109430D01*
X142239Y109473D01*
D02*
G37*
G36*
X103673Y111773D02*
X103161D01*
X103167Y111730D01*
X103232Y111572D01*
X103336Y111436D01*
X103472Y111332D01*
X103630Y111267D01*
X103673Y111261D01*
Y111773D01*
D02*
G37*
G36*
X103927Y112539D02*
Y112027D01*
X104439D01*
X104433Y112070D01*
X104368Y112228D01*
X104264Y112364D01*
X104128Y112468D01*
X103970Y112533D01*
X103927Y112539D01*
D02*
G37*
G36*
X141573Y114273D02*
X141061D01*
X141067Y114230D01*
X141132Y114072D01*
X141236Y113936D01*
X141372Y113832D01*
X141530Y113767D01*
X141573Y113761D01*
Y114273D01*
D02*
G37*
G36*
X104439Y111773D02*
X103927D01*
Y111261D01*
X103970Y111267D01*
X104128Y111332D01*
X104264Y111436D01*
X104368Y111572D01*
X104433Y111730D01*
X104439Y111773D01*
D02*
G37*
G36*
X103673Y112539D02*
X103630Y112533D01*
X103472Y112468D01*
X103336Y112364D01*
X103232Y112228D01*
X103167Y112070D01*
X103161Y112027D01*
X103673D01*
Y112539D01*
D02*
G37*
G36*
X149198Y141373D02*
X146627D01*
Y138802D01*
X146924Y138825D01*
X147337Y138924D01*
X147730Y139087D01*
X148092Y139309D01*
X148415Y139585D01*
X148691Y139908D01*
X148913Y140270D01*
X149076Y140663D01*
X149175Y141076D01*
X149198Y141373D01*
D02*
G37*
G36*
X112473Y139373D02*
X111961D01*
X111967Y139330D01*
X112032Y139172D01*
X112136Y139036D01*
X112272Y138932D01*
X112430Y138867D01*
X112473Y138861D01*
Y139373D01*
D02*
G37*
G36*
X146373Y141373D02*
X143802D01*
X143825Y141076D01*
X143924Y140663D01*
X144087Y140270D01*
X144309Y139908D01*
X144585Y139585D01*
X144908Y139309D01*
X145270Y139087D01*
X145663Y138924D01*
X146076Y138825D01*
X146373Y138802D01*
Y141373D01*
D02*
G37*
G36*
X103373D02*
X100802D01*
X100825Y141076D01*
X100924Y140663D01*
X101087Y140270D01*
X101309Y139908D01*
X101585Y139585D01*
X101908Y139309D01*
X102270Y139087D01*
X102663Y138924D01*
X103076Y138825D01*
X103373Y138802D01*
Y141373D01*
D02*
G37*
G36*
X106198D02*
X103627D01*
Y138802D01*
X103924Y138825D01*
X104337Y138924D01*
X104730Y139087D01*
X105092Y139309D01*
X105415Y139585D01*
X105691Y139908D01*
X105913Y140270D01*
X106076Y140663D01*
X106175Y141076D01*
X106198Y141373D01*
D02*
G37*
G36*
X112473Y140139D02*
X112430Y140133D01*
X112272Y140068D01*
X112136Y139964D01*
X112032Y139828D01*
X111967Y139670D01*
X111961Y139627D01*
X112473D01*
Y140139D01*
D02*
G37*
G36*
X112727D02*
Y139627D01*
X113239D01*
X113233Y139670D01*
X113168Y139828D01*
X113064Y139964D01*
X112928Y140068D01*
X112770Y140133D01*
X112727Y140139D01*
D02*
G37*
G36*
X126027Y139439D02*
Y138927D01*
X126539D01*
X126533Y138970D01*
X126468Y139128D01*
X126364Y139264D01*
X126228Y139368D01*
X126070Y139433D01*
X126027Y139439D01*
D02*
G37*
G36*
X113239Y139373D02*
X112727D01*
Y138861D01*
X112770Y138867D01*
X112928Y138932D01*
X113064Y139036D01*
X113168Y139172D01*
X113233Y139330D01*
X113239Y139373D01*
D02*
G37*
G36*
X125773Y139439D02*
X125730Y139433D01*
X125572Y139368D01*
X125436Y139264D01*
X125332Y139128D01*
X125267Y138970D01*
X125261Y138927D01*
X125773D01*
Y139439D01*
D02*
G37*
G36*
X120327Y138139D02*
Y137627D01*
X120839D01*
X120833Y137670D01*
X120768Y137828D01*
X120664Y137964D01*
X120528Y138068D01*
X120370Y138133D01*
X120327Y138139D01*
D02*
G37*
G36*
X137973Y138373D02*
X137461D01*
X137467Y138330D01*
X137532Y138172D01*
X137636Y138036D01*
X137772Y137932D01*
X137930Y137867D01*
X137973Y137861D01*
Y138373D01*
D02*
G37*
G36*
X120073Y138139D02*
X120030Y138133D01*
X119872Y138068D01*
X119736Y137964D01*
X119632Y137828D01*
X119567Y137670D01*
X119561Y137627D01*
X120073D01*
Y138139D01*
D02*
G37*
G36*
Y137373D02*
X119561D01*
X119567Y137330D01*
X119632Y137172D01*
X119736Y137036D01*
X119872Y136932D01*
X120030Y136867D01*
X120073Y136861D01*
Y137373D01*
D02*
G37*
G36*
X120839D02*
X120327D01*
Y136861D01*
X120370Y136867D01*
X120528Y136932D01*
X120664Y137036D01*
X120768Y137172D01*
X120833Y137330D01*
X120839Y137373D01*
D02*
G37*
G36*
X137973Y139139D02*
X137930Y139133D01*
X137772Y139068D01*
X137636Y138964D01*
X137532Y138828D01*
X137467Y138670D01*
X137461Y138627D01*
X137973D01*
Y139139D01*
D02*
G37*
G36*
X138227D02*
Y138627D01*
X138739D01*
X138733Y138670D01*
X138668Y138828D01*
X138564Y138964D01*
X138428Y139068D01*
X138270Y139133D01*
X138227Y139139D01*
D02*
G37*
G36*
X126539Y138673D02*
X126027D01*
Y138161D01*
X126070Y138167D01*
X126228Y138232D01*
X126364Y138336D01*
X126468Y138472D01*
X126533Y138630D01*
X126539Y138673D01*
D02*
G37*
G36*
X138739Y138373D02*
X138227D01*
Y137861D01*
X138270Y137867D01*
X138428Y137932D01*
X138564Y138036D01*
X138668Y138172D01*
X138733Y138330D01*
X138739Y138373D01*
D02*
G37*
G36*
X125773Y138673D02*
X125261D01*
X125267Y138630D01*
X125332Y138472D01*
X125436Y138336D01*
X125572Y138232D01*
X125730Y138167D01*
X125773Y138161D01*
Y138673D01*
D02*
G37*
G36*
X142439Y142873D02*
X141927D01*
Y142361D01*
X141970Y142367D01*
X142128Y142432D01*
X142264Y142536D01*
X142368Y142672D01*
X142433Y142830D01*
X142439Y142873D01*
D02*
G37*
G36*
X133373Y143373D02*
X132861D01*
X132867Y143330D01*
X132932Y143172D01*
X133036Y143036D01*
X133172Y142932D01*
X133330Y142867D01*
X133373Y142861D01*
Y143373D01*
D02*
G37*
G36*
X141673Y142873D02*
X141161D01*
X141167Y142830D01*
X141232Y142672D01*
X141336Y142536D01*
X141472Y142432D01*
X141630Y142367D01*
X141673Y142361D01*
Y142873D01*
D02*
G37*
G36*
X146373Y144198D02*
X146076Y144175D01*
X145663Y144076D01*
X145270Y143913D01*
X144908Y143691D01*
X144585Y143415D01*
X144309Y143092D01*
X144087Y142730D01*
X143924Y142337D01*
X143825Y141924D01*
X143802Y141627D01*
X146373D01*
Y144198D01*
D02*
G37*
G36*
X146627D02*
Y141627D01*
X149198D01*
X149175Y141924D01*
X149076Y142337D01*
X148913Y142730D01*
X148691Y143092D01*
X148415Y143415D01*
X148092Y143691D01*
X147730Y143913D01*
X147337Y144076D01*
X146924Y144175D01*
X146627Y144198D01*
D02*
G37*
G36*
X133373Y144139D02*
X133330Y144133D01*
X133172Y144068D01*
X133036Y143964D01*
X132932Y143828D01*
X132867Y143670D01*
X132861Y143627D01*
X133373D01*
Y144139D01*
D02*
G37*
G36*
X133627D02*
Y143627D01*
X134139D01*
X134133Y143670D01*
X134068Y143828D01*
X133964Y143964D01*
X133828Y144068D01*
X133670Y144133D01*
X133627Y144139D01*
D02*
G37*
G36*
X141927Y143639D02*
Y143127D01*
X142439D01*
X142433Y143170D01*
X142368Y143328D01*
X142264Y143464D01*
X142128Y143568D01*
X141970Y143633D01*
X141927Y143639D01*
D02*
G37*
G36*
X134139Y143373D02*
X133627D01*
Y142861D01*
X133670Y142867D01*
X133828Y142932D01*
X133964Y143036D01*
X134068Y143172D01*
X134133Y143330D01*
X134139Y143373D01*
D02*
G37*
G36*
X141673Y143639D02*
X141630Y143633D01*
X141472Y143568D01*
X141336Y143464D01*
X141232Y143328D01*
X141167Y143170D01*
X141161Y143127D01*
X141673D01*
Y143639D01*
D02*
G37*
G36*
X137539Y140973D02*
X137027D01*
Y140461D01*
X137070Y140467D01*
X137228Y140532D01*
X137364Y140636D01*
X137468Y140772D01*
X137533Y140930D01*
X137539Y140973D01*
D02*
G37*
G36*
X130973Y141639D02*
X130930Y141633D01*
X130772Y141568D01*
X130636Y141464D01*
X130532Y141328D01*
X130467Y141170D01*
X130461Y141127D01*
X130973D01*
Y141639D01*
D02*
G37*
G36*
X136773Y140973D02*
X136261D01*
X136267Y140930D01*
X136332Y140772D01*
X136436Y140636D01*
X136572Y140532D01*
X136730Y140467D01*
X136773Y140461D01*
Y140973D01*
D02*
G37*
G36*
X130973Y140873D02*
X130461D01*
X130467Y140830D01*
X130532Y140672D01*
X130636Y140536D01*
X130772Y140432D01*
X130930Y140367D01*
X130973Y140361D01*
Y140873D01*
D02*
G37*
G36*
X131739D02*
X131227D01*
Y140361D01*
X131270Y140367D01*
X131428Y140432D01*
X131564Y140536D01*
X131668Y140672D01*
X131733Y140830D01*
X131739Y140873D01*
D02*
G37*
G36*
X103373Y144198D02*
X103076Y144175D01*
X102663Y144076D01*
X102270Y143913D01*
X101908Y143691D01*
X101585Y143415D01*
X101309Y143092D01*
X101087Y142730D01*
X100924Y142337D01*
X100825Y141924D01*
X100802Y141627D01*
X103373D01*
Y144198D01*
D02*
G37*
G36*
X103627D02*
Y141627D01*
X106198D01*
X106175Y141924D01*
X106076Y142337D01*
X105913Y142730D01*
X105691Y143092D01*
X105415Y143415D01*
X105092Y143691D01*
X104730Y143913D01*
X104337Y144076D01*
X103924Y144175D01*
X103627Y144198D01*
D02*
G37*
G36*
X137027Y141739D02*
Y141227D01*
X137539D01*
X137533Y141270D01*
X137468Y141428D01*
X137364Y141564D01*
X137228Y141668D01*
X137070Y141733D01*
X137027Y141739D01*
D02*
G37*
G36*
X131227Y141639D02*
Y141127D01*
X131739D01*
X131733Y141170D01*
X131668Y141328D01*
X131564Y141464D01*
X131428Y141568D01*
X131270Y141633D01*
X131227Y141639D01*
D02*
G37*
G36*
X136773Y141739D02*
X136730Y141733D01*
X136572Y141668D01*
X136436Y141564D01*
X136332Y141428D01*
X136267Y141270D01*
X136261Y141227D01*
X136773D01*
Y141739D01*
D02*
G37*
G36*
X123373Y130673D02*
X122861D01*
X122867Y130630D01*
X122932Y130472D01*
X123036Y130336D01*
X123172Y130232D01*
X123330Y130167D01*
X123373Y130161D01*
Y130673D01*
D02*
G37*
G36*
X124139D02*
X123627D01*
Y130161D01*
X123670Y130167D01*
X123828Y130232D01*
X123964Y130336D01*
X124068Y130472D01*
X124133Y130630D01*
X124139Y130673D01*
D02*
G37*
G36*
X111027Y130039D02*
Y129527D01*
X111539D01*
X111533Y129570D01*
X111468Y129728D01*
X111364Y129864D01*
X111228Y129968D01*
X111070Y130033D01*
X111027Y130039D01*
D02*
G37*
G36*
X111539Y129273D02*
X111027D01*
Y128761D01*
X111070Y128767D01*
X111228Y128832D01*
X111364Y128936D01*
X111468Y129072D01*
X111533Y129230D01*
X111539Y129273D01*
D02*
G37*
G36*
X110773Y130039D02*
X110730Y130033D01*
X110572Y129968D01*
X110436Y129864D01*
X110332Y129728D01*
X110267Y129570D01*
X110261Y129527D01*
X110773D01*
Y130039D01*
D02*
G37*
G36*
X123373Y131439D02*
X123330Y131433D01*
X123172Y131368D01*
X123036Y131264D01*
X122932Y131128D01*
X122867Y130970D01*
X122861Y130927D01*
X123373D01*
Y131439D01*
D02*
G37*
G36*
X123627D02*
Y130927D01*
X124139D01*
X124133Y130970D01*
X124068Y131128D01*
X123964Y131264D01*
X123828Y131368D01*
X123670Y131433D01*
X123627Y131439D01*
D02*
G37*
G36*
X113139Y130873D02*
X112627D01*
Y130361D01*
X112670Y130367D01*
X112828Y130432D01*
X112964Y130536D01*
X113068Y130672D01*
X113133Y130830D01*
X113139Y130873D01*
D02*
G37*
G36*
X147500Y134418D02*
X147252Y134386D01*
X147021Y134290D01*
X146822Y134138D01*
X146670Y133939D01*
X146574Y133708D01*
X146542Y133460D01*
X146574Y133212D01*
X146670Y132981D01*
X146822Y132782D01*
X147021Y132630D01*
X147252Y132534D01*
X147500Y132502D01*
X147748Y132534D01*
X147921Y132606D01*
X148694Y131833D01*
Y130404D01*
X148577Y130356D01*
X148377Y130555D01*
X148426Y130672D01*
X148458Y130920D01*
X148426Y131168D01*
X148330Y131399D01*
X148178Y131598D01*
X147979Y131750D01*
X147748Y131846D01*
X147500Y131878D01*
X147252Y131846D01*
X147021Y131750D01*
X146822Y131598D01*
X146670Y131399D01*
X146574Y131168D01*
X146542Y130920D01*
X146574Y130672D01*
X146670Y130441D01*
X146822Y130242D01*
X147021Y130090D01*
X147252Y129994D01*
X147500Y129962D01*
X147748Y129994D01*
X147978Y130090D01*
X148294Y129773D01*
Y129097D01*
X148178Y129058D01*
X147979Y129210D01*
X147748Y129306D01*
X147627Y129321D01*
Y128380D01*
Y127439D01*
X147748Y127454D01*
X147979Y127550D01*
X148178Y127702D01*
X148294Y127663D01*
Y126557D01*
X148178Y126518D01*
X147979Y126670D01*
X147748Y126766D01*
X147500Y126798D01*
X147252Y126766D01*
X147021Y126670D01*
X146822Y126518D01*
X146670Y126319D01*
X146574Y126088D01*
X146542Y125840D01*
X146574Y125592D01*
X146670Y125361D01*
X146822Y125162D01*
X147021Y125010D01*
X147252Y124914D01*
X147500Y124882D01*
X147748Y124914D01*
X147979Y125010D01*
X148178Y125162D01*
X148294Y125123D01*
Y124017D01*
X148178Y123978D01*
X147979Y124130D01*
X147748Y124226D01*
X147500Y124258D01*
X147252Y124226D01*
X147021Y124130D01*
X146822Y123978D01*
X146670Y123779D01*
X146574Y123548D01*
X146542Y123300D01*
X146574Y123052D01*
X146670Y122821D01*
X146822Y122622D01*
X147021Y122470D01*
X147252Y122374D01*
X147500Y122342D01*
X147748Y122374D01*
X147979Y122470D01*
X148178Y122622D01*
X148294Y122583D01*
Y121477D01*
X148178Y121438D01*
X147979Y121590D01*
X147748Y121686D01*
X147500Y121718D01*
X147252Y121686D01*
X147021Y121590D01*
X146822Y121438D01*
X146670Y121239D01*
X146574Y121008D01*
X146542Y120760D01*
X146574Y120512D01*
X146670Y120281D01*
X146822Y120082D01*
X147021Y119930D01*
X147252Y119834D01*
X147500Y119802D01*
X147748Y119834D01*
X147979Y119930D01*
X148178Y120082D01*
X148294Y120043D01*
Y113927D01*
X148192Y113824D01*
X148170Y113833D01*
X148000Y113856D01*
X147830Y113833D01*
X147672Y113768D01*
X147536Y113664D01*
X147432Y113528D01*
X147367Y113370D01*
X147344Y113200D01*
X147367Y113030D01*
X147432Y112872D01*
X147536Y112736D01*
X147672Y112632D01*
X147717Y112614D01*
Y112487D01*
X147672Y112468D01*
X147536Y112364D01*
X147432Y112228D01*
X147367Y112070D01*
X147344Y111900D01*
X147367Y111730D01*
X147432Y111572D01*
X147536Y111436D01*
X147672Y111332D01*
X147830Y111267D01*
X148000Y111244D01*
X148170Y111267D01*
X148328Y111332D01*
X148464Y111436D01*
X148568Y111572D01*
X148633Y111730D01*
X148656Y111900D01*
X148633Y112070D01*
X148624Y112092D01*
X149216Y112684D01*
X149283Y112783D01*
X149306Y112900D01*
X149306Y112900D01*
Y131960D01*
X149283Y132077D01*
X149216Y132176D01*
X149216Y132176D01*
X148354Y133039D01*
X148426Y133212D01*
X148458Y133460D01*
X148426Y133708D01*
X148330Y133939D01*
X148178Y134138D01*
X147979Y134290D01*
X147748Y134386D01*
X147500Y134418D01*
D02*
G37*
G36*
X112373Y130873D02*
X111861D01*
X111867Y130830D01*
X111932Y130672D01*
X112036Y130536D01*
X112172Y130432D01*
X112330Y130367D01*
X112373Y130361D01*
Y130873D01*
D02*
G37*
G36*
X123227Y126839D02*
Y126327D01*
X123739D01*
X123733Y126370D01*
X123668Y126528D01*
X123564Y126664D01*
X123428Y126768D01*
X123270Y126833D01*
X123227Y126839D01*
D02*
G37*
G36*
X113273Y127139D02*
X113230Y127133D01*
X113072Y127068D01*
X112936Y126964D01*
X112832Y126828D01*
X112767Y126670D01*
X112761Y126627D01*
X113273D01*
Y127139D01*
D02*
G37*
G36*
X122973Y126839D02*
X122930Y126833D01*
X122772Y126768D01*
X122636Y126664D01*
X122532Y126528D01*
X122467Y126370D01*
X122461Y126327D01*
X122973D01*
Y126839D01*
D02*
G37*
G36*
X132473Y126639D02*
X132430Y126633D01*
X132272Y126568D01*
X132136Y126464D01*
X132032Y126328D01*
X131967Y126170D01*
X131961Y126127D01*
X132473D01*
Y126639D01*
D02*
G37*
G36*
X132727D02*
Y126127D01*
X133239D01*
X133233Y126170D01*
X133168Y126328D01*
X133064Y126464D01*
X132928Y126568D01*
X132770Y126633D01*
X132727Y126639D01*
D02*
G37*
G36*
X147373Y129321D02*
X147252Y129306D01*
X147021Y129210D01*
X146822Y129058D01*
X146670Y128859D01*
X146574Y128628D01*
X146559Y128507D01*
X147373D01*
Y129321D01*
D02*
G37*
G36*
X110773Y129273D02*
X110261D01*
X110267Y129230D01*
X110332Y129072D01*
X110436Y128936D01*
X110572Y128832D01*
X110730Y128767D01*
X110773Y128761D01*
Y129273D01*
D02*
G37*
G36*
X105250Y129456D02*
X105080Y129433D01*
X104922Y129368D01*
X104786Y129264D01*
X104682Y129128D01*
X104617Y128970D01*
X104594Y128800D01*
X104617Y128630D01*
X104682Y128472D01*
X104786Y128336D01*
X104922Y128232D01*
X105080Y128167D01*
X105250Y128144D01*
X105420Y128167D01*
X105578Y128232D01*
X105714Y128336D01*
X105818Y128472D01*
X105883Y128630D01*
X105906Y128800D01*
X105883Y128970D01*
X105818Y129128D01*
X105714Y129264D01*
X105578Y129368D01*
X105420Y129433D01*
X105250Y129456D01*
D02*
G37*
G36*
X113527Y127139D02*
Y126627D01*
X114039D01*
X114033Y126670D01*
X113968Y126828D01*
X113864Y126964D01*
X113728Y127068D01*
X113570Y127133D01*
X113527Y127139D01*
D02*
G37*
G36*
X147373Y128253D02*
X146559D01*
X146574Y128132D01*
X146670Y127901D01*
X146822Y127702D01*
X147021Y127550D01*
X147252Y127454D01*
X147373Y127439D01*
Y128253D01*
D02*
G37*
G36*
X112773Y134339D02*
X112730Y134333D01*
X112572Y134268D01*
X112436Y134164D01*
X112332Y134028D01*
X112267Y133870D01*
X112261Y133827D01*
X112773D01*
Y134339D01*
D02*
G37*
G36*
X113027D02*
Y133827D01*
X113539D01*
X113533Y133870D01*
X113468Y134028D01*
X113364Y134164D01*
X113228Y134268D01*
X113070Y134333D01*
X113027Y134339D01*
D02*
G37*
G36*
X117627Y133939D02*
Y133427D01*
X118139D01*
X118133Y133470D01*
X118068Y133628D01*
X117964Y133764D01*
X117828Y133868D01*
X117670Y133933D01*
X117627Y133939D01*
D02*
G37*
G36*
X113539Y133573D02*
X113027D01*
Y133061D01*
X113070Y133067D01*
X113228Y133132D01*
X113364Y133236D01*
X113468Y133372D01*
X113533Y133530D01*
X113539Y133573D01*
D02*
G37*
G36*
X117373Y133939D02*
X117330Y133933D01*
X117172Y133868D01*
X117036Y133764D01*
X116932Y133628D01*
X116867Y133470D01*
X116861Y133427D01*
X117373D01*
Y133939D01*
D02*
G37*
G36*
X111973Y137039D02*
X111930Y137033D01*
X111772Y136968D01*
X111636Y136864D01*
X111532Y136728D01*
X111467Y136570D01*
X111461Y136527D01*
X111973D01*
Y137039D01*
D02*
G37*
G36*
X112227D02*
Y136527D01*
X112739D01*
X112733Y136570D01*
X112668Y136728D01*
X112564Y136864D01*
X112428Y136968D01*
X112270Y137033D01*
X112227Y137039D01*
D02*
G37*
G36*
X112739Y136273D02*
X112227D01*
Y135761D01*
X112270Y135767D01*
X112428Y135832D01*
X112564Y135936D01*
X112668Y136072D01*
X112733Y136230D01*
X112739Y136273D01*
D02*
G37*
G36*
X148450Y136950D02*
X146550D01*
Y135050D01*
X148450D01*
Y136950D01*
D02*
G37*
G36*
X111973Y136273D02*
X111461D01*
X111467Y136230D01*
X111532Y136072D01*
X111636Y135936D01*
X111772Y135832D01*
X111930Y135767D01*
X111973Y135761D01*
Y136273D01*
D02*
G37*
G36*
X128739Y132473D02*
X128227D01*
Y131961D01*
X128270Y131967D01*
X128428Y132032D01*
X128564Y132136D01*
X128668Y132272D01*
X128733Y132430D01*
X128739Y132473D01*
D02*
G37*
G36*
X105250Y133856D02*
X105080Y133833D01*
X104922Y133768D01*
X104786Y133664D01*
X104682Y133528D01*
X104617Y133370D01*
X104594Y133200D01*
X104617Y133030D01*
X104682Y132872D01*
X104786Y132736D01*
X104922Y132632D01*
X105080Y132567D01*
X105250Y132544D01*
X105420Y132567D01*
X105578Y132632D01*
X105714Y132736D01*
X105818Y132872D01*
X105883Y133030D01*
X105906Y133200D01*
X105883Y133370D01*
X105818Y133528D01*
X105714Y133664D01*
X105578Y133768D01*
X105420Y133833D01*
X105250Y133856D01*
D02*
G37*
G36*
X127973Y132473D02*
X127461D01*
X127467Y132430D01*
X127532Y132272D01*
X127636Y132136D01*
X127772Y132032D01*
X127930Y131967D01*
X127973Y131961D01*
Y132473D01*
D02*
G37*
G36*
X112373Y131639D02*
X112330Y131633D01*
X112172Y131568D01*
X112036Y131464D01*
X111932Y131328D01*
X111867Y131170D01*
X111861Y131127D01*
X112373D01*
Y131639D01*
D02*
G37*
G36*
X112627D02*
Y131127D01*
X113139D01*
X113133Y131170D01*
X113068Y131328D01*
X112964Y131464D01*
X112828Y131568D01*
X112670Y131633D01*
X112627Y131639D01*
D02*
G37*
G36*
X128227Y133239D02*
Y132727D01*
X128739D01*
X128733Y132770D01*
X128668Y132928D01*
X128564Y133064D01*
X128428Y133168D01*
X128270Y133233D01*
X128227Y133239D01*
D02*
G37*
G36*
X112773Y133573D02*
X112261D01*
X112267Y133530D01*
X112332Y133372D01*
X112436Y133236D01*
X112572Y133132D01*
X112730Y133067D01*
X112773Y133061D01*
Y133573D01*
D02*
G37*
G36*
X127973Y133239D02*
X127930Y133233D01*
X127772Y133168D01*
X127636Y133064D01*
X127532Y132928D01*
X127467Y132770D01*
X127461Y132727D01*
X127973D01*
Y133239D01*
D02*
G37*
G36*
X117373Y133173D02*
X116861D01*
X116867Y133130D01*
X116932Y132972D01*
X117036Y132836D01*
X117172Y132732D01*
X117330Y132667D01*
X117373Y132661D01*
Y133173D01*
D02*
G37*
G36*
X118139D02*
X117627D01*
Y132661D01*
X117670Y132667D01*
X117828Y132732D01*
X117964Y132836D01*
X118068Y132972D01*
X118133Y133130D01*
X118139Y133173D01*
D02*
G37*
%LPD*%
D23*
X147500Y130920D02*
X147580D01*
X148600Y129900D01*
X147500Y133460D02*
X149000Y131960D01*
X148000Y113200D02*
X148600Y113800D01*
Y129900D01*
X148000Y111900D02*
X149000Y112900D01*
Y131960D01*
D25*
X146500Y103500D02*
D03*
Y141500D02*
D03*
X103500Y103500D02*
D03*
Y141500D02*
D03*
D26*
X147500Y123300D02*
D03*
Y128380D02*
D03*
Y133460D02*
D03*
Y120760D02*
D03*
D27*
Y125840D02*
D03*
Y130920D02*
D03*
D28*
Y136000D02*
D03*
D30*
X123100Y126200D02*
D03*
X112500Y131000D02*
D03*
X123500Y130800D02*
D03*
X127900Y125200D02*
D03*
Y122900D02*
D03*
X123100Y122100D02*
D03*
X110900Y129400D02*
D03*
X112900Y133700D02*
D03*
X117500Y133300D02*
D03*
X112600Y139500D02*
D03*
X135000Y114500D02*
D03*
X141700Y114400D02*
D03*
X120600Y124300D02*
D03*
X113400Y126500D02*
D03*
X131100Y141000D02*
D03*
X125900Y138800D02*
D03*
X133500Y143500D02*
D03*
X136900Y141100D02*
D03*
X141800Y143000D02*
D03*
X148000Y113200D02*
D03*
Y111900D02*
D03*
X138100Y138500D02*
D03*
X139600Y123000D02*
D03*
X140600Y118200D02*
D03*
X116500Y116700D02*
D03*
X112100Y136400D02*
D03*
X120200Y137500D02*
D03*
X128100Y132600D02*
D03*
X132600Y126000D02*
D03*
X125800Y117300D02*
D03*
X141600Y109600D02*
D03*
X103800Y111900D02*
D03*
X137200Y101400D02*
D03*
X125900Y101300D02*
D03*
X103700Y121300D02*
D03*
X114400Y101400D02*
D03*
D31*
X123100Y124200D02*
D03*
M02*
