G04 #@! TF.FileFunction,Copper,L2,Bot,Signal*
%FSLAX46Y46*%
G04 Gerber Fmt 4.6, Leading zero omitted, Abs format (unit mm)*
G04 Created by KiCad (PCBNEW 4.0.1-stable) date 1/20/2016 02:09:16*
%MOMM*%
G01*
G04 APERTURE LIST*
%ADD10C,0.254000*%
%ADD11C,0.100000*%
%ADD12R,1.727200X1.727200*%
%ADD13O,1.727200X1.727200*%
%ADD14R,1.727200X2.032000*%
%ADD15O,1.727200X2.032000*%
%ADD16R,2.032000X2.032000*%
%ADD17O,2.032000X2.032000*%
%ADD18O,1.900000X1.200000*%
%ADD19O,2.600000X1.300000*%
%ADD20O,1.100000X1.550000*%
%ADD21C,0.584200*%
%ADD22C,0.635000*%
%ADD23C,0.152400*%
G04 APERTURE END LIST*
D10*
D11*
G36*
X98398542Y-88248397D02*
X99878668Y-89590198D01*
X101358795Y-90932000D01*
X103476730Y-90932000D01*
X105594665Y-90932000D01*
X107103062Y-89590173D01*
X108611458Y-88248347D01*
X108611459Y-86350294D01*
X108611459Y-84452241D01*
X107103024Y-83120121D01*
X105594589Y-81788000D01*
X105109388Y-81788144D01*
X104624188Y-81788288D01*
X104429719Y-82114446D01*
X104235250Y-82440605D01*
X104235250Y-83327785D01*
X104235250Y-84214965D01*
X105296248Y-85901068D01*
X106357246Y-87587170D01*
X106308279Y-87634315D01*
X106299204Y-87642992D01*
X106282870Y-87658538D01*
X106259706Y-87680547D01*
X106230139Y-87708616D01*
X106194599Y-87742336D01*
X106153512Y-87781303D01*
X106107307Y-87825112D01*
X106056412Y-87873355D01*
X106001254Y-87925628D01*
X105942263Y-87981526D01*
X105879865Y-88040641D01*
X105814489Y-88102569D01*
X105746563Y-88166904D01*
X105676514Y-88233240D01*
X105604772Y-88301172D01*
X105587856Y-88317188D01*
X104916400Y-88952917D01*
X103475892Y-88952917D01*
X102035384Y-88952917D01*
X101400575Y-88350989D01*
X101329824Y-88283905D01*
X101260247Y-88217934D01*
X101192317Y-88153528D01*
X101126510Y-88091135D01*
X101063299Y-88031207D01*
X101003158Y-87974191D01*
X100946563Y-87920538D01*
X100893988Y-87870698D01*
X100845906Y-87825120D01*
X100802793Y-87784254D01*
X100765123Y-87748550D01*
X100733369Y-87718457D01*
X100708007Y-87694425D01*
X100689511Y-87676905D01*
X100680754Y-87668614D01*
X100595744Y-87588166D01*
X101685247Y-85901540D01*
X102774750Y-84214913D01*
X102774750Y-83327887D01*
X102774750Y-82440860D01*
X102551594Y-82114430D01*
X102328438Y-81788000D01*
X101843698Y-81788000D01*
X101358958Y-81788000D01*
X99878750Y-83120164D01*
X98398542Y-84452329D01*
X98398542Y-86350363D01*
X98398542Y-88248397D01*
X98398542Y-88248397D01*
X98398542Y-88248397D01*
G37*
X98398542Y-88248397D02*
X99878668Y-89590198D01*
X101358795Y-90932000D01*
X103476730Y-90932000D01*
X105594665Y-90932000D01*
X107103062Y-89590173D01*
X108611458Y-88248347D01*
X108611459Y-86350294D01*
X108611459Y-84452241D01*
X107103024Y-83120121D01*
X105594589Y-81788000D01*
X105109388Y-81788144D01*
X104624188Y-81788288D01*
X104429719Y-82114446D01*
X104235250Y-82440605D01*
X104235250Y-83327785D01*
X104235250Y-84214965D01*
X105296248Y-85901068D01*
X106357246Y-87587170D01*
X106308279Y-87634315D01*
X106299204Y-87642992D01*
X106282870Y-87658538D01*
X106259706Y-87680547D01*
X106230139Y-87708616D01*
X106194599Y-87742336D01*
X106153512Y-87781303D01*
X106107307Y-87825112D01*
X106056412Y-87873355D01*
X106001254Y-87925628D01*
X105942263Y-87981526D01*
X105879865Y-88040641D01*
X105814489Y-88102569D01*
X105746563Y-88166904D01*
X105676514Y-88233240D01*
X105604772Y-88301172D01*
X105587856Y-88317188D01*
X104916400Y-88952917D01*
X103475892Y-88952917D01*
X102035384Y-88952917D01*
X101400575Y-88350989D01*
X101329824Y-88283905D01*
X101260247Y-88217934D01*
X101192317Y-88153528D01*
X101126510Y-88091135D01*
X101063299Y-88031207D01*
X101003158Y-87974191D01*
X100946563Y-87920538D01*
X100893988Y-87870698D01*
X100845906Y-87825120D01*
X100802793Y-87784254D01*
X100765123Y-87748550D01*
X100733369Y-87718457D01*
X100708007Y-87694425D01*
X100689511Y-87676905D01*
X100680754Y-87668614D01*
X100595744Y-87588166D01*
X101685247Y-85901540D01*
X102774750Y-84214913D01*
X102774750Y-83327887D01*
X102774750Y-82440860D01*
X102551594Y-82114430D01*
X102328438Y-81788000D01*
X101843698Y-81788000D01*
X101358958Y-81788000D01*
X99878750Y-83120164D01*
X98398542Y-84452329D01*
X98398542Y-86350363D01*
X98398542Y-88248397D01*
X98398542Y-88248397D01*
D12*
X80010000Y-78105000D03*
D13*
X80010000Y-75565000D03*
X77470000Y-78105000D03*
X77470000Y-75565000D03*
X74930000Y-78105000D03*
X74930000Y-75565000D03*
X72390000Y-78105000D03*
X72390000Y-75565000D03*
D14*
X68580000Y-97155000D03*
D15*
X71120000Y-97155000D03*
X73660000Y-97155000D03*
X76200000Y-97155000D03*
X78740000Y-97155000D03*
D16*
X62865000Y-97155000D03*
D17*
X60325000Y-97155000D03*
D18*
X65270000Y-82040000D03*
D19*
X60220000Y-90680000D03*
X60220000Y-82040000D03*
D18*
X65270000Y-90680000D03*
D20*
X64870000Y-82265000D03*
X64870000Y-90455000D03*
D21*
X91440000Y-89916000D03*
X70104000Y-83058000D03*
X70231000Y-87503000D03*
X73025000Y-91440000D03*
X73279000Y-89535000D03*
X76454000Y-85979000D03*
X76200000Y-83820000D03*
X81534000Y-89408000D03*
X81534000Y-88900000D03*
X67056000Y-83693000D03*
X63246000Y-83693000D03*
X67056000Y-89281000D03*
X63373000Y-89027000D03*
X81915000Y-91440000D03*
X77089000Y-91440000D03*
X81280000Y-87122000D03*
X74930000Y-86106000D03*
X63171363Y-87079185D03*
X69977000Y-85979000D03*
X63165000Y-88011000D03*
X67056000Y-87735000D03*
X62992000Y-84709000D03*
X67056000Y-85090000D03*
X80899000Y-93726000D03*
X83820000Y-94361000D03*
X86360000Y-93726000D03*
X88900000Y-92964000D03*
X91567000Y-87376000D03*
X62736000Y-86485000D03*
X91567000Y-85344000D03*
X67721842Y-85964280D03*
X63172449Y-85891612D03*
D22*
X81915000Y-91440000D02*
X77089000Y-91440000D01*
D23*
X74930000Y-86106000D02*
X75946000Y-87122000D01*
X75946000Y-87122000D02*
X81280000Y-87122000D01*
X63584454Y-87079185D02*
X63171363Y-87079185D01*
X68876815Y-87079185D02*
X63584454Y-87079185D01*
X69977000Y-85979000D02*
X68876815Y-87079185D01*
D22*
X66366909Y-88011000D02*
X63165000Y-88011000D01*
X67056000Y-87735000D02*
X66642909Y-87735000D01*
X66642909Y-87735000D02*
X66366909Y-88011000D01*
X66675000Y-84709000D02*
X62992000Y-84709000D01*
X67056000Y-85090000D02*
X66675000Y-84709000D01*
D10*
X71856600Y-93726000D02*
X80899000Y-93726000D01*
X68580000Y-97155000D02*
X68580000Y-97002600D01*
X68580000Y-97002600D02*
X71856600Y-93726000D01*
D22*
X62865000Y-97155000D02*
X68580000Y-97155000D01*
D10*
X68580000Y-97307400D02*
X68580000Y-97155000D01*
D23*
X83324676Y-94856324D02*
X83527901Y-94653099D01*
X78346276Y-94856324D02*
X83324676Y-94856324D01*
X76200000Y-97002600D02*
X78346276Y-94856324D01*
X83527901Y-94653099D02*
X83820000Y-94361000D01*
X76200000Y-97155000D02*
X76200000Y-97002600D01*
X83362066Y-93726000D02*
X85946909Y-93726000D01*
X82536554Y-94551513D02*
X83362066Y-93726000D01*
X73660000Y-97002600D02*
X76111087Y-94551513D01*
X85946909Y-93726000D02*
X86360000Y-93726000D01*
X73660000Y-97155000D02*
X73660000Y-97002600D01*
X76111087Y-94551513D02*
X82536554Y-94551513D01*
X83693000Y-92964000D02*
X88900000Y-92964000D01*
X71120000Y-97002600D02*
X73875898Y-94246702D01*
X71120000Y-97155000D02*
X71120000Y-97002600D01*
X73875898Y-94246702D02*
X82410298Y-94246702D01*
X82410298Y-94246702D02*
X83693000Y-92964000D01*
X91274901Y-87083901D02*
X91567000Y-87376000D01*
X90601811Y-86410811D02*
X91274901Y-87083901D01*
X69468255Y-85394811D02*
X76708745Y-85394811D01*
X76708745Y-85394811D02*
X77724744Y-86410811D01*
X68378066Y-86485000D02*
X69468255Y-85394811D01*
X62736000Y-86485000D02*
X68378066Y-86485000D01*
X77724744Y-86410811D02*
X90601811Y-86410811D01*
X90805000Y-86106000D02*
X91567000Y-85344000D01*
X77851000Y-86106000D02*
X90805000Y-86106000D01*
X76835000Y-85090000D02*
X77851000Y-86106000D01*
X69342000Y-85090000D02*
X76835000Y-85090000D01*
X68467720Y-85964280D02*
X69342000Y-85090000D01*
X67721842Y-85964280D02*
X68467720Y-85964280D01*
X63172449Y-85891612D02*
X67649174Y-85891612D01*
X67649174Y-85891612D02*
X67721842Y-85964280D01*
D10*
G36*
X108712000Y-83966022D02*
X107388321Y-82797063D01*
X105879886Y-81464942D01*
X105818492Y-81429212D01*
X105759408Y-81389759D01*
X105746187Y-81387133D01*
X105734540Y-81380355D01*
X105664145Y-81370839D01*
X105594461Y-81357000D01*
X105109260Y-81357144D01*
X104624060Y-81357288D01*
X104571756Y-81367708D01*
X104518498Y-81370448D01*
X104490041Y-81383987D01*
X104459133Y-81390145D01*
X104433924Y-81407000D01*
X102519105Y-81407000D01*
X102493375Y-81389808D01*
X102449521Y-81381085D01*
X102408035Y-81364414D01*
X102367853Y-81364840D01*
X102328438Y-81357000D01*
X101358958Y-81357000D01*
X101287394Y-81371235D01*
X101215182Y-81381688D01*
X101205299Y-81387565D01*
X101194021Y-81389808D01*
X101133348Y-81430348D01*
X101070637Y-81467638D01*
X99590429Y-82799802D01*
X98110221Y-84131967D01*
X98103340Y-84141178D01*
X98093779Y-84147566D01*
X98053242Y-84208234D01*
X98009570Y-84266689D01*
X98006737Y-84277833D01*
X98000350Y-84287392D01*
X97986116Y-84358953D01*
X97968138Y-84429673D01*
X97969785Y-84441052D01*
X97967542Y-84452329D01*
X97967542Y-88248397D01*
X97969632Y-88258903D01*
X97968059Y-88269498D01*
X97985966Y-88341023D01*
X98000350Y-88413334D01*
X98006300Y-88422239D01*
X98008902Y-88432631D01*
X98052820Y-88491860D01*
X98093779Y-88553160D01*
X98102685Y-88559111D01*
X98109065Y-88567715D01*
X99589191Y-89909516D01*
X101069318Y-91251319D01*
X101132558Y-91289233D01*
X101193858Y-91330192D01*
X101204364Y-91332282D01*
X101213552Y-91337790D01*
X101286483Y-91348616D01*
X101358795Y-91363000D01*
X105594665Y-91363000D01*
X105665024Y-91349005D01*
X105736089Y-91339137D01*
X105747091Y-91332681D01*
X105759602Y-91330192D01*
X105819253Y-91290334D01*
X105881129Y-91254024D01*
X107389525Y-89912198D01*
X107389526Y-89912197D01*
X108712000Y-88735762D01*
X108712000Y-98552000D01*
X76337593Y-98552000D01*
X76676288Y-98484629D01*
X77080065Y-98214834D01*
X77349860Y-97811057D01*
X77444600Y-97334769D01*
X77444600Y-97218500D01*
X77495400Y-97218500D01*
X77495400Y-97370900D01*
X77614440Y-97842354D01*
X77904836Y-98232366D01*
X78322378Y-98481561D01*
X78482837Y-98525142D01*
X78676500Y-98454995D01*
X78676500Y-97218500D01*
X78803500Y-97218500D01*
X78803500Y-98454995D01*
X78997163Y-98525142D01*
X79157622Y-98481561D01*
X79575164Y-98232366D01*
X79865560Y-97842354D01*
X79984600Y-97370900D01*
X79984600Y-97218500D01*
X78803500Y-97218500D01*
X78676500Y-97218500D01*
X77495400Y-97218500D01*
X77444600Y-97218500D01*
X77444600Y-96975231D01*
X77437414Y-96939100D01*
X77495400Y-96939100D01*
X77495400Y-97091500D01*
X78676500Y-97091500D01*
X78676500Y-95855005D01*
X78803500Y-95855005D01*
X78803500Y-97091500D01*
X79984600Y-97091500D01*
X79984600Y-96939100D01*
X79865560Y-96467646D01*
X79575164Y-96077634D01*
X79157622Y-95828439D01*
X78997163Y-95784858D01*
X78803500Y-95855005D01*
X78676500Y-95855005D01*
X78482837Y-95784858D01*
X78322378Y-95828439D01*
X77904836Y-96077634D01*
X77614440Y-96467646D01*
X77495400Y-96939100D01*
X77437414Y-96939100D01*
X77349922Y-96499256D01*
X78535654Y-95313524D01*
X83324676Y-95313524D01*
X83499639Y-95278722D01*
X83647965Y-95179613D01*
X83793501Y-95034077D01*
X83953301Y-95034217D01*
X84200783Y-94931959D01*
X84390294Y-94742778D01*
X84492983Y-94495475D01*
X84493217Y-94227699D01*
X84474830Y-94183200D01*
X85865325Y-94183200D01*
X85978222Y-94296294D01*
X86225525Y-94398983D01*
X86493301Y-94399217D01*
X86740783Y-94296959D01*
X86930294Y-94107778D01*
X87032983Y-93860475D01*
X87033217Y-93592699D01*
X86962355Y-93421200D01*
X88405325Y-93421200D01*
X88518222Y-93534294D01*
X88765525Y-93636983D01*
X89033301Y-93637217D01*
X89280783Y-93534959D01*
X89470294Y-93345778D01*
X89517040Y-93233199D01*
X97188735Y-93233199D01*
X97421325Y-93796109D01*
X97851626Y-94227162D01*
X98414129Y-94460734D01*
X99023199Y-94461265D01*
X99586109Y-94228675D01*
X100017162Y-93798374D01*
X100250734Y-93235871D01*
X100251265Y-92626801D01*
X100018675Y-92063891D01*
X99588374Y-91632838D01*
X99025871Y-91399266D01*
X98416801Y-91398735D01*
X97853891Y-91631325D01*
X97422838Y-92061626D01*
X97189266Y-92624129D01*
X97188735Y-93233199D01*
X89517040Y-93233199D01*
X89572983Y-93098475D01*
X89573217Y-92830699D01*
X89470959Y-92583217D01*
X89281778Y-92393706D01*
X89034475Y-92291017D01*
X88766699Y-92290783D01*
X88519217Y-92393041D01*
X88405260Y-92506800D01*
X83693000Y-92506800D01*
X83518037Y-92541602D01*
X83369711Y-92640710D01*
X82220920Y-93789502D01*
X81572045Y-93789502D01*
X81572217Y-93592699D01*
X81469959Y-93345217D01*
X81280778Y-93155706D01*
X81033475Y-93053017D01*
X80765699Y-93052783D01*
X80518217Y-93155041D01*
X80455148Y-93218000D01*
X71856600Y-93218000D01*
X71662196Y-93256669D01*
X71497390Y-93366790D01*
X69113644Y-95750536D01*
X67716400Y-95750536D01*
X67575210Y-95777103D01*
X67445535Y-95860546D01*
X67358541Y-95987866D01*
X67327936Y-96139000D01*
X67327936Y-96456500D01*
X64269464Y-96456500D01*
X64269464Y-96139000D01*
X64242897Y-95997810D01*
X64159454Y-95868135D01*
X64032134Y-95781141D01*
X63881000Y-95750536D01*
X61849000Y-95750536D01*
X61707810Y-95777103D01*
X61578135Y-95860546D01*
X61491141Y-95987866D01*
X61460536Y-96139000D01*
X61460536Y-96347272D01*
X61340197Y-96167172D01*
X60886978Y-95864340D01*
X60352369Y-95758000D01*
X60297631Y-95758000D01*
X59763022Y-95864340D01*
X59309803Y-96167172D01*
X59006971Y-96620391D01*
X58928000Y-97017406D01*
X58928000Y-91489182D01*
X59142520Y-91632520D01*
X59537067Y-91711000D01*
X60902933Y-91711000D01*
X61297480Y-91632520D01*
X61631960Y-91409027D01*
X61855453Y-91074547D01*
X61933933Y-90680000D01*
X61892005Y-90469210D01*
X62939000Y-90469210D01*
X62939000Y-90750790D01*
X62990838Y-91011397D01*
X63138460Y-91232330D01*
X63359393Y-91379952D01*
X63620000Y-91431790D01*
X63880607Y-91379952D01*
X64101540Y-91232330D01*
X64103675Y-91229134D01*
X64200252Y-91373672D01*
X64518512Y-91586326D01*
X64893924Y-91661000D01*
X65646076Y-91661000D01*
X66021488Y-91586326D01*
X66240480Y-91440000D01*
X76390500Y-91440000D01*
X76415788Y-91567133D01*
X76415783Y-91573301D01*
X76418159Y-91579051D01*
X76443670Y-91707304D01*
X76515686Y-91815084D01*
X76518041Y-91820783D01*
X76522436Y-91825186D01*
X76595086Y-91933914D01*
X76702866Y-92005930D01*
X76707222Y-92010294D01*
X76712967Y-92012679D01*
X76821696Y-92085330D01*
X76948831Y-92110619D01*
X76954525Y-92112983D01*
X76960745Y-92112988D01*
X77089000Y-92138500D01*
X81915000Y-92138500D01*
X82042133Y-92113212D01*
X82048301Y-92113217D01*
X82054051Y-92110841D01*
X82182304Y-92085330D01*
X82290084Y-92013314D01*
X82295783Y-92010959D01*
X82300186Y-92006564D01*
X82408914Y-91933914D01*
X82480930Y-91826134D01*
X82485294Y-91821778D01*
X82487679Y-91816033D01*
X82560330Y-91707304D01*
X82585619Y-91580169D01*
X82587983Y-91574475D01*
X82587988Y-91568255D01*
X82613500Y-91440000D01*
X82588212Y-91312867D01*
X82588217Y-91306699D01*
X82585841Y-91300949D01*
X82560330Y-91172696D01*
X82488314Y-91064916D01*
X82485959Y-91059217D01*
X82481564Y-91054814D01*
X82408914Y-90946086D01*
X82301134Y-90874070D01*
X82296778Y-90869706D01*
X82291033Y-90867321D01*
X82182304Y-90794670D01*
X82055169Y-90769381D01*
X82049475Y-90767017D01*
X82043255Y-90767012D01*
X81915000Y-90741500D01*
X77089000Y-90741500D01*
X76961867Y-90766788D01*
X76955699Y-90766783D01*
X76949949Y-90769159D01*
X76821696Y-90794670D01*
X76713916Y-90866686D01*
X76708217Y-90869041D01*
X76703814Y-90873436D01*
X76595086Y-90946086D01*
X76523070Y-91053866D01*
X76518706Y-91058222D01*
X76516321Y-91063967D01*
X76443670Y-91172696D01*
X76418381Y-91299831D01*
X76416017Y-91305525D01*
X76416012Y-91311745D01*
X76390500Y-91440000D01*
X66240480Y-91440000D01*
X66339748Y-91373672D01*
X66552402Y-91055412D01*
X66627076Y-90680000D01*
X66552402Y-90304588D01*
X66339748Y-89986328D01*
X66021488Y-89773674D01*
X65646076Y-89699000D01*
X65628518Y-89699000D01*
X65528316Y-89549037D01*
X65226278Y-89347221D01*
X64870000Y-89276353D01*
X64513722Y-89347221D01*
X64211684Y-89549037D01*
X64009868Y-89851075D01*
X63996640Y-89917578D01*
X63880607Y-89840048D01*
X63620000Y-89788210D01*
X63359393Y-89840048D01*
X63138460Y-89987670D01*
X62990838Y-90208603D01*
X62939000Y-90469210D01*
X61892005Y-90469210D01*
X61855453Y-90285453D01*
X61631960Y-89950973D01*
X61297480Y-89727480D01*
X60902933Y-89649000D01*
X59537067Y-89649000D01*
X59142520Y-89727480D01*
X58928000Y-89870818D01*
X58928000Y-86618301D01*
X62062783Y-86618301D01*
X62165041Y-86865783D01*
X62354222Y-87055294D01*
X62498231Y-87115092D01*
X62498146Y-87212486D01*
X62600404Y-87459968D01*
X62665607Y-87525285D01*
X62599070Y-87624866D01*
X62594706Y-87629222D01*
X62592321Y-87634967D01*
X62519670Y-87743696D01*
X62494381Y-87870831D01*
X62492017Y-87876525D01*
X62492012Y-87882745D01*
X62466500Y-88011000D01*
X62491788Y-88138133D01*
X62491783Y-88144301D01*
X62494159Y-88150051D01*
X62519670Y-88278304D01*
X62591686Y-88386084D01*
X62594041Y-88391783D01*
X62598436Y-88396186D01*
X62671086Y-88504914D01*
X62778866Y-88576930D01*
X62783222Y-88581294D01*
X62788967Y-88583679D01*
X62897696Y-88656330D01*
X63024831Y-88681619D01*
X63030525Y-88683983D01*
X63036745Y-88683988D01*
X63165000Y-88709500D01*
X66366909Y-88709500D01*
X66634214Y-88656330D01*
X66860823Y-88504914D01*
X66932237Y-88433500D01*
X67056000Y-88433500D01*
X67183133Y-88408212D01*
X67189301Y-88408217D01*
X67195051Y-88405841D01*
X67323304Y-88380330D01*
X67431084Y-88308314D01*
X67436783Y-88305959D01*
X67441186Y-88301564D01*
X67549914Y-88228914D01*
X67621930Y-88121134D01*
X67626294Y-88116778D01*
X67628679Y-88111033D01*
X67701330Y-88002304D01*
X67726619Y-87875169D01*
X67728983Y-87869475D01*
X67728988Y-87863255D01*
X67754500Y-87735000D01*
X67729212Y-87607867D01*
X67729217Y-87601699D01*
X67726841Y-87595949D01*
X67714993Y-87536385D01*
X68876815Y-87536385D01*
X69051778Y-87501583D01*
X69200104Y-87402474D01*
X69950501Y-86652077D01*
X70110301Y-86652217D01*
X70357783Y-86549959D01*
X70547294Y-86360778D01*
X70649983Y-86113475D01*
X70650211Y-85852011D01*
X74306643Y-85852011D01*
X74257017Y-85971525D01*
X74256783Y-86239301D01*
X74359041Y-86486783D01*
X74548222Y-86676294D01*
X74795525Y-86778983D01*
X74956546Y-86779124D01*
X75622711Y-87445289D01*
X75771037Y-87544398D01*
X75946000Y-87579200D01*
X80785325Y-87579200D01*
X80898222Y-87692294D01*
X81145525Y-87794983D01*
X81413301Y-87795217D01*
X81660783Y-87692959D01*
X81850294Y-87503778D01*
X81952983Y-87256475D01*
X81953217Y-86988699D01*
X81903349Y-86868011D01*
X90412433Y-86868011D01*
X90893923Y-87349501D01*
X90893783Y-87509301D01*
X90996041Y-87756783D01*
X91185222Y-87946294D01*
X91432525Y-88048983D01*
X91700301Y-88049217D01*
X91947783Y-87946959D01*
X92137294Y-87757778D01*
X92239983Y-87510475D01*
X92240217Y-87242699D01*
X92137959Y-86995217D01*
X91948778Y-86805706D01*
X91701475Y-86703017D01*
X91540454Y-86702876D01*
X91197578Y-86360000D01*
X91540501Y-86017077D01*
X91700301Y-86017217D01*
X91947783Y-85914959D01*
X92137294Y-85725778D01*
X92239983Y-85478475D01*
X92240217Y-85210699D01*
X92137959Y-84963217D01*
X91948778Y-84773706D01*
X91701475Y-84671017D01*
X91433699Y-84670783D01*
X91186217Y-84773041D01*
X90996706Y-84962222D01*
X90894017Y-85209525D01*
X90893876Y-85370546D01*
X90615622Y-85648800D01*
X78040378Y-85648800D01*
X77158289Y-84766711D01*
X77009963Y-84667602D01*
X76835000Y-84632800D01*
X69342000Y-84632800D01*
X69167037Y-84667602D01*
X69018711Y-84766711D01*
X68278342Y-85507080D01*
X68216517Y-85507080D01*
X68103620Y-85393986D01*
X67856317Y-85291297D01*
X67714483Y-85291173D01*
X67726618Y-85230171D01*
X67728983Y-85224475D01*
X67728988Y-85218253D01*
X67754500Y-85090000D01*
X67729212Y-84962868D01*
X67729217Y-84956699D01*
X67726840Y-84950947D01*
X67701329Y-84822695D01*
X67629314Y-84714917D01*
X67626959Y-84709217D01*
X67622563Y-84704814D01*
X67549914Y-84596086D01*
X67168914Y-84215086D01*
X66942305Y-84063670D01*
X66675000Y-84010500D01*
X62992000Y-84010500D01*
X62864867Y-84035788D01*
X62858699Y-84035783D01*
X62852949Y-84038159D01*
X62724696Y-84063670D01*
X62616916Y-84135686D01*
X62611217Y-84138041D01*
X62606814Y-84142436D01*
X62498086Y-84215086D01*
X62426070Y-84322866D01*
X62421706Y-84327222D01*
X62419321Y-84332967D01*
X62346670Y-84441696D01*
X62321381Y-84568831D01*
X62319017Y-84574525D01*
X62319012Y-84580745D01*
X62293500Y-84709000D01*
X62318788Y-84836133D01*
X62318783Y-84842301D01*
X62321159Y-84848051D01*
X62346670Y-84976304D01*
X62418686Y-85084084D01*
X62421041Y-85089783D01*
X62425436Y-85094186D01*
X62498086Y-85202914D01*
X62605866Y-85274930D01*
X62610222Y-85279294D01*
X62615967Y-85281679D01*
X62724696Y-85354330D01*
X62752408Y-85359842D01*
X62602155Y-85509834D01*
X62499466Y-85757137D01*
X62499381Y-85854473D01*
X62355217Y-85914041D01*
X62165706Y-86103222D01*
X62063017Y-86350525D01*
X62062783Y-86618301D01*
X58928000Y-86618301D01*
X58928000Y-82849182D01*
X59142520Y-82992520D01*
X59537067Y-83071000D01*
X60902933Y-83071000D01*
X61297480Y-82992520D01*
X61443630Y-82894865D01*
X62588882Y-82894865D01*
X62692339Y-83145252D01*
X62883741Y-83336987D01*
X63133946Y-83440882D01*
X63404865Y-83441118D01*
X63655252Y-83337661D01*
X63846987Y-83146259D01*
X63950882Y-82896054D01*
X63951118Y-82625135D01*
X63847661Y-82374748D01*
X63656259Y-82183013D01*
X63406054Y-82079118D01*
X63135135Y-82078882D01*
X62884748Y-82182339D01*
X62693013Y-82373741D01*
X62589118Y-82623946D01*
X62588882Y-82894865D01*
X61443630Y-82894865D01*
X61631960Y-82769027D01*
X61855453Y-82434547D01*
X61933933Y-82040000D01*
X63912924Y-82040000D01*
X63939000Y-82171093D01*
X63939000Y-82512647D01*
X64009868Y-82868925D01*
X64211684Y-83170963D01*
X64513722Y-83372779D01*
X64870000Y-83443647D01*
X65226278Y-83372779D01*
X65528316Y-83170963D01*
X65628518Y-83021000D01*
X65646076Y-83021000D01*
X66021488Y-82946326D01*
X66339748Y-82733672D01*
X66552402Y-82415412D01*
X66627076Y-82040000D01*
X66552402Y-81664588D01*
X66339748Y-81346328D01*
X66021488Y-81133674D01*
X65646076Y-81059000D01*
X64893924Y-81059000D01*
X64518512Y-81133674D01*
X64200252Y-81346328D01*
X63987598Y-81664588D01*
X63912924Y-82040000D01*
X61933933Y-82040000D01*
X61855453Y-81645453D01*
X61631960Y-81310973D01*
X61297480Y-81087480D01*
X60902933Y-81009000D01*
X59537067Y-81009000D01*
X59142520Y-81087480D01*
X58928000Y-81230818D01*
X58928000Y-80093199D01*
X97188735Y-80093199D01*
X97421325Y-80656109D01*
X97851626Y-81087162D01*
X98414129Y-81320734D01*
X99023199Y-81321265D01*
X99586109Y-81088675D01*
X100017162Y-80658374D01*
X100250734Y-80095871D01*
X100251265Y-79486801D01*
X100018675Y-78923891D01*
X99588374Y-78492838D01*
X99025871Y-78259266D01*
X98416801Y-78258735D01*
X97853891Y-78491325D01*
X97422838Y-78921626D01*
X97189266Y-79484129D01*
X97188735Y-80093199D01*
X58928000Y-80093199D01*
X58928000Y-78105000D01*
X71121017Y-78105000D01*
X71215757Y-78581288D01*
X71485552Y-78985065D01*
X71889329Y-79254860D01*
X72365617Y-79349600D01*
X72414383Y-79349600D01*
X72890671Y-79254860D01*
X73294448Y-78985065D01*
X73564243Y-78581288D01*
X73658983Y-78105000D01*
X73661017Y-78105000D01*
X73755757Y-78581288D01*
X74025552Y-78985065D01*
X74429329Y-79254860D01*
X74905617Y-79349600D01*
X74954383Y-79349600D01*
X75430671Y-79254860D01*
X75834448Y-78985065D01*
X76104243Y-78581288D01*
X76198983Y-78105000D01*
X76201017Y-78105000D01*
X76295757Y-78581288D01*
X76565552Y-78985065D01*
X76969329Y-79254860D01*
X77445617Y-79349600D01*
X77494383Y-79349600D01*
X77970671Y-79254860D01*
X78374448Y-78985065D01*
X78644243Y-78581288D01*
X78738983Y-78105000D01*
X78644243Y-77628712D01*
X78385450Y-77241400D01*
X78757936Y-77241400D01*
X78757936Y-78968600D01*
X78784503Y-79109790D01*
X78867946Y-79239465D01*
X78995266Y-79326459D01*
X79146400Y-79357064D01*
X80873600Y-79357064D01*
X81014790Y-79330497D01*
X81144465Y-79247054D01*
X81231459Y-79119734D01*
X81262064Y-78968600D01*
X81262064Y-77241400D01*
X81235497Y-77100210D01*
X81152054Y-76970535D01*
X81024734Y-76883541D01*
X80873600Y-76852936D01*
X79146400Y-76852936D01*
X79005210Y-76879503D01*
X78875535Y-76962946D01*
X78788541Y-77090266D01*
X78757936Y-77241400D01*
X78385450Y-77241400D01*
X78374448Y-77224935D01*
X77970671Y-76955140D01*
X77494383Y-76860400D01*
X77445617Y-76860400D01*
X76969329Y-76955140D01*
X76565552Y-77224935D01*
X76295757Y-77628712D01*
X76201017Y-78105000D01*
X76198983Y-78105000D01*
X76104243Y-77628712D01*
X75834448Y-77224935D01*
X75430671Y-76955140D01*
X74954383Y-76860400D01*
X74905617Y-76860400D01*
X74429329Y-76955140D01*
X74025552Y-77224935D01*
X73755757Y-77628712D01*
X73661017Y-78105000D01*
X73658983Y-78105000D01*
X73564243Y-77628712D01*
X73294448Y-77224935D01*
X72890671Y-76955140D01*
X72414383Y-76860400D01*
X72365617Y-76860400D01*
X71889329Y-76955140D01*
X71485552Y-77224935D01*
X71215757Y-77628712D01*
X71121017Y-78105000D01*
X58928000Y-78105000D01*
X58928000Y-75822163D01*
X71172258Y-75822163D01*
X71347079Y-76244235D01*
X71686399Y-76591640D01*
X72132836Y-76782748D01*
X72326500Y-76712735D01*
X72326500Y-75628500D01*
X72453500Y-75628500D01*
X72453500Y-76712735D01*
X72647164Y-76782748D01*
X73093601Y-76591640D01*
X73432921Y-76244235D01*
X73607742Y-75822163D01*
X73712258Y-75822163D01*
X73887079Y-76244235D01*
X74226399Y-76591640D01*
X74672836Y-76782748D01*
X74866500Y-76712735D01*
X74866500Y-75628500D01*
X74993500Y-75628500D01*
X74993500Y-76712735D01*
X75187164Y-76782748D01*
X75633601Y-76591640D01*
X75972921Y-76244235D01*
X76147742Y-75822163D01*
X76252258Y-75822163D01*
X76427079Y-76244235D01*
X76766399Y-76591640D01*
X77212836Y-76782748D01*
X77406500Y-76712735D01*
X77406500Y-75628500D01*
X77533500Y-75628500D01*
X77533500Y-76712735D01*
X77727164Y-76782748D01*
X78173601Y-76591640D01*
X78512921Y-76244235D01*
X78687742Y-75822163D01*
X78792258Y-75822163D01*
X78967079Y-76244235D01*
X79306399Y-76591640D01*
X79752836Y-76782748D01*
X79946500Y-76712735D01*
X79946500Y-75628500D01*
X80073500Y-75628500D01*
X80073500Y-76712735D01*
X80267164Y-76782748D01*
X80713601Y-76591640D01*
X81052921Y-76244235D01*
X81227742Y-75822163D01*
X81157595Y-75628500D01*
X80073500Y-75628500D01*
X79946500Y-75628500D01*
X78862405Y-75628500D01*
X78792258Y-75822163D01*
X78687742Y-75822163D01*
X78617595Y-75628500D01*
X77533500Y-75628500D01*
X77406500Y-75628500D01*
X76322405Y-75628500D01*
X76252258Y-75822163D01*
X76147742Y-75822163D01*
X76077595Y-75628500D01*
X74993500Y-75628500D01*
X74866500Y-75628500D01*
X73782405Y-75628500D01*
X73712258Y-75822163D01*
X73607742Y-75822163D01*
X73537595Y-75628500D01*
X72453500Y-75628500D01*
X72326500Y-75628500D01*
X71242405Y-75628500D01*
X71172258Y-75822163D01*
X58928000Y-75822163D01*
X58928000Y-75307837D01*
X71172258Y-75307837D01*
X71242405Y-75501500D01*
X72326500Y-75501500D01*
X72326500Y-74417265D01*
X72453500Y-74417265D01*
X72453500Y-75501500D01*
X73537595Y-75501500D01*
X73607742Y-75307837D01*
X73712258Y-75307837D01*
X73782405Y-75501500D01*
X74866500Y-75501500D01*
X74866500Y-74417265D01*
X74993500Y-74417265D01*
X74993500Y-75501500D01*
X76077595Y-75501500D01*
X76147742Y-75307837D01*
X76252258Y-75307837D01*
X76322405Y-75501500D01*
X77406500Y-75501500D01*
X77406500Y-74417265D01*
X77533500Y-74417265D01*
X77533500Y-75501500D01*
X78617595Y-75501500D01*
X78687742Y-75307837D01*
X78792258Y-75307837D01*
X78862405Y-75501500D01*
X79946500Y-75501500D01*
X79946500Y-74417265D01*
X80073500Y-74417265D01*
X80073500Y-75501500D01*
X81157595Y-75501500D01*
X81227742Y-75307837D01*
X81052921Y-74885765D01*
X80713601Y-74538360D01*
X80267164Y-74347252D01*
X80073500Y-74417265D01*
X79946500Y-74417265D01*
X79752836Y-74347252D01*
X79306399Y-74538360D01*
X78967079Y-74885765D01*
X78792258Y-75307837D01*
X78687742Y-75307837D01*
X78512921Y-74885765D01*
X78173601Y-74538360D01*
X77727164Y-74347252D01*
X77533500Y-74417265D01*
X77406500Y-74417265D01*
X77212836Y-74347252D01*
X76766399Y-74538360D01*
X76427079Y-74885765D01*
X76252258Y-75307837D01*
X76147742Y-75307837D01*
X75972921Y-74885765D01*
X75633601Y-74538360D01*
X75187164Y-74347252D01*
X74993500Y-74417265D01*
X74866500Y-74417265D01*
X74672836Y-74347252D01*
X74226399Y-74538360D01*
X73887079Y-74885765D01*
X73712258Y-75307837D01*
X73607742Y-75307837D01*
X73432921Y-74885765D01*
X73093601Y-74538360D01*
X72647164Y-74347252D01*
X72453500Y-74417265D01*
X72326500Y-74417265D01*
X72132836Y-74347252D01*
X71686399Y-74538360D01*
X71347079Y-74885765D01*
X71172258Y-75307837D01*
X58928000Y-75307837D01*
X58928000Y-74168000D01*
X108712000Y-74168000D01*
X108712000Y-83966022D01*
X108712000Y-83966022D01*
G37*
X108712000Y-83966022D02*
X107388321Y-82797063D01*
X105879886Y-81464942D01*
X105818492Y-81429212D01*
X105759408Y-81389759D01*
X105746187Y-81387133D01*
X105734540Y-81380355D01*
X105664145Y-81370839D01*
X105594461Y-81357000D01*
X105109260Y-81357144D01*
X104624060Y-81357288D01*
X104571756Y-81367708D01*
X104518498Y-81370448D01*
X104490041Y-81383987D01*
X104459133Y-81390145D01*
X104433924Y-81407000D01*
X102519105Y-81407000D01*
X102493375Y-81389808D01*
X102449521Y-81381085D01*
X102408035Y-81364414D01*
X102367853Y-81364840D01*
X102328438Y-81357000D01*
X101358958Y-81357000D01*
X101287394Y-81371235D01*
X101215182Y-81381688D01*
X101205299Y-81387565D01*
X101194021Y-81389808D01*
X101133348Y-81430348D01*
X101070637Y-81467638D01*
X99590429Y-82799802D01*
X98110221Y-84131967D01*
X98103340Y-84141178D01*
X98093779Y-84147566D01*
X98053242Y-84208234D01*
X98009570Y-84266689D01*
X98006737Y-84277833D01*
X98000350Y-84287392D01*
X97986116Y-84358953D01*
X97968138Y-84429673D01*
X97969785Y-84441052D01*
X97967542Y-84452329D01*
X97967542Y-88248397D01*
X97969632Y-88258903D01*
X97968059Y-88269498D01*
X97985966Y-88341023D01*
X98000350Y-88413334D01*
X98006300Y-88422239D01*
X98008902Y-88432631D01*
X98052820Y-88491860D01*
X98093779Y-88553160D01*
X98102685Y-88559111D01*
X98109065Y-88567715D01*
X99589191Y-89909516D01*
X101069318Y-91251319D01*
X101132558Y-91289233D01*
X101193858Y-91330192D01*
X101204364Y-91332282D01*
X101213552Y-91337790D01*
X101286483Y-91348616D01*
X101358795Y-91363000D01*
X105594665Y-91363000D01*
X105665024Y-91349005D01*
X105736089Y-91339137D01*
X105747091Y-91332681D01*
X105759602Y-91330192D01*
X105819253Y-91290334D01*
X105881129Y-91254024D01*
X107389525Y-89912198D01*
X107389526Y-89912197D01*
X108712000Y-88735762D01*
X108712000Y-98552000D01*
X76337593Y-98552000D01*
X76676288Y-98484629D01*
X77080065Y-98214834D01*
X77349860Y-97811057D01*
X77444600Y-97334769D01*
X77444600Y-97218500D01*
X77495400Y-97218500D01*
X77495400Y-97370900D01*
X77614440Y-97842354D01*
X77904836Y-98232366D01*
X78322378Y-98481561D01*
X78482837Y-98525142D01*
X78676500Y-98454995D01*
X78676500Y-97218500D01*
X78803500Y-97218500D01*
X78803500Y-98454995D01*
X78997163Y-98525142D01*
X79157622Y-98481561D01*
X79575164Y-98232366D01*
X79865560Y-97842354D01*
X79984600Y-97370900D01*
X79984600Y-97218500D01*
X78803500Y-97218500D01*
X78676500Y-97218500D01*
X77495400Y-97218500D01*
X77444600Y-97218500D01*
X77444600Y-96975231D01*
X77437414Y-96939100D01*
X77495400Y-96939100D01*
X77495400Y-97091500D01*
X78676500Y-97091500D01*
X78676500Y-95855005D01*
X78803500Y-95855005D01*
X78803500Y-97091500D01*
X79984600Y-97091500D01*
X79984600Y-96939100D01*
X79865560Y-96467646D01*
X79575164Y-96077634D01*
X79157622Y-95828439D01*
X78997163Y-95784858D01*
X78803500Y-95855005D01*
X78676500Y-95855005D01*
X78482837Y-95784858D01*
X78322378Y-95828439D01*
X77904836Y-96077634D01*
X77614440Y-96467646D01*
X77495400Y-96939100D01*
X77437414Y-96939100D01*
X77349922Y-96499256D01*
X78535654Y-95313524D01*
X83324676Y-95313524D01*
X83499639Y-95278722D01*
X83647965Y-95179613D01*
X83793501Y-95034077D01*
X83953301Y-95034217D01*
X84200783Y-94931959D01*
X84390294Y-94742778D01*
X84492983Y-94495475D01*
X84493217Y-94227699D01*
X84474830Y-94183200D01*
X85865325Y-94183200D01*
X85978222Y-94296294D01*
X86225525Y-94398983D01*
X86493301Y-94399217D01*
X86740783Y-94296959D01*
X86930294Y-94107778D01*
X87032983Y-93860475D01*
X87033217Y-93592699D01*
X86962355Y-93421200D01*
X88405325Y-93421200D01*
X88518222Y-93534294D01*
X88765525Y-93636983D01*
X89033301Y-93637217D01*
X89280783Y-93534959D01*
X89470294Y-93345778D01*
X89517040Y-93233199D01*
X97188735Y-93233199D01*
X97421325Y-93796109D01*
X97851626Y-94227162D01*
X98414129Y-94460734D01*
X99023199Y-94461265D01*
X99586109Y-94228675D01*
X100017162Y-93798374D01*
X100250734Y-93235871D01*
X100251265Y-92626801D01*
X100018675Y-92063891D01*
X99588374Y-91632838D01*
X99025871Y-91399266D01*
X98416801Y-91398735D01*
X97853891Y-91631325D01*
X97422838Y-92061626D01*
X97189266Y-92624129D01*
X97188735Y-93233199D01*
X89517040Y-93233199D01*
X89572983Y-93098475D01*
X89573217Y-92830699D01*
X89470959Y-92583217D01*
X89281778Y-92393706D01*
X89034475Y-92291017D01*
X88766699Y-92290783D01*
X88519217Y-92393041D01*
X88405260Y-92506800D01*
X83693000Y-92506800D01*
X83518037Y-92541602D01*
X83369711Y-92640710D01*
X82220920Y-93789502D01*
X81572045Y-93789502D01*
X81572217Y-93592699D01*
X81469959Y-93345217D01*
X81280778Y-93155706D01*
X81033475Y-93053017D01*
X80765699Y-93052783D01*
X80518217Y-93155041D01*
X80455148Y-93218000D01*
X71856600Y-93218000D01*
X71662196Y-93256669D01*
X71497390Y-93366790D01*
X69113644Y-95750536D01*
X67716400Y-95750536D01*
X67575210Y-95777103D01*
X67445535Y-95860546D01*
X67358541Y-95987866D01*
X67327936Y-96139000D01*
X67327936Y-96456500D01*
X64269464Y-96456500D01*
X64269464Y-96139000D01*
X64242897Y-95997810D01*
X64159454Y-95868135D01*
X64032134Y-95781141D01*
X63881000Y-95750536D01*
X61849000Y-95750536D01*
X61707810Y-95777103D01*
X61578135Y-95860546D01*
X61491141Y-95987866D01*
X61460536Y-96139000D01*
X61460536Y-96347272D01*
X61340197Y-96167172D01*
X60886978Y-95864340D01*
X60352369Y-95758000D01*
X60297631Y-95758000D01*
X59763022Y-95864340D01*
X59309803Y-96167172D01*
X59006971Y-96620391D01*
X58928000Y-97017406D01*
X58928000Y-91489182D01*
X59142520Y-91632520D01*
X59537067Y-91711000D01*
X60902933Y-91711000D01*
X61297480Y-91632520D01*
X61631960Y-91409027D01*
X61855453Y-91074547D01*
X61933933Y-90680000D01*
X61892005Y-90469210D01*
X62939000Y-90469210D01*
X62939000Y-90750790D01*
X62990838Y-91011397D01*
X63138460Y-91232330D01*
X63359393Y-91379952D01*
X63620000Y-91431790D01*
X63880607Y-91379952D01*
X64101540Y-91232330D01*
X64103675Y-91229134D01*
X64200252Y-91373672D01*
X64518512Y-91586326D01*
X64893924Y-91661000D01*
X65646076Y-91661000D01*
X66021488Y-91586326D01*
X66240480Y-91440000D01*
X76390500Y-91440000D01*
X76415788Y-91567133D01*
X76415783Y-91573301D01*
X76418159Y-91579051D01*
X76443670Y-91707304D01*
X76515686Y-91815084D01*
X76518041Y-91820783D01*
X76522436Y-91825186D01*
X76595086Y-91933914D01*
X76702866Y-92005930D01*
X76707222Y-92010294D01*
X76712967Y-92012679D01*
X76821696Y-92085330D01*
X76948831Y-92110619D01*
X76954525Y-92112983D01*
X76960745Y-92112988D01*
X77089000Y-92138500D01*
X81915000Y-92138500D01*
X82042133Y-92113212D01*
X82048301Y-92113217D01*
X82054051Y-92110841D01*
X82182304Y-92085330D01*
X82290084Y-92013314D01*
X82295783Y-92010959D01*
X82300186Y-92006564D01*
X82408914Y-91933914D01*
X82480930Y-91826134D01*
X82485294Y-91821778D01*
X82487679Y-91816033D01*
X82560330Y-91707304D01*
X82585619Y-91580169D01*
X82587983Y-91574475D01*
X82587988Y-91568255D01*
X82613500Y-91440000D01*
X82588212Y-91312867D01*
X82588217Y-91306699D01*
X82585841Y-91300949D01*
X82560330Y-91172696D01*
X82488314Y-91064916D01*
X82485959Y-91059217D01*
X82481564Y-91054814D01*
X82408914Y-90946086D01*
X82301134Y-90874070D01*
X82296778Y-90869706D01*
X82291033Y-90867321D01*
X82182304Y-90794670D01*
X82055169Y-90769381D01*
X82049475Y-90767017D01*
X82043255Y-90767012D01*
X81915000Y-90741500D01*
X77089000Y-90741500D01*
X76961867Y-90766788D01*
X76955699Y-90766783D01*
X76949949Y-90769159D01*
X76821696Y-90794670D01*
X76713916Y-90866686D01*
X76708217Y-90869041D01*
X76703814Y-90873436D01*
X76595086Y-90946086D01*
X76523070Y-91053866D01*
X76518706Y-91058222D01*
X76516321Y-91063967D01*
X76443670Y-91172696D01*
X76418381Y-91299831D01*
X76416017Y-91305525D01*
X76416012Y-91311745D01*
X76390500Y-91440000D01*
X66240480Y-91440000D01*
X66339748Y-91373672D01*
X66552402Y-91055412D01*
X66627076Y-90680000D01*
X66552402Y-90304588D01*
X66339748Y-89986328D01*
X66021488Y-89773674D01*
X65646076Y-89699000D01*
X65628518Y-89699000D01*
X65528316Y-89549037D01*
X65226278Y-89347221D01*
X64870000Y-89276353D01*
X64513722Y-89347221D01*
X64211684Y-89549037D01*
X64009868Y-89851075D01*
X63996640Y-89917578D01*
X63880607Y-89840048D01*
X63620000Y-89788210D01*
X63359393Y-89840048D01*
X63138460Y-89987670D01*
X62990838Y-90208603D01*
X62939000Y-90469210D01*
X61892005Y-90469210D01*
X61855453Y-90285453D01*
X61631960Y-89950973D01*
X61297480Y-89727480D01*
X60902933Y-89649000D01*
X59537067Y-89649000D01*
X59142520Y-89727480D01*
X58928000Y-89870818D01*
X58928000Y-86618301D01*
X62062783Y-86618301D01*
X62165041Y-86865783D01*
X62354222Y-87055294D01*
X62498231Y-87115092D01*
X62498146Y-87212486D01*
X62600404Y-87459968D01*
X62665607Y-87525285D01*
X62599070Y-87624866D01*
X62594706Y-87629222D01*
X62592321Y-87634967D01*
X62519670Y-87743696D01*
X62494381Y-87870831D01*
X62492017Y-87876525D01*
X62492012Y-87882745D01*
X62466500Y-88011000D01*
X62491788Y-88138133D01*
X62491783Y-88144301D01*
X62494159Y-88150051D01*
X62519670Y-88278304D01*
X62591686Y-88386084D01*
X62594041Y-88391783D01*
X62598436Y-88396186D01*
X62671086Y-88504914D01*
X62778866Y-88576930D01*
X62783222Y-88581294D01*
X62788967Y-88583679D01*
X62897696Y-88656330D01*
X63024831Y-88681619D01*
X63030525Y-88683983D01*
X63036745Y-88683988D01*
X63165000Y-88709500D01*
X66366909Y-88709500D01*
X66634214Y-88656330D01*
X66860823Y-88504914D01*
X66932237Y-88433500D01*
X67056000Y-88433500D01*
X67183133Y-88408212D01*
X67189301Y-88408217D01*
X67195051Y-88405841D01*
X67323304Y-88380330D01*
X67431084Y-88308314D01*
X67436783Y-88305959D01*
X67441186Y-88301564D01*
X67549914Y-88228914D01*
X67621930Y-88121134D01*
X67626294Y-88116778D01*
X67628679Y-88111033D01*
X67701330Y-88002304D01*
X67726619Y-87875169D01*
X67728983Y-87869475D01*
X67728988Y-87863255D01*
X67754500Y-87735000D01*
X67729212Y-87607867D01*
X67729217Y-87601699D01*
X67726841Y-87595949D01*
X67714993Y-87536385D01*
X68876815Y-87536385D01*
X69051778Y-87501583D01*
X69200104Y-87402474D01*
X69950501Y-86652077D01*
X70110301Y-86652217D01*
X70357783Y-86549959D01*
X70547294Y-86360778D01*
X70649983Y-86113475D01*
X70650211Y-85852011D01*
X74306643Y-85852011D01*
X74257017Y-85971525D01*
X74256783Y-86239301D01*
X74359041Y-86486783D01*
X74548222Y-86676294D01*
X74795525Y-86778983D01*
X74956546Y-86779124D01*
X75622711Y-87445289D01*
X75771037Y-87544398D01*
X75946000Y-87579200D01*
X80785325Y-87579200D01*
X80898222Y-87692294D01*
X81145525Y-87794983D01*
X81413301Y-87795217D01*
X81660783Y-87692959D01*
X81850294Y-87503778D01*
X81952983Y-87256475D01*
X81953217Y-86988699D01*
X81903349Y-86868011D01*
X90412433Y-86868011D01*
X90893923Y-87349501D01*
X90893783Y-87509301D01*
X90996041Y-87756783D01*
X91185222Y-87946294D01*
X91432525Y-88048983D01*
X91700301Y-88049217D01*
X91947783Y-87946959D01*
X92137294Y-87757778D01*
X92239983Y-87510475D01*
X92240217Y-87242699D01*
X92137959Y-86995217D01*
X91948778Y-86805706D01*
X91701475Y-86703017D01*
X91540454Y-86702876D01*
X91197578Y-86360000D01*
X91540501Y-86017077D01*
X91700301Y-86017217D01*
X91947783Y-85914959D01*
X92137294Y-85725778D01*
X92239983Y-85478475D01*
X92240217Y-85210699D01*
X92137959Y-84963217D01*
X91948778Y-84773706D01*
X91701475Y-84671017D01*
X91433699Y-84670783D01*
X91186217Y-84773041D01*
X90996706Y-84962222D01*
X90894017Y-85209525D01*
X90893876Y-85370546D01*
X90615622Y-85648800D01*
X78040378Y-85648800D01*
X77158289Y-84766711D01*
X77009963Y-84667602D01*
X76835000Y-84632800D01*
X69342000Y-84632800D01*
X69167037Y-84667602D01*
X69018711Y-84766711D01*
X68278342Y-85507080D01*
X68216517Y-85507080D01*
X68103620Y-85393986D01*
X67856317Y-85291297D01*
X67714483Y-85291173D01*
X67726618Y-85230171D01*
X67728983Y-85224475D01*
X67728988Y-85218253D01*
X67754500Y-85090000D01*
X67729212Y-84962868D01*
X67729217Y-84956699D01*
X67726840Y-84950947D01*
X67701329Y-84822695D01*
X67629314Y-84714917D01*
X67626959Y-84709217D01*
X67622563Y-84704814D01*
X67549914Y-84596086D01*
X67168914Y-84215086D01*
X66942305Y-84063670D01*
X66675000Y-84010500D01*
X62992000Y-84010500D01*
X62864867Y-84035788D01*
X62858699Y-84035783D01*
X62852949Y-84038159D01*
X62724696Y-84063670D01*
X62616916Y-84135686D01*
X62611217Y-84138041D01*
X62606814Y-84142436D01*
X62498086Y-84215086D01*
X62426070Y-84322866D01*
X62421706Y-84327222D01*
X62419321Y-84332967D01*
X62346670Y-84441696D01*
X62321381Y-84568831D01*
X62319017Y-84574525D01*
X62319012Y-84580745D01*
X62293500Y-84709000D01*
X62318788Y-84836133D01*
X62318783Y-84842301D01*
X62321159Y-84848051D01*
X62346670Y-84976304D01*
X62418686Y-85084084D01*
X62421041Y-85089783D01*
X62425436Y-85094186D01*
X62498086Y-85202914D01*
X62605866Y-85274930D01*
X62610222Y-85279294D01*
X62615967Y-85281679D01*
X62724696Y-85354330D01*
X62752408Y-85359842D01*
X62602155Y-85509834D01*
X62499466Y-85757137D01*
X62499381Y-85854473D01*
X62355217Y-85914041D01*
X62165706Y-86103222D01*
X62063017Y-86350525D01*
X62062783Y-86618301D01*
X58928000Y-86618301D01*
X58928000Y-82849182D01*
X59142520Y-82992520D01*
X59537067Y-83071000D01*
X60902933Y-83071000D01*
X61297480Y-82992520D01*
X61443630Y-82894865D01*
X62588882Y-82894865D01*
X62692339Y-83145252D01*
X62883741Y-83336987D01*
X63133946Y-83440882D01*
X63404865Y-83441118D01*
X63655252Y-83337661D01*
X63846987Y-83146259D01*
X63950882Y-82896054D01*
X63951118Y-82625135D01*
X63847661Y-82374748D01*
X63656259Y-82183013D01*
X63406054Y-82079118D01*
X63135135Y-82078882D01*
X62884748Y-82182339D01*
X62693013Y-82373741D01*
X62589118Y-82623946D01*
X62588882Y-82894865D01*
X61443630Y-82894865D01*
X61631960Y-82769027D01*
X61855453Y-82434547D01*
X61933933Y-82040000D01*
X63912924Y-82040000D01*
X63939000Y-82171093D01*
X63939000Y-82512647D01*
X64009868Y-82868925D01*
X64211684Y-83170963D01*
X64513722Y-83372779D01*
X64870000Y-83443647D01*
X65226278Y-83372779D01*
X65528316Y-83170963D01*
X65628518Y-83021000D01*
X65646076Y-83021000D01*
X66021488Y-82946326D01*
X66339748Y-82733672D01*
X66552402Y-82415412D01*
X66627076Y-82040000D01*
X66552402Y-81664588D01*
X66339748Y-81346328D01*
X66021488Y-81133674D01*
X65646076Y-81059000D01*
X64893924Y-81059000D01*
X64518512Y-81133674D01*
X64200252Y-81346328D01*
X63987598Y-81664588D01*
X63912924Y-82040000D01*
X61933933Y-82040000D01*
X61855453Y-81645453D01*
X61631960Y-81310973D01*
X61297480Y-81087480D01*
X60902933Y-81009000D01*
X59537067Y-81009000D01*
X59142520Y-81087480D01*
X58928000Y-81230818D01*
X58928000Y-80093199D01*
X97188735Y-80093199D01*
X97421325Y-80656109D01*
X97851626Y-81087162D01*
X98414129Y-81320734D01*
X99023199Y-81321265D01*
X99586109Y-81088675D01*
X100017162Y-80658374D01*
X100250734Y-80095871D01*
X100251265Y-79486801D01*
X100018675Y-78923891D01*
X99588374Y-78492838D01*
X99025871Y-78259266D01*
X98416801Y-78258735D01*
X97853891Y-78491325D01*
X97422838Y-78921626D01*
X97189266Y-79484129D01*
X97188735Y-80093199D01*
X58928000Y-80093199D01*
X58928000Y-78105000D01*
X71121017Y-78105000D01*
X71215757Y-78581288D01*
X71485552Y-78985065D01*
X71889329Y-79254860D01*
X72365617Y-79349600D01*
X72414383Y-79349600D01*
X72890671Y-79254860D01*
X73294448Y-78985065D01*
X73564243Y-78581288D01*
X73658983Y-78105000D01*
X73661017Y-78105000D01*
X73755757Y-78581288D01*
X74025552Y-78985065D01*
X74429329Y-79254860D01*
X74905617Y-79349600D01*
X74954383Y-79349600D01*
X75430671Y-79254860D01*
X75834448Y-78985065D01*
X76104243Y-78581288D01*
X76198983Y-78105000D01*
X76201017Y-78105000D01*
X76295757Y-78581288D01*
X76565552Y-78985065D01*
X76969329Y-79254860D01*
X77445617Y-79349600D01*
X77494383Y-79349600D01*
X77970671Y-79254860D01*
X78374448Y-78985065D01*
X78644243Y-78581288D01*
X78738983Y-78105000D01*
X78644243Y-77628712D01*
X78385450Y-77241400D01*
X78757936Y-77241400D01*
X78757936Y-78968600D01*
X78784503Y-79109790D01*
X78867946Y-79239465D01*
X78995266Y-79326459D01*
X79146400Y-79357064D01*
X80873600Y-79357064D01*
X81014790Y-79330497D01*
X81144465Y-79247054D01*
X81231459Y-79119734D01*
X81262064Y-78968600D01*
X81262064Y-77241400D01*
X81235497Y-77100210D01*
X81152054Y-76970535D01*
X81024734Y-76883541D01*
X80873600Y-76852936D01*
X79146400Y-76852936D01*
X79005210Y-76879503D01*
X78875535Y-76962946D01*
X78788541Y-77090266D01*
X78757936Y-77241400D01*
X78385450Y-77241400D01*
X78374448Y-77224935D01*
X77970671Y-76955140D01*
X77494383Y-76860400D01*
X77445617Y-76860400D01*
X76969329Y-76955140D01*
X76565552Y-77224935D01*
X76295757Y-77628712D01*
X76201017Y-78105000D01*
X76198983Y-78105000D01*
X76104243Y-77628712D01*
X75834448Y-77224935D01*
X75430671Y-76955140D01*
X74954383Y-76860400D01*
X74905617Y-76860400D01*
X74429329Y-76955140D01*
X74025552Y-77224935D01*
X73755757Y-77628712D01*
X73661017Y-78105000D01*
X73658983Y-78105000D01*
X73564243Y-77628712D01*
X73294448Y-77224935D01*
X72890671Y-76955140D01*
X72414383Y-76860400D01*
X72365617Y-76860400D01*
X71889329Y-76955140D01*
X71485552Y-77224935D01*
X71215757Y-77628712D01*
X71121017Y-78105000D01*
X58928000Y-78105000D01*
X58928000Y-75822163D01*
X71172258Y-75822163D01*
X71347079Y-76244235D01*
X71686399Y-76591640D01*
X72132836Y-76782748D01*
X72326500Y-76712735D01*
X72326500Y-75628500D01*
X72453500Y-75628500D01*
X72453500Y-76712735D01*
X72647164Y-76782748D01*
X73093601Y-76591640D01*
X73432921Y-76244235D01*
X73607742Y-75822163D01*
X73712258Y-75822163D01*
X73887079Y-76244235D01*
X74226399Y-76591640D01*
X74672836Y-76782748D01*
X74866500Y-76712735D01*
X74866500Y-75628500D01*
X74993500Y-75628500D01*
X74993500Y-76712735D01*
X75187164Y-76782748D01*
X75633601Y-76591640D01*
X75972921Y-76244235D01*
X76147742Y-75822163D01*
X76252258Y-75822163D01*
X76427079Y-76244235D01*
X76766399Y-76591640D01*
X77212836Y-76782748D01*
X77406500Y-76712735D01*
X77406500Y-75628500D01*
X77533500Y-75628500D01*
X77533500Y-76712735D01*
X77727164Y-76782748D01*
X78173601Y-76591640D01*
X78512921Y-76244235D01*
X78687742Y-75822163D01*
X78792258Y-75822163D01*
X78967079Y-76244235D01*
X79306399Y-76591640D01*
X79752836Y-76782748D01*
X79946500Y-76712735D01*
X79946500Y-75628500D01*
X80073500Y-75628500D01*
X80073500Y-76712735D01*
X80267164Y-76782748D01*
X80713601Y-76591640D01*
X81052921Y-76244235D01*
X81227742Y-75822163D01*
X81157595Y-75628500D01*
X80073500Y-75628500D01*
X79946500Y-75628500D01*
X78862405Y-75628500D01*
X78792258Y-75822163D01*
X78687742Y-75822163D01*
X78617595Y-75628500D01*
X77533500Y-75628500D01*
X77406500Y-75628500D01*
X76322405Y-75628500D01*
X76252258Y-75822163D01*
X76147742Y-75822163D01*
X76077595Y-75628500D01*
X74993500Y-75628500D01*
X74866500Y-75628500D01*
X73782405Y-75628500D01*
X73712258Y-75822163D01*
X73607742Y-75822163D01*
X73537595Y-75628500D01*
X72453500Y-75628500D01*
X72326500Y-75628500D01*
X71242405Y-75628500D01*
X71172258Y-75822163D01*
X58928000Y-75822163D01*
X58928000Y-75307837D01*
X71172258Y-75307837D01*
X71242405Y-75501500D01*
X72326500Y-75501500D01*
X72326500Y-74417265D01*
X72453500Y-74417265D01*
X72453500Y-75501500D01*
X73537595Y-75501500D01*
X73607742Y-75307837D01*
X73712258Y-75307837D01*
X73782405Y-75501500D01*
X74866500Y-75501500D01*
X74866500Y-74417265D01*
X74993500Y-74417265D01*
X74993500Y-75501500D01*
X76077595Y-75501500D01*
X76147742Y-75307837D01*
X76252258Y-75307837D01*
X76322405Y-75501500D01*
X77406500Y-75501500D01*
X77406500Y-74417265D01*
X77533500Y-74417265D01*
X77533500Y-75501500D01*
X78617595Y-75501500D01*
X78687742Y-75307837D01*
X78792258Y-75307837D01*
X78862405Y-75501500D01*
X79946500Y-75501500D01*
X79946500Y-74417265D01*
X80073500Y-74417265D01*
X80073500Y-75501500D01*
X81157595Y-75501500D01*
X81227742Y-75307837D01*
X81052921Y-74885765D01*
X80713601Y-74538360D01*
X80267164Y-74347252D01*
X80073500Y-74417265D01*
X79946500Y-74417265D01*
X79752836Y-74347252D01*
X79306399Y-74538360D01*
X78967079Y-74885765D01*
X78792258Y-75307837D01*
X78687742Y-75307837D01*
X78512921Y-74885765D01*
X78173601Y-74538360D01*
X77727164Y-74347252D01*
X77533500Y-74417265D01*
X77406500Y-74417265D01*
X77212836Y-74347252D01*
X76766399Y-74538360D01*
X76427079Y-74885765D01*
X76252258Y-75307837D01*
X76147742Y-75307837D01*
X75972921Y-74885765D01*
X75633601Y-74538360D01*
X75187164Y-74347252D01*
X74993500Y-74417265D01*
X74866500Y-74417265D01*
X74672836Y-74347252D01*
X74226399Y-74538360D01*
X73887079Y-74885765D01*
X73712258Y-75307837D01*
X73607742Y-75307837D01*
X73432921Y-74885765D01*
X73093601Y-74538360D01*
X72647164Y-74347252D01*
X72453500Y-74417265D01*
X72326500Y-74417265D01*
X72132836Y-74347252D01*
X71686399Y-74538360D01*
X71347079Y-74885765D01*
X71172258Y-75307837D01*
X58928000Y-75307837D01*
X58928000Y-74168000D01*
X108712000Y-74168000D01*
X108712000Y-83966022D01*
G36*
X77332154Y-86664800D02*
X76135378Y-86664800D01*
X75603077Y-86132499D01*
X75603217Y-85972699D01*
X75553349Y-85852011D01*
X76519367Y-85852011D01*
X77332154Y-86664800D01*
X77332154Y-86664800D01*
G37*
X77332154Y-86664800D02*
X76135378Y-86664800D01*
X75603077Y-86132499D01*
X75603217Y-85972699D01*
X75553349Y-85852011D01*
X76519367Y-85852011D01*
X77332154Y-86664800D01*
M02*
