G04 start of page 4 for group 2 idx 2 *
G04 Title: (unknown), outline *
G04 Creator: pcb 20110918 *
G04 CreationDate: Mon Jul 30 19:20:07 2012 UTC *
G04 For: frankenteddy *
G04 Format: Gerber/RS-274X *
G04 PCB-Dimensions: 259500 348500 *
G04 PCB-Coordinate-Origin: lower left *
%MOIN*%
%FSLAX25Y25*%
%LNOUTLINE*%
%ADD45C,0.0150*%
G54D45*X244500Y1000D02*X14000D01*
X258500Y334000D02*Y15000D01*
X13500Y347500D02*X245500D01*
X1500Y14500D02*Y334500D01*
X1000Y334000D02*G75*G02X14500Y347500I13500J0D01*G01*
X244500D02*G75*G02X258500Y333500I0J-14000D01*G01*
X244500Y1000D02*G75*G03X258500Y15000I0J14000D01*G01*
X14500Y1000D02*G75*G02X1000Y14500I0J13500D01*G01*
M02*
