G04 (created by PCBNEW (2013-07-07 BZR 4022)-stable) date 3/8/2015 7:19:45 AM*
%MOIN*%
G04 Gerber Fmt 3.4, Leading zero omitted, Abs format*
%FSLAX34Y34*%
G01*
G70*
G90*
G04 APERTURE LIST*
%ADD10C,0.00590551*%
%ADD11C,0.0787402*%
G04 APERTURE END LIST*
G54D10*
G54D11*
X7876Y-8298D03*
X7876Y-10298D03*
X7876Y-12298D03*
X7876Y-14298D03*
M02*
