G04 (created by PCBNEW-RS274X (2011-11-27 BZR 3249)-stable) date 17/09/2012 7:08:21 p.m.*
G01*
G70*
G90*
%MOIN*%
G04 Gerber Fmt 3.4, Leading zero omitted, Abs format*
%FSLAX34Y34*%
G04 APERTURE LIST*
%ADD10C,0.006000*%
%ADD11C,0.035400*%
%ADD12C,0.088600*%
%ADD13C,0.157500*%
%ADD14C,0.133900*%
%ADD15C,0.056000*%
%ADD16C,0.060000*%
%ADD17R,0.060000X0.060000*%
%ADD18C,0.035000*%
%ADD19C,0.031500*%
%ADD20C,0.030000*%
%ADD21C,0.015700*%
%ADD22C,0.030000*%
%ADD23C,0.008000*%
%ADD24C,0.010000*%
G04 APERTURE END LIST*
G54D10*
G54D11*
X03740Y-08760D03*
X02008Y-08760D03*
G54D12*
X02283Y-03644D03*
G54D13*
X24462Y-09573D03*
G54D14*
X11812Y-09823D03*
G54D15*
X11382Y-04523D03*
X11382Y-02523D03*
G54D16*
X12962Y-05683D03*
X13962Y-05683D03*
X14962Y-06683D03*
X14962Y-05683D03*
G54D17*
X06522Y-02943D03*
G54D16*
X06522Y-03943D03*
X06522Y-04943D03*
X06522Y-05943D03*
G54D12*
X02381Y-05317D03*
X03562Y-04333D03*
X03464Y-02758D03*
G54D17*
X25697Y-05575D03*
G54D16*
X24697Y-05575D03*
X25697Y-06575D03*
X24697Y-06575D03*
X25697Y-07575D03*
X24697Y-07575D03*
G54D18*
X19862Y-01873D03*
G54D19*
X17292Y-03563D03*
G54D18*
X12962Y-01893D03*
X20960Y-03489D03*
X17292Y-04493D03*
G54D19*
X20962Y-04553D03*
X18942Y-02673D03*
X18302Y-03183D03*
X18312Y-04823D03*
X22638Y-05748D03*
X19921Y-06575D03*
X18772Y-06363D03*
X22652Y-06433D03*
X14572Y-02763D03*
X18002Y-02673D03*
X15252Y-02203D03*
G54D20*
X21742Y-06933D03*
G54D19*
X22162Y-05323D03*
X20962Y-04043D03*
X19242Y-06883D03*
X15642Y-01953D03*
X15232Y-02723D03*
X11921Y-07855D03*
X09072Y-04303D03*
X20472Y-06593D03*
X18472Y-02653D03*
X17912Y-03543D03*
X16582Y-01953D03*
X09072Y-10143D03*
X07162Y-10133D03*
G54D18*
X14512Y-03853D03*
G54D19*
X07542Y-01383D03*
X06512Y-09453D03*
X18742Y-04133D03*
X06392Y-02173D03*
X11220Y-05623D03*
X06502Y-08063D03*
X16062Y-06873D03*
X09072Y-09053D03*
X10772Y-10123D03*
X06642Y-01403D03*
X09409Y-05812D03*
X08512Y-05803D03*
X08152Y-06793D03*
X21912Y-05683D03*
X22172Y-06453D03*
X13622Y-02914D03*
X13622Y-04134D03*
G54D21*
X17292Y-03563D02*
X17292Y-04493D01*
G54D22*
X19862Y-02727D02*
X20624Y-03489D01*
X12962Y-01893D02*
X12962Y-05683D01*
X20624Y-03489D02*
X20960Y-03489D01*
X19862Y-01873D02*
X19862Y-02727D01*
G54D23*
X19722Y-04553D02*
X18942Y-03773D01*
X18942Y-02673D02*
X18942Y-03773D01*
X20962Y-04553D02*
X19722Y-04553D01*
X18312Y-03193D02*
X18312Y-04823D01*
X18302Y-03183D02*
X18312Y-03193D01*
X21042Y-05503D02*
X21619Y-04926D01*
X21619Y-04926D02*
X22445Y-04926D01*
X20023Y-06953D02*
X19921Y-06851D01*
X19921Y-06851D02*
X19921Y-06575D01*
X22638Y-05119D02*
X22638Y-05748D01*
X21619Y-04926D02*
X21622Y-04923D01*
X20282Y-06953D02*
X20872Y-06953D01*
X21042Y-06783D02*
X21042Y-05503D01*
X20872Y-06953D02*
X21042Y-06783D01*
X20282Y-06953D02*
X20023Y-06953D01*
X22445Y-04926D02*
X22638Y-05119D01*
X22652Y-06433D02*
X22672Y-06453D01*
X17952Y-07183D02*
X18772Y-06363D01*
X18941Y-07232D02*
X18772Y-07063D01*
X13462Y-07003D02*
X13642Y-07183D01*
X13642Y-07183D02*
X17792Y-07183D01*
X22493Y-07232D02*
X18941Y-07232D01*
X13962Y-05683D02*
X13462Y-06183D01*
X17792Y-07183D02*
X17952Y-07183D01*
X13462Y-06183D02*
X13462Y-07003D01*
X18772Y-07063D02*
X18772Y-06363D01*
X22672Y-07053D02*
X22493Y-07232D01*
X22672Y-06453D02*
X22672Y-07053D01*
X14862Y-06683D02*
X14462Y-06283D01*
X14962Y-06683D02*
X14862Y-06683D01*
X15252Y-02203D02*
X15252Y-02223D01*
X14102Y-04823D02*
X14102Y-03233D01*
X14462Y-05183D02*
X14102Y-04823D01*
X14102Y-03233D02*
X14572Y-02763D01*
X15702Y-02673D02*
X18002Y-02673D01*
X14462Y-06283D02*
X14462Y-05183D01*
X15252Y-02223D02*
X15702Y-02673D01*
X21572Y-05453D02*
X21702Y-05323D01*
X21572Y-06763D02*
X21742Y-06933D01*
X21572Y-06763D02*
X21572Y-06733D01*
X21572Y-06743D02*
X21572Y-06733D01*
X21702Y-05323D02*
X22162Y-05323D01*
X21572Y-05533D02*
X21572Y-05453D01*
X21572Y-06733D02*
X21572Y-05533D01*
X25712Y-08123D02*
X25712Y-07590D01*
X07172Y-10143D02*
X07162Y-10133D01*
X14962Y-05683D02*
X14962Y-05023D01*
X23562Y-06353D02*
X23562Y-06303D01*
X06592Y-05943D02*
X07232Y-05303D01*
X16582Y-01953D02*
X15642Y-01953D01*
X06852Y-02173D02*
X06392Y-02173D01*
X16582Y-01953D02*
X17772Y-01953D01*
X07232Y-03543D02*
X07232Y-02553D01*
X21432Y-04683D02*
X21432Y-04513D01*
X15642Y-01953D02*
X15662Y-01933D01*
X18622Y-03913D02*
X18622Y-02953D01*
X25697Y-08138D02*
X25452Y-08383D01*
X20472Y-06433D02*
X20472Y-06593D01*
X06642Y-01403D02*
X06662Y-01383D01*
X20472Y-06433D02*
X20662Y-06243D01*
X14512Y-03853D02*
X14512Y-03443D01*
X14512Y-04573D02*
X14512Y-03853D01*
X15172Y-05843D02*
X17092Y-05843D01*
X25712Y-07590D02*
X25697Y-07575D01*
X09072Y-09053D02*
X09072Y-04303D01*
X11921Y-07855D02*
X11220Y-07154D01*
X21432Y-04513D02*
X20962Y-04043D01*
X09072Y-10143D02*
X07172Y-10143D01*
X18622Y-02953D02*
X18472Y-02803D01*
X07232Y-03543D02*
X07232Y-04543D01*
X06512Y-09453D02*
X06502Y-09443D01*
X06662Y-01383D02*
X07542Y-01383D01*
X18742Y-04133D02*
X18742Y-04033D01*
X17092Y-05843D02*
X17912Y-05023D01*
X23667Y-07888D02*
X23667Y-06458D01*
X23667Y-07888D02*
X24162Y-08383D01*
X23667Y-06458D02*
X23562Y-06353D01*
X14962Y-05023D02*
X14512Y-04573D01*
X07232Y-02553D02*
X06852Y-02173D01*
X18742Y-04033D02*
X18622Y-03913D01*
X06522Y-05943D02*
X06592Y-05943D01*
X17772Y-01953D02*
X18472Y-02653D01*
X09072Y-09053D02*
X09072Y-10143D01*
X25452Y-08383D02*
X24162Y-08383D01*
X21432Y-04683D02*
X22642Y-04683D01*
X18472Y-02803D02*
X18472Y-02653D01*
X14512Y-03443D02*
X15232Y-02723D01*
X23002Y-05793D02*
X23002Y-05043D01*
X23667Y-07888D02*
X23632Y-07853D01*
X07232Y-05303D02*
X07232Y-04543D01*
X06502Y-09443D02*
X06502Y-08063D01*
X17912Y-05023D02*
X17912Y-03543D01*
X23002Y-05043D02*
X22642Y-04683D01*
X20662Y-06243D02*
X20662Y-05453D01*
X25712Y-08123D02*
X25697Y-08138D01*
X11220Y-07154D02*
X11220Y-05623D01*
X23562Y-06353D02*
X23002Y-05793D01*
X08512Y-05803D02*
X08152Y-06163D01*
X08152Y-06163D02*
X08152Y-06793D01*
X21912Y-06193D02*
X21912Y-05683D01*
X22172Y-06453D02*
X21912Y-06193D01*
X13622Y-02914D02*
X13622Y-04134D01*
G54D10*
G36*
X25887Y-09188D02*
X25478Y-09597D01*
X25476Y-09362D01*
X25328Y-09005D01*
X25185Y-08920D01*
X25115Y-08990D01*
X24533Y-09573D01*
X24462Y-09644D01*
X24391Y-09573D01*
X24462Y-09502D01*
X24497Y-09467D01*
X25115Y-08850D01*
X25030Y-08707D01*
X24655Y-08555D01*
X24251Y-08559D01*
X23894Y-08707D01*
X23835Y-08805D01*
X23793Y-08763D01*
X23793Y-07339D01*
X23768Y-07215D01*
X23698Y-07109D01*
X23592Y-07039D01*
X23468Y-07014D01*
X22962Y-07014D01*
X22962Y-06697D01*
X22996Y-06664D01*
X23058Y-06514D01*
X23058Y-06353D01*
X22996Y-06204D01*
X22883Y-06089D01*
X22873Y-06085D01*
X22982Y-05979D01*
X23044Y-05829D01*
X23044Y-05668D01*
X22982Y-05519D01*
X22928Y-05464D01*
X22928Y-05119D01*
X22927Y-05118D01*
X22906Y-05008D01*
X22905Y-05007D01*
X22843Y-04914D01*
X22842Y-04913D01*
X22650Y-04721D01*
X22556Y-04658D01*
X22445Y-04636D01*
X21637Y-04636D01*
X21622Y-04633D01*
X21511Y-04655D01*
X21417Y-04718D01*
X21414Y-04721D01*
X21385Y-04750D01*
X21385Y-03574D01*
X21385Y-03405D01*
X21321Y-03249D01*
X21201Y-03129D01*
X21045Y-03064D01*
X20876Y-03064D01*
X20815Y-03089D01*
X20789Y-03089D01*
X20262Y-02561D01*
X20262Y-02018D01*
X20287Y-01958D01*
X20287Y-01789D01*
X20223Y-01633D01*
X20103Y-01513D01*
X19947Y-01448D01*
X19778Y-01448D01*
X19622Y-01512D01*
X19502Y-01632D01*
X19437Y-01788D01*
X19437Y-01957D01*
X19462Y-02017D01*
X19462Y-02727D01*
X19492Y-02880D01*
X19579Y-03010D01*
X20338Y-03768D01*
X20341Y-03772D01*
X20470Y-03858D01*
X20471Y-03859D01*
X20624Y-03889D01*
X20815Y-03889D01*
X20875Y-03914D01*
X21044Y-03914D01*
X21200Y-03850D01*
X21320Y-03730D01*
X21385Y-03574D01*
X21385Y-04750D01*
X21368Y-04767D01*
X21368Y-04634D01*
X21368Y-04473D01*
X21306Y-04324D01*
X21193Y-04209D01*
X21043Y-04147D01*
X20882Y-04147D01*
X20733Y-04209D01*
X20678Y-04263D01*
X19842Y-04263D01*
X19232Y-03653D01*
X19232Y-02957D01*
X19286Y-02904D01*
X19348Y-02754D01*
X19348Y-02593D01*
X19286Y-02444D01*
X19173Y-02329D01*
X19023Y-02267D01*
X18862Y-02267D01*
X18713Y-02329D01*
X18598Y-02442D01*
X18536Y-02592D01*
X18536Y-02753D01*
X18598Y-02902D01*
X18652Y-02956D01*
X18652Y-02968D01*
X18646Y-02954D01*
X18533Y-02839D01*
X18396Y-02782D01*
X18408Y-02754D01*
X18408Y-02593D01*
X18346Y-02444D01*
X18233Y-02329D01*
X18083Y-02267D01*
X17922Y-02267D01*
X17773Y-02329D01*
X17718Y-02383D01*
X15822Y-02383D01*
X15658Y-02219D01*
X15658Y-02123D01*
X15596Y-01974D01*
X15483Y-01859D01*
X15333Y-01797D01*
X15172Y-01797D01*
X15023Y-01859D01*
X14908Y-01972D01*
X14846Y-02122D01*
X14846Y-02283D01*
X14908Y-02432D01*
X15021Y-02547D01*
X15171Y-02609D01*
X15228Y-02609D01*
X15497Y-02878D01*
X15591Y-02941D01*
X15702Y-02963D01*
X17717Y-02963D01*
X17771Y-03017D01*
X17907Y-03073D01*
X17896Y-03102D01*
X17896Y-03263D01*
X17958Y-03412D01*
X18022Y-03477D01*
X18022Y-04538D01*
X17968Y-04592D01*
X17906Y-04742D01*
X17906Y-04903D01*
X17968Y-05052D01*
X18081Y-05167D01*
X18231Y-05229D01*
X18392Y-05229D01*
X18541Y-05167D01*
X18656Y-05054D01*
X18718Y-04904D01*
X18718Y-04743D01*
X18656Y-04594D01*
X18602Y-04539D01*
X18602Y-03457D01*
X18646Y-03414D01*
X18652Y-03399D01*
X18652Y-03773D01*
X18674Y-03884D01*
X18737Y-03978D01*
X19517Y-04758D01*
X19611Y-04821D01*
X19722Y-04843D01*
X20677Y-04843D01*
X20731Y-04897D01*
X20881Y-04959D01*
X21042Y-04959D01*
X21191Y-04897D01*
X21306Y-04784D01*
X21368Y-04634D01*
X21368Y-04767D01*
X20837Y-05298D01*
X20774Y-05392D01*
X20752Y-05503D01*
X20752Y-06663D01*
X20324Y-06663D01*
X20327Y-06656D01*
X20327Y-06495D01*
X20265Y-06346D01*
X20152Y-06231D01*
X20002Y-06169D01*
X19841Y-06169D01*
X19692Y-06231D01*
X19577Y-06344D01*
X19515Y-06494D01*
X19515Y-06655D01*
X19577Y-06804D01*
X19632Y-06860D01*
X19649Y-06942D01*
X19062Y-06942D01*
X19062Y-06647D01*
X19116Y-06594D01*
X19178Y-06444D01*
X19178Y-06283D01*
X19116Y-06134D01*
X19003Y-06019D01*
X18853Y-05957D01*
X18692Y-05957D01*
X18543Y-06019D01*
X18428Y-06132D01*
X18366Y-06282D01*
X18366Y-06358D01*
X17831Y-06893D01*
X17792Y-06893D01*
X17717Y-06893D01*
X17717Y-04578D01*
X17717Y-04409D01*
X17653Y-04253D01*
X17620Y-04220D01*
X17620Y-03809D01*
X17636Y-03794D01*
X17698Y-03644D01*
X17698Y-03483D01*
X17636Y-03334D01*
X17523Y-03219D01*
X17373Y-03157D01*
X17212Y-03157D01*
X17063Y-03219D01*
X16948Y-03332D01*
X16886Y-03482D01*
X16886Y-03643D01*
X16948Y-03792D01*
X16964Y-03808D01*
X16964Y-04220D01*
X16932Y-04252D01*
X16867Y-04408D01*
X16867Y-04577D01*
X16931Y-04733D01*
X17051Y-04853D01*
X17207Y-04918D01*
X17376Y-04918D01*
X17532Y-04854D01*
X17652Y-04734D01*
X17717Y-04578D01*
X17717Y-06893D01*
X15469Y-06893D01*
X15511Y-06792D01*
X15511Y-06574D01*
X15505Y-06559D01*
X15505Y-05762D01*
X15494Y-05549D01*
X15434Y-05402D01*
X15340Y-05375D01*
X15033Y-05683D01*
X15340Y-05991D01*
X15434Y-05964D01*
X15505Y-05762D01*
X15505Y-06559D01*
X15427Y-06372D01*
X15273Y-06218D01*
X15181Y-06180D01*
X15243Y-06155D01*
X15270Y-06061D01*
X14997Y-05789D01*
X14962Y-05754D01*
X14891Y-05683D01*
X14962Y-05612D01*
X14997Y-05577D01*
X15270Y-05305D01*
X15243Y-05211D01*
X15041Y-05140D01*
X14828Y-05151D01*
X14751Y-05182D01*
X14730Y-05072D01*
X14667Y-04978D01*
X14392Y-04703D01*
X14392Y-03353D01*
X14576Y-03169D01*
X14652Y-03169D01*
X14801Y-03107D01*
X14916Y-02994D01*
X14978Y-02844D01*
X14978Y-02683D01*
X14916Y-02534D01*
X14803Y-02419D01*
X14653Y-02357D01*
X14492Y-02357D01*
X14343Y-02419D01*
X14228Y-02532D01*
X14166Y-02682D01*
X14166Y-02758D01*
X14028Y-02896D01*
X14028Y-02834D01*
X13966Y-02685D01*
X13853Y-02570D01*
X13703Y-02508D01*
X13542Y-02508D01*
X13393Y-02570D01*
X13362Y-02600D01*
X13362Y-02038D01*
X13387Y-01978D01*
X13387Y-01809D01*
X13323Y-01653D01*
X13203Y-01533D01*
X13047Y-01468D01*
X12878Y-01468D01*
X12722Y-01532D01*
X12602Y-01652D01*
X12537Y-01808D01*
X12537Y-01977D01*
X12562Y-02037D01*
X12562Y-05307D01*
X12497Y-05372D01*
X12413Y-05574D01*
X12413Y-05792D01*
X12497Y-05994D01*
X12651Y-06148D01*
X12853Y-06232D01*
X13071Y-06232D01*
X13172Y-06190D01*
X13172Y-07003D01*
X13174Y-07014D01*
X12562Y-07014D01*
X12438Y-07039D01*
X12332Y-07109D01*
X12262Y-07215D01*
X12237Y-07339D01*
X12237Y-09022D01*
X11977Y-08919D01*
X11912Y-08919D01*
X11912Y-04629D01*
X11912Y-04418D01*
X11912Y-02629D01*
X11912Y-02418D01*
X11831Y-02223D01*
X11683Y-02074D01*
X11488Y-01993D01*
X11277Y-01993D01*
X11082Y-02074D01*
X10933Y-02222D01*
X10852Y-02417D01*
X10852Y-02628D01*
X10933Y-02823D01*
X11081Y-02972D01*
X11276Y-03053D01*
X11487Y-03053D01*
X11682Y-02972D01*
X11831Y-02824D01*
X11912Y-02629D01*
X11912Y-04418D01*
X11831Y-04223D01*
X11683Y-04074D01*
X11488Y-03993D01*
X11277Y-03993D01*
X11082Y-04074D01*
X10933Y-04222D01*
X10852Y-04417D01*
X10852Y-04628D01*
X10933Y-04823D01*
X11081Y-04972D01*
X11276Y-05053D01*
X11487Y-05053D01*
X11682Y-04972D01*
X11831Y-04824D01*
X11912Y-04629D01*
X11912Y-08919D01*
X11619Y-08924D01*
X11313Y-09052D01*
X11243Y-09183D01*
X11777Y-09717D01*
X11812Y-09752D01*
X11883Y-09823D01*
X11812Y-09894D01*
X11777Y-09929D01*
X11741Y-09965D01*
X11741Y-09823D01*
X11172Y-09254D01*
X11041Y-09324D01*
X10908Y-09658D01*
X10913Y-10016D01*
X11041Y-10322D01*
X11172Y-10392D01*
X11741Y-09823D01*
X11741Y-09965D01*
X11243Y-10463D01*
X11256Y-10488D01*
X08918Y-10488D01*
X08918Y-05884D01*
X08918Y-05723D01*
X08856Y-05574D01*
X08743Y-05459D01*
X08593Y-05397D01*
X08432Y-05397D01*
X08283Y-05459D01*
X08168Y-05572D01*
X08106Y-05722D01*
X08106Y-05799D01*
X07947Y-05958D01*
X07884Y-06052D01*
X07862Y-06163D01*
X07862Y-06508D01*
X07808Y-06562D01*
X07746Y-06712D01*
X07746Y-06873D01*
X07808Y-07022D01*
X07921Y-07137D01*
X08071Y-07199D01*
X08232Y-07199D01*
X08381Y-07137D01*
X08496Y-07024D01*
X08558Y-06874D01*
X08558Y-06713D01*
X08496Y-06564D01*
X08442Y-06509D01*
X08442Y-06283D01*
X08516Y-06209D01*
X08592Y-06209D01*
X08741Y-06147D01*
X08856Y-06034D01*
X08918Y-05884D01*
X08918Y-10488D01*
X07065Y-10488D01*
X07065Y-06022D01*
X07054Y-05809D01*
X06994Y-05662D01*
X06900Y-05635D01*
X06593Y-05943D01*
X06900Y-06251D01*
X06994Y-06224D01*
X07065Y-06022D01*
X07065Y-10488D01*
X06966Y-10488D01*
X06250Y-09771D01*
X06250Y-06418D01*
X06443Y-06486D01*
X06656Y-06475D01*
X06803Y-06415D01*
X06830Y-06321D01*
X06557Y-06049D01*
X06522Y-06014D01*
X06451Y-05943D01*
X06522Y-05872D01*
X06557Y-05837D01*
X06830Y-05565D01*
X06803Y-05471D01*
X06737Y-05447D01*
X06833Y-05408D01*
X06987Y-05254D01*
X07071Y-05052D01*
X07071Y-04834D01*
X06987Y-04632D01*
X06833Y-04478D01*
X06748Y-04443D01*
X06833Y-04408D01*
X06987Y-04254D01*
X07071Y-04052D01*
X07071Y-03834D01*
X06987Y-03632D01*
X06847Y-03492D01*
X06871Y-03492D01*
X06963Y-03454D01*
X07033Y-03384D01*
X07071Y-03293D01*
X07071Y-03194D01*
X07071Y-02594D01*
X07033Y-02502D01*
X06963Y-02432D01*
X06872Y-02394D01*
X06773Y-02394D01*
X06250Y-02394D01*
X06250Y-01458D01*
X06560Y-01148D01*
X23327Y-01148D01*
X23637Y-01458D01*
X23637Y-04573D01*
X23662Y-04697D01*
X23732Y-04803D01*
X23838Y-04873D01*
X23962Y-04898D01*
X25887Y-04898D01*
X25887Y-05026D01*
X25348Y-05026D01*
X25256Y-05064D01*
X25186Y-05134D01*
X25148Y-05225D01*
X25148Y-05250D01*
X25008Y-05110D01*
X24806Y-05026D01*
X24588Y-05026D01*
X24386Y-05110D01*
X24232Y-05264D01*
X24148Y-05466D01*
X24148Y-05684D01*
X24232Y-05886D01*
X24386Y-06040D01*
X24470Y-06075D01*
X24386Y-06110D01*
X24232Y-06264D01*
X24148Y-06466D01*
X24148Y-06684D01*
X24232Y-06886D01*
X24386Y-07040D01*
X24470Y-07075D01*
X24386Y-07110D01*
X24232Y-07264D01*
X24148Y-07466D01*
X24148Y-07684D01*
X24232Y-07886D01*
X24386Y-08040D01*
X24588Y-08124D01*
X24806Y-08124D01*
X25008Y-08040D01*
X25162Y-07886D01*
X25199Y-07794D01*
X25225Y-07856D01*
X25319Y-07883D01*
X25626Y-07575D01*
X25319Y-07267D01*
X25225Y-07294D01*
X25201Y-07359D01*
X25162Y-07264D01*
X25008Y-07110D01*
X24923Y-07075D01*
X25008Y-07040D01*
X25162Y-06886D01*
X25197Y-06801D01*
X25232Y-06886D01*
X25386Y-07040D01*
X25477Y-07077D01*
X25416Y-07103D01*
X25389Y-07197D01*
X25662Y-07469D01*
X25697Y-07504D01*
X25768Y-07575D01*
X25697Y-07646D01*
X25389Y-07953D01*
X25416Y-08047D01*
X25618Y-08118D01*
X25831Y-08107D01*
X25887Y-08084D01*
X25887Y-09188D01*
X25887Y-09188D01*
G37*
G54D24*
X25887Y-09188D02*
X25478Y-09597D01*
X25476Y-09362D01*
X25328Y-09005D01*
X25185Y-08920D01*
X25115Y-08990D01*
X24533Y-09573D01*
X24462Y-09644D01*
X24391Y-09573D01*
X24462Y-09502D01*
X24497Y-09467D01*
X25115Y-08850D01*
X25030Y-08707D01*
X24655Y-08555D01*
X24251Y-08559D01*
X23894Y-08707D01*
X23835Y-08805D01*
X23793Y-08763D01*
X23793Y-07339D01*
X23768Y-07215D01*
X23698Y-07109D01*
X23592Y-07039D01*
X23468Y-07014D01*
X22962Y-07014D01*
X22962Y-06697D01*
X22996Y-06664D01*
X23058Y-06514D01*
X23058Y-06353D01*
X22996Y-06204D01*
X22883Y-06089D01*
X22873Y-06085D01*
X22982Y-05979D01*
X23044Y-05829D01*
X23044Y-05668D01*
X22982Y-05519D01*
X22928Y-05464D01*
X22928Y-05119D01*
X22927Y-05118D01*
X22906Y-05008D01*
X22905Y-05007D01*
X22843Y-04914D01*
X22842Y-04913D01*
X22650Y-04721D01*
X22556Y-04658D01*
X22445Y-04636D01*
X21637Y-04636D01*
X21622Y-04633D01*
X21511Y-04655D01*
X21417Y-04718D01*
X21414Y-04721D01*
X21385Y-04750D01*
X21385Y-03574D01*
X21385Y-03405D01*
X21321Y-03249D01*
X21201Y-03129D01*
X21045Y-03064D01*
X20876Y-03064D01*
X20815Y-03089D01*
X20789Y-03089D01*
X20262Y-02561D01*
X20262Y-02018D01*
X20287Y-01958D01*
X20287Y-01789D01*
X20223Y-01633D01*
X20103Y-01513D01*
X19947Y-01448D01*
X19778Y-01448D01*
X19622Y-01512D01*
X19502Y-01632D01*
X19437Y-01788D01*
X19437Y-01957D01*
X19462Y-02017D01*
X19462Y-02727D01*
X19492Y-02880D01*
X19579Y-03010D01*
X20338Y-03768D01*
X20341Y-03772D01*
X20470Y-03858D01*
X20471Y-03859D01*
X20624Y-03889D01*
X20815Y-03889D01*
X20875Y-03914D01*
X21044Y-03914D01*
X21200Y-03850D01*
X21320Y-03730D01*
X21385Y-03574D01*
X21385Y-04750D01*
X21368Y-04767D01*
X21368Y-04634D01*
X21368Y-04473D01*
X21306Y-04324D01*
X21193Y-04209D01*
X21043Y-04147D01*
X20882Y-04147D01*
X20733Y-04209D01*
X20678Y-04263D01*
X19842Y-04263D01*
X19232Y-03653D01*
X19232Y-02957D01*
X19286Y-02904D01*
X19348Y-02754D01*
X19348Y-02593D01*
X19286Y-02444D01*
X19173Y-02329D01*
X19023Y-02267D01*
X18862Y-02267D01*
X18713Y-02329D01*
X18598Y-02442D01*
X18536Y-02592D01*
X18536Y-02753D01*
X18598Y-02902D01*
X18652Y-02956D01*
X18652Y-02968D01*
X18646Y-02954D01*
X18533Y-02839D01*
X18396Y-02782D01*
X18408Y-02754D01*
X18408Y-02593D01*
X18346Y-02444D01*
X18233Y-02329D01*
X18083Y-02267D01*
X17922Y-02267D01*
X17773Y-02329D01*
X17718Y-02383D01*
X15822Y-02383D01*
X15658Y-02219D01*
X15658Y-02123D01*
X15596Y-01974D01*
X15483Y-01859D01*
X15333Y-01797D01*
X15172Y-01797D01*
X15023Y-01859D01*
X14908Y-01972D01*
X14846Y-02122D01*
X14846Y-02283D01*
X14908Y-02432D01*
X15021Y-02547D01*
X15171Y-02609D01*
X15228Y-02609D01*
X15497Y-02878D01*
X15591Y-02941D01*
X15702Y-02963D01*
X17717Y-02963D01*
X17771Y-03017D01*
X17907Y-03073D01*
X17896Y-03102D01*
X17896Y-03263D01*
X17958Y-03412D01*
X18022Y-03477D01*
X18022Y-04538D01*
X17968Y-04592D01*
X17906Y-04742D01*
X17906Y-04903D01*
X17968Y-05052D01*
X18081Y-05167D01*
X18231Y-05229D01*
X18392Y-05229D01*
X18541Y-05167D01*
X18656Y-05054D01*
X18718Y-04904D01*
X18718Y-04743D01*
X18656Y-04594D01*
X18602Y-04539D01*
X18602Y-03457D01*
X18646Y-03414D01*
X18652Y-03399D01*
X18652Y-03773D01*
X18674Y-03884D01*
X18737Y-03978D01*
X19517Y-04758D01*
X19611Y-04821D01*
X19722Y-04843D01*
X20677Y-04843D01*
X20731Y-04897D01*
X20881Y-04959D01*
X21042Y-04959D01*
X21191Y-04897D01*
X21306Y-04784D01*
X21368Y-04634D01*
X21368Y-04767D01*
X20837Y-05298D01*
X20774Y-05392D01*
X20752Y-05503D01*
X20752Y-06663D01*
X20324Y-06663D01*
X20327Y-06656D01*
X20327Y-06495D01*
X20265Y-06346D01*
X20152Y-06231D01*
X20002Y-06169D01*
X19841Y-06169D01*
X19692Y-06231D01*
X19577Y-06344D01*
X19515Y-06494D01*
X19515Y-06655D01*
X19577Y-06804D01*
X19632Y-06860D01*
X19649Y-06942D01*
X19062Y-06942D01*
X19062Y-06647D01*
X19116Y-06594D01*
X19178Y-06444D01*
X19178Y-06283D01*
X19116Y-06134D01*
X19003Y-06019D01*
X18853Y-05957D01*
X18692Y-05957D01*
X18543Y-06019D01*
X18428Y-06132D01*
X18366Y-06282D01*
X18366Y-06358D01*
X17831Y-06893D01*
X17792Y-06893D01*
X17717Y-06893D01*
X17717Y-04578D01*
X17717Y-04409D01*
X17653Y-04253D01*
X17620Y-04220D01*
X17620Y-03809D01*
X17636Y-03794D01*
X17698Y-03644D01*
X17698Y-03483D01*
X17636Y-03334D01*
X17523Y-03219D01*
X17373Y-03157D01*
X17212Y-03157D01*
X17063Y-03219D01*
X16948Y-03332D01*
X16886Y-03482D01*
X16886Y-03643D01*
X16948Y-03792D01*
X16964Y-03808D01*
X16964Y-04220D01*
X16932Y-04252D01*
X16867Y-04408D01*
X16867Y-04577D01*
X16931Y-04733D01*
X17051Y-04853D01*
X17207Y-04918D01*
X17376Y-04918D01*
X17532Y-04854D01*
X17652Y-04734D01*
X17717Y-04578D01*
X17717Y-06893D01*
X15469Y-06893D01*
X15511Y-06792D01*
X15511Y-06574D01*
X15505Y-06559D01*
X15505Y-05762D01*
X15494Y-05549D01*
X15434Y-05402D01*
X15340Y-05375D01*
X15033Y-05683D01*
X15340Y-05991D01*
X15434Y-05964D01*
X15505Y-05762D01*
X15505Y-06559D01*
X15427Y-06372D01*
X15273Y-06218D01*
X15181Y-06180D01*
X15243Y-06155D01*
X15270Y-06061D01*
X14997Y-05789D01*
X14962Y-05754D01*
X14891Y-05683D01*
X14962Y-05612D01*
X14997Y-05577D01*
X15270Y-05305D01*
X15243Y-05211D01*
X15041Y-05140D01*
X14828Y-05151D01*
X14751Y-05182D01*
X14730Y-05072D01*
X14667Y-04978D01*
X14392Y-04703D01*
X14392Y-03353D01*
X14576Y-03169D01*
X14652Y-03169D01*
X14801Y-03107D01*
X14916Y-02994D01*
X14978Y-02844D01*
X14978Y-02683D01*
X14916Y-02534D01*
X14803Y-02419D01*
X14653Y-02357D01*
X14492Y-02357D01*
X14343Y-02419D01*
X14228Y-02532D01*
X14166Y-02682D01*
X14166Y-02758D01*
X14028Y-02896D01*
X14028Y-02834D01*
X13966Y-02685D01*
X13853Y-02570D01*
X13703Y-02508D01*
X13542Y-02508D01*
X13393Y-02570D01*
X13362Y-02600D01*
X13362Y-02038D01*
X13387Y-01978D01*
X13387Y-01809D01*
X13323Y-01653D01*
X13203Y-01533D01*
X13047Y-01468D01*
X12878Y-01468D01*
X12722Y-01532D01*
X12602Y-01652D01*
X12537Y-01808D01*
X12537Y-01977D01*
X12562Y-02037D01*
X12562Y-05307D01*
X12497Y-05372D01*
X12413Y-05574D01*
X12413Y-05792D01*
X12497Y-05994D01*
X12651Y-06148D01*
X12853Y-06232D01*
X13071Y-06232D01*
X13172Y-06190D01*
X13172Y-07003D01*
X13174Y-07014D01*
X12562Y-07014D01*
X12438Y-07039D01*
X12332Y-07109D01*
X12262Y-07215D01*
X12237Y-07339D01*
X12237Y-09022D01*
X11977Y-08919D01*
X11912Y-08919D01*
X11912Y-04629D01*
X11912Y-04418D01*
X11912Y-02629D01*
X11912Y-02418D01*
X11831Y-02223D01*
X11683Y-02074D01*
X11488Y-01993D01*
X11277Y-01993D01*
X11082Y-02074D01*
X10933Y-02222D01*
X10852Y-02417D01*
X10852Y-02628D01*
X10933Y-02823D01*
X11081Y-02972D01*
X11276Y-03053D01*
X11487Y-03053D01*
X11682Y-02972D01*
X11831Y-02824D01*
X11912Y-02629D01*
X11912Y-04418D01*
X11831Y-04223D01*
X11683Y-04074D01*
X11488Y-03993D01*
X11277Y-03993D01*
X11082Y-04074D01*
X10933Y-04222D01*
X10852Y-04417D01*
X10852Y-04628D01*
X10933Y-04823D01*
X11081Y-04972D01*
X11276Y-05053D01*
X11487Y-05053D01*
X11682Y-04972D01*
X11831Y-04824D01*
X11912Y-04629D01*
X11912Y-08919D01*
X11619Y-08924D01*
X11313Y-09052D01*
X11243Y-09183D01*
X11777Y-09717D01*
X11812Y-09752D01*
X11883Y-09823D01*
X11812Y-09894D01*
X11777Y-09929D01*
X11741Y-09965D01*
X11741Y-09823D01*
X11172Y-09254D01*
X11041Y-09324D01*
X10908Y-09658D01*
X10913Y-10016D01*
X11041Y-10322D01*
X11172Y-10392D01*
X11741Y-09823D01*
X11741Y-09965D01*
X11243Y-10463D01*
X11256Y-10488D01*
X08918Y-10488D01*
X08918Y-05884D01*
X08918Y-05723D01*
X08856Y-05574D01*
X08743Y-05459D01*
X08593Y-05397D01*
X08432Y-05397D01*
X08283Y-05459D01*
X08168Y-05572D01*
X08106Y-05722D01*
X08106Y-05799D01*
X07947Y-05958D01*
X07884Y-06052D01*
X07862Y-06163D01*
X07862Y-06508D01*
X07808Y-06562D01*
X07746Y-06712D01*
X07746Y-06873D01*
X07808Y-07022D01*
X07921Y-07137D01*
X08071Y-07199D01*
X08232Y-07199D01*
X08381Y-07137D01*
X08496Y-07024D01*
X08558Y-06874D01*
X08558Y-06713D01*
X08496Y-06564D01*
X08442Y-06509D01*
X08442Y-06283D01*
X08516Y-06209D01*
X08592Y-06209D01*
X08741Y-06147D01*
X08856Y-06034D01*
X08918Y-05884D01*
X08918Y-10488D01*
X07065Y-10488D01*
X07065Y-06022D01*
X07054Y-05809D01*
X06994Y-05662D01*
X06900Y-05635D01*
X06593Y-05943D01*
X06900Y-06251D01*
X06994Y-06224D01*
X07065Y-06022D01*
X07065Y-10488D01*
X06966Y-10488D01*
X06250Y-09771D01*
X06250Y-06418D01*
X06443Y-06486D01*
X06656Y-06475D01*
X06803Y-06415D01*
X06830Y-06321D01*
X06557Y-06049D01*
X06522Y-06014D01*
X06451Y-05943D01*
X06522Y-05872D01*
X06557Y-05837D01*
X06830Y-05565D01*
X06803Y-05471D01*
X06737Y-05447D01*
X06833Y-05408D01*
X06987Y-05254D01*
X07071Y-05052D01*
X07071Y-04834D01*
X06987Y-04632D01*
X06833Y-04478D01*
X06748Y-04443D01*
X06833Y-04408D01*
X06987Y-04254D01*
X07071Y-04052D01*
X07071Y-03834D01*
X06987Y-03632D01*
X06847Y-03492D01*
X06871Y-03492D01*
X06963Y-03454D01*
X07033Y-03384D01*
X07071Y-03293D01*
X07071Y-03194D01*
X07071Y-02594D01*
X07033Y-02502D01*
X06963Y-02432D01*
X06872Y-02394D01*
X06773Y-02394D01*
X06250Y-02394D01*
X06250Y-01458D01*
X06560Y-01148D01*
X23327Y-01148D01*
X23637Y-01458D01*
X23637Y-04573D01*
X23662Y-04697D01*
X23732Y-04803D01*
X23838Y-04873D01*
X23962Y-04898D01*
X25887Y-04898D01*
X25887Y-05026D01*
X25348Y-05026D01*
X25256Y-05064D01*
X25186Y-05134D01*
X25148Y-05225D01*
X25148Y-05250D01*
X25008Y-05110D01*
X24806Y-05026D01*
X24588Y-05026D01*
X24386Y-05110D01*
X24232Y-05264D01*
X24148Y-05466D01*
X24148Y-05684D01*
X24232Y-05886D01*
X24386Y-06040D01*
X24470Y-06075D01*
X24386Y-06110D01*
X24232Y-06264D01*
X24148Y-06466D01*
X24148Y-06684D01*
X24232Y-06886D01*
X24386Y-07040D01*
X24470Y-07075D01*
X24386Y-07110D01*
X24232Y-07264D01*
X24148Y-07466D01*
X24148Y-07684D01*
X24232Y-07886D01*
X24386Y-08040D01*
X24588Y-08124D01*
X24806Y-08124D01*
X25008Y-08040D01*
X25162Y-07886D01*
X25199Y-07794D01*
X25225Y-07856D01*
X25319Y-07883D01*
X25626Y-07575D01*
X25319Y-07267D01*
X25225Y-07294D01*
X25201Y-07359D01*
X25162Y-07264D01*
X25008Y-07110D01*
X24923Y-07075D01*
X25008Y-07040D01*
X25162Y-06886D01*
X25197Y-06801D01*
X25232Y-06886D01*
X25386Y-07040D01*
X25477Y-07077D01*
X25416Y-07103D01*
X25389Y-07197D01*
X25662Y-07469D01*
X25697Y-07504D01*
X25768Y-07575D01*
X25697Y-07646D01*
X25389Y-07953D01*
X25416Y-08047D01*
X25618Y-08118D01*
X25831Y-08107D01*
X25887Y-08084D01*
X25887Y-09188D01*
M02*
