G04 Layer_Physical_Order=1*
G04 Layer_Color=255*
%FSLAX25Y25*%
%MOIN*%
G70*
G01*
G75*
%ADD10O,0.65000X0.10000*%
%ADD11R,0.02362X0.04528*%
%ADD12R,0.03150X0.03543*%
%ADD13R,0.04331X0.02559*%
%ADD14R,0.03543X0.03150*%
%ADD15R,0.03150X0.02362*%
%ADD16R,0.03543X0.02756*%
%ADD17R,0.05709X0.02362*%
%ADD18R,0.05906X0.03150*%
%ADD19R,0.03150X0.05906*%
%ADD20C,0.06299*%
%ADD21R,0.06890X0.01772*%
%ADD22C,0.00800*%
%ADD23C,0.02000*%
%ADD24C,0.01000*%
%ADD25C,0.03937*%
%ADD26C,0.03000*%
%ADD27R,0.03937X0.03937*%
%ADD28R,0.05906X0.05906*%
%ADD29C,0.05906*%
%ADD30C,0.02500*%
G36*
X640107Y43461D02*
X643381Y42909D01*
X645580Y42163D01*
X647662Y41136D01*
X649593Y39845D01*
X651339Y38314D01*
X652870Y36568D01*
X654160Y34637D01*
X655188Y32555D01*
X655934Y30356D01*
X656486Y27082D01*
X656500Y25975D01*
X656486Y24868D01*
X655934Y21594D01*
X655188Y19395D01*
X654160Y17312D01*
X652870Y15382D01*
X651339Y13635D01*
X649593Y12104D01*
X647662Y10814D01*
X645579Y9787D01*
X643380Y9041D01*
X640107Y8488D01*
X639000Y8475D01*
X639000Y18475D01*
X639400Y18466D01*
X640598Y18579D01*
X641982Y18999D01*
X643258Y19681D01*
X644376Y20598D01*
X645294Y21716D01*
X645975Y22992D01*
X646395Y24376D01*
X646508Y25574D01*
X646500Y25975D01*
X646500D01*
X646484Y26688D01*
X645952Y28757D01*
X645240Y30089D01*
X644282Y31257D01*
X643114Y32215D01*
X641782Y32927D01*
X639713Y33459D01*
X639000Y33475D01*
X639000Y33475D01*
X639000Y43475D01*
X640107Y43461D01*
D02*
G37*
G36*
X540107D02*
X543381Y42909D01*
X545580Y42163D01*
X547662Y41136D01*
X549593Y39845D01*
X551339Y38314D01*
X552870Y36568D01*
X554160Y34637D01*
X555188Y32555D01*
X555934Y30356D01*
X556486Y27082D01*
X556500Y25975D01*
X556486Y24868D01*
X555934Y21594D01*
X555188Y19395D01*
X554160Y17312D01*
X552870Y15382D01*
X551339Y13635D01*
X549593Y12104D01*
X547662Y10814D01*
X545579Y9787D01*
X543380Y9041D01*
X540107Y8488D01*
X539000Y8475D01*
X539000Y18475D01*
X539400Y18466D01*
X540598Y18579D01*
X541982Y18999D01*
X543258Y19681D01*
X544376Y20598D01*
X545294Y21716D01*
X545975Y22992D01*
X546395Y24376D01*
X546508Y25574D01*
X546500Y25975D01*
X546500D01*
X546484Y26688D01*
X545952Y28757D01*
X545240Y30089D01*
X544282Y31257D01*
X543114Y32215D01*
X541782Y32927D01*
X539713Y33459D01*
X539000Y33475D01*
X539000Y33475D01*
X539000Y43475D01*
X540107Y43461D01*
D02*
G37*
G36*
X808078Y34835D02*
X808012Y34500D01*
X808163Y33739D01*
X808594Y33094D01*
X809239Y32663D01*
X810000Y32512D01*
X810761Y32663D01*
X811406Y33094D01*
X811819Y33712D01*
X811897Y33787D01*
X812322Y33916D01*
X814530Y31707D01*
X814530Y31707D01*
X814894Y31464D01*
X815323Y31378D01*
X815323Y31378D01*
X840904D01*
X841094Y31094D01*
X841739Y30663D01*
X842500Y30512D01*
X843261Y30663D01*
X843906Y31094D01*
X844337Y31739D01*
X844488Y32500D01*
X844337Y33261D01*
X844219Y33437D01*
X844454Y33878D01*
X847639D01*
X847830Y33417D01*
X838733Y24319D01*
X838272Y24176D01*
Y24176D01*
X838272Y24176D01*
X833328D01*
Y20621D01*
X831472D01*
Y24076D01*
X831316D01*
X831124Y24538D01*
X832165Y25578D01*
X832500Y25512D01*
X833261Y25663D01*
X833906Y26094D01*
X834337Y26739D01*
X834488Y27500D01*
X834337Y28261D01*
X833906Y28906D01*
X833261Y29337D01*
X832500Y29488D01*
X831739Y29337D01*
X831094Y28906D01*
X830663Y28261D01*
X830512Y27500D01*
X830579Y27165D01*
X828207Y24793D01*
X827964Y24429D01*
X827894Y24076D01*
X826528D01*
Y20621D01*
X824472D01*
Y24076D01*
X819528D01*
Y24076D01*
X819101Y23899D01*
X818207Y24793D01*
X817844Y25036D01*
X817414Y25122D01*
X817414Y25122D01*
X810464D01*
X810337Y25761D01*
X809906Y26406D01*
X809261Y26837D01*
X808500Y26988D01*
X807739Y26837D01*
X807094Y26406D01*
X806663Y25761D01*
X806512Y25000D01*
X806663Y24239D01*
X806781Y24062D01*
X806546Y23621D01*
X802645D01*
Y24678D01*
X802830Y24714D01*
X803193Y24957D01*
X805293Y27057D01*
X805536Y27421D01*
X805622Y27850D01*
X805622Y27850D01*
Y32404D01*
X805906Y32594D01*
X806337Y33239D01*
X806488Y34000D01*
X806337Y34761D01*
X805906Y35406D01*
X805261Y35837D01*
X804500Y35988D01*
X803739Y35837D01*
X803145Y35440D01*
X802912Y35498D01*
X802645Y35633D01*
Y36878D01*
X806035D01*
X808078Y34835D01*
D02*
G37*
G36*
X42607Y43961D02*
X45881Y43409D01*
X48080Y42663D01*
X50162Y41636D01*
X52093Y40345D01*
X53839Y38814D01*
X55370Y37068D01*
X56660Y35137D01*
X57688Y33055D01*
X58434Y30856D01*
X58986Y27582D01*
X59000Y26475D01*
X58986Y25368D01*
X58434Y22094D01*
X57687Y19895D01*
X56660Y17812D01*
X55370Y15881D01*
X53839Y14135D01*
X52093Y12604D01*
X50162Y11314D01*
X48079Y10287D01*
X45880Y9540D01*
X42607Y8988D01*
X41500Y8975D01*
X41500Y18975D01*
X41900Y18966D01*
X43098Y19079D01*
X44482Y19499D01*
X45758Y20181D01*
X46876Y21098D01*
X47793Y22217D01*
X48475Y23492D01*
X48895Y24876D01*
X49008Y26074D01*
X49000Y26475D01*
X49000D01*
X48984Y27188D01*
X48452Y29257D01*
X47740Y30589D01*
X46782Y31757D01*
X45614Y32715D01*
X44282Y33427D01*
X42213Y33959D01*
X41500Y33975D01*
X41500Y33975D01*
X41500Y43975D01*
X42607Y43961D01*
D02*
G37*
G36*
X240107Y43461D02*
X243381Y42909D01*
X245580Y42163D01*
X247662Y41136D01*
X249593Y39845D01*
X251339Y38314D01*
X252870Y36568D01*
X254160Y34637D01*
X255188Y32555D01*
X255934Y30356D01*
X256486Y27082D01*
X256500Y25975D01*
X256486Y24868D01*
X255934Y21594D01*
X255188Y19395D01*
X254160Y17312D01*
X252870Y15382D01*
X251339Y13635D01*
X249593Y12104D01*
X247662Y10814D01*
X245579Y9787D01*
X243380Y9041D01*
X240107Y8488D01*
X239000Y8475D01*
X239000Y18475D01*
X239400Y18466D01*
X240598Y18579D01*
X241982Y18999D01*
X243258Y19681D01*
X244376Y20598D01*
X245293Y21716D01*
X245975Y22992D01*
X246395Y24376D01*
X246508Y25574D01*
X246500Y25975D01*
X246500D01*
X246484Y26688D01*
X245952Y28757D01*
X245240Y30089D01*
X244282Y31257D01*
X243114Y32215D01*
X241782Y32927D01*
X239713Y33459D01*
X239000Y33475D01*
X239000Y33475D01*
X239000Y43475D01*
X240107Y43461D01*
D02*
G37*
G36*
X140107D02*
X143381Y42909D01*
X145580Y42163D01*
X147662Y41136D01*
X149593Y39845D01*
X151339Y38314D01*
X152870Y36568D01*
X154160Y34637D01*
X155188Y32555D01*
X155934Y30356D01*
X156486Y27082D01*
X156500Y25975D01*
X156486Y24868D01*
X155934Y21594D01*
X155187Y19395D01*
X154160Y17312D01*
X152870Y15382D01*
X151339Y13635D01*
X149593Y12104D01*
X147662Y10814D01*
X145579Y9787D01*
X143380Y9041D01*
X140107Y8488D01*
X139000Y8475D01*
X139000Y18475D01*
X139400Y18466D01*
X140598Y18579D01*
X141982Y18999D01*
X143258Y19681D01*
X144376Y20598D01*
X145293Y21716D01*
X145975Y22992D01*
X146395Y24376D01*
X146508Y25574D01*
X146500Y25975D01*
X146500D01*
X146484Y26688D01*
X145952Y28757D01*
X145240Y30089D01*
X144282Y31257D01*
X143114Y32215D01*
X141782Y32927D01*
X139713Y33459D01*
X139000Y33475D01*
X139000Y33475D01*
X139000Y43475D01*
X140107Y43461D01*
D02*
G37*
G36*
X440107D02*
X443381Y42909D01*
X445580Y42163D01*
X447662Y41136D01*
X449593Y39845D01*
X451339Y38314D01*
X452870Y36568D01*
X454160Y34637D01*
X455188Y32555D01*
X455934Y30356D01*
X456486Y27082D01*
X456500Y25975D01*
X456486Y24868D01*
X455934Y21594D01*
X455188Y19395D01*
X454160Y17312D01*
X452870Y15382D01*
X451339Y13635D01*
X449593Y12104D01*
X447662Y10814D01*
X445579Y9787D01*
X443380Y9041D01*
X440107Y8488D01*
X439000Y8475D01*
X439000Y18475D01*
X439400Y18466D01*
X440598Y18579D01*
X441982Y18999D01*
X443258Y19681D01*
X444376Y20598D01*
X445294Y21716D01*
X445975Y22992D01*
X446395Y24376D01*
X446508Y25574D01*
X446500Y25975D01*
X446500D01*
X446484Y26688D01*
X445952Y28757D01*
X445240Y30089D01*
X444282Y31257D01*
X443114Y32215D01*
X441782Y32927D01*
X439713Y33459D01*
X439000Y33475D01*
X439000Y33475D01*
X439000Y43475D01*
X440107Y43461D01*
D02*
G37*
G36*
X340107D02*
X343381Y42909D01*
X345580Y42163D01*
X347662Y41136D01*
X349593Y39845D01*
X351339Y38314D01*
X352870Y36568D01*
X354160Y34637D01*
X355188Y32555D01*
X355934Y30356D01*
X356486Y27082D01*
X356500Y25975D01*
X356486Y24868D01*
X355934Y21594D01*
X355188Y19395D01*
X354160Y17312D01*
X352870Y15382D01*
X351339Y13635D01*
X349593Y12104D01*
X347662Y10814D01*
X345579Y9787D01*
X343380Y9041D01*
X340107Y8488D01*
X339000Y8475D01*
X339000Y18475D01*
X339400Y18466D01*
X340598Y18579D01*
X341982Y18999D01*
X343258Y19681D01*
X344376Y20598D01*
X345293Y21716D01*
X345975Y22992D01*
X346395Y24376D01*
X346508Y25574D01*
X346500Y25975D01*
X346500D01*
X346484Y26688D01*
X345952Y28757D01*
X345240Y30089D01*
X344282Y31257D01*
X343114Y32215D01*
X341782Y32927D01*
X339713Y33459D01*
X339000Y33475D01*
X339000Y33475D01*
X339000Y43475D01*
X340107Y43461D01*
D02*
G37*
G36*
X556363Y38466D02*
Y37502D01*
X554797Y37502D01*
X554155Y38078D01*
X554155Y38078D01*
X553684Y38762D01*
X552061Y40654D01*
X550264Y42230D01*
X548276Y43558D01*
X546132Y44616D01*
X543868Y45384D01*
X541524Y45851D01*
X539529Y45976D01*
X538864Y45966D01*
X538864Y55966D01*
X556364D01*
X556363Y38466D01*
D02*
G37*
G36*
X456363D02*
Y37502D01*
X454797Y37502D01*
X454155Y38078D01*
X454155Y38078D01*
X453684Y38762D01*
X452061Y40654D01*
X450264Y42230D01*
X448276Y43558D01*
X446132Y44616D01*
X443868Y45384D01*
X441524Y45851D01*
X439529Y45976D01*
X438864Y45966D01*
X438864Y55966D01*
X456364D01*
X456363Y38466D01*
D02*
G37*
G36*
X58864Y38966D02*
Y38002D01*
X57297Y38002D01*
X56656Y38578D01*
X56656Y38578D01*
X56184Y39262D01*
X54561Y41154D01*
X52764Y42730D01*
X50776Y44058D01*
X48632Y45116D01*
X46368Y45884D01*
X44023Y46351D01*
X42029Y46476D01*
X41364Y46466D01*
X41364Y56466D01*
X58864D01*
X58864Y38966D01*
D02*
G37*
G36*
X656363Y38466D02*
Y37502D01*
X654797Y37502D01*
X654155Y38078D01*
X654155Y38078D01*
X653684Y38762D01*
X652061Y40654D01*
X650264Y42230D01*
X648276Y43558D01*
X646132Y44616D01*
X643868Y45384D01*
X641524Y45851D01*
X639529Y45976D01*
X638864Y45966D01*
X638864Y55966D01*
X656364D01*
X656363Y38466D01*
D02*
G37*
G36*
X156363D02*
Y37502D01*
X154797Y37502D01*
X154156Y38078D01*
X154156Y38078D01*
X153684Y38762D01*
X152061Y40654D01*
X150264Y42230D01*
X148276Y43558D01*
X146132Y44616D01*
X143868Y45384D01*
X141524Y45851D01*
X139529Y45976D01*
X138864Y45966D01*
X138864Y55966D01*
X156364D01*
X156363Y38466D01*
D02*
G37*
G36*
X855072Y36832D02*
X855072Y36536D01*
X855072Y36036D01*
Y32137D01*
X855072Y31812D01*
X855072Y31312D01*
Y27413D01*
X855072Y27088D01*
X855072Y26588D01*
Y22688D01*
X855072Y22363D01*
X855072Y21863D01*
Y21035D01*
X850460D01*
X850331Y21346D01*
X849903Y21903D01*
X849346Y22331D01*
X848697Y22600D01*
X848000Y22692D01*
X847303Y22600D01*
X846654Y22331D01*
X846097Y21903D01*
X845669Y21346D01*
X845400Y20697D01*
X845308Y20000D01*
X845400Y19303D01*
X845669Y18654D01*
X846097Y18097D01*
X846654Y17669D01*
X847303Y17400D01*
X848000Y17309D01*
X848697Y17400D01*
X849346Y17669D01*
X849903Y18097D01*
X850331Y18654D01*
X850388Y18792D01*
X854718D01*
X855072Y18438D01*
X855072Y17639D01*
X855072Y17139D01*
Y16611D01*
X854689Y16311D01*
X854260Y16225D01*
X853896Y15982D01*
X853896Y15982D01*
X851062Y13148D01*
X850877Y13210D01*
X850613Y13407D01*
X850692Y14000D01*
X850600Y14697D01*
X850331Y15346D01*
X849903Y15903D01*
X849346Y16331D01*
X848697Y16600D01*
X848000Y16691D01*
X847303Y16600D01*
X846654Y16331D01*
X846097Y15903D01*
X845669Y15346D01*
X845400Y14697D01*
X845308Y14000D01*
X845400Y13303D01*
X845669Y12654D01*
X846097Y12097D01*
X846654Y11669D01*
X847303Y11400D01*
X848000Y11309D01*
X848593Y11387D01*
X848790Y11123D01*
X848852Y10938D01*
X846654Y8740D01*
X838175D01*
Y11981D01*
X836922D01*
Y14115D01*
X838272D01*
Y18271D01*
X838727Y18379D01*
X839000D01*
X839000Y18378D01*
X839429Y18464D01*
X839793Y18707D01*
X848217Y27131D01*
X848594Y27094D01*
X849239Y26663D01*
X850000Y26512D01*
X850761Y26663D01*
X851406Y27094D01*
X851837Y27739D01*
X851988Y28500D01*
X851837Y29261D01*
X851406Y29906D01*
X850761Y30337D01*
X850000Y30488D01*
X849239Y30337D01*
X848594Y29906D01*
X848404Y29622D01*
X848000D01*
X847894Y29600D01*
X847647Y30061D01*
X854610Y37024D01*
X855072Y36832D01*
D02*
G37*
G36*
X356364Y38466D02*
Y37502D01*
X354797Y37502D01*
X354155Y38078D01*
X354155Y38078D01*
X353684Y38762D01*
X352061Y40654D01*
X350264Y42230D01*
X348276Y43558D01*
X346132Y44616D01*
X343868Y45384D01*
X341524Y45851D01*
X339529Y45976D01*
X338864Y45966D01*
X338864Y55966D01*
X356364D01*
X356364Y38466D01*
D02*
G37*
G36*
X256364D02*
Y37502D01*
X254797Y37502D01*
X254155Y38078D01*
X254155Y38078D01*
X253684Y38762D01*
X252061Y40654D01*
X250264Y42230D01*
X248276Y43558D01*
X246132Y44616D01*
X243868Y45384D01*
X241524Y45851D01*
X239529Y45976D01*
X238864Y45966D01*
X238864Y55966D01*
X256364D01*
X256364Y38466D01*
D02*
G37*
G36*
X819000Y18707D02*
X819236Y18550D01*
X819528Y18171D01*
X819528Y17960D01*
Y14588D01*
X819028Y14381D01*
X813131Y20279D01*
X812767Y20522D01*
X812338Y20607D01*
X812338Y20607D01*
X802645D01*
Y21378D01*
X816329D01*
X819000Y18707D01*
D02*
G37*
G36*
X639000Y8475D02*
X639000D01*
X639000D01*
D01*
D02*
G37*
G36*
X539000D02*
X539000D01*
X539000D01*
D01*
D02*
G37*
G36*
X168067Y26964D02*
X169127Y25804D01*
X169127D01*
X169518Y25283D01*
X170803Y23812D01*
X172600Y22235D01*
X174588Y20907D01*
X176732Y19850D01*
X178995Y19082D01*
X181340Y18615D01*
X183334Y18490D01*
X184000Y18500D01*
Y8500D01*
X166500D01*
X166500Y26000D01*
Y26964D01*
X168067Y26964D01*
D02*
G37*
G36*
X68067D02*
X69127Y25804D01*
X69127D01*
X69517Y25283D01*
X70803Y23812D01*
X72600Y22235D01*
X74588Y20907D01*
X76732Y19850D01*
X78995Y19082D01*
X81340Y18615D01*
X83334Y18490D01*
X84000Y18500D01*
Y8500D01*
X66500D01*
X66500Y26000D01*
Y26964D01*
X68067Y26964D01*
D02*
G37*
G36*
X239000Y8475D02*
X239000D01*
X239000D01*
D01*
D02*
G37*
G36*
X139000D02*
X139000D01*
X139000D01*
D01*
D02*
G37*
G36*
X439000D02*
X439000D01*
X439000D01*
D01*
D02*
G37*
G36*
X339000D02*
X339000D01*
X339000D01*
D01*
D02*
G37*
G36*
X833328Y18271D02*
Y14115D01*
X834678D01*
Y11981D01*
X833625D01*
Y8740D01*
X831175D01*
Y11781D01*
X830122D01*
Y14015D01*
X831472D01*
Y18171D01*
X831886Y18379D01*
X832873D01*
X833328Y18271D01*
D02*
G37*
G36*
X826528Y18171D02*
Y14015D01*
X827878D01*
Y11781D01*
X826625D01*
Y8740D01*
X824275D01*
Y11881D01*
X823122D01*
Y14015D01*
X824472D01*
Y18171D01*
X824886Y18379D01*
X826114D01*
X826528Y18171D01*
D02*
G37*
G36*
X-29433Y27464D02*
X-28373Y26304D01*
X-28373D01*
X-27983Y25783D01*
X-26697Y24312D01*
X-24900Y22735D01*
X-22912Y21407D01*
X-20768Y20350D01*
X-18505Y19581D01*
X-16160Y19115D01*
X-14166Y18990D01*
X-13500Y19000D01*
Y9000D01*
X-31000D01*
X-31000Y26500D01*
Y27464D01*
X-29433Y27464D01*
D02*
G37*
G36*
X41500Y8975D02*
X41500D01*
X41500D01*
D01*
D02*
G37*
G36*
X368067Y26964D02*
X369127Y25804D01*
X369127D01*
X369517Y25283D01*
X370803Y23812D01*
X372600Y22235D01*
X374588Y20907D01*
X376732Y19850D01*
X378995Y19082D01*
X381340Y18615D01*
X383334Y18490D01*
X384000Y18500D01*
Y8500D01*
X366500D01*
X366500Y26000D01*
Y26964D01*
X368067Y26964D01*
D02*
G37*
G36*
X268067D02*
X269127Y25804D01*
X269127D01*
X269517Y25283D01*
X270803Y23812D01*
X272600Y22235D01*
X274588Y20907D01*
X276732Y19850D01*
X278995Y19082D01*
X281340Y18615D01*
X283334Y18490D01*
X284000Y18500D01*
Y8500D01*
X266500D01*
X266500Y26000D01*
Y26964D01*
X268067Y26964D01*
D02*
G37*
G36*
X568067D02*
X569127Y25804D01*
X569127D01*
X569518Y25283D01*
X570803Y23812D01*
X572600Y22235D01*
X574588Y20907D01*
X576732Y19850D01*
X578995Y19082D01*
X581340Y18615D01*
X583334Y18490D01*
X584000Y18500D01*
Y8500D01*
X566500D01*
X566500Y26000D01*
Y26964D01*
X568067Y26964D01*
D02*
G37*
G36*
X468067D02*
X469127Y25804D01*
X469127D01*
X469518Y25283D01*
X470803Y23812D01*
X472600Y22235D01*
X474588Y20907D01*
X476732Y19850D01*
X478995Y19082D01*
X481340Y18615D01*
X483334Y18490D01*
X484000Y18500D01*
Y8500D01*
X466500D01*
X466500Y26000D01*
Y26964D01*
X468067Y26964D01*
D02*
G37*
G36*
X384000Y46025D02*
X383600Y46034D01*
X382402Y45921D01*
X381018Y45501D01*
X379742Y44819D01*
X378624Y43902D01*
X377707Y42784D01*
X377025Y41508D01*
X376605Y40124D01*
X376492Y38926D01*
X376500Y38525D01*
X376516Y37812D01*
X377048Y35743D01*
X377760Y34411D01*
X378718Y33243D01*
X379886Y32285D01*
X381218Y31573D01*
X383287Y31041D01*
X384000Y31025D01*
Y31025D01*
X384000Y21025D01*
X382893Y21039D01*
X379619Y21591D01*
X377420Y22337D01*
X375338Y23364D01*
X373407Y24655D01*
X371661Y26186D01*
X370130Y27932D01*
X368840Y29863D01*
X367812Y31945D01*
X367066Y34144D01*
X366514Y37418D01*
X366500Y38525D01*
X366514Y39632D01*
X367066Y42906D01*
X367812Y45105D01*
X368840Y47188D01*
X370130Y49119D01*
X371661Y50865D01*
X373407Y52396D01*
X375338Y53686D01*
X377421Y54713D01*
X379620Y55460D01*
X382893Y56012D01*
X384000Y56025D01*
Y46025D01*
D02*
G37*
G36*
X484000D02*
X483600Y46034D01*
X482402Y45921D01*
X481018Y45501D01*
X479742Y44819D01*
X478624Y43902D01*
X477706Y42784D01*
X477025Y41508D01*
X476605Y40124D01*
X476492Y38926D01*
X476500Y38525D01*
X476516Y37812D01*
X477048Y35743D01*
X477760Y34411D01*
X478718Y33243D01*
X479886Y32285D01*
X481218Y31573D01*
X483287Y31041D01*
X484000Y31025D01*
Y31025D01*
X484000Y21025D01*
X482893Y21039D01*
X479619Y21591D01*
X477420Y22337D01*
X475338Y23364D01*
X473407Y24655D01*
X471661Y26186D01*
X470130Y27932D01*
X468840Y29863D01*
X467812Y31945D01*
X467066Y34144D01*
X466514Y37418D01*
X466500Y38525D01*
X466514Y39632D01*
X467066Y42906D01*
X467812Y45105D01*
X468840Y47188D01*
X470130Y49119D01*
X471661Y50865D01*
X473407Y52396D01*
X475338Y53686D01*
X477421Y54713D01*
X479620Y55460D01*
X482893Y56012D01*
X484000Y56025D01*
Y46025D01*
D02*
G37*
G36*
X184000D02*
X183600Y46034D01*
X182402Y45921D01*
X181018Y45501D01*
X179742Y44819D01*
X178624Y43902D01*
X177707Y42784D01*
X177025Y41508D01*
X176605Y40124D01*
X176492Y38926D01*
X176500Y38525D01*
X176516Y37812D01*
X177048Y35743D01*
X177760Y34411D01*
X178718Y33243D01*
X179886Y32285D01*
X181218Y31573D01*
X183287Y31041D01*
X184000Y31025D01*
Y31025D01*
X184000Y21025D01*
X182893Y21039D01*
X179619Y21591D01*
X177420Y22337D01*
X175338Y23364D01*
X173407Y24655D01*
X171661Y26186D01*
X170130Y27932D01*
X168840Y29863D01*
X167812Y31945D01*
X167066Y34144D01*
X166514Y37418D01*
X166500Y38525D01*
X166514Y39632D01*
X167066Y42906D01*
X167812Y45105D01*
X168840Y47188D01*
X170130Y49119D01*
X171661Y50865D01*
X173407Y52396D01*
X175338Y53686D01*
X177421Y54713D01*
X179620Y55460D01*
X182893Y56012D01*
X184000Y56025D01*
Y46025D01*
D02*
G37*
G36*
X284000D02*
X283600Y46034D01*
X282402Y45921D01*
X281018Y45501D01*
X279742Y44819D01*
X278624Y43902D01*
X277707Y42784D01*
X277025Y41508D01*
X276605Y40124D01*
X276492Y38926D01*
X276500Y38525D01*
X276516Y37812D01*
X277048Y35743D01*
X277760Y34411D01*
X278718Y33243D01*
X279886Y32285D01*
X281218Y31573D01*
X283287Y31041D01*
X284000Y31025D01*
Y31025D01*
X284000Y21025D01*
X282893Y21039D01*
X279619Y21591D01*
X277420Y22337D01*
X275338Y23364D01*
X273407Y24655D01*
X271661Y26186D01*
X270130Y27932D01*
X268840Y29863D01*
X267812Y31945D01*
X267066Y34144D01*
X266514Y37418D01*
X266500Y38525D01*
X266514Y39632D01*
X267066Y42906D01*
X267812Y45105D01*
X268840Y47188D01*
X270130Y49119D01*
X271661Y50865D01*
X273407Y52396D01*
X275338Y53686D01*
X277421Y54713D01*
X279620Y55460D01*
X282893Y56012D01*
X284000Y56025D01*
Y46025D01*
D02*
G37*
G36*
X584000D02*
X583600Y46034D01*
X582402Y45921D01*
X581018Y45501D01*
X579742Y44819D01*
X578624Y43902D01*
X577706Y42784D01*
X577025Y41508D01*
X576605Y40124D01*
X576492Y38926D01*
X576500Y38525D01*
X576516Y37812D01*
X577048Y35743D01*
X577760Y34411D01*
X578718Y33243D01*
X579886Y32285D01*
X581218Y31573D01*
X583287Y31041D01*
X584000Y31025D01*
Y31025D01*
X584000Y21025D01*
X582893Y21039D01*
X579619Y21591D01*
X577420Y22337D01*
X575338Y23364D01*
X573407Y24655D01*
X571661Y26186D01*
X570130Y27932D01*
X568840Y29863D01*
X567812Y31945D01*
X567066Y34144D01*
X566514Y37418D01*
X566500Y38525D01*
X566514Y39632D01*
X567066Y42906D01*
X567812Y45105D01*
X568840Y47188D01*
X570130Y49119D01*
X571661Y50865D01*
X573407Y52396D01*
X575338Y53686D01*
X577421Y54713D01*
X579620Y55460D01*
X582893Y56012D01*
X584000Y56025D01*
Y46025D01*
D02*
G37*
G36*
X862500Y63453D02*
X860500D01*
Y59500D01*
X860000D01*
Y59000D01*
X856047D01*
Y57000D01*
X834890D01*
Y58740D01*
X831724D01*
X828559D01*
Y56961D01*
X828859D01*
Y54039D01*
X828559D01*
Y52260D01*
X831724D01*
Y51260D01*
X828559D01*
Y49480D01*
X830000D01*
Y47772D01*
X829244D01*
Y45000D01*
X828244D01*
Y47772D01*
X827000D01*
X827000Y64500D01*
X827000Y64646D01*
X827354Y65000D01*
X862500D01*
Y63453D01*
D02*
G37*
G36*
X915000Y0D02*
X859162D01*
X859062Y500D01*
X859636Y738D01*
X860503Y1403D01*
X861168Y2270D01*
X861586Y3279D01*
X861663Y3862D01*
X857543D01*
X853424D01*
X853500Y3279D01*
X853919Y2270D01*
X854584Y1403D01*
X855451Y738D01*
X856024Y500D01*
X855925Y0D01*
X792500D01*
Y8267D01*
X794672D01*
X795335Y8399D01*
X795898Y8774D01*
X798320Y11197D01*
X798820Y10989D01*
Y7619D01*
X805928D01*
Y11381D01*
X804107D01*
Y12260D01*
X804446Y12768D01*
X804617Y13626D01*
X804446Y14484D01*
X803960Y15212D01*
X803232Y15698D01*
X803069Y15731D01*
X802645Y15914D01*
Y18364D01*
X809536D01*
X809772Y17923D01*
X809663Y17761D01*
X809512Y17000D01*
X809663Y16239D01*
X810076Y15621D01*
X810044Y15472D01*
X809902Y15121D01*
X808072D01*
Y11359D01*
X815180D01*
Y14404D01*
X815642Y14595D01*
X818204Y12034D01*
Y8363D01*
X818204Y8363D01*
X818289Y7934D01*
X818532Y7570D01*
X819216Y6886D01*
X819336Y6649D01*
X819425Y6384D01*
X819425Y6171D01*
Y4791D01*
X824575D01*
X824575Y6472D01*
X825064Y6497D01*
X825877D01*
X826325Y6373D01*
X826325Y5997D01*
Y4691D01*
X831475D01*
X831475Y6373D01*
X831923Y6497D01*
X833325D01*
Y4891D01*
X838475D01*
Y6497D01*
X847119D01*
X847119Y6497D01*
X847548Y6583D01*
X847912Y6826D01*
X854610Y13524D01*
X855072Y13332D01*
Y12914D01*
X862377D01*
Y17139D01*
X862377Y17464D01*
X862377Y17964D01*
Y21863D01*
X862377Y22188D01*
X862377Y22688D01*
Y26588D01*
X862377Y26913D01*
X862377Y27413D01*
Y31312D01*
X862377Y31637D01*
X862377Y32137D01*
Y36036D01*
X862377Y36362D01*
X862377Y36862D01*
Y39117D01*
X862877Y39426D01*
X863119Y39378D01*
X874121D01*
X874121Y39378D01*
X874551Y39464D01*
X874914Y39707D01*
X875572Y40364D01*
X877486D01*
X877486Y40364D01*
X877915Y40450D01*
X878279Y40693D01*
X880098Y42512D01*
X880577Y42367D01*
X880645Y42024D01*
X881198Y41198D01*
X882025Y40645D01*
X882500Y40551D01*
Y43000D01*
X883000D01*
Y43500D01*
X885450D01*
X885355Y43975D01*
X885004Y44501D01*
X885271Y45001D01*
X888233D01*
X888558Y45001D01*
X889058Y45001D01*
X892957D01*
X893283Y45001D01*
X893783Y45001D01*
X897882D01*
Y44701D01*
X899957D01*
Y48654D01*
Y52606D01*
X897882D01*
Y52306D01*
X893783D01*
X893458Y52306D01*
X892957Y52306D01*
X889058D01*
X888733Y52306D01*
X888233Y52306D01*
X885046D01*
X884854Y52768D01*
X888326Y56240D01*
X889046Y55941D01*
X890000Y55816D01*
X890954Y55941D01*
X891842Y56309D01*
X892605Y56895D01*
X893191Y57658D01*
X893559Y58546D01*
X893684Y59500D01*
X893559Y60454D01*
X893191Y61342D01*
X892605Y62105D01*
X891842Y62691D01*
X890954Y63059D01*
X890000Y63184D01*
X889046Y63059D01*
X888158Y62691D01*
X887395Y62105D01*
X886809Y61342D01*
X886441Y60454D01*
X886316Y59500D01*
X886441Y58546D01*
X886740Y57826D01*
X881220Y52306D01*
X879284D01*
Y52306D01*
X879109D01*
X878878Y52710D01*
X878854Y52768D01*
X880793Y54707D01*
X880793Y54707D01*
X881036Y55071D01*
X881122Y55500D01*
Y56011D01*
X881842Y56309D01*
X882605Y56895D01*
X883191Y57658D01*
X883559Y58546D01*
X883684Y59500D01*
X883559Y60454D01*
X883191Y61342D01*
X882605Y62105D01*
X881842Y62691D01*
X880954Y63059D01*
X880000Y63184D01*
X879046Y63059D01*
X878158Y62691D01*
X877395Y62105D01*
X876809Y61342D01*
X876441Y60454D01*
X876316Y59500D01*
X876441Y58546D01*
X876809Y57658D01*
X877395Y56895D01*
X878158Y56309D01*
X878411Y56204D01*
X878528Y55615D01*
X876042Y53128D01*
X875799Y52764D01*
X875713Y52335D01*
X875237Y52306D01*
X874560D01*
Y52306D01*
X874385D01*
Y52306D01*
X869961D01*
Y52606D01*
X867886D01*
Y48653D01*
X866886D01*
Y52606D01*
X864811D01*
Y50029D01*
X864370Y49793D01*
X864202Y49905D01*
X863727Y49999D01*
Y47550D01*
X862727D01*
Y49999D01*
X862251Y49905D01*
X862202Y49872D01*
X861666Y50115D01*
X861586Y50721D01*
X861168Y51731D01*
X860766Y52254D01*
X861013Y52754D01*
X863297D01*
X863960Y52886D01*
X864523Y53262D01*
X865878Y54617D01*
X866254Y55180D01*
X866386Y55843D01*
Y56936D01*
X866613Y57140D01*
X867252Y57081D01*
X867395Y56895D01*
X868158Y56309D01*
X869046Y55941D01*
X870000Y55816D01*
X870954Y55941D01*
X871842Y56309D01*
X872605Y56895D01*
X873191Y57658D01*
X873559Y58546D01*
X873684Y59500D01*
X873559Y60454D01*
X873191Y61342D01*
X872605Y62105D01*
X871842Y62691D01*
X870954Y63059D01*
X870000Y63184D01*
X869046Y63059D01*
X868158Y62691D01*
X867395Y62105D01*
X866809Y61342D01*
X866764Y61233D01*
X866000D01*
X866000Y61233D01*
X865500Y61134D01*
X865088Y61380D01*
X865000Y61478D01*
Y65000D01*
X915000D01*
Y0D01*
D02*
G37*
G36*
X-13500Y46525D02*
X-13900Y46534D01*
X-15098Y46421D01*
X-16482Y46001D01*
X-17758Y45319D01*
X-18876Y44402D01*
X-19794Y43284D01*
X-20475Y42008D01*
X-20895Y40624D01*
X-21008Y39426D01*
X-21000Y39025D01*
X-20984Y38312D01*
X-20452Y36243D01*
X-19740Y34911D01*
X-18782Y33743D01*
X-17614Y32785D01*
X-16282Y32073D01*
X-14213Y31541D01*
X-13500Y31525D01*
Y31525D01*
X-13500Y21525D01*
X-14607Y21539D01*
X-17881Y22091D01*
X-20080Y22837D01*
X-22162Y23864D01*
X-24093Y25155D01*
X-25839Y26686D01*
X-27370Y28432D01*
X-28661Y30363D01*
X-29688Y32445D01*
X-30434Y34644D01*
X-30986Y37918D01*
X-31000Y39025D01*
X-30986Y40132D01*
X-30434Y43406D01*
X-29688Y45605D01*
X-28660Y47688D01*
X-27370Y49619D01*
X-25839Y51365D01*
X-24093Y52896D01*
X-22162Y54186D01*
X-20079Y55213D01*
X-17880Y55960D01*
X-14607Y56512D01*
X-13500Y56525D01*
Y46525D01*
D02*
G37*
G36*
X825000Y61220D02*
X819410D01*
Y57961D01*
X818827Y57377D01*
X809972D01*
Y58531D01*
X805028D01*
Y53981D01*
X809972D01*
Y55134D01*
X819291D01*
X819291Y55134D01*
X819721Y55220D01*
X820084Y55463D01*
X821882Y57261D01*
X825000D01*
Y53739D01*
X819410D01*
Y53493D01*
X815504D01*
X814841Y53361D01*
X814346Y53031D01*
X812028D01*
Y48481D01*
X816972D01*
Y50027D01*
X819410D01*
Y49780D01*
X820542D01*
Y48641D01*
X820203Y48134D01*
X820033Y47276D01*
X820203Y46417D01*
X820689Y45689D01*
X821417Y45203D01*
X822276Y45033D01*
X823134Y45203D01*
X823862Y45689D01*
X824348Y46417D01*
X824500Y47182D01*
X825000Y47132D01*
Y42500D01*
X831681D01*
Y42228D01*
X833756D01*
Y45000D01*
X834256D01*
Y45500D01*
X836831D01*
Y47772D01*
X835000D01*
Y55000D01*
X852077D01*
X852268Y54538D01*
X849954Y52224D01*
X849621Y51893D01*
Y51893D01*
X849621Y51893D01*
X845859D01*
Y45965D01*
X849621D01*
Y47297D01*
X849774Y47328D01*
X850336Y47703D01*
X852942Y50309D01*
X853289Y50138D01*
X857543D01*
Y49138D01*
X853424D01*
X853500Y48555D01*
X853751Y47949D01*
X853447Y47378D01*
X853239Y47337D01*
X852594Y46906D01*
X852163Y46261D01*
X852012Y45500D01*
X852163Y44739D01*
X852594Y44094D01*
X853143Y43727D01*
X853302Y43180D01*
X851518Y41395D01*
X851406Y41406D01*
X850761Y41837D01*
X850000Y41988D01*
X849239Y41837D01*
X848594Y41406D01*
X848163Y40761D01*
X848012Y40000D01*
X848163Y39239D01*
X848594Y38594D01*
X849239Y38163D01*
X849624Y38087D01*
X849788Y37544D01*
X848366Y36122D01*
X840599D01*
X840456Y36471D01*
X840424Y36622D01*
X840837Y37239D01*
X840988Y38000D01*
X840921Y38335D01*
X841535Y38949D01*
X842119D01*
Y37107D01*
X845881D01*
Y43035D01*
X842119D01*
Y41192D01*
X841071D01*
X841071Y41192D01*
X840642Y41107D01*
X840278Y40864D01*
X840278Y40864D01*
X839335Y39922D01*
X839000Y39988D01*
X838239Y39837D01*
X837594Y39406D01*
X837404Y39122D01*
X815586D01*
X812500Y42207D01*
X812691Y42669D01*
X814000D01*
Y44744D01*
X811728D01*
Y43632D01*
X811266Y43441D01*
X809414Y45293D01*
X809050Y45536D01*
X808621Y45622D01*
X808621Y45622D01*
X805099D01*
X804956Y45971D01*
X804924Y46122D01*
X805337Y46739D01*
X805488Y47500D01*
X805432Y47783D01*
X805749Y48169D01*
X807000D01*
Y50244D01*
X804728D01*
Y49555D01*
X804337Y49346D01*
X804228Y49343D01*
X803500Y49488D01*
X802739Y49337D01*
X802094Y48906D01*
X801904Y48622D01*
X792500D01*
Y65000D01*
X825000D01*
Y61220D01*
D02*
G37*
G36*
X84000Y46025D02*
X83600Y46034D01*
X82402Y45921D01*
X81018Y45501D01*
X79742Y44819D01*
X78624Y43902D01*
X77706Y42784D01*
X77025Y41508D01*
X76605Y40124D01*
X76492Y38926D01*
X76500Y38525D01*
X76516Y37812D01*
X77048Y35743D01*
X77760Y34411D01*
X78718Y33243D01*
X79886Y32285D01*
X81218Y31573D01*
X83287Y31041D01*
X84000Y31025D01*
Y31025D01*
X84000Y21025D01*
X82893Y21039D01*
X79619Y21591D01*
X77420Y22337D01*
X75338Y23364D01*
X73407Y24655D01*
X71661Y26186D01*
X70130Y27932D01*
X68840Y29863D01*
X67812Y31945D01*
X67066Y34144D01*
X66514Y37418D01*
X66500Y38525D01*
X66514Y39632D01*
X67066Y42906D01*
X67812Y45105D01*
X68840Y47188D01*
X70130Y49119D01*
X71661Y50865D01*
X73407Y52396D01*
X75338Y53686D01*
X77421Y54713D01*
X79620Y55460D01*
X82893Y56012D01*
X84000Y56025D01*
Y46025D01*
D02*
G37*
%LPC*%
G36*
X859500Y63453D02*
X856047D01*
Y60000D01*
X859500D01*
Y63453D01*
D02*
G37*
G36*
X834890Y61520D02*
X832224D01*
Y59740D01*
X834890D01*
Y61520D01*
D02*
G37*
G36*
X899500Y63421D02*
X898968Y63351D01*
X898007Y62953D01*
X897181Y62319D01*
X896547Y61493D01*
X896149Y60532D01*
X896079Y60000D01*
X899500D01*
Y63421D01*
D02*
G37*
G36*
X909000Y64331D02*
X906728D01*
Y62453D01*
X909000D01*
Y64331D01*
D02*
G37*
G36*
X900500Y63421D02*
Y60000D01*
X903921D01*
X903851Y60532D01*
X903453Y61493D01*
X902819Y62319D01*
X901993Y62953D01*
X901032Y63351D01*
X900500Y63421D01*
D02*
G37*
G36*
X831224Y61520D02*
X828559D01*
Y59740D01*
X831224D01*
Y61520D01*
D02*
G37*
G36*
X828400Y3691D02*
X826325D01*
Y2010D01*
X828400D01*
Y3691D01*
D02*
G37*
G36*
X903032Y4846D02*
X900957D01*
Y1394D01*
X903032D01*
Y4846D01*
D02*
G37*
G36*
X831475Y3691D02*
X829400D01*
Y2010D01*
X831475D01*
Y3691D01*
D02*
G37*
G36*
X912272Y61453D02*
X910000D01*
Y59575D01*
X912272D01*
Y61453D01*
D02*
G37*
G36*
X909000D02*
X906728D01*
Y59575D01*
X909000D01*
Y61453D01*
D02*
G37*
G36*
X912272Y64331D02*
X910000D01*
Y62453D01*
X912272D01*
Y64331D01*
D02*
G37*
G36*
X815480Y5260D02*
X812126D01*
Y3579D01*
X815480D01*
Y5260D01*
D02*
G37*
G36*
X857043Y8482D02*
X856460Y8405D01*
X855451Y7987D01*
X854584Y7322D01*
X853919Y6455D01*
X853500Y5446D01*
X853424Y4862D01*
X857043D01*
Y8482D01*
D02*
G37*
G36*
X835400Y3891D02*
X833325D01*
Y2210D01*
X835400D01*
Y3891D01*
D02*
G37*
G36*
X811126Y5260D02*
X807772D01*
Y3579D01*
X811126D01*
Y5260D01*
D02*
G37*
G36*
X838475Y3891D02*
X836400D01*
Y2210D01*
X838475D01*
Y3891D01*
D02*
G37*
G36*
X824575Y3791D02*
X822500D01*
Y2110D01*
X824575D01*
Y3791D01*
D02*
G37*
G36*
X811126Y7941D02*
X807772D01*
Y6260D01*
X811126D01*
Y7941D01*
D02*
G37*
G36*
X815480D02*
X812126D01*
Y6260D01*
X815480D01*
Y7941D01*
D02*
G37*
G36*
X903032Y9299D02*
X900957D01*
Y5847D01*
X903032D01*
Y9299D01*
D02*
G37*
G36*
X821500Y3791D02*
X819425D01*
Y2110D01*
X821500D01*
Y3791D01*
D02*
G37*
G36*
X858043Y8482D02*
Y4862D01*
X861663D01*
X861586Y5446D01*
X861168Y6455D01*
X860503Y7322D01*
X859636Y7987D01*
X858627Y8405D01*
X858043Y8482D01*
D02*
G37*
G36*
X867500Y20449D02*
X867025Y20355D01*
X866198Y19802D01*
X865645Y18975D01*
X865551Y18500D01*
X867500D01*
Y20449D01*
D02*
G37*
G36*
X868500D02*
Y18500D01*
X870450D01*
X870355Y18975D01*
X869802Y19802D01*
X868975Y20355D01*
X868500Y20449D01*
D02*
G37*
G36*
X817272Y47819D02*
X815000D01*
Y45744D01*
X817272D01*
Y47819D01*
D02*
G37*
G36*
X839760Y52193D02*
X838079D01*
Y49429D01*
X839760D01*
Y52193D01*
D02*
G37*
G36*
X903032Y52606D02*
X900957D01*
Y49154D01*
X903032D01*
Y52606D01*
D02*
G37*
G36*
X810272Y50244D02*
X808000D01*
Y48169D01*
X810272D01*
Y50244D01*
D02*
G37*
G36*
X814000Y47819D02*
X811728D01*
Y45744D01*
X814000D01*
Y47819D01*
D02*
G37*
G36*
X885450Y42500D02*
X883500D01*
Y40551D01*
X883975Y40645D01*
X884802Y41198D01*
X885355Y42024D01*
X885450Y42500D01*
D02*
G37*
G36*
X836831Y44500D02*
X834756D01*
Y42228D01*
X836831D01*
Y44500D01*
D02*
G37*
G36*
X817272Y44744D02*
X815000D01*
Y42669D01*
X817272D01*
Y44744D01*
D02*
G37*
G36*
X842441Y48429D02*
X840760D01*
Y45665D01*
X842441D01*
Y48429D01*
D02*
G37*
G36*
X839760D02*
X838079D01*
Y45665D01*
X839760D01*
Y48429D01*
D02*
G37*
G36*
X903032Y48153D02*
X900957D01*
Y44701D01*
X903032D01*
Y48153D01*
D02*
G37*
G36*
X897000Y13243D02*
X896142Y13072D01*
X895414Y12586D01*
X894969Y11920D01*
X894507Y11458D01*
X894131Y10896D01*
X893999Y10232D01*
Y9353D01*
X893645Y8999D01*
X893458D01*
X892957Y8999D01*
X889058D01*
X888733Y8999D01*
X888233Y8999D01*
X884334D01*
X884009Y8999D01*
X883509Y8999D01*
X879609D01*
X879284Y8999D01*
X878784Y8999D01*
X874885D01*
X874560Y8999D01*
X874060Y8999D01*
X873210D01*
X873147Y9319D01*
X872903Y9683D01*
X872903Y9683D01*
X871922Y10665D01*
X871988Y11000D01*
X871837Y11761D01*
X871406Y12406D01*
X870761Y12837D01*
X870000Y12988D01*
X869239Y12837D01*
X868594Y12406D01*
X868163Y11761D01*
X868012Y11000D01*
X868163Y10239D01*
X868594Y9594D01*
X868736Y9499D01*
X868585Y8999D01*
X865111D01*
Y1694D01*
X869335D01*
X869661Y1694D01*
X870161Y1694D01*
X874060D01*
X874385Y1694D01*
X874885Y1694D01*
X878784D01*
X879109Y1694D01*
X879609Y1694D01*
X883509D01*
X883834Y1694D01*
X884334Y1694D01*
X888233D01*
X888558Y1694D01*
X889058Y1694D01*
X892957D01*
X893283Y1694D01*
X893783Y1694D01*
X897882D01*
Y1394D01*
X899957D01*
Y5347D01*
Y9299D01*
X899111D01*
X898844Y9799D01*
X899072Y10142D01*
X899243Y11000D01*
X899072Y11858D01*
X898586Y12586D01*
X897858Y13072D01*
X897000Y13243D01*
D02*
G37*
G36*
X807000Y53319D02*
X804728D01*
Y51244D01*
X807000D01*
Y53319D01*
D02*
G37*
G36*
X887500Y16000D02*
X885550D01*
X885645Y15525D01*
X886198Y14698D01*
X887025Y14145D01*
X887500Y14051D01*
Y16000D01*
D02*
G37*
G36*
X903921Y59000D02*
X900500D01*
Y55579D01*
X901032Y55649D01*
X901993Y56047D01*
X902819Y56681D01*
X903453Y57507D01*
X903851Y58468D01*
X903921Y59000D01*
D02*
G37*
G36*
X899500D02*
X896079D01*
X896149Y58468D01*
X896547Y57507D01*
X897181Y56681D01*
X898007Y56047D01*
X898968Y55649D01*
X899500Y55579D01*
Y59000D01*
D02*
G37*
G36*
X810272Y53319D02*
X808000D01*
Y51244D01*
X810272D01*
Y53319D01*
D02*
G37*
G36*
X890450Y16000D02*
X888500D01*
Y14051D01*
X888975Y14145D01*
X889802Y14698D01*
X890355Y15525D01*
X890450Y16000D01*
D02*
G37*
G36*
X887500Y18949D02*
X887025Y18855D01*
X886198Y18302D01*
X885645Y17476D01*
X885550Y17000D01*
X887500D01*
Y18949D01*
D02*
G37*
G36*
X888500D02*
Y17000D01*
X890450D01*
X890355Y17476D01*
X889802Y18302D01*
X888975Y18855D01*
X888500Y18949D01*
D02*
G37*
G36*
X842441Y52193D02*
X840760D01*
Y49429D01*
X842441D01*
Y52193D01*
D02*
G37*
G36*
X911972Y58125D02*
X907028D01*
Y53969D01*
X907535D01*
X907802Y53469D01*
X907663Y53261D01*
X907512Y52500D01*
X907663Y51739D01*
X908094Y51094D01*
X908739Y50663D01*
X909500Y50512D01*
X910261Y50663D01*
X910906Y51094D01*
X911337Y51739D01*
X911488Y52500D01*
X911337Y53261D01*
X911197Y53469D01*
X911465Y53969D01*
X911972D01*
Y58125D01*
D02*
G37*
G36*
X867500Y17500D02*
X865551D01*
X865645Y17025D01*
X866198Y16198D01*
X867025Y15645D01*
X867500Y15551D01*
Y17500D01*
D02*
G37*
G36*
X870450D02*
X868500D01*
Y15551D01*
X868975Y15645D01*
X869802Y16198D01*
X870355Y17025D01*
X870450Y17500D01*
D02*
G37*
%LPD*%
D10*
X411500Y38500D02*
D03*
Y26000D02*
D03*
Y13500D02*
D03*
X411493Y50951D02*
D03*
X211500Y38500D02*
D03*
Y26000D02*
D03*
Y13500D02*
D03*
X211493Y50951D02*
D03*
X111493Y50951D02*
D03*
X111500Y13500D02*
D03*
Y26000D02*
D03*
Y38500D02*
D03*
X311500D02*
D03*
Y26000D02*
D03*
Y13500D02*
D03*
X311493Y50951D02*
D03*
X611500Y38500D02*
D03*
Y26000D02*
D03*
Y13500D02*
D03*
X611493Y50951D02*
D03*
X511493D02*
D03*
X511500Y13500D02*
D03*
Y26000D02*
D03*
Y38500D02*
D03*
X14000Y39000D02*
D03*
Y26500D02*
D03*
Y14000D02*
D03*
X13993Y51451D02*
D03*
D11*
X844000Y40071D02*
D03*
X840260Y48929D02*
D03*
X847740D02*
D03*
D12*
X828744Y45000D02*
D03*
X834256D02*
D03*
X781844Y11300D02*
D03*
X787356D02*
D03*
D13*
X822276Y51760D02*
D03*
Y59240D02*
D03*
X831724D02*
D03*
Y55500D02*
D03*
Y51760D02*
D03*
D14*
X814500Y50756D02*
D03*
Y45244D02*
D03*
X807500Y56256D02*
D03*
Y50744D02*
D03*
D15*
X828900Y4191D02*
D03*
Y9900D02*
D03*
X835900Y4391D02*
D03*
Y10100D02*
D03*
X822000Y4291D02*
D03*
Y10000D02*
D03*
D16*
X829000Y21998D02*
D03*
Y16093D02*
D03*
X835800Y22098D02*
D03*
Y16193D02*
D03*
X909500Y61953D02*
D03*
Y56047D02*
D03*
X822000Y21998D02*
D03*
Y16093D02*
D03*
D17*
X811626Y5760D02*
D03*
Y13240D02*
D03*
X802374Y9500D02*
D03*
D18*
X858724Y34087D02*
D03*
Y38811D02*
D03*
Y29362D02*
D03*
Y24638D02*
D03*
Y19914D02*
D03*
Y15189D02*
D03*
D19*
X872110Y5347D02*
D03*
X867386D02*
D03*
X876835D02*
D03*
X881559D02*
D03*
X886283D02*
D03*
X891008D02*
D03*
X895732D02*
D03*
X900457D02*
D03*
Y48654D02*
D03*
X895732D02*
D03*
X891008D02*
D03*
X886283D02*
D03*
X881559D02*
D03*
X876835D02*
D03*
X867386D02*
D03*
X872110D02*
D03*
D20*
X857543Y49638D02*
D03*
Y4362D02*
D03*
D21*
X770154Y17500D02*
D03*
Y20059D02*
D03*
Y22618D02*
D03*
Y25177D02*
D03*
Y27736D02*
D03*
Y30295D02*
D03*
Y32854D02*
D03*
Y35413D02*
D03*
Y37973D02*
D03*
Y40532D02*
D03*
X798500D02*
D03*
Y37973D02*
D03*
Y35413D02*
D03*
Y32854D02*
D03*
Y30295D02*
D03*
Y27736D02*
D03*
Y25177D02*
D03*
Y22618D02*
D03*
Y20059D02*
D03*
Y17500D02*
D03*
D22*
X848000Y20000D02*
X848086Y19914D01*
X858724D01*
X870000Y11000D02*
X872110Y8890D01*
Y5347D02*
Y8890D01*
X857543Y49638D02*
Y50431D01*
X859500Y52387D01*
X864167D01*
X865779Y54000D01*
X868500D01*
Y51500D02*
Y54000D01*
X867386Y50386D02*
X868500Y51500D01*
X867386Y48654D02*
Y50386D01*
X872110Y46111D02*
Y48654D01*
X870500Y44501D02*
X872110Y46111D01*
X855499Y44501D02*
X870500D01*
X854500Y45500D02*
X855499Y44501D01*
X851709Y40000D02*
X854695Y42986D01*
X862133Y41486D02*
X863119Y40500D01*
X848830Y35000D02*
X855316Y41486D01*
X863119Y40500D02*
X874121D01*
X863740Y42000D02*
X873500D01*
X862754Y42986D02*
X863740Y42000D01*
X854695Y42986D02*
X862754D01*
X855316Y41486D02*
X862133D01*
X875107D02*
X877486D01*
X874121Y40500D02*
X875107Y41486D01*
X873500Y42000D02*
X876835Y45335D01*
X877486Y41486D02*
X881559Y45559D01*
X854811Y38811D02*
X858724D01*
X838098Y22098D02*
X854811Y38811D01*
X835800Y22098D02*
X838098D01*
X816000Y35000D02*
X848830D01*
X850000Y40000D02*
X851709D01*
X854689Y15189D02*
X858724D01*
X847119Y7619D02*
X854689Y15189D01*
X820070Y7619D02*
X847119D01*
X839000Y19500D02*
X848000Y28500D01*
X850000D01*
X819793Y19500D02*
X839000D01*
X798500Y16500D02*
X799000Y17000D01*
X835800Y10200D02*
Y16193D01*
X822000Y10000D02*
Y16093D01*
X829000Y10000D02*
Y16093D01*
X880000Y55500D02*
Y59500D01*
X876835Y52335D02*
X880000Y55500D01*
X876835Y48654D02*
Y52335D01*
X881559Y51059D02*
X890000Y59500D01*
X881559Y48654D02*
Y51059D01*
X909500Y52500D02*
Y56047D01*
X811626Y13240D02*
Y16874D01*
X811500Y17000D02*
X811626Y16874D01*
X770154Y40532D02*
X774122Y44500D01*
X798527Y38000D02*
X806500D01*
X810000Y34500D01*
X881559Y45559D02*
Y48654D01*
X876835Y45335D02*
Y48654D01*
X799073Y39958D02*
X800115Y41000D01*
X806823D01*
X798618Y22500D02*
X816793D01*
X819793Y19500D01*
X819325Y8363D02*
X820070Y7619D01*
X819325Y8363D02*
Y12498D01*
X812338Y19486D02*
X819325Y12498D01*
X799073Y19486D02*
X812338D01*
X798500Y20059D02*
X799073Y19486D01*
X819416Y21998D02*
X822000D01*
X817414Y24000D02*
X819416Y21998D01*
X809500Y24000D02*
X817414D01*
X808500Y25000D02*
X809500Y24000D01*
X770154Y35413D02*
X777587D01*
X808483Y42517D02*
X816000Y35000D01*
X841071Y40071D02*
X844000D01*
X839000Y38000D02*
X841071Y40071D01*
X815323Y32500D02*
X842500D01*
X806823Y41000D02*
X815323Y32500D01*
X808621Y44500D02*
X815121Y38000D01*
X839000D01*
X770154Y20059D02*
Y20632D01*
X774122Y44500D02*
X808621D01*
X807500Y56256D02*
X819291D01*
X822276Y59240D01*
X829000Y24000D02*
X832500Y27500D01*
X829000Y21998D02*
Y24000D01*
X770154Y37973D02*
X774473D01*
X779017Y42517D01*
X808483D01*
X770331Y25000D02*
X770727Y24604D01*
X782396D01*
X782173Y40000D02*
X792500D01*
X777587Y35413D02*
X782173Y40000D01*
X792000Y47500D02*
X803500D01*
X779000Y60500D02*
X792000Y47500D01*
X798500Y25177D02*
X799073Y25750D01*
X802400D01*
X804500Y27850D01*
Y34000D01*
X797927Y27163D02*
X798500Y27736D01*
X794599Y27163D02*
X797927D01*
X793000Y25563D02*
X794599Y27163D01*
X793000Y17500D02*
Y25563D01*
X793795Y30295D02*
X798500D01*
X790000Y26500D02*
X793795Y30295D01*
X791354Y32854D02*
X798500D01*
X789000Y30500D02*
X791354Y32854D01*
X787913Y35413D02*
X798500D01*
X787000Y34500D02*
X787913Y35413D01*
X793500Y13000D02*
Y13500D01*
X782396Y24604D02*
X793500Y13500D01*
X769580Y33427D02*
X770154Y32854D01*
X759382Y22618D02*
X770154D01*
X759246Y20632D02*
X770154D01*
Y27650D02*
Y27736D01*
X770271Y52431D02*
X772069Y54229D01*
Y55500D01*
X774000D01*
X765431Y52431D02*
X770271D01*
X754000Y45500D02*
X769000Y60500D01*
X754000Y25879D02*
X759246Y20632D01*
X755500Y42500D02*
X765431Y52431D01*
X755500Y26500D02*
X759382Y22618D01*
X754000Y25879D02*
Y45500D01*
X755500Y26500D02*
Y42500D01*
X765609Y34072D02*
X766253Y33427D01*
X769580D01*
X763000Y44000D02*
X765609Y41391D01*
Y34072D02*
Y41391D01*
X758500Y32500D02*
X760705Y30295D01*
X758500Y32500D02*
Y41000D01*
X760705Y30295D02*
X770154D01*
X758264Y27736D02*
X770154D01*
X758000Y28000D02*
X758264Y27736D01*
X736000Y61000D02*
X749000Y48000D01*
X273500Y61000D02*
X736000D01*
X261500Y49000D02*
X273500Y61000D01*
X261500Y37500D02*
Y49000D01*
X254500Y30500D02*
X261500Y37500D01*
X363500Y2500D02*
X778000D01*
X351000Y15000D02*
X363500Y2500D01*
X549500Y14500D02*
X557500Y6500D01*
X773000D01*
X774000Y7500D01*
D23*
X857543Y4362D02*
X868000Y14819D01*
Y18000D01*
X845855Y44965D02*
X849625D01*
X854669Y54488D02*
X863297D01*
X849111Y48929D02*
X854669Y54488D01*
X850621Y46621D02*
X853638Y49638D01*
X850621Y45961D02*
Y46621D01*
X849625Y44965D02*
X850621Y45961D01*
X847740Y48929D02*
X849111D01*
X853638Y49638D02*
X857543D01*
X863297Y54488D02*
X864653Y55843D01*
Y58153D01*
X858862Y49638D02*
X860950Y47550D01*
X863227D01*
X771000Y16653D02*
X776353Y11300D01*
X779200D01*
X838729Y4362D02*
X857543D01*
X779200Y11300D02*
X784740Y5760D01*
X771000Y16653D02*
Y17000D01*
X764500Y15000D02*
X769000D01*
X771000Y17000D01*
X799000D02*
X802374Y13626D01*
Y9500D02*
Y13626D01*
X815126Y5760D02*
X816494Y4391D01*
X837200D01*
X784740Y5760D02*
X811626D01*
X815126D01*
X900457Y48654D02*
Y59043D01*
X900000Y59500D02*
X900457Y59043D01*
X895732Y5347D02*
Y10232D01*
X896500Y11000D01*
X897000D01*
X900457Y5347D02*
Y14543D01*
X898500Y16500D02*
X900457Y14543D01*
X888000Y16500D02*
X898500D01*
X857543Y49638D02*
X858862D01*
X831984Y59500D02*
X860000D01*
X831724Y59240D02*
X831984Y59500D01*
X827859Y53516D02*
Y57484D01*
Y53516D02*
X829615Y51760D01*
X827859Y57484D02*
X829615Y59240D01*
X831724D01*
Y55500D02*
X832485Y54739D01*
X834594D01*
X834256Y45000D02*
X837000Y47744D01*
X834594Y54739D02*
X837000Y52333D01*
X837071Y48929D02*
X840260D01*
X837000Y49000D02*
X837071Y48929D01*
X837000Y47744D02*
Y49000D01*
Y52333D01*
X828744Y45000D02*
Y50888D01*
X829615Y51760D01*
X822276Y47276D02*
Y51760D01*
X900000Y59500D02*
X902000D01*
X904453Y61953D01*
X909500D01*
X899007Y48654D02*
X900457D01*
X884001Y44001D02*
X899007D01*
X883000Y43000D02*
X884001Y44001D01*
X899007D02*
Y48654D01*
X840260Y48929D02*
X844859D01*
Y45961D02*
Y48929D01*
Y45961D02*
X845855Y44965D01*
X866000Y59500D02*
X870000D01*
X864653Y58153D02*
X866000Y59500D01*
X834256Y44756D02*
Y45000D01*
X831000Y41500D02*
X834256Y44756D01*
X818005Y41500D02*
X831000D01*
X811028Y48477D02*
Y48716D01*
X809000Y50744D02*
X811028Y48716D01*
X807500Y50744D02*
X809000D01*
X811028Y48477D02*
X818005Y41500D01*
X815504Y51760D02*
X822276D01*
X787356Y11300D02*
X788656Y10000D01*
X794672D02*
X798500Y13828D01*
X788656Y10000D02*
X794672D01*
X798500Y13828D02*
Y16500D01*
X59000Y38000D02*
X67500D01*
X57500Y39500D02*
X59000Y38000D01*
X155500D02*
X168500D01*
X155000Y38500D02*
X155500Y38000D01*
D24*
X854000Y45500D02*
X854500D01*
D25*
X848000Y20000D02*
D03*
Y14000D02*
D03*
X769000Y55500D02*
D03*
Y60500D02*
D03*
X774000Y55500D02*
D03*
Y60500D02*
D03*
X779000Y55500D02*
D03*
D26*
X384000Y51036D02*
D03*
X438863Y50977D02*
D03*
X439000Y38487D02*
D03*
X384000Y26013D02*
D03*
X384000Y38500D02*
D03*
X439000Y26000D02*
D03*
X439000Y13464D02*
D03*
X384000Y13488D02*
D03*
X184001Y51036D02*
D03*
X238863Y50977D02*
D03*
X239000Y38487D02*
D03*
X184000Y26013D02*
D03*
X184000Y38500D02*
D03*
X239000Y26000D02*
D03*
X239000Y13464D02*
D03*
X184000Y13488D02*
D03*
X84000Y13488D02*
D03*
X138999Y13464D02*
D03*
X139000Y26000D02*
D03*
X84000Y38500D02*
D03*
X84000Y26013D02*
D03*
X139000Y38487D02*
D03*
X138864Y50977D02*
D03*
X84000Y51036D02*
D03*
X284000D02*
D03*
X338863Y50977D02*
D03*
X339000Y38487D02*
D03*
X284000Y26013D02*
D03*
X284000Y38500D02*
D03*
X339000Y26000D02*
D03*
X339000Y13464D02*
D03*
X284000Y13488D02*
D03*
X584000Y51036D02*
D03*
X638864Y50977D02*
D03*
X639000Y38487D02*
D03*
X584000Y26013D02*
D03*
X584000Y38500D02*
D03*
X639000Y26000D02*
D03*
X639000Y13464D02*
D03*
X584000Y13488D02*
D03*
X484000D02*
D03*
X539000Y13464D02*
D03*
X539000Y26000D02*
D03*
X484000Y38500D02*
D03*
X484000Y26013D02*
D03*
X539000Y38487D02*
D03*
X538864Y50977D02*
D03*
X484000Y51036D02*
D03*
X-13499Y51536D02*
D03*
X41363Y51477D02*
D03*
X41500Y38987D02*
D03*
X-13500Y26513D02*
D03*
X-13500Y39000D02*
D03*
X41500Y26500D02*
D03*
X41500Y13964D02*
D03*
X-13500Y13988D02*
D03*
X868000Y18000D02*
D03*
X863227Y47550D02*
D03*
X764500Y15000D02*
D03*
X802374Y13626D02*
D03*
X897000Y11000D02*
D03*
X888000Y16500D02*
D03*
X822276Y47276D02*
D03*
X883000Y43000D02*
D03*
D27*
X779000Y60500D02*
D03*
D28*
X860000Y59500D02*
D03*
D29*
X870000D02*
D03*
X880000D02*
D03*
X890000D02*
D03*
X900000D02*
D03*
D30*
X870000Y11000D02*
D03*
X854000Y45500D02*
D03*
X850000Y28500D02*
D03*
X909500Y52500D02*
D03*
X811500Y17000D02*
D03*
X810000Y34500D02*
D03*
X850000Y40000D02*
D03*
X808500Y25000D02*
D03*
X839000Y38000D02*
D03*
X842500Y32500D02*
D03*
X832500Y27500D02*
D03*
X792500Y40000D02*
D03*
X803500Y47500D02*
D03*
X804500Y34000D02*
D03*
X793000Y17500D02*
D03*
X790000Y26500D02*
D03*
X789000Y30500D02*
D03*
X787000Y34500D02*
D03*
X793500Y13000D02*
D03*
X763000Y44000D02*
D03*
X758500Y41000D02*
D03*
X758000Y28000D02*
D03*
X749000Y48000D02*
D03*
X778000Y2500D02*
D03*
X774000Y7500D02*
D03*
M02*
