%FSLAX44Y44*%
%MOMM*%
G71*
G01*
G75*
%ADD10O,2.0320X0.3302*%
%ADD11R,0.8000X0.8000*%
%ADD12R,0.9144X0.9144*%
%ADD13R,1.2700X0.9144*%
%ADD14R,0.5600X0.8200*%
%ADD15C,0.2540*%
%ADD16C,0.5000*%
%ADD17C,0.3000*%
%ADD18C,0.2286*%
%ADD19C,2.2000*%
%ADD20O,1.1000X1.3000*%
%ADD21C,1.3000*%
%ADD22O,2.3000X1.3000*%
%ADD23O,3.2000X1.4000*%
%ADD24C,0.9000*%
%ADD25C,1.8000*%
%ADD26O,2.0000X1.6000*%
%ADD27O,4.0000X1.6000*%
%ADD28C,0.6000*%
D10*
X2472876Y2262796D02*
D03*
Y2223796D02*
D03*
Y2243296D02*
D03*
Y2275796D02*
D03*
Y2256296D02*
D03*
Y2269296D02*
D03*
X2406996Y2191296D02*
D03*
Y2230296D02*
D03*
Y2223796D02*
D03*
X2472876Y2197796D02*
D03*
Y2204296D02*
D03*
X2406996Y2256296D02*
D03*
Y2236796D02*
D03*
Y2217296D02*
D03*
Y2210796D02*
D03*
Y2204296D02*
D03*
Y2197796D02*
D03*
X2472876Y2230296D02*
D03*
Y2236796D02*
D03*
Y2249796D02*
D03*
Y2191296D02*
D03*
Y2217296D02*
D03*
X2406996Y2275796D02*
D03*
Y2269296D02*
D03*
Y2243296D02*
D03*
Y2262796D02*
D03*
Y2249796D02*
D03*
X2472876Y2210796D02*
D03*
D11*
X2524471Y2186451D02*
D03*
Y2169951D02*
D03*
X2631151D02*
D03*
Y2186451D02*
D03*
X2357471Y2293771D02*
D03*
Y2272181D02*
D03*
Y2250591D02*
D03*
Y2336951D02*
D03*
Y2229001D02*
D03*
X2524471Y2258851D02*
D03*
X2357471Y2315361D02*
D03*
X2297771Y2275991D02*
D03*
X2653381D02*
D03*
X2357471Y2207411D02*
D03*
X2281271Y2275991D02*
D03*
X2524471Y2208051D02*
D03*
X2504151Y2224551D02*
D03*
X2357471Y2185821D02*
D03*
X2504151Y2258851D02*
D03*
Y2186451D02*
D03*
Y2208051D02*
D03*
X2373972Y2272181D02*
D03*
Y2250591D02*
D03*
X2504151Y2169951D02*
D03*
X2631151Y2224551D02*
D03*
X2669882Y2275991D02*
D03*
X2373972Y2207411D02*
D03*
Y2229001D02*
D03*
X2631151Y2208051D02*
D03*
X2373972Y2185821D02*
D03*
Y2336951D02*
D03*
X2524471Y2275351D02*
D03*
X2373972Y2315361D02*
D03*
X2524471Y2224551D02*
D03*
X2373972Y2293771D02*
D03*
X2504151Y2275351D02*
D03*
D12*
X2544791Y2187726D02*
D03*
Y2168676D02*
D03*
X2610831D02*
D03*
Y2187726D02*
D03*
X2544791Y2206776D02*
D03*
Y2225826D02*
D03*
X2610831Y2206776D02*
D03*
Y2225826D02*
D03*
D13*
X2565111Y2178074D02*
D03*
X2590511Y2178328D02*
D03*
X2565111Y2216174D02*
D03*
X2590511Y2216428D02*
D03*
D14*
X2301021Y2207411D02*
D03*
Y2232811D02*
D03*
Y2253131D02*
D03*
X2278021Y2207411D02*
D03*
Y2232811D02*
D03*
Y2253131D02*
D03*
X2674402Y2231541D02*
D03*
Y2253131D02*
D03*
X2651401D02*
D03*
Y2231541D02*
D03*
Y2206141D02*
D03*
X2674402D02*
D03*
D15*
X2373972Y2272181D02*
X2377587Y2275796D01*
X2406996D01*
X2392677Y2269296D02*
X2406996D01*
X2373972Y2250591D02*
X2392677Y2269296D01*
D16*
X2301021Y2207411D02*
Y2232811D01*
Y2253131D01*
X2278021Y2199011D02*
Y2207411D01*
Y2199011D02*
X2291211Y2185821D01*
X2357471D01*
X2373972D02*
Y2207411D01*
Y2229001D01*
X2651401Y2257511D02*
X2669882Y2275991D01*
X2651401Y2206141D02*
Y2231541D01*
Y2253131D01*
Y2257511D01*
X2373972Y2185821D02*
X2404922Y2154871D01*
X2674402Y2174111D02*
Y2206141D01*
X2655161Y2154871D02*
X2674402Y2174111D01*
X2404922Y2154871D02*
X2655161D01*
X2357471Y2207411D02*
Y2229001D01*
X2341871Y2207411D02*
X2357471D01*
X2635881Y2275991D02*
X2653381D01*
X2344911Y2229001D02*
X2357471D01*
X2344911Y2315361D02*
X2357471D01*
X2344971Y2250591D02*
X2357471D01*
X2344971Y2272181D02*
X2357471D01*
Y2293771D01*
X2301021Y2253131D02*
Y2256241D01*
X2281271Y2275991D02*
X2301021Y2256241D01*
X2317041Y2275991D02*
X2326911Y2266121D01*
Y2213871D02*
X2333371Y2207411D01*
X2357471D01*
X2297771Y2275991D02*
X2317041D01*
X2326911Y2213871D02*
Y2266121D01*
X2233921Y2253131D02*
X2278021D01*
X2234221Y2232811D02*
X2278021D01*
X2234201Y2207411D02*
X2278021D01*
X2279141Y2278121D02*
X2281271Y2275991D01*
X2233911Y2278121D02*
X2279141D01*
X2726710Y2164304D02*
X2787689D01*
X2721649Y2169365D02*
X2726710Y2164304D01*
X2721649Y2169365D02*
Y2178782D01*
X2727057Y2321530D02*
X2787689D01*
X2721649Y2316121D02*
X2727057Y2321530D01*
X2721649Y2306798D02*
Y2316121D01*
X2727695Y2277868D02*
Y2300751D01*
X2721649Y2306798D02*
X2727695Y2300751D01*
X2233911Y2278121D02*
Y2293602D01*
X2227642Y2299871D02*
X2233911Y2293602D01*
X2212911Y2299871D02*
X2227642D01*
D17*
X2388266Y2243296D02*
X2406996D01*
X2373972Y2229001D02*
X2388266Y2243296D01*
X2394586Y2262796D02*
X2406996D01*
X2391661Y2259871D02*
X2394586Y2262796D01*
X2391661Y2252871D02*
Y2259871D01*
Y2252871D02*
X2394736Y2249796D01*
X2406996D01*
Y2256296D02*
X2421986D01*
X2426161Y2252121D01*
X2406996Y2197796D02*
X2421586D01*
X2426161Y2202371D01*
X2406996Y2210796D02*
X2425336D01*
X2406996Y2204296D02*
X2425586D01*
X2406996Y2217296D02*
X2425836D01*
X2426161Y2202371D02*
Y2217621D01*
X2425836Y2217296D02*
X2426161Y2217621D01*
X2457486Y2210796D02*
X2472876D01*
X2452411Y2215871D02*
X2457486Y2210796D01*
X2496761Y2293771D02*
X2504151Y2286381D01*
Y2275351D02*
Y2286381D01*
Y2275351D02*
X2524471D01*
X2373972Y2293771D02*
X2441515D01*
X2496761D01*
X2441515Y2226768D02*
X2457486Y2210796D01*
X2406996Y2262796D02*
X2440940D01*
X2441515Y2226768D02*
Y2293771D01*
X2495096Y2249796D02*
X2504151Y2258851D01*
X2472876Y2249796D02*
X2495096D01*
X2524471Y2275351D02*
X2532181D01*
X2544791Y2262741D01*
Y2225826D02*
Y2262741D01*
X2543517Y2224551D02*
X2544791Y2225826D01*
X2472876Y2217296D02*
X2494906D01*
X2504151Y2208051D01*
Y2224551D02*
X2507971D01*
X2525746Y2206776D01*
X2544791D01*
X2565111Y2216174D02*
X2590257D01*
X2590511Y2216428D01*
X2610831Y2225826D02*
X2629876D01*
X2631151Y2224551D01*
X2629876Y2206776D02*
X2631151Y2208051D01*
X2629876Y2168676D02*
X2631151Y2169951D01*
X2610831Y2187726D02*
X2629876D01*
X2631151Y2186451D01*
X2565111Y2178074D02*
X2590257D01*
X2590511Y2178328D01*
X2524471Y2186451D02*
X2525746Y2187726D01*
X2472876Y2191296D02*
X2499306D01*
X2504151Y2186451D01*
X2543517Y2169951D02*
X2544791Y2168676D01*
X2504151Y2169951D02*
X2524471D01*
X2543517D01*
X2373972Y2293771D02*
Y2315361D01*
Y2336951D01*
X2357471Y2315361D02*
Y2336951D01*
X2620911Y2168676D02*
X2629876D01*
X2610831D02*
X2620911D01*
Y2155121D02*
Y2168676D01*
X2631151Y2224551D02*
Y2234551D01*
X2631231Y2186371D02*
X2641411D01*
X2525746Y2187726D02*
X2534411D01*
X2544791D01*
X2524471Y2224551D02*
X2534471D01*
X2543517D01*
X2610831Y2206776D02*
X2620911D01*
X2629876D01*
X2406996Y2236796D02*
X2426086D01*
X2426161Y2217621D02*
Y2252121D01*
X2472876Y2236796D02*
X2490376D01*
X2472876Y2230296D02*
Y2236796D01*
X2502417D02*
X2524471Y2258851D01*
X2472876Y2236796D02*
X2502417D01*
X2674402Y2231541D02*
X2675481Y2232621D01*
X2675481D02*
X2727661D01*
X2674402Y2253131D02*
X2675161Y2252371D01*
X2727911D01*
X2669882Y2275991D02*
X2672751Y2273121D01*
X2723161D01*
X2727661Y2277621D01*
X2674402Y2206141D02*
X2681382Y2213121D01*
X2722911D01*
X2722911D02*
X2727911Y2208121D01*
D18*
X2580468Y1667386D02*
X2595703D01*
X2588086D01*
Y1644534D01*
X2607130D02*
X2614747D01*
X2618556Y1648342D01*
Y1655960D01*
X2614747Y1659769D01*
X2607130D01*
X2603321Y1655960D01*
Y1648342D01*
X2607130Y1644534D01*
X2626174Y1636916D02*
Y1659769D01*
X2637600D01*
X2641409Y1655960D01*
Y1648342D01*
X2637600Y1644534D01*
X2626174D01*
X2649026Y1667386D02*
Y1644534D01*
X2664261D01*
X2675688Y1659769D02*
X2683305D01*
X2687114Y1655960D01*
Y1644534D01*
X2675688D01*
X2671879Y1648342D01*
X2675688Y1652151D01*
X2687114D01*
X2694731Y1659769D02*
Y1648342D01*
X2698540Y1644534D01*
X2709966D01*
Y1640725D01*
X2706158Y1636916D01*
X2702349D01*
X2709966Y1644534D02*
Y1659769D01*
X2729010Y1644534D02*
X2721393D01*
X2717584Y1648342D01*
Y1655960D01*
X2721393Y1659769D01*
X2729010D01*
X2732819Y1655960D01*
Y1652151D01*
X2717584D01*
X2740437Y1659769D02*
Y1644534D01*
Y1652151D01*
X2744245Y1655960D01*
X2748054Y1659769D01*
X2751863D01*
D19*
X2235896Y2370368D02*
D03*
X2735895D02*
D03*
Y2115368D02*
D03*
X2235896D02*
D03*
D20*
X2727695Y2207868D02*
D03*
X2727694Y2232868D02*
D03*
X2727695Y2252868D02*
D03*
Y2277868D02*
D03*
D21*
X2712695Y2282868D02*
D03*
Y2262868D02*
D03*
Y2242868D02*
D03*
Y2222868D02*
D03*
Y2202868D02*
D03*
D22*
X2721649Y2178782D02*
D03*
Y2306798D02*
D03*
D23*
X2787689Y2164304D02*
D03*
Y2321530D02*
D03*
D24*
X2212895Y2265368D02*
D03*
X2212896Y2220368D02*
D03*
D25*
X2233896Y2277868D02*
D03*
Y2207868D02*
D03*
D26*
Y2252868D02*
D03*
Y2232868D02*
D03*
D27*
X2212911Y2185871D02*
D03*
Y2299871D02*
D03*
D28*
X2534471Y2224551D02*
D03*
X2534411Y2187726D02*
D03*
X2620911Y2206776D02*
D03*
Y2168676D02*
D03*
X2641411Y2186371D02*
D03*
X2631151Y2234551D02*
D03*
X2513420Y2247800D02*
D03*
X2635881Y2275991D02*
D03*
X2344971Y2250591D02*
D03*
Y2272181D02*
D03*
X2426161Y2237121D02*
D03*
X2344911Y2315361D02*
D03*
Y2229001D02*
D03*
M02*
