G04 #@! TF.FileFunction,Copper,L1,Top,Signal*
%FSLAX46Y46*%
G04 Gerber Fmt 4.6, Leading zero omitted, Abs format (unit mm)*
G04 Created by KiCad (PCBNEW 0.201412031631+5310~19~ubuntu14.04.1-product) date sáb 06 dic 2014 00:19:55 CET*
%MOMM*%
G01*
G04 APERTURE LIST*
%ADD10C,0.100000*%
%ADD11C,1.778000*%
%ADD12R,1.574800X2.286000*%
%ADD13O,1.574800X2.286000*%
%ADD14R,1.651000X1.651000*%
%ADD15C,0.254000*%
G04 APERTURE END LIST*
D10*
D11*
X144780000Y-107950000D03*
X142240000Y-107950000D03*
X149860000Y-113030000D03*
X152400000Y-113030000D03*
D12*
X140970000Y-95250000D03*
D13*
X143510000Y-95250000D03*
X146050000Y-95250000D03*
X148590000Y-95250000D03*
X148590000Y-87630000D03*
X146050000Y-87630000D03*
X143510000Y-87630000D03*
X140970000Y-87630000D03*
D11*
X152400000Y-105410000D03*
X152400000Y-107950000D03*
X142240000Y-113030000D03*
X144780000Y-113030000D03*
X152400000Y-97790000D03*
X152400000Y-87630000D03*
X138430000Y-101600000D03*
X148590000Y-101600000D03*
X138430000Y-99060000D03*
X148590000Y-99060000D03*
X148590000Y-104140000D03*
X138430000Y-104140000D03*
X138430000Y-116840000D03*
X138430000Y-106680000D03*
D14*
X149860000Y-116840000D03*
D11*
X152400000Y-116840000D03*
D15*
G36*
X159194500Y-119824500D02*
X153935516Y-119824500D01*
X153935516Y-117078035D01*
X153935516Y-113268035D01*
X153935516Y-108188035D01*
X153924264Y-107923787D01*
X153924264Y-105108188D01*
X153924264Y-97488188D01*
X153924264Y-87328188D01*
X153692738Y-86767851D01*
X153264404Y-86338769D01*
X152704472Y-86106265D01*
X152098188Y-86105736D01*
X151537851Y-86337262D01*
X151108769Y-86765596D01*
X150876265Y-87325528D01*
X150875736Y-87931812D01*
X151107262Y-88492149D01*
X151535596Y-88921231D01*
X152095528Y-89153735D01*
X152701812Y-89154264D01*
X153262149Y-88922738D01*
X153691231Y-88494404D01*
X153923735Y-87934472D01*
X153924264Y-87328188D01*
X153924264Y-97488188D01*
X153692738Y-96927851D01*
X153264404Y-96498769D01*
X152704472Y-96266265D01*
X152098188Y-96265736D01*
X151537851Y-96497262D01*
X151108769Y-96925596D01*
X150876265Y-97485528D01*
X150875736Y-98091812D01*
X151107262Y-98652149D01*
X151535596Y-99081231D01*
X152095528Y-99313735D01*
X152701812Y-99314264D01*
X153262149Y-99082738D01*
X153691231Y-98654404D01*
X153923735Y-98094472D01*
X153924264Y-97488188D01*
X153924264Y-105108188D01*
X153692738Y-104547851D01*
X153264404Y-104118769D01*
X152704472Y-103886265D01*
X152098188Y-103885736D01*
X151537851Y-104117262D01*
X151108769Y-104545596D01*
X150876265Y-105105528D01*
X150875736Y-105711812D01*
X151107262Y-106272149D01*
X151535596Y-106701231D01*
X151562505Y-106712404D01*
X151507409Y-106877804D01*
X152400000Y-107770395D01*
X153292591Y-106877804D01*
X153237646Y-106712862D01*
X153262149Y-106702738D01*
X153691231Y-106274404D01*
X153923735Y-105714472D01*
X153924264Y-105108188D01*
X153924264Y-107923787D01*
X153909723Y-107582300D01*
X153727539Y-107142467D01*
X153472196Y-107057409D01*
X152579605Y-107950000D01*
X153472196Y-108842591D01*
X153727539Y-108757533D01*
X153935516Y-108188035D01*
X153935516Y-113268035D01*
X153909723Y-112662300D01*
X153727539Y-112222467D01*
X153472196Y-112137409D01*
X153292591Y-112317014D01*
X153292591Y-111957804D01*
X153292591Y-109022196D01*
X152400000Y-108129605D01*
X152220395Y-108309210D01*
X152220395Y-107950000D01*
X151327804Y-107057409D01*
X151072461Y-107142467D01*
X150864484Y-107711965D01*
X150890277Y-108317700D01*
X151072461Y-108757533D01*
X151327804Y-108842591D01*
X152220395Y-107950000D01*
X152220395Y-108309210D01*
X151507409Y-109022196D01*
X151592467Y-109277539D01*
X152161965Y-109485516D01*
X152767700Y-109459723D01*
X153207533Y-109277539D01*
X153292591Y-109022196D01*
X153292591Y-111957804D01*
X153207533Y-111702461D01*
X152638035Y-111494484D01*
X152032300Y-111520277D01*
X151592467Y-111702461D01*
X151507409Y-111957804D01*
X152400000Y-112850395D01*
X153292591Y-111957804D01*
X153292591Y-112317014D01*
X152579605Y-113030000D01*
X153472196Y-113922591D01*
X153727539Y-113837533D01*
X153935516Y-113268035D01*
X153935516Y-117078035D01*
X153909723Y-116472300D01*
X153727539Y-116032467D01*
X153472196Y-115947409D01*
X153292591Y-116127014D01*
X153292591Y-115767804D01*
X153292591Y-114102196D01*
X152400000Y-113209605D01*
X152220395Y-113389210D01*
X152220395Y-113030000D01*
X151327804Y-112137409D01*
X151162862Y-112192353D01*
X151152738Y-112167851D01*
X150724404Y-111738769D01*
X150164472Y-111506265D01*
X150114264Y-111506221D01*
X150114264Y-103838188D01*
X149882738Y-103277851D01*
X149475262Y-102869664D01*
X149881231Y-102464404D01*
X150113735Y-101904472D01*
X150114264Y-101298188D01*
X149882738Y-100737851D01*
X149475262Y-100329664D01*
X149881231Y-99924404D01*
X150113735Y-99364472D01*
X150114264Y-98758188D01*
X150012400Y-98511657D01*
X150012400Y-95732600D01*
X150012400Y-95377000D01*
X150012400Y-95123000D01*
X150012400Y-94767400D01*
X150012400Y-88020433D01*
X150012400Y-87239567D01*
X149904126Y-86695238D01*
X149595789Y-86233778D01*
X149134329Y-85925441D01*
X148590000Y-85817167D01*
X148045671Y-85925441D01*
X147584211Y-86233778D01*
X147320000Y-86629198D01*
X147055789Y-86233778D01*
X146594329Y-85925441D01*
X146050000Y-85817167D01*
X145505671Y-85925441D01*
X145044211Y-86233778D01*
X144780000Y-86629198D01*
X144515789Y-86233778D01*
X144054329Y-85925441D01*
X143510000Y-85817167D01*
X142965671Y-85925441D01*
X142504211Y-86233778D01*
X142240000Y-86629198D01*
X141975789Y-86233778D01*
X141514329Y-85925441D01*
X140970000Y-85817167D01*
X140425671Y-85925441D01*
X139964211Y-86233778D01*
X139655874Y-86695238D01*
X139547600Y-87239567D01*
X139547600Y-88020433D01*
X139655874Y-88564762D01*
X139964211Y-89026222D01*
X140425671Y-89334559D01*
X140970000Y-89442833D01*
X141514329Y-89334559D01*
X141975789Y-89026222D01*
X142240000Y-88630801D01*
X142504211Y-89026222D01*
X142965671Y-89334559D01*
X143510000Y-89442833D01*
X144054329Y-89334559D01*
X144515789Y-89026222D01*
X144780000Y-88630801D01*
X145044211Y-89026222D01*
X145505671Y-89334559D01*
X146050000Y-89442833D01*
X146594329Y-89334559D01*
X147055789Y-89026222D01*
X147320000Y-88630801D01*
X147584211Y-89026222D01*
X148045671Y-89334559D01*
X148590000Y-89442833D01*
X149134329Y-89334559D01*
X149595789Y-89026222D01*
X149904126Y-88564762D01*
X150012400Y-88020433D01*
X150012400Y-94767400D01*
X149855525Y-94232738D01*
X149505986Y-93798809D01*
X149016996Y-93531673D01*
X148937060Y-93514990D01*
X148717000Y-93637148D01*
X148717000Y-95123000D01*
X150012400Y-95123000D01*
X150012400Y-95377000D01*
X148717000Y-95377000D01*
X148717000Y-96862852D01*
X148937060Y-96985010D01*
X149016996Y-96968327D01*
X149505986Y-96701191D01*
X149855525Y-96267262D01*
X150012400Y-95732600D01*
X150012400Y-98511657D01*
X149882738Y-98197851D01*
X149454404Y-97768769D01*
X148894472Y-97536265D01*
X148463000Y-97535888D01*
X148463000Y-96862852D01*
X148463000Y-95377000D01*
X148443000Y-95377000D01*
X148443000Y-95123000D01*
X148463000Y-95123000D01*
X148463000Y-93637148D01*
X148242940Y-93514990D01*
X148163004Y-93531673D01*
X147674014Y-93798809D01*
X147324475Y-94232738D01*
X147319753Y-94248829D01*
X147055789Y-93853778D01*
X146594329Y-93545441D01*
X146050000Y-93437167D01*
X145505671Y-93545441D01*
X145044211Y-93853778D01*
X144780000Y-94249198D01*
X144515789Y-93853778D01*
X144054329Y-93545441D01*
X143510000Y-93437167D01*
X142965671Y-93545441D01*
X142504211Y-93853778D01*
X142389126Y-94026013D01*
X142357863Y-93864877D01*
X142218073Y-93652073D01*
X142007040Y-93509623D01*
X141757400Y-93459560D01*
X140182600Y-93459560D01*
X139940477Y-93506537D01*
X139727673Y-93646327D01*
X139585223Y-93857360D01*
X139535160Y-94107000D01*
X139535160Y-96393000D01*
X139582137Y-96635123D01*
X139721927Y-96847927D01*
X139932960Y-96990377D01*
X140182600Y-97040440D01*
X141757400Y-97040440D01*
X141999523Y-96993463D01*
X142212327Y-96853673D01*
X142354777Y-96642640D01*
X142388720Y-96473378D01*
X142504211Y-96646222D01*
X142965671Y-96954559D01*
X143510000Y-97062833D01*
X144054329Y-96954559D01*
X144515789Y-96646222D01*
X144780000Y-96250801D01*
X145044211Y-96646222D01*
X145505671Y-96954559D01*
X146050000Y-97062833D01*
X146594329Y-96954559D01*
X147055789Y-96646222D01*
X147319753Y-96251170D01*
X147324475Y-96267262D01*
X147674014Y-96701191D01*
X148163004Y-96968327D01*
X148242940Y-96985010D01*
X148463000Y-96862852D01*
X148463000Y-97535888D01*
X148288188Y-97535736D01*
X147727851Y-97767262D01*
X147298769Y-98195596D01*
X147066265Y-98755528D01*
X147065736Y-99361812D01*
X147297262Y-99922149D01*
X147704737Y-100330335D01*
X147298769Y-100735596D01*
X147066265Y-101295528D01*
X147065736Y-101901812D01*
X147297262Y-102462149D01*
X147704737Y-102870335D01*
X147298769Y-103275596D01*
X147066265Y-103835528D01*
X147065736Y-104441812D01*
X147297262Y-105002149D01*
X147725596Y-105431231D01*
X148285528Y-105663735D01*
X148891812Y-105664264D01*
X149452149Y-105432738D01*
X149881231Y-105004404D01*
X150113735Y-104444472D01*
X150114264Y-103838188D01*
X150114264Y-111506221D01*
X149558188Y-111505736D01*
X148997851Y-111737262D01*
X148568769Y-112165596D01*
X148336265Y-112725528D01*
X148335736Y-113331812D01*
X148567262Y-113892149D01*
X148995596Y-114321231D01*
X149555528Y-114553735D01*
X150161812Y-114554264D01*
X150722149Y-114322738D01*
X151151231Y-113894404D01*
X151162404Y-113867494D01*
X151327804Y-113922591D01*
X152220395Y-113030000D01*
X152220395Y-113389210D01*
X151507409Y-114102196D01*
X151592467Y-114357539D01*
X152161965Y-114565516D01*
X152767700Y-114539723D01*
X153207533Y-114357539D01*
X153292591Y-114102196D01*
X153292591Y-115767804D01*
X153207533Y-115512461D01*
X152638035Y-115304484D01*
X152032300Y-115330277D01*
X151592467Y-115512461D01*
X151507409Y-115767804D01*
X152400000Y-116660395D01*
X153292591Y-115767804D01*
X153292591Y-116127014D01*
X152579605Y-116840000D01*
X153472196Y-117732591D01*
X153727539Y-117647533D01*
X153935516Y-117078035D01*
X153935516Y-119824500D01*
X153292591Y-119824500D01*
X153292591Y-117912196D01*
X152400000Y-117019605D01*
X152220395Y-117199210D01*
X152220395Y-116840000D01*
X151327804Y-115947409D01*
X151320401Y-115949874D01*
X151285963Y-115772377D01*
X151146173Y-115559573D01*
X150935140Y-115417123D01*
X150685500Y-115367060D01*
X149034500Y-115367060D01*
X148792377Y-115414037D01*
X148579573Y-115553827D01*
X148437123Y-115764860D01*
X148387060Y-116014500D01*
X148387060Y-117665500D01*
X148434037Y-117907623D01*
X148573827Y-118120427D01*
X148784860Y-118262877D01*
X149034500Y-118312940D01*
X150685500Y-118312940D01*
X150927623Y-118265963D01*
X151140427Y-118126173D01*
X151282877Y-117915140D01*
X151320006Y-117729993D01*
X151327804Y-117732591D01*
X152220395Y-116840000D01*
X152220395Y-117199210D01*
X151507409Y-117912196D01*
X151592467Y-118167539D01*
X152161965Y-118375516D01*
X152767700Y-118349723D01*
X153207533Y-118167539D01*
X153292591Y-117912196D01*
X153292591Y-119824500D01*
X146315516Y-119824500D01*
X146315516Y-113268035D01*
X146304264Y-113003787D01*
X146304264Y-107648188D01*
X146072738Y-107087851D01*
X145644404Y-106658769D01*
X145084472Y-106426265D01*
X144478188Y-106425736D01*
X143917851Y-106657262D01*
X143509664Y-107064737D01*
X143104404Y-106658769D01*
X142544472Y-106426265D01*
X141938188Y-106425736D01*
X141377851Y-106657262D01*
X140948769Y-107085596D01*
X140716265Y-107645528D01*
X140715736Y-108251812D01*
X140947262Y-108812149D01*
X141375596Y-109241231D01*
X141935528Y-109473735D01*
X142541812Y-109474264D01*
X143102149Y-109242738D01*
X143510335Y-108835262D01*
X143915596Y-109241231D01*
X144475528Y-109473735D01*
X145081812Y-109474264D01*
X145642149Y-109242738D01*
X146071231Y-108814404D01*
X146303735Y-108254472D01*
X146304264Y-107648188D01*
X146304264Y-113003787D01*
X146289723Y-112662300D01*
X146107539Y-112222467D01*
X145852196Y-112137409D01*
X145672591Y-112317014D01*
X145672591Y-111957804D01*
X145587533Y-111702461D01*
X145018035Y-111494484D01*
X144412300Y-111520277D01*
X143972467Y-111702461D01*
X143887409Y-111957804D01*
X144780000Y-112850395D01*
X145672591Y-111957804D01*
X145672591Y-112317014D01*
X144959605Y-113030000D01*
X145852196Y-113922591D01*
X146107539Y-113837533D01*
X146315516Y-113268035D01*
X146315516Y-119824500D01*
X145672591Y-119824500D01*
X145672591Y-114102196D01*
X144780000Y-113209605D01*
X144600395Y-113389210D01*
X144600395Y-113030000D01*
X143707804Y-112137409D01*
X143542862Y-112192353D01*
X143532738Y-112167851D01*
X143104404Y-111738769D01*
X142544472Y-111506265D01*
X141938188Y-111505736D01*
X141377851Y-111737262D01*
X140948769Y-112165596D01*
X140716265Y-112725528D01*
X140715736Y-113331812D01*
X140947262Y-113892149D01*
X141375596Y-114321231D01*
X141935528Y-114553735D01*
X142541812Y-114554264D01*
X143102149Y-114322738D01*
X143531231Y-113894404D01*
X143542404Y-113867494D01*
X143707804Y-113922591D01*
X144600395Y-113030000D01*
X144600395Y-113389210D01*
X143887409Y-114102196D01*
X143972467Y-114357539D01*
X144541965Y-114565516D01*
X145147700Y-114539723D01*
X145587533Y-114357539D01*
X145672591Y-114102196D01*
X145672591Y-119824500D01*
X139954264Y-119824500D01*
X139954264Y-116538188D01*
X139954264Y-106378188D01*
X139722738Y-105817851D01*
X139315262Y-105409664D01*
X139721231Y-105004404D01*
X139953735Y-104444472D01*
X139954264Y-103838188D01*
X139722738Y-103277851D01*
X139315262Y-102869664D01*
X139721231Y-102464404D01*
X139953735Y-101904472D01*
X139954264Y-101298188D01*
X139722738Y-100737851D01*
X139315262Y-100329664D01*
X139721231Y-99924404D01*
X139953735Y-99364472D01*
X139954264Y-98758188D01*
X139722738Y-98197851D01*
X139294404Y-97768769D01*
X138734472Y-97536265D01*
X138128188Y-97535736D01*
X137567851Y-97767262D01*
X137138769Y-98195596D01*
X136906265Y-98755528D01*
X136905736Y-99361812D01*
X137137262Y-99922149D01*
X137544737Y-100330335D01*
X137138769Y-100735596D01*
X136906265Y-101295528D01*
X136905736Y-101901812D01*
X137137262Y-102462149D01*
X137544737Y-102870335D01*
X137138769Y-103275596D01*
X136906265Y-103835528D01*
X136905736Y-104441812D01*
X137137262Y-105002149D01*
X137544737Y-105410335D01*
X137138769Y-105815596D01*
X136906265Y-106375528D01*
X136905736Y-106981812D01*
X137137262Y-107542149D01*
X137565596Y-107971231D01*
X138125528Y-108203735D01*
X138731812Y-108204264D01*
X139292149Y-107972738D01*
X139721231Y-107544404D01*
X139953735Y-106984472D01*
X139954264Y-106378188D01*
X139954264Y-116538188D01*
X139722738Y-115977851D01*
X139294404Y-115548769D01*
X138734472Y-115316265D01*
X138128188Y-115315736D01*
X137567851Y-115547262D01*
X137138769Y-115975596D01*
X136906265Y-116535528D01*
X136905736Y-117141812D01*
X137137262Y-117702149D01*
X137565596Y-118131231D01*
X138125528Y-118363735D01*
X138731812Y-118364264D01*
X139292149Y-118132738D01*
X139721231Y-117704404D01*
X139953735Y-117144472D01*
X139954264Y-116538188D01*
X139954264Y-119824500D01*
X131635500Y-119824500D01*
X131635500Y-82105500D01*
X159194500Y-82105500D01*
X159194500Y-119824500D01*
X159194500Y-119824500D01*
G37*
X159194500Y-119824500D02*
X153935516Y-119824500D01*
X153935516Y-117078035D01*
X153935516Y-113268035D01*
X153935516Y-108188035D01*
X153924264Y-107923787D01*
X153924264Y-105108188D01*
X153924264Y-97488188D01*
X153924264Y-87328188D01*
X153692738Y-86767851D01*
X153264404Y-86338769D01*
X152704472Y-86106265D01*
X152098188Y-86105736D01*
X151537851Y-86337262D01*
X151108769Y-86765596D01*
X150876265Y-87325528D01*
X150875736Y-87931812D01*
X151107262Y-88492149D01*
X151535596Y-88921231D01*
X152095528Y-89153735D01*
X152701812Y-89154264D01*
X153262149Y-88922738D01*
X153691231Y-88494404D01*
X153923735Y-87934472D01*
X153924264Y-87328188D01*
X153924264Y-97488188D01*
X153692738Y-96927851D01*
X153264404Y-96498769D01*
X152704472Y-96266265D01*
X152098188Y-96265736D01*
X151537851Y-96497262D01*
X151108769Y-96925596D01*
X150876265Y-97485528D01*
X150875736Y-98091812D01*
X151107262Y-98652149D01*
X151535596Y-99081231D01*
X152095528Y-99313735D01*
X152701812Y-99314264D01*
X153262149Y-99082738D01*
X153691231Y-98654404D01*
X153923735Y-98094472D01*
X153924264Y-97488188D01*
X153924264Y-105108188D01*
X153692738Y-104547851D01*
X153264404Y-104118769D01*
X152704472Y-103886265D01*
X152098188Y-103885736D01*
X151537851Y-104117262D01*
X151108769Y-104545596D01*
X150876265Y-105105528D01*
X150875736Y-105711812D01*
X151107262Y-106272149D01*
X151535596Y-106701231D01*
X151562505Y-106712404D01*
X151507409Y-106877804D01*
X152400000Y-107770395D01*
X153292591Y-106877804D01*
X153237646Y-106712862D01*
X153262149Y-106702738D01*
X153691231Y-106274404D01*
X153923735Y-105714472D01*
X153924264Y-105108188D01*
X153924264Y-107923787D01*
X153909723Y-107582300D01*
X153727539Y-107142467D01*
X153472196Y-107057409D01*
X152579605Y-107950000D01*
X153472196Y-108842591D01*
X153727539Y-108757533D01*
X153935516Y-108188035D01*
X153935516Y-113268035D01*
X153909723Y-112662300D01*
X153727539Y-112222467D01*
X153472196Y-112137409D01*
X153292591Y-112317014D01*
X153292591Y-111957804D01*
X153292591Y-109022196D01*
X152400000Y-108129605D01*
X152220395Y-108309210D01*
X152220395Y-107950000D01*
X151327804Y-107057409D01*
X151072461Y-107142467D01*
X150864484Y-107711965D01*
X150890277Y-108317700D01*
X151072461Y-108757533D01*
X151327804Y-108842591D01*
X152220395Y-107950000D01*
X152220395Y-108309210D01*
X151507409Y-109022196D01*
X151592467Y-109277539D01*
X152161965Y-109485516D01*
X152767700Y-109459723D01*
X153207533Y-109277539D01*
X153292591Y-109022196D01*
X153292591Y-111957804D01*
X153207533Y-111702461D01*
X152638035Y-111494484D01*
X152032300Y-111520277D01*
X151592467Y-111702461D01*
X151507409Y-111957804D01*
X152400000Y-112850395D01*
X153292591Y-111957804D01*
X153292591Y-112317014D01*
X152579605Y-113030000D01*
X153472196Y-113922591D01*
X153727539Y-113837533D01*
X153935516Y-113268035D01*
X153935516Y-117078035D01*
X153909723Y-116472300D01*
X153727539Y-116032467D01*
X153472196Y-115947409D01*
X153292591Y-116127014D01*
X153292591Y-115767804D01*
X153292591Y-114102196D01*
X152400000Y-113209605D01*
X152220395Y-113389210D01*
X152220395Y-113030000D01*
X151327804Y-112137409D01*
X151162862Y-112192353D01*
X151152738Y-112167851D01*
X150724404Y-111738769D01*
X150164472Y-111506265D01*
X150114264Y-111506221D01*
X150114264Y-103838188D01*
X149882738Y-103277851D01*
X149475262Y-102869664D01*
X149881231Y-102464404D01*
X150113735Y-101904472D01*
X150114264Y-101298188D01*
X149882738Y-100737851D01*
X149475262Y-100329664D01*
X149881231Y-99924404D01*
X150113735Y-99364472D01*
X150114264Y-98758188D01*
X150012400Y-98511657D01*
X150012400Y-95732600D01*
X150012400Y-95377000D01*
X150012400Y-95123000D01*
X150012400Y-94767400D01*
X150012400Y-88020433D01*
X150012400Y-87239567D01*
X149904126Y-86695238D01*
X149595789Y-86233778D01*
X149134329Y-85925441D01*
X148590000Y-85817167D01*
X148045671Y-85925441D01*
X147584211Y-86233778D01*
X147320000Y-86629198D01*
X147055789Y-86233778D01*
X146594329Y-85925441D01*
X146050000Y-85817167D01*
X145505671Y-85925441D01*
X145044211Y-86233778D01*
X144780000Y-86629198D01*
X144515789Y-86233778D01*
X144054329Y-85925441D01*
X143510000Y-85817167D01*
X142965671Y-85925441D01*
X142504211Y-86233778D01*
X142240000Y-86629198D01*
X141975789Y-86233778D01*
X141514329Y-85925441D01*
X140970000Y-85817167D01*
X140425671Y-85925441D01*
X139964211Y-86233778D01*
X139655874Y-86695238D01*
X139547600Y-87239567D01*
X139547600Y-88020433D01*
X139655874Y-88564762D01*
X139964211Y-89026222D01*
X140425671Y-89334559D01*
X140970000Y-89442833D01*
X141514329Y-89334559D01*
X141975789Y-89026222D01*
X142240000Y-88630801D01*
X142504211Y-89026222D01*
X142965671Y-89334559D01*
X143510000Y-89442833D01*
X144054329Y-89334559D01*
X144515789Y-89026222D01*
X144780000Y-88630801D01*
X145044211Y-89026222D01*
X145505671Y-89334559D01*
X146050000Y-89442833D01*
X146594329Y-89334559D01*
X147055789Y-89026222D01*
X147320000Y-88630801D01*
X147584211Y-89026222D01*
X148045671Y-89334559D01*
X148590000Y-89442833D01*
X149134329Y-89334559D01*
X149595789Y-89026222D01*
X149904126Y-88564762D01*
X150012400Y-88020433D01*
X150012400Y-94767400D01*
X149855525Y-94232738D01*
X149505986Y-93798809D01*
X149016996Y-93531673D01*
X148937060Y-93514990D01*
X148717000Y-93637148D01*
X148717000Y-95123000D01*
X150012400Y-95123000D01*
X150012400Y-95377000D01*
X148717000Y-95377000D01*
X148717000Y-96862852D01*
X148937060Y-96985010D01*
X149016996Y-96968327D01*
X149505986Y-96701191D01*
X149855525Y-96267262D01*
X150012400Y-95732600D01*
X150012400Y-98511657D01*
X149882738Y-98197851D01*
X149454404Y-97768769D01*
X148894472Y-97536265D01*
X148463000Y-97535888D01*
X148463000Y-96862852D01*
X148463000Y-95377000D01*
X148443000Y-95377000D01*
X148443000Y-95123000D01*
X148463000Y-95123000D01*
X148463000Y-93637148D01*
X148242940Y-93514990D01*
X148163004Y-93531673D01*
X147674014Y-93798809D01*
X147324475Y-94232738D01*
X147319753Y-94248829D01*
X147055789Y-93853778D01*
X146594329Y-93545441D01*
X146050000Y-93437167D01*
X145505671Y-93545441D01*
X145044211Y-93853778D01*
X144780000Y-94249198D01*
X144515789Y-93853778D01*
X144054329Y-93545441D01*
X143510000Y-93437167D01*
X142965671Y-93545441D01*
X142504211Y-93853778D01*
X142389126Y-94026013D01*
X142357863Y-93864877D01*
X142218073Y-93652073D01*
X142007040Y-93509623D01*
X141757400Y-93459560D01*
X140182600Y-93459560D01*
X139940477Y-93506537D01*
X139727673Y-93646327D01*
X139585223Y-93857360D01*
X139535160Y-94107000D01*
X139535160Y-96393000D01*
X139582137Y-96635123D01*
X139721927Y-96847927D01*
X139932960Y-96990377D01*
X140182600Y-97040440D01*
X141757400Y-97040440D01*
X141999523Y-96993463D01*
X142212327Y-96853673D01*
X142354777Y-96642640D01*
X142388720Y-96473378D01*
X142504211Y-96646222D01*
X142965671Y-96954559D01*
X143510000Y-97062833D01*
X144054329Y-96954559D01*
X144515789Y-96646222D01*
X144780000Y-96250801D01*
X145044211Y-96646222D01*
X145505671Y-96954559D01*
X146050000Y-97062833D01*
X146594329Y-96954559D01*
X147055789Y-96646222D01*
X147319753Y-96251170D01*
X147324475Y-96267262D01*
X147674014Y-96701191D01*
X148163004Y-96968327D01*
X148242940Y-96985010D01*
X148463000Y-96862852D01*
X148463000Y-97535888D01*
X148288188Y-97535736D01*
X147727851Y-97767262D01*
X147298769Y-98195596D01*
X147066265Y-98755528D01*
X147065736Y-99361812D01*
X147297262Y-99922149D01*
X147704737Y-100330335D01*
X147298769Y-100735596D01*
X147066265Y-101295528D01*
X147065736Y-101901812D01*
X147297262Y-102462149D01*
X147704737Y-102870335D01*
X147298769Y-103275596D01*
X147066265Y-103835528D01*
X147065736Y-104441812D01*
X147297262Y-105002149D01*
X147725596Y-105431231D01*
X148285528Y-105663735D01*
X148891812Y-105664264D01*
X149452149Y-105432738D01*
X149881231Y-105004404D01*
X150113735Y-104444472D01*
X150114264Y-103838188D01*
X150114264Y-111506221D01*
X149558188Y-111505736D01*
X148997851Y-111737262D01*
X148568769Y-112165596D01*
X148336265Y-112725528D01*
X148335736Y-113331812D01*
X148567262Y-113892149D01*
X148995596Y-114321231D01*
X149555528Y-114553735D01*
X150161812Y-114554264D01*
X150722149Y-114322738D01*
X151151231Y-113894404D01*
X151162404Y-113867494D01*
X151327804Y-113922591D01*
X152220395Y-113030000D01*
X152220395Y-113389210D01*
X151507409Y-114102196D01*
X151592467Y-114357539D01*
X152161965Y-114565516D01*
X152767700Y-114539723D01*
X153207533Y-114357539D01*
X153292591Y-114102196D01*
X153292591Y-115767804D01*
X153207533Y-115512461D01*
X152638035Y-115304484D01*
X152032300Y-115330277D01*
X151592467Y-115512461D01*
X151507409Y-115767804D01*
X152400000Y-116660395D01*
X153292591Y-115767804D01*
X153292591Y-116127014D01*
X152579605Y-116840000D01*
X153472196Y-117732591D01*
X153727539Y-117647533D01*
X153935516Y-117078035D01*
X153935516Y-119824500D01*
X153292591Y-119824500D01*
X153292591Y-117912196D01*
X152400000Y-117019605D01*
X152220395Y-117199210D01*
X152220395Y-116840000D01*
X151327804Y-115947409D01*
X151320401Y-115949874D01*
X151285963Y-115772377D01*
X151146173Y-115559573D01*
X150935140Y-115417123D01*
X150685500Y-115367060D01*
X149034500Y-115367060D01*
X148792377Y-115414037D01*
X148579573Y-115553827D01*
X148437123Y-115764860D01*
X148387060Y-116014500D01*
X148387060Y-117665500D01*
X148434037Y-117907623D01*
X148573827Y-118120427D01*
X148784860Y-118262877D01*
X149034500Y-118312940D01*
X150685500Y-118312940D01*
X150927623Y-118265963D01*
X151140427Y-118126173D01*
X151282877Y-117915140D01*
X151320006Y-117729993D01*
X151327804Y-117732591D01*
X152220395Y-116840000D01*
X152220395Y-117199210D01*
X151507409Y-117912196D01*
X151592467Y-118167539D01*
X152161965Y-118375516D01*
X152767700Y-118349723D01*
X153207533Y-118167539D01*
X153292591Y-117912196D01*
X153292591Y-119824500D01*
X146315516Y-119824500D01*
X146315516Y-113268035D01*
X146304264Y-113003787D01*
X146304264Y-107648188D01*
X146072738Y-107087851D01*
X145644404Y-106658769D01*
X145084472Y-106426265D01*
X144478188Y-106425736D01*
X143917851Y-106657262D01*
X143509664Y-107064737D01*
X143104404Y-106658769D01*
X142544472Y-106426265D01*
X141938188Y-106425736D01*
X141377851Y-106657262D01*
X140948769Y-107085596D01*
X140716265Y-107645528D01*
X140715736Y-108251812D01*
X140947262Y-108812149D01*
X141375596Y-109241231D01*
X141935528Y-109473735D01*
X142541812Y-109474264D01*
X143102149Y-109242738D01*
X143510335Y-108835262D01*
X143915596Y-109241231D01*
X144475528Y-109473735D01*
X145081812Y-109474264D01*
X145642149Y-109242738D01*
X146071231Y-108814404D01*
X146303735Y-108254472D01*
X146304264Y-107648188D01*
X146304264Y-113003787D01*
X146289723Y-112662300D01*
X146107539Y-112222467D01*
X145852196Y-112137409D01*
X145672591Y-112317014D01*
X145672591Y-111957804D01*
X145587533Y-111702461D01*
X145018035Y-111494484D01*
X144412300Y-111520277D01*
X143972467Y-111702461D01*
X143887409Y-111957804D01*
X144780000Y-112850395D01*
X145672591Y-111957804D01*
X145672591Y-112317014D01*
X144959605Y-113030000D01*
X145852196Y-113922591D01*
X146107539Y-113837533D01*
X146315516Y-113268035D01*
X146315516Y-119824500D01*
X145672591Y-119824500D01*
X145672591Y-114102196D01*
X144780000Y-113209605D01*
X144600395Y-113389210D01*
X144600395Y-113030000D01*
X143707804Y-112137409D01*
X143542862Y-112192353D01*
X143532738Y-112167851D01*
X143104404Y-111738769D01*
X142544472Y-111506265D01*
X141938188Y-111505736D01*
X141377851Y-111737262D01*
X140948769Y-112165596D01*
X140716265Y-112725528D01*
X140715736Y-113331812D01*
X140947262Y-113892149D01*
X141375596Y-114321231D01*
X141935528Y-114553735D01*
X142541812Y-114554264D01*
X143102149Y-114322738D01*
X143531231Y-113894404D01*
X143542404Y-113867494D01*
X143707804Y-113922591D01*
X144600395Y-113030000D01*
X144600395Y-113389210D01*
X143887409Y-114102196D01*
X143972467Y-114357539D01*
X144541965Y-114565516D01*
X145147700Y-114539723D01*
X145587533Y-114357539D01*
X145672591Y-114102196D01*
X145672591Y-119824500D01*
X139954264Y-119824500D01*
X139954264Y-116538188D01*
X139954264Y-106378188D01*
X139722738Y-105817851D01*
X139315262Y-105409664D01*
X139721231Y-105004404D01*
X139953735Y-104444472D01*
X139954264Y-103838188D01*
X139722738Y-103277851D01*
X139315262Y-102869664D01*
X139721231Y-102464404D01*
X139953735Y-101904472D01*
X139954264Y-101298188D01*
X139722738Y-100737851D01*
X139315262Y-100329664D01*
X139721231Y-99924404D01*
X139953735Y-99364472D01*
X139954264Y-98758188D01*
X139722738Y-98197851D01*
X139294404Y-97768769D01*
X138734472Y-97536265D01*
X138128188Y-97535736D01*
X137567851Y-97767262D01*
X137138769Y-98195596D01*
X136906265Y-98755528D01*
X136905736Y-99361812D01*
X137137262Y-99922149D01*
X137544737Y-100330335D01*
X137138769Y-100735596D01*
X136906265Y-101295528D01*
X136905736Y-101901812D01*
X137137262Y-102462149D01*
X137544737Y-102870335D01*
X137138769Y-103275596D01*
X136906265Y-103835528D01*
X136905736Y-104441812D01*
X137137262Y-105002149D01*
X137544737Y-105410335D01*
X137138769Y-105815596D01*
X136906265Y-106375528D01*
X136905736Y-106981812D01*
X137137262Y-107542149D01*
X137565596Y-107971231D01*
X138125528Y-108203735D01*
X138731812Y-108204264D01*
X139292149Y-107972738D01*
X139721231Y-107544404D01*
X139953735Y-106984472D01*
X139954264Y-106378188D01*
X139954264Y-116538188D01*
X139722738Y-115977851D01*
X139294404Y-115548769D01*
X138734472Y-115316265D01*
X138128188Y-115315736D01*
X137567851Y-115547262D01*
X137138769Y-115975596D01*
X136906265Y-116535528D01*
X136905736Y-117141812D01*
X137137262Y-117702149D01*
X137565596Y-118131231D01*
X138125528Y-118363735D01*
X138731812Y-118364264D01*
X139292149Y-118132738D01*
X139721231Y-117704404D01*
X139953735Y-117144472D01*
X139954264Y-116538188D01*
X139954264Y-119824500D01*
X131635500Y-119824500D01*
X131635500Y-82105500D01*
X159194500Y-82105500D01*
X159194500Y-119824500D01*
M02*
