G04 #@! TF.FileFunction,Copper,L2,Bot,Signal*
%FSLAX46Y46*%
G04 Gerber Fmt 4.6, Leading zero omitted, Abs format (unit mm)*
G04 Created by KiCad (PCBNEW 0.201412031631+5310~19~ubuntu14.04.1-product) date sáb 06 dic 2014 00:19:59 CET*
%MOMM*%
G01*
G04 APERTURE LIST*
%ADD10C,0.100000*%
%ADD11C,0.304800*%
%ADD12C,1.778000*%
%ADD13R,1.574800X2.286000*%
%ADD14O,1.574800X2.286000*%
%ADD15R,1.651000X1.651000*%
%ADD16C,1.016000*%
%ADD17C,0.254000*%
G04 APERTURE END LIST*
D10*
D11*
X157818667Y-99967144D02*
X157818667Y-100692858D01*
X158399238Y-99822001D02*
X156367238Y-100330001D01*
X158399238Y-100838001D01*
X158399238Y-101346001D02*
X156367238Y-101346001D01*
X157625143Y-101491144D02*
X158399238Y-101926573D01*
X157044571Y-101926573D02*
X157818667Y-101346001D01*
X158399238Y-102797429D02*
X158302476Y-102652287D01*
X158205714Y-102579715D01*
X158012190Y-102507144D01*
X157431619Y-102507144D01*
X157238095Y-102579715D01*
X157141333Y-102652287D01*
X157044571Y-102797429D01*
X157044571Y-103015144D01*
X157141333Y-103160287D01*
X157238095Y-103232858D01*
X157431619Y-103305429D01*
X158012190Y-103305429D01*
X158205714Y-103232858D01*
X158302476Y-103160287D01*
X158399238Y-103015144D01*
X158399238Y-102797429D01*
X158399238Y-103958572D02*
X157044571Y-103958572D01*
X157431619Y-103958572D02*
X157238095Y-104031144D01*
X157141333Y-104103715D01*
X157044571Y-104248858D01*
X157044571Y-104394001D01*
X157044571Y-104902001D02*
X158399238Y-104902001D01*
X157238095Y-104902001D02*
X157141333Y-104974573D01*
X157044571Y-105119715D01*
X157044571Y-105337430D01*
X157141333Y-105482573D01*
X157334857Y-105555144D01*
X158399238Y-105555144D01*
X158302476Y-106208287D02*
X158399238Y-106353430D01*
X158399238Y-106643715D01*
X158302476Y-106788858D01*
X158108952Y-106861430D01*
X158012190Y-106861430D01*
X157818667Y-106788858D01*
X157721905Y-106643715D01*
X157721905Y-106426001D01*
X157625143Y-106280858D01*
X157431619Y-106208287D01*
X157334857Y-106208287D01*
X157141333Y-106280858D01*
X157044571Y-106426001D01*
X157044571Y-106643715D01*
X157141333Y-106788858D01*
X157044571Y-107369429D02*
X158399238Y-107732286D01*
X157044571Y-108095144D02*
X158399238Y-107732286D01*
X158883048Y-107587144D01*
X158979810Y-107514572D01*
X159076571Y-107369429D01*
X158302476Y-108603144D02*
X158399238Y-108748287D01*
X158399238Y-109038572D01*
X158302476Y-109183715D01*
X158108952Y-109256287D01*
X158012190Y-109256287D01*
X157818667Y-109183715D01*
X157721905Y-109038572D01*
X157721905Y-108820858D01*
X157625143Y-108675715D01*
X157431619Y-108603144D01*
X157334857Y-108603144D01*
X157141333Y-108675715D01*
X157044571Y-108820858D01*
X157044571Y-109038572D01*
X157141333Y-109183715D01*
X157625143Y-109909429D02*
X157625143Y-111070572D01*
X158399238Y-111796286D02*
X157044571Y-111796286D01*
X157431619Y-111796286D02*
X157238095Y-111868858D01*
X157141333Y-111941429D01*
X157044571Y-112086572D01*
X157044571Y-112231715D01*
X158399238Y-113392858D02*
X156367238Y-113392858D01*
X158302476Y-113392858D02*
X158399238Y-113247715D01*
X158399238Y-112957429D01*
X158302476Y-112812287D01*
X158205714Y-112739715D01*
X158012190Y-112667144D01*
X157431619Y-112667144D01*
X157238095Y-112739715D01*
X157141333Y-112812287D01*
X157044571Y-112957429D01*
X157044571Y-113247715D01*
X157141333Y-113392858D01*
X158399238Y-114118572D02*
X157044571Y-114118572D01*
X156367238Y-114118572D02*
X156464000Y-114046001D01*
X156560762Y-114118572D01*
X156464000Y-114191144D01*
X156367238Y-114118572D01*
X156560762Y-114118572D01*
X158205714Y-114844286D02*
X158302476Y-114916858D01*
X158399238Y-114844286D01*
X158302476Y-114771715D01*
X158205714Y-114844286D01*
X158399238Y-114844286D01*
X157044571Y-115570000D02*
X158399238Y-115570000D01*
X157238095Y-115570000D02*
X157141333Y-115642572D01*
X157044571Y-115787714D01*
X157044571Y-116005429D01*
X157141333Y-116150572D01*
X157334857Y-116223143D01*
X158399238Y-116223143D01*
X158302476Y-117529429D02*
X158399238Y-117384286D01*
X158399238Y-117094000D01*
X158302476Y-116948857D01*
X158108952Y-116876286D01*
X157334857Y-116876286D01*
X157141333Y-116948857D01*
X157044571Y-117094000D01*
X157044571Y-117384286D01*
X157141333Y-117529429D01*
X157334857Y-117602000D01*
X157528381Y-117602000D01*
X157721905Y-116876286D01*
X157044571Y-118037429D02*
X157044571Y-118618000D01*
X156367238Y-118255143D02*
X158108952Y-118255143D01*
X158302476Y-118327715D01*
X158399238Y-118472857D01*
X158399238Y-118618000D01*
D12*
X144780000Y-107950000D03*
X142240000Y-107950000D03*
X149860000Y-113030000D03*
X152400000Y-113030000D03*
D13*
X140970000Y-95250000D03*
D14*
X143510000Y-95250000D03*
X146050000Y-95250000D03*
X148590000Y-95250000D03*
X148590000Y-87630000D03*
X146050000Y-87630000D03*
X143510000Y-87630000D03*
X140970000Y-87630000D03*
D12*
X152400000Y-105410000D03*
X152400000Y-107950000D03*
X142240000Y-113030000D03*
X144780000Y-113030000D03*
X152400000Y-97790000D03*
X152400000Y-87630000D03*
X138430000Y-101600000D03*
X148590000Y-101600000D03*
X138430000Y-99060000D03*
X148590000Y-99060000D03*
X148590000Y-104140000D03*
X138430000Y-104140000D03*
X138430000Y-116840000D03*
X138430000Y-106680000D03*
D15*
X149860000Y-116840000D03*
D12*
X152400000Y-116840000D03*
D16*
X152400000Y-85090000D02*
X152400000Y-87630000D01*
X146050000Y-87630000D02*
X146050000Y-85090000D01*
X147320000Y-83820000D02*
X151130000Y-83820000D01*
X146050000Y-85090000D02*
X147320000Y-83820000D01*
X143510000Y-87630000D02*
X146050000Y-87630000D01*
X151130000Y-83820000D02*
X152400000Y-85090000D01*
X140970000Y-107950000D02*
X139700000Y-106680000D01*
X142240000Y-113030000D02*
X142240000Y-107950000D01*
X138430000Y-106680000D02*
X139700000Y-106680000D01*
X139700000Y-106680000D02*
X138430000Y-106680000D01*
X142240000Y-107950000D02*
X140970000Y-107950000D01*
X138430000Y-104140000D02*
X138430000Y-106680000D01*
X149860000Y-104140000D02*
X148590000Y-104140000D01*
X151130000Y-100330000D02*
X151130000Y-102870000D01*
X149860000Y-99060000D02*
X151130000Y-100330000D01*
X148590000Y-99060000D02*
X149860000Y-99060000D01*
X146050000Y-97790000D02*
X147320000Y-99060000D01*
X147320000Y-99060000D02*
X148590000Y-99060000D01*
X146050000Y-95250000D02*
X146050000Y-97790000D01*
X151130000Y-102870000D02*
X149860000Y-104140000D01*
X152400000Y-105410000D02*
X152400000Y-104140000D01*
X152400000Y-99060000D02*
X152400000Y-97790000D01*
X153670000Y-100330000D02*
X152400000Y-99060000D01*
X153670000Y-102870000D02*
X153670000Y-100330000D01*
X152400000Y-104140000D02*
X153670000Y-102870000D01*
X140970000Y-95250000D02*
X139700000Y-95250000D01*
X138430000Y-96520000D02*
X138430000Y-99060000D01*
X139700000Y-95250000D02*
X138430000Y-96520000D01*
X138430000Y-101600000D02*
X138430000Y-99060000D01*
X144780000Y-91440000D02*
X147320000Y-91440000D01*
X143510000Y-104140000D02*
X143510000Y-101600000D01*
X144780000Y-105410000D02*
X143510000Y-104140000D01*
X148590000Y-101600000D02*
X143510000Y-101600000D01*
X143510000Y-101600000D02*
X143510000Y-95250000D01*
X143510000Y-95250000D02*
X143510000Y-92710000D01*
X148590000Y-90170000D02*
X148590000Y-87630000D01*
X143510000Y-92710000D02*
X144780000Y-91440000D01*
X144780000Y-107950000D02*
X144780000Y-105410000D01*
X147320000Y-91440000D02*
X148590000Y-90170000D01*
X135890000Y-96520000D02*
X140970000Y-91440000D01*
X135890000Y-115570000D02*
X135890000Y-96520000D01*
X137160000Y-116840000D02*
X135890000Y-115570000D01*
X138430000Y-116840000D02*
X149860000Y-116840000D01*
X149860000Y-116840000D02*
X149860000Y-113030000D01*
X138430000Y-116840000D02*
X137160000Y-116840000D01*
X140970000Y-91440000D02*
X140970000Y-87630000D01*
D17*
G36*
X159194500Y-119824500D02*
X154813000Y-119824500D01*
X154813000Y-102870000D01*
X154813000Y-100330000D01*
X154802694Y-100224894D01*
X154793495Y-100119743D01*
X154791818Y-100113972D01*
X154791232Y-100107990D01*
X154760727Y-100006954D01*
X154731260Y-99905526D01*
X154728491Y-99900184D01*
X154726756Y-99894437D01*
X154677206Y-99801247D01*
X154628600Y-99707477D01*
X154624851Y-99702781D01*
X154622029Y-99697473D01*
X154555305Y-99615661D01*
X154489429Y-99533140D01*
X154481177Y-99524773D01*
X154481039Y-99524603D01*
X154480881Y-99524472D01*
X154478223Y-99521777D01*
X153636937Y-98680491D01*
X153731522Y-98546410D01*
X153853084Y-98273377D01*
X153919299Y-97981932D01*
X153924065Y-97640564D01*
X153866014Y-97347384D01*
X153752123Y-97071063D01*
X153586730Y-96822127D01*
X153376135Y-96610056D01*
X153128359Y-96442929D01*
X152852840Y-96327112D01*
X152560072Y-96267015D01*
X152261208Y-96264929D01*
X151967630Y-96320932D01*
X151690520Y-96432891D01*
X151440435Y-96596542D01*
X151226899Y-96805652D01*
X151058047Y-97052255D01*
X150940309Y-97326959D01*
X150878170Y-97619299D01*
X150873997Y-97918142D01*
X150927949Y-98212104D01*
X151037971Y-98489988D01*
X151199872Y-98741210D01*
X151257000Y-98800367D01*
X151257000Y-98840554D01*
X150668223Y-98251777D01*
X150586606Y-98184736D01*
X150505757Y-98116895D01*
X150500492Y-98114001D01*
X150495846Y-98110184D01*
X150402791Y-98060288D01*
X150310276Y-98009428D01*
X150304544Y-98007609D01*
X150299250Y-98004771D01*
X150198321Y-97973913D01*
X150097643Y-97941977D01*
X150091668Y-97941306D01*
X150085922Y-97939550D01*
X150012400Y-97932081D01*
X150012400Y-95732600D01*
X150012400Y-95377000D01*
X150012400Y-95123000D01*
X150012400Y-94767400D01*
X149960293Y-94492344D01*
X149855526Y-94232738D01*
X149702125Y-93998560D01*
X149505986Y-93798808D01*
X149274646Y-93641159D01*
X149016996Y-93531672D01*
X148937060Y-93514990D01*
X148717000Y-93637148D01*
X148717000Y-95123000D01*
X150012400Y-95123000D01*
X150012400Y-95377000D01*
X148717000Y-95377000D01*
X148717000Y-96862852D01*
X148937060Y-96985010D01*
X149016996Y-96968328D01*
X149274646Y-96858841D01*
X149505986Y-96701192D01*
X149702125Y-96501440D01*
X149855526Y-96267262D01*
X149960293Y-96007656D01*
X150012400Y-95732600D01*
X150012400Y-97932081D01*
X149980921Y-97928884D01*
X149875959Y-97917111D01*
X149864208Y-97917029D01*
X149863989Y-97917007D01*
X149863784Y-97917026D01*
X149860000Y-97917000D01*
X149602821Y-97917000D01*
X149566135Y-97880056D01*
X149318359Y-97712929D01*
X149042840Y-97597112D01*
X148750072Y-97537015D01*
X148451208Y-97534929D01*
X148157630Y-97590932D01*
X147880520Y-97702891D01*
X147698468Y-97822022D01*
X147193000Y-97316554D01*
X147193000Y-96454328D01*
X147223641Y-96417812D01*
X147316825Y-96248310D01*
X147324474Y-96267262D01*
X147477875Y-96501440D01*
X147674014Y-96701192D01*
X147905354Y-96858841D01*
X148163004Y-96968328D01*
X148242940Y-96985010D01*
X148463000Y-96862852D01*
X148463000Y-95377000D01*
X148443000Y-95377000D01*
X148443000Y-95123000D01*
X148463000Y-95123000D01*
X148463000Y-93637148D01*
X148242940Y-93514990D01*
X148163004Y-93531672D01*
X147905354Y-93641159D01*
X147674014Y-93798808D01*
X147477875Y-93998560D01*
X147324474Y-94232738D01*
X147316520Y-94252446D01*
X147234747Y-94098653D01*
X147059293Y-93883525D01*
X146845396Y-93706574D01*
X146601202Y-93574539D01*
X146336013Y-93492449D01*
X146059930Y-93463432D01*
X145783469Y-93488592D01*
X145517160Y-93566971D01*
X145271146Y-93695583D01*
X145054799Y-93869531D01*
X144876359Y-94082188D01*
X144779587Y-94258214D01*
X144694747Y-94098653D01*
X144653000Y-94047466D01*
X144653000Y-93183446D01*
X145253446Y-92583000D01*
X147320000Y-92583000D01*
X147425105Y-92572694D01*
X147530257Y-92563495D01*
X147536027Y-92561818D01*
X147542010Y-92561232D01*
X147643058Y-92530723D01*
X147744473Y-92501260D01*
X147749812Y-92498492D01*
X147755563Y-92496756D01*
X147848731Y-92447217D01*
X147942523Y-92398601D01*
X147947222Y-92394849D01*
X147952527Y-92392029D01*
X148034310Y-92325327D01*
X148116860Y-92259429D01*
X148125226Y-92251177D01*
X148125397Y-92251039D01*
X148125527Y-92250881D01*
X148128223Y-92248223D01*
X149398223Y-90978223D01*
X149465241Y-90896633D01*
X149533105Y-90815757D01*
X149536000Y-90810489D01*
X149539815Y-90805846D01*
X149589689Y-90712830D01*
X149640572Y-90620276D01*
X149642390Y-90614544D01*
X149645229Y-90609250D01*
X149676086Y-90508321D01*
X149708023Y-90407643D01*
X149708693Y-90401668D01*
X149710450Y-90395922D01*
X149721116Y-90290916D01*
X149732889Y-90185959D01*
X149732970Y-90174209D01*
X149732993Y-90173990D01*
X149732973Y-90173785D01*
X149733000Y-90170000D01*
X149733000Y-88834328D01*
X149763641Y-88797812D01*
X149897378Y-88554546D01*
X149981317Y-88289937D01*
X150012261Y-88014063D01*
X150012400Y-87994203D01*
X150012400Y-87265797D01*
X149985311Y-86989518D01*
X149905074Y-86723762D01*
X149774747Y-86478653D01*
X149599293Y-86263525D01*
X149385396Y-86086574D01*
X149141202Y-85954539D01*
X148876013Y-85872449D01*
X148599930Y-85843432D01*
X148323469Y-85868592D01*
X148057160Y-85946971D01*
X147811146Y-86075583D01*
X147594799Y-86249531D01*
X147416359Y-86462188D01*
X147319587Y-86638214D01*
X147234747Y-86478653D01*
X147193000Y-86427466D01*
X147193000Y-85563446D01*
X147793446Y-84963000D01*
X150656554Y-84963000D01*
X151257000Y-85563446D01*
X151257000Y-86616174D01*
X151226899Y-86645652D01*
X151058047Y-86892255D01*
X150940309Y-87166959D01*
X150878170Y-87459299D01*
X150873997Y-87758142D01*
X150927949Y-88052104D01*
X151037971Y-88329988D01*
X151199872Y-88581210D01*
X151407486Y-88796200D01*
X151652904Y-88966770D01*
X151926779Y-89086423D01*
X152218679Y-89150602D01*
X152517486Y-89156861D01*
X152811817Y-89104962D01*
X153090462Y-88996883D01*
X153342808Y-88836739D01*
X153559243Y-88630631D01*
X153731522Y-88386410D01*
X153853084Y-88113377D01*
X153919299Y-87821932D01*
X153924065Y-87480564D01*
X153866014Y-87187384D01*
X153752123Y-86911063D01*
X153586730Y-86662127D01*
X153543000Y-86618090D01*
X153543000Y-85090000D01*
X153532694Y-84984894D01*
X153523495Y-84879743D01*
X153521818Y-84873972D01*
X153521232Y-84867990D01*
X153490727Y-84766954D01*
X153461260Y-84665526D01*
X153458491Y-84660184D01*
X153456756Y-84654437D01*
X153407206Y-84561247D01*
X153358600Y-84467477D01*
X153354851Y-84462781D01*
X153352029Y-84457473D01*
X153285305Y-84375661D01*
X153219429Y-84293140D01*
X153211177Y-84284773D01*
X153211039Y-84284603D01*
X153210881Y-84284472D01*
X153208223Y-84281777D01*
X151938223Y-83011777D01*
X151856606Y-82944736D01*
X151775757Y-82876895D01*
X151770492Y-82874001D01*
X151765846Y-82870184D01*
X151672791Y-82820288D01*
X151580276Y-82769428D01*
X151574544Y-82767609D01*
X151569250Y-82764771D01*
X151468321Y-82733913D01*
X151367643Y-82701977D01*
X151361668Y-82701306D01*
X151355922Y-82699550D01*
X151250921Y-82688884D01*
X151145959Y-82677111D01*
X151134208Y-82677029D01*
X151133989Y-82677007D01*
X151133784Y-82677026D01*
X151130000Y-82677000D01*
X147320000Y-82677000D01*
X147214894Y-82687305D01*
X147109743Y-82696505D01*
X147103972Y-82698181D01*
X147097990Y-82698768D01*
X146996954Y-82729272D01*
X146895526Y-82758740D01*
X146890184Y-82761508D01*
X146884437Y-82763244D01*
X146791247Y-82812793D01*
X146697477Y-82861400D01*
X146692781Y-82865148D01*
X146687473Y-82867971D01*
X146605661Y-82934694D01*
X146523140Y-83000571D01*
X146514773Y-83008822D01*
X146514603Y-83008961D01*
X146514472Y-83009118D01*
X146511777Y-83011777D01*
X145241777Y-84281777D01*
X145174736Y-84363393D01*
X145106895Y-84444243D01*
X145104001Y-84449507D01*
X145100184Y-84454154D01*
X145050288Y-84547208D01*
X144999428Y-84639724D01*
X144997609Y-84645455D01*
X144994771Y-84650750D01*
X144963913Y-84751678D01*
X144931977Y-84852357D01*
X144931306Y-84858331D01*
X144929550Y-84864078D01*
X144918884Y-84969078D01*
X144907111Y-85074041D01*
X144907029Y-85085791D01*
X144907007Y-85086011D01*
X144907026Y-85086215D01*
X144907000Y-85090000D01*
X144907000Y-86425671D01*
X144876359Y-86462188D01*
X144862718Y-86487000D01*
X144699185Y-86487000D01*
X144694747Y-86478653D01*
X144519293Y-86263525D01*
X144305396Y-86086574D01*
X144061202Y-85954539D01*
X143796013Y-85872449D01*
X143519930Y-85843432D01*
X143243469Y-85868592D01*
X142977160Y-85946971D01*
X142731146Y-86075583D01*
X142514799Y-86249531D01*
X142336359Y-86462188D01*
X142239587Y-86638214D01*
X142154747Y-86478653D01*
X141979293Y-86263525D01*
X141765396Y-86086574D01*
X141521202Y-85954539D01*
X141256013Y-85872449D01*
X140979930Y-85843432D01*
X140703469Y-85868592D01*
X140437160Y-85946971D01*
X140191146Y-86075583D01*
X139974799Y-86249531D01*
X139796359Y-86462188D01*
X139662622Y-86705454D01*
X139578683Y-86970063D01*
X139547739Y-87245937D01*
X139547600Y-87265797D01*
X139547600Y-87994203D01*
X139574689Y-88270482D01*
X139654926Y-88536238D01*
X139785253Y-88781347D01*
X139827000Y-88832533D01*
X139827000Y-90966554D01*
X135081777Y-95711777D01*
X135014736Y-95793393D01*
X134946895Y-95874243D01*
X134944001Y-95879507D01*
X134940184Y-95884154D01*
X134890288Y-95977208D01*
X134839428Y-96069724D01*
X134837609Y-96075455D01*
X134834771Y-96080750D01*
X134803913Y-96181678D01*
X134771977Y-96282357D01*
X134771306Y-96288331D01*
X134769550Y-96294078D01*
X134758884Y-96399078D01*
X134747111Y-96504041D01*
X134747029Y-96515791D01*
X134747007Y-96516011D01*
X134747026Y-96516215D01*
X134747000Y-96520000D01*
X134747000Y-115570000D01*
X134757305Y-115675105D01*
X134766505Y-115780257D01*
X134768181Y-115786027D01*
X134768768Y-115792010D01*
X134799276Y-115893058D01*
X134828740Y-115994473D01*
X134831507Y-115999812D01*
X134833244Y-116005563D01*
X134882782Y-116098731D01*
X134931399Y-116192523D01*
X134935150Y-116197222D01*
X134937971Y-116202527D01*
X135004672Y-116284310D01*
X135070571Y-116366860D01*
X135078822Y-116375226D01*
X135078961Y-116375397D01*
X135079118Y-116375527D01*
X135081777Y-116378223D01*
X136351777Y-117648223D01*
X136433366Y-117715241D01*
X136514243Y-117783105D01*
X136519510Y-117786000D01*
X136524154Y-117789815D01*
X136617169Y-117839689D01*
X136709724Y-117890572D01*
X136715455Y-117892390D01*
X136720750Y-117895229D01*
X136821678Y-117926086D01*
X136922357Y-117958023D01*
X136928331Y-117958693D01*
X136934078Y-117960450D01*
X137039083Y-117971116D01*
X137144041Y-117982889D01*
X137155790Y-117982970D01*
X137156010Y-117982993D01*
X137156214Y-117982973D01*
X137160000Y-117983000D01*
X137415081Y-117983000D01*
X137437486Y-118006200D01*
X137682904Y-118176770D01*
X137956779Y-118296423D01*
X138248679Y-118360602D01*
X138547486Y-118366861D01*
X138841817Y-118314962D01*
X139120462Y-118206883D01*
X139372808Y-118046739D01*
X139439740Y-117983000D01*
X148487043Y-117983000D01*
X148557174Y-118088934D01*
X148693708Y-118204942D01*
X148857111Y-118278419D01*
X149034500Y-118303572D01*
X150685500Y-118303572D01*
X150788543Y-118295197D01*
X150959541Y-118241727D01*
X151108934Y-118142826D01*
X151224942Y-118006292D01*
X151298419Y-117842889D01*
X151317533Y-117708088D01*
X151343769Y-117716626D01*
X152220395Y-116840000D01*
X151343769Y-115963374D01*
X151320044Y-115971094D01*
X151315197Y-115911457D01*
X151261727Y-115740459D01*
X151162826Y-115591066D01*
X151026292Y-115475058D01*
X151003000Y-115464584D01*
X151003000Y-114046098D01*
X151019243Y-114030631D01*
X151150977Y-113843885D01*
X151343769Y-113906626D01*
X152220395Y-113030000D01*
X151343769Y-112153374D01*
X151149383Y-112216633D01*
X151046730Y-112062127D01*
X150836135Y-111850056D01*
X150588359Y-111682929D01*
X150312840Y-111567112D01*
X150020072Y-111507015D01*
X149721208Y-111504929D01*
X149427630Y-111560932D01*
X149150520Y-111672891D01*
X148900435Y-111836542D01*
X148686899Y-112045652D01*
X148518047Y-112292255D01*
X148400309Y-112566959D01*
X148338170Y-112859299D01*
X148333997Y-113158142D01*
X148387949Y-113452104D01*
X148497971Y-113729988D01*
X148659872Y-113981210D01*
X148717000Y-114040367D01*
X148717000Y-115467043D01*
X148611066Y-115537174D01*
X148495058Y-115673708D01*
X148484584Y-115697000D01*
X146309908Y-115697000D01*
X146309908Y-112963012D01*
X146267443Y-112665829D01*
X146167816Y-112382641D01*
X146089289Y-112235727D01*
X145836231Y-112153374D01*
X145656626Y-112332979D01*
X145656626Y-111973769D01*
X145574273Y-111720711D01*
X145303582Y-111590914D01*
X145012770Y-111516420D01*
X144713012Y-111500092D01*
X144415829Y-111542557D01*
X144132641Y-111642184D01*
X143985727Y-111720711D01*
X143903374Y-111973769D01*
X144780000Y-112850395D01*
X145656626Y-111973769D01*
X145656626Y-112332979D01*
X144959605Y-113030000D01*
X145836231Y-113906626D01*
X146089289Y-113824273D01*
X146219086Y-113553582D01*
X146293580Y-113262770D01*
X146309908Y-112963012D01*
X146309908Y-115697000D01*
X145656626Y-115697000D01*
X145656626Y-114086231D01*
X144780000Y-113209605D01*
X143903374Y-114086231D01*
X143985727Y-114339289D01*
X144256418Y-114469086D01*
X144547230Y-114543580D01*
X144846988Y-114559908D01*
X145144171Y-114517443D01*
X145427359Y-114417816D01*
X145574273Y-114339289D01*
X145656626Y-114086231D01*
X145656626Y-115697000D01*
X139442821Y-115697000D01*
X139406135Y-115660056D01*
X139158359Y-115492929D01*
X138882840Y-115377112D01*
X138590072Y-115317015D01*
X138291208Y-115314929D01*
X137997630Y-115370932D01*
X137720520Y-115482891D01*
X137538468Y-115602022D01*
X137033000Y-115096554D01*
X137033000Y-107291661D01*
X137067971Y-107379988D01*
X137229872Y-107631210D01*
X137437486Y-107846200D01*
X137682904Y-108016770D01*
X137956779Y-108136423D01*
X138248679Y-108200602D01*
X138547486Y-108206861D01*
X138841817Y-108154962D01*
X139120462Y-108046883D01*
X139322328Y-107918774D01*
X140161777Y-108758223D01*
X140243366Y-108825241D01*
X140324243Y-108893105D01*
X140329510Y-108896000D01*
X140334154Y-108899815D01*
X140427169Y-108949689D01*
X140519724Y-109000572D01*
X140525455Y-109002390D01*
X140530750Y-109005229D01*
X140631678Y-109036086D01*
X140732357Y-109068023D01*
X140738331Y-109068693D01*
X140744078Y-109070450D01*
X140849083Y-109081116D01*
X140954041Y-109092889D01*
X140965790Y-109092970D01*
X140966010Y-109092993D01*
X140966214Y-109092973D01*
X140970000Y-109093000D01*
X141097000Y-109093000D01*
X141097000Y-112016174D01*
X141066899Y-112045652D01*
X140898047Y-112292255D01*
X140780309Y-112566959D01*
X140718170Y-112859299D01*
X140713997Y-113158142D01*
X140767949Y-113452104D01*
X140877971Y-113729988D01*
X141039872Y-113981210D01*
X141247486Y-114196200D01*
X141492904Y-114366770D01*
X141766779Y-114486423D01*
X142058679Y-114550602D01*
X142357486Y-114556861D01*
X142651817Y-114504962D01*
X142930462Y-114396883D01*
X143182808Y-114236739D01*
X143399243Y-114030631D01*
X143530977Y-113843885D01*
X143723769Y-113906626D01*
X144600395Y-113030000D01*
X143723769Y-112153374D01*
X143529383Y-112216633D01*
X143426730Y-112062127D01*
X143383000Y-112018090D01*
X143383000Y-108966098D01*
X143399243Y-108950631D01*
X143510280Y-108793225D01*
X143579872Y-108901210D01*
X143787486Y-109116200D01*
X144032904Y-109286770D01*
X144306779Y-109406423D01*
X144598679Y-109470602D01*
X144897486Y-109476861D01*
X145191817Y-109424962D01*
X145470462Y-109316883D01*
X145722808Y-109156739D01*
X145939243Y-108950631D01*
X146111522Y-108706410D01*
X146233084Y-108433377D01*
X146299299Y-108141932D01*
X146304065Y-107800564D01*
X146246014Y-107507384D01*
X146132123Y-107231063D01*
X145966730Y-106982127D01*
X145923000Y-106938090D01*
X145923000Y-105410000D01*
X145912694Y-105304894D01*
X145903495Y-105199743D01*
X145901818Y-105193972D01*
X145901232Y-105187990D01*
X145870727Y-105086954D01*
X145841260Y-104985526D01*
X145838491Y-104980184D01*
X145836756Y-104974437D01*
X145787206Y-104881247D01*
X145738600Y-104787477D01*
X145734851Y-104782781D01*
X145732029Y-104777473D01*
X145665305Y-104695661D01*
X145599429Y-104613140D01*
X145591177Y-104604773D01*
X145591039Y-104604603D01*
X145590881Y-104604472D01*
X145588223Y-104601777D01*
X144653000Y-103666554D01*
X144653000Y-102743000D01*
X147575081Y-102743000D01*
X147597486Y-102766200D01*
X147747110Y-102870191D01*
X147630435Y-102946542D01*
X147416899Y-103155652D01*
X147248047Y-103402255D01*
X147130309Y-103676959D01*
X147068170Y-103969299D01*
X147063997Y-104268142D01*
X147117949Y-104562104D01*
X147227971Y-104839988D01*
X147389872Y-105091210D01*
X147597486Y-105306200D01*
X147842904Y-105476770D01*
X148116779Y-105596423D01*
X148408679Y-105660602D01*
X148707486Y-105666861D01*
X149001817Y-105614962D01*
X149280462Y-105506883D01*
X149532808Y-105346739D01*
X149599740Y-105283000D01*
X149860000Y-105283000D01*
X149965105Y-105272694D01*
X150070257Y-105263495D01*
X150076027Y-105261818D01*
X150082010Y-105261232D01*
X150183058Y-105230723D01*
X150284473Y-105201260D01*
X150289812Y-105198492D01*
X150295563Y-105196756D01*
X150388731Y-105147217D01*
X150482523Y-105098601D01*
X150487222Y-105094849D01*
X150492527Y-105092029D01*
X150574310Y-105025327D01*
X150656860Y-104959429D01*
X150665226Y-104951177D01*
X150665397Y-104951039D01*
X150665527Y-104950881D01*
X150668223Y-104948223D01*
X151257000Y-104359446D01*
X151257000Y-104396174D01*
X151226899Y-104425652D01*
X151058047Y-104672255D01*
X150940309Y-104946959D01*
X150878170Y-105239299D01*
X150873997Y-105538142D01*
X150927949Y-105832104D01*
X151037971Y-106109988D01*
X151199872Y-106361210D01*
X151407486Y-106576200D01*
X151586280Y-106700465D01*
X151523374Y-106893769D01*
X152400000Y-107770395D01*
X153276626Y-106893769D01*
X153213232Y-106698970D01*
X153342808Y-106616739D01*
X153559243Y-106410631D01*
X153731522Y-106166410D01*
X153853084Y-105893377D01*
X153919299Y-105601932D01*
X153924065Y-105260564D01*
X153866014Y-104967384D01*
X153752123Y-104691063D01*
X153637661Y-104518784D01*
X154478223Y-103678223D01*
X154545241Y-103596633D01*
X154613105Y-103515757D01*
X154616000Y-103510489D01*
X154619815Y-103505846D01*
X154669689Y-103412830D01*
X154720572Y-103320276D01*
X154722390Y-103314544D01*
X154725229Y-103309250D01*
X154756086Y-103208321D01*
X154788023Y-103107643D01*
X154788693Y-103101668D01*
X154790450Y-103095922D01*
X154801116Y-102990916D01*
X154812889Y-102885959D01*
X154812970Y-102874209D01*
X154812993Y-102873990D01*
X154812973Y-102873785D01*
X154813000Y-102870000D01*
X154813000Y-119824500D01*
X153929908Y-119824500D01*
X153929908Y-116773012D01*
X153929908Y-112963012D01*
X153929908Y-107883012D01*
X153887443Y-107585829D01*
X153787816Y-107302641D01*
X153709289Y-107155727D01*
X153456231Y-107073374D01*
X152579605Y-107950000D01*
X153456231Y-108826626D01*
X153709289Y-108744273D01*
X153839086Y-108473582D01*
X153913580Y-108182770D01*
X153929908Y-107883012D01*
X153929908Y-112963012D01*
X153887443Y-112665829D01*
X153787816Y-112382641D01*
X153709289Y-112235727D01*
X153456231Y-112153374D01*
X153276626Y-112332979D01*
X153276626Y-111973769D01*
X153276626Y-109006231D01*
X152400000Y-108129605D01*
X152220395Y-108309210D01*
X152220395Y-107950000D01*
X151343769Y-107073374D01*
X151090711Y-107155727D01*
X150960914Y-107426418D01*
X150886420Y-107717230D01*
X150870092Y-108016988D01*
X150912557Y-108314171D01*
X151012184Y-108597359D01*
X151090711Y-108744273D01*
X151343769Y-108826626D01*
X152220395Y-107950000D01*
X152220395Y-108309210D01*
X151523374Y-109006231D01*
X151605727Y-109259289D01*
X151876418Y-109389086D01*
X152167230Y-109463580D01*
X152466988Y-109479908D01*
X152764171Y-109437443D01*
X153047359Y-109337816D01*
X153194273Y-109259289D01*
X153276626Y-109006231D01*
X153276626Y-111973769D01*
X153194273Y-111720711D01*
X152923582Y-111590914D01*
X152632770Y-111516420D01*
X152333012Y-111500092D01*
X152035829Y-111542557D01*
X151752641Y-111642184D01*
X151605727Y-111720711D01*
X151523374Y-111973769D01*
X152400000Y-112850395D01*
X153276626Y-111973769D01*
X153276626Y-112332979D01*
X152579605Y-113030000D01*
X153456231Y-113906626D01*
X153709289Y-113824273D01*
X153839086Y-113553582D01*
X153913580Y-113262770D01*
X153929908Y-112963012D01*
X153929908Y-116773012D01*
X153887443Y-116475829D01*
X153787816Y-116192641D01*
X153709289Y-116045727D01*
X153456231Y-115963374D01*
X153276626Y-116142979D01*
X153276626Y-115783769D01*
X153276626Y-114086231D01*
X152400000Y-113209605D01*
X151523374Y-114086231D01*
X151605727Y-114339289D01*
X151876418Y-114469086D01*
X152167230Y-114543580D01*
X152466988Y-114559908D01*
X152764171Y-114517443D01*
X153047359Y-114417816D01*
X153194273Y-114339289D01*
X153276626Y-114086231D01*
X153276626Y-115783769D01*
X153194273Y-115530711D01*
X152923582Y-115400914D01*
X152632770Y-115326420D01*
X152333012Y-115310092D01*
X152035829Y-115352557D01*
X151752641Y-115452184D01*
X151605727Y-115530711D01*
X151523374Y-115783769D01*
X152400000Y-116660395D01*
X153276626Y-115783769D01*
X153276626Y-116142979D01*
X152579605Y-116840000D01*
X153456231Y-117716626D01*
X153709289Y-117634273D01*
X153839086Y-117363582D01*
X153913580Y-117072770D01*
X153929908Y-116773012D01*
X153929908Y-119824500D01*
X153276626Y-119824500D01*
X153276626Y-117896231D01*
X152400000Y-117019605D01*
X151523374Y-117896231D01*
X151605727Y-118149289D01*
X151876418Y-118279086D01*
X152167230Y-118353580D01*
X152466988Y-118369908D01*
X152764171Y-118327443D01*
X153047359Y-118227816D01*
X153194273Y-118149289D01*
X153276626Y-117896231D01*
X153276626Y-119824500D01*
X131635500Y-119824500D01*
X131635500Y-82105500D01*
X159194500Y-82105500D01*
X159194500Y-98889457D01*
X154965400Y-98889457D01*
X154965400Y-119550542D01*
X159194500Y-119550542D01*
X159194500Y-119824500D01*
X159194500Y-119824500D01*
G37*
X159194500Y-119824500D02*
X154813000Y-119824500D01*
X154813000Y-102870000D01*
X154813000Y-100330000D01*
X154802694Y-100224894D01*
X154793495Y-100119743D01*
X154791818Y-100113972D01*
X154791232Y-100107990D01*
X154760727Y-100006954D01*
X154731260Y-99905526D01*
X154728491Y-99900184D01*
X154726756Y-99894437D01*
X154677206Y-99801247D01*
X154628600Y-99707477D01*
X154624851Y-99702781D01*
X154622029Y-99697473D01*
X154555305Y-99615661D01*
X154489429Y-99533140D01*
X154481177Y-99524773D01*
X154481039Y-99524603D01*
X154480881Y-99524472D01*
X154478223Y-99521777D01*
X153636937Y-98680491D01*
X153731522Y-98546410D01*
X153853084Y-98273377D01*
X153919299Y-97981932D01*
X153924065Y-97640564D01*
X153866014Y-97347384D01*
X153752123Y-97071063D01*
X153586730Y-96822127D01*
X153376135Y-96610056D01*
X153128359Y-96442929D01*
X152852840Y-96327112D01*
X152560072Y-96267015D01*
X152261208Y-96264929D01*
X151967630Y-96320932D01*
X151690520Y-96432891D01*
X151440435Y-96596542D01*
X151226899Y-96805652D01*
X151058047Y-97052255D01*
X150940309Y-97326959D01*
X150878170Y-97619299D01*
X150873997Y-97918142D01*
X150927949Y-98212104D01*
X151037971Y-98489988D01*
X151199872Y-98741210D01*
X151257000Y-98800367D01*
X151257000Y-98840554D01*
X150668223Y-98251777D01*
X150586606Y-98184736D01*
X150505757Y-98116895D01*
X150500492Y-98114001D01*
X150495846Y-98110184D01*
X150402791Y-98060288D01*
X150310276Y-98009428D01*
X150304544Y-98007609D01*
X150299250Y-98004771D01*
X150198321Y-97973913D01*
X150097643Y-97941977D01*
X150091668Y-97941306D01*
X150085922Y-97939550D01*
X150012400Y-97932081D01*
X150012400Y-95732600D01*
X150012400Y-95377000D01*
X150012400Y-95123000D01*
X150012400Y-94767400D01*
X149960293Y-94492344D01*
X149855526Y-94232738D01*
X149702125Y-93998560D01*
X149505986Y-93798808D01*
X149274646Y-93641159D01*
X149016996Y-93531672D01*
X148937060Y-93514990D01*
X148717000Y-93637148D01*
X148717000Y-95123000D01*
X150012400Y-95123000D01*
X150012400Y-95377000D01*
X148717000Y-95377000D01*
X148717000Y-96862852D01*
X148937060Y-96985010D01*
X149016996Y-96968328D01*
X149274646Y-96858841D01*
X149505986Y-96701192D01*
X149702125Y-96501440D01*
X149855526Y-96267262D01*
X149960293Y-96007656D01*
X150012400Y-95732600D01*
X150012400Y-97932081D01*
X149980921Y-97928884D01*
X149875959Y-97917111D01*
X149864208Y-97917029D01*
X149863989Y-97917007D01*
X149863784Y-97917026D01*
X149860000Y-97917000D01*
X149602821Y-97917000D01*
X149566135Y-97880056D01*
X149318359Y-97712929D01*
X149042840Y-97597112D01*
X148750072Y-97537015D01*
X148451208Y-97534929D01*
X148157630Y-97590932D01*
X147880520Y-97702891D01*
X147698468Y-97822022D01*
X147193000Y-97316554D01*
X147193000Y-96454328D01*
X147223641Y-96417812D01*
X147316825Y-96248310D01*
X147324474Y-96267262D01*
X147477875Y-96501440D01*
X147674014Y-96701192D01*
X147905354Y-96858841D01*
X148163004Y-96968328D01*
X148242940Y-96985010D01*
X148463000Y-96862852D01*
X148463000Y-95377000D01*
X148443000Y-95377000D01*
X148443000Y-95123000D01*
X148463000Y-95123000D01*
X148463000Y-93637148D01*
X148242940Y-93514990D01*
X148163004Y-93531672D01*
X147905354Y-93641159D01*
X147674014Y-93798808D01*
X147477875Y-93998560D01*
X147324474Y-94232738D01*
X147316520Y-94252446D01*
X147234747Y-94098653D01*
X147059293Y-93883525D01*
X146845396Y-93706574D01*
X146601202Y-93574539D01*
X146336013Y-93492449D01*
X146059930Y-93463432D01*
X145783469Y-93488592D01*
X145517160Y-93566971D01*
X145271146Y-93695583D01*
X145054799Y-93869531D01*
X144876359Y-94082188D01*
X144779587Y-94258214D01*
X144694747Y-94098653D01*
X144653000Y-94047466D01*
X144653000Y-93183446D01*
X145253446Y-92583000D01*
X147320000Y-92583000D01*
X147425105Y-92572694D01*
X147530257Y-92563495D01*
X147536027Y-92561818D01*
X147542010Y-92561232D01*
X147643058Y-92530723D01*
X147744473Y-92501260D01*
X147749812Y-92498492D01*
X147755563Y-92496756D01*
X147848731Y-92447217D01*
X147942523Y-92398601D01*
X147947222Y-92394849D01*
X147952527Y-92392029D01*
X148034310Y-92325327D01*
X148116860Y-92259429D01*
X148125226Y-92251177D01*
X148125397Y-92251039D01*
X148125527Y-92250881D01*
X148128223Y-92248223D01*
X149398223Y-90978223D01*
X149465241Y-90896633D01*
X149533105Y-90815757D01*
X149536000Y-90810489D01*
X149539815Y-90805846D01*
X149589689Y-90712830D01*
X149640572Y-90620276D01*
X149642390Y-90614544D01*
X149645229Y-90609250D01*
X149676086Y-90508321D01*
X149708023Y-90407643D01*
X149708693Y-90401668D01*
X149710450Y-90395922D01*
X149721116Y-90290916D01*
X149732889Y-90185959D01*
X149732970Y-90174209D01*
X149732993Y-90173990D01*
X149732973Y-90173785D01*
X149733000Y-90170000D01*
X149733000Y-88834328D01*
X149763641Y-88797812D01*
X149897378Y-88554546D01*
X149981317Y-88289937D01*
X150012261Y-88014063D01*
X150012400Y-87994203D01*
X150012400Y-87265797D01*
X149985311Y-86989518D01*
X149905074Y-86723762D01*
X149774747Y-86478653D01*
X149599293Y-86263525D01*
X149385396Y-86086574D01*
X149141202Y-85954539D01*
X148876013Y-85872449D01*
X148599930Y-85843432D01*
X148323469Y-85868592D01*
X148057160Y-85946971D01*
X147811146Y-86075583D01*
X147594799Y-86249531D01*
X147416359Y-86462188D01*
X147319587Y-86638214D01*
X147234747Y-86478653D01*
X147193000Y-86427466D01*
X147193000Y-85563446D01*
X147793446Y-84963000D01*
X150656554Y-84963000D01*
X151257000Y-85563446D01*
X151257000Y-86616174D01*
X151226899Y-86645652D01*
X151058047Y-86892255D01*
X150940309Y-87166959D01*
X150878170Y-87459299D01*
X150873997Y-87758142D01*
X150927949Y-88052104D01*
X151037971Y-88329988D01*
X151199872Y-88581210D01*
X151407486Y-88796200D01*
X151652904Y-88966770D01*
X151926779Y-89086423D01*
X152218679Y-89150602D01*
X152517486Y-89156861D01*
X152811817Y-89104962D01*
X153090462Y-88996883D01*
X153342808Y-88836739D01*
X153559243Y-88630631D01*
X153731522Y-88386410D01*
X153853084Y-88113377D01*
X153919299Y-87821932D01*
X153924065Y-87480564D01*
X153866014Y-87187384D01*
X153752123Y-86911063D01*
X153586730Y-86662127D01*
X153543000Y-86618090D01*
X153543000Y-85090000D01*
X153532694Y-84984894D01*
X153523495Y-84879743D01*
X153521818Y-84873972D01*
X153521232Y-84867990D01*
X153490727Y-84766954D01*
X153461260Y-84665526D01*
X153458491Y-84660184D01*
X153456756Y-84654437D01*
X153407206Y-84561247D01*
X153358600Y-84467477D01*
X153354851Y-84462781D01*
X153352029Y-84457473D01*
X153285305Y-84375661D01*
X153219429Y-84293140D01*
X153211177Y-84284773D01*
X153211039Y-84284603D01*
X153210881Y-84284472D01*
X153208223Y-84281777D01*
X151938223Y-83011777D01*
X151856606Y-82944736D01*
X151775757Y-82876895D01*
X151770492Y-82874001D01*
X151765846Y-82870184D01*
X151672791Y-82820288D01*
X151580276Y-82769428D01*
X151574544Y-82767609D01*
X151569250Y-82764771D01*
X151468321Y-82733913D01*
X151367643Y-82701977D01*
X151361668Y-82701306D01*
X151355922Y-82699550D01*
X151250921Y-82688884D01*
X151145959Y-82677111D01*
X151134208Y-82677029D01*
X151133989Y-82677007D01*
X151133784Y-82677026D01*
X151130000Y-82677000D01*
X147320000Y-82677000D01*
X147214894Y-82687305D01*
X147109743Y-82696505D01*
X147103972Y-82698181D01*
X147097990Y-82698768D01*
X146996954Y-82729272D01*
X146895526Y-82758740D01*
X146890184Y-82761508D01*
X146884437Y-82763244D01*
X146791247Y-82812793D01*
X146697477Y-82861400D01*
X146692781Y-82865148D01*
X146687473Y-82867971D01*
X146605661Y-82934694D01*
X146523140Y-83000571D01*
X146514773Y-83008822D01*
X146514603Y-83008961D01*
X146514472Y-83009118D01*
X146511777Y-83011777D01*
X145241777Y-84281777D01*
X145174736Y-84363393D01*
X145106895Y-84444243D01*
X145104001Y-84449507D01*
X145100184Y-84454154D01*
X145050288Y-84547208D01*
X144999428Y-84639724D01*
X144997609Y-84645455D01*
X144994771Y-84650750D01*
X144963913Y-84751678D01*
X144931977Y-84852357D01*
X144931306Y-84858331D01*
X144929550Y-84864078D01*
X144918884Y-84969078D01*
X144907111Y-85074041D01*
X144907029Y-85085791D01*
X144907007Y-85086011D01*
X144907026Y-85086215D01*
X144907000Y-85090000D01*
X144907000Y-86425671D01*
X144876359Y-86462188D01*
X144862718Y-86487000D01*
X144699185Y-86487000D01*
X144694747Y-86478653D01*
X144519293Y-86263525D01*
X144305396Y-86086574D01*
X144061202Y-85954539D01*
X143796013Y-85872449D01*
X143519930Y-85843432D01*
X143243469Y-85868592D01*
X142977160Y-85946971D01*
X142731146Y-86075583D01*
X142514799Y-86249531D01*
X142336359Y-86462188D01*
X142239587Y-86638214D01*
X142154747Y-86478653D01*
X141979293Y-86263525D01*
X141765396Y-86086574D01*
X141521202Y-85954539D01*
X141256013Y-85872449D01*
X140979930Y-85843432D01*
X140703469Y-85868592D01*
X140437160Y-85946971D01*
X140191146Y-86075583D01*
X139974799Y-86249531D01*
X139796359Y-86462188D01*
X139662622Y-86705454D01*
X139578683Y-86970063D01*
X139547739Y-87245937D01*
X139547600Y-87265797D01*
X139547600Y-87994203D01*
X139574689Y-88270482D01*
X139654926Y-88536238D01*
X139785253Y-88781347D01*
X139827000Y-88832533D01*
X139827000Y-90966554D01*
X135081777Y-95711777D01*
X135014736Y-95793393D01*
X134946895Y-95874243D01*
X134944001Y-95879507D01*
X134940184Y-95884154D01*
X134890288Y-95977208D01*
X134839428Y-96069724D01*
X134837609Y-96075455D01*
X134834771Y-96080750D01*
X134803913Y-96181678D01*
X134771977Y-96282357D01*
X134771306Y-96288331D01*
X134769550Y-96294078D01*
X134758884Y-96399078D01*
X134747111Y-96504041D01*
X134747029Y-96515791D01*
X134747007Y-96516011D01*
X134747026Y-96516215D01*
X134747000Y-96520000D01*
X134747000Y-115570000D01*
X134757305Y-115675105D01*
X134766505Y-115780257D01*
X134768181Y-115786027D01*
X134768768Y-115792010D01*
X134799276Y-115893058D01*
X134828740Y-115994473D01*
X134831507Y-115999812D01*
X134833244Y-116005563D01*
X134882782Y-116098731D01*
X134931399Y-116192523D01*
X134935150Y-116197222D01*
X134937971Y-116202527D01*
X135004672Y-116284310D01*
X135070571Y-116366860D01*
X135078822Y-116375226D01*
X135078961Y-116375397D01*
X135079118Y-116375527D01*
X135081777Y-116378223D01*
X136351777Y-117648223D01*
X136433366Y-117715241D01*
X136514243Y-117783105D01*
X136519510Y-117786000D01*
X136524154Y-117789815D01*
X136617169Y-117839689D01*
X136709724Y-117890572D01*
X136715455Y-117892390D01*
X136720750Y-117895229D01*
X136821678Y-117926086D01*
X136922357Y-117958023D01*
X136928331Y-117958693D01*
X136934078Y-117960450D01*
X137039083Y-117971116D01*
X137144041Y-117982889D01*
X137155790Y-117982970D01*
X137156010Y-117982993D01*
X137156214Y-117982973D01*
X137160000Y-117983000D01*
X137415081Y-117983000D01*
X137437486Y-118006200D01*
X137682904Y-118176770D01*
X137956779Y-118296423D01*
X138248679Y-118360602D01*
X138547486Y-118366861D01*
X138841817Y-118314962D01*
X139120462Y-118206883D01*
X139372808Y-118046739D01*
X139439740Y-117983000D01*
X148487043Y-117983000D01*
X148557174Y-118088934D01*
X148693708Y-118204942D01*
X148857111Y-118278419D01*
X149034500Y-118303572D01*
X150685500Y-118303572D01*
X150788543Y-118295197D01*
X150959541Y-118241727D01*
X151108934Y-118142826D01*
X151224942Y-118006292D01*
X151298419Y-117842889D01*
X151317533Y-117708088D01*
X151343769Y-117716626D01*
X152220395Y-116840000D01*
X151343769Y-115963374D01*
X151320044Y-115971094D01*
X151315197Y-115911457D01*
X151261727Y-115740459D01*
X151162826Y-115591066D01*
X151026292Y-115475058D01*
X151003000Y-115464584D01*
X151003000Y-114046098D01*
X151019243Y-114030631D01*
X151150977Y-113843885D01*
X151343769Y-113906626D01*
X152220395Y-113030000D01*
X151343769Y-112153374D01*
X151149383Y-112216633D01*
X151046730Y-112062127D01*
X150836135Y-111850056D01*
X150588359Y-111682929D01*
X150312840Y-111567112D01*
X150020072Y-111507015D01*
X149721208Y-111504929D01*
X149427630Y-111560932D01*
X149150520Y-111672891D01*
X148900435Y-111836542D01*
X148686899Y-112045652D01*
X148518047Y-112292255D01*
X148400309Y-112566959D01*
X148338170Y-112859299D01*
X148333997Y-113158142D01*
X148387949Y-113452104D01*
X148497971Y-113729988D01*
X148659872Y-113981210D01*
X148717000Y-114040367D01*
X148717000Y-115467043D01*
X148611066Y-115537174D01*
X148495058Y-115673708D01*
X148484584Y-115697000D01*
X146309908Y-115697000D01*
X146309908Y-112963012D01*
X146267443Y-112665829D01*
X146167816Y-112382641D01*
X146089289Y-112235727D01*
X145836231Y-112153374D01*
X145656626Y-112332979D01*
X145656626Y-111973769D01*
X145574273Y-111720711D01*
X145303582Y-111590914D01*
X145012770Y-111516420D01*
X144713012Y-111500092D01*
X144415829Y-111542557D01*
X144132641Y-111642184D01*
X143985727Y-111720711D01*
X143903374Y-111973769D01*
X144780000Y-112850395D01*
X145656626Y-111973769D01*
X145656626Y-112332979D01*
X144959605Y-113030000D01*
X145836231Y-113906626D01*
X146089289Y-113824273D01*
X146219086Y-113553582D01*
X146293580Y-113262770D01*
X146309908Y-112963012D01*
X146309908Y-115697000D01*
X145656626Y-115697000D01*
X145656626Y-114086231D01*
X144780000Y-113209605D01*
X143903374Y-114086231D01*
X143985727Y-114339289D01*
X144256418Y-114469086D01*
X144547230Y-114543580D01*
X144846988Y-114559908D01*
X145144171Y-114517443D01*
X145427359Y-114417816D01*
X145574273Y-114339289D01*
X145656626Y-114086231D01*
X145656626Y-115697000D01*
X139442821Y-115697000D01*
X139406135Y-115660056D01*
X139158359Y-115492929D01*
X138882840Y-115377112D01*
X138590072Y-115317015D01*
X138291208Y-115314929D01*
X137997630Y-115370932D01*
X137720520Y-115482891D01*
X137538468Y-115602022D01*
X137033000Y-115096554D01*
X137033000Y-107291661D01*
X137067971Y-107379988D01*
X137229872Y-107631210D01*
X137437486Y-107846200D01*
X137682904Y-108016770D01*
X137956779Y-108136423D01*
X138248679Y-108200602D01*
X138547486Y-108206861D01*
X138841817Y-108154962D01*
X139120462Y-108046883D01*
X139322328Y-107918774D01*
X140161777Y-108758223D01*
X140243366Y-108825241D01*
X140324243Y-108893105D01*
X140329510Y-108896000D01*
X140334154Y-108899815D01*
X140427169Y-108949689D01*
X140519724Y-109000572D01*
X140525455Y-109002390D01*
X140530750Y-109005229D01*
X140631678Y-109036086D01*
X140732357Y-109068023D01*
X140738331Y-109068693D01*
X140744078Y-109070450D01*
X140849083Y-109081116D01*
X140954041Y-109092889D01*
X140965790Y-109092970D01*
X140966010Y-109092993D01*
X140966214Y-109092973D01*
X140970000Y-109093000D01*
X141097000Y-109093000D01*
X141097000Y-112016174D01*
X141066899Y-112045652D01*
X140898047Y-112292255D01*
X140780309Y-112566959D01*
X140718170Y-112859299D01*
X140713997Y-113158142D01*
X140767949Y-113452104D01*
X140877971Y-113729988D01*
X141039872Y-113981210D01*
X141247486Y-114196200D01*
X141492904Y-114366770D01*
X141766779Y-114486423D01*
X142058679Y-114550602D01*
X142357486Y-114556861D01*
X142651817Y-114504962D01*
X142930462Y-114396883D01*
X143182808Y-114236739D01*
X143399243Y-114030631D01*
X143530977Y-113843885D01*
X143723769Y-113906626D01*
X144600395Y-113030000D01*
X143723769Y-112153374D01*
X143529383Y-112216633D01*
X143426730Y-112062127D01*
X143383000Y-112018090D01*
X143383000Y-108966098D01*
X143399243Y-108950631D01*
X143510280Y-108793225D01*
X143579872Y-108901210D01*
X143787486Y-109116200D01*
X144032904Y-109286770D01*
X144306779Y-109406423D01*
X144598679Y-109470602D01*
X144897486Y-109476861D01*
X145191817Y-109424962D01*
X145470462Y-109316883D01*
X145722808Y-109156739D01*
X145939243Y-108950631D01*
X146111522Y-108706410D01*
X146233084Y-108433377D01*
X146299299Y-108141932D01*
X146304065Y-107800564D01*
X146246014Y-107507384D01*
X146132123Y-107231063D01*
X145966730Y-106982127D01*
X145923000Y-106938090D01*
X145923000Y-105410000D01*
X145912694Y-105304894D01*
X145903495Y-105199743D01*
X145901818Y-105193972D01*
X145901232Y-105187990D01*
X145870727Y-105086954D01*
X145841260Y-104985526D01*
X145838491Y-104980184D01*
X145836756Y-104974437D01*
X145787206Y-104881247D01*
X145738600Y-104787477D01*
X145734851Y-104782781D01*
X145732029Y-104777473D01*
X145665305Y-104695661D01*
X145599429Y-104613140D01*
X145591177Y-104604773D01*
X145591039Y-104604603D01*
X145590881Y-104604472D01*
X145588223Y-104601777D01*
X144653000Y-103666554D01*
X144653000Y-102743000D01*
X147575081Y-102743000D01*
X147597486Y-102766200D01*
X147747110Y-102870191D01*
X147630435Y-102946542D01*
X147416899Y-103155652D01*
X147248047Y-103402255D01*
X147130309Y-103676959D01*
X147068170Y-103969299D01*
X147063997Y-104268142D01*
X147117949Y-104562104D01*
X147227971Y-104839988D01*
X147389872Y-105091210D01*
X147597486Y-105306200D01*
X147842904Y-105476770D01*
X148116779Y-105596423D01*
X148408679Y-105660602D01*
X148707486Y-105666861D01*
X149001817Y-105614962D01*
X149280462Y-105506883D01*
X149532808Y-105346739D01*
X149599740Y-105283000D01*
X149860000Y-105283000D01*
X149965105Y-105272694D01*
X150070257Y-105263495D01*
X150076027Y-105261818D01*
X150082010Y-105261232D01*
X150183058Y-105230723D01*
X150284473Y-105201260D01*
X150289812Y-105198492D01*
X150295563Y-105196756D01*
X150388731Y-105147217D01*
X150482523Y-105098601D01*
X150487222Y-105094849D01*
X150492527Y-105092029D01*
X150574310Y-105025327D01*
X150656860Y-104959429D01*
X150665226Y-104951177D01*
X150665397Y-104951039D01*
X150665527Y-104950881D01*
X150668223Y-104948223D01*
X151257000Y-104359446D01*
X151257000Y-104396174D01*
X151226899Y-104425652D01*
X151058047Y-104672255D01*
X150940309Y-104946959D01*
X150878170Y-105239299D01*
X150873997Y-105538142D01*
X150927949Y-105832104D01*
X151037971Y-106109988D01*
X151199872Y-106361210D01*
X151407486Y-106576200D01*
X151586280Y-106700465D01*
X151523374Y-106893769D01*
X152400000Y-107770395D01*
X153276626Y-106893769D01*
X153213232Y-106698970D01*
X153342808Y-106616739D01*
X153559243Y-106410631D01*
X153731522Y-106166410D01*
X153853084Y-105893377D01*
X153919299Y-105601932D01*
X153924065Y-105260564D01*
X153866014Y-104967384D01*
X153752123Y-104691063D01*
X153637661Y-104518784D01*
X154478223Y-103678223D01*
X154545241Y-103596633D01*
X154613105Y-103515757D01*
X154616000Y-103510489D01*
X154619815Y-103505846D01*
X154669689Y-103412830D01*
X154720572Y-103320276D01*
X154722390Y-103314544D01*
X154725229Y-103309250D01*
X154756086Y-103208321D01*
X154788023Y-103107643D01*
X154788693Y-103101668D01*
X154790450Y-103095922D01*
X154801116Y-102990916D01*
X154812889Y-102885959D01*
X154812970Y-102874209D01*
X154812993Y-102873990D01*
X154812973Y-102873785D01*
X154813000Y-102870000D01*
X154813000Y-119824500D01*
X153929908Y-119824500D01*
X153929908Y-116773012D01*
X153929908Y-112963012D01*
X153929908Y-107883012D01*
X153887443Y-107585829D01*
X153787816Y-107302641D01*
X153709289Y-107155727D01*
X153456231Y-107073374D01*
X152579605Y-107950000D01*
X153456231Y-108826626D01*
X153709289Y-108744273D01*
X153839086Y-108473582D01*
X153913580Y-108182770D01*
X153929908Y-107883012D01*
X153929908Y-112963012D01*
X153887443Y-112665829D01*
X153787816Y-112382641D01*
X153709289Y-112235727D01*
X153456231Y-112153374D01*
X153276626Y-112332979D01*
X153276626Y-111973769D01*
X153276626Y-109006231D01*
X152400000Y-108129605D01*
X152220395Y-108309210D01*
X152220395Y-107950000D01*
X151343769Y-107073374D01*
X151090711Y-107155727D01*
X150960914Y-107426418D01*
X150886420Y-107717230D01*
X150870092Y-108016988D01*
X150912557Y-108314171D01*
X151012184Y-108597359D01*
X151090711Y-108744273D01*
X151343769Y-108826626D01*
X152220395Y-107950000D01*
X152220395Y-108309210D01*
X151523374Y-109006231D01*
X151605727Y-109259289D01*
X151876418Y-109389086D01*
X152167230Y-109463580D01*
X152466988Y-109479908D01*
X152764171Y-109437443D01*
X153047359Y-109337816D01*
X153194273Y-109259289D01*
X153276626Y-109006231D01*
X153276626Y-111973769D01*
X153194273Y-111720711D01*
X152923582Y-111590914D01*
X152632770Y-111516420D01*
X152333012Y-111500092D01*
X152035829Y-111542557D01*
X151752641Y-111642184D01*
X151605727Y-111720711D01*
X151523374Y-111973769D01*
X152400000Y-112850395D01*
X153276626Y-111973769D01*
X153276626Y-112332979D01*
X152579605Y-113030000D01*
X153456231Y-113906626D01*
X153709289Y-113824273D01*
X153839086Y-113553582D01*
X153913580Y-113262770D01*
X153929908Y-112963012D01*
X153929908Y-116773012D01*
X153887443Y-116475829D01*
X153787816Y-116192641D01*
X153709289Y-116045727D01*
X153456231Y-115963374D01*
X153276626Y-116142979D01*
X153276626Y-115783769D01*
X153276626Y-114086231D01*
X152400000Y-113209605D01*
X151523374Y-114086231D01*
X151605727Y-114339289D01*
X151876418Y-114469086D01*
X152167230Y-114543580D01*
X152466988Y-114559908D01*
X152764171Y-114517443D01*
X153047359Y-114417816D01*
X153194273Y-114339289D01*
X153276626Y-114086231D01*
X153276626Y-115783769D01*
X153194273Y-115530711D01*
X152923582Y-115400914D01*
X152632770Y-115326420D01*
X152333012Y-115310092D01*
X152035829Y-115352557D01*
X151752641Y-115452184D01*
X151605727Y-115530711D01*
X151523374Y-115783769D01*
X152400000Y-116660395D01*
X153276626Y-115783769D01*
X153276626Y-116142979D01*
X152579605Y-116840000D01*
X153456231Y-117716626D01*
X153709289Y-117634273D01*
X153839086Y-117363582D01*
X153913580Y-117072770D01*
X153929908Y-116773012D01*
X153929908Y-119824500D01*
X153276626Y-119824500D01*
X153276626Y-117896231D01*
X152400000Y-117019605D01*
X151523374Y-117896231D01*
X151605727Y-118149289D01*
X151876418Y-118279086D01*
X152167230Y-118353580D01*
X152466988Y-118369908D01*
X152764171Y-118327443D01*
X153047359Y-118227816D01*
X153194273Y-118149289D01*
X153276626Y-117896231D01*
X153276626Y-119824500D01*
X131635500Y-119824500D01*
X131635500Y-82105500D01*
X159194500Y-82105500D01*
X159194500Y-98889457D01*
X154965400Y-98889457D01*
X154965400Y-119550542D01*
X159194500Y-119550542D01*
X159194500Y-119824500D01*
M02*
