G04 #@! TF.FileFunction,Profile,NP*
%FSLAX46Y46*%
G04 Gerber Fmt 4.6, Leading zero omitted, Abs format (unit mm)*
G04 Created by KiCad (PCBNEW 4.0.1-stable) date 6/18/2016 3:55:33 PM*
%MOMM*%
G01*
G04 APERTURE LIST*
%ADD10C,0.150000*%
%ADD11C,0.100000*%
G04 APERTURE END LIST*
D10*
D11*
X18669000Y-9398000D02*
X762000Y-9398000D01*
X762000Y-22098000D02*
X18669000Y-22098000D01*
X762000Y-30480000D02*
X32766000Y-30480000D01*
X33528000Y0D02*
X0Y0D01*
X33528000Y-29718000D02*
X33528000Y0D01*
X32766000Y-30480000D02*
G75*
G03X33528000Y-29718000I0J762000D01*
G01*
X0Y-22860000D02*
X0Y-29718000D01*
X0Y-29718000D02*
G75*
G03X762000Y-30480000I762000J0D01*
G01*
X18669000Y-9398000D02*
X18669000Y-22098000D01*
X0Y-8636000D02*
X0Y0D01*
X0Y-8636000D02*
G75*
G03X762000Y-9398000I762000J0D01*
G01*
X762000Y-22098000D02*
G75*
G03X0Y-22860000I0J-762000D01*
G01*
M02*
