G04 start of page 5 for group -3984 idx -3984 *
G04 Title: Basic Single Trace RS274-X Test, fab *
G04 Creator: pcb 1.99y *
G04 CreationDate: Wed Jun 24 22:05:35 2009 UTC *
G04 For: dan *
G04 Format: Gerber/RS-274X *
G04 PCB-Dimensions: 200000 100000 *
G04 PCB-Coordinate-Origin: lower left *
%MOIN*%
%FSLAX25Y25*%
%LNFAB*%
%ADD14C,0.0080*%
%ADD15C,0.0060*%
%ADD16C,0.0100*%
G54D14*X90000Y50000D02*Y48400D01*
Y50000D02*X91386Y50800D01*
X90000Y50000D02*X88614Y50800D01*
X15000Y156250D02*Y154650D01*
Y156250D02*X16386Y157050D01*
X15000Y156250D02*X13614Y157050D01*
G54D15*X135000Y158500D02*Y157750D01*
X136500Y156250D01*
X138000Y157750D01*
Y158500D02*Y157750D01*
X136500Y156250D02*Y152500D01*
X139801Y155500D02*X142051D01*
X139801Y152500D02*X142801D01*
X139801Y158500D02*Y152500D01*
Y158500D02*X142801D01*
X147603D02*X148353Y157750D01*
X145353Y158500D02*X147603D01*
X144603Y157750D02*X145353Y158500D01*
X144603Y157750D02*Y156250D01*
X145353Y155500D01*
X147603D01*
X148353Y154750D01*
Y153250D01*
X147603Y152500D02*X148353Y153250D01*
X145353Y152500D02*X147603D01*
X144603Y153250D02*X145353Y152500D01*
X135000Y149249D02*X150154D01*
X98750Y152500D02*X100250D01*
X99500Y158500D02*Y152500D01*
X98000Y157000D02*X99500Y158500D01*
X98000Y149249D02*X102051D01*
X45000Y153250D02*X45750Y152500D01*
X45000Y157750D02*Y153250D01*
Y157750D02*X45750Y158500D01*
X47250D01*
X48000Y157750D01*
Y153250D01*
X47250Y152500D02*X48000Y153250D01*
X45750Y152500D02*X47250D01*
X45000Y154000D02*X48000Y157000D01*
X49801Y152500D02*X50551D01*
X52353Y153250D02*X53103Y152500D01*
X52353Y157750D02*Y153250D01*
Y157750D02*X53103Y158500D01*
X54603D01*
X55353Y157750D01*
Y153250D01*
X54603Y152500D02*X55353Y153250D01*
X53103Y152500D02*X54603D01*
X52353Y154000D02*X55353Y157000D01*
X57154Y157750D02*X57904Y158500D01*
X59404D01*
X60154Y157750D01*
Y153250D01*
X59404Y152500D02*X60154Y153250D01*
X57904Y152500D02*X59404D01*
X57154Y153250D02*X57904Y152500D01*
Y155500D02*X60154D01*
X61956Y158500D02*X64956D01*
X61956D02*Y155500D01*
X62706Y156250D01*
X64206D01*
X64956Y155500D01*
Y153250D01*
X64206Y152500D02*X64956Y153250D01*
X62706Y152500D02*X64206D01*
X61956Y153250D02*X62706Y152500D01*
X45000Y149249D02*X66757D01*
X3000Y173500D02*X3750Y172750D01*
X750Y173500D02*X3000D01*
X0Y172750D02*X750Y173500D01*
X0Y172750D02*Y171250D01*
X750Y170500D01*
X3000D01*
X3750Y169750D01*
Y168250D01*
X3000Y167500D02*X3750Y168250D01*
X750Y167500D02*X3000D01*
X0Y168250D02*X750Y167500D01*
X5551Y170500D02*Y168250D01*
X6301Y167500D01*
X8551Y170500D02*Y166000D01*
X7801Y165250D02*X8551Y166000D01*
X6301Y165250D02*X7801D01*
X5551Y166000D02*X6301Y165250D01*
Y167500D02*X7801D01*
X8551Y168250D01*
X11103Y169750D02*Y167500D01*
Y169750D02*X11853Y170500D01*
X12603D01*
X13353Y169750D01*
Y167500D01*
Y169750D02*X14103Y170500D01*
X14853D01*
X15603Y169750D01*
Y167500D01*
X10353Y170500D02*X11103Y169750D01*
X17404Y173500D02*Y167500D01*
Y168250D02*X18154Y167500D01*
X19654D01*
X20404Y168250D01*
Y169750D02*Y168250D01*
X19654Y170500D02*X20404Y169750D01*
X18154Y170500D02*X19654D01*
X17404Y169750D02*X18154Y170500D01*
X22206Y169750D02*Y168250D01*
Y169750D02*X22956Y170500D01*
X24456D01*
X25206Y169750D01*
Y168250D01*
X24456Y167500D02*X25206Y168250D01*
X22956Y167500D02*X24456D01*
X22206Y168250D02*X22956Y167500D01*
X27007Y173500D02*Y168250D01*
X27757Y167500D01*
X41750Y173500D02*Y167500D01*
X44000Y173500D02*X44750Y172750D01*
Y168250D01*
X44000Y167500D02*X44750Y168250D01*
X41000Y167500D02*X44000D01*
X41000Y173500D02*X44000D01*
X46551Y172000D02*Y171250D01*
Y169750D02*Y167500D01*
X50303Y170500D02*X51053Y169750D01*
X48803Y170500D02*X50303D01*
X48053Y169750D02*X48803Y170500D01*
X48053Y169750D02*Y168250D01*
X48803Y167500D01*
X51053Y170500D02*Y168250D01*
X51803Y167500D01*
X48803D02*X50303D01*
X51053Y168250D01*
X54354Y169750D02*Y167500D01*
Y169750D02*X55104Y170500D01*
X55854D01*
X56604Y169750D01*
Y167500D01*
Y169750D02*X57354Y170500D01*
X58104D01*
X58854Y169750D01*
Y167500D01*
X53604Y170500D02*X54354Y169750D01*
X60656Y167500D02*X61406D01*
X65907Y168250D02*X66657Y167500D01*
X65907Y172750D02*X66657Y173500D01*
X65907Y172750D02*Y168250D01*
X68459Y173500D02*X69959D01*
X69209D02*Y167500D01*
X68459D02*X69959D01*
X72510Y169750D02*Y167500D01*
Y169750D02*X73260Y170500D01*
X74010D01*
X74760Y169750D01*
Y167500D01*
X71760Y170500D02*X72510Y169750D01*
X77312Y170500D02*X79562D01*
X76562Y169750D02*X77312Y170500D01*
X76562Y169750D02*Y168250D01*
X77312Y167500D01*
X79562D01*
X81363Y173500D02*Y167500D01*
Y169750D02*X82113Y170500D01*
X83613D01*
X84363Y169750D01*
Y167500D01*
X86165Y173500D02*X86915Y172750D01*
Y168250D01*
X86165Y167500D02*X86915Y168250D01*
X95750Y167500D02*X98000D01*
X95000Y168250D02*X95750Y167500D01*
X95000Y172750D02*Y168250D01*
Y172750D02*X95750Y173500D01*
X98000D01*
X99801Y169750D02*Y168250D01*
Y169750D02*X100551Y170500D01*
X102051D01*
X102801Y169750D01*
Y168250D01*
X102051Y167500D02*X102801Y168250D01*
X100551Y167500D02*X102051D01*
X99801Y168250D02*X100551Y167500D01*
X104603Y170500D02*Y168250D01*
X105353Y167500D01*
X106853D01*
X107603Y168250D01*
Y170500D02*Y168250D01*
X110154Y169750D02*Y167500D01*
Y169750D02*X110904Y170500D01*
X111654D01*
X112404Y169750D01*
Y167500D01*
X109404Y170500D02*X110154Y169750D01*
X114956Y173500D02*Y168250D01*
X115706Y167500D01*
X114206Y171250D02*X115706D01*
X130750Y173500D02*Y167500D01*
X130000Y173500D02*X133000D01*
X133750Y172750D01*
Y171250D01*
X133000Y170500D02*X133750Y171250D01*
X130750Y170500D02*X133000D01*
X135551Y173500D02*Y168250D01*
X136301Y167500D01*
X140053Y170500D02*X140803Y169750D01*
X138553Y170500D02*X140053D01*
X137803Y169750D02*X138553Y170500D01*
X137803Y169750D02*Y168250D01*
X138553Y167500D01*
X140803Y170500D02*Y168250D01*
X141553Y167500D01*
X138553D02*X140053D01*
X140803Y168250D01*
X144104Y173500D02*Y168250D01*
X144854Y167500D01*
X143354Y171250D02*X144854D01*
X147106Y167500D02*X149356D01*
X146356Y168250D02*X147106Y167500D01*
X146356Y169750D02*Y168250D01*
Y169750D02*X147106Y170500D01*
X148606D01*
X149356Y169750D01*
X146356Y169000D02*X149356D01*
Y169750D02*Y169000D01*
X154157Y173500D02*Y167500D01*
X153407D02*X154157Y168250D01*
X151907Y167500D02*X153407D01*
X151157Y168250D02*X151907Y167500D01*
X151157Y169750D02*Y168250D01*
Y169750D02*X151907Y170500D01*
X153407D01*
X154157Y169750D01*
X157459Y170500D02*Y169750D01*
Y168250D02*Y167500D01*
X155959Y172750D02*Y172000D01*
Y172750D02*X156709Y173500D01*
X158209D01*
X158959Y172750D01*
Y172000D01*
X157459Y170500D02*X158959Y172000D01*
X0Y188500D02*X3000D01*
X1500D02*Y182500D01*
X4801Y188500D02*Y182500D01*
Y184750D02*X5551Y185500D01*
X7051D01*
X7801Y184750D01*
Y182500D01*
X10353D02*X12603D01*
X9603Y183250D02*X10353Y182500D01*
X9603Y184750D02*Y183250D01*
Y184750D02*X10353Y185500D01*
X11853D01*
X12603Y184750D01*
X9603Y184000D02*X12603D01*
Y184750D02*Y184000D01*
X15154Y184750D02*Y182500D01*
Y184750D02*X15904Y185500D01*
X17404D01*
X14404D02*X15154Y184750D01*
X19956Y182500D02*X22206D01*
X19206Y183250D02*X19956Y182500D01*
X19206Y184750D02*Y183250D01*
Y184750D02*X19956Y185500D01*
X21456D01*
X22206Y184750D01*
X19206Y184000D02*X22206D01*
Y184750D02*Y184000D01*
X28957Y185500D02*X29707Y184750D01*
X27457Y185500D02*X28957D01*
X26707Y184750D02*X27457Y185500D01*
X26707Y184750D02*Y183250D01*
X27457Y182500D01*
X29707Y185500D02*Y183250D01*
X30457Y182500D01*
X27457D02*X28957D01*
X29707Y183250D01*
X33009Y184750D02*Y182500D01*
Y184750D02*X33759Y185500D01*
X35259D01*
X32259D02*X33009Y184750D01*
X37810Y182500D02*X40060D01*
X37060Y183250D02*X37810Y182500D01*
X37060Y184750D02*Y183250D01*
Y184750D02*X37810Y185500D01*
X39310D01*
X40060Y184750D01*
X37060Y184000D02*X40060D01*
Y184750D02*Y184000D01*
X45312Y182500D02*X46812D01*
X46062Y188500D02*Y182500D01*
X44562Y187000D02*X46062Y188500D01*
X54313D02*Y182500D01*
X53563D02*X54313Y183250D01*
X52063Y182500D02*X53563D01*
X51313Y183250D02*X52063Y182500D01*
X51313Y184750D02*Y183250D01*
Y184750D02*X52063Y185500D01*
X53563D01*
X54313Y184750D01*
X56115Y187000D02*Y186250D01*
Y184750D02*Y182500D01*
X58366Y187750D02*Y182500D01*
Y187750D02*X59116Y188500D01*
X59866D01*
X57616Y185500D02*X59116D01*
X62118Y187750D02*Y182500D01*
Y187750D02*X62868Y188500D01*
X63618D01*
X61368Y185500D02*X62868D01*
X65869Y182500D02*X68119D01*
X65119Y183250D02*X65869Y182500D01*
X65119Y184750D02*Y183250D01*
Y184750D02*X65869Y185500D01*
X67369D01*
X68119Y184750D01*
X65119Y184000D02*X68119D01*
Y184750D02*Y184000D01*
X70671Y184750D02*Y182500D01*
Y184750D02*X71421Y185500D01*
X72921D01*
X69921D02*X70671Y184750D01*
X75472Y182500D02*X77722D01*
X74722Y183250D02*X75472Y182500D01*
X74722Y184750D02*Y183250D01*
Y184750D02*X75472Y185500D01*
X76972D01*
X77722Y184750D01*
X74722Y184000D02*X77722D01*
Y184750D02*Y184000D01*
X80274Y184750D02*Y182500D01*
Y184750D02*X81024Y185500D01*
X81774D01*
X82524Y184750D01*
Y182500D01*
X79524Y185500D02*X80274Y184750D01*
X85075Y188500D02*Y183250D01*
X85825Y182500D01*
X84325Y186250D02*X85825D01*
X93027Y188500D02*Y182500D01*
X92277D02*X93027Y183250D01*
X90777Y182500D02*X92277D01*
X90027Y183250D02*X90777Y182500D01*
X90027Y184750D02*Y183250D01*
Y184750D02*X90777Y185500D01*
X92277D01*
X93027Y184750D01*
X95578D02*Y182500D01*
Y184750D02*X96328Y185500D01*
X97828D01*
X94828D02*X95578Y184750D01*
X99630Y187000D02*Y186250D01*
Y184750D02*Y182500D01*
X101131Y188500D02*Y183250D01*
X101881Y182500D01*
X103383Y188500D02*Y183250D01*
X104133Y182500D01*
X109084D02*X111334D01*
X112084Y183250D01*
X111334Y184000D02*X112084Y183250D01*
X109084Y184000D02*X111334D01*
X108334Y184750D02*X109084Y184000D01*
X108334Y184750D02*X109084Y185500D01*
X111334D01*
X112084Y184750D01*
X108334Y183250D02*X109084Y182500D01*
X113886Y187000D02*Y186250D01*
Y184750D02*Y182500D01*
X115387Y185500D02*X118387D01*
X115387Y182500D02*X118387Y185500D01*
X115387Y182500D02*X118387D01*
X120939D02*X123189D01*
X120189Y183250D02*X120939Y182500D01*
X120189Y184750D02*Y183250D01*
Y184750D02*X120939Y185500D01*
X122439D01*
X123189Y184750D01*
X120189Y184000D02*X123189D01*
Y184750D02*Y184000D01*
X125740Y182500D02*X127990D01*
X128740Y183250D01*
X127990Y184000D02*X128740Y183250D01*
X125740Y184000D02*X127990D01*
X124990Y184750D02*X125740Y184000D01*
X124990Y184750D02*X125740Y185500D01*
X127990D01*
X128740Y184750D01*
X124990Y183250D02*X125740Y182500D01*
X133242Y185500D02*Y183250D01*
X133992Y182500D01*
X135492D01*
X136242Y183250D01*
Y185500D02*Y183250D01*
X138793Y182500D02*X141043D01*
X141793Y183250D01*
X141043Y184000D02*X141793Y183250D01*
X138793Y184000D02*X141043D01*
X138043Y184750D02*X138793Y184000D01*
X138043Y184750D02*X138793Y185500D01*
X141043D01*
X141793Y184750D01*
X138043Y183250D02*X138793Y182500D01*
X144345D02*X146595D01*
X143595Y183250D02*X144345Y182500D01*
X143595Y184750D02*Y183250D01*
Y184750D02*X144345Y185500D01*
X145845D01*
X146595Y184750D01*
X143595Y184000D02*X146595D01*
Y184750D02*Y184000D01*
X151396Y188500D02*Y182500D01*
X150646D02*X151396Y183250D01*
X149146Y182500D02*X150646D01*
X148396Y183250D02*X149146Y182500D01*
X148396Y184750D02*Y183250D01*
Y184750D02*X149146Y185500D01*
X150646D01*
X151396Y184750D01*
X155898Y187000D02*Y186250D01*
Y184750D02*Y182500D01*
X158149Y184750D02*Y182500D01*
Y184750D02*X158899Y185500D01*
X159649D01*
X160399Y184750D01*
Y182500D01*
X157399Y185500D02*X158149Y184750D01*
X165651Y188500D02*Y183250D01*
X166401Y182500D01*
X164901Y186250D02*X166401D01*
X167902Y188500D02*Y182500D01*
Y184750D02*X168652Y185500D01*
X170152D01*
X170902Y184750D01*
Y182500D01*
X172704Y187000D02*Y186250D01*
Y184750D02*Y182500D01*
X174955D02*X177205D01*
X177955Y183250D01*
X177205Y184000D02*X177955Y183250D01*
X174955Y184000D02*X177205D01*
X174205Y184750D02*X174955Y184000D01*
X174205Y184750D02*X174955Y185500D01*
X177205D01*
X177955Y184750D01*
X174205Y183250D02*X174955Y182500D01*
X182457Y188500D02*Y183250D01*
X183207Y182500D01*
X186958Y185500D02*X187708Y184750D01*
X185458Y185500D02*X186958D01*
X184708Y184750D02*X185458Y185500D01*
X184708Y184750D02*Y183250D01*
X185458Y182500D01*
X187708Y185500D02*Y183250D01*
X188458Y182500D01*
X185458D02*X186958D01*
X187708Y183250D01*
X190260Y185500D02*Y183250D01*
X191010Y182500D01*
X193260Y185500D02*Y181000D01*
X192510Y180250D02*X193260Y181000D01*
X191010Y180250D02*X192510D01*
X190260Y181000D02*X191010Y180250D01*
Y182500D02*X192510D01*
X193260Y183250D01*
X195061Y184750D02*Y183250D01*
Y184750D02*X195811Y185500D01*
X197311D01*
X198061Y184750D01*
Y183250D01*
X197311Y182500D02*X198061Y183250D01*
X195811Y182500D02*X197311D01*
X195061Y183250D02*X195811Y182500D01*
X199863Y185500D02*Y183250D01*
X200613Y182500D01*
X202113D01*
X202863Y183250D01*
Y185500D02*Y183250D01*
X205414Y188500D02*Y183250D01*
X206164Y182500D01*
X204664Y186250D02*X206164D01*
X207666Y181000D02*X209166Y182500D01*
X214417D02*X215917D01*
X215167Y188500D02*Y182500D01*
X213667Y187000D02*X215167Y188500D01*
X220419D02*Y182500D01*
Y184750D02*X221169Y185500D01*
X222669D01*
X223419Y184750D01*
Y182500D01*
X225220Y184750D02*Y183250D01*
Y184750D02*X225970Y185500D01*
X227470D01*
X228220Y184750D01*
Y183250D01*
X227470Y182500D02*X228220Y183250D01*
X225970Y182500D02*X227470D01*
X225220Y183250D02*X225970Y182500D01*
X230022Y188500D02*Y183250D01*
X230772Y182500D01*
X233023D02*X235273D01*
X232273Y183250D02*X233023Y182500D01*
X232273Y184750D02*Y183250D01*
Y184750D02*X233023Y185500D01*
X234523D01*
X235273Y184750D01*
X232273Y184000D02*X235273D01*
Y184750D02*Y184000D01*
X237825Y182500D02*X240075D01*
X240825Y183250D01*
X240075Y184000D02*X240825Y183250D01*
X237825Y184000D02*X240075D01*
X237075Y184750D02*X237825Y184000D01*
X237075Y184750D02*X237825Y185500D01*
X240075D01*
X240825Y184750D01*
X237075Y183250D02*X237825Y182500D01*
X246076Y188500D02*Y183250D01*
X246826Y182500D01*
X245326Y186250D02*X246826D01*
X248328Y184750D02*Y183250D01*
Y184750D02*X249078Y185500D01*
X250578D01*
X251328Y184750D01*
Y183250D01*
X250578Y182500D02*X251328Y183250D01*
X249078Y182500D02*X250578D01*
X248328Y183250D02*X249078Y182500D01*
X253879Y188500D02*Y183250D01*
X254629Y182500D01*
X253129Y186250D02*X254629D01*
X258381Y185500D02*X259131Y184750D01*
X256881Y185500D02*X258381D01*
X256131Y184750D02*X256881Y185500D01*
X256131Y184750D02*Y183250D01*
X256881Y182500D01*
X259131Y185500D02*Y183250D01*
X259881Y182500D01*
X256881D02*X258381D01*
X259131Y183250D01*
X261682Y188500D02*Y183250D01*
X262432Y182500D01*
G54D16*X0Y100000D02*X200000D01*
X0D02*Y0D01*
X200000Y100000D02*Y0D01*
X0D02*X200000D01*
G54D15*Y113500D02*Y107500D01*
Y113500D02*X202250Y111250D01*
X204500Y113500D01*
Y107500D01*
X208551Y110500D02*X209301Y109750D01*
X207051Y110500D02*X208551D01*
X206301Y109750D02*X207051Y110500D01*
X206301Y109750D02*Y108250D01*
X207051Y107500D01*
X209301Y110500D02*Y108250D01*
X210051Y107500D01*
X207051D02*X208551D01*
X209301Y108250D01*
X211853Y110500D02*X214853Y107500D01*
X211853D02*X214853Y110500D01*
X216654Y112000D02*Y111250D01*
Y109750D02*Y107500D01*
X218906Y109750D02*Y107500D01*
Y109750D02*X219656Y110500D01*
X220406D01*
X221156Y109750D01*
Y107500D01*
Y109750D02*X221906Y110500D01*
X222656D01*
X223406Y109750D01*
Y107500D01*
X218156Y110500D02*X218906Y109750D01*
X225207Y110500D02*Y108250D01*
X225957Y107500D01*
X227457D01*
X228207Y108250D01*
Y110500D02*Y108250D01*
X230759Y109750D02*Y107500D01*
Y109750D02*X231509Y110500D01*
X232259D01*
X233009Y109750D01*
Y107500D01*
Y109750D02*X233759Y110500D01*
X234509D01*
X235259Y109750D01*
Y107500D01*
X230009Y110500D02*X230759Y109750D01*
X240510Y113500D02*Y107500D01*
X242760Y113500D02*X243510Y112750D01*
Y108250D01*
X242760Y107500D02*X243510Y108250D01*
X239760Y107500D02*X242760D01*
X239760Y113500D02*X242760D01*
X245312Y112000D02*Y111250D01*
Y109750D02*Y107500D01*
X247563Y109750D02*Y107500D01*
Y109750D02*X248313Y110500D01*
X249063D01*
X249813Y109750D01*
Y107500D01*
Y109750D02*X250563Y110500D01*
X251313D01*
X252063Y109750D01*
Y107500D01*
X246813Y110500D02*X247563Y109750D01*
X254615Y107500D02*X256865D01*
X253865Y108250D02*X254615Y107500D01*
X253865Y109750D02*Y108250D01*
Y109750D02*X254615Y110500D01*
X256115D01*
X256865Y109750D01*
X253865Y109000D02*X256865D01*
Y109750D02*Y109000D01*
X259416Y109750D02*Y107500D01*
Y109750D02*X260166Y110500D01*
X260916D01*
X261666Y109750D01*
Y107500D01*
X258666Y110500D02*X259416Y109750D01*
X264218Y107500D02*X266468D01*
X267218Y108250D01*
X266468Y109000D02*X267218Y108250D01*
X264218Y109000D02*X266468D01*
X263468Y109750D02*X264218Y109000D01*
X263468Y109750D02*X264218Y110500D01*
X266468D01*
X267218Y109750D01*
X263468Y108250D02*X264218Y107500D01*
X269019Y112000D02*Y111250D01*
Y109750D02*Y107500D01*
X270521Y109750D02*Y108250D01*
Y109750D02*X271271Y110500D01*
X272771D01*
X273521Y109750D01*
Y108250D01*
X272771Y107500D02*X273521Y108250D01*
X271271Y107500D02*X272771D01*
X270521Y108250D02*X271271Y107500D01*
X276072Y109750D02*Y107500D01*
Y109750D02*X276822Y110500D01*
X277572D01*
X278322Y109750D01*
Y107500D01*
X275322Y110500D02*X276072Y109750D01*
X280874Y107500D02*X283124D01*
X283874Y108250D01*
X283124Y109000D02*X283874Y108250D01*
X280874Y109000D02*X283124D01*
X280124Y109750D02*X280874Y109000D01*
X280124Y109750D02*X280874Y110500D01*
X283124D01*
X283874Y109750D01*
X280124Y108250D02*X280874Y107500D01*
X285675Y111250D02*X286425D01*
X285675Y109750D02*X286425D01*
X290927Y112750D02*X291677Y113500D01*
X293927D01*
X294677Y112750D01*
Y111250D01*
X290927Y107500D02*X294677Y111250D01*
X290927Y107500D02*X294677D01*
X296478Y108250D02*X297228Y107500D01*
X296478Y112750D02*Y108250D01*
Y112750D02*X297228Y113500D01*
X298728D01*
X299478Y112750D01*
Y108250D01*
X298728Y107500D02*X299478Y108250D01*
X297228Y107500D02*X298728D01*
X296478Y109000D02*X299478Y112000D01*
X301280Y108250D02*X302030Y107500D01*
X301280Y112750D02*Y108250D01*
Y112750D02*X302030Y113500D01*
X303530D01*
X304280Y112750D01*
Y108250D01*
X303530Y107500D02*X304280Y108250D01*
X302030Y107500D02*X303530D01*
X301280Y109000D02*X304280Y112000D01*
X306081Y108250D02*X306831Y107500D01*
X306081Y112750D02*Y108250D01*
Y112750D02*X306831Y113500D01*
X308331D01*
X309081Y112750D01*
Y108250D01*
X308331Y107500D02*X309081Y108250D01*
X306831Y107500D02*X308331D01*
X306081Y109000D02*X309081Y112000D01*
X314333Y109750D02*Y107500D01*
Y109750D02*X315083Y110500D01*
X315833D01*
X316583Y109750D01*
Y107500D01*
Y109750D02*X317333Y110500D01*
X318083D01*
X318833Y109750D01*
Y107500D01*
X313583Y110500D02*X314333Y109750D01*
X320634Y112000D02*Y111250D01*
Y109750D02*Y107500D01*
X322136Y113500D02*Y108250D01*
X322886Y107500D01*
X325137D02*X327387D01*
X328137Y108250D01*
X327387Y109000D02*X328137Y108250D01*
X325137Y109000D02*X327387D01*
X324387Y109750D02*X325137Y109000D01*
X324387Y109750D02*X325137Y110500D01*
X327387D01*
X328137Y109750D01*
X324387Y108250D02*X325137Y107500D01*
X332639Y110500D02*Y108250D01*
X333389Y107500D01*
X334139D01*
X334889Y108250D01*
Y110500D02*Y108250D01*
X335639Y107500D01*
X336389D01*
X337139Y108250D01*
Y110500D02*Y108250D01*
X338940Y112000D02*Y111250D01*
Y109750D02*Y107500D01*
X343442Y113500D02*Y107500D01*
X342692D02*X343442Y108250D01*
X341192Y107500D02*X342692D01*
X340442Y108250D02*X341192Y107500D01*
X340442Y109750D02*Y108250D01*
Y109750D02*X341192Y110500D01*
X342692D01*
X343442Y109750D01*
X345993Y107500D02*X348243D01*
X345243Y108250D02*X345993Y107500D01*
X345243Y109750D02*Y108250D01*
Y109750D02*X345993Y110500D01*
X347493D01*
X348243Y109750D01*
X345243Y109000D02*X348243D01*
Y109750D02*Y109000D01*
X350045Y106000D02*X351545Y107500D01*
X356796D02*X358296D01*
X357546Y113500D02*Y107500D01*
X356046Y112000D02*X357546Y113500D01*
X360098Y108250D02*X360848Y107500D01*
X360098Y112750D02*Y108250D01*
Y112750D02*X360848Y113500D01*
X362348D01*
X363098Y112750D01*
Y108250D01*
X362348Y107500D02*X363098Y108250D01*
X360848Y107500D02*X362348D01*
X360098Y109000D02*X363098Y112000D01*
X364899Y108250D02*X365649Y107500D01*
X364899Y112750D02*Y108250D01*
Y112750D02*X365649Y113500D01*
X367149D01*
X367899Y112750D01*
Y108250D01*
X367149Y107500D02*X367899Y108250D01*
X365649Y107500D02*X367149D01*
X364899Y109000D02*X367899Y112000D01*
X369701Y108250D02*X370451Y107500D01*
X369701Y112750D02*Y108250D01*
Y112750D02*X370451Y113500D01*
X371951D01*
X372701Y112750D01*
Y108250D01*
X371951Y107500D02*X372701Y108250D01*
X370451Y107500D02*X371951D01*
X369701Y109000D02*X372701Y112000D01*
X377952Y109750D02*Y107500D01*
Y109750D02*X378702Y110500D01*
X379452D01*
X380202Y109750D01*
Y107500D01*
Y109750D02*X380952Y110500D01*
X381702D01*
X382452Y109750D01*
Y107500D01*
X377202Y110500D02*X377952Y109750D01*
X384254Y112000D02*Y111250D01*
Y109750D02*Y107500D01*
X385755Y113500D02*Y108250D01*
X386505Y107500D01*
X388757D02*X391007D01*
X391757Y108250D01*
X391007Y109000D02*X391757Y108250D01*
X388757Y109000D02*X391007D01*
X388007Y109750D02*X388757Y109000D01*
X388007Y109750D02*X388757Y110500D01*
X391007D01*
X391757Y109750D01*
X388007Y108250D02*X388757Y107500D01*
X396258Y113500D02*Y107500D01*
Y109750D02*X397008Y110500D01*
X398508D01*
X399258Y109750D01*
Y107500D01*
X401060Y112000D02*Y111250D01*
Y109750D02*Y107500D01*
X404811Y110500D02*X405561Y109750D01*
X403311Y110500D02*X404811D01*
X402561Y109750D02*X403311Y110500D01*
X402561Y109750D02*Y108250D01*
X403311Y107500D01*
X404811D01*
X405561Y108250D01*
X402561Y106000D02*X403311Y105250D01*
X404811D01*
X405561Y106000D01*
Y110500D02*Y106000D01*
X407363Y113500D02*Y107500D01*
Y109750D02*X408113Y110500D01*
X409613D01*
X410363Y109750D01*
Y107500D01*
X0Y-9500D02*X3000D01*
X3750Y-8750D01*
Y-7250D02*Y-8750D01*
X3000Y-6500D02*X3750Y-7250D01*
X750Y-6500D02*X3000D01*
X750Y-3500D02*Y-9500D01*
X0Y-3500D02*X3000D01*
X3750Y-4250D01*
Y-5750D01*
X3000Y-6500D02*X3750Y-5750D01*
X5551Y-7250D02*Y-8750D01*
Y-7250D02*X6301Y-6500D01*
X7801D01*
X8551Y-7250D01*
Y-8750D01*
X7801Y-9500D02*X8551Y-8750D01*
X6301Y-9500D02*X7801D01*
X5551Y-8750D02*X6301Y-9500D01*
X12603Y-6500D02*X13353Y-7250D01*
X11103Y-6500D02*X12603D01*
X10353Y-7250D02*X11103Y-6500D01*
X10353Y-7250D02*Y-8750D01*
X11103Y-9500D01*
X13353Y-6500D02*Y-8750D01*
X14103Y-9500D01*
X11103D02*X12603D01*
X13353Y-8750D01*
X16654Y-7250D02*Y-9500D01*
Y-7250D02*X17404Y-6500D01*
X18904D01*
X15904D02*X16654Y-7250D01*
X23706Y-3500D02*Y-9500D01*
X22956D02*X23706Y-8750D01*
X21456Y-9500D02*X22956D01*
X20706Y-8750D02*X21456Y-9500D01*
X20706Y-7250D02*Y-8750D01*
Y-7250D02*X21456Y-6500D01*
X22956D01*
X23706Y-7250D01*
X28207D02*Y-8750D01*
Y-7250D02*X28957Y-6500D01*
X30457D01*
X31207Y-7250D01*
Y-8750D01*
X30457Y-9500D02*X31207Y-8750D01*
X28957Y-9500D02*X30457D01*
X28207Y-8750D02*X28957Y-9500D01*
X33009Y-6500D02*Y-8750D01*
X33759Y-9500D01*
X35259D01*
X36009Y-8750D01*
Y-6500D02*Y-8750D01*
X38560Y-3500D02*Y-8750D01*
X39310Y-9500D01*
X37810Y-5750D02*X39310D01*
X40812Y-3500D02*Y-8750D01*
X41562Y-9500D01*
X43063Y-5000D02*Y-5750D01*
Y-7250D02*Y-9500D01*
X45315Y-7250D02*Y-9500D01*
Y-7250D02*X46065Y-6500D01*
X46815D01*
X47565Y-7250D01*
Y-9500D01*
X44565Y-6500D02*X45315Y-7250D01*
X50116Y-9500D02*X52366D01*
X49366Y-8750D02*X50116Y-9500D01*
X49366Y-7250D02*Y-8750D01*
Y-7250D02*X50116Y-6500D01*
X51616D01*
X52366Y-7250D01*
X49366Y-8000D02*X52366D01*
Y-7250D02*Y-8000D01*
X56868Y-5000D02*Y-5750D01*
Y-7250D02*Y-9500D01*
X59119D02*X61369D01*
X62119Y-8750D01*
X61369Y-8000D02*X62119Y-8750D01*
X59119Y-8000D02*X61369D01*
X58369Y-7250D02*X59119Y-8000D01*
X58369Y-7250D02*X59119Y-6500D01*
X61369D01*
X62119Y-7250D01*
X58369Y-8750D02*X59119Y-9500D01*
X67371Y-3500D02*Y-8750D01*
X68121Y-9500D01*
X66621Y-5750D02*X68121D01*
X69622Y-3500D02*Y-9500D01*
Y-7250D02*X70372Y-6500D01*
X71872D01*
X72622Y-7250D01*
Y-9500D01*
X75174D02*X77424D01*
X74424Y-8750D02*X75174Y-9500D01*
X74424Y-7250D02*Y-8750D01*
Y-7250D02*X75174Y-6500D01*
X76674D01*
X77424Y-7250D01*
X74424Y-8000D02*X77424D01*
Y-7250D02*Y-8000D01*
X82675Y-6500D02*X84925D01*
X81925Y-7250D02*X82675Y-6500D01*
X81925Y-7250D02*Y-8750D01*
X82675Y-9500D01*
X84925D01*
X87477D02*X89727D01*
X86727Y-8750D02*X87477Y-9500D01*
X86727Y-7250D02*Y-8750D01*
Y-7250D02*X87477Y-6500D01*
X88977D01*
X89727Y-7250D01*
X86727Y-8000D02*X89727D01*
Y-7250D02*Y-8000D01*
X92278Y-7250D02*Y-9500D01*
Y-7250D02*X93028Y-6500D01*
X93778D01*
X94528Y-7250D01*
Y-9500D01*
X91528Y-6500D02*X92278Y-7250D01*
X97080Y-3500D02*Y-8750D01*
X97830Y-9500D01*
X96330Y-5750D02*X97830D01*
X100081Y-9500D02*X102331D01*
X99331Y-8750D02*X100081Y-9500D01*
X99331Y-7250D02*Y-8750D01*
Y-7250D02*X100081Y-6500D01*
X101581D01*
X102331Y-7250D01*
X99331Y-8000D02*X102331D01*
Y-7250D02*Y-8000D01*
X104883Y-7250D02*Y-9500D01*
Y-7250D02*X105633Y-6500D01*
X107133D01*
X104133D02*X104883Y-7250D01*
X108934Y-3500D02*Y-8750D01*
X109684Y-9500D01*
X111186Y-5000D02*Y-5750D01*
Y-7250D02*Y-9500D01*
X113437Y-7250D02*Y-9500D01*
Y-7250D02*X114187Y-6500D01*
X114937D01*
X115687Y-7250D01*
Y-9500D01*
X112687Y-6500D02*X113437Y-7250D01*
X118239Y-9500D02*X120489D01*
X117489Y-8750D02*X118239Y-9500D01*
X117489Y-7250D02*Y-8750D01*
Y-7250D02*X118239Y-6500D01*
X119739D01*
X120489Y-7250D01*
X117489Y-8000D02*X120489D01*
Y-7250D02*Y-8000D01*
X124990Y-7250D02*Y-8750D01*
Y-7250D02*X125740Y-6500D01*
X127240D01*
X127990Y-7250D01*
Y-8750D01*
X127240Y-9500D02*X127990Y-8750D01*
X125740Y-9500D02*X127240D01*
X124990Y-8750D02*X125740Y-9500D01*
X130542Y-4250D02*Y-9500D01*
Y-4250D02*X131292Y-3500D01*
X132042D01*
X129792Y-6500D02*X131292D01*
X136993Y-3500D02*Y-8750D01*
X137743Y-9500D01*
X136243Y-5750D02*X137743D01*
X139245Y-3500D02*Y-9500D01*
Y-7250D02*X139995Y-6500D01*
X141495D01*
X142245Y-7250D01*
Y-9500D01*
X144046Y-5000D02*Y-5750D01*
Y-7250D02*Y-9500D01*
X146298D02*X148548D01*
X149298Y-8750D01*
X148548Y-8000D02*X149298Y-8750D01*
X146298Y-8000D02*X148548D01*
X145548Y-7250D02*X146298Y-8000D01*
X145548Y-7250D02*X146298Y-6500D01*
X148548D01*
X149298Y-7250D01*
X145548Y-8750D02*X146298Y-9500D01*
X154549D02*X156049D01*
X155299Y-3500D02*Y-9500D01*
X153799Y-5000D02*X155299Y-3500D01*
X157851Y-8750D02*X158601Y-9500D01*
X157851Y-4250D02*Y-8750D01*
Y-4250D02*X158601Y-3500D01*
X160101D01*
X160851Y-4250D01*
Y-8750D01*
X160101Y-9500D02*X160851Y-8750D01*
X158601Y-9500D02*X160101D01*
X157851Y-8000D02*X160851Y-5000D01*
X166102Y-7250D02*Y-9500D01*
Y-7250D02*X166852Y-6500D01*
X167602D01*
X168352Y-7250D01*
Y-9500D01*
Y-7250D02*X169102Y-6500D01*
X169852D01*
X170602Y-7250D01*
Y-9500D01*
X165352Y-6500D02*X166102Y-7250D01*
X172404Y-5000D02*Y-5750D01*
Y-7250D02*Y-9500D01*
X173905Y-3500D02*Y-8750D01*
X174655Y-9500D01*
X179607Y-7250D02*Y-9500D01*
Y-7250D02*X180357Y-6500D01*
X181857D01*
X178857D02*X179607Y-7250D01*
X184408Y-9500D02*X186658D01*
X183658Y-8750D02*X184408Y-9500D01*
X183658Y-7250D02*Y-8750D01*
Y-7250D02*X184408Y-6500D01*
X185908D01*
X186658Y-7250D01*
X183658Y-8000D02*X186658D01*
Y-7250D02*Y-8000D01*
X189210Y-6500D02*X191460D01*
X188460Y-7250D02*X189210Y-6500D01*
X188460Y-7250D02*Y-8750D01*
X189210Y-9500D01*
X191460D01*
X194011Y-3500D02*Y-8750D01*
X194761Y-9500D01*
X193261Y-5750D02*X194761D01*
X198513Y-6500D02*X199263Y-7250D01*
X197013Y-6500D02*X198513D01*
X196263Y-7250D02*X197013Y-6500D01*
X196263Y-7250D02*Y-8750D01*
X197013Y-9500D01*
X199263Y-6500D02*Y-8750D01*
X200013Y-9500D01*
X197013D02*X198513D01*
X199263Y-8750D01*
X202564Y-7250D02*Y-9500D01*
Y-7250D02*X203314Y-6500D01*
X204064D01*
X204814Y-7250D01*
Y-9500D01*
X201814Y-6500D02*X202564Y-7250D01*
X208866Y-6500D02*X209616Y-7250D01*
X207366Y-6500D02*X208866D01*
X206616Y-7250D02*X207366Y-6500D01*
X206616Y-7250D02*Y-8750D01*
X207366Y-9500D01*
X208866D01*
X209616Y-8750D01*
X206616Y-11000D02*X207366Y-11750D01*
X208866D01*
X209616Y-11000D01*
Y-6500D02*Y-11000D01*
X211417Y-3500D02*Y-8750D01*
X212167Y-9500D01*
X214419D02*X216669D01*
X213669Y-8750D02*X214419Y-9500D01*
X213669Y-7250D02*Y-8750D01*
Y-7250D02*X214419Y-6500D01*
X215919D01*
X216669Y-7250D01*
X213669Y-8000D02*X216669D01*
Y-7250D02*Y-8000D01*
X221170Y-6500D02*X224170D01*
X228672Y-8750D02*X229422Y-9500D01*
X228672Y-4250D02*Y-8750D01*
Y-4250D02*X229422Y-3500D01*
X230922D01*
X231672Y-4250D01*
Y-8750D01*
X230922Y-9500D02*X231672Y-8750D01*
X229422Y-9500D02*X230922D01*
X228672Y-8000D02*X231672Y-5000D01*
X233473Y-11000D02*X234973Y-9500D01*
X236775Y-8750D02*X237525Y-9500D01*
X236775Y-4250D02*Y-8750D01*
Y-4250D02*X237525Y-3500D01*
X239025D01*
X239775Y-4250D01*
Y-8750D01*
X239025Y-9500D02*X239775Y-8750D01*
X237525Y-9500D02*X239025D01*
X236775Y-8000D02*X239775Y-5000D01*
X245026Y-3500D02*Y-8750D01*
X245776Y-9500D01*
X244276Y-5750D02*X245776D01*
X247278Y-7250D02*Y-8750D01*
Y-7250D02*X248028Y-6500D01*
X249528D01*
X250278Y-7250D01*
Y-8750D01*
X249528Y-9500D02*X250278Y-8750D01*
X248028Y-9500D02*X249528D01*
X247278Y-8750D02*X248028Y-9500D01*
X254779Y-4250D02*X255529Y-3500D01*
X257779D01*
X258529Y-4250D01*
Y-5750D01*
X254779Y-9500D02*X258529Y-5750D01*
X254779Y-9500D02*X258529D01*
X260331Y-8750D02*X261081Y-9500D01*
X260331Y-4250D02*Y-8750D01*
Y-4250D02*X261081Y-3500D01*
X262581D01*
X263331Y-4250D01*
Y-8750D01*
X262581Y-9500D02*X263331Y-8750D01*
X261081Y-9500D02*X262581D01*
X260331Y-8000D02*X263331Y-5000D01*
X265132Y-8750D02*X265882Y-9500D01*
X265132Y-4250D02*Y-8750D01*
Y-4250D02*X265882Y-3500D01*
X267382D01*
X268132Y-4250D01*
Y-8750D01*
X267382Y-9500D02*X268132Y-8750D01*
X265882Y-9500D02*X267382D01*
X265132Y-8000D02*X268132Y-5000D01*
X269934Y-8750D02*X270684Y-9500D01*
X269934Y-4250D02*Y-8750D01*
Y-4250D02*X270684Y-3500D01*
X272184D01*
X272934Y-4250D01*
Y-8750D01*
X272184Y-9500D02*X272934Y-8750D01*
X270684Y-9500D02*X272184D01*
X269934Y-8000D02*X272934Y-5000D01*
X274735Y-11000D02*X276235Y-9500D01*
X278787D02*X280287D01*
X279537Y-3500D02*Y-9500D01*
X278037Y-5000D02*X279537Y-3500D01*
X282088Y-8750D02*X282838Y-9500D01*
X282088Y-4250D02*Y-8750D01*
Y-4250D02*X282838Y-3500D01*
X284338D01*
X285088Y-4250D01*
Y-8750D01*
X284338Y-9500D02*X285088Y-8750D01*
X282838Y-9500D02*X284338D01*
X282088Y-8000D02*X285088Y-5000D01*
X286890Y-8750D02*X287640Y-9500D01*
X286890Y-4250D02*Y-8750D01*
Y-4250D02*X287640Y-3500D01*
X289140D01*
X289890Y-4250D01*
Y-8750D01*
X289140Y-9500D02*X289890Y-8750D01*
X287640Y-9500D02*X289140D01*
X286890Y-8000D02*X289890Y-5000D01*
X291691Y-8750D02*X292441Y-9500D01*
X291691Y-4250D02*Y-8750D01*
Y-4250D02*X292441Y-3500D01*
X293941D01*
X294691Y-4250D01*
Y-8750D01*
X293941Y-9500D02*X294691Y-8750D01*
X292441Y-9500D02*X293941D01*
X291691Y-8000D02*X294691Y-5000D01*
X299943Y-7250D02*Y-9500D01*
Y-7250D02*X300693Y-6500D01*
X301443D01*
X302193Y-7250D01*
Y-9500D01*
Y-7250D02*X302943Y-6500D01*
X303693D01*
X304443Y-7250D01*
Y-9500D01*
X299193Y-6500D02*X299943Y-7250D01*
X306244Y-5000D02*Y-5750D01*
Y-7250D02*Y-9500D01*
X307746Y-3500D02*Y-8750D01*
X308496Y-9500D01*
X310747D02*X312997D01*
X313747Y-8750D01*
X312997Y-8000D02*X313747Y-8750D01*
X310747Y-8000D02*X312997D01*
X309997Y-7250D02*X310747Y-8000D01*
X309997Y-7250D02*X310747Y-6500D01*
X312997D01*
X313747Y-7250D01*
X309997Y-8750D02*X310747Y-9500D01*
X200750Y128500D02*Y122500D01*
X203000Y128500D02*X203750Y127750D01*
Y123250D01*
X203000Y122500D02*X203750Y123250D01*
X200000Y122500D02*X203000D01*
X200000Y128500D02*X203000D01*
X207801Y125500D02*X208551Y124750D01*
X206301Y125500D02*X207801D01*
X205551Y124750D02*X206301Y125500D01*
X205551Y124750D02*Y123250D01*
X206301Y122500D01*
X208551Y125500D02*Y123250D01*
X209301Y122500D01*
X206301D02*X207801D01*
X208551Y123250D01*
X211853Y128500D02*Y123250D01*
X212603Y122500D01*
X211103Y126250D02*X212603D01*
X214854Y122500D02*X217104D01*
X214104Y123250D02*X214854Y122500D01*
X214104Y124750D02*Y123250D01*
Y124750D02*X214854Y125500D01*
X216354D01*
X217104Y124750D01*
X214104Y124000D02*X217104D01*
Y124750D02*Y124000D01*
X218906Y126250D02*X219656D01*
X218906Y124750D02*X219656D01*
X224157Y128500D02*Y122500D01*
X226407Y124750D01*
X228657Y122500D01*
Y128500D02*Y122500D01*
X231209D02*X233459D01*
X230459Y123250D02*X231209Y122500D01*
X230459Y124750D02*Y123250D01*
Y124750D02*X231209Y125500D01*
X232709D01*
X233459Y124750D01*
X230459Y124000D02*X233459D01*
Y124750D02*Y124000D01*
X238260Y128500D02*Y122500D01*
X237510D02*X238260Y123250D01*
X236010Y122500D02*X237510D01*
X235260Y123250D02*X236010Y122500D01*
X235260Y124750D02*Y123250D01*
Y124750D02*X236010Y125500D01*
X237510D01*
X238260Y124750D01*
X242762Y128500D02*X245012D01*
Y123250D01*
X244262Y122500D02*X245012Y123250D01*
X243512Y122500D02*X244262D01*
X242762Y123250D02*X243512Y122500D01*
X246813Y125500D02*Y123250D01*
X247563Y122500D01*
X249063D01*
X249813Y123250D01*
Y125500D02*Y123250D01*
X252365Y124750D02*Y122500D01*
Y124750D02*X253115Y125500D01*
X253865D01*
X254615Y124750D01*
Y122500D01*
X251615Y125500D02*X252365Y124750D01*
X259116Y127750D02*X259866Y128500D01*
X262116D01*
X262866Y127750D01*
Y126250D01*
X259116Y122500D02*X262866Y126250D01*
X259116Y122500D02*X262866D01*
X264668Y125500D02*X267668Y128500D01*
X264668Y125500D02*X268418D01*
X267668Y128500D02*Y122500D01*
X272919Y127750D02*X273669Y128500D01*
X275919D01*
X276669Y127750D01*
Y126250D01*
X272919Y122500D02*X276669Y126250D01*
X272919Y122500D02*X276669D01*
X278471Y127750D02*X279221Y128500D01*
X281471D01*
X282221Y127750D01*
Y126250D01*
X278471Y122500D02*X282221Y126250D01*
X278471Y122500D02*X282221D01*
X284022Y126250D02*X284772D01*
X284022Y124750D02*X284772D01*
X286574Y123250D02*X287324Y122500D01*
X286574Y127750D02*Y123250D01*
Y127750D02*X287324Y128500D01*
X288824D01*
X289574Y127750D01*
Y123250D01*
X288824Y122500D02*X289574Y123250D01*
X287324Y122500D02*X288824D01*
X286574Y124000D02*X289574Y127000D01*
X291375Y128500D02*X294375D01*
X291375D02*Y125500D01*
X292125Y126250D01*
X293625D01*
X294375Y125500D01*
Y123250D01*
X293625Y122500D02*X294375Y123250D01*
X292125Y122500D02*X293625D01*
X291375Y123250D02*X292125Y122500D01*
X296177Y126250D02*X296927D01*
X296177Y124750D02*X296927D01*
X298728Y127750D02*X299478Y128500D01*
X300978D01*
X301728Y127750D01*
Y123250D01*
X300978Y122500D02*X301728Y123250D01*
X299478Y122500D02*X300978D01*
X298728Y123250D02*X299478Y122500D01*
Y125500D02*X301728D01*
X303530Y128500D02*X306530D01*
X303530D02*Y125500D01*
X304280Y126250D01*
X305780D01*
X306530Y125500D01*
Y123250D01*
X305780Y122500D02*X306530Y123250D01*
X304280Y122500D02*X305780D01*
X303530Y123250D02*X304280Y122500D01*
X311031Y127750D02*X311781Y128500D01*
X314031D01*
X314781Y127750D01*
Y126250D01*
X311031Y122500D02*X314781Y126250D01*
X311031Y122500D02*X314781D01*
X316583Y123250D02*X317333Y122500D01*
X316583Y127750D02*Y123250D01*
Y127750D02*X317333Y128500D01*
X318833D01*
X319583Y127750D01*
Y123250D01*
X318833Y122500D02*X319583Y123250D01*
X317333Y122500D02*X318833D01*
X316583Y124000D02*X319583Y127000D01*
X321384Y123250D02*X322134Y122500D01*
X321384Y127750D02*Y123250D01*
Y127750D02*X322134Y128500D01*
X323634D01*
X324384Y127750D01*
Y123250D01*
X323634Y122500D02*X324384Y123250D01*
X322134Y122500D02*X323634D01*
X321384Y124000D02*X324384Y127000D01*
X326186Y122500D02*X329186Y125500D01*
Y127750D02*Y125500D01*
X328436Y128500D02*X329186Y127750D01*
X326936Y128500D02*X328436D01*
X326186Y127750D02*X326936Y128500D01*
X326186Y127750D02*Y126250D01*
X326936Y125500D01*
X329186D01*
X333687Y128500D02*Y123250D01*
X334437Y122500D01*
X335937D01*
X336687Y123250D01*
Y128500D02*Y123250D01*
X338489Y128500D02*X341489D01*
X339989D02*Y122500D01*
X344040D02*X346290D01*
X343290Y123250D02*X344040Y122500D01*
X343290Y127750D02*Y123250D01*
Y127750D02*X344040Y128500D01*
X346290D01*
X200000Y142750D02*Y137500D01*
Y142750D02*X200750Y143500D01*
X203000D01*
X203750Y142750D01*
Y137500D01*
X200000Y140500D02*X203750D01*
X205551D02*Y138250D01*
X206301Y137500D01*
X207801D01*
X208551Y138250D01*
Y140500D02*Y138250D01*
X211103Y143500D02*Y138250D01*
X211853Y137500D01*
X210353Y141250D02*X211853D01*
X213354Y143500D02*Y137500D01*
Y139750D02*X214104Y140500D01*
X215604D01*
X216354Y139750D01*
Y137500D01*
X218156Y139750D02*Y138250D01*
Y139750D02*X218906Y140500D01*
X220406D01*
X221156Y139750D01*
Y138250D01*
X220406Y137500D02*X221156Y138250D01*
X218906Y137500D02*X220406D01*
X218156Y138250D02*X218906Y137500D01*
X223707Y139750D02*Y137500D01*
Y139750D02*X224457Y140500D01*
X225957D01*
X222957D02*X223707Y139750D01*
X227759Y141250D02*X228509D01*
X227759Y139750D02*X228509D01*
X233760Y143500D02*Y137500D01*
X236010Y143500D02*X236760Y142750D01*
Y138250D01*
X236010Y137500D02*X236760Y138250D01*
X233010Y137500D02*X236010D01*
X233010Y143500D02*X236010D01*
X240812Y140500D02*X241562Y139750D01*
X239312Y140500D02*X240812D01*
X238562Y139750D02*X239312Y140500D01*
X238562Y139750D02*Y138250D01*
X239312Y137500D01*
X241562Y140500D02*Y138250D01*
X242312Y137500D01*
X239312D02*X240812D01*
X241562Y138250D01*
X244863Y139750D02*Y137500D01*
Y139750D02*X245613Y140500D01*
X246363D01*
X247113Y139750D01*
Y137500D01*
X244113Y140500D02*X244863Y139750D01*
X251615Y143500D02*Y137500D01*
Y143500D02*X253865Y141250D01*
X256115Y143500D01*
Y137500D01*
X258666Y140500D02*X260916D01*
X257916Y139750D02*X258666Y140500D01*
X257916Y139750D02*Y138250D01*
X258666Y137500D01*
X260916D01*
X262718Y143500D02*Y137500D01*
Y143500D02*X264968Y141250D01*
X267218Y143500D01*
Y137500D01*
X271269Y140500D02*X272019Y139750D01*
X269769Y140500D02*X271269D01*
X269019Y139750D02*X269769Y140500D01*
X269019Y139750D02*Y138250D01*
X269769Y137500D01*
X272019Y140500D02*Y138250D01*
X272769Y137500D01*
X269769D02*X271269D01*
X272019Y138250D01*
X274571Y143500D02*Y137500D01*
Y139750D02*X275321Y140500D01*
X276821D01*
X277571Y139750D01*
Y137500D01*
X279372Y142000D02*Y141250D01*
Y139750D02*Y137500D01*
X280874Y143500D02*Y138250D01*
X281624Y137500D01*
X283125Y143500D02*Y138250D01*
X283875Y137500D01*
X200000Y158500D02*X203000D01*
X201500D02*Y152500D01*
X204801Y157000D02*Y156250D01*
Y154750D02*Y152500D01*
X207053Y158500D02*Y153250D01*
X207803Y152500D01*
X206303Y156250D02*X207803D01*
X209304Y158500D02*Y153250D01*
X210054Y152500D01*
X212306D02*X214556D01*
X211556Y153250D02*X212306Y152500D01*
X211556Y154750D02*Y153250D01*
Y154750D02*X212306Y155500D01*
X213806D01*
X214556Y154750D01*
X211556Y154000D02*X214556D01*
Y154750D02*Y154000D01*
X216357Y156250D02*X217107D01*
X216357Y154750D02*X217107D01*
X221609Y152500D02*X224609D01*
X225359Y153250D01*
Y154750D02*Y153250D01*
X224609Y155500D02*X225359Y154750D01*
X222359Y155500D02*X224609D01*
X222359Y158500D02*Y152500D01*
X221609Y158500D02*X224609D01*
X225359Y157750D01*
Y156250D01*
X224609Y155500D02*X225359Y156250D01*
X229410Y155500D02*X230160Y154750D01*
X227910Y155500D02*X229410D01*
X227160Y154750D02*X227910Y155500D01*
X227160Y154750D02*Y153250D01*
X227910Y152500D01*
X230160Y155500D02*Y153250D01*
X230910Y152500D01*
X227910D02*X229410D01*
X230160Y153250D01*
X233462Y152500D02*X235712D01*
X236462Y153250D01*
X235712Y154000D02*X236462Y153250D01*
X233462Y154000D02*X235712D01*
X232712Y154750D02*X233462Y154000D01*
X232712Y154750D02*X233462Y155500D01*
X235712D01*
X236462Y154750D01*
X232712Y153250D02*X233462Y152500D01*
X238263Y157000D02*Y156250D01*
Y154750D02*Y152500D01*
X240515Y155500D02*X242765D01*
X239765Y154750D02*X240515Y155500D01*
X239765Y154750D02*Y153250D01*
X240515Y152500D01*
X242765D01*
X250266Y158500D02*X251016Y157750D01*
X248016Y158500D02*X250266D01*
X247266Y157750D02*X248016Y158500D01*
X247266Y157750D02*Y156250D01*
X248016Y155500D01*
X250266D01*
X251016Y154750D01*
Y153250D01*
X250266Y152500D02*X251016Y153250D01*
X248016Y152500D02*X250266D01*
X247266Y153250D02*X248016Y152500D01*
X252818Y157000D02*Y156250D01*
Y154750D02*Y152500D01*
X255069Y154750D02*Y152500D01*
Y154750D02*X255819Y155500D01*
X256569D01*
X257319Y154750D01*
Y152500D01*
X254319Y155500D02*X255069Y154750D01*
X261371Y155500D02*X262121Y154750D01*
X259871Y155500D02*X261371D01*
X259121Y154750D02*X259871Y155500D01*
X259121Y154750D02*Y153250D01*
X259871Y152500D01*
X261371D01*
X262121Y153250D01*
X259121Y151000D02*X259871Y150250D01*
X261371D01*
X262121Y151000D01*
Y155500D02*Y151000D01*
X263922Y158500D02*Y153250D01*
X264672Y152500D01*
X266924D02*X269174D01*
X266174Y153250D02*X266924Y152500D01*
X266174Y154750D02*Y153250D01*
Y154750D02*X266924Y155500D01*
X268424D01*
X269174Y154750D01*
X266174Y154000D02*X269174D01*
Y154750D02*Y154000D01*
X273675Y158500D02*X276675D01*
X275175D02*Y152500D01*
X279227Y154750D02*Y152500D01*
Y154750D02*X279977Y155500D01*
X281477D01*
X278477D02*X279227Y154750D01*
X285528Y155500D02*X286278Y154750D01*
X284028Y155500D02*X285528D01*
X283278Y154750D02*X284028Y155500D01*
X283278Y154750D02*Y153250D01*
X284028Y152500D01*
X286278Y155500D02*Y153250D01*
X287028Y152500D01*
X284028D02*X285528D01*
X286278Y153250D01*
X289580Y155500D02*X291830D01*
X288830Y154750D02*X289580Y155500D01*
X288830Y154750D02*Y153250D01*
X289580Y152500D01*
X291830D01*
X294381D02*X296631D01*
X293631Y153250D02*X294381Y152500D01*
X293631Y154750D02*Y153250D01*
Y154750D02*X294381Y155500D01*
X295881D01*
X296631Y154750D01*
X293631Y154000D02*X296631D01*
Y154750D02*Y154000D01*
X301133Y158500D02*X304133D01*
X304883Y157750D01*
Y156250D01*
X304133Y155500D02*X304883Y156250D01*
X301883Y155500D02*X304133D01*
X301883Y158500D02*Y152500D01*
Y155500D02*X304883Y152500D01*
X309684Y158500D02*X310434Y157750D01*
X307434Y158500D02*X309684D01*
X306684Y157750D02*X307434Y158500D01*
X306684Y157750D02*Y156250D01*
X307434Y155500D01*
X309684D01*
X310434Y154750D01*
Y153250D01*
X309684Y152500D02*X310434Y153250D01*
X307434Y152500D02*X309684D01*
X306684Y153250D02*X307434Y152500D01*
X312236Y157750D02*X312986Y158500D01*
X315236D01*
X315986Y157750D01*
Y156250D01*
X312236Y152500D02*X315986Y156250D01*
X312236Y152500D02*X315986D01*
X317787D02*X321537Y156250D01*
Y158500D02*Y156250D01*
X317787Y158500D02*X321537D01*
X323339Y155500D02*X326339Y158500D01*
X323339Y155500D02*X327089D01*
X326339Y158500D02*Y152500D01*
X328890Y155500D02*X331890D01*
X333692Y158500D02*Y157750D01*
X337442Y154000D01*
Y152500D01*
X333692Y154000D02*Y152500D01*
Y154000D02*X337442Y157750D01*
Y158500D02*Y157750D01*
X341943Y158500D02*X344943D01*
X343443D02*Y152500D01*
X347495D02*X349745D01*
X346745Y153250D02*X347495Y152500D01*
X346745Y154750D02*Y153250D01*
Y154750D02*X347495Y155500D01*
X348995D01*
X349745Y154750D01*
X346745Y154000D02*X349745D01*
Y154750D02*Y154000D01*
X352296Y152500D02*X354546D01*
X355296Y153250D01*
X354546Y154000D02*X355296Y153250D01*
X352296Y154000D02*X354546D01*
X351546Y154750D02*X352296Y154000D01*
X351546Y154750D02*X352296Y155500D01*
X354546D01*
X355296Y154750D01*
X351546Y153250D02*X352296Y152500D01*
X357848Y158500D02*Y153250D01*
X358598Y152500D01*
X357098Y156250D02*X358598D01*
X362799Y155500D02*X365799D01*
X370301Y158500D02*Y152500D01*
Y158500D02*X373301D01*
X370301Y155500D02*X372551D01*
X377352D02*X378102Y154750D01*
X375852Y155500D02*X377352D01*
X375102Y154750D02*X375852Y155500D01*
X375102Y154750D02*Y153250D01*
X375852Y152500D01*
X378102Y155500D02*Y153250D01*
X378852Y152500D01*
X375852D02*X377352D01*
X378102Y153250D01*
X380654Y158500D02*Y152500D01*
Y153250D02*X381404Y152500D01*
X382904D01*
X383654Y153250D01*
Y154750D02*Y153250D01*
X382904Y155500D02*X383654Y154750D01*
X381404Y155500D02*X382904D01*
X380654Y154750D02*X381404Y155500D01*
X386205Y154750D02*Y152500D01*
Y154750D02*X386955Y155500D01*
X388455D01*
X385455D02*X386205Y154750D01*
X390257Y157000D02*Y156250D01*
Y154750D02*Y152500D01*
X392508Y155500D02*X394758D01*
X391758Y154750D02*X392508Y155500D01*
X391758Y154750D02*Y153250D01*
X392508Y152500D01*
X394758D01*
X398810Y155500D02*X399560Y154750D01*
X397310Y155500D02*X398810D01*
X396560Y154750D02*X397310Y155500D01*
X396560Y154750D02*Y153250D01*
X397310Y152500D01*
X399560Y155500D02*Y153250D01*
X400310Y152500D01*
X397310D02*X398810D01*
X399560Y153250D01*
X402861Y158500D02*Y153250D01*
X403611Y152500D01*
X402111Y156250D02*X403611D01*
X405113Y157000D02*Y156250D01*
Y154750D02*Y152500D01*
X406614Y154750D02*Y153250D01*
Y154750D02*X407364Y155500D01*
X408864D01*
X409614Y154750D01*
Y153250D01*
X408864Y152500D02*X409614Y153250D01*
X407364Y152500D02*X408864D01*
X406614Y153250D02*X407364Y152500D01*
X412166Y154750D02*Y152500D01*
Y154750D02*X412916Y155500D01*
X413666D01*
X414416Y154750D01*
Y152500D01*
X411416Y155500D02*X412166Y154750D01*
X419667Y158500D02*Y152500D01*
X421917Y158500D02*X422667Y157750D01*
Y153250D01*
X421917Y152500D02*X422667Y153250D01*
X418917Y152500D02*X421917D01*
X418917Y158500D02*X421917D01*
X425219Y154750D02*Y152500D01*
Y154750D02*X425969Y155500D01*
X427469D01*
X424469D02*X425219Y154750D01*
X431520Y155500D02*X432270Y154750D01*
X430020Y155500D02*X431520D01*
X429270Y154750D02*X430020Y155500D01*
X429270Y154750D02*Y153250D01*
X430020Y152500D01*
X432270Y155500D02*Y153250D01*
X433020Y152500D01*
X430020D02*X431520D01*
X432270Y153250D01*
X434822Y155500D02*Y153250D01*
X435572Y152500D01*
X436322D01*
X437072Y153250D01*
Y155500D02*Y153250D01*
X437822Y152500D01*
X438572D01*
X439322Y153250D01*
Y155500D02*Y153250D01*
X441123Y157000D02*Y156250D01*
Y154750D02*Y152500D01*
X443375Y154750D02*Y152500D01*
Y154750D02*X444125Y155500D01*
X444875D01*
X445625Y154750D01*
Y152500D01*
X442625Y155500D02*X443375Y154750D01*
X449676Y155500D02*X450426Y154750D01*
X448176Y155500D02*X449676D01*
X447426Y154750D02*X448176Y155500D01*
X447426Y154750D02*Y153250D01*
X448176Y152500D01*
X449676D01*
X450426Y153250D01*
X447426Y151000D02*X448176Y150250D01*
X449676D01*
X450426Y151000D01*
Y155500D02*Y151000D01*
M02*
