G04 (created by PCBNEW (2013-07-07 BZR 4022)-stable) date 24/11/2015 00:30:31*
%MOIN*%
G04 Gerber Fmt 3.4, Leading zero omitted, Abs format*
%FSLAX34Y34*%
G01*
G70*
G90*
G04 APERTURE LIST*
%ADD10C,0.00590551*%
%ADD11C,0.019685*%
%ADD12C,0.0787402*%
%ADD13C,0.015748*%
%ADD14C,0.0137795*%
%ADD15C,0.015748*%
%ADD16C,0.00393701*%
G04 APERTURE END LIST*
G54D10*
G54D11*
X68307Y-52992D03*
X68937Y-52992D03*
X68622Y-52992D03*
X67677Y-52992D03*
X67992Y-52992D03*
X67362Y-52992D03*
X67047Y-52992D03*
X67047Y-52677D03*
X67362Y-52677D03*
X67992Y-52677D03*
X67677Y-52677D03*
X68622Y-52677D03*
X68937Y-52677D03*
X68307Y-52677D03*
X68307Y-52362D03*
X68937Y-52362D03*
X68622Y-52362D03*
X67677Y-52362D03*
X67992Y-52362D03*
X67362Y-52362D03*
X67047Y-52362D03*
X67047Y-51732D03*
X67362Y-51732D03*
X67992Y-51732D03*
X67677Y-51732D03*
X68622Y-51732D03*
X68937Y-51732D03*
X68307Y-51732D03*
X68307Y-52047D03*
X68937Y-52047D03*
X68622Y-52047D03*
X67677Y-52047D03*
X67992Y-52047D03*
X67362Y-52047D03*
X67047Y-52047D03*
X67047Y-51417D03*
X67362Y-51417D03*
X67992Y-51417D03*
X67677Y-51417D03*
X68622Y-51417D03*
X68937Y-51417D03*
X68307Y-51417D03*
X68307Y-51102D03*
X68937Y-51102D03*
X68622Y-51102D03*
X67677Y-51102D03*
X67992Y-51102D03*
X67362Y-51102D03*
X67047Y-51102D03*
G54D12*
X75196Y-52106D03*
G54D13*
X64842Y-54251D03*
X63070Y-54251D03*
X63956Y-54251D03*
X66614Y-55590D03*
X69685Y-55649D03*
X72618Y-50905D03*
X72244Y-52952D03*
X72657Y-48641D03*
X63956Y-54566D03*
X63070Y-54566D03*
X64842Y-54566D03*
X66811Y-48602D03*
X71082Y-51850D03*
X67303Y-48956D03*
X72125Y-53937D03*
X69133Y-48681D03*
X66633Y-48956D03*
X69114Y-55551D03*
X72480Y-51850D03*
X70610Y-49940D03*
X68838Y-54015D03*
X68838Y-55492D03*
X71082Y-52637D03*
X62874Y-53070D03*
X63976Y-52992D03*
X71003Y-54881D03*
X63070Y-53228D03*
X72381Y-52381D03*
X63070Y-52913D03*
X71988Y-53326D03*
X71830Y-48641D03*
X72066Y-49192D03*
X71948Y-54665D03*
X71948Y-54173D03*
X71043Y-54173D03*
X70925Y-54685D03*
X70708Y-54685D03*
X71732Y-49448D03*
X71279Y-48681D03*
X70826Y-48956D03*
X71732Y-48956D03*
X70472Y-49448D03*
X70688Y-49448D03*
X64842Y-49133D03*
X64842Y-54015D03*
X64842Y-53779D03*
X64842Y-48818D03*
X64842Y-48582D03*
X64842Y-48267D03*
X74960Y-49330D03*
X74960Y-49822D03*
X64842Y-55826D03*
X64842Y-55511D03*
X64842Y-55275D03*
X64842Y-53464D03*
X62874Y-49606D03*
X64842Y-49488D03*
X63956Y-49448D03*
X63956Y-48897D03*
X63070Y-49133D03*
X63956Y-49133D03*
X63956Y-48267D03*
X63956Y-48582D03*
X63070Y-48267D03*
X63070Y-48582D03*
X63070Y-48897D03*
X63956Y-55826D03*
X63956Y-55275D03*
X63070Y-55275D03*
X63956Y-55511D03*
X63070Y-55511D03*
X63070Y-55826D03*
X64842Y-54803D03*
X63956Y-54803D03*
X63956Y-54015D03*
X63956Y-53779D03*
X63956Y-53464D03*
X63070Y-54803D03*
X63070Y-54015D03*
X63070Y-53779D03*
X63070Y-53464D03*
X65846Y-48759D03*
X66555Y-55964D03*
X67185Y-55964D03*
X68523Y-55964D03*
X70137Y-55964D03*
X71476Y-55964D03*
X72106Y-55964D03*
X73720Y-55964D03*
X73720Y-55629D03*
X73720Y-53523D03*
X73366Y-52854D03*
X73720Y-50570D03*
X73366Y-51240D03*
X73720Y-48464D03*
X73011Y-48464D03*
X73720Y-48129D03*
X72106Y-48129D03*
X71476Y-48129D03*
X70137Y-48129D03*
X68523Y-48129D03*
X67185Y-48129D03*
X66555Y-48129D03*
X65649Y-48464D03*
X65295Y-49232D03*
X74370Y-55118D03*
X74370Y-53937D03*
X75314Y-55433D03*
X75314Y-53622D03*
X75314Y-50472D03*
X75314Y-48661D03*
X67657Y-55590D03*
X68011Y-55590D03*
X67007Y-54842D03*
X65846Y-49685D03*
X65767Y-54271D03*
G54D14*
X68484Y-50767D03*
X68287Y-50767D03*
X69074Y-53346D03*
G54D13*
X69488Y-50118D03*
X75551Y-54842D03*
X75551Y-54212D03*
X74960Y-54763D03*
X74960Y-55433D03*
X75551Y-55118D03*
X74960Y-54291D03*
X74960Y-53622D03*
X75551Y-53937D03*
X74960Y-50472D03*
X75551Y-50157D03*
X75551Y-49881D03*
X75551Y-49251D03*
X74960Y-48661D03*
X75551Y-48976D03*
X68818Y-50039D03*
X67342Y-55334D03*
X67342Y-54842D03*
X72125Y-50472D03*
G54D14*
X68877Y-50767D03*
G54D13*
X68503Y-54094D03*
X70767Y-54291D03*
G54D14*
X68877Y-53346D03*
G54D13*
X71633Y-52637D03*
X69783Y-53877D03*
X70669Y-53858D03*
X71988Y-53641D03*
X70748Y-52047D03*
X66279Y-49724D03*
X66948Y-49625D03*
X71141Y-53326D03*
X71988Y-52952D03*
X70787Y-52637D03*
X71811Y-51043D03*
X71122Y-50669D03*
X70787Y-51377D03*
X70866Y-50393D03*
X70393Y-50295D03*
X74370Y-50157D03*
X74370Y-48976D03*
X66200Y-49291D03*
X65787Y-51259D03*
G54D14*
X69291Y-51948D03*
X67500Y-53346D03*
G54D13*
X67657Y-54055D03*
G54D14*
X69448Y-50570D03*
G54D13*
X69921Y-53228D03*
X69921Y-52017D03*
G54D14*
X67322Y-50767D03*
G54D13*
X67007Y-50137D03*
X69370Y-53976D03*
G54D14*
X69291Y-51161D03*
G54D13*
X69901Y-50866D03*
X66968Y-53996D03*
X66062Y-50590D03*
G54D14*
X66712Y-52342D03*
X66712Y-51751D03*
G54D13*
X69901Y-51102D03*
G54D14*
X69291Y-53326D03*
X68090Y-50767D03*
G54D13*
X69192Y-50118D03*
G54D14*
X67893Y-53346D03*
X67303Y-53346D03*
X71712Y-51515D03*
X69291Y-50964D03*
X69291Y-53129D03*
G54D13*
X69921Y-53484D03*
X66614Y-54566D03*
G54D14*
X66909Y-53346D03*
G54D13*
X69921Y-52696D03*
X69921Y-52460D03*
G54D14*
X69291Y-52549D03*
G54D13*
X71003Y-54438D03*
G54D14*
X69291Y-52352D03*
G54D13*
X71181Y-53641D03*
G54D14*
X69291Y-52933D03*
G54D13*
X70472Y-52972D03*
G54D14*
X69291Y-51358D03*
G54D13*
X70000Y-51377D03*
X63976Y-53228D03*
X69921Y-52244D03*
X69921Y-51791D03*
X62874Y-52755D03*
X66062Y-52244D03*
X63976Y-50708D03*
X65787Y-52047D03*
X64842Y-50551D03*
X62874Y-50551D03*
G54D14*
X66712Y-51948D03*
G54D13*
X63976Y-49763D03*
X66062Y-50826D03*
X63070Y-49763D03*
G54D14*
X66712Y-50767D03*
G54D13*
X63976Y-50393D03*
X66062Y-51850D03*
X63070Y-50393D03*
G54D14*
X66712Y-51555D03*
G54D13*
X64842Y-50236D03*
X65787Y-51673D03*
X62874Y-50236D03*
G54D14*
X66712Y-51358D03*
G54D13*
X63976Y-50078D03*
X66062Y-51456D03*
G54D14*
X66712Y-51161D03*
G54D13*
X63070Y-50078D03*
X64842Y-49921D03*
X66062Y-51062D03*
X62874Y-49921D03*
G54D14*
X66712Y-50964D03*
G54D13*
X63070Y-50708D03*
G54D14*
X66712Y-52145D03*
G54D13*
X63976Y-52283D03*
G54D14*
X69291Y-51761D03*
G54D13*
X71673Y-51850D03*
X65787Y-52440D03*
X64842Y-50866D03*
X66062Y-52637D03*
X63976Y-51023D03*
G54D14*
X66712Y-52736D03*
G54D13*
X63070Y-51023D03*
X63976Y-51653D03*
G54D14*
X66535Y-53523D03*
G54D13*
X63070Y-51653D03*
X66614Y-53996D03*
X64842Y-51811D03*
X65787Y-52834D03*
X62874Y-51181D03*
G54D14*
X66712Y-52933D03*
G54D13*
X64842Y-51496D03*
X66062Y-53031D03*
X62874Y-51496D03*
G54D14*
X66712Y-53129D03*
G54D13*
X64842Y-51181D03*
X65787Y-53248D03*
G54D14*
X66712Y-53326D03*
G54D13*
X62874Y-51811D03*
X63976Y-51338D03*
X66062Y-53425D03*
X63070Y-51338D03*
G54D14*
X66417Y-53759D03*
G54D13*
X62874Y-50866D03*
G54D14*
X66712Y-52539D03*
G54D13*
X63070Y-52283D03*
X71673Y-52145D03*
G54D14*
X69291Y-52746D03*
G54D15*
X64842Y-54251D02*
X65118Y-54251D01*
X66614Y-55118D02*
X65984Y-55118D01*
X65984Y-55118D02*
X65137Y-54271D01*
X65118Y-54251D02*
X65137Y-54271D01*
X66614Y-55590D02*
X66614Y-55118D01*
X69685Y-55649D02*
X69153Y-55118D01*
X69153Y-55118D02*
X66614Y-55118D01*
X72244Y-52952D02*
X72834Y-52952D01*
X69685Y-55649D02*
X71653Y-55649D01*
X71653Y-55649D02*
X72834Y-54468D01*
X72834Y-54468D02*
X72834Y-52952D01*
X72834Y-52952D02*
X72834Y-51122D01*
X72834Y-51122D02*
X72618Y-50905D01*
G54D16*
X63976Y-52283D02*
X65039Y-52283D01*
X69527Y-51525D02*
X69291Y-51761D01*
X69527Y-50905D02*
X69527Y-51525D01*
X69133Y-50511D02*
X69527Y-50905D01*
X66535Y-50511D02*
X69133Y-50511D01*
X66377Y-50354D02*
X66535Y-50511D01*
X65944Y-50354D02*
X66377Y-50354D01*
X65413Y-50885D02*
X65944Y-50354D01*
X65413Y-51909D02*
X65413Y-50885D01*
X65039Y-52283D02*
X65413Y-51909D01*
X63070Y-52283D02*
X63248Y-52106D01*
X69458Y-52746D02*
X69291Y-52746D01*
X69645Y-52559D02*
X69458Y-52746D01*
X69645Y-50472D02*
X69645Y-52559D01*
X69547Y-50374D02*
X69645Y-50472D01*
X66614Y-50374D02*
X69547Y-50374D01*
X66456Y-50216D02*
X66614Y-50374D01*
X65866Y-50216D02*
X66456Y-50216D01*
X65275Y-50807D02*
X65866Y-50216D01*
X65275Y-51850D02*
X65275Y-50807D01*
X65019Y-52106D02*
X65275Y-51850D01*
X63248Y-52106D02*
X65019Y-52106D01*
G54D10*
G36*
X73996Y-55728D02*
X73816Y-55728D01*
X73837Y-55708D01*
X73858Y-55657D01*
X73858Y-55602D01*
X73858Y-53496D01*
X73837Y-53445D01*
X73798Y-53406D01*
X73748Y-53385D01*
X73693Y-53385D01*
X73642Y-53406D01*
X73603Y-53445D01*
X73582Y-53496D01*
X73582Y-53550D01*
X73603Y-53601D01*
X73642Y-53640D01*
X73692Y-53661D01*
X73747Y-53661D01*
X73798Y-53640D01*
X73837Y-53601D01*
X73858Y-53551D01*
X73858Y-53496D01*
X73858Y-55602D01*
X73837Y-55551D01*
X73798Y-55513D01*
X73748Y-55492D01*
X73693Y-55492D01*
X73642Y-55513D01*
X73603Y-55551D01*
X73582Y-55602D01*
X73582Y-55657D01*
X73603Y-55707D01*
X73624Y-55728D01*
X73503Y-55728D01*
X73503Y-52827D01*
X73503Y-51212D01*
X73483Y-51162D01*
X73444Y-51123D01*
X73393Y-51102D01*
X73338Y-51102D01*
X73288Y-51123D01*
X73249Y-51162D01*
X73228Y-51212D01*
X73228Y-51267D01*
X73249Y-51318D01*
X73287Y-51356D01*
X73338Y-51377D01*
X73393Y-51377D01*
X73444Y-51357D01*
X73482Y-51318D01*
X73503Y-51267D01*
X73503Y-51212D01*
X73503Y-52827D01*
X73483Y-52776D01*
X73444Y-52737D01*
X73393Y-52716D01*
X73338Y-52716D01*
X73288Y-52737D01*
X73249Y-52776D01*
X73228Y-52826D01*
X73228Y-52881D01*
X73249Y-52932D01*
X73287Y-52971D01*
X73338Y-52992D01*
X73393Y-52992D01*
X73444Y-52971D01*
X73482Y-52932D01*
X73503Y-52881D01*
X73503Y-52827D01*
X73503Y-55728D01*
X72618Y-55728D01*
X72618Y-51823D01*
X72597Y-51772D01*
X72558Y-51733D01*
X72507Y-51712D01*
X72453Y-51712D01*
X72402Y-51733D01*
X72363Y-51772D01*
X72342Y-51822D01*
X72342Y-51877D01*
X72363Y-51928D01*
X72402Y-51967D01*
X72452Y-51988D01*
X72507Y-51988D01*
X72558Y-51967D01*
X72597Y-51928D01*
X72618Y-51877D01*
X72618Y-51823D01*
X72618Y-55728D01*
X72519Y-55728D01*
X72519Y-52354D01*
X72498Y-52303D01*
X72460Y-52265D01*
X72409Y-52244D01*
X72354Y-52244D01*
X72303Y-52265D01*
X72265Y-52303D01*
X72244Y-52354D01*
X72244Y-52409D01*
X72265Y-52459D01*
X72303Y-52498D01*
X72354Y-52519D01*
X72409Y-52519D01*
X72459Y-52498D01*
X72498Y-52460D01*
X72519Y-52409D01*
X72519Y-52354D01*
X72519Y-55728D01*
X72263Y-55728D01*
X72263Y-53909D01*
X72242Y-53859D01*
X72204Y-53820D01*
X72153Y-53799D01*
X72098Y-53799D01*
X72048Y-53820D01*
X72009Y-53858D01*
X71988Y-53909D01*
X71988Y-53964D01*
X72009Y-54014D01*
X72047Y-54053D01*
X72098Y-54074D01*
X72153Y-54074D01*
X72203Y-54053D01*
X72242Y-54015D01*
X72263Y-53964D01*
X72263Y-53909D01*
X72263Y-55728D01*
X72086Y-55728D01*
X72086Y-54638D01*
X72086Y-54145D01*
X72065Y-54095D01*
X72026Y-54056D01*
X71976Y-54035D01*
X71921Y-54035D01*
X71870Y-54056D01*
X71832Y-54095D01*
X71811Y-54145D01*
X71810Y-54200D01*
X71831Y-54251D01*
X71870Y-54289D01*
X71921Y-54310D01*
X71976Y-54311D01*
X72026Y-54290D01*
X72065Y-54251D01*
X72086Y-54200D01*
X72086Y-54145D01*
X72086Y-54638D01*
X72065Y-54587D01*
X72026Y-54548D01*
X71976Y-54527D01*
X71921Y-54527D01*
X71870Y-54548D01*
X71832Y-54587D01*
X71811Y-54637D01*
X71810Y-54692D01*
X71831Y-54743D01*
X71870Y-54782D01*
X71921Y-54803D01*
X71976Y-54803D01*
X72026Y-54782D01*
X72065Y-54743D01*
X72086Y-54692D01*
X72086Y-54638D01*
X72086Y-55728D01*
X69251Y-55728D01*
X69251Y-55523D01*
X69231Y-55473D01*
X69192Y-55434D01*
X69141Y-55413D01*
X69086Y-55413D01*
X69036Y-55434D01*
X68997Y-55473D01*
X68976Y-55523D01*
X68976Y-55464D01*
X68955Y-55414D01*
X68916Y-55375D01*
X68866Y-55354D01*
X68811Y-55354D01*
X68760Y-55375D01*
X68721Y-55413D01*
X68700Y-55464D01*
X68700Y-55519D01*
X68721Y-55570D01*
X68760Y-55608D01*
X68811Y-55629D01*
X68865Y-55629D01*
X68916Y-55609D01*
X68955Y-55570D01*
X68976Y-55519D01*
X68976Y-55464D01*
X68976Y-55523D01*
X68976Y-55578D01*
X68997Y-55629D01*
X69036Y-55667D01*
X69086Y-55688D01*
X69141Y-55689D01*
X69192Y-55668D01*
X69230Y-55629D01*
X69251Y-55578D01*
X69251Y-55523D01*
X69251Y-55728D01*
X68039Y-55728D01*
X68089Y-55707D01*
X68128Y-55668D01*
X68149Y-55618D01*
X68149Y-55563D01*
X68128Y-55512D01*
X68089Y-55473D01*
X68039Y-55452D01*
X67984Y-55452D01*
X67933Y-55473D01*
X67895Y-55512D01*
X67874Y-55563D01*
X67873Y-55617D01*
X67894Y-55668D01*
X67933Y-55707D01*
X67984Y-55728D01*
X68011Y-55728D01*
X67684Y-55728D01*
X67735Y-55707D01*
X67774Y-55668D01*
X67795Y-55618D01*
X67795Y-55563D01*
X67774Y-55512D01*
X67735Y-55473D01*
X67685Y-55452D01*
X67630Y-55452D01*
X67579Y-55473D01*
X67540Y-55512D01*
X67519Y-55563D01*
X67519Y-55617D01*
X67540Y-55668D01*
X67579Y-55707D01*
X67629Y-55728D01*
X67657Y-55728D01*
X67480Y-55728D01*
X67480Y-55307D01*
X67480Y-54815D01*
X67459Y-54764D01*
X67420Y-54725D01*
X67370Y-54704D01*
X67315Y-54704D01*
X67264Y-54725D01*
X67225Y-54764D01*
X67204Y-54814D01*
X67204Y-54869D01*
X67225Y-54920D01*
X67264Y-54959D01*
X67314Y-54980D01*
X67369Y-54980D01*
X67420Y-54959D01*
X67459Y-54920D01*
X67480Y-54870D01*
X67480Y-54815D01*
X67480Y-55307D01*
X67459Y-55256D01*
X67420Y-55217D01*
X67370Y-55196D01*
X67315Y-55196D01*
X67264Y-55217D01*
X67225Y-55256D01*
X67204Y-55307D01*
X67204Y-55361D01*
X67225Y-55412D01*
X67264Y-55451D01*
X67314Y-55472D01*
X67369Y-55472D01*
X67420Y-55451D01*
X67459Y-55412D01*
X67480Y-55362D01*
X67480Y-55307D01*
X67480Y-55728D01*
X67145Y-55728D01*
X67145Y-54815D01*
X67124Y-54764D01*
X67086Y-54725D01*
X67035Y-54704D01*
X66980Y-54704D01*
X66929Y-54725D01*
X66891Y-54764D01*
X66870Y-54814D01*
X66870Y-54869D01*
X66890Y-54920D01*
X66929Y-54959D01*
X66980Y-54980D01*
X67035Y-54980D01*
X67085Y-54959D01*
X67124Y-54920D01*
X67145Y-54870D01*
X67145Y-54815D01*
X67145Y-55728D01*
X66751Y-55728D01*
X66751Y-54539D01*
X66731Y-54488D01*
X66692Y-54450D01*
X66641Y-54429D01*
X66586Y-54429D01*
X66536Y-54450D01*
X66497Y-54488D01*
X66476Y-54539D01*
X66476Y-54594D01*
X66497Y-54644D01*
X66536Y-54683D01*
X66586Y-54704D01*
X66641Y-54704D01*
X66692Y-54683D01*
X66730Y-54645D01*
X66751Y-54594D01*
X66751Y-54539D01*
X66751Y-55728D01*
X64980Y-55728D01*
X64980Y-55484D01*
X64959Y-55433D01*
X64920Y-55395D01*
X64917Y-55393D01*
X64920Y-55392D01*
X64959Y-55353D01*
X64980Y-55303D01*
X64980Y-55248D01*
X64980Y-54775D01*
X64959Y-54725D01*
X64920Y-54686D01*
X64917Y-54685D01*
X64920Y-54683D01*
X64959Y-54645D01*
X64980Y-54594D01*
X64980Y-54539D01*
X64959Y-54488D01*
X64920Y-54450D01*
X64870Y-54429D01*
X64815Y-54429D01*
X64764Y-54450D01*
X64725Y-54488D01*
X64704Y-54539D01*
X64704Y-54594D01*
X64725Y-54644D01*
X64764Y-54683D01*
X64767Y-54685D01*
X64764Y-54686D01*
X64725Y-54724D01*
X64704Y-54775D01*
X64704Y-54830D01*
X64725Y-54881D01*
X64764Y-54919D01*
X64814Y-54940D01*
X64869Y-54940D01*
X64920Y-54920D01*
X64959Y-54881D01*
X64980Y-54830D01*
X64980Y-54775D01*
X64980Y-55248D01*
X64959Y-55197D01*
X64920Y-55158D01*
X64870Y-55137D01*
X64815Y-55137D01*
X64764Y-55158D01*
X64725Y-55197D01*
X64704Y-55248D01*
X64704Y-55302D01*
X64725Y-55353D01*
X64764Y-55392D01*
X64767Y-55393D01*
X64764Y-55394D01*
X64725Y-55433D01*
X64704Y-55484D01*
X64704Y-55539D01*
X64725Y-55589D01*
X64764Y-55628D01*
X64814Y-55649D01*
X64869Y-55649D01*
X64920Y-55628D01*
X64959Y-55589D01*
X64980Y-55539D01*
X64980Y-55484D01*
X64980Y-55728D01*
X64938Y-55728D01*
X64920Y-55710D01*
X64870Y-55689D01*
X64815Y-55688D01*
X64764Y-55709D01*
X64746Y-55728D01*
X64094Y-55728D01*
X64094Y-55484D01*
X64073Y-55433D01*
X64034Y-55395D01*
X64031Y-55393D01*
X64034Y-55392D01*
X64073Y-55353D01*
X64094Y-55303D01*
X64094Y-55248D01*
X64094Y-54775D01*
X64073Y-54725D01*
X64034Y-54686D01*
X64031Y-54685D01*
X64034Y-54683D01*
X64073Y-54645D01*
X64094Y-54594D01*
X64094Y-54539D01*
X64073Y-54488D01*
X64034Y-54450D01*
X63984Y-54429D01*
X63929Y-54429D01*
X63878Y-54450D01*
X63839Y-54488D01*
X63818Y-54539D01*
X63818Y-54594D01*
X63839Y-54644D01*
X63878Y-54683D01*
X63881Y-54685D01*
X63878Y-54686D01*
X63839Y-54724D01*
X63818Y-54775D01*
X63818Y-54830D01*
X63839Y-54881D01*
X63878Y-54919D01*
X63929Y-54940D01*
X63983Y-54940D01*
X64034Y-54920D01*
X64073Y-54881D01*
X64094Y-54830D01*
X64094Y-54775D01*
X64094Y-55248D01*
X64073Y-55197D01*
X64034Y-55158D01*
X63984Y-55137D01*
X63929Y-55137D01*
X63878Y-55158D01*
X63839Y-55197D01*
X63818Y-55248D01*
X63818Y-55302D01*
X63839Y-55353D01*
X63878Y-55392D01*
X63881Y-55393D01*
X63878Y-55394D01*
X63839Y-55433D01*
X63818Y-55484D01*
X63818Y-55539D01*
X63839Y-55589D01*
X63878Y-55628D01*
X63929Y-55649D01*
X63983Y-55649D01*
X64034Y-55628D01*
X64073Y-55589D01*
X64094Y-55539D01*
X64094Y-55484D01*
X64094Y-55728D01*
X64053Y-55728D01*
X64034Y-55710D01*
X63984Y-55689D01*
X63929Y-55688D01*
X63878Y-55709D01*
X63860Y-55728D01*
X63167Y-55728D01*
X63149Y-55710D01*
X63098Y-55689D01*
X63043Y-55688D01*
X62992Y-55709D01*
X62974Y-55728D01*
X62933Y-55728D01*
X62933Y-55539D01*
X62953Y-55589D01*
X62992Y-55628D01*
X63043Y-55649D01*
X63098Y-55649D01*
X63148Y-55628D01*
X63187Y-55589D01*
X63208Y-55539D01*
X63208Y-55484D01*
X63187Y-55433D01*
X63149Y-55395D01*
X63145Y-55393D01*
X63148Y-55392D01*
X63187Y-55353D01*
X63208Y-55303D01*
X63208Y-55248D01*
X63187Y-55197D01*
X63149Y-55158D01*
X63098Y-55137D01*
X63043Y-55137D01*
X62992Y-55158D01*
X62954Y-55197D01*
X62933Y-55248D01*
X62933Y-55275D01*
X62933Y-54830D01*
X62953Y-54881D01*
X62992Y-54919D01*
X63043Y-54940D01*
X63098Y-54940D01*
X63148Y-54920D01*
X63187Y-54881D01*
X63208Y-54830D01*
X63208Y-54775D01*
X63187Y-54725D01*
X63149Y-54686D01*
X63145Y-54685D01*
X63148Y-54683D01*
X63187Y-54645D01*
X63208Y-54594D01*
X63208Y-54539D01*
X63187Y-54488D01*
X63149Y-54450D01*
X63098Y-54429D01*
X63043Y-54429D01*
X62992Y-54450D01*
X62954Y-54488D01*
X62933Y-54539D01*
X62933Y-54566D01*
X62933Y-54133D01*
X62995Y-54133D01*
X63043Y-54153D01*
X63098Y-54153D01*
X63145Y-54133D01*
X63881Y-54133D01*
X63929Y-54153D01*
X63983Y-54153D01*
X64031Y-54133D01*
X64767Y-54133D01*
X64814Y-54153D01*
X64869Y-54153D01*
X64917Y-54133D01*
X65740Y-54133D01*
X65689Y-54154D01*
X65650Y-54193D01*
X65629Y-54244D01*
X65629Y-54298D01*
X65650Y-54349D01*
X65689Y-54388D01*
X65740Y-54409D01*
X65795Y-54409D01*
X65845Y-54388D01*
X65884Y-54349D01*
X65905Y-54299D01*
X65905Y-54244D01*
X65884Y-54193D01*
X65845Y-54154D01*
X65795Y-54133D01*
X65767Y-54133D01*
X66614Y-54133D01*
X66641Y-54133D01*
X66641Y-54133D01*
X66968Y-54133D01*
X66995Y-54133D01*
X66995Y-54133D01*
X67541Y-54133D01*
X67579Y-54171D01*
X67629Y-54192D01*
X67684Y-54192D01*
X67735Y-54172D01*
X67773Y-54133D01*
X68371Y-54133D01*
X68387Y-54172D01*
X68425Y-54211D01*
X68476Y-54232D01*
X68531Y-54232D01*
X68581Y-54211D01*
X68620Y-54172D01*
X68636Y-54133D01*
X68763Y-54133D01*
X68811Y-54153D01*
X68865Y-54153D01*
X68913Y-54133D01*
X70910Y-54133D01*
X70905Y-54145D01*
X70905Y-54200D01*
X70926Y-54251D01*
X70965Y-54289D01*
X70992Y-54301D01*
X70976Y-54301D01*
X70925Y-54322D01*
X70888Y-54359D01*
X70905Y-54318D01*
X70905Y-54264D01*
X70884Y-54213D01*
X70845Y-54174D01*
X70795Y-54153D01*
X70740Y-54153D01*
X70689Y-54174D01*
X70650Y-54213D01*
X70629Y-54263D01*
X70629Y-54318D01*
X70650Y-54369D01*
X70689Y-54408D01*
X70740Y-54429D01*
X70795Y-54429D01*
X70845Y-54408D01*
X70882Y-54370D01*
X70866Y-54411D01*
X70866Y-54466D01*
X70887Y-54516D01*
X70917Y-54547D01*
X70897Y-54547D01*
X70847Y-54568D01*
X70816Y-54598D01*
X70786Y-54568D01*
X70736Y-54547D01*
X70681Y-54547D01*
X70630Y-54568D01*
X70591Y-54606D01*
X70570Y-54657D01*
X70570Y-54712D01*
X70591Y-54762D01*
X70630Y-54801D01*
X70681Y-54822D01*
X70735Y-54822D01*
X70786Y-54801D01*
X70816Y-54771D01*
X70847Y-54801D01*
X70881Y-54816D01*
X70866Y-54854D01*
X70866Y-54909D01*
X70887Y-54959D01*
X70925Y-54998D01*
X70976Y-55019D01*
X71031Y-55019D01*
X71081Y-54998D01*
X71120Y-54960D01*
X71141Y-54909D01*
X71141Y-54854D01*
X71120Y-54803D01*
X71082Y-54765D01*
X71047Y-54750D01*
X71062Y-54712D01*
X71063Y-54657D01*
X71042Y-54607D01*
X71011Y-54576D01*
X71031Y-54576D01*
X71081Y-54555D01*
X71120Y-54517D01*
X71141Y-54466D01*
X71141Y-54411D01*
X71120Y-54361D01*
X71082Y-54322D01*
X71055Y-54311D01*
X71070Y-54311D01*
X71121Y-54290D01*
X71160Y-54251D01*
X71181Y-54200D01*
X71181Y-54145D01*
X71176Y-54133D01*
X71484Y-54133D01*
X71884Y-53733D01*
X71910Y-53758D01*
X71960Y-53779D01*
X72015Y-53779D01*
X72066Y-53758D01*
X72104Y-53719D01*
X72125Y-53669D01*
X72126Y-53614D01*
X72105Y-53563D01*
X72079Y-53538D01*
X72145Y-53472D01*
X72145Y-50767D01*
X73996Y-50767D01*
X73996Y-55728D01*
X73996Y-55728D01*
G37*
G54D16*
X73996Y-55728D02*
X73816Y-55728D01*
X73837Y-55708D01*
X73858Y-55657D01*
X73858Y-55602D01*
X73858Y-53496D01*
X73837Y-53445D01*
X73798Y-53406D01*
X73748Y-53385D01*
X73693Y-53385D01*
X73642Y-53406D01*
X73603Y-53445D01*
X73582Y-53496D01*
X73582Y-53550D01*
X73603Y-53601D01*
X73642Y-53640D01*
X73692Y-53661D01*
X73747Y-53661D01*
X73798Y-53640D01*
X73837Y-53601D01*
X73858Y-53551D01*
X73858Y-53496D01*
X73858Y-55602D01*
X73837Y-55551D01*
X73798Y-55513D01*
X73748Y-55492D01*
X73693Y-55492D01*
X73642Y-55513D01*
X73603Y-55551D01*
X73582Y-55602D01*
X73582Y-55657D01*
X73603Y-55707D01*
X73624Y-55728D01*
X73503Y-55728D01*
X73503Y-52827D01*
X73503Y-51212D01*
X73483Y-51162D01*
X73444Y-51123D01*
X73393Y-51102D01*
X73338Y-51102D01*
X73288Y-51123D01*
X73249Y-51162D01*
X73228Y-51212D01*
X73228Y-51267D01*
X73249Y-51318D01*
X73287Y-51356D01*
X73338Y-51377D01*
X73393Y-51377D01*
X73444Y-51357D01*
X73482Y-51318D01*
X73503Y-51267D01*
X73503Y-51212D01*
X73503Y-52827D01*
X73483Y-52776D01*
X73444Y-52737D01*
X73393Y-52716D01*
X73338Y-52716D01*
X73288Y-52737D01*
X73249Y-52776D01*
X73228Y-52826D01*
X73228Y-52881D01*
X73249Y-52932D01*
X73287Y-52971D01*
X73338Y-52992D01*
X73393Y-52992D01*
X73444Y-52971D01*
X73482Y-52932D01*
X73503Y-52881D01*
X73503Y-52827D01*
X73503Y-55728D01*
X72618Y-55728D01*
X72618Y-51823D01*
X72597Y-51772D01*
X72558Y-51733D01*
X72507Y-51712D01*
X72453Y-51712D01*
X72402Y-51733D01*
X72363Y-51772D01*
X72342Y-51822D01*
X72342Y-51877D01*
X72363Y-51928D01*
X72402Y-51967D01*
X72452Y-51988D01*
X72507Y-51988D01*
X72558Y-51967D01*
X72597Y-51928D01*
X72618Y-51877D01*
X72618Y-51823D01*
X72618Y-55728D01*
X72519Y-55728D01*
X72519Y-52354D01*
X72498Y-52303D01*
X72460Y-52265D01*
X72409Y-52244D01*
X72354Y-52244D01*
X72303Y-52265D01*
X72265Y-52303D01*
X72244Y-52354D01*
X72244Y-52409D01*
X72265Y-52459D01*
X72303Y-52498D01*
X72354Y-52519D01*
X72409Y-52519D01*
X72459Y-52498D01*
X72498Y-52460D01*
X72519Y-52409D01*
X72519Y-52354D01*
X72519Y-55728D01*
X72263Y-55728D01*
X72263Y-53909D01*
X72242Y-53859D01*
X72204Y-53820D01*
X72153Y-53799D01*
X72098Y-53799D01*
X72048Y-53820D01*
X72009Y-53858D01*
X71988Y-53909D01*
X71988Y-53964D01*
X72009Y-54014D01*
X72047Y-54053D01*
X72098Y-54074D01*
X72153Y-54074D01*
X72203Y-54053D01*
X72242Y-54015D01*
X72263Y-53964D01*
X72263Y-53909D01*
X72263Y-55728D01*
X72086Y-55728D01*
X72086Y-54638D01*
X72086Y-54145D01*
X72065Y-54095D01*
X72026Y-54056D01*
X71976Y-54035D01*
X71921Y-54035D01*
X71870Y-54056D01*
X71832Y-54095D01*
X71811Y-54145D01*
X71810Y-54200D01*
X71831Y-54251D01*
X71870Y-54289D01*
X71921Y-54310D01*
X71976Y-54311D01*
X72026Y-54290D01*
X72065Y-54251D01*
X72086Y-54200D01*
X72086Y-54145D01*
X72086Y-54638D01*
X72065Y-54587D01*
X72026Y-54548D01*
X71976Y-54527D01*
X71921Y-54527D01*
X71870Y-54548D01*
X71832Y-54587D01*
X71811Y-54637D01*
X71810Y-54692D01*
X71831Y-54743D01*
X71870Y-54782D01*
X71921Y-54803D01*
X71976Y-54803D01*
X72026Y-54782D01*
X72065Y-54743D01*
X72086Y-54692D01*
X72086Y-54638D01*
X72086Y-55728D01*
X69251Y-55728D01*
X69251Y-55523D01*
X69231Y-55473D01*
X69192Y-55434D01*
X69141Y-55413D01*
X69086Y-55413D01*
X69036Y-55434D01*
X68997Y-55473D01*
X68976Y-55523D01*
X68976Y-55464D01*
X68955Y-55414D01*
X68916Y-55375D01*
X68866Y-55354D01*
X68811Y-55354D01*
X68760Y-55375D01*
X68721Y-55413D01*
X68700Y-55464D01*
X68700Y-55519D01*
X68721Y-55570D01*
X68760Y-55608D01*
X68811Y-55629D01*
X68865Y-55629D01*
X68916Y-55609D01*
X68955Y-55570D01*
X68976Y-55519D01*
X68976Y-55464D01*
X68976Y-55523D01*
X68976Y-55578D01*
X68997Y-55629D01*
X69036Y-55667D01*
X69086Y-55688D01*
X69141Y-55689D01*
X69192Y-55668D01*
X69230Y-55629D01*
X69251Y-55578D01*
X69251Y-55523D01*
X69251Y-55728D01*
X68039Y-55728D01*
X68089Y-55707D01*
X68128Y-55668D01*
X68149Y-55618D01*
X68149Y-55563D01*
X68128Y-55512D01*
X68089Y-55473D01*
X68039Y-55452D01*
X67984Y-55452D01*
X67933Y-55473D01*
X67895Y-55512D01*
X67874Y-55563D01*
X67873Y-55617D01*
X67894Y-55668D01*
X67933Y-55707D01*
X67984Y-55728D01*
X68011Y-55728D01*
X67684Y-55728D01*
X67735Y-55707D01*
X67774Y-55668D01*
X67795Y-55618D01*
X67795Y-55563D01*
X67774Y-55512D01*
X67735Y-55473D01*
X67685Y-55452D01*
X67630Y-55452D01*
X67579Y-55473D01*
X67540Y-55512D01*
X67519Y-55563D01*
X67519Y-55617D01*
X67540Y-55668D01*
X67579Y-55707D01*
X67629Y-55728D01*
X67657Y-55728D01*
X67480Y-55728D01*
X67480Y-55307D01*
X67480Y-54815D01*
X67459Y-54764D01*
X67420Y-54725D01*
X67370Y-54704D01*
X67315Y-54704D01*
X67264Y-54725D01*
X67225Y-54764D01*
X67204Y-54814D01*
X67204Y-54869D01*
X67225Y-54920D01*
X67264Y-54959D01*
X67314Y-54980D01*
X67369Y-54980D01*
X67420Y-54959D01*
X67459Y-54920D01*
X67480Y-54870D01*
X67480Y-54815D01*
X67480Y-55307D01*
X67459Y-55256D01*
X67420Y-55217D01*
X67370Y-55196D01*
X67315Y-55196D01*
X67264Y-55217D01*
X67225Y-55256D01*
X67204Y-55307D01*
X67204Y-55361D01*
X67225Y-55412D01*
X67264Y-55451D01*
X67314Y-55472D01*
X67369Y-55472D01*
X67420Y-55451D01*
X67459Y-55412D01*
X67480Y-55362D01*
X67480Y-55307D01*
X67480Y-55728D01*
X67145Y-55728D01*
X67145Y-54815D01*
X67124Y-54764D01*
X67086Y-54725D01*
X67035Y-54704D01*
X66980Y-54704D01*
X66929Y-54725D01*
X66891Y-54764D01*
X66870Y-54814D01*
X66870Y-54869D01*
X66890Y-54920D01*
X66929Y-54959D01*
X66980Y-54980D01*
X67035Y-54980D01*
X67085Y-54959D01*
X67124Y-54920D01*
X67145Y-54870D01*
X67145Y-54815D01*
X67145Y-55728D01*
X66751Y-55728D01*
X66751Y-54539D01*
X66731Y-54488D01*
X66692Y-54450D01*
X66641Y-54429D01*
X66586Y-54429D01*
X66536Y-54450D01*
X66497Y-54488D01*
X66476Y-54539D01*
X66476Y-54594D01*
X66497Y-54644D01*
X66536Y-54683D01*
X66586Y-54704D01*
X66641Y-54704D01*
X66692Y-54683D01*
X66730Y-54645D01*
X66751Y-54594D01*
X66751Y-54539D01*
X66751Y-55728D01*
X64980Y-55728D01*
X64980Y-55484D01*
X64959Y-55433D01*
X64920Y-55395D01*
X64917Y-55393D01*
X64920Y-55392D01*
X64959Y-55353D01*
X64980Y-55303D01*
X64980Y-55248D01*
X64980Y-54775D01*
X64959Y-54725D01*
X64920Y-54686D01*
X64917Y-54685D01*
X64920Y-54683D01*
X64959Y-54645D01*
X64980Y-54594D01*
X64980Y-54539D01*
X64959Y-54488D01*
X64920Y-54450D01*
X64870Y-54429D01*
X64815Y-54429D01*
X64764Y-54450D01*
X64725Y-54488D01*
X64704Y-54539D01*
X64704Y-54594D01*
X64725Y-54644D01*
X64764Y-54683D01*
X64767Y-54685D01*
X64764Y-54686D01*
X64725Y-54724D01*
X64704Y-54775D01*
X64704Y-54830D01*
X64725Y-54881D01*
X64764Y-54919D01*
X64814Y-54940D01*
X64869Y-54940D01*
X64920Y-54920D01*
X64959Y-54881D01*
X64980Y-54830D01*
X64980Y-54775D01*
X64980Y-55248D01*
X64959Y-55197D01*
X64920Y-55158D01*
X64870Y-55137D01*
X64815Y-55137D01*
X64764Y-55158D01*
X64725Y-55197D01*
X64704Y-55248D01*
X64704Y-55302D01*
X64725Y-55353D01*
X64764Y-55392D01*
X64767Y-55393D01*
X64764Y-55394D01*
X64725Y-55433D01*
X64704Y-55484D01*
X64704Y-55539D01*
X64725Y-55589D01*
X64764Y-55628D01*
X64814Y-55649D01*
X64869Y-55649D01*
X64920Y-55628D01*
X64959Y-55589D01*
X64980Y-55539D01*
X64980Y-55484D01*
X64980Y-55728D01*
X64938Y-55728D01*
X64920Y-55710D01*
X64870Y-55689D01*
X64815Y-55688D01*
X64764Y-55709D01*
X64746Y-55728D01*
X64094Y-55728D01*
X64094Y-55484D01*
X64073Y-55433D01*
X64034Y-55395D01*
X64031Y-55393D01*
X64034Y-55392D01*
X64073Y-55353D01*
X64094Y-55303D01*
X64094Y-55248D01*
X64094Y-54775D01*
X64073Y-54725D01*
X64034Y-54686D01*
X64031Y-54685D01*
X64034Y-54683D01*
X64073Y-54645D01*
X64094Y-54594D01*
X64094Y-54539D01*
X64073Y-54488D01*
X64034Y-54450D01*
X63984Y-54429D01*
X63929Y-54429D01*
X63878Y-54450D01*
X63839Y-54488D01*
X63818Y-54539D01*
X63818Y-54594D01*
X63839Y-54644D01*
X63878Y-54683D01*
X63881Y-54685D01*
X63878Y-54686D01*
X63839Y-54724D01*
X63818Y-54775D01*
X63818Y-54830D01*
X63839Y-54881D01*
X63878Y-54919D01*
X63929Y-54940D01*
X63983Y-54940D01*
X64034Y-54920D01*
X64073Y-54881D01*
X64094Y-54830D01*
X64094Y-54775D01*
X64094Y-55248D01*
X64073Y-55197D01*
X64034Y-55158D01*
X63984Y-55137D01*
X63929Y-55137D01*
X63878Y-55158D01*
X63839Y-55197D01*
X63818Y-55248D01*
X63818Y-55302D01*
X63839Y-55353D01*
X63878Y-55392D01*
X63881Y-55393D01*
X63878Y-55394D01*
X63839Y-55433D01*
X63818Y-55484D01*
X63818Y-55539D01*
X63839Y-55589D01*
X63878Y-55628D01*
X63929Y-55649D01*
X63983Y-55649D01*
X64034Y-55628D01*
X64073Y-55589D01*
X64094Y-55539D01*
X64094Y-55484D01*
X64094Y-55728D01*
X64053Y-55728D01*
X64034Y-55710D01*
X63984Y-55689D01*
X63929Y-55688D01*
X63878Y-55709D01*
X63860Y-55728D01*
X63167Y-55728D01*
X63149Y-55710D01*
X63098Y-55689D01*
X63043Y-55688D01*
X62992Y-55709D01*
X62974Y-55728D01*
X62933Y-55728D01*
X62933Y-55539D01*
X62953Y-55589D01*
X62992Y-55628D01*
X63043Y-55649D01*
X63098Y-55649D01*
X63148Y-55628D01*
X63187Y-55589D01*
X63208Y-55539D01*
X63208Y-55484D01*
X63187Y-55433D01*
X63149Y-55395D01*
X63145Y-55393D01*
X63148Y-55392D01*
X63187Y-55353D01*
X63208Y-55303D01*
X63208Y-55248D01*
X63187Y-55197D01*
X63149Y-55158D01*
X63098Y-55137D01*
X63043Y-55137D01*
X62992Y-55158D01*
X62954Y-55197D01*
X62933Y-55248D01*
X62933Y-55275D01*
X62933Y-54830D01*
X62953Y-54881D01*
X62992Y-54919D01*
X63043Y-54940D01*
X63098Y-54940D01*
X63148Y-54920D01*
X63187Y-54881D01*
X63208Y-54830D01*
X63208Y-54775D01*
X63187Y-54725D01*
X63149Y-54686D01*
X63145Y-54685D01*
X63148Y-54683D01*
X63187Y-54645D01*
X63208Y-54594D01*
X63208Y-54539D01*
X63187Y-54488D01*
X63149Y-54450D01*
X63098Y-54429D01*
X63043Y-54429D01*
X62992Y-54450D01*
X62954Y-54488D01*
X62933Y-54539D01*
X62933Y-54566D01*
X62933Y-54133D01*
X62995Y-54133D01*
X63043Y-54153D01*
X63098Y-54153D01*
X63145Y-54133D01*
X63881Y-54133D01*
X63929Y-54153D01*
X63983Y-54153D01*
X64031Y-54133D01*
X64767Y-54133D01*
X64814Y-54153D01*
X64869Y-54153D01*
X64917Y-54133D01*
X65740Y-54133D01*
X65689Y-54154D01*
X65650Y-54193D01*
X65629Y-54244D01*
X65629Y-54298D01*
X65650Y-54349D01*
X65689Y-54388D01*
X65740Y-54409D01*
X65795Y-54409D01*
X65845Y-54388D01*
X65884Y-54349D01*
X65905Y-54299D01*
X65905Y-54244D01*
X65884Y-54193D01*
X65845Y-54154D01*
X65795Y-54133D01*
X65767Y-54133D01*
X66614Y-54133D01*
X66641Y-54133D01*
X66641Y-54133D01*
X66968Y-54133D01*
X66995Y-54133D01*
X66995Y-54133D01*
X67541Y-54133D01*
X67579Y-54171D01*
X67629Y-54192D01*
X67684Y-54192D01*
X67735Y-54172D01*
X67773Y-54133D01*
X68371Y-54133D01*
X68387Y-54172D01*
X68425Y-54211D01*
X68476Y-54232D01*
X68531Y-54232D01*
X68581Y-54211D01*
X68620Y-54172D01*
X68636Y-54133D01*
X68763Y-54133D01*
X68811Y-54153D01*
X68865Y-54153D01*
X68913Y-54133D01*
X70910Y-54133D01*
X70905Y-54145D01*
X70905Y-54200D01*
X70926Y-54251D01*
X70965Y-54289D01*
X70992Y-54301D01*
X70976Y-54301D01*
X70925Y-54322D01*
X70888Y-54359D01*
X70905Y-54318D01*
X70905Y-54264D01*
X70884Y-54213D01*
X70845Y-54174D01*
X70795Y-54153D01*
X70740Y-54153D01*
X70689Y-54174D01*
X70650Y-54213D01*
X70629Y-54263D01*
X70629Y-54318D01*
X70650Y-54369D01*
X70689Y-54408D01*
X70740Y-54429D01*
X70795Y-54429D01*
X70845Y-54408D01*
X70882Y-54370D01*
X70866Y-54411D01*
X70866Y-54466D01*
X70887Y-54516D01*
X70917Y-54547D01*
X70897Y-54547D01*
X70847Y-54568D01*
X70816Y-54598D01*
X70786Y-54568D01*
X70736Y-54547D01*
X70681Y-54547D01*
X70630Y-54568D01*
X70591Y-54606D01*
X70570Y-54657D01*
X70570Y-54712D01*
X70591Y-54762D01*
X70630Y-54801D01*
X70681Y-54822D01*
X70735Y-54822D01*
X70786Y-54801D01*
X70816Y-54771D01*
X70847Y-54801D01*
X70881Y-54816D01*
X70866Y-54854D01*
X70866Y-54909D01*
X70887Y-54959D01*
X70925Y-54998D01*
X70976Y-55019D01*
X71031Y-55019D01*
X71081Y-54998D01*
X71120Y-54960D01*
X71141Y-54909D01*
X71141Y-54854D01*
X71120Y-54803D01*
X71082Y-54765D01*
X71047Y-54750D01*
X71062Y-54712D01*
X71063Y-54657D01*
X71042Y-54607D01*
X71011Y-54576D01*
X71031Y-54576D01*
X71081Y-54555D01*
X71120Y-54517D01*
X71141Y-54466D01*
X71141Y-54411D01*
X71120Y-54361D01*
X71082Y-54322D01*
X71055Y-54311D01*
X71070Y-54311D01*
X71121Y-54290D01*
X71160Y-54251D01*
X71181Y-54200D01*
X71181Y-54145D01*
X71176Y-54133D01*
X71484Y-54133D01*
X71884Y-53733D01*
X71910Y-53758D01*
X71960Y-53779D01*
X72015Y-53779D01*
X72066Y-53758D01*
X72104Y-53719D01*
X72125Y-53669D01*
X72126Y-53614D01*
X72105Y-53563D01*
X72079Y-53538D01*
X72145Y-53472D01*
X72145Y-50767D01*
X73996Y-50767D01*
X73996Y-55728D01*
M02*
