G04 (created by PCBNEW (2013-07-07 BZR 4022)-stable) date 24/11/2015 00:30:32*
%MOIN*%
G04 Gerber Fmt 3.4, Leading zero omitted, Abs format*
%FSLAX34Y34*%
G01*
G70*
G90*
G04 APERTURE LIST*
%ADD10C,0.00590551*%
%ADD11C,0.019685*%
%ADD12R,0.0195X0.0175*%
%ADD13R,0.0175X0.0195*%
%ADD14R,0.0259X0.014*%
%ADD15R,0.0195X0.0195*%
%ADD16R,0.0393701X0.0393701*%
%ADD17R,0.0866142X0.0413386*%
%ADD18R,0.0392X0.0392*%
%ADD19R,0.228346X0.228346*%
%ADD20R,0.0117X0.0275*%
%ADD21R,0.0117X0.0117*%
%ADD22R,0.0117X0.0177*%
%ADD23R,0.0177X0.0117*%
%ADD24R,0.0314X0.0314*%
%ADD25R,0.129921X0.0393701*%
%ADD26R,0.0393701X0.129921*%
%ADD27R,0.102362X0.0393701*%
%ADD28R,0.0393701X0.102362*%
%ADD29C,0.0787402*%
%ADD30R,0.0649606X0.0299213*%
%ADD31C,0.015748*%
%ADD32C,0.0137795*%
%ADD33C,0.015748*%
%ADD34C,0.011811*%
%ADD35C,0.00787402*%
%ADD36C,0.0129921*%
%ADD37C,0.0122047*%
%ADD38C,0.00984252*%
G04 APERTURE END LIST*
G54D10*
G54D11*
X68307Y-52992D03*
X68937Y-52992D03*
X68622Y-52992D03*
X67677Y-52992D03*
X67992Y-52992D03*
X67362Y-52992D03*
X67047Y-52992D03*
X67047Y-52677D03*
X67362Y-52677D03*
X67992Y-52677D03*
X67677Y-52677D03*
X68622Y-52677D03*
X68937Y-52677D03*
X68307Y-52677D03*
X68307Y-52362D03*
X68937Y-52362D03*
X68622Y-52362D03*
X67677Y-52362D03*
X67992Y-52362D03*
X67362Y-52362D03*
X67047Y-52362D03*
X67047Y-51732D03*
X67362Y-51732D03*
X67992Y-51732D03*
X67677Y-51732D03*
X68622Y-51732D03*
X68937Y-51732D03*
X68307Y-51732D03*
X68307Y-52047D03*
X68937Y-52047D03*
X68622Y-52047D03*
X67677Y-52047D03*
X67992Y-52047D03*
X67362Y-52047D03*
X67047Y-52047D03*
X67047Y-51417D03*
X67362Y-51417D03*
X67992Y-51417D03*
X67677Y-51417D03*
X68622Y-51417D03*
X68937Y-51417D03*
X68307Y-51417D03*
X68307Y-51102D03*
X68937Y-51102D03*
X68622Y-51102D03*
X67677Y-51102D03*
X67992Y-51102D03*
X67362Y-51102D03*
X67047Y-51102D03*
G54D12*
X64291Y-54948D03*
X64291Y-54578D03*
G54D13*
X70996Y-52283D03*
X71366Y-52283D03*
G54D12*
X67657Y-54933D03*
X67657Y-55303D03*
X67657Y-54263D03*
X67657Y-54633D03*
G54D13*
X71232Y-51043D03*
X71602Y-51043D03*
G54D12*
X70216Y-53334D03*
X70216Y-52964D03*
G54D13*
X71409Y-52952D03*
X71779Y-52952D03*
G54D12*
X70216Y-50661D03*
X70216Y-51031D03*
X63503Y-54594D03*
X63503Y-54224D03*
G54D14*
X68848Y-54209D03*
X68848Y-54549D03*
X68848Y-55140D03*
X68848Y-54800D03*
G54D15*
X70551Y-50669D03*
X70905Y-50669D03*
X70551Y-51043D03*
X70905Y-51043D03*
X70216Y-51377D03*
X70570Y-51377D03*
X69222Y-54517D03*
X69576Y-54517D03*
X72204Y-55177D03*
X72558Y-55177D03*
X69025Y-49281D03*
X69379Y-49281D03*
X68484Y-54852D03*
X68484Y-54498D03*
X69025Y-49616D03*
X69379Y-49616D03*
X70728Y-52952D03*
X71082Y-52952D03*
X70216Y-52637D03*
X70570Y-52637D03*
X67342Y-54271D03*
X67342Y-54625D03*
X72067Y-49940D03*
X72421Y-49940D03*
X69222Y-54832D03*
X69576Y-54832D03*
X70571Y-53326D03*
X70925Y-53326D03*
G54D16*
X75551Y-54527D03*
X74370Y-54527D03*
G54D17*
X74960Y-55108D03*
X74960Y-53946D03*
G54D16*
X75551Y-49566D03*
X74370Y-49566D03*
G54D17*
X74960Y-50147D03*
X74960Y-48986D03*
G54D18*
X60354Y-58267D03*
X60354Y-45866D03*
X77952Y-58267D03*
X77952Y-45866D03*
G54D19*
X67997Y-52054D03*
G54D20*
X68487Y-52974D03*
X68487Y-52606D03*
X68487Y-52242D03*
X68487Y-51871D03*
X68487Y-51506D03*
X68487Y-51139D03*
X68682Y-51139D03*
X68684Y-51506D03*
X68684Y-51871D03*
X68684Y-52242D03*
X68684Y-52606D03*
X68684Y-52974D03*
X69072Y-52974D03*
X69072Y-52606D03*
X69072Y-52242D03*
X69072Y-51871D03*
X69072Y-51506D03*
X69072Y-51139D03*
X68875Y-51139D03*
X68875Y-51506D03*
X68875Y-51871D03*
X68875Y-52242D03*
X68875Y-52606D03*
X68875Y-52974D03*
X67707Y-52974D03*
X67707Y-52606D03*
X67707Y-52242D03*
X67707Y-51871D03*
X67707Y-51506D03*
X67707Y-51139D03*
X67902Y-51139D03*
X67904Y-51506D03*
X67904Y-51871D03*
X67904Y-52242D03*
X67904Y-52606D03*
X67904Y-52974D03*
X68292Y-52974D03*
X68292Y-52606D03*
X68292Y-52242D03*
X68292Y-51871D03*
X68292Y-51506D03*
X68292Y-51139D03*
X68095Y-51139D03*
X68095Y-51506D03*
X68095Y-51871D03*
X68095Y-52242D03*
X68095Y-52606D03*
X68095Y-52974D03*
X67312Y-52974D03*
X67312Y-52606D03*
X67312Y-52242D03*
X67312Y-51871D03*
X67312Y-51506D03*
X67312Y-51139D03*
X67509Y-51139D03*
X67510Y-51506D03*
X67510Y-51871D03*
X67510Y-52242D03*
X67510Y-52606D03*
X67510Y-52974D03*
X67120Y-52974D03*
X67120Y-52606D03*
X67120Y-52242D03*
X67120Y-51871D03*
X67120Y-51506D03*
X67120Y-51139D03*
G54D21*
X69081Y-50580D03*
X69278Y-50580D03*
X68883Y-50580D03*
X68686Y-50580D03*
X68490Y-50580D03*
X68293Y-50580D03*
X68096Y-50580D03*
X67900Y-50580D03*
X67703Y-50580D03*
X67505Y-50580D03*
X67308Y-50580D03*
X67111Y-50580D03*
X66916Y-50580D03*
G54D22*
X69375Y-50356D03*
X69178Y-50356D03*
X68983Y-50356D03*
X68786Y-50356D03*
X68588Y-50356D03*
X68391Y-50356D03*
X68195Y-50356D03*
X67998Y-50356D03*
X67801Y-50356D03*
X67605Y-50356D03*
X67408Y-50356D03*
X67211Y-50356D03*
X67013Y-50356D03*
X66816Y-50356D03*
G54D21*
X66718Y-50580D03*
G54D23*
X69698Y-50679D03*
G54D21*
X69473Y-50779D03*
G54D23*
X69698Y-50878D03*
X69698Y-51074D03*
X69698Y-51271D03*
X69698Y-51468D03*
X69698Y-51664D03*
X69696Y-51861D03*
X69698Y-52058D03*
X69698Y-52254D03*
X69698Y-52453D03*
X69698Y-52648D03*
X69698Y-52846D03*
X69698Y-53043D03*
X69698Y-53238D03*
X69698Y-53426D03*
G54D21*
X69473Y-50976D03*
X69473Y-51171D03*
X69473Y-51369D03*
X69473Y-51566D03*
X69473Y-51763D03*
X69473Y-51959D03*
X69473Y-52158D03*
X69473Y-52353D03*
X69473Y-52549D03*
X69473Y-52748D03*
X69473Y-52944D03*
X69473Y-53338D03*
X69473Y-53141D03*
X69075Y-53531D03*
X69271Y-53531D03*
X68878Y-53531D03*
X68681Y-53531D03*
X68483Y-53531D03*
X68288Y-53531D03*
X68091Y-53531D03*
X67893Y-53531D03*
X67696Y-53531D03*
X67500Y-53531D03*
X67303Y-53531D03*
X67105Y-53531D03*
X66910Y-53531D03*
G54D22*
X69368Y-53756D03*
X69171Y-53756D03*
X68976Y-53756D03*
X68780Y-53756D03*
X68583Y-53756D03*
X68386Y-53756D03*
X68188Y-53756D03*
X67991Y-53756D03*
X67795Y-53755D03*
X67598Y-53756D03*
X67401Y-53756D03*
X67205Y-53756D03*
X67008Y-53756D03*
X66811Y-53756D03*
G54D21*
X66713Y-53531D03*
G54D22*
X66613Y-53756D03*
X66619Y-50356D03*
G54D23*
X66296Y-50678D03*
G54D21*
X66521Y-50777D03*
G54D23*
X66296Y-50875D03*
X66296Y-51072D03*
X66296Y-51269D03*
X66296Y-51466D03*
X66296Y-51663D03*
X66296Y-51859D03*
X66296Y-52056D03*
X66296Y-52253D03*
X66296Y-52450D03*
X66296Y-52647D03*
X66296Y-52844D03*
X66296Y-53041D03*
X66296Y-53236D03*
X66296Y-53433D03*
G54D21*
X66521Y-50974D03*
X66521Y-51170D03*
X66521Y-51367D03*
X66521Y-51564D03*
X66521Y-51761D03*
X66521Y-51958D03*
X66521Y-52155D03*
X66521Y-52352D03*
X66521Y-52548D03*
X66521Y-52745D03*
X66521Y-52942D03*
X66521Y-53336D03*
X66521Y-53139D03*
G54D20*
X66924Y-51139D03*
X66924Y-51506D03*
X66924Y-51871D03*
X66924Y-52242D03*
X66924Y-52606D03*
X66924Y-52974D03*
G54D24*
X63503Y-55787D03*
X63503Y-55157D03*
G54D25*
X72913Y-56082D03*
G54D26*
X73366Y-55629D03*
G54D25*
X65748Y-56082D03*
G54D26*
X65295Y-55629D03*
X73366Y-48464D03*
G54D25*
X72913Y-48011D03*
X65748Y-48011D03*
G54D26*
X65295Y-48464D03*
G54D27*
X70807Y-48011D03*
X67854Y-48011D03*
X67854Y-56082D03*
G54D28*
X65295Y-50570D03*
X65295Y-53523D03*
X73366Y-50570D03*
X73366Y-53523D03*
G54D27*
X70807Y-56082D03*
G54D29*
X75196Y-52106D03*
G54D30*
X70250Y-55175D03*
X70250Y-54175D03*
X71501Y-55175D03*
X71501Y-54175D03*
X71501Y-54675D03*
X70250Y-54675D03*
X70023Y-49948D03*
X70023Y-48948D03*
X71275Y-49948D03*
X71275Y-48948D03*
X71275Y-49448D03*
X70023Y-49448D03*
G54D14*
X72421Y-49239D03*
X72421Y-49579D03*
G54D15*
X72421Y-48641D03*
X72067Y-48641D03*
X72421Y-48956D03*
X72067Y-48956D03*
G54D31*
X64842Y-54251D03*
X63070Y-54251D03*
X63956Y-54251D03*
X66614Y-55590D03*
X69685Y-55649D03*
X72618Y-50905D03*
X72244Y-52952D03*
X72657Y-48641D03*
X63956Y-54566D03*
X63070Y-54566D03*
X64842Y-54566D03*
X66811Y-48602D03*
X71082Y-51850D03*
X67303Y-48956D03*
X72125Y-53937D03*
X69133Y-48681D03*
X66633Y-48956D03*
X69114Y-55551D03*
X72480Y-51850D03*
X70610Y-49940D03*
X68838Y-54015D03*
X68838Y-55492D03*
X71082Y-52637D03*
X62874Y-53070D03*
X63976Y-52992D03*
X71003Y-54881D03*
X63070Y-53228D03*
X72381Y-52381D03*
X63070Y-52913D03*
X71988Y-53326D03*
X71830Y-48641D03*
X72066Y-49192D03*
X71948Y-54665D03*
X71948Y-54173D03*
X71043Y-54173D03*
X70925Y-54685D03*
X70708Y-54685D03*
X71732Y-49448D03*
X71279Y-48681D03*
X70826Y-48956D03*
X71732Y-48956D03*
X70472Y-49448D03*
X70688Y-49448D03*
X64842Y-49133D03*
X64842Y-54015D03*
X64842Y-53779D03*
X64842Y-48818D03*
X64842Y-48582D03*
X64842Y-48267D03*
X74960Y-49330D03*
X74960Y-49822D03*
X64842Y-55826D03*
X64842Y-55511D03*
X64842Y-55275D03*
X64842Y-53464D03*
X62874Y-49606D03*
X64842Y-49488D03*
X63956Y-49448D03*
X63956Y-48897D03*
X63070Y-49133D03*
X63956Y-49133D03*
X63956Y-48267D03*
X63956Y-48582D03*
X63070Y-48267D03*
X63070Y-48582D03*
X63070Y-48897D03*
X63956Y-55826D03*
X63956Y-55275D03*
X63070Y-55275D03*
X63956Y-55511D03*
X63070Y-55511D03*
X63070Y-55826D03*
X64842Y-54803D03*
X63956Y-54803D03*
X63956Y-54015D03*
X63956Y-53779D03*
X63956Y-53464D03*
X63070Y-54803D03*
X63070Y-54015D03*
X63070Y-53779D03*
X63070Y-53464D03*
X65846Y-48759D03*
X66555Y-55964D03*
X67185Y-55964D03*
X68523Y-55964D03*
X70137Y-55964D03*
X71476Y-55964D03*
X72106Y-55964D03*
X73720Y-55964D03*
X73720Y-55629D03*
X73720Y-53523D03*
X73366Y-52854D03*
X73720Y-50570D03*
X73366Y-51240D03*
X73720Y-48464D03*
X73011Y-48464D03*
X73720Y-48129D03*
X72106Y-48129D03*
X71476Y-48129D03*
X70137Y-48129D03*
X68523Y-48129D03*
X67185Y-48129D03*
X66555Y-48129D03*
X65649Y-48464D03*
X65295Y-49232D03*
X74370Y-55118D03*
X74370Y-53937D03*
X75314Y-55433D03*
X75314Y-53622D03*
X75314Y-50472D03*
X75314Y-48661D03*
X67657Y-55590D03*
X68011Y-55590D03*
X67007Y-54842D03*
X65846Y-49685D03*
X65767Y-54271D03*
G54D32*
X68484Y-50767D03*
X68287Y-50767D03*
X69074Y-53346D03*
G54D31*
X69488Y-50118D03*
X75551Y-54842D03*
X75551Y-54212D03*
X74960Y-54763D03*
X74960Y-55433D03*
X75551Y-55118D03*
X74960Y-54291D03*
X74960Y-53622D03*
X75551Y-53937D03*
X74960Y-50472D03*
X75551Y-50157D03*
X75551Y-49881D03*
X75551Y-49251D03*
X74960Y-48661D03*
X75551Y-48976D03*
X68818Y-50039D03*
X67342Y-55334D03*
X67342Y-54842D03*
X72125Y-50472D03*
G54D32*
X68877Y-50767D03*
G54D31*
X68503Y-54094D03*
X70767Y-54291D03*
G54D32*
X68877Y-53346D03*
G54D31*
X71633Y-52637D03*
X69783Y-53877D03*
X70669Y-53858D03*
X71988Y-53641D03*
X70748Y-52047D03*
X66279Y-49724D03*
X66948Y-49625D03*
X71141Y-53326D03*
X71988Y-52952D03*
X70787Y-52637D03*
X71811Y-51043D03*
X71122Y-50669D03*
X70787Y-51377D03*
X70866Y-50393D03*
X70393Y-50295D03*
X74370Y-50157D03*
X74370Y-48976D03*
X66200Y-49291D03*
X65787Y-51259D03*
G54D32*
X69291Y-51948D03*
X67500Y-53346D03*
G54D31*
X67657Y-54055D03*
G54D32*
X69448Y-50570D03*
G54D31*
X69921Y-53228D03*
X69921Y-52017D03*
G54D32*
X67322Y-50767D03*
G54D31*
X67007Y-50137D03*
X69370Y-53976D03*
G54D32*
X69291Y-51161D03*
G54D31*
X69901Y-50866D03*
X66968Y-53996D03*
X66062Y-50590D03*
G54D32*
X66712Y-52342D03*
X66712Y-51751D03*
G54D31*
X69901Y-51102D03*
G54D32*
X69291Y-53326D03*
X68090Y-50767D03*
G54D31*
X69192Y-50118D03*
G54D32*
X67893Y-53346D03*
X67303Y-53346D03*
X71712Y-51515D03*
X69291Y-50964D03*
X69291Y-53129D03*
G54D31*
X69921Y-53484D03*
X66614Y-54566D03*
G54D32*
X66909Y-53346D03*
G54D31*
X69921Y-52696D03*
X69921Y-52460D03*
G54D32*
X69291Y-52549D03*
G54D31*
X71003Y-54438D03*
G54D32*
X69291Y-52352D03*
G54D31*
X71181Y-53641D03*
G54D32*
X69291Y-52933D03*
G54D31*
X70472Y-52972D03*
G54D32*
X69291Y-51358D03*
G54D31*
X70000Y-51377D03*
X63976Y-53228D03*
X69921Y-52244D03*
X69921Y-51791D03*
X62874Y-52755D03*
X66062Y-52244D03*
X63976Y-50708D03*
X65787Y-52047D03*
X64842Y-50551D03*
X62874Y-50551D03*
G54D32*
X66712Y-51948D03*
G54D31*
X63976Y-49763D03*
X66062Y-50826D03*
X63070Y-49763D03*
G54D32*
X66712Y-50767D03*
G54D31*
X63976Y-50393D03*
X66062Y-51850D03*
X63070Y-50393D03*
G54D32*
X66712Y-51555D03*
G54D31*
X64842Y-50236D03*
X65787Y-51673D03*
X62874Y-50236D03*
G54D32*
X66712Y-51358D03*
G54D31*
X63976Y-50078D03*
X66062Y-51456D03*
G54D32*
X66712Y-51161D03*
G54D31*
X63070Y-50078D03*
X64842Y-49921D03*
X66062Y-51062D03*
X62874Y-49921D03*
G54D32*
X66712Y-50964D03*
G54D31*
X63070Y-50708D03*
G54D32*
X66712Y-52145D03*
G54D31*
X63976Y-52283D03*
G54D32*
X69291Y-51761D03*
G54D31*
X71673Y-51850D03*
X65787Y-52440D03*
X64842Y-50866D03*
X66062Y-52637D03*
X63976Y-51023D03*
G54D32*
X66712Y-52736D03*
G54D31*
X63070Y-51023D03*
X63976Y-51653D03*
G54D32*
X66535Y-53523D03*
G54D31*
X63070Y-51653D03*
X66614Y-53996D03*
X64842Y-51811D03*
X65787Y-52834D03*
X62874Y-51181D03*
G54D32*
X66712Y-52933D03*
G54D31*
X64842Y-51496D03*
X66062Y-53031D03*
X62874Y-51496D03*
G54D32*
X66712Y-53129D03*
G54D31*
X64842Y-51181D03*
X65787Y-53248D03*
G54D32*
X66712Y-53326D03*
G54D31*
X62874Y-51811D03*
X63976Y-51338D03*
X66062Y-53425D03*
X63070Y-51338D03*
G54D32*
X66417Y-53759D03*
G54D31*
X62874Y-50866D03*
G54D32*
X66712Y-52539D03*
G54D31*
X63070Y-52283D03*
X71673Y-52145D03*
G54D32*
X69291Y-52746D03*
G54D33*
X71366Y-52283D02*
X71417Y-52283D01*
X72244Y-52677D02*
X72244Y-52952D01*
X71948Y-52381D02*
X72244Y-52677D01*
X71515Y-52381D02*
X71948Y-52381D01*
X71417Y-52283D02*
X71515Y-52381D01*
G54D34*
X72421Y-48641D02*
X72657Y-48641D01*
X72421Y-48956D02*
X72421Y-48641D01*
X72421Y-49239D02*
X72421Y-48956D01*
X72421Y-48956D02*
X72421Y-48956D01*
X63956Y-54566D02*
X64279Y-54566D01*
G54D35*
X64279Y-54566D02*
X64291Y-54578D01*
X63070Y-54566D02*
X63476Y-54566D01*
X63476Y-54566D02*
X63503Y-54594D01*
G54D33*
X68848Y-54025D02*
X68838Y-54015D01*
X68848Y-54025D02*
X68848Y-54209D01*
X68848Y-55482D02*
X68838Y-55492D01*
X68848Y-55482D02*
X68848Y-55140D01*
X72067Y-48641D02*
X71830Y-48641D01*
X72067Y-48956D02*
X72067Y-49192D01*
X72067Y-49192D02*
X72066Y-49192D01*
X71491Y-54675D02*
X71938Y-54675D01*
X71938Y-54675D02*
X71948Y-54665D01*
X71502Y-54175D02*
X71946Y-54175D01*
X71946Y-54175D02*
X71948Y-54173D01*
X71502Y-54175D02*
X71045Y-54175D01*
X71045Y-54175D02*
X71043Y-54173D01*
X70251Y-54675D02*
X70915Y-54675D01*
X70915Y-54675D02*
X70925Y-54685D01*
X70251Y-54675D02*
X70699Y-54675D01*
X70699Y-54675D02*
X70708Y-54685D01*
X71275Y-49448D02*
X71732Y-49448D01*
X71732Y-49448D02*
X71732Y-49448D01*
X71276Y-48949D02*
X71276Y-48684D01*
X71276Y-48684D02*
X71279Y-48681D01*
X71276Y-48949D02*
X70834Y-48949D01*
X70834Y-48949D02*
X70826Y-48956D01*
X71276Y-48949D02*
X71724Y-48949D01*
X71724Y-48949D02*
X71732Y-48956D01*
X70688Y-49448D02*
X70472Y-49448D01*
X70472Y-49449D02*
X70472Y-49448D01*
X70472Y-49449D02*
X70025Y-49449D01*
X64842Y-49133D02*
X65295Y-49133D01*
X64842Y-54015D02*
X65314Y-54015D01*
X65295Y-53996D02*
X65295Y-53523D01*
X65314Y-54015D02*
X65295Y-53996D01*
X64842Y-53779D02*
X65413Y-53779D01*
X65413Y-53779D02*
X65295Y-53661D01*
X65295Y-53661D02*
X65295Y-53523D01*
X64842Y-48818D02*
X65374Y-48818D01*
X65295Y-48740D02*
X65295Y-48464D01*
X65374Y-48818D02*
X65295Y-48740D01*
X64842Y-48582D02*
X65177Y-48582D01*
X65177Y-48582D02*
X65295Y-48464D01*
X64842Y-48267D02*
X65275Y-48267D01*
X65295Y-48287D02*
X65295Y-48464D01*
X65275Y-48267D02*
X65295Y-48287D01*
X74960Y-48986D02*
X74960Y-49330D01*
X74960Y-50147D02*
X74960Y-49822D01*
X64842Y-55826D02*
X65354Y-55826D01*
X65295Y-55767D02*
X65295Y-55629D01*
X65354Y-55826D02*
X65295Y-55767D01*
X64842Y-55511D02*
X65177Y-55511D01*
X65177Y-55511D02*
X65295Y-55629D01*
X64842Y-55275D02*
X65314Y-55275D01*
X65295Y-55295D02*
X65295Y-55629D01*
X65314Y-55275D02*
X65295Y-55295D01*
X64842Y-53464D02*
X65236Y-53464D01*
X65236Y-53464D02*
X65295Y-53523D01*
G54D34*
X63956Y-55826D02*
X63543Y-55826D01*
X63543Y-55826D02*
X63503Y-55787D01*
G54D33*
X65295Y-50570D02*
X65295Y-49232D01*
X66279Y-56082D02*
X66397Y-55964D01*
X66397Y-55964D02*
X66555Y-55964D01*
X65748Y-56082D02*
X66279Y-56082D01*
X67460Y-56082D02*
X67342Y-55964D01*
X67342Y-55964D02*
X67185Y-55964D01*
X67854Y-56082D02*
X67460Y-56082D01*
X68248Y-56082D02*
X68366Y-55964D01*
X68366Y-55964D02*
X68523Y-55964D01*
X67854Y-56082D02*
X68248Y-56082D01*
X70413Y-56082D02*
X70295Y-55964D01*
X70295Y-55964D02*
X70137Y-55964D01*
X70807Y-56082D02*
X70413Y-56082D01*
X71200Y-56082D02*
X71318Y-55964D01*
X71318Y-55964D02*
X71476Y-55964D01*
X70807Y-56082D02*
X71200Y-56082D01*
X72381Y-56082D02*
X72263Y-55964D01*
X72263Y-55964D02*
X72106Y-55964D01*
X72913Y-56082D02*
X72381Y-56082D01*
X73444Y-56082D02*
X73562Y-55964D01*
X73562Y-55964D02*
X73720Y-55964D01*
X72913Y-56082D02*
X73444Y-56082D01*
X73720Y-55629D02*
X73366Y-55629D01*
X73720Y-53523D02*
X73366Y-53523D01*
X73366Y-52854D02*
X73366Y-53523D01*
X73720Y-50570D02*
X73366Y-50570D01*
X73366Y-51240D02*
X73366Y-50570D01*
X73720Y-48464D02*
X73366Y-48464D01*
X73011Y-48464D02*
X73366Y-48464D01*
X73444Y-48011D02*
X73562Y-48129D01*
X73562Y-48129D02*
X73720Y-48129D01*
X72913Y-48011D02*
X73444Y-48011D01*
X72421Y-48011D02*
X72303Y-48129D01*
X72303Y-48129D02*
X72106Y-48129D01*
X72913Y-48011D02*
X72421Y-48011D01*
X71181Y-48011D02*
X71299Y-48129D01*
X71299Y-48129D02*
X71476Y-48129D01*
X70807Y-48011D02*
X71181Y-48011D01*
X70452Y-48011D02*
X70334Y-48129D01*
X70334Y-48129D02*
X70137Y-48129D01*
X70807Y-48011D02*
X70452Y-48011D01*
X68248Y-48011D02*
X68366Y-48129D01*
X68366Y-48129D02*
X68523Y-48129D01*
X67854Y-48011D02*
X68248Y-48011D01*
X67480Y-48011D02*
X67362Y-48129D01*
X67362Y-48129D02*
X67185Y-48129D01*
X67854Y-48011D02*
X67480Y-48011D01*
X66279Y-48011D02*
X66397Y-48129D01*
X66397Y-48129D02*
X66555Y-48129D01*
X65748Y-48011D02*
X66279Y-48011D01*
X65649Y-48464D02*
X65295Y-48464D01*
X65295Y-49232D02*
X65295Y-49133D01*
X65295Y-49133D02*
X65295Y-48464D01*
X74960Y-55108D02*
X74379Y-55108D01*
X74379Y-55108D02*
X74370Y-55118D01*
X74960Y-53946D02*
X74379Y-53946D01*
X74379Y-53946D02*
X74370Y-53937D01*
X75314Y-55108D02*
X75314Y-55433D01*
X75314Y-53946D02*
X75314Y-53622D01*
X75314Y-50147D02*
X75314Y-50472D01*
X75314Y-48986D02*
X75314Y-48661D01*
X67657Y-55303D02*
X67657Y-55590D01*
G54D34*
X68493Y-50578D02*
X68493Y-50758D01*
X68493Y-50758D02*
X68484Y-50767D01*
X68296Y-50578D02*
X68296Y-50758D01*
X68296Y-50758D02*
X68287Y-50767D01*
X69078Y-53529D02*
X69078Y-53349D01*
X69078Y-53349D02*
X69074Y-53346D01*
X69378Y-50354D02*
X69378Y-50228D01*
X69378Y-50228D02*
X69488Y-50118D01*
G54D33*
X75551Y-54527D02*
X75551Y-54842D01*
X75551Y-54527D02*
X75551Y-54212D01*
X74960Y-55108D02*
X74960Y-54763D01*
X74960Y-55108D02*
X74960Y-55433D01*
X74960Y-55108D02*
X75541Y-55108D01*
X75541Y-55108D02*
X75551Y-55118D01*
X74960Y-53946D02*
X74960Y-54291D01*
X74960Y-53946D02*
X74960Y-53622D01*
X74960Y-53946D02*
X75541Y-53946D01*
X75541Y-53946D02*
X75551Y-53937D01*
X74960Y-50147D02*
X74960Y-50472D01*
X74960Y-50147D02*
X75541Y-50147D01*
X75541Y-50147D02*
X75551Y-50157D01*
X75551Y-49566D02*
X75551Y-49881D01*
X75551Y-49566D02*
X75551Y-49251D01*
X74960Y-48986D02*
X74960Y-48661D01*
X74960Y-48986D02*
X75541Y-48986D01*
X75541Y-48986D02*
X75551Y-48976D01*
G54D35*
X67342Y-54625D02*
X67342Y-54842D01*
G54D34*
X68886Y-50578D02*
X68886Y-50759D01*
X68886Y-50759D02*
X68877Y-50767D01*
X68881Y-53349D02*
X68877Y-53346D01*
X68881Y-53529D02*
X68881Y-53349D01*
G54D33*
X70925Y-53326D02*
X71141Y-53326D01*
X71779Y-52952D02*
X71988Y-52952D01*
X70570Y-52637D02*
X70787Y-52637D01*
X71602Y-51043D02*
X71811Y-51043D01*
X70905Y-50669D02*
X71122Y-50669D01*
X70570Y-51377D02*
X70787Y-51377D01*
X74960Y-50147D02*
X74379Y-50147D01*
X74379Y-50147D02*
X74370Y-50157D01*
X74960Y-48986D02*
X74379Y-48986D01*
X74379Y-48986D02*
X74370Y-48976D01*
G54D10*
X65796Y-51269D02*
X65787Y-51259D01*
X65796Y-51269D02*
X66296Y-51269D01*
G54D35*
X69476Y-51957D02*
X69299Y-51957D01*
X69299Y-51957D02*
X69291Y-51948D01*
X67503Y-53349D02*
X67500Y-53346D01*
X67503Y-53529D02*
X67503Y-53349D01*
X67657Y-54055D02*
X67657Y-54263D01*
X69441Y-50578D02*
X69448Y-50570D01*
X69281Y-50578D02*
X69441Y-50578D01*
X69576Y-54517D02*
X69596Y-54517D01*
X70136Y-54291D02*
X70251Y-54175D01*
X69822Y-54291D02*
X70136Y-54291D01*
X69596Y-54517D02*
X69822Y-54291D01*
G54D36*
X74370Y-54527D02*
X73208Y-54527D01*
X73208Y-54527D02*
X72558Y-55177D01*
G54D35*
X70135Y-55059D02*
X70251Y-55175D01*
X69822Y-55059D02*
X70135Y-55059D01*
X69576Y-54832D02*
X69596Y-54832D01*
X69596Y-54832D02*
X69822Y-55059D01*
G54D36*
X72067Y-49940D02*
X71284Y-49940D01*
G54D37*
X71284Y-49940D02*
X71276Y-49949D01*
G54D34*
X69913Y-53236D02*
X69921Y-53228D01*
X69701Y-53236D02*
X69913Y-53236D01*
G54D35*
X69379Y-49281D02*
X69399Y-49281D01*
X69919Y-49055D02*
X70025Y-48949D01*
X69625Y-49055D02*
X69919Y-49055D01*
X69399Y-49281D02*
X69625Y-49055D01*
G54D38*
X68011Y-54409D02*
X68011Y-54566D01*
X68011Y-54566D02*
X68208Y-54763D01*
X68395Y-54763D02*
X68484Y-54852D01*
X68208Y-54763D02*
X68395Y-54763D01*
G54D35*
X68848Y-54800D02*
X68535Y-54800D01*
X68535Y-54800D02*
X68484Y-54852D01*
G54D38*
X67991Y-53756D02*
X67991Y-53837D01*
X68011Y-53858D02*
X68011Y-54409D01*
X67991Y-53837D02*
X68011Y-53858D01*
G54D35*
X68848Y-54800D02*
X69190Y-54800D01*
X69190Y-54800D02*
X69222Y-54832D01*
G54D10*
X69084Y-50578D02*
X69084Y-50540D01*
X69035Y-50403D02*
X68986Y-50354D01*
X69035Y-50492D02*
X69035Y-50403D01*
X69084Y-50540D02*
X69035Y-50492D01*
G54D35*
X69918Y-49842D02*
X70025Y-49949D01*
X69625Y-49842D02*
X69918Y-49842D01*
X69379Y-49616D02*
X69399Y-49616D01*
X69399Y-49616D02*
X69625Y-49842D01*
G54D34*
X70996Y-52283D02*
X70374Y-52283D01*
X70108Y-52017D02*
X69921Y-52017D01*
X70374Y-52283D02*
X70108Y-52017D01*
G54D35*
X69882Y-52056D02*
X69921Y-52017D01*
X69701Y-52056D02*
X69882Y-52056D01*
G54D10*
X69476Y-52156D02*
X69516Y-52156D01*
X69651Y-52106D02*
X69701Y-52056D01*
X69566Y-52106D02*
X69651Y-52106D01*
X69516Y-52156D02*
X69566Y-52106D01*
G54D38*
X68661Y-49370D02*
X68818Y-49370D01*
X68818Y-49370D02*
X68937Y-49370D01*
X69025Y-49281D02*
X68937Y-49370D01*
X68011Y-50342D02*
X67998Y-50356D01*
X68011Y-50157D02*
X68011Y-50342D01*
X68011Y-50019D02*
X68661Y-49370D01*
X68011Y-50157D02*
X68011Y-50019D01*
G54D10*
X67903Y-50578D02*
X67903Y-50541D01*
X67854Y-50404D02*
X67804Y-50354D01*
X67854Y-50492D02*
X67854Y-50404D01*
X67903Y-50541D02*
X67854Y-50492D01*
G54D38*
X68169Y-50236D02*
X68169Y-50098D01*
X68169Y-50098D02*
X68740Y-49527D01*
X68169Y-50330D02*
X68195Y-50356D01*
X68169Y-50236D02*
X68169Y-50330D01*
X68937Y-49527D02*
X69025Y-49616D01*
X68740Y-49527D02*
X68937Y-49527D01*
G54D10*
X67706Y-50578D02*
X67706Y-50540D01*
X67657Y-50403D02*
X67608Y-50354D01*
X67657Y-50492D02*
X67657Y-50403D01*
X67706Y-50540D02*
X67657Y-50492D01*
X68689Y-50578D02*
X68689Y-50562D01*
X68740Y-50403D02*
X68789Y-50354D01*
X68740Y-50511D02*
X68740Y-50403D01*
X68689Y-50562D02*
X68740Y-50511D01*
G54D38*
X68169Y-54311D02*
X68169Y-54507D01*
X68169Y-54507D02*
X68267Y-54606D01*
X68376Y-54606D02*
X68484Y-54498D01*
X68267Y-54606D02*
X68376Y-54606D01*
G54D35*
X68848Y-54549D02*
X68535Y-54549D01*
X68535Y-54549D02*
X68484Y-54498D01*
G54D38*
X68188Y-53756D02*
X68188Y-53839D01*
X68188Y-53839D02*
X68169Y-53858D01*
X68169Y-53858D02*
X68169Y-54311D01*
G54D35*
X68848Y-54549D02*
X69190Y-54549D01*
X69190Y-54549D02*
X69222Y-54517D01*
G54D36*
X72204Y-55177D02*
X71504Y-55177D01*
G54D37*
X71504Y-55177D02*
X71502Y-55175D01*
G54D36*
X72421Y-49579D02*
X74357Y-49579D01*
X74357Y-49579D02*
X74370Y-49566D01*
X72421Y-49940D02*
X72421Y-49579D01*
X72421Y-49579D02*
X72421Y-49579D01*
G54D34*
X67311Y-50756D02*
X67322Y-50767D01*
X67311Y-50578D02*
X67311Y-50756D01*
X67311Y-50578D02*
X67508Y-50578D01*
G54D10*
X67114Y-50578D02*
X67114Y-50559D01*
X67066Y-50405D02*
X67016Y-50354D01*
X67066Y-50511D02*
X67066Y-50405D01*
X67114Y-50559D02*
X67066Y-50511D01*
G54D34*
X67016Y-50146D02*
X67007Y-50137D01*
X67016Y-50354D02*
X67016Y-50146D01*
G54D35*
X69371Y-53975D02*
X69370Y-53976D01*
X69371Y-53754D02*
X69371Y-53975D01*
G54D10*
X69476Y-50777D02*
X69497Y-50777D01*
X69651Y-50826D02*
X69701Y-50876D01*
X69547Y-50826D02*
X69651Y-50826D01*
X69497Y-50777D02*
X69547Y-50826D01*
G54D35*
X69299Y-51169D02*
X69291Y-51161D01*
X69476Y-51169D02*
X69299Y-51169D01*
G54D34*
X69891Y-50876D02*
X69901Y-50866D01*
X69891Y-50876D02*
X69701Y-50876D01*
X69701Y-51269D02*
X69701Y-51466D01*
G54D10*
X69476Y-51564D02*
X69498Y-51564D01*
X69498Y-51564D02*
X69547Y-51515D01*
X69547Y-51515D02*
X69651Y-51515D01*
X69651Y-51515D02*
X69701Y-51466D01*
X69476Y-51169D02*
X69496Y-51169D01*
X69652Y-51220D02*
X69701Y-51269D01*
X69547Y-51220D02*
X69652Y-51220D01*
X69496Y-51169D02*
X69547Y-51220D01*
G54D34*
X67011Y-53754D02*
X67011Y-53854D01*
X66968Y-53897D02*
X66968Y-53996D01*
X67011Y-53854D02*
X66968Y-53897D01*
G54D35*
X66296Y-50678D02*
X66268Y-50678D01*
X66181Y-50590D02*
X66062Y-50590D01*
X66268Y-50678D02*
X66181Y-50590D01*
X66704Y-52350D02*
X66712Y-52342D01*
X66704Y-52350D02*
X66524Y-52350D01*
X66705Y-51759D02*
X66524Y-51759D01*
X66705Y-51759D02*
X66712Y-51751D01*
G54D34*
X69871Y-51072D02*
X69901Y-51102D01*
X69701Y-51072D02*
X69871Y-51072D01*
X69300Y-53336D02*
X69291Y-53326D01*
X69476Y-53336D02*
X69300Y-53336D01*
X68099Y-50578D02*
X68099Y-50759D01*
X68099Y-50759D02*
X68090Y-50767D01*
G54D35*
X69181Y-50129D02*
X69192Y-50118D01*
X69181Y-50354D02*
X69181Y-50129D01*
G54D34*
X67896Y-53529D02*
X67896Y-53348D01*
X67896Y-53348D02*
X67893Y-53346D01*
X68291Y-53529D02*
X68486Y-53529D01*
X68291Y-53529D02*
X68094Y-53529D01*
X67896Y-53529D02*
X68094Y-53529D01*
X67306Y-53349D02*
X67303Y-53346D01*
X67306Y-53529D02*
X67306Y-53349D01*
G54D35*
X69301Y-50974D02*
X69291Y-50964D01*
X69476Y-50974D02*
X69301Y-50974D01*
G54D34*
X69300Y-53139D02*
X69291Y-53129D01*
X69476Y-53139D02*
X69300Y-53139D01*
X69861Y-53424D02*
X69921Y-53484D01*
X69861Y-53424D02*
X69701Y-53424D01*
G54D10*
X69476Y-53139D02*
X69498Y-53139D01*
X69651Y-53090D02*
X69701Y-53041D01*
X69547Y-53090D02*
X69651Y-53090D01*
X69498Y-53139D02*
X69547Y-53090D01*
G54D34*
X66913Y-53529D02*
X66913Y-53350D01*
X66913Y-53350D02*
X66909Y-53346D01*
G54D10*
X67108Y-53529D02*
X67108Y-53564D01*
X67165Y-53711D02*
X67208Y-53754D01*
X67165Y-53622D02*
X67165Y-53711D01*
X67108Y-53564D02*
X67165Y-53622D01*
G54D34*
X66913Y-53529D02*
X67108Y-53529D01*
G54D35*
X69772Y-52646D02*
X69822Y-52696D01*
X69822Y-52696D02*
X69921Y-52696D01*
X69772Y-52646D02*
X69701Y-52646D01*
X69911Y-52451D02*
X69921Y-52460D01*
X69701Y-52451D02*
X69911Y-52451D01*
X69293Y-52547D02*
X69291Y-52549D01*
X69293Y-52547D02*
X69476Y-52547D01*
G54D34*
X63503Y-55157D02*
X63543Y-55157D01*
X64200Y-55039D02*
X64291Y-54948D01*
X63661Y-55039D02*
X64200Y-55039D01*
X63543Y-55157D02*
X63661Y-55039D01*
G54D35*
X69476Y-52351D02*
X69292Y-52351D01*
X69292Y-52351D02*
X69291Y-52352D01*
X67404Y-53754D02*
X67404Y-54210D01*
X67404Y-54210D02*
X67342Y-54271D01*
X67657Y-54633D02*
X67657Y-54933D01*
X70905Y-51043D02*
X71232Y-51043D01*
X71082Y-52952D02*
X71409Y-52952D01*
G54D34*
X69476Y-52942D02*
X69300Y-52942D01*
X69300Y-52942D02*
X69291Y-52933D01*
G54D35*
X70472Y-52972D02*
X70708Y-52972D01*
X70464Y-52964D02*
X70472Y-52972D01*
X70216Y-52964D02*
X70464Y-52964D01*
X70708Y-52972D02*
X70728Y-52952D01*
X70216Y-52854D02*
X70216Y-52637D01*
X70216Y-52964D02*
X70216Y-52854D01*
X70216Y-52637D02*
X70216Y-52637D01*
X69274Y-53529D02*
X69493Y-53529D01*
X69493Y-53529D02*
X69645Y-53681D01*
X70216Y-53503D02*
X70216Y-53334D01*
X70039Y-53681D02*
X70216Y-53503D01*
X69645Y-53681D02*
X70039Y-53681D01*
X69493Y-53529D02*
X69566Y-53602D01*
X70216Y-53334D02*
X70563Y-53334D01*
X70563Y-53334D02*
X70571Y-53326D01*
X69701Y-50677D02*
X70200Y-50677D01*
X70200Y-50677D02*
X70216Y-50661D01*
X70216Y-50661D02*
X70543Y-50661D01*
X70543Y-50661D02*
X70551Y-50669D01*
X69300Y-51367D02*
X69476Y-51367D01*
X69300Y-51367D02*
X69291Y-51358D01*
X70000Y-51377D02*
X70216Y-51377D01*
X70216Y-51377D02*
X70216Y-51031D01*
X70216Y-51031D02*
X70216Y-51031D01*
X70216Y-51031D02*
X70539Y-51031D01*
X70539Y-51031D02*
X70551Y-51043D01*
X69913Y-52252D02*
X69921Y-52244D01*
X69913Y-52252D02*
X69701Y-52252D01*
G54D10*
X63503Y-54224D02*
X63503Y-52952D01*
X63307Y-52755D02*
X62874Y-52755D01*
X63503Y-52952D02*
X63307Y-52755D01*
G54D35*
X69696Y-51861D02*
X69851Y-51861D01*
X69851Y-51861D02*
X69921Y-51791D01*
X66070Y-52251D02*
X66062Y-52244D01*
X66299Y-52251D02*
X66070Y-52251D01*
G54D10*
X66296Y-52056D02*
X65796Y-52056D01*
X65796Y-52056D02*
X65787Y-52047D01*
G54D35*
X66705Y-51956D02*
X66712Y-51948D01*
X66524Y-51956D02*
X66705Y-51956D01*
X66181Y-50826D02*
X66062Y-50826D01*
X66229Y-50875D02*
X66296Y-50875D01*
X66229Y-50875D02*
X66181Y-50826D01*
X66704Y-50775D02*
X66712Y-50767D01*
X66704Y-50775D02*
X66524Y-50775D01*
X66069Y-51857D02*
X66299Y-51857D01*
X66069Y-51857D02*
X66062Y-51850D01*
X66524Y-51562D02*
X66705Y-51562D01*
X66705Y-51562D02*
X66712Y-51555D01*
G54D10*
X65797Y-51663D02*
X66296Y-51663D01*
X65797Y-51663D02*
X65787Y-51673D01*
G54D35*
X66705Y-51365D02*
X66712Y-51358D01*
X66524Y-51365D02*
X66705Y-51365D01*
X66299Y-51464D02*
X66070Y-51464D01*
X66070Y-51464D02*
X66062Y-51456D01*
X66524Y-51168D02*
X66705Y-51168D01*
X66705Y-51168D02*
X66712Y-51161D01*
X66070Y-51070D02*
X66062Y-51062D01*
X66070Y-51070D02*
X66299Y-51070D01*
X66704Y-50972D02*
X66712Y-50964D01*
X66704Y-50972D02*
X66524Y-50972D01*
X66704Y-52153D02*
X66712Y-52145D01*
X66524Y-52153D02*
X66704Y-52153D01*
X69476Y-51761D02*
X69291Y-51761D01*
X69291Y-51761D02*
X69291Y-51761D01*
G54D10*
X65796Y-52450D02*
X65787Y-52440D01*
X66296Y-52450D02*
X65796Y-52450D01*
G54D35*
X66070Y-52645D02*
X66062Y-52637D01*
X66299Y-52645D02*
X66070Y-52645D01*
X66524Y-52743D02*
X66705Y-52743D01*
X66705Y-52743D02*
X66712Y-52736D01*
X66541Y-53529D02*
X66535Y-53523D01*
X66541Y-53529D02*
X66716Y-53529D01*
X66814Y-53754D02*
X66814Y-53894D01*
X66712Y-53996D02*
X66614Y-53996D01*
X66814Y-53894D02*
X66712Y-53996D01*
X65797Y-52844D02*
X65787Y-52834D01*
X65797Y-52844D02*
X66296Y-52844D01*
X66705Y-52940D02*
X66712Y-52933D01*
X66524Y-52940D02*
X66705Y-52940D01*
X66299Y-53039D02*
X66070Y-53039D01*
X66070Y-53039D02*
X66062Y-53031D01*
X66524Y-53137D02*
X66705Y-53137D01*
X66705Y-53137D02*
X66712Y-53129D01*
G54D10*
X65799Y-53236D02*
X65787Y-53248D01*
X66296Y-53236D02*
X65799Y-53236D01*
G54D35*
X66705Y-53334D02*
X66712Y-53326D01*
X66524Y-53334D02*
X66705Y-53334D01*
X66069Y-53431D02*
X66062Y-53425D01*
X66069Y-53431D02*
X66299Y-53431D01*
X66616Y-53754D02*
X66422Y-53754D01*
X66422Y-53754D02*
X66417Y-53759D01*
X66705Y-52546D02*
X66712Y-52539D01*
X66524Y-52546D02*
X66705Y-52546D01*
X69476Y-52746D02*
X69291Y-52746D01*
X69291Y-52746D02*
X69291Y-52746D01*
G54D10*
G36*
X66653Y-56259D02*
X65118Y-56259D01*
X65118Y-56023D01*
X65039Y-56023D01*
X65039Y-54527D01*
X65009Y-54455D01*
X64963Y-54409D01*
X65009Y-54363D01*
X65039Y-54291D01*
X65039Y-54212D01*
X65039Y-51772D01*
X65009Y-51699D01*
X64963Y-51653D01*
X65009Y-51607D01*
X65039Y-51535D01*
X65039Y-51457D01*
X65009Y-51384D01*
X64963Y-51338D01*
X65009Y-51292D01*
X65039Y-51220D01*
X65039Y-51142D01*
X65009Y-51069D01*
X64963Y-51023D01*
X65009Y-50977D01*
X65039Y-50905D01*
X65039Y-50827D01*
X65009Y-50754D01*
X64963Y-50708D01*
X65009Y-50662D01*
X65039Y-50590D01*
X65039Y-50512D01*
X65009Y-50439D01*
X64963Y-50393D01*
X65009Y-50347D01*
X65039Y-50275D01*
X65039Y-50197D01*
X65009Y-50124D01*
X64963Y-50078D01*
X65009Y-50032D01*
X65039Y-49960D01*
X65039Y-49882D01*
X65009Y-49809D01*
X64954Y-49754D01*
X64881Y-49724D01*
X64803Y-49724D01*
X64731Y-49754D01*
X64675Y-49809D01*
X64645Y-49881D01*
X64645Y-49960D01*
X64675Y-50032D01*
X64721Y-50078D01*
X64675Y-50124D01*
X64645Y-50196D01*
X64645Y-50275D01*
X64675Y-50347D01*
X64721Y-50393D01*
X64675Y-50439D01*
X64645Y-50511D01*
X64645Y-50590D01*
X64675Y-50662D01*
X64721Y-50708D01*
X64675Y-50754D01*
X64645Y-50826D01*
X64645Y-50905D01*
X64675Y-50977D01*
X64721Y-51023D01*
X64675Y-51069D01*
X64645Y-51141D01*
X64645Y-51220D01*
X64675Y-51292D01*
X64721Y-51338D01*
X64675Y-51384D01*
X64645Y-51456D01*
X64645Y-51535D01*
X64675Y-51607D01*
X64721Y-51653D01*
X64675Y-51699D01*
X64645Y-51771D01*
X64645Y-51850D01*
X64675Y-51922D01*
X64730Y-51977D01*
X64803Y-52007D01*
X64881Y-52007D01*
X64953Y-51978D01*
X65009Y-51922D01*
X65039Y-51850D01*
X65039Y-51772D01*
X65039Y-54212D01*
X65009Y-54140D01*
X64954Y-54085D01*
X64881Y-54055D01*
X64803Y-54055D01*
X64731Y-54084D01*
X64675Y-54140D01*
X64645Y-54212D01*
X64645Y-54290D01*
X64675Y-54363D01*
X64721Y-54409D01*
X64675Y-54455D01*
X64645Y-54527D01*
X64645Y-54605D01*
X64675Y-54678D01*
X64730Y-54733D01*
X64803Y-54763D01*
X64881Y-54763D01*
X64953Y-54733D01*
X65009Y-54678D01*
X65039Y-54606D01*
X65039Y-54527D01*
X65039Y-56023D01*
X64506Y-56023D01*
X64506Y-55012D01*
X64506Y-54837D01*
X64489Y-54794D01*
X64458Y-54763D01*
X64488Y-54733D01*
X64506Y-54689D01*
X64506Y-54642D01*
X64506Y-54467D01*
X64489Y-54424D01*
X64455Y-54391D01*
X64412Y-54373D01*
X64365Y-54373D01*
X64173Y-54373D01*
X64173Y-53189D01*
X64143Y-53116D01*
X64136Y-53110D01*
X64143Y-53103D01*
X64173Y-53031D01*
X64173Y-52953D01*
X64173Y-52244D01*
X64173Y-51614D01*
X64143Y-51542D01*
X64097Y-51496D01*
X64143Y-51450D01*
X64173Y-51377D01*
X64173Y-51299D01*
X64143Y-51227D01*
X64097Y-51181D01*
X64143Y-51135D01*
X64173Y-51062D01*
X64173Y-50984D01*
X64143Y-50912D01*
X64097Y-50866D01*
X64143Y-50820D01*
X64173Y-50747D01*
X64173Y-50669D01*
X64143Y-50597D01*
X64097Y-50551D01*
X64143Y-50505D01*
X64173Y-50433D01*
X64173Y-50354D01*
X64143Y-50282D01*
X64097Y-50236D01*
X64143Y-50190D01*
X64173Y-50118D01*
X64173Y-50039D01*
X64143Y-49967D01*
X64097Y-49921D01*
X64143Y-49875D01*
X64173Y-49803D01*
X64173Y-49724D01*
X64143Y-49652D01*
X64088Y-49596D01*
X64015Y-49566D01*
X63937Y-49566D01*
X63865Y-49596D01*
X63809Y-49652D01*
X63779Y-49724D01*
X63779Y-49802D01*
X63809Y-49875D01*
X63855Y-49921D01*
X63809Y-49967D01*
X63779Y-50039D01*
X63779Y-50117D01*
X63809Y-50190D01*
X63855Y-50236D01*
X63809Y-50282D01*
X63779Y-50354D01*
X63779Y-50432D01*
X63809Y-50505D01*
X63855Y-50551D01*
X63809Y-50597D01*
X63779Y-50669D01*
X63779Y-50747D01*
X63809Y-50820D01*
X63855Y-50866D01*
X63809Y-50911D01*
X63779Y-50984D01*
X63779Y-51062D01*
X63809Y-51134D01*
X63855Y-51181D01*
X63809Y-51226D01*
X63779Y-51299D01*
X63779Y-51377D01*
X63809Y-51449D01*
X63855Y-51496D01*
X63809Y-51541D01*
X63779Y-51614D01*
X63779Y-51692D01*
X63809Y-51764D01*
X63864Y-51820D01*
X63937Y-51850D01*
X64015Y-51850D01*
X64087Y-51820D01*
X64143Y-51765D01*
X64173Y-51692D01*
X64173Y-51614D01*
X64173Y-52244D01*
X64143Y-52172D01*
X64088Y-52116D01*
X64015Y-52086D01*
X63937Y-52086D01*
X63865Y-52116D01*
X63809Y-52171D01*
X63779Y-52244D01*
X63779Y-52322D01*
X63809Y-52394D01*
X63864Y-52450D01*
X63937Y-52480D01*
X64015Y-52480D01*
X64087Y-52450D01*
X64143Y-52395D01*
X64173Y-52322D01*
X64173Y-52244D01*
X64173Y-52953D01*
X64143Y-52880D01*
X64088Y-52825D01*
X64015Y-52795D01*
X63937Y-52795D01*
X63865Y-52825D01*
X63809Y-52880D01*
X63779Y-52952D01*
X63779Y-53031D01*
X63809Y-53103D01*
X63816Y-53110D01*
X63809Y-53116D01*
X63779Y-53189D01*
X63779Y-53267D01*
X63809Y-53339D01*
X63864Y-53395D01*
X63937Y-53425D01*
X64015Y-53425D01*
X64087Y-53395D01*
X64143Y-53339D01*
X64173Y-53267D01*
X64173Y-53189D01*
X64173Y-54373D01*
X64170Y-54373D01*
X64130Y-54389D01*
X64097Y-54389D01*
X64123Y-54363D01*
X64153Y-54291D01*
X64153Y-54212D01*
X64123Y-54140D01*
X64068Y-54085D01*
X63996Y-54055D01*
X63917Y-54055D01*
X63845Y-54084D01*
X63789Y-54140D01*
X63759Y-54212D01*
X63759Y-54290D01*
X63789Y-54363D01*
X63835Y-54409D01*
X63789Y-54455D01*
X63759Y-54527D01*
X63759Y-54605D01*
X63789Y-54678D01*
X63845Y-54733D01*
X63917Y-54763D01*
X63995Y-54763D01*
X64043Y-54744D01*
X64104Y-54744D01*
X64124Y-54763D01*
X64093Y-54794D01*
X64075Y-54837D01*
X64075Y-54862D01*
X63661Y-54862D01*
X63593Y-54875D01*
X63583Y-54882D01*
X63323Y-54882D01*
X63280Y-54900D01*
X63246Y-54933D01*
X63228Y-54976D01*
X63228Y-55023D01*
X63228Y-55337D01*
X63246Y-55381D01*
X63279Y-55414D01*
X63323Y-55432D01*
X63370Y-55432D01*
X63684Y-55432D01*
X63727Y-55414D01*
X63761Y-55381D01*
X63779Y-55338D01*
X63779Y-55291D01*
X63779Y-55216D01*
X64200Y-55216D01*
X64268Y-55203D01*
X64268Y-55203D01*
X64326Y-55164D01*
X64336Y-55154D01*
X64412Y-55154D01*
X64455Y-55136D01*
X64488Y-55103D01*
X64506Y-55059D01*
X64506Y-55012D01*
X64506Y-56023D01*
X62795Y-56023D01*
X62795Y-53251D01*
X62834Y-53267D01*
X62874Y-53267D01*
X62903Y-53339D01*
X62959Y-53395D01*
X63031Y-53425D01*
X63109Y-53425D01*
X63182Y-53395D01*
X63237Y-53339D01*
X63267Y-53267D01*
X63267Y-53189D01*
X63237Y-53116D01*
X63191Y-53070D01*
X63237Y-53025D01*
X63267Y-52952D01*
X63267Y-52925D01*
X63356Y-53013D01*
X63356Y-54029D01*
X63339Y-54036D01*
X63306Y-54069D01*
X63288Y-54113D01*
X63288Y-54160D01*
X63288Y-54335D01*
X63306Y-54378D01*
X63336Y-54409D01*
X63191Y-54409D01*
X63191Y-54409D01*
X63237Y-54363D01*
X63267Y-54291D01*
X63267Y-54212D01*
X63237Y-54140D01*
X63182Y-54085D01*
X63110Y-54055D01*
X63031Y-54055D01*
X62959Y-54084D01*
X62904Y-54140D01*
X62874Y-54212D01*
X62873Y-54290D01*
X62903Y-54363D01*
X62949Y-54409D01*
X62904Y-54455D01*
X62874Y-54527D01*
X62873Y-54605D01*
X62903Y-54678D01*
X62959Y-54733D01*
X63031Y-54763D01*
X63109Y-54763D01*
X63182Y-54733D01*
X63191Y-54724D01*
X63296Y-54724D01*
X63306Y-54748D01*
X63339Y-54782D01*
X63382Y-54800D01*
X63429Y-54800D01*
X63624Y-54800D01*
X63668Y-54782D01*
X63701Y-54748D01*
X63719Y-54705D01*
X63719Y-54658D01*
X63719Y-54483D01*
X63701Y-54440D01*
X63670Y-54409D01*
X63701Y-54378D01*
X63719Y-54335D01*
X63719Y-54288D01*
X63719Y-54113D01*
X63701Y-54070D01*
X63668Y-54036D01*
X63651Y-54029D01*
X63651Y-52952D01*
X63651Y-52952D01*
X63640Y-52896D01*
X63640Y-52896D01*
X63608Y-52848D01*
X63608Y-52848D01*
X63411Y-52651D01*
X63363Y-52619D01*
X63307Y-52608D01*
X63267Y-52608D01*
X63267Y-52244D01*
X63237Y-52172D01*
X63182Y-52116D01*
X63110Y-52086D01*
X63031Y-52086D01*
X62959Y-52116D01*
X62904Y-52171D01*
X62874Y-52244D01*
X62873Y-52322D01*
X62903Y-52394D01*
X62959Y-52450D01*
X63031Y-52480D01*
X63109Y-52480D01*
X63182Y-52450D01*
X63237Y-52395D01*
X63267Y-52322D01*
X63267Y-52244D01*
X63267Y-52608D01*
X63004Y-52608D01*
X62985Y-52589D01*
X62913Y-52559D01*
X62835Y-52559D01*
X62795Y-52575D01*
X62795Y-51991D01*
X62834Y-52007D01*
X62913Y-52007D01*
X62985Y-51978D01*
X63040Y-51922D01*
X63070Y-51850D01*
X63109Y-51850D01*
X63182Y-51820D01*
X63237Y-51765D01*
X63267Y-51692D01*
X63267Y-51614D01*
X63237Y-51542D01*
X63191Y-51496D01*
X63237Y-51450D01*
X63267Y-51377D01*
X63267Y-51299D01*
X63237Y-51227D01*
X63191Y-51181D01*
X63237Y-51135D01*
X63267Y-51062D01*
X63267Y-50984D01*
X63237Y-50912D01*
X63191Y-50866D01*
X63237Y-50820D01*
X63267Y-50747D01*
X63267Y-50669D01*
X63237Y-50597D01*
X63191Y-50551D01*
X63237Y-50505D01*
X63267Y-50433D01*
X63267Y-50354D01*
X63237Y-50282D01*
X63191Y-50236D01*
X63237Y-50190D01*
X63267Y-50118D01*
X63267Y-50039D01*
X63237Y-49967D01*
X63191Y-49921D01*
X63237Y-49875D01*
X63267Y-49803D01*
X63267Y-49724D01*
X63237Y-49652D01*
X63182Y-49596D01*
X63110Y-49566D01*
X63031Y-49566D01*
X62959Y-49596D01*
X62904Y-49652D01*
X62874Y-49724D01*
X62835Y-49724D01*
X62795Y-49740D01*
X62795Y-48070D01*
X65118Y-48070D01*
X65118Y-47834D01*
X66653Y-47834D01*
X66653Y-48031D01*
X66653Y-48481D01*
X66644Y-48490D01*
X66614Y-48563D01*
X66614Y-48641D01*
X66644Y-48713D01*
X66653Y-48723D01*
X66653Y-48759D01*
X66594Y-48759D01*
X66522Y-48789D01*
X66467Y-48845D01*
X66437Y-48917D01*
X66436Y-48995D01*
X66466Y-49068D01*
X66522Y-49123D01*
X66594Y-49153D01*
X66653Y-49153D01*
X66653Y-50149D01*
X66537Y-50149D01*
X66494Y-50167D01*
X66460Y-50200D01*
X66442Y-50244D01*
X66442Y-50291D01*
X66442Y-50468D01*
X66460Y-50511D01*
X66493Y-50544D01*
X66537Y-50562D01*
X66541Y-50562D01*
X66541Y-50600D01*
X66503Y-50600D01*
X66503Y-50596D01*
X66485Y-50552D01*
X66451Y-50519D01*
X66408Y-50501D01*
X66397Y-50501D01*
X66397Y-49252D01*
X66367Y-49179D01*
X66312Y-49124D01*
X66240Y-49094D01*
X66161Y-49094D01*
X66089Y-49124D01*
X66034Y-49179D01*
X66003Y-49252D01*
X66003Y-49330D01*
X66033Y-49402D01*
X66089Y-49458D01*
X66161Y-49488D01*
X66239Y-49488D01*
X66312Y-49458D01*
X66367Y-49402D01*
X66397Y-49330D01*
X66397Y-49252D01*
X66397Y-50501D01*
X66361Y-50501D01*
X66314Y-50501D01*
X66292Y-50479D01*
X66241Y-50445D01*
X66184Y-50433D01*
X66174Y-50423D01*
X66102Y-50393D01*
X66024Y-50393D01*
X65951Y-50423D01*
X65896Y-50478D01*
X65866Y-50551D01*
X65866Y-50629D01*
X65896Y-50701D01*
X65902Y-50708D01*
X65896Y-50715D01*
X65866Y-50787D01*
X65866Y-50865D01*
X65896Y-50938D01*
X65902Y-50944D01*
X65896Y-50951D01*
X65866Y-51023D01*
X65866Y-51079D01*
X65826Y-51063D01*
X65748Y-51062D01*
X65676Y-51092D01*
X65620Y-51148D01*
X65590Y-51220D01*
X65590Y-51298D01*
X65620Y-51371D01*
X65675Y-51426D01*
X65748Y-51456D01*
X65826Y-51456D01*
X65866Y-51440D01*
X65866Y-51492D01*
X65826Y-51476D01*
X65748Y-51476D01*
X65676Y-51506D01*
X65620Y-51561D01*
X65590Y-51633D01*
X65590Y-51712D01*
X65620Y-51784D01*
X65675Y-51840D01*
X65724Y-51860D01*
X65676Y-51880D01*
X65620Y-51935D01*
X65590Y-52007D01*
X65590Y-52086D01*
X65620Y-52158D01*
X65675Y-52214D01*
X65748Y-52244D01*
X65748Y-52244D01*
X65676Y-52273D01*
X65620Y-52329D01*
X65590Y-52401D01*
X65590Y-52479D01*
X65620Y-52552D01*
X65675Y-52607D01*
X65748Y-52637D01*
X65748Y-52637D01*
X65676Y-52667D01*
X65620Y-52722D01*
X65590Y-52795D01*
X65590Y-52873D01*
X65620Y-52946D01*
X65675Y-53001D01*
X65748Y-53031D01*
X65826Y-53031D01*
X65866Y-53015D01*
X65866Y-53067D01*
X65826Y-53051D01*
X65748Y-53051D01*
X65676Y-53081D01*
X65620Y-53136D01*
X65590Y-53208D01*
X65590Y-53287D01*
X65620Y-53359D01*
X65675Y-53414D01*
X65748Y-53444D01*
X65826Y-53444D01*
X65866Y-53428D01*
X65866Y-53464D01*
X65896Y-53536D01*
X65951Y-53591D01*
X66023Y-53622D01*
X66101Y-53622D01*
X66157Y-53598D01*
X66184Y-53609D01*
X66231Y-53609D01*
X66302Y-53609D01*
X66258Y-53653D01*
X66230Y-53722D01*
X66230Y-53796D01*
X66258Y-53865D01*
X66311Y-53918D01*
X66379Y-53946D01*
X66421Y-53946D01*
X66417Y-53956D01*
X66417Y-54035D01*
X66447Y-54107D01*
X66502Y-54162D01*
X66574Y-54192D01*
X66653Y-54192D01*
X66653Y-54192D01*
X66653Y-54370D01*
X66653Y-54370D01*
X66575Y-54370D01*
X66502Y-54399D01*
X66447Y-54455D01*
X66417Y-54527D01*
X66417Y-54605D01*
X66447Y-54678D01*
X66502Y-54733D01*
X66574Y-54763D01*
X66653Y-54763D01*
X66653Y-54763D01*
X66653Y-55393D01*
X66653Y-55393D01*
X66575Y-55393D01*
X66502Y-55423D01*
X66447Y-55478D01*
X66417Y-55551D01*
X66417Y-55629D01*
X66447Y-55701D01*
X66502Y-55757D01*
X66574Y-55787D01*
X66653Y-55787D01*
X66653Y-55787D01*
X66653Y-56062D01*
X66653Y-56259D01*
X66653Y-56259D01*
G37*
G54D35*
X66653Y-56259D02*
X65118Y-56259D01*
X65118Y-56023D01*
X65039Y-56023D01*
X65039Y-54527D01*
X65009Y-54455D01*
X64963Y-54409D01*
X65009Y-54363D01*
X65039Y-54291D01*
X65039Y-54212D01*
X65039Y-51772D01*
X65009Y-51699D01*
X64963Y-51653D01*
X65009Y-51607D01*
X65039Y-51535D01*
X65039Y-51457D01*
X65009Y-51384D01*
X64963Y-51338D01*
X65009Y-51292D01*
X65039Y-51220D01*
X65039Y-51142D01*
X65009Y-51069D01*
X64963Y-51023D01*
X65009Y-50977D01*
X65039Y-50905D01*
X65039Y-50827D01*
X65009Y-50754D01*
X64963Y-50708D01*
X65009Y-50662D01*
X65039Y-50590D01*
X65039Y-50512D01*
X65009Y-50439D01*
X64963Y-50393D01*
X65009Y-50347D01*
X65039Y-50275D01*
X65039Y-50197D01*
X65009Y-50124D01*
X64963Y-50078D01*
X65009Y-50032D01*
X65039Y-49960D01*
X65039Y-49882D01*
X65009Y-49809D01*
X64954Y-49754D01*
X64881Y-49724D01*
X64803Y-49724D01*
X64731Y-49754D01*
X64675Y-49809D01*
X64645Y-49881D01*
X64645Y-49960D01*
X64675Y-50032D01*
X64721Y-50078D01*
X64675Y-50124D01*
X64645Y-50196D01*
X64645Y-50275D01*
X64675Y-50347D01*
X64721Y-50393D01*
X64675Y-50439D01*
X64645Y-50511D01*
X64645Y-50590D01*
X64675Y-50662D01*
X64721Y-50708D01*
X64675Y-50754D01*
X64645Y-50826D01*
X64645Y-50905D01*
X64675Y-50977D01*
X64721Y-51023D01*
X64675Y-51069D01*
X64645Y-51141D01*
X64645Y-51220D01*
X64675Y-51292D01*
X64721Y-51338D01*
X64675Y-51384D01*
X64645Y-51456D01*
X64645Y-51535D01*
X64675Y-51607D01*
X64721Y-51653D01*
X64675Y-51699D01*
X64645Y-51771D01*
X64645Y-51850D01*
X64675Y-51922D01*
X64730Y-51977D01*
X64803Y-52007D01*
X64881Y-52007D01*
X64953Y-51978D01*
X65009Y-51922D01*
X65039Y-51850D01*
X65039Y-51772D01*
X65039Y-54212D01*
X65009Y-54140D01*
X64954Y-54085D01*
X64881Y-54055D01*
X64803Y-54055D01*
X64731Y-54084D01*
X64675Y-54140D01*
X64645Y-54212D01*
X64645Y-54290D01*
X64675Y-54363D01*
X64721Y-54409D01*
X64675Y-54455D01*
X64645Y-54527D01*
X64645Y-54605D01*
X64675Y-54678D01*
X64730Y-54733D01*
X64803Y-54763D01*
X64881Y-54763D01*
X64953Y-54733D01*
X65009Y-54678D01*
X65039Y-54606D01*
X65039Y-54527D01*
X65039Y-56023D01*
X64506Y-56023D01*
X64506Y-55012D01*
X64506Y-54837D01*
X64489Y-54794D01*
X64458Y-54763D01*
X64488Y-54733D01*
X64506Y-54689D01*
X64506Y-54642D01*
X64506Y-54467D01*
X64489Y-54424D01*
X64455Y-54391D01*
X64412Y-54373D01*
X64365Y-54373D01*
X64173Y-54373D01*
X64173Y-53189D01*
X64143Y-53116D01*
X64136Y-53110D01*
X64143Y-53103D01*
X64173Y-53031D01*
X64173Y-52953D01*
X64173Y-52244D01*
X64173Y-51614D01*
X64143Y-51542D01*
X64097Y-51496D01*
X64143Y-51450D01*
X64173Y-51377D01*
X64173Y-51299D01*
X64143Y-51227D01*
X64097Y-51181D01*
X64143Y-51135D01*
X64173Y-51062D01*
X64173Y-50984D01*
X64143Y-50912D01*
X64097Y-50866D01*
X64143Y-50820D01*
X64173Y-50747D01*
X64173Y-50669D01*
X64143Y-50597D01*
X64097Y-50551D01*
X64143Y-50505D01*
X64173Y-50433D01*
X64173Y-50354D01*
X64143Y-50282D01*
X64097Y-50236D01*
X64143Y-50190D01*
X64173Y-50118D01*
X64173Y-50039D01*
X64143Y-49967D01*
X64097Y-49921D01*
X64143Y-49875D01*
X64173Y-49803D01*
X64173Y-49724D01*
X64143Y-49652D01*
X64088Y-49596D01*
X64015Y-49566D01*
X63937Y-49566D01*
X63865Y-49596D01*
X63809Y-49652D01*
X63779Y-49724D01*
X63779Y-49802D01*
X63809Y-49875D01*
X63855Y-49921D01*
X63809Y-49967D01*
X63779Y-50039D01*
X63779Y-50117D01*
X63809Y-50190D01*
X63855Y-50236D01*
X63809Y-50282D01*
X63779Y-50354D01*
X63779Y-50432D01*
X63809Y-50505D01*
X63855Y-50551D01*
X63809Y-50597D01*
X63779Y-50669D01*
X63779Y-50747D01*
X63809Y-50820D01*
X63855Y-50866D01*
X63809Y-50911D01*
X63779Y-50984D01*
X63779Y-51062D01*
X63809Y-51134D01*
X63855Y-51181D01*
X63809Y-51226D01*
X63779Y-51299D01*
X63779Y-51377D01*
X63809Y-51449D01*
X63855Y-51496D01*
X63809Y-51541D01*
X63779Y-51614D01*
X63779Y-51692D01*
X63809Y-51764D01*
X63864Y-51820D01*
X63937Y-51850D01*
X64015Y-51850D01*
X64087Y-51820D01*
X64143Y-51765D01*
X64173Y-51692D01*
X64173Y-51614D01*
X64173Y-52244D01*
X64143Y-52172D01*
X64088Y-52116D01*
X64015Y-52086D01*
X63937Y-52086D01*
X63865Y-52116D01*
X63809Y-52171D01*
X63779Y-52244D01*
X63779Y-52322D01*
X63809Y-52394D01*
X63864Y-52450D01*
X63937Y-52480D01*
X64015Y-52480D01*
X64087Y-52450D01*
X64143Y-52395D01*
X64173Y-52322D01*
X64173Y-52244D01*
X64173Y-52953D01*
X64143Y-52880D01*
X64088Y-52825D01*
X64015Y-52795D01*
X63937Y-52795D01*
X63865Y-52825D01*
X63809Y-52880D01*
X63779Y-52952D01*
X63779Y-53031D01*
X63809Y-53103D01*
X63816Y-53110D01*
X63809Y-53116D01*
X63779Y-53189D01*
X63779Y-53267D01*
X63809Y-53339D01*
X63864Y-53395D01*
X63937Y-53425D01*
X64015Y-53425D01*
X64087Y-53395D01*
X64143Y-53339D01*
X64173Y-53267D01*
X64173Y-53189D01*
X64173Y-54373D01*
X64170Y-54373D01*
X64130Y-54389D01*
X64097Y-54389D01*
X64123Y-54363D01*
X64153Y-54291D01*
X64153Y-54212D01*
X64123Y-54140D01*
X64068Y-54085D01*
X63996Y-54055D01*
X63917Y-54055D01*
X63845Y-54084D01*
X63789Y-54140D01*
X63759Y-54212D01*
X63759Y-54290D01*
X63789Y-54363D01*
X63835Y-54409D01*
X63789Y-54455D01*
X63759Y-54527D01*
X63759Y-54605D01*
X63789Y-54678D01*
X63845Y-54733D01*
X63917Y-54763D01*
X63995Y-54763D01*
X64043Y-54744D01*
X64104Y-54744D01*
X64124Y-54763D01*
X64093Y-54794D01*
X64075Y-54837D01*
X64075Y-54862D01*
X63661Y-54862D01*
X63593Y-54875D01*
X63583Y-54882D01*
X63323Y-54882D01*
X63280Y-54900D01*
X63246Y-54933D01*
X63228Y-54976D01*
X63228Y-55023D01*
X63228Y-55337D01*
X63246Y-55381D01*
X63279Y-55414D01*
X63323Y-55432D01*
X63370Y-55432D01*
X63684Y-55432D01*
X63727Y-55414D01*
X63761Y-55381D01*
X63779Y-55338D01*
X63779Y-55291D01*
X63779Y-55216D01*
X64200Y-55216D01*
X64268Y-55203D01*
X64268Y-55203D01*
X64326Y-55164D01*
X64336Y-55154D01*
X64412Y-55154D01*
X64455Y-55136D01*
X64488Y-55103D01*
X64506Y-55059D01*
X64506Y-55012D01*
X64506Y-56023D01*
X62795Y-56023D01*
X62795Y-53251D01*
X62834Y-53267D01*
X62874Y-53267D01*
X62903Y-53339D01*
X62959Y-53395D01*
X63031Y-53425D01*
X63109Y-53425D01*
X63182Y-53395D01*
X63237Y-53339D01*
X63267Y-53267D01*
X63267Y-53189D01*
X63237Y-53116D01*
X63191Y-53070D01*
X63237Y-53025D01*
X63267Y-52952D01*
X63267Y-52925D01*
X63356Y-53013D01*
X63356Y-54029D01*
X63339Y-54036D01*
X63306Y-54069D01*
X63288Y-54113D01*
X63288Y-54160D01*
X63288Y-54335D01*
X63306Y-54378D01*
X63336Y-54409D01*
X63191Y-54409D01*
X63191Y-54409D01*
X63237Y-54363D01*
X63267Y-54291D01*
X63267Y-54212D01*
X63237Y-54140D01*
X63182Y-54085D01*
X63110Y-54055D01*
X63031Y-54055D01*
X62959Y-54084D01*
X62904Y-54140D01*
X62874Y-54212D01*
X62873Y-54290D01*
X62903Y-54363D01*
X62949Y-54409D01*
X62904Y-54455D01*
X62874Y-54527D01*
X62873Y-54605D01*
X62903Y-54678D01*
X62959Y-54733D01*
X63031Y-54763D01*
X63109Y-54763D01*
X63182Y-54733D01*
X63191Y-54724D01*
X63296Y-54724D01*
X63306Y-54748D01*
X63339Y-54782D01*
X63382Y-54800D01*
X63429Y-54800D01*
X63624Y-54800D01*
X63668Y-54782D01*
X63701Y-54748D01*
X63719Y-54705D01*
X63719Y-54658D01*
X63719Y-54483D01*
X63701Y-54440D01*
X63670Y-54409D01*
X63701Y-54378D01*
X63719Y-54335D01*
X63719Y-54288D01*
X63719Y-54113D01*
X63701Y-54070D01*
X63668Y-54036D01*
X63651Y-54029D01*
X63651Y-52952D01*
X63651Y-52952D01*
X63640Y-52896D01*
X63640Y-52896D01*
X63608Y-52848D01*
X63608Y-52848D01*
X63411Y-52651D01*
X63363Y-52619D01*
X63307Y-52608D01*
X63267Y-52608D01*
X63267Y-52244D01*
X63237Y-52172D01*
X63182Y-52116D01*
X63110Y-52086D01*
X63031Y-52086D01*
X62959Y-52116D01*
X62904Y-52171D01*
X62874Y-52244D01*
X62873Y-52322D01*
X62903Y-52394D01*
X62959Y-52450D01*
X63031Y-52480D01*
X63109Y-52480D01*
X63182Y-52450D01*
X63237Y-52395D01*
X63267Y-52322D01*
X63267Y-52244D01*
X63267Y-52608D01*
X63004Y-52608D01*
X62985Y-52589D01*
X62913Y-52559D01*
X62835Y-52559D01*
X62795Y-52575D01*
X62795Y-51991D01*
X62834Y-52007D01*
X62913Y-52007D01*
X62985Y-51978D01*
X63040Y-51922D01*
X63070Y-51850D01*
X63109Y-51850D01*
X63182Y-51820D01*
X63237Y-51765D01*
X63267Y-51692D01*
X63267Y-51614D01*
X63237Y-51542D01*
X63191Y-51496D01*
X63237Y-51450D01*
X63267Y-51377D01*
X63267Y-51299D01*
X63237Y-51227D01*
X63191Y-51181D01*
X63237Y-51135D01*
X63267Y-51062D01*
X63267Y-50984D01*
X63237Y-50912D01*
X63191Y-50866D01*
X63237Y-50820D01*
X63267Y-50747D01*
X63267Y-50669D01*
X63237Y-50597D01*
X63191Y-50551D01*
X63237Y-50505D01*
X63267Y-50433D01*
X63267Y-50354D01*
X63237Y-50282D01*
X63191Y-50236D01*
X63237Y-50190D01*
X63267Y-50118D01*
X63267Y-50039D01*
X63237Y-49967D01*
X63191Y-49921D01*
X63237Y-49875D01*
X63267Y-49803D01*
X63267Y-49724D01*
X63237Y-49652D01*
X63182Y-49596D01*
X63110Y-49566D01*
X63031Y-49566D01*
X62959Y-49596D01*
X62904Y-49652D01*
X62874Y-49724D01*
X62835Y-49724D01*
X62795Y-49740D01*
X62795Y-48070D01*
X65118Y-48070D01*
X65118Y-47834D01*
X66653Y-47834D01*
X66653Y-48031D01*
X66653Y-48481D01*
X66644Y-48490D01*
X66614Y-48563D01*
X66614Y-48641D01*
X66644Y-48713D01*
X66653Y-48723D01*
X66653Y-48759D01*
X66594Y-48759D01*
X66522Y-48789D01*
X66467Y-48845D01*
X66437Y-48917D01*
X66436Y-48995D01*
X66466Y-49068D01*
X66522Y-49123D01*
X66594Y-49153D01*
X66653Y-49153D01*
X66653Y-50149D01*
X66537Y-50149D01*
X66494Y-50167D01*
X66460Y-50200D01*
X66442Y-50244D01*
X66442Y-50291D01*
X66442Y-50468D01*
X66460Y-50511D01*
X66493Y-50544D01*
X66537Y-50562D01*
X66541Y-50562D01*
X66541Y-50600D01*
X66503Y-50600D01*
X66503Y-50596D01*
X66485Y-50552D01*
X66451Y-50519D01*
X66408Y-50501D01*
X66397Y-50501D01*
X66397Y-49252D01*
X66367Y-49179D01*
X66312Y-49124D01*
X66240Y-49094D01*
X66161Y-49094D01*
X66089Y-49124D01*
X66034Y-49179D01*
X66003Y-49252D01*
X66003Y-49330D01*
X66033Y-49402D01*
X66089Y-49458D01*
X66161Y-49488D01*
X66239Y-49488D01*
X66312Y-49458D01*
X66367Y-49402D01*
X66397Y-49330D01*
X66397Y-49252D01*
X66397Y-50501D01*
X66361Y-50501D01*
X66314Y-50501D01*
X66292Y-50479D01*
X66241Y-50445D01*
X66184Y-50433D01*
X66174Y-50423D01*
X66102Y-50393D01*
X66024Y-50393D01*
X65951Y-50423D01*
X65896Y-50478D01*
X65866Y-50551D01*
X65866Y-50629D01*
X65896Y-50701D01*
X65902Y-50708D01*
X65896Y-50715D01*
X65866Y-50787D01*
X65866Y-50865D01*
X65896Y-50938D01*
X65902Y-50944D01*
X65896Y-50951D01*
X65866Y-51023D01*
X65866Y-51079D01*
X65826Y-51063D01*
X65748Y-51062D01*
X65676Y-51092D01*
X65620Y-51148D01*
X65590Y-51220D01*
X65590Y-51298D01*
X65620Y-51371D01*
X65675Y-51426D01*
X65748Y-51456D01*
X65826Y-51456D01*
X65866Y-51440D01*
X65866Y-51492D01*
X65826Y-51476D01*
X65748Y-51476D01*
X65676Y-51506D01*
X65620Y-51561D01*
X65590Y-51633D01*
X65590Y-51712D01*
X65620Y-51784D01*
X65675Y-51840D01*
X65724Y-51860D01*
X65676Y-51880D01*
X65620Y-51935D01*
X65590Y-52007D01*
X65590Y-52086D01*
X65620Y-52158D01*
X65675Y-52214D01*
X65748Y-52244D01*
X65748Y-52244D01*
X65676Y-52273D01*
X65620Y-52329D01*
X65590Y-52401D01*
X65590Y-52479D01*
X65620Y-52552D01*
X65675Y-52607D01*
X65748Y-52637D01*
X65748Y-52637D01*
X65676Y-52667D01*
X65620Y-52722D01*
X65590Y-52795D01*
X65590Y-52873D01*
X65620Y-52946D01*
X65675Y-53001D01*
X65748Y-53031D01*
X65826Y-53031D01*
X65866Y-53015D01*
X65866Y-53067D01*
X65826Y-53051D01*
X65748Y-53051D01*
X65676Y-53081D01*
X65620Y-53136D01*
X65590Y-53208D01*
X65590Y-53287D01*
X65620Y-53359D01*
X65675Y-53414D01*
X65748Y-53444D01*
X65826Y-53444D01*
X65866Y-53428D01*
X65866Y-53464D01*
X65896Y-53536D01*
X65951Y-53591D01*
X66023Y-53622D01*
X66101Y-53622D01*
X66157Y-53598D01*
X66184Y-53609D01*
X66231Y-53609D01*
X66302Y-53609D01*
X66258Y-53653D01*
X66230Y-53722D01*
X66230Y-53796D01*
X66258Y-53865D01*
X66311Y-53918D01*
X66379Y-53946D01*
X66421Y-53946D01*
X66417Y-53956D01*
X66417Y-54035D01*
X66447Y-54107D01*
X66502Y-54162D01*
X66574Y-54192D01*
X66653Y-54192D01*
X66653Y-54192D01*
X66653Y-54370D01*
X66653Y-54370D01*
X66575Y-54370D01*
X66502Y-54399D01*
X66447Y-54455D01*
X66417Y-54527D01*
X66417Y-54605D01*
X66447Y-54678D01*
X66502Y-54733D01*
X66574Y-54763D01*
X66653Y-54763D01*
X66653Y-54763D01*
X66653Y-55393D01*
X66653Y-55393D01*
X66575Y-55393D01*
X66502Y-55423D01*
X66447Y-55478D01*
X66417Y-55551D01*
X66417Y-55629D01*
X66447Y-55701D01*
X66502Y-55757D01*
X66574Y-55787D01*
X66653Y-55787D01*
X66653Y-55787D01*
X66653Y-56062D01*
X66653Y-56259D01*
M02*
