G04 (created by PCBNEW (2013-03-15 BZR 4003)-stable) date ne 24 bře 21:33:24 2013*
%MOIN*%
G04 Gerber Fmt 3.4, Leading zero omitted, Abs format*
%FSLAX34Y34*%
G01*
G70*
G90*
G04 APERTURE LIST*
%ADD10C,0.006*%
%ADD11C,0.00590551*%
G04 APERTURE END LIST*
G54D10*
G54D11*
X39370Y-6692D02*
X20472Y-6692D01*
X39370Y-34251D02*
X39370Y-6692D01*
X20472Y-34251D02*
X39370Y-34251D01*
X20472Y-6692D02*
X20472Y-34251D01*
M02*
