G04 #@! TF.FileFunction,Other,ECO2*
%FSLAX46Y46*%
G04 Gerber Fmt 4.6, Leading zero omitted, Abs format (unit mm)*
G04 Created by KiCad (PCBNEW 4.0.2-stable) date 6/15/2016 12:05:44 PM*
%MOMM*%
G01*
G04 APERTURE LIST*
%ADD10C,0.150000*%
%ADD11C,0.152400*%
G04 APERTURE END LIST*
D10*
D11*
X198915020Y-149860000D02*
X212885020Y-149860000D01*
X212885020Y-149860000D02*
X212885020Y-154559000D01*
X212885020Y-154559000D02*
X252610620Y-154559000D01*
X252610620Y-154559000D02*
X252610620Y-151155400D01*
X252610620Y-151155400D02*
X259265420Y-151155400D01*
X259265420Y-151155400D02*
X259265420Y-154559000D01*
X259265420Y-154559000D02*
X260129020Y-154559000D01*
X260129020Y-154559000D02*
X260129020Y-157353000D01*
X260129020Y-157353000D02*
X259265420Y-157353000D01*
X259265420Y-157353000D02*
X259265420Y-163449000D01*
X259265420Y-163449000D02*
X258224020Y-163449000D01*
X258224020Y-163449000D02*
X258224020Y-164617400D01*
X258224020Y-164617400D02*
X253652020Y-164617400D01*
X253652020Y-164617400D02*
X253652020Y-163449000D01*
X253652020Y-163449000D02*
X252610620Y-163449000D01*
X252610620Y-163449000D02*
X252610620Y-159131000D01*
X252610620Y-159131000D02*
X212885020Y-159131000D01*
X212885020Y-159131000D02*
X212885020Y-163830000D01*
X212885020Y-163830000D02*
X198915020Y-163830000D01*
X198915020Y-163830000D02*
X198915020Y-159131000D01*
X198915020Y-159131000D02*
X159189420Y-159131000D01*
X159189420Y-159131000D02*
X159189420Y-163449000D01*
X159189420Y-163449000D02*
X158148020Y-163449000D01*
X158148020Y-163449000D02*
X158148020Y-164617400D01*
X158148020Y-164617400D02*
X153576020Y-164617400D01*
X153576020Y-164617400D02*
X153576020Y-163449000D01*
X153576020Y-163449000D02*
X152534620Y-163449000D01*
X152534620Y-163449000D02*
X152534620Y-157353000D01*
X152534620Y-157353000D02*
X151671020Y-157353000D01*
X151671020Y-157353000D02*
X151671020Y-154559000D01*
X151671020Y-154559000D02*
X152534620Y-154559000D01*
X152534620Y-154559000D02*
X152534620Y-151155400D01*
X152534620Y-151155400D02*
X159189420Y-151155400D01*
X159189420Y-151155400D02*
X159189420Y-154559000D01*
X159189420Y-154559000D02*
X198915020Y-154559000D01*
X198915020Y-154559000D02*
X198915020Y-149860000D01*
X317977520Y-149860000D02*
X331947520Y-149860000D01*
X331947520Y-149860000D02*
X331947520Y-163830000D01*
X331947520Y-163830000D02*
X317977520Y-163830000D01*
X317977520Y-163830000D02*
X317977520Y-149860000D01*
X341790020Y-149860000D02*
X355760020Y-149860000D01*
X355760020Y-149860000D02*
X355760020Y-163830000D01*
X355760020Y-163830000D02*
X341790020Y-163830000D01*
X341790020Y-163830000D02*
X341790020Y-149860000D01*
X127477520Y-149860000D02*
X141447520Y-149860000D01*
X141447520Y-149860000D02*
X141447520Y-163830000D01*
X141447520Y-163830000D02*
X127477520Y-163830000D01*
X127477520Y-163830000D02*
X127477520Y-149860000D01*
X406400000Y-92710000D02*
X420370000Y-92710000D01*
X420370000Y-92710000D02*
X420370000Y-106680000D01*
X420370000Y-106680000D02*
X406400000Y-106680000D01*
X406400000Y-106680000D02*
X406400000Y-92710000D01*
X148907500Y-111760000D02*
X162877500Y-111760000D01*
X162877500Y-111760000D02*
X162877500Y-125730000D01*
X162877500Y-125730000D02*
X148907500Y-125730000D01*
X148907500Y-125730000D02*
X148907500Y-111760000D01*
X134620000Y-73660000D02*
X148590000Y-73660000D01*
X148590000Y-73660000D02*
X148590000Y-87630000D01*
X148590000Y-87630000D02*
X134620000Y-87630000D01*
X134620000Y-87630000D02*
X134620000Y-73660000D01*
X115570000Y-73660000D02*
X129540000Y-73660000D01*
X129540000Y-73660000D02*
X129540000Y-87630000D01*
X129540000Y-87630000D02*
X115570000Y-87630000D01*
X115570000Y-87630000D02*
X115570000Y-73660000D01*
X270352520Y-149860000D02*
X284322520Y-149860000D01*
X284322520Y-149860000D02*
X284322520Y-163830000D01*
X284322520Y-163830000D02*
X270352520Y-163830000D01*
X270352520Y-163830000D02*
X270352520Y-149860000D01*
X296545000Y-92710000D02*
X310515000Y-92710000D01*
X310515000Y-92710000D02*
X310515000Y-106680000D01*
X310515000Y-106680000D02*
X296545000Y-106680000D01*
X296545000Y-106680000D02*
X296545000Y-92710000D01*
X277495000Y-92710000D02*
X291465000Y-92710000D01*
X291465000Y-92710000D02*
X291465000Y-106680000D01*
X291465000Y-106680000D02*
X277495000Y-106680000D01*
X277495000Y-106680000D02*
X277495000Y-92710000D01*
X234632500Y-130810000D02*
X248602500Y-130810000D01*
X248602500Y-130810000D02*
X248602500Y-144780000D01*
X248602500Y-144780000D02*
X234632500Y-144780000D01*
X234632500Y-144780000D02*
X234632500Y-130810000D01*
X206057500Y-111760000D02*
X220027500Y-111760000D01*
X220027500Y-111760000D02*
X220027500Y-125730000D01*
X220027500Y-125730000D02*
X206057500Y-125730000D01*
X206057500Y-125730000D02*
X206057500Y-111760000D01*
X187007500Y-111760000D02*
X200977500Y-111760000D01*
X200977500Y-111760000D02*
X200977500Y-125730000D01*
X200977500Y-125730000D02*
X187007500Y-125730000D01*
X187007500Y-125730000D02*
X187007500Y-111760000D01*
X110807500Y-111760000D02*
X124777500Y-111760000D01*
X124777500Y-111760000D02*
X124777500Y-125730000D01*
X124777500Y-125730000D02*
X110807500Y-125730000D01*
X110807500Y-125730000D02*
X110807500Y-111760000D01*
X258445000Y-92710000D02*
X272415000Y-92710000D01*
X272415000Y-92710000D02*
X272415000Y-106680000D01*
X272415000Y-106680000D02*
X258445000Y-106680000D01*
X258445000Y-106680000D02*
X258445000Y-92710000D01*
X387350000Y-130810000D02*
X401320000Y-130810000D01*
X401320000Y-130810000D02*
X401320000Y-144780000D01*
X401320000Y-144780000D02*
X387350000Y-144780000D01*
X387350000Y-144780000D02*
X387350000Y-130810000D01*
X84615020Y-111760000D02*
X98585020Y-111760000D01*
X98585020Y-111760000D02*
X98585020Y-125730000D01*
X98585020Y-125730000D02*
X84615020Y-125730000D01*
X84615020Y-125730000D02*
X84615020Y-111760000D01*
X77470000Y-45720000D02*
X91440000Y-45720000D01*
X91440000Y-45720000D02*
X91440000Y-59690000D01*
X91440000Y-59690000D02*
X77470000Y-59690000D01*
X77470000Y-59690000D02*
X77470000Y-45720000D01*
X387350000Y-149860000D02*
X401320000Y-149860000D01*
X401320000Y-149860000D02*
X401320000Y-163830000D01*
X401320000Y-163830000D02*
X387350000Y-163830000D01*
X387350000Y-163830000D02*
X387350000Y-149860000D01*
X406400000Y-149860000D02*
X420370000Y-149860000D01*
X420370000Y-149860000D02*
X420370000Y-163830000D01*
X420370000Y-163830000D02*
X406400000Y-163830000D01*
X406400000Y-163830000D02*
X406400000Y-149860000D01*
X115570000Y-45720000D02*
X129540000Y-45720000D01*
X129540000Y-45720000D02*
X129540000Y-59690000D01*
X129540000Y-59690000D02*
X115570000Y-59690000D01*
X115570000Y-59690000D02*
X115570000Y-45720000D01*
X79852520Y-149860000D02*
X93822520Y-149860000D01*
X93822520Y-149860000D02*
X93822520Y-163830000D01*
X93822520Y-163830000D02*
X79852520Y-163830000D01*
X79852520Y-163830000D02*
X79852520Y-149860000D01*
X103665020Y-149860000D02*
X117635020Y-149860000D01*
X117635020Y-149860000D02*
X117635020Y-163830000D01*
X117635020Y-163830000D02*
X103665020Y-163830000D01*
X103665020Y-163830000D02*
X103665020Y-149860000D01*
X294165020Y-149860000D02*
X308135020Y-149860000D01*
X308135020Y-149860000D02*
X308135020Y-163830000D01*
X308135020Y-163830000D02*
X294165020Y-163830000D01*
X294165020Y-163830000D02*
X294165020Y-149860000D01*
X89377520Y-130810000D02*
X103347520Y-130810000D01*
X103347520Y-130810000D02*
X103347520Y-132918200D01*
X103347520Y-132918200D02*
X104973120Y-132918200D01*
X104973120Y-132918200D02*
X104973120Y-132105400D01*
X104973120Y-132105400D02*
X111627920Y-132105400D01*
X111627920Y-132105400D02*
X111627920Y-135509000D01*
X111627920Y-135509000D02*
X112491520Y-135509000D01*
X112491520Y-135509000D02*
X112491520Y-138303000D01*
X112491520Y-138303000D02*
X111627920Y-138303000D01*
X111627920Y-138303000D02*
X111627920Y-144399000D01*
X111627920Y-144399000D02*
X110586520Y-144399000D01*
X110586520Y-144399000D02*
X110586520Y-145567400D01*
X110586520Y-145567400D02*
X106014520Y-145567400D01*
X106014520Y-145567400D02*
X106014520Y-144399000D01*
X106014520Y-144399000D02*
X104973120Y-144399000D01*
X104973120Y-144399000D02*
X104973120Y-143611600D01*
X104973120Y-143611600D02*
X103347520Y-143611600D01*
X103347520Y-143611600D02*
X103347520Y-144780000D01*
X103347520Y-144780000D02*
X89377520Y-144780000D01*
X89377520Y-144780000D02*
X89377520Y-143611600D01*
X89377520Y-143611600D02*
X87751920Y-143611600D01*
X87751920Y-143611600D02*
X87751920Y-144399000D01*
X87751920Y-144399000D02*
X86710520Y-144399000D01*
X86710520Y-144399000D02*
X86710520Y-145567400D01*
X86710520Y-145567400D02*
X82138520Y-145567400D01*
X82138520Y-145567400D02*
X82138520Y-144399000D01*
X82138520Y-144399000D02*
X81097120Y-144399000D01*
X81097120Y-144399000D02*
X81097120Y-138303000D01*
X81097120Y-138303000D02*
X80233520Y-138303000D01*
X80233520Y-138303000D02*
X80233520Y-135509000D01*
X80233520Y-135509000D02*
X81097120Y-135509000D01*
X81097120Y-135509000D02*
X81097120Y-132105400D01*
X81097120Y-132105400D02*
X87751920Y-132105400D01*
X87751920Y-132105400D02*
X87751920Y-132918200D01*
X87751920Y-132918200D02*
X89377520Y-132918200D01*
X89377520Y-132918200D02*
X89377520Y-130810000D01*
X120332500Y-130810000D02*
X134302500Y-130810000D01*
X134302500Y-130810000D02*
X134302500Y-144780000D01*
X134302500Y-144780000D02*
X120332500Y-144780000D01*
X120332500Y-144780000D02*
X120332500Y-130810000D01*
X139382500Y-130810000D02*
X153352500Y-130810000D01*
X153352500Y-130810000D02*
X153352500Y-144780000D01*
X153352500Y-144780000D02*
X139382500Y-144780000D01*
X139382500Y-144780000D02*
X139382500Y-130810000D01*
X158432500Y-130810000D02*
X172402500Y-130810000D01*
X172402500Y-130810000D02*
X172402500Y-144780000D01*
X172402500Y-144780000D02*
X158432500Y-144780000D01*
X158432500Y-144780000D02*
X158432500Y-130810000D01*
X177482500Y-130810000D02*
X191452500Y-130810000D01*
X191452500Y-130810000D02*
X191452500Y-144780000D01*
X191452500Y-144780000D02*
X177482500Y-144780000D01*
X177482500Y-144780000D02*
X177482500Y-130810000D01*
X196532500Y-130810000D02*
X210502500Y-130810000D01*
X210502500Y-130810000D02*
X210502500Y-144780000D01*
X210502500Y-144780000D02*
X196532500Y-144780000D01*
X196532500Y-144780000D02*
X196532500Y-130810000D01*
X215582500Y-130810000D02*
X229552500Y-130810000D01*
X229552500Y-130810000D02*
X229552500Y-144780000D01*
X229552500Y-144780000D02*
X215582500Y-144780000D01*
X215582500Y-144780000D02*
X215582500Y-130810000D01*
X253682500Y-130810000D02*
X267652500Y-130810000D01*
X267652500Y-130810000D02*
X267652500Y-144780000D01*
X267652500Y-144780000D02*
X253682500Y-144780000D01*
X253682500Y-144780000D02*
X253682500Y-130810000D01*
X272732500Y-130810000D02*
X286702500Y-130810000D01*
X286702500Y-130810000D02*
X286702500Y-144780000D01*
X286702500Y-144780000D02*
X272732500Y-144780000D01*
X272732500Y-144780000D02*
X272732500Y-130810000D01*
X291782500Y-130810000D02*
X305752500Y-130810000D01*
X305752500Y-130810000D02*
X305752500Y-144780000D01*
X305752500Y-144780000D02*
X291782500Y-144780000D01*
X291782500Y-144780000D02*
X291782500Y-130810000D01*
X327502520Y-130810000D02*
X341472520Y-130810000D01*
X341472520Y-130810000D02*
X341472520Y-132918200D01*
X341472520Y-132918200D02*
X343098120Y-132918200D01*
X343098120Y-132918200D02*
X343098120Y-132105400D01*
X343098120Y-132105400D02*
X349752920Y-132105400D01*
X349752920Y-132105400D02*
X349752920Y-135509000D01*
X349752920Y-135509000D02*
X350616520Y-135509000D01*
X350616520Y-135509000D02*
X350616520Y-138303000D01*
X350616520Y-138303000D02*
X349752920Y-138303000D01*
X349752920Y-138303000D02*
X349752920Y-144399000D01*
X349752920Y-144399000D02*
X348711520Y-144399000D01*
X348711520Y-144399000D02*
X348711520Y-145567400D01*
X348711520Y-145567400D02*
X344139520Y-145567400D01*
X344139520Y-145567400D02*
X344139520Y-144399000D01*
X344139520Y-144399000D02*
X343098120Y-144399000D01*
X343098120Y-144399000D02*
X343098120Y-143611600D01*
X343098120Y-143611600D02*
X341472520Y-143611600D01*
X341472520Y-143611600D02*
X341472520Y-144780000D01*
X341472520Y-144780000D02*
X327502520Y-144780000D01*
X327502520Y-144780000D02*
X327502520Y-143611600D01*
X327502520Y-143611600D02*
X325876920Y-143611600D01*
X325876920Y-143611600D02*
X325876920Y-144399000D01*
X325876920Y-144399000D02*
X324835520Y-144399000D01*
X324835520Y-144399000D02*
X324835520Y-145567400D01*
X324835520Y-145567400D02*
X320263520Y-145567400D01*
X320263520Y-145567400D02*
X320263520Y-144399000D01*
X320263520Y-144399000D02*
X319222120Y-144399000D01*
X319222120Y-144399000D02*
X319222120Y-138303000D01*
X319222120Y-138303000D02*
X318358520Y-138303000D01*
X318358520Y-138303000D02*
X318358520Y-135509000D01*
X318358520Y-135509000D02*
X319222120Y-135509000D01*
X319222120Y-135509000D02*
X319222120Y-132105400D01*
X319222120Y-132105400D02*
X325876920Y-132105400D01*
X325876920Y-132105400D02*
X325876920Y-132918200D01*
X325876920Y-132918200D02*
X327502520Y-132918200D01*
X327502520Y-132918200D02*
X327502520Y-130810000D01*
X129857500Y-111760000D02*
X143827500Y-111760000D01*
X143827500Y-111760000D02*
X143827500Y-125730000D01*
X143827500Y-125730000D02*
X129857500Y-125730000D01*
X129857500Y-125730000D02*
X129857500Y-111760000D01*
X167957500Y-111760000D02*
X181927500Y-111760000D01*
X181927500Y-111760000D02*
X181927500Y-125730000D01*
X181927500Y-125730000D02*
X167957500Y-125730000D01*
X167957500Y-125730000D02*
X167957500Y-111760000D01*
X225107500Y-111760000D02*
X239077500Y-111760000D01*
X239077500Y-111760000D02*
X239077500Y-125730000D01*
X239077500Y-125730000D02*
X225107500Y-125730000D01*
X225107500Y-125730000D02*
X225107500Y-111760000D01*
X244157500Y-111760000D02*
X258127500Y-111760000D01*
X258127500Y-111760000D02*
X258127500Y-125730000D01*
X258127500Y-125730000D02*
X244157500Y-125730000D01*
X244157500Y-125730000D02*
X244157500Y-111760000D01*
X263207500Y-111760000D02*
X277177500Y-111760000D01*
X277177500Y-111760000D02*
X277177500Y-125730000D01*
X277177500Y-125730000D02*
X263207500Y-125730000D01*
X263207500Y-125730000D02*
X263207500Y-111760000D01*
X282257500Y-111760000D02*
X296227500Y-111760000D01*
X296227500Y-111760000D02*
X296227500Y-125730000D01*
X296227500Y-125730000D02*
X282257500Y-125730000D01*
X282257500Y-125730000D02*
X282257500Y-111760000D01*
X301307500Y-111760000D02*
X315277500Y-111760000D01*
X315277500Y-111760000D02*
X315277500Y-125730000D01*
X315277500Y-125730000D02*
X301307500Y-125730000D01*
X301307500Y-125730000D02*
X301307500Y-111760000D01*
X332265020Y-111760000D02*
X346235020Y-111760000D01*
X346235020Y-111760000D02*
X346235020Y-113868200D01*
X346235020Y-113868200D02*
X347860620Y-113868200D01*
X347860620Y-113868200D02*
X347860620Y-113055400D01*
X347860620Y-113055400D02*
X354515420Y-113055400D01*
X354515420Y-113055400D02*
X354515420Y-116459000D01*
X354515420Y-116459000D02*
X355379020Y-116459000D01*
X355379020Y-116459000D02*
X355379020Y-119253000D01*
X355379020Y-119253000D02*
X354515420Y-119253000D01*
X354515420Y-119253000D02*
X354515420Y-125349000D01*
X354515420Y-125349000D02*
X353474020Y-125349000D01*
X353474020Y-125349000D02*
X353474020Y-126517400D01*
X353474020Y-126517400D02*
X348902020Y-126517400D01*
X348902020Y-126517400D02*
X348902020Y-125349000D01*
X348902020Y-125349000D02*
X347860620Y-125349000D01*
X347860620Y-125349000D02*
X347860620Y-124561600D01*
X347860620Y-124561600D02*
X346235020Y-124561600D01*
X346235020Y-124561600D02*
X346235020Y-125730000D01*
X346235020Y-125730000D02*
X332265020Y-125730000D01*
X332265020Y-125730000D02*
X332265020Y-124561600D01*
X332265020Y-124561600D02*
X330639420Y-124561600D01*
X330639420Y-124561600D02*
X330639420Y-125349000D01*
X330639420Y-125349000D02*
X329598020Y-125349000D01*
X329598020Y-125349000D02*
X329598020Y-126517400D01*
X329598020Y-126517400D02*
X325026020Y-126517400D01*
X325026020Y-126517400D02*
X325026020Y-125349000D01*
X325026020Y-125349000D02*
X323984620Y-125349000D01*
X323984620Y-125349000D02*
X323984620Y-119253000D01*
X323984620Y-119253000D02*
X323121020Y-119253000D01*
X323121020Y-119253000D02*
X323121020Y-116459000D01*
X323121020Y-116459000D02*
X323984620Y-116459000D01*
X323984620Y-116459000D02*
X323984620Y-113055400D01*
X323984620Y-113055400D02*
X330639420Y-113055400D01*
X330639420Y-113055400D02*
X330639420Y-113868200D01*
X330639420Y-113868200D02*
X332265020Y-113868200D01*
X332265020Y-113868200D02*
X332265020Y-111760000D01*
X82232500Y-92710000D02*
X96202500Y-92710000D01*
X96202500Y-92710000D02*
X96202500Y-106680000D01*
X96202500Y-106680000D02*
X82232500Y-106680000D01*
X82232500Y-106680000D02*
X82232500Y-92710000D01*
X106045000Y-92710000D02*
X120015000Y-92710000D01*
X120015000Y-92710000D02*
X120015000Y-106680000D01*
X120015000Y-106680000D02*
X106045000Y-106680000D01*
X106045000Y-106680000D02*
X106045000Y-92710000D01*
X125095000Y-92710000D02*
X139065000Y-92710000D01*
X139065000Y-92710000D02*
X139065000Y-106680000D01*
X139065000Y-106680000D02*
X125095000Y-106680000D01*
X125095000Y-106680000D02*
X125095000Y-92710000D01*
X144145000Y-92710000D02*
X158115000Y-92710000D01*
X158115000Y-92710000D02*
X158115000Y-106680000D01*
X158115000Y-106680000D02*
X144145000Y-106680000D01*
X144145000Y-106680000D02*
X144145000Y-92710000D01*
X163195000Y-92710000D02*
X177165000Y-92710000D01*
X177165000Y-92710000D02*
X177165000Y-106680000D01*
X177165000Y-106680000D02*
X163195000Y-106680000D01*
X163195000Y-106680000D02*
X163195000Y-92710000D01*
X182245000Y-92710000D02*
X196215000Y-92710000D01*
X196215000Y-92710000D02*
X196215000Y-106680000D01*
X196215000Y-106680000D02*
X182245000Y-106680000D01*
X182245000Y-106680000D02*
X182245000Y-92710000D01*
X201295000Y-92710000D02*
X215265000Y-92710000D01*
X215265000Y-92710000D02*
X215265000Y-106680000D01*
X215265000Y-106680000D02*
X201295000Y-106680000D01*
X201295000Y-106680000D02*
X201295000Y-92710000D01*
X220345000Y-92710000D02*
X234315000Y-92710000D01*
X234315000Y-92710000D02*
X234315000Y-106680000D01*
X234315000Y-106680000D02*
X220345000Y-106680000D01*
X220345000Y-106680000D02*
X220345000Y-92710000D01*
X239395000Y-92710000D02*
X253365000Y-92710000D01*
X253365000Y-92710000D02*
X253365000Y-106680000D01*
X253365000Y-106680000D02*
X239395000Y-106680000D01*
X239395000Y-106680000D02*
X239395000Y-92710000D01*
X315595000Y-92710000D02*
X329565000Y-92710000D01*
X329565000Y-92710000D02*
X329565000Y-106680000D01*
X329565000Y-106680000D02*
X315595000Y-106680000D01*
X315595000Y-106680000D02*
X315595000Y-92710000D01*
X339407500Y-92710000D02*
X353377500Y-92710000D01*
X353377500Y-92710000D02*
X353377500Y-106680000D01*
X353377500Y-106680000D02*
X339407500Y-106680000D01*
X339407500Y-106680000D02*
X339407500Y-92710000D01*
X77470000Y-73660000D02*
X91440000Y-73660000D01*
X91440000Y-73660000D02*
X91440000Y-87630000D01*
X91440000Y-87630000D02*
X77470000Y-87630000D01*
X77470000Y-87630000D02*
X77470000Y-73660000D01*
X96520000Y-73660000D02*
X110490000Y-73660000D01*
X110490000Y-73660000D02*
X110490000Y-87630000D01*
X110490000Y-87630000D02*
X96520000Y-87630000D01*
X96520000Y-87630000D02*
X96520000Y-73660000D01*
X172720000Y-73660000D02*
X186690000Y-73660000D01*
X186690000Y-73660000D02*
X186690000Y-87630000D01*
X186690000Y-87630000D02*
X172720000Y-87630000D01*
X172720000Y-87630000D02*
X172720000Y-73660000D01*
X191770000Y-73660000D02*
X205740000Y-73660000D01*
X205740000Y-73660000D02*
X205740000Y-87630000D01*
X205740000Y-87630000D02*
X191770000Y-87630000D01*
X191770000Y-87630000D02*
X191770000Y-73660000D01*
X210820000Y-73660000D02*
X224790000Y-73660000D01*
X224790000Y-73660000D02*
X224790000Y-87630000D01*
X224790000Y-87630000D02*
X210820000Y-87630000D01*
X210820000Y-87630000D02*
X210820000Y-73660000D01*
X229870000Y-73660000D02*
X243840000Y-73660000D01*
X243840000Y-73660000D02*
X243840000Y-87630000D01*
X243840000Y-87630000D02*
X229870000Y-87630000D01*
X229870000Y-87630000D02*
X229870000Y-73660000D01*
X248920000Y-73660000D02*
X262890000Y-73660000D01*
X262890000Y-73660000D02*
X262890000Y-87630000D01*
X262890000Y-87630000D02*
X248920000Y-87630000D01*
X248920000Y-87630000D02*
X248920000Y-73660000D01*
X267970000Y-73660000D02*
X281940000Y-73660000D01*
X281940000Y-73660000D02*
X281940000Y-87630000D01*
X281940000Y-87630000D02*
X267970000Y-87630000D01*
X267970000Y-87630000D02*
X267970000Y-73660000D01*
X287020000Y-73660000D02*
X300990000Y-73660000D01*
X300990000Y-73660000D02*
X300990000Y-87630000D01*
X300990000Y-87630000D02*
X287020000Y-87630000D01*
X287020000Y-87630000D02*
X287020000Y-73660000D01*
X306070000Y-73660000D02*
X320040000Y-73660000D01*
X320040000Y-73660000D02*
X320040000Y-87630000D01*
X320040000Y-87630000D02*
X306070000Y-87630000D01*
X306070000Y-87630000D02*
X306070000Y-73660000D01*
X334645000Y-73660000D02*
X348615000Y-73660000D01*
X348615000Y-73660000D02*
X348615000Y-75768200D01*
X348615000Y-75768200D02*
X350240600Y-75768200D01*
X350240600Y-75768200D02*
X350240600Y-74955400D01*
X350240600Y-74955400D02*
X356895400Y-74955400D01*
X356895400Y-74955400D02*
X356895400Y-78359000D01*
X356895400Y-78359000D02*
X357759000Y-78359000D01*
X357759000Y-78359000D02*
X357759000Y-81153000D01*
X357759000Y-81153000D02*
X356895400Y-81153000D01*
X356895400Y-81153000D02*
X356895400Y-87249000D01*
X356895400Y-87249000D02*
X355854000Y-87249000D01*
X355854000Y-87249000D02*
X355854000Y-88417400D01*
X355854000Y-88417400D02*
X351282000Y-88417400D01*
X351282000Y-88417400D02*
X351282000Y-87249000D01*
X351282000Y-87249000D02*
X350240600Y-87249000D01*
X350240600Y-87249000D02*
X350240600Y-86461600D01*
X350240600Y-86461600D02*
X348615000Y-86461600D01*
X348615000Y-86461600D02*
X348615000Y-87630000D01*
X348615000Y-87630000D02*
X334645000Y-87630000D01*
X334645000Y-87630000D02*
X334645000Y-86461600D01*
X334645000Y-86461600D02*
X333019400Y-86461600D01*
X333019400Y-86461600D02*
X333019400Y-87249000D01*
X333019400Y-87249000D02*
X331978000Y-87249000D01*
X331978000Y-87249000D02*
X331978000Y-88417400D01*
X331978000Y-88417400D02*
X327406000Y-88417400D01*
X327406000Y-88417400D02*
X327406000Y-87249000D01*
X327406000Y-87249000D02*
X326364600Y-87249000D01*
X326364600Y-87249000D02*
X326364600Y-81153000D01*
X326364600Y-81153000D02*
X325501000Y-81153000D01*
X325501000Y-81153000D02*
X325501000Y-78359000D01*
X325501000Y-78359000D02*
X326364600Y-78359000D01*
X326364600Y-78359000D02*
X326364600Y-74955400D01*
X326364600Y-74955400D02*
X333019400Y-74955400D01*
X333019400Y-74955400D02*
X333019400Y-75768200D01*
X333019400Y-75768200D02*
X334645000Y-75768200D01*
X334645000Y-75768200D02*
X334645000Y-73660000D01*
X153670000Y-73660000D02*
X167640000Y-73660000D01*
X167640000Y-73660000D02*
X167640000Y-87630000D01*
X167640000Y-87630000D02*
X153670000Y-87630000D01*
X153670000Y-87630000D02*
X153670000Y-73660000D01*
X200660000Y-45720000D02*
X214630000Y-45720000D01*
X214630000Y-45720000D02*
X214630000Y-59690000D01*
X214630000Y-59690000D02*
X200660000Y-59690000D01*
X200660000Y-59690000D02*
X200660000Y-45720000D01*
X287020000Y-45720000D02*
X300990000Y-45720000D01*
X300990000Y-45720000D02*
X300990000Y-59690000D01*
X300990000Y-59690000D02*
X287020000Y-59690000D01*
X287020000Y-59690000D02*
X287020000Y-45720000D01*
X306070000Y-45720000D02*
X320040000Y-45720000D01*
X320040000Y-45720000D02*
X320040000Y-59690000D01*
X320040000Y-59690000D02*
X306070000Y-59690000D01*
X306070000Y-59690000D02*
X306070000Y-45720000D01*
X325120000Y-45720000D02*
X339090000Y-45720000D01*
X339090000Y-45720000D02*
X339090000Y-59690000D01*
X339090000Y-59690000D02*
X325120000Y-59690000D01*
X325120000Y-59690000D02*
X325120000Y-45720000D01*
X344170000Y-45720000D02*
X358140000Y-45720000D01*
X358140000Y-45720000D02*
X358140000Y-59690000D01*
X358140000Y-59690000D02*
X344170000Y-59690000D01*
X344170000Y-59690000D02*
X344170000Y-45720000D01*
X368300000Y-149860000D02*
X382270000Y-149860000D01*
X382270000Y-149860000D02*
X382270000Y-163830000D01*
X382270000Y-163830000D02*
X368300000Y-163830000D01*
X368300000Y-163830000D02*
X368300000Y-149860000D01*
X387350000Y-92710000D02*
X401320000Y-92710000D01*
X401320000Y-92710000D02*
X401320000Y-106680000D01*
X401320000Y-106680000D02*
X387350000Y-106680000D01*
X387350000Y-106680000D02*
X387350000Y-92710000D01*
X368300000Y-92710000D02*
X382270000Y-92710000D01*
X382270000Y-92710000D02*
X382270000Y-106680000D01*
X382270000Y-106680000D02*
X368300000Y-106680000D01*
X368300000Y-106680000D02*
X368300000Y-92710000D01*
X406400000Y-73660000D02*
X420370000Y-73660000D01*
X420370000Y-73660000D02*
X420370000Y-87630000D01*
X420370000Y-87630000D02*
X406400000Y-87630000D01*
X406400000Y-87630000D02*
X406400000Y-73660000D01*
X387350000Y-73660000D02*
X401320000Y-73660000D01*
X401320000Y-73660000D02*
X401320000Y-87630000D01*
X401320000Y-87630000D02*
X387350000Y-87630000D01*
X387350000Y-87630000D02*
X387350000Y-73660000D01*
X368300000Y-73660000D02*
X382270000Y-73660000D01*
X382270000Y-73660000D02*
X382270000Y-87630000D01*
X382270000Y-87630000D02*
X368300000Y-87630000D01*
X368300000Y-87630000D02*
X368300000Y-73660000D01*
X368300000Y-45720000D02*
X382270000Y-45720000D01*
X382270000Y-45720000D02*
X382270000Y-59690000D01*
X382270000Y-59690000D02*
X368300000Y-59690000D01*
X368300000Y-59690000D02*
X368300000Y-45720000D01*
X387350000Y-45720000D02*
X401320000Y-45720000D01*
X401320000Y-45720000D02*
X401320000Y-59690000D01*
X401320000Y-59690000D02*
X387350000Y-59690000D01*
X387350000Y-59690000D02*
X387350000Y-45720000D01*
X406400000Y-45720000D02*
X420370000Y-45720000D01*
X420370000Y-45720000D02*
X420370000Y-59690000D01*
X420370000Y-59690000D02*
X406400000Y-59690000D01*
X406400000Y-59690000D02*
X406400000Y-45720000D01*
X134620000Y-45720000D02*
X148590000Y-45720000D01*
X148590000Y-45720000D02*
X148590000Y-59690000D01*
X148590000Y-59690000D02*
X134620000Y-59690000D01*
X134620000Y-59690000D02*
X134620000Y-45720000D01*
X153670000Y-45720000D02*
X167640000Y-45720000D01*
X167640000Y-45720000D02*
X167640000Y-59690000D01*
X167640000Y-59690000D02*
X153670000Y-59690000D01*
X153670000Y-59690000D02*
X153670000Y-45720000D01*
X172720000Y-45720000D02*
X186690000Y-45720000D01*
X186690000Y-45720000D02*
X186690000Y-59690000D01*
X186690000Y-59690000D02*
X172720000Y-59690000D01*
X172720000Y-59690000D02*
X172720000Y-45720000D01*
X219710000Y-45720000D02*
X233680000Y-45720000D01*
X233680000Y-45720000D02*
X233680000Y-59690000D01*
X233680000Y-59690000D02*
X219710000Y-59690000D01*
X219710000Y-59690000D02*
X219710000Y-45720000D01*
X238760000Y-45720000D02*
X252730000Y-45720000D01*
X252730000Y-45720000D02*
X252730000Y-59690000D01*
X252730000Y-59690000D02*
X238760000Y-59690000D01*
X238760000Y-59690000D02*
X238760000Y-45720000D01*
X257810000Y-45720000D02*
X271780000Y-45720000D01*
X271780000Y-45720000D02*
X271780000Y-59690000D01*
X271780000Y-59690000D02*
X257810000Y-59690000D01*
X257810000Y-59690000D02*
X257810000Y-45720000D01*
M02*
