G04 DipTrace 2.4.0.2*
%IN3dBBLE.gtl*%
%MOMM*%
%ADD10C,0.25*%
%ADD13C,0.203*%
%ADD14C,0.381*%
%ADD15C,0.457*%
%ADD16C,0.305*%
%ADD17C,0.334*%
%ADD18C,0.127*%
%ADD19C,0.152*%
%ADD20C,0.178*%
%ADD23R,0.7X0.9*%
%ADD24R,0.9X0.7*%
%ADD25R,0.3X0.25*%
%ADD27R,0.85X0.65*%
%ADD28R,0.9X0.75*%
%ADD29R,1.7X1.6*%
%ADD31R,1.7X2.032*%
%ADD33R,1.6X1.7*%
%ADD34R,2.0X1.7*%
%ADD35R,1.7X2.0*%
%ADD36R,2.032X1.7*%
%ADD37R,0.75X0.9*%
%ADD38R,0.62X0.49*%
%ADD39R,0.56X0.57*%
%ADD40R,3.13X0.75*%
%ADD41R,1.0X2.4*%
%ADD44O,0.65X0.2*%
%ADD45O,0.2X0.65*%
%ADD46R,4.7X4.7*%
%ADD47C,0.711*%
%ADD51R,1.2X1.1*%
%ADD52R,0.762X1.397*%
%ADD53R,1.143X0.762*%
%FSLAX53Y53*%
G04*
G71*
G90*
G75*
G01*
%LNTop*%
%LPD*%
X22945Y18795D2*
D13*
Y18395D1*
X14206Y17338D2*
D14*
X14609D1*
X14697Y17250D1*
X22649Y18597D2*
X22945D1*
Y18795D1*
D13*
X23013D1*
X23611Y19393D1*
X14697Y17250D2*
X14294D1*
X14206Y17338D1*
X14024D1*
X13624Y17738D1*
X18920Y19620D2*
X18858D1*
Y20142D1*
X18156Y20844D1*
X17707D1*
X16854Y21697D1*
Y22771D1*
X16516D1*
D16*
X16429D1*
Y23874D1*
X16572Y24017D1*
X14196Y21574D2*
Y21809D1*
X15554D1*
X15455Y21710D1*
D13*
Y21508D1*
X15618Y21671D1*
X15770D1*
Y21374D1*
X16704D1*
X17566Y20513D1*
X18012D1*
X18499Y20026D1*
Y19641D1*
X18520Y19620D1*
X27716Y21710D2*
D17*
G03X26320Y20402I1530J-3034D01*
G01*
X25896Y19574D1*
G03X25152Y17426I6653J-3507D01*
G01*
D10*
X25091Y17407D1*
X22945Y16795D2*
D13*
X23854D1*
X24091Y16557D1*
X22945Y17195D2*
X23879D1*
X24091Y17407D1*
X29770Y22040D2*
X29410D1*
Y22577D1*
X29252D1*
X28470Y23359D1*
Y24889D1*
X28266Y21710D2*
D10*
X28793Y21737D1*
X28542D1*
X28266Y21710D2*
X28705D1*
D17*
X29439D1*
X29770Y22040D1*
X20120Y19620D2*
D18*
Y20023D1*
X20119Y20024D1*
Y20064D1*
X19496Y24121D2*
X19208D1*
X18914Y24415D1*
X16895Y18395D2*
D13*
X16599D1*
X16332Y18662D1*
Y19027D1*
X16059D1*
X14659D2*
Y18838D1*
X14697Y18801D1*
Y18110D1*
X21320Y19620D2*
X21385D1*
Y21049D1*
X21142Y21291D1*
X19743D1*
Y21430D1*
X22945Y15995D2*
D19*
X23388D1*
G03X23902Y15736I648J646D01*
G01*
X24403Y15559D1*
X24467Y15335D1*
X19720Y19620D2*
D20*
X19644D1*
Y20012D1*
X19663Y19992D1*
Y20529D1*
X19762D1*
X18046Y24121D2*
D13*
X18454D1*
X18709Y23866D1*
X19720Y13570D2*
X19496D1*
X19320D1*
X22945Y17595D2*
Y17801D1*
Y17995D1*
X20956Y23680D2*
D14*
X22117D1*
X22134Y23662D1*
X24960Y22246D2*
X23835Y22262D1*
X29502Y19014D2*
X29430D1*
X29109Y19336D1*
X24591Y17407D2*
D10*
Y17796D1*
D14*
X24588Y17800D1*
X25091Y16557D2*
D10*
X25274D1*
D14*
X25352Y16635D1*
X25205Y25708D2*
Y25208D1*
X26244Y24168D1*
X10000Y13810D2*
X11270D1*
X15523Y15070D2*
Y14928D1*
D13*
X14746Y15705D1*
X13596D1*
X12957Y15065D1*
D14*
X12194D1*
X11270Y14141D1*
Y13810D1*
X17908Y21790D2*
X18120Y21579D1*
X18295D1*
X18443Y21430D1*
X16895Y14795D2*
D13*
X16600D1*
X16446Y14641D1*
X15968D1*
X15645Y14964D1*
Y15188D1*
X15526Y15070D1*
X15523D1*
X22945Y17801D2*
X23357D1*
X23506Y17950D1*
X24437D1*
X24588Y17800D1*
X26426Y15222D2*
D14*
Y13306D1*
X26929Y12803D1*
X27506D1*
X15386Y24820D2*
Y25148D1*
X17340D1*
X17665Y25474D1*
Y26046D1*
X20956Y23680D2*
X21115Y23839D1*
X21402D1*
X24960Y22246D2*
Y22108D1*
X24544Y21691D1*
X17856Y12733D2*
X17674D1*
X17250Y13156D1*
X26426Y15222D2*
Y15523D1*
X26692Y15789D1*
Y17154D1*
Y17909D1*
X26745Y17962D1*
X17665Y26046D2*
Y25161D1*
X20160D1*
X20020Y25022D1*
X26717Y17154D2*
X26692D1*
X12281Y12524D2*
Y13065D1*
X12784Y13568D1*
X12463Y25513D2*
Y24489D1*
X12784Y24168D1*
X13850Y24993D2*
X15213D1*
X15386Y24820D1*
X25205Y25708D2*
Y25019D1*
X25178Y24993D1*
X13850Y12743D2*
X12500D1*
X12281Y12524D1*
X25178Y12743D2*
X25419D1*
X26244Y13568D1*
Y13306D1*
X26426D1*
X26244Y24168D2*
Y24375D1*
X25205Y25415D1*
Y25708D1*
X27330Y23846D2*
Y22745D1*
X26930Y22345D1*
X26745D1*
X26526Y22126D1*
X26244Y24168D2*
Y24323D1*
X25205Y25363D1*
Y25708D1*
X20020Y25022D2*
Y25264D1*
X20174Y25418D1*
Y26031D1*
X26244Y24168D2*
Y24668D1*
X25205Y25708D1*
X20174Y26031D2*
Y25154D1*
X22709D1*
Y25980D1*
Y25154D2*
X24999D1*
X25205Y25360D1*
X27778Y12398D2*
X27506D1*
Y12803D1*
Y12670D1*
X27778Y12398D1*
X24467Y14035D2*
X25213D1*
X25329Y14151D1*
X25662D1*
X26244Y13568D1*
X25178Y24993D2*
X25419D1*
X26244Y24168D1*
Y24058D1*
X26505Y23797D1*
X23611Y20693D2*
X24085D1*
X24644D1*
X24645Y20692D1*
X24117Y20717D2*
X24085Y20693D1*
X25234Y12216D2*
D13*
Y12688D1*
X25178Y12743D1*
X22945Y14395D2*
X22117D1*
X18007Y18505D1*
X12996Y20731D2*
D14*
X13533Y20194D1*
X14098D1*
Y19948D1*
X13624Y19474D1*
Y19038D1*
X12996Y20731D2*
Y19666D1*
X13624Y19038D1*
X18161Y22349D2*
Y22043D1*
X17908Y21790D1*
X14098Y20194D2*
Y20046D1*
X13730Y19677D1*
X15272Y24017D2*
Y23890D1*
X14771Y23390D1*
X14712D1*
X14196Y22874D1*
X15386Y24820D2*
X13156D1*
X12463Y25513D1*
X12784Y24168D2*
Y20942D1*
X12996Y20731D1*
X16895Y14795D2*
D13*
X17411D1*
D14*
X18120D1*
X19920Y16595D1*
X17720Y13570D2*
D13*
Y14085D1*
D14*
Y14395D1*
X19920Y16595D1*
X19496Y13570D2*
Y16171D1*
X19920Y16595D1*
X20520Y13570D2*
D13*
Y14085D1*
D14*
Y15995D1*
X19920Y16595D1*
X18120Y13570D2*
D13*
Y14085D1*
D14*
Y14795D1*
X19496Y23271D2*
D13*
Y22385D1*
X19461Y22349D1*
X29770Y23980D2*
X31710D1*
Y22040D1*
X16895Y17595D2*
Y17538D1*
X16168D1*
X15887Y17819D1*
Y17828D1*
X15687D1*
X16350Y26510D2*
Y27780D1*
X16895Y17195D2*
D18*
X15792D1*
Y17236D1*
X13810Y26510D2*
Y27780D1*
X16895Y16795D2*
X16650D1*
X16687Y16757D1*
X15593D1*
X15555Y16795D1*
X12920D1*
X12794Y16921D1*
Y18964D1*
X12537Y19220D1*
Y20070D1*
X12264Y20344D1*
Y22661D1*
X12003Y22922D1*
Y23237D1*
X11270Y23970D1*
X10000D2*
X11270D1*
X16895Y16395D2*
X16566D1*
X16545Y16416D1*
X15462D1*
X15356Y16521D1*
X12735D1*
X12529Y16728D1*
Y18753D1*
X12270Y19011D1*
Y19864D1*
X11964Y20171D1*
Y21430D1*
X11270D1*
X10000D2*
X11270D1*
X16895Y15995D2*
X16301D1*
X16212Y16084D1*
X15311D1*
X15131Y16265D1*
X12578D1*
X12270Y16572D1*
Y18535D1*
X11915Y18890D1*
X11270D1*
X10000D2*
X11270D1*
X10000Y16350D2*
X11270D1*
X16895Y15595D2*
X16152D1*
X15994Y15753D1*
X15171D1*
X14922Y16001D1*
X10921D1*
X11270Y16350D1*
X16895Y15195D2*
D13*
X16244D1*
Y15119D1*
X16350Y10000D2*
Y11270D1*
X18520Y13570D2*
X18589D1*
Y13137D1*
X18912Y12814D1*
Y11292D1*
X18890Y11270D1*
X18920Y13570D2*
Y13280D1*
X19351Y12849D1*
Y12571D1*
X19612Y12310D1*
X20390D1*
X21430Y11270D1*
X20120Y13570D2*
Y13189D1*
X19820Y12890D1*
X20920Y13570D2*
Y13279D1*
X20529Y12888D1*
X20487D1*
X21320Y13570D2*
Y13032D1*
X21757Y12595D1*
X22104D1*
X23429Y11270D1*
X23970D1*
X32860Y13810D2*
X31590D1*
X22945Y14795D2*
D18*
X22977Y14712D1*
X23282Y14682D1*
G02X23550Y14168I-329J-498D01*
G01*
X23581Y13876D1*
Y14123D1*
X32860Y16350D2*
D13*
X31590D1*
X22945Y15195D2*
D19*
X23193D1*
D18*
X23594Y14794D1*
X23725D1*
D19*
X23772D1*
Y14795D1*
X27103Y14601D2*
D13*
X26986Y14484D1*
Y13591D1*
X27158Y13419D1*
X28587D1*
X30457Y15289D1*
Y17757D1*
X31590Y18890D1*
X32860D2*
X31590D1*
X22945Y15595D2*
D19*
X23312D1*
X23423Y15484D1*
X23498D1*
D13*
X23622Y15361D1*
X29050Y26510D2*
D18*
Y27780D1*
X20920Y19620D2*
X20986D1*
Y20034D1*
X21035Y20083D1*
Y20831D1*
X20921D1*
X26510Y26510D2*
Y27780D1*
X20520Y19620D2*
X20599D1*
Y20340D1*
X20440Y20499D1*
Y20532D1*
X20338Y20634D1*
X18120Y19620D2*
D13*
X18094D1*
Y19955D1*
X17872Y20177D1*
X17361D1*
X17312Y20127D1*
X23970Y26510D2*
Y27780D1*
X17720Y19620D2*
D18*
X17460Y19558D1*
X21430Y26510D2*
Y27780D1*
X18890Y26510D2*
Y27780D1*
X16895Y17995D2*
X16353Y18004D1*
X19320Y19620D2*
Y19885D1*
X19240Y19965D1*
Y20685D1*
X19190Y20736D1*
X18046Y23271D2*
X18452D1*
X18629Y23094D1*
X22120Y13570D2*
D13*
Y13645D1*
X22375Y13900D1*
X28232Y17744D2*
X28107D1*
X27322Y16959D1*
Y16109D1*
X27252D1*
X24362Y18820D2*
Y19110D1*
X24645Y19392D1*
X21720Y13570D2*
Y13274D1*
X21978Y13015D1*
X22499D1*
X22982Y13499D1*
Y13933D1*
X28232Y16474D2*
X28105D1*
X27773Y16142D1*
Y14726D1*
X27728Y14680D1*
X29502Y17744D2*
Y17966D1*
X29704Y18168D1*
X27728Y14680D2*
X28058Y14350D1*
X29034D1*
X30124Y15441D1*
Y17476D1*
X29704Y17896D1*
Y18168D1*
X27506Y13963D2*
X27728D1*
Y14680D1*
X14197Y15095D2*
D14*
X14069Y14967D1*
Y14590D1*
X29502Y16474D2*
Y16053D1*
X29569Y15986D1*
X17199Y19024D2*
X17137D1*
D13*
X16895Y18782D1*
Y18795D1*
X15024Y13793D2*
D14*
X15047Y13770D1*
X15523D1*
X16895Y14395D2*
D13*
Y14215D1*
D14*
X16354Y13674D1*
X14218D1*
D13*
X14197Y13695D1*
X15024Y13793D2*
D14*
X14705D1*
X14634Y13722D1*
X14223D1*
X14197Y13695D1*
X15398Y20194D2*
X16464D1*
X16543Y20114D1*
X22945Y16395D2*
D13*
X23669D1*
G03X23994Y16042I306J-45D01*
G01*
X24587Y16064D1*
X24613D1*
X24591Y16557D1*
X24587Y16064D2*
Y16110D1*
X24816D1*
X25227Y15698D1*
Y15451D1*
X25329D1*
X24960Y23546D2*
X23951D1*
X23835Y23662D1*
X22120Y19620D2*
Y19789D1*
X22579Y20248D1*
Y21221D1*
X22989Y21631D1*
Y23411D1*
X23240Y23662D1*
X23835D1*
X20956Y22380D2*
X22017D1*
X22134Y22262D1*
X21720Y19620D2*
X21788D1*
Y19981D1*
X22230Y20422D1*
Y22262D1*
X22134D1*
D15*
X13704Y22536D3*
X17241Y23188D3*
X18629Y23094D3*
X18709Y23866D3*
X18914Y24415D3*
X20174Y26031D3*
X23622Y15361D3*
X23772Y14795D3*
X23581Y14123D3*
X22375Y13900D3*
X22982Y13933D3*
X20487Y12888D3*
X12281Y12524D3*
X26426Y15222D3*
X25205Y25708D3*
X16244Y15119D3*
X14069Y14590D3*
X17199Y19024D3*
X15687Y17828D3*
X15792Y17236D3*
X14206Y17338D3*
X22649Y18597D3*
X24362Y18820D3*
X27252Y16109D3*
X27728Y14680D3*
X29704Y18168D3*
X27103Y14601D3*
X29569Y15986D3*
X29109Y19336D3*
X15024Y13793D3*
X19190Y20736D3*
X19762Y20529D3*
X25352Y16635D3*
X20921Y20831D3*
X20338Y20634D3*
X20119Y20064D3*
X24588Y17800D3*
X27330Y23846D3*
X22709Y25980D3*
X17908Y21790D3*
X27203Y19017D3*
X19820Y12890D3*
X26792Y19558D3*
X30687Y20696D3*
X26526Y22126D3*
X25412Y19889D3*
X31962Y20398D3*
X28454Y21151D3*
X28763Y20178D3*
X31027Y25464D3*
X17250Y13156D3*
X12463Y25513D3*
X15386Y24820D3*
X17665Y26046D3*
X22760Y12595D3*
X24544Y21691D3*
X21402Y23839D3*
X26717Y17154D3*
X27778Y12398D3*
X27612Y22511D3*
X26505Y23797D3*
X24117Y20717D3*
X11636Y22638D3*
X11679Y17664D3*
X17638Y11674D3*
X20144D3*
X25234Y12216D3*
X16353Y18004D3*
X17460Y19558D3*
X17312Y20127D3*
X16543Y20114D3*
X13730Y19677D3*
X14771Y23390D3*
X30423Y26161D2*
D18*
X30562D1*
X30423Y26037D2*
X30687D1*
X30423Y25913D2*
X30814D1*
X30423Y25790D2*
X30941D1*
X30423Y25666D2*
X31066D1*
X30423Y25542D2*
X31193D1*
X30423Y25419D2*
X31320D1*
X30423Y25295D2*
X31445D1*
X30423Y25171D2*
X31572D1*
X30423Y25048D2*
X31699D1*
X30641Y24924D2*
X30838D1*
X27020Y24182D2*
X27788D1*
X27020Y24058D2*
X27788D1*
X27020Y23935D2*
X27788D1*
X27018Y23811D2*
X27788D1*
X27018Y23687D2*
X27788D1*
X27018Y23564D2*
X27788D1*
X27016Y23440D2*
X27788D1*
X27016Y23316D2*
X27788D1*
X27016Y23193D2*
X27788D1*
X27014Y23069D2*
X27800D1*
X27014Y22945D2*
X27907D1*
X26982Y22822D2*
X28046D1*
X26149Y22698D2*
X28183D1*
X26149Y22574D2*
X28324D1*
X26149Y22451D2*
X28792D1*
X26149Y22327D2*
X28792D1*
X26149Y22203D2*
X28792D1*
X26149Y22080D2*
X28792D1*
X26149Y21956D2*
X27405D1*
X26149Y21832D2*
X27193D1*
X26149Y21709D2*
X27020D1*
X26149Y21585D2*
X26854D1*
X26145Y21461D2*
X26715D1*
X26079Y21338D2*
X26584D1*
X27810D2*
X28792D1*
X26012Y21214D2*
X26463D1*
X27595D2*
X28800D1*
X25946Y21090D2*
X26359D1*
X27429D2*
X28911D1*
X30627D2*
X30852D1*
X25879Y20967D2*
X26254D1*
X27272D2*
X32140D1*
X25811Y20843D2*
X26167D1*
X27141D2*
X27469D1*
X28232D2*
X29501D1*
X30264D2*
X32140D1*
X25712Y20719D2*
X26084D1*
X27020D2*
X27328D1*
X28373D2*
X29360D1*
X30405D2*
X32140D1*
X25613Y20596D2*
X26000D1*
X26915D2*
X27244D1*
X28457D2*
X29276D1*
X30489D2*
X32140D1*
X25514Y20472D2*
X25937D1*
X26815D2*
X27195D1*
X28506D2*
X29227D1*
X30538D2*
X32140D1*
X25415Y20348D2*
X25873D1*
X26732D2*
X27171D1*
X28530D2*
X29203D1*
X30562D2*
X32140D1*
X25317Y20225D2*
X25810D1*
X26651D2*
X27171D1*
X28532D2*
X29203D1*
X30564D2*
X32140D1*
X25218Y20101D2*
X25746D1*
X26585D2*
X27193D1*
X28508D2*
X29225D1*
X30540D2*
X32140D1*
X25149Y19977D2*
X25683D1*
X26522D2*
X27243D1*
X28461D2*
X29275D1*
X30493D2*
X32140D1*
X25202Y19854D2*
X25619D1*
X26458D2*
X27324D1*
X28377D2*
X29356D1*
X30409D2*
X30582D1*
X25202Y19730D2*
X25556D1*
X26395D2*
X27461D1*
X28240D2*
X28772D1*
X29213D2*
X29493D1*
X30272D2*
X30582D1*
X25202Y19606D2*
X25494D1*
X26331D2*
X28594D1*
X29397D2*
X30582D1*
X25202Y19483D2*
X25435D1*
X26268D2*
X27866D1*
X29584D2*
X30582D1*
X25202Y19359D2*
X25375D1*
X26206D2*
X27745D1*
X29768D2*
X30582D1*
X25202Y19235D2*
X25320D1*
X26145D2*
X27675D1*
X29832D2*
X30582D1*
X25202Y19112D2*
X25268D1*
X26085D2*
X27639D1*
X29877D2*
X30582D1*
X26028Y18988D2*
X27631D1*
X29923D2*
X30582D1*
X25976Y18864D2*
X27524D1*
X24791Y18741D2*
X25123D1*
X25924D2*
X26189D1*
X24748Y18617D2*
X25080D1*
X25873D2*
X26189D1*
X24645Y18493D2*
X25038D1*
X25829D2*
X26189D1*
X24006Y18370D2*
X24998D1*
X25788D2*
X26189D1*
X23914Y18246D2*
X24962D1*
X25744D2*
X26189D1*
X23825Y18122D2*
X24929D1*
X25706D2*
X26189D1*
X23734Y17999D2*
X24895D1*
X25672D2*
X26189D1*
X23644Y17875D2*
X23923D1*
X24262D2*
X24865D1*
X25637D2*
X26189D1*
X23553Y17751D2*
X23772D1*
X24412D2*
X24772D1*
X25605D2*
X26189D1*
X23464Y17628D2*
X23758D1*
X24424D2*
X24758D1*
X25579D2*
X26189D1*
X23373Y17504D2*
X23756D1*
X24424D2*
X24758D1*
X25551D2*
X26189D1*
X24424Y17380D2*
X24758D1*
X25526D2*
X26189D1*
X24424Y17257D2*
X24758D1*
X25484D2*
X26189D1*
X24424Y17133D2*
X24758D1*
X25424D2*
X26125D1*
X25381Y17009D2*
X26040D1*
X24916Y16886D2*
X25955D1*
X24924Y16762D2*
X25869D1*
X24924Y16638D2*
X25784D1*
X24924Y16515D2*
X25699D1*
X30476Y21075D2*
X29000D1*
X28937Y21085D1*
X28881Y21114D1*
X28838Y21160D1*
X28811Y21218D1*
X28804Y21270D1*
Y21347D1*
X28705D1*
X28641Y21352D1*
X28580Y21369D1*
X28535Y21390D1*
X28488Y21389D1*
X28444Y21371D1*
X28391Y21364D1*
X28141D1*
X28079Y21374D1*
X28014Y21412D1*
X27991Y21433D1*
X27943Y21392D1*
X27880Y21368D1*
X27843Y21364D1*
X27577Y21210D1*
X27299Y21003D1*
X27046Y20766D1*
X26823Y20502D1*
X26630Y20214D1*
X26193Y19358D1*
X26006Y18966D1*
X25842Y18564D1*
X25703Y18153D1*
X25589Y17734D1*
X25506Y17350D1*
X25487Y17289D1*
X25458Y17233D1*
X25413Y17175D1*
X25412Y17132D1*
X25402Y17070D1*
X25372Y17014D1*
X25326Y16970D1*
X25269Y16944D1*
X25216Y16937D1*
X24966D1*
X24904Y16947D1*
X24848Y16976D1*
X24805Y17022D1*
X24778Y17080D1*
X24771Y17132D1*
Y17682D1*
X24781Y17745D1*
X24811Y17800D1*
X24867Y17850D1*
X24877Y17875D1*
X24915Y18031D1*
X25028Y18430D1*
X25180Y18867D1*
X25176Y18870D1*
X25144Y18816D1*
X25096Y18775D1*
X25037Y18751D1*
X24931Y18747D1*
X24778D1*
X24768Y18695D1*
X24744Y18636D1*
X24713Y18581D1*
X24673Y18531D1*
X24627Y18488D1*
X24574Y18452D1*
X24517Y18425D1*
X24456Y18406D1*
X24394Y18397D1*
X24330D1*
X24267Y18406D1*
X24207Y18425D1*
X24150Y18453D1*
X24087Y18498D1*
X23352Y17492D1*
X23757D1*
X23771Y17507D1*
Y17682D1*
X23781Y17745D1*
X23811Y17800D1*
X23857Y17844D1*
X23914Y17871D1*
X23966Y17878D1*
X24216D1*
X24279Y17868D1*
X24335Y17838D1*
X24378Y17792D1*
X24405Y17735D1*
X24412Y17682D1*
Y17132D1*
X24402Y17070D1*
X24364Y17005D1*
X24365Y17000D1*
X24424Y17023D1*
X24530Y17028D1*
X24716D1*
X24779Y17018D1*
X24835Y16988D1*
X24878Y16942D1*
X24905Y16885D1*
X24912Y16832D1*
Y16485D1*
X25482Y16491D1*
X25699Y16493D1*
X25931Y16832D1*
X26203Y17227D1*
X26202Y18759D1*
X26233Y18813D1*
X26266Y18823D1*
X27477D1*
X27648Y18942D1*
X27643Y19031D1*
X27655Y19133D1*
X27685Y19231D1*
X27731Y19323D1*
X27792Y19405D1*
X27867Y19475D1*
X27952Y19532D1*
X28047Y19572D1*
X28147Y19596D1*
X28249Y19602D1*
X28351Y19590D1*
X28449Y19561D1*
X28504Y19535D1*
X28796Y19737D1*
X28830Y19748D1*
X29146Y19753D1*
X29181Y19743D1*
X29765Y19353D1*
X29788Y19323D1*
X29913Y18982D1*
X30249Y18985D1*
X30594Y18987D1*
Y19936D1*
X32152D1*
Y21074D1*
X30940Y21075D1*
X30877Y21085D1*
X30821Y21114D1*
X30778Y21160D1*
X30751Y21218D1*
X30745Y21282D1*
X30735Y21286D1*
X30725Y21208D1*
X30695Y21152D1*
X30650Y21108D1*
X30592Y21082D1*
X30540Y21075D1*
X30476D1*
X30744Y24276D2*
Y24750D1*
X30754Y24813D1*
X30784Y24868D1*
X30830Y24912D1*
X30887Y24939D1*
X30940Y24946D1*
X31815D1*
X30412Y26320D1*
Y24945D1*
X30540Y24946D1*
X30602Y24936D1*
X30658Y24906D1*
X30701Y24860D1*
X30728Y24803D1*
X30735Y24750D1*
Y24338D1*
X30745Y24362D1*
X28518Y20220D2*
X28495Y20096D1*
X28448Y19978D1*
X28379Y19871D1*
X28292Y19779D1*
X28189Y19705D1*
X28074Y19651D1*
X27951Y19621D1*
X27825Y19614D1*
X27699Y19630D1*
X27579Y19671D1*
X27468Y19733D1*
X27371Y19815D1*
X27292Y19913D1*
X27232Y20025D1*
X27194Y20146D1*
X27180Y20272D1*
X27190Y20399D1*
X27224Y20521D1*
X27280Y20635D1*
X27356Y20736D1*
X27450Y20821D1*
X27559Y20887D1*
X27677Y20931D1*
X27802Y20952D1*
X27929Y20950D1*
X28053Y20923D1*
X28170Y20873D1*
X28275Y20803D1*
X28365Y20714D1*
X28437Y20609D1*
X28488Y20493D1*
X28516Y20369D1*
X28521Y20284D1*
X28518Y20220D1*
X30550D2*
X30527Y20096D1*
X30480Y19978D1*
X30411Y19871D1*
X30324Y19779D1*
X30221Y19705D1*
X30106Y19651D1*
X29983Y19621D1*
X29857Y19614D1*
X29731Y19630D1*
X29611Y19671D1*
X29500Y19733D1*
X29403Y19815D1*
X29324Y19913D1*
X29264Y20025D1*
X29226Y20146D1*
X29212Y20272D1*
X29222Y20399D1*
X29256Y20521D1*
X29312Y20635D1*
X29388Y20736D1*
X29482Y20821D1*
X29591Y20887D1*
X29709Y20931D1*
X29834Y20952D1*
X29961Y20950D1*
X30085Y20923D1*
X30202Y20873D1*
X30307Y20803D1*
X30397Y20714D1*
X30469Y20609D1*
X30520Y20493D1*
X30548Y20369D1*
X30553Y20284D1*
X30550Y20220D1*
X25209Y18941D2*
X25369Y19324D1*
X25631Y19853D1*
X26018Y20603D1*
X26259Y20959D1*
X26539Y21284D1*
X26853Y21576D1*
X27199Y21829D1*
X27424Y21959D1*
X27436Y21978D1*
X27481Y22021D1*
X27539Y22048D1*
X27591Y22055D1*
X27609D1*
X27654Y22067D1*
X27717Y22072D1*
X27780Y22067D1*
X27824Y22055D1*
X27904Y22045D1*
X27969Y22007D1*
X27992Y21986D1*
X28040Y22027D1*
X28099Y22050D1*
X28195Y22055D1*
X28154Y22054D1*
X28196Y22058D1*
X28603D1*
X28645Y22067D1*
X28768Y22072D1*
X28804Y22070D1*
X28802Y22536D1*
X28452D1*
X28389Y22546D1*
X28321Y22586D1*
X27865Y22994D1*
X27825Y23043D1*
X27805Y23097D1*
X27800Y23203D1*
X27801Y24278D1*
X27008Y24277D1*
X27001Y22876D1*
X26970Y22823D1*
X26939Y22813D1*
X26137Y22802D1*
X26136Y21483D1*
X26130Y21455D1*
X25800Y20844D1*
X25121Y19992D1*
X25162Y19944D1*
X25185Y19885D1*
X25190Y19779D1*
Y18942D1*
X25180Y18880D1*
X25150Y18824D1*
X25105Y18781D1*
X25047Y18754D1*
X24982Y18747D1*
X20129Y24338D2*
X21326D1*
X22942D2*
X23026D1*
X24643D2*
X25536D1*
X20129Y24214D2*
X20399D1*
X22942D2*
X23026D1*
X24643D2*
X25536D1*
X20129Y24090D2*
X20399D1*
X20129Y23967D2*
X20399D1*
X20129Y23843D2*
X20399D1*
X20129Y23719D2*
X20399D1*
X20129Y23596D2*
X20399D1*
X20129Y23472D2*
X20399D1*
X20129Y23348D2*
X20399D1*
X20129Y23225D2*
X20399D1*
X20129Y23101D2*
X20399D1*
X20129Y22977D2*
X20399D1*
X20129Y22854D2*
X20399D1*
X25437D2*
X25535D1*
X20119Y22730D2*
X20399D1*
X20119Y22606D2*
X20399D1*
X20119Y22483D2*
X20399D1*
X20119Y22359D2*
X20399D1*
X20119Y22235D2*
X20399D1*
X20119Y22112D2*
X20399D1*
X20119Y21988D2*
X20399D1*
X20400Y21617D2*
X21326D1*
X25401D2*
X25517D1*
X21373Y21493D2*
X21921D1*
X23264D2*
X25465D1*
X21496Y21370D2*
X21921D1*
X23161D2*
X25413D1*
X21619Y21246D2*
X21921D1*
X21684Y21122D2*
X21921D1*
X22927D2*
X23054D1*
X21694Y20999D2*
X21921D1*
X22889D2*
X23054D1*
X21694Y20875D2*
X21921D1*
X22889D2*
X23054D1*
X21694Y20751D2*
X21921D1*
X22889D2*
X23054D1*
X21694Y20628D2*
X21921D1*
X22889D2*
X23054D1*
X21694Y20504D2*
X21879D1*
X22889D2*
X23054D1*
X22889Y20380D2*
X23054D1*
X22889Y20257D2*
X23054D1*
X22865Y20133D2*
X23088D1*
X22774Y20009D2*
X23145D1*
X22651Y19886D2*
X23058D1*
X22526Y19762D2*
X23054D1*
X22431Y19638D2*
X23054D1*
X22429Y19515D2*
X23038D1*
X22429Y19391D2*
X23006D1*
X24628Y24191D2*
X25310D1*
X25372Y24181D1*
X25428Y24151D1*
X25472Y24105D1*
X25498Y24048D1*
X25506Y23996D1*
Y23096D1*
X25495Y23033D1*
X25466Y22977D1*
X25420Y22934D1*
X25363Y22907D1*
X25298Y22901D1*
X25296Y22891D1*
X25348Y22887D1*
X25396Y22871D1*
X25438Y22843D1*
X25472Y22805D1*
X25495Y22760D1*
X25505Y22711D1*
Y21783D1*
X25495Y21733D1*
X25473Y21688D1*
X25440Y21649D1*
X25398Y21621D1*
X25350Y21604D1*
X25297Y21600D1*
X24630Y21598D1*
Y21516D1*
X23263D1*
X23228Y21455D1*
X23154Y21376D1*
X22928Y21151D1*
X22876Y21048D1*
Y20248D1*
X22869Y20184D1*
X22850Y20124D1*
X22818Y20071D1*
X22744Y19992D1*
X22417Y19662D1*
X22416Y19464D1*
X22414Y19395D1*
X22409Y19332D1*
X22396Y19292D1*
X22998Y19312D1*
X23065Y19578D1*
Y19843D1*
X23076Y19905D1*
X23105Y19961D1*
X23162Y20011D1*
X23189Y20061D1*
X23135Y20094D1*
X23094Y20142D1*
X23070Y20200D1*
X23065Y20307D1*
Y21143D1*
X23076Y21205D1*
X23105Y21261D1*
X23151Y21305D1*
X23209Y21331D1*
X23261Y21339D1*
X23961D1*
X24035Y21324D1*
X24121Y21301D1*
X24185Y21304D1*
X24242Y21331D1*
X24295Y21338D1*
X24995D1*
X25068Y21323D1*
X25411Y21333D1*
X25563Y21695D1*
Y22771D1*
X25549Y22773D1*
Y24386D1*
X25498Y24423D1*
X23418D1*
Y24448D1*
X23085D1*
X20787Y24455D1*
Y24445D1*
X20114D1*
X20117Y24133D1*
X20115Y23600D1*
X20117Y23474D1*
Y22750D1*
X20107D1*
X20106Y21976D1*
X20389D1*
Y21589D1*
X21142Y21588D1*
X21205Y21582D1*
X21266Y21562D1*
X21319Y21530D1*
X21397Y21457D1*
X21595Y21259D1*
X21635Y21210D1*
X21663Y21153D1*
X21679Y21093D1*
X21682Y20985D1*
Y20293D1*
X21933Y20546D1*
X21932Y21516D1*
X21339D1*
Y21736D1*
X21185Y21734D1*
X20411D1*
Y23025D1*
X20580D1*
X20575Y23034D1*
X20411D1*
Y24325D1*
X21339D1*
Y24407D1*
X22930D1*
Y24211D1*
X23038Y24213D1*
X23039Y24407D1*
X24630D1*
Y24191D1*
X24960Y22246D2*
X25463Y21674D1*
Y22817D2*
X24960Y22246D1*
X20411Y24325D2*
X20956Y23680D1*
X20411Y23035D1*
X15742Y24600D2*
X17413D1*
X17230Y24476D2*
X17413D1*
X13648Y24352D2*
X14613D1*
X17230D2*
X17413D1*
X13531Y24229D2*
X14613D1*
X17230D2*
X17413D1*
X13531Y24105D2*
X14613D1*
X17230D2*
X17413D1*
X13531Y23981D2*
X14613D1*
X17230D2*
X17413D1*
X13529Y23858D2*
X14613D1*
X17230D2*
X17413D1*
X13529Y23734D2*
X14613D1*
X17230D2*
X17413D1*
X13529Y23610D2*
X14613D1*
X17230D2*
X17413D1*
X13529Y23487D2*
X13638D1*
X17230D2*
X17413D1*
X13529Y23363D2*
X13638D1*
X14753D2*
X15829D1*
X16789D2*
X17413D1*
X13527Y23239D2*
X13638D1*
X14753D2*
X15706D1*
X16831D2*
X17413D1*
X13527Y23116D2*
X13638D1*
X14753D2*
X15591D1*
X16954D2*
X17413D1*
X13527Y22992D2*
X13638D1*
X14753D2*
X15551D1*
X17079D2*
X17413D1*
X13527Y22868D2*
X13638D1*
X14753D2*
X15424D1*
X17202D2*
X17413D1*
X13527Y22745D2*
X13638D1*
X14753D2*
X15299D1*
X17325D2*
X17447D1*
X13525Y22621D2*
X13638D1*
X14753D2*
X15097D1*
X13525Y22497D2*
X13638D1*
X14753D2*
X14964D1*
X13525Y22374D2*
X13638D1*
X14753D2*
X14839D1*
X13525Y22250D2*
X13638D1*
X17273D2*
X17447D1*
X13523Y22126D2*
X13638D1*
X17164D2*
X17447D1*
X13523Y22003D2*
X13638D1*
X17164D2*
X17448D1*
X13523Y21879D2*
X13638D1*
X17164D2*
X17450D1*
X13523Y21755D2*
X13638D1*
X17228D2*
X17454D1*
X13523Y21632D2*
X13638D1*
X17353D2*
X17472D1*
X13523Y21508D2*
X13638D1*
X17476D2*
X17570D1*
X14753Y21384D2*
X14998D1*
X17599D2*
X17668D1*
X14753Y21261D2*
X15121D1*
X14753Y21137D2*
X15244D1*
X14753Y21013D2*
X15367D1*
X16037D2*
X16633D1*
X13783Y20890D2*
X15492D1*
X15914D2*
X16756D1*
X13916Y20766D2*
X16881D1*
X16440Y20642D2*
X17004D1*
X16684Y20519D2*
X17127D1*
X16873Y20395D2*
X16970D1*
X15989Y24562D2*
X17217D1*
Y23471D1*
X16775D1*
X16777Y23280D1*
X17396Y22661D1*
X17433Y22610D1*
X17452Y22550D1*
X17450Y22486D1*
X17429Y22427D1*
X17396Y22385D1*
X17152Y22136D1*
X17154Y21817D1*
X17776Y21196D1*
X17751Y21298D1*
X17483Y21635D1*
X17469Y21671D1*
X17459Y22062D1*
Y22751D1*
X17426Y22750D1*
X17428Y23791D1*
X17426Y23918D1*
Y24641D1*
X17459D1*
Y24723D1*
X15867D1*
X15693Y24562D1*
X15917D1*
Y24393D1*
X15926Y24423D1*
Y24562D1*
X15989D1*
X15949Y23471D2*
X15926D1*
Y23477D1*
X15917Y23471D1*
X14741Y23469D1*
Y22263D1*
X15069Y22591D1*
X15121Y22628D1*
X15193Y22647D1*
X15214Y22649D1*
X15578Y23006D1*
X15581Y23055D1*
X15603Y23114D1*
X15635Y23156D1*
X15951Y23472D1*
X14626Y23519D2*
Y24438D1*
X13716Y24430D1*
X13518Y24239D1*
X13509Y21502D1*
X13567Y21495D1*
X13616Y21457D1*
X13622Y21432D1*
Y21028D1*
X13650Y21002D1*
Y22220D1*
X13712D1*
X13700Y22228D1*
X13650D1*
Y23520D1*
X14626D1*
X14741Y21460D2*
Y20928D1*
X13727D1*
X13914Y20756D1*
X16235Y20755D1*
X16267Y20746D1*
X16536Y20573D1*
X16628Y20543D1*
X16756Y20481D1*
X16808Y20445D1*
X16855Y20402D1*
X16903Y20336D1*
X16933Y20317D1*
X16962Y20367D1*
X17002Y20417D1*
X17048Y20460D1*
X17101Y20495D1*
X17142Y20515D1*
X16638Y21021D1*
X16577Y21077D1*
X16087D1*
X15841Y20829D1*
X15789Y20792D1*
X15729Y20774D1*
X15666Y20775D1*
X15606Y20797D1*
X15564Y20829D1*
X14931Y21462D1*
X14742Y21461D1*
X15272Y24017D2*
X15917Y23471D1*
Y24562D2*
X14626Y23471D1*
X14196Y23519D2*
Y22874D1*
X13650D2*
X14741D1*
G36*
X30540Y21270D2*
X29000D1*
Y22810D1*
X30540D1*
Y21270D1*
G37*
G36*
X32480D2*
X30940D1*
Y22810D1*
X32480D1*
Y21270D1*
G37*
G36*
Y23210D2*
X30940D1*
Y24750D1*
X32480D1*
Y23210D1*
G37*
G36*
X30540D2*
X29000D1*
Y24750D1*
X30540D1*
Y23210D1*
G37*
G36*
X25216Y17132D2*
X24966D1*
Y17682D1*
X25216D1*
Y17132D1*
G37*
G36*
X24716D2*
X24466D1*
Y17682D1*
X24716D1*
Y17132D1*
G37*
G36*
X24216D2*
X23966D1*
Y17682D1*
X24216D1*
Y17132D1*
G37*
G36*
Y16282D2*
X23966D1*
Y16832D1*
X24216D1*
Y16282D1*
G37*
G36*
X24716D2*
X24466D1*
Y16832D1*
X24716D1*
Y16282D1*
G37*
G36*
X25216D2*
X24966D1*
Y16832D1*
X25216D1*
Y16282D1*
G37*
G36*
X24610Y23996D2*
X25310D1*
Y23096D1*
X24610D1*
Y23996D1*
G37*
G36*
Y22696D2*
X25310D1*
Y21796D1*
X24610D1*
Y22696D1*
G37*
D23*
X20956Y22380D3*
Y23680D3*
X25329Y15451D3*
Y14151D3*
D24*
X16572Y24017D3*
X15272D3*
D23*
X14196Y21574D3*
Y22874D3*
D25*
X28542Y21737D3*
Y22287D3*
D24*
X15398Y20194D3*
X14098D3*
X19743Y21430D3*
X18443D3*
G36*
X23261Y19843D2*
X23961D1*
Y18943D1*
X23261D1*
Y19843D1*
G37*
G36*
Y21143D2*
X23961D1*
Y20243D1*
X23261D1*
Y21143D1*
G37*
D23*
X24467Y15335D3*
Y14035D3*
X15523Y13770D3*
Y15070D3*
X13624Y17738D3*
Y19038D3*
G36*
X27841Y21860D2*
Y21560D1*
X27591D1*
Y21860D1*
X27841D1*
G37*
G36*
X28391D2*
Y21560D1*
X28141D1*
Y21860D1*
X28391D1*
G37*
D27*
X19496Y23271D3*
Y24121D3*
X18046D3*
Y23271D3*
D28*
X14197Y13695D3*
Y15095D3*
D29*
X29050Y26510D3*
X26510D3*
X23970D3*
X21430D3*
X18890D3*
D31*
X29050Y27780D3*
X26510D3*
X23970D3*
X21430D3*
X18890D3*
D33*
X11270Y16350D3*
D34*
X10000D3*
D29*
X16350Y11270D3*
D35*
Y10000D3*
D29*
Y26510D3*
D35*
Y27780D3*
D29*
X13810Y26510D3*
D35*
Y27780D3*
D33*
X11270Y23970D3*
D34*
X10000D3*
D33*
X11270Y21430D3*
D34*
X10000D3*
D33*
X11270Y18890D3*
D34*
X10000D3*
D33*
X31590Y13810D3*
Y16350D3*
Y18890D3*
D36*
X32860Y13810D3*
Y16350D3*
Y18890D3*
D29*
X18890Y11270D3*
D35*
Y10000D3*
D33*
X11270Y13810D3*
D34*
X10000D3*
D29*
X13810Y11270D3*
D35*
Y10000D3*
D29*
X21430Y11270D3*
D35*
Y10000D3*
D29*
X29050Y11270D3*
D35*
Y10000D3*
D29*
X26510Y11270D3*
D35*
Y10000D3*
D29*
X23970Y11270D3*
D35*
Y10000D3*
D37*
X16059Y19027D3*
X14659D3*
D38*
X14697Y18110D3*
Y17250D3*
G36*
X24995Y20242D2*
X24295D1*
Y21142D1*
X24995D1*
Y20242D1*
G37*
G36*
Y18942D2*
X24295D1*
Y19842D1*
X24995D1*
Y18942D1*
G37*
D24*
X18161Y22349D3*
X19461D3*
D39*
X27506Y13963D3*
Y12803D3*
X30056D3*
Y13963D3*
D40*
X25178Y12743D3*
D41*
X26244Y13568D3*
D40*
X13850Y12743D3*
D41*
X12784Y13568D3*
D40*
X13850Y24993D3*
D41*
X12784Y24168D3*
D40*
X25178Y24993D3*
D41*
X26244Y24168D3*
G36*
X28232Y16867D2*
X28164Y16861D1*
X28097Y16844D1*
X28035Y16815D1*
X27979Y16775D1*
X27930Y16727D1*
X27891Y16670D1*
X27862Y16608D1*
X27844Y16542D1*
X27838Y16474D1*
D1*
X27844Y16405D1*
X27862Y16339D1*
X27891Y16277D1*
X27930Y16221D1*
X27979Y16172D1*
X28035Y16133D1*
X28097Y16104D1*
X28164Y16086D1*
X28232Y16080D1*
D1*
X28300Y16086D1*
X28367Y16104D1*
X28429Y16133D1*
X28485Y16172D1*
X28533Y16221D1*
X28573Y16277D1*
X28602Y16339D1*
X28620Y16405D1*
X28626Y16474D1*
D1*
X28620Y16542D1*
X28602Y16608D1*
X28573Y16670D1*
X28533Y16727D1*
X28485Y16775D1*
X28429Y16815D1*
X28367Y16844D1*
X28300Y16861D1*
X28232Y16867D1*
G37*
G36*
Y18137D2*
X28164Y18131D1*
X28097Y18114D1*
X28035Y18085D1*
X27979Y18045D1*
X27930Y17997D1*
X27891Y17940D1*
X27862Y17878D1*
X27844Y17812D1*
X27838Y17744D1*
D1*
X27844Y17675D1*
X27862Y17609D1*
X27891Y17547D1*
X27930Y17491D1*
X27979Y17442D1*
X28035Y17403D1*
X28097Y17374D1*
X28164Y17356D1*
X28232Y17350D1*
D1*
X28300Y17356D1*
X28367Y17374D1*
X28429Y17403D1*
X28485Y17442D1*
X28533Y17491D1*
X28573Y17547D1*
X28602Y17609D1*
X28620Y17675D1*
X28626Y17744D1*
D1*
X28620Y17812D1*
X28602Y17878D1*
X28573Y17940D1*
X28533Y17997D1*
X28485Y18045D1*
X28429Y18085D1*
X28367Y18114D1*
X28300Y18131D1*
X28232Y18137D1*
G37*
G36*
Y19407D2*
X28164Y19401D1*
X28097Y19384D1*
X28035Y19355D1*
X27979Y19315D1*
X27930Y19267D1*
X27891Y19210D1*
X27862Y19148D1*
X27844Y19082D1*
X27838Y19014D1*
D1*
X27844Y18945D1*
X27862Y18879D1*
X27891Y18817D1*
X27930Y18761D1*
X27979Y18712D1*
X28035Y18673D1*
X28097Y18644D1*
X28164Y18626D1*
X28232Y18620D1*
D1*
X28300Y18626D1*
X28367Y18644D1*
X28429Y18673D1*
X28485Y18712D1*
X28533Y18761D1*
X28573Y18817D1*
X28602Y18879D1*
X28620Y18945D1*
X28626Y19014D1*
D1*
X28620Y19082D1*
X28602Y19148D1*
X28573Y19210D1*
X28533Y19267D1*
X28485Y19315D1*
X28429Y19355D1*
X28367Y19384D1*
X28300Y19401D1*
X28232Y19407D1*
G37*
G36*
X29502D2*
X29434Y19401D1*
X29367Y19384D1*
X29305Y19355D1*
X29249Y19315D1*
X29200Y19267D1*
X29161Y19210D1*
X29132Y19148D1*
X29114Y19082D1*
X29108Y19014D1*
D1*
X29114Y18945D1*
X29132Y18879D1*
X29161Y18817D1*
X29200Y18761D1*
X29249Y18712D1*
X29305Y18673D1*
X29367Y18644D1*
X29434Y18626D1*
X29502Y18620D1*
D1*
X29570Y18626D1*
X29637Y18644D1*
X29699Y18673D1*
X29755Y18712D1*
X29803Y18761D1*
X29843Y18817D1*
X29872Y18879D1*
X29890Y18945D1*
X29896Y19014D1*
D1*
X29890Y19082D1*
X29872Y19148D1*
X29843Y19210D1*
X29803Y19267D1*
X29755Y19315D1*
X29699Y19355D1*
X29637Y19384D1*
X29570Y19401D1*
X29502Y19407D1*
G37*
G36*
Y18137D2*
X29434Y18131D1*
X29367Y18114D1*
X29305Y18085D1*
X29249Y18045D1*
X29200Y17997D1*
X29161Y17940D1*
X29132Y17878D1*
X29114Y17812D1*
X29108Y17744D1*
D1*
X29114Y17675D1*
X29132Y17609D1*
X29161Y17547D1*
X29200Y17491D1*
X29249Y17442D1*
X29305Y17403D1*
X29367Y17374D1*
X29434Y17356D1*
X29502Y17350D1*
D1*
X29570Y17356D1*
X29637Y17374D1*
X29699Y17403D1*
X29755Y17442D1*
X29803Y17491D1*
X29843Y17547D1*
X29872Y17609D1*
X29890Y17675D1*
X29896Y17744D1*
D1*
X29890Y17812D1*
X29872Y17878D1*
X29843Y17940D1*
X29803Y17997D1*
X29755Y18045D1*
X29699Y18085D1*
X29637Y18114D1*
X29570Y18131D1*
X29502Y18137D1*
G37*
G36*
Y16867D2*
X29434Y16861D1*
X29367Y16844D1*
X29305Y16815D1*
X29249Y16775D1*
X29200Y16727D1*
X29161Y16670D1*
X29132Y16608D1*
X29114Y16542D1*
X29108Y16474D1*
D1*
X29114Y16405D1*
X29132Y16339D1*
X29161Y16277D1*
X29200Y16221D1*
X29249Y16172D1*
X29305Y16133D1*
X29367Y16104D1*
X29434Y16086D1*
X29502Y16080D1*
D1*
X29570Y16086D1*
X29637Y16104D1*
X29699Y16133D1*
X29755Y16172D1*
X29803Y16221D1*
X29843Y16277D1*
X29872Y16339D1*
X29890Y16405D1*
X29896Y16474D1*
D1*
X29890Y16542D1*
X29872Y16608D1*
X29843Y16670D1*
X29803Y16727D1*
X29755Y16775D1*
X29699Y16815D1*
X29637Y16844D1*
X29570Y16861D1*
X29502Y16867D1*
G37*
D44*
X16895Y18795D3*
Y18395D3*
Y17995D3*
Y17595D3*
Y17195D3*
Y16795D3*
Y16395D3*
Y15995D3*
Y15595D3*
Y15195D3*
Y14795D3*
Y14395D3*
D45*
X17720Y13570D3*
X18120D3*
X18520D3*
X18920D3*
X19320D3*
X19720D3*
X20120D3*
X20520D3*
X20920D3*
X21320D3*
X21720D3*
X22120D3*
D44*
X22945Y14395D3*
Y14795D3*
Y15195D3*
Y15595D3*
Y15995D3*
Y16395D3*
Y16795D3*
Y17195D3*
Y17595D3*
Y17995D3*
Y18395D3*
Y18795D3*
D45*
X22120Y19620D3*
X21720D3*
X21320D3*
X20920D3*
X20520D3*
X20120D3*
X19720D3*
X19320D3*
X18920D3*
X18520D3*
X18120D3*
X17720D3*
D46*
X19920Y16595D3*
D47*
X18011Y16975D3*
X18773D3*
X19535D3*
X20297D3*
X21059D3*
X21821D3*
X18011Y16208D3*
X18773D3*
X19535D3*
X20297D3*
X21059D3*
X21821D3*
X18014Y17738D3*
X18776D3*
X19538D3*
X20300D3*
X21062D3*
X21824D3*
X18011Y15441D3*
X18773D3*
X19535D3*
X20297D3*
X21059D3*
X21821D3*
X18011Y14675D3*
X18773D3*
X19535D3*
X20297D3*
X21059D3*
X21821D3*
X18007Y18505D3*
X18769D3*
X19531D3*
X20293D3*
X21055D3*
X21817D3*
D51*
X23835Y23662D3*
X22134D3*
Y22262D3*
X23835D3*
G36*
X16198Y21462D2*
X15703Y20967D1*
X14713Y21957D1*
X15208Y22452D1*
X16198Y21462D1*
G37*
G36*
X17258Y22523D2*
X16763Y22028D1*
X15773Y23018D1*
X16268Y23513D1*
X17258Y22523D1*
G37*
D52*
X26745Y17962D3*
D53*
X20020Y25022D3*
G36*
X18491Y12911D2*
Y12301D1*
X17221D1*
Y13165D1*
X18237D1*
X18491Y12911D1*
G37*
G36*
X12869Y20096D2*
X13428D1*
Y21366D1*
X12488D1*
Y20426D1*
X12869Y20096D1*
G37*
M02*
