G04 start of page 12 for group -4079 idx -4079 *
G04 Title: (unknown), topsilk *
G04 Creator: pcb 20110918 *
G04 CreationDate: Wed Aug  7 03:13:51 2013 UTC *
G04 For: mokus *
G04 Format: Gerber/RS-274X *
G04 PCB-Dimensions: 600000 500000 *
G04 PCB-Coordinate-Origin: lower left *
%MOIN*%
%FSLAX25Y25*%
%LNTOPSILK*%
%ADD14C,0.0100*%
G54D14*X164292Y272000D02*X142000Y294292D01*
X119708Y272000D01*
X142000Y249708D01*
X164292Y272000D01*
X119708D02*X117586D01*
M02*
