G04 #@! TF.FileFunction,Copper,L1,Top,Signal*
%FSLAX46Y46*%
G04 Gerber Fmt 4.6, Leading zero omitted, Abs format (unit mm)*
G04 Created by KiCad (PCBNEW 4.0.1-3.201512221402+6198~38~ubuntu14.04.1-stable) date Sun 20 Mar 2016 11:42:54 PM PDT*
%MOMM*%
G01*
G04 APERTURE LIST*
%ADD10C,0.100000*%
%ADD11R,1.498600X0.889000*%
%ADD12R,2.032000X2.032000*%
%ADD13O,2.032000X2.032000*%
%ADD14C,0.330200*%
G04 APERTURE END LIST*
D10*
D11*
X150939500Y-105791000D03*
X150939500Y-102489000D03*
X146062700Y-102489000D03*
X146062700Y-105791000D03*
D12*
X149860000Y-111760000D03*
D13*
X147320000Y-111760000D03*
D12*
X149733000Y-96520000D03*
D13*
X147193000Y-96520000D03*
D14*
X150939500Y-105791000D02*
X150634700Y-105791000D01*
X150634700Y-105791000D02*
X149860000Y-106565700D01*
X149860000Y-106565700D02*
X149860000Y-110413800D01*
X150939500Y-102489000D02*
X150634700Y-102489000D01*
X150634700Y-102489000D02*
X149733000Y-101587300D01*
X149733000Y-101587300D02*
X149733000Y-97866200D01*
X149733000Y-97866200D02*
X149733000Y-96520000D01*
X146062700Y-102489000D02*
X146367500Y-102489000D01*
X146367500Y-102489000D02*
X147193000Y-101663500D01*
X147193000Y-101663500D02*
X147193000Y-97956840D01*
X147193000Y-97956840D02*
X147193000Y-96520000D01*
X146062700Y-105791000D02*
X146367500Y-105791000D01*
X146367500Y-105791000D02*
X147320000Y-106743500D01*
X147320000Y-106743500D02*
X147320000Y-110323160D01*
X147320000Y-110323160D02*
X147320000Y-111760000D01*
M02*
