G04 start of page 5 for group -4062 idx -4062 *
G04 Title: highvoltage, soldermask *
G04 Creator: pcb 20091103 *
G04 CreationDate: Tue 04 May 2010 05:06:31 PM GMT UTC *
G04 For: srussell *
G04 Format: Gerber/RS-274X *
G04 PCB-Dimensions: 400000 350000 *
G04 PCB-Coordinate-Origin: lower left *
%MOIN*%
%FSLAX25Y25*%
%LNBACKMASK*%
%ADD11C,0.0200*%
%ADD17C,0.1150*%
%ADD36C,0.1600*%
%ADD37C,0.3050*%
%ADD38C,0.2100*%
%ADD39C,0.0660*%
%ADD40C,0.1210*%
%ADD41C,0.0710*%
%ADD42C,0.0740*%
%ADD43C,0.1050*%
%ADD44C,0.0760*%
%ADD45C,0.0620*%
%ADD46C,0.1100*%
%ADD47C,0.2080*%
G54D11*G36*
X53060Y206660D02*Y195160D01*
X64560D01*
Y206660D01*
X53060D01*
G37*
G54D17*X58810Y280910D03*
G54D36*X65000Y50000D03*
X30000Y185000D03*
Y135000D03*
Y235000D03*
G54D37*X93000Y231000D03*
G54D38*X75000Y135000D03*
X105000D03*
G54D36*X110000Y50000D03*
G54D11*G36*
X346700Y88300D02*Y81700D01*
X353300D01*
Y88300D01*
X346700D01*
G37*
G54D39*X340000Y85000D03*
X330000D03*
X350000Y55000D03*
G54D40*X135000Y60000D03*
X226340D03*
G54D11*G36*
X351450Y133550D02*Y126450D01*
X358550D01*
Y133550D01*
X351450D01*
G37*
G36*
X352090Y117200D02*Y105700D01*
X363590D01*
Y117200D01*
X352090D01*
G37*
G54D17*X277840Y111450D03*
G54D41*X355000Y140000D03*
G54D11*G36*
X314970Y147270D02*Y135770D01*
X326470D01*
Y147270D01*
X314970D01*
G37*
G54D41*X365000Y130000D03*
X375000D03*
G54D42*Y120000D03*
G54D11*G36*
X371300Y83700D02*Y76300D01*
X378700D01*
Y83700D01*
X371300D01*
G37*
G54D40*X221000Y329000D03*
X201000D03*
X181000D03*
X161000D03*
G54D43*X225000Y296000D03*
X200000D03*
X175000D03*
X150000D03*
G54D39*X330000Y55000D03*
X340000D03*
G54D11*G36*
X301200Y63800D02*Y56200D01*
X308800D01*
Y63800D01*
X301200D01*
G37*
G54D44*X305000Y70000D03*
Y80000D03*
G54D45*X280000Y37000D03*
Y74500D03*
G54D11*G36*
X248410Y45110D02*Y33610D01*
X259910D01*
Y45110D01*
X248410D01*
G37*
G54D17*X254160Y119360D03*
G54D41*X365000Y140000D03*
X375000D03*
G54D38*X179700Y135000D03*
G54D43*X150000Y166000D03*
X175000D03*
G54D38*X209700Y135000D03*
G54D17*X240720Y141520D03*
G54D43*X200000Y166000D03*
X225000D03*
G54D37*X282000Y231000D03*
G54D46*X340000Y190000D03*
G54D11*G36*
X336200Y213800D02*Y206200D01*
X343800D01*
Y213800D01*
X336200D01*
G37*
G54D44*X350000Y210000D03*
G54D46*X360000Y190000D03*
G54D44*Y210000D03*
Y285000D03*
Y310000D03*
G54D46*Y255000D03*
G54D44*Y235000D03*
G54D11*G36*
X336200Y288800D02*Y281200D01*
X343800D01*
Y288800D01*
X336200D01*
G37*
G54D44*X350000Y285000D03*
G54D11*G36*
X316200Y313800D02*Y306200D01*
X323800D01*
Y313800D01*
X316200D01*
G37*
G54D46*X340000Y255000D03*
G54D11*G36*
X316200Y238800D02*Y231200D01*
X323800D01*
Y238800D01*
X316200D01*
G37*
G54D47*X375000Y325000D03*
X25000D03*
Y25000D03*
X375000D03*
M02*
