%FSLAX33Y33*%
%MOMM*%
%AMRect-W4000000-H4000000-RO1.000*
21,1,4.,4.,0.,0.,180*%
%AMRect-W1000000-H1000000-RO1.000*
21,1,1.,1.,0.,0.,180*%
%AMRect-W2032000-H2032000-RO0.250*
21,1,2.032,2.032,0.,0.,315*%
%AMRect-W1400000-H1400000-RO1.000*
21,1,1.4,1.4,0.,0.,180*%
%AMRect-W5000000-H5000000-RO1.000*
21,1,5.,5.,0.,0.,179*%
%AMRect-W2032000-H2032000-RO0.500*
21,1,2.032,2.032,0.,0.,270*%
%AMRect-W1000000-H1000000-RO0.500*
21,1,1.,1.,0.,0.,270*%
%ADD10C,0.508*%
%ADD11C,0.762*%
%ADD12C,1.0668*%
%ADD13C,3.*%
%ADD14C,1.8*%
%ADD15Rect-W4000000-H4000000-RO1.000*%
%ADD16C,1.6*%
%ADD17C,1.6*%
%ADD18C,1.6*%
%ADD19C,1.2*%
%ADD20Rect-W1000000-H1000000-RO1.000*%
%ADD21C,2.286*%
%ADD22Rect-W2032000-H2032000-RO0.250*%
%ADD23C,1.5*%
%ADD24C,1.45*%
%ADD25C,1.4*%
%ADD26Rect-W1400000-H1400000-RO1.000*%
%ADD27Rect-W5000000-H5000000-RO1.000*%
%ADD28C,1.6*%
%ADD29C,1.0668*%
%ADD30C,1.45*%
%ADD31C,2.286*%
%ADD32Rect-W2032000-H2032000-RO0.500*%
%ADD33C,1.2*%
%ADD34Rect-W1000000-H1000000-RO0.500*%
%ADD35C,1.4*%
D10*
%LNpour fill*%
G36*
G01*
X149860Y2540D02*
X149860Y34290D01*
X138141Y34290D01*
X138029Y33834D01*
X137717Y33483D01*
X137278Y33316D01*
X136812Y33373D01*
X136426Y33639D01*
X136208Y34055D01*
X136208Y34525D01*
X136426Y34941D01*
X136812Y35207D01*
X137278Y35264D01*
X137717Y35097D01*
X138029Y34746D01*
X138141Y34290D01*
X149860Y34290D01*
X149860Y35171D01*
X140581Y35171D01*
X140581Y33409D01*
X138819Y33409D01*
X138819Y35171D01*
X140581Y35171D01*
X149860Y35171D01*
X149860Y37900D01*
X143372Y37900D01*
X143286Y37551D01*
X142911Y37128D01*
X142440Y36949D01*
X142440Y37900D01*
X143372Y37900D01*
X149860Y37900D01*
X149860Y38100D01*
X135801Y38100D01*
X135666Y37551D01*
X135291Y37128D01*
X134762Y36928D01*
X134201Y36996D01*
X133736Y37317D01*
X133473Y37817D01*
X133473Y38383D01*
X133736Y38883D01*
X134201Y39204D01*
X134762Y39272D01*
X135291Y39072D01*
X135666Y38649D01*
X135801Y38100D01*
X149860Y38100D01*
X149860Y38300D01*
X143372Y38300D01*
X142440Y38300D01*
X142440Y39251D01*
X142911Y39072D01*
X143286Y38649D01*
X143372Y38300D01*
X149860Y38300D01*
X149860Y39231D01*
X142040Y39231D01*
X142040Y38300D01*
X141093Y38300D01*
X141093Y38383D01*
X141356Y38883D01*
X141821Y39204D01*
X142040Y39231D01*
X149860Y39231D01*
X149860Y41710D01*
X135752Y41710D01*
X135666Y41361D01*
X135291Y40938D01*
X134820Y40759D01*
X134820Y41710D01*
X135752Y41710D01*
X149860Y41710D01*
X149860Y41910D01*
X143421Y41910D01*
X143286Y41361D01*
X142911Y40938D01*
X142382Y40738D01*
X141821Y40806D01*
X141356Y41127D01*
X141093Y41627D01*
X141093Y42193D01*
X141356Y42693D01*
X141821Y43014D01*
X142382Y43082D01*
X142911Y42882D01*
X143286Y42459D01*
X143421Y41910D01*
X149860Y41910D01*
X149860Y42110D01*
X135752Y42110D01*
X134820Y42110D01*
X134820Y43061D01*
X135291Y42882D01*
X135666Y42459D01*
X135752Y42110D01*
X149860Y42110D01*
X149860Y43041D01*
X134420Y43041D01*
X134420Y42110D01*
X133473Y42110D01*
X133473Y42193D01*
X133736Y42693D01*
X134201Y43014D01*
X134420Y43041D01*
X149860Y43041D01*
X149860Y51880D01*
X144377Y51880D01*
X144320Y51645D01*
X144029Y51317D01*
X143701Y51193D01*
X143701Y51880D01*
X144377Y51880D01*
X149860Y51880D01*
X149860Y52261D01*
X144377Y52261D01*
X143701Y52261D01*
X143701Y52947D01*
X144029Y52823D01*
X144320Y52495D01*
X144377Y52261D01*
X149860Y52261D01*
X149860Y52941D01*
X143320Y52941D01*
X143320Y52261D01*
X142622Y52261D01*
X142622Y52289D01*
X142826Y52676D01*
X143186Y52925D01*
X143320Y52941D01*
X149860Y52941D01*
X149860Y54610D01*
X144424Y54610D01*
X144320Y54185D01*
X144029Y53857D01*
X143620Y53702D01*
X143186Y53755D01*
X142826Y54004D01*
X142622Y54391D01*
X142622Y54829D01*
X142826Y55216D01*
X143186Y55465D01*
X143620Y55518D01*
X144029Y55363D01*
X144320Y55035D01*
X144424Y54610D01*
X149860Y54610D01*
X149860Y57150D01*
X144424Y57150D01*
X144320Y56725D01*
X144029Y56397D01*
X143620Y56242D01*
X143186Y56295D01*
X142826Y56544D01*
X142622Y56931D01*
X142622Y57369D01*
X142826Y57756D01*
X143186Y58005D01*
X143620Y58058D01*
X144029Y57903D01*
X144320Y57575D01*
X144424Y57150D01*
X149860Y57150D01*
X149860Y62030D01*
X140732Y62030D01*
X140657Y61728D01*
X140314Y61340D01*
X139900Y61183D01*
X139900Y62030D01*
X140732Y62030D01*
X149860Y62030D01*
X149860Y62230D01*
X148401Y62230D01*
X148277Y61728D01*
X147934Y61340D01*
X147450Y61157D01*
X146937Y61219D01*
X146511Y61513D01*
X146270Y61971D01*
X146270Y62489D01*
X146511Y62947D01*
X146937Y63241D01*
X147450Y63303D01*
X147934Y63120D01*
X148277Y62732D01*
X148401Y62230D01*
X149860Y62230D01*
X149860Y62430D01*
X140732Y62430D01*
X139900Y62430D01*
X139900Y63277D01*
X140314Y63120D01*
X140657Y62732D01*
X140732Y62430D01*
X149860Y62430D01*
X149860Y63263D01*
X139500Y63263D01*
X139500Y62430D01*
X138650Y62430D01*
X138650Y62489D01*
X138891Y62947D01*
X139317Y63241D01*
X139500Y63263D01*
X149860Y63263D01*
X149860Y63500D01*
X121756Y63500D01*
X121629Y62986D01*
X121278Y62590D01*
X120783Y62402D01*
X120258Y62466D01*
X119822Y62767D01*
X119576Y63235D01*
X119576Y63765D01*
X119822Y64233D01*
X120258Y64534D01*
X120783Y64598D01*
X121278Y64410D01*
X121629Y64014D01*
X121756Y63500D01*
X149860Y63500D01*
X149860Y64770D01*
X148401Y64770D01*
X148277Y64268D01*
X147934Y63880D01*
X147450Y63697D01*
X146937Y63759D01*
X146511Y64053D01*
X146270Y64511D01*
X146270Y65029D01*
X146511Y65487D01*
X146937Y65781D01*
X147450Y65843D01*
X147934Y65660D01*
X148277Y65272D01*
X148401Y64770D01*
X149860Y64770D01*
X149860Y67310D01*
X148401Y67310D01*
X148277Y66808D01*
X147934Y66420D01*
X147450Y66237D01*
X146937Y66299D01*
X146511Y66593D01*
X146270Y67051D01*
X146270Y67569D01*
X146511Y68027D01*
X146937Y68321D01*
X147450Y68383D01*
X147934Y68200D01*
X148277Y67812D01*
X148401Y67310D01*
X149860Y67310D01*
X149860Y69850D01*
X140781Y69850D01*
X140657Y69348D01*
X140314Y68960D01*
X139830Y68777D01*
X139317Y68839D01*
X138891Y69133D01*
X138650Y69591D01*
X138650Y70109D01*
X138891Y70567D01*
X139317Y70861D01*
X139830Y70923D01*
X140314Y70740D01*
X140657Y70352D01*
X140781Y69850D01*
X149860Y69850D01*
X149860Y73700D01*
X148426Y73700D01*
X148299Y73186D01*
X148082Y72941D01*
X148082Y70573D01*
X148277Y70352D01*
X148401Y69850D01*
X148277Y69348D01*
X147934Y68960D01*
X147450Y68777D01*
X146937Y68839D01*
X146511Y69133D01*
X146270Y69591D01*
X146270Y70109D01*
X146511Y70567D01*
X146558Y70599D01*
X146558Y72921D01*
X146492Y72967D01*
X146246Y73435D01*
X146246Y73656D01*
X138114Y81788D01*
X137160Y81788D01*
X136868Y81846D01*
X136621Y82011D01*
X134081Y84551D01*
X133916Y84798D01*
X133858Y85090D01*
X133858Y88584D01*
X131764Y90678D01*
X128270Y90678D01*
X127978Y90736D01*
X127731Y90901D01*
X124306Y94326D01*
X124222Y94279D01*
X124296Y93980D01*
X124169Y93466D01*
X123818Y93070D01*
X123323Y92882D01*
X122798Y92946D01*
X122362Y93247D01*
X122116Y93715D01*
X122116Y94245D01*
X122362Y94713D01*
X122798Y95014D01*
X123323Y95078D01*
X123467Y95023D01*
X123523Y95110D01*
X123195Y95438D01*
X122798Y95486D01*
X122362Y95787D01*
X122116Y96255D01*
X122116Y96785D01*
X122362Y97253D01*
X122798Y97554D01*
X123323Y97618D01*
X123818Y97430D01*
X124169Y97034D01*
X124296Y96520D01*
X124290Y96497D01*
X128586Y92202D01*
X132080Y92202D01*
X132372Y92144D01*
X132619Y91979D01*
X135159Y89439D01*
X135324Y89192D01*
X135382Y88900D01*
X135382Y85406D01*
X137476Y83312D01*
X138430Y83312D01*
X138722Y83254D01*
X138969Y83089D01*
X139782Y82276D01*
X139782Y82276D01*
X147281Y74777D01*
X147453Y74798D01*
X147948Y74610D01*
X148299Y74214D01*
X148426Y73700D01*
X149860Y73700D01*
X149860Y74950D01*
X140681Y74950D01*
X140569Y74494D01*
X140257Y74143D01*
X139818Y73976D01*
X139352Y74033D01*
X138966Y74299D01*
X138748Y74715D01*
X138748Y75185D01*
X138966Y75601D01*
X139352Y75867D01*
X139818Y75924D01*
X140257Y75757D01*
X140569Y75406D01*
X140681Y74950D01*
X149860Y74950D01*
X149860Y78331D01*
X140581Y78331D01*
X140581Y76569D01*
X138819Y76569D01*
X138819Y78331D01*
X140581Y78331D01*
X149860Y78331D01*
X149860Y78500D01*
X148377Y78500D01*
X148299Y78186D01*
X147948Y77790D01*
X147520Y77627D01*
X147520Y78500D01*
X148377Y78500D01*
X149860Y78500D01*
X149860Y78900D01*
X148377Y78900D01*
X147520Y78900D01*
X147520Y79773D01*
X147948Y79610D01*
X148299Y79214D01*
X148377Y78900D01*
X149860Y78900D01*
X149860Y79757D01*
X147120Y79757D01*
X147120Y78900D01*
X146246Y78900D01*
X146246Y78965D01*
X146492Y79433D01*
X146928Y79734D01*
X147120Y79757D01*
X149860Y79757D01*
X149860Y85720D01*
X139395Y85720D01*
X139244Y85058D01*
X138821Y84528D01*
X138210Y84234D01*
X137532Y84234D01*
X136921Y84528D01*
X136498Y85058D01*
X136347Y85720D01*
X136498Y86381D01*
X136921Y86911D01*
X137532Y87205D01*
X138210Y87205D01*
X138821Y86911D01*
X139244Y86381D01*
X139395Y85720D01*
X149860Y85720D01*
X149860Y89115D01*
X148666Y89115D01*
X148515Y88454D01*
X148092Y87924D01*
X147481Y87629D01*
X146803Y87629D01*
X146192Y87924D01*
X145769Y88454D01*
X145618Y89115D01*
X145655Y89278D01*
X145593Y89328D01*
X144967Y89026D01*
X144288Y89026D01*
X143677Y89321D01*
X143255Y89851D01*
X143104Y90512D01*
X143255Y91173D01*
X143677Y91704D01*
X144288Y91998D01*
X144967Y91998D01*
X145578Y91704D01*
X146001Y91173D01*
X146152Y90512D01*
X146114Y90349D01*
X146177Y90299D01*
X146803Y90601D01*
X147481Y90601D01*
X148092Y90307D01*
X148515Y89776D01*
X148666Y89115D01*
X149860Y89115D01*
X149860Y78500D01*
X147120Y78500D01*
X147120Y77643D01*
X146928Y77666D01*
X146492Y77967D01*
X146246Y78435D01*
X146246Y78500D01*
X147120Y78500D01*
X149860Y78500D01*
X149860Y67310D01*
X140781Y67310D01*
X140657Y66808D01*
X140314Y66420D01*
X139830Y66237D01*
X139317Y66299D01*
X138891Y66593D01*
X138650Y67051D01*
X138650Y67569D01*
X138891Y68027D01*
X139317Y68321D01*
X139830Y68383D01*
X140314Y68200D01*
X140657Y67812D01*
X140781Y67310D01*
X149860Y67310D01*
X149860Y64770D01*
X140781Y64770D01*
X140657Y64268D01*
X140314Y63880D01*
X139830Y63697D01*
X139317Y63759D01*
X138891Y64053D01*
X138650Y64511D01*
X138650Y65029D01*
X138891Y65487D01*
X139317Y65781D01*
X139830Y65843D01*
X140314Y65660D01*
X140657Y65272D01*
X140781Y64770D01*
X149860Y64770D01*
X149860Y63500D01*
X119216Y63500D01*
X119089Y62986D01*
X118738Y62590D01*
X118243Y62402D01*
X117718Y62466D01*
X117282Y62767D01*
X117036Y63235D01*
X117036Y63765D01*
X117282Y64233D01*
X117718Y64534D01*
X118243Y64598D01*
X118738Y64410D01*
X119089Y64014D01*
X119216Y63500D01*
X149860Y63500D01*
X149860Y62030D01*
X139500Y62030D01*
X139500Y61197D01*
X139317Y61219D01*
X138891Y61513D01*
X138650Y61971D01*
X138650Y62030D01*
X139500Y62030D01*
X149860Y62030D01*
X149860Y51880D01*
X143320Y51880D01*
X143320Y51199D01*
X143186Y51215D01*
X142826Y51464D01*
X142622Y51851D01*
X142622Y51880D01*
X143320Y51880D01*
X149860Y51880D01*
X149860Y43041D01*
X117910Y43041D01*
X117910Y42110D01*
X116963Y42110D01*
X116963Y42193D01*
X117226Y42693D01*
X117691Y43014D01*
X117910Y43041D01*
X149860Y43041D01*
X149860Y42110D01*
X119242Y42110D01*
X118310Y42110D01*
X118310Y43061D01*
X118781Y42882D01*
X119156Y42459D01*
X119242Y42110D01*
X149860Y42110D01*
X149860Y41910D01*
X126911Y41910D01*
X126776Y41361D01*
X126401Y40938D01*
X125872Y40738D01*
X125311Y40806D01*
X124846Y41127D01*
X124583Y41627D01*
X124583Y42193D01*
X124846Y42693D01*
X125311Y43014D01*
X125872Y43082D01*
X126401Y42882D01*
X126776Y42459D01*
X126911Y41910D01*
X149860Y41910D01*
X149860Y41710D01*
X134420Y41710D01*
X134420Y40779D01*
X134201Y40806D01*
X133736Y41127D01*
X133473Y41627D01*
X133473Y41710D01*
X134420Y41710D01*
X149860Y41710D01*
X149860Y39231D01*
X125530Y39231D01*
X125530Y38300D01*
X124583Y38300D01*
X124583Y38383D01*
X124846Y38883D01*
X125311Y39204D01*
X125530Y39231D01*
X149860Y39231D01*
X149860Y38300D01*
X126862Y38300D01*
X125930Y38300D01*
X125930Y39251D01*
X126401Y39072D01*
X126776Y38649D01*
X126862Y38300D01*
X149860Y38300D01*
X149860Y38100D01*
X119291Y38100D01*
X119156Y37551D01*
X118781Y37128D01*
X118252Y36928D01*
X117691Y36996D01*
X117226Y37317D01*
X116963Y37817D01*
X116963Y38383D01*
X117226Y38883D01*
X117691Y39204D01*
X118252Y39272D01*
X118781Y39072D01*
X119156Y38649D01*
X119291Y38100D01*
X149860Y38100D01*
X149860Y37900D01*
X142040Y37900D01*
X142040Y36969D01*
X141821Y36996D01*
X141356Y37317D01*
X141093Y37817D01*
X141093Y37900D01*
X142040Y37900D01*
X149860Y37900D01*
X149860Y37900D01*
X126862Y37900D01*
X126776Y37551D01*
X126401Y37128D01*
X125930Y36949D01*
X125930Y37900D01*
X126862Y37900D01*
X149860Y37900D01*
X149860Y37900D01*
X125530Y37900D01*
X125530Y36969D01*
X125311Y36996D01*
X124846Y37317D01*
X124583Y37817D01*
X124583Y37900D01*
X125530Y37900D01*
X149860Y37900D01*
X149860Y35171D01*
X124071Y35171D01*
X124071Y33409D01*
X122309Y33409D01*
X122309Y35171D01*
X124071Y35171D01*
X149860Y35171D01*
X149860Y34290D01*
X121631Y34290D01*
X121519Y33834D01*
X121207Y33483D01*
X120768Y33316D01*
X120302Y33373D01*
X119916Y33639D01*
X119698Y34055D01*
X119698Y34525D01*
X119916Y34941D01*
X120302Y35207D01*
X120768Y35264D01*
X121207Y35097D01*
X121519Y34746D01*
X121631Y34290D01*
X149860Y34290D01*
X149860Y41710D01*
X119242Y41710D01*
X119156Y41361D01*
X118781Y40938D01*
X118310Y40759D01*
X118310Y41710D01*
X119242Y41710D01*
X149860Y41710D01*
X149860Y41710D01*
X117910Y41710D01*
X117910Y40779D01*
X117691Y40806D01*
X117226Y41127D01*
X116963Y41627D01*
X116963Y41710D01*
X117910Y41710D01*
X149860Y41710D01*
X149860Y41910D01*
X110401Y41910D01*
X110266Y41361D01*
X109891Y40938D01*
X109362Y40738D01*
X108801Y40806D01*
X108336Y41127D01*
X108073Y41627D01*
X108073Y42193D01*
X108336Y42693D01*
X108801Y43014D01*
X109362Y43082D01*
X109891Y42882D01*
X110266Y42459D01*
X110401Y41910D01*
X149860Y41910D01*
X149860Y97790D01*
X148590Y99060D01*
X142227Y99060D01*
X142227Y98361D01*
X143434Y98361D01*
X143434Y97154D01*
X142227Y97154D01*
X142227Y98361D01*
X142227Y99060D01*
X140640Y99060D01*
X140640Y98361D01*
X141846Y98361D01*
X141846Y97154D01*
X140640Y97154D01*
X140640Y98361D01*
X140640Y99060D01*
X136999Y99060D01*
X136999Y94198D01*
X137677Y94198D01*
X138288Y93904D01*
X138711Y93374D01*
X138862Y92713D01*
X138711Y92051D01*
X138288Y91521D01*
X137677Y91227D01*
X136999Y91227D01*
X136388Y91521D01*
X135965Y92051D01*
X135814Y92713D01*
X135965Y93374D01*
X136388Y93904D01*
X136999Y94198D01*
X136999Y99060D01*
X130940Y99060D01*
X130940Y89933D01*
X131424Y89750D01*
X131767Y89362D01*
X131891Y88860D01*
X131767Y88358D01*
X131424Y87970D01*
X130940Y87787D01*
X130427Y87849D01*
X130001Y88143D01*
X129760Y88601D01*
X129760Y89119D01*
X130001Y89577D01*
X130427Y89871D01*
X130940Y89933D01*
X130940Y99060D01*
X130391Y99060D01*
X130391Y97719D01*
X131229Y97719D01*
X131983Y97356D01*
X132505Y96701D01*
X132691Y95885D01*
X132505Y95069D01*
X131983Y94414D01*
X131229Y94051D01*
X130391Y94051D01*
X129637Y94414D01*
X129115Y95069D01*
X128929Y95885D01*
X129115Y96701D01*
X129637Y97356D01*
X130391Y97719D01*
X130391Y99060D01*
X120783Y99060D01*
X120783Y95078D01*
X121278Y94890D01*
X121629Y94494D01*
X121756Y93980D01*
X121629Y93466D01*
X121278Y93070D01*
X120783Y92882D01*
X120258Y92946D01*
X115370Y63300D01*
X115370Y62443D01*
X115178Y62466D01*
X114742Y62767D01*
X114496Y63235D01*
X114496Y63300D01*
X115370Y63300D01*
X120258Y92946D01*
X119822Y93247D01*
X119576Y93715D01*
X119576Y94245D01*
X119822Y94713D01*
X120258Y95014D01*
X120783Y95078D01*
X120783Y99060D01*
X108150Y99060D01*
X108150Y97593D01*
X108578Y97430D01*
X108929Y97034D01*
X109007Y96720D01*
X108150Y96720D01*
X108150Y97593D01*
X108150Y99060D01*
X108083Y99060D01*
X108083Y95078D01*
X108578Y94890D01*
X108929Y94494D01*
X109056Y93980D01*
X108929Y93466D01*
X108578Y93070D01*
X108083Y92882D01*
X115770Y63300D01*
X116627Y63300D01*
X116549Y62986D01*
X116198Y62590D01*
X115770Y62427D01*
X115770Y63300D01*
X108083Y92882D01*
X115770Y64573D01*
X116198Y64410D01*
X116549Y64014D01*
X116627Y63700D01*
X115770Y63700D01*
X115770Y64573D01*
X108083Y92882D01*
X115178Y64534D01*
X115370Y64557D01*
X115370Y63700D01*
X114496Y63700D01*
X114496Y63765D01*
X114742Y64233D01*
X115178Y64534D01*
X108083Y92882D01*
X107558Y92946D01*
X107122Y93247D01*
X106876Y93715D01*
X106876Y94245D01*
X107122Y94713D01*
X107558Y95014D01*
X108083Y95078D01*
X108083Y99060D01*
X107750Y99060D01*
X107750Y97577D01*
X107750Y96720D01*
X106876Y96720D01*
X106876Y96785D01*
X107122Y97253D01*
X107558Y97554D01*
X107750Y97577D01*
X107750Y99060D01*
X106876Y99060D01*
X106876Y96320D01*
X107750Y96320D01*
X107750Y95463D01*
X107558Y95486D01*
X107122Y95787D01*
X106876Y96255D01*
X106876Y96320D01*
X106876Y99060D01*
X100673Y99060D01*
X100673Y97338D01*
X101511Y97338D01*
X102265Y96975D01*
X102787Y96320D01*
X102973Y95504D01*
X102787Y94688D01*
X102265Y94033D01*
X101511Y93670D01*
X100673Y93670D01*
X99919Y94033D01*
X99886Y94075D01*
X99397Y94688D01*
X99211Y95504D01*
X99397Y96320D01*
X99919Y96975D01*
X100673Y97338D01*
X100673Y99060D01*
X108083Y99060D01*
X108083Y89998D01*
X108578Y89810D01*
X108929Y89414D01*
X109056Y88900D01*
X108929Y88386D01*
X108578Y87990D01*
X108083Y87802D01*
X107558Y87866D01*
X107122Y88167D01*
X106876Y88635D01*
X106876Y89165D01*
X107122Y89633D01*
X107558Y89934D01*
X108083Y89998D01*
X108083Y99060D01*
X108150Y99060D01*
X108150Y96320D01*
X109007Y96320D01*
X108929Y96006D01*
X108578Y95610D01*
X108150Y95447D01*
X108150Y96320D01*
X108150Y99060D01*
X120783Y99060D01*
X120783Y89998D01*
X121278Y89810D01*
X121629Y89414D01*
X121756Y88900D01*
X121629Y88386D01*
X121278Y87990D01*
X120783Y87802D01*
X120258Y87866D01*
X119822Y88167D01*
X119576Y88635D01*
X119576Y89165D01*
X119822Y89633D01*
X120258Y89934D01*
X120783Y89998D01*
X120783Y99060D01*
X130940Y99060D01*
X130940Y87433D01*
X131424Y87250D01*
X131767Y86862D01*
X131891Y86360D01*
X131767Y85858D01*
X131424Y85470D01*
X130940Y85287D01*
X130427Y85349D01*
X130001Y85643D01*
X129760Y86101D01*
X129760Y86619D01*
X130001Y87077D01*
X130427Y87371D01*
X130940Y87433D01*
X130940Y99060D01*
X140640Y99060D01*
X140640Y96773D01*
X141846Y96773D01*
X141846Y95567D01*
X140640Y95567D01*
X140640Y96773D01*
X140640Y99060D01*
X142227Y99060D01*
X142227Y96773D01*
X143434Y96773D01*
X143434Y95567D01*
X142227Y95567D01*
X142227Y96773D01*
X142227Y99060D01*
X120783Y99060D01*
X120783Y87458D01*
X121278Y87270D01*
X121629Y86874D01*
X121756Y86360D01*
X121629Y85846D01*
X121278Y85450D01*
X120783Y85262D01*
X120258Y85326D01*
X119822Y85627D01*
X119576Y86095D01*
X119576Y86625D01*
X119822Y87093D01*
X120258Y87394D01*
X120783Y87458D01*
X120783Y99060D01*
X120783Y99060D01*
X120783Y84918D01*
X121278Y84730D01*
X121629Y84334D01*
X121756Y83820D01*
X121629Y83306D01*
X121278Y82910D01*
X120783Y82722D01*
X120258Y82786D01*
X119822Y83087D01*
X119576Y83555D01*
X119576Y84085D01*
X119822Y84553D01*
X120258Y84854D01*
X120783Y84918D01*
X120783Y99060D01*
X99060Y99060D01*
X96481Y96481D01*
X100916Y92046D01*
X101276Y92295D01*
X101710Y92348D01*
X102119Y92193D01*
X102224Y92075D01*
X107070Y92075D01*
X107122Y92173D01*
X107558Y92474D01*
X108083Y92538D01*
X108578Y92350D01*
X108929Y91954D01*
X109056Y91440D01*
X108929Y90926D01*
X108578Y90530D01*
X108083Y90342D01*
X107558Y90406D01*
X107122Y90707D01*
X107070Y90805D01*
X102224Y90805D01*
X102119Y90687D01*
X101710Y90532D01*
X101276Y90585D01*
X100916Y90834D01*
X100712Y91221D01*
X100712Y91659D01*
X100916Y92046D01*
X96481Y96481D01*
X92583Y92583D01*
X93131Y92035D01*
X98893Y92035D01*
X98893Y86273D01*
X93131Y86273D01*
X93131Y92035D01*
X92583Y92583D01*
X90074Y90074D01*
X95682Y84466D01*
X96293Y84760D01*
X96972Y84760D01*
X97583Y84466D01*
X97823Y84164D01*
X97901Y84182D01*
X98025Y84726D01*
X98448Y85256D01*
X99059Y85550D01*
X99738Y85550D01*
X100349Y85256D01*
X100771Y84726D01*
X100922Y84064D01*
X100771Y83403D01*
X100349Y82873D01*
X99738Y82579D01*
X99059Y82579D01*
X98448Y82873D01*
X98208Y83175D01*
X98130Y83157D01*
X98006Y82613D01*
X97583Y82083D01*
X96972Y81788D01*
X96293Y81788D01*
X95682Y82083D01*
X95259Y82613D01*
X95108Y83274D01*
X95259Y83935D01*
X95682Y84466D01*
X90074Y90074D01*
X89109Y89109D01*
X91361Y86857D01*
X92214Y86004D01*
X91361Y85151D01*
X90508Y86004D01*
X91361Y86857D01*
X89109Y89109D01*
X89109Y89109D01*
X90239Y87980D01*
X91092Y87127D01*
X90239Y86273D01*
X89385Y87127D01*
X90239Y87980D01*
X89109Y89109D01*
X87987Y87987D01*
X89116Y86857D01*
X89969Y86004D01*
X89116Y85151D01*
X88263Y86004D01*
X89116Y86857D01*
X87987Y87987D01*
X87987Y87987D01*
X90239Y85735D01*
X91092Y84882D01*
X90239Y84028D01*
X94350Y70473D01*
X94911Y70541D01*
X95440Y70341D01*
X95815Y69918D01*
X95950Y69369D01*
X95815Y68820D01*
X95440Y68397D01*
X94911Y68197D01*
X91051Y35171D01*
X91051Y33409D01*
X89289Y33409D01*
X89289Y35171D01*
X91051Y35171D01*
X94911Y68197D01*
X92510Y37900D01*
X92510Y36969D01*
X92291Y36996D01*
X91826Y37317D01*
X91563Y37817D01*
X91563Y37900D01*
X92510Y37900D01*
X94911Y68197D01*
X94350Y68265D01*
X93885Y68586D01*
X93622Y69086D01*
X93622Y69652D01*
X93885Y70152D01*
X94350Y70473D01*
X90239Y84028D01*
X90239Y76660D01*
X90848Y76660D01*
X91459Y76366D01*
X91881Y75836D01*
X92032Y75174D01*
X91881Y74513D01*
X91459Y73983D01*
X90848Y73689D01*
X101800Y41710D01*
X102732Y41710D01*
X102646Y41361D01*
X102271Y40938D01*
X101800Y40759D01*
X101800Y41710D01*
X90848Y73689D01*
X100453Y41710D01*
X101400Y41710D01*
X101400Y40779D01*
X101181Y40806D01*
X100716Y41127D01*
X100453Y41627D01*
X100453Y41710D01*
X90848Y73689D01*
X101181Y43014D01*
X101400Y43041D01*
X101400Y42110D01*
X100453Y42110D01*
X100453Y42193D01*
X100716Y42693D01*
X101181Y43014D01*
X90848Y73689D01*
X90169Y73689D01*
X89558Y73983D01*
X89318Y74285D01*
X89240Y74267D01*
X89116Y73723D01*
X88693Y73193D01*
X88082Y72898D01*
X87403Y72898D01*
X86792Y73193D01*
X86369Y73723D01*
X86218Y74384D01*
X86369Y75045D01*
X86792Y75576D01*
X87403Y75870D01*
X88082Y75870D01*
X88693Y75576D01*
X88933Y75274D01*
X89011Y75292D01*
X89135Y75836D01*
X89558Y76366D01*
X90169Y76660D01*
X90239Y76660D01*
X90239Y84028D01*
X89385Y84882D01*
X90239Y85735D01*
X87987Y87987D01*
X80219Y80219D01*
X82471Y77967D01*
X83324Y77114D01*
X82471Y76261D01*
X81618Y77114D01*
X82471Y77967D01*
X80219Y80219D01*
X80219Y80219D01*
X81349Y79090D01*
X82202Y78237D01*
X81349Y77383D01*
X88962Y65085D01*
X89523Y65153D01*
X90052Y64953D01*
X90427Y64530D01*
X90562Y63981D01*
X90427Y63432D01*
X90052Y63009D01*
X89523Y62809D01*
X88962Y62877D01*
X88497Y63198D01*
X88234Y63698D01*
X88234Y64264D01*
X88497Y64764D01*
X88962Y65085D01*
X81349Y77383D01*
X86011Y67702D01*
X86015Y67703D01*
X86693Y67703D01*
X87304Y67409D01*
X87727Y66879D01*
X87878Y66218D01*
X87727Y65556D01*
X87304Y65026D01*
X86693Y64732D01*
X87748Y35264D01*
X88187Y35097D01*
X88499Y34746D01*
X88611Y34290D01*
X88499Y33834D01*
X88187Y33483D01*
X87748Y33316D01*
X87282Y33373D01*
X86896Y33639D01*
X86678Y34055D01*
X86678Y34525D01*
X86896Y34941D01*
X87282Y35207D01*
X87748Y35264D01*
X86693Y64732D01*
X86015Y64732D01*
X85232Y39272D01*
X85761Y39072D01*
X86136Y38649D01*
X86271Y38100D01*
X86136Y37551D01*
X85761Y37128D01*
X85232Y36928D01*
X84671Y36996D01*
X84206Y37317D01*
X83943Y37817D01*
X83943Y38383D01*
X84206Y38883D01*
X84671Y39204D01*
X85232Y39272D01*
X86015Y64732D01*
X84890Y41710D01*
X84890Y40779D01*
X84671Y40806D01*
X84206Y41127D01*
X83943Y41627D01*
X83943Y41710D01*
X84890Y41710D01*
X86015Y64732D01*
X86015Y41710D01*
X86222Y41710D01*
X86136Y41361D01*
X85761Y40938D01*
X85290Y40759D01*
X85290Y41710D01*
X86015Y41710D01*
X86015Y64732D01*
X84890Y43041D01*
X84890Y42110D01*
X83943Y42110D01*
X83943Y42193D01*
X84206Y42693D01*
X84671Y43014D01*
X84890Y43041D01*
X86015Y64732D01*
X85404Y65026D01*
X84981Y65556D01*
X84830Y66218D01*
X84981Y66879D01*
X85404Y67409D01*
X86011Y67702D01*
X81349Y77383D01*
X81349Y72271D01*
X81371Y72271D01*
X81982Y71977D01*
X82405Y71447D01*
X82556Y70785D01*
X82405Y70124D01*
X81982Y69594D01*
X81371Y69300D01*
X92910Y37900D01*
X93842Y37900D01*
X93756Y37551D01*
X93381Y37128D01*
X92910Y36949D01*
X92910Y37900D01*
X81371Y69300D01*
X92910Y39251D01*
X93381Y39072D01*
X93756Y38649D01*
X93842Y38300D01*
X92910Y38300D01*
X92910Y39251D01*
X81371Y69300D01*
X92291Y39204D01*
X92510Y39231D01*
X92510Y38300D01*
X91563Y38300D01*
X91563Y38383D01*
X91826Y38883D01*
X92291Y39204D01*
X81371Y69300D01*
X92291Y43014D01*
X92852Y43082D01*
X93381Y42882D01*
X93756Y42459D01*
X93891Y41910D01*
X93756Y41361D01*
X93381Y40938D01*
X92852Y40738D01*
X92291Y40806D01*
X91826Y41127D01*
X91563Y41627D01*
X91563Y42193D01*
X91826Y42693D01*
X92291Y43014D01*
X81371Y69300D01*
X85290Y43061D01*
X85761Y42882D01*
X86136Y42459D01*
X86222Y42110D01*
X85290Y42110D01*
X85290Y43061D01*
X81371Y69300D01*
X80693Y69300D01*
X80082Y69594D01*
X77373Y64971D01*
X77895Y64316D01*
X78081Y63500D01*
X77895Y62684D01*
X77373Y62029D01*
X76619Y61666D01*
X76619Y37900D01*
X77332Y37900D01*
X77246Y37551D01*
X76871Y37128D01*
X76400Y36949D01*
X76400Y37900D01*
X76619Y37900D01*
X76619Y61666D01*
X76400Y61666D01*
X76400Y39251D01*
X76871Y39072D01*
X77246Y38649D01*
X77332Y38300D01*
X76400Y38300D01*
X76400Y39251D01*
X76400Y61666D01*
X76342Y61666D01*
X76342Y43082D01*
X76871Y42882D01*
X77246Y42459D01*
X77381Y41910D01*
X77246Y41361D01*
X76871Y40938D01*
X76342Y40738D01*
X75781Y40806D01*
X75316Y41127D01*
X75053Y41627D01*
X75053Y42193D01*
X75316Y42693D01*
X75781Y43014D01*
X76342Y43082D01*
X76342Y61666D01*
X76000Y61666D01*
X76000Y39231D01*
X76000Y38300D01*
X75053Y38300D01*
X75053Y38383D01*
X75316Y38883D01*
X75781Y39204D01*
X76000Y39231D01*
X76000Y61666D01*
X75781Y61666D01*
X74541Y35171D01*
X74541Y33409D01*
X72779Y33409D01*
X72779Y35171D01*
X74541Y35171D01*
X75781Y61666D01*
X75781Y37900D01*
X76000Y37900D01*
X76000Y36969D01*
X75781Y36996D01*
X75316Y37317D01*
X75053Y37817D01*
X75053Y37900D01*
X75781Y37900D01*
X75781Y61666D01*
X75027Y62029D01*
X74505Y62684D01*
X74319Y63500D01*
X74505Y64316D01*
X75027Y64971D01*
X75781Y65334D01*
X76619Y65334D01*
X77373Y64971D01*
X80082Y69594D01*
X79659Y70124D01*
X79508Y70785D01*
X79659Y71447D01*
X80082Y71977D01*
X80693Y72271D01*
X81349Y72271D01*
X81349Y77383D01*
X80495Y78237D01*
X81349Y79090D01*
X80219Y80219D01*
X79097Y79097D01*
X80226Y77967D01*
X81079Y77114D01*
X80226Y76261D01*
X79373Y77114D01*
X80226Y77967D01*
X79097Y79097D01*
X79097Y79097D01*
X81349Y76845D01*
X82202Y75992D01*
X81349Y75138D01*
X101800Y43061D01*
X102271Y42882D01*
X102646Y42459D01*
X102732Y42110D01*
X101800Y42110D01*
X101800Y43061D01*
X81349Y75138D01*
X80495Y75992D01*
X81349Y76845D01*
X79097Y79097D01*
X72390Y72390D01*
X63630Y72390D01*
X63630Y71099D01*
X63249Y71099D01*
X63249Y70040D01*
X62202Y70040D01*
X62202Y69659D01*
X63249Y69659D01*
X63249Y68601D01*
X63155Y68601D01*
X62641Y68848D01*
X62286Y69294D01*
X62202Y69659D01*
X62202Y70040D01*
X62286Y70406D01*
X62641Y70852D01*
X63155Y71099D01*
X63249Y71099D01*
X63630Y71099D01*
X63725Y71099D01*
X64239Y70852D01*
X64594Y70406D01*
X64678Y70040D01*
X63630Y70040D01*
X63630Y69659D01*
X64678Y69659D01*
X64594Y69294D01*
X64239Y68848D01*
X63725Y68601D01*
X63630Y68601D01*
X63630Y69659D01*
X63630Y70040D01*
X63630Y71099D01*
X63630Y72390D01*
X55655Y72390D01*
X55655Y71099D01*
X56225Y71099D01*
X56739Y70852D01*
X57094Y70406D01*
X57221Y69850D01*
X57094Y69294D01*
X56739Y68848D01*
X56225Y68601D01*
X56225Y62231D01*
X56871Y62231D01*
X56871Y57469D01*
X70772Y35207D01*
X71238Y35264D01*
X71677Y35097D01*
X71989Y34746D01*
X72101Y34290D01*
X71989Y33834D01*
X71677Y33483D01*
X71238Y33316D01*
X70772Y33373D01*
X70386Y33639D01*
X70168Y34055D01*
X70168Y34525D01*
X70386Y34941D01*
X70772Y35207D01*
X56871Y57469D01*
X68161Y39204D01*
X68722Y39272D01*
X69251Y39072D01*
X69626Y38649D01*
X69761Y38100D01*
X69626Y37551D01*
X69251Y37128D01*
X68722Y36928D01*
X68161Y36996D01*
X67696Y37317D01*
X67433Y37817D01*
X67433Y38383D01*
X67696Y38883D01*
X68161Y39204D01*
X56871Y57469D01*
X59890Y37900D01*
X60822Y37900D01*
X60736Y37551D01*
X60361Y37128D01*
X59890Y36949D01*
X59890Y37900D01*
X56871Y57469D01*
X68780Y41710D01*
X69712Y41710D01*
X69626Y41361D01*
X69251Y40938D01*
X68780Y40759D01*
X68780Y41710D01*
X56871Y57469D01*
X58543Y37900D01*
X59490Y37900D01*
X59490Y36969D01*
X59271Y36996D01*
X58806Y37317D01*
X58543Y37817D01*
X58543Y37900D01*
X56871Y57469D01*
X67433Y41710D01*
X68380Y41710D01*
X68380Y40779D01*
X68161Y40806D01*
X67696Y41127D01*
X67433Y41627D01*
X67433Y41710D01*
X56871Y57469D01*
X68780Y43061D01*
X69251Y42882D01*
X69626Y42459D01*
X69712Y42110D01*
X68780Y42110D01*
X68780Y43061D01*
X56871Y57469D01*
X59890Y39251D01*
X60361Y39072D01*
X60736Y38649D01*
X60822Y38300D01*
X59890Y38300D01*
X59890Y39251D01*
X56871Y57469D01*
X59271Y39204D01*
X59490Y39231D01*
X59490Y38300D01*
X58543Y38300D01*
X58543Y38383D01*
X58806Y38883D01*
X59271Y39204D01*
X56871Y57469D01*
X67696Y42693D01*
X68161Y43014D01*
X68380Y43041D01*
X68380Y42110D01*
X67433Y42110D01*
X67433Y42193D01*
X67696Y42693D01*
X56871Y57469D01*
X59271Y43014D01*
X59832Y43082D01*
X60361Y42882D01*
X60736Y42459D01*
X60871Y41910D01*
X60736Y41361D01*
X60361Y40938D01*
X59832Y40738D01*
X59271Y40806D01*
X58806Y41127D01*
X58543Y41627D01*
X58543Y42193D01*
X58806Y42693D01*
X59271Y43014D01*
X56871Y57469D01*
X52109Y57469D01*
X52109Y62231D01*
X56225Y62231D01*
X56225Y68601D01*
X55655Y68601D01*
X55141Y68848D01*
X54786Y69294D01*
X54659Y69850D01*
X54786Y70406D01*
X55141Y70852D01*
X55655Y71099D01*
X55655Y72390D01*
X35691Y72390D01*
X35691Y71099D01*
X35309Y71099D01*
X35309Y70040D01*
X34262Y70040D01*
X34262Y69659D01*
X35309Y69659D01*
X35309Y68601D01*
X35215Y68601D01*
X34701Y68848D01*
X34346Y69294D01*
X34262Y69659D01*
X34262Y70040D01*
X34346Y70406D01*
X34701Y70852D01*
X35215Y71099D01*
X35309Y71099D01*
X35691Y71099D01*
X35785Y71099D01*
X36299Y70852D01*
X36654Y70406D01*
X36738Y70040D01*
X35691Y70040D01*
X35691Y69659D01*
X36738Y69659D01*
X36654Y69294D01*
X36299Y68848D01*
X35785Y68601D01*
X35785Y62231D01*
X39331Y62231D01*
X39331Y57469D01*
X34569Y57469D01*
X34569Y62231D01*
X28931Y62231D01*
X28931Y57469D01*
X24169Y57469D01*
X24169Y62231D01*
X28931Y62231D01*
X34569Y62231D01*
X35785Y62231D01*
X35785Y68601D01*
X35691Y68601D01*
X35691Y69659D01*
X35691Y70040D01*
X35691Y71099D01*
X35691Y72390D01*
X27715Y72390D01*
X27715Y71099D01*
X28285Y71099D01*
X28799Y70852D01*
X29154Y70406D01*
X29281Y69850D01*
X29154Y69294D01*
X28799Y68848D01*
X28285Y68601D01*
X27715Y68601D01*
X27201Y68848D01*
X26846Y69294D01*
X26719Y69850D01*
X26846Y70406D01*
X27201Y70852D01*
X27715Y71099D01*
X27715Y72390D01*
X20320Y72390D01*
X9039Y61109D01*
X12797Y57351D01*
X13551Y57714D01*
X14389Y57714D01*
X15143Y57351D01*
X15665Y56696D01*
X15851Y55880D01*
X15665Y55064D01*
X15143Y54409D01*
X14389Y54046D01*
X18631Y43014D01*
X18850Y43041D01*
X19250Y43041D01*
X19250Y43061D01*
X19721Y42882D01*
X20096Y42459D01*
X20182Y42110D01*
X20182Y41710D01*
X20096Y41361D01*
X19721Y40938D01*
X19250Y40759D01*
X19192Y39272D01*
X19721Y39072D01*
X20096Y38649D01*
X20231Y38100D01*
X20096Y37551D01*
X19721Y37128D01*
X21110Y35116D01*
X21242Y35207D01*
X21708Y35264D01*
X22147Y35097D01*
X22459Y34746D01*
X22571Y34290D01*
X23249Y34290D01*
X23249Y35171D01*
X25011Y35171D01*
X26251Y36996D01*
X25786Y37317D01*
X25523Y37817D01*
X25523Y37900D01*
X25523Y38300D01*
X25523Y38383D01*
X25786Y38883D01*
X26251Y39204D01*
X26470Y39231D01*
X26470Y38300D01*
X25523Y38300D01*
X25523Y37900D01*
X26470Y37900D01*
X26870Y37900D01*
X26870Y38300D01*
X26870Y39251D01*
X26812Y40738D01*
X26251Y40806D01*
X25786Y41127D01*
X25523Y41627D01*
X25523Y42193D01*
X25786Y42693D01*
X26251Y43014D01*
X26812Y43082D01*
X27341Y42882D01*
X27716Y42459D01*
X27851Y41910D01*
X34413Y41710D01*
X34413Y42110D01*
X34413Y42193D01*
X34676Y42693D01*
X35141Y43014D01*
X35360Y43041D01*
X35760Y43041D01*
X35760Y43061D01*
X36231Y42882D01*
X36606Y42459D01*
X36692Y42110D01*
X35760Y42110D01*
X35760Y43041D01*
X35360Y43041D01*
X35360Y42110D01*
X34413Y42110D01*
X34413Y41710D01*
X35360Y41710D01*
X35760Y41710D01*
X36692Y41710D01*
X42033Y41710D01*
X42033Y42193D01*
X42296Y42693D01*
X42761Y43014D01*
X43322Y43082D01*
X43851Y42882D01*
X44226Y42459D01*
X44361Y41910D01*
X52270Y41710D01*
X53202Y41710D01*
X53116Y41361D01*
X52741Y40938D01*
X52270Y40759D01*
X52270Y41710D01*
X44361Y41910D01*
X50923Y42110D01*
X50923Y42193D01*
X51186Y42693D01*
X51651Y43014D01*
X51870Y43041D01*
X52270Y43041D01*
X52270Y43061D01*
X52741Y42882D01*
X53116Y42459D01*
X53202Y42110D01*
X52270Y42110D01*
X52270Y43041D01*
X51870Y43041D01*
X51870Y42110D01*
X56269Y35171D01*
X58031Y35171D01*
X58031Y33409D01*
X56269Y33409D01*
X56269Y35171D01*
X51870Y42110D01*
X50923Y42110D01*
X44361Y41910D01*
X50923Y41710D01*
X51870Y41710D01*
X51870Y40779D01*
X51651Y40806D01*
X51186Y41127D01*
X50923Y41627D01*
X50923Y41710D01*
X44361Y41910D01*
X44226Y41361D01*
X53876Y34941D01*
X54262Y35207D01*
X54728Y35264D01*
X55167Y35097D01*
X55479Y34746D01*
X55591Y34290D01*
X55479Y33834D01*
X55167Y33483D01*
X54728Y33316D01*
X54262Y33373D01*
X53876Y33639D01*
X53658Y34055D01*
X53658Y34525D01*
X53876Y34941D01*
X44226Y41361D01*
X50923Y38383D01*
X51186Y38883D01*
X51651Y39204D01*
X52212Y39272D01*
X52741Y39072D01*
X53116Y38649D01*
X53251Y38100D01*
X53116Y37551D01*
X52741Y37128D01*
X52212Y36928D01*
X51651Y36996D01*
X51186Y37317D01*
X50923Y37817D01*
X50923Y38383D01*
X44226Y41361D01*
X43851Y40938D01*
X43322Y40738D01*
X43380Y37900D01*
X44312Y37900D01*
X44226Y37551D01*
X43851Y37128D01*
X43380Y36949D01*
X43380Y37900D01*
X43322Y40738D01*
X43380Y39251D01*
X43851Y39072D01*
X44226Y38649D01*
X44312Y38300D01*
X43380Y38300D01*
X43380Y39251D01*
X43322Y40738D01*
X43165Y40757D01*
X42980Y39231D01*
X42980Y38300D01*
X42033Y38300D01*
X42033Y38383D01*
X42296Y38883D01*
X42761Y39204D01*
X42980Y39231D01*
X43165Y40757D01*
X42761Y40806D01*
X42296Y41127D01*
X42033Y41627D01*
X42033Y41710D01*
X36692Y41710D01*
X36606Y41361D01*
X36231Y40938D01*
X35760Y40759D01*
X35702Y39272D01*
X36231Y39072D01*
X36606Y38649D01*
X36741Y38100D01*
X42033Y37900D01*
X42980Y37900D01*
X42980Y36969D01*
X42761Y36996D01*
X42296Y37317D01*
X42033Y37817D01*
X42033Y37900D01*
X36741Y38100D01*
X36606Y37551D01*
X39759Y35171D01*
X41521Y35171D01*
X41521Y33409D01*
X39759Y33409D01*
X39759Y35171D01*
X36606Y37551D01*
X36231Y37128D01*
X37620Y35116D01*
X37752Y35207D01*
X38218Y35264D01*
X38657Y35097D01*
X38969Y34746D01*
X39081Y34290D01*
X38969Y33834D01*
X38657Y33483D01*
X38218Y33316D01*
X37752Y33373D01*
X37366Y33639D01*
X37148Y34055D01*
X37148Y34525D01*
X37366Y34941D01*
X37620Y35116D01*
X36231Y37128D01*
X35702Y36928D01*
X35141Y36996D01*
X34676Y37317D01*
X34413Y37817D01*
X34413Y38383D01*
X34676Y38883D01*
X35141Y39204D01*
X35702Y39272D01*
X35760Y40759D01*
X35760Y41710D01*
X35360Y41710D01*
X35360Y40779D01*
X35141Y40806D01*
X34676Y41127D01*
X34413Y41627D01*
X34413Y41710D01*
X27851Y41910D01*
X27716Y41361D01*
X27341Y40938D01*
X26812Y40738D01*
X26870Y39251D01*
X27341Y39072D01*
X27716Y38649D01*
X27802Y38300D01*
X26870Y38300D01*
X26870Y37900D01*
X27802Y37900D01*
X27716Y37551D01*
X27341Y37128D01*
X26870Y36949D01*
X26870Y37900D01*
X26470Y37900D01*
X26470Y36969D01*
X26251Y36996D01*
X25011Y35171D01*
X25011Y33409D01*
X23249Y33409D01*
X23249Y34290D01*
X22571Y34290D01*
X22459Y33834D01*
X22147Y33483D01*
X21708Y33316D01*
X21242Y33373D01*
X20856Y33639D01*
X20638Y34055D01*
X20638Y34525D01*
X20856Y34941D01*
X21110Y35116D01*
X19721Y37128D01*
X19192Y36928D01*
X18631Y36996D01*
X18166Y37317D01*
X17903Y37817D01*
X17903Y38383D01*
X18166Y38883D01*
X18631Y39204D01*
X19192Y39272D01*
X19250Y40759D01*
X19250Y41710D01*
X20182Y41710D01*
X20182Y42110D01*
X19250Y42110D01*
X19250Y43041D01*
X18850Y43041D01*
X18850Y42110D01*
X17903Y42110D01*
X17903Y41710D01*
X18850Y41710D01*
X18850Y40779D01*
X18631Y40806D01*
X18166Y41127D01*
X17903Y41627D01*
X17903Y41710D01*
X17903Y42110D01*
X17903Y42193D01*
X18166Y42693D01*
X18631Y43014D01*
X14389Y54046D01*
X13551Y54046D01*
X12797Y54409D01*
X12275Y55064D01*
X12089Y55880D01*
X12275Y56696D01*
X12797Y57351D01*
X9039Y61109D01*
X0Y52070D01*
X0Y41627D01*
X2663Y41627D01*
X2663Y41710D01*
X2663Y42110D01*
X2663Y42193D01*
X2926Y42693D01*
X3391Y43014D01*
X3610Y43041D01*
X4010Y43041D01*
X4010Y43061D01*
X4481Y42882D01*
X4856Y42459D01*
X4942Y42110D01*
X4010Y42110D01*
X4010Y43041D01*
X3610Y43041D01*
X3610Y42110D01*
X2663Y42110D01*
X2663Y41710D01*
X3610Y41710D01*
X4010Y41710D01*
X4942Y41710D01*
X4856Y41361D01*
X4481Y40938D01*
X4010Y40759D01*
X4010Y41710D01*
X3610Y41710D01*
X3610Y40779D01*
X3391Y40806D01*
X2926Y41127D01*
X2663Y41627D01*
X0Y41627D01*
X0Y25129D01*
X4022Y25129D01*
X4022Y25209D01*
X4022Y25590D01*
X4022Y25671D01*
X4273Y26150D01*
X4719Y26458D01*
X4929Y26483D01*
X5311Y26483D01*
X5311Y26502D01*
X5762Y26331D01*
X6121Y25926D01*
X6204Y25590D01*
X5311Y25590D01*
X5311Y26483D01*
X4929Y26483D01*
X4929Y25590D01*
X4022Y25590D01*
X4022Y25209D01*
X4929Y25209D01*
X5311Y25209D01*
X6204Y25209D01*
X6121Y24874D01*
X5762Y24469D01*
X5311Y24298D01*
X5311Y25209D01*
X4929Y25209D01*
X4929Y24317D01*
X4719Y24342D01*
X4273Y24650D01*
X4022Y25129D01*
X0Y25129D01*
X0Y16239D01*
X4022Y16239D01*
X4022Y16320D01*
X4022Y16701D01*
X4022Y16781D01*
X4273Y17260D01*
X4719Y17568D01*
X4929Y17593D01*
X5311Y17593D01*
X5311Y17612D01*
X5762Y17441D01*
X6121Y17036D01*
X6204Y16701D01*
X5311Y16701D01*
X5311Y17593D01*
X4929Y17593D01*
X4929Y16701D01*
X4022Y16701D01*
X4022Y16320D01*
X4929Y16320D01*
X5311Y16320D01*
X6204Y16320D01*
X9022Y16320D01*
X9022Y16781D01*
X9273Y17260D01*
X9719Y17568D01*
X10256Y17633D01*
X10762Y17441D01*
X11121Y17036D01*
X11251Y16510D01*
X11121Y15984D01*
X10762Y15579D01*
X10256Y15387D01*
X9719Y15452D01*
X9273Y15760D01*
X9022Y16239D01*
X9022Y16320D01*
X6204Y16320D01*
X6121Y15984D01*
X5762Y15579D01*
X5311Y15408D01*
X5311Y16320D01*
X4929Y16320D01*
X4929Y15427D01*
X4719Y15452D01*
X4273Y15760D01*
X4022Y16239D01*
X0Y16239D01*
X0Y13970D01*
X0635Y13970D01*
X0635Y19980D01*
X0635Y19980D01*
X0635Y48260D01*
X0683Y48503D01*
X0821Y48709D01*
X3361Y51249D01*
X3567Y51387D01*
X3810Y51435D01*
X19980Y51435D01*
X19980Y51435D01*
X32687Y51435D01*
X32714Y51525D01*
X32571Y51621D01*
X31301Y52891D01*
X31163Y53097D01*
X31115Y53340D01*
X31115Y59940D01*
X31115Y59940D01*
X31115Y68770D01*
X30951Y68848D01*
X30596Y69294D01*
X30469Y69850D01*
X30596Y70406D01*
X30951Y70852D01*
X31465Y71099D01*
X32035Y71099D01*
X32549Y70852D01*
X32904Y70406D01*
X33031Y69850D01*
X32904Y69294D01*
X32549Y68848D01*
X32385Y68770D01*
X32385Y53603D01*
X33283Y52705D01*
X34662Y52705D01*
X35746Y53789D01*
X35952Y53927D01*
X36195Y53975D01*
X39960Y53975D01*
X39960Y53975D01*
X49902Y53975D01*
X50986Y55059D01*
X51192Y55197D01*
X51435Y55245D01*
X59940Y55245D01*
X59940Y55245D01*
X60627Y55245D01*
X60654Y55335D01*
X60511Y55431D01*
X59241Y56701D01*
X59103Y56907D01*
X59055Y57150D01*
X59055Y59940D01*
X59055Y59940D01*
X59055Y68770D01*
X58891Y68848D01*
X58536Y69294D01*
X58409Y69850D01*
X58536Y70406D01*
X58891Y70852D01*
X59405Y71099D01*
X59975Y71099D01*
X60489Y70852D01*
X60844Y70406D01*
X60971Y69850D01*
X60844Y69294D01*
X60489Y68848D01*
X60325Y68770D01*
X60325Y57413D01*
X61223Y56515D01*
X63872Y56515D01*
X64748Y57391D01*
X64715Y57469D01*
X62509Y57469D01*
X62509Y62231D01*
X67271Y62231D01*
X67271Y57785D01*
X78477Y57785D01*
X80392Y59700D01*
X80392Y59909D01*
X80596Y60296D01*
X80956Y60545D01*
X81390Y60598D01*
X81799Y60443D01*
X82090Y60115D01*
X82138Y59920D01*
X82138Y59920D01*
X82194Y59690D01*
X82090Y59265D01*
X81799Y58937D01*
X81390Y58782D01*
X81283Y58795D01*
X79842Y57354D01*
X79842Y57354D01*
X79189Y56701D01*
X79046Y56605D01*
X79073Y56515D01*
X79747Y56515D01*
X80392Y57160D01*
X80392Y57369D01*
X80596Y57756D01*
X80956Y58005D01*
X81390Y58058D01*
X81799Y57903D01*
X82090Y57575D01*
X82194Y57150D01*
X82090Y56725D01*
X81799Y56397D01*
X81390Y56242D01*
X81283Y56255D01*
X80459Y55431D01*
X80316Y55335D01*
X80343Y55245D01*
X81017Y55245D01*
X82101Y56329D01*
X82307Y56467D01*
X82550Y56515D01*
X83151Y56515D01*
X82932Y56931D01*
X82932Y57369D01*
X83136Y57756D01*
X83185Y57790D01*
X83185Y67310D01*
X83233Y67553D01*
X83371Y67759D01*
X84455Y68843D01*
X84455Y75565D01*
X84503Y75808D01*
X84641Y76014D01*
X86546Y77919D01*
X86752Y78057D01*
X86995Y78105D01*
X89531Y78105D01*
X89553Y78204D01*
X88972Y78484D01*
X88549Y79014D01*
X88398Y79675D01*
X88549Y80337D01*
X88972Y80867D01*
X89583Y81161D01*
X90261Y81161D01*
X90872Y80867D01*
X91295Y80337D01*
X91446Y79675D01*
X91295Y79014D01*
X90872Y78484D01*
X90291Y78204D01*
X90313Y78105D01*
X91812Y78105D01*
X93531Y79824D01*
X93737Y79962D01*
X93980Y80010D01*
X98162Y80010D01*
X104961Y86809D01*
X105167Y86947D01*
X105410Y86995D01*
X107070Y86995D01*
X107122Y87093D01*
X107558Y87394D01*
X108083Y87458D01*
X108578Y87270D01*
X108929Y86874D01*
X109056Y86360D01*
X108929Y85846D01*
X108578Y85450D01*
X108083Y85262D01*
X107558Y85326D01*
X107122Y85627D01*
X107070Y85725D01*
X105673Y85725D01*
X99868Y79920D01*
X99868Y79920D01*
X98874Y78926D01*
X98668Y78788D01*
X98425Y78740D01*
X94243Y78740D01*
X92524Y77021D01*
X92318Y76883D01*
X92075Y76835D01*
X87258Y76835D01*
X85725Y75302D01*
X85725Y68580D01*
X85677Y68337D01*
X85539Y68131D01*
X84455Y67047D01*
X84455Y57772D01*
X84630Y57575D01*
X84734Y57150D01*
X84630Y56725D01*
X84510Y56590D01*
X84544Y56515D01*
X87596Y56515D01*
X87377Y56931D01*
X87377Y57369D01*
X87581Y57756D01*
X87630Y57790D01*
X87630Y59690D01*
X87678Y59933D01*
X87816Y60139D01*
X90805Y63128D01*
X90805Y71755D01*
X90853Y71998D01*
X90991Y72204D01*
X92710Y73923D01*
X92710Y76200D01*
X92758Y76443D01*
X92896Y76649D01*
X94166Y77919D01*
X94372Y78057D01*
X94615Y78105D01*
X98797Y78105D01*
X104961Y84269D01*
X105167Y84407D01*
X105410Y84455D01*
X107070Y84455D01*
X107122Y84553D01*
X107558Y84854D01*
X108083Y84918D01*
X108578Y84730D01*
X108929Y84334D01*
X109056Y83820D01*
X108929Y83306D01*
X108578Y82910D01*
X108083Y82722D01*
X107558Y82786D01*
X107122Y83087D01*
X107070Y83185D01*
X105673Y83185D01*
X99822Y77334D01*
X99822Y77334D01*
X99509Y77021D01*
X99303Y76883D01*
X99060Y76835D01*
X94878Y76835D01*
X94614Y76571D01*
X94676Y76483D01*
X94905Y76593D01*
X95583Y76593D01*
X96194Y76299D01*
X96617Y75769D01*
X96768Y75108D01*
X96617Y74446D01*
X96194Y73916D01*
X95583Y73622D01*
X94905Y73622D01*
X94294Y73916D01*
X94065Y74203D01*
X93980Y74173D01*
X93980Y73660D01*
X93932Y73417D01*
X93794Y73211D01*
X92075Y71492D01*
X92075Y70818D01*
X92165Y70791D01*
X92261Y70934D01*
X94166Y72839D01*
X94372Y72977D01*
X94615Y73025D01*
X96257Y73025D01*
X104961Y81729D01*
X105167Y81867D01*
X105410Y81915D01*
X107070Y81915D01*
X107122Y82013D01*
X107558Y82314D01*
X108083Y82378D01*
X108578Y82190D01*
X108929Y81794D01*
X109056Y81280D01*
X108929Y80766D01*
X108578Y80370D01*
X108083Y80182D01*
X107558Y80246D01*
X107122Y80547D01*
X107070Y80645D01*
X105673Y80645D01*
X99822Y74794D01*
X99822Y74794D01*
X96969Y71941D01*
X96763Y71803D01*
X96520Y71755D01*
X94878Y71755D01*
X93345Y70222D01*
X93345Y68208D01*
X95064Y66489D01*
X95160Y66346D01*
X95250Y66373D01*
X95250Y67310D01*
X95298Y67553D01*
X95436Y67759D01*
X97790Y70113D01*
X97790Y71755D01*
X97838Y71998D01*
X97976Y72204D01*
X99900Y74128D01*
X99900Y74128D01*
X104961Y79189D01*
X105167Y79327D01*
X105410Y79375D01*
X107070Y79375D01*
X107122Y79473D01*
X107558Y79774D01*
X108083Y79838D01*
X108578Y79650D01*
X108929Y79254D01*
X109056Y78740D01*
X108929Y78226D01*
X108578Y77830D01*
X108083Y77642D01*
X107558Y77706D01*
X107122Y78007D01*
X107070Y78105D01*
X105673Y78105D01*
X99060Y71492D01*
X99060Y70818D01*
X99150Y70791D01*
X99246Y70934D01*
X99900Y71588D01*
X99900Y71588D01*
X104961Y76649D01*
X105167Y76787D01*
X105410Y76835D01*
X107070Y76835D01*
X107122Y76933D01*
X107558Y77234D01*
X108083Y77298D01*
X108578Y77110D01*
X108929Y76714D01*
X109056Y76200D01*
X108929Y75686D01*
X108578Y75290D01*
X108083Y75102D01*
X107558Y75166D01*
X107122Y75467D01*
X107070Y75565D01*
X105673Y75565D01*
X100330Y70222D01*
X100330Y69548D01*
X100420Y69521D01*
X100516Y69664D01*
X104961Y74109D01*
X105167Y74247D01*
X105410Y74295D01*
X107070Y74295D01*
X107122Y74393D01*
X107558Y74694D01*
X108083Y74758D01*
X108578Y74570D01*
X108929Y74174D01*
X109056Y73660D01*
X108929Y73146D01*
X108578Y72750D01*
X108083Y72562D01*
X107558Y72626D01*
X107122Y72927D01*
X107070Y73025D01*
X105673Y73025D01*
X101600Y68952D01*
X101600Y68278D01*
X101690Y68251D01*
X101786Y68394D01*
X104961Y71569D01*
X105167Y71707D01*
X105410Y71755D01*
X107070Y71755D01*
X107122Y71853D01*
X107558Y72154D01*
X108083Y72218D01*
X108578Y72030D01*
X108929Y71634D01*
X109056Y71120D01*
X108929Y70606D01*
X108578Y70210D01*
X108083Y70022D01*
X107558Y70086D01*
X107122Y70387D01*
X107070Y70485D01*
X105673Y70485D01*
X102870Y67682D01*
X102870Y67008D01*
X102960Y66981D01*
X103056Y67124D01*
X104961Y69029D01*
X105167Y69167D01*
X105410Y69215D01*
X107070Y69215D01*
X107122Y69313D01*
X107558Y69614D01*
X108083Y69678D01*
X108578Y69490D01*
X108929Y69094D01*
X109056Y68580D01*
X108929Y68066D01*
X108578Y67670D01*
X108083Y67482D01*
X107558Y67546D01*
X107122Y67847D01*
X107070Y67945D01*
X105673Y67945D01*
X104140Y66412D01*
X104140Y65738D01*
X104230Y65711D01*
X104326Y65854D01*
X104961Y66489D01*
X105167Y66627D01*
X105410Y66675D01*
X107070Y66675D01*
X107122Y66773D01*
X107558Y67074D01*
X108083Y67138D01*
X108578Y66950D01*
X108929Y66554D01*
X109056Y66040D01*
X108929Y65526D01*
X108578Y65130D01*
X108083Y64942D01*
X107558Y65006D01*
X107122Y65307D01*
X107070Y65405D01*
X105673Y65405D01*
X105410Y65142D01*
X105410Y57785D01*
X105390Y57684D01*
X105390Y57684D01*
X105362Y57542D01*
X105224Y57336D01*
X104589Y56701D01*
X104446Y56605D01*
X104473Y56515D01*
X105147Y56515D01*
X107315Y58683D01*
X107315Y62633D01*
X107122Y62767D01*
X106876Y63235D01*
X106876Y63765D01*
X107122Y64233D01*
X107558Y64534D01*
X108083Y64598D01*
X108578Y64410D01*
X108929Y64014D01*
X109056Y63500D01*
X108929Y62986D01*
X108585Y62597D01*
X108585Y59940D01*
X108585Y59940D01*
X108585Y58420D01*
X108537Y58177D01*
X108399Y57971D01*
X105859Y55431D01*
X105716Y55335D01*
X105743Y55245D01*
X106417Y55245D01*
X111125Y59953D01*
X111125Y62592D01*
X110623Y62402D01*
X110098Y62466D01*
X109662Y62767D01*
X109416Y63235D01*
X109416Y63765D01*
X109662Y64233D01*
X110098Y64534D01*
X110623Y64598D01*
X111125Y64408D01*
X111125Y71750D01*
X111076Y71784D01*
X110872Y72171D01*
X110872Y72609D01*
X111076Y72996D01*
X111436Y73245D01*
X111870Y73298D01*
X112279Y73143D01*
X112570Y72815D01*
X112674Y72390D01*
X112570Y71965D01*
X112395Y71768D01*
X112395Y66594D01*
X112473Y66561D01*
X114808Y68896D01*
X114808Y87630D01*
X114866Y87922D01*
X115031Y88169D01*
X118841Y91979D01*
X119088Y92144D01*
X119380Y92202D01*
X119880Y92202D01*
X119880Y92202D01*
X122404Y92202D01*
X122798Y92474D01*
X123323Y92538D01*
X123818Y92350D01*
X124169Y91954D01*
X124296Y91440D01*
X124169Y90926D01*
X123818Y90530D01*
X123323Y90342D01*
X122798Y90406D01*
X122404Y90678D01*
X119696Y90678D01*
X116332Y87314D01*
X116332Y79920D01*
X116332Y79920D01*
X116332Y68580D01*
X116274Y68288D01*
X116109Y68041D01*
X113792Y65724D01*
X113792Y64259D01*
X114009Y64014D01*
X114136Y63500D01*
X114009Y62986D01*
X113658Y62590D01*
X113163Y62402D01*
X112638Y62466D01*
X112463Y62587D01*
X112395Y62551D01*
X112395Y59940D01*
X112395Y59940D01*
X112395Y59690D01*
X112347Y59447D01*
X112209Y59241D01*
X107129Y54161D01*
X106986Y54065D01*
X107013Y53975D01*
X111497Y53975D01*
X113851Y56329D01*
X114057Y56467D01*
X114300Y56515D01*
X119880Y56515D01*
X119880Y56515D01*
X122292Y56515D01*
X122555Y56778D01*
X122555Y62633D01*
X122362Y62767D01*
X122116Y63235D01*
X122116Y63765D01*
X122362Y64233D01*
X122798Y64534D01*
X123323Y64598D01*
X123825Y64408D01*
X123825Y65132D01*
X123323Y64942D01*
X122798Y65006D01*
X122362Y65307D01*
X122116Y65775D01*
X122116Y66305D01*
X122362Y66773D01*
X122798Y67074D01*
X123323Y67138D01*
X123825Y66948D01*
X123825Y67672D01*
X123323Y67482D01*
X122798Y67546D01*
X122362Y67847D01*
X122116Y68315D01*
X122116Y68845D01*
X122362Y69313D01*
X122798Y69614D01*
X123323Y69678D01*
X123756Y69514D01*
X123812Y69600D01*
X123372Y70040D01*
X123323Y70022D01*
X122798Y70086D01*
X122362Y70387D01*
X122116Y70855D01*
X122116Y71385D01*
X122362Y71853D01*
X122798Y72154D01*
X123323Y72218D01*
X123756Y72054D01*
X123812Y72140D01*
X123372Y72580D01*
X123323Y72562D01*
X122798Y72626D01*
X122362Y72927D01*
X122116Y73395D01*
X122116Y73925D01*
X122362Y74393D01*
X122798Y74694D01*
X123323Y74758D01*
X123756Y74594D01*
X123812Y74680D01*
X123372Y75120D01*
X123323Y75102D01*
X122798Y75166D01*
X122362Y75467D01*
X122116Y75935D01*
X122116Y76465D01*
X122362Y76933D01*
X122798Y77234D01*
X123323Y77298D01*
X123756Y77134D01*
X123812Y77220D01*
X123372Y77660D01*
X123323Y77642D01*
X122798Y77706D01*
X122362Y78007D01*
X122116Y78475D01*
X122116Y79005D01*
X122362Y79473D01*
X122798Y79774D01*
X123323Y79838D01*
X123756Y79674D01*
X123812Y79760D01*
X123372Y80200D01*
X123323Y80182D01*
X122798Y80246D01*
X122362Y80547D01*
X122116Y81015D01*
X122116Y81545D01*
X122362Y82013D01*
X122798Y82314D01*
X123323Y82378D01*
X123756Y82214D01*
X123812Y82300D01*
X123372Y82740D01*
X123323Y82722D01*
X122798Y82786D01*
X122362Y83087D01*
X122116Y83555D01*
X122116Y84085D01*
X122362Y84553D01*
X122798Y84854D01*
X123323Y84918D01*
X123756Y84754D01*
X123812Y84840D01*
X123372Y85280D01*
X123323Y85262D01*
X122798Y85326D01*
X122362Y85627D01*
X122116Y86095D01*
X122116Y86625D01*
X122362Y87093D01*
X122798Y87394D01*
X123323Y87458D01*
X123756Y87294D01*
X123812Y87380D01*
X123372Y87820D01*
X123323Y87802D01*
X122798Y87866D01*
X122362Y88167D01*
X122116Y88635D01*
X122116Y89165D01*
X122362Y89633D01*
X122798Y89934D01*
X123323Y89998D01*
X123818Y89810D01*
X124169Y89414D01*
X124296Y88900D01*
X124255Y88733D01*
X129651Y83337D01*
X129729Y83370D01*
X129729Y84941D01*
X131891Y84941D01*
X131891Y82779D01*
X130320Y82779D01*
X130287Y82701D01*
X132978Y80010D01*
X133985Y80010D01*
X134228Y79962D01*
X134434Y79824D01*
X138244Y76014D01*
X138382Y75808D01*
X138430Y75565D01*
X138430Y73923D01*
X139328Y73025D01*
X140970Y73025D01*
X141213Y72977D01*
X141419Y72839D01*
X143959Y70299D01*
X144097Y70093D01*
X144145Y69850D01*
X144145Y60960D01*
X144097Y60717D01*
X143959Y60511D01*
X140335Y56887D01*
X140335Y49793D01*
X142243Y47885D01*
X142350Y47898D01*
X142759Y47743D01*
X143050Y47415D01*
X143154Y46990D01*
X143050Y46565D01*
X142759Y46237D01*
X142350Y46082D01*
X141916Y46135D01*
X141556Y46384D01*
X141352Y46771D01*
X141352Y46980D01*
X139251Y49081D01*
X139113Y49287D01*
X139065Y49530D01*
X139065Y57150D01*
X139113Y57393D01*
X139251Y57599D01*
X139860Y58208D01*
X139860Y58208D01*
X142875Y61223D01*
X142875Y69587D01*
X140707Y71755D01*
X139860Y71755D01*
X139860Y71755D01*
X139065Y71755D01*
X138822Y71803D01*
X138616Y71941D01*
X137346Y73211D01*
X137208Y73417D01*
X137160Y73660D01*
X137160Y75302D01*
X133722Y78740D01*
X132715Y78740D01*
X132472Y78788D01*
X132266Y78926D01*
X124248Y86944D01*
X124164Y86897D01*
X124296Y86360D01*
X124255Y86193D01*
X132343Y78105D01*
X133350Y78105D01*
X133593Y78057D01*
X133799Y77919D01*
X136339Y75379D01*
X136477Y75173D01*
X136525Y74930D01*
X136525Y73288D01*
X138244Y71569D01*
X138382Y71363D01*
X138430Y71120D01*
X138430Y57150D01*
X138408Y57037D01*
X138388Y56924D01*
X138383Y56916D01*
X138382Y56907D01*
X138318Y56811D01*
X138257Y56714D01*
X127462Y45284D01*
X127454Y45279D01*
X127449Y45271D01*
X127353Y45207D01*
X127306Y45173D01*
X127334Y45085D01*
X130167Y45085D01*
X130486Y45305D01*
X130920Y45358D01*
X131329Y45203D01*
X131434Y45085D01*
X146677Y45085D01*
X146996Y45305D01*
X147430Y45358D01*
X147839Y45203D01*
X148130Y44875D01*
X148234Y44450D01*
X148130Y44025D01*
X147839Y43697D01*
X147430Y43542D01*
X146996Y43595D01*
X146677Y43815D01*
X131434Y43815D01*
X131329Y43697D01*
X130920Y43542D01*
X130486Y43595D01*
X130167Y43815D01*
X114924Y43815D01*
X114819Y43697D01*
X114410Y43542D01*
X113976Y43595D01*
X113657Y43815D01*
X98414Y43815D01*
X98309Y43697D01*
X97900Y43542D01*
X97466Y43595D01*
X97147Y43815D01*
X81904Y43815D01*
X81799Y43697D01*
X81390Y43542D01*
X80956Y43595D01*
X80637Y43815D01*
X65394Y43815D01*
X65289Y43697D01*
X64880Y43542D01*
X64446Y43595D01*
X64127Y43815D01*
X48884Y43815D01*
X48779Y43697D01*
X48370Y43542D01*
X47936Y43595D01*
X47617Y43815D01*
X32374Y43815D01*
X32269Y43697D01*
X31860Y43542D01*
X31426Y43595D01*
X31107Y43815D01*
X15864Y43815D01*
X15759Y43697D01*
X15350Y43542D01*
X14916Y43595D01*
X14556Y43844D01*
X14352Y44231D01*
X14352Y44669D01*
X14571Y45085D01*
X14233Y45085D01*
X13970Y44822D01*
X13970Y39960D01*
X13970Y39960D01*
X13970Y39370D01*
X13922Y39127D01*
X13784Y38921D01*
X12514Y37651D01*
X12308Y37513D01*
X12065Y37465D01*
X9771Y37465D01*
X9771Y37219D01*
X8009Y37219D01*
X8009Y38981D01*
X9771Y38981D01*
X9771Y38735D01*
X11802Y38735D01*
X12700Y39633D01*
X12700Y41804D01*
X12588Y41818D01*
X12476Y41361D01*
X12101Y40938D01*
X11572Y40738D01*
X11011Y40806D01*
X10546Y41127D01*
X10468Y41275D01*
X9788Y41275D01*
X7148Y38635D01*
X7219Y38556D01*
X7331Y38100D01*
X7219Y37644D01*
X6907Y37293D01*
X6468Y37126D01*
X6002Y37183D01*
X5616Y37449D01*
X5398Y37865D01*
X5398Y38335D01*
X5616Y38751D01*
X5734Y38832D01*
X5763Y38978D01*
X5901Y39184D01*
X6599Y39882D01*
X6599Y39882D01*
X9076Y42359D01*
X9282Y42497D01*
X9525Y42545D01*
X10468Y42545D01*
X10546Y42693D01*
X11011Y43014D01*
X11572Y43082D01*
X12101Y42882D01*
X12476Y42459D01*
X12588Y42002D01*
X12700Y42016D01*
X12700Y45085D01*
X12748Y45328D01*
X12886Y45534D01*
X13521Y46169D01*
X13664Y46265D01*
X13637Y46355D01*
X7883Y46355D01*
X7620Y46092D01*
X7620Y41910D01*
X7572Y41667D01*
X7434Y41461D01*
X3810Y37837D01*
X3810Y34553D01*
X4708Y33655D01*
X8890Y33655D01*
X9133Y33607D01*
X9339Y33469D01*
X10609Y32199D01*
X10747Y31993D01*
X10795Y31750D01*
X10795Y26294D01*
X11121Y25926D01*
X11251Y25400D01*
X11121Y24874D01*
X10762Y24469D01*
X10256Y24277D01*
X9719Y24342D01*
X9273Y24650D01*
X9022Y25129D01*
X9022Y25671D01*
X9273Y26150D01*
X9525Y26324D01*
X9525Y31487D01*
X8627Y32385D01*
X4445Y32385D01*
X4202Y32433D01*
X3996Y32571D01*
X2726Y33841D01*
X2588Y34047D01*
X2540Y34290D01*
X2540Y38100D01*
X2588Y38343D01*
X2726Y38549D01*
X4059Y39882D01*
X4059Y39882D01*
X6350Y42173D01*
X6350Y46355D01*
X6398Y46598D01*
X6536Y46804D01*
X7171Y47439D01*
X7377Y47577D01*
X7620Y47625D01*
X13301Y47625D01*
X13082Y48041D01*
X13082Y48479D01*
X13286Y48866D01*
X13646Y49115D01*
X13966Y49154D01*
X14791Y49979D01*
X14934Y50075D01*
X14907Y50165D01*
X4073Y50165D01*
X1905Y47997D01*
X1905Y14233D01*
X4073Y12065D01*
X7620Y12065D01*
X7863Y12017D01*
X8069Y11879D01*
X10609Y9339D01*
X10747Y9133D01*
X10795Y8890D01*
X10795Y8514D01*
X11121Y8146D01*
X11251Y7620D01*
X11121Y7094D01*
X10762Y6689D01*
X10256Y6497D01*
X9719Y6562D01*
X9273Y6870D01*
X9022Y7349D01*
X9022Y7891D01*
X9273Y8370D01*
X9525Y8544D01*
X9525Y8627D01*
X7357Y10795D01*
X3810Y10795D01*
X3567Y10843D01*
X3361Y10981D01*
X0821Y13521D01*
X0683Y13727D01*
X0635Y13970D01*
X0Y13970D01*
X0Y7349D01*
X4022Y7349D01*
X4022Y7429D01*
X4022Y7811D01*
X4022Y7891D01*
X4273Y8370D01*
X4719Y8678D01*
X4929Y8703D01*
X5311Y8703D01*
X5311Y8722D01*
X5762Y8551D01*
X6121Y8146D01*
X6204Y7811D01*
X5311Y7811D01*
X5311Y8703D01*
X4929Y8703D01*
X4929Y7811D01*
X4022Y7811D01*
X4022Y7429D01*
X4929Y7429D01*
X5311Y7429D01*
X6204Y7429D01*
X6121Y7094D01*
X5762Y6689D01*
X5311Y6518D01*
X5311Y7429D01*
X4929Y7429D01*
X4929Y6537D01*
X4719Y6562D01*
X4273Y6870D01*
X4022Y7349D01*
X0Y7349D01*
X0Y1270D01*
X1270Y0D01*
X101742Y0D01*
X101742Y36928D01*
X101181Y36996D01*
X100716Y37317D01*
X100453Y37817D01*
X100453Y38383D01*
X100716Y38883D01*
X101181Y39204D01*
X101742Y39272D01*
X102271Y39072D01*
X102646Y38649D01*
X102781Y38100D01*
X102646Y37551D01*
X102271Y37128D01*
X101742Y36928D01*
X101742Y0D01*
X104258Y0D01*
X104258Y33316D01*
X103792Y33373D01*
X103406Y33639D01*
X103188Y34055D01*
X103188Y34525D01*
X103406Y34941D01*
X103792Y35207D01*
X104258Y35264D01*
X104697Y35097D01*
X105009Y34746D01*
X105121Y34290D01*
X105009Y33834D01*
X104697Y33483D01*
X104258Y33316D01*
X104258Y0D01*
X105799Y0D01*
X105799Y33409D01*
X105799Y35171D01*
X107561Y35171D01*
X107561Y33409D01*
X105799Y33409D01*
X105799Y0D01*
X108073Y0D01*
X108073Y38300D01*
X108073Y38383D01*
X108336Y38883D01*
X108801Y39204D01*
X109020Y39231D01*
X109020Y38300D01*
X108073Y38300D01*
X108073Y0D01*
X109020Y0D01*
X109020Y36969D01*
X108801Y36996D01*
X108336Y37317D01*
X108073Y37817D01*
X108073Y37900D01*
X109020Y37900D01*
X109020Y36969D01*
X109020Y0D01*
X109420Y0D01*
X109420Y36949D01*
X109420Y37900D01*
X110352Y37900D01*
X110266Y37551D01*
X109891Y37128D01*
X109420Y36949D01*
X109420Y0D01*
X109420Y0D01*
X109420Y38300D01*
X109420Y39251D01*
X109891Y39072D01*
X110266Y38649D01*
X110352Y38300D01*
X109420Y38300D01*
X109420Y0D01*
X147320Y0D01*
X137160Y69956D02*
X137160Y70857D01*
X135441Y72576D01*
X135303Y72782D01*
X135255Y73025D01*
X135255Y74667D01*
X133087Y76835D01*
X132080Y76835D01*
X131837Y76883D01*
X131631Y77021D01*
X124248Y84404D01*
X124164Y84357D01*
X124296Y83820D01*
X124255Y83653D01*
X131708Y76200D01*
X132715Y76200D01*
X132958Y76152D01*
X133164Y76014D01*
X134434Y74744D01*
X134572Y74538D01*
X134620Y74295D01*
X134620Y70106D01*
X134717Y70082D01*
X135006Y70633D01*
X135471Y70954D01*
X136032Y71022D01*
X136561Y70822D01*
X136936Y70399D01*
X137048Y69942D01*
X133350Y55508D02*
X133350Y62124D01*
X133238Y62138D01*
X133126Y61681D01*
X132751Y61258D01*
X132222Y61058D01*
X131661Y61126D01*
X131196Y61447D01*
X130933Y61947D01*
X130933Y62513D01*
X131196Y63013D01*
X131661Y63334D01*
X132222Y63402D01*
X132751Y63202D01*
X133126Y62779D01*
X133238Y62322D01*
X133350Y62336D01*
X133350Y69744D01*
X133238Y69758D01*
X133126Y69301D01*
X132751Y68878D01*
X132280Y68699D01*
X132280Y69650D01*
X131880Y69650D01*
X131880Y68719D01*
X131661Y68746D01*
X131196Y69067D01*
X130933Y69567D01*
X130933Y69650D01*
X131880Y69650D01*
X132280Y69650D01*
X132280Y70981D01*
X131880Y70981D01*
X131880Y70050D01*
X130933Y70050D01*
X130933Y70133D01*
X131196Y70633D01*
X131661Y70954D01*
X131880Y70981D01*
X132280Y70981D01*
X132280Y71001D01*
X132751Y70822D01*
X133126Y70399D01*
X133238Y69942D01*
X133350Y69956D01*
X133350Y74032D01*
X132452Y74930D01*
X131445Y74930D01*
X131202Y74978D01*
X130996Y75116D01*
X124248Y81864D01*
X124164Y81817D01*
X124296Y81280D01*
X124255Y81113D01*
X129989Y75379D01*
X130127Y75173D01*
X130175Y74930D01*
X130175Y59940D01*
X130175Y53340D01*
X130127Y53097D01*
X129989Y52891D01*
X126179Y49081D01*
X126036Y48985D01*
X126063Y48895D01*
X126737Y48895D01*
X128905Y73993D02*
X128905Y74667D01*
X124248Y79324D01*
X124164Y79277D01*
X124296Y78740D01*
X124255Y78573D01*
X128719Y74109D01*
X128815Y73966D01*
X127635Y72723D02*
X127635Y73397D01*
X124248Y76784D01*
X124164Y76737D01*
X124296Y76200D01*
X124255Y76033D01*
X127449Y72839D01*
X127545Y72696D01*
X126365Y71453D02*
X126365Y72127D01*
X124248Y74244D01*
X124164Y74197D01*
X124296Y73660D01*
X124255Y73493D01*
X126179Y71569D01*
X126275Y71426D01*
X125095Y70183D02*
X125095Y70857D01*
X124248Y71704D01*
X124164Y71657D01*
X124296Y71120D01*
X124255Y70953D01*
X124909Y70299D01*
X125005Y70156D01*
X137160Y62336D02*
X137160Y69744D01*
X137048Y69758D01*
X136936Y69301D01*
X136561Y68878D01*
X136032Y68678D01*
X135471Y68746D01*
X135006Y69067D01*
X134717Y69618D01*
X134620Y69594D01*
X134620Y62486D01*
X134717Y62462D01*
X135006Y63013D01*
X135471Y63334D01*
X136032Y63402D01*
X136561Y63202D01*
X136936Y62779D01*
X137048Y62322D01*
X97341Y57599D02*
X97547Y57737D01*
X97790Y57785D01*
X99026Y57785D01*
X98807Y58201D01*
X98807Y58639D01*
X99011Y59026D01*
X99060Y59060D01*
X99060Y69517D01*
X98970Y69544D01*
X98874Y69401D01*
X96520Y67047D01*
X96520Y58407D01*
X96695Y58210D01*
X96799Y57785D01*
X96695Y57360D01*
X96404Y57032D01*
X95995Y56877D01*
X95561Y56930D01*
X95201Y57179D01*
X94997Y57566D01*
X94997Y58004D01*
X95101Y58202D01*
X95043Y58268D01*
X94725Y58147D01*
X94291Y58200D01*
X93931Y58449D01*
X93727Y58836D01*
X93727Y59274D01*
X93931Y59661D01*
X93980Y59695D01*
X93980Y65777D01*
X92261Y67496D01*
X92123Y67702D01*
X92063Y68008D01*
X91948Y67996D01*
X91948Y62802D01*
X92062Y62802D01*
X92027Y62622D01*
X91889Y62416D01*
X88900Y59427D01*
X88900Y57772D01*
X89075Y57575D01*
X89179Y57150D01*
X89075Y56725D01*
X88955Y56590D01*
X88989Y56515D01*
X96257Y56515D01*
X124842Y45501D02*
X124842Y45939D01*
X125046Y46326D01*
X125406Y46575D01*
X125840Y46628D01*
X126249Y46473D01*
X126354Y46355D01*
X126726Y46355D01*
X137160Y57402D01*
X137160Y62124D01*
X137048Y62138D01*
X136936Y61681D01*
X136561Y61258D01*
X136032Y61058D01*
X135471Y61126D01*
X135006Y61447D01*
X134717Y61998D01*
X134620Y61974D01*
X134620Y59940D01*
X134620Y55245D01*
X134572Y55002D01*
X134434Y54796D01*
X127449Y47811D01*
X127243Y47673D01*
X127000Y47625D01*
X122183Y47625D01*
X119816Y45258D01*
X119813Y45260D01*
X119686Y45175D01*
X119713Y45085D01*
X125061Y45085D01*
X104140Y58048D02*
X104140Y61484D01*
X104058Y61515D01*
X104024Y61477D01*
X103615Y61322D01*
X103181Y61375D01*
X103121Y61416D01*
X103049Y61366D01*
X103149Y60960D01*
X103045Y60535D01*
X102754Y60207D01*
X102345Y60052D01*
X101911Y60105D01*
X101851Y60146D01*
X101779Y60096D01*
X101879Y59690D01*
X101775Y59265D01*
X101484Y58937D01*
X101075Y58782D01*
X100641Y58835D01*
X100581Y58876D01*
X100509Y58826D01*
X100609Y58420D01*
X100505Y57995D01*
X100385Y57860D01*
X100419Y57785D01*
X103877Y57785D01*
X98611Y56329D02*
X98754Y56425D01*
X98727Y56515D01*
X98053Y56515D01*
X96969Y55431D01*
X96826Y55335D01*
X96853Y55245D01*
X97527Y55245D01*
X66226Y56329D02*
X66369Y56425D01*
X66342Y56515D01*
X65668Y56515D01*
X64584Y55431D01*
X64441Y55335D01*
X64468Y55245D01*
X65142Y55245D01*
X115121Y55059D02*
X115264Y55155D01*
X115237Y55245D01*
X114563Y55245D01*
X112209Y52891D01*
X112066Y52795D01*
X112093Y52705D01*
X112767Y52705D01*
X83371Y55059D02*
X83514Y55155D01*
X83487Y55245D01*
X82813Y55245D01*
X81729Y54161D01*
X81586Y54065D01*
X81613Y53975D01*
X82287Y53975D01*
X100516Y55059D02*
X100659Y55155D01*
X100632Y55245D01*
X99323Y55245D01*
X98239Y54161D01*
X98096Y54065D01*
X98123Y53975D01*
X99432Y53975D01*
X67496Y55059D02*
X67639Y55155D01*
X67612Y55245D01*
X66938Y55245D01*
X65854Y54161D01*
X65711Y54065D01*
X65738Y53975D01*
X66412Y53975D01*
X84641Y53789D02*
X84784Y53885D01*
X84757Y53975D01*
X84083Y53975D01*
X82999Y52891D01*
X82856Y52795D01*
X82883Y52705D01*
X83557Y52705D01*
X52256Y53789D02*
X52399Y53885D01*
X52372Y53975D01*
X51698Y53975D01*
X50614Y52891D01*
X50471Y52795D01*
X50498Y52705D01*
X51172Y52705D01*
X116391Y53789D02*
X116534Y53885D01*
X116507Y53975D01*
X115833Y53975D01*
X113479Y51621D01*
X113336Y51525D01*
X113363Y51435D01*
X114037Y51435D01*
X68766Y53789D02*
X68909Y53885D01*
X68882Y53975D01*
X68208Y53975D01*
X67124Y52891D01*
X66981Y52795D01*
X67008Y52705D01*
X67682Y52705D01*
X101786Y53789D02*
X101929Y53885D01*
X101902Y53975D01*
X101228Y53975D01*
X100144Y52891D01*
X100001Y52795D01*
X100028Y52705D01*
X100702Y52705D01*
X85911Y52519D02*
X86054Y52615D01*
X86027Y52705D01*
X85353Y52705D01*
X84269Y51621D01*
X84126Y51525D01*
X84153Y51435D01*
X84827Y51435D01*
X53526Y52519D02*
X53669Y52615D01*
X53642Y52705D01*
X52968Y52705D01*
X51884Y51621D01*
X51741Y51525D01*
X51768Y51435D01*
X52442Y51435D01*
X103056Y52519D02*
X103199Y52615D01*
X103172Y52705D01*
X102498Y52705D01*
X101414Y51621D01*
X101271Y51525D01*
X101298Y51435D01*
X101972Y51435D01*
X70036Y52519D02*
X70179Y52615D01*
X70152Y52705D01*
X69478Y52705D01*
X68394Y51621D01*
X68251Y51525D01*
X68278Y51435D01*
X68952Y51435D01*
X37016Y52519D02*
X37159Y52615D01*
X37132Y52705D01*
X36458Y52705D01*
X35374Y51621D01*
X35231Y51525D01*
X35258Y51435D01*
X35932Y51435D01*
X117661Y52519D02*
X117804Y52615D01*
X117777Y52705D01*
X117103Y52705D01*
X114749Y50351D01*
X114606Y50255D01*
X114633Y50165D01*
X115307Y50165D01*
X71306Y51249D02*
X71449Y51345D01*
X71422Y51435D01*
X70748Y51435D01*
X69664Y50351D01*
X69521Y50255D01*
X69548Y50165D01*
X70222Y50165D01*
X38286Y51249D02*
X38429Y51345D01*
X38402Y51435D01*
X37728Y51435D01*
X36644Y50351D01*
X36501Y50255D01*
X36528Y50165D01*
X37202Y50165D01*
X118931Y51249D02*
X119074Y51345D01*
X119047Y51435D01*
X118373Y51435D01*
X116019Y49081D01*
X115876Y48985D01*
X115903Y48895D01*
X116577Y48895D01*
X87181Y51249D02*
X87324Y51345D01*
X87297Y51435D01*
X86623Y51435D01*
X85539Y50351D01*
X85396Y50255D01*
X85423Y50165D01*
X86097Y50165D01*
X54796Y51249D02*
X54939Y51345D01*
X54912Y51435D01*
X54238Y51435D01*
X53154Y50351D01*
X53011Y50255D01*
X53038Y50165D01*
X53712Y50165D01*
X104326Y51249D02*
X104469Y51345D01*
X104442Y51435D01*
X103768Y51435D01*
X102684Y50351D01*
X102541Y50255D01*
X102568Y50165D01*
X103242Y50165D01*
X88451Y49979D02*
X88594Y50075D01*
X88567Y50165D01*
X87893Y50165D01*
X86809Y49081D01*
X86666Y48985D01*
X86693Y48895D01*
X87367Y48895D01*
X56066Y49979D02*
X56209Y50075D01*
X56182Y50165D01*
X55508Y50165D01*
X54424Y49081D01*
X54281Y48985D01*
X54308Y48895D01*
X54982Y48895D01*
X105596Y49979D02*
X105739Y50075D01*
X105712Y50165D01*
X105038Y50165D01*
X103954Y49081D01*
X103811Y48985D01*
X103838Y48895D01*
X104512Y48895D01*
X72576Y49979D02*
X72719Y50075D01*
X72692Y50165D01*
X72018Y50165D01*
X70934Y49081D01*
X70791Y48985D01*
X70818Y48895D01*
X71492Y48895D01*
X39556Y49979D02*
X39699Y50075D01*
X39672Y50165D01*
X38998Y50165D01*
X37914Y49081D01*
X37771Y48985D01*
X37798Y48895D01*
X38472Y48895D01*
X120201Y49979D02*
X120344Y50075D01*
X120317Y50165D01*
X119643Y50165D01*
X117289Y47811D01*
X117146Y47715D01*
X117173Y47625D01*
X117847Y47625D01*
X73846Y48709D02*
X73989Y48805D01*
X73962Y48895D01*
X73288Y48895D01*
X72204Y47811D01*
X72061Y47715D01*
X72088Y47625D01*
X72762Y47625D01*
X24316Y48709D02*
X24459Y48805D01*
X24432Y48895D01*
X15503Y48895D01*
X14890Y48282D01*
X14780Y47835D01*
X14660Y47700D01*
X14694Y47625D01*
X23232Y47625D01*
X90356Y48709D02*
X90499Y48805D01*
X90472Y48895D01*
X89163Y48895D01*
X88079Y47811D01*
X87936Y47715D01*
X87963Y47625D01*
X89272Y47625D01*
X121471Y48709D02*
X121614Y48805D01*
X121587Y48895D01*
X120913Y48895D01*
X118559Y46541D01*
X118416Y46445D01*
X118443Y46355D01*
X119117Y46355D01*
X106866Y48709D02*
X107009Y48805D01*
X106982Y48895D01*
X106308Y48895D01*
X105224Y47811D01*
X105081Y47715D01*
X105108Y47625D01*
X105782Y47625D01*
X40826Y48709D02*
X40969Y48805D01*
X40942Y48895D01*
X40268Y48895D01*
X39184Y47811D01*
X39041Y47715D01*
X39068Y47625D01*
X39742Y47625D01*
X57336Y48709D02*
X57479Y48805D01*
X57452Y48895D01*
X56778Y48895D01*
X55694Y47811D01*
X55551Y47715D01*
X55578Y47625D01*
X56252Y47625D01*
X108136Y47439D02*
X108279Y47535D01*
X108252Y47625D01*
X107578Y47625D01*
X106494Y46541D01*
X106351Y46445D01*
X106378Y46355D01*
X107052Y46355D01*
X42096Y47439D02*
X42239Y47535D01*
X42212Y47625D01*
X41538Y47625D01*
X40454Y46541D01*
X40311Y46445D01*
X40338Y46355D01*
X41012Y46355D01*
X58606Y47439D02*
X58749Y47535D01*
X58722Y47625D01*
X58048Y47625D01*
X56964Y46541D01*
X56821Y46445D01*
X56848Y46355D01*
X57522Y46355D01*
X75116Y47439D02*
X75259Y47535D01*
X75232Y47625D01*
X74558Y47625D01*
X73474Y46541D01*
X73331Y46445D01*
X73358Y46355D01*
X74032Y46355D01*
X25586Y47439D02*
X25729Y47535D01*
X25702Y47625D01*
X25028Y47625D01*
X23944Y46541D01*
X23801Y46445D01*
X23828Y46355D01*
X24502Y46355D01*
X91626Y47439D02*
X91769Y47535D01*
X91742Y47625D01*
X91068Y47625D01*
X89984Y46541D01*
X89841Y46445D01*
X89868Y46355D01*
X90542Y46355D01*
X75312Y45501D02*
X75312Y45728D01*
X75234Y45761D01*
X74744Y45271D01*
X74601Y45175D01*
X74628Y45085D01*
X75531Y45085D01*
X25782Y45501D02*
X25782Y45728D01*
X25704Y45761D01*
X25214Y45271D01*
X25071Y45175D01*
X25098Y45085D01*
X26001Y45085D01*
X91822Y45501D02*
X91822Y45728D01*
X91744Y45761D01*
X91254Y45271D01*
X91111Y45175D01*
X91138Y45085D01*
X92041Y45085D01*
X108332Y45501D02*
X108332Y45728D01*
X108254Y45761D01*
X107764Y45271D01*
X107621Y45175D01*
X107648Y45085D01*
X108551Y45085D01*
X42292Y45501D02*
X42292Y45728D01*
X42214Y45761D01*
X41724Y45271D01*
X41581Y45175D01*
X41608Y45085D01*
X42511Y45085D01*
X58802Y45501D02*
X58802Y45728D01*
X58724Y45761D01*
X58234Y45271D01*
X58091Y45175D01*
X58118Y45085D01*
X59021Y45085D01*
G37*
%LNbottom copper_traces*%
X55245Y48260D02*
X41275Y48260D01*
X65405Y54610D02*
X51435Y54610D01*
X139700Y49530D02*
X142240Y46990D01*
X83820Y67310D02*
X83820Y57150D01*
X86995Y77470D02*
X85090Y75565D01*
X127000Y48260D02*
X133985Y55245D01*
X96520Y72390D02*
X105410Y81280D01*
X92075Y46990D02*
X90805Y45720D01*
D11*
X113030Y66040D02*
X113030Y63500D01*
D10*
X85090Y68580D02*
X83820Y67310D01*
X88265Y59690D02*
X91440Y62865D01*
X104775Y65405D02*
X104775Y61595D01*
X33020Y52070D02*
X31750Y53340D01*
X100965Y69215D02*
X105410Y73660D01*
X67945Y54610D02*
X66675Y53340D01*
X78740Y57150D02*
X81280Y59690D01*
X139700Y49530D02*
X139700Y57150D01*
X137795Y71120D02*
X137795Y67945D01*
X89535Y77470D02*
X92075Y77470D01*
X95885Y60325D02*
X95885Y67310D01*
D11*
X138430Y82550D02*
X137160Y82550D01*
D10*
X93980Y79375D02*
X98425Y79375D01*
X38735Y50800D02*
X37465Y49530D01*
X132715Y79375D02*
X123190Y88900D01*
X123825Y53340D02*
X116840Y53340D01*
X128270Y53975D02*
X125095Y50800D01*
X104775Y50800D02*
X103505Y49530D01*
X53975Y49530D02*
X40005Y49530D01*
X6350Y38735D02*
X6350Y38100D01*
X106045Y49530D02*
X104775Y48260D01*
X96520Y55880D02*
X82550Y55880D01*
X15240Y44450D02*
X147320Y44450D01*
D11*
X123190Y91440D02*
X119380Y91440D01*
D10*
X85090Y68580D02*
X85090Y75565D01*
X86360Y52070D02*
X85090Y50800D01*
X116840Y53340D02*
X114300Y50800D01*
X100965Y54610D02*
X99695Y53340D01*
X36195Y53340D02*
X34925Y52070D01*
X60960Y55880D02*
X59690Y57150D01*
X103505Y66675D02*
X105410Y68580D01*
X99695Y58420D02*
X99695Y70485D01*
X82550Y55880D02*
X81280Y54610D01*
X3175Y34290D02*
X3175Y38100D01*
X123190Y71120D02*
X124460Y69850D01*
X1270Y13970D02*
X3810Y11430D01*
X59690Y57150D02*
X59690Y69850D01*
X90805Y48260D02*
X89535Y46990D01*
X70485Y52070D02*
X69215Y50800D01*
X129540Y53340D02*
X129540Y74930D01*
X115570Y54610D02*
X113030Y52070D01*
X92710Y70485D02*
X92710Y69215D01*
X111760Y72390D02*
X111760Y59690D01*
X124460Y52070D02*
X118110Y52070D01*
X103505Y52070D02*
X102235Y50800D01*
X104775Y57785D02*
X104775Y65405D01*
X69215Y53340D02*
X67945Y52070D01*
X123190Y54610D02*
X115570Y54610D01*
X15240Y49530D02*
X37465Y49530D01*
X94615Y77470D02*
X99060Y77470D01*
X11430Y41910D02*
X9525Y41910D01*
X71755Y50800D02*
X70485Y49530D01*
X3175Y34290D02*
X4445Y33020D01*
X123190Y78740D02*
X128270Y73660D01*
X127000Y48260D02*
X121920Y48260D01*
X132080Y77470D02*
X133350Y77470D01*
X102235Y60960D02*
X102235Y67945D01*
X97790Y54610D02*
X83820Y54610D01*
X119380Y45720D02*
X109220Y45720D01*
X105410Y83820D02*
X107950Y83820D01*
D11*
X134620Y88900D02*
X132080Y91440D01*
D10*
X127000Y54610D02*
X124460Y52070D01*
X94615Y66040D02*
X94615Y59690D01*
X100965Y59690D02*
X100965Y69215D01*
X108585Y46990D02*
X107315Y45720D01*
X74295Y48260D02*
X73025Y46990D01*
X98425Y79375D02*
X105410Y86360D01*
X135890Y74930D02*
X135890Y73025D01*
X83820Y54610D02*
X82550Y53340D01*
X80010Y55880D02*
X66675Y55880D01*
X55245Y50800D02*
X53975Y49530D01*
X82550Y53340D02*
X69215Y53340D01*
X40005Y49530D02*
X38735Y48260D01*
X105410Y71120D02*
X107950Y71120D01*
X124460Y55880D02*
X123190Y54610D01*
X140970Y72390D02*
X139065Y72390D01*
X90805Y45720D02*
X76200Y45720D01*
X4445Y33020D02*
X8890Y33020D01*
X52705Y53340D02*
X51435Y52070D01*
X99695Y70485D02*
X105410Y76200D01*
X87630Y50800D02*
X86360Y49530D01*
X92075Y77470D02*
X91440Y77470D01*
X106045Y46990D02*
X92075Y46990D01*
X57785Y48260D02*
X56515Y46990D01*
X24765Y48260D02*
X38735Y48260D01*
X122555Y55880D02*
X114300Y55880D01*
X81280Y54610D02*
X67945Y54610D01*
X123190Y73660D02*
X125730Y71120D01*
X13970Y45720D02*
X24765Y45720D01*
X125095Y50800D02*
X119380Y50800D01*
X98425Y71755D02*
X105410Y78740D01*
X105410Y68580D02*
X107950Y68580D01*
X88900Y49530D02*
X103505Y49530D01*
X135890Y73025D02*
X137795Y71120D01*
X59690Y45720D02*
X74295Y45720D01*
X98425Y71755D02*
X98425Y69850D01*
X83820Y52070D02*
X70485Y52070D01*
X107315Y48260D02*
X106045Y46990D01*
X132715Y75565D02*
X133985Y74295D01*
X97790Y57150D02*
X96520Y55880D01*
X41275Y45720D02*
X26670Y45720D01*
X81280Y57150D02*
X80010Y55880D01*
X92710Y67945D02*
X93345Y67310D01*
X90805Y48260D02*
X104775Y48260D01*
X87630Y50800D02*
X102235Y50800D01*
X99060Y77470D02*
X105410Y83820D01*
X50165Y53340D02*
X36195Y53340D01*
X131445Y75565D02*
X132715Y75565D01*
X113030Y52070D02*
X103505Y52070D01*
X70485Y49530D02*
X56515Y49530D01*
X26035Y46990D02*
X40005Y46990D01*
X86360Y52070D02*
X100965Y52070D01*
X114300Y55880D02*
X111760Y53340D01*
X102235Y53340D02*
X100965Y52070D01*
X9525Y41910D02*
X6350Y38735D01*
X37465Y52070D02*
X51435Y52070D01*
X94615Y77470D02*
X93345Y76200D01*
X96520Y72390D02*
X94615Y72390D01*
X7620Y11430D02*
X10160Y8890D01*
X125730Y55245D02*
X125730Y71120D01*
X143510Y69850D02*
X140970Y72390D01*
X107950Y58420D02*
X107950Y63500D01*
X123190Y83820D02*
X130175Y76835D01*
X1270Y48260D02*
X1270Y13970D01*
X99060Y55880D02*
X97790Y54610D01*
X139700Y57150D02*
X143510Y60960D01*
X23495Y46990D02*
X7620Y46990D01*
X133985Y55245D02*
X133985Y74295D01*
X107950Y91440D02*
X102235Y91440D01*
X66675Y55880D02*
X65405Y54610D01*
X123190Y56515D02*
X123190Y63500D01*
X3810Y11430D02*
X7620Y11430D01*
X137795Y57150D02*
X137795Y67945D01*
X69215Y50800D02*
X55245Y50800D01*
X8890Y33020D02*
X10160Y31750D01*
D11*
X123190Y96520D02*
X128270Y91440D01*
D10*
X130175Y79375D02*
X132080Y77470D01*
X98425Y69850D02*
X95885Y67310D01*
X10160Y31750D02*
X10160Y25400D01*
X10160Y8890D02*
X10160Y7620D01*
X137795Y73660D02*
X137795Y75565D01*
X37465Y52070D02*
X36195Y50800D01*
X59055Y46990D02*
X57785Y45720D01*
X86995Y77470D02*
X92075Y77470D01*
X105410Y86360D02*
X107950Y86360D01*
X13335Y39370D02*
X13335Y45085D01*
X114300Y50800D02*
X104775Y50800D01*
X6985Y46355D02*
X6985Y41910D01*
X7620Y46990D02*
X6985Y46355D01*
X65405Y57150D02*
X64135Y55880D01*
X98425Y79375D02*
X97155Y79375D01*
X105410Y73660D02*
X107950Y73660D01*
X120650Y49530D02*
X118110Y46990D01*
X59055Y46990D02*
X73025Y46990D01*
D11*
X138430Y82550D02*
X147320Y73660D01*
D10*
X107950Y66040D02*
X105410Y66040D01*
X3810Y50800D02*
X36195Y50800D01*
X3175Y38100D02*
X6985Y41910D01*
X94615Y59055D02*
X94615Y66040D01*
X102235Y53340D02*
X111760Y53340D01*
X88265Y59690D02*
X88265Y57150D01*
X128270Y53975D02*
X128270Y73660D01*
D11*
X128270Y91440D02*
X132080Y91440D01*
D10*
X85090Y50800D02*
X71755Y50800D01*
D11*
X147320Y69850D02*
X147320Y73660D01*
D10*
X89535Y46990D02*
X75565Y46990D01*
X8890Y38100D02*
X12065Y38100D01*
X115570Y49530D02*
X106045Y49530D01*
X41275Y48260D02*
X40005Y46990D01*
X123190Y56515D02*
X122555Y55880D01*
X71755Y48260D02*
X57785Y48260D01*
X123190Y86360D02*
X130175Y79375D01*
X105410Y55880D02*
X99060Y55880D01*
X85090Y53340D02*
X99695Y53340D01*
X42545Y46990D02*
X41275Y45720D01*
X92710Y45720D02*
X107315Y45720D01*
X105410Y55880D02*
X107950Y58420D01*
X121920Y48260D02*
X119380Y45720D01*
X13970Y48260D02*
X15240Y49530D01*
X12065Y38100D02*
X13335Y39370D01*
X95885Y57785D02*
X95885Y67310D01*
X106680Y54610D02*
X100965Y54610D01*
X75565Y46990D02*
X74295Y45720D01*
X67945Y52070D02*
X53975Y52070D01*
X93345Y73660D02*
X93345Y76200D01*
X103505Y62230D02*
X103505Y66675D01*
X99060Y77470D02*
X95885Y77470D01*
X85090Y53340D02*
X83820Y52070D01*
X105410Y76200D02*
X107950Y76200D01*
X104775Y57785D02*
X104775Y65405D01*
D11*
X137160Y82550D02*
X134620Y85090D01*
D10*
X66675Y53340D02*
X52705Y53340D01*
X26035Y46990D02*
X24765Y45720D01*
X56515Y49530D02*
X55245Y48260D01*
D11*
X119380Y91440D02*
X115570Y87630D01*
D10*
X34925Y52070D02*
X33020Y52070D01*
X143510Y60960D02*
X143510Y69850D01*
X133350Y77470D02*
X135890Y74930D01*
D11*
X134620Y85090D02*
X134620Y88900D01*
D10*
X53975Y52070D02*
X52705Y50800D01*
X127000Y45720D02*
X125730Y45720D01*
X123190Y81280D02*
X129540Y74930D01*
X139065Y72390D02*
X137795Y73660D01*
X106680Y54610D02*
X111760Y59690D01*
X127000Y54610D02*
X127000Y72390D01*
X78740Y57150D02*
X65405Y57150D01*
X92075Y77470D02*
X93980Y79375D01*
X56515Y46990D02*
X42545Y46990D01*
X123190Y83820D02*
X131445Y75565D01*
X107315Y48260D02*
X116840Y48260D01*
X105410Y66040D02*
X104775Y65405D01*
X64135Y55880D02*
X60960Y55880D01*
X92710Y67945D02*
X92710Y70485D01*
X92710Y67945D02*
X94615Y66040D01*
X3810Y50800D02*
X1270Y48260D01*
X118110Y46990D02*
X108585Y46990D01*
X105410Y81280D02*
X107950Y81280D01*
X94615Y72390D02*
X92710Y70485D01*
X104775Y57785D02*
X104140Y57150D01*
X91440Y62865D02*
X91440Y71755D01*
X133985Y79375D02*
X137795Y75565D01*
X124460Y55880D02*
X124460Y69850D01*
X133985Y79375D02*
X132715Y79375D01*
X31750Y53340D02*
X31750Y69850D01*
X125730Y49530D02*
X129540Y53340D01*
X95885Y67310D02*
X95885Y64135D01*
D11*
X115570Y68580D02*
X113030Y66040D01*
D10*
X93345Y73660D02*
X91440Y71755D01*
D11*
X115570Y68580D02*
X115570Y87630D01*
D10*
X125730Y55245D02*
X123825Y53340D01*
X105410Y78740D02*
X107950Y78740D01*
X93980Y79375D02*
X92710Y78105D01*
X102235Y67945D02*
X105410Y71120D01*
X13970Y45720D02*
X13335Y45085D01*
X93345Y76200D02*
X93345Y74930D01*
X51435Y54610D02*
X50165Y53340D01*
X57785Y45720D02*
X43180Y45720D01*
X86360Y49530D02*
X73025Y49530D01*
X87630Y48260D02*
X74295Y48260D01*
X118110Y52070D02*
X115570Y49530D01*
X73025Y49530D02*
X71755Y48260D01*
X125730Y49530D02*
X120650Y49530D01*
X123190Y76200D02*
X127000Y72390D01*
X52705Y50800D02*
X38735Y50800D01*
X119380Y50800D02*
X116840Y48260D01*
X88900Y49530D02*
X87630Y48260D01*
X104140Y57150D02*
X97790Y57150D01*
X24765Y48260D02*
X23495Y46990D01*
X137795Y57150D02*
X127000Y45720D01*
D12*
X81280Y59690D03*
D13*
X130810Y95885D03*
D12*
X99695Y58420D03*
X102235Y60960D03*
X111760Y72390D03*
X142240Y46990D03*
X48260Y44450D03*
X101600Y91440D03*
X26670Y45720D03*
X103505Y62230D03*
X130810Y44450D03*
X64770Y44450D03*
X95885Y57785D03*
X92710Y45720D03*
X31750Y44450D03*
X15240Y44450D03*
X81280Y44450D03*
X147320Y44450D03*
X59690Y45720D03*
X100965Y59690D03*
D13*
X13970Y55880D03*
D12*
X13970Y48260D03*
X43180Y45720D03*
D13*
X76200Y63500D03*
D12*
X83820Y57150D03*
X114300Y44450D03*
X88265Y57150D03*
X97790Y44450D03*
X76200Y45720D03*
X94615Y59055D03*
X125730Y45720D03*
X81280Y57150D03*
D13*
X101092Y95504D03*
D12*
X109220Y45720D03*
%LNbottom copper component fb107dcccfdb0926*%
D14*
X35500Y69850D03*
X28000Y69850D03*
X31750Y69850D03*
D15*
X26550Y59850D03*
X36950Y59850D03*
%LNbottom copper component 1f20f5d5898abb2f*%
D16*
X92710Y38100D03*
X85090Y38100D03*
%LNbottom copper component 27b49cb97a04ef49*%
X76200Y38100D03*
X68580Y38100D03*
%LNbottom copper component a620bbc60874f67c*%
D17*
X132080Y62230D03*
X132080Y69850D03*
%LNbottom copper component ea2c1d543afd550c*%
D18*
X3810Y41910D03*
X11430Y41910D03*
%LNbottom copper component b43df3c15a639c76*%
D16*
X26670Y41910D03*
X19050Y41910D03*
%LNbottom copper component de895496bb2fd0e6*%
X109220Y38100D03*
X101600Y38100D03*
%LNbottom copper component 82f976b0e811269b*%
D17*
X135890Y62230D03*
X135890Y69850D03*
%LNbottom copper component 34e823c397d52473*%
D19*
X120650Y34290D03*
D20*
X123190Y34290D03*
%LNbottom copper component 9af73c40574899a7*%
D16*
X59690Y38100D03*
X52070Y38100D03*
%LNbottom copper component f836791b44df51a1*%
D19*
X54610Y34290D03*
D20*
X57150Y34290D03*
%LNbottom copper component b4f3b804e5a01ba0*%
D21*
X81032Y70785D03*
X86354Y66218D03*
X87742Y74384D03*
X90508Y75174D03*
D22*
X81349Y77114D03*
%LNbottom copper component 02b106f82a4a95db*%
D19*
X137160Y34290D03*
D20*
X139700Y34290D03*
%LNbottom copper component c91da9575c6a0be3*%
D23*
X10120Y16510D03*
X5120Y16510D03*
%LNbottom copper component 9f6d21584f488dcd*%
D16*
X142240Y38100D03*
X134620Y38100D03*
%LNbottom copper component 97a26aaf76f6e1cc*%
D24*
X120650Y93980D03*
X120650Y88900D03*
X120650Y86360D03*
X120650Y83820D03*
X120650Y63500D03*
X118110Y63500D03*
X115570Y63500D03*
X113030Y63500D03*
X110490Y63500D03*
X107950Y96520D03*
X107950Y93980D03*
X107950Y91440D03*
X107950Y88900D03*
X107950Y86360D03*
X107950Y83820D03*
X107950Y81280D03*
X107950Y78740D03*
X107950Y76200D03*
X107950Y73660D03*
X107950Y71120D03*
X107950Y68580D03*
X107950Y66040D03*
X107950Y63500D03*
X123190Y63500D03*
X123190Y66040D03*
X123190Y68580D03*
X123190Y71120D03*
X123190Y73660D03*
X123190Y76200D03*
X123190Y78740D03*
X123190Y81280D03*
X123190Y83820D03*
X123190Y86360D03*
X123190Y88900D03*
X123190Y91440D03*
X123190Y93980D03*
X123190Y96520D03*
%LNbottom copper component 106714d2bc1b7527*%
D16*
X43180Y41910D03*
X35560Y41910D03*
%LNbottom copper component 34c941316c1a9527*%
D19*
X104140Y34290D03*
D20*
X106680Y34290D03*
%LNbottom copper component 9ed433e74971deb4*%
D25*
X130810Y86360D03*
X130810Y88860D03*
D26*
X130810Y83860D03*
%LNbottom copper component cf9d0f0b436303b1*%
D16*
X125730Y38100D03*
X118110Y38100D03*
%LNbottom copper component 58c9e35b802cae0f*%
X76200Y41910D03*
X68580Y41910D03*
%LNbottom copper component 36da97aa6b26bacf*%
D19*
X21590Y34290D03*
D20*
X24130Y34290D03*
%LNbottom copper component 62e86ca77f7b5a9a*%
D16*
X142240Y41910D03*
X134620Y41910D03*
%LNbottom copper component 497d46b69fa9bdd2*%
X43180Y38100D03*
X35560Y38100D03*
%LNbottom copper component 718ced2e03940ba8*%
D14*
X63440Y69850D03*
X55940Y69850D03*
X59690Y69850D03*
D15*
X54490Y59850D03*
X64890Y59850D03*
%LNbottom copper component c4b1df07a66167ef*%
D16*
X59690Y41910D03*
X52070Y41910D03*
%LNbottom copper component c566558ad0bcfb55*%
D19*
X71120Y34290D03*
D20*
X73660Y34290D03*
%LNbottom copper component 4820d467dc877488*%
D19*
X87630Y34290D03*
D20*
X90170Y34290D03*
%LNbottom copper component 4c04787e1f5174be*%
D27*
X96012Y89154D03*
%LNbottom copper component da1d1d7cd5a7c606*%
D28*
X89381Y63981D03*
X94769Y69369D03*
%LNbottom copper component 60ae0478fb4407c3*%
D29*
X143510Y52070D03*
X143510Y57150D03*
X143510Y54610D03*
%LNbottom copper component a8833ba25e49bac5*%
D21*
X89922Y79675D03*
X95244Y75108D03*
X96632Y83274D03*
X99398Y84064D03*
D22*
X90239Y86004D03*
%LNbottom copper component 920632581e92b0fd*%
D19*
X38100Y34290D03*
D20*
X40640Y34290D03*
%LNbottom copper component 3612e22fcedd26d8*%
D16*
X125730Y41910D03*
X118110Y41910D03*
%LNbottom copper component 3919fc649fdcade3*%
D30*
X147320Y78700D03*
X147320Y73700D03*
%LNbottom copper component 6889c37fa128180d*%
D31*
X137338Y92713D03*
X137871Y85720D03*
X144628Y90512D03*
X147142Y89115D03*
D32*
X142037Y96964D03*
%LNbottom copper component 42f967a1b082bbaa*%
D19*
X6350Y38100D03*
D20*
X8890Y38100D03*
%LNbottom copper component 843ae13b30258408*%
D16*
X26670Y38100D03*
X19050Y38100D03*
%LNbottom copper component abea25ac2a452092*%
D23*
X10120Y7620D03*
X5120Y7620D03*
%LNbottom copper component 71f6df73bb3e5241*%
D16*
X109220Y41910D03*
X101600Y41910D03*
%LNbottom copper component 3cea8e4304858dd9*%
D33*
X139700Y74950D03*
D34*
X139700Y77450D03*
%LNbottom copper component c985985d9b0f206f*%
D16*
X92710Y41910D03*
X85090Y41910D03*
%LNbottom copper component 6f85b1a43342d1af*%
D23*
X10120Y25400D03*
X5120Y25400D03*
%LNbottom copper component d521cece24698383*%
D35*
X147320Y67310D03*
X139700Y62230D03*
X147320Y64770D03*
X139700Y64770D03*
X147320Y62230D03*
X139700Y67310D03*
X139700Y69850D03*
X147320Y69850D03*
M02*