G04 #@! TF.FileFunction,Profile,NP*
%FSLAX46Y46*%
G04 Gerber Fmt 4.6, Leading zero omitted, Abs format (unit mm)*
G04 Created by KiCad (PCBNEW 4.0.0-rc1-stable) date Mon 18 Jan 2016 04:53:56 PM CET*
%MOMM*%
G01*
G04 APERTURE LIST*
%ADD10C,0.150000*%
%ADD11C,0.152400*%
G04 APERTURE END LIST*
D10*
D11*
X70350000Y-69950000D02*
G75*
G03X69900000Y-69500000I-450000J0D01*
G01*
X91100000Y-69500000D02*
G75*
G03X90650000Y-69950000I0J-450000D01*
G01*
X53000000Y-26000000D02*
X53000000Y-69500000D01*
D10*
X108000000Y-26000000D02*
X53000000Y-26000000D01*
D11*
X108000000Y-69500000D02*
X108000000Y-26000000D01*
X53000000Y-69500000D02*
X68000000Y-69500000D01*
X93000000Y-69500000D02*
X108000000Y-69500000D01*
X69900000Y-69500000D02*
X68000000Y-69500000D01*
X91100000Y-69500000D02*
X93000000Y-69500000D01*
X78500000Y-69000000D02*
G75*
G03X77550000Y-69950000I0J-950000D01*
G01*
X79450000Y-69950000D02*
G75*
G03X78500000Y-69000000I-950000J0D01*
G01*
X70350000Y-76850000D02*
X70350000Y-69950000D01*
X70900000Y-77400000D02*
X70350000Y-76850000D01*
X90100000Y-77400000D02*
X80000000Y-77400000D01*
X77550000Y-76850000D02*
X77000000Y-77400000D01*
X77550000Y-69950000D02*
X77550000Y-76850000D01*
X79450000Y-76850000D02*
X79450000Y-69950000D01*
X80000000Y-77400000D02*
X79450000Y-76850000D01*
X77000000Y-77400000D02*
X70900000Y-77400000D01*
X90650000Y-76850000D02*
X90100000Y-77400000D01*
X90650000Y-69950000D02*
X90650000Y-76850000D01*
M02*
