G04 #@! TF.FileFunction,Copper,L1,Top,Signal*
%FSLAX46Y46*%
G04 Gerber Fmt 4.6, Leading zero omitted, Abs format (unit mm)*
G04 Created by KiCad (PCBNEW 4.0.2-stable) date 2016-05-19 14:30:26*
%MOMM*%
G01*
G04 APERTURE LIST*
%ADD10C,0.100000*%
%ADD11C,1.998980*%
%ADD12R,0.800100X0.800100*%
%ADD13R,1.300000X1.300000*%
%ADD14C,1.300000*%
%ADD15R,1.198880X1.198880*%
%ADD16R,1.727200X1.727200*%
%ADD17O,1.727200X1.727200*%
%ADD18R,2.032000X2.032000*%
%ADD19O,2.032000X2.032000*%
%ADD20O,2.540000X2.032000*%
%ADD21R,4.000000X4.000000*%
%ADD22C,1.800000*%
%ADD23C,0.685800*%
%ADD24C,0.508000*%
%ADD25C,0.254000*%
G04 APERTURE END LIST*
D10*
D11*
X101092000Y-39116000D03*
X93472000Y-39116000D03*
D12*
X96535240Y-41722000D03*
X96535240Y-43622000D03*
X98534220Y-42672000D03*
D13*
X74803000Y-37719000D03*
D14*
X74803000Y-39719000D03*
D13*
X74803000Y-54229000D03*
D14*
X74803000Y-56229000D03*
D13*
X74676000Y-71120000D03*
D14*
X74676000Y-73120000D03*
D15*
X90424000Y-31462980D03*
X90424000Y-33561020D03*
X90424000Y-47718980D03*
X90424000Y-49817020D03*
X90424000Y-64482980D03*
X90424000Y-66581020D03*
X101600000Y-63974980D03*
X101600000Y-66073020D03*
X101600000Y-34577020D03*
X101600000Y-32478980D03*
D16*
X96012000Y-62738000D03*
D17*
X98552000Y-62738000D03*
X96012000Y-65278000D03*
X98552000Y-65278000D03*
X96012000Y-67818000D03*
X98552000Y-67818000D03*
D18*
X102616000Y-73660000D03*
D19*
X102616000Y-71120000D03*
D16*
X96012000Y-30988000D03*
D17*
X98552000Y-30988000D03*
X96012000Y-33528000D03*
X98552000Y-33528000D03*
X96012000Y-36068000D03*
X98552000Y-36068000D03*
D18*
X102616000Y-27940000D03*
D19*
X102616000Y-25400000D03*
D12*
X96535240Y-54930000D03*
X96535240Y-56830000D03*
X98534220Y-55880000D03*
X94472760Y-56830000D03*
X94472760Y-54930000D03*
X92473780Y-55880000D03*
X94472760Y-43622000D03*
X94472760Y-41722000D03*
X92473780Y-42672000D03*
D11*
X81788000Y-33147000D03*
X81788000Y-25527000D03*
X84836000Y-25527000D03*
X84836000Y-33147000D03*
X81788000Y-49784000D03*
X81788000Y-42164000D03*
X84836000Y-42164000D03*
X84836000Y-49784000D03*
X81788000Y-66548000D03*
X81788000Y-58928000D03*
X84836000Y-58928000D03*
X84836000Y-66548000D03*
X87884000Y-33147000D03*
X87884000Y-25527000D03*
X87884000Y-49784000D03*
X87884000Y-42164000D03*
X87884000Y-66548000D03*
X87884000Y-58928000D03*
X93472000Y-59436000D03*
X101092000Y-59436000D03*
X101092000Y-52324000D03*
X93472000Y-52324000D03*
X93472000Y-45974000D03*
X101092000Y-45974000D03*
D20*
X77470000Y-30480000D03*
X77470000Y-27940000D03*
X77470000Y-33020000D03*
X77470000Y-46990000D03*
X77470000Y-44450000D03*
X77470000Y-49530000D03*
X77470000Y-63500000D03*
X77470000Y-60960000D03*
X77470000Y-66040000D03*
D14*
X83312000Y-38822000D03*
D13*
X83312000Y-36322000D03*
D14*
X83312000Y-55586000D03*
D13*
X83312000Y-53086000D03*
D14*
X83312000Y-72223000D03*
D13*
X83312000Y-69723000D03*
D21*
X70970140Y-27940000D03*
X64970660Y-27940000D03*
X67970400Y-32639000D03*
D22*
X70000000Y-37990000D03*
X70000000Y-43290000D03*
X70000000Y-53230000D03*
X70000000Y-58530000D03*
X70000000Y-68470000D03*
X70000000Y-73770000D03*
D23*
X87630000Y-38862000D03*
X90424000Y-44958000D03*
X100076000Y-71120000D03*
X101600000Y-67818000D03*
X85598000Y-54864000D03*
X89916000Y-54864000D03*
X101600000Y-30988000D03*
X100584000Y-67564000D03*
X90424000Y-68072000D03*
X90424000Y-51308000D03*
X90424000Y-35052000D03*
X103124000Y-64008000D03*
X94488000Y-40640000D03*
X101092000Y-55880000D03*
D24*
X77470000Y-27940000D02*
X76200000Y-27940000D01*
X74803000Y-29337000D02*
X74803000Y-37719000D01*
X76200000Y-27940000D02*
X74803000Y-29337000D01*
X70000000Y-43290000D02*
X70000000Y-42522000D01*
X70000000Y-42522000D02*
X74803000Y-37719000D01*
X90424000Y-44958000D02*
X90424000Y-41656000D01*
X90424000Y-41656000D02*
X87630000Y-38862000D01*
X101600000Y-67818000D02*
X101600000Y-69596000D01*
X101600000Y-69596000D02*
X100076000Y-71120000D01*
X85598000Y-54864000D02*
X89916000Y-54864000D01*
X101600000Y-32478980D02*
X101600000Y-30988000D01*
D25*
X101600000Y-66073020D02*
X101600000Y-66548000D01*
X101600000Y-66548000D02*
X100584000Y-67564000D01*
X90424000Y-66581020D02*
X90424000Y-68072000D01*
X90424000Y-49817020D02*
X90424000Y-51308000D01*
X90424000Y-33561020D02*
X90424000Y-35052000D01*
D24*
X96012000Y-59944000D02*
X96012000Y-62738000D01*
X98552000Y-57404000D02*
X96012000Y-59944000D01*
X104648000Y-57404000D02*
X98552000Y-57404000D01*
X105156000Y-56896000D02*
X104648000Y-57404000D01*
X105156000Y-22352000D02*
X105156000Y-56896000D01*
X101092000Y-22352000D02*
X105156000Y-22352000D01*
X96012000Y-27432000D02*
X101092000Y-22352000D01*
X96012000Y-30988000D02*
X96012000Y-27432000D01*
D25*
X87884000Y-33147000D02*
X87884000Y-35306000D01*
X86868000Y-36322000D02*
X83312000Y-36322000D01*
X87884000Y-35306000D02*
X86868000Y-36322000D01*
X83312000Y-36322000D02*
X83312000Y-34671000D01*
X83312000Y-34671000D02*
X81788000Y-33147000D01*
X77470000Y-30480000D02*
X79121000Y-30480000D01*
X79121000Y-30480000D02*
X81788000Y-33147000D01*
D24*
X74803000Y-54229000D02*
X74803000Y-47117000D01*
X74803000Y-47117000D02*
X77470000Y-44450000D01*
X70000000Y-58530000D02*
X70502000Y-58530000D01*
X70502000Y-58530000D02*
X74803000Y-54229000D01*
D25*
X87884000Y-49784000D02*
X87884000Y-52070000D01*
X86868000Y-53086000D02*
X86360000Y-53086000D01*
X86360000Y-53086000D02*
X83312000Y-53086000D01*
X87884000Y-52070000D02*
X86868000Y-53086000D01*
X81788000Y-49784000D02*
X83312000Y-51308000D01*
X83312000Y-51308000D02*
X83312000Y-53086000D01*
X77470000Y-46990000D02*
X78994000Y-46990000D01*
X78994000Y-46990000D02*
X81788000Y-49784000D01*
D24*
X74676000Y-71120000D02*
X74676000Y-63754000D01*
X74676000Y-63754000D02*
X77470000Y-60960000D01*
X70000000Y-73770000D02*
X72026000Y-73770000D01*
X72026000Y-73770000D02*
X74676000Y-71120000D01*
D25*
X87884000Y-66548000D02*
X87884000Y-68834000D01*
X86995000Y-69723000D02*
X83312000Y-69723000D01*
X87884000Y-68834000D02*
X86995000Y-69723000D01*
X81788000Y-66548000D02*
X83312000Y-68072000D01*
X83312000Y-68072000D02*
X83312000Y-69723000D01*
X77470000Y-63500000D02*
X78740000Y-63500000D01*
X78740000Y-63500000D02*
X81788000Y-66548000D01*
D24*
X70000000Y-53230000D02*
X69960000Y-53230000D01*
X69960000Y-53230000D02*
X67945000Y-55245000D01*
X67945000Y-66415000D02*
X70000000Y-68470000D01*
X67945000Y-55245000D02*
X67945000Y-66415000D01*
X70000000Y-37990000D02*
X69960000Y-37990000D01*
X69960000Y-37990000D02*
X67945000Y-40005000D01*
X67945000Y-51175000D02*
X70000000Y-53230000D01*
X67945000Y-40005000D02*
X67945000Y-51175000D01*
X70970140Y-27940000D02*
X70970140Y-37019860D01*
X70970140Y-37019860D02*
X70000000Y-37990000D01*
D25*
X87884000Y-25527000D02*
X87884000Y-28922980D01*
X87884000Y-28922980D02*
X90424000Y-31462980D01*
X87884000Y-42164000D02*
X87884000Y-45178980D01*
X87884000Y-45178980D02*
X90424000Y-47718980D01*
X87884000Y-58928000D02*
X87884000Y-61942980D01*
X87884000Y-61942980D02*
X90424000Y-64482980D01*
X103090980Y-63974980D02*
X101600000Y-63974980D01*
X103124000Y-64008000D02*
X103090980Y-63974980D01*
X101092000Y-52324000D02*
X97078760Y-52324000D01*
X97078760Y-52324000D02*
X94472760Y-54930000D01*
X94472760Y-40655240D02*
X94472760Y-41722000D01*
X94488000Y-40640000D02*
X94472760Y-40655240D01*
X101092000Y-39116000D02*
X101092000Y-35085020D01*
X101092000Y-35085020D02*
X101600000Y-34577020D01*
X98534220Y-55880000D02*
X101092000Y-55880000D01*
X98552000Y-62738000D02*
X98552000Y-61976000D01*
X98552000Y-61976000D02*
X101092000Y-59436000D01*
D24*
X98552000Y-62738000D02*
X98552000Y-65278000D01*
X98552000Y-65278000D02*
X98552000Y-67818000D01*
X98552000Y-67818000D02*
X98552000Y-71374000D01*
X98552000Y-71374000D02*
X100838000Y-73660000D01*
X100838000Y-73660000D02*
X102616000Y-73660000D01*
D25*
X98534220Y-42672000D02*
X98534220Y-36085780D01*
X98534220Y-36085780D02*
X98552000Y-36068000D01*
X101092000Y-45974000D02*
X101092000Y-45229780D01*
X101092000Y-45229780D02*
X98534220Y-42672000D01*
D24*
X98552000Y-36068000D02*
X98552000Y-33528000D01*
X98552000Y-33528000D02*
X98552000Y-30988000D01*
X98552000Y-30988000D02*
X101600000Y-27940000D01*
X101600000Y-27940000D02*
X102616000Y-27940000D01*
D25*
X96535240Y-54930000D02*
X96586000Y-54930000D01*
X96586000Y-54930000D02*
X97536000Y-55880000D01*
X97536000Y-55880000D02*
X97536000Y-57404000D01*
X97536000Y-57404000D02*
X97028000Y-57912000D01*
X97028000Y-57912000D02*
X93472000Y-57912000D01*
X93472000Y-59436000D02*
X93472000Y-57912000D01*
X93472000Y-57912000D02*
X93472000Y-56878220D01*
X93472000Y-56878220D02*
X92473780Y-55880000D01*
X93472000Y-52324000D02*
X93472000Y-55829240D01*
X93472000Y-55829240D02*
X94472760Y-56830000D01*
X94472760Y-56830000D02*
X96535240Y-56830000D01*
X96535240Y-41722000D02*
X96586000Y-41722000D01*
X96586000Y-41722000D02*
X97536000Y-42672000D01*
X97536000Y-42672000D02*
X97536000Y-44704000D01*
X97536000Y-44704000D02*
X93472000Y-44704000D01*
X93472000Y-45974000D02*
X93472000Y-44704000D01*
X93472000Y-44704000D02*
X93472000Y-43670220D01*
X93472000Y-43670220D02*
X92473780Y-42672000D01*
X94472760Y-43622000D02*
X94472760Y-43418760D01*
X94472760Y-43418760D02*
X93472000Y-42418000D01*
X93472000Y-42418000D02*
X93472000Y-39116000D01*
X94472760Y-43622000D02*
X96535240Y-43622000D01*
X81788000Y-25527000D02*
X84836000Y-25527000D01*
X81788000Y-42164000D02*
X84836000Y-42164000D01*
X81788000Y-58928000D02*
X84836000Y-58928000D01*
M02*
