%TF.GenerationSoftware,KiCad,Pcbnew,(2016-02-05 BZR 6539, Git cb13e57)-product*%
%TF.CreationDate,2016-02-18T18:32:30+00:00*%
%TF.ProjectId,pcbdisplay,706362646973706C61792E6B69636164,rev?*%
%TF.FileFunction,Copper,L1,Top,Signal*%
%FSLAX46Y46*%
G04 Gerber Fmt 4.6, Leading zero omitted, Abs format (unit mm)*
G04 Created by KiCad (PCBNEW (2016-02-05 BZR 6539, Git cb13e57)-product) date Thu 18 Feb 2016 18:32:30 GMT*
%MOMM*%
G01*
G04 APERTURE LIST*
%ADD10C,0.100000*%
%ADD11C,3.000000*%
%ADD12R,1.727200X1.727200*%
%ADD13O,1.727200X1.727200*%
%ADD14C,0.600000*%
%ADD15C,0.250000*%
G04 APERTURE END LIST*
D10*
D11*
X50000000Y-50000000D03*
X53900000Y-50000000D03*
X57800000Y-50000000D03*
X61700000Y-50000000D03*
X65600000Y-50000000D03*
X69500000Y-50000000D03*
X73400000Y-50000000D03*
X77300000Y-50000000D03*
X81200000Y-50000000D03*
X85100000Y-50000000D03*
X89000000Y-50000000D03*
X92900000Y-50000000D03*
X96800000Y-50000000D03*
X100700000Y-50000000D03*
X104600000Y-50000000D03*
X108500000Y-50000000D03*
X112400000Y-50000000D03*
X116300000Y-50000000D03*
X120200000Y-50000000D03*
X124100000Y-50000000D03*
X50000000Y-53900000D03*
X53900000Y-53900000D03*
X57800000Y-53900000D03*
X61700000Y-53900000D03*
X65600000Y-53900000D03*
X69500000Y-53900000D03*
X73400000Y-53900000D03*
X77300000Y-53900000D03*
X81200000Y-53900000D03*
X85100000Y-53900000D03*
X89000000Y-53900000D03*
X92900000Y-53900000D03*
X96800000Y-53900000D03*
X100700000Y-53900000D03*
X104600000Y-53900000D03*
X108500000Y-53900000D03*
X112400000Y-53900000D03*
X116300000Y-53900000D03*
X120200000Y-53900000D03*
X124100000Y-53900000D03*
X50000000Y-57800000D03*
X53900000Y-57800000D03*
X57800000Y-57800000D03*
X61700000Y-57800000D03*
X65600000Y-57800000D03*
X69500000Y-57800000D03*
X73400000Y-57800000D03*
X77300000Y-57800000D03*
X81200000Y-57800000D03*
X85100000Y-57800000D03*
X89000000Y-57800000D03*
X92900000Y-57800000D03*
X96800000Y-57800000D03*
X100700000Y-57800000D03*
X104600000Y-57800000D03*
X108500000Y-57800000D03*
X112400000Y-57800000D03*
X116300000Y-57800000D03*
X120200000Y-57800000D03*
X124100000Y-57800000D03*
X50000000Y-61700000D03*
X53900000Y-61700000D03*
X57800000Y-61700000D03*
X61700000Y-61700000D03*
X65600000Y-61700000D03*
X69500000Y-61700000D03*
X73400000Y-61700000D03*
X77300000Y-61700000D03*
X81200000Y-61700000D03*
X85100000Y-61700000D03*
X89000000Y-61700000D03*
X92900000Y-61700000D03*
X96800000Y-61700000D03*
X100700000Y-61700000D03*
X104600000Y-61700000D03*
X108500000Y-61700000D03*
X112400000Y-61700000D03*
X116300000Y-61700000D03*
X120200000Y-61700000D03*
X124100000Y-61700000D03*
X50000000Y-65600000D03*
X53900000Y-65600000D03*
X57800000Y-65600000D03*
X61700000Y-65600000D03*
X65600000Y-65600000D03*
X69500000Y-65600000D03*
X73400000Y-65600000D03*
X77300000Y-65600000D03*
X81200000Y-65600000D03*
X85100000Y-65600000D03*
X89000000Y-65600000D03*
X92900000Y-65600000D03*
X96800000Y-65600000D03*
X100700000Y-65600000D03*
X104600000Y-65600000D03*
X108500000Y-65600000D03*
X112400000Y-65600000D03*
X116300000Y-65600000D03*
X120200000Y-65600000D03*
X124100000Y-65600000D03*
X50000000Y-69500000D03*
X53900000Y-69500000D03*
X57800000Y-69500000D03*
X61700000Y-69500000D03*
X65600000Y-69500000D03*
X69500000Y-69500000D03*
X73400000Y-69500000D03*
X77300000Y-69500000D03*
X81200000Y-69500000D03*
X85100000Y-69500000D03*
X89000000Y-69500000D03*
X92900000Y-69500000D03*
X96800000Y-69500000D03*
X100700000Y-69500000D03*
X104600000Y-69500000D03*
X108500000Y-69500000D03*
X112400000Y-69500000D03*
X116300000Y-69500000D03*
X120200000Y-69500000D03*
X124100000Y-69500000D03*
X50000000Y-73400000D03*
X53900000Y-73400000D03*
X57800000Y-73400000D03*
X61700000Y-73400000D03*
X65600000Y-73400000D03*
X69500000Y-73400000D03*
X73400000Y-73400000D03*
X77300000Y-73400000D03*
X81200000Y-73400000D03*
X85100000Y-73400000D03*
X89000000Y-73400000D03*
X92900000Y-73400000D03*
X96800000Y-73400000D03*
X100700000Y-73400000D03*
X104600000Y-73400000D03*
X108500000Y-73400000D03*
X112400000Y-73400000D03*
X116300000Y-73400000D03*
X120200000Y-73400000D03*
X124100000Y-73400000D03*
X50000000Y-77300000D03*
X53900000Y-77300000D03*
X57800000Y-77300000D03*
X61700000Y-77300000D03*
X65600000Y-77300000D03*
X69500000Y-77300000D03*
X73400000Y-77300000D03*
X77300000Y-77300000D03*
X81200000Y-77300000D03*
X85100000Y-77300000D03*
X89000000Y-77300000D03*
X92900000Y-77300000D03*
X96800000Y-77300000D03*
X100700000Y-77300000D03*
X104600000Y-77300000D03*
X108500000Y-77300000D03*
X112400000Y-77300000D03*
X116300000Y-77300000D03*
X120200000Y-77300000D03*
X124100000Y-77300000D03*
X50000000Y-81200000D03*
X53900000Y-81200000D03*
X57800000Y-81200000D03*
X61700000Y-81200000D03*
X65600000Y-81200000D03*
X69500000Y-81200000D03*
X73400000Y-81200000D03*
X77300000Y-81200000D03*
X81200000Y-81200000D03*
X85100000Y-81200000D03*
X89000000Y-81200000D03*
X92900000Y-81200000D03*
X96800000Y-81200000D03*
X100700000Y-81200000D03*
X104600000Y-81200000D03*
X108500000Y-81200000D03*
X112400000Y-81200000D03*
X116300000Y-81200000D03*
X120200000Y-81200000D03*
X124100000Y-81200000D03*
X50000000Y-85100000D03*
X53900000Y-85100000D03*
X57800000Y-85100000D03*
X61700000Y-85100000D03*
X65600000Y-85100000D03*
X69500000Y-85100000D03*
X73400000Y-85100000D03*
X77300000Y-85100000D03*
X81200000Y-85100000D03*
X85100000Y-85100000D03*
X89000000Y-85100000D03*
X92900000Y-85100000D03*
X96800000Y-85100000D03*
X100700000Y-85100000D03*
X104600000Y-85100000D03*
X108500000Y-85100000D03*
X112400000Y-85100000D03*
X116300000Y-85100000D03*
X120200000Y-85100000D03*
X124100000Y-85100000D03*
X50000000Y-89000000D03*
X53900000Y-89000000D03*
X57800000Y-89000000D03*
X61700000Y-89000000D03*
X65600000Y-89000000D03*
X69500000Y-89000000D03*
X73400000Y-89000000D03*
X77300000Y-89000000D03*
X81200000Y-89000000D03*
X85100000Y-89000000D03*
X89000000Y-89000000D03*
X92900000Y-89000000D03*
X96800000Y-89000000D03*
X100700000Y-89000000D03*
X104600000Y-89000000D03*
X108500000Y-89000000D03*
X112400000Y-89000000D03*
X116300000Y-89000000D03*
X120200000Y-89000000D03*
X124100000Y-89000000D03*
X50000000Y-92900000D03*
X53900000Y-92900000D03*
X57800000Y-92900000D03*
X61700000Y-92900000D03*
X65600000Y-92900000D03*
X69500000Y-92900000D03*
X73400000Y-92900000D03*
X77300000Y-92900000D03*
X81200000Y-92900000D03*
X85100000Y-92900000D03*
X89000000Y-92900000D03*
X92900000Y-92900000D03*
X96800000Y-92900000D03*
X100700000Y-92900000D03*
X104600000Y-92900000D03*
X108500000Y-92900000D03*
X112400000Y-92900000D03*
X116300000Y-92900000D03*
X120200000Y-92900000D03*
X124100000Y-92900000D03*
X50000000Y-96800000D03*
X53900000Y-96800000D03*
X57800000Y-96800000D03*
X61700000Y-96800000D03*
X65600000Y-96800000D03*
X69500000Y-96800000D03*
X73400000Y-96800000D03*
X77300000Y-96800000D03*
X81200000Y-96800000D03*
X85100000Y-96800000D03*
X89000000Y-96800000D03*
X92900000Y-96800000D03*
X96800000Y-96800000D03*
X100700000Y-96800000D03*
X104600000Y-96800000D03*
X108500000Y-96800000D03*
X112400000Y-96800000D03*
X116300000Y-96800000D03*
X120200000Y-96800000D03*
X124100000Y-96800000D03*
X50000000Y-100700000D03*
X53900000Y-100700000D03*
X57800000Y-100700000D03*
X61700000Y-100700000D03*
X65600000Y-100700000D03*
X69500000Y-100700000D03*
X73400000Y-100700000D03*
X77300000Y-100700000D03*
X81200000Y-100700000D03*
X85100000Y-100700000D03*
X89000000Y-100700000D03*
X92900000Y-100700000D03*
X96800000Y-100700000D03*
X100700000Y-100700000D03*
X104600000Y-100700000D03*
X108500000Y-100700000D03*
X112400000Y-100700000D03*
X116300000Y-100700000D03*
X120200000Y-100700000D03*
X124100000Y-100700000D03*
X50000000Y-104600000D03*
X53900000Y-104600000D03*
X57800000Y-104600000D03*
X61700000Y-104600000D03*
X65600000Y-104600000D03*
X69500000Y-104600000D03*
X73400000Y-104600000D03*
X77300000Y-104600000D03*
X81200000Y-104600000D03*
X85100000Y-104600000D03*
X89000000Y-104600000D03*
X92900000Y-104600000D03*
X96800000Y-104600000D03*
X100700000Y-104600000D03*
X104600000Y-104600000D03*
X108500000Y-104600000D03*
X112400000Y-104600000D03*
X116300000Y-104600000D03*
X120200000Y-104600000D03*
X124100000Y-104600000D03*
X50000000Y-108500000D03*
X53900000Y-108500000D03*
X57800000Y-108500000D03*
X61700000Y-108500000D03*
X65600000Y-108500000D03*
X69500000Y-108500000D03*
X73400000Y-108500000D03*
X77300000Y-108500000D03*
X81200000Y-108500000D03*
X85100000Y-108500000D03*
X89000000Y-108500000D03*
X92900000Y-108500000D03*
X96800000Y-108500000D03*
X100700000Y-108500000D03*
X104600000Y-108500000D03*
X108500000Y-108500000D03*
X112400000Y-108500000D03*
X116300000Y-108500000D03*
X120200000Y-108500000D03*
X124100000Y-108500000D03*
X50000000Y-112400000D03*
X53900000Y-112400000D03*
X57800000Y-112400000D03*
X61700000Y-112400000D03*
X65600000Y-112400000D03*
X69500000Y-112400000D03*
X73400000Y-112400000D03*
X77300000Y-112400000D03*
X81200000Y-112400000D03*
X85100000Y-112400000D03*
X89000000Y-112400000D03*
X92900000Y-112400000D03*
X96800000Y-112400000D03*
X100700000Y-112400000D03*
X104600000Y-112400000D03*
X108500000Y-112400000D03*
X112400000Y-112400000D03*
X116300000Y-112400000D03*
X120200000Y-112400000D03*
X124100000Y-112400000D03*
X50000000Y-116300000D03*
X53900000Y-116300000D03*
X57800000Y-116300000D03*
X61700000Y-116300000D03*
X65600000Y-116300000D03*
X69500000Y-116300000D03*
X73400000Y-116300000D03*
X77300000Y-116300000D03*
X81200000Y-116300000D03*
X85100000Y-116300000D03*
X89000000Y-116300000D03*
X92900000Y-116300000D03*
X96800000Y-116300000D03*
X100700000Y-116300000D03*
X104600000Y-116300000D03*
X108500000Y-116300000D03*
X112400000Y-116300000D03*
X116300000Y-116300000D03*
X120200000Y-116300000D03*
X124100000Y-116300000D03*
X50000000Y-120200000D03*
X53900000Y-120200000D03*
X57800000Y-120200000D03*
X61700000Y-120200000D03*
X65600000Y-120200000D03*
X69500000Y-120200000D03*
X73400000Y-120200000D03*
X77300000Y-120200000D03*
X81200000Y-120200000D03*
X85100000Y-120200000D03*
X89000000Y-120200000D03*
X92900000Y-120200000D03*
X96800000Y-120200000D03*
X100700000Y-120200000D03*
X104600000Y-120200000D03*
X108500000Y-120200000D03*
X112400000Y-120200000D03*
X116300000Y-120200000D03*
X120200000Y-120200000D03*
X124100000Y-120200000D03*
X50000000Y-124100000D03*
X53900000Y-124100000D03*
X57800000Y-124100000D03*
X61700000Y-124100000D03*
X65600000Y-124100000D03*
X69500000Y-124100000D03*
X73400000Y-124100000D03*
X77300000Y-124100000D03*
X81200000Y-124100000D03*
X85100000Y-124100000D03*
X89000000Y-124100000D03*
X92900000Y-124100000D03*
X96800000Y-124100000D03*
X100700000Y-124100000D03*
X104600000Y-124100000D03*
X108500000Y-124100000D03*
X112400000Y-124100000D03*
X116300000Y-124100000D03*
X120200000Y-124100000D03*
X124100000Y-124100000D03*
D12*
X36195000Y-110490000D03*
D13*
X33655000Y-110490000D03*
X36195000Y-107950000D03*
X33655000Y-107950000D03*
X36195000Y-105410000D03*
X33655000Y-105410000D03*
X36195000Y-102870000D03*
X33655000Y-102870000D03*
X36195000Y-100330000D03*
X33655000Y-100330000D03*
X36195000Y-97790000D03*
X33655000Y-97790000D03*
X36195000Y-95250000D03*
X33655000Y-95250000D03*
X36195000Y-92710000D03*
X33655000Y-92710000D03*
X36195000Y-90170000D03*
X33655000Y-90170000D03*
X36195000Y-87630000D03*
X33655000Y-87630000D03*
X36195000Y-85090000D03*
X33655000Y-85090000D03*
X36195000Y-82550000D03*
X33655000Y-82550000D03*
X36195000Y-80010000D03*
X33655000Y-80010000D03*
X36195000Y-77470000D03*
X33655000Y-77470000D03*
X36195000Y-74930000D03*
X33655000Y-74930000D03*
X36195000Y-72390000D03*
X33655000Y-72390000D03*
X36195000Y-69850000D03*
X33655000Y-69850000D03*
X36195000Y-67310000D03*
X33655000Y-67310000D03*
X36195000Y-64770000D03*
X33655000Y-64770000D03*
X36195000Y-62230000D03*
X33655000Y-62230000D03*
D14*
X124100000Y-122150000D03*
X120200000Y-122150000D03*
X116300000Y-122150000D03*
X112400000Y-122150000D03*
X108500000Y-122150000D03*
X104600000Y-122150000D03*
X100700000Y-122150000D03*
X96800000Y-122150000D03*
X92900000Y-122150000D03*
X89000000Y-122150000D03*
X85100000Y-122150000D03*
X81200000Y-122150000D03*
X77300000Y-122150000D03*
X73400000Y-122150000D03*
X69500000Y-122150000D03*
X65599999Y-122150000D03*
X61700000Y-122150000D03*
X57800000Y-122150000D03*
X53900000Y-122150000D03*
X50000000Y-122150000D03*
X124100000Y-118250000D03*
X120200000Y-118250000D03*
X116300000Y-118250000D03*
X112400000Y-118250000D03*
X108500000Y-118250000D03*
X104600000Y-118250000D03*
X100700000Y-118250000D03*
X96800000Y-118250000D03*
X92900000Y-118250000D03*
X89000000Y-118250000D03*
X85100000Y-118250000D03*
X81200000Y-118250000D03*
X77300000Y-118250000D03*
X73400000Y-118250000D03*
X69500000Y-118250000D03*
X65599999Y-118250000D03*
X61700000Y-118250000D03*
X57800000Y-118250000D03*
X53900000Y-118250000D03*
X50000000Y-118250000D03*
X124100000Y-114350000D03*
X120200000Y-114350000D03*
X116300000Y-114350000D03*
X112400000Y-114350000D03*
X108500000Y-114350000D03*
X104600000Y-114350000D03*
X100700000Y-114350000D03*
X96800000Y-114350000D03*
X92900000Y-114350000D03*
X89000000Y-114350000D03*
X85100000Y-114350000D03*
X81200000Y-114350000D03*
X77300000Y-114350000D03*
X73400000Y-114350000D03*
X69500000Y-114350000D03*
X65599999Y-114350000D03*
X61700000Y-114350000D03*
X57800000Y-114350000D03*
X53900000Y-114350000D03*
X50000000Y-114350000D03*
X124100000Y-110450000D03*
X120200000Y-110450000D03*
X116300000Y-110450000D03*
X112400000Y-110450000D03*
X108500000Y-110450000D03*
X104600000Y-110450000D03*
X100700000Y-110450000D03*
X96800000Y-110450000D03*
X92900000Y-110450000D03*
X89000000Y-110450000D03*
X85100000Y-110450000D03*
X81200000Y-110450000D03*
X77300000Y-110450000D03*
X73400000Y-110450000D03*
X69500000Y-110450000D03*
X65599999Y-110450000D03*
X61700000Y-110450000D03*
X57800000Y-110450000D03*
X53900000Y-110450000D03*
X50000000Y-110450000D03*
X124100000Y-106550000D03*
X120200000Y-106550000D03*
X116300000Y-106550000D03*
X112400000Y-106550000D03*
X108500000Y-106550000D03*
X104600000Y-106550000D03*
X100700000Y-106550000D03*
X96800000Y-106550000D03*
X92900000Y-106550000D03*
X89000000Y-106550000D03*
X85100000Y-106550000D03*
X81200000Y-106550000D03*
X77300000Y-106550000D03*
X73400000Y-106550000D03*
X69500000Y-106550000D03*
X65599999Y-106550000D03*
X61700000Y-106550000D03*
X57800000Y-106550000D03*
X53900000Y-106550000D03*
X50000000Y-106550000D03*
X124100000Y-102650000D03*
X120200000Y-102650000D03*
X116300000Y-102650000D03*
X112400000Y-102650000D03*
X108500000Y-102650000D03*
X104600000Y-102650000D03*
X100700000Y-102650000D03*
X96800000Y-102650000D03*
X92900000Y-102650000D03*
X89000000Y-102650000D03*
X85100000Y-102650000D03*
X81200000Y-102650000D03*
X77300000Y-102650000D03*
X73400000Y-102650000D03*
X69500000Y-102650000D03*
X65599999Y-102650000D03*
X61700000Y-102650000D03*
X57800000Y-102650000D03*
X53900000Y-102650000D03*
X50000000Y-102650000D03*
X124100000Y-98750000D03*
X120200000Y-98750000D03*
X116300000Y-98750000D03*
X112400000Y-98750000D03*
X108500000Y-98750000D03*
X104600000Y-98750000D03*
X100700000Y-98750000D03*
X96800000Y-98750000D03*
X92900000Y-98750000D03*
X89000000Y-98750000D03*
X85100000Y-98750000D03*
X81200000Y-98750000D03*
X77300000Y-98750000D03*
X73400000Y-98750000D03*
X69500000Y-98750000D03*
X65599999Y-98750000D03*
X61700000Y-98750000D03*
X57800000Y-98750000D03*
X53900000Y-98750000D03*
X50000000Y-98750000D03*
X124100000Y-94850000D03*
X120200000Y-94850000D03*
X116300000Y-94850000D03*
X112400000Y-94850000D03*
X108500000Y-94850000D03*
X104600000Y-94850000D03*
X100700000Y-94850000D03*
X96800000Y-94850000D03*
X92900000Y-94850000D03*
X89000000Y-94850000D03*
X85100000Y-94850000D03*
X81200000Y-94850000D03*
X77300000Y-94850000D03*
X73400000Y-94850000D03*
X69500000Y-94850000D03*
X65599999Y-94850000D03*
X61700000Y-94850000D03*
X57800000Y-94850000D03*
X53900000Y-94850000D03*
X50000000Y-94850000D03*
X124100000Y-90950000D03*
X120200000Y-90950000D03*
X116300000Y-90950000D03*
X112400000Y-90950000D03*
X108500000Y-90950000D03*
X104600000Y-90950000D03*
X100700000Y-90950000D03*
X96800000Y-90950000D03*
X92900000Y-90950000D03*
X89000000Y-90950000D03*
X85100000Y-90950000D03*
X81200000Y-90950000D03*
X77300000Y-90950000D03*
X73400000Y-90950000D03*
X69500000Y-90950000D03*
X65599999Y-90950000D03*
X61700000Y-90950000D03*
X57800000Y-90950000D03*
X53900000Y-90950000D03*
X50000000Y-90950000D03*
X124100000Y-87050000D03*
X120200000Y-87050000D03*
X116300000Y-87050000D03*
X112400000Y-87050000D03*
X108500000Y-87050000D03*
X104600000Y-87050000D03*
X100700000Y-87050000D03*
X96800000Y-87050000D03*
X92900000Y-87050000D03*
X89000000Y-87050000D03*
X85100000Y-87050000D03*
X81200000Y-87050000D03*
X77300000Y-87050000D03*
X73400000Y-87050000D03*
X69500000Y-87050000D03*
X65599999Y-87050000D03*
X61700000Y-87050000D03*
X57800000Y-87050000D03*
X53900000Y-87050000D03*
X50000000Y-87050000D03*
X124100000Y-83149999D03*
X120200000Y-83149999D03*
X116300000Y-83149999D03*
X112400000Y-83149999D03*
X108500000Y-83149999D03*
X104600000Y-83149999D03*
X100700000Y-83149999D03*
X96800000Y-83149999D03*
X92900000Y-83149999D03*
X89000000Y-83149999D03*
X85100000Y-83149999D03*
X81200000Y-83149999D03*
X77300000Y-83149999D03*
X73400000Y-83149999D03*
X69500000Y-83149999D03*
X65599999Y-83149999D03*
X61700000Y-83149999D03*
X57800000Y-83149999D03*
X53900000Y-83149999D03*
X50000000Y-83149999D03*
X124100000Y-79250000D03*
X120200000Y-79250000D03*
X116300000Y-79250000D03*
X112400000Y-79250000D03*
X108500000Y-79250000D03*
X104600000Y-79250000D03*
X100700000Y-79250000D03*
X96800000Y-79250000D03*
X92900000Y-79250000D03*
X89000000Y-79250000D03*
X85100000Y-79250000D03*
X81200000Y-79250000D03*
X77300000Y-79250000D03*
X73400000Y-79250000D03*
X69500000Y-79250000D03*
X65599999Y-79250000D03*
X61700000Y-79250000D03*
X57800000Y-79250000D03*
X53900000Y-79250000D03*
X50000000Y-79250000D03*
X124100000Y-75350000D03*
X120200000Y-75350000D03*
X116300000Y-75350000D03*
X112400000Y-75350000D03*
X108500000Y-75350000D03*
X104600000Y-75350000D03*
X100700000Y-75350000D03*
X96800000Y-75350000D03*
X92900000Y-75350000D03*
X89000000Y-75350000D03*
X85100000Y-75350000D03*
X81200000Y-75350000D03*
X77300000Y-75350000D03*
X73400000Y-75350000D03*
X69500000Y-75350000D03*
X65599999Y-75350000D03*
X61700000Y-75350000D03*
X57800000Y-75350000D03*
X53900000Y-75350000D03*
X50000000Y-75350000D03*
X124100000Y-71450000D03*
X120200000Y-71450000D03*
X116300000Y-71450000D03*
X112400000Y-71450000D03*
X108500000Y-71450000D03*
X104600000Y-71450000D03*
X100700000Y-71450000D03*
X96800000Y-71450000D03*
X92900000Y-71450000D03*
X89000000Y-71450000D03*
X85100000Y-71450000D03*
X81200000Y-71450000D03*
X77300000Y-71450000D03*
X73400000Y-71450000D03*
X69500000Y-71450000D03*
X65599999Y-71450000D03*
X61700000Y-71450000D03*
X57800000Y-71450000D03*
X53900000Y-71450000D03*
X50000000Y-71450000D03*
X124100000Y-67550000D03*
X120200000Y-67550000D03*
X116300000Y-67550000D03*
X112400000Y-67550000D03*
X108500000Y-67550000D03*
X104600000Y-67550000D03*
X100700000Y-67550000D03*
X96800000Y-67550000D03*
X92900000Y-67550000D03*
X89000000Y-67550000D03*
X85100000Y-67550000D03*
X81200000Y-67550000D03*
X77300000Y-67550000D03*
X73400000Y-67550000D03*
X69500000Y-67550000D03*
X65599999Y-67550000D03*
X61700000Y-67550000D03*
X57800000Y-67550000D03*
X53900000Y-67550000D03*
X50000000Y-67550000D03*
X124100000Y-63649999D03*
X120200000Y-63649999D03*
X116300000Y-63649999D03*
X112400000Y-63649999D03*
X108500000Y-63649999D03*
X104600000Y-63649999D03*
X100700000Y-63649999D03*
X96800000Y-63649999D03*
X92900000Y-63649999D03*
X89000000Y-63649999D03*
X85100000Y-63649999D03*
X81200000Y-63649999D03*
X77300000Y-63649999D03*
X73400000Y-63649999D03*
X69500000Y-63649999D03*
X65599999Y-63649999D03*
X61700000Y-63649999D03*
X57800000Y-63649999D03*
X53900000Y-63649999D03*
X50000000Y-63649999D03*
X124100000Y-59750000D03*
X120200000Y-59750000D03*
X116300000Y-59750000D03*
X112400000Y-59750000D03*
X108500000Y-59750000D03*
X104600000Y-59750000D03*
X100700000Y-59750000D03*
X96800000Y-59750000D03*
X92900000Y-59750000D03*
X89000000Y-59750000D03*
X85100000Y-59750000D03*
X81200000Y-59750000D03*
X77300000Y-59750000D03*
X73400000Y-59750000D03*
X69500000Y-59750000D03*
X65599999Y-59750000D03*
X61700000Y-59750000D03*
X57800000Y-59750000D03*
X53900000Y-59750000D03*
X50000000Y-59750000D03*
X124100000Y-55849999D03*
X120200000Y-55849999D03*
X116300000Y-55849999D03*
X112400000Y-55849999D03*
X108500000Y-55849999D03*
X104600000Y-55849999D03*
X100700000Y-55849999D03*
X96800000Y-55849999D03*
X92900000Y-55849999D03*
X89000000Y-55849999D03*
X85100000Y-55849999D03*
X81200000Y-55849999D03*
X77300000Y-55849999D03*
X73400000Y-55849999D03*
X69500000Y-55849999D03*
X65599999Y-55849999D03*
X61700000Y-55849999D03*
X57800000Y-55849999D03*
X53900000Y-55849999D03*
X50000000Y-55849999D03*
X124100000Y-51949999D03*
X120200000Y-51949999D03*
X116300000Y-51949999D03*
X112400000Y-51949999D03*
X108500000Y-51949999D03*
X104600000Y-51949999D03*
X100700000Y-51949999D03*
X96800000Y-51949999D03*
X92900000Y-51949999D03*
X89000000Y-51949999D03*
X85100000Y-51949999D03*
X81200000Y-51949999D03*
X77300000Y-51949999D03*
X73400000Y-51949999D03*
X69500000Y-51949999D03*
X65599999Y-51949999D03*
X61700000Y-51949999D03*
X57800000Y-51949999D03*
X53900000Y-51949999D03*
X50000000Y-51949999D03*
X124100000Y-48050000D03*
X120200000Y-48050000D03*
X116300000Y-48050000D03*
X112400000Y-48050000D03*
X108500000Y-48050000D03*
X104600000Y-48050000D03*
X100700000Y-48050000D03*
X96800000Y-48050000D03*
X92900000Y-48050000D03*
X89000000Y-48050000D03*
X85100000Y-48050000D03*
X81200000Y-48050000D03*
X77300000Y-48050000D03*
X73400000Y-48050000D03*
X69500000Y-48050000D03*
X65599999Y-48050000D03*
X61700000Y-48050000D03*
X57800000Y-48050000D03*
X53900000Y-48050000D03*
X50000000Y-48050000D03*
D15*
X38298120Y-112552480D02*
X35717480Y-112552480D01*
X35717480Y-112552480D02*
X33655000Y-110490000D01*
X38572440Y-112826800D02*
X38298120Y-112552480D01*
X38572440Y-127472440D02*
X38572440Y-112826800D01*
X44267120Y-133167120D02*
X38572440Y-127472440D01*
X115564920Y-133167120D02*
X44267120Y-133167120D01*
X122150000Y-126582040D02*
X115564920Y-133167120D01*
X122150000Y-124100000D02*
X122150000Y-126582040D01*
X38953440Y-109143800D02*
X34848800Y-109143800D01*
X34848800Y-109143800D02*
X33655000Y-107950000D01*
X39405560Y-109595920D02*
X38953440Y-109143800D01*
X39405560Y-127238760D02*
X39405560Y-109595920D01*
X44475400Y-132308600D02*
X39405560Y-127238760D01*
X111831120Y-132308600D02*
X44475400Y-132308600D01*
X118250000Y-125889720D02*
X111831120Y-132308600D01*
X118250000Y-124100000D02*
X118250000Y-125889720D01*
X40121840Y-106730800D02*
X34975800Y-106730800D01*
X34975800Y-106730800D02*
X33655000Y-105410000D01*
X40233600Y-106842560D02*
X40121840Y-106730800D01*
X40233600Y-126867920D02*
X40233600Y-106842560D01*
X44846240Y-131480560D02*
X40233600Y-126867920D01*
X107980480Y-131480560D02*
X44846240Y-131480560D01*
X114350000Y-125111040D02*
X107980480Y-131480560D01*
X114350000Y-124100000D02*
X114350000Y-125111040D01*
X40914320Y-104068880D02*
X34853880Y-104068880D01*
X34853880Y-104068880D02*
X33655000Y-102870000D01*
X41137840Y-104292400D02*
X40914320Y-104068880D01*
X41137840Y-126725680D02*
X41137840Y-104292400D01*
X45145960Y-130733800D02*
X41137840Y-126725680D01*
X105161080Y-130733800D02*
X45145960Y-130733800D01*
X110450000Y-125444880D02*
X105161080Y-130733800D01*
X110450000Y-124100000D02*
X110450000Y-125444880D01*
X41859200Y-101615240D02*
X34940240Y-101615240D01*
X34940240Y-101615240D02*
X33655000Y-100330000D01*
X41904920Y-101660960D02*
X41859200Y-101615240D01*
X41904920Y-126431040D02*
X41904920Y-101660960D01*
X45486320Y-130012440D02*
X41904920Y-126431040D01*
X101681280Y-130012440D02*
X45486320Y-130012440D01*
X106550000Y-125143720D02*
X101681280Y-130012440D01*
X106550000Y-124100000D02*
X106550000Y-125143720D01*
X42509440Y-99034600D02*
X34899600Y-99034600D01*
X34899600Y-99034600D02*
X33655000Y-97790000D01*
X42799000Y-99324160D02*
X42509440Y-99034600D01*
X42799000Y-126156720D02*
X42799000Y-99324160D01*
X45933360Y-129291080D02*
X42799000Y-126156720D01*
X98348800Y-129291080D02*
X45933360Y-129291080D01*
X102650000Y-124989880D02*
X98348800Y-129291080D01*
X102650000Y-124100000D02*
X102650000Y-124989880D01*
X102650000Y-50000000D02*
X102650000Y-124100000D01*
X98750000Y-124100000D02*
X98750000Y-125415160D01*
X98750000Y-125415160D02*
X95656400Y-128508760D01*
X34879280Y-96474280D02*
X33655000Y-95250000D01*
X95656400Y-128508760D02*
X46324520Y-128508760D01*
X46324520Y-128508760D02*
X43942000Y-126126240D01*
X43942000Y-126126240D02*
X43942000Y-96474280D01*
X43942000Y-96474280D02*
X34879280Y-96474280D01*
X44988480Y-93949520D02*
X34894520Y-93949520D01*
X34894520Y-93949520D02*
X33655000Y-92710000D01*
X45196760Y-94157800D02*
X44988480Y-93949520D01*
X45196760Y-126039880D02*
X45196760Y-94157800D01*
X46873160Y-127716280D02*
X45196760Y-126039880D01*
X93248480Y-127716280D02*
X46873160Y-127716280D01*
X94850000Y-126114760D02*
X93248480Y-127716280D01*
X94850000Y-124100000D02*
X94850000Y-126114760D01*
X45933360Y-91546680D02*
X35031680Y-91546680D01*
X35031680Y-91546680D02*
X33655000Y-90170000D01*
X46202600Y-91815920D02*
X45933360Y-91546680D01*
X46202600Y-125994160D02*
X46202600Y-91815920D01*
X47101760Y-126893320D02*
X46202600Y-125994160D01*
X90205560Y-126893320D02*
X47101760Y-126893320D01*
X90950000Y-126148880D02*
X90205560Y-126893320D01*
X90950000Y-124100000D02*
X90950000Y-126148880D01*
X47279560Y-88900000D02*
X34925000Y-88900000D01*
X34925000Y-88900000D02*
X33655000Y-87630000D01*
X47284640Y-88894920D02*
X47279560Y-88900000D01*
X47284640Y-126004320D02*
X47284640Y-88894920D01*
X47437040Y-126156720D02*
X47284640Y-126004320D01*
X86939120Y-126156720D02*
X47437040Y-126156720D01*
X87050000Y-126045840D02*
X86939120Y-126156720D01*
X87050000Y-124100000D02*
X87050000Y-126045840D01*
X40253920Y-63505080D02*
X34930080Y-63505080D01*
X34930080Y-63505080D02*
X33655000Y-62230000D01*
X40335200Y-63423800D02*
X40253920Y-63505080D01*
X40335200Y-47162720D02*
X40335200Y-63423800D01*
X45110400Y-42387520D02*
X40335200Y-47162720D01*
X77358240Y-42387520D02*
X45110400Y-42387520D01*
X83149999Y-48179279D02*
X77358240Y-42387520D01*
X83149999Y-50000000D02*
X83149999Y-48179279D01*
X40975280Y-66019680D02*
X34904680Y-66019680D01*
X34904680Y-66019680D02*
X33655000Y-64770000D01*
X41031160Y-65963800D02*
X40975280Y-66019680D01*
X41031160Y-47320200D02*
X41031160Y-65963800D01*
X45369480Y-42981880D02*
X41031160Y-47320200D01*
X74427080Y-42981880D02*
X45369480Y-42981880D01*
X79250000Y-47804800D02*
X74427080Y-42981880D01*
X79250000Y-50000000D02*
X79250000Y-47804800D01*
X41656000Y-68615560D02*
X34960560Y-68615560D01*
X34960560Y-68615560D02*
X33655000Y-67310000D01*
X41752520Y-68519040D02*
X41656000Y-68615560D01*
X41752520Y-47614840D02*
X41752520Y-68519040D01*
X45689520Y-43677840D02*
X41752520Y-47614840D01*
X70413880Y-43677840D02*
X45689520Y-43677840D01*
X75350000Y-48613960D02*
X70413880Y-43677840D01*
X75350000Y-50000000D02*
X75350000Y-48613960D01*
X42539920Y-71170800D02*
X34975800Y-71170800D01*
X34975800Y-71170800D02*
X33655000Y-69850000D01*
X42555160Y-71155560D02*
X42539920Y-71170800D01*
X42555160Y-47731680D02*
X42555160Y-71155560D01*
X45989240Y-44297600D02*
X42555160Y-47731680D01*
X67020440Y-44297600D02*
X45989240Y-44297600D01*
X71450000Y-48727160D02*
X67020440Y-44297600D01*
X71450000Y-50000000D02*
X71450000Y-48727160D01*
X43317160Y-73649840D02*
X34914840Y-73649840D01*
X34914840Y-73649840D02*
X33655000Y-72390000D01*
X43561000Y-73406000D02*
X43317160Y-73649840D01*
X43561000Y-47609760D02*
X43561000Y-73406000D01*
X46263560Y-44907200D02*
X43561000Y-47609760D01*
X63357760Y-44907200D02*
X46263560Y-44907200D01*
X67550000Y-49099440D02*
X63357760Y-44907200D01*
X67550000Y-50000000D02*
X67550000Y-49099440D01*
X44196000Y-76184760D02*
X34909760Y-76184760D01*
X34909760Y-76184760D02*
X33655000Y-74930000D01*
X44221400Y-76210160D02*
X44196000Y-76184760D01*
X44221400Y-47853600D02*
X44221400Y-76210160D01*
X46583600Y-45491400D02*
X44221400Y-47853600D01*
X60492640Y-45491400D02*
X46583600Y-45491400D01*
X63649999Y-48648759D02*
X60492640Y-45491400D01*
X63649999Y-50000000D02*
X63649999Y-48648759D01*
X45044360Y-78765400D02*
X34950400Y-78765400D01*
X34950400Y-78765400D02*
X33655000Y-77470000D01*
X45085000Y-78724760D02*
X45044360Y-78765400D01*
X45085000Y-47990760D02*
X45085000Y-78724760D01*
X46959520Y-46116240D02*
X45085000Y-47990760D01*
X59212480Y-46116240D02*
X46959520Y-46116240D01*
X59750000Y-46653760D02*
X59212480Y-46116240D01*
X59750000Y-50000000D02*
X59750000Y-46653760D01*
X45933360Y-81401920D02*
X35046920Y-81401920D01*
X35046920Y-81401920D02*
X33655000Y-80010000D01*
X45984160Y-81351120D02*
X45933360Y-81401920D01*
X45984160Y-48163480D02*
X45984160Y-81351120D01*
X47340520Y-46807120D02*
X45984160Y-48163480D01*
X55581238Y-46807120D02*
X47340520Y-46807120D01*
X55849999Y-47075881D02*
X55581238Y-46807120D01*
X55849999Y-50000000D02*
X55849999Y-47075881D01*
X46868080Y-83820000D02*
X34925000Y-83820000D01*
X34925000Y-83820000D02*
X33655000Y-82550000D01*
X47040800Y-83647280D02*
X46868080Y-83820000D01*
X47040800Y-48163480D02*
X47040800Y-83647280D01*
X47650400Y-47553880D02*
X47040800Y-48163480D01*
X51816000Y-47553880D02*
X47650400Y-47553880D01*
X51949999Y-47687879D02*
X51816000Y-47553880D01*
X51949999Y-50000000D02*
X51949999Y-47687879D01*
X48050000Y-86360000D02*
X34925000Y-86360000D01*
X34925000Y-86360000D02*
X33655000Y-85090000D01*
X48050000Y-86360000D02*
X48050000Y-89000000D01*
X48050000Y-50000000D02*
X48050000Y-86360000D01*
X124100000Y-122150000D02*
X124100000Y-125075000D01*
X122150000Y-124100000D02*
X125075000Y-124100000D01*
X122150000Y-50000000D02*
X122150000Y-124100000D01*
X120200000Y-122150000D02*
X120200000Y-125075000D01*
X118250000Y-124100000D02*
X121175000Y-124100000D01*
X118250000Y-50000000D02*
X118250000Y-124100000D01*
X116300000Y-122150000D02*
X116300000Y-125075000D01*
X114350000Y-124100000D02*
X117275000Y-124100000D01*
X114350000Y-50000000D02*
X114350000Y-124100000D01*
X112400000Y-122150000D02*
X112400000Y-125075000D01*
X110450000Y-124100000D02*
X113375000Y-124100000D01*
X110450000Y-50000000D02*
X110450000Y-124100000D01*
X108500000Y-122150000D02*
X108500000Y-125075000D01*
X106550000Y-124100000D02*
X109475000Y-124100000D01*
X106550000Y-50000000D02*
X106550000Y-124100000D01*
X104600000Y-122150000D02*
X104600000Y-125075000D01*
X102650000Y-124100000D02*
X105575000Y-124100000D01*
X100700000Y-122150000D02*
X100700000Y-125075000D01*
X98750000Y-124100000D02*
X101675000Y-124100000D01*
X98750000Y-50000000D02*
X98750000Y-124100000D01*
X96800000Y-122150000D02*
X96800000Y-125075000D01*
X94850000Y-124100000D02*
X97775000Y-124100000D01*
X94850000Y-50000000D02*
X94850000Y-124100000D01*
X92900000Y-122150000D02*
X92900000Y-125075000D01*
X90950000Y-124100000D02*
X93875000Y-124100000D01*
X90950000Y-50000000D02*
X90950000Y-124100000D01*
X89000000Y-122150000D02*
X89000000Y-125075000D01*
X87050000Y-124100000D02*
X89975000Y-124100000D01*
X87050000Y-50000000D02*
X87050000Y-124100000D01*
X85100000Y-122150000D02*
X85100000Y-125075000D01*
X83149999Y-124100000D02*
X86074999Y-124100000D01*
X83149999Y-50000000D02*
X83149999Y-124100000D01*
X81200000Y-122150000D02*
X81200000Y-125075000D01*
X79250000Y-124100000D02*
X82175000Y-124100000D01*
X79250000Y-50000000D02*
X79250000Y-124100000D01*
X77300000Y-122150000D02*
X77300000Y-125075000D01*
X75350000Y-124100000D02*
X78275000Y-124100000D01*
X75350000Y-50000000D02*
X75350000Y-124100000D01*
X73400000Y-122150000D02*
X73400000Y-125075000D01*
X71450000Y-124100000D02*
X74375000Y-124100000D01*
X71450000Y-50000000D02*
X71450000Y-124100000D01*
X69500000Y-122150000D02*
X69500000Y-125075000D01*
X67550000Y-124100000D02*
X70475000Y-124100000D01*
X67550000Y-50000000D02*
X67550000Y-124100000D01*
X65599999Y-122150000D02*
X65599999Y-125075000D01*
X63649999Y-124100000D02*
X66574999Y-124100000D01*
X63649999Y-50000000D02*
X63649999Y-124100000D01*
X61700000Y-122150000D02*
X61700000Y-125075000D01*
X59750000Y-124100000D02*
X62675000Y-124100000D01*
X59750000Y-50000000D02*
X59750000Y-124100000D01*
X57800000Y-122150000D02*
X57800000Y-125075000D01*
X55849999Y-124100000D02*
X58775000Y-124100000D01*
X55849999Y-50000000D02*
X55849999Y-124100000D01*
X53900000Y-122150000D02*
X53900000Y-125075000D01*
X51949999Y-124100000D02*
X54875000Y-124100000D01*
X51949999Y-50000000D02*
X51949999Y-124100000D01*
X50000000Y-122150000D02*
X50000000Y-125075000D01*
X48050000Y-124100000D02*
X50975000Y-124100000D01*
X48050000Y-50000000D02*
X48050000Y-124100000D01*
X124100000Y-118250000D02*
X124100000Y-121175000D01*
X122150000Y-120200000D02*
X125075000Y-120200000D01*
X122150000Y-50000000D02*
X122150000Y-120200000D01*
X120200000Y-118250000D02*
X120200000Y-121175000D01*
X118250000Y-120200000D02*
X121175000Y-120200000D01*
X118250000Y-50000000D02*
X118250000Y-120200000D01*
X116300000Y-118250000D02*
X116300000Y-121175000D01*
X114350000Y-120200000D02*
X117275000Y-120200000D01*
X114350000Y-50000000D02*
X114350000Y-120200000D01*
X112400000Y-118250000D02*
X112400000Y-121175000D01*
X110450000Y-120200000D02*
X113375000Y-120200000D01*
X110450000Y-50000000D02*
X110450000Y-120200000D01*
X108500000Y-118250000D02*
X108500000Y-121175000D01*
X106550000Y-120200000D02*
X109475000Y-120200000D01*
X106550000Y-50000000D02*
X106550000Y-120200000D01*
X104600000Y-118250000D02*
X104600000Y-121175000D01*
X102650000Y-120200000D02*
X105575000Y-120200000D01*
X102650000Y-50000000D02*
X102650000Y-120200000D01*
X100700000Y-118250000D02*
X100700000Y-121175000D01*
X98750000Y-120200000D02*
X101675000Y-120200000D01*
X98750000Y-50000000D02*
X98750000Y-120200000D01*
X96800000Y-118250000D02*
X96800000Y-121175000D01*
X94850000Y-120200000D02*
X97775000Y-120200000D01*
X94850000Y-50000000D02*
X94850000Y-120200000D01*
X92900000Y-118250000D02*
X92900000Y-121175000D01*
X90950000Y-120200000D02*
X93875000Y-120200000D01*
X90950000Y-50000000D02*
X90950000Y-120200000D01*
X89000000Y-118250000D02*
X89000000Y-121175000D01*
X87050000Y-120200000D02*
X89975000Y-120200000D01*
X87050000Y-50000000D02*
X87050000Y-120200000D01*
X85100000Y-118250000D02*
X85100000Y-121175000D01*
X83149999Y-120200000D02*
X86074999Y-120200000D01*
X83149999Y-50000000D02*
X83149999Y-120200000D01*
X81200000Y-118250000D02*
X81200000Y-121175000D01*
X79250000Y-120200000D02*
X82175000Y-120200000D01*
X79250000Y-50000000D02*
X79250000Y-120200000D01*
X77300000Y-118250000D02*
X77300000Y-121175000D01*
X75350000Y-120200000D02*
X78275000Y-120200000D01*
X75350000Y-50000000D02*
X75350000Y-120200000D01*
X73400000Y-118250000D02*
X73400000Y-121175000D01*
X71450000Y-120200000D02*
X74375000Y-120200000D01*
X71450000Y-50000000D02*
X71450000Y-120200000D01*
X69500000Y-118250000D02*
X69500000Y-121175000D01*
X67550000Y-120200000D02*
X70475000Y-120200000D01*
X67550000Y-50000000D02*
X67550000Y-120200000D01*
X65599999Y-118250000D02*
X65599999Y-121175000D01*
X63649999Y-120200000D02*
X66574999Y-120200000D01*
X63649999Y-50000000D02*
X63649999Y-120200000D01*
X61700000Y-118250000D02*
X61700000Y-121175000D01*
X59750000Y-120200000D02*
X62675000Y-120200000D01*
X59750000Y-50000000D02*
X59750000Y-120200000D01*
X57800000Y-118250000D02*
X57800000Y-121175000D01*
X55849999Y-120200000D02*
X58775000Y-120200000D01*
X55849999Y-50000000D02*
X55849999Y-120200000D01*
X53900000Y-118250000D02*
X53900000Y-121175000D01*
X51949999Y-120200000D02*
X54875000Y-120200000D01*
X51949999Y-50000000D02*
X51949999Y-120200000D01*
X50000000Y-118250000D02*
X50000000Y-121175000D01*
X48050000Y-120200000D02*
X50975000Y-120200000D01*
X48050000Y-50000000D02*
X48050000Y-120200000D01*
X124100000Y-114350000D02*
X124100000Y-117275000D01*
X122150000Y-116300000D02*
X125075000Y-116300000D01*
X122150000Y-50000000D02*
X122150000Y-116300000D01*
X120200000Y-114350000D02*
X120200000Y-117275000D01*
X118250000Y-116300000D02*
X121175000Y-116300000D01*
X118250000Y-50000000D02*
X118250000Y-116300000D01*
X116300000Y-114350000D02*
X116300000Y-117275000D01*
X114350000Y-116300000D02*
X117275000Y-116300000D01*
X114350000Y-50000000D02*
X114350000Y-116300000D01*
X112400000Y-114350000D02*
X112400000Y-117275000D01*
X110450000Y-116300000D02*
X113375000Y-116300000D01*
X110450000Y-50000000D02*
X110450000Y-116300000D01*
X108500000Y-114350000D02*
X108500000Y-117275000D01*
X106550000Y-116300000D02*
X109475000Y-116300000D01*
X106550000Y-50000000D02*
X106550000Y-116300000D01*
X104600000Y-114350000D02*
X104600000Y-117275000D01*
X102650000Y-116300000D02*
X105575000Y-116300000D01*
X102650000Y-50000000D02*
X102650000Y-116300000D01*
X100700000Y-114350000D02*
X100700000Y-117275000D01*
X98750000Y-116300000D02*
X101675000Y-116300000D01*
X98750000Y-50000000D02*
X98750000Y-116300000D01*
X96800000Y-114350000D02*
X96800000Y-117275000D01*
X94850000Y-116300000D02*
X97775000Y-116300000D01*
X94850000Y-50000000D02*
X94850000Y-116300000D01*
X92900000Y-114350000D02*
X92900000Y-117275000D01*
X90950000Y-116300000D02*
X93875000Y-116300000D01*
X90950000Y-50000000D02*
X90950000Y-116300000D01*
X89000000Y-114350000D02*
X89000000Y-117275000D01*
X87050000Y-116300000D02*
X89975000Y-116300000D01*
X87050000Y-50000000D02*
X87050000Y-116300000D01*
X85100000Y-114350000D02*
X85100000Y-117275000D01*
X83149999Y-116300000D02*
X86074999Y-116300000D01*
X83149999Y-50000000D02*
X83149999Y-116300000D01*
X81200000Y-114350000D02*
X81200000Y-117275000D01*
X79250000Y-116300000D02*
X82175000Y-116300000D01*
X79250000Y-50000000D02*
X79250000Y-116300000D01*
X77300000Y-114350000D02*
X77300000Y-117275000D01*
X75350000Y-116300000D02*
X78275000Y-116300000D01*
X75350000Y-50000000D02*
X75350000Y-116300000D01*
X73400000Y-114350000D02*
X73400000Y-117275000D01*
X71450000Y-116300000D02*
X74375000Y-116300000D01*
X71450000Y-50000000D02*
X71450000Y-116300000D01*
X69500000Y-114350000D02*
X69500000Y-117275000D01*
X67550000Y-116300000D02*
X70475000Y-116300000D01*
X67550000Y-50000000D02*
X67550000Y-116300000D01*
X65599999Y-114350000D02*
X65599999Y-117275000D01*
X63649999Y-116300000D02*
X66574999Y-116300000D01*
X63649999Y-50000000D02*
X63649999Y-116300000D01*
X61700000Y-114350000D02*
X61700000Y-117275000D01*
X59750000Y-116300000D02*
X62675000Y-116300000D01*
X59750000Y-50000000D02*
X59750000Y-116300000D01*
X57800000Y-114350000D02*
X57800000Y-117275000D01*
X55849999Y-116300000D02*
X58775000Y-116300000D01*
X55849999Y-50000000D02*
X55849999Y-116300000D01*
X53900000Y-114350000D02*
X53900000Y-117275000D01*
X51949999Y-116300000D02*
X54875000Y-116300000D01*
X51949999Y-50000000D02*
X51949999Y-116300000D01*
X50000000Y-114350000D02*
X50000000Y-117275000D01*
X48050000Y-116300000D02*
X50975000Y-116300000D01*
X48050000Y-50000000D02*
X48050000Y-116300000D01*
X124100000Y-110450000D02*
X124100000Y-113375000D01*
X122150000Y-112400000D02*
X125075000Y-112400000D01*
X122150000Y-50000000D02*
X122150000Y-112400000D01*
X120200000Y-110450000D02*
X120200000Y-113375000D01*
X118250000Y-112400000D02*
X121175000Y-112400000D01*
X118250000Y-50000000D02*
X118250000Y-112400000D01*
X116300000Y-110450000D02*
X116300000Y-113375000D01*
X114350000Y-112400000D02*
X117275000Y-112400000D01*
X114350000Y-50000000D02*
X114350000Y-112400000D01*
X112400000Y-110450000D02*
X112400000Y-113375000D01*
X110450000Y-112400000D02*
X113375000Y-112400000D01*
X110450000Y-50000000D02*
X110450000Y-112400000D01*
X108500000Y-110450000D02*
X108500000Y-113375000D01*
X106550000Y-112400000D02*
X109475000Y-112400000D01*
X106550000Y-50000000D02*
X106550000Y-112400000D01*
X104600000Y-110450000D02*
X104600000Y-113375000D01*
X102650000Y-112400000D02*
X105575000Y-112400000D01*
X102650000Y-50000000D02*
X102650000Y-112400000D01*
X100700000Y-110450000D02*
X100700000Y-113375000D01*
X98750000Y-112400000D02*
X101675000Y-112400000D01*
X98750000Y-50000000D02*
X98750000Y-112400000D01*
X96800000Y-110450000D02*
X96800000Y-113375000D01*
X94850000Y-112400000D02*
X97775000Y-112400000D01*
X94850000Y-50000000D02*
X94850000Y-112400000D01*
X92900000Y-110450000D02*
X92900000Y-113375000D01*
X90950000Y-112400000D02*
X93875000Y-112400000D01*
X90950000Y-50000000D02*
X90950000Y-112400000D01*
X89000000Y-110450000D02*
X89000000Y-113375000D01*
X87050000Y-112400000D02*
X89975000Y-112400000D01*
X87050000Y-50000000D02*
X87050000Y-112400000D01*
X85100000Y-110450000D02*
X85100000Y-113375000D01*
X83149999Y-112400000D02*
X86074999Y-112400000D01*
X83149999Y-50000000D02*
X83149999Y-112400000D01*
X81200000Y-110450000D02*
X81200000Y-113375000D01*
X79250000Y-112400000D02*
X82175000Y-112400000D01*
X79250000Y-50000000D02*
X79250000Y-112400000D01*
X77300000Y-110450000D02*
X77300000Y-113375000D01*
X75350000Y-112400000D02*
X78275000Y-112400000D01*
X75350000Y-50000000D02*
X75350000Y-112400000D01*
X73400000Y-110450000D02*
X73400000Y-113375000D01*
X71450000Y-112400000D02*
X74375000Y-112400000D01*
X71450000Y-50000000D02*
X71450000Y-112400000D01*
X69500000Y-110450000D02*
X69500000Y-113375000D01*
X67550000Y-112400000D02*
X70475000Y-112400000D01*
X67550000Y-50000000D02*
X67550000Y-112400000D01*
X65599999Y-110450000D02*
X65599999Y-113375000D01*
X63649999Y-112400000D02*
X66574999Y-112400000D01*
X63649999Y-50000000D02*
X63649999Y-112400000D01*
X61700000Y-110450000D02*
X61700000Y-113375000D01*
X59750000Y-112400000D02*
X62675000Y-112400000D01*
X59750000Y-50000000D02*
X59750000Y-112400000D01*
X57800000Y-110450000D02*
X57800000Y-113375000D01*
X55849999Y-112400000D02*
X58775000Y-112400000D01*
X55849999Y-50000000D02*
X55849999Y-112400000D01*
X53900000Y-110450000D02*
X53900000Y-113375000D01*
X51949999Y-112400000D02*
X54875000Y-112400000D01*
X51949999Y-50000000D02*
X51949999Y-112400000D01*
X50000000Y-110450000D02*
X50000000Y-113375000D01*
X48050000Y-112400000D02*
X50975000Y-112400000D01*
X48050000Y-50000000D02*
X48050000Y-112400000D01*
X124100000Y-106550000D02*
X124100000Y-109475000D01*
X122150000Y-108500000D02*
X125075000Y-108500000D01*
X122150000Y-50000000D02*
X122150000Y-108500000D01*
X120200000Y-106550000D02*
X120200000Y-109475000D01*
X118250000Y-108500000D02*
X121175000Y-108500000D01*
X118250000Y-50000000D02*
X118250000Y-108500000D01*
X116300000Y-106550000D02*
X116300000Y-109475000D01*
X114350000Y-108500000D02*
X117275000Y-108500000D01*
X114350000Y-50000000D02*
X114350000Y-108500000D01*
X112400000Y-106550000D02*
X112400000Y-109475000D01*
X110450000Y-108500000D02*
X113375000Y-108500000D01*
X110450000Y-50000000D02*
X110450000Y-108500000D01*
X108500000Y-106550000D02*
X108500000Y-109475000D01*
X106550000Y-108500000D02*
X109475000Y-108500000D01*
X106550000Y-50000000D02*
X106550000Y-108500000D01*
X104600000Y-106550000D02*
X104600000Y-109475000D01*
X102650000Y-108500000D02*
X105575000Y-108500000D01*
X102650000Y-50000000D02*
X102650000Y-108500000D01*
X100700000Y-106550000D02*
X100700000Y-109475000D01*
X98750000Y-108500000D02*
X101675000Y-108500000D01*
X98750000Y-50000000D02*
X98750000Y-108500000D01*
X96800000Y-106550000D02*
X96800000Y-109475000D01*
X94850000Y-108500000D02*
X97775000Y-108500000D01*
X94850000Y-50000000D02*
X94850000Y-108500000D01*
X92900000Y-106550000D02*
X92900000Y-109475000D01*
X90950000Y-108500000D02*
X93875000Y-108500000D01*
X90950000Y-50000000D02*
X90950000Y-108500000D01*
X89000000Y-106550000D02*
X89000000Y-109475000D01*
X87050000Y-108500000D02*
X89975000Y-108500000D01*
X87050000Y-50000000D02*
X87050000Y-108500000D01*
X85100000Y-106550000D02*
X85100000Y-109475000D01*
X83149999Y-108500000D02*
X86074999Y-108500000D01*
X83149999Y-50000000D02*
X83149999Y-108500000D01*
X81200000Y-106550000D02*
X81200000Y-109475000D01*
X79250000Y-108500000D02*
X82175000Y-108500000D01*
X79250000Y-50000000D02*
X79250000Y-108500000D01*
X77300000Y-106550000D02*
X77300000Y-109475000D01*
X75350000Y-108500000D02*
X78275000Y-108500000D01*
X75350000Y-50000000D02*
X75350000Y-108500000D01*
X73400000Y-106550000D02*
X73400000Y-109475000D01*
X71450000Y-108500000D02*
X74375000Y-108500000D01*
X71450000Y-50000000D02*
X71450000Y-108500000D01*
X69500000Y-106550000D02*
X69500000Y-109475000D01*
X67550000Y-108500000D02*
X70475000Y-108500000D01*
X67550000Y-50000000D02*
X67550000Y-108500000D01*
X65599999Y-106550000D02*
X65599999Y-109475000D01*
X63649999Y-108500000D02*
X66574999Y-108500000D01*
X63649999Y-50000000D02*
X63649999Y-108500000D01*
X61700000Y-106550000D02*
X61700000Y-109475000D01*
X59750000Y-108500000D02*
X62675000Y-108500000D01*
X59750000Y-50000000D02*
X59750000Y-108500000D01*
X57800000Y-106550000D02*
X57800000Y-109475000D01*
X55849999Y-108500000D02*
X58775000Y-108500000D01*
X55849999Y-50000000D02*
X55849999Y-108500000D01*
X53900000Y-106550000D02*
X53900000Y-109475000D01*
X51949999Y-108500000D02*
X54875000Y-108500000D01*
X51949999Y-50000000D02*
X51949999Y-108500000D01*
X50000000Y-106550000D02*
X50000000Y-109475000D01*
X48050000Y-108500000D02*
X50975000Y-108500000D01*
X48050000Y-50000000D02*
X48050000Y-108500000D01*
X124100000Y-102650000D02*
X124100000Y-105575000D01*
X122150000Y-104600000D02*
X125075000Y-104600000D01*
X122150000Y-50000000D02*
X122150000Y-104600000D01*
X120200000Y-102650000D02*
X120200000Y-105575000D01*
X118250000Y-104600000D02*
X121175000Y-104600000D01*
X118250000Y-50000000D02*
X118250000Y-104600000D01*
X116300000Y-102650000D02*
X116300000Y-105575000D01*
X114350000Y-104600000D02*
X117275000Y-104600000D01*
X114350000Y-50000000D02*
X114350000Y-104600000D01*
X112400000Y-102650000D02*
X112400000Y-105575000D01*
X110450000Y-104600000D02*
X113375000Y-104600000D01*
X110450000Y-50000000D02*
X110450000Y-104600000D01*
X108500000Y-102650000D02*
X108500000Y-105575000D01*
X106550000Y-104600000D02*
X109475000Y-104600000D01*
X106550000Y-50000000D02*
X106550000Y-104600000D01*
X104600000Y-102650000D02*
X104600000Y-105575000D01*
X102650000Y-104600000D02*
X105575000Y-104600000D01*
X102650000Y-50000000D02*
X102650000Y-104600000D01*
X100700000Y-102650000D02*
X100700000Y-105575000D01*
X98750000Y-104600000D02*
X101675000Y-104600000D01*
X98750000Y-50000000D02*
X98750000Y-104600000D01*
X96800000Y-102650000D02*
X96800000Y-105575000D01*
X94850000Y-104600000D02*
X97775000Y-104600000D01*
X94850000Y-50000000D02*
X94850000Y-104600000D01*
X92900000Y-102650000D02*
X92900000Y-105575000D01*
X90950000Y-104600000D02*
X93875000Y-104600000D01*
X90950000Y-50000000D02*
X90950000Y-104600000D01*
X89000000Y-102650000D02*
X89000000Y-105575000D01*
X87050000Y-104600000D02*
X89975000Y-104600000D01*
X87050000Y-50000000D02*
X87050000Y-104600000D01*
X85100000Y-102650000D02*
X85100000Y-105575000D01*
X83149999Y-104600000D02*
X86074999Y-104600000D01*
X83149999Y-50000000D02*
X83149999Y-104600000D01*
X81200000Y-102650000D02*
X81200000Y-105575000D01*
X79250000Y-104600000D02*
X82175000Y-104600000D01*
X79250000Y-50000000D02*
X79250000Y-104600000D01*
X77300000Y-102650000D02*
X77300000Y-105575000D01*
X75350000Y-104600000D02*
X78275000Y-104600000D01*
X75350000Y-50000000D02*
X75350000Y-104600000D01*
X73400000Y-102650000D02*
X73400000Y-105575000D01*
X71450000Y-104600000D02*
X74375000Y-104600000D01*
X71450000Y-50000000D02*
X71450000Y-104600000D01*
X69500000Y-102650000D02*
X69500000Y-105575000D01*
X67550000Y-104600000D02*
X70475000Y-104600000D01*
X67550000Y-50000000D02*
X67550000Y-104600000D01*
X65599999Y-102650000D02*
X65599999Y-105575000D01*
X63649999Y-104600000D02*
X66574999Y-104600000D01*
X63649999Y-50000000D02*
X63649999Y-104600000D01*
X61700000Y-102650000D02*
X61700000Y-105575000D01*
X59750000Y-104600000D02*
X62675000Y-104600000D01*
X59750000Y-50000000D02*
X59750000Y-104600000D01*
X57800000Y-102650000D02*
X57800000Y-105575000D01*
X55849999Y-104600000D02*
X58775000Y-104600000D01*
X55849999Y-50000000D02*
X55849999Y-104600000D01*
X53900000Y-102650000D02*
X53900000Y-105575000D01*
X51949999Y-104600000D02*
X54875000Y-104600000D01*
X51949999Y-50000000D02*
X51949999Y-104600000D01*
X50000000Y-102650000D02*
X50000000Y-105575000D01*
X48050000Y-104600000D02*
X50975000Y-104600000D01*
X48050000Y-50000000D02*
X48050000Y-104600000D01*
X124100000Y-98750000D02*
X124100000Y-101675000D01*
X122150000Y-100700000D02*
X125075000Y-100700000D01*
X122150000Y-50000000D02*
X122150000Y-100700000D01*
X120200000Y-98750000D02*
X120200000Y-101675000D01*
X118250000Y-100700000D02*
X121175000Y-100700000D01*
X118250000Y-50000000D02*
X118250000Y-100700000D01*
X116300000Y-98750000D02*
X116300000Y-101675000D01*
X114350000Y-100700000D02*
X117275000Y-100700000D01*
X114350000Y-50000000D02*
X114350000Y-100700000D01*
X112400000Y-98750000D02*
X112400000Y-101675000D01*
X110450000Y-100700000D02*
X113375000Y-100700000D01*
X110450000Y-50000000D02*
X110450000Y-100700000D01*
X108500000Y-98750000D02*
X108500000Y-101675000D01*
X106550000Y-100700000D02*
X109475000Y-100700000D01*
X106550000Y-50000000D02*
X106550000Y-100700000D01*
X104600000Y-98750000D02*
X104600000Y-101675000D01*
X102650000Y-100700000D02*
X105575000Y-100700000D01*
X102650000Y-50000000D02*
X102650000Y-100700000D01*
X100700000Y-98750000D02*
X100700000Y-101675000D01*
X98750000Y-100700000D02*
X101675000Y-100700000D01*
X98750000Y-50000000D02*
X98750000Y-100700000D01*
X96800000Y-98750000D02*
X96800000Y-101675000D01*
X94850000Y-100700000D02*
X97775000Y-100700000D01*
X94850000Y-50000000D02*
X94850000Y-100700000D01*
X92900000Y-98750000D02*
X92900000Y-101675000D01*
X90950000Y-100700000D02*
X93875000Y-100700000D01*
X90950000Y-50000000D02*
X90950000Y-100700000D01*
X89000000Y-98750000D02*
X89000000Y-101675000D01*
X87050000Y-100700000D02*
X89975000Y-100700000D01*
X87050000Y-50000000D02*
X87050000Y-100700000D01*
X85100000Y-98750000D02*
X85100000Y-101675000D01*
X83149999Y-100700000D02*
X86074999Y-100700000D01*
X83149999Y-50000000D02*
X83149999Y-100700000D01*
X81200000Y-98750000D02*
X81200000Y-101675000D01*
X79250000Y-100700000D02*
X82175000Y-100700000D01*
X79250000Y-50000000D02*
X79250000Y-100700000D01*
X77300000Y-98750000D02*
X77300000Y-101675000D01*
X75350000Y-100700000D02*
X78275000Y-100700000D01*
X75350000Y-50000000D02*
X75350000Y-100700000D01*
X73400000Y-98750000D02*
X73400000Y-101675000D01*
X71450000Y-100700000D02*
X74375000Y-100700000D01*
X71450000Y-50000000D02*
X71450000Y-100700000D01*
X69500000Y-98750000D02*
X69500000Y-101675000D01*
X67550000Y-100700000D02*
X70475000Y-100700000D01*
X67550000Y-50000000D02*
X67550000Y-100700000D01*
X65599999Y-98750000D02*
X65599999Y-101675000D01*
X63649999Y-100700000D02*
X66574999Y-100700000D01*
X63649999Y-50000000D02*
X63649999Y-100700000D01*
X61700000Y-98750000D02*
X61700000Y-101675000D01*
X59750000Y-100700000D02*
X62675000Y-100700000D01*
X59750000Y-50000000D02*
X59750000Y-100700000D01*
X57800000Y-98750000D02*
X57800000Y-101675000D01*
X55849999Y-100700000D02*
X58775000Y-100700000D01*
X55849999Y-50000000D02*
X55849999Y-100700000D01*
X53900000Y-98750000D02*
X53900000Y-101675000D01*
X51949999Y-100700000D02*
X54875000Y-100700000D01*
X51949999Y-50000000D02*
X51949999Y-100700000D01*
X50000000Y-98750000D02*
X50000000Y-101675000D01*
X48050000Y-100700000D02*
X50975000Y-100700000D01*
X48050000Y-50000000D02*
X48050000Y-100700000D01*
X124100000Y-94850000D02*
X124100000Y-97775000D01*
X122150000Y-96800000D02*
X125075000Y-96800000D01*
X122150000Y-50000000D02*
X122150000Y-96800000D01*
X120200000Y-94850000D02*
X120200000Y-97775000D01*
X118250000Y-96800000D02*
X121175000Y-96800000D01*
X118250000Y-50000000D02*
X118250000Y-96800000D01*
X116300000Y-94850000D02*
X116300000Y-97775000D01*
X114350000Y-96800000D02*
X117275000Y-96800000D01*
X114350000Y-50000000D02*
X114350000Y-96800000D01*
X112400000Y-94850000D02*
X112400000Y-97775000D01*
X110450000Y-96800000D02*
X113375000Y-96800000D01*
X110450000Y-50000000D02*
X110450000Y-96800000D01*
X108500000Y-94850000D02*
X108500000Y-97775000D01*
X106550000Y-96800000D02*
X109475000Y-96800000D01*
X106550000Y-50000000D02*
X106550000Y-96800000D01*
X104600000Y-94850000D02*
X104600000Y-97775000D01*
X102650000Y-96800000D02*
X105575000Y-96800000D01*
X102650000Y-50000000D02*
X102650000Y-96800000D01*
X100700000Y-94850000D02*
X100700000Y-97775000D01*
X98750000Y-96800000D02*
X101675000Y-96800000D01*
X98750000Y-50000000D02*
X98750000Y-96800000D01*
X96800000Y-94850000D02*
X96800000Y-97775000D01*
X94850000Y-96800000D02*
X97775000Y-96800000D01*
X94850000Y-50000000D02*
X94850000Y-96800000D01*
X92900000Y-94850000D02*
X92900000Y-97775000D01*
X90950000Y-96800000D02*
X93875000Y-96800000D01*
X90950000Y-50000000D02*
X90950000Y-96800000D01*
X89000000Y-94850000D02*
X89000000Y-97775000D01*
X87050000Y-96800000D02*
X89975000Y-96800000D01*
X87050000Y-50000000D02*
X87050000Y-96800000D01*
X85100000Y-94850000D02*
X85100000Y-97775000D01*
X83149999Y-96800000D02*
X86074999Y-96800000D01*
X83149999Y-50000000D02*
X83149999Y-96800000D01*
X81200000Y-94850000D02*
X81200000Y-97775000D01*
X79250000Y-96800000D02*
X82175000Y-96800000D01*
X79250000Y-50000000D02*
X79250000Y-96800000D01*
X77300000Y-94850000D02*
X77300000Y-97775000D01*
X75350000Y-96800000D02*
X78275000Y-96800000D01*
X75350000Y-50000000D02*
X75350000Y-96800000D01*
X73400000Y-94850000D02*
X73400000Y-97775000D01*
X71450000Y-96800000D02*
X74375000Y-96800000D01*
X71450000Y-50000000D02*
X71450000Y-96800000D01*
X69500000Y-94850000D02*
X69500000Y-97775000D01*
X67550000Y-96800000D02*
X70475000Y-96800000D01*
X67550000Y-50000000D02*
X67550000Y-96800000D01*
X65599999Y-94850000D02*
X65599999Y-97775000D01*
X63649999Y-96800000D02*
X66574999Y-96800000D01*
X63649999Y-50000000D02*
X63649999Y-96800000D01*
X61700000Y-94850000D02*
X61700000Y-97775000D01*
X59750000Y-96800000D02*
X62675000Y-96800000D01*
X59750000Y-50000000D02*
X59750000Y-96800000D01*
X57800000Y-94850000D02*
X57800000Y-97775000D01*
X55849999Y-96800000D02*
X58775000Y-96800000D01*
X55849999Y-50000000D02*
X55849999Y-96800000D01*
X53900000Y-94850000D02*
X53900000Y-97775000D01*
X51949999Y-96800000D02*
X54875000Y-96800000D01*
X51949999Y-50000000D02*
X51949999Y-96800000D01*
X50000000Y-94850000D02*
X50000000Y-97775000D01*
X48050000Y-96800000D02*
X50975000Y-96800000D01*
X48050000Y-50000000D02*
X48050000Y-96800000D01*
X124100000Y-90950000D02*
X124100000Y-93875000D01*
X122150000Y-92900000D02*
X125075000Y-92900000D01*
X122150000Y-50000000D02*
X122150000Y-92900000D01*
X120200000Y-90950000D02*
X120200000Y-93875000D01*
X118250000Y-92900000D02*
X121175000Y-92900000D01*
X118250000Y-50000000D02*
X118250000Y-92900000D01*
X116300000Y-90950000D02*
X116300000Y-93875000D01*
X114350000Y-92900000D02*
X117275000Y-92900000D01*
X114350000Y-50000000D02*
X114350000Y-92900000D01*
X112400000Y-90950000D02*
X112400000Y-93875000D01*
X110450000Y-92900000D02*
X113375000Y-92900000D01*
X110450000Y-50000000D02*
X110450000Y-92900000D01*
X108500000Y-90950000D02*
X108500000Y-93875000D01*
X106550000Y-92900000D02*
X109475000Y-92900000D01*
X106550000Y-50000000D02*
X106550000Y-92900000D01*
X104600000Y-90950000D02*
X104600000Y-93875000D01*
X102650000Y-92900000D02*
X105575000Y-92900000D01*
X102650000Y-50000000D02*
X102650000Y-92900000D01*
X100700000Y-90950000D02*
X100700000Y-93875000D01*
X98750000Y-92900000D02*
X101675000Y-92900000D01*
X98750000Y-50000000D02*
X98750000Y-92900000D01*
X96800000Y-90950000D02*
X96800000Y-93875000D01*
X94850000Y-92900000D02*
X97775000Y-92900000D01*
X94850000Y-50000000D02*
X94850000Y-92900000D01*
X92900000Y-90950000D02*
X92900000Y-93875000D01*
X90950000Y-92900000D02*
X93875000Y-92900000D01*
X90950000Y-50000000D02*
X90950000Y-92900000D01*
X89000000Y-90950000D02*
X89000000Y-93875000D01*
X87050000Y-92900000D02*
X89975000Y-92900000D01*
X87050000Y-50000000D02*
X87050000Y-92900000D01*
X85100000Y-90950000D02*
X85100000Y-93875000D01*
X83149999Y-92900000D02*
X86074999Y-92900000D01*
X83149999Y-50000000D02*
X83149999Y-92900000D01*
X81200000Y-90950000D02*
X81200000Y-93875000D01*
X79250000Y-92900000D02*
X82175000Y-92900000D01*
X79250000Y-50000000D02*
X79250000Y-92900000D01*
X77300000Y-90950000D02*
X77300000Y-93875000D01*
X75350000Y-92900000D02*
X78275000Y-92900000D01*
X75350000Y-50000000D02*
X75350000Y-92900000D01*
X73400000Y-90950000D02*
X73400000Y-93875000D01*
X71450000Y-92900000D02*
X74375000Y-92900000D01*
X71450000Y-50000000D02*
X71450000Y-92900000D01*
X69500000Y-90950000D02*
X69500000Y-93875000D01*
X67550000Y-92900000D02*
X70475000Y-92900000D01*
X67550000Y-50000000D02*
X67550000Y-92900000D01*
X65599999Y-90950000D02*
X65599999Y-93875000D01*
X63649999Y-92900000D02*
X66574999Y-92900000D01*
X63649999Y-50000000D02*
X63649999Y-92900000D01*
X61700000Y-90950000D02*
X61700000Y-93875000D01*
X59750000Y-92900000D02*
X62675000Y-92900000D01*
X59750000Y-50000000D02*
X59750000Y-92900000D01*
X57800000Y-90950000D02*
X57800000Y-93875000D01*
X55849999Y-92900000D02*
X58775000Y-92900000D01*
X55849999Y-50000000D02*
X55849999Y-92900000D01*
X53900000Y-90950000D02*
X53900000Y-93875000D01*
X51949999Y-92900000D02*
X54875000Y-92900000D01*
X51949999Y-50000000D02*
X51949999Y-92900000D01*
X50000000Y-90950000D02*
X50000000Y-93875000D01*
X48050000Y-92900000D02*
X50975000Y-92900000D01*
X48050000Y-50000000D02*
X48050000Y-92900000D01*
X124100000Y-87050000D02*
X124100000Y-89975000D01*
X122150000Y-89000000D02*
X125075000Y-89000000D01*
X122150000Y-50000000D02*
X122150000Y-89000000D01*
X120200000Y-87050000D02*
X120200000Y-89975000D01*
X118250000Y-89000000D02*
X121175000Y-89000000D01*
X118250000Y-50000000D02*
X118250000Y-89000000D01*
X116300000Y-87050000D02*
X116300000Y-89975000D01*
X114350000Y-89000000D02*
X117275000Y-89000000D01*
X114350000Y-50000000D02*
X114350000Y-89000000D01*
X112400000Y-87050000D02*
X112400000Y-89975000D01*
X110450000Y-89000000D02*
X113375000Y-89000000D01*
X110450000Y-50000000D02*
X110450000Y-89000000D01*
X108500000Y-87050000D02*
X108500000Y-89975000D01*
X106550000Y-89000000D02*
X109475000Y-89000000D01*
X106550000Y-50000000D02*
X106550000Y-89000000D01*
X104600000Y-87050000D02*
X104600000Y-89975000D01*
X102650000Y-89000000D02*
X105575000Y-89000000D01*
X102650000Y-50000000D02*
X102650000Y-89000000D01*
X100700000Y-87050000D02*
X100700000Y-89975000D01*
X98750000Y-89000000D02*
X101675000Y-89000000D01*
X98750000Y-50000000D02*
X98750000Y-89000000D01*
X96800000Y-87050000D02*
X96800000Y-89975000D01*
X94850000Y-89000000D02*
X97775000Y-89000000D01*
X94850000Y-50000000D02*
X94850000Y-89000000D01*
X92900000Y-87050000D02*
X92900000Y-89975000D01*
X90950000Y-89000000D02*
X93875000Y-89000000D01*
X90950000Y-50000000D02*
X90950000Y-89000000D01*
X89000000Y-87050000D02*
X89000000Y-89975000D01*
X87050000Y-89000000D02*
X89975000Y-89000000D01*
X87050000Y-50000000D02*
X87050000Y-89000000D01*
X85100000Y-87050000D02*
X85100000Y-89975000D01*
X83149999Y-89000000D02*
X86074999Y-89000000D01*
X83149999Y-50000000D02*
X83149999Y-89000000D01*
X81200000Y-87050000D02*
X81200000Y-89975000D01*
X79250000Y-89000000D02*
X82175000Y-89000000D01*
X79250000Y-50000000D02*
X79250000Y-89000000D01*
X77300000Y-87050000D02*
X77300000Y-89975000D01*
X75350000Y-89000000D02*
X78275000Y-89000000D01*
X75350000Y-50000000D02*
X75350000Y-89000000D01*
X73400000Y-87050000D02*
X73400000Y-89975000D01*
X71450000Y-89000000D02*
X74375000Y-89000000D01*
X71450000Y-50000000D02*
X71450000Y-89000000D01*
X69500000Y-87050000D02*
X69500000Y-89975000D01*
X67550000Y-89000000D02*
X70475000Y-89000000D01*
X67550000Y-50000000D02*
X67550000Y-89000000D01*
X65599999Y-87050000D02*
X65599999Y-89975000D01*
X63649999Y-89000000D02*
X66574999Y-89000000D01*
X63649999Y-50000000D02*
X63649999Y-89000000D01*
X61700000Y-87050000D02*
X61700000Y-89975000D01*
X59750000Y-89000000D02*
X62675000Y-89000000D01*
X59750000Y-50000000D02*
X59750000Y-89000000D01*
X57800000Y-87050000D02*
X57800000Y-89975000D01*
X55849999Y-89000000D02*
X58775000Y-89000000D01*
X55849999Y-50000000D02*
X55849999Y-89000000D01*
X53900000Y-87050000D02*
X53900000Y-89975000D01*
X51949999Y-89000000D02*
X54875000Y-89000000D01*
X51949999Y-50000000D02*
X51949999Y-89000000D01*
X50000000Y-87050000D02*
X50000000Y-89975000D01*
X48050000Y-89000000D02*
X50975000Y-89000000D01*
X124100000Y-83149999D02*
X124100000Y-86074999D01*
X122150000Y-85100000D02*
X125075000Y-85100000D01*
X122150000Y-50000000D02*
X122150000Y-85100000D01*
X120200000Y-83149999D02*
X120200000Y-86074999D01*
X118250000Y-85100000D02*
X121175000Y-85100000D01*
X118250000Y-50000000D02*
X118250000Y-85100000D01*
X116300000Y-83149999D02*
X116300000Y-86074999D01*
X114350000Y-85100000D02*
X117275000Y-85100000D01*
X114350000Y-50000000D02*
X114350000Y-85100000D01*
X112400000Y-83149999D02*
X112400000Y-86074999D01*
X110450000Y-85100000D02*
X113375000Y-85100000D01*
X110450000Y-50000000D02*
X110450000Y-85100000D01*
X108500000Y-83149999D02*
X108500000Y-86074999D01*
X106550000Y-85100000D02*
X109475000Y-85100000D01*
X106550000Y-50000000D02*
X106550000Y-85100000D01*
X104600000Y-83149999D02*
X104600000Y-86074999D01*
X102650000Y-85100000D02*
X105575000Y-85100000D01*
X102650000Y-50000000D02*
X102650000Y-85100000D01*
X100700000Y-83149999D02*
X100700000Y-86074999D01*
X98750000Y-85100000D02*
X101675000Y-85100000D01*
X98750000Y-50000000D02*
X98750000Y-85100000D01*
X96800000Y-83149999D02*
X96800000Y-86074999D01*
X94850000Y-85100000D02*
X97775000Y-85100000D01*
X94850000Y-50000000D02*
X94850000Y-85100000D01*
X92900000Y-83149999D02*
X92900000Y-86074999D01*
X90950000Y-85100000D02*
X93875000Y-85100000D01*
X90950000Y-50000000D02*
X90950000Y-85100000D01*
X89000000Y-83149999D02*
X89000000Y-86074999D01*
X87050000Y-85100000D02*
X89975000Y-85100000D01*
X87050000Y-50000000D02*
X87050000Y-85100000D01*
X85100000Y-83149999D02*
X85100000Y-86074999D01*
X83149999Y-85100000D02*
X86074999Y-85100000D01*
X83149999Y-50000000D02*
X83149999Y-85100000D01*
X81200000Y-83149999D02*
X81200000Y-86074999D01*
X79250000Y-85100000D02*
X82175000Y-85100000D01*
X79250000Y-50000000D02*
X79250000Y-85100000D01*
X77300000Y-83149999D02*
X77300000Y-86074999D01*
X75350000Y-85100000D02*
X78275000Y-85100000D01*
X75350000Y-50000000D02*
X75350000Y-85100000D01*
X73400000Y-83149999D02*
X73400000Y-86074999D01*
X71450000Y-85100000D02*
X74375000Y-85100000D01*
X71450000Y-50000000D02*
X71450000Y-85100000D01*
X69500000Y-83149999D02*
X69500000Y-86074999D01*
X67550000Y-85100000D02*
X70475000Y-85100000D01*
X67550000Y-50000000D02*
X67550000Y-85100000D01*
X65599999Y-83149999D02*
X65599999Y-86074999D01*
X63649999Y-85100000D02*
X66574999Y-85100000D01*
X63649999Y-50000000D02*
X63649999Y-85100000D01*
X61700000Y-83149999D02*
X61700000Y-86074999D01*
X59750000Y-85100000D02*
X62675000Y-85100000D01*
X59750000Y-50000000D02*
X59750000Y-85100000D01*
X57800000Y-83149999D02*
X57800000Y-86074999D01*
X55849999Y-85100000D02*
X58775000Y-85100000D01*
X55849999Y-50000000D02*
X55849999Y-85100000D01*
X53900000Y-83149999D02*
X53900000Y-86074999D01*
X51949999Y-85100000D02*
X54875000Y-85100000D01*
X51949999Y-50000000D02*
X51949999Y-85100000D01*
X50000000Y-83149999D02*
X50000000Y-86074999D01*
X48050000Y-85100000D02*
X50975000Y-85100000D01*
X48050000Y-50000000D02*
X48050000Y-85100000D01*
X124100000Y-79250000D02*
X124100000Y-82175000D01*
X122150000Y-81200000D02*
X125075000Y-81200000D01*
X122150000Y-50000000D02*
X122150000Y-81200000D01*
X120200000Y-79250000D02*
X120200000Y-82175000D01*
X118250000Y-81200000D02*
X121175000Y-81200000D01*
X118250000Y-50000000D02*
X118250000Y-81200000D01*
X116300000Y-79250000D02*
X116300000Y-82175000D01*
X114350000Y-81200000D02*
X117275000Y-81200000D01*
X114350000Y-50000000D02*
X114350000Y-81200000D01*
X112400000Y-79250000D02*
X112400000Y-82175000D01*
X110450000Y-81200000D02*
X113375000Y-81200000D01*
X110450000Y-50000000D02*
X110450000Y-81200000D01*
X108500000Y-79250000D02*
X108500000Y-82175000D01*
X106550000Y-81200000D02*
X109475000Y-81200000D01*
X106550000Y-50000000D02*
X106550000Y-81200000D01*
X104600000Y-79250000D02*
X104600000Y-82175000D01*
X102650000Y-81200000D02*
X105575000Y-81200000D01*
X102650000Y-50000000D02*
X102650000Y-81200000D01*
X100700000Y-79250000D02*
X100700000Y-82175000D01*
X98750000Y-81200000D02*
X101675000Y-81200000D01*
X98750000Y-50000000D02*
X98750000Y-81200000D01*
X96800000Y-79250000D02*
X96800000Y-82175000D01*
X94850000Y-81200000D02*
X97775000Y-81200000D01*
X94850000Y-50000000D02*
X94850000Y-81200000D01*
X92900000Y-79250000D02*
X92900000Y-82175000D01*
X90950000Y-81200000D02*
X93875000Y-81200000D01*
X90950000Y-50000000D02*
X90950000Y-81200000D01*
X89000000Y-79250000D02*
X89000000Y-82175000D01*
X87050000Y-81200000D02*
X89975000Y-81200000D01*
X87050000Y-50000000D02*
X87050000Y-81200000D01*
X85100000Y-79250000D02*
X85100000Y-82175000D01*
X83149999Y-81200000D02*
X86074999Y-81200000D01*
X83149999Y-50000000D02*
X83149999Y-81200000D01*
X81200000Y-79250000D02*
X81200000Y-82175000D01*
X79250000Y-81200000D02*
X82175000Y-81200000D01*
X79250000Y-50000000D02*
X79250000Y-81200000D01*
X77300000Y-79250000D02*
X77300000Y-82175000D01*
X75350000Y-81200000D02*
X78275000Y-81200000D01*
X75350000Y-50000000D02*
X75350000Y-81200000D01*
X73400000Y-79250000D02*
X73400000Y-82175000D01*
X71450000Y-81200000D02*
X74375000Y-81200000D01*
X71450000Y-50000000D02*
X71450000Y-81200000D01*
X69500000Y-79250000D02*
X69500000Y-82175000D01*
X67550000Y-81200000D02*
X70475000Y-81200000D01*
X67550000Y-50000000D02*
X67550000Y-81200000D01*
X65599999Y-79250000D02*
X65599999Y-82175000D01*
X63649999Y-81200000D02*
X66574999Y-81200000D01*
X63649999Y-50000000D02*
X63649999Y-81200000D01*
X61700000Y-79250000D02*
X61700000Y-82175000D01*
X59750000Y-81200000D02*
X62675000Y-81200000D01*
X59750000Y-50000000D02*
X59750000Y-81200000D01*
X57800000Y-79250000D02*
X57800000Y-82175000D01*
X55849999Y-81200000D02*
X58775000Y-81200000D01*
X55849999Y-50000000D02*
X55849999Y-81200000D01*
X53900000Y-79250000D02*
X53900000Y-82175000D01*
X51949999Y-81200000D02*
X54875000Y-81200000D01*
X51949999Y-50000000D02*
X51949999Y-81200000D01*
X50000000Y-79250000D02*
X50000000Y-82175000D01*
X48050000Y-81200000D02*
X50975000Y-81200000D01*
X48050000Y-50000000D02*
X48050000Y-81200000D01*
X124100000Y-75350000D02*
X124100000Y-78275000D01*
X122150000Y-77300000D02*
X125075000Y-77300000D01*
X122150000Y-50000000D02*
X122150000Y-77300000D01*
X120200000Y-75350000D02*
X120200000Y-78275000D01*
X118250000Y-77300000D02*
X121175000Y-77300000D01*
X118250000Y-50000000D02*
X118250000Y-77300000D01*
X116300000Y-75350000D02*
X116300000Y-78275000D01*
X114350000Y-77300000D02*
X117275000Y-77300000D01*
X114350000Y-50000000D02*
X114350000Y-77300000D01*
X112400000Y-75350000D02*
X112400000Y-78275000D01*
X110450000Y-77300000D02*
X113375000Y-77300000D01*
X110450000Y-50000000D02*
X110450000Y-77300000D01*
X108500000Y-75350000D02*
X108500000Y-78275000D01*
X106550000Y-77300000D02*
X109475000Y-77300000D01*
X106550000Y-50000000D02*
X106550000Y-77300000D01*
X104600000Y-75350000D02*
X104600000Y-78275000D01*
X102650000Y-77300000D02*
X105575000Y-77300000D01*
X102650000Y-50000000D02*
X102650000Y-77300000D01*
X100700000Y-75350000D02*
X100700000Y-78275000D01*
X98750000Y-77300000D02*
X101675000Y-77300000D01*
X98750000Y-50000000D02*
X98750000Y-77300000D01*
X96800000Y-75350000D02*
X96800000Y-78275000D01*
X94850000Y-77300000D02*
X97775000Y-77300000D01*
X94850000Y-50000000D02*
X94850000Y-77300000D01*
X92900000Y-75350000D02*
X92900000Y-78275000D01*
X90950000Y-77300000D02*
X93875000Y-77300000D01*
X90950000Y-50000000D02*
X90950000Y-77300000D01*
X89000000Y-75350000D02*
X89000000Y-78275000D01*
X87050000Y-77300000D02*
X89975000Y-77300000D01*
X87050000Y-50000000D02*
X87050000Y-77300000D01*
X85100000Y-75350000D02*
X85100000Y-78275000D01*
X83149999Y-77300000D02*
X86074999Y-77300000D01*
X83149999Y-50000000D02*
X83149999Y-77300000D01*
X81200000Y-75350000D02*
X81200000Y-78275000D01*
X79250000Y-77300000D02*
X82175000Y-77300000D01*
X79250000Y-50000000D02*
X79250000Y-77300000D01*
X77300000Y-75350000D02*
X77300000Y-78275000D01*
X75350000Y-77300000D02*
X78275000Y-77300000D01*
X75350000Y-50000000D02*
X75350000Y-77300000D01*
X73400000Y-75350000D02*
X73400000Y-78275000D01*
X71450000Y-77300000D02*
X74375000Y-77300000D01*
X71450000Y-50000000D02*
X71450000Y-77300000D01*
X69500000Y-75350000D02*
X69500000Y-78275000D01*
X67550000Y-77300000D02*
X70475000Y-77300000D01*
X67550000Y-50000000D02*
X67550000Y-77300000D01*
X65599999Y-75350000D02*
X65599999Y-78275000D01*
X63649999Y-77300000D02*
X66574999Y-77300000D01*
X63649999Y-50000000D02*
X63649999Y-77300000D01*
X61700000Y-75350000D02*
X61700000Y-78275000D01*
X59750000Y-77300000D02*
X62675000Y-77300000D01*
X59750000Y-50000000D02*
X59750000Y-77300000D01*
X57800000Y-75350000D02*
X57800000Y-78275000D01*
X55849999Y-77300000D02*
X58775000Y-77300000D01*
X55849999Y-50000000D02*
X55849999Y-77300000D01*
X53900000Y-75350000D02*
X53900000Y-78275000D01*
X51949999Y-77300000D02*
X54875000Y-77300000D01*
X51949999Y-50000000D02*
X51949999Y-77300000D01*
X50000000Y-75350000D02*
X50000000Y-78275000D01*
X48050000Y-77300000D02*
X50975000Y-77300000D01*
X48050000Y-50000000D02*
X48050000Y-77300000D01*
X124100000Y-71450000D02*
X124100000Y-74375000D01*
X122150000Y-73400000D02*
X125075000Y-73400000D01*
X122150000Y-50000000D02*
X122150000Y-73400000D01*
X120200000Y-71450000D02*
X120200000Y-74375000D01*
X118250000Y-73400000D02*
X121175000Y-73400000D01*
X118250000Y-50000000D02*
X118250000Y-73400000D01*
X116300000Y-71450000D02*
X116300000Y-74375000D01*
X114350000Y-73400000D02*
X117275000Y-73400000D01*
X114350000Y-50000000D02*
X114350000Y-73400000D01*
X112400000Y-71450000D02*
X112400000Y-74375000D01*
X110450000Y-73400000D02*
X113375000Y-73400000D01*
X110450000Y-50000000D02*
X110450000Y-73400000D01*
X108500000Y-71450000D02*
X108500000Y-74375000D01*
X106550000Y-73400000D02*
X109475000Y-73400000D01*
X106550000Y-50000000D02*
X106550000Y-73400000D01*
X104600000Y-71450000D02*
X104600000Y-74375000D01*
X102650000Y-73400000D02*
X105575000Y-73400000D01*
X102650000Y-50000000D02*
X102650000Y-73400000D01*
X100700000Y-71450000D02*
X100700000Y-74375000D01*
X98750000Y-73400000D02*
X101675000Y-73400000D01*
X98750000Y-50000000D02*
X98750000Y-73400000D01*
X96800000Y-71450000D02*
X96800000Y-74375000D01*
X94850000Y-73400000D02*
X97775000Y-73400000D01*
X94850000Y-50000000D02*
X94850000Y-73400000D01*
X92900000Y-71450000D02*
X92900000Y-74375000D01*
X90950000Y-73400000D02*
X93875000Y-73400000D01*
X90950000Y-50000000D02*
X90950000Y-73400000D01*
X89000000Y-71450000D02*
X89000000Y-74375000D01*
X87050000Y-73400000D02*
X89975000Y-73400000D01*
X87050000Y-50000000D02*
X87050000Y-73400000D01*
X85100000Y-71450000D02*
X85100000Y-74375000D01*
X83149999Y-73400000D02*
X86074999Y-73400000D01*
X83149999Y-50000000D02*
X83149999Y-73400000D01*
X81200000Y-71450000D02*
X81200000Y-74375000D01*
X79250000Y-73400000D02*
X82175000Y-73400000D01*
X79250000Y-50000000D02*
X79250000Y-73400000D01*
X77300000Y-71450000D02*
X77300000Y-74375000D01*
X75350000Y-73400000D02*
X78275000Y-73400000D01*
X75350000Y-50000000D02*
X75350000Y-73400000D01*
X73400000Y-71450000D02*
X73400000Y-74375000D01*
X71450000Y-73400000D02*
X74375000Y-73400000D01*
X71450000Y-50000000D02*
X71450000Y-73400000D01*
X69500000Y-71450000D02*
X69500000Y-74375000D01*
X67550000Y-73400000D02*
X70475000Y-73400000D01*
X67550000Y-50000000D02*
X67550000Y-73400000D01*
X65599999Y-71450000D02*
X65599999Y-74375000D01*
X63649999Y-73400000D02*
X66574999Y-73400000D01*
X63649999Y-50000000D02*
X63649999Y-73400000D01*
X61700000Y-71450000D02*
X61700000Y-74375000D01*
X59750000Y-73400000D02*
X62675000Y-73400000D01*
X59750000Y-50000000D02*
X59750000Y-73400000D01*
X57800000Y-71450000D02*
X57800000Y-74375000D01*
X55849999Y-73400000D02*
X58775000Y-73400000D01*
X55849999Y-50000000D02*
X55849999Y-73400000D01*
X53900000Y-71450000D02*
X53900000Y-74375000D01*
X51949999Y-73400000D02*
X54875000Y-73400000D01*
X51949999Y-50000000D02*
X51949999Y-73400000D01*
X50000000Y-71450000D02*
X50000000Y-74375000D01*
X48050000Y-73400000D02*
X50975000Y-73400000D01*
X48050000Y-50000000D02*
X48050000Y-73400000D01*
X124100000Y-67550000D02*
X124100000Y-70475000D01*
X122150000Y-69500000D02*
X125075000Y-69500000D01*
X122150000Y-50000000D02*
X122150000Y-69500000D01*
X120200000Y-67550000D02*
X120200000Y-70475000D01*
X118250000Y-69500000D02*
X121175000Y-69500000D01*
X118250000Y-50000000D02*
X118250000Y-69500000D01*
X116300000Y-67550000D02*
X116300000Y-70475000D01*
X114350000Y-69500000D02*
X117275000Y-69500000D01*
X114350000Y-50000000D02*
X114350000Y-69500000D01*
X112400000Y-67550000D02*
X112400000Y-70475000D01*
X110450000Y-69500000D02*
X113375000Y-69500000D01*
X110450000Y-50000000D02*
X110450000Y-69500000D01*
X108500000Y-67550000D02*
X108500000Y-70475000D01*
X106550000Y-69500000D02*
X109475000Y-69500000D01*
X106550000Y-50000000D02*
X106550000Y-69500000D01*
X104600000Y-67550000D02*
X104600000Y-70475000D01*
X102650000Y-69500000D02*
X105575000Y-69500000D01*
X102650000Y-50000000D02*
X102650000Y-69500000D01*
X100700000Y-67550000D02*
X100700000Y-70475000D01*
X98750000Y-69500000D02*
X101675000Y-69500000D01*
X98750000Y-50000000D02*
X98750000Y-69500000D01*
X96800000Y-67550000D02*
X96800000Y-70475000D01*
X94850000Y-69500000D02*
X97775000Y-69500000D01*
X94850000Y-50000000D02*
X94850000Y-69500000D01*
X92900000Y-67550000D02*
X92900000Y-70475000D01*
X90950000Y-69500000D02*
X93875000Y-69500000D01*
X90950000Y-50000000D02*
X90950000Y-69500000D01*
X89000000Y-67550000D02*
X89000000Y-70475000D01*
X87050000Y-69500000D02*
X89975000Y-69500000D01*
X87050000Y-50000000D02*
X87050000Y-69500000D01*
X85100000Y-67550000D02*
X85100000Y-70475000D01*
X83149999Y-69500000D02*
X86074999Y-69500000D01*
X83149999Y-50000000D02*
X83149999Y-69500000D01*
X81200000Y-67550000D02*
X81200000Y-70475000D01*
X79250000Y-69500000D02*
X82175000Y-69500000D01*
X79250000Y-50000000D02*
X79250000Y-69500000D01*
X77300000Y-67550000D02*
X77300000Y-70475000D01*
X75350000Y-69500000D02*
X78275000Y-69500000D01*
X75350000Y-50000000D02*
X75350000Y-69500000D01*
X73400000Y-67550000D02*
X73400000Y-70475000D01*
X71450000Y-69500000D02*
X74375000Y-69500000D01*
X71450000Y-50000000D02*
X71450000Y-69500000D01*
X69500000Y-67550000D02*
X69500000Y-70475000D01*
X67550000Y-69500000D02*
X70475000Y-69500000D01*
X67550000Y-50000000D02*
X67550000Y-69500000D01*
X65599999Y-67550000D02*
X65599999Y-70475000D01*
X63649999Y-69500000D02*
X66574999Y-69500000D01*
X63649999Y-50000000D02*
X63649999Y-69500000D01*
X61700000Y-67550000D02*
X61700000Y-70475000D01*
X59750000Y-69500000D02*
X62675000Y-69500000D01*
X59750000Y-50000000D02*
X59750000Y-69500000D01*
X57800000Y-67550000D02*
X57800000Y-70475000D01*
X55849999Y-69500000D02*
X58775000Y-69500000D01*
X55849999Y-50000000D02*
X55849999Y-69500000D01*
X53900000Y-67550000D02*
X53900000Y-70475000D01*
X51949999Y-69500000D02*
X54875000Y-69500000D01*
X51949999Y-50000000D02*
X51949999Y-69500000D01*
X50000000Y-67550000D02*
X50000000Y-70475000D01*
X48050000Y-69500000D02*
X50975000Y-69500000D01*
X48050000Y-50000000D02*
X48050000Y-69500000D01*
X124100000Y-63649999D02*
X124100000Y-66574999D01*
X122150000Y-65599999D02*
X125075000Y-65599999D01*
X122150000Y-50000000D02*
X122150000Y-65599999D01*
X120200000Y-63649999D02*
X120200000Y-66574999D01*
X118250000Y-65599999D02*
X121175000Y-65599999D01*
X118250000Y-50000000D02*
X118250000Y-65599999D01*
X116300000Y-63649999D02*
X116300000Y-66574999D01*
X114350000Y-65599999D02*
X117275000Y-65599999D01*
X114350000Y-50000000D02*
X114350000Y-65599999D01*
X112400000Y-63649999D02*
X112400000Y-66574999D01*
X110450000Y-65599999D02*
X113375000Y-65599999D01*
X110450000Y-50000000D02*
X110450000Y-65599999D01*
X108500000Y-63649999D02*
X108500000Y-66574999D01*
X106550000Y-65599999D02*
X109475000Y-65599999D01*
X106550000Y-50000000D02*
X106550000Y-65599999D01*
X104600000Y-63649999D02*
X104600000Y-66574999D01*
X102650000Y-65599999D02*
X105575000Y-65599999D01*
X102650000Y-50000000D02*
X102650000Y-65599999D01*
X100700000Y-63649999D02*
X100700000Y-66574999D01*
X98750000Y-65599999D02*
X101675000Y-65599999D01*
X98750000Y-50000000D02*
X98750000Y-65599999D01*
X96800000Y-63649999D02*
X96800000Y-66574999D01*
X94850000Y-65599999D02*
X97775000Y-65599999D01*
X94850000Y-50000000D02*
X94850000Y-65599999D01*
X92900000Y-63649999D02*
X92900000Y-66574999D01*
X90950000Y-65599999D02*
X93875000Y-65599999D01*
X90950000Y-50000000D02*
X90950000Y-65599999D01*
X89000000Y-63649999D02*
X89000000Y-66574999D01*
X87050000Y-65599999D02*
X89975000Y-65599999D01*
X87050000Y-50000000D02*
X87050000Y-65599999D01*
X85100000Y-63649999D02*
X85100000Y-66574999D01*
X83149999Y-65599999D02*
X86074999Y-65599999D01*
X83149999Y-50000000D02*
X83149999Y-65599999D01*
X81200000Y-63649999D02*
X81200000Y-66574999D01*
X79250000Y-65599999D02*
X82175000Y-65599999D01*
X79250000Y-50000000D02*
X79250000Y-65599999D01*
X77300000Y-63649999D02*
X77300000Y-66574999D01*
X75350000Y-65599999D02*
X78275000Y-65599999D01*
X75350000Y-50000000D02*
X75350000Y-65599999D01*
X73400000Y-63649999D02*
X73400000Y-66574999D01*
X71450000Y-65599999D02*
X74375000Y-65599999D01*
X71450000Y-50000000D02*
X71450000Y-65599999D01*
X69500000Y-63649999D02*
X69500000Y-66574999D01*
X67550000Y-65599999D02*
X70475000Y-65599999D01*
X67550000Y-50000000D02*
X67550000Y-65599999D01*
X65599999Y-63649999D02*
X65599999Y-66574999D01*
X63649999Y-65599999D02*
X66574999Y-65599999D01*
X63649999Y-50000000D02*
X63649999Y-65599999D01*
X61700000Y-63649999D02*
X61700000Y-66574999D01*
X59750000Y-65599999D02*
X62675000Y-65599999D01*
X59750000Y-50000000D02*
X59750000Y-65599999D01*
X57800000Y-63649999D02*
X57800000Y-66574999D01*
X55849999Y-65599999D02*
X58775000Y-65599999D01*
X55849999Y-50000000D02*
X55849999Y-65599999D01*
X53900000Y-63649999D02*
X53900000Y-66574999D01*
X51949999Y-65599999D02*
X54875000Y-65599999D01*
X51949999Y-50000000D02*
X51949999Y-65599999D01*
X50000000Y-63649999D02*
X50000000Y-66574999D01*
X48050000Y-65599999D02*
X50975000Y-65599999D01*
X48050000Y-50000000D02*
X48050000Y-65599999D01*
X124100000Y-59750000D02*
X124100000Y-62675000D01*
X122150000Y-61700000D02*
X125075000Y-61700000D01*
X122150000Y-50000000D02*
X122150000Y-61700000D01*
X120200000Y-59750000D02*
X120200000Y-62675000D01*
X118250000Y-61700000D02*
X121175000Y-61700000D01*
X118250000Y-50000000D02*
X118250000Y-61700000D01*
X116300000Y-59750000D02*
X116300000Y-62675000D01*
X114350000Y-61700000D02*
X117275000Y-61700000D01*
X114350000Y-50000000D02*
X114350000Y-61700000D01*
X112400000Y-59750000D02*
X112400000Y-62675000D01*
X110450000Y-61700000D02*
X113375000Y-61700000D01*
X110450000Y-50000000D02*
X110450000Y-61700000D01*
X108500000Y-59750000D02*
X108500000Y-62675000D01*
X106550000Y-61700000D02*
X109475000Y-61700000D01*
X106550000Y-50000000D02*
X106550000Y-61700000D01*
X104600000Y-59750000D02*
X104600000Y-62675000D01*
X102650000Y-61700000D02*
X105575000Y-61700000D01*
X102650000Y-50000000D02*
X102650000Y-61700000D01*
X100700000Y-59750000D02*
X100700000Y-62675000D01*
X98750000Y-61700000D02*
X101675000Y-61700000D01*
X98750000Y-50000000D02*
X98750000Y-61700000D01*
X96800000Y-59750000D02*
X96800000Y-62675000D01*
X94850000Y-61700000D02*
X97775000Y-61700000D01*
X94850000Y-50000000D02*
X94850000Y-61700000D01*
X92900000Y-59750000D02*
X92900000Y-62675000D01*
X90950000Y-61700000D02*
X93875000Y-61700000D01*
X90950000Y-50000000D02*
X90950000Y-61700000D01*
X89000000Y-59750000D02*
X89000000Y-62675000D01*
X87050000Y-61700000D02*
X89975000Y-61700000D01*
X87050000Y-50000000D02*
X87050000Y-61700000D01*
X85100000Y-59750000D02*
X85100000Y-62675000D01*
X83149999Y-61700000D02*
X86074999Y-61700000D01*
X83149999Y-50000000D02*
X83149999Y-61700000D01*
X81200000Y-59750000D02*
X81200000Y-62675000D01*
X79250000Y-61700000D02*
X82175000Y-61700000D01*
X79250000Y-50000000D02*
X79250000Y-61700000D01*
X77300000Y-59750000D02*
X77300000Y-62675000D01*
X75350000Y-61700000D02*
X78275000Y-61700000D01*
X75350000Y-50000000D02*
X75350000Y-61700000D01*
X73400000Y-59750000D02*
X73400000Y-62675000D01*
X71450000Y-61700000D02*
X74375000Y-61700000D01*
X71450000Y-50000000D02*
X71450000Y-61700000D01*
X69500000Y-59750000D02*
X69500000Y-62675000D01*
X67550000Y-61700000D02*
X70475000Y-61700000D01*
X67550000Y-50000000D02*
X67550000Y-61700000D01*
X65599999Y-59750000D02*
X65599999Y-62675000D01*
X63649999Y-61700000D02*
X66574999Y-61700000D01*
X63649999Y-50000000D02*
X63649999Y-61700000D01*
X61700000Y-59750000D02*
X61700000Y-62675000D01*
X59750000Y-61700000D02*
X62675000Y-61700000D01*
X59750000Y-50000000D02*
X59750000Y-61700000D01*
X57800000Y-59750000D02*
X57800000Y-62675000D01*
X55849999Y-61700000D02*
X58775000Y-61700000D01*
X55849999Y-50000000D02*
X55849999Y-61700000D01*
X53900000Y-59750000D02*
X53900000Y-62675000D01*
X51949999Y-61700000D02*
X54875000Y-61700000D01*
X51949999Y-50000000D02*
X51949999Y-61700000D01*
X50000000Y-59750000D02*
X50000000Y-62675000D01*
X48050000Y-61700000D02*
X50975000Y-61700000D01*
X48050000Y-50000000D02*
X48050000Y-61700000D01*
X124100000Y-55849999D02*
X124100000Y-58775000D01*
X122150000Y-57800000D02*
X125075000Y-57800000D01*
X122150000Y-50000000D02*
X122150000Y-57800000D01*
X120200000Y-55849999D02*
X120200000Y-58775000D01*
X118250000Y-57800000D02*
X121175000Y-57800000D01*
X118250000Y-50000000D02*
X118250000Y-57800000D01*
X116300000Y-55849999D02*
X116300000Y-58775000D01*
X114350000Y-57800000D02*
X117275000Y-57800000D01*
X114350000Y-50000000D02*
X114350000Y-57800000D01*
X112400000Y-55849999D02*
X112400000Y-58775000D01*
X110450000Y-57800000D02*
X113375000Y-57800000D01*
X110450000Y-50000000D02*
X110450000Y-57800000D01*
X108500000Y-55849999D02*
X108500000Y-58775000D01*
X106550000Y-57800000D02*
X109475000Y-57800000D01*
X106550000Y-50000000D02*
X106550000Y-57800000D01*
X104600000Y-55849999D02*
X104600000Y-58775000D01*
X102650000Y-57800000D02*
X105575000Y-57800000D01*
X102650000Y-50000000D02*
X102650000Y-57800000D01*
X100700000Y-55849999D02*
X100700000Y-58775000D01*
X98750000Y-57800000D02*
X101675000Y-57800000D01*
X98750000Y-50000000D02*
X98750000Y-57800000D01*
X96800000Y-55849999D02*
X96800000Y-58775000D01*
X94850000Y-57800000D02*
X97775000Y-57800000D01*
X94850000Y-50000000D02*
X94850000Y-57800000D01*
X92900000Y-55849999D02*
X92900000Y-58775000D01*
X90950000Y-57800000D02*
X93875000Y-57800000D01*
X90950000Y-50000000D02*
X90950000Y-57800000D01*
X89000000Y-55849999D02*
X89000000Y-58775000D01*
X87050000Y-57800000D02*
X89975000Y-57800000D01*
X87050000Y-50000000D02*
X87050000Y-57800000D01*
X85100000Y-55849999D02*
X85100000Y-58775000D01*
X83149999Y-57800000D02*
X86074999Y-57800000D01*
X83149999Y-50000000D02*
X83149999Y-57800000D01*
X81200000Y-55849999D02*
X81200000Y-58775000D01*
X79250000Y-57800000D02*
X82175000Y-57800000D01*
X79250000Y-50000000D02*
X79250000Y-57800000D01*
X77300000Y-55849999D02*
X77300000Y-58775000D01*
X75350000Y-57800000D02*
X78275000Y-57800000D01*
X75350000Y-50000000D02*
X75350000Y-57800000D01*
X73400000Y-55849999D02*
X73400000Y-58775000D01*
X71450000Y-57800000D02*
X74375000Y-57800000D01*
X71450000Y-50000000D02*
X71450000Y-57800000D01*
X69500000Y-55849999D02*
X69500000Y-58775000D01*
X67550000Y-57800000D02*
X70475000Y-57800000D01*
X67550000Y-50000000D02*
X67550000Y-57800000D01*
X65599999Y-55849999D02*
X65599999Y-58775000D01*
X63649999Y-57800000D02*
X66574999Y-57800000D01*
X63649999Y-50000000D02*
X63649999Y-57800000D01*
X61700000Y-55849999D02*
X61700000Y-58775000D01*
X59750000Y-57800000D02*
X62675000Y-57800000D01*
X59750000Y-50000000D02*
X59750000Y-57800000D01*
X57800000Y-55849999D02*
X57800000Y-58775000D01*
X55849999Y-57800000D02*
X58775000Y-57800000D01*
X55849999Y-50000000D02*
X55849999Y-57800000D01*
X53900000Y-55849999D02*
X53900000Y-58775000D01*
X51949999Y-57800000D02*
X54875000Y-57800000D01*
X51949999Y-50000000D02*
X51949999Y-57800000D01*
X50000000Y-55849999D02*
X50000000Y-58775000D01*
X48050000Y-57800000D02*
X50975000Y-57800000D01*
X48050000Y-50000000D02*
X48050000Y-57800000D01*
X124100000Y-51949999D02*
X124100000Y-54875000D01*
X122150000Y-53900000D02*
X125075000Y-53900000D01*
X122150000Y-50000000D02*
X122150000Y-53900000D01*
X120200000Y-51949999D02*
X120200000Y-54875000D01*
X118250000Y-53900000D02*
X121175000Y-53900000D01*
X118250000Y-50000000D02*
X118250000Y-53900000D01*
X116300000Y-51949999D02*
X116300000Y-54875000D01*
X114350000Y-53900000D02*
X117275000Y-53900000D01*
X114350000Y-50000000D02*
X114350000Y-53900000D01*
X112400000Y-51949999D02*
X112400000Y-54875000D01*
X110450000Y-53900000D02*
X113375000Y-53900000D01*
X110450000Y-50000000D02*
X110450000Y-53900000D01*
X108500000Y-51949999D02*
X108500000Y-54875000D01*
X106550000Y-53900000D02*
X109475000Y-53900000D01*
X106550000Y-50000000D02*
X106550000Y-53900000D01*
X104600000Y-51949999D02*
X104600000Y-54875000D01*
X102650000Y-53900000D02*
X105575000Y-53900000D01*
X102650000Y-50000000D02*
X102650000Y-53900000D01*
X100700000Y-51949999D02*
X100700000Y-54875000D01*
X98750000Y-53900000D02*
X101675000Y-53900000D01*
X98750000Y-50000000D02*
X98750000Y-53900000D01*
X96800000Y-51949999D02*
X96800000Y-54875000D01*
X94850000Y-53900000D02*
X97775000Y-53900000D01*
X94850000Y-50000000D02*
X94850000Y-53900000D01*
X92900000Y-51949999D02*
X92900000Y-54875000D01*
X90950000Y-53900000D02*
X93875000Y-53900000D01*
X90950000Y-50000000D02*
X90950000Y-53900000D01*
X89000000Y-51949999D02*
X89000000Y-54875000D01*
X87050000Y-53900000D02*
X89975000Y-53900000D01*
X87050000Y-50000000D02*
X87050000Y-53900000D01*
X85100000Y-51949999D02*
X85100000Y-54875000D01*
X83149999Y-53900000D02*
X86074999Y-53900000D01*
X83149999Y-50000000D02*
X83149999Y-53900000D01*
X81200000Y-51949999D02*
X81200000Y-54875000D01*
X79250000Y-53900000D02*
X82175000Y-53900000D01*
X79250000Y-50000000D02*
X79250000Y-53900000D01*
X77300000Y-51949999D02*
X77300000Y-54875000D01*
X75350000Y-53900000D02*
X78275000Y-53900000D01*
X75350000Y-50000000D02*
X75350000Y-53900000D01*
X73400000Y-51949999D02*
X73400000Y-54875000D01*
X71450000Y-53900000D02*
X74375000Y-53900000D01*
X71450000Y-50000000D02*
X71450000Y-53900000D01*
X69500000Y-51949999D02*
X69500000Y-54875000D01*
X67550000Y-53900000D02*
X70475000Y-53900000D01*
X67550000Y-50000000D02*
X67550000Y-53900000D01*
X65599999Y-51949999D02*
X65599999Y-54875000D01*
X63649999Y-53900000D02*
X66574999Y-53900000D01*
X63649999Y-50000000D02*
X63649999Y-53900000D01*
X61700000Y-51949999D02*
X61700000Y-54875000D01*
X59750000Y-53900000D02*
X62675000Y-53900000D01*
X59750000Y-50000000D02*
X59750000Y-53900000D01*
X57800000Y-51949999D02*
X57800000Y-54875000D01*
X55849999Y-53900000D02*
X58775000Y-53900000D01*
X55849999Y-50000000D02*
X55849999Y-53900000D01*
X53900000Y-51949999D02*
X53900000Y-54875000D01*
X51949999Y-53900000D02*
X54875000Y-53900000D01*
X51949999Y-50000000D02*
X51949999Y-53900000D01*
X50000000Y-51949999D02*
X50000000Y-54875000D01*
X48050000Y-53900000D02*
X50975000Y-53900000D01*
X48050000Y-50000000D02*
X48050000Y-53900000D01*
X124100000Y-48050000D02*
X124100000Y-50975000D01*
X122150000Y-50000000D02*
X125075000Y-50000000D01*
X122150000Y-50000000D02*
X122150000Y-50000000D01*
X120200000Y-48050000D02*
X120200000Y-50975000D01*
X118250000Y-50000000D02*
X121175000Y-50000000D01*
X118250000Y-50000000D02*
X118250000Y-50000000D01*
X116300000Y-48050000D02*
X116300000Y-50975000D01*
X114350000Y-50000000D02*
X117275000Y-50000000D01*
X114350000Y-50000000D02*
X114350000Y-50000000D01*
X112400000Y-48050000D02*
X112400000Y-50975000D01*
X110450000Y-50000000D02*
X113375000Y-50000000D01*
X110450000Y-50000000D02*
X110450000Y-50000000D01*
X108500000Y-48050000D02*
X108500000Y-50975000D01*
X106550000Y-50000000D02*
X109475000Y-50000000D01*
X106550000Y-50000000D02*
X106550000Y-50000000D01*
X104600000Y-48050000D02*
X104600000Y-50975000D01*
X102650000Y-50000000D02*
X105575000Y-50000000D01*
X102650000Y-50000000D02*
X102650000Y-50000000D01*
X100700000Y-48050000D02*
X100700000Y-50975000D01*
X98750000Y-50000000D02*
X101675000Y-50000000D01*
X98750000Y-50000000D02*
X98750000Y-50000000D01*
X96800000Y-48050000D02*
X96800000Y-50975000D01*
X94850000Y-50000000D02*
X97775000Y-50000000D01*
X94850000Y-50000000D02*
X94850000Y-50000000D01*
X92900000Y-48050000D02*
X92900000Y-50975000D01*
X90950000Y-50000000D02*
X93875000Y-50000000D01*
X90950000Y-50000000D02*
X90950000Y-50000000D01*
X89000000Y-48050000D02*
X89000000Y-50975000D01*
X87050000Y-50000000D02*
X89975000Y-50000000D01*
X87050000Y-50000000D02*
X87050000Y-50000000D01*
X85100000Y-48050000D02*
X85100000Y-50975000D01*
X83149999Y-50000000D02*
X86074999Y-50000000D01*
X83149999Y-50000000D02*
X83149999Y-50000000D01*
X81200000Y-48050000D02*
X81200000Y-50975000D01*
X79250000Y-50000000D02*
X82175000Y-50000000D01*
X79250000Y-50000000D02*
X79250000Y-50000000D01*
X77300000Y-48050000D02*
X77300000Y-50975000D01*
X75350000Y-50000000D02*
X78275000Y-50000000D01*
X75350000Y-50000000D02*
X75350000Y-50000000D01*
X73400000Y-48050000D02*
X73400000Y-50975000D01*
X71450000Y-50000000D02*
X74375000Y-50000000D01*
X71450000Y-50000000D02*
X71450000Y-50000000D01*
X69500000Y-48050000D02*
X69500000Y-50975000D01*
X67550000Y-50000000D02*
X70475000Y-50000000D01*
X67550000Y-50000000D02*
X67550000Y-50000000D01*
X65599999Y-48050000D02*
X65599999Y-50975000D01*
X63649999Y-50000000D02*
X66574999Y-50000000D01*
X63649999Y-50000000D02*
X63649999Y-50000000D01*
X61700000Y-48050000D02*
X61700000Y-50975000D01*
X59750000Y-50000000D02*
X62675000Y-50000000D01*
X59750000Y-50000000D02*
X59750000Y-50000000D01*
X57800000Y-48050000D02*
X57800000Y-50975000D01*
X55849999Y-50000000D02*
X58775000Y-50000000D01*
X55849999Y-50000000D02*
X55849999Y-50000000D01*
X53900000Y-48050000D02*
X53900000Y-50975000D01*
X51949999Y-50000000D02*
X54875000Y-50000000D01*
X51949999Y-50000000D02*
X51949999Y-50000000D01*
X50000000Y-48050000D02*
X50000000Y-50975000D01*
X48050000Y-50000000D02*
X50975000Y-50000000D01*
X48050000Y-50000000D02*
X48050000Y-50000000D01*
M02*
