G04 start of page 9 for group -4078 idx -4078 *
G04 Title: 26.006.01.01.01, bottomsilk *
G04 Creator: pcb 20100929 *
G04 CreationDate: Sat Mar 21 19:35:30 2015 UTC *
G04 For: bert *
G04 Format: Gerber/RS-274X *
G04 PCB-Dimensions: 260000 115000 *
G04 PCB-Coordinate-Origin: lower left *
%MOIN*%
%FSLAX25Y25*%
%LNBACKSILK*%
%ADD11C,0.0100*%
%ADD32C,0.0000*%
G54D11*X0Y115000D02*X260000D01*
X97500Y107500D02*X87500D01*
X92500Y110000D02*X97500Y107500D01*
X0Y0D02*Y115000D01*
X260000Y0D02*X0D01*
X97500Y107500D02*X92500Y105000D01*
Y110000D01*
X260000Y115000D02*Y0D01*
X222500Y110000D02*X227500Y107500D01*
X222500Y105000D01*
Y110000D01*
X227500Y107500D02*X217500D01*
X256900Y69000D02*Y73800D01*
X255100D02*X254500Y73200D01*
Y69600D02*Y73200D01*
X255100Y69000D02*X254500Y69600D01*
X255100Y69000D02*X257500D01*
X255100Y73800D02*X257500D01*
X253059Y69600D02*Y71400D01*
Y69600D02*X252459Y69000D01*
X251259D02*X252459D01*
X251259D02*X250659Y69600D01*
Y71400D01*
X247418D02*X246818Y70800D01*
X247418Y71400D02*X248618D01*
X249218Y70800D02*X248618Y71400D01*
X249218Y69600D02*Y70800D01*
Y69600D02*X248618Y69000D01*
X246818Y69600D02*Y71400D01*
Y69600D02*X246218Y69000D01*
X247418D02*X248618D01*
X247418D02*X246818Y69600D01*
X244777D02*Y73800D01*
Y69600D02*X244177Y69000D01*
X238416D02*X240816D01*
X238416D02*X237816Y69600D01*
Y70800D01*
X238416Y71400D02*X237816Y70800D01*
X238416Y71400D02*X240216D01*
Y69000D02*Y73800D01*
X238416D02*X240816D01*
X238416D02*X237816Y73200D01*
Y72000D02*Y73200D01*
X238416Y71400D02*X237816Y72000D01*
X234574Y71400D02*X233974Y70800D01*
X234574Y71400D02*X235774D01*
X236374Y70800D02*X235774Y71400D01*
X236374Y69600D02*Y70800D01*
Y69600D02*X235774Y69000D01*
X233974Y69600D02*Y71400D01*
Y69600D02*X233374Y69000D01*
X234574D02*X235774D01*
X234574D02*X233974Y69600D01*
X231333Y69000D02*Y70800D01*
X230733Y71400D01*
X230133D02*X230733D01*
X230133D02*X229533Y70800D01*
Y69000D02*Y70800D01*
X231933Y71400D02*X231333Y70800D01*
X225692Y69000D02*Y73800D01*
X226292Y69000D02*X225692Y69600D01*
X226292Y69000D02*X227492D01*
X228092Y69600D02*X227492Y69000D01*
X228092Y69600D02*Y70800D01*
X227492Y71400D01*
X226292D02*X227492D01*
X226292D02*X225692Y70800D01*
X223651Y67200D02*Y70800D01*
X224251Y71400D02*X223651Y70800D01*
X223051Y71400D01*
X221851D02*X223051D01*
X221851D02*X221251Y70800D01*
Y69600D02*Y70800D01*
X221851Y69000D02*X221251Y69600D01*
X221851Y69000D02*X223051D01*
X223651Y69600D02*X223051Y69000D01*
X218010Y71400D02*X217410Y70800D01*
X218010Y71400D02*X219210D01*
X219810Y70800D02*X219210Y71400D01*
X219810Y69600D02*Y70800D01*
Y69600D02*X219210Y69000D01*
X217410Y69600D02*Y71400D01*
Y69600D02*X216810Y69000D01*
X218010D02*X219210D01*
X218010D02*X217410Y69600D01*
X212968Y69000D02*X214768D01*
X212968D02*X212368Y69600D01*
X212968Y70200D02*X212368Y69600D01*
X212968Y70200D02*X214768D01*
X215368Y70800D02*X214768Y70200D01*
X215368Y70800D02*X214768Y71400D01*
X212968D02*X214768D01*
X212968D02*X212368Y70800D01*
X215368Y69600D02*X214768Y69000D01*
X208527D02*X210327D01*
X208527D02*X207927Y69600D01*
X208527Y70200D02*X207927Y69600D01*
X208527Y70200D02*X210327D01*
X210927Y70800D02*X210327Y70200D01*
X210927Y70800D02*X210327Y71400D01*
X208527D02*X210327D01*
X208527D02*X207927Y70800D01*
X210927Y69600D02*X210327Y69000D01*
X204326D02*Y73800D01*
X201926D02*X204326D01*
X202526Y71400D02*X204326D01*
X200485Y72000D02*Y72600D01*
Y69000D02*Y70800D01*
X199284Y69600D02*Y73800D01*
Y69600D02*X198684Y69000D01*
X196882Y69600D02*Y73800D01*
Y69600D02*X196282Y69000D01*
Y72000D02*X197482D01*
X192681Y69000D02*X194481D01*
X195081Y69600D02*X194481Y69000D01*
X195081Y69600D02*Y70800D01*
X194481Y71400D01*
X193281D02*X194481D01*
X193281D02*X192681Y70800D01*
Y70200D02*X195081D01*
X192681D02*Y70800D01*
X190640Y69000D02*Y70800D01*
X190040Y71400D01*
X188840D02*X190040D01*
X191240D02*X190640Y70800D01*
X185239Y69600D02*Y73800D01*
Y69600D02*X184639Y69000D01*
X183439D02*X184639D01*
X183439D02*X182839Y69600D01*
Y73800D01*
X180798Y69000D02*Y70800D01*
X180198Y71400D01*
X179598D02*X180198D01*
X179598D02*X178998Y70800D01*
Y69000D02*Y70800D01*
X181398Y71400D02*X180798Y70800D01*
X177556Y72000D02*Y72600D01*
Y69000D02*Y70800D01*
X175755Y69600D02*Y73800D01*
Y69600D02*X175155Y69000D01*
Y72000D02*X176355D01*
X211000Y4600D02*X210400Y4000D01*
X211000Y8200D02*X210400Y8800D01*
X211000Y4600D02*Y8200D01*
X206559Y4000D02*X208359D01*
X208959Y4600D02*X208359Y4000D01*
X208959Y4600D02*Y8200D01*
X208359Y8800D01*
X206559D02*X208359D01*
X205118D02*X204518Y8200D01*
Y4600D02*Y8200D01*
X205118Y4000D02*X204518Y4600D01*
X200917Y8200D02*X200317Y8800D01*
X198517D02*X200317D01*
X198517D02*X197917Y8200D01*
Y7000D02*Y8200D01*
X200917Y4000D02*X197917Y7000D01*
Y4000D02*X200917D01*
X196476Y4600D02*X195876Y4000D01*
X196476Y4600D02*Y8200D01*
X195876Y8800D01*
X194676D02*X195876D01*
X194676D02*X194076Y8200D01*
Y4600D02*Y8200D01*
X194676Y4000D02*X194076Y4600D01*
X194676Y4000D02*X195876D01*
X196476Y5200D02*X194076Y7600D01*
X190834Y4000D02*X192034D01*
X191434D02*Y8800D01*
X192634Y7600D02*X191434Y8800D01*
X186993D02*X189393D01*
Y6400D02*Y8800D01*
Y6400D02*X188793Y7000D01*
X187593D02*X188793D01*
X187593D02*X186993Y6400D01*
Y4600D02*Y6400D01*
X187593Y4000D02*X186993Y4600D01*
X187593Y4000D02*X188793D01*
X189393Y4600D02*X188793Y4000D01*
X180992D02*X183392D01*
X180992D02*X180392Y4600D01*
Y5800D01*
X180992Y6400D02*X180392Y5800D01*
X180992Y6400D02*X182792D01*
Y4000D02*Y8800D01*
X180992D02*X183392D01*
X180992D02*X180392Y8200D01*
Y7000D02*Y8200D01*
X180992Y6400D02*X180392Y7000D01*
X176551Y4000D02*X178351D01*
X178951Y4600D02*X178351Y4000D01*
X178951Y4600D02*Y5800D01*
X178351Y6400D01*
X177151D02*X178351D01*
X177151D02*X176551Y5800D01*
Y5200D02*X178951D01*
X176551D02*Y5800D01*
X174510Y4000D02*Y5800D01*
X173910Y6400D01*
X172710D02*X173910D01*
X175110D02*X174510Y5800D01*
X170668Y4600D02*Y8800D01*
Y4600D02*X170068Y4000D01*
Y7000D02*X171268D01*
X164307Y8800D02*X166707D01*
X165507Y4000D02*Y8800D01*
X162866Y7000D02*Y7600D01*
Y4000D02*Y5800D01*
X161065Y4000D02*Y5800D01*
X160465Y6400D01*
X159865D02*X160465D01*
X159865D02*X159265Y5800D01*
Y4000D02*Y5800D01*
X158665Y6400D01*
X158065D02*X158665D01*
X158065D02*X157465Y5800D01*
Y4000D02*Y5800D01*
X161665Y6400D02*X161065Y5800D01*
X155424Y4000D02*Y5800D01*
X154824Y6400D01*
X154224D02*X154824D01*
X154224D02*X153624Y5800D01*
Y4000D02*Y5800D01*
X153024Y6400D01*
X152424D02*X153024D01*
X152424D02*X151824Y5800D01*
Y4000D02*Y5800D01*
X156024Y6400D02*X155424Y5800D01*
X147982Y4000D02*X149782D01*
X150382Y4600D02*X149782Y4000D01*
X150382Y4600D02*Y5800D01*
X149782Y6400D01*
X148582D02*X149782D01*
X148582D02*X147982Y5800D01*
Y5200D02*X150382D01*
X147982D02*Y5800D01*
X145941Y4000D02*Y5800D01*
X145341Y6400D01*
X144141D02*X145341D01*
X146541D02*X145941Y5800D01*
X142100Y4000D02*Y5800D01*
X141500Y6400D01*
X140900D02*X141500D01*
X140900D02*X140300Y5800D01*
Y4000D02*Y5800D01*
X139700Y6400D01*
X139100D02*X139700D01*
X139100D02*X138500Y5800D01*
Y4000D02*Y5800D01*
X142700Y6400D02*X142100Y5800D01*
X135259Y6400D02*X134659Y5800D01*
X135259Y6400D02*X136459D01*
X137059Y5800D02*X136459Y6400D01*
X137059Y4600D02*Y5800D01*
Y4600D02*X136459Y4000D01*
X134659Y4600D02*Y6400D01*
Y4600D02*X134059Y4000D01*
X135259D02*X136459D01*
X135259D02*X134659Y4600D01*
X132018Y4000D02*Y5800D01*
X131418Y6400D01*
X130818D02*X131418D01*
X130818D02*X130218Y5800D01*
Y4000D02*Y5800D01*
X132618Y6400D02*X132018Y5800D01*
X85000Y107100D02*Y110700D01*
X84400Y111300D01*
X83200D02*X84400D01*
X83200D02*X82600Y110700D01*
Y107100D02*Y110700D01*
X83200Y106500D02*X82600Y107100D01*
X83200Y106500D02*X84400D01*
X85000Y107100D02*X84400Y106500D01*
X81159Y107100D02*Y111300D01*
Y107100D02*X80559Y106500D01*
X79359D02*X80559D01*
X79359D02*X78759Y107100D01*
Y111300D01*
X74918D02*X77318D01*
X76118Y106500D02*Y111300D01*
X71077Y106500D02*X73477D01*
X69636Y110700D02*X69036Y111300D01*
X67836D02*X69036D01*
X67836D02*X67236Y110700D01*
Y107100D02*Y110700D01*
X67836Y106500D02*X67236Y107100D01*
X67836Y106500D02*X69036D01*
X69636Y107100D02*X69036Y106500D01*
X67236Y108900D02*X69036D01*
X63994Y106500D02*X65194D01*
X64594D02*Y111300D01*
X65794Y110100D02*X64594Y111300D01*
X62553Y106500D02*Y111300D01*
X59553Y106500D02*Y111300D01*
Y108900D02*X62553D01*
X55712D02*X58112D01*
Y106500D02*X55712Y108900D01*
Y106500D02*X58112D01*
X51871Y111300D02*X54271D01*
Y108900D02*Y111300D01*
Y108900D02*X53671Y109500D01*
X52471D02*X53671D01*
X52471D02*X51871Y108900D01*
Y107100D02*Y108900D01*
X52471Y106500D02*X51871Y107100D01*
X52471Y106500D02*X53671D01*
X54271Y107100D02*X53671Y106500D01*
X215000Y107100D02*Y110700D01*
X214400Y111300D01*
X213200D02*X214400D01*
X213200D02*X212600Y110700D01*
Y107100D02*Y110700D01*
X213200Y106500D02*X212600Y107100D01*
X213200Y106500D02*X214400D01*
X215000Y107100D02*X214400Y106500D01*
X211159Y107100D02*Y111300D01*
Y107100D02*X210559Y106500D01*
X209359D02*X210559D01*
X209359D02*X208759Y107100D01*
Y111300D01*
X204918D02*X207318D01*
X206118Y106500D02*Y111300D01*
X201077Y106500D02*X203477D01*
X197836Y111300D02*X197236Y110700D01*
X197836Y111300D02*X199036D01*
X199636Y110700D02*X199036Y111300D01*
X199636Y107100D02*Y110700D01*
Y107100D02*X199036Y106500D01*
X197836Y108900D02*X197236Y108300D01*
X197836Y108900D02*X199636D01*
X197836Y106500D02*X199036D01*
X197836D02*X197236Y107100D01*
Y108300D01*
X195794Y110700D02*X195194Y111300D01*
X193994D02*X195194D01*
X193994D02*X193394Y110700D01*
Y107100D02*Y110700D01*
X193994Y106500D02*X193394Y107100D01*
X193994Y106500D02*X195194D01*
X195794Y107100D02*X195194Y106500D01*
X193394Y108900D02*X195194D01*
X191953Y106500D02*Y111300D01*
X188953Y106500D02*Y111300D01*
Y108900D02*X191953D01*
X185112D02*X187512D01*
Y106500D02*X185112Y108900D01*
Y106500D02*X187512D01*
X255000Y8200D02*X254400Y8800D01*
X252600D02*X254400D01*
X252600D02*X252000Y8200D01*
Y7000D02*Y8200D01*
X255000Y4000D02*X252000Y7000D01*
Y4000D02*X255000D01*
X248759Y8800D02*X248159Y8200D01*
X248759Y8800D02*X249959D01*
X250559Y8200D02*X249959Y8800D01*
X250559Y4600D02*Y8200D01*
Y4600D02*X249959Y4000D01*
X248759Y6400D02*X248159Y5800D01*
X248759Y6400D02*X250559D01*
X248759Y4000D02*X249959D01*
X248759D02*X248159Y4600D01*
Y5800D01*
X246118Y4000D02*X246718D01*
X244677Y4600D02*X244077Y4000D01*
X244677Y4600D02*Y8200D01*
X244077Y8800D01*
X242877D02*X244077D01*
X242877D02*X242277Y8200D01*
Y4600D02*Y8200D01*
X242877Y4000D02*X242277Y4600D01*
X242877Y4000D02*X244077D01*
X244677Y5200D02*X242277Y7600D01*
X240836Y4600D02*X240236Y4000D01*
X240836Y4600D02*Y8200D01*
X240236Y8800D01*
X239036D02*X240236D01*
X239036D02*X238436Y8200D01*
Y4600D02*Y8200D01*
X239036Y4000D02*X238436Y4600D01*
X239036Y4000D02*X240236D01*
X240836Y5200D02*X238436Y7600D01*
X235194Y8800D02*X234594Y8200D01*
X235194Y8800D02*X236394D01*
X236994Y8200D02*X236394Y8800D01*
X236994Y4600D02*Y8200D01*
Y4600D02*X236394Y4000D01*
X235194Y6400D02*X234594Y5800D01*
X235194Y6400D02*X236994D01*
X235194Y4000D02*X236394D01*
X235194D02*X234594Y4600D01*
Y5800D01*
X232553Y4000D02*X233153D01*
X231112Y4600D02*X230512Y4000D01*
X231112Y4600D02*Y8200D01*
X230512Y8800D01*
X229312D02*X230512D01*
X229312D02*X228712Y8200D01*
Y4600D02*Y8200D01*
X229312Y4000D02*X228712Y4600D01*
X229312Y4000D02*X230512D01*
X231112Y5200D02*X228712Y7600D01*
X225471Y4000D02*X226671D01*
X226071D02*Y8800D01*
X227271Y7600D02*X226071Y8800D01*
X223430Y4000D02*X224030D01*
X221988Y4600D02*X221388Y4000D01*
X221988Y4600D02*Y8200D01*
X221388Y8800D01*
X220188D02*X221388D01*
X220188D02*X219588Y8200D01*
Y4600D02*Y8200D01*
X220188Y4000D02*X219588Y4600D01*
X220188Y4000D02*X221388D01*
X221988Y5200D02*X219588Y7600D01*
X216347Y4000D02*X217547D01*
X216947D02*Y8800D01*
X218147Y7600D02*X216947Y8800D01*
X143000Y29000D02*X142500Y28500D01*
X143000Y29000D02*X144500D01*
X145000Y28500D02*X144500Y29000D01*
X145000Y25500D02*Y28500D01*
Y25500D02*X144500Y25000D01*
X143000D02*X144500D01*
X143000D02*X142500Y25500D01*
Y26500D01*
X143000Y27000D02*X142500Y26500D01*
X143000Y27000D02*X144000D01*
X141299Y25000D02*Y29000D01*
Y28500D02*Y29000D01*
Y28500D02*X138799Y26000D01*
Y25000D02*Y29000D01*
X137098Y25000D02*Y29000D01*
X135598D02*X135098Y28500D01*
Y25500D02*Y28500D01*
X135598Y25000D02*X135098Y25500D01*
X135598Y25000D02*X137598D01*
X135598Y29000D02*X137598D01*
X228957Y94468D02*Y90532D01*
X236043Y94468D02*Y90532D01*
G54D32*X228207Y101774D02*Y83226D01*
X236793Y101774D02*Y83226D01*
X228207Y101774D02*X236793D01*
X228207Y83226D02*X236793D01*
G54D11*X227500Y107500D02*G75*G03X227500Y107500I5000J0D01*G01*
X246043Y29468D02*Y25532D01*
X238957Y29468D02*Y25532D01*
G54D32*X246793Y36774D02*Y18226D01*
X238207Y36774D02*Y18226D01*
X246793D01*
X238207Y36774D02*X246793D01*
G54D11*X198957Y29468D02*Y25532D01*
X206043Y29468D02*Y25532D01*
G54D32*X198207Y36774D02*Y18226D01*
X206793Y36774D02*Y18226D01*
X198207Y36774D02*X206793D01*
X198207Y18226D02*X206793D01*
G54D11*X188957Y94468D02*Y90532D01*
X196043Y94468D02*Y90532D01*
G54D32*X188207Y101774D02*Y83226D01*
X196793Y101774D02*Y83226D01*
X188207Y101774D02*X196793D01*
X188207Y83226D02*X196793D01*
G54D11*X38543Y29468D02*Y25532D01*
X31457Y29468D02*Y25532D01*
G54D32*X39293Y36774D02*Y18226D01*
X30707Y36774D02*Y18226D01*
X39293D01*
X30707Y36774D02*X39293D01*
G54D11*X68957Y29468D02*Y25532D01*
X76043Y29468D02*Y25532D01*
G54D32*X68207Y36774D02*Y18226D01*
X76793Y36774D02*Y18226D01*
X68207Y36774D02*X76793D01*
X68207Y18226D02*X76793D01*
G54D11*X21457Y94468D02*Y90532D01*
X28543Y94468D02*Y90532D01*
G54D32*X20707Y101774D02*Y83226D01*
X29293Y101774D02*Y83226D01*
X20707Y101774D02*X29293D01*
X20707Y83226D02*X29293D01*
G54D11*X151457Y94468D02*Y90532D01*
X158543Y94468D02*Y90532D01*
G54D32*X150707Y101774D02*Y83226D01*
X159293Y101774D02*Y83226D01*
X150707Y101774D02*X159293D01*
X150707Y83226D02*X159293D01*
G54D11*X168543Y29468D02*Y25532D01*
X161457Y29468D02*Y25532D01*
G54D32*X169293Y36774D02*Y18226D01*
X160707Y36774D02*Y18226D01*
X169293D01*
X160707Y36774D02*X169293D01*
G54D11*X116043Y29468D02*Y25532D01*
X108957Y29468D02*Y25532D01*
G54D32*X116793Y36774D02*Y18226D01*
X108207Y36774D02*Y18226D01*
X116793D01*
X108207Y36774D02*X116793D01*
G54D11*X98957Y94468D02*Y90532D01*
X106043Y94468D02*Y90532D01*
G54D32*X98207Y101774D02*Y83226D01*
X106793Y101774D02*Y83226D01*
X98207Y101774D02*X106793D01*
X98207Y83226D02*X106793D01*
G54D11*X130000Y17500D02*G75*G03X130000Y17500I5000J0D01*G01*
X58957Y94468D02*Y90532D01*
X66043Y94468D02*Y90532D01*
G54D32*X58207Y101774D02*Y83226D01*
X66793Y101774D02*Y83226D01*
X58207Y101774D02*X66793D01*
X58207Y83226D02*X66793D01*
G54D11*X97500Y107500D02*G75*G03X97500Y107500I5000J0D01*G01*
X222000Y87500D02*Y89000D01*
X222500Y87000D02*X222000Y87500D01*
X222500Y87000D02*X225500D01*
X226000Y87500D01*
Y89000D01*
X225500Y90201D02*X226000Y90701D01*
Y92201D01*
X225500Y92701D01*
X224500D02*X225500D01*
X222000Y90201D02*X224500Y92701D01*
X222000Y90201D02*Y92701D01*
X226000Y93902D02*Y95902D01*
X224000Y93902D02*X226000D01*
X224000D02*X224500Y94402D01*
Y95402D01*
X224000Y95902D01*
X222500D02*X224000D01*
X222000Y95402D02*X222500Y95902D01*
X222000Y94402D02*Y95402D01*
X222500Y93902D02*X222000Y94402D01*
Y97103D02*X224000Y99103D01*
X225500D01*
X226000Y98603D02*X225500Y99103D01*
X226000Y97603D02*Y98603D01*
X225500Y97103D02*X226000Y97603D01*
X224500Y97103D02*X225500D01*
X224500D02*X224000Y97603D01*
Y99103D01*
X253000Y111000D02*X255000D01*
X254000Y107000D02*Y111000D01*
X251299Y107000D02*Y111000D01*
X249799D02*X251799D01*
X249799D02*X249299Y110500D01*
Y109500D02*Y110500D01*
X249799Y109000D02*X249299Y109500D01*
X249799Y109000D02*X251299D01*
X248098Y110500D02*X247598Y111000D01*
X246098D02*X247598D01*
X246098D02*X245598Y110500D01*
Y109500D02*Y110500D01*
X248098Y107000D02*X245598Y109500D01*
Y107000D02*X248098D01*
X244397Y107500D02*X243897Y107000D01*
X244397Y107500D02*Y110500D01*
X243897Y111000D01*
X242897D02*X243897D01*
X242897D02*X242397Y110500D01*
Y107500D02*Y110500D01*
X242897Y107000D02*X242397Y107500D01*
X242897Y107000D02*X243897D01*
X244397Y108000D02*X242397Y110000D01*
X239696Y107000D02*X240696D01*
X240196D02*Y111000D01*
X241196Y110000D02*X240196Y111000D01*
X232500Y21500D02*Y23000D01*
X233000Y21000D02*X232500Y21500D01*
X233000Y21000D02*X236000D01*
X236500Y21500D01*
Y23000D01*
X236000Y24201D02*X236500Y24701D01*
Y26201D01*
X236000Y26701D01*
X235000D02*X236000D01*
X232500Y24201D02*X235000Y26701D01*
X232500Y24201D02*Y26701D01*
X236500Y27902D02*Y29902D01*
X234500Y27902D02*X236500D01*
X234500D02*X235000Y28402D01*
Y29402D01*
X234500Y29902D01*
X233000D02*X234500D01*
X232500Y29402D02*X233000Y29902D01*
X232500Y28402D02*Y29402D01*
X233000Y27902D02*X232500Y28402D01*
X233000Y31103D02*X232500Y31603D01*
X233000Y31103D02*X234000D01*
X234500Y31603D01*
Y32603D01*
X234000Y33103D01*
X233000D02*X234000D01*
X232500Y32603D02*X233000Y33103D01*
X232500Y31603D02*Y32603D01*
X235000Y31103D02*X234500Y31603D01*
X235000Y31103D02*X236000D01*
X236500Y31603D01*
Y32603D01*
X236000Y33103D01*
X235000D02*X236000D01*
X234500Y32603D02*X235000Y33103D01*
X25000Y21500D02*Y23000D01*
X25500Y21000D02*X25000Y21500D01*
X25500Y21000D02*X28500D01*
X29000Y21500D01*
Y23000D01*
X28500Y24201D02*X29000Y24701D01*
Y26201D01*
X28500Y26701D01*
X27500D02*X28500D01*
X25000Y24201D02*X27500Y26701D01*
X25000Y24201D02*Y26701D01*
X25500Y27902D02*X25000Y28402D01*
X25500Y27902D02*X28500D01*
X29000Y28402D01*
Y29402D01*
X28500Y29902D01*
X25500D02*X28500D01*
X25000Y29402D02*X25500Y29902D01*
X25000Y28402D02*Y29402D01*
X26000Y27902D02*X28000Y29902D01*
X27000Y31103D02*X29000Y33103D01*
X27000Y31103D02*Y33603D01*
X25000Y33103D02*X29000D01*
X62000Y21500D02*Y23000D01*
X62500Y21000D02*X62000Y21500D01*
X62500Y21000D02*X65500D01*
X66000Y21500D01*
Y23000D01*
X65500Y24201D02*X66000Y24701D01*
Y26201D01*
X65500Y26701D01*
X64500D02*X65500D01*
X62000Y24201D02*X64500Y26701D01*
X62000Y24201D02*Y26701D01*
X62500Y27902D02*X62000Y28402D01*
X62500Y27902D02*X65500D01*
X66000Y28402D01*
Y29402D01*
X65500Y29902D01*
X62500D02*X65500D01*
X62000Y29402D02*X62500Y29902D01*
X62000Y28402D02*Y29402D01*
X63000Y27902D02*X65000Y29902D01*
X66000Y32603D02*X65500Y33103D01*
X66000Y31603D02*Y32603D01*
X65500Y31103D02*X66000Y31603D01*
X62500Y31103D02*X65500D01*
X62500D02*X62000Y31603D01*
X64000Y32603D02*X63500Y33103D01*
X64000Y31103D02*Y32603D01*
X62000Y31603D02*Y32603D01*
X62500Y33103D01*
X63500D01*
X157000Y18000D02*X159000D01*
X158000Y14000D02*Y18000D01*
X155299Y14000D02*Y18000D01*
X153799D02*X155799D01*
X153799D02*X153299Y17500D01*
Y16500D02*Y17500D01*
X153799Y16000D02*X153299Y16500D01*
X153799Y16000D02*X155299D01*
X152098Y17500D02*X151598Y18000D01*
X150098D02*X151598D01*
X150098D02*X149598Y17500D01*
Y16500D02*Y17500D01*
X152098Y14000D02*X149598Y16500D01*
Y14000D02*X152098D01*
X148397Y14500D02*X147897Y14000D01*
X148397Y14500D02*Y17500D01*
X147897Y18000D01*
X146897D02*X147897D01*
X146897D02*X146397Y17500D01*
Y14500D02*Y17500D01*
X146897Y14000D02*X146397Y14500D01*
X146897Y14000D02*X147897D01*
X148397Y15000D02*X146397Y17000D01*
X145196Y17500D02*X144696Y18000D01*
X143196D02*X144696D01*
X143196D02*X142696Y17500D01*
Y16500D02*Y17500D01*
X145196Y14000D02*X142696Y16500D01*
Y14000D02*X145196D01*
X102000Y21500D02*Y23000D01*
X102500Y21000D02*X102000Y21500D01*
X102500Y21000D02*X105500D01*
X106000Y21500D01*
Y23000D01*
X105500Y24201D02*X106000Y24701D01*
Y26201D01*
X105500Y26701D01*
X104500D02*X105500D01*
X102000Y24201D02*X104500Y26701D01*
X102000Y24201D02*Y26701D01*
X102500Y27902D02*X102000Y28402D01*
X102500Y27902D02*X105500D01*
X106000Y28402D01*
Y29402D01*
X105500Y29902D01*
X102500D02*X105500D01*
X102000Y29402D02*X102500Y29902D01*
X102000Y28402D02*Y29402D01*
X103000Y27902D02*X105000Y29902D01*
X102500Y31103D02*X102000Y31603D01*
X102500Y31103D02*X103500D01*
X104000Y31603D01*
Y32603D01*
X103500Y33103D01*
X102500D02*X103500D01*
X102000Y32603D02*X102500Y33103D01*
X102000Y31603D02*Y32603D01*
X104500Y31103D02*X104000Y31603D01*
X104500Y31103D02*X105500D01*
X106000Y31603D01*
Y32603D01*
X105500Y33103D01*
X104500D02*X105500D01*
X104000Y32603D02*X104500Y33103D01*
X182000Y87500D02*Y89000D01*
X182500Y87000D02*X182000Y87500D01*
X182500Y87000D02*X185500D01*
X186000Y87500D01*
Y89000D01*
X185500Y90201D02*X186000Y90701D01*
Y92201D01*
X185500Y92701D01*
X184500D02*X185500D01*
X182000Y90201D02*X184500Y92701D01*
X182000Y90201D02*Y92701D01*
X186000Y93902D02*Y95902D01*
X184000Y93902D02*X186000D01*
X184000D02*X184500Y94402D01*
Y95402D01*
X184000Y95902D01*
X182500D02*X184000D01*
X182000Y95402D02*X182500Y95902D01*
X182000Y94402D02*Y95402D01*
X182500Y93902D02*X182000Y94402D01*
Y97103D02*X184500Y99603D01*
X186000D01*
Y97103D02*Y99603D01*
X145000Y87500D02*Y89000D01*
X145500Y87000D02*X145000Y87500D01*
X145500Y87000D02*X148500D01*
X149000Y87500D01*
Y89000D01*
X148500Y90201D02*X149000Y90701D01*
Y92201D01*
X148500Y92701D01*
X147500D02*X148500D01*
X145000Y90201D02*X147500Y92701D01*
X145000Y90201D02*Y92701D01*
X149000Y93902D02*Y95902D01*
X147000Y93902D02*X149000D01*
X147000D02*X147500Y94402D01*
Y95402D01*
X147000Y95902D01*
X145500D02*X147000D01*
X145000Y95402D02*X145500Y95902D01*
X145000Y94402D02*Y95402D01*
X145500Y93902D02*X145000Y94402D01*
X149000Y97103D02*Y99103D01*
X147000Y97103D02*X149000D01*
X147000D02*X147500Y97603D01*
Y98603D01*
X147000Y99103D01*
X145500D02*X147000D01*
X145000Y98603D02*X145500Y99103D01*
X145000Y97603D02*Y98603D01*
X145500Y97103D02*X145000Y97603D01*
X52000Y87500D02*Y89000D01*
X52500Y87000D02*X52000Y87500D01*
X52500Y87000D02*X55500D01*
X56000Y87500D01*
Y89000D01*
X55500Y90201D02*X56000Y90701D01*
Y92201D01*
X55500Y92701D01*
X54500D02*X55500D01*
X52000Y90201D02*X54500Y92701D01*
X52000Y90201D02*Y92701D01*
X52500Y93902D02*X52000Y94402D01*
X52500Y93902D02*X55500D01*
X56000Y94402D01*
Y95402D01*
X55500Y95902D01*
X52500D02*X55500D01*
X52000Y95402D02*X52500Y95902D01*
X52000Y94402D02*Y95402D01*
X53000Y93902D02*X55000Y95902D01*
X52000Y97103D02*X54500Y99603D01*
X56000D01*
Y97103D02*Y99603D01*
X15000Y87500D02*Y89000D01*
X15500Y87000D02*X15000Y87500D01*
X15500Y87000D02*X18500D01*
X19000Y87500D01*
Y89000D01*
X18500Y90201D02*X19000Y90701D01*
Y92201D01*
X18500Y92701D01*
X17500D02*X18500D01*
X15000Y90201D02*X17500Y92701D01*
X15000Y90201D02*Y92701D01*
X15500Y93902D02*X15000Y94402D01*
X15500Y93902D02*X18500D01*
X19000Y94402D01*
Y95402D01*
X18500Y95902D01*
X15500D02*X18500D01*
X15000Y95402D02*X15500Y95902D01*
X15000Y94402D02*Y95402D01*
X16000Y93902D02*X18000Y95902D01*
X19000Y97103D02*Y99103D01*
X17000Y97103D02*X19000D01*
X17000D02*X17500Y97603D01*
Y98603D01*
X17000Y99103D01*
X15500D02*X17000D01*
X15000Y98603D02*X15500Y99103D01*
X15000Y97603D02*Y98603D01*
X15500Y97103D02*X15000Y97603D01*
X155000Y21500D02*Y23000D01*
X155500Y21000D02*X155000Y21500D01*
X155500Y21000D02*X158500D01*
X159000Y21500D01*
Y23000D01*
X158500Y24201D02*X159000Y24701D01*
Y26201D01*
X158500Y26701D01*
X157500D02*X158500D01*
X155000Y24201D02*X157500Y26701D01*
X155000Y24201D02*Y26701D01*
X159000Y27902D02*Y29902D01*
X157000Y27902D02*X159000D01*
X157000D02*X157500Y28402D01*
Y29402D01*
X157000Y29902D01*
X155500D02*X157000D01*
X155000Y29402D02*X155500Y29902D01*
X155000Y28402D02*Y29402D01*
X155500Y27902D02*X155000Y28402D01*
X157000Y31103D02*X159000Y33103D01*
X157000Y31103D02*Y33603D01*
X155000Y33103D02*X159000D01*
X192000Y21500D02*Y23000D01*
X192500Y21000D02*X192000Y21500D01*
X192500Y21000D02*X195500D01*
X196000Y21500D01*
Y23000D01*
X195500Y24201D02*X196000Y24701D01*
Y26201D01*
X195500Y26701D01*
X194500D02*X195500D01*
X192000Y24201D02*X194500Y26701D01*
X192000Y24201D02*Y26701D01*
X196000Y27902D02*Y29902D01*
X194000Y27902D02*X196000D01*
X194000D02*X194500Y28402D01*
Y29402D01*
X194000Y29902D01*
X192500D02*X194000D01*
X192000Y29402D02*X192500Y29902D01*
X192000Y28402D02*Y29402D01*
X192500Y27902D02*X192000Y28402D01*
X196000Y32603D02*X195500Y33103D01*
X196000Y31603D02*Y32603D01*
X195500Y31103D02*X196000Y31603D01*
X192500Y31103D02*X195500D01*
X192500D02*X192000Y31603D01*
X194000Y32603D02*X193500Y33103D01*
X194000Y31103D02*Y32603D01*
X192000Y31603D02*Y32603D01*
X192500Y33103D01*
X193500D01*
X92000Y86500D02*Y88000D01*
X92500Y86000D02*X92000Y86500D01*
X92500Y86000D02*X95500D01*
X96000Y86500D01*
Y88000D01*
X95500Y89201D02*X96000Y89701D01*
Y91201D01*
X95500Y91701D01*
X94500D02*X95500D01*
X92000Y89201D02*X94500Y91701D01*
X92000Y89201D02*Y91701D01*
X92500Y92902D02*X92000Y93402D01*
X92500Y92902D02*X95500D01*
X96000Y93402D01*
Y94402D01*
X95500Y94902D01*
X92500D02*X95500D01*
X92000Y94402D02*X92500Y94902D01*
X92000Y93402D02*Y94402D01*
X93000Y92902D02*X95000Y94902D01*
X92000Y96103D02*X94000Y98103D01*
X95500D01*
X96000Y97603D02*X95500Y98103D01*
X96000Y96603D02*Y97603D01*
X95500Y96103D02*X96000Y96603D01*
X94500Y96103D02*X95500D01*
X94500D02*X94000Y96603D01*
Y98103D01*
X124000Y111000D02*X126000D01*
X125000Y107000D02*Y111000D01*
X122299Y107000D02*Y111000D01*
X120799D02*X122799D01*
X120799D02*X120299Y110500D01*
Y109500D02*Y110500D01*
X120799Y109000D02*X120299Y109500D01*
X120799Y109000D02*X122299D01*
X119098Y110500D02*X118598Y111000D01*
X117098D02*X118598D01*
X117098D02*X116598Y110500D01*
Y109500D02*Y110500D01*
X119098Y107000D02*X116598Y109500D01*
Y107000D02*X119098D01*
X113397Y111000D02*X115397D01*
Y109000D02*Y111000D01*
Y109000D02*X114897Y109500D01*
X113897D02*X114897D01*
X113897D02*X113397Y109000D01*
Y107500D02*Y109000D01*
X113897Y107000D02*X113397Y107500D01*
X113897Y107000D02*X114897D01*
X115397Y107500D02*X114897Y107000D01*
X110696D02*X111696D01*
X111196D02*Y111000D01*
X112196Y110000D02*X111196Y111000D01*
M02*
