G04 start of page 7 for group -4062 idx -4062 *
G04 Title: 26.006.01.01.01, soldermask *
G04 Creator: pcb 20100929 *
G04 CreationDate: Sat Mar 21 19:35:30 2015 UTC *
G04 For: bert *
G04 Format: Gerber/RS-274X *
G04 PCB-Dimensions: 260000 115000 *
G04 PCB-Coordinate-Origin: lower left *
%MOIN*%
%FSLAX25Y25*%
%LNBACKMASK*%
%ADD13C,0.0200*%
%ADD24C,0.0660*%
%ADD25C,0.0850*%
%ADD27R,0.0572X0.0572*%
G54D13*G36*
X1700Y8300D02*Y1700D01*
X8300D01*
Y8300D01*
X1700D01*
G37*
G54D24*X15000Y5000D03*
X25000D03*
X35000D03*
X45000D03*
X55000D03*
G54D25*X232500Y107500D03*
G54D24*X65000Y5000D03*
X75000D03*
G54D25*X135000Y17500D03*
X102500Y107500D03*
G54D27*X111516Y33405D02*X113484D01*
X71516Y21595D02*X73484D01*
X111516D02*X113484D01*
X164016Y33405D02*X165984D01*
X164016Y21595D02*X165984D01*
X34016Y33405D02*X35984D01*
X71516D02*X73484D01*
X34016Y21595D02*X35984D01*
X101516Y98405D02*X103484D01*
X101516Y86595D02*X103484D01*
X61516Y98405D02*X63484D01*
X61516Y86595D02*X63484D01*
X24016Y98405D02*X25984D01*
X24016Y86595D02*X25984D01*
X191516Y98405D02*X193484D01*
X154016D02*X155984D01*
X154016Y86595D02*X155984D01*
X191516D02*X193484D01*
X231516Y98405D02*X233484D01*
X231516Y86595D02*X233484D01*
X201516Y33405D02*X203484D01*
X201516Y21595D02*X203484D01*
X241516D02*X243484D01*
X241516Y33405D02*X243484D01*
M02*
