G04 start of page 4 for group 2 idx 2 *
G04 Title: 26.007.01.01.01, outline *
G04 Creator: pcb 20100929 *
G04 CreationDate: Sat Mar 21 19:59:17 2015 UTC *
G04 For: bert *
G04 Format: Gerber/RS-274X *
G04 PCB-Dimensions: 260000 115000 *
G04 PCB-Coordinate-Origin: lower left *
%MOIN*%
%FSLAX25Y25*%
%LNOUTLINE*%
%ADD11C,0.0100*%
G54D11*X0Y115000D02*Y0D01*
X260000D01*
Y115000D01*
X0D01*
M02*
