%FSLAX25Y25*%
%MOIN*%
G70*
G01*
G75*
G04 Layer_Physical_Order=1*
G04 Layer_Color=255*
%ADD10R,0.02756X0.03543*%
%ADD11R,0.10630X0.12992*%
%ADD12R,0.10630X0.03937*%
%ADD13R,0.03543X0.03150*%
%ADD14R,0.03150X0.03543*%
%ADD15R,0.04331X0.10236*%
%ADD16R,0.03543X0.02756*%
%ADD17R,0.02756X0.05118*%
%ADD18R,0.03347X0.02756*%
%ADD19R,0.08071X0.05709*%
%ADD20R,0.05709X0.08071*%
%ADD21O,0.01772X0.05118*%
%ADD22O,0.05118X0.01772*%
%ADD23R,0.03583X0.04803*%
%ADD24R,0.07874X0.05118*%
%ADD25R,0.07874X0.07874*%
%ADD26R,0.05118X0.07874*%
%ADD27R,0.07874X0.07874*%
%ADD28C,0.01000*%
%ADD29C,0.01600*%
%ADD30C,0.05906*%
%ADD31R,0.05906X0.05906*%
%ADD32C,0.02500*%
%ADD33C,0.10236*%
G36*
X5059Y70731D02*
X10092Y70189D01*
X15073Y69291D01*
X19978Y68039D01*
X24781Y66440D01*
X29458Y64503D01*
X33984Y62237D01*
X38337Y59654D01*
X42496Y56767D01*
X46437Y53591D01*
X50142Y50142D01*
X53591Y46437D01*
X56767Y42496D01*
X59654Y38337D01*
X62237Y33984D01*
X64503Y29458D01*
X66440Y24781D01*
X68039Y19978D01*
X69291Y15073D01*
X70189Y10092D01*
X70731Y5059D01*
X70911Y0D01*
X70731Y-5059D01*
X70189Y-10092D01*
X69291Y-15073D01*
X68039Y-19978D01*
X66440Y-24781D01*
X64503Y-29458D01*
X62237Y-33984D01*
X59654Y-38337D01*
X56767Y-42496D01*
X53591Y-46437D01*
X50142Y-50142D01*
X46437Y-53591D01*
X42496Y-56767D01*
X38337Y-59654D01*
X33984Y-62237D01*
X29458Y-64503D01*
X24781Y-66440D01*
X19978Y-68039D01*
X15073Y-69291D01*
X10092Y-70189D01*
X5059Y-70731D01*
X0Y-70911D01*
X-5059Y-70731D01*
X-10092Y-70189D01*
X-15073Y-69291D01*
X-19978Y-68039D01*
X-24781Y-66440D01*
X-29458Y-64503D01*
X-33984Y-62237D01*
X-38337Y-59654D01*
X-40201Y-58361D01*
X-40052Y-57884D01*
X-35030D01*
Y-46447D01*
X-40561D01*
Y-47785D01*
X-41509D01*
X-41564Y-47506D01*
X-41973Y-46895D01*
X-42585Y-46486D01*
X-43307Y-46342D01*
X-44029Y-46486D01*
X-44641Y-46895D01*
X-45050Y-47506D01*
X-45193Y-48228D01*
X-45050Y-48950D01*
X-44641Y-49562D01*
X-44065Y-49947D01*
Y-50447D01*
X-44641Y-50832D01*
X-45050Y-51443D01*
X-45193Y-52165D01*
X-45050Y-52887D01*
X-44641Y-53499D01*
X-44029Y-53908D01*
X-43307Y-54052D01*
X-42585Y-53908D01*
X-42114Y-53593D01*
X-40561D01*
Y-57572D01*
X-41004Y-57803D01*
X-42496Y-56767D01*
X-46437Y-53591D01*
X-50142Y-50142D01*
X-53591Y-46437D01*
X-56767Y-42496D01*
X-59654Y-38337D01*
X-62237Y-33984D01*
X-64503Y-29458D01*
X-66440Y-24781D01*
X-68039Y-19978D01*
X-69291Y-15073D01*
X-70189Y-10092D01*
X-70731Y-5059D01*
X-70911Y0D01*
X-70731Y5059D01*
X-70189Y10092D01*
X-69291Y15073D01*
X-68039Y19978D01*
X-66440Y24781D01*
X-64503Y29458D01*
X-62237Y33984D01*
X-59654Y38337D01*
X-56767Y42496D01*
X-53591Y46437D01*
X-50142Y50142D01*
X-46437Y53591D01*
X-42496Y56767D01*
X-38337Y59654D01*
X-33984Y62237D01*
X-29458Y64503D01*
X-24781Y66440D01*
X-19978Y68039D01*
X-15073Y69291D01*
X-10092Y70189D01*
X-5059Y70731D01*
X0Y70911D01*
X5059Y70731D01*
D02*
G37*
%LPC*%
G36*
X-14361Y-21250D02*
X-19104D01*
Y-25600D01*
X-18160D01*
Y-27350D01*
X-18475Y-27821D01*
X-18619Y-28543D01*
X-18475Y-29265D01*
X-18066Y-29877D01*
X-17454Y-30286D01*
X-16732Y-30430D01*
X-16011Y-30286D01*
X-15398Y-29877D01*
X-14990Y-29265D01*
X-14846Y-28543D01*
X-14990Y-27821D01*
X-15305Y-27350D01*
Y-25600D01*
X-14361D01*
Y-21250D01*
D02*
G37*
G36*
X-21441Y-24787D02*
X-23019D01*
Y-27547D01*
X-21441D01*
Y-24787D01*
D02*
G37*
G36*
X-27559Y-10909D02*
X-28281Y-11053D01*
X-28893Y-11462D01*
X-29302Y-12073D01*
X-29445Y-12795D01*
X-29302Y-13517D01*
X-28986Y-13989D01*
Y-15739D01*
X-33277D01*
Y-17264D01*
X-41895D01*
X-42172Y-16594D01*
X-42742Y-15852D01*
X-43484Y-15282D01*
X-44348Y-14924D01*
X-45276Y-14802D01*
X-46203Y-14924D01*
X-47067Y-15282D01*
X-47809Y-15852D01*
X-48379Y-16594D01*
X-48737Y-17458D01*
X-48859Y-18386D01*
X-48737Y-19313D01*
X-48379Y-20177D01*
X-47809Y-20920D01*
X-47067Y-21489D01*
X-46203Y-21847D01*
X-45276Y-21969D01*
X-44348Y-21847D01*
X-43484Y-21489D01*
X-42742Y-20920D01*
X-42172Y-20177D01*
X-41895Y-19507D01*
X-33277D01*
Y-22057D01*
X-21841D01*
Y-20019D01*
X-19104D01*
Y-20088D01*
X-14361D01*
Y-20088D01*
X-14175Y-20088D01*
X-11948Y-22315D01*
Y-29124D01*
X-12805D01*
Y-33868D01*
X-8849D01*
Y-29124D01*
X-9705D01*
Y-21850D01*
X-9705Y-21850D01*
X-9791Y-21421D01*
X-10034Y-21057D01*
X-10034Y-21057D01*
X-12987Y-18105D01*
X-13350Y-17862D01*
X-13780Y-17776D01*
X-13780Y-17776D01*
X-14361D01*
Y-15739D01*
X-19104D01*
Y-17776D01*
X-21841D01*
Y-15739D01*
X-26132D01*
Y-13989D01*
X-25816Y-13517D01*
X-25673Y-12795D01*
X-25816Y-12073D01*
X-26225Y-11462D01*
X-26837Y-11053D01*
X-27559Y-10909D01*
D02*
G37*
G36*
X-17717Y-33547D02*
X-18438Y-33690D01*
X-19050Y-34099D01*
X-19459Y-34711D01*
X-19603Y-35433D01*
X-19592Y-35487D01*
X-20513Y-36408D01*
X-23041D01*
Y-40758D01*
X-20538D01*
X-20391Y-40978D01*
X-20432Y-41386D01*
X-20632Y-41520D01*
X-23441D01*
Y-43295D01*
X-17898D01*
Y-41585D01*
X-13592D01*
Y-42726D01*
X-1762D01*
Y-41585D01*
X566D01*
X635Y-41688D01*
X1247Y-42097D01*
X1969Y-42241D01*
X2690Y-42097D01*
X3302Y-41688D01*
X3711Y-41076D01*
X3855Y-40354D01*
X3711Y-39632D01*
X3302Y-39021D01*
X2690Y-38612D01*
X1969Y-38468D01*
X1247Y-38612D01*
X1070Y-38730D01*
X-1762D01*
Y-37589D01*
X-13592D01*
Y-38730D01*
X-18298D01*
Y-38230D01*
X-17305Y-37238D01*
X-16995Y-37176D01*
X-16383Y-36767D01*
X-15974Y-36155D01*
X-15830Y-35433D01*
X-15974Y-34711D01*
X-16383Y-34099D01*
X-16995Y-33690D01*
X-17717Y-33547D01*
D02*
G37*
G36*
X-41723Y-34833D02*
X-48828D01*
Y-41939D01*
X-41723D01*
Y-39813D01*
X-36427D01*
Y-41742D01*
X-32077D01*
Y-36998D01*
X-35035D01*
X-35236Y-36958D01*
X-35236Y-36958D01*
X-41723D01*
Y-34833D01*
D02*
G37*
G36*
X-21441Y-29147D02*
X-23019D01*
Y-31905D01*
X-21441D01*
Y-29147D01*
D02*
G37*
G36*
X-35817Y23238D02*
X-44891D01*
Y14164D01*
X-35817D01*
Y14627D01*
X-15228D01*
X-9710Y9109D01*
X-9760Y8858D01*
X-9617Y8136D01*
X-9208Y7525D01*
X-8596Y7116D01*
X-7874Y6972D01*
X-7152Y7116D01*
X-6540Y7525D01*
X-6131Y8136D01*
X-5988Y8858D01*
X-6131Y9580D01*
X-6540Y10192D01*
X-7152Y10601D01*
X-7874Y10745D01*
X-8124Y10695D01*
X-13971Y16541D01*
X-14335Y16784D01*
X-14764Y16870D01*
X-14764Y16870D01*
X-35817D01*
Y23238D01*
D02*
G37*
G36*
X6090Y14948D02*
X4512D01*
Y12976D01*
X6090D01*
Y14948D01*
D02*
G37*
G36*
X9268D02*
X7690D01*
Y12976D01*
X9268D01*
Y14948D01*
D02*
G37*
G36*
X-59055Y5768D02*
X-60548Y5571D01*
X-61939Y4995D01*
X-63133Y4078D01*
X-64050Y2884D01*
X-64626Y1493D01*
X-64823Y0D01*
X-64626Y-1493D01*
X-64050Y-2884D01*
X-63133Y-4078D01*
X-61939Y-4995D01*
X-60548Y-5571D01*
X-59055Y-5768D01*
X-57562Y-5571D01*
X-56171Y-4995D01*
X-54977Y-4078D01*
X-54060Y-2884D01*
X-53484Y-1493D01*
X-53288Y0D01*
X-53484Y1493D01*
X-54060Y2884D01*
X-54977Y4078D01*
X-56171Y4995D01*
X-57562Y5571D01*
X-59055Y5768D01*
D02*
G37*
G36*
X-20266Y10836D02*
X-25009D01*
Y6880D01*
X-20266D01*
Y7431D01*
X-18530D01*
X-18475Y7152D01*
X-18066Y6540D01*
X-17454Y6131D01*
X-16732Y5988D01*
X-16011Y6131D01*
X-15398Y6540D01*
X-14990Y7152D01*
X-14846Y7874D01*
X-14990Y8596D01*
X-15398Y9208D01*
X-16011Y9617D01*
X-16567Y9727D01*
X-16707Y9868D01*
X-17170Y10177D01*
X-17717Y10286D01*
X-17717Y10286D01*
X-20266D01*
Y10836D01*
D02*
G37*
G36*
X6899Y7293D02*
X2943D01*
Y6043D01*
X1476D01*
X1334Y6255D01*
X722Y6664D01*
X0Y6808D01*
X-722Y6664D01*
X-1334Y6255D01*
X-1743Y5643D01*
X-1886Y4921D01*
X-1743Y4199D01*
X-1334Y3588D01*
X-722Y3179D01*
X0Y3035D01*
X722Y3179D01*
X1334Y3588D01*
X1476Y3800D01*
X2943D01*
Y2550D01*
X6899D01*
Y7293D01*
D02*
G37*
G36*
X-17898Y-44894D02*
X-19869D01*
Y-46669D01*
X-17898D01*
Y-44894D01*
D02*
G37*
G36*
X21866Y-50013D02*
X16351D01*
Y-56709D01*
X21866D01*
Y-50013D01*
D02*
G37*
G36*
X-8477D02*
X-13992D01*
Y-52181D01*
X-8477D01*
Y-50013D01*
D02*
G37*
G36*
X-1362D02*
X-6877D01*
Y-52181D01*
X-1362D01*
Y-50013D01*
D02*
G37*
G36*
X-17313Y-57668D02*
X-22057D01*
Y-62017D01*
X-21111D01*
X-21004Y-62554D01*
X-20694Y-63017D01*
X-18586Y-65126D01*
X-18475Y-65683D01*
X-18066Y-66294D01*
X-17454Y-66703D01*
X-16732Y-66847D01*
X-16011Y-66703D01*
X-15398Y-66294D01*
X-14990Y-65683D01*
X-14846Y-64961D01*
X-14990Y-64239D01*
X-15398Y-63627D01*
X-16011Y-63218D01*
X-16567Y-63107D01*
X-17414Y-62260D01*
X-17313Y-62017D01*
X-17313D01*
X-17313Y-62017D01*
Y-57668D01*
D02*
G37*
G36*
X29528Y-45376D02*
X28035Y-45572D01*
X26644Y-46148D01*
X25449Y-47065D01*
X24533Y-48259D01*
X23957Y-49650D01*
X23760Y-51143D01*
X23957Y-52636D01*
X24533Y-54027D01*
X25449Y-55221D01*
X26644Y-56138D01*
X28035Y-56714D01*
X29528Y-56911D01*
X31020Y-56714D01*
X32411Y-56138D01*
X33606Y-55221D01*
X34522Y-54027D01*
X35098Y-52636D01*
X35295Y-51143D01*
X35098Y-49650D01*
X34522Y-48259D01*
X33606Y-47065D01*
X32411Y-46148D01*
X31020Y-45572D01*
X29528Y-45376D01*
D02*
G37*
G36*
X14751Y-50013D02*
X9236D01*
Y-56709D01*
X14751D01*
Y-50013D01*
D02*
G37*
G36*
X21866Y-41717D02*
X16351D01*
Y-48413D01*
X21866D01*
Y-41717D01*
D02*
G37*
G36*
X57687Y7792D02*
X48613D01*
Y-1282D01*
X56100D01*
X60886Y-6068D01*
Y-27850D01*
X45652Y-43085D01*
X42888D01*
Y-47828D01*
X46844D01*
Y-45065D01*
X62801Y-29108D01*
X62801Y-29108D01*
X63044Y-28744D01*
X63129Y-28315D01*
Y-5604D01*
X63129Y-5604D01*
X63044Y-5174D01*
X62801Y-4811D01*
X62801Y-4811D01*
X57687Y304D01*
Y7792D01*
D02*
G37*
G36*
X-21469Y-44894D02*
X-23441D01*
Y-46669D01*
X-21469D01*
Y-44894D01*
D02*
G37*
G36*
X-8477Y-46244D02*
X-13992D01*
Y-48413D01*
X-8477D01*
Y-46244D01*
D02*
G37*
G36*
X-1362D02*
X-6877D01*
Y-48413D01*
X-1362D01*
Y-46244D01*
D02*
G37*
G36*
X14751Y-41717D02*
X9236D01*
Y-48413D01*
X14751D01*
Y-41717D01*
D02*
G37*
G36*
X27743Y14948D02*
X26165D01*
Y12976D01*
X27743D01*
Y14948D01*
D02*
G37*
G36*
X-15739Y58474D02*
X-19694D01*
Y53731D01*
X-15739D01*
Y54385D01*
X-15277Y54576D01*
X-7765Y47065D01*
Y43258D01*
X-3959D01*
X723Y38577D01*
X723Y38577D01*
X1087Y38334D01*
X1516Y38249D01*
X1565D01*
Y37392D01*
X2815D01*
Y32972D01*
X2815Y32972D01*
X2898Y32556D01*
X2767Y32469D01*
X2439Y31977D01*
X2324Y31398D01*
X2439Y30818D01*
X2717Y30401D01*
X2482Y29960D01*
X1526D01*
X1526Y29960D01*
X1526Y29960D01*
X-2353D01*
Y31112D01*
X-11427D01*
Y22038D01*
X-2353D01*
Y27717D01*
X-137D01*
Y18120D01*
X-994D01*
Y13376D01*
X2962D01*
Y18120D01*
X2106D01*
Y22778D01*
X2584Y22923D01*
X2767Y22649D01*
X3259Y22321D01*
X3839Y22206D01*
X5008D01*
X7357Y19857D01*
X7357Y19857D01*
X7634Y19671D01*
X7742Y19600D01*
X7918Y19335D01*
X8423Y18998D01*
X8278Y18520D01*
X7690D01*
Y16548D01*
X9268D01*
Y18520D01*
X9268D01*
X9252Y18535D01*
Y18783D01*
X9974Y18927D01*
X10586Y19335D01*
X10995Y19948D01*
X11138Y20669D01*
X10995Y21391D01*
X10586Y22003D01*
X9974Y22412D01*
X9252Y22556D01*
X8788Y22463D01*
X8395Y22856D01*
X8585Y23141D01*
X8700Y23720D01*
X8585Y24300D01*
X8437Y24522D01*
X8563Y25158D01*
X8992Y25243D01*
X9356Y25486D01*
X16541Y32671D01*
X16541Y32671D01*
X16784Y33035D01*
X16870Y33465D01*
X16870Y33465D01*
Y37983D01*
X19054D01*
X19800Y37236D01*
X19911Y36680D01*
X20320Y36068D01*
X20932Y35659D01*
X21654Y35515D01*
X22375Y35659D01*
X22987Y36068D01*
X23396Y36680D01*
X23540Y37402D01*
X23396Y38123D01*
X22987Y38735D01*
X22375Y39144D01*
X21819Y39255D01*
X20679Y40395D01*
Y42726D01*
X16870D01*
Y43307D01*
X16784Y43736D01*
X16541Y44100D01*
X16541Y44100D01*
X14262Y46379D01*
X14454Y46841D01*
X14773D01*
Y51584D01*
X13917D01*
Y52746D01*
X15167D01*
Y57490D01*
X10817D01*
Y56240D01*
X7884D01*
Y57490D01*
X3534D01*
Y52746D01*
X7884D01*
Y53997D01*
X10817D01*
Y52746D01*
X11674D01*
Y51584D01*
X10817D01*
Y46841D01*
X11674D01*
Y46260D01*
X11674Y46260D01*
X11759Y45831D01*
X12002Y45467D01*
X14281Y43188D01*
X14090Y42726D01*
X10817D01*
Y41476D01*
X4921D01*
X4921Y41476D01*
X4492Y41390D01*
X4428Y41348D01*
X1565D01*
X1565Y41348D01*
Y41348D01*
X1253Y41219D01*
X-2983Y45455D01*
Y49261D01*
X-6790D01*
X-14424Y56895D01*
X-14787Y57139D01*
X-15216Y57224D01*
X-15217Y57224D01*
X-15739D01*
Y58474D01*
D02*
G37*
G36*
X2372Y57490D02*
X-1978D01*
Y52746D01*
X-925D01*
Y49016D01*
X-925Y49016D01*
X-839Y48587D01*
X-596Y48223D01*
X1565Y46061D01*
Y43298D01*
X6309D01*
Y47254D01*
X3545D01*
X1318Y49480D01*
Y52746D01*
X2372D01*
Y57490D01*
D02*
G37*
G36*
X30315Y56949D02*
X28822Y56752D01*
X27431Y56176D01*
X26237Y55259D01*
X25320Y54065D01*
X24744Y52674D01*
X24547Y51181D01*
X24744Y49688D01*
X25320Y48297D01*
X26237Y47103D01*
X27431Y46186D01*
X28822Y45610D01*
X30315Y45414D01*
X31808Y45610D01*
X33199Y46186D01*
X34393Y47103D01*
X35310Y48297D01*
X35886Y49688D01*
X36082Y51181D01*
X35886Y52674D01*
X35310Y54065D01*
X34393Y55259D01*
X33199Y56176D01*
X31808Y56752D01*
X30315Y56949D01*
D02*
G37*
G36*
X45276Y45079D02*
X44348Y44957D01*
X43484Y44599D01*
X42742Y44030D01*
X42172Y43288D01*
X41814Y42423D01*
X41692Y41496D01*
X41814Y40569D01*
X41965Y40204D01*
X35408Y33647D01*
X35099Y33184D01*
X34990Y32638D01*
X34990Y32638D01*
Y26884D01*
X34294Y26188D01*
X34064Y26283D01*
Y26283D01*
X34064Y26282D01*
X29321D01*
Y26068D01*
X28859Y25876D01*
X27663Y27073D01*
X27309Y27309D01*
Y27809D01*
X27663Y28045D01*
X28706Y29089D01*
X29321D01*
Y28232D01*
X34064D01*
Y32188D01*
X29321D01*
Y31332D01*
X28242D01*
X28242Y31332D01*
X27812Y31246D01*
X27448Y31003D01*
X26406Y29960D01*
X25077D01*
X24842Y30401D01*
X25120Y30818D01*
X25235Y31398D01*
X25120Y31977D01*
X24792Y32469D01*
X24779Y32602D01*
X27978Y35802D01*
X27978Y35802D01*
X28287Y36265D01*
X28396Y36811D01*
Y37681D01*
X29143D01*
Y42424D01*
X24794D01*
Y37681D01*
X25166D01*
X25358Y37219D01*
X22047Y33908D01*
X19882D01*
X19882Y33908D01*
X19336Y33799D01*
X18872Y33490D01*
X18872Y33490D01*
X18158Y32775D01*
X17862Y32716D01*
X17399Y32407D01*
X17399Y32407D01*
X12770Y27778D01*
X12461Y27315D01*
X12352Y26768D01*
X12352Y26768D01*
Y15355D01*
X8267Y11270D01*
X-984D01*
X-984Y11270D01*
X-1531Y11161D01*
X-1994Y10852D01*
X-1994Y10852D01*
X-6915Y5931D01*
X-7224Y5468D01*
X-7333Y4921D01*
X-7333Y4921D01*
Y-9399D01*
X-9439D01*
Y-8849D01*
X-14183D01*
Y-9399D01*
X-16141D01*
X-18676Y-6865D01*
X-19139Y-6555D01*
X-19214Y-6540D01*
X-19164Y-6043D01*
X-14183D01*
Y-6899D01*
X-9439D01*
Y-2943D01*
X-14183D01*
Y-3800D01*
X-36543D01*
X-38297Y-2046D01*
X-38105Y-1584D01*
X-32668D01*
Y1525D01*
X-25009D01*
Y975D01*
X-20266D01*
Y4931D01*
X-25009D01*
Y4380D01*
X-32668D01*
Y7490D01*
X-38986D01*
Y-704D01*
X-39448Y-895D01*
X-41723Y1380D01*
Y7490D01*
X-48041D01*
Y-1584D01*
X-41931D01*
X-37801Y-5714D01*
X-37801Y-5714D01*
X-37437Y-5957D01*
X-37534Y-6447D01*
X-42285D01*
X-42742Y-5852D01*
X-43484Y-5283D01*
X-44348Y-4924D01*
X-45276Y-4802D01*
X-46203Y-4924D01*
X-47067Y-5283D01*
X-47809Y-5852D01*
X-48379Y-6594D01*
X-48530Y-6958D01*
X-50709D01*
X-51255Y-7067D01*
X-51440Y-7191D01*
X-51718Y-7377D01*
X-51718Y-7377D01*
X-56128Y-11786D01*
X-56437Y-12249D01*
X-56546Y-12795D01*
X-56546Y-12795D01*
Y-38386D01*
X-56546Y-38386D01*
X-56437Y-38932D01*
X-56128Y-39395D01*
X-50250Y-45272D01*
X-50250Y-45272D01*
X-49787Y-45582D01*
X-49241Y-45690D01*
X-49241Y-45690D01*
X-36967D01*
X-36825Y-45719D01*
X-30562D01*
Y-51181D01*
X-30562Y-51181D01*
X-30453Y-51727D01*
X-30143Y-52190D01*
X-29931Y-52403D01*
Y-57884D01*
X-24400D01*
Y-55758D01*
X-22057D01*
Y-56506D01*
X-17462D01*
X-14691Y-59277D01*
X-14691Y-59277D01*
X-14413Y-59462D01*
X-14227Y-59587D01*
X-13681Y-59695D01*
X-13592D01*
Y-60836D01*
X-1762D01*
Y-55699D01*
X-13592D01*
X-13592Y-55699D01*
Y-55699D01*
X-14044Y-55886D01*
X-16609Y-53321D01*
X-17072Y-53012D01*
X-17313Y-52964D01*
Y-52156D01*
X-22057D01*
Y-52903D01*
X-24400D01*
Y-46447D01*
X-27707D01*
Y-44291D01*
Y-41742D01*
X-26565D01*
Y-39214D01*
X-26550Y-39198D01*
X-26550Y-39198D01*
X-26240Y-38735D01*
X-26132Y-38189D01*
X-26132Y-38189D01*
Y-31905D01*
X-24619D01*
Y-28346D01*
Y-24787D01*
X-26197D01*
Y-25187D01*
X-33277D01*
Y-27264D01*
X-41895D01*
X-42172Y-26594D01*
X-42742Y-25852D01*
X-43484Y-25282D01*
X-44348Y-24925D01*
X-45276Y-24802D01*
X-46203Y-24925D01*
X-47067Y-25282D01*
X-47809Y-25852D01*
X-48379Y-26594D01*
X-48737Y-27458D01*
X-48859Y-28386D01*
X-48737Y-29313D01*
X-48379Y-30178D01*
X-47809Y-30920D01*
X-47067Y-31489D01*
X-46203Y-31847D01*
X-45276Y-31969D01*
X-44348Y-31847D01*
X-43484Y-31489D01*
X-42742Y-30920D01*
X-42172Y-30178D01*
X-41895Y-29507D01*
X-33277D01*
Y-31506D01*
X-28986D01*
Y-36998D01*
X-30915D01*
Y-41742D01*
X-30562D01*
Y-42864D01*
X-36711D01*
X-36853Y-42836D01*
X-36853Y-42836D01*
X-48650D01*
X-53691Y-37795D01*
Y-13386D01*
X-50117Y-9813D01*
X-48530D01*
X-48379Y-10177D01*
X-47809Y-10920D01*
X-47067Y-11489D01*
X-46203Y-11847D01*
X-45276Y-11969D01*
X-44348Y-11847D01*
X-43484Y-11489D01*
X-42742Y-10920D01*
X-42172Y-10177D01*
X-41814Y-9313D01*
X-41813Y-9301D01*
X-33868D01*
Y-9852D01*
X-29321D01*
Y-6043D01*
X-27765D01*
Y-9852D01*
X-23219D01*
Y-9301D01*
X-20276D01*
X-17742Y-11836D01*
X-17742Y-11836D01*
X-17278Y-12145D01*
X-16732Y-12254D01*
X-14183D01*
Y-12805D01*
X-9439D01*
Y-12254D01*
X-1934D01*
X-1743Y-12716D01*
X-5749Y-16723D01*
X-8277D01*
Y-21072D01*
X-4256D01*
X-4065Y-21534D01*
X-4765Y-22235D01*
X-8277D01*
Y-26584D01*
X-3534D01*
Y-26584D01*
X-3444D01*
X-3090Y-26938D01*
Y-28079D01*
X-4136Y-29124D01*
X-6899D01*
Y-33868D01*
X-2943D01*
Y-31104D01*
X-1175Y-29336D01*
X-1175Y-29336D01*
X-932Y-28973D01*
X-847Y-28543D01*
X-847Y-28543D01*
Y-26055D01*
X483Y-24725D01*
X945Y-24916D01*
Y-27252D01*
X667Y-27668D01*
X552Y-28248D01*
Y-31594D01*
X667Y-32174D01*
X996Y-32666D01*
X1487Y-32994D01*
X2067Y-33109D01*
X2647Y-32994D01*
X3138Y-32666D01*
X3555D01*
X3716Y-32773D01*
X3763Y-33012D01*
X4006Y-33376D01*
X5404Y-34773D01*
X5768Y-35017D01*
X6197Y-35102D01*
X6197Y-35102D01*
X10732D01*
X10732Y-35102D01*
X11162Y-35017D01*
X11525Y-34773D01*
X12008Y-34291D01*
X18199D01*
Y-37805D01*
X25108D01*
Y-34291D01*
X30109D01*
Y-36919D01*
X33623D01*
Y-41240D01*
X33623Y-41240D01*
X33708Y-41669D01*
X33951Y-42033D01*
X36983Y-45065D01*
Y-47828D01*
X40939D01*
Y-43085D01*
X38175D01*
X35866Y-40776D01*
Y-36919D01*
X39380D01*
Y-30010D01*
X30109D01*
Y-32048D01*
X25108D01*
Y-28681D01*
X30217D01*
X30217Y-28681D01*
X30646Y-28595D01*
X31010Y-28352D01*
X34352Y-25010D01*
X40856D01*
Y-21496D01*
X49695D01*
Y-25009D01*
X56604D01*
Y-15739D01*
X49695D01*
Y-19252D01*
X40856D01*
Y-15739D01*
X33947D01*
Y-22242D01*
X29752Y-26438D01*
X25108D01*
Y-17313D01*
X22775D01*
Y-14773D01*
X26978D01*
Y-12010D01*
X28713Y-10275D01*
X33947D01*
Y-13789D01*
X40856D01*
Y-4518D01*
X38523D01*
Y-2775D01*
X39783D01*
Y1969D01*
X35433D01*
Y-2775D01*
X36280D01*
Y-4518D01*
X33947D01*
Y-8032D01*
X28248D01*
X27819Y-8117D01*
X27455Y-8360D01*
X26978Y-8042D01*
Y-4912D01*
X25728D01*
Y-2962D01*
X26978D01*
Y-1525D01*
X29921D01*
Y-2775D01*
X34271D01*
Y1671D01*
X35415Y2816D01*
X39595D01*
X49695Y-7285D01*
Y-13789D01*
X56199D01*
X57520Y-15110D01*
Y-25539D01*
X51062Y-31998D01*
X50600Y-31806D01*
Y-30010D01*
X41329D01*
Y-36919D01*
X50600D01*
Y-34586D01*
X51181D01*
X51181Y-34586D01*
X51610Y-34501D01*
X51974Y-34258D01*
X59435Y-26797D01*
X59435Y-26797D01*
X59678Y-26433D01*
X59763Y-26004D01*
X59763Y-26004D01*
Y-14646D01*
X59678Y-14217D01*
X59435Y-13853D01*
X59435Y-13853D01*
X56604Y-11022D01*
Y-4518D01*
X50100D01*
X40852Y4730D01*
X40488Y4973D01*
X40059Y5059D01*
X40059Y5059D01*
X34950D01*
X34950Y5059D01*
X34521Y4973D01*
X34157Y4730D01*
X31396Y1969D01*
X29921D01*
Y718D01*
X26978D01*
Y994D01*
X22235D01*
Y-2962D01*
X23485D01*
Y-4912D01*
X22235D01*
Y-8868D01*
X26294D01*
X26486Y-9330D01*
X24998Y-10817D01*
X22235D01*
Y-11674D01*
X20088D01*
Y-10817D01*
X16028D01*
X15837Y-10355D01*
X17325Y-8868D01*
X20088D01*
Y-4912D01*
X15345D01*
Y-7675D01*
X12379Y-10641D01*
X11917Y-10450D01*
Y2550D01*
X12805D01*
Y3800D01*
X22235D01*
Y2943D01*
X26978D01*
Y6899D01*
X22235D01*
Y6043D01*
X12805D01*
Y7293D01*
X8849D01*
Y2550D01*
X9674D01*
Y-10212D01*
X9164Y-10313D01*
X8673Y-10641D01*
X8487D01*
X8133Y-10288D01*
Y-6309D01*
X8868D01*
Y-1565D01*
X4912D01*
Y-6309D01*
X5890D01*
Y-8682D01*
X5419Y-8997D01*
X5419Y-8997D01*
X2895Y-6472D01*
X2962Y-6309D01*
X2962D01*
X2962Y-6309D01*
Y-1565D01*
X-994D01*
Y-6309D01*
X-105D01*
X-52Y-6577D01*
X191Y-6941D01*
X3274Y-10024D01*
X3200Y-10518D01*
X3063Y-10592D01*
X2647Y-10313D01*
X2067Y-10198D01*
X1487Y-10313D01*
X1203Y-10503D01*
X517Y-9817D01*
X54Y-9508D01*
X-492Y-9399D01*
X-492Y-9399D01*
X-4478D01*
Y4330D01*
X-393Y8415D01*
X8858D01*
X8858Y8415D01*
X9404Y8524D01*
X9868Y8833D01*
X14215Y13181D01*
X14656Y12945D01*
X14627Y12795D01*
X14627Y12795D01*
Y10334D01*
X14414Y10192D01*
X14005Y9580D01*
X13862Y8858D01*
X14005Y8136D01*
X14414Y7525D01*
X15026Y7116D01*
X15748Y6972D01*
X16470Y7116D01*
X17082Y7525D01*
X17491Y8136D01*
X17634Y8858D01*
X17491Y9580D01*
X17082Y10192D01*
X16870Y10334D01*
Y12331D01*
X17525Y12987D01*
X17768Y13350D01*
X17854Y13780D01*
X17854Y13780D01*
Y26570D01*
X18844Y27560D01*
X19231Y27243D01*
X18974Y26859D01*
X18859Y26280D01*
X18974Y25700D01*
X19303Y25208D01*
Y24792D01*
X18974Y24300D01*
X18859Y23720D01*
X18974Y23141D01*
X19303Y22649D01*
X19794Y22321D01*
X20374Y22206D01*
X20620D01*
Y20276D01*
X20620Y20276D01*
X20729Y19729D01*
X20753Y19692D01*
X20752Y19685D01*
X20895Y18963D01*
X21164Y18561D01*
X20928Y18120D01*
X20660D01*
Y13376D01*
X24616D01*
Y18120D01*
X24347D01*
X24112Y18561D01*
X24381Y18963D01*
X24524Y19685D01*
X24381Y20407D01*
X23972Y21019D01*
X23475Y21351D01*
Y22206D01*
X23720D01*
X24300Y22321D01*
X24792Y22649D01*
X25120Y23141D01*
X25235Y23720D01*
X25120Y24300D01*
X24842Y24717D01*
X25077Y25158D01*
X26406D01*
X28052Y23512D01*
X28052Y23511D01*
X28416Y23268D01*
X28845Y23183D01*
X28845Y23183D01*
X29321D01*
Y22327D01*
X34064D01*
Y22524D01*
X34418Y22877D01*
X34429D01*
X34429Y22877D01*
Y22877D01*
X34976Y22986D01*
X35439Y23295D01*
X37427Y25283D01*
X37427Y25283D01*
X37736Y25746D01*
X37845Y26292D01*
X37845Y26292D01*
Y32046D01*
X40861Y35063D01*
X41323Y34871D01*
Y32296D01*
X44476D01*
Y35449D01*
X41900D01*
X41709Y35911D01*
X43984Y38186D01*
X44348Y38035D01*
X45276Y37913D01*
X46203Y38035D01*
X47067Y38393D01*
X47809Y38962D01*
X48379Y39704D01*
X48737Y40569D01*
X48859Y41496D01*
X48737Y42423D01*
X48379Y43288D01*
X47809Y44030D01*
X47067Y44599D01*
X46203Y44957D01*
X45276Y45079D01*
D02*
G37*
G36*
X49228Y35449D02*
X46076D01*
Y32296D01*
X49228D01*
Y35449D01*
D02*
G37*
G36*
X34655Y42424D02*
X30305D01*
Y37681D01*
X30763D01*
X30812Y37183D01*
X30774Y37176D01*
X30162Y36767D01*
X29753Y36155D01*
X29610Y35433D01*
X29753Y34711D01*
X30162Y34099D01*
X30774Y33690D01*
X31496Y33547D01*
X32218Y33690D01*
X32830Y34099D01*
X33239Y34711D01*
X33349Y35268D01*
X33490Y35408D01*
X33799Y35871D01*
X33908Y36417D01*
X33908Y36417D01*
Y37681D01*
X34655D01*
Y42424D01*
D02*
G37*
G36*
X17901Y48413D02*
X16323D01*
Y46441D01*
X17901D01*
Y48413D01*
D02*
G37*
G36*
X17704Y57890D02*
X15929D01*
Y55918D01*
X17704D01*
Y57890D01*
D02*
G37*
G36*
X21079D02*
X19304D01*
Y55918D01*
X21079D01*
Y57890D01*
D02*
G37*
G36*
X-21644Y58474D02*
X-25600D01*
Y57224D01*
X-28091D01*
X-28091Y57224D01*
X-28520Y57139D01*
X-28884Y56895D01*
X-28884Y56895D01*
X-36518Y49261D01*
X-40324D01*
Y43258D01*
X-36380D01*
X-27175Y34053D01*
Y27943D01*
X-18101D01*
Y34261D01*
X-24211D01*
X-35542Y45592D01*
Y47065D01*
X-27626Y54981D01*
X-25600D01*
Y53731D01*
X-21644D01*
Y58474D01*
D02*
G37*
G36*
X21079Y48413D02*
X19501D01*
Y46441D01*
X21079D01*
Y48413D01*
D02*
G37*
G36*
X-15857Y49261D02*
X-20639D01*
Y47381D01*
X-22668D01*
Y49261D01*
X-27450D01*
Y43258D01*
X-22668D01*
Y45138D01*
X-20639D01*
Y43258D01*
X-15857D01*
Y49261D01*
D02*
G37*
G36*
X21079Y54318D02*
X15929D01*
Y52346D01*
X16323D01*
Y51984D01*
X16323D01*
Y50013D01*
X21079D01*
Y51984D01*
X21079D01*
X21079Y52346D01*
X21079Y52346D01*
Y52346D01*
Y54318D01*
D02*
G37*
G36*
X49228Y30696D02*
X46076D01*
Y27543D01*
X49228D01*
Y30696D01*
D02*
G37*
G36*
X30921Y18520D02*
X29343D01*
Y16548D01*
X30921D01*
Y18520D01*
D02*
G37*
G36*
X52181Y18203D02*
X49422D01*
Y14066D01*
X52181D01*
Y18203D01*
D02*
G37*
G36*
X27743Y18520D02*
X26165D01*
Y16548D01*
X27743D01*
Y18520D01*
D02*
G37*
G36*
X60836Y23540D02*
X54518D01*
Y14466D01*
X60836D01*
Y23540D01*
D02*
G37*
G36*
X6090Y18520D02*
X4512D01*
Y16548D01*
X6090D01*
Y18520D01*
D02*
G37*
G36*
X-18101Y25206D02*
X-27175D01*
Y18888D01*
X-18101D01*
Y25206D01*
D02*
G37*
G36*
X30921Y14948D02*
X29343D01*
Y12976D01*
X30921D01*
Y14948D01*
D02*
G37*
G36*
X44476Y30696D02*
X41323D01*
Y27543D01*
X44476D01*
Y30696D01*
D02*
G37*
G36*
X52181Y23940D02*
X49422D01*
Y19803D01*
X52181D01*
Y23940D01*
D02*
G37*
G36*
X47822D02*
X45063D01*
Y19803D01*
X47822D01*
Y23940D01*
D02*
G37*
G36*
Y18203D02*
X45063D01*
Y14066D01*
X47822D01*
Y18203D01*
D02*
G37*
%LPD*%
G36*
X10817Y37983D02*
X14627D01*
Y33929D01*
X9101Y28404D01*
X8660Y28640D01*
X8700Y28839D01*
X8585Y29418D01*
X8256Y29910D01*
Y30326D01*
X8585Y30818D01*
X8700Y31398D01*
X8585Y31977D01*
X8256Y32469D01*
X7765Y32797D01*
X7185Y32913D01*
X5583D01*
X5059Y33437D01*
Y37392D01*
X6309D01*
Y39233D01*
X10817D01*
Y37983D01*
D02*
G37*
G36*
X16439Y-28352D02*
X16439Y-28352D01*
X16803Y-28595D01*
X17232Y-28681D01*
X18199D01*
Y-32048D01*
X11563D01*
X11360Y-31801D01*
X11574Y-31349D01*
X13386D01*
X13386Y-31349D01*
X13419Y-31342D01*
X13780Y-31414D01*
X14501Y-31270D01*
X15113Y-30861D01*
X15522Y-30249D01*
X15666Y-29528D01*
X15522Y-28806D01*
X15113Y-28194D01*
X14501Y-27785D01*
X13780Y-27641D01*
X13058Y-27785D01*
X12446Y-28194D01*
X12245Y-28494D01*
X11259D01*
Y-28248D01*
X11144Y-27668D01*
X10815Y-27177D01*
X10324Y-26848D01*
X9744Y-26733D01*
X9164Y-26848D01*
X8748Y-27127D01*
X8307Y-26891D01*
Y-25422D01*
X8596Y-25365D01*
X9208Y-24956D01*
X9617Y-24344D01*
X9760Y-23622D01*
X9617Y-22900D01*
X9262Y-22369D01*
X9498Y-21928D01*
X10015D01*
X16439Y-28352D01*
D02*
G37*
G36*
X15345Y-11501D02*
Y-14773D01*
X20088D01*
Y-14773D01*
X20178D01*
X20532Y-15127D01*
Y-17313D01*
X18199D01*
Y-26438D01*
X17697D01*
X11273Y-20013D01*
X10909Y-19770D01*
X10480Y-19685D01*
X10480Y-19685D01*
X6051D01*
X5948Y-19616D01*
X5687Y-19298D01*
X5748Y-18996D01*
X5748Y-18996D01*
Y-17521D01*
X6226Y-17375D01*
X6392Y-17624D01*
X7278Y-18510D01*
X7278Y-18510D01*
X7642Y-18753D01*
X8071Y-18838D01*
X8071Y-18838D01*
X12795D01*
X13225Y-18753D01*
X13588Y-18510D01*
X13832Y-18146D01*
X13917Y-17717D01*
Y-12276D01*
X14883Y-11310D01*
X15345Y-11501D01*
D02*
G37*
D10*
X-10827Y-31496D02*
D03*
X-4921D02*
D03*
X38961Y-45457D02*
D03*
X44866D02*
D03*
X6890Y-3937D02*
D03*
X984D02*
D03*
X4921Y4921D02*
D03*
X10827D02*
D03*
X6890Y15748D02*
D03*
X984D02*
D03*
X28543D02*
D03*
X22638D02*
D03*
X12795Y40354D02*
D03*
X18701D02*
D03*
X18701Y49213D02*
D03*
X12795D02*
D03*
X-17717Y56102D02*
D03*
X-23622D02*
D03*
D11*
X15551Y-49213D02*
D03*
D12*
X-7677Y-58268D02*
D03*
Y-49213D02*
D03*
Y-40157D02*
D03*
D13*
X-20669Y-38583D02*
D03*
Y-44094D02*
D03*
X-19685Y-59842D02*
D03*
Y-54331D02*
D03*
X-16732Y-17913D02*
D03*
Y-23425D02*
D03*
X-5906Y-18898D02*
D03*
Y-24409D02*
D03*
D14*
X-34252Y-39370D02*
D03*
X-28740D02*
D03*
X32096Y-403D02*
D03*
X37608D02*
D03*
X18504Y55118D02*
D03*
X12992D02*
D03*
X5709D02*
D03*
X197D02*
D03*
X26969Y40053D02*
D03*
X32480D02*
D03*
D15*
X-37795Y-52165D02*
D03*
X-27165D02*
D03*
D16*
X-11811Y-4921D02*
D03*
Y-10827D02*
D03*
X-22638Y8858D02*
D03*
Y2953D02*
D03*
X24606Y-6890D02*
D03*
Y-12795D02*
D03*
X17717Y-12795D02*
D03*
Y-6890D02*
D03*
X24606Y-984D02*
D03*
Y4921D02*
D03*
X31693Y24305D02*
D03*
Y30210D02*
D03*
X3937Y39370D02*
D03*
Y45276D02*
D03*
D17*
X-23819Y-28346D02*
D03*
X-27559D02*
D03*
X-31299D02*
D03*
Y-18898D02*
D03*
X-27559D02*
D03*
X-23819D02*
D03*
D18*
X-31594Y-7874D02*
D03*
X-25492D02*
D03*
D19*
X34744Y-33465D02*
D03*
X45965D02*
D03*
D20*
X21654Y-21949D02*
D03*
Y-33169D02*
D03*
X37402Y-9154D02*
D03*
Y-20374D02*
D03*
X53150Y-20374D02*
D03*
Y-9154D02*
D03*
D21*
X9744Y-13386D02*
D03*
X7185D02*
D03*
X4626D02*
D03*
X2067D02*
D03*
X9744Y-29921D02*
D03*
X7185D02*
D03*
X4626D02*
D03*
X2067D02*
D03*
D22*
X22047Y23720D02*
D03*
Y26280D02*
D03*
Y28839D02*
D03*
Y31398D02*
D03*
X5512Y23720D02*
D03*
Y26280D02*
D03*
Y28839D02*
D03*
Y31398D02*
D03*
D23*
X-18248Y46260D02*
D03*
X-5374D02*
D03*
X-25059D02*
D03*
X-37933D02*
D03*
D24*
X-22638Y22047D02*
D03*
Y31102D02*
D03*
D25*
X-6890Y26575D02*
D03*
D26*
X-35827Y2953D02*
D03*
X-44882D02*
D03*
X48622Y19003D02*
D03*
X57677D02*
D03*
D27*
X-40354Y18701D02*
D03*
X53150Y3255D02*
D03*
D28*
X10827Y4921D02*
X24606D01*
X10827Y4921D02*
X10827Y4921D01*
X15748Y8858D02*
Y12795D01*
X16732Y13780D01*
X-45276Y-18386D02*
X-31811D01*
X-31299Y-18898D01*
X-45276Y-28386D02*
X-31339D01*
X-31299Y-28346D01*
X4626Y-18996D02*
Y-13386D01*
X-4921Y-31496D02*
X-1969Y-28543D01*
X-10827Y-31496D02*
Y-21850D01*
X-13780Y-18898D02*
X-10827Y-21850D01*
X-23819Y-18898D02*
X-13780D01*
X984Y-6148D02*
Y-3937D01*
Y-6148D02*
X4626Y-9790D01*
Y-13386D02*
Y-9790D01*
X-37008Y-4921D02*
X-10827D01*
X-44882Y2953D02*
X-37008Y-4921D01*
X6890Y-3937D02*
X7012Y-4059D01*
Y-13213D02*
Y-4059D01*
Y-13213D02*
X7185Y-13386D01*
Y-16831D02*
Y-13386D01*
X4626Y-29921D02*
X4799Y-30095D01*
X10795Y4890D02*
X10827Y4921D01*
X9744Y-13386D02*
X10795Y-12335D01*
Y4890D01*
X12795Y-17717D02*
Y-11811D01*
X17717Y-6890D01*
X10732Y-33980D02*
X11543Y-33169D01*
X21654D01*
X4799Y-32583D02*
Y-30095D01*
Y-32583D02*
X6197Y-33980D01*
X10732D01*
X7185Y-29921D02*
Y-24311D01*
X7874Y-23622D01*
X16732Y13780D02*
Y27034D01*
X18537Y28839D01*
X22047D01*
X-1969Y-28543D02*
Y-25591D01*
X4626Y-18996D01*
X2067Y-29921D02*
Y-24508D01*
X7185Y-16831D02*
X8071Y-17717D01*
X12795D01*
X24606Y-12795D02*
X24606Y-12795D01*
X21654Y-21949D02*
Y-12795D01*
X17717D02*
X21654D01*
X24606D01*
X28248Y-9154D02*
X37402D01*
X24606Y-12795D02*
X28248Y-9154D01*
X21654Y-33169D02*
X34449D01*
X34744Y-33465D01*
Y-41240D02*
Y-33465D01*
Y-41240D02*
X38961Y-45457D01*
X44866D02*
X62008Y-28315D01*
Y-5604D01*
X53150Y3255D02*
X62008Y-5604D01*
X53150Y-20374D02*
X53150Y-20374D01*
X37402Y-20374D02*
X53150D01*
X45965Y-33465D02*
X51181D01*
X58642Y-26004D01*
Y-14646D01*
X53150Y-9154D02*
X58642Y-14646D01*
X37402Y-9154D02*
Y-609D01*
X37608Y-403D01*
X32096Y1083D02*
X34950Y3937D01*
X32096Y-403D02*
Y1083D01*
X25187Y-403D02*
X32096D01*
X24606Y-984D02*
X25187Y-403D01*
X24606Y-6890D02*
Y-984D01*
Y-6890D02*
X24606Y-6890D01*
X30217Y-27559D02*
X37402Y-20374D01*
X17232Y-27559D02*
X30217D01*
X2067Y-24508D02*
X5768Y-20807D01*
X10480D01*
X17232Y-27559D01*
X34950Y3937D02*
X40059D01*
X53150Y-9154D01*
X0Y4921D02*
X4921D01*
X0Y4921D02*
X0Y4921D01*
X-14764Y15748D02*
X-7874Y8858D01*
X-37402Y15748D02*
X-14764D01*
X-40354Y18701D02*
X-37402Y15748D01*
X-6890Y26575D02*
X-4626Y28839D01*
X984Y15748D02*
Y28297D01*
X1526Y28839D02*
X5512D01*
X984Y28297D02*
X1526Y28839D01*
X-4626D02*
X1526D01*
X5512Y26280D02*
X8563D01*
X4921Y40354D02*
X12795D01*
X3937Y39370D02*
X4921Y40354D01*
X3937Y32972D02*
Y39370D01*
Y32972D02*
X5512Y31398D01*
X12795Y46260D02*
Y48228D01*
Y46260D02*
X15748Y43307D01*
Y33465D02*
Y43307D01*
X8563Y26280D02*
X15748Y33465D01*
X12795Y48228D02*
Y54921D01*
X12992Y55118D01*
X5709D02*
X12992D01*
X197Y49016D02*
Y55118D01*
Y49016D02*
X3937Y45276D01*
X-17717Y56102D02*
X-17717Y56102D01*
X-17717Y56102D02*
X-15216D01*
X-5374Y46260D01*
X1516Y39370D01*
X3937D01*
X-28091Y56102D02*
X-23622D01*
X-37933Y46260D02*
X-28091Y56102D01*
X-25059Y46260D02*
X-18248D01*
X-37795D02*
X-22638Y31102D01*
X-37933Y46260D02*
X-37795D01*
X28242Y30210D02*
X31693D01*
X26870Y28839D02*
X28242Y30210D01*
X22047Y28839D02*
X26870D01*
X28845Y24305D02*
X31693D01*
X26870Y26280D02*
X28845Y24305D01*
X22047Y26280D02*
X26870D01*
D29*
X-28740Y-39370D02*
X-27559Y-38189D01*
Y-28346D01*
X-29134Y-39764D02*
X-28740Y-39370D01*
X-25984Y-54331D02*
X-19685D01*
X-29134Y-51181D02*
X-25984Y-54331D01*
X-50709Y-8386D02*
X-45276D01*
X-55118Y-12795D02*
X-50709Y-8386D01*
X-55118Y-38386D02*
Y-12795D01*
Y-38386D02*
X-49241Y-44263D01*
X-36853D01*
X-36825Y-44291D01*
X-29134D01*
Y-51181D02*
Y-44291D01*
Y-39764D01*
X-13681Y-58268D02*
X-7677D01*
X-17618Y-54331D02*
X-13681Y-58268D01*
X-19685Y-54331D02*
X-17618D01*
X-5906Y-10827D02*
X-492D01*
X-5906Y-18898D02*
X787Y-12205D01*
Y-12106D01*
X-492Y-10827D02*
X787Y-12106D01*
X-25492Y-7874D02*
Y-7776D01*
X-44764Y-7874D02*
X-31594D01*
X-45276Y-8386D02*
X-44764Y-7874D01*
X-984Y9843D02*
X8858D01*
X18799Y31398D02*
X19882Y32480D01*
X-25492Y-7874D02*
X-19685D01*
X-16732Y-10827D01*
X-5906Y4921D02*
X-984Y9843D01*
X-5906Y-10827D02*
Y4921D01*
X-16732Y-10827D02*
X-5906D01*
X8858Y9843D02*
X13780Y14764D01*
X19882Y32480D02*
X22638D01*
X26969Y36811D02*
Y40053D01*
X22638Y32480D02*
X26969Y36811D01*
X13780Y14764D02*
Y26768D01*
X18409Y31398D01*
X18799D01*
X36417Y32638D02*
X45276Y41496D01*
X36417Y26292D02*
Y32638D01*
X34429Y24305D02*
X36417Y26292D01*
X31693Y24305D02*
X34429D01*
X18701Y40354D02*
X21654Y37402D01*
Y37402D02*
Y37402D01*
X22047Y20276D02*
X22638Y19685D01*
X22047Y20276D02*
Y23720D01*
X22638Y15748D02*
Y19685D01*
X22638Y19685D01*
X-35827Y2953D02*
X-22638D01*
Y8858D02*
X-17717D01*
X-16732Y7874D01*
X-35236Y-38386D02*
X-34252Y-39370D01*
X-45276Y-38386D02*
X-35236D01*
X-20669Y-38583D02*
X-17717Y-35630D01*
Y-35433D01*
X-19094Y-40157D02*
X-7677D01*
X-20669Y-38583D02*
X-19094Y-40157D01*
X-7677D02*
X1772D01*
X1969Y-40354D01*
X-19685Y-62008D02*
Y-59842D01*
Y-62008D02*
X-16732Y-64961D01*
X-16732Y-28543D02*
Y-23425D01*
X-5906Y-24409D02*
X-4921D01*
X-197Y-19685D01*
X-27559Y-18898D02*
Y-12795D01*
X-27559Y-12795D02*
X-27559Y-12795D01*
X9744Y-29921D02*
X13386D01*
X13780Y-29528D01*
X-43307Y-52165D02*
X-38386D01*
X-43307Y-48228D02*
X-42323Y-49213D01*
X-38386D01*
X-37795Y-49803D01*
Y-52165D02*
Y-49803D01*
X32480Y36417D02*
Y40053D01*
X31496Y35433D02*
X32480Y36417D01*
X5512Y23720D02*
X8366Y20866D01*
X9055D01*
X9252Y20669D01*
D30*
X45276Y41496D02*
D03*
X-45276Y-8386D02*
D03*
Y-18386D02*
D03*
Y-28386D02*
D03*
D31*
X45276Y31496D02*
D03*
X-45276Y-38386D02*
D03*
D32*
X15748Y8858D02*
D03*
X7874Y-23622D02*
D03*
X0Y4921D02*
D03*
X-7874Y8858D02*
D03*
X21654Y37402D02*
D03*
X22638Y19685D02*
D03*
X-16732Y7874D02*
D03*
X-17717Y-35433D02*
D03*
X1969Y-40354D02*
D03*
X-16732Y-64961D02*
D03*
X-16732Y-28543D02*
D03*
X-197Y-19685D02*
D03*
X-27559Y-12795D02*
D03*
X13780Y-29528D02*
D03*
X-43307Y-48228D02*
D03*
Y-52165D02*
D03*
X31496Y35433D02*
D03*
X9252Y20669D02*
D03*
D33*
X-59055Y0D02*
D03*
X29528Y-51143D02*
D03*
X30315Y51181D02*
D03*
M02*
