G04 (created by PCBNEW (2013-07-07 BZR 4022)-stable) date 12/7/2014 8:02:24 PM*
%MOIN*%
G04 Gerber Fmt 3.4, Leading zero omitted, Abs format*
%FSLAX34Y34*%
G01*
G70*
G90*
G04 APERTURE LIST*
%ADD10C,0.00590551*%
%ADD11C,0.00393701*%
G04 APERTURE END LIST*
G54D10*
G54D11*
X75879Y-49911D02*
X75879Y-50411D01*
X50879Y-49911D02*
X75879Y-49911D01*
X50879Y-50411D02*
X50879Y-49911D01*
X75879Y-50411D02*
X75879Y-68911D01*
X50879Y-68911D02*
X50879Y-50411D01*
X75879Y-68911D02*
X50879Y-68911D01*
M02*
