G04 start of page 8 for group 6 idx 6 *
G04 Title: (unknown), outline *
G04 Creator: pcb 20110918 *
G04 CreationDate: Fri 07 Mar 2014 07:56:38 PM GMT UTC *
G04 For: vince *
G04 Format: Gerber/RS-274X *
G04 PCB-Dimensions: 236220 354331 *
G04 PCB-Coordinate-Origin: lower left *
%MOIN*%
%FSLAX25Y25*%
%LNOUTLINE*%
%ADD69C,0.0250*%
G54D69*X197115Y91D02*Y27643D01*
X236475Y67003D01*
X39675Y91D02*Y27643D01*
Y91D02*X197115D01*
X315Y322843D02*X39675D01*
Y354331D01*
X197115D02*Y322843D01*
X236475D01*
X197115Y354331D02*X39675D01*
Y27643D02*X315Y67003D01*
X236475D02*Y322843D01*
X315D02*Y67003D01*
M02*
