%FSLAX24Y24*%
%MOIN*%
G70*
G01*
G75*
G04 Layer_Physical_Order=2*
G04 Layer_Color=16711680*
%ADD10R,0.0354X0.0276*%
%ADD11R,0.0354X0.0315*%
%ADD12R,0.0217X0.0512*%
%ADD13R,0.0236X0.0512*%
%ADD14R,0.0512X0.0217*%
%ADD15R,0.0276X0.0354*%
%ADD16R,0.0394X0.0217*%
%ADD17C,0.0300*%
%ADD18C,0.0200*%
%ADD19C,0.0630*%
%ADD20C,0.0709*%
%ADD21C,0.0492*%
%ADD22C,0.1063*%
%ADD23C,0.0882*%
%ADD24R,0.0866X0.0866*%
%ADD25C,0.0433*%
%ADD26C,0.0400*%
G36*
X24913Y10087D02*
X17994D01*
X17985Y10136D01*
X18009Y10146D01*
X18072Y10194D01*
X18120Y10257D01*
X18150Y10330D01*
X18155Y10368D01*
X17561D01*
X17566Y10330D01*
X17596Y10257D01*
X17644Y10194D01*
X17707Y10146D01*
X17731Y10136D01*
X17721Y10087D01*
X10087D01*
Y20663D01*
X24913D01*
Y10087D01*
D02*
G37*
%LPC*%
G36*
X13360Y12360D02*
X13086D01*
X13092Y12317D01*
X13124Y12240D01*
X13174Y12174D01*
X13240Y12124D01*
X13317Y12092D01*
X13360Y12086D01*
Y12360D01*
D02*
G37*
G36*
X16412Y12075D02*
Y11818D01*
X16670D01*
X16665Y11856D01*
X16634Y11929D01*
X16586Y11992D01*
X16524Y12040D01*
X16451Y12070D01*
X16412Y12075D01*
D02*
G37*
G36*
X11400Y12679D02*
X11328Y12669D01*
X11261Y12642D01*
X11203Y12597D01*
X11158Y12539D01*
X11131Y12472D01*
X11121Y12400D01*
X11131Y12328D01*
X11158Y12261D01*
X11203Y12203D01*
X11261Y12158D01*
X11328Y12131D01*
X11400Y12121D01*
X11472Y12131D01*
X11539Y12158D01*
X11597Y12203D01*
X11642Y12261D01*
X11669Y12328D01*
X11679Y12400D01*
X11669Y12472D01*
X11642Y12539D01*
X11597Y12597D01*
X11539Y12642D01*
X11472Y12669D01*
X11400Y12679D01*
D02*
G37*
G36*
X13714Y12360D02*
X13440D01*
Y12086D01*
X13483Y12092D01*
X13560Y12124D01*
X13626Y12174D01*
X13676Y12240D01*
X13708Y12317D01*
X13714Y12360D01*
D02*
G37*
G36*
X16332Y11738D02*
X16075D01*
X16080Y11699D01*
X16110Y11626D01*
X16158Y11564D01*
X16221Y11516D01*
X16294Y11485D01*
X16332Y11480D01*
Y11738D01*
D02*
G37*
G36*
X23900Y12168D02*
X23792Y12154D01*
X23691Y12112D01*
X23605Y12046D01*
X23538Y11959D01*
X23496Y11858D01*
X23482Y11750D01*
X23496Y11642D01*
X23538Y11541D01*
X23605Y11454D01*
X23691Y11388D01*
X23792Y11346D01*
X23900Y11332D01*
X24008Y11346D01*
X24109Y11388D01*
X24195Y11454D01*
X24262Y11541D01*
X24304Y11642D01*
X24318Y11750D01*
X24304Y11858D01*
X24262Y11959D01*
X24195Y12046D01*
X24109Y12112D01*
X24008Y12154D01*
X23900Y12168D01*
D02*
G37*
G36*
X16332Y12075D02*
X16294Y12070D01*
X16221Y12040D01*
X16158Y11992D01*
X16110Y11929D01*
X16080Y11856D01*
X16075Y11818D01*
X16332D01*
Y12075D01*
D02*
G37*
G36*
X16670Y11738D02*
X16412D01*
Y11480D01*
X16451Y11485D01*
X16524Y11516D01*
X16586Y11564D01*
X16634Y11626D01*
X16665Y11699D01*
X16670Y11738D01*
D02*
G37*
G36*
X14245Y12943D02*
Y12685D01*
X14502D01*
X14497Y12724D01*
X14467Y12797D01*
X14419Y12859D01*
X14356Y12907D01*
X14283Y12938D01*
X14245Y12943D01*
D02*
G37*
G36*
X14165D02*
X14126Y12938D01*
X14053Y12907D01*
X13991Y12859D01*
X13943Y12797D01*
X13912Y12724D01*
X13907Y12685D01*
X14165D01*
Y12943D01*
D02*
G37*
G36*
X18078Y15188D02*
X17962Y15177D01*
X17851Y15143D01*
X17748Y15088D01*
X17658Y15014D01*
X17584Y14924D01*
X17529Y14821D01*
X17495Y14710D01*
X17484Y14594D01*
X17495Y14478D01*
X17529Y14366D01*
X17584Y14263D01*
X17658Y14173D01*
X17748Y14100D01*
X17851Y14045D01*
X17962Y14011D01*
X18078Y13999D01*
X18194Y14011D01*
X18306Y14045D01*
X18409Y14100D01*
X18499Y14173D01*
X18573Y14263D01*
X18627Y14366D01*
X18661Y14478D01*
X18673Y14594D01*
X18661Y14710D01*
X18627Y14821D01*
X18573Y14924D01*
X18499Y15014D01*
X18409Y15088D01*
X18306Y15143D01*
X18194Y15177D01*
X18078Y15188D01*
D02*
G37*
G36*
X15550Y14271D02*
X15470Y14261D01*
X15396Y14230D01*
X15332Y14181D01*
X15283Y14117D01*
X15252Y14043D01*
X15241Y13963D01*
X15252Y13883D01*
X15283Y13808D01*
X15332Y13744D01*
X15396Y13695D01*
X15470Y13664D01*
X15550Y13654D01*
X15630Y13664D01*
X15704Y13695D01*
X15768Y13744D01*
X15817Y13808D01*
X15848Y13883D01*
X15859Y13963D01*
X15848Y14043D01*
X15817Y14117D01*
X15768Y14181D01*
X15704Y14230D01*
X15630Y14261D01*
X15550Y14271D01*
D02*
G37*
G36*
X14502Y12605D02*
X14245D01*
Y12348D01*
X14283Y12353D01*
X14356Y12383D01*
X14419Y12431D01*
X14467Y12494D01*
X14497Y12567D01*
X14502Y12605D01*
D02*
G37*
G36*
X14165D02*
X13907D01*
X13912Y12567D01*
X13943Y12494D01*
X13991Y12431D01*
X14053Y12383D01*
X14126Y12353D01*
X14165Y12348D01*
Y12605D01*
D02*
G37*
G36*
X13440Y12714D02*
Y12440D01*
X13714D01*
X13708Y12483D01*
X13676Y12560D01*
X13626Y12626D01*
X13560Y12676D01*
X13483Y12708D01*
X13440Y12714D01*
D02*
G37*
G36*
X13360D02*
X13317Y12708D01*
X13240Y12676D01*
X13174Y12626D01*
X13124Y12560D01*
X13092Y12483D01*
X13086Y12440D01*
X13360D01*
Y12714D01*
D02*
G37*
G36*
X17898Y10705D02*
Y10448D01*
X18155D01*
X18150Y10486D01*
X18120Y10559D01*
X18072Y10622D01*
X18009Y10670D01*
X17936Y10700D01*
X17898Y10705D01*
D02*
G37*
G36*
X17818D02*
X17780Y10700D01*
X17707Y10670D01*
X17644Y10622D01*
X17596Y10559D01*
X17566Y10486D01*
X17561Y10448D01*
X17818D01*
Y10705D01*
D02*
G37*
G36*
X22040Y10747D02*
Y10490D01*
X22297D01*
X22292Y10528D01*
X22262Y10601D01*
X22214Y10664D01*
X22151Y10712D01*
X22078Y10742D01*
X22040Y10747D01*
D02*
G37*
G36*
X21960D02*
X21922Y10742D01*
X21849Y10712D01*
X21786Y10664D01*
X21738Y10601D01*
X21708Y10528D01*
X21703Y10490D01*
X21960D01*
Y10747D01*
D02*
G37*
G36*
X22297Y10410D02*
X22040D01*
Y10153D01*
X22078Y10158D01*
X22151Y10188D01*
X22214Y10236D01*
X22262Y10299D01*
X22292Y10372D01*
X22297Y10410D01*
D02*
G37*
G36*
X21960D02*
X21703D01*
X21708Y10372D01*
X21738Y10299D01*
X21786Y10236D01*
X21849Y10188D01*
X21922Y10158D01*
X21960Y10153D01*
Y10410D01*
D02*
G37*
G36*
X23900Y11088D02*
X23812Y11077D01*
X23731Y11043D01*
X23661Y10989D01*
X23607Y10919D01*
X23573Y10838D01*
X23562Y10750D01*
X23573Y10662D01*
X23607Y10581D01*
X23661Y10511D01*
X23731Y10457D01*
X23812Y10423D01*
X23900Y10412D01*
X23988Y10423D01*
X24069Y10457D01*
X24139Y10511D01*
X24193Y10581D01*
X24227Y10662D01*
X24238Y10750D01*
X24227Y10838D01*
X24193Y10919D01*
X24139Y10989D01*
X24069Y11043D01*
X23988Y11077D01*
X23900Y11088D01*
D02*
G37*
G36*
X22900D02*
X22812Y11077D01*
X22731Y11043D01*
X22661Y10989D01*
X22607Y10919D01*
X22573Y10838D01*
X22562Y10750D01*
X22573Y10662D01*
X22607Y10581D01*
X22661Y10511D01*
X22731Y10457D01*
X22812Y10423D01*
X22900Y10412D01*
X22988Y10423D01*
X23069Y10457D01*
X23139Y10511D01*
X23193Y10581D01*
X23227Y10662D01*
X23238Y10750D01*
X23227Y10838D01*
X23193Y10919D01*
X23139Y10989D01*
X23069Y11043D01*
X22988Y11077D01*
X22900Y11088D01*
D02*
G37*
G36*
X21960Y11497D02*
X21922Y11492D01*
X21849Y11462D01*
X21786Y11414D01*
X21738Y11351D01*
X21708Y11278D01*
X21703Y11240D01*
X21960D01*
Y11497D01*
D02*
G37*
G36*
X12400Y11679D02*
X12328Y11669D01*
X12261Y11642D01*
X12203Y11597D01*
X12158Y11539D01*
X12131Y11472D01*
X12121Y11400D01*
X12131Y11328D01*
X12158Y11261D01*
X12203Y11203D01*
X12261Y11158D01*
X12328Y11131D01*
X12400Y11121D01*
X12472Y11131D01*
X12539Y11158D01*
X12597Y11203D01*
X12642Y11261D01*
X12669Y11328D01*
X12679Y11400D01*
X12669Y11472D01*
X12642Y11539D01*
X12597Y11597D01*
X12539Y11642D01*
X12472Y11669D01*
X12400Y11679D01*
D02*
G37*
G36*
X22900Y12168D02*
X22792Y12154D01*
X22691Y12112D01*
X22604Y12046D01*
X22538Y11959D01*
X22496Y11858D01*
X22482Y11750D01*
X22496Y11642D01*
X22538Y11541D01*
X22604Y11454D01*
X22691Y11388D01*
X22792Y11346D01*
X22900Y11332D01*
X23008Y11346D01*
X23109Y11388D01*
X23196Y11454D01*
X23262Y11541D01*
X23304Y11642D01*
X23318Y11750D01*
X23304Y11858D01*
X23262Y11959D01*
X23196Y12046D01*
X23109Y12112D01*
X23008Y12154D01*
X22900Y12168D01*
D02*
G37*
G36*
X22040Y11497D02*
Y11240D01*
X22297D01*
X22292Y11278D01*
X22262Y11351D01*
X22214Y11414D01*
X22151Y11462D01*
X22078Y11492D01*
X22040Y11497D01*
D02*
G37*
G36*
X16400Y11378D02*
X16302Y11365D01*
X16211Y11328D01*
X16133Y11267D01*
X16072Y11189D01*
X16035Y11098D01*
X16022Y11000D01*
X16035Y10902D01*
X16072Y10811D01*
X16133Y10733D01*
X16211Y10672D01*
X16302Y10635D01*
X16400Y10622D01*
X16498Y10635D01*
X16589Y10672D01*
X16667Y10733D01*
X16728Y10811D01*
X16765Y10902D01*
X16778Y11000D01*
X16765Y11098D01*
X16728Y11189D01*
X16667Y11267D01*
X16589Y11328D01*
X16498Y11365D01*
X16400Y11378D01*
D02*
G37*
G36*
X15400D02*
X15302Y11365D01*
X15211Y11328D01*
X15133Y11267D01*
X15072Y11189D01*
X15035Y11098D01*
X15022Y11000D01*
X15035Y10902D01*
X15072Y10811D01*
X15133Y10733D01*
X15211Y10672D01*
X15302Y10635D01*
X15400Y10622D01*
X15498Y10635D01*
X15589Y10672D01*
X15667Y10733D01*
X15728Y10811D01*
X15765Y10902D01*
X15778Y11000D01*
X15765Y11098D01*
X15728Y11189D01*
X15667Y11267D01*
X15589Y11328D01*
X15498Y11365D01*
X15400Y11378D01*
D02*
G37*
G36*
X22297Y11160D02*
X22040D01*
Y10903D01*
X22078Y10908D01*
X22151Y10938D01*
X22214Y10986D01*
X22262Y11049D01*
X22292Y11122D01*
X22297Y11160D01*
D02*
G37*
G36*
X21960D02*
X21703D01*
X21708Y11122D01*
X21738Y11049D01*
X21786Y10986D01*
X21849Y10938D01*
X21922Y10908D01*
X21960Y10903D01*
Y11160D01*
D02*
G37*
G36*
X20850Y15188D02*
X20734Y15177D01*
X20623Y15143D01*
X20520Y15088D01*
X20430Y15014D01*
X20356Y14924D01*
X20301Y14821D01*
X20267Y14710D01*
X20256Y14594D01*
X20267Y14478D01*
X20301Y14366D01*
X20356Y14263D01*
X20430Y14173D01*
X20520Y14100D01*
X20623Y14045D01*
X20734Y14011D01*
X20850Y13999D01*
X20966Y14011D01*
X21077Y14045D01*
X21180Y14100D01*
X21270Y14173D01*
X21344Y14263D01*
X21399Y14366D01*
X21433Y14478D01*
X21444Y14594D01*
X21433Y14710D01*
X21399Y14821D01*
X21344Y14924D01*
X21270Y15014D01*
X21180Y15088D01*
X21077Y15143D01*
X20966Y15177D01*
X20850Y15188D01*
D02*
G37*
G36*
X14660Y16860D02*
X14167D01*
Y16367D01*
X14660D01*
Y16860D01*
D02*
G37*
G36*
X13790Y16147D02*
Y15890D01*
X14047D01*
X14042Y15928D01*
X14012Y16001D01*
X13964Y16064D01*
X13901Y16112D01*
X13828Y16142D01*
X13790Y16147D01*
D02*
G37*
G36*
X14660Y17433D02*
X14167D01*
Y16940D01*
X14660D01*
Y17433D01*
D02*
G37*
G36*
X15233Y16860D02*
X14740D01*
Y16367D01*
X15233D01*
Y16860D01*
D02*
G37*
G36*
X13710Y15810D02*
X13453D01*
X13458Y15772D01*
X13488Y15699D01*
X13536Y15636D01*
X13599Y15588D01*
X13672Y15558D01*
X13710Y15553D01*
Y15810D01*
D02*
G37*
G36*
X12690Y15597D02*
Y15340D01*
X12947D01*
X12942Y15378D01*
X12912Y15451D01*
X12864Y15514D01*
X12801Y15562D01*
X12728Y15592D01*
X12690Y15597D01*
D02*
G37*
G36*
X13710Y16147D02*
X13672Y16142D01*
X13599Y16112D01*
X13536Y16064D01*
X13488Y16001D01*
X13458Y15928D01*
X13453Y15890D01*
X13710D01*
Y16147D01*
D02*
G37*
G36*
X14047Y15810D02*
X13790D01*
Y15553D01*
X13828Y15558D01*
X13901Y15588D01*
X13964Y15636D01*
X14012Y15699D01*
X14042Y15772D01*
X14047Y15810D01*
D02*
G37*
G36*
X14052Y19283D02*
X13559D01*
Y18790D01*
X14052D01*
Y19283D01*
D02*
G37*
G36*
X13479D02*
X12986D01*
Y18790D01*
X13479D01*
Y19283D01*
D02*
G37*
G36*
X24212Y19859D02*
X24081Y19842D01*
X23960Y19791D01*
X23855Y19711D01*
X23775Y19606D01*
X23724Y19484D01*
X23707Y19354D01*
X23724Y19223D01*
X23775Y19101D01*
X23855Y18996D01*
X23960Y18916D01*
X24081Y18865D01*
X24212Y18848D01*
X24343Y18865D01*
X24465Y18916D01*
X24569Y18996D01*
X24650Y19101D01*
X24700Y19223D01*
X24717Y19354D01*
X24700Y19484D01*
X24650Y19606D01*
X24569Y19711D01*
X24465Y19791D01*
X24343Y19842D01*
X24212Y19859D01*
D02*
G37*
G36*
X17488D02*
X17357Y19842D01*
X17235Y19791D01*
X17131Y19711D01*
X17050Y19606D01*
X17000Y19484D01*
X16983Y19354D01*
X17000Y19223D01*
X17050Y19101D01*
X17131Y18996D01*
X17235Y18916D01*
X17357Y18865D01*
X17488Y18848D01*
X17619Y18865D01*
X17740Y18916D01*
X17845Y18996D01*
X17925Y19101D01*
X17976Y19223D01*
X17993Y19354D01*
X17976Y19484D01*
X17925Y19606D01*
X17845Y19711D01*
X17740Y19791D01*
X17619Y19842D01*
X17488Y19859D01*
D02*
G37*
G36*
X13479Y18710D02*
X12986D01*
Y18217D01*
X13479D01*
Y18710D01*
D02*
G37*
G36*
X15233Y17433D02*
X14740D01*
Y16940D01*
X15233D01*
Y17433D01*
D02*
G37*
G36*
X16374Y19243D02*
X15388D01*
Y18257D01*
X16374D01*
Y19243D01*
D02*
G37*
G36*
X14052Y18710D02*
X13559D01*
Y18217D01*
X14052D01*
Y18710D01*
D02*
G37*
G36*
X12610Y15597D02*
X12572Y15592D01*
X12499Y15562D01*
X12436Y15514D01*
X12388Y15451D01*
X12358Y15378D01*
X12353Y15340D01*
X12610D01*
Y15597D01*
D02*
G37*
G36*
X11560Y14760D02*
X11303D01*
X11308Y14722D01*
X11338Y14649D01*
X11386Y14586D01*
X11449Y14538D01*
X11522Y14508D01*
X11560Y14503D01*
Y14760D01*
D02*
G37*
G36*
X16947Y14710D02*
X16690D01*
Y14453D01*
X16728Y14458D01*
X16801Y14488D01*
X16864Y14536D01*
X16912Y14599D01*
X16942Y14672D01*
X16947Y14710D01*
D02*
G37*
G36*
X15510Y15094D02*
X15460Y15087D01*
X15375Y15052D01*
X15303Y14997D01*
X15248Y14925D01*
X15213Y14840D01*
X15206Y14790D01*
X15510D01*
Y15094D01*
D02*
G37*
G36*
X11897Y14760D02*
X11640D01*
Y14503D01*
X11678Y14508D01*
X11751Y14538D01*
X11814Y14586D01*
X11862Y14649D01*
X11892Y14722D01*
X11897Y14760D01*
D02*
G37*
G36*
X15510Y14710D02*
X15206D01*
X15213Y14660D01*
X15248Y14575D01*
X15303Y14503D01*
X15375Y14448D01*
X15460Y14413D01*
X15510Y14406D01*
Y14710D01*
D02*
G37*
G36*
X23622Y15188D02*
X23506Y15177D01*
X23394Y15143D01*
X23291Y15088D01*
X23201Y15014D01*
X23127Y14924D01*
X23073Y14821D01*
X23039Y14710D01*
X23027Y14594D01*
X23039Y14478D01*
X23073Y14366D01*
X23127Y14263D01*
X23201Y14173D01*
X23291Y14100D01*
X23394Y14045D01*
X23506Y14011D01*
X23622Y13999D01*
X23738Y14011D01*
X23849Y14045D01*
X23952Y14100D01*
X24042Y14173D01*
X24116Y14263D01*
X24171Y14366D01*
X24205Y14478D01*
X24216Y14594D01*
X24205Y14710D01*
X24171Y14821D01*
X24116Y14924D01*
X24042Y15014D01*
X23952Y15088D01*
X23849Y15143D01*
X23738Y15177D01*
X23622Y15188D01*
D02*
G37*
G36*
X16610Y14710D02*
X16353D01*
X16358Y14672D01*
X16388Y14599D01*
X16436Y14536D01*
X16499Y14488D01*
X16572Y14458D01*
X16610Y14453D01*
Y14710D01*
D02*
G37*
G36*
X15894Y14710D02*
X15590D01*
Y14406D01*
X15640Y14413D01*
X15725Y14448D01*
X15797Y14503D01*
X15852Y14575D01*
X15887Y14660D01*
X15894Y14710D01*
D02*
G37*
G36*
X12610Y15260D02*
X12353D01*
X12358Y15222D01*
X12388Y15149D01*
X12436Y15086D01*
X12499Y15038D01*
X12572Y15008D01*
X12610Y15003D01*
Y15260D01*
D02*
G37*
G36*
X11640Y15097D02*
Y14840D01*
X11897D01*
X11892Y14878D01*
X11862Y14951D01*
X11814Y15014D01*
X11751Y15062D01*
X11678Y15092D01*
X11640Y15097D01*
D02*
G37*
G36*
X15550Y15846D02*
X15470Y15836D01*
X15396Y15805D01*
X15332Y15756D01*
X15283Y15692D01*
X15252Y15617D01*
X15241Y15537D01*
X15252Y15458D01*
X15283Y15383D01*
X15332Y15319D01*
X15396Y15270D01*
X15470Y15239D01*
X15550Y15229D01*
X15630Y15239D01*
X15704Y15270D01*
X15768Y15319D01*
X15817Y15383D01*
X15848Y15458D01*
X15859Y15537D01*
X15848Y15617D01*
X15817Y15692D01*
X15768Y15756D01*
X15704Y15805D01*
X15630Y15836D01*
X15550Y15846D01*
D02*
G37*
G36*
X12947Y15260D02*
X12690D01*
Y15003D01*
X12728Y15008D01*
X12801Y15038D01*
X12864Y15086D01*
X12912Y15149D01*
X12942Y15222D01*
X12947Y15260D01*
D02*
G37*
G36*
X16610Y15047D02*
X16572Y15042D01*
X16499Y15012D01*
X16436Y14964D01*
X16388Y14901D01*
X16358Y14828D01*
X16353Y14790D01*
X16610D01*
Y15047D01*
D02*
G37*
G36*
X15590Y15094D02*
Y14790D01*
X15894D01*
X15887Y14840D01*
X15852Y14925D01*
X15797Y14997D01*
X15725Y15052D01*
X15640Y15087D01*
X15590Y15094D01*
D02*
G37*
G36*
X11560Y15097D02*
X11522Y15092D01*
X11449Y15062D01*
X11386Y15014D01*
X11338Y14951D01*
X11308Y14878D01*
X11303Y14840D01*
X11560D01*
Y15097D01*
D02*
G37*
G36*
X16690Y15047D02*
Y14790D01*
X16947D01*
X16942Y14828D01*
X16912Y14901D01*
X16864Y14964D01*
X16801Y15012D01*
X16728Y15042D01*
X16690Y15047D01*
D02*
G37*
%LPD*%
D19*
X16400Y11000D02*
D03*
X15400D02*
D03*
D20*
X23900Y11750D02*
D03*
X22900D02*
D03*
D21*
X15550Y15537D02*
D03*
Y14750D02*
D03*
Y13963D02*
D03*
D22*
X18078Y14594D02*
D03*
X23622D02*
D03*
X20850D02*
D03*
D23*
X17488Y19354D02*
D03*
X24212D02*
D03*
D24*
X15881Y18750D02*
D03*
X13519D02*
D03*
X14700Y16900D02*
D03*
D25*
X11400Y12400D02*
D03*
X12400Y11400D02*
D03*
X13400Y12400D02*
D03*
D26*
X22000Y11200D02*
D03*
Y10450D02*
D03*
X16650Y14750D02*
D03*
X12650Y15300D02*
D03*
X11600Y14800D02*
D03*
X14205Y12645D02*
D03*
X16372Y11778D02*
D03*
X17858Y10408D02*
D03*
X13750Y15850D02*
D03*
M02*
