G04 start of page 12 for group -4015 idx -4015 *
G04 Title: Power Board, toppaste *
G04 Creator: pcb 1.99z *
G04 CreationDate: Thu 09 Sep 2010 23:06:34 GMT UTC *
G04 For: rbarlow *
G04 Format: Gerber/RS-274X *
G04 PCB-Dimensions: 653543 393701 *
G04 PCB-Coordinate-Origin: lower left *
%MOIN*%
%FSLAX25Y25*%
%LNFRONTPASTE*%
%ADD11C,0.0200*%
%ADD32R,0.0283X0.0283*%
%ADD33R,0.0118X0.0118*%
%ADD34R,0.0340X0.0340*%
%ADD35R,0.0315X0.0315*%
%ADD36R,0.0630X0.0630*%
%ADD37R,0.0290X0.0290*%
%ADD38R,0.0551X0.0551*%
%ADD39R,0.0600X0.0600*%
%ADD40R,0.0512X0.0512*%
%ADD41R,0.0433X0.0433*%
%ADD42R,0.0240X0.0240*%
%ADD43R,0.0690X0.0690*%
%ADD44R,0.0197X0.0197*%
%ADD45R,0.0433X0.0433*%
%ADD46R,0.0276X0.0276*%
%ADD47R,0.0130X0.0130*%
%ADD48R,0.2453X0.2453*%
%ADD49R,0.0709X0.0709*%
%ADD50R,0.0150X0.0150*%
%ADD51R,0.0200X0.0200*%
%ADD53R,0.0110X0.0110*%
%ADD54R,0.1693X0.1693*%
%ADD55R,0.0560X0.0560*%
%ADD56R,0.1220X0.1220*%
G54D42*X558694Y155943D02*Y154343D01*
X566494Y155943D02*Y154343D01*
Y164143D02*Y162543D01*
X562594Y164143D02*Y162543D01*
X558694Y164143D02*Y162543D01*
X134240Y287476D02*X135840D01*
X134240Y291376D02*X135840D01*
X134240Y295276D02*X135840D01*
X126040D02*X127640D01*
X126040Y291376D02*X127640D01*
X126040Y287476D02*X127640D01*
G54D40*X125984Y27558D02*Y22048D01*
X137794Y27558D02*Y22048D01*
X51968Y92127D02*Y89765D01*
X40158Y92127D02*Y89765D01*
G54D33*X100788Y285159D02*Y280710D01*
X102757Y285159D02*Y280710D01*
X104725Y285159D02*Y280710D01*
X106694Y285159D02*Y280710D01*
G54D44*X92363Y281103D02*X98032D01*
G54D45*X90749Y277954D02*X96851D01*
G54D46*X95473Y274450D02*X97639D01*
G54D44*X109450Y281103D02*X115158D01*
G54D45*X110631Y277954D02*X116733D01*
G54D46*X109843Y274450D02*X112009D01*
G54D32*X109843Y39461D02*Y38493D01*
X115677Y39461D02*Y38493D01*
X133768Y52685D02*X134736D01*
X133768Y46851D02*X134736D01*
X133768Y41733D02*X134736D01*
X133768Y35899D02*X134736D01*
G54D34*X117810Y54651D02*X118410D01*
X117810Y46851D02*X118410D01*
X126010Y50751D02*X126610D01*
X109543Y46851D02*X110143D01*
X109543Y54651D02*X110143D01*
X101343Y50751D02*X101943D01*
G54D40*X317716Y372048D02*Y369686D01*
X305906Y372048D02*Y369686D01*
G54D39*X506208Y210385D02*Y206149D01*
X494488Y210385D02*Y206149D01*
G54D32*X271957Y252202D02*X272925D01*
X271957Y258036D02*X272925D01*
X381800Y282749D02*X382768D01*
X381800Y288583D02*X382768D01*
X249535Y63870D02*Y62902D01*
X243701Y63870D02*Y62902D01*
X318020Y306926D02*X318988D01*
X318020Y312760D02*X318988D01*
X291500Y243004D02*Y242036D01*
X285666Y243004D02*Y242036D01*
X288118Y302453D02*Y301485D01*
X282284Y302453D02*Y301485D01*
X486524Y205351D02*X487492D01*
X486524Y211185D02*X487492D01*
G54D37*X151582Y115905D02*X152182D01*
X151582Y121005D02*X152182D01*
X144582Y118505D02*X145182D01*
G54D32*X220312Y57177D02*Y56209D01*
X226146Y57177D02*Y56209D01*
X327469Y295509D02*X328437D01*
X327469Y301343D02*X328437D01*
X46367Y308107D02*X47335D01*
X46367Y313941D02*X47335D01*
X327469Y306926D02*X328437D01*
X327469Y312760D02*X328437D01*
X610146Y239603D02*X611114D01*
X610146Y245437D02*X611114D01*
G54D51*X209715Y78347D02*X216215D01*
X209715Y73347D02*X216215D01*
X209715Y68347D02*X216215D01*
X209715Y63347D02*X216215D01*
X230215D02*X236715D01*
X230215Y68347D02*X236715D01*
X230215Y73347D02*X236715D01*
X230215Y78347D02*X236715D01*
G54D32*X249535Y78831D02*Y77863D01*
X243701Y78831D02*Y77863D01*
X249535Y71350D02*Y70382D01*
X243701Y71350D02*Y70382D01*
X290855Y354564D02*X291823D01*
X290855Y360398D02*X291823D01*
G54D39*X506254Y167079D02*Y162843D01*
X494534Y167079D02*Y162843D01*
X27998Y313142D02*Y308906D01*
X39718Y313142D02*Y308906D01*
G54D32*X318020Y295509D02*X318988D01*
X318020Y301343D02*X318988D01*
X205028Y363619D02*X205996D01*
X205028Y369453D02*X205996D01*
G54D34*X48058Y229565D02*X48658D01*
X48058Y237365D02*X48658D01*
X39858Y233465D02*X40458D01*
G54D40*X51968Y102756D02*Y100394D01*
X40158Y102756D02*Y100394D01*
G54D32*X610146Y221887D02*X611114D01*
X610146Y227721D02*X611114D01*
X275894Y308268D02*X276862D01*
X275894Y314102D02*X276862D01*
G54D34*X59217Y161381D02*X59817D01*
X59217Y153581D02*X59817D01*
X67417Y157481D02*X68017D01*
X48845Y153581D02*X49445D01*
X48845Y161381D02*X49445D01*
X40645Y157481D02*X41245D01*
X82640Y100627D02*Y100027D01*
X74840Y100627D02*Y100027D01*
X78740Y92427D02*Y91827D01*
G54D32*X36918Y209449D02*X37886D01*
X36918Y215283D02*X37886D01*
G54D34*X74840Y110605D02*Y110005D01*
X82640Y110605D02*Y110005D01*
X78740Y118805D02*Y118205D01*
G54D37*X28047Y192932D02*X28647D01*
X28047Y198032D02*X28647D01*
X21047Y195532D02*X21647D01*
G54D43*X105536Y306112D02*Y304912D01*
X116536Y306112D02*Y304912D01*
G54D32*X166052Y121028D02*X167020D01*
X166052Y115194D02*X167020D01*
X35201Y118989D02*Y118021D01*
X29367Y118989D02*Y118021D01*
X282356Y315052D02*Y314084D01*
X288190Y315052D02*Y314084D01*
X23229Y118989D02*Y118021D01*
X17395Y118989D02*Y118021D01*
X35362Y204815D02*Y203847D01*
X29528Y204815D02*Y203847D01*
G54D34*X57642Y237365D02*X58242D01*
X57642Y229565D02*X58242D01*
X65842Y233465D02*X66442D01*
G54D32*X44417Y195760D02*Y194792D01*
X38583Y195760D02*Y194792D01*
G54D40*X25197Y137007D02*X27559D01*
X25197Y125197D02*X27559D01*
X36615Y137007D02*X38977D01*
X36615Y125197D02*X38977D01*
G54D32*X91804Y132374D02*Y131406D01*
X97638Y132374D02*Y131406D01*
X91804Y126469D02*Y125501D01*
X97638Y126469D02*Y125501D01*
X282356Y329225D02*Y328257D01*
X288190Y329225D02*Y328257D01*
X35343Y163225D02*X36311D01*
X35343Y169059D02*X36311D01*
G54D37*X222054Y115511D02*X222654D01*
X222054Y120611D02*X222654D01*
X215054Y118111D02*X215654D01*
G54D32*X206996Y115194D02*X207964D01*
X206996Y121028D02*X207964D01*
X376288Y294417D02*X377256D01*
X376288Y288583D02*X377256D01*
X369989Y300323D02*X370957D01*
X369989Y294489D02*X370957D01*
X286130Y258036D02*X287098D01*
X286130Y252202D02*X287098D01*
G54D37*X316543Y76534D02*X317143D01*
X316543Y81634D02*X317143D01*
X309543Y79134D02*X310143D01*
G54D32*X324713Y82051D02*X325681D01*
X324713Y76217D02*X325681D01*
G54D34*X434289Y109423D02*Y108823D01*
X442089Y109423D02*Y108823D01*
X438189Y117623D02*Y117023D01*
G54D32*X286130Y269059D02*X287098D01*
X286130Y263225D02*X287098D01*
X271957Y269059D02*X272925D01*
X271957Y263225D02*X272925D01*
G54D39*X29043Y168260D02*Y164024D01*
X17323Y168260D02*Y164024D01*
G54D32*X419201Y278025D02*X420169D01*
X419201Y283859D02*X420169D01*
G54D34*X48846Y170510D02*X49446D01*
X48846Y178310D02*X49446D01*
X40646Y174410D02*X41246D01*
X59217Y178310D02*X59817D01*
X59217Y170510D02*X59817D01*
X67417Y174410D02*X68017D01*
G54D32*X279044Y270240D02*X280012D01*
X279044Y264406D02*X280012D01*
G54D47*X97440Y166868D02*Y162262D01*
X94881Y166868D02*Y162262D01*
X92322Y166868D02*Y162262D01*
X89763Y166868D02*Y162262D01*
X87205Y166868D02*Y162262D01*
X84646Y166868D02*Y162262D01*
X82087Y166868D02*Y162262D01*
X79528Y166868D02*Y162262D01*
Y143640D02*Y139034D01*
X82087Y143640D02*Y139034D01*
X84646Y143640D02*Y139034D01*
X87205Y143640D02*Y139034D01*
X89763Y143640D02*Y139034D01*
X92322Y143640D02*Y139034D01*
X94881Y143640D02*Y139034D01*
X97440Y143640D02*Y139034D01*
G54D39*X629876Y226922D02*Y222686D01*
X618156Y226922D02*Y222686D01*
G54D32*X44005Y189764D02*X44973D01*
X44005Y183930D02*X44973D01*
X23157Y204815D02*Y203847D01*
X17323Y204815D02*Y203847D01*
X40945Y204815D02*Y203847D01*
X46779Y204815D02*Y203847D01*
G54D40*X456299Y117716D02*Y116930D01*
X449213Y117716D02*Y116930D01*
G54D32*X447638Y163477D02*Y162509D01*
X453472Y163477D02*Y162509D01*
G54D38*X481103Y135040D02*X483859D01*
X481103Y152756D02*X483859D01*
X516929Y135040D02*X519685D01*
X516929Y152756D02*X519685D01*
G54D32*X463708Y158359D02*Y157391D01*
X457874Y158359D02*Y157391D01*
X407784Y288655D02*X408752D01*
X407784Y294489D02*X408752D01*
X555548Y137493D02*Y136525D01*
X561382Y137493D02*Y136525D01*
G54D11*G36*
X270108Y241213D02*X274283Y237037D01*
X273447Y236202D01*
X269272Y240378D01*
X270108Y241213D01*
G37*
G36*
X268716Y239822D02*X272892Y235645D01*
X272056Y234810D01*
X267880Y238987D01*
X268716Y239822D01*
G37*
G36*
X267324Y238429D02*X271499Y234253D01*
X270663Y233418D01*
X266488Y237594D01*
X267324Y238429D01*
G37*
G36*
X265931Y237038D02*X270108Y232863D01*
X269273Y232027D01*
X265096Y236202D01*
X265931Y237038D01*
G37*
G36*
X264540Y235646D02*X268715Y231469D01*
X267879Y230634D01*
X263704Y234811D01*
X264540Y235646D01*
G37*
G36*
X263147Y234254D02*X267324Y230079D01*
X266489Y229243D01*
X262312Y233418D01*
X263147Y234254D01*
G37*
G36*
X261756Y232862D02*X265932Y228685D01*
X265096Y227850D01*
X260920Y232027D01*
X261756Y232862D01*
G37*
G36*
X260365Y231470D02*X264540Y227294D01*
X263704Y226459D01*
X259529Y230635D01*
X260365Y231470D01*
G37*
G36*
X258972Y230078D02*X263148Y225901D01*
X262312Y225066D01*
X258136Y229243D01*
X258972Y230078D01*
G37*
G36*
X257581Y228686D02*X261756Y224510D01*
X260920Y223675D01*
X256745Y227851D01*
X257581Y228686D01*
G37*
G36*
X256187Y227294D02*X260364Y223119D01*
X259529Y222283D01*
X255352Y226458D01*
X256187Y227294D01*
G37*
G36*
X254797Y225902D02*X258972Y221726D01*
X258136Y220891D01*
X253961Y225067D01*
X254797Y225902D01*
G37*
G36*
X253405Y224511D02*X257581Y220334D01*
X256745Y219499D01*
X252569Y223676D01*
X253405Y224511D01*
G37*
G36*
X252014Y223119D02*X256189Y218943D01*
X255353Y218108D01*
X251178Y222284D01*
X252014Y223119D01*
G37*
G36*
X250620Y221727D02*X254797Y217552D01*
X253962Y216716D01*
X249785Y220891D01*
X250620Y221727D01*
G37*
G36*
X249230Y220335D02*X253405Y216159D01*
X252569Y215324D01*
X248394Y219500D01*
X249230Y220335D01*
G37*
G36*
X247836Y218943D02*X252013Y214768D01*
X251178Y213932D01*
X247001Y218107D01*
X247836Y218943D01*
G37*
G36*
X246446Y217551D02*X250621Y213375D01*
X249785Y212540D01*
X245610Y216716D01*
X246446Y217551D01*
G37*
G36*
X245054Y216159D02*X249229Y211983D01*
X248393Y211148D01*
X244218Y215324D01*
X245054Y216159D01*
G37*
G36*
X243662Y214768D02*X247837Y210591D01*
X247001Y209756D01*
X242826Y213933D01*
X243662Y214768D01*
G37*
G36*
X242270Y213375D02*X246445Y209199D01*
X245609Y208364D01*
X241434Y212540D01*
X242270Y213375D01*
G37*
G36*
X240878Y211984D02*X245054Y207807D01*
X244218Y206972D01*
X240042Y211149D01*
X240878Y211984D01*
G37*
G36*
X239486Y210591D02*X243661Y206415D01*
X242825Y205580D01*
X238650Y209756D01*
X239486Y210591D01*
G37*
G36*
X238094Y209200D02*X242270Y205023D01*
X241434Y204188D01*
X237258Y208365D01*
X238094Y209200D01*
G37*
G36*
X259251Y188043D02*X263426Y183867D01*
X262590Y183032D01*
X258415Y187208D01*
X259251Y188043D01*
G37*
G36*
X260642Y189435D02*X264818Y185258D01*
X263982Y184423D01*
X259806Y188600D01*
X260642Y189435D01*
G37*
G36*
X262035Y190827D02*X266210Y186651D01*
X265374Y185816D01*
X261199Y189992D01*
X262035Y190827D01*
G37*
G36*
X263426Y192219D02*X267602Y188042D01*
X266766Y187207D01*
X262590Y191384D01*
X263426Y192219D01*
G37*
G36*
X264819Y193611D02*X268994Y189435D01*
X268158Y188600D01*
X263983Y192776D01*
X264819Y193611D01*
G37*
G36*
X266210Y195003D02*X270386Y190826D01*
X269550Y189991D01*
X265374Y194168D01*
X266210Y195003D01*
G37*
G36*
X267603Y196395D02*X271778Y192218D01*
X270942Y191383D01*
X266767Y195560D01*
X267603Y196395D01*
G37*
G36*
X268994Y197786D02*X273169Y193610D01*
X272333Y192775D01*
X268158Y196951D01*
X268994Y197786D01*
G37*
G36*
X270386Y199179D02*X274562Y195002D01*
X273726Y194167D01*
X269550Y198344D01*
X270386Y199179D01*
G37*
G36*
X271778Y200570D02*X275953Y196394D01*
X275117Y195559D01*
X270942Y199735D01*
X271778Y200570D01*
G37*
G36*
X273170Y201963D02*X277346Y197786D01*
X276510Y196951D01*
X272334Y201128D01*
X273170Y201963D01*
G37*
G36*
X274562Y203354D02*X278737Y199178D01*
X277901Y198343D01*
X273726Y202519D01*
X274562Y203354D01*
G37*
G36*
X275953Y204746D02*X280129Y200569D01*
X279293Y199734D01*
X275117Y203911D01*
X275953Y204746D01*
G37*
G36*
X277345Y206137D02*X281520Y201961D01*
X280684Y201126D01*
X276509Y205302D01*
X277345Y206137D01*
G37*
G36*
X278737Y207530D02*X282913Y203353D01*
X282077Y202518D01*
X277901Y206695D01*
X278737Y207530D01*
G37*
G36*
X280129Y208921D02*X284304Y204745D01*
X283468Y203910D01*
X279293Y208086D01*
X280129Y208921D01*
G37*
G36*
X281521Y210314D02*X285697Y206137D01*
X284861Y205302D01*
X280685Y209479D01*
X281521Y210314D01*
G37*
G36*
X282913Y211705D02*X287088Y207529D01*
X286252Y206694D01*
X282077Y210870D01*
X282913Y211705D01*
G37*
G36*
X284305Y213097D02*X288480Y208921D01*
X287644Y208086D01*
X283469Y212262D01*
X284305Y213097D01*
G37*
G36*
X285697Y214489D02*X289872Y210313D01*
X289036Y209478D01*
X284861Y213654D01*
X285697Y214489D01*
G37*
G36*
X287089Y215881D02*X291264Y211705D01*
X290428Y210870D01*
X286253Y215046D01*
X287089Y215881D01*
G37*
G36*
X288481Y217273D02*X292656Y213096D01*
X291820Y212261D01*
X287645Y216438D01*
X288481Y217273D01*
G37*
G36*
X289873Y218665D02*X294048Y214489D01*
X293212Y213654D01*
X289037Y217830D01*
X289873Y218665D01*
G37*
G36*
X291264Y220057D02*X295440Y215880D01*
X294604Y215045D01*
X290428Y219222D01*
X291264Y220057D01*
G37*
G54D40*X441732Y285039D02*Y284253D01*
X434646Y285039D02*Y284253D01*
G54D32*X539728Y137493D02*Y136525D01*
X533894Y137493D02*Y136525D01*
G54D50*X550770Y152772D02*Y150772D01*
X548170Y152772D02*Y150772D01*
X545670Y152772D02*Y150772D01*
Y145772D02*Y143772D01*
X548170Y145772D02*Y143772D01*
X550770Y145772D02*Y143772D01*
G54D32*X136221Y279618D02*Y278650D01*
X142055Y279618D02*Y278650D01*
X610146Y204170D02*X611114D01*
X610146Y210004D02*X611114D01*
X462508Y99142D02*X463476D01*
X462508Y93308D02*X463476D01*
X556371Y147335D02*Y146367D01*
X562205Y147335D02*Y146367D01*
G54D11*G36*
X211230Y150653D02*X213918Y153337D01*
X215918Y151334D01*
X213230Y148650D01*
X211230Y150653D01*
G37*
G36*
X207105Y154776D02*X209791Y157463D01*
X211793Y155462D01*
X209107Y152775D01*
X207105Y154776D01*
G37*
G54D37*X240165Y258818D02*X240765D01*
X240165Y263918D02*X240765D01*
X233165Y261418D02*X233765D01*
G54D32*X244488Y272532D02*Y271564D01*
X250322Y272532D02*Y271564D01*
X181568Y128437D02*Y127469D01*
X187402Y128437D02*Y127469D01*
G54D40*X249214Y258662D02*X250000D01*
X249214Y265748D02*X250000D01*
X245669Y279134D02*Y278348D01*
X252755Y279134D02*Y278348D01*
G54D11*G36*
X290115Y204220D02*X292801Y201533D01*
X290799Y199532D01*
X288113Y202219D01*
X290115Y204220D01*
G37*
G36*
X294240Y208345D02*X296926Y205658D01*
X294924Y203657D01*
X292238Y206344D01*
X294240Y208345D01*
G37*
G36*
X288789Y228211D02*X291474Y230897D01*
X293476Y228896D01*
X290791Y226210D01*
X288789Y228211D01*
G37*
G36*
X284664Y232336D02*X287349Y235022D01*
X289351Y233021D01*
X286666Y230335D01*
X284664Y232336D01*
G37*
G54D40*X179135Y156694D02*X179921D01*
X179135Y149608D02*X179921D01*
X188190Y139764D02*Y138978D01*
X195276Y139764D02*Y138978D01*
G54D32*X189835Y164264D02*Y163296D01*
X195669Y164264D02*Y163296D01*
G54D42*X195632Y157426D02*Y155826D01*
X187832Y157426D02*Y155826D01*
Y149226D02*Y147626D01*
X191732Y149226D02*Y147626D01*
X195632Y149226D02*Y147626D01*
G54D39*X165992Y69640D02*X170228D01*
X165992Y57920D02*X170228D01*
G54D34*X469779Y101182D02*X470379D01*
X469779Y93382D02*X470379D01*
X477979Y97282D02*X478579D01*
G54D32*X578185Y119776D02*Y118808D01*
X584019Y119776D02*Y118808D01*
G54D39*X625512Y60831D02*Y54879D01*
X607560Y60831D02*Y54879D01*
G54D48*X615532Y29725D02*X617540D01*
G54D38*X25000Y286220D02*Y283464D01*
X42716Y286220D02*Y283464D01*
X25000Y250394D02*Y247638D01*
X42716Y250394D02*Y247638D01*
G54D39*X145126Y69640D02*X149362D01*
X145126Y57920D02*X149362D01*
X629876Y209205D02*Y204969D01*
X618156Y209205D02*Y204969D01*
G54D32*X551504Y158162D02*Y157194D01*
X545670Y158162D02*Y157194D01*
X149535Y287886D02*Y286918D01*
X143701Y287886D02*Y286918D01*
G54D49*X561615Y125788D02*Y118702D01*
X535827Y125788D02*Y118702D01*
G54D32*X282356Y308753D02*Y307785D01*
X288190Y308753D02*Y307785D01*
X312760Y244973D02*Y244005D01*
X306926Y244973D02*Y244005D01*
Y239067D02*Y238099D01*
X312760Y239067D02*Y238099D01*
X256603Y258662D02*X257571D01*
X256603Y264496D02*X257571D01*
X436524Y142592D02*X437492D01*
X436524Y148426D02*X437492D01*
X451091Y280387D02*X452059D01*
X451091Y286221D02*X452059D01*
G54D11*G36*
X233762Y204869D02*X237939Y200694D01*
X237104Y199858D01*
X232927Y204033D01*
X233762Y204869D01*
G37*
G36*
X232372Y203477D02*X236547Y199301D01*
X235711Y198466D01*
X231536Y202642D01*
X232372Y203477D01*
G37*
G36*
X230980Y202085D02*X235155Y197909D01*
X234319Y197074D01*
X230144Y201250D01*
X230980Y202085D01*
G37*
G36*
X229588Y200693D02*X233763Y196517D01*
X232927Y195682D01*
X228752Y199858D01*
X229588Y200693D01*
G37*
G36*
X228196Y199301D02*X232371Y195125D01*
X231535Y194290D01*
X227360Y198466D01*
X228196Y199301D01*
G37*
G36*
X226804Y197910D02*X230979Y193733D01*
X230143Y192898D01*
X225968Y197075D01*
X226804Y197910D01*
G37*
G36*
X225412Y196517D02*X229587Y192341D01*
X228751Y191506D01*
X224576Y195682D01*
X225412Y196517D01*
G37*
G36*
X224020Y195126D02*X228196Y190949D01*
X227360Y190114D01*
X223184Y194291D01*
X224020Y195126D01*
G37*
G36*
X222628Y193733D02*X226803Y189557D01*
X225967Y188722D01*
X221792Y192898D01*
X222628Y193733D01*
G37*
G36*
X221236Y192342D02*X225412Y188165D01*
X224576Y187330D01*
X220400Y191507D01*
X221236Y192342D01*
G37*
G36*
X219844Y190950D02*X224019Y186773D01*
X223183Y185938D01*
X219008Y190115D01*
X219844Y190950D01*
G37*
G36*
X218451Y189558D02*X222628Y185383D01*
X221793Y184547D01*
X217616Y188722D01*
X218451Y189558D01*
G37*
G36*
X217061Y188166D02*X221236Y183990D01*
X220400Y183155D01*
X216225Y187331D01*
X217061Y188166D01*
G37*
G36*
X215669Y186775D02*X219845Y182598D01*
X219009Y181763D01*
X214833Y185940D01*
X215669Y186775D01*
G37*
G36*
X214277Y185382D02*X218452Y181206D01*
X217616Y180371D01*
X213441Y184547D01*
X214277Y185382D01*
G37*
G36*
X212885Y183991D02*X217061Y179814D01*
X216225Y178979D01*
X212049Y183156D01*
X212885Y183991D01*
G37*
G36*
X211493Y182599D02*X215668Y178422D01*
X214832Y177587D01*
X210657Y181764D01*
X211493Y182599D01*
G37*
G36*
X210100Y181207D02*X214277Y177032D01*
X213442Y176196D01*
X209265Y180371D01*
X210100Y181207D01*
G37*
G36*
X208709Y179815D02*X212885Y175638D01*
X212049Y174803D01*
X207873Y178980D01*
X208709Y179815D01*
G37*
G36*
X207318Y178423D02*X211493Y174247D01*
X210657Y173412D01*
X206482Y177588D01*
X207318Y178423D01*
G37*
G36*
X205925Y177031D02*X210101Y172854D01*
X209265Y172019D01*
X205089Y176196D01*
X205925Y177031D01*
G37*
G36*
X204534Y175639D02*X208709Y171463D01*
X207873Y170628D01*
X203698Y174804D01*
X204534Y175639D01*
G37*
G36*
X203140Y174247D02*X207317Y170072D01*
X206482Y169236D01*
X202305Y173411D01*
X203140Y174247D01*
G37*
G36*
X201750Y172855D02*X205925Y168679D01*
X205089Y167844D01*
X200914Y172020D01*
X201750Y172855D01*
G37*
G36*
X222906Y151699D02*X227082Y147522D01*
X226246Y146687D01*
X222070Y150864D01*
X222906Y151699D01*
G37*
G36*
X224298Y153090D02*X228473Y148914D01*
X227637Y148079D01*
X223462Y152255D01*
X224298Y153090D01*
G37*
G36*
X225690Y154483D02*X229866Y150306D01*
X229030Y149471D01*
X224854Y153648D01*
X225690Y154483D01*
G37*
G36*
X227082Y155874D02*X231257Y151698D01*
X230421Y150863D01*
X226246Y155039D01*
X227082Y155874D01*
G37*
G36*
X228473Y157266D02*X232650Y153091D01*
X231815Y152255D01*
X227638Y156430D01*
X228473Y157266D01*
G37*
G36*
X229866Y158658D02*X234041Y154482D01*
X233205Y153647D01*
X229030Y157823D01*
X229866Y158658D01*
G37*
G36*
X231258Y160050D02*X235433Y155874D01*
X234597Y155039D01*
X230422Y159215D01*
X231258Y160050D01*
G37*
G36*
X232650Y161442D02*X236825Y157266D01*
X235989Y156431D01*
X231814Y160607D01*
X232650Y161442D01*
G37*
G36*
X234042Y162834D02*X238217Y158658D01*
X237381Y157823D01*
X233206Y161999D01*
X234042Y162834D01*
G37*
G36*
X235434Y164226D02*X239609Y160049D01*
X238773Y159214D01*
X234598Y163391D01*
X235434Y164226D01*
G37*
G36*
X236826Y165618D02*X241001Y161442D01*
X240165Y160607D01*
X235990Y164783D01*
X236826Y165618D01*
G37*
G36*
X238217Y167010D02*X242393Y162833D01*
X241557Y161998D01*
X237381Y166175D01*
X238217Y167010D01*
G37*
G36*
X239609Y168401D02*X243784Y164225D01*
X242948Y163390D01*
X238773Y167566D01*
X239609Y168401D01*
G37*
G36*
X241001Y169793D02*X245176Y165616D01*
X244340Y164781D01*
X240165Y168958D01*
X241001Y169793D01*
G37*
G36*
X242393Y171185D02*X246568Y167009D01*
X245732Y166174D01*
X241557Y170350D01*
X242393Y171185D01*
G37*
G36*
X243785Y172577D02*X247960Y168400D01*
X247124Y167565D01*
X242949Y171742D01*
X243785Y172577D01*
G37*
G36*
X245177Y173969D02*X249352Y169793D01*
X248516Y168958D01*
X244341Y173134D01*
X245177Y173969D01*
G37*
G36*
X246568Y175361D02*X250744Y171184D01*
X249908Y170349D01*
X245732Y174526D01*
X246568Y175361D01*
G37*
G36*
X247961Y176753D02*X252136Y172577D01*
X251300Y171742D01*
X247125Y175918D01*
X247961Y176753D01*
G37*
G36*
X249352Y178145D02*X253528Y173968D01*
X252692Y173133D01*
X248516Y177310D01*
X249352Y178145D01*
G37*
G36*
X250745Y179537D02*X254920Y175360D01*
X254084Y174525D01*
X249909Y178702D01*
X250745Y179537D01*
G37*
G36*
X252135Y180928D02*X256312Y176753D01*
X255477Y175917D01*
X251300Y180092D01*
X252135Y180928D01*
G37*
G36*
X253528Y182321D02*X257704Y178144D01*
X256868Y177309D01*
X252692Y181486D01*
X253528Y182321D01*
G37*
G36*
X254920Y183712D02*X259095Y179536D01*
X258259Y178701D01*
X254084Y182877D01*
X254920Y183712D01*
G37*
G54D32*X436524Y127953D02*X437492D01*
X436524Y133787D02*X437492D01*
X130709Y279618D02*Y278650D01*
X124875Y279618D02*Y278650D01*
G54D38*X481103Y178347D02*X483859D01*
X481103Y196063D02*X483859D01*
X516929Y178347D02*X519685D01*
X516929Y196063D02*X519685D01*
G54D51*X442520Y131176D02*Y124676D01*
X447520Y131176D02*Y124676D01*
X452520Y131176D02*Y124676D01*
X457520Y131176D02*Y124676D01*
Y151676D02*Y145176D01*
X452520Y151676D02*Y145176D01*
X447520Y151676D02*Y145176D01*
X442520Y151676D02*Y145176D01*
G54D32*X186060Y50878D02*Y49910D01*
X191894Y50878D02*Y49910D01*
G54D39*X186859Y69640D02*X191095D01*
X186859Y57920D02*X191095D01*
G54D32*X306926Y233162D02*Y232194D01*
X312760Y233162D02*Y232194D01*
X264083Y62760D02*X265051D01*
X264083Y56926D02*X265051D01*
G54D39*X284646Y61961D02*Y57725D01*
X272926Y61961D02*Y57725D01*
G54D54*X383663Y349608D02*X389175D01*
X323427D02*X328939D01*
G54D34*X478047Y109130D02*X478647D01*
X478047Y116930D02*X478647D01*
X469847Y113030D02*X470447D01*
G54D32*X484949Y114890D02*X485917D01*
X484949Y109056D02*X485917D01*
G54D40*X385040Y246063D02*Y245277D01*
X377954Y246063D02*Y245277D01*
G54D55*X433475Y303694D02*Y297094D01*
X442475Y303694D02*Y297094D01*
X451575Y303694D02*Y297094D01*
G54D56*X437975Y324794D02*X446975D01*
G54D32*X275894Y328740D02*X276862D01*
X275894Y322906D02*X276862D01*
X270382Y305512D02*X271350D01*
X270382Y311346D02*X271350D01*
X295186Y307803D02*X296154D01*
X295186Y301969D02*X296154D01*
X544685Y137493D02*Y136525D01*
X550519Y137493D02*Y136525D01*
X414871Y294489D02*X415839D01*
X414871Y288655D02*X415839D01*
X421957D02*X422925D01*
X421957Y294489D02*X422925D01*
G54D41*X136221Y307874D02*Y303150D01*
X125985Y307874D02*Y303150D01*
G54D32*X19988Y233071D02*X20956D01*
X19988Y238905D02*X20956D01*
X33858Y236705D02*Y235737D01*
X28024Y236705D02*Y235737D01*
X144882Y128437D02*Y127469D01*
X150716Y128437D02*Y127469D01*
G54D40*X105513Y294488D02*Y293702D01*
X112599Y294488D02*Y293702D01*
G54D32*X462508Y135112D02*X463476D01*
X462508Y140946D02*X463476D01*
X442036Y163315D02*X443004D01*
X442036Y157481D02*X443004D01*
X484949Y103079D02*X485917D01*
X484949Y97245D02*X485917D01*
X165193Y50878D02*Y49910D01*
X171027Y50878D02*Y49910D01*
X144327Y50878D02*Y49910D01*
X150161Y50878D02*Y49910D01*
X372119Y238674D02*Y237706D01*
X377953Y238674D02*Y237706D01*
G54D37*X574897Y138798D02*X575497D01*
X574897Y143898D02*X575497D01*
X567897Y141398D02*X568497D01*
G54D39*X514056Y58705D02*Y52753D01*
X532008Y58705D02*Y52753D01*
G54D48*X522028Y83859D02*X524036D01*
G54D37*X298212Y360081D02*X298812D01*
X298212Y354981D02*X298812D01*
X305212Y357481D02*X305812D01*
G54D40*X355513Y303150D02*X356299D01*
X355513Y310236D02*X356299D01*
G54D39*X629876Y244638D02*Y240402D01*
X618156Y244638D02*Y240402D01*
G54D34*X238283Y271654D02*X238883D01*
X238283Y279454D02*X238883D01*
X230083Y275554D02*X230683D01*
G54D33*X136221Y273524D02*Y269784D01*
X138190Y273524D02*Y269784D01*
X140158Y273524D02*Y269784D01*
X142127Y273524D02*Y269784D01*
X144095Y273524D02*Y269784D01*
X146064Y273524D02*Y269784D01*
X148032Y273524D02*Y269784D01*
X150001Y273524D02*Y269784D01*
X151969Y273524D02*Y269784D01*
X153938Y273524D02*Y269784D01*
X155906Y273524D02*Y269784D01*
X157875Y273524D02*Y269784D01*
X159843Y273524D02*Y269784D01*
X161812Y273524D02*Y269784D01*
X163780Y273524D02*Y269784D01*
X165749Y273524D02*Y269784D01*
X167717Y273524D02*Y269784D01*
X169686Y273524D02*Y269784D01*
X171654Y273524D02*Y269784D01*
X173623Y273524D02*Y269784D01*
X175591Y273524D02*Y269784D01*
X177560Y273524D02*Y269784D01*
X179528Y273524D02*Y269784D01*
X181497Y273524D02*Y269784D01*
X183465Y273524D02*Y269784D01*
X185434Y273524D02*Y269784D01*
X187402Y273524D02*Y269784D01*
X189371Y273524D02*Y269784D01*
X191339Y273524D02*Y269784D01*
X193308Y273524D02*Y269784D01*
X195276Y273524D02*Y269784D01*
X197245Y273524D02*Y269784D01*
X199213Y273524D02*Y269784D01*
X201182Y273524D02*Y269784D01*
X203150Y273524D02*Y269784D01*
X205119Y273524D02*Y269784D01*
X207087Y273524D02*Y269784D01*
X209056Y273524D02*Y269784D01*
X211024Y273524D02*Y269784D01*
X212993Y273524D02*Y269784D01*
G54D35*X127560Y264075D02*X130985D01*
G54D36*X126064Y259705D02*X129410D01*
G54D35*X218505Y264075D02*X221851D01*
G54D36*X220079Y259705D02*X223347D01*
G54D32*X282356Y322926D02*Y321958D01*
X288190Y322926D02*Y321958D01*
X279044Y250627D02*X280012D01*
X279044Y256461D02*X280012D01*
X37705Y189764D02*X38673D01*
X37705Y183930D02*X38673D01*
X447638Y158359D02*Y157391D01*
X453472Y158359D02*Y157391D01*
X574713Y151772D02*X575681D01*
X574713Y157606D02*X575681D01*
X512992Y230012D02*Y229044D01*
X518826Y230012D02*Y229044D01*
G54D40*X532837Y229921D02*Y229135D01*
X525751Y229921D02*Y229135D01*
G54D47*X173288Y122048D02*X177894D01*
X173288Y119489D02*X177894D01*
X173288Y116931D02*X177894D01*
X173288Y114372D02*X177894D01*
X191004D02*X195610D01*
X191004Y116931D02*X195610D01*
X191004Y119489D02*X195610D01*
X191004Y122048D02*X195610D01*
G54D32*X230617Y120795D02*X231585D01*
X230617Y114961D02*X231585D01*
G54D53*X364645Y296623D02*Y291725D01*
X362677Y296623D02*Y291725D01*
X360708Y296623D02*Y291725D01*
X358740Y296623D02*Y291725D01*
X356771Y296623D02*Y291725D01*
X354803Y296623D02*Y291725D01*
X352834Y296623D02*Y291725D01*
X350866Y296623D02*Y291725D01*
X348897Y296623D02*Y291725D01*
X346929Y296623D02*Y291725D01*
X344960Y296623D02*Y291725D01*
X342992Y296623D02*Y291725D01*
X341023Y296623D02*Y291725D01*
X339055Y296623D02*Y291725D01*
X337086Y296623D02*Y291725D01*
X335118Y296623D02*Y291725D01*
X322748Y284252D02*X327646D01*
X322748Y282284D02*X327646D01*
X322748Y280315D02*X327646D01*
X322748Y278347D02*X327646D01*
X322748Y276378D02*X327646D01*
X322748Y274410D02*X327646D01*
X322748Y272441D02*X327646D01*
X322748Y270473D02*X327646D01*
X322748Y268504D02*X327646D01*
X322748Y266536D02*X327646D01*
X322748Y264567D02*X327646D01*
X322748Y262599D02*X327646D01*
X322748Y260630D02*X327646D01*
X322748Y258662D02*X327646D01*
X322748Y256693D02*X327646D01*
X322748Y254725D02*X327646D01*
X335119Y247253D02*Y242355D01*
X337087Y247253D02*Y242355D01*
X339056Y247253D02*Y242355D01*
X341024Y247253D02*Y242355D01*
X342993Y247253D02*Y242355D01*
X344961Y247253D02*Y242355D01*
X346930Y247253D02*Y242355D01*
X348898Y247253D02*Y242355D01*
X350867Y247253D02*Y242355D01*
X352835Y247253D02*Y242355D01*
X354804Y247253D02*Y242355D01*
X356772Y247253D02*Y242355D01*
X358741Y247253D02*Y242355D01*
X360709Y247253D02*Y242355D01*
X362678Y247253D02*Y242355D01*
X364646Y247253D02*Y242355D01*
X372118Y254726D02*X377016D01*
X372118Y256694D02*X377016D01*
X372118Y258663D02*X377016D01*
X372118Y260631D02*X377016D01*
X372118Y262600D02*X377016D01*
X372118Y264568D02*X377016D01*
X372118Y266537D02*X377016D01*
X372118Y268505D02*X377016D01*
X372118Y270474D02*X377016D01*
X372118Y272442D02*X377016D01*
X372118Y274411D02*X377016D01*
X372118Y276379D02*X377016D01*
X372118Y278348D02*X377016D01*
X372118Y280316D02*X377016D01*
X372118Y282285D02*X377016D01*
X372118Y284253D02*X377016D01*
G54D32*X595598Y119776D02*Y118808D01*
X589764Y119776D02*Y118808D01*
X25894Y209449D02*X26862D01*
X25894Y215283D02*X26862D01*
X425894Y283859D02*X426862D01*
X425894Y278025D02*X426862D01*
X159359Y121028D02*X160327D01*
X159359Y115194D02*X160327D01*
G54D40*X144882Y295669D02*Y294883D01*
X151968Y295669D02*Y294883D01*
G54D32*X40945Y118989D02*Y118021D01*
X46779Y118989D02*Y118021D01*
X362508Y307803D02*X363476D01*
X362508Y301969D02*X363476D01*
X104170Y174107D02*Y173139D01*
X110004Y174107D02*Y173139D01*
X486524Y162044D02*X487492D01*
X486524Y167878D02*X487492D01*
X205028Y350860D02*X205996D01*
X205028Y356694D02*X205996D01*
M02*
