G04 #@! TF.FileFunction,Soldermask,Bot*
%FSLAX46Y46*%
G04 Gerber Fmt 4.6, Leading zero omitted, Abs format (unit mm)*
G04 Created by KiCad (PCBNEW 4.0.1-stable) date 4/22/2016 1:25:18 PM*
%MOMM*%
G01*
G04 APERTURE LIST*
%ADD10C,0.150000*%
%ADD11R,1.524000X1.524000*%
%ADD12C,1.524000*%
%ADD13C,1.676400*%
%ADD14R,2.032000X2.032000*%
%ADD15O,2.032000X2.032000*%
%ADD16R,1.800000X0.400000*%
%ADD17C,0.550000*%
%ADD18R,1.900000X1.900000*%
G04 APERTURE END LIST*
D10*
D11*
X1905000Y-4445000D03*
D12*
X1905000Y-1905000D03*
X4445000Y-4445000D03*
X4445000Y-1905000D03*
X6985000Y-4445000D03*
X6985000Y-1905000D03*
X9525000Y-4445000D03*
X9525000Y-1905000D03*
X12065000Y-4445000D03*
X12065000Y-1905000D03*
X14605000Y-4445000D03*
X14605000Y-1905000D03*
X17145000Y-4445000D03*
X17145000Y-1905000D03*
X19685000Y-4445000D03*
X19685000Y-1905000D03*
X22225000Y-4445000D03*
X22225000Y-1905000D03*
X24765000Y-4445000D03*
X24765000Y-1905000D03*
X27305000Y-4445000D03*
X27305000Y-1905000D03*
X29845000Y-4445000D03*
X29845000Y-1905000D03*
X32385000Y-4445000D03*
X32385000Y-1905000D03*
D13*
X5842000Y-14224000D03*
X5842000Y-16764000D03*
X5880000Y-8380000D03*
X5880000Y-10920000D03*
D14*
X17550000Y-7730000D03*
D15*
X17550000Y-10270000D03*
D16*
X4400000Y-25030000D03*
X4400000Y-24380000D03*
X4400000Y-23730000D03*
X4400000Y-23080000D03*
X4400000Y-22430000D03*
D17*
X3475000Y-25730000D03*
X3475000Y-21730000D03*
D18*
X1375000Y-27680000D03*
X1375000Y-19780000D03*
M02*
