G04 (created by PCBNEW (2013-03-15 BZR 4003)-stable) date 14-Jun-13 12:24:45 PM*
%MOIN*%
G04 Gerber Fmt 3.4, Leading zero omitted, Abs format*
%FSLAX34Y34*%
G01*
G70*
G90*
G04 APERTURE LIST*
%ADD10C,2.3622e-006*%
%ADD11C,0.005*%
G04 APERTURE END LIST*
G54D10*
G54D11*
X43500Y-32000D02*
X43500Y-10000D01*
X10000Y-10000D02*
X43500Y-10000D01*
X43500Y-32000D02*
X10000Y-32000D01*
X10000Y-32000D02*
X10000Y-10000D01*
M02*
