G04 #@! TF.FileFunction,Paste,Bot*
%FSLAX46Y46*%
G04 Gerber Fmt 4.6, Leading zero omitted, Abs format (unit mm)*
G04 Created by KiCad (PCBNEW 4.0.0-rc1-stable) date Mon 18 Jan 2016 05:38:02 PM CET*
%MOMM*%
G01*
G04 APERTURE LIST*
%ADD10C,0.150000*%
%ADD11C,3.302000*%
%ADD12O,1.250000X2.000000*%
%ADD13C,2.499360*%
%ADD14O,1.300000X2.200000*%
%ADD15R,1.050000X1.460000*%
%ADD16R,0.635000X1.143000*%
%ADD17R,1.143000X0.635000*%
G04 APERTURE END LIST*
D10*
D11*
X128585000Y-40550000D03*
X140015000Y-40550000D03*
D12*
X136205000Y-34050000D03*
X138745000Y-34050000D03*
X137475000Y-31550000D03*
X134935000Y-31550000D03*
X133665000Y-34050000D03*
X132395000Y-31550000D03*
X131125000Y-34050000D03*
X129855000Y-31550000D03*
D13*
X142150000Y-43550000D03*
X126450000Y-43550000D03*
D14*
X94225000Y-30775000D03*
X88775000Y-30775000D03*
D15*
X89075000Y-33805000D03*
X93925000Y-33805000D03*
D16*
X117138000Y-66800000D03*
X118662000Y-66800000D03*
X119738000Y-66800000D03*
X121262000Y-66800000D03*
D17*
X127500000Y-68738000D03*
X127500000Y-70262000D03*
X127500000Y-71338000D03*
X127500000Y-72862000D03*
M02*
