G04 start of page 5 for group -4062 idx -4062 *
G04 Title: (unknown), soldermask *
G04 Creator: pcb 20091103 *
G04 CreationDate: Thu 05 May 2011 07:25:20 AM GMT UTC *
G04 For: gjhurlbu *
G04 Format: Gerber/RS-274X *
G04 PCB-Dimensions: 600000 500000 *
G04 PCB-Coordinate-Origin: lower left *
%MOIN*%
%FSLAX25Y25*%
%LNBACKMASK*%
%ADD12C,0.0200*%
%ADD31C,0.1260*%
%ADD32C,0.0950*%
%ADD33C,0.0660*%
%ADD34C,0.1000*%
%ADD39R,0.0572X0.0572*%
G54D12*G36*
X143700Y388300D02*Y375700D01*
X156300D01*
Y388300D01*
X143700D01*
G37*
G54D31*X150000Y442000D03*
G54D32*X175000Y375000D03*
G54D12*G36*
X60046Y427347D02*Y421747D01*
X65646D01*
Y427347D01*
X60046D01*
G37*
G36*
X59277D02*Y421747D01*
X64877D01*
Y427347D01*
X59277D01*
G37*
G36*
X58508D02*Y421747D01*
X64108D01*
Y427347D01*
X58508D01*
G37*
G36*
X46522Y428528D02*Y422928D01*
X52122D01*
Y428528D01*
X46522D01*
G37*
G36*
X47585D02*Y422928D01*
X53185D01*
Y428528D01*
X47585D01*
G37*
G36*
X48648D02*Y422928D01*
X54248D01*
Y428528D01*
X48648D01*
G37*
G36*
X60046Y408253D02*Y402653D01*
X65646D01*
Y408253D01*
X60046D01*
G37*
G36*
X59277D02*Y402653D01*
X64877D01*
Y408253D01*
X59277D01*
G37*
G36*
X58508D02*Y402653D01*
X64108D01*
Y408253D01*
X58508D01*
G37*
G36*
X46522Y407072D02*Y401472D01*
X52122D01*
Y407072D01*
X46522D01*
G37*
G36*
X47585D02*Y401472D01*
X53185D01*
Y407072D01*
X47585D01*
G37*
G36*
X48648D02*Y401472D01*
X54248D01*
Y407072D01*
X48648D01*
G37*
G36*
X231700Y438300D02*Y431700D01*
X238300D01*
Y438300D01*
X231700D01*
G37*
G54D33*X235000Y445000D03*
G54D32*X175000D03*
Y415000D03*
G54D34*X231900Y394300D03*
X233800D03*
X235800D03*
X237700D03*
X239700D03*
X241600D03*
X229900Y417900D03*
X231900D03*
X233800D03*
X235800D03*
X237700D03*
X239700D03*
X241600D03*
X243600D03*
X245500D03*
X243600Y394300D03*
G54D12*G36*
X200250Y379750D02*Y370250D01*
X209750D01*
Y379750D01*
X200250D01*
G37*
G54D32*X205000Y415000D03*
Y445000D03*
G54D39*X76214Y422000D02*X77000D01*
X76214Y413000D02*X77000D01*
X76214Y405914D02*X77000D01*
X76214Y429086D02*X77000D01*
X76214Y438000D02*X77000D01*
X76214Y445086D02*X77000D01*
X84428Y438000D02*X85214D01*
X84428Y445086D02*X85214D01*
M02*
