G04 DipTrace 2.3.1.0*
%INuCANHub_Board.gbr*%
%MOIN*%
%ADD11C,0.0055*%
%FSLAX44Y44*%
G04*
G70*
G90*
G75*
G01*
%LNBoardPoly*%
%LPD*%
G36*
X3937Y3937D2*
D11*
X43307D1*
Y35433D1*
X3937D1*
Y3937D1*
G37*
M02*
