G04 (created by PCBNEW (2013-07-07 BZR 4022)-stable) date 10/22/2013 11:34:47 AM*
%MOIN*%
G04 Gerber Fmt 3.4, Leading zero omitted, Abs format*
%FSLAX34Y34*%
G01*
G70*
G90*
G04 APERTURE LIST*
%ADD10C,0.00590551*%
%ADD11C,0.00393701*%
G04 APERTURE END LIST*
G54D10*
G54D11*
X16000Y-13000D02*
G75*
G03X16250Y-13250I250J0D01*
G74*
G01*
X16250Y-8750D02*
G75*
G03X16000Y-9000I0J-250D01*
G74*
G01*
X23000Y-9000D02*
G75*
G03X22750Y-8750I-250J0D01*
G74*
G01*
X22750Y-13250D02*
G75*
G03X23000Y-13000I0J250D01*
G74*
G01*
X16250Y-13250D02*
X22750Y-13250D01*
X22750Y-8750D02*
X16250Y-8750D01*
X23000Y-13000D02*
X23000Y-9000D01*
X23000Y-11000D02*
X23000Y-13000D01*
X16000Y-13000D02*
X16000Y-9000D01*
X16000Y-9250D02*
X16000Y-13000D01*
X16000Y-11000D02*
X16000Y-9250D01*
M02*
