G04 start of page 4 for group 4 idx 4 *
G04 Title: (unknown), power *
G04 Creator: pcb 1.99z *
G04 CreationDate: Fri Jun 17 03:18:51 2011 UTC *
G04 For: apoelstra *
G04 Format: Gerber/RS-274X *
G04 PCB-Dimensions: 3000000 2000000 *
G04 PCB-Coordinate-Origin: lower left *
%MOIN*%
%FSLAX25Y25*%
%LNGROUP4*%
%ADD27C,0.5000*%
%ADD26C,1.0000*%
%ADD25C,0.6500*%
%ADD24C,0.7500*%
%ADD23C,0.2500*%
G54D23*X1300000Y630000D02*X1302367Y604884D01*
X1309462Y579867D01*
X1321255Y555048D01*
X1337700Y530525D01*
X1358732Y506394D01*
X1384268Y482751D01*
X1414207Y459689D01*
X1448431Y437299D01*
X1486806Y415670D01*
X1529179Y394886D01*
X1575384Y375031D01*
X1625237Y356182D01*
X1678543Y338413D01*
X1735091Y321795D01*
X1794657Y306394D01*
X1857007Y292269D01*
X1921895Y279478D01*
X1989064Y268070D01*
X2058250Y258090D01*
X2129179Y249578D01*
X2201572Y242567D01*
X2275142Y237086D01*
X2349600Y233155D01*
X2424651Y230790D01*
X2499999Y230000D01*
G54D24*X600000Y450000D03*
G54D25*Y290000D03*
G54D26*X450000Y600000D03*
X600000D03*
G54D25*X450000Y290000D03*
G54D24*Y450000D03*
G54D27*G54D23*G54D27*G54D23*G54D27*M02*
