%FSTAX23Y23*%
%MOIN*%
%SFA1B1*%

%IPPOS*%
%ADD10R,0.088976X0.085039*%
%ADD11R,0.220472X0.090551*%
%ADD12R,0.027559X0.035433*%
%ADD13R,0.031496X0.035433*%
%ADD14R,0.048000X0.048000*%
%ADD15R,0.035433X0.031496*%
%ADD16R,0.149606X0.078740*%
%ADD17R,0.059055X0.078740*%
%ADD18R,0.028000X0.079000*%
%ADD19O,0.064960X0.021654*%
%ADD20O,0.021654X0.064960*%
%ADD21R,0.051181X0.187008*%
%ADD22R,0.035433X0.027559*%
%ADD23R,0.049212X0.037401*%
%ADD24R,0.043307X0.102362*%
%ADD25R,0.085000X0.107992*%
%ADD26R,0.157480X0.122047*%
%ADD27O,0.021654X0.039370*%
%ADD28R,0.021654X0.039370*%
%ADD29R,0.102362X0.043307*%
%ADD30R,0.043307X0.055118*%
%ADD31R,0.066929X0.043307*%
%ADD32O,0.064960X0.011811*%
%ADD33R,0.050000X0.120078*%
%ADD34R,0.047244X0.025591*%
%ADD35R,0.023622X0.023622*%
%ADD36R,0.047244X0.047244*%
%ADD37R,0.132283X0.191338*%
%ADD38R,0.054724X0.055118*%
%ADD39R,0.137795X0.078740*%
%ADD40R,0.078740X0.137795*%
%ADD41R,0.129921X0.055118*%
%ADD42O,0.039370X0.021654*%
%ADD43R,0.039370X0.021654*%
%ADD44R,0.055118X0.043307*%
%ADD45R,0.125984X0.070866*%
%ADD46R,0.122047X0.157480*%
%ADD47R,0.046063X0.074016*%
%ADD48R,0.070866X0.082677*%
%ADD49R,0.030000X0.045000*%
%ADD50R,0.118000X0.089000*%
%ADD51R,0.055118X0.031496*%
%ADD52O,0.055118X0.031496*%
%ADD53R,0.056000X0.119000*%
%ADD54R,0.064960X0.025591*%
%ADD55O,0.064960X0.025591*%
%LNlv1_paste_top-1*%
%LPD*%
G54D10*
X0889Y03903D03*
Y04096D03*
G54D11*
X05738Y03189D03*
Y0348D03*
X04399Y03191D03*
Y03483D03*
X08113Y03246D03*
Y03538D03*
X04063Y03246D03*
Y03538D03*
G54D12*
X01153Y02611D03*
X01094D03*
X02118Y03261D03*
X02177D03*
X0154Y03227D03*
X016D03*
X08487Y03076D03*
X08534D03*
X08488Y02955D03*
X08536D03*
X08487Y03018D03*
X08534D03*
X05987Y03789D03*
X06046D03*
X06651Y03503D03*
X06592D03*
X06279Y03368D03*
X0622D03*
X0621Y0342D03*
X06269D03*
X0487D03*
X04929D03*
X04944Y03367D03*
X04885D03*
X05315Y03502D03*
X05256D03*
X04652Y03788D03*
X04711D03*
X01334Y03318D03*
X01275D03*
X01329Y03582D03*
X0127D03*
X01309Y0171D03*
X0125D03*
X01219Y012D03*
X0116D03*
X06723Y01559D03*
X06782D03*
X07455Y02769D03*
X07515D03*
X07695Y03742D03*
X07635D03*
X07675Y03052D03*
X07735D03*
X07565Y02769D03*
X07625D03*
X03405D03*
X03465D03*
X03645Y03752D03*
X03585D03*
X03625Y03052D03*
X03685D03*
X03515Y02769D03*
X03575D03*
X0544Y0218D03*
X05499D03*
X01362Y03832D03*
X01303D03*
G54D13*
X01096Y02671D03*
X01151D03*
X02133Y03445D03*
X02078D03*
X02081Y03364D03*
X02136D03*
X05952Y03631D03*
X05897D03*
X06267Y0347D03*
X06212D03*
X06322Y0352D03*
X06377D03*
X06322Y0357D03*
X06377D03*
X04982D03*
X05037D03*
X04982Y03522D03*
X05037D03*
X04937Y0348D03*
X04882D03*
X04617Y0363D03*
X04561D03*
X08742Y03021D03*
X08687D03*
X08753Y02412D03*
X08697D03*
G54D14*
X02178Y03198D03*
X02095D03*
G54D15*
X01932Y022D03*
Y02145D03*
X07895Y0374D03*
Y03684D03*
X0757Y03157D03*
Y03102D03*
X03845Y0374D03*
Y03684D03*
X0352Y03157D03*
Y03102D03*
G54D16*
X01847Y02539D03*
G54D17*
X01937Y02291D03*
X01847D03*
X01756D03*
G54D18*
X01609Y03149D03*
X0157D03*
X0153D03*
G54D19*
X01686Y03556D03*
Y03525D03*
Y03493D03*
Y03462D03*
Y0343D03*
Y03399D03*
Y03367D03*
Y03336D03*
X02017D03*
Y03367D03*
Y03399D03*
Y0343D03*
Y03462D03*
Y03493D03*
Y03525D03*
Y03556D03*
G54D20*
X01741Y03281D03*
X01773D03*
X01804D03*
X01836D03*
X01867D03*
X01899D03*
X0193D03*
X01962D03*
Y03611D03*
X0193D03*
X01899D03*
X01867D03*
X01836D03*
X01804D03*
X01773D03*
X01741D03*
G54D21*
X08496Y04133D03*
Y03781D03*
G54D22*
X08568Y02812D03*
Y02859D03*
X06522Y03652D03*
Y03593D03*
X06467D03*
Y03652D03*
X06274Y03582D03*
Y03523D03*
X06344Y03297D03*
Y03238D03*
X05009Y03296D03*
Y03237D03*
X04939Y03581D03*
Y03522D03*
X05131Y03592D03*
Y03651D03*
X05186D03*
Y03592D03*
X0119Y014D03*
Y01459D03*
X03006Y01081D03*
Y01022D03*
X07685Y02832D03*
Y02772D03*
X07636Y03221D03*
Y03162D03*
X03635Y02832D03*
Y02772D03*
X03595Y03222D03*
Y03163D03*
X09065Y02422D03*
Y02362D03*
X09059Y0298D03*
Y03039D03*
G54D23*
X08888Y01718D03*
X09075Y01797D03*
Y01718D03*
X08888Y01797D03*
X08832Y00742D03*
X09019Y00821D03*
Y00742D03*
X08832Y00821D03*
G54D24*
X03362Y0327D03*
X03468D03*
X07406Y0328D03*
X07513D03*
X06269Y01448D03*
X06163D03*
X06269Y01578D03*
X06163D03*
X04934Y01577D03*
X04828D03*
X04934Y01447D03*
X04828D03*
X03316Y01231D03*
X03422D03*
X07362Y01782D03*
X07468D03*
X07362Y01902D03*
X07468D03*
X07513Y0315D03*
X07406D03*
X03312Y01782D03*
X03418D03*
X03316Y019D03*
X03423D03*
X03468Y03152D03*
X03362D03*
G54D25*
X01627Y0249D03*
X01452D03*
G54D26*
X05734Y03654D03*
Y03827D03*
X04399Y03653D03*
Y03826D03*
G54D27*
X05952Y03794D03*
X04616Y03793D03*
G54D28*
X05914Y03794D03*
X05877D03*
X05952Y03687D03*
X05877D03*
X04579Y03793D03*
X04542D03*
X04616Y03686D03*
X04542D03*
G54D29*
X0673Y02676D03*
Y02783D03*
X05394Y02678D03*
Y02785D03*
X03683Y00726D03*
Y00833D03*
X03565Y00726D03*
Y00832D03*
X03448Y00727D03*
Y00833D03*
X07249Y0122D03*
Y01327D03*
X07123Y01219D03*
Y01325D03*
X06998Y0122D03*
Y01327D03*
X06419Y01214D03*
Y01321D03*
X0685Y02676D03*
Y02783D03*
X05519Y02676D03*
Y02783D03*
G54D30*
X06615Y03341D03*
X06674D03*
X0616Y031D03*
X06219D03*
X0662Y03423D03*
X06679D03*
X05285Y03422D03*
X05344D03*
X0482Y031D03*
X04879D03*
X05279Y0334D03*
X05338D03*
G54D31*
X0609Y02996D03*
Y03103D03*
X06801Y02958D03*
Y03064D03*
X05466Y02956D03*
Y03063D03*
X0475Y02996D03*
Y03103D03*
X08165Y02439D03*
Y02545D03*
X04115Y02439D03*
Y02545D03*
X0466Y02996D03*
Y03103D03*
X05999Y02996D03*
Y03103D03*
G54D32*
X06511Y03339D03*
Y03378D03*
Y03417D03*
Y03437D03*
Y03457D03*
Y03477D03*
X06348Y03339D03*
Y03378D03*
Y03417D03*
Y03437D03*
Y03457D03*
Y03477D03*
X05176Y03338D03*
Y03377D03*
Y03416D03*
Y03436D03*
Y03456D03*
Y03475D03*
X05013Y03338D03*
Y03377D03*
Y03416D03*
Y03436D03*
Y03456D03*
Y03475D03*
G54D33*
X06515Y02855D03*
X06397D03*
X06279D03*
X0616D03*
X06042D03*
X05924D03*
X06515Y01811D03*
X06397D03*
X06279D03*
X0616D03*
X06042D03*
X05924D03*
X0518Y02854D03*
X05061D03*
X04943D03*
X04825D03*
X04707D03*
X04589D03*
X0518Y0181D03*
X05061D03*
X04943D03*
X04825D03*
X04707D03*
X04589D03*
G54D34*
X06516Y03116D03*
Y03169D03*
Y03221D03*
Y03274D03*
X06737Y0327D03*
Y0322D03*
Y0317D03*
Y0312D03*
X0518Y03115D03*
Y03168D03*
Y0322D03*
Y03273D03*
X05402Y03269D03*
Y03219D03*
Y03169D03*
Y03119D03*
G54D35*
X06376Y03051D03*
X06463D03*
X05041Y0305D03*
X05127D03*
G54D36*
X06271Y01338D03*
X06161D03*
X04936Y01337D03*
X04826D03*
X0747Y01682D03*
X0736D03*
X0342D03*
X0331D03*
G54D37*
X06461Y01538D03*
X05126Y01537D03*
X07795Y01842D03*
X03745D03*
G54D38*
X06497Y01695D03*
X06425D03*
X05162Y01694D03*
X0509D03*
X07831Y01999D03*
X07759D03*
X03781D03*
X03709D03*
G54D39*
X03154Y01111D03*
Y00918D03*
G54D40*
X06644Y01383D03*
X06837D03*
G54D41*
X0568Y02524D03*
Y02375D03*
X0433Y02524D03*
Y02375D03*
G54D42*
X07732Y03739D03*
X03682D03*
G54D43*
X07732Y03702D03*
Y03665D03*
X07838Y03739D03*
Y03665D03*
X03682Y03702D03*
Y03665D03*
X03788Y03739D03*
Y03665D03*
G54D44*
X08155Y02752D03*
Y02812D03*
X04105Y02752D03*
Y02812D03*
G54D45*
X08015Y0268D03*
Y02424D03*
X03965Y0268D03*
Y02424D03*
G54D46*
X07872Y03522D03*
X07698D03*
X03822D03*
X03648D03*
G54D47*
X07273Y02655D03*
X07371D03*
X07468D03*
X07566D03*
X07663D03*
X07273Y0201D03*
X07371D03*
X07468D03*
X07566D03*
X07663D03*
X03223Y02655D03*
X03321D03*
X03418D03*
X03516D03*
X03613D03*
X03223Y0201D03*
X03321D03*
X03418D03*
X03516D03*
X03613D03*
G54D48*
X07845Y02839D03*
Y02665D03*
X03795Y02839D03*
Y02665D03*
G54D49*
X07615Y03052D03*
X07565D03*
X07515D03*
X07465D03*
X07615Y02847D03*
X07565D03*
X07515D03*
X07465D03*
X03565Y03052D03*
X03515D03*
X03465D03*
X03415D03*
X03565Y02847D03*
X03515D03*
X03465D03*
X03415D03*
G54D50*
X0754Y0295D03*
X0349D03*
G54D51*
X08815Y02412D03*
X08804Y03021D03*
G54D52*
X08815Y02362D03*
Y02312D03*
Y02262D03*
X09012Y02412D03*
Y02362D03*
Y02312D03*
Y02262D03*
X08804Y02971D03*
Y02921D03*
Y02871D03*
X09001Y03021D03*
Y02971D03*
Y02921D03*
Y02871D03*
G54D53*
X0152Y02305D03*
Y02115D03*
X02154Y02435D03*
Y02245D03*
G54D54*
X05133Y03969D03*
X08073Y03981D03*
G54D55*
X05133Y04069D03*
Y04169D03*
X04782Y03969D03*
Y04069D03*
Y04169D03*
X08073Y04081D03*
Y04181D03*
X07722Y03981D03*
Y04081D03*
Y04181D03*
M02*