%FSTAX23Y23*%
%MOIN*%
%SFA1B1*%

%IPPOS*%
%ADD12R,0.027559X0.035433*%
%ADD22R,0.035433X0.027559*%
%ADD23R,0.049212X0.037401*%
%ADD24R,0.043307X0.102362*%
%ADD29R,0.102362X0.043307*%
%ADD39R,0.137795X0.078740*%
%ADD41R,0.129921X0.055118*%
%ADD81R,0.085827X0.059842*%
%ADD82R,0.055118X0.129921*%
%ADD83R,0.061024X0.129921*%
%LNlv1_paste_bot-1*%
%LPD*%
G54D12*
X01239Y0096D03*
X0118D03*
G54D22*
X09Y03359D03*
Y033D03*
X0907Y0326D03*
Y03319D03*
X08989Y0316D03*
Y03219D03*
X08919Y0306D03*
Y03119D03*
X04942Y01055D03*
Y01114D03*
X06971Y01261D03*
Y0132D03*
X0546Y0239D03*
Y02449D03*
X05418Y04177D03*
Y04236D03*
X03634Y04159D03*
Y04218D03*
G54D23*
X09063Y01426D03*
X08876Y01505D03*
Y01426D03*
X09063Y01505D03*
X09083Y01123D03*
X08896Y01201D03*
Y01123D03*
X09083Y01201D03*
G54D24*
X03356Y0327D03*
X03463D03*
X04933Y01225D03*
X04827D03*
X07481Y0142D03*
X07375D03*
X03356Y0315D03*
X03463D03*
X07406D03*
X07513D03*
X07406Y0328D03*
X07513D03*
G54D29*
X05147Y00846D03*
Y0074D03*
X05269Y00847D03*
Y0074D03*
X05387Y00846D03*
Y0074D03*
X0754Y01318D03*
Y01212D03*
X07809Y01315D03*
Y01209D03*
X07679Y01318D03*
Y01212D03*
X0673Y02783D03*
Y02676D03*
X0551Y02783D03*
Y02676D03*
X0539Y02783D03*
Y02676D03*
X0685Y02783D03*
Y02676D03*
G54D39*
X05124Y012D03*
Y01007D03*
X07197Y01204D03*
Y01397D03*
G54D41*
X0305Y02414D03*
Y02265D03*
G54D81*
X0175Y03947D03*
Y04092D03*
G54D82*
X08224Y0217D03*
X08075D03*
G54D83*
X02492Y0411D03*
X02327D03*
M02*