%FSLAX24Y24*%
%MOIN*%
G70*
G01*
G75*
G04 Layer_Physical_Order=1*
G04 Layer_Color=255*
%ADD10C,0.1800*%
%ADD11C,0.0669*%
%ADD12R,0.0669X0.0669*%
%ADD13R,0.0669X0.0669*%
%ADD14C,0.0551*%
D10*
X26400Y24100D02*
D03*
Y20650D02*
D03*
X37950Y40300D02*
D03*
X2150D02*
D03*
Y1700D02*
D03*
X37950D02*
D03*
D11*
X5000Y15750D02*
D03*
Y10300D02*
D03*
X16650Y34500D02*
D03*
X10700Y34600D02*
D03*
X20650Y4800D02*
D03*
X5000Y4750D02*
D03*
X27050Y4800D02*
D03*
X10850Y15750D02*
D03*
X33050Y4800D02*
D03*
X10850Y10300D02*
D03*
X32500Y11550D02*
D03*
X10850Y4800D02*
D03*
X28200Y34600D02*
D03*
Y36200D02*
D03*
X32500Y20250D02*
D03*
Y18650D02*
D03*
Y17050D02*
D03*
X16900Y12100D02*
D03*
X18500D02*
D03*
X20100D02*
D03*
X36150Y32400D02*
D03*
Y34000D02*
D03*
Y35600D02*
D03*
X22050Y34600D02*
D03*
Y33000D02*
D03*
Y31400D02*
D03*
Y29800D02*
D03*
Y28400D02*
D03*
D12*
X5000Y17350D02*
D03*
Y11900D02*
D03*
X16650Y36100D02*
D03*
X10700Y36200D02*
D03*
X5000Y6350D02*
D03*
X10850Y17350D02*
D03*
Y11900D02*
D03*
X32500Y9950D02*
D03*
X10850Y6400D02*
D03*
X28200Y33000D02*
D03*
X32500Y15450D02*
D03*
X36150Y37200D02*
D03*
X22050Y36200D02*
D03*
D13*
X19050Y4800D02*
D03*
X25450D02*
D03*
X31450D02*
D03*
X21700Y12100D02*
D03*
D14*
X10750Y31850D02*
D03*
Y28850D02*
D03*
X16650Y28800D02*
D03*
Y31800D02*
D03*
X36100Y28100D02*
D03*
Y25100D02*
D03*
M02*
