G04 CAM Products 2000  RS274-X Output*
G04 Serial Number: 0000-00-00000*
G04 File Name:ir_sensor_board_outline.gbr *
%FSLAX34Y34*%
%MOIN*%
%SFA1B1*%

%IPPOS*%
%ADD10C,0.005500*%
%ADD11C,0.006000*%
%ADD13C,0.013000*%
%ADD14C,0.025000*%
%ADD15R,0.074800X0.100000*%
%ADD16R,0.059100X0.059100*%
%ADD17C,0.059100*%
%ADD18R,0.070900X0.070900*%
%ADD19C,0.070900*%
%ADD20C,0.059000*%
%ADD21C,0.078700*%
%ADD22C,0.138000*%
%ADD28C,0.086700*%
%ADD29C,0.067000*%
%ADD32R,0.078900X0.078900*%
%ADD34C,0.067100*%
%ADD36R,0.067100X0.067100*%
%ADD38R,0.082800X0.108000*%
%ADD41C,0.007700*%
%ADD500C,0.035000*%
%ADD501C,0.039400*%
%ADD502C,0.047200*%
%ADD503C,0.138000*%
%LNir_sensor_board_outline-1*%
%LPD*%
G54D10*
X3940Y3940D02*
D01*
X4247Y3655*
X4572Y3391*
X4915Y3151*
X5274Y2935*
X5647Y2745*
X6033Y2582*
X6429Y2445*
X6833Y2337*
X7244Y2257*
X7660Y2206*
X8078Y2184*
X8497Y2191*
X8914Y2228*
X9327Y2293*
X9735Y2387*
X10136Y2509*
X10527Y2659*
X10906Y2836*
X11273Y3039*
X11624Y3267*
X11958Y3519*
X12275Y3794*
X12571Y4090*
X12846Y4406*
X13098Y4740*
X13326Y5091*
X13529Y5457*
X13706Y5837*
X13856Y6228*
X13979Y6628*
X14073Y7036*
X14139Y7450*
X14176Y7867*
X14183Y8286*
X14161Y8704*
X14111Y9119*
X14031Y9530*
X13923Y9935*
X13787Y10331*
X13623Y10717*
X13433Y11090*
X13218Y11449*
X12978Y11792*
X12714Y12118*
X12429Y12424*
X12425Y12425*
X12119Y12711*
X11794Y12975*
X11451Y13215*
X11092Y13431*
X10719Y13621*
X10333Y13784*
X9937Y13921*
X9533Y14029*
X9122Y14109*
X8706Y14160*
X8288Y14182*
X7869Y14175*
X7452Y14138*
X7039Y14073*
X6631Y13979*
X6230Y13857*
X5839Y13707*
X5460Y13530*
X5093Y13327*
X4742Y13099*
X4408Y12847*
X4091Y12572*
X3795Y12276*
X3520Y11960*
X3268Y11626*
X3040Y11275*
X2837Y10909*
X2660Y10529*
X2510Y10138*
X2387Y9738*
X2293Y9330*
X2227Y8916*
X2190Y8499*
X2183Y8080*
X2205Y7662*
X2255Y7247*
X2335Y6836*
X2443Y6431*
X2579Y6035*
X2743Y5649*
X2933Y5276*
X3148Y4917*
X3388Y4574*
X3652Y4248*
X3937Y3942*
X3940Y3940*
M02*