G04 DipTrace 2.3.0.3*
%INTopPaste.gbr*%
%MOIN*%
%ADD44R,0.0315X0.0354*%
%ADD56R,0.0433X0.0512*%
%ADD70R,0.0906X0.189*%
%ADD72R,0.189X0.189*%
%FSLAX44Y44*%
G04*
G70*
G90*
G75*
G01*
%LNTopPaste*%
%LPD*%
D72*
X10687Y6938D3*
D70*
X13640D3*
X7734D3*
D56*
X17187Y31937D3*
X17935D3*
D44*
X21687Y30437D3*
Y31106D3*
M02*
