G04 (created by PCBNEW-RS274X (2011-05-25)-stable) date Fri 06 Jul 2012 02:38:42 PM EDT*
G01*
G70*
G90*
%MOIN*%
G04 Gerber Fmt 3.4, Leading zero omitted, Abs format*
%FSLAX34Y34*%
G04 APERTURE LIST*
%ADD10C,0.006000*%
%ADD11R,0.075000X0.075000*%
%ADD12C,0.075000*%
%ADD13C,0.270000*%
%ADD14R,0.080000X0.080000*%
%ADD15C,0.080000*%
G04 APERTURE END LIST*
G54D10*
G54D11*
X36700Y-17900D03*
G54D12*
X35700Y-17900D03*
X35700Y-18900D03*
G54D13*
X38600Y-21600D03*
G54D14*
X36600Y-21100D03*
G54D15*
X36600Y-22100D03*
G54D14*
X37900Y-18700D03*
G54D15*
X37900Y-17700D03*
X37900Y-16700D03*
G54D14*
X39200Y-18700D03*
G54D15*
X39200Y-17700D03*
X39200Y-16700D03*
X35450Y-19800D03*
X39450Y-19800D03*
M02*
