G04 #@! TF.FileFunction,Copper,L1,Top,Signal*
%FSLAX46Y46*%
G04 Gerber Fmt 4.6, Leading zero omitted, Abs format (unit mm)*
G04 Created by KiCad (PCBNEW 4.0.1-stable) date 27/01/2016 18:21:15*
%MOMM*%
G01*
G04 APERTURE LIST*
%ADD10C,0.100000*%
%ADD11C,2.500000*%
%ADD12C,1.800000*%
%ADD13C,0.600000*%
%ADD14C,0.500000*%
%ADD15C,0.254000*%
G04 APERTURE END LIST*
D10*
D11*
X146750000Y-121500000D03*
X159250000Y-121500000D03*
X146750000Y-126500000D03*
X159250000Y-126500000D03*
X159250000Y-110500000D03*
X146750000Y-110500000D03*
X159250000Y-105500000D03*
X146750000Y-105500000D03*
D12*
X153000000Y-112500000D03*
D13*
X141950000Y-116000000D03*
X142000000Y-127900000D03*
X163900000Y-104150000D03*
X142100000Y-104100000D03*
X149550000Y-114000000D03*
D14*
X149550000Y-114000000D02*
X143950000Y-114000000D01*
X143950000Y-114000000D02*
X141950000Y-116000000D01*
X144500000Y-125500000D02*
X142100000Y-127900000D01*
X142100000Y-127900000D02*
X142000000Y-127900000D01*
X144500000Y-122850000D02*
X144500000Y-125500000D01*
X143700000Y-122050000D02*
X144500000Y-122850000D01*
X143700000Y-119425736D02*
X143700000Y-122050000D01*
X149550000Y-114000000D02*
X149125736Y-114000000D01*
X149125736Y-114000000D02*
X143700000Y-119425736D01*
X162500000Y-102750000D02*
X163900000Y-104150000D01*
X157250000Y-102750000D02*
X162500000Y-102750000D01*
X150700000Y-109300000D02*
X157250000Y-102750000D01*
X149550000Y-109300000D02*
X149550000Y-105635998D01*
X149550000Y-114000000D02*
X149550000Y-109300000D01*
X149550000Y-109300000D02*
X150700000Y-109300000D01*
X148600000Y-102700000D02*
X143500000Y-102700000D01*
X143500000Y-102700000D02*
X142100000Y-104100000D01*
X149550000Y-103650000D02*
X148600000Y-102700000D01*
X149550000Y-105635998D02*
X149550000Y-103650000D01*
D15*
G36*
X151452048Y-102463736D02*
X151173318Y-103134993D01*
X151172684Y-103861818D01*
X151450242Y-104533560D01*
X151963736Y-105047952D01*
X152634993Y-105326682D01*
X153361818Y-105327316D01*
X154033560Y-105049758D01*
X154547952Y-104536264D01*
X154826682Y-103865007D01*
X154827316Y-103138182D01*
X154549758Y-102466440D01*
X154086129Y-102002000D01*
X163901312Y-102002000D01*
X164757089Y-102172225D01*
X165398918Y-102601082D01*
X165827775Y-103242911D01*
X165998000Y-104098689D01*
X165998000Y-107134742D01*
X165846647Y-106768440D01*
X165234782Y-106155505D01*
X164434932Y-105823379D01*
X163568868Y-105822623D01*
X162768440Y-106153353D01*
X162155505Y-106765218D01*
X161823379Y-107565068D01*
X161822623Y-108431132D01*
X162153353Y-109231560D01*
X162765218Y-109844495D01*
X163565068Y-110176621D01*
X164431132Y-110177377D01*
X165231560Y-109846647D01*
X165844495Y-109234782D01*
X165998000Y-108865100D01*
X165998000Y-123134742D01*
X165846647Y-122768440D01*
X165234782Y-122155505D01*
X164434932Y-121823379D01*
X163568868Y-121822623D01*
X162768440Y-122153353D01*
X162155505Y-122765218D01*
X161823379Y-123565068D01*
X161822623Y-124431132D01*
X162153353Y-125231560D01*
X162765218Y-125844495D01*
X163565068Y-126176621D01*
X164431132Y-126177377D01*
X165231560Y-125846647D01*
X165844495Y-125234782D01*
X165998000Y-124865100D01*
X165998000Y-127901311D01*
X165827775Y-128757089D01*
X165398918Y-129398918D01*
X164757089Y-129827775D01*
X163901312Y-129998000D01*
X154085409Y-129998000D01*
X154547952Y-129536264D01*
X154826682Y-128865007D01*
X154827316Y-128138182D01*
X154549758Y-127466440D01*
X154036264Y-126952048D01*
X153985893Y-126931132D01*
X157072623Y-126931132D01*
X157403353Y-127731560D01*
X158015218Y-128344495D01*
X158815068Y-128676621D01*
X159681132Y-128677377D01*
X160481560Y-128346647D01*
X161094495Y-127734782D01*
X161426621Y-126934932D01*
X161427377Y-126068868D01*
X161096647Y-125268440D01*
X160484782Y-124655505D01*
X159684932Y-124323379D01*
X158818868Y-124322623D01*
X158018440Y-124653353D01*
X157405505Y-125265218D01*
X157073379Y-126065068D01*
X157072623Y-126931132D01*
X153985893Y-126931132D01*
X153365007Y-126673318D01*
X152638182Y-126672684D01*
X151966440Y-126950242D01*
X151452048Y-127463736D01*
X151173318Y-128134993D01*
X151172684Y-128861818D01*
X151450242Y-129533560D01*
X151913871Y-129998000D01*
X142098689Y-129998000D01*
X141242911Y-129827775D01*
X140601082Y-129398918D01*
X140172225Y-128757089D01*
X140002000Y-127901312D01*
X140002000Y-126931132D01*
X144572623Y-126931132D01*
X144903353Y-127731560D01*
X145515218Y-128344495D01*
X146315068Y-128676621D01*
X147181132Y-128677377D01*
X147981560Y-128346647D01*
X148594495Y-127734782D01*
X148926621Y-126934932D01*
X148927377Y-126068868D01*
X148596647Y-125268440D01*
X147984782Y-124655505D01*
X147184932Y-124323379D01*
X146318868Y-124322623D01*
X145518440Y-124653353D01*
X144905505Y-125265218D01*
X144573379Y-126065068D01*
X144572623Y-126931132D01*
X140002000Y-126931132D01*
X140002000Y-124865258D01*
X140153353Y-125231560D01*
X140765218Y-125844495D01*
X141565068Y-126176621D01*
X142431132Y-126177377D01*
X143231560Y-125846647D01*
X143844495Y-125234782D01*
X144176621Y-124434932D01*
X144177377Y-123568868D01*
X143846647Y-122768440D01*
X143234782Y-122155505D01*
X142694431Y-121931132D01*
X144572623Y-121931132D01*
X144903353Y-122731560D01*
X145515218Y-123344495D01*
X146315068Y-123676621D01*
X147181132Y-123677377D01*
X147981560Y-123346647D01*
X148594495Y-122734782D01*
X148926621Y-121934932D01*
X148926624Y-121931132D01*
X157072623Y-121931132D01*
X157403353Y-122731560D01*
X158015218Y-123344495D01*
X158815068Y-123676621D01*
X159681132Y-123677377D01*
X160481560Y-123346647D01*
X161094495Y-122734782D01*
X161426621Y-121934932D01*
X161427377Y-121068868D01*
X161096647Y-120268440D01*
X160484782Y-119655505D01*
X159684932Y-119323379D01*
X158818868Y-119322623D01*
X158018440Y-119653353D01*
X157405505Y-120265218D01*
X157073379Y-121065068D01*
X157072623Y-121931132D01*
X148926624Y-121931132D01*
X148927377Y-121068868D01*
X148596647Y-120268440D01*
X148190735Y-119861818D01*
X151172684Y-119861818D01*
X151450242Y-120533560D01*
X151963736Y-121047952D01*
X152634993Y-121326682D01*
X153361818Y-121327316D01*
X154033560Y-121049758D01*
X154547952Y-120536264D01*
X154826682Y-119865007D01*
X154827316Y-119138182D01*
X154549758Y-118466440D01*
X154036264Y-117952048D01*
X153365007Y-117673318D01*
X152638182Y-117672684D01*
X151966440Y-117950242D01*
X151452048Y-118463736D01*
X151173318Y-119134993D01*
X151172684Y-119861818D01*
X148190735Y-119861818D01*
X147984782Y-119655505D01*
X147184932Y-119323379D01*
X146318868Y-119322623D01*
X145518440Y-119653353D01*
X144905505Y-120265218D01*
X144573379Y-121065068D01*
X144572623Y-121931132D01*
X142694431Y-121931132D01*
X142434932Y-121823379D01*
X141568868Y-121822623D01*
X140768440Y-122153353D01*
X140155505Y-122765218D01*
X140002000Y-123134900D01*
X140002000Y-112861818D01*
X151172684Y-112861818D01*
X151450242Y-113533560D01*
X151963736Y-114047952D01*
X152634993Y-114326682D01*
X153361818Y-114327316D01*
X154033560Y-114049758D01*
X154547952Y-113536264D01*
X154826682Y-112865007D01*
X154827316Y-112138182D01*
X154549758Y-111466440D01*
X154036264Y-110952048D01*
X153985893Y-110931132D01*
X157072623Y-110931132D01*
X157403353Y-111731560D01*
X158015218Y-112344495D01*
X158815068Y-112676621D01*
X159681132Y-112677377D01*
X160481560Y-112346647D01*
X161094495Y-111734782D01*
X161426621Y-110934932D01*
X161427377Y-110068868D01*
X161096647Y-109268440D01*
X160484782Y-108655505D01*
X159684932Y-108323379D01*
X158818868Y-108322623D01*
X158018440Y-108653353D01*
X157405505Y-109265218D01*
X157073379Y-110065068D01*
X157072623Y-110931132D01*
X153985893Y-110931132D01*
X153365007Y-110673318D01*
X152638182Y-110672684D01*
X151966440Y-110950242D01*
X151452048Y-111463736D01*
X151173318Y-112134993D01*
X151172684Y-112861818D01*
X140002000Y-112861818D01*
X140002000Y-110931132D01*
X144572623Y-110931132D01*
X144903353Y-111731560D01*
X145515218Y-112344495D01*
X146315068Y-112676621D01*
X147181132Y-112677377D01*
X147981560Y-112346647D01*
X148594495Y-111734782D01*
X148926621Y-110934932D01*
X148927377Y-110068868D01*
X148596647Y-109268440D01*
X147984782Y-108655505D01*
X147184932Y-108323379D01*
X146318868Y-108322623D01*
X145518440Y-108653353D01*
X144905505Y-109265218D01*
X144573379Y-110065068D01*
X144572623Y-110931132D01*
X140002000Y-110931132D01*
X140002000Y-108865258D01*
X140153353Y-109231560D01*
X140765218Y-109844495D01*
X141565068Y-110176621D01*
X142431132Y-110177377D01*
X143231560Y-109846647D01*
X143844495Y-109234782D01*
X144176621Y-108434932D01*
X144177377Y-107568868D01*
X143846647Y-106768440D01*
X143234782Y-106155505D01*
X142694431Y-105931132D01*
X144572623Y-105931132D01*
X144903353Y-106731560D01*
X145515218Y-107344495D01*
X146315068Y-107676621D01*
X147181132Y-107677377D01*
X147981560Y-107346647D01*
X148594495Y-106734782D01*
X148926621Y-105934932D01*
X148926624Y-105931132D01*
X157072623Y-105931132D01*
X157403353Y-106731560D01*
X158015218Y-107344495D01*
X158815068Y-107676621D01*
X159681132Y-107677377D01*
X160481560Y-107346647D01*
X161094495Y-106734782D01*
X161426621Y-105934932D01*
X161427377Y-105068868D01*
X161096647Y-104268440D01*
X160484782Y-103655505D01*
X159684932Y-103323379D01*
X158818868Y-103322623D01*
X158018440Y-103653353D01*
X157405505Y-104265218D01*
X157073379Y-105065068D01*
X157072623Y-105931132D01*
X148926624Y-105931132D01*
X148927377Y-105068868D01*
X148596647Y-104268440D01*
X147984782Y-103655505D01*
X147184932Y-103323379D01*
X146318868Y-103322623D01*
X145518440Y-103653353D01*
X144905505Y-104265218D01*
X144573379Y-105065068D01*
X144572623Y-105931132D01*
X142694431Y-105931132D01*
X142434932Y-105823379D01*
X141568868Y-105822623D01*
X140768440Y-106153353D01*
X140155505Y-106765218D01*
X140002000Y-107134900D01*
X140002000Y-104098688D01*
X140172225Y-103242911D01*
X140601082Y-102601082D01*
X141242911Y-102172225D01*
X142098689Y-102002000D01*
X151914591Y-102002000D01*
X151452048Y-102463736D01*
X151452048Y-102463736D01*
G37*
X151452048Y-102463736D02*
X151173318Y-103134993D01*
X151172684Y-103861818D01*
X151450242Y-104533560D01*
X151963736Y-105047952D01*
X152634993Y-105326682D01*
X153361818Y-105327316D01*
X154033560Y-105049758D01*
X154547952Y-104536264D01*
X154826682Y-103865007D01*
X154827316Y-103138182D01*
X154549758Y-102466440D01*
X154086129Y-102002000D01*
X163901312Y-102002000D01*
X164757089Y-102172225D01*
X165398918Y-102601082D01*
X165827775Y-103242911D01*
X165998000Y-104098689D01*
X165998000Y-107134742D01*
X165846647Y-106768440D01*
X165234782Y-106155505D01*
X164434932Y-105823379D01*
X163568868Y-105822623D01*
X162768440Y-106153353D01*
X162155505Y-106765218D01*
X161823379Y-107565068D01*
X161822623Y-108431132D01*
X162153353Y-109231560D01*
X162765218Y-109844495D01*
X163565068Y-110176621D01*
X164431132Y-110177377D01*
X165231560Y-109846647D01*
X165844495Y-109234782D01*
X165998000Y-108865100D01*
X165998000Y-123134742D01*
X165846647Y-122768440D01*
X165234782Y-122155505D01*
X164434932Y-121823379D01*
X163568868Y-121822623D01*
X162768440Y-122153353D01*
X162155505Y-122765218D01*
X161823379Y-123565068D01*
X161822623Y-124431132D01*
X162153353Y-125231560D01*
X162765218Y-125844495D01*
X163565068Y-126176621D01*
X164431132Y-126177377D01*
X165231560Y-125846647D01*
X165844495Y-125234782D01*
X165998000Y-124865100D01*
X165998000Y-127901311D01*
X165827775Y-128757089D01*
X165398918Y-129398918D01*
X164757089Y-129827775D01*
X163901312Y-129998000D01*
X154085409Y-129998000D01*
X154547952Y-129536264D01*
X154826682Y-128865007D01*
X154827316Y-128138182D01*
X154549758Y-127466440D01*
X154036264Y-126952048D01*
X153985893Y-126931132D01*
X157072623Y-126931132D01*
X157403353Y-127731560D01*
X158015218Y-128344495D01*
X158815068Y-128676621D01*
X159681132Y-128677377D01*
X160481560Y-128346647D01*
X161094495Y-127734782D01*
X161426621Y-126934932D01*
X161427377Y-126068868D01*
X161096647Y-125268440D01*
X160484782Y-124655505D01*
X159684932Y-124323379D01*
X158818868Y-124322623D01*
X158018440Y-124653353D01*
X157405505Y-125265218D01*
X157073379Y-126065068D01*
X157072623Y-126931132D01*
X153985893Y-126931132D01*
X153365007Y-126673318D01*
X152638182Y-126672684D01*
X151966440Y-126950242D01*
X151452048Y-127463736D01*
X151173318Y-128134993D01*
X151172684Y-128861818D01*
X151450242Y-129533560D01*
X151913871Y-129998000D01*
X142098689Y-129998000D01*
X141242911Y-129827775D01*
X140601082Y-129398918D01*
X140172225Y-128757089D01*
X140002000Y-127901312D01*
X140002000Y-126931132D01*
X144572623Y-126931132D01*
X144903353Y-127731560D01*
X145515218Y-128344495D01*
X146315068Y-128676621D01*
X147181132Y-128677377D01*
X147981560Y-128346647D01*
X148594495Y-127734782D01*
X148926621Y-126934932D01*
X148927377Y-126068868D01*
X148596647Y-125268440D01*
X147984782Y-124655505D01*
X147184932Y-124323379D01*
X146318868Y-124322623D01*
X145518440Y-124653353D01*
X144905505Y-125265218D01*
X144573379Y-126065068D01*
X144572623Y-126931132D01*
X140002000Y-126931132D01*
X140002000Y-124865258D01*
X140153353Y-125231560D01*
X140765218Y-125844495D01*
X141565068Y-126176621D01*
X142431132Y-126177377D01*
X143231560Y-125846647D01*
X143844495Y-125234782D01*
X144176621Y-124434932D01*
X144177377Y-123568868D01*
X143846647Y-122768440D01*
X143234782Y-122155505D01*
X142694431Y-121931132D01*
X144572623Y-121931132D01*
X144903353Y-122731560D01*
X145515218Y-123344495D01*
X146315068Y-123676621D01*
X147181132Y-123677377D01*
X147981560Y-123346647D01*
X148594495Y-122734782D01*
X148926621Y-121934932D01*
X148926624Y-121931132D01*
X157072623Y-121931132D01*
X157403353Y-122731560D01*
X158015218Y-123344495D01*
X158815068Y-123676621D01*
X159681132Y-123677377D01*
X160481560Y-123346647D01*
X161094495Y-122734782D01*
X161426621Y-121934932D01*
X161427377Y-121068868D01*
X161096647Y-120268440D01*
X160484782Y-119655505D01*
X159684932Y-119323379D01*
X158818868Y-119322623D01*
X158018440Y-119653353D01*
X157405505Y-120265218D01*
X157073379Y-121065068D01*
X157072623Y-121931132D01*
X148926624Y-121931132D01*
X148927377Y-121068868D01*
X148596647Y-120268440D01*
X148190735Y-119861818D01*
X151172684Y-119861818D01*
X151450242Y-120533560D01*
X151963736Y-121047952D01*
X152634993Y-121326682D01*
X153361818Y-121327316D01*
X154033560Y-121049758D01*
X154547952Y-120536264D01*
X154826682Y-119865007D01*
X154827316Y-119138182D01*
X154549758Y-118466440D01*
X154036264Y-117952048D01*
X153365007Y-117673318D01*
X152638182Y-117672684D01*
X151966440Y-117950242D01*
X151452048Y-118463736D01*
X151173318Y-119134993D01*
X151172684Y-119861818D01*
X148190735Y-119861818D01*
X147984782Y-119655505D01*
X147184932Y-119323379D01*
X146318868Y-119322623D01*
X145518440Y-119653353D01*
X144905505Y-120265218D01*
X144573379Y-121065068D01*
X144572623Y-121931132D01*
X142694431Y-121931132D01*
X142434932Y-121823379D01*
X141568868Y-121822623D01*
X140768440Y-122153353D01*
X140155505Y-122765218D01*
X140002000Y-123134900D01*
X140002000Y-112861818D01*
X151172684Y-112861818D01*
X151450242Y-113533560D01*
X151963736Y-114047952D01*
X152634993Y-114326682D01*
X153361818Y-114327316D01*
X154033560Y-114049758D01*
X154547952Y-113536264D01*
X154826682Y-112865007D01*
X154827316Y-112138182D01*
X154549758Y-111466440D01*
X154036264Y-110952048D01*
X153985893Y-110931132D01*
X157072623Y-110931132D01*
X157403353Y-111731560D01*
X158015218Y-112344495D01*
X158815068Y-112676621D01*
X159681132Y-112677377D01*
X160481560Y-112346647D01*
X161094495Y-111734782D01*
X161426621Y-110934932D01*
X161427377Y-110068868D01*
X161096647Y-109268440D01*
X160484782Y-108655505D01*
X159684932Y-108323379D01*
X158818868Y-108322623D01*
X158018440Y-108653353D01*
X157405505Y-109265218D01*
X157073379Y-110065068D01*
X157072623Y-110931132D01*
X153985893Y-110931132D01*
X153365007Y-110673318D01*
X152638182Y-110672684D01*
X151966440Y-110950242D01*
X151452048Y-111463736D01*
X151173318Y-112134993D01*
X151172684Y-112861818D01*
X140002000Y-112861818D01*
X140002000Y-110931132D01*
X144572623Y-110931132D01*
X144903353Y-111731560D01*
X145515218Y-112344495D01*
X146315068Y-112676621D01*
X147181132Y-112677377D01*
X147981560Y-112346647D01*
X148594495Y-111734782D01*
X148926621Y-110934932D01*
X148927377Y-110068868D01*
X148596647Y-109268440D01*
X147984782Y-108655505D01*
X147184932Y-108323379D01*
X146318868Y-108322623D01*
X145518440Y-108653353D01*
X144905505Y-109265218D01*
X144573379Y-110065068D01*
X144572623Y-110931132D01*
X140002000Y-110931132D01*
X140002000Y-108865258D01*
X140153353Y-109231560D01*
X140765218Y-109844495D01*
X141565068Y-110176621D01*
X142431132Y-110177377D01*
X143231560Y-109846647D01*
X143844495Y-109234782D01*
X144176621Y-108434932D01*
X144177377Y-107568868D01*
X143846647Y-106768440D01*
X143234782Y-106155505D01*
X142694431Y-105931132D01*
X144572623Y-105931132D01*
X144903353Y-106731560D01*
X145515218Y-107344495D01*
X146315068Y-107676621D01*
X147181132Y-107677377D01*
X147981560Y-107346647D01*
X148594495Y-106734782D01*
X148926621Y-105934932D01*
X148926624Y-105931132D01*
X157072623Y-105931132D01*
X157403353Y-106731560D01*
X158015218Y-107344495D01*
X158815068Y-107676621D01*
X159681132Y-107677377D01*
X160481560Y-107346647D01*
X161094495Y-106734782D01*
X161426621Y-105934932D01*
X161427377Y-105068868D01*
X161096647Y-104268440D01*
X160484782Y-103655505D01*
X159684932Y-103323379D01*
X158818868Y-103322623D01*
X158018440Y-103653353D01*
X157405505Y-104265218D01*
X157073379Y-105065068D01*
X157072623Y-105931132D01*
X148926624Y-105931132D01*
X148927377Y-105068868D01*
X148596647Y-104268440D01*
X147984782Y-103655505D01*
X147184932Y-103323379D01*
X146318868Y-103322623D01*
X145518440Y-103653353D01*
X144905505Y-104265218D01*
X144573379Y-105065068D01*
X144572623Y-105931132D01*
X142694431Y-105931132D01*
X142434932Y-105823379D01*
X141568868Y-105822623D01*
X140768440Y-106153353D01*
X140155505Y-106765218D01*
X140002000Y-107134900D01*
X140002000Y-104098688D01*
X140172225Y-103242911D01*
X140601082Y-102601082D01*
X141242911Y-102172225D01*
X142098689Y-102002000D01*
X151914591Y-102002000D01*
X151452048Y-102463736D01*
M02*
