G04 Layer_Physical_Order=2*
G04 Layer_Color=16711680*
%FSLAX25Y25*%
%MOIN*%
G70*
G01*
G75*
%ADD19C,0.02000*%
%ADD20C,0.01200*%
%ADD23C,0.02500*%
%ADD24C,0.04134*%
%ADD25R,0.03937X0.03937*%
%ADD26C,0.06000*%
%ADD27C,0.02800*%
%ADD28C,0.03000*%
D19*
X289500Y345000D02*
X316000D01*
X294000Y365500D02*
X299000Y370500D01*
X351000D01*
X353000Y368500D01*
Y365500D02*
Y368500D01*
X396000Y342500D02*
Y346000D01*
X392500Y339000D02*
X396000Y342500D01*
X337000Y319500D02*
X337500Y319000D01*
X291000Y319500D02*
X337000D01*
D20*
X327500Y365500D02*
X328500Y366500D01*
X326500Y339500D02*
X352000D01*
X353000Y341000D02*
X353500D01*
X328500Y366500D02*
X349000D01*
X352000Y339500D02*
X353500Y341000D01*
D23*
X345000Y345000D02*
X353000D01*
X327000D02*
X345000D01*
X319500Y340000D02*
X324500Y345000D01*
X327000D01*
D24*
X371000D02*
D03*
X366000D02*
D03*
X371000Y350000D02*
D03*
X366000D02*
D03*
X371000Y355000D02*
D03*
X366000D02*
D03*
X371000Y360000D02*
D03*
X366000D02*
D03*
X371000Y365000D02*
D03*
D25*
X366000D02*
D03*
D26*
X215500Y310000D02*
D03*
Y375000D02*
D03*
Y335000D02*
D03*
Y400000D02*
D03*
X368500Y317500D02*
D03*
Y392500D02*
D03*
X215500Y355000D02*
D03*
D27*
X227050Y340000D02*
D03*
X337500Y319000D02*
D03*
X327500Y365500D02*
D03*
X294000D02*
D03*
X327000Y345000D02*
D03*
X316000D02*
D03*
X326500Y339500D02*
D03*
X345000Y345000D02*
D03*
X353000Y341000D02*
D03*
Y345000D02*
D03*
X349000Y366500D02*
D03*
X353000Y365500D02*
D03*
X392500Y339000D02*
D03*
X289500Y345000D02*
D03*
X396000Y346000D02*
D03*
X291000Y319500D02*
D03*
D28*
X227050Y340000D02*
X319500D01*
M02*
