G04 DipTrace 2.4.0.2*
%INUSBBiPower3.2.gbl*%
%MOIN*%
%ADD14C,0.02*%
%ADD15C,0.03*%
%ADD16C,0.012*%
%ADD18C,0.01*%
%ADD19C,0.035*%
%ADD20C,0.045*%
%ADD22C,0.025*%
%ADD25C,0.006*%
%ADD27R,0.08X0.0669*%
%ADD28R,0.0669X0.08*%
%ADD46C,0.028*%
%ADD62C,0.028*%
%FSLAX44Y44*%
G04*
G70*
G90*
G75*
G01*
%LNBottom*%
%LPD*%
X4595Y6806D2*
D15*
X4739D1*
X5275Y7341D1*
Y7728D1*
X5537Y7990D1*
X6024D1*
X6066Y8032D1*
X8548Y10302D2*
D19*
Y10265D1*
X7976D1*
X7664Y9953D1*
Y7582D1*
X7608D1*
X7951Y10275D2*
D15*
X7976Y10265D1*
X4595Y6806D2*
D20*
X4157D1*
Y6267D1*
X3937D1*
X4158Y6806D2*
Y7267D1*
X3937D1*
X4953Y9417D2*
D18*
Y9800D1*
X5792Y10639D1*
X5915D1*
X5105Y10685D2*
X5215Y10794D1*
Y10989D1*
X4937Y11267D1*
X5747Y6829D2*
X5593D1*
X5037Y6273D1*
X4886D1*
X4921Y6238D1*
Y6189D1*
Y7509D2*
Y7752D1*
X5509Y8340D1*
X5676D1*
X3937Y4267D2*
D16*
X4270D1*
Y5267D1*
Y4966D1*
X5270Y5966D1*
Y6205D1*
X5495Y6431D1*
X5802D1*
X6412Y7041D1*
X6243D1*
X6424Y7222D1*
Y7258D1*
X3937Y5267D2*
X4270D1*
X4473Y4114D2*
X4355D1*
Y4184D1*
X4272Y4267D1*
X5015Y8447D2*
X5425Y8858D1*
X6119D1*
X6406Y8570D1*
Y8400D1*
X3937Y8267D2*
Y8138D1*
X3723Y8352D1*
X4431D1*
X4608Y8529D1*
X4933D1*
X5015Y8447D1*
X8160Y5707D2*
X8163D1*
X8510Y5361D1*
X8908D1*
X9088D1*
X9229Y5220D1*
X10354D1*
X10726Y5592D1*
Y6267D1*
X10937D1*
X10354Y5220D2*
X10307Y5267D1*
X10937D1*
X9284Y5774D2*
D18*
Y5736D1*
X8908Y5361D1*
X6446Y7066D2*
D16*
X6373D1*
X6268Y7171D1*
D18*
X6196D1*
X6091Y7066D1*
X6268Y7171D2*
X6243Y7041D1*
X6386Y7880D2*
D16*
Y7959D1*
X6406Y7979D1*
Y8312D1*
X6450Y8356D1*
X6406Y8400D1*
X7285Y9122D2*
D22*
Y10222D1*
X7712Y10648D1*
X8425D1*
X9044Y11267D1*
X8937D1*
X7285Y10222D2*
D16*
X7330D1*
X7435Y10327D1*
X5822Y7480D2*
D18*
Y7514D1*
X6550D1*
X6767Y7297D1*
Y6414D1*
X6523Y6170D1*
X6863Y8455D2*
X6767Y8359D1*
Y7297D1*
X6490Y9962D2*
Y10578D1*
X6180Y10888D1*
Y11024D1*
X5937Y11267D1*
X5986Y10077D2*
X5975D1*
X6354Y9697D1*
X6584D1*
X6741Y9853D1*
Y11463D1*
X6937Y11267D1*
X5552Y9911D2*
Y9820D1*
X5998D1*
X6285Y9533D1*
X6666D1*
X6922Y9789D1*
Y10588D1*
X7068Y10734D1*
X7299D1*
X7832Y11267D1*
X7937D1*
X10937Y4267D2*
X8948D1*
X8484Y4731D1*
X5592Y6151D2*
D14*
X6072D1*
X6431Y6510D1*
X6504D1*
X5986Y8587D2*
D18*
X5949D1*
X5990Y8628D1*
X5556D1*
X5111Y8183D1*
X4810D1*
X4727Y8266D1*
X4983Y8787D2*
D16*
Y8923D1*
X4455D1*
X4112Y9267D1*
X3937D1*
X6917Y9069D2*
X6956Y9108D1*
X6832Y9232D1*
X5427D1*
X4983Y8787D1*
X6917Y9069D2*
Y9056D1*
X7236Y8738D1*
Y7300D1*
X8118Y6417D1*
Y7325D1*
Y6809D1*
X8585Y6342D1*
X9739D1*
X9807D1*
X10788Y7324D1*
X10880D1*
X10937Y7267D1*
X3937Y10267D2*
X4460D1*
X4599Y10127D1*
X9739Y6342D2*
X10167Y5915D1*
Y5622D1*
X10153Y5608D1*
X8118Y7325D2*
X8638D1*
Y6431D1*
X10176Y10501D2*
Y9259D1*
X10143Y9226D1*
Y8368D1*
X10015Y8240D1*
D62*
X7951Y10275D3*
X7608Y7582D3*
X8548Y10302D3*
X5915Y10639D3*
X5986Y10077D3*
X5552Y9911D3*
X4983Y8787D3*
X6917Y9069D3*
X7421Y6015D3*
X4953Y9417D3*
X8160Y5707D3*
X7298Y5070D3*
X4851Y5106D3*
X4516Y5228D3*
X8638Y6431D3*
X7285Y9122D3*
X5015Y8447D3*
X9284Y5774D3*
X5986Y8587D3*
X4473Y4114D3*
X6406Y8400D3*
X5543Y4614D3*
X7118Y4602D3*
X5676Y8340D3*
X4727Y8266D3*
X4921Y7509D3*
X6301Y5167D3*
X8484Y4731D3*
X6504Y6510D3*
X5592Y6151D3*
X6523Y6170D3*
X4921Y6189D3*
X5747Y6829D3*
X5822Y7480D3*
X4595Y6806D3*
X6066Y8032D3*
X6386Y7880D3*
X6863Y8455D3*
X6490Y9962D3*
X5105Y10685D3*
X10176Y10501D3*
X4210Y10986D3*
X4599Y10127D3*
X10665Y11037D3*
X10153Y5608D3*
X7435Y10327D3*
X10015Y8240D3*
X10143Y9226D3*
X5455Y9037D2*
D25*
X6682D1*
X5396Y8979D2*
X6698D1*
X5338Y8920D2*
X6733D1*
X5279Y8862D2*
X6768D1*
X3967Y8803D2*
X4356D1*
X5221D2*
X5895D1*
X6076D2*
X6768D1*
X3967Y8745D2*
X4749D1*
X5217D2*
X5470D1*
X6163D2*
X6769D1*
X3967Y8686D2*
X4769D1*
X5198D2*
X5407D1*
X6202D2*
X6769D1*
X3967Y8628D2*
X4809D1*
X5157D2*
X5349D1*
X6220D2*
X6702D1*
X3967Y8569D2*
X4898D1*
X5069D2*
X5290D1*
X6223D2*
X6655D1*
X3967Y8511D2*
X5232D1*
X6211D2*
X6631D1*
X3967Y8452D2*
X4582D1*
X4871D2*
X5173D1*
X6181D2*
X6625D1*
X3967Y8394D2*
X4526D1*
X4926D2*
X5115D1*
X6120D2*
X6624D1*
X3967Y8335D2*
X4499D1*
X4954D2*
X5057D1*
X5914D2*
X6619D1*
X3967Y8276D2*
X4489D1*
X5905D2*
X6619D1*
X3967Y8218D2*
X4494D1*
X6226D2*
X6619D1*
X3967Y8159D2*
X4514D1*
X6278D2*
X6619D1*
X3967Y8101D2*
X4557D1*
X6304D2*
X6619D1*
X3967Y8042D2*
X4658D1*
X6314D2*
X6619D1*
X3967Y7984D2*
X4946D1*
X6309D2*
X6619D1*
X3967Y7925D2*
X4887D1*
X6290D2*
X6619D1*
X3967Y7867D2*
X4829D1*
X6249D2*
X6619D1*
X3967Y7808D2*
X4784D1*
X6190D2*
X6619D1*
X3967Y7750D2*
X4772D1*
X6060D2*
X6619D1*
X4435Y7691D2*
X4770D1*
X5587D2*
X5719D1*
X5925D2*
X6619D1*
X4435Y7633D2*
X4718D1*
X5528D2*
X5641D1*
X4435Y7574D2*
X4692D1*
X5523D2*
X5604D1*
X4435Y7516D2*
X4683D1*
X5523D2*
X5587D1*
X4435Y7457D2*
X4688D1*
X5523D2*
X5585D1*
X4453Y7399D2*
X4711D1*
X5523D2*
X5599D1*
X4473Y7340D2*
X4756D1*
X5523D2*
X5632D1*
X6013D2*
X6517D1*
X4481Y7281D2*
X4867D1*
X5515D2*
X5696D1*
X5947D2*
X6576D1*
X4481Y7223D2*
X4808D1*
X5492D2*
X6619D1*
X4481Y7164D2*
X4750D1*
X5446D2*
X6619D1*
X5388Y7106D2*
X6619D1*
X5329Y7047D2*
X5662D1*
X5832D2*
X6619D1*
X5270Y6989D2*
X5573D1*
X5922D2*
X6619D1*
X5213Y6930D2*
X5487D1*
X5962D2*
X6619D1*
X5154Y6872D2*
X5429D1*
X5981D2*
X6619D1*
X5096Y6813D2*
X5370D1*
X5985D2*
X6619D1*
X5037Y6755D2*
X5312D1*
X5974D2*
X6619D1*
X4979Y6696D2*
X5253D1*
X5944D2*
X6359D1*
X4920Y6638D2*
X5194D1*
X5885D2*
X6281D1*
X4831Y6579D2*
X5136D1*
X5550D2*
X6223D1*
X4740Y6521D2*
X5077D1*
X5491D2*
X6164D1*
X4480Y6462D2*
X5019D1*
X5433D2*
X6106D1*
X4480Y6404D2*
X4824D1*
X5374D2*
X6047D1*
X4480Y6345D2*
X4743D1*
X5315D2*
X5459D1*
X5726D2*
X5988D1*
X4480Y6286D2*
X4704D1*
X5257D2*
X5398D1*
X4478Y6228D2*
X4686D1*
X5198D2*
X5367D1*
X4464Y6169D2*
X4683D1*
X5158D2*
X5355D1*
X4439Y6111D2*
X4696D1*
X5145D2*
X5358D1*
X4435Y6052D2*
X4726D1*
X5114D2*
X5376D1*
X6251D2*
X6316D1*
X6729D2*
X9808D1*
X10251D2*
X10893D1*
X4435Y5994D2*
X4788D1*
X5054D2*
X5416D1*
X6189D2*
X6365D1*
X6681D2*
X9866D1*
X10303D2*
X10900D1*
X4435Y5935D2*
X5500D1*
X5684D2*
X9925D1*
X10323D2*
X10900D1*
X4435Y5877D2*
X9983D1*
X10325D2*
X10899D1*
X3967Y5818D2*
X10009D1*
X10325D2*
X10899D1*
X3967Y5760D2*
X9971D1*
X10336D2*
X10899D1*
X3967Y5701D2*
X9935D1*
X10372D2*
X10898D1*
X3967Y5643D2*
X9918D1*
X10389D2*
X10898D1*
X3967Y5584D2*
X9916D1*
X10390D2*
X10898D1*
X3967Y5526D2*
X9930D1*
X10377D2*
X10897D1*
X3967Y5467D2*
X9963D1*
X10344D2*
X10897D1*
X3967Y5408D2*
X10029D1*
X10278D2*
X10897D1*
X3967Y5350D2*
X10896D1*
X3967Y5291D2*
X10896D1*
X3967Y5233D2*
X10896D1*
X3967Y5174D2*
X10895D1*
X3967Y5116D2*
X10895D1*
X3967Y5057D2*
X10895D1*
X3967Y4999D2*
X10895D1*
X3967Y4940D2*
X8378D1*
X8590D2*
X10894D1*
X3967Y4882D2*
X8302D1*
X8667D2*
X10894D1*
X3967Y4823D2*
X8266D1*
X8703D2*
X10894D1*
X3967Y4765D2*
X8249D1*
X8720D2*
X10893D1*
X3967Y4706D2*
X8247D1*
X8721D2*
X10893D1*
X3967Y4648D2*
X8261D1*
X8774D2*
X10439D1*
X3967Y4589D2*
X8295D1*
X8833D2*
X10439D1*
X3967Y4531D2*
X8361D1*
X8891D2*
X10439D1*
X3967Y4472D2*
X8536D1*
X8950D2*
X10439D1*
X3967Y4413D2*
X8595D1*
X9009D2*
X10439D1*
X3967Y4355D2*
X8653D1*
X3967Y4296D2*
X8712D1*
X3967Y4238D2*
X8770D1*
X3967Y4179D2*
X8828D1*
X3967Y4121D2*
X10439D1*
X3967Y4062D2*
X10439D1*
X3967Y4004D2*
X10439D1*
X5153Y6188D2*
X5151Y6159D1*
X5145Y6129D1*
X5136Y6101D1*
X5123Y6074D1*
X5107Y6049D1*
X5087Y6026D1*
X5065Y6006D1*
X5040Y5989D1*
X5014Y5976D1*
X4986Y5965D1*
X4956Y5959D1*
X4927Y5956D1*
X4897Y5957D1*
X4867Y5962D1*
X4839Y5971D1*
X4811Y5984D1*
X4786Y5999D1*
X4763Y6018D1*
X4742Y6040D1*
X4725Y6064D1*
X4710Y6090D1*
X4699Y6118D1*
X4692Y6147D1*
X4689Y6177D1*
Y6207D1*
X4693Y6236D1*
X4701Y6265D1*
X4713Y6293D1*
X4728Y6318D1*
X4746Y6342D1*
X4768Y6363D1*
X4802Y6388D1*
X4822Y6400D1*
X4859Y6412D1*
X4903Y6420D1*
X4933Y6421D1*
X4971Y6415D1*
X4978Y6416D1*
X5492Y6930D1*
X5515Y6949D1*
X5537Y6960D1*
X5573Y6983D1*
X5594Y7004D1*
X5618Y7022D1*
X5644Y7037D1*
X5671Y7049D1*
X5700Y7057D1*
X5730Y7061D1*
X5760D1*
X5789Y7058D1*
X5818Y7050D1*
X5846Y7039D1*
X5872Y7025D1*
X5896Y7007D1*
X5918Y6987D1*
X5937Y6963D1*
X5953Y6938D1*
X5965Y6911D1*
X5973Y6882D1*
X5978Y6853D1*
X5980Y6829D1*
X5978Y6799D1*
X5972Y6770D1*
X5962Y6742D1*
X5949Y6715D1*
X5933Y6690D1*
X5914Y6667D1*
X5891Y6647D1*
X5867Y6630D1*
X5840Y6616D1*
X5812Y6606D1*
X5783Y6600D1*
X5753Y6597D1*
X5723Y6598D1*
X5694Y6603D1*
X5665Y6612D1*
X5638Y6624D1*
X5609Y6643D1*
X5376Y6411D1*
X5153Y6188D1*
X4474Y6489D2*
X4473Y6237D1*
X4461Y6178D1*
X4439Y6123D1*
X4429Y6104D1*
Y5840D1*
X3961D1*
Y3947D1*
X10445Y3957D1*
Y4125D1*
X9950D1*
X8948D1*
X8918Y4128D1*
X8890Y4137D1*
X8869Y4149D1*
X8826Y4188D1*
X8513Y4500D1*
X8490Y4498D1*
X8460Y4500D1*
X8431Y4505D1*
X8402Y4513D1*
X8375Y4526D1*
X8349Y4541D1*
X8326Y4560D1*
X8306Y4582D1*
X8288Y4606D1*
X8274Y4632D1*
X8263Y4660D1*
X8256Y4689D1*
X8252Y4719D1*
X8253Y4749D1*
X8257Y4778D1*
X8265Y4807D1*
X8276Y4835D1*
X8292Y4861D1*
X8310Y4884D1*
X8331Y4905D1*
X8355Y4924D1*
X8381Y4939D1*
X8408Y4950D1*
X8437Y4958D1*
X8467Y4962D1*
X8496Y4963D1*
X8526Y4959D1*
X8555Y4952D1*
X8583Y4941D1*
X8609Y4927D1*
X8633Y4909D1*
X8655Y4888D1*
X8674Y4865D1*
X8689Y4840D1*
X8702Y4812D1*
X8710Y4784D1*
X8715Y4754D1*
Y4702D1*
X9008Y4409D1*
X10445D1*
Y4694D1*
X10898D1*
X10900Y4886D1*
X10906Y6052D1*
X10237Y6060D1*
X10275Y6022D1*
X10294Y5999D1*
X10308Y5973D1*
X10316Y5944D1*
X10319Y5915D1*
Y5770D1*
X10343Y5742D1*
X10359Y5717D1*
X10371Y5690D1*
X10380Y5661D1*
X10384Y5632D1*
X10386Y5608D1*
X10384Y5578D1*
X10378Y5549D1*
X10368Y5521D1*
X10355Y5494D1*
X10339Y5469D1*
X10320Y5446D1*
X10297Y5426D1*
X10273Y5409D1*
X10246Y5395D1*
X10218Y5385D1*
X10189Y5379D1*
X10159Y5376D1*
X10129Y5377D1*
X10100Y5382D1*
X10071Y5391D1*
X10044Y5403D1*
X10019Y5419D1*
X9995Y5438D1*
X9975Y5459D1*
X9957Y5484D1*
X9943Y5510D1*
X9932Y5538D1*
X9925Y5567D1*
X9921Y5596D1*
X9922Y5626D1*
X9926Y5656D1*
X9934Y5685D1*
X9946Y5712D1*
X9961Y5738D1*
X9979Y5762D1*
X10014Y5794D1*
X10015Y5851D1*
X9801Y6065D1*
X6796Y6101D1*
X6771Y6116D1*
X6767Y6131D1*
Y6213D1*
X6754Y6199D1*
X6755Y6170D1*
X6753Y6140D1*
X6747Y6110D1*
X6738Y6082D1*
X6725Y6055D1*
X6708Y6030D1*
X6689Y6007D1*
X6667Y5987D1*
X6642Y5970D1*
X6616Y5957D1*
X6587Y5946D1*
X6558Y5940D1*
X6528Y5937D1*
X6499Y5938D1*
X6469Y5943D1*
X6441Y5952D1*
X6413Y5965D1*
X6388Y5980D1*
X6365Y5999D1*
X6344Y6021D1*
X6326Y6045D1*
X6312Y6071D1*
X6299Y6107D1*
X6208Y6015D1*
X6185Y5995D1*
X6160Y5980D1*
X6132Y5968D1*
X6103Y5961D1*
X6042Y5959D1*
X5721D1*
X5685Y5938D1*
X5657Y5928D1*
X5628Y5921D1*
X5598Y5919D1*
X5568Y5920D1*
X5539Y5925D1*
X5510Y5934D1*
X5483Y5946D1*
X5457Y5962D1*
X5434Y5981D1*
X5414Y6002D1*
X5396Y6026D1*
X5382Y6053D1*
X5371Y6080D1*
X5364Y6109D1*
X5360Y6139D1*
X5361Y6169D1*
X5365Y6199D1*
X5373Y6227D1*
X5384Y6255D1*
X5400Y6281D1*
X5418Y6304D1*
X5439Y6326D1*
X5463Y6344D1*
X5489Y6359D1*
X5516Y6370D1*
X5545Y6378D1*
X5575Y6383D1*
X5604D1*
X5634Y6379D1*
X5663Y6372D1*
X5691Y6361D1*
X5722Y6343D1*
X5993D1*
X6148Y6498D1*
X6295Y6646D1*
X6318Y6665D1*
X6340Y6680D1*
X6351Y6685D1*
X6375Y6703D1*
X6400Y6718D1*
X6428Y6730D1*
X6457Y6738D1*
X6486Y6742D1*
X6516D1*
X6546Y6739D1*
X6575Y6731D1*
X6603Y6720D1*
X6625Y6708D1*
X6624Y7238D1*
X6490Y7372D1*
X6027D1*
X6008Y7341D1*
X5988Y7318D1*
X5966Y7298D1*
X5942Y7281D1*
X5915Y7267D1*
X5887Y7257D1*
X5858Y7251D1*
X5828Y7248D1*
X5798Y7249D1*
X5769Y7254D1*
X5740Y7263D1*
X5713Y7275D1*
X5687Y7291D1*
X5664Y7310D1*
X5644Y7332D1*
X5626Y7356D1*
X5612Y7382D1*
X5601Y7410D1*
X5593Y7439D1*
X5590Y7469D1*
Y7499D1*
X5595Y7528D1*
X5603Y7557D1*
X5614Y7584D1*
X5629Y7610D1*
X5648Y7634D1*
X5669Y7655D1*
X5693Y7673D1*
X5718Y7688D1*
X5746Y7700D1*
X5775Y7708D1*
X5805Y7712D1*
X5834D1*
X5864Y7709D1*
X5893Y7702D1*
X5921Y7691D1*
X5947Y7676D1*
X5973Y7657D1*
X6550Y7656D1*
X6580Y7653D1*
X6603Y7646D1*
X6625Y7656D1*
Y8359D1*
X6627Y8384D1*
X6634Y8413D1*
X6631Y8443D1*
Y8473D1*
X6635Y8502D1*
X6643Y8531D1*
X6655Y8559D1*
X6670Y8585D1*
X6688Y8608D1*
X6710Y8629D1*
X6733Y8648D1*
X6774Y8669D1*
Y8886D1*
X6739Y8921D1*
X6721Y8945D1*
X6707Y8971D1*
X6696Y8999D1*
X6689Y9028D1*
X6685Y9058D1*
X6686Y9079D1*
X5490D1*
X5215Y8803D1*
X5214Y8758D1*
X5208Y8728D1*
X5198Y8700D1*
X5185Y8673D1*
X5169Y8648D1*
X5150Y8625D1*
X5127Y8605D1*
X5103Y8588D1*
X5076Y8574D1*
X5048Y8564D1*
X5019Y8558D1*
X4989Y8555D1*
X4959Y8556D1*
X4930Y8561D1*
X4901Y8570D1*
X4874Y8582D1*
X4848Y8598D1*
X4825Y8617D1*
X4805Y8639D1*
X4787Y8663D1*
X4773Y8689D1*
X4762Y8717D1*
X4755Y8746D1*
X4752Y8771D1*
X4455D1*
X4426Y8774D1*
X4397Y8783D1*
X4371Y8797D1*
X4348Y8816D1*
X4323Y8840D1*
X3961D1*
Y7694D1*
X4429D1*
Y7431D1*
X4446Y7402D1*
X4466Y7346D1*
X4475Y7287D1*
X4476Y7122D1*
X4595Y7123D1*
X4654Y7117D1*
X4686Y7109D1*
X4716Y7125D1*
X4873Y7282D1*
X4839Y7292D1*
X4811Y7305D1*
X4786Y7320D1*
X4763Y7339D1*
X4742Y7361D1*
X4725Y7385D1*
X4710Y7411D1*
X4699Y7439D1*
X4692Y7468D1*
X4689Y7498D1*
Y7528D1*
X4693Y7557D1*
X4701Y7586D1*
X4713Y7614D1*
X4728Y7639D1*
X4746Y7663D1*
X4779Y7693D1*
X4778Y7752D1*
X4782Y7781D1*
X4791Y7810D1*
X4802Y7830D1*
X4841Y7873D1*
X5009Y8041D1*
X4809D1*
X4789Y8042D1*
X4762Y8036D1*
X4733Y8034D1*
X4703Y8035D1*
X4673Y8040D1*
X4645Y8049D1*
X4617Y8061D1*
X4592Y8077D1*
X4569Y8096D1*
X4548Y8117D1*
X4531Y8141D1*
X4516Y8168D1*
X4505Y8196D1*
X4498Y8225D1*
X4495Y8254D1*
Y8284D1*
X4499Y8314D1*
X4507Y8343D1*
X4519Y8370D1*
X4534Y8396D1*
X4552Y8420D1*
X4574Y8441D1*
X4597Y8459D1*
X4623Y8474D1*
X4651Y8486D1*
X4680Y8493D1*
X4709Y8498D1*
X4739D1*
X4769Y8494D1*
X4798Y8487D1*
X4826Y8476D1*
X4852Y8462D1*
X4876Y8444D1*
X4898Y8423D1*
X4916Y8400D1*
X4932Y8375D1*
X4944Y8348D1*
X4951Y8325D1*
X5053Y8326D1*
X5456Y8728D1*
X5479Y8747D1*
X5505Y8761D1*
X5528Y8767D1*
X5586Y8770D1*
X5844D1*
X5882Y8795D1*
X5910Y8807D1*
X5939Y8815D1*
X5968Y8819D1*
X5998D1*
X6028Y8816D1*
X6057Y8808D1*
X6085Y8797D1*
X6111Y8783D1*
X6135Y8765D1*
X6157Y8745D1*
X6176Y8721D1*
X6191Y8696D1*
X6203Y8669D1*
X6212Y8640D1*
X6217Y8611D1*
X6218Y8587D1*
X6216Y8557D1*
X6211Y8528D1*
X6201Y8500D1*
X6188Y8473D1*
X6172Y8448D1*
X6152Y8425D1*
X6130Y8405D1*
X6105Y8388D1*
X6079Y8374D1*
X6051Y8364D1*
X6022Y8358D1*
X5992Y8355D1*
X5962Y8356D1*
X5932Y8361D1*
X5907Y8369D1*
X5908Y8340D1*
X5906Y8310D1*
X5901Y8281D1*
X5891Y8253D1*
X5881Y8232D1*
X5931D1*
X5968Y8253D1*
X5996Y8264D1*
X6025Y8271D1*
X6055Y8274D1*
X6085Y8273D1*
X6114Y8269D1*
X6143Y8261D1*
X6171Y8250D1*
X6197Y8235D1*
X6221Y8218D1*
X6243Y8197D1*
X6262Y8174D1*
X6278Y8149D1*
X6291Y8122D1*
X6300Y8093D1*
X6306Y8064D1*
X6308Y8034D1*
X6306Y8004D1*
X6301Y7975D1*
X6292Y7946D1*
X6280Y7919D1*
X6265Y7893D1*
X6237Y7860D1*
X6173Y7799D1*
X6148Y7782D1*
X6122Y7768D1*
X6094Y7758D1*
X6065Y7751D1*
X6037Y7748D1*
X5638D1*
X5517Y7628D1*
Y7341D1*
X5515Y7311D1*
X5510Y7282D1*
X5501Y7254D1*
X5488Y7226D1*
X5473Y7201D1*
X5455Y7180D1*
X4910Y6634D1*
X4888Y6614D1*
X4863Y6597D1*
X4836Y6584D1*
X3918Y11204D2*
X4505D1*
X5370D2*
X5504D1*
X9369D2*
X10903D1*
X3918Y11145D2*
X4505D1*
X5370D2*
X5504D1*
X9369D2*
X10903D1*
X3918Y11087D2*
X4505D1*
X5370D2*
X5504D1*
X9369D2*
X10903D1*
X3918Y11028D2*
X4505D1*
X5370D2*
X5504D1*
X9369D2*
X10903D1*
X3918Y10970D2*
X4505D1*
X5370D2*
X5504D1*
X9369D2*
X10903D1*
X3918Y10911D2*
X4505D1*
X5370D2*
X5504D1*
X9369D2*
X10903D1*
X3918Y10853D2*
X4506D1*
X5368D2*
X5504D1*
X9369D2*
X10903D1*
X3918Y10794D2*
X4540D1*
X5363D2*
X5504D1*
X9369D2*
X10904D1*
X3918Y10736D2*
X4873D1*
X5351D2*
X5682D1*
X8825D2*
X10904D1*
X3918Y10677D2*
X4867D1*
X5343D2*
X5623D1*
X8767D2*
X10904D1*
X3918Y10619D2*
X4877D1*
X5334D2*
X5565D1*
X8708D2*
X10904D1*
X3918Y10560D2*
X4903D1*
X5307D2*
X5506D1*
X7101D2*
X7311D1*
X8650D2*
X10904D1*
X3918Y10502D2*
X4956D1*
X5254D2*
X5448D1*
X7070D2*
X7252D1*
X8732D2*
X10904D1*
X3918Y10443D2*
X5389D1*
X7070D2*
X7193D1*
X8781D2*
X10904D1*
X3918Y10385D2*
X5330D1*
X7070D2*
X7135D1*
X8808D2*
X10904D1*
X3918Y10326D2*
X5272D1*
X8820D2*
X10904D1*
X3918Y10267D2*
X5213D1*
X8822D2*
X10904D1*
X3918Y10209D2*
X5155D1*
X8815D2*
X10904D1*
X3918Y10150D2*
X5096D1*
X8795D2*
X10904D1*
X3918Y10092D2*
X5038D1*
X9676D2*
X10904D1*
X3918Y10033D2*
X4980D1*
X9676D2*
X10904D1*
X3918Y9975D2*
X4921D1*
X9676D2*
X10904D1*
X3918Y9916D2*
X4863D1*
X5277D2*
X5313D1*
X9676D2*
X10904D1*
X3918Y9858D2*
X4818D1*
X5218D2*
X5320D1*
X9676D2*
X10904D1*
X3918Y9799D2*
X4806D1*
X5160D2*
X5342D1*
X9676D2*
X10904D1*
X3918Y9741D2*
X4806D1*
X5102D2*
X5388D1*
X9676D2*
X10904D1*
X3918Y9682D2*
X4806D1*
X5102D2*
X5508D1*
X7022D2*
X7062D1*
X9676D2*
X10904D1*
X3918Y9624D2*
X4806D1*
X5102D2*
X5988D1*
X6964D2*
X7062D1*
X9676D2*
X10904D1*
X3918Y9565D2*
X4768D1*
X5138D2*
X6046D1*
X6905D2*
X7062D1*
X9676D2*
X10904D1*
X3918Y9507D2*
X4733D1*
X5174D2*
X6104D1*
X6847D2*
X7062D1*
X9676D2*
X10905D1*
X3918Y9448D2*
X4717D1*
X5190D2*
X6163D1*
X6788D2*
X7062D1*
X9676D2*
X10905D1*
X3918Y9390D2*
X4717D1*
X5190D2*
X7062D1*
X9676D2*
X10905D1*
X3918Y9331D2*
X4732D1*
X5175D2*
X7062D1*
X9676D2*
X10905D1*
X3918Y9272D2*
X4766D1*
X5141D2*
X6128D1*
X6836D2*
X7062D1*
X9676D2*
X10905D1*
X3918Y9214D2*
X4836D1*
X5071D2*
X5340D1*
X6896D2*
X7062D1*
X9676D2*
X10905D1*
X3918Y9155D2*
X5269D1*
X6902D2*
X7049D1*
X9676D2*
X10905D1*
X3918Y9097D2*
X5199D1*
X6902D2*
X7048D1*
X9676D2*
X10905D1*
X3953Y9038D2*
X5130D1*
X6902D2*
X7062D1*
X9676D2*
X10905D1*
X4316Y8980D2*
X5060D1*
X6902D2*
X7095D1*
X9676D2*
X10905D1*
X4679Y8921D2*
X4990D1*
X6902D2*
X7162D1*
X9676D2*
X10905D1*
X6902Y8863D2*
X7390D1*
X9676D2*
X10905D1*
X6902Y8804D2*
X7390D1*
X7937D2*
X10905D1*
X6902Y8746D2*
X7390D1*
X7937D2*
X10905D1*
X6903Y8687D2*
X7390D1*
X7937D2*
X10905D1*
X7022Y8629D2*
X7390D1*
X7937D2*
X10905D1*
X7070Y8570D2*
X7390D1*
X7937D2*
X10905D1*
X7094Y8512D2*
X7390D1*
X7937D2*
X10905D1*
X7101Y8453D2*
X7390D1*
X7937D2*
X10905D1*
X7093Y8395D2*
X7390D1*
X7937D2*
X10905D1*
X7068Y8336D2*
X7390D1*
X7937D2*
X10905D1*
X7019Y8277D2*
X7390D1*
X7937D2*
X10905D1*
X6916Y8219D2*
X7390D1*
X7937D2*
X10906D1*
X6916Y8160D2*
X7390D1*
X7937D2*
X10906D1*
X6916Y8102D2*
X7390D1*
X7937D2*
X10906D1*
X6916Y8043D2*
X7390D1*
X7937D2*
X10906D1*
X6916Y7985D2*
X7390D1*
X7937D2*
X10906D1*
X6916Y7926D2*
X7390D1*
X7937D2*
X10906D1*
X6916Y7868D2*
X7390D1*
X7937D2*
X10906D1*
X6916Y7809D2*
X7390D1*
X7937D2*
X10906D1*
X6916Y7751D2*
X7390D1*
X7937D2*
X10906D1*
X6916Y7692D2*
X7359D1*
X7937D2*
X10906D1*
X6916Y7634D2*
X7341D1*
X7937D2*
X10906D1*
X6916Y7575D2*
X7335D1*
X7937D2*
X10906D1*
X6916Y7517D2*
X7343D1*
X7929D2*
X10906D1*
X6916Y7458D2*
X7366D1*
X7907D2*
X10906D1*
X6916Y7400D2*
X7407D1*
X7865D2*
X10906D1*
X6916Y7341D2*
X7486D1*
X7785D2*
X10906D1*
X6916Y7282D2*
X10906D1*
X6916Y7224D2*
X10906D1*
X6916Y7165D2*
X10906D1*
X6916Y7107D2*
X10906D1*
X6916Y7048D2*
X10906D1*
X6916Y6990D2*
X10906D1*
X6916Y6931D2*
X10907D1*
X6916Y6873D2*
X10907D1*
X6916Y6814D2*
X10907D1*
X6916Y6756D2*
X10907D1*
X6916Y6697D2*
X10907D1*
X6916Y6639D2*
X10438D1*
X6916Y6580D2*
X10438D1*
X6916Y6522D2*
X10438D1*
X6916Y6463D2*
X10438D1*
X6915Y6404D2*
X10438D1*
X6898Y6346D2*
X10438D1*
X6896Y6287D2*
X10438D1*
X6895Y6229D2*
X7326D1*
X7516D2*
X10438D1*
X9364Y11239D2*
Y10775D1*
X8859D1*
X8637Y10553D1*
X8664Y10543D1*
X8706Y10518D1*
X8743Y10485D1*
X8773Y10447D1*
X8795Y10403D1*
X8810Y10356D1*
X8815Y10308D1*
X8814Y10241D1*
X8805Y10193D1*
X8788Y10147D1*
X8773Y10122D1*
X9670D1*
Y8851D1*
X7932D1*
X7931Y8696D1*
Y7582D1*
X7929Y7552D1*
X7924Y7522D1*
X7916Y7493D1*
X7905Y7466D1*
X7890Y7440D1*
X7873Y7415D1*
X7853Y7393D1*
X7831Y7373D1*
X7806Y7356D1*
X7780Y7341D1*
X7753Y7330D1*
X7724Y7321D1*
X7695Y7316D1*
X7634Y7314D1*
X7578Y7316D1*
X7549Y7321D1*
X7520Y7329D1*
X7493Y7341D1*
X7466Y7355D1*
X7442Y7372D1*
X7420Y7392D1*
X7400Y7414D1*
X7382Y7439D1*
X7368Y7465D1*
X7356Y7493D1*
X7348Y7521D1*
X7343Y7551D1*
X7341Y7581D1*
X7343Y7610D1*
X7347Y7640D1*
X7356Y7669D1*
X7367Y7696D1*
X7381Y7723D1*
X7397Y7745D1*
X7396Y8689D1*
Y8918D1*
X7350Y8899D1*
X7321Y8892D1*
X7291Y8890D1*
X7261Y8891D1*
X7231Y8896D1*
X7203Y8904D1*
X7176Y8917D1*
X7150Y8933D1*
X7127Y8951D1*
X7106Y8973D1*
X7089Y8997D1*
X7074Y9023D1*
X7063Y9051D1*
X7056Y9080D1*
X7053Y9110D1*
Y9140D1*
X7058Y9170D1*
X7067Y9203D1*
X7068Y10222D1*
X7070Y10251D1*
X7076Y10281D1*
X7086Y10309D1*
X7100Y10335D1*
X7115Y10357D1*
X7174Y10418D1*
X7363Y10607D1*
X7327Y10595D1*
X7269Y10592D1*
X7127Y10591D1*
X7064Y10528D1*
Y9789D1*
X7061Y9759D1*
X7052Y9731D1*
X7040Y9710D1*
X7001Y9667D1*
X6766Y9432D1*
X6743Y9413D1*
X6716Y9400D1*
X6694Y9393D1*
X6636Y9390D1*
X6285D1*
X6256Y9394D1*
X6227Y9403D1*
X6207Y9414D1*
X6164Y9453D1*
X5938Y9678D1*
X5535Y9679D1*
X5499Y9685D1*
X5470Y9694D1*
X5443Y9706D1*
X5417Y9722D1*
X5394Y9741D1*
X5373Y9762D1*
X5356Y9787D1*
X5341Y9813D1*
X5331Y9841D1*
X5323Y9870D1*
X5320Y9899D1*
Y9929D1*
X5329Y9974D1*
X5096Y9740D1*
Y9601D1*
X5124Y9575D1*
X5143Y9551D1*
X5159Y9526D1*
X5171Y9499D1*
X5180Y9470D1*
X5185Y9441D1*
X5186Y9417D1*
X5184Y9387D1*
X5178Y9358D1*
X5169Y9330D1*
X5156Y9303D1*
X5139Y9278D1*
X5120Y9255D1*
X5098Y9235D1*
X5073Y9218D1*
X5046Y9204D1*
X5018Y9194D1*
X4989Y9188D1*
X4959Y9185D1*
X4929Y9186D1*
X4900Y9191D1*
X4871Y9200D1*
X4844Y9212D1*
X4819Y9228D1*
X4795Y9247D1*
X4775Y9269D1*
X4757Y9293D1*
X4743Y9319D1*
X4732Y9347D1*
X4725Y9376D1*
X4721Y9406D1*
X4722Y9435D1*
X4726Y9465D1*
X4734Y9494D1*
X4746Y9521D1*
X4761Y9547D1*
X4779Y9571D1*
X4811Y9600D1*
Y9800D1*
X4814Y9830D1*
X4823Y9858D1*
X4835Y9879D1*
X4874Y9922D1*
X5691Y10740D1*
X5710Y10755D1*
X5728Y10775D1*
X5510D1*
Y11256D1*
X5404D1*
X5363D1*
X5364Y10889D1*
Y10867D1*
X5357Y10832D1*
Y10794D1*
X5354Y10765D1*
X5336Y10708D1*
X5337Y10685D1*
X5335Y10655D1*
X5330Y10625D1*
X5320Y10597D1*
X5307Y10570D1*
X5291Y10545D1*
X5271Y10522D1*
X5249Y10502D1*
X5225Y10485D1*
X5198Y10472D1*
X5170Y10462D1*
X5141Y10455D1*
X5111Y10452D1*
X5081Y10454D1*
X5052Y10459D1*
X5023Y10467D1*
X4996Y10480D1*
X4970Y10495D1*
X4947Y10514D1*
X4927Y10536D1*
X4909Y10560D1*
X4895Y10586D1*
X4884Y10614D1*
X4876Y10643D1*
X4873Y10673D1*
Y10703D1*
X4878Y10732D1*
X4891Y10774D1*
X4602Y10775D1*
X4573Y10780D1*
X4547Y10793D1*
X4526Y10815D1*
X4514Y10842D1*
X4510Y10867D1*
Y11261D1*
X4446Y11260D1*
X3912Y11262D1*
Y10634D1*
Y9038D1*
X3945Y9039D1*
X4943Y8878D1*
X5385Y9247D1*
X5410Y9262D1*
X5443Y9268D1*
X6803Y9277D1*
X6832Y9272D1*
X6858Y9258D1*
X6879Y9237D1*
X6892Y9210D1*
X6896Y9185D1*
X6897Y8684D1*
X6934Y8676D1*
X6962Y8665D1*
X6988Y8651D1*
X7012Y8633D1*
X7033Y8612D1*
X7052Y8589D1*
X7068Y8564D1*
X7080Y8536D1*
X7089Y8508D1*
X7094Y8478D1*
X7095Y8455D1*
X7093Y8425D1*
X7087Y8396D1*
X7078Y8367D1*
X7065Y8340D1*
X7048Y8315D1*
X7029Y8293D1*
X7007Y8273D1*
X6982Y8256D1*
X6956Y8242D1*
X6910Y8228D1*
Y7671D1*
Y6414D1*
X6907Y6385D1*
X6899Y6361D1*
X6890Y6321D1*
Y6223D1*
X7307Y6218D1*
X7345Y6234D1*
X7374Y6242D1*
X7403Y6246D1*
X7433D1*
X7463Y6243D1*
X7492Y6236D1*
X7520Y6225D1*
X7539Y6214D1*
X8832Y6199D1*
X10445Y6180D1*
Y6694D1*
X10913D1*
X10912Y6907D1*
X10909Y11231D1*
X9363Y11238D1*
D27*
X10937Y4267D3*
X3937Y9267D3*
X10937Y7267D3*
Y8267D3*
Y9267D3*
Y10267D3*
D28*
X8937Y11267D3*
D27*
X3937Y4267D3*
Y5267D3*
Y6267D3*
Y7267D3*
D28*
X9937Y11267D3*
D27*
X10937Y5267D3*
Y6267D3*
X3937Y8267D3*
Y10267D3*
D46*
X6446Y7066D3*
X6268Y7171D3*
X6091Y7066D3*
G36*
X4602Y11667D2*
X5272D1*
Y10867D1*
X4602D1*
Y11667D1*
G37*
D28*
X5937Y11267D3*
X6937D3*
X7937D3*
M02*
