G04 #@! TF.FileFunction,Copper,L1,Top,Signal*
%FSLAX46Y46*%
G04 Gerber Fmt 4.6, Leading zero omitted, Abs format (unit mm)*
G04 Created by KiCad (PCBNEW (after 2015-mar-04 BZR unknown)-product) date 4/21/2015 4:00:12 PM*
%MOMM*%
G01*
G04 APERTURE LIST*
%ADD10C,0.150000*%
%ADD11R,0.889000X1.397000*%
%ADD12C,1.000000*%
%ADD13R,1.397000X0.889000*%
%ADD14R,2.540000X1.270000*%
%ADD15R,0.406400X1.651000*%
%ADD16R,1.524000X1.524000*%
%ADD17C,1.524000*%
%ADD18C,1.676400*%
%ADD19C,0.889000*%
%ADD20C,0.254000*%
%ADD21C,0.203200*%
%ADD22C,0.635000*%
G04 APERTURE END LIST*
D10*
D11*
X146318500Y-102083000D03*
X144413500Y-102083000D03*
D12*
X139778000Y-82144000D03*
X169750000Y-101448000D03*
D13*
X147906000Y-83287000D03*
X147906000Y-81382000D03*
X147906000Y-89129000D03*
X147906000Y-87224000D03*
D14*
X141238500Y-98717500D03*
X141238500Y-95669500D03*
D15*
X148223500Y-94209000D03*
X147588500Y-94209000D03*
X146953500Y-94209000D03*
X146318500Y-94209000D03*
X150128500Y-99543000D03*
X150128500Y-94209000D03*
X149493500Y-94209000D03*
X148858500Y-94209000D03*
X145683500Y-99543000D03*
X146318500Y-99543000D03*
X146953500Y-99543000D03*
X147588500Y-99543000D03*
X148223500Y-99543000D03*
X148858500Y-99543000D03*
X145683500Y-94209000D03*
X149493500Y-99543000D03*
D16*
X139905000Y-77445000D03*
D17*
X139905000Y-74905000D03*
X142445000Y-77445000D03*
X142445000Y-74905000D03*
X144985000Y-77445000D03*
X144985000Y-74905000D03*
X147525000Y-77445000D03*
X147525000Y-74905000D03*
X150065000Y-77445000D03*
X150065000Y-74905000D03*
X152605000Y-77445000D03*
X152605000Y-74905000D03*
X155145000Y-77445000D03*
X155145000Y-74905000D03*
X157685000Y-77445000D03*
X157685000Y-74905000D03*
X160225000Y-77445000D03*
X160225000Y-74905000D03*
X162765000Y-77445000D03*
X162765000Y-74905000D03*
X165305000Y-77445000D03*
X165305000Y-74905000D03*
X167845000Y-77445000D03*
X167845000Y-74905000D03*
X170385000Y-77445000D03*
X170385000Y-74905000D03*
D16*
X155526000Y-80747000D03*
D17*
X155526000Y-83287000D03*
D18*
X143842000Y-87224000D03*
X143842000Y-89764000D03*
X143969000Y-81382000D03*
X143969000Y-83922000D03*
D19*
X152908000Y-100584000D03*
X150382500Y-92050000D03*
X144286500Y-98781000D03*
X145620000Y-97892000D03*
X145620000Y-96114000D03*
X148858500Y-97257000D03*
X143334000Y-102337000D03*
X144350000Y-95352000D03*
X147652000Y-95860000D03*
X150636500Y-88811500D03*
X150255500Y-96812500D03*
X147461500Y-85573000D03*
X145747000Y-92431000D03*
X152097000Y-88811500D03*
D20*
X146318500Y-102083000D02*
X151409000Y-102083000D01*
X151409000Y-102083000D02*
X152908000Y-100584000D01*
X149430000Y-92050000D02*
X150382500Y-92050000D01*
X148858500Y-94209000D02*
X148858500Y-92621500D01*
X148858500Y-92621500D02*
X149430000Y-92050000D01*
D21*
X146318500Y-99543000D02*
X146318500Y-102083000D01*
D20*
X148858500Y-92621500D02*
X149430000Y-92050000D01*
X141224000Y-76200000D02*
X141224000Y-73914000D01*
X143764000Y-76200000D02*
X143764000Y-73914000D01*
X141224000Y-76200000D02*
X143764000Y-76200000D01*
X143764000Y-76200000D02*
X143764000Y-78232000D01*
X139905000Y-74905000D02*
X139929000Y-74905000D01*
X139929000Y-74905000D02*
X141224000Y-76200000D01*
X145683500Y-97955500D02*
X145683500Y-99543000D01*
X145620000Y-97892000D02*
X145683500Y-97955500D01*
X145683500Y-96050500D02*
X145683500Y-94209000D01*
X145620000Y-96114000D02*
X145683500Y-96050500D01*
X150065000Y-77445000D02*
X150139000Y-77445000D01*
X150139000Y-77445000D02*
X151384000Y-76200000D01*
X151384000Y-76200000D02*
X153850000Y-76200000D01*
X153850000Y-76200000D02*
X155145000Y-74905000D01*
X148223500Y-99543000D02*
X148223500Y-97892000D01*
X148223500Y-97892000D02*
X148858500Y-97257000D01*
D21*
X144413500Y-102083000D02*
X143588000Y-102083000D01*
X143588000Y-102083000D02*
X143334000Y-102337000D01*
D22*
X140540000Y-95606000D02*
X144096000Y-95606000D01*
X144096000Y-95606000D02*
X144350000Y-95352000D01*
D20*
X147588500Y-94209000D02*
X147588500Y-95796500D01*
X147588500Y-95796500D02*
X147652000Y-95860000D01*
X148223500Y-94209000D02*
X148223500Y-92177000D01*
X148223500Y-92177000D02*
X150636500Y-89764000D01*
X150636500Y-89764000D02*
X150636500Y-88811500D01*
X147906000Y-87224000D02*
X143842000Y-87224000D01*
X147906000Y-81382000D02*
X143969000Y-81382000D01*
X148858500Y-99543000D02*
X148858500Y-98463500D01*
X148858500Y-98463500D02*
X150255500Y-97066500D01*
X150255500Y-97066500D02*
X150255500Y-96812500D01*
X147461500Y-85573000D02*
X145620000Y-85573000D01*
X145620000Y-85573000D02*
X143969000Y-83922000D01*
X146318500Y-94209000D02*
X146318500Y-93002500D01*
X146318500Y-93002500D02*
X145747000Y-92431000D01*
X150065000Y-74905000D02*
X150065000Y-75032000D01*
X150128500Y-94209000D02*
X150827000Y-94209000D01*
X150827000Y-94209000D02*
X151335000Y-93701000D01*
X151335000Y-93701000D02*
X151335000Y-89573500D01*
X151335000Y-89573500D02*
X152097000Y-88811500D01*
G36*
X144400512Y-76174949D02*
X144194697Y-76259990D01*
X143801371Y-76652630D01*
X143715050Y-76860512D01*
X143630010Y-76654697D01*
X143237370Y-76261371D01*
X143045272Y-76181605D01*
X143176143Y-76127397D01*
X143245608Y-75885213D01*
X142445000Y-75084605D01*
X142265395Y-75264210D01*
X142265395Y-74905000D01*
X141464787Y-74104392D01*
X141222603Y-74173857D01*
X141178547Y-74297344D01*
X141127397Y-74173857D01*
X140885213Y-74104392D01*
X140084605Y-74905000D01*
X140885213Y-75705608D01*
X141127397Y-75636143D01*
X141171452Y-75512655D01*
X141222603Y-75636143D01*
X141464787Y-75705608D01*
X142265395Y-74905000D01*
X142265395Y-75264210D01*
X141644392Y-75885213D01*
X141713857Y-76127397D01*
X141854317Y-76177508D01*
X141654697Y-76259990D01*
X141300892Y-76613177D01*
X141267463Y-76440877D01*
X141127673Y-76228073D01*
X140916640Y-76085623D01*
X140667000Y-76035560D01*
X140662484Y-76035560D01*
X140705608Y-75885213D01*
X139905000Y-75084605D01*
X139104392Y-75885213D01*
X139147515Y-76035560D01*
X139143000Y-76035560D01*
X138900877Y-76082537D01*
X138688073Y-76222327D01*
X138685000Y-76226879D01*
X138685000Y-75636830D01*
X138924787Y-75705608D01*
X139725395Y-74905000D01*
X138924787Y-74104392D01*
X138685000Y-74173169D01*
X138685000Y-73685000D01*
X139173169Y-73685000D01*
X139104392Y-73924787D01*
X139905000Y-74725395D01*
X140705608Y-73924787D01*
X140636830Y-73685000D01*
X141713169Y-73685000D01*
X141644392Y-73924787D01*
X142445000Y-74725395D01*
X143245608Y-73924787D01*
X143176830Y-73685000D01*
X144279379Y-73685000D01*
X144194697Y-73719990D01*
X143801371Y-74112630D01*
X143721605Y-74304727D01*
X143667397Y-74173857D01*
X143425213Y-74104392D01*
X142624605Y-74905000D01*
X143425213Y-75705608D01*
X143667397Y-75636143D01*
X143717508Y-75495682D01*
X143799990Y-75695303D01*
X144192630Y-76088629D01*
X144400512Y-76174949D01*
X144400512Y-76174949D01*
G37*
X144400512Y-76174949D02*
X144194697Y-76259990D01*
X143801371Y-76652630D01*
X143715050Y-76860512D01*
X143630010Y-76654697D01*
X143237370Y-76261371D01*
X143045272Y-76181605D01*
X143176143Y-76127397D01*
X143245608Y-75885213D01*
X142445000Y-75084605D01*
X142265395Y-75264210D01*
X142265395Y-74905000D01*
X141464787Y-74104392D01*
X141222603Y-74173857D01*
X141178547Y-74297344D01*
X141127397Y-74173857D01*
X140885213Y-74104392D01*
X140084605Y-74905000D01*
X140885213Y-75705608D01*
X141127397Y-75636143D01*
X141171452Y-75512655D01*
X141222603Y-75636143D01*
X141464787Y-75705608D01*
X142265395Y-74905000D01*
X142265395Y-75264210D01*
X141644392Y-75885213D01*
X141713857Y-76127397D01*
X141854317Y-76177508D01*
X141654697Y-76259990D01*
X141300892Y-76613177D01*
X141267463Y-76440877D01*
X141127673Y-76228073D01*
X140916640Y-76085623D01*
X140667000Y-76035560D01*
X140662484Y-76035560D01*
X140705608Y-75885213D01*
X139905000Y-75084605D01*
X139104392Y-75885213D01*
X139147515Y-76035560D01*
X139143000Y-76035560D01*
X138900877Y-76082537D01*
X138688073Y-76222327D01*
X138685000Y-76226879D01*
X138685000Y-75636830D01*
X138924787Y-75705608D01*
X139725395Y-74905000D01*
X138924787Y-74104392D01*
X138685000Y-74173169D01*
X138685000Y-73685000D01*
X139173169Y-73685000D01*
X139104392Y-73924787D01*
X139905000Y-74725395D01*
X140705608Y-73924787D01*
X140636830Y-73685000D01*
X141713169Y-73685000D01*
X141644392Y-73924787D01*
X142445000Y-74725395D01*
X143245608Y-73924787D01*
X143176830Y-73685000D01*
X144279379Y-73685000D01*
X144194697Y-73719990D01*
X143801371Y-74112630D01*
X143721605Y-74304727D01*
X143667397Y-74173857D01*
X143425213Y-74104392D01*
X142624605Y-74905000D01*
X143425213Y-75705608D01*
X143667397Y-75636143D01*
X143717508Y-75495682D01*
X143799990Y-75695303D01*
X144192630Y-76088629D01*
X144400512Y-76174949D01*
G36*
X157685000Y-81763000D02*
X156870108Y-81763000D01*
X156923000Y-81635309D01*
X156923000Y-81032750D01*
X156923000Y-80461250D01*
X156923000Y-79858691D01*
X156826327Y-79625302D01*
X156647699Y-79446673D01*
X156414310Y-79350000D01*
X156161691Y-79350000D01*
X155811750Y-79350000D01*
X155653000Y-79508750D01*
X155653000Y-80620000D01*
X156764250Y-80620000D01*
X156923000Y-80461250D01*
X156923000Y-81032750D01*
X156764250Y-80874000D01*
X155653000Y-80874000D01*
X155653000Y-80894000D01*
X155399000Y-80894000D01*
X155399000Y-80874000D01*
X155399000Y-80620000D01*
X155399000Y-79508750D01*
X155240250Y-79350000D01*
X154890309Y-79350000D01*
X154637690Y-79350000D01*
X154404301Y-79446673D01*
X154225673Y-79625302D01*
X154129000Y-79858691D01*
X154129000Y-80461250D01*
X154287750Y-80620000D01*
X155399000Y-80620000D01*
X155399000Y-80874000D01*
X154287750Y-80874000D01*
X154129000Y-81032750D01*
X154129000Y-81635309D01*
X154181891Y-81763000D01*
X149251940Y-81763000D01*
X149251940Y-80937500D01*
X149204963Y-80695377D01*
X149065173Y-80482573D01*
X148854140Y-80340123D01*
X148604500Y-80290060D01*
X147207500Y-80290060D01*
X146965377Y-80337037D01*
X146752573Y-80476827D01*
X146655929Y-80620000D01*
X145248153Y-80620000D01*
X145218647Y-80548589D01*
X144804591Y-80133810D01*
X144263323Y-79909056D01*
X143677248Y-79908545D01*
X143135589Y-80132353D01*
X142720810Y-80546409D01*
X142496056Y-81087677D01*
X142495545Y-81673752D01*
X142532421Y-81763000D01*
X141380990Y-81763000D01*
X141158108Y-81223582D01*
X140700825Y-80765501D01*
X140103050Y-80517283D01*
X139455789Y-80516718D01*
X138857582Y-80763892D01*
X138685000Y-80936173D01*
X138685000Y-78663731D01*
X138893360Y-78804377D01*
X139143000Y-78854440D01*
X140667000Y-78854440D01*
X140909123Y-78807463D01*
X141121927Y-78667673D01*
X141264377Y-78456640D01*
X141300604Y-78275988D01*
X141652630Y-78628629D01*
X142165900Y-78841757D01*
X142721661Y-78842242D01*
X143235303Y-78630010D01*
X143628629Y-78237370D01*
X143714949Y-78029487D01*
X143799990Y-78235303D01*
X144192630Y-78628629D01*
X144705900Y-78841757D01*
X145261661Y-78842242D01*
X145775303Y-78630010D01*
X146168629Y-78237370D01*
X146254949Y-78029487D01*
X146339990Y-78235303D01*
X146732630Y-78628629D01*
X147245900Y-78841757D01*
X147801661Y-78842242D01*
X148315303Y-78630010D01*
X148708629Y-78237370D01*
X148794949Y-78029487D01*
X148879990Y-78235303D01*
X149272630Y-78628629D01*
X149785900Y-78841757D01*
X150341661Y-78842242D01*
X150855303Y-78630010D01*
X151248629Y-78237370D01*
X151334949Y-78029487D01*
X151419990Y-78235303D01*
X151812630Y-78628629D01*
X152325900Y-78841757D01*
X152881661Y-78842242D01*
X153395303Y-78630010D01*
X153788629Y-78237370D01*
X153874949Y-78029487D01*
X153959990Y-78235303D01*
X154352630Y-78628629D01*
X154865900Y-78841757D01*
X155421661Y-78842242D01*
X155935303Y-78630010D01*
X156328629Y-78237370D01*
X156414949Y-78029487D01*
X156499990Y-78235303D01*
X156892630Y-78628629D01*
X157405900Y-78841757D01*
X157685000Y-78842000D01*
X157685000Y-81763000D01*
X157685000Y-81763000D01*
G37*
X157685000Y-81763000D02*
X156870108Y-81763000D01*
X156923000Y-81635309D01*
X156923000Y-81032750D01*
X156923000Y-80461250D01*
X156923000Y-79858691D01*
X156826327Y-79625302D01*
X156647699Y-79446673D01*
X156414310Y-79350000D01*
X156161691Y-79350000D01*
X155811750Y-79350000D01*
X155653000Y-79508750D01*
X155653000Y-80620000D01*
X156764250Y-80620000D01*
X156923000Y-80461250D01*
X156923000Y-81032750D01*
X156764250Y-80874000D01*
X155653000Y-80874000D01*
X155653000Y-80894000D01*
X155399000Y-80894000D01*
X155399000Y-80874000D01*
X155399000Y-80620000D01*
X155399000Y-79508750D01*
X155240250Y-79350000D01*
X154890309Y-79350000D01*
X154637690Y-79350000D01*
X154404301Y-79446673D01*
X154225673Y-79625302D01*
X154129000Y-79858691D01*
X154129000Y-80461250D01*
X154287750Y-80620000D01*
X155399000Y-80620000D01*
X155399000Y-80874000D01*
X154287750Y-80874000D01*
X154129000Y-81032750D01*
X154129000Y-81635309D01*
X154181891Y-81763000D01*
X149251940Y-81763000D01*
X149251940Y-80937500D01*
X149204963Y-80695377D01*
X149065173Y-80482573D01*
X148854140Y-80340123D01*
X148604500Y-80290060D01*
X147207500Y-80290060D01*
X146965377Y-80337037D01*
X146752573Y-80476827D01*
X146655929Y-80620000D01*
X145248153Y-80620000D01*
X145218647Y-80548589D01*
X144804591Y-80133810D01*
X144263323Y-79909056D01*
X143677248Y-79908545D01*
X143135589Y-80132353D01*
X142720810Y-80546409D01*
X142496056Y-81087677D01*
X142495545Y-81673752D01*
X142532421Y-81763000D01*
X141380990Y-81763000D01*
X141158108Y-81223582D01*
X140700825Y-80765501D01*
X140103050Y-80517283D01*
X139455789Y-80516718D01*
X138857582Y-80763892D01*
X138685000Y-80936173D01*
X138685000Y-78663731D01*
X138893360Y-78804377D01*
X139143000Y-78854440D01*
X140667000Y-78854440D01*
X140909123Y-78807463D01*
X141121927Y-78667673D01*
X141264377Y-78456640D01*
X141300604Y-78275988D01*
X141652630Y-78628629D01*
X142165900Y-78841757D01*
X142721661Y-78842242D01*
X143235303Y-78630010D01*
X143628629Y-78237370D01*
X143714949Y-78029487D01*
X143799990Y-78235303D01*
X144192630Y-78628629D01*
X144705900Y-78841757D01*
X145261661Y-78842242D01*
X145775303Y-78630010D01*
X146168629Y-78237370D01*
X146254949Y-78029487D01*
X146339990Y-78235303D01*
X146732630Y-78628629D01*
X147245900Y-78841757D01*
X147801661Y-78842242D01*
X148315303Y-78630010D01*
X148708629Y-78237370D01*
X148794949Y-78029487D01*
X148879990Y-78235303D01*
X149272630Y-78628629D01*
X149785900Y-78841757D01*
X150341661Y-78842242D01*
X150855303Y-78630010D01*
X151248629Y-78237370D01*
X151334949Y-78029487D01*
X151419990Y-78235303D01*
X151812630Y-78628629D01*
X152325900Y-78841757D01*
X152881661Y-78842242D01*
X153395303Y-78630010D01*
X153788629Y-78237370D01*
X153874949Y-78029487D01*
X153959990Y-78235303D01*
X154352630Y-78628629D01*
X154865900Y-78841757D01*
X155421661Y-78842242D01*
X155935303Y-78630010D01*
X156328629Y-78237370D01*
X156414949Y-78029487D01*
X156499990Y-78235303D01*
X156892630Y-78628629D01*
X157405900Y-78841757D01*
X157685000Y-78842000D01*
X157685000Y-81763000D01*
G36*
X157684519Y-85437097D02*
X156326608Y-92853377D01*
X156326608Y-84267213D01*
X155526000Y-83466605D01*
X154725392Y-84267213D01*
X154794857Y-84509397D01*
X155318302Y-84696144D01*
X155873368Y-84668362D01*
X156257143Y-84509397D01*
X156326608Y-84267213D01*
X156326608Y-92853377D01*
X154459803Y-103049000D01*
X147041966Y-103049000D01*
X147121426Y-102931284D01*
X147151464Y-102781500D01*
X147151464Y-102591000D01*
X151409000Y-102591000D01*
X151603403Y-102552331D01*
X151768210Y-102442210D01*
X152801012Y-101409407D01*
X153071482Y-101409643D01*
X153374998Y-101284233D01*
X153607417Y-101052219D01*
X153733357Y-100748923D01*
X153733643Y-100420518D01*
X153608233Y-100117002D01*
X153376219Y-99884583D01*
X153072923Y-99758643D01*
X152922643Y-99758512D01*
X152922643Y-88648018D01*
X152797233Y-88344502D01*
X152565219Y-88112083D01*
X152261923Y-87986143D01*
X151933518Y-87985857D01*
X151630002Y-88111267D01*
X151397583Y-88343281D01*
X151366829Y-88417342D01*
X151336733Y-88344502D01*
X151104719Y-88112083D01*
X150801423Y-87986143D01*
X150473018Y-87985857D01*
X150169502Y-88111267D01*
X149937083Y-88343281D01*
X149811143Y-88646577D01*
X149810857Y-88974982D01*
X149936267Y-89278498D01*
X150128500Y-89471066D01*
X150128500Y-89553580D01*
X149239500Y-90442580D01*
X149239500Y-89699809D01*
X149239500Y-89414750D01*
X149239500Y-88843250D01*
X149239500Y-88558191D01*
X149239500Y-83857809D01*
X149239500Y-83572750D01*
X149080750Y-83414000D01*
X148033000Y-83414000D01*
X148033000Y-84207750D01*
X148191750Y-84366500D01*
X148478191Y-84366500D01*
X148730810Y-84366500D01*
X148964199Y-84269827D01*
X149142827Y-84091198D01*
X149239500Y-83857809D01*
X149239500Y-88558191D01*
X149142827Y-88324802D01*
X148964199Y-88146173D01*
X148730810Y-88049500D01*
X148642970Y-88049500D01*
X148749774Y-88028778D01*
X148877456Y-87944904D01*
X148962926Y-87818284D01*
X148992964Y-87668500D01*
X148992964Y-86779500D01*
X148964778Y-86634226D01*
X148880904Y-86506544D01*
X148754284Y-86421074D01*
X148604500Y-86391036D01*
X147643392Y-86391036D01*
X147928498Y-86273233D01*
X148160917Y-86041219D01*
X148286857Y-85737923D01*
X148287143Y-85409518D01*
X148161733Y-85106002D01*
X147929719Y-84873583D01*
X147779000Y-84810998D01*
X147779000Y-84207750D01*
X147779000Y-83414000D01*
X146731250Y-83414000D01*
X146572500Y-83572750D01*
X146572500Y-83857809D01*
X146669173Y-84091198D01*
X146847801Y-84269827D01*
X147081190Y-84366500D01*
X147333809Y-84366500D01*
X147620250Y-84366500D01*
X147779000Y-84207750D01*
X147779000Y-84810998D01*
X147626423Y-84747643D01*
X147298018Y-84747357D01*
X146994502Y-84872767D01*
X146801933Y-85065000D01*
X145830420Y-85065000D01*
X145112586Y-84347165D01*
X145187988Y-84165578D01*
X145188412Y-83680550D01*
X145003191Y-83232281D01*
X144660523Y-82889015D01*
X144212578Y-82703012D01*
X143727550Y-82702588D01*
X143279281Y-82887809D01*
X142936015Y-83230477D01*
X142750012Y-83678422D01*
X142749588Y-84163450D01*
X142934809Y-84611719D01*
X143277477Y-84954985D01*
X143725422Y-85140988D01*
X144210450Y-85141412D01*
X144394106Y-85065526D01*
X145260790Y-85932211D01*
X145425597Y-86042331D01*
X145620000Y-86081000D01*
X146802197Y-86081000D01*
X146993281Y-86272417D01*
X147278946Y-86391036D01*
X147207500Y-86391036D01*
X147062226Y-86419222D01*
X146934544Y-86503096D01*
X146849074Y-86629716D01*
X146831770Y-86716000D01*
X144951275Y-86716000D01*
X144876191Y-86534281D01*
X144533523Y-86191015D01*
X144085578Y-86005012D01*
X143600550Y-86004588D01*
X143152281Y-86189809D01*
X142809015Y-86532477D01*
X142623012Y-86980422D01*
X142622588Y-87465450D01*
X142807809Y-87913719D01*
X143150477Y-88256985D01*
X143598422Y-88442988D01*
X144083450Y-88443412D01*
X144531719Y-88258191D01*
X144874985Y-87915523D01*
X144951190Y-87732000D01*
X146831356Y-87732000D01*
X146847222Y-87813774D01*
X146931096Y-87941456D01*
X147057716Y-88026926D01*
X147170280Y-88049500D01*
X147081190Y-88049500D01*
X146847801Y-88146173D01*
X146669173Y-88324802D01*
X146572500Y-88558191D01*
X146572500Y-88843250D01*
X146731250Y-89002000D01*
X147779000Y-89002000D01*
X147779000Y-88982000D01*
X148033000Y-88982000D01*
X148033000Y-89002000D01*
X149080750Y-89002000D01*
X149239500Y-88843250D01*
X149239500Y-89414750D01*
X149080750Y-89256000D01*
X148033000Y-89256000D01*
X148033000Y-90049750D01*
X148191750Y-90208500D01*
X148478191Y-90208500D01*
X148730810Y-90208500D01*
X148964199Y-90111827D01*
X149142827Y-89933198D01*
X149239500Y-89699809D01*
X149239500Y-90442580D01*
X147864290Y-91817790D01*
X147779000Y-91945434D01*
X147779000Y-90049750D01*
X147779000Y-89256000D01*
X146731250Y-89256000D01*
X146572500Y-89414750D01*
X146572500Y-89699809D01*
X146669173Y-89933198D01*
X146847801Y-90111827D01*
X147081190Y-90208500D01*
X147333809Y-90208500D01*
X147620250Y-90208500D01*
X147779000Y-90049750D01*
X147779000Y-91945434D01*
X147754169Y-91982597D01*
X147715500Y-92177000D01*
X147715500Y-92995036D01*
X147385300Y-92995036D01*
X147269110Y-93017579D01*
X147156700Y-92995036D01*
X146825015Y-92995036D01*
X146787831Y-92808097D01*
X146677710Y-92643290D01*
X146572407Y-92537987D01*
X146572643Y-92267518D01*
X146447233Y-91964002D01*
X146215219Y-91731583D01*
X145911923Y-91605643D01*
X145583518Y-91605357D01*
X145280002Y-91730767D01*
X145061412Y-91948976D01*
X145061412Y-89522550D01*
X144876191Y-89074281D01*
X144533523Y-88731015D01*
X144085578Y-88545012D01*
X143600550Y-88544588D01*
X143152281Y-88729809D01*
X142809015Y-89072477D01*
X142623012Y-89520422D01*
X142622588Y-90005450D01*
X142807809Y-90453719D01*
X143150477Y-90796985D01*
X143598422Y-90982988D01*
X144083450Y-90983412D01*
X144531719Y-90798191D01*
X144874985Y-90455523D01*
X145060988Y-90007578D01*
X145061412Y-89522550D01*
X145061412Y-91948976D01*
X145047583Y-91962781D01*
X144921643Y-92266077D01*
X144921357Y-92594482D01*
X145046767Y-92897998D01*
X145236428Y-93087990D01*
X145207344Y-93107096D01*
X145121874Y-93233716D01*
X145091836Y-93383500D01*
X145091836Y-94985689D01*
X145050233Y-94885002D01*
X144818219Y-94652583D01*
X144514923Y-94526643D01*
X144186518Y-94526357D01*
X143883002Y-94651767D01*
X143650583Y-94883781D01*
X143640733Y-94907500D01*
X142872323Y-94907500D01*
X142868778Y-94889226D01*
X142784904Y-94761544D01*
X142658284Y-94676074D01*
X142508500Y-94646036D01*
X139968500Y-94646036D01*
X139823226Y-94674222D01*
X139695544Y-94758096D01*
X139610074Y-94884716D01*
X139580036Y-95034500D01*
X139580036Y-96304500D01*
X139608222Y-96449774D01*
X139692096Y-96577456D01*
X139818716Y-96662926D01*
X139968500Y-96692964D01*
X142508500Y-96692964D01*
X142653774Y-96664778D01*
X142781456Y-96580904D01*
X142866926Y-96454284D01*
X142896964Y-96304500D01*
X144096000Y-96304500D01*
X144363304Y-96251330D01*
X144363305Y-96251330D01*
X144473636Y-96177608D01*
X144513482Y-96177643D01*
X144794545Y-96061510D01*
X144794357Y-96277482D01*
X144919767Y-96580998D01*
X145151781Y-96813417D01*
X145455077Y-96939357D01*
X145783482Y-96939643D01*
X146086998Y-96814233D01*
X146319417Y-96582219D01*
X146445357Y-96278923D01*
X146445643Y-95950518D01*
X146320233Y-95647002D01*
X146191500Y-95518044D01*
X146191500Y-95422964D01*
X146521700Y-95422964D01*
X146637889Y-95400420D01*
X146750300Y-95422964D01*
X146939634Y-95422964D01*
X146826643Y-95695077D01*
X146826357Y-96023482D01*
X146951767Y-96326998D01*
X147183781Y-96559417D01*
X147487077Y-96685357D01*
X147815482Y-96685643D01*
X148118998Y-96560233D01*
X148351417Y-96328219D01*
X148477357Y-96024923D01*
X148477643Y-95696518D01*
X148364613Y-95422964D01*
X148426700Y-95422964D01*
X148542889Y-95400420D01*
X148655300Y-95422964D01*
X149061700Y-95422964D01*
X149177889Y-95400420D01*
X149290300Y-95422964D01*
X149696700Y-95422964D01*
X149812889Y-95400420D01*
X149925300Y-95422964D01*
X150331700Y-95422964D01*
X150476974Y-95394778D01*
X150604656Y-95310904D01*
X150690126Y-95184284D01*
X150720164Y-95034500D01*
X150720164Y-94717000D01*
X150827000Y-94717000D01*
X151021403Y-94678331D01*
X151186210Y-94568210D01*
X151694210Y-94060211D01*
X151694210Y-94060210D01*
X151767790Y-93950090D01*
X151804330Y-93895404D01*
X151804331Y-93895403D01*
X151842999Y-93701000D01*
X151843000Y-93701000D01*
X151843000Y-89783920D01*
X151990012Y-89636907D01*
X152260482Y-89637143D01*
X152563998Y-89511733D01*
X152796417Y-89279719D01*
X152922357Y-88976423D01*
X152922643Y-88648018D01*
X152922643Y-99758512D01*
X152744518Y-99758357D01*
X152441002Y-99883767D01*
X152208583Y-100115781D01*
X152082643Y-100419077D01*
X152082406Y-100691173D01*
X151198580Y-101575000D01*
X151081143Y-101575000D01*
X151081143Y-96649018D01*
X150955733Y-96345502D01*
X150723719Y-96113083D01*
X150420423Y-95987143D01*
X150092018Y-95986857D01*
X149788502Y-96112267D01*
X149556083Y-96344281D01*
X149430143Y-96647577D01*
X149430131Y-96661175D01*
X149326719Y-96557583D01*
X149023423Y-96431643D01*
X148695018Y-96431357D01*
X148391502Y-96556767D01*
X148159083Y-96788781D01*
X148033143Y-97092077D01*
X148032906Y-97364173D01*
X147864290Y-97532790D01*
X147754169Y-97697597D01*
X147715500Y-97892000D01*
X147715500Y-98215850D01*
X147690100Y-98241250D01*
X147690100Y-98525900D01*
X147661874Y-98567716D01*
X147631836Y-98717500D01*
X147631836Y-100368500D01*
X147660022Y-100513774D01*
X147690100Y-100559561D01*
X147690100Y-100844750D01*
X147848850Y-101003500D01*
X147918009Y-101003500D01*
X148151398Y-100906827D01*
X148301261Y-100756964D01*
X148426700Y-100756964D01*
X148542889Y-100734420D01*
X148655300Y-100756964D01*
X149061700Y-100756964D01*
X149177889Y-100734420D01*
X149290300Y-100756964D01*
X149696700Y-100756964D01*
X149812889Y-100734420D01*
X149925300Y-100756964D01*
X150331700Y-100756964D01*
X150476974Y-100728778D01*
X150604656Y-100644904D01*
X150690126Y-100518284D01*
X150720164Y-100368500D01*
X150720164Y-98717500D01*
X150691978Y-98572226D01*
X150608104Y-98444544D01*
X150481484Y-98359074D01*
X150331700Y-98329036D01*
X149925300Y-98329036D01*
X149809110Y-98351579D01*
X149708931Y-98331488D01*
X150402291Y-97638128D01*
X150418982Y-97638143D01*
X150722498Y-97512733D01*
X150954917Y-97280719D01*
X151080857Y-96977423D01*
X151081143Y-96649018D01*
X151081143Y-101575000D01*
X147151464Y-101575000D01*
X147151464Y-101384500D01*
X147123278Y-101239226D01*
X147039404Y-101111544D01*
X146912784Y-101026074D01*
X146801100Y-101003676D01*
X146801100Y-100756964D01*
X146875738Y-100756964D01*
X147025602Y-100906827D01*
X147258991Y-101003500D01*
X147328150Y-101003500D01*
X147486900Y-100844750D01*
X147486900Y-100560099D01*
X147515126Y-100518284D01*
X147545164Y-100368500D01*
X147545164Y-98717500D01*
X147516978Y-98572226D01*
X147486900Y-98526438D01*
X147486900Y-98241250D01*
X147328150Y-98082500D01*
X147258991Y-98082500D01*
X147025602Y-98179173D01*
X146875738Y-98329036D01*
X146750300Y-98329036D01*
X146634110Y-98351579D01*
X146521700Y-98329036D01*
X146332365Y-98329036D01*
X146445357Y-98056923D01*
X146445643Y-97728518D01*
X146320233Y-97425002D01*
X146088219Y-97192583D01*
X145784923Y-97066643D01*
X145456518Y-97066357D01*
X145153002Y-97191767D01*
X144920583Y-97423781D01*
X144794643Y-97727077D01*
X144794357Y-98055482D01*
X144919767Y-98358998D01*
X145124394Y-98563982D01*
X145121874Y-98567716D01*
X145091836Y-98717500D01*
X145091836Y-100368500D01*
X145120022Y-100513774D01*
X145203896Y-100641456D01*
X145330516Y-100726926D01*
X145480300Y-100756964D01*
X145835900Y-100756964D01*
X145835900Y-101003428D01*
X145728726Y-101024222D01*
X145601044Y-101108096D01*
X145515574Y-101234716D01*
X145485536Y-101384500D01*
X145485536Y-102781500D01*
X145513722Y-102926774D01*
X145594011Y-103049000D01*
X145136966Y-103049000D01*
X145216426Y-102931284D01*
X145246464Y-102781500D01*
X145246464Y-101384500D01*
X145218278Y-101239226D01*
X145134404Y-101111544D01*
X145007784Y-101026074D01*
X144858000Y-100996036D01*
X143969000Y-100996036D01*
X143823726Y-101024222D01*
X143696044Y-101108096D01*
X143610574Y-101234716D01*
X143580536Y-101384500D01*
X143580536Y-101545531D01*
X143498923Y-101511643D01*
X143170518Y-101511357D01*
X143143500Y-101522520D01*
X143143500Y-99478809D01*
X143143500Y-99003250D01*
X143143500Y-98431750D01*
X143143500Y-97956191D01*
X143046827Y-97722802D01*
X142868199Y-97544173D01*
X142634810Y-97447500D01*
X142382191Y-97447500D01*
X141524250Y-97447500D01*
X141365500Y-97606250D01*
X141365500Y-98590500D01*
X142984750Y-98590500D01*
X143143500Y-98431750D01*
X143143500Y-99003250D01*
X142984750Y-98844500D01*
X141365500Y-98844500D01*
X141365500Y-99828750D01*
X141524250Y-99987500D01*
X142382191Y-99987500D01*
X142634810Y-99987500D01*
X142868199Y-99890827D01*
X143046827Y-99712198D01*
X143143500Y-99478809D01*
X143143500Y-101522520D01*
X142867002Y-101636767D01*
X142634583Y-101868781D01*
X142508643Y-102172077D01*
X142508357Y-102500482D01*
X142633767Y-102803998D01*
X142865781Y-103036417D01*
X142896084Y-103049000D01*
X141111500Y-103049000D01*
X141111500Y-99828750D01*
X141111500Y-98844500D01*
X141111500Y-98590500D01*
X141111500Y-97606250D01*
X140952750Y-97447500D01*
X140094809Y-97447500D01*
X139842190Y-97447500D01*
X139608801Y-97544173D01*
X139430173Y-97722802D01*
X139333500Y-97956191D01*
X139333500Y-98431750D01*
X139492250Y-98590500D01*
X141111500Y-98590500D01*
X141111500Y-98844500D01*
X139492250Y-98844500D01*
X139333500Y-99003250D01*
X139333500Y-99478809D01*
X139430173Y-99712198D01*
X139608801Y-99890827D01*
X139842190Y-99987500D01*
X140094809Y-99987500D01*
X140952750Y-99987500D01*
X141111500Y-99828750D01*
X141111500Y-103049000D01*
X138431000Y-103049000D01*
X138431000Y-83097583D01*
X138855175Y-83522499D01*
X139452950Y-83770717D01*
X140100211Y-83771282D01*
X140698418Y-83524108D01*
X141156499Y-83066825D01*
X141352744Y-82594212D01*
X143615165Y-82555205D01*
X143725422Y-82600988D01*
X144210450Y-82601412D01*
X144353068Y-82542483D01*
X145367095Y-82525000D01*
X146651693Y-82525000D01*
X146572500Y-82716191D01*
X146572500Y-83001250D01*
X146731250Y-83160000D01*
X147779000Y-83160000D01*
X147779000Y-83140000D01*
X148033000Y-83140000D01*
X148033000Y-83160000D01*
X149080750Y-83160000D01*
X149239500Y-83001250D01*
X149239500Y-82716191D01*
X149160306Y-82525000D01*
X154411183Y-82525000D01*
X154303603Y-82555857D01*
X154116856Y-83079302D01*
X154144638Y-83634368D01*
X154303603Y-84018143D01*
X154545787Y-84087608D01*
X155346395Y-83287000D01*
X155332252Y-83272857D01*
X155511857Y-83093252D01*
X155526000Y-83107395D01*
X155540142Y-83093252D01*
X155719747Y-83272857D01*
X155705605Y-83287000D01*
X156506213Y-84087608D01*
X156748397Y-84018143D01*
X156935144Y-83494698D01*
X156907362Y-82939632D01*
X156748397Y-82555857D01*
X156640816Y-82525000D01*
X157563181Y-82525000D01*
X157684519Y-85437097D01*
X157684519Y-85437097D01*
G37*
X157684519Y-85437097D02*
X156326608Y-92853377D01*
X156326608Y-84267213D01*
X155526000Y-83466605D01*
X154725392Y-84267213D01*
X154794857Y-84509397D01*
X155318302Y-84696144D01*
X155873368Y-84668362D01*
X156257143Y-84509397D01*
X156326608Y-84267213D01*
X156326608Y-92853377D01*
X154459803Y-103049000D01*
X147041966Y-103049000D01*
X147121426Y-102931284D01*
X147151464Y-102781500D01*
X147151464Y-102591000D01*
X151409000Y-102591000D01*
X151603403Y-102552331D01*
X151768210Y-102442210D01*
X152801012Y-101409407D01*
X153071482Y-101409643D01*
X153374998Y-101284233D01*
X153607417Y-101052219D01*
X153733357Y-100748923D01*
X153733643Y-100420518D01*
X153608233Y-100117002D01*
X153376219Y-99884583D01*
X153072923Y-99758643D01*
X152922643Y-99758512D01*
X152922643Y-88648018D01*
X152797233Y-88344502D01*
X152565219Y-88112083D01*
X152261923Y-87986143D01*
X151933518Y-87985857D01*
X151630002Y-88111267D01*
X151397583Y-88343281D01*
X151366829Y-88417342D01*
X151336733Y-88344502D01*
X151104719Y-88112083D01*
X150801423Y-87986143D01*
X150473018Y-87985857D01*
X150169502Y-88111267D01*
X149937083Y-88343281D01*
X149811143Y-88646577D01*
X149810857Y-88974982D01*
X149936267Y-89278498D01*
X150128500Y-89471066D01*
X150128500Y-89553580D01*
X149239500Y-90442580D01*
X149239500Y-89699809D01*
X149239500Y-89414750D01*
X149239500Y-88843250D01*
X149239500Y-88558191D01*
X149239500Y-83857809D01*
X149239500Y-83572750D01*
X149080750Y-83414000D01*
X148033000Y-83414000D01*
X148033000Y-84207750D01*
X148191750Y-84366500D01*
X148478191Y-84366500D01*
X148730810Y-84366500D01*
X148964199Y-84269827D01*
X149142827Y-84091198D01*
X149239500Y-83857809D01*
X149239500Y-88558191D01*
X149142827Y-88324802D01*
X148964199Y-88146173D01*
X148730810Y-88049500D01*
X148642970Y-88049500D01*
X148749774Y-88028778D01*
X148877456Y-87944904D01*
X148962926Y-87818284D01*
X148992964Y-87668500D01*
X148992964Y-86779500D01*
X148964778Y-86634226D01*
X148880904Y-86506544D01*
X148754284Y-86421074D01*
X148604500Y-86391036D01*
X147643392Y-86391036D01*
X147928498Y-86273233D01*
X148160917Y-86041219D01*
X148286857Y-85737923D01*
X148287143Y-85409518D01*
X148161733Y-85106002D01*
X147929719Y-84873583D01*
X147779000Y-84810998D01*
X147779000Y-84207750D01*
X147779000Y-83414000D01*
X146731250Y-83414000D01*
X146572500Y-83572750D01*
X146572500Y-83857809D01*
X146669173Y-84091198D01*
X146847801Y-84269827D01*
X147081190Y-84366500D01*
X147333809Y-84366500D01*
X147620250Y-84366500D01*
X147779000Y-84207750D01*
X147779000Y-84810998D01*
X147626423Y-84747643D01*
X147298018Y-84747357D01*
X146994502Y-84872767D01*
X146801933Y-85065000D01*
X145830420Y-85065000D01*
X145112586Y-84347165D01*
X145187988Y-84165578D01*
X145188412Y-83680550D01*
X145003191Y-83232281D01*
X144660523Y-82889015D01*
X144212578Y-82703012D01*
X143727550Y-82702588D01*
X143279281Y-82887809D01*
X142936015Y-83230477D01*
X142750012Y-83678422D01*
X142749588Y-84163450D01*
X142934809Y-84611719D01*
X143277477Y-84954985D01*
X143725422Y-85140988D01*
X144210450Y-85141412D01*
X144394106Y-85065526D01*
X145260790Y-85932211D01*
X145425597Y-86042331D01*
X145620000Y-86081000D01*
X146802197Y-86081000D01*
X146993281Y-86272417D01*
X147278946Y-86391036D01*
X147207500Y-86391036D01*
X147062226Y-86419222D01*
X146934544Y-86503096D01*
X146849074Y-86629716D01*
X146831770Y-86716000D01*
X144951275Y-86716000D01*
X144876191Y-86534281D01*
X144533523Y-86191015D01*
X144085578Y-86005012D01*
X143600550Y-86004588D01*
X143152281Y-86189809D01*
X142809015Y-86532477D01*
X142623012Y-86980422D01*
X142622588Y-87465450D01*
X142807809Y-87913719D01*
X143150477Y-88256985D01*
X143598422Y-88442988D01*
X144083450Y-88443412D01*
X144531719Y-88258191D01*
X144874985Y-87915523D01*
X144951190Y-87732000D01*
X146831356Y-87732000D01*
X146847222Y-87813774D01*
X146931096Y-87941456D01*
X147057716Y-88026926D01*
X147170280Y-88049500D01*
X147081190Y-88049500D01*
X146847801Y-88146173D01*
X146669173Y-88324802D01*
X146572500Y-88558191D01*
X146572500Y-88843250D01*
X146731250Y-89002000D01*
X147779000Y-89002000D01*
X147779000Y-88982000D01*
X148033000Y-88982000D01*
X148033000Y-89002000D01*
X149080750Y-89002000D01*
X149239500Y-88843250D01*
X149239500Y-89414750D01*
X149080750Y-89256000D01*
X148033000Y-89256000D01*
X148033000Y-90049750D01*
X148191750Y-90208500D01*
X148478191Y-90208500D01*
X148730810Y-90208500D01*
X148964199Y-90111827D01*
X149142827Y-89933198D01*
X149239500Y-89699809D01*
X149239500Y-90442580D01*
X147864290Y-91817790D01*
X147779000Y-91945434D01*
X147779000Y-90049750D01*
X147779000Y-89256000D01*
X146731250Y-89256000D01*
X146572500Y-89414750D01*
X146572500Y-89699809D01*
X146669173Y-89933198D01*
X146847801Y-90111827D01*
X147081190Y-90208500D01*
X147333809Y-90208500D01*
X147620250Y-90208500D01*
X147779000Y-90049750D01*
X147779000Y-91945434D01*
X147754169Y-91982597D01*
X147715500Y-92177000D01*
X147715500Y-92995036D01*
X147385300Y-92995036D01*
X147269110Y-93017579D01*
X147156700Y-92995036D01*
X146825015Y-92995036D01*
X146787831Y-92808097D01*
X146677710Y-92643290D01*
X146572407Y-92537987D01*
X146572643Y-92267518D01*
X146447233Y-91964002D01*
X146215219Y-91731583D01*
X145911923Y-91605643D01*
X145583518Y-91605357D01*
X145280002Y-91730767D01*
X145061412Y-91948976D01*
X145061412Y-89522550D01*
X144876191Y-89074281D01*
X144533523Y-88731015D01*
X144085578Y-88545012D01*
X143600550Y-88544588D01*
X143152281Y-88729809D01*
X142809015Y-89072477D01*
X142623012Y-89520422D01*
X142622588Y-90005450D01*
X142807809Y-90453719D01*
X143150477Y-90796985D01*
X143598422Y-90982988D01*
X144083450Y-90983412D01*
X144531719Y-90798191D01*
X144874985Y-90455523D01*
X145060988Y-90007578D01*
X145061412Y-89522550D01*
X145061412Y-91948976D01*
X145047583Y-91962781D01*
X144921643Y-92266077D01*
X144921357Y-92594482D01*
X145046767Y-92897998D01*
X145236428Y-93087990D01*
X145207344Y-93107096D01*
X145121874Y-93233716D01*
X145091836Y-93383500D01*
X145091836Y-94985689D01*
X145050233Y-94885002D01*
X144818219Y-94652583D01*
X144514923Y-94526643D01*
X144186518Y-94526357D01*
X143883002Y-94651767D01*
X143650583Y-94883781D01*
X143640733Y-94907500D01*
X142872323Y-94907500D01*
X142868778Y-94889226D01*
X142784904Y-94761544D01*
X142658284Y-94676074D01*
X142508500Y-94646036D01*
X139968500Y-94646036D01*
X139823226Y-94674222D01*
X139695544Y-94758096D01*
X139610074Y-94884716D01*
X139580036Y-95034500D01*
X139580036Y-96304500D01*
X139608222Y-96449774D01*
X139692096Y-96577456D01*
X139818716Y-96662926D01*
X139968500Y-96692964D01*
X142508500Y-96692964D01*
X142653774Y-96664778D01*
X142781456Y-96580904D01*
X142866926Y-96454284D01*
X142896964Y-96304500D01*
X144096000Y-96304500D01*
X144363304Y-96251330D01*
X144363305Y-96251330D01*
X144473636Y-96177608D01*
X144513482Y-96177643D01*
X144794545Y-96061510D01*
X144794357Y-96277482D01*
X144919767Y-96580998D01*
X145151781Y-96813417D01*
X145455077Y-96939357D01*
X145783482Y-96939643D01*
X146086998Y-96814233D01*
X146319417Y-96582219D01*
X146445357Y-96278923D01*
X146445643Y-95950518D01*
X146320233Y-95647002D01*
X146191500Y-95518044D01*
X146191500Y-95422964D01*
X146521700Y-95422964D01*
X146637889Y-95400420D01*
X146750300Y-95422964D01*
X146939634Y-95422964D01*
X146826643Y-95695077D01*
X146826357Y-96023482D01*
X146951767Y-96326998D01*
X147183781Y-96559417D01*
X147487077Y-96685357D01*
X147815482Y-96685643D01*
X148118998Y-96560233D01*
X148351417Y-96328219D01*
X148477357Y-96024923D01*
X148477643Y-95696518D01*
X148364613Y-95422964D01*
X148426700Y-95422964D01*
X148542889Y-95400420D01*
X148655300Y-95422964D01*
X149061700Y-95422964D01*
X149177889Y-95400420D01*
X149290300Y-95422964D01*
X149696700Y-95422964D01*
X149812889Y-95400420D01*
X149925300Y-95422964D01*
X150331700Y-95422964D01*
X150476974Y-95394778D01*
X150604656Y-95310904D01*
X150690126Y-95184284D01*
X150720164Y-95034500D01*
X150720164Y-94717000D01*
X150827000Y-94717000D01*
X151021403Y-94678331D01*
X151186210Y-94568210D01*
X151694210Y-94060211D01*
X151694210Y-94060210D01*
X151767790Y-93950090D01*
X151804330Y-93895404D01*
X151804331Y-93895403D01*
X151842999Y-93701000D01*
X151843000Y-93701000D01*
X151843000Y-89783920D01*
X151990012Y-89636907D01*
X152260482Y-89637143D01*
X152563998Y-89511733D01*
X152796417Y-89279719D01*
X152922357Y-88976423D01*
X152922643Y-88648018D01*
X152922643Y-99758512D01*
X152744518Y-99758357D01*
X152441002Y-99883767D01*
X152208583Y-100115781D01*
X152082643Y-100419077D01*
X152082406Y-100691173D01*
X151198580Y-101575000D01*
X151081143Y-101575000D01*
X151081143Y-96649018D01*
X150955733Y-96345502D01*
X150723719Y-96113083D01*
X150420423Y-95987143D01*
X150092018Y-95986857D01*
X149788502Y-96112267D01*
X149556083Y-96344281D01*
X149430143Y-96647577D01*
X149430131Y-96661175D01*
X149326719Y-96557583D01*
X149023423Y-96431643D01*
X148695018Y-96431357D01*
X148391502Y-96556767D01*
X148159083Y-96788781D01*
X148033143Y-97092077D01*
X148032906Y-97364173D01*
X147864290Y-97532790D01*
X147754169Y-97697597D01*
X147715500Y-97892000D01*
X147715500Y-98215850D01*
X147690100Y-98241250D01*
X147690100Y-98525900D01*
X147661874Y-98567716D01*
X147631836Y-98717500D01*
X147631836Y-100368500D01*
X147660022Y-100513774D01*
X147690100Y-100559561D01*
X147690100Y-100844750D01*
X147848850Y-101003500D01*
X147918009Y-101003500D01*
X148151398Y-100906827D01*
X148301261Y-100756964D01*
X148426700Y-100756964D01*
X148542889Y-100734420D01*
X148655300Y-100756964D01*
X149061700Y-100756964D01*
X149177889Y-100734420D01*
X149290300Y-100756964D01*
X149696700Y-100756964D01*
X149812889Y-100734420D01*
X149925300Y-100756964D01*
X150331700Y-100756964D01*
X150476974Y-100728778D01*
X150604656Y-100644904D01*
X150690126Y-100518284D01*
X150720164Y-100368500D01*
X150720164Y-98717500D01*
X150691978Y-98572226D01*
X150608104Y-98444544D01*
X150481484Y-98359074D01*
X150331700Y-98329036D01*
X149925300Y-98329036D01*
X149809110Y-98351579D01*
X149708931Y-98331488D01*
X150402291Y-97638128D01*
X150418982Y-97638143D01*
X150722498Y-97512733D01*
X150954917Y-97280719D01*
X151080857Y-96977423D01*
X151081143Y-96649018D01*
X151081143Y-101575000D01*
X147151464Y-101575000D01*
X147151464Y-101384500D01*
X147123278Y-101239226D01*
X147039404Y-101111544D01*
X146912784Y-101026074D01*
X146801100Y-101003676D01*
X146801100Y-100756964D01*
X146875738Y-100756964D01*
X147025602Y-100906827D01*
X147258991Y-101003500D01*
X147328150Y-101003500D01*
X147486900Y-100844750D01*
X147486900Y-100560099D01*
X147515126Y-100518284D01*
X147545164Y-100368500D01*
X147545164Y-98717500D01*
X147516978Y-98572226D01*
X147486900Y-98526438D01*
X147486900Y-98241250D01*
X147328150Y-98082500D01*
X147258991Y-98082500D01*
X147025602Y-98179173D01*
X146875738Y-98329036D01*
X146750300Y-98329036D01*
X146634110Y-98351579D01*
X146521700Y-98329036D01*
X146332365Y-98329036D01*
X146445357Y-98056923D01*
X146445643Y-97728518D01*
X146320233Y-97425002D01*
X146088219Y-97192583D01*
X145784923Y-97066643D01*
X145456518Y-97066357D01*
X145153002Y-97191767D01*
X144920583Y-97423781D01*
X144794643Y-97727077D01*
X144794357Y-98055482D01*
X144919767Y-98358998D01*
X145124394Y-98563982D01*
X145121874Y-98567716D01*
X145091836Y-98717500D01*
X145091836Y-100368500D01*
X145120022Y-100513774D01*
X145203896Y-100641456D01*
X145330516Y-100726926D01*
X145480300Y-100756964D01*
X145835900Y-100756964D01*
X145835900Y-101003428D01*
X145728726Y-101024222D01*
X145601044Y-101108096D01*
X145515574Y-101234716D01*
X145485536Y-101384500D01*
X145485536Y-102781500D01*
X145513722Y-102926774D01*
X145594011Y-103049000D01*
X145136966Y-103049000D01*
X145216426Y-102931284D01*
X145246464Y-102781500D01*
X145246464Y-101384500D01*
X145218278Y-101239226D01*
X145134404Y-101111544D01*
X145007784Y-101026074D01*
X144858000Y-100996036D01*
X143969000Y-100996036D01*
X143823726Y-101024222D01*
X143696044Y-101108096D01*
X143610574Y-101234716D01*
X143580536Y-101384500D01*
X143580536Y-101545531D01*
X143498923Y-101511643D01*
X143170518Y-101511357D01*
X143143500Y-101522520D01*
X143143500Y-99478809D01*
X143143500Y-99003250D01*
X143143500Y-98431750D01*
X143143500Y-97956191D01*
X143046827Y-97722802D01*
X142868199Y-97544173D01*
X142634810Y-97447500D01*
X142382191Y-97447500D01*
X141524250Y-97447500D01*
X141365500Y-97606250D01*
X141365500Y-98590500D01*
X142984750Y-98590500D01*
X143143500Y-98431750D01*
X143143500Y-99003250D01*
X142984750Y-98844500D01*
X141365500Y-98844500D01*
X141365500Y-99828750D01*
X141524250Y-99987500D01*
X142382191Y-99987500D01*
X142634810Y-99987500D01*
X142868199Y-99890827D01*
X143046827Y-99712198D01*
X143143500Y-99478809D01*
X143143500Y-101522520D01*
X142867002Y-101636767D01*
X142634583Y-101868781D01*
X142508643Y-102172077D01*
X142508357Y-102500482D01*
X142633767Y-102803998D01*
X142865781Y-103036417D01*
X142896084Y-103049000D01*
X141111500Y-103049000D01*
X141111500Y-99828750D01*
X141111500Y-98844500D01*
X141111500Y-98590500D01*
X141111500Y-97606250D01*
X140952750Y-97447500D01*
X140094809Y-97447500D01*
X139842190Y-97447500D01*
X139608801Y-97544173D01*
X139430173Y-97722802D01*
X139333500Y-97956191D01*
X139333500Y-98431750D01*
X139492250Y-98590500D01*
X141111500Y-98590500D01*
X141111500Y-98844500D01*
X139492250Y-98844500D01*
X139333500Y-99003250D01*
X139333500Y-99478809D01*
X139430173Y-99712198D01*
X139608801Y-99890827D01*
X139842190Y-99987500D01*
X140094809Y-99987500D01*
X140952750Y-99987500D01*
X141111500Y-99828750D01*
X141111500Y-103049000D01*
X138431000Y-103049000D01*
X138431000Y-83097583D01*
X138855175Y-83522499D01*
X139452950Y-83770717D01*
X140100211Y-83771282D01*
X140698418Y-83524108D01*
X141156499Y-83066825D01*
X141352744Y-82594212D01*
X143615165Y-82555205D01*
X143725422Y-82600988D01*
X144210450Y-82601412D01*
X144353068Y-82542483D01*
X145367095Y-82525000D01*
X146651693Y-82525000D01*
X146572500Y-82716191D01*
X146572500Y-83001250D01*
X146731250Y-83160000D01*
X147779000Y-83160000D01*
X147779000Y-83140000D01*
X148033000Y-83140000D01*
X148033000Y-83160000D01*
X149080750Y-83160000D01*
X149239500Y-83001250D01*
X149239500Y-82716191D01*
X149160306Y-82525000D01*
X154411183Y-82525000D01*
X154303603Y-82555857D01*
X154116856Y-83079302D01*
X154144638Y-83634368D01*
X154303603Y-84018143D01*
X154545787Y-84087608D01*
X155346395Y-83287000D01*
X155332252Y-83272857D01*
X155511857Y-83093252D01*
X155526000Y-83107395D01*
X155540142Y-83093252D01*
X155719747Y-83272857D01*
X155705605Y-83287000D01*
X156506213Y-84087608D01*
X156748397Y-84018143D01*
X156935144Y-83494698D01*
X156907362Y-82939632D01*
X156748397Y-82555857D01*
X156640816Y-82525000D01*
X157563181Y-82525000D01*
X157684519Y-85437097D01*
M02*
