%FSLAX24Y24*%
%MOIN*%
G70*
G01*
G75*
G04 Layer_Physical_Order=1*
G04 Layer_Color=255*
%ADD10R,0.1000X0.0291*%
%ADD11R,0.1250X0.0500*%
%ADD12C,0.0120*%
%ADD13C,0.0400*%
G36*
X7888Y-2638D02*
X-7888D01*
Y2638D01*
X7888D01*
Y-2638D01*
D02*
G37*
%LPC*%
G36*
X-6590Y206D02*
X-7710D01*
Y-206D01*
X-7272D01*
Y-794D01*
X-7710D01*
Y-1206D01*
X-7272D01*
Y-1419D01*
X-7281Y-1423D01*
X-7335Y-1465D01*
X-7377Y-1519D01*
X-7403Y-1582D01*
X-7412Y-1650D01*
X-7403Y-1718D01*
X-7377Y-1781D01*
X-7335Y-1835D01*
X-7281Y-1877D01*
X-7218Y-1903D01*
X-7150Y-1912D01*
X-7082Y-1903D01*
X-7019Y-1877D01*
X-6965Y-1835D01*
X-6923Y-1781D01*
X-6897Y-1718D01*
X-6888Y-1650D01*
X-6897Y-1582D01*
X-6923Y-1519D01*
X-6965Y-1465D01*
X-7019Y-1423D01*
X-7027Y-1419D01*
Y-1206D01*
X-6590D01*
Y-794D01*
X-7027D01*
Y-206D01*
X-6590D01*
Y206D01*
D02*
G37*
G36*
X1800Y-1650D02*
X1115D01*
Y-1960D01*
X1800D01*
Y-1650D01*
D02*
G37*
G36*
X-5790Y706D02*
X-6910D01*
Y294D01*
X-6473D01*
Y-294D01*
X-6910D01*
Y-706D01*
X-6473D01*
Y-1419D01*
X-6481Y-1423D01*
X-6535Y-1465D01*
X-6577Y-1519D01*
X-6603Y-1582D01*
X-6612Y-1650D01*
X-6603Y-1718D01*
X-6577Y-1781D01*
X-6535Y-1835D01*
X-6481Y-1877D01*
X-6418Y-1903D01*
X-6350Y-1912D01*
X-6282Y-1903D01*
X-6219Y-1877D01*
X-6165Y-1835D01*
X-6123Y-1781D01*
X-6097Y-1718D01*
X-6088Y-1650D01*
X-6097Y-1582D01*
X-6123Y-1519D01*
X-6165Y-1465D01*
X-6219Y-1423D01*
X-6228Y-1419D01*
Y-706D01*
X-5790D01*
Y-294D01*
X-6228D01*
Y294D01*
X-5790D01*
Y706D01*
D02*
G37*
G36*
X6390Y-1452D02*
Y-1710D01*
X6648D01*
X6643Y-1671D01*
X6612Y-1598D01*
X6564Y-1536D01*
X6502Y-1488D01*
X6429Y-1457D01*
X6390Y-1452D01*
D02*
G37*
G36*
X6310D02*
X6272Y-1457D01*
X6199Y-1488D01*
X6136Y-1536D01*
X6088Y-1598D01*
X6058Y-1671D01*
X6053Y-1710D01*
X6310D01*
Y-1452D01*
D02*
G37*
G36*
X1035Y-1650D02*
X350D01*
Y-1960D01*
X1035D01*
Y-1650D01*
D02*
G37*
G36*
X1800Y-2040D02*
X1115D01*
Y-2350D01*
X1800D01*
Y-2040D01*
D02*
G37*
G36*
X1035D02*
X350D01*
Y-2350D01*
X1035D01*
Y-2040D01*
D02*
G37*
G36*
X-390Y-1690D02*
X-1760D01*
Y-2310D01*
X-390D01*
Y-2122D01*
X-231D01*
X-227Y-2131D01*
X-185Y-2185D01*
X-131Y-2227D01*
X-68Y-2253D01*
X0Y-2262D01*
X68Y-2253D01*
X131Y-2227D01*
X185Y-2185D01*
X227Y-2131D01*
X253Y-2068D01*
X262Y-2000D01*
X253Y-1932D01*
X227Y-1869D01*
X185Y-1815D01*
X131Y-1773D01*
X68Y-1747D01*
X0Y-1738D01*
X-68Y-1747D01*
X-131Y-1773D01*
X-185Y-1815D01*
X-227Y-1869D01*
X-231Y-1878D01*
X-390D01*
Y-1690D01*
D02*
G37*
G36*
X6648Y-1790D02*
X6390D01*
Y-2047D01*
X6429Y-2042D01*
X6502Y-2012D01*
X6564Y-1964D01*
X6612Y-1901D01*
X6643Y-1828D01*
X6648Y-1790D01*
D02*
G37*
G36*
X6310D02*
X6053D01*
X6058Y-1828D01*
X6088Y-1901D01*
X6136Y-1964D01*
X6199Y-2012D01*
X6272Y-2042D01*
X6310Y-2047D01*
Y-1790D01*
D02*
G37*
G36*
X2347Y1960D02*
X2090D01*
Y1703D01*
X2128Y1708D01*
X2201Y1738D01*
X2264Y1786D01*
X2312Y1849D01*
X2342Y1922D01*
X2347Y1960D01*
D02*
G37*
G36*
X-390Y1310D02*
X-1760D01*
Y1122D01*
X-5019D01*
X-5023Y1131D01*
X-5065Y1185D01*
X-5119Y1227D01*
X-5182Y1253D01*
X-5250Y1262D01*
X-5318Y1253D01*
X-5381Y1227D01*
X-5435Y1185D01*
X-5477Y1131D01*
X-5503Y1068D01*
X-5512Y1000D01*
X-5503Y932D01*
X-5477Y869D01*
X-5435Y815D01*
X-5381Y773D01*
X-5318Y747D01*
X-5250Y738D01*
X-5182Y747D01*
X-5119Y773D01*
X-5065Y815D01*
X-5023Y869D01*
X-5019Y878D01*
X-1760D01*
Y690D01*
X-390D01*
Y1310D01*
D02*
G37*
G36*
X6950Y1246D02*
X6390D01*
Y1040D01*
X6950D01*
Y1246D01*
D02*
G37*
G36*
X1760Y2310D02*
X390D01*
Y2122D01*
X231D01*
X227Y2131D01*
X185Y2185D01*
X131Y2227D01*
X68Y2253D01*
X0Y2262D01*
X-68Y2253D01*
X-131Y2227D01*
X-185Y2185D01*
X-227Y2131D01*
X-253Y2068D01*
X-262Y2000D01*
X-253Y1932D01*
X-227Y1869D01*
X-185Y1815D01*
X-131Y1773D01*
X-68Y1747D01*
X0Y1738D01*
X68Y1747D01*
X131Y1773D01*
X185Y1815D01*
X227Y1869D01*
X231Y1878D01*
X390D01*
Y1690D01*
X1760D01*
Y1807D01*
X1807Y1823D01*
X1836Y1786D01*
X1899Y1738D01*
X1972Y1708D01*
X2010Y1703D01*
Y2000D01*
Y2297D01*
X1972Y2292D01*
X1899Y2262D01*
X1836Y2214D01*
X1807Y2177D01*
X1760Y2193D01*
Y2310D01*
D02*
G37*
G36*
X-390D02*
X-1760D01*
Y2122D01*
X-5019D01*
X-5023Y2131D01*
X-5065Y2185D01*
X-5119Y2227D01*
X-5182Y2253D01*
X-5250Y2262D01*
X-5318Y2253D01*
X-5381Y2227D01*
X-5435Y2185D01*
X-5477Y2131D01*
X-5481Y2122D01*
X-6150D01*
X-6196Y2113D01*
X-6212Y2102D01*
X-6236Y2087D01*
X-7117Y1206D01*
X-7710D01*
Y794D01*
X-6590D01*
Y1206D01*
X-6706D01*
X-6725Y1252D01*
X-6099Y1878D01*
X-5481D01*
X-5477Y1869D01*
X-5435Y1815D01*
X-5381Y1773D01*
X-5318Y1747D01*
X-5250Y1738D01*
X-5182Y1747D01*
X-5119Y1773D01*
X-5065Y1815D01*
X-5023Y1869D01*
X-5019Y1878D01*
X-1760D01*
Y1690D01*
X-390D01*
Y2310D01*
D02*
G37*
G36*
X2090Y2297D02*
Y2040D01*
X2347D01*
X2342Y2078D01*
X2312Y2151D01*
X2264Y2214D01*
X2201Y2262D01*
X2128Y2292D01*
X2090Y2297D01*
D02*
G37*
G36*
X-390Y310D02*
X-1760D01*
Y122D01*
X-5019D01*
X-5023Y131D01*
X-5065Y185D01*
X-5119Y227D01*
X-5182Y253D01*
X-5250Y262D01*
X-5318Y253D01*
X-5381Y227D01*
X-5435Y185D01*
X-5477Y131D01*
X-5503Y68D01*
X-5512Y0D01*
X-5503Y-68D01*
X-5477Y-131D01*
X-5435Y-185D01*
X-5381Y-227D01*
X-5318Y-253D01*
X-5250Y-262D01*
X-5182Y-253D01*
X-5119Y-227D01*
X-5065Y-185D01*
X-5023Y-131D01*
X-5019Y-122D01*
X-1760D01*
Y-310D01*
X-390D01*
Y310D01*
D02*
G37*
G36*
X5250Y-238D02*
X5182Y-247D01*
X5119Y-273D01*
X5065Y-315D01*
X5023Y-369D01*
X4997Y-432D01*
X4988Y-500D01*
X4997Y-568D01*
X5023Y-631D01*
X5065Y-685D01*
X5116Y-725D01*
Y-775D01*
X5065Y-815D01*
X5023Y-869D01*
X5019Y-878D01*
X1760D01*
Y-690D01*
X390D01*
Y-1310D01*
X1760D01*
Y-1122D01*
X5019D01*
X5023Y-1131D01*
X5065Y-1185D01*
X5119Y-1227D01*
X5182Y-1253D01*
X5250Y-1262D01*
X5318Y-1253D01*
X5381Y-1227D01*
X5435Y-1185D01*
X5477Y-1131D01*
X5503Y-1068D01*
X5512Y-1000D01*
X5503Y-932D01*
X5477Y-869D01*
X5435Y-815D01*
X5384Y-775D01*
Y-725D01*
X5435Y-685D01*
X5477Y-631D01*
X5481Y-622D01*
X6590D01*
Y-706D01*
X7203D01*
X7213Y-755D01*
X7169Y-773D01*
X7115Y-815D01*
X7073Y-869D01*
X7069Y-878D01*
X6910D01*
Y-794D01*
X5790D01*
Y-1206D01*
X6910D01*
Y-1122D01*
X7069D01*
X7073Y-1131D01*
X7115Y-1185D01*
X7169Y-1227D01*
X7232Y-1253D01*
X7300Y-1262D01*
X7368Y-1253D01*
X7431Y-1227D01*
X7485Y-1185D01*
X7527Y-1131D01*
X7553Y-1068D01*
X7562Y-1000D01*
X7553Y-932D01*
X7527Y-869D01*
X7485Y-815D01*
X7431Y-773D01*
X7387Y-755D01*
X7397Y-706D01*
X7710D01*
Y-294D01*
X6590D01*
Y-378D01*
X5481D01*
X5477Y-369D01*
X5435Y-315D01*
X5381Y-273D01*
X5318Y-247D01*
X5250Y-238D01*
D02*
G37*
G36*
X-390Y-690D02*
X-1760D01*
Y-878D01*
X-5019D01*
X-5023Y-869D01*
X-5065Y-815D01*
X-5119Y-773D01*
X-5182Y-747D01*
X-5250Y-738D01*
X-5318Y-747D01*
X-5381Y-773D01*
X-5435Y-815D01*
X-5477Y-869D01*
X-5503Y-932D01*
X-5512Y-1000D01*
X-5503Y-1068D01*
X-5477Y-1131D01*
X-5435Y-1185D01*
X-5381Y-1227D01*
X-5318Y-1253D01*
X-5250Y-1262D01*
X-5182Y-1253D01*
X-5119Y-1227D01*
X-5065Y-1185D01*
X-5023Y-1131D01*
X-5019Y-1122D01*
X-1760D01*
Y-1310D01*
X-390D01*
Y-690D01*
D02*
G37*
G36*
X6310Y1246D02*
X5750D01*
Y1040D01*
X6310D01*
Y1246D01*
D02*
G37*
G36*
Y960D02*
X5750D01*
Y754D01*
X6310D01*
Y960D01*
D02*
G37*
G36*
X1760Y1310D02*
X390D01*
Y690D01*
X1760D01*
Y878D01*
X5019D01*
X5023Y869D01*
X5065Y815D01*
X5116Y775D01*
Y725D01*
X5065Y685D01*
X5023Y631D01*
X4997Y568D01*
X4988Y500D01*
X4931Y492D01*
X4837Y587D01*
X4797Y613D01*
X4750Y622D01*
X4481D01*
X4477Y631D01*
X4435Y685D01*
X4381Y727D01*
X4318Y753D01*
X4250Y762D01*
X4182Y753D01*
X4119Y727D01*
X4065Y685D01*
X4023Y631D01*
X3997Y568D01*
X3988Y500D01*
X3997Y432D01*
X4023Y369D01*
X4065Y315D01*
X4119Y273D01*
X4182Y247D01*
X4250Y238D01*
X4318Y247D01*
X4381Y273D01*
X4435Y315D01*
X4477Y369D01*
X4481Y378D01*
X4699D01*
X4758Y319D01*
X4750Y262D01*
X4682Y253D01*
X4619Y227D01*
X4565Y185D01*
X4523Y131D01*
X4519Y122D01*
X1760D01*
Y310D01*
X390D01*
Y-310D01*
X1760D01*
Y-122D01*
X4519D01*
X4523Y-131D01*
X4565Y-185D01*
X4619Y-227D01*
X4682Y-253D01*
X4750Y-262D01*
X4818Y-253D01*
X4881Y-227D01*
X4935Y-185D01*
X4977Y-131D01*
X5003Y-68D01*
X5012Y-0D01*
X5069Y8D01*
X5163Y-87D01*
X5203Y-113D01*
X5250Y-122D01*
X5790D01*
Y-206D01*
X6910D01*
Y206D01*
X5790D01*
Y122D01*
X5301D01*
X5242Y181D01*
X5250Y238D01*
X5318Y247D01*
X5381Y273D01*
X5435Y315D01*
X5477Y369D01*
X5481Y378D01*
X6590D01*
Y294D01*
X7710D01*
Y706D01*
X6950D01*
Y754D01*
X6950D01*
Y960D01*
X6390D01*
Y754D01*
X6590D01*
Y706D01*
X6590D01*
Y622D01*
X5481D01*
X5477Y631D01*
X5435Y685D01*
X5384Y725D01*
Y775D01*
X5435Y815D01*
X5477Y869D01*
X5503Y932D01*
X5512Y1000D01*
X5503Y1068D01*
X5477Y1131D01*
X5435Y1185D01*
X5381Y1227D01*
X5318Y1253D01*
X5250Y1262D01*
X5182Y1253D01*
X5119Y1227D01*
X5065Y1185D01*
X5023Y1131D01*
X5019Y1122D01*
X1760D01*
Y1310D01*
D02*
G37*
%LPD*%
D10*
X-7150Y1000D02*
D03*
X-6350Y500D02*
D03*
X-7150Y0D02*
D03*
X-6350Y-500D02*
D03*
X-7150Y-1000D02*
D03*
X6350Y1000D02*
D03*
X7150Y500D02*
D03*
X6350Y0D02*
D03*
X7150Y-500D02*
D03*
X6350Y-1000D02*
D03*
D11*
X1075Y2000D02*
D03*
Y1000D02*
D03*
Y0D02*
D03*
Y-1000D02*
D03*
Y-2000D02*
D03*
X-1075Y2000D02*
D03*
Y1000D02*
D03*
Y0D02*
D03*
Y-1000D02*
D03*
Y-2000D02*
D03*
D12*
X6350Y-1000D02*
X7300D01*
X-5250Y1000D02*
X-1075D01*
X-5250Y0D02*
X-1075D01*
X-5250Y-1000D02*
X-1075D01*
X-5250Y2000D02*
X-1075D01*
X1075Y-1000D02*
X5250D01*
X1075Y1000D02*
X5250D01*
X0Y2000D02*
X1075D01*
X-1075Y-2000D02*
X0D01*
X-7150Y1000D02*
X-6150Y2000D01*
X-5250D01*
X-6350Y-500D02*
Y500D01*
Y-1650D02*
Y-500D01*
Y-1650D02*
X-6350Y-1650D01*
X-7150Y-1000D02*
Y0D01*
Y-1650D02*
Y-1000D01*
X-7150Y-1650D02*
X-7150Y-1650D01*
X5250Y500D02*
X7150D01*
X5250Y-500D02*
X7150D01*
X1075Y0D02*
X4750D01*
X5250D02*
X6350D01*
X4750Y500D02*
X5250Y0D01*
X4250Y500D02*
X4750D01*
D13*
X7300Y-1000D02*
D03*
X-5250Y1000D02*
D03*
Y0D02*
D03*
Y-1000D02*
D03*
Y2000D02*
D03*
X5250Y-1000D02*
D03*
Y1000D02*
D03*
X6350Y-1750D02*
D03*
X0Y2000D02*
D03*
Y-2000D02*
D03*
X-6350Y-1650D02*
D03*
X-7150D02*
D03*
X5250Y500D02*
D03*
Y-500D02*
D03*
X4750Y0D02*
D03*
X4250Y500D02*
D03*
X2050Y2000D02*
D03*
M02*
