G04 (created by PCBNEW (2013-03-15 BZR 4003)-stable) date 22-Apr-13 3:44:31 PM*
%MOIN*%
G04 Gerber Fmt 3.4, Leading zero omitted, Abs format*
%FSLAX34Y34*%
G01*
G70*
G90*
G04 APERTURE LIST*
%ADD10C,0.003*%
%ADD11C,0.005*%
%ADD12R,0.06X0.06*%
%ADD13C,0.06*%
%ADD14C,0.175*%
%ADD15R,0.2X0.225*%
%ADD16C,0.55*%
%ADD17C,0.05*%
%ADD18C,0.015*%
G04 APERTURE END LIST*
G54D10*
G54D11*
X22000Y-11000D02*
G75*
G03X21000Y-10000I-1000J0D01*
G74*
G01*
X11000Y-10000D02*
G75*
G03X10000Y-11000I0J-1000D01*
G74*
G01*
X10000Y-21000D02*
G75*
G03X11000Y-22000I1000J0D01*
G74*
G01*
X21000Y-22000D02*
G75*
G03X22000Y-21000I0J1000D01*
G74*
G01*
X10000Y-21000D02*
X10000Y-11000D01*
X21000Y-22000D02*
X11000Y-22000D01*
X22000Y-11000D02*
X22000Y-21000D01*
X11000Y-10000D02*
X21000Y-10000D01*
G54D12*
X21025Y-13725D03*
G54D13*
X21025Y-12725D03*
G54D14*
X21000Y-11000D03*
X11000Y-11000D03*
X11000Y-21000D03*
X21000Y-21000D03*
G54D15*
X21000Y-16000D03*
X11000Y-16000D03*
G54D16*
X16000Y-16000D03*
G54D17*
X14000Y-13300D03*
X18000Y-13300D03*
X18050Y-19850D03*
G54D18*
X18050Y-19850D02*
X16250Y-19850D01*
X16250Y-19850D02*
X16000Y-19600D01*
X16000Y-19600D02*
X16000Y-16000D01*
X14000Y-13300D02*
X14000Y-14000D01*
X14000Y-14000D02*
X16000Y-16000D01*
X18000Y-13300D02*
X18000Y-14000D01*
X18000Y-14000D02*
X16000Y-16000D01*
X16000Y-15300D02*
X16000Y-16000D01*
X20150Y-11850D02*
X20150Y-13375D01*
X20150Y-13375D02*
X20500Y-13725D01*
X20500Y-13725D02*
X21025Y-13725D01*
X11000Y-12725D02*
X11000Y-16000D01*
X13200Y-10525D02*
X11000Y-12725D01*
X18825Y-10525D02*
X13200Y-10525D01*
X20150Y-11850D02*
X18825Y-10525D01*
X21000Y-16000D02*
X21025Y-13725D01*
M02*
