G04 start of page 6 for group 4 idx 8 *
G04 Title: (unknown), outline *
G04 Creator: pcb 1.99z *
G04 CreationDate: Tue 11 Sep 2012 02:04:04 GMT UTC *
G04 For: ralph *
G04 Format: Gerber/RS-274X *
G04 PCB-Dimensions (mm): 80.00 62.50 *
G04 PCB-Coordinate-Origin: lower left *
%MOMM*%
%FSLAX43Y43*%
%LNOUTLINE*%
%ADD154C,0.150*%
G54D154*X80000Y0D02*X0D01*
Y62500D02*X80000D01*
Y0D01*
X0Y28710D02*Y62500D01*
Y0D02*Y22950D01*
X1200Y28710D02*X0D01*
X1200Y27710D02*X0D01*
Y23950D01*
X1200D02*X0D01*
X1200Y22950D02*X0D01*
X1200Y28710D02*G75*G02X1700Y28210I0J-500D01*G01*
G75*G02X1200Y27710I-500J0D01*G01*
X1700Y23450D02*G75*G02X1200Y22950I-500J0D01*G01*
X1700Y23450D02*G75*G03X1200Y23950I-500J0D01*G01*
M02*
