G04 start of page 2 for group 0 idx 0 *
G04 Title: (unknown), Top *
G04 Creator: pcb 1.99z *
G04 CreationDate: Tue 11 Sep 2012 02:04:04 GMT UTC *
G04 For: ralph *
G04 Format: Gerber/RS-274X *
G04 PCB-Dimensions (mm): 80.00 62.50 *
G04 PCB-Coordinate-Origin: lower left *
%MOMM*%
%FSLAX43Y43*%
%LNTOP*%
%ADD62C,1.300*%
%ADD61C,3.200*%
%ADD60C,3.500*%
%ADD59C,3.000*%
%ADD58C,1.700*%
%ADD57C,4.000*%
%ADD56C,0.508*%
%ADD55C,0.300*%
%ADD54C,0.800*%
%ADD53C,5.000*%
%ADD52C,0.914*%
%ADD51C,0.900*%
%ADD50C,0.800*%
%ADD49C,0.600*%
%ADD48R,1.450X1.450*%
%ADD47R,1.850X1.850*%
%ADD46R,1.500X1.500*%
%ADD45R,0.400X0.400*%
%ADD44R,1.150X1.150*%
%ADD43R,1.397X1.397*%
%ADD42C,0.349*%
%ADD41R,0.500X0.500*%
%ADD40R,0.300X0.300*%
%ADD39R,5.350X5.350*%
%ADD38R,0.890X0.890*%
%ADD37R,1.300X1.300*%
%ADD36R,0.250X0.250*%
%ADD35R,0.700X0.700*%
%ADD34R,0.508X0.508*%
%ADD33C,0.400*%
%ADD32R,1.000X1.000*%
%ADD31C,0.450*%
%ADD30R,0.750X0.750*%
%ADD29C,3.300*%
%ADD28C,2.300*%
%ADD27C,3.700*%
%ADD26C,2.700*%
%ADD25C,4.250*%
%ADD24C,3.750*%
%ADD23C,2.106*%
%ADD22C,1.400*%
%ADD21C,1.500*%
%ADD20C,0.250*%
%ADD19C,0.500*%
%ADD18C,0.200*%
%ADD17C,0.750*%
%ADD16C,1.000*%
%ADD15C,0.240*%
%ADD14C,0.290*%
%ADD13C,0.500*%
%ADD12C,0.150*%
%ADD11C,0.002*%
G54D11*G36*
X51250Y62306D02*X58750Y62312D01*
Y51600D01*
X56250D01*
X55750Y52100D01*
X54750D01*
X53750Y51100D01*
X51250D01*
Y52576D01*
X53949Y52576D01*
X53972Y52582D01*
X53993Y52591D01*
X54014Y52603D01*
X54031Y52619D01*
X54047Y52636D01*
X54059Y52657D01*
X54068Y52678D01*
X54074Y52701D01*
X54075Y52725D01*
X54074Y61499D01*
X54068Y61522D01*
X54059Y61543D01*
X54047Y61564D01*
X54031Y61581D01*
X54014Y61597D01*
X53993Y61609D01*
X53972Y61618D01*
X53949Y61624D01*
X53925Y61625D01*
X51250Y61624D01*
Y62306D01*
G37*
G36*
X43250Y62300D02*X51250Y62306D01*
Y61624D01*
X48551Y61624D01*
X48528Y61618D01*
X48507Y61609D01*
X48486Y61597D01*
X48469Y61581D01*
X48453Y61564D01*
X48441Y61543D01*
X48432Y61522D01*
X48426Y61499D01*
X48425Y61475D01*
X48426Y52701D01*
X48432Y52678D01*
X48441Y52657D01*
X48453Y52636D01*
X48469Y52619D01*
X48486Y52603D01*
X48507Y52591D01*
X48528Y52582D01*
X48551Y52576D01*
X48575Y52575D01*
X51250Y52576D01*
Y51100D01*
X45812D01*
X45822Y51111D01*
X45834Y51132D01*
X45843Y51153D01*
X45849Y51176D01*
X45850Y51200D01*
X45849Y52524D01*
X45843Y52547D01*
X45834Y52568D01*
X45822Y52589D01*
X45806Y52606D01*
X45789Y52622D01*
X45768Y52634D01*
X45747Y52643D01*
X45724Y52649D01*
X45700Y52650D01*
X45359Y52650D01*
X45462Y52738D01*
X45565Y52858D01*
X45647Y52993D01*
X45708Y53139D01*
X45745Y53292D01*
X45754Y53450D01*
X45745Y53608D01*
X45708Y53761D01*
X45647Y53907D01*
X45565Y54042D01*
X45462Y54162D01*
X45342Y54265D01*
X45207Y54347D01*
X45061Y54408D01*
X44908Y54445D01*
X44750Y54457D01*
X44592Y54445D01*
X44439Y54408D01*
X44293Y54347D01*
X44158Y54265D01*
X44038Y54162D01*
X43935Y54042D01*
X43853Y53907D01*
X43792Y53761D01*
X43755Y53608D01*
X43743Y53450D01*
X43755Y53292D01*
X43792Y53139D01*
X43853Y52993D01*
X43935Y52858D01*
X44038Y52738D01*
X44142Y52649D01*
X43776Y52649D01*
X43753Y52643D01*
X43732Y52634D01*
X43711Y52622D01*
X43694Y52606D01*
X43678Y52589D01*
X43666Y52568D01*
X43657Y52547D01*
X43651Y52524D01*
X43650Y52500D01*
X43651Y51176D01*
X43657Y51153D01*
X43666Y51132D01*
X43678Y51111D01*
X43688Y51100D01*
X43250D01*
Y55341D01*
X44223Y55342D01*
X44246Y55348D01*
X44268Y55357D01*
X44288Y55369D01*
X44306Y55385D01*
X44322Y55402D01*
X44334Y55423D01*
X44343Y55444D01*
X44349Y55467D01*
X44350Y55491D01*
X44349Y56023D01*
X44343Y56046D01*
X44334Y56067D01*
X44322Y56088D01*
X44306Y56105D01*
X44288Y56121D01*
X44268Y56133D01*
X44246Y56142D01*
X44223Y56148D01*
X44200Y56149D01*
X43675Y56149D01*
Y56612D01*
X44223Y56612D01*
X44246Y56618D01*
X44268Y56627D01*
X44288Y56639D01*
X44306Y56655D01*
X44322Y56672D01*
X44334Y56693D01*
X44343Y56714D01*
X44349Y56737D01*
X44350Y56761D01*
X44349Y57293D01*
X44343Y57316D01*
X44334Y57337D01*
X44322Y57358D01*
X44306Y57375D01*
X44288Y57391D01*
X44268Y57403D01*
X44246Y57412D01*
X44223Y57418D01*
X44200Y57419D01*
X43250Y57418D01*
Y57881D01*
X44223Y57882D01*
X44246Y57888D01*
X44268Y57897D01*
X44288Y57909D01*
X44306Y57925D01*
X44322Y57942D01*
X44334Y57963D01*
X44343Y57984D01*
X44349Y58007D01*
X44350Y58031D01*
X44349Y58563D01*
X44343Y58586D01*
X44334Y58607D01*
X44322Y58628D01*
X44306Y58645D01*
X44288Y58661D01*
X44268Y58673D01*
X44246Y58682D01*
X44223Y58688D01*
X44200Y58689D01*
X43250Y58688D01*
Y59151D01*
X44223Y59152D01*
X44246Y59158D01*
X44268Y59167D01*
X44288Y59179D01*
X44306Y59195D01*
X44322Y59212D01*
X44334Y59233D01*
X44343Y59254D01*
X44349Y59277D01*
X44350Y59301D01*
X44349Y59833D01*
X44343Y59856D01*
X44334Y59877D01*
X44322Y59898D01*
X44306Y59915D01*
X44288Y59931D01*
X44268Y59943D01*
X44246Y59952D01*
X44223Y59958D01*
X44200Y59959D01*
X43250Y59958D01*
Y62300D01*
G37*
G36*
X57239Y50476D02*X57774Y50476D01*
X57797Y50482D01*
X57818Y50491D01*
X57839Y50503D01*
X57856Y50519D01*
X57872Y50536D01*
X57884Y50557D01*
X57893Y50578D01*
X57899Y50601D01*
X57900Y50625D01*
X57899Y51353D01*
X58734D01*
X58750Y47100D01*
X57239D01*
Y47464D01*
X58012Y47465D01*
X58035Y47471D01*
X58057Y47480D01*
X58077Y47492D01*
X58095Y47507D01*
X58110Y47525D01*
X58123Y47545D01*
X58132Y47567D01*
X58137Y47590D01*
X58139Y47614D01*
X58137Y48637D01*
X58132Y48660D01*
X58123Y48682D01*
X58110Y48702D01*
X58095Y48720D01*
X58077Y48736D01*
X58057Y48748D01*
X58035Y48757D01*
X58012Y48763D01*
X57989Y48764D01*
X57574Y48764D01*
X57559Y48776D01*
X57489Y48819D01*
X57413Y48851D01*
X57332Y48870D01*
X57250Y48877D01*
X57239Y48876D01*
Y49176D01*
X57774Y49176D01*
X57797Y49182D01*
X57818Y49191D01*
X57839Y49203D01*
X57856Y49219D01*
X57872Y49236D01*
X57884Y49257D01*
X57893Y49278D01*
X57899Y49301D01*
X57900Y49325D01*
X57899Y50099D01*
X57893Y50122D01*
X57884Y50143D01*
X57872Y50164D01*
X57856Y50181D01*
X57839Y50197D01*
X57818Y50209D01*
X57797Y50218D01*
X57774Y50224D01*
X57750Y50225D01*
X57239Y50224D01*
Y50476D01*
G37*
G36*
X54985Y51353D02*X56600D01*
X56601Y50601D01*
X56607Y50578D01*
X56616Y50557D01*
X56628Y50536D01*
X56644Y50519D01*
X56661Y50503D01*
X56682Y50491D01*
X56703Y50482D01*
X56726Y50476D01*
X56750Y50475D01*
X57239Y50476D01*
Y50224D01*
X56726Y50224D01*
X56703Y50218D01*
X56682Y50209D01*
X56661Y50197D01*
X56644Y50181D01*
X56628Y50164D01*
X56616Y50143D01*
X56607Y50122D01*
X56601Y50099D01*
X56600Y50075D01*
X56601Y49301D01*
X56607Y49278D01*
X56616Y49257D01*
X56628Y49236D01*
X56644Y49219D01*
X56661Y49203D01*
X56682Y49191D01*
X56703Y49182D01*
X56726Y49176D01*
X56750Y49175D01*
X57239Y49176D01*
Y48876D01*
X57167Y48870D01*
X57087Y48851D01*
X57011Y48819D01*
X56940Y48776D01*
X56926Y48763D01*
X56465Y48763D01*
X56442Y48757D01*
X56420Y48748D01*
X56400Y48736D01*
X56382Y48720D01*
X56367Y48702D01*
X56354Y48682D01*
X56345Y48660D01*
X56340Y48637D01*
X56338Y48614D01*
X56340Y47590D01*
X56345Y47567D01*
X56354Y47545D01*
X56367Y47525D01*
X56382Y47507D01*
X56400Y47492D01*
X56420Y47480D01*
X56442Y47471D01*
X56465Y47465D01*
X56489Y47464D01*
X57239Y47464D01*
Y47100D01*
X55674D01*
X55674Y47374D01*
X55668Y47397D01*
X55659Y47418D01*
X55647Y47439D01*
X55631Y47456D01*
X55614Y47472D01*
X55593Y47484D01*
X55572Y47493D01*
X55549Y47499D01*
X55525Y47500D01*
X54999Y47499D01*
X54996Y48105D01*
X55529Y48106D01*
X55552Y48112D01*
X55573Y48121D01*
X55594Y48133D01*
X55611Y48148D01*
X55627Y48166D01*
X55639Y48187D01*
X55648Y48208D01*
X55654Y48231D01*
X55655Y48255D01*
X55654Y50768D01*
X55648Y50791D01*
X55639Y50813D01*
X55627Y50833D01*
X55611Y50851D01*
X55594Y50867D01*
X55573Y50879D01*
X55552Y50888D01*
X55529Y50894D01*
X55505Y50895D01*
X54986Y50894D01*
X54985Y51353D01*
G37*
G36*
X59902Y6024D02*X59954Y6110D01*
X60009Y6241D01*
X60042Y6379D01*
X60050Y6520D01*
X60042Y6661D01*
X60009Y6799D01*
X59954Y6930D01*
X59902Y7016D01*
Y7550D01*
X60400D01*
Y300D01*
X59902D01*
Y944D01*
X59954Y1030D01*
X60009Y1161D01*
X60042Y1299D01*
X60050Y1440D01*
X60042Y1581D01*
X60009Y1719D01*
X59954Y1850D01*
X59902Y1936D01*
Y3486D01*
X59936Y3540D01*
X59974Y3614D01*
X60004Y3692D01*
X60027Y3773D01*
X60042Y3855D01*
X60050Y3938D01*
Y4022D01*
X60042Y4105D01*
X60027Y4187D01*
X60004Y4268D01*
X59974Y4346D01*
X59936Y4420D01*
X59902Y4476D01*
Y6024D01*
G37*
G36*
Y300D02*X59150D01*
Y537D01*
X59291Y548D01*
X59429Y581D01*
X59560Y636D01*
X59681Y710D01*
X59788Y802D01*
X59880Y909D01*
X59902Y944D01*
Y300D01*
G37*
G36*
Y7016D02*X59880Y7051D01*
X59788Y7158D01*
X59681Y7250D01*
X59560Y7324D01*
X59429Y7379D01*
X59291Y7412D01*
X59150Y7423D01*
Y7550D01*
X59902D01*
Y7016D01*
G37*
G36*
X59150Y5617D02*X59291Y5628D01*
X59429Y5661D01*
X59560Y5716D01*
X59681Y5790D01*
X59788Y5882D01*
X59880Y5989D01*
X59902Y6024D01*
Y4476D01*
X59892Y4491D01*
X59884Y4501D01*
X59876Y4509D01*
X59866Y4515D01*
X59855Y4520D01*
X59843Y4523D01*
X59831Y4524D01*
X59819Y4524D01*
X59808Y4521D01*
X59796Y4517D01*
X59786Y4511D01*
X59777Y4503D01*
X59769Y4494D01*
X59762Y4484D01*
X59758Y4474D01*
X59754Y4462D01*
X59753Y4450D01*
X59754Y4438D01*
X59756Y4427D01*
X59761Y4415D01*
X59767Y4405D01*
X59804Y4347D01*
X59835Y4284D01*
X59861Y4219D01*
X59880Y4153D01*
X59893Y4084D01*
X59899Y4015D01*
Y3945D01*
X59893Y3876D01*
X59880Y3807D01*
X59861Y3741D01*
X59835Y3676D01*
X59804Y3613D01*
X59768Y3554D01*
X59761Y3544D01*
X59757Y3533D01*
X59755Y3522D01*
X59754Y3510D01*
X59755Y3498D01*
X59758Y3487D01*
X59763Y3476D01*
X59770Y3466D01*
X59777Y3457D01*
X59787Y3450D01*
X59797Y3444D01*
X59808Y3440D01*
X59819Y3437D01*
X59831Y3437D01*
X59843Y3438D01*
X59854Y3441D01*
X59865Y3446D01*
X59875Y3452D01*
X59884Y3460D01*
X59891Y3469D01*
X59902Y3486D01*
Y1936D01*
X59880Y1971D01*
X59788Y2078D01*
X59681Y2170D01*
X59560Y2244D01*
X59429Y2299D01*
X59291Y2332D01*
X59150Y2343D01*
Y3080D01*
X59192D01*
X59275Y3088D01*
X59357Y3103D01*
X59438Y3126D01*
X59516Y3156D01*
X59590Y3194D01*
X59661Y3238D01*
X59671Y3246D01*
X59679Y3254D01*
X59685Y3264D01*
X59690Y3275D01*
X59693Y3287D01*
X59694Y3299D01*
X59694Y3311D01*
X59691Y3322D01*
X59687Y3334D01*
X59681Y3344D01*
X59673Y3353D01*
X59664Y3361D01*
X59654Y3368D01*
X59644Y3372D01*
X59632Y3376D01*
X59620Y3377D01*
X59608Y3376D01*
X59597Y3374D01*
X59585Y3369D01*
X59575Y3363D01*
X59517Y3326D01*
X59454Y3295D01*
X59389Y3269D01*
X59323Y3250D01*
X59254Y3237D01*
X59185Y3231D01*
X59150D01*
Y4729D01*
X59185D01*
X59254Y4723D01*
X59323Y4710D01*
X59389Y4691D01*
X59454Y4665D01*
X59517Y4634D01*
X59576Y4598D01*
X59586Y4591D01*
X59597Y4587D01*
X59608Y4585D01*
X59620Y4584D01*
X59632Y4585D01*
X59643Y4588D01*
X59654Y4593D01*
X59664Y4600D01*
X59673Y4607D01*
X59680Y4617D01*
X59686Y4627D01*
X59690Y4638D01*
X59693Y4649D01*
X59693Y4661D01*
X59692Y4673D01*
X59689Y4684D01*
X59684Y4695D01*
X59678Y4705D01*
X59670Y4714D01*
X59661Y4721D01*
X59590Y4766D01*
X59516Y4804D01*
X59438Y4834D01*
X59357Y4857D01*
X59275Y4872D01*
X59192Y4880D01*
X59150D01*
Y5617D01*
G37*
G36*
Y7423D02*X59150Y7423D01*
X59009Y7412D01*
X58871Y7379D01*
X58740Y7324D01*
X58619Y7250D01*
X58512Y7158D01*
X58420Y7051D01*
X58346Y6930D01*
X58333Y6900D01*
X57399D01*
X57399Y7024D01*
X57393Y7047D01*
X57384Y7068D01*
X57372Y7089D01*
X57356Y7106D01*
X57339Y7122D01*
X57318Y7134D01*
X57297Y7143D01*
X57274Y7149D01*
X57250Y7150D01*
X56900Y7150D01*
Y7346D01*
X57010Y7346D01*
X57033Y7352D01*
X57054Y7361D01*
X57075Y7373D01*
X57092Y7389D01*
X57108Y7406D01*
X57120Y7427D01*
X57129Y7448D01*
X57135Y7471D01*
X57136Y7495D01*
X57136Y7550D01*
X59150D01*
Y7423D01*
G37*
G36*
X58398Y944D02*X58420Y909D01*
X58512Y802D01*
X58619Y710D01*
X58740Y636D01*
X58871Y581D01*
X59009Y548D01*
X59150Y537D01*
X59150Y537D01*
Y300D01*
X58398D01*
Y944D01*
G37*
G36*
Y6024D02*X58420Y5989D01*
X58512Y5882D01*
X58619Y5790D01*
X58740Y5716D01*
X58871Y5661D01*
X59009Y5628D01*
X59150Y5617D01*
X59150Y5617D01*
Y4880D01*
X59108D01*
X59025Y4872D01*
X58943Y4857D01*
X58862Y4834D01*
X58784Y4804D01*
X58710Y4766D01*
X58639Y4722D01*
X58629Y4714D01*
X58621Y4706D01*
X58615Y4696D01*
X58610Y4685D01*
X58607Y4673D01*
X58606Y4661D01*
X58606Y4649D01*
X58609Y4638D01*
X58613Y4626D01*
X58619Y4616D01*
X58627Y4607D01*
X58636Y4599D01*
X58646Y4592D01*
X58656Y4588D01*
X58668Y4584D01*
X58680Y4583D01*
X58692Y4584D01*
X58703Y4586D01*
X58715Y4591D01*
X58725Y4597D01*
X58783Y4634D01*
X58846Y4665D01*
X58911Y4691D01*
X58977Y4710D01*
X59046Y4723D01*
X59115Y4729D01*
X59150D01*
Y3231D01*
X59115D01*
X59046Y3237D01*
X58977Y3250D01*
X58911Y3269D01*
X58846Y3295D01*
X58783Y3326D01*
X58724Y3362D01*
X58714Y3369D01*
X58703Y3373D01*
X58692Y3375D01*
X58680Y3376D01*
X58668Y3375D01*
X58657Y3372D01*
X58646Y3367D01*
X58636Y3360D01*
X58627Y3353D01*
X58620Y3343D01*
X58614Y3333D01*
X58610Y3322D01*
X58607Y3311D01*
X58607Y3299D01*
X58608Y3287D01*
X58611Y3276D01*
X58616Y3265D01*
X58622Y3255D01*
X58630Y3246D01*
X58639Y3239D01*
X58710Y3194D01*
X58784Y3156D01*
X58862Y3126D01*
X58943Y3103D01*
X59025Y3088D01*
X59108Y3080D01*
X59150D01*
Y2343D01*
X59150Y2343D01*
X59009Y2332D01*
X58871Y2299D01*
X58740Y2244D01*
X58619Y2170D01*
X58512Y2078D01*
X58420Y1971D01*
X58398Y1936D01*
Y3484D01*
X58408Y3469D01*
X58416Y3459D01*
X58424Y3451D01*
X58434Y3445D01*
X58445Y3440D01*
X58457Y3437D01*
X58469Y3436D01*
X58481Y3436D01*
X58492Y3439D01*
X58504Y3443D01*
X58514Y3449D01*
X58523Y3457D01*
X58531Y3466D01*
X58538Y3476D01*
X58542Y3486D01*
X58546Y3498D01*
X58547Y3510D01*
X58546Y3522D01*
X58544Y3533D01*
X58539Y3545D01*
X58533Y3555D01*
X58496Y3613D01*
X58465Y3676D01*
X58439Y3741D01*
X58420Y3807D01*
X58407Y3876D01*
X58401Y3945D01*
Y4015D01*
X58407Y4084D01*
X58420Y4153D01*
X58439Y4219D01*
X58465Y4284D01*
X58496Y4347D01*
X58532Y4406D01*
X58539Y4416D01*
X58543Y4427D01*
X58545Y4438D01*
X58546Y4450D01*
X58545Y4462D01*
X58542Y4473D01*
X58537Y4484D01*
X58530Y4494D01*
X58523Y4503D01*
X58513Y4510D01*
X58503Y4516D01*
X58492Y4520D01*
X58481Y4523D01*
X58469Y4523D01*
X58457Y4522D01*
X58446Y4519D01*
X58435Y4514D01*
X58425Y4508D01*
X58416Y4500D01*
X58409Y4491D01*
X58398Y4474D01*
Y6024D01*
G37*
G36*
X56400Y5850D02*X57274Y5851D01*
X57297Y5857D01*
X57318Y5866D01*
X57339Y5878D01*
X57356Y5894D01*
X57372Y5911D01*
X57384Y5932D01*
X57393Y5953D01*
X57399Y5976D01*
X57400Y6000D01*
X57400Y6100D01*
X58352D01*
X58398Y6024D01*
Y4474D01*
X58364Y4420D01*
X58326Y4346D01*
X58296Y4268D01*
X58273Y4187D01*
X58258Y4105D01*
X58250Y4022D01*
Y3938D01*
X58258Y3855D01*
X58273Y3773D01*
X58296Y3692D01*
X58326Y3614D01*
X58364Y3540D01*
X58398Y3484D01*
Y1936D01*
X58346Y1850D01*
X58291Y1719D01*
X58258Y1581D01*
X58247Y1440D01*
X58258Y1299D01*
X58291Y1161D01*
X58346Y1030D01*
X58398Y944D01*
Y300D01*
X56400D01*
Y401D01*
X57074Y401D01*
X57097Y407D01*
X57118Y416D01*
X57139Y428D01*
X57156Y444D01*
X57172Y461D01*
X57184Y482D01*
X57193Y503D01*
X57199Y526D01*
X57200Y550D01*
X57199Y2474D01*
X57193Y2497D01*
X57184Y2518D01*
X57172Y2539D01*
X57156Y2556D01*
X57139Y2572D01*
X57118Y2584D01*
X57097Y2593D01*
X57074Y2599D01*
X57050Y2600D01*
X56400Y2599D01*
Y3850D01*
X57274Y3851D01*
X57297Y3857D01*
X57318Y3866D01*
X57339Y3878D01*
X57356Y3894D01*
X57372Y3911D01*
X57384Y3932D01*
X57393Y3953D01*
X57399Y3976D01*
X57400Y4000D01*
X57399Y5024D01*
X57393Y5047D01*
X57384Y5068D01*
X57372Y5089D01*
X57356Y5106D01*
X57339Y5122D01*
X57318Y5134D01*
X57297Y5143D01*
X57274Y5149D01*
X57250Y5150D01*
X56400Y5149D01*
Y5850D01*
G37*
G36*
Y300D02*X55250D01*
Y930D01*
X55304Y963D01*
X55376Y1024D01*
X55437Y1096D01*
X55486Y1177D01*
X55523Y1264D01*
X55545Y1356D01*
X55550Y1450D01*
X55545Y1544D01*
X55523Y1636D01*
X55486Y1723D01*
X55437Y1804D01*
X55376Y1876D01*
X55304Y1937D01*
X55250Y1970D01*
Y2798D01*
X55250Y2800D01*
X55250Y2802D01*
Y4248D01*
X55321Y4254D01*
X55390Y4271D01*
X55455Y4298D01*
X55515Y4335D01*
X55569Y4381D01*
X55601Y4418D01*
X55601Y3976D01*
X55607Y3953D01*
X55616Y3932D01*
X55628Y3911D01*
X55644Y3894D01*
X55661Y3878D01*
X55682Y3866D01*
X55703Y3857D01*
X55726Y3851D01*
X55750Y3850D01*
X56400Y3850D01*
Y2599D01*
X55726Y2599D01*
X55703Y2593D01*
X55682Y2584D01*
X55661Y2572D01*
X55644Y2556D01*
X55628Y2539D01*
X55616Y2518D01*
X55607Y2497D01*
X55601Y2474D01*
X55600Y2450D01*
X55601Y526D01*
X55607Y503D01*
X55616Y482D01*
X55628Y461D01*
X55644Y444D01*
X55661Y428D01*
X55682Y416D01*
X55703Y407D01*
X55726Y401D01*
X55750Y400D01*
X56400Y401D01*
Y300D01*
G37*
G36*
X55600Y5000D02*X55600Y4983D01*
X55569Y5019D01*
X55515Y5065D01*
X55455Y5102D01*
X55390Y5129D01*
X55321Y5146D01*
X55250Y5152D01*
Y6048D01*
X55321Y6054D01*
X55390Y6071D01*
X55455Y6098D01*
X55515Y6135D01*
X55569Y6181D01*
X55601Y6218D01*
X55601Y5976D01*
X55607Y5953D01*
X55616Y5932D01*
X55628Y5911D01*
X55644Y5894D01*
X55661Y5878D01*
X55682Y5866D01*
X55703Y5857D01*
X55726Y5851D01*
X55750Y5850D01*
X56400Y5850D01*
Y5149D01*
X55726Y5149D01*
X55703Y5143D01*
X55682Y5134D01*
X55661Y5122D01*
X55644Y5106D01*
X55628Y5089D01*
X55616Y5068D01*
X55607Y5047D01*
X55601Y5024D01*
X55600Y5000D01*
G37*
G54D12*X60200Y22500D02*X59250D01*
X59100Y22350D01*
X60200Y23000D02*X59250D01*
X59100Y23150D01*
Y30500D02*X60200D01*
Y29000D02*X59250D01*
X59100Y28850D01*
X60200Y29500D02*X59250Y29500D01*
X59100Y29650D01*
X60200Y26000D02*X59100D01*
Y27500D02*X60200D01*
X59100Y24550D02*X59150Y24500D01*
X60200D01*
X59100Y33500D02*X60200D01*
Y32000D02*X59100D01*
X60200Y40000D02*X59100D01*
Y38500D02*X60200D01*
Y36500D02*X59300D01*
X59100Y36300D01*
X60200Y37000D02*X59250D01*
X59100Y37150D01*
X60200Y35000D02*X59100D01*
X43800D02*X44800D01*
X44950Y35150D01*
X43800Y34500D02*X44800D01*
X44950Y34350D01*
X43800Y23500D02*X44800D01*
X44950Y23650D01*
X43800Y23000D02*X44800D01*
X44950Y22850D01*
X52250Y20575D02*Y20950D01*
X52100Y21100D01*
X52750Y20575D02*Y20950D01*
X52900Y21100D01*
X52400Y18300D02*X52875Y17825D01*
X53525D01*
X51400Y15450D02*Y16300D01*
X37600Y18100D02*X37350Y17850D01*
X36700D01*
X43800Y29000D02*X44800D01*
X44950Y29150D01*
X44800Y28500D02*X44950Y28350D01*
X43800Y28500D02*X44800D01*
X63700Y28700D03*
X62800D01*
X57500Y15800D02*Y16250D01*
Y15800D02*X56200Y14500D01*
X55500D01*
X56800Y15100D02*X55975Y15925D01*
Y15975D01*
X57500Y18850D02*X57750Y19100D01*
Y20050D01*
X57500Y18850D02*X57250Y19100D01*
Y20050D01*
X48750Y42450D02*Y41450D01*
X52750Y42450D02*Y41450D01*
X52600Y41300D01*
X53450D02*X53250Y41500D01*
Y42450D01*
X48750Y41450D02*X48900Y41300D01*
X48250Y42450D02*X48250Y41450D01*
X48100Y41300D01*
G54D13*X57000Y45600D02*Y46100D01*
X57250D02*X56000D01*
X57500Y45100D02*X57000Y45600D01*
X56750Y45100D02*X57000Y45350D01*
Y46100D01*
G54D12*X15000Y30000D02*X14500Y30500D01*
X17000Y29000D02*X16500Y28500D01*
D03*
X17000Y30000D02*X16500Y29500D01*
D03*
X25300Y37250D02*X25000Y36950D01*
Y36250D01*
X23700Y37250D02*X24000Y36950D01*
Y36250D01*
X21500Y37200D02*X21500Y37200D01*
X17150Y37200D02*X17000Y37050D01*
Y36250D01*
X16350Y37200D02*X16500Y37050D01*
Y36250D01*
X21500Y37200D02*Y36250D01*
X25000Y27000D02*X25500Y27500D01*
D03*
X26000Y28000D02*X26500Y27500D01*
D03*
X24500Y37250D03*
X24500Y36250D01*
X29000Y37200D02*Y36250D01*
X27500Y37200D02*Y37200D01*
Y36250D01*
X21000Y27000D02*X20000Y28000D01*
X21000Y27000D03*
X19500Y26500D02*X20000Y26000D01*
D03*
X20500Y26500D01*
D03*
X21000Y26000D01*
D03*
X20500Y26500D02*X21000Y27000D01*
X21500Y26500D01*
X21000Y26000D02*X21500Y26500D01*
D03*
X22000Y26000D01*
D03*
X21500Y26500D02*X21500D01*
X22000Y26000D02*X22500Y26500D01*
D03*
X23000Y26000D01*
X23000D01*
Y26000D02*X23500Y25500D01*
D03*
X23000Y25000D01*
D03*
X29000Y37200D02*Y37200D01*
X30850Y56800D02*X31000Y56950D01*
Y57750D01*
X31650Y56800D02*X31500Y56950D01*
Y57750D01*
X30500Y37200D02*Y37200D01*
X37150Y46950D02*Y47750D01*
X34400Y55250D02*X33950Y55700D01*
Y57400D01*
X34300Y45750D02*X35000D01*
X34000Y47050D02*X34300Y46750D01*
X35000D01*
X34000Y46250D03*
X35000Y46250D01*
X34000Y45450D02*X34300Y45750D01*
X14500Y46550D02*X14200Y46250D01*
X14500Y45750D02*X14500D01*
X14500Y44950D02*X14200Y45250D01*
Y46250D02*X13500Y46250D01*
X14500Y45750D02*X13500D01*
X14200Y45250D02*X13500Y45250D01*
X14450Y42100D02*X14300Y42250D01*
X13500D01*
X14450Y42900D02*X14300Y42750D01*
X13500D01*
X14450Y53750D03*
X13500D01*
X14400Y49250D02*Y49250D01*
X13500D01*
X11700Y53550D02*Y52750D01*
X14400Y47750D03*
X13500D01*
X15500Y56800D02*X15500D01*
X21500D02*X21500D01*
X23700Y56750D03*
X26500Y56800D02*X26500D01*
X24500Y56750D02*X24500D01*
X15500Y56800D02*Y57750D01*
X18000Y56800D03*
Y57750D01*
X34050Y53750D03*
X35000D01*
X34050Y51250D02*Y51250D01*
X35000D01*
X33000Y56800D03*
Y57750D01*
X35000Y55250D02*X34400Y55250D01*
X33950Y57400D02*X35250Y58700D01*
Y59500D01*
X23700Y56750D02*X24000Y57050D01*
X24500Y56750D02*X24500Y58650D01*
Y58650D02*X24450Y58700D01*
Y59550D01*
X21700Y60700D02*X22450Y61450D01*
X22550D01*
X21500Y56800D02*Y57750D01*
X26500Y56800D02*Y57750D01*
X24000Y57050D02*Y57750D01*
X25000Y57050D02*Y57750D01*
X25300Y56750D02*X25000Y57050D01*
X34050Y44250D02*Y44250D01*
X35000D01*
Y40750D02*X35950D01*
X30500Y37200D02*Y36250D01*
X33000Y35300D03*
Y36250D01*
X21000Y23000D02*X19000Y25000D01*
X20000D03*
X20450Y24550D01*
X20550D01*
X19000Y23000D02*X19500Y23500D01*
D03*
X20000Y23000D01*
X19500Y21500D02*X20000Y21000D01*
D03*
X18500Y24500D02*X19000Y25000D01*
X19000D01*
X16000D02*X16500Y24500D01*
D03*
X16000Y26000D02*X15500Y25500D01*
D03*
X16000Y24000D02*X15500Y23500D01*
D03*
X19000Y25000D03*
X22000D03*
X20000Y24000D02*X21000Y25000D01*
X21500Y24500D01*
X19500D02*X20000Y25000D01*
X14500Y24500D02*X14050Y24950D01*
X22000Y25000D02*X22500Y24500D01*
D03*
X23500Y23500D03*
X24500D02*X24000Y23000D01*
X23500Y23500D02*X23000Y24000D01*
X22000D02*X22500Y24500D01*
G54D14*X3000Y24250D02*X3030Y24280D01*
G54D15*X3000Y24250D02*X3280Y24530D01*
X4125D01*
G54D12*X3800D02*X5870D01*
X6400Y24000D01*
X20500Y23500D02*X22000Y25000D01*
X21500Y24500D02*X22000Y24000D01*
D03*
X20500Y24500D02*X21500Y23500D01*
D03*
X21000Y23000D02*X22000Y24000D01*
X8750Y30350D02*X9600D01*
X8750D02*X7500Y29100D01*
Y28600D01*
X8100Y29700D02*X8925Y28875D01*
X9025D01*
G54D14*X3000Y27400D02*X3270Y27130D01*
G54D12*X950Y32150D02*X4100D01*
G54D14*X3270Y27130D02*X4125D01*
G54D12*X12500Y27150D02*X12375Y27025D01*
X11475D01*
X6550Y43250D03*
X8325D01*
X6550Y44750D03*
X8325D01*
X6550Y46250D03*
X8325D01*
X6550Y47750D02*Y47750D01*
X8325D01*
X10100Y50750D02*X10100D01*
X8325Y50750D01*
X42250Y58300D02*X42274Y58276D01*
X43450Y58285D01*
X42250Y57000D02*X43450D01*
Y55745D01*
X39596Y59554D02*X39600Y59550D01*
X39685Y57015D02*X38450D01*
X41150Y53125D02*X41275Y53000D01*
X41950D01*
X42050Y41350D02*X41250D01*
G54D16*X42900Y48850D02*X44750D01*
G54D17*X47250D01*
X44450Y51850D02*X46250D01*
X44450D03*
X51250Y49500D02*Y47850D01*
G54D13*X51100Y47700D02*X51250Y47850D01*
X51100Y46975D02*Y47700D01*
G54D17*X51250Y50300D02*Y57100D01*
G54D13*X48710Y47035D02*Y49500D01*
X48650Y46975D02*X48710Y47035D01*
X47350Y48950D02*X47500Y49100D01*
X47350Y46975D02*Y48950D01*
G54D17*X47500Y57100D02*X56250D01*
X48100Y54100D02*X55000D01*
X57250Y51125D02*Y51850D01*
X57125Y51000D02*X57250Y51125D01*
X55060Y51179D02*Y49500D01*
X55235Y51353D02*X55060Y51179D01*
X55250Y49100D02*X57000D01*
X57250Y48350D02*Y49700D01*
X57000Y48100D02*X57250Y48350D01*
G54D12*X37400Y4500D02*X36050D01*
X36750Y3800D02*X36550Y3600D01*
X36000Y3600D01*
X37500Y3950D02*X37400Y4050D01*
Y4500D01*
X39000Y6900D02*X39200Y7100D01*
X39000Y6100D02*X39550D01*
X39000Y5300D02*X39200Y5100D01*
X39550D01*
X39000Y4500D02*X39400Y4100D01*
X39550D01*
X39200Y7100D02*X39550D01*
X39000Y7700D02*X39400Y8100D01*
X39550D01*
X36650Y10900D02*X37400D01*
X36650D02*X36000Y11550D01*
Y11600D01*
Y13000D02*Y12400D01*
X43800Y4500D02*Y3800D01*
X47150Y4850D02*Y5600D01*
X42200Y6100D02*X41650D01*
X42200Y6900D02*X42000Y7100D01*
X41650D01*
X42200Y5300D02*X42000Y5100D01*
X41650D01*
X43800Y3800D02*X43600Y3600D01*
X42200Y4500D02*X41800Y4100D01*
X41650D01*
X41800Y8100D02*X41650D01*
X44200Y11300D02*X43800Y10900D01*
X42200Y7700D02*X41800Y8100D01*
G54D18*X52650Y6575D02*Y8600D01*
X53150Y6575D02*Y8450D01*
X53650Y6575D02*Y7850D01*
G54D12*X56250Y6500D02*X55250D01*
G54D19*X56250D02*X58900D01*
G54D12*X50500Y5050D02*X50700Y5250D01*
G54D18*X53700Y5750D02*X54475D01*
X53650Y3425D02*Y1950D01*
X53150Y3425D02*Y1500D01*
G54D19*X54650Y2800D02*X53500Y1650D01*
G54D12*X50500Y4500D02*Y5050D01*
X50700Y5250D02*X52550D01*
X50500Y4750D02*X51325D01*
X52650Y3425D02*Y2850D01*
X50500Y4500D02*X50750Y4250D01*
X51325D01*
X52650Y2850D02*X52350Y2550D01*
X48700Y4350D02*Y3450D01*
G54D18*X55500Y5750D02*X54475D01*
X55450Y5550D02*X55150Y5250D01*
X53650D02*X55150D01*
G54D19*X56500Y5500D02*Y1450D01*
X57550D02*X56500D01*
Y10394D02*Y6500D01*
G54D12*X49550Y9000D02*X50450D01*
X26000Y20000D02*X25500Y19500D01*
X26000Y19000D02*X26500Y19500D01*
D03*
X26000Y18000D02*X26500Y18500D01*
Y18500D01*
X20000Y18000D02*X20500Y18500D01*
D03*
X16250Y8850D02*X16900Y9500D01*
X17100D01*
X16250Y8850D02*X15600Y9500D01*
X15400D01*
X20000Y19000D02*X20500Y19500D01*
D03*
X19500D02*X19000Y19000D01*
D03*
X20000Y21000D02*X20500Y20500D01*
D03*
X21000Y21000D01*
X22000D02*X22500Y20500D01*
D03*
X23000Y21000D01*
D03*
X23500Y20500D01*
X23500D01*
X21000Y21000D02*X21500Y20500D01*
D03*
X22000Y21000D01*
D03*
X21000Y22000D02*X22000Y23000D01*
Y22000D02*X21000Y23000D01*
X21000Y22000D02*X21000D01*
Y23000D03*
X20500Y22500D02*X21000Y23000D01*
X19500Y22500D02*X20000Y23000D01*
X20000D01*
X19500Y22500D02*X19000Y23000D01*
X19000D01*
X21000D02*X21000D01*
X20500Y22500D02*X21000Y22000D01*
X19500Y21500D02*X20000Y22000D01*
X20000D01*
X19500Y22500D01*
D03*
X22500D02*X21500Y23500D01*
X23000Y23000D02*X23500Y22500D01*
D03*
X24000Y23000D03*
X23500Y22500D01*
X22000Y22000D02*X23000Y23000D01*
X22500Y22500D02*X22500D01*
X23000Y22000D01*
D03*
X23501Y22500D01*
X27000Y31000D02*X28350Y32350D01*
X26750Y30500D02*X28250D01*
X28000Y31000D02*Y31150D01*
X26000D02*X28000Y33150D01*
X26500Y31150D02*X28100Y32750D01*
X26500Y30750D02*Y31150D01*
X26000Y31000D02*Y31150D01*
X25000Y31000D02*Y31150D01*
X28500D02*X28900Y31550D01*
X28000Y31150D02*X28800Y31950D01*
Y30500D02*X30800D01*
X27500Y29500D02*X31250D01*
X29000Y30000D02*X30900D01*
X28000D02*X28300D01*
D03*
X28750Y28500D02*X30950D01*
X28800Y27500D02*X31250D01*
X31150Y29000D02*X29050D01*
X28300Y30000D02*X28800Y30500D01*
X29000Y31000D03*
X28500Y28250D02*X28750Y28500D01*
X28250Y30500D02*X28500Y30750D01*
Y31150D01*
Y28250D02*Y27750D01*
X28250Y27500D01*
X27500D01*
X27000Y28000D01*
Y30000D02*X27500Y29500D01*
D03*
X27000Y29250D02*X26500Y29750D01*
X27500Y29500D03*
X26000Y29000D02*X25500Y29500D01*
Y30250D01*
X26000Y30000D02*Y29750D01*
X25500Y30250D02*X25750Y30500D01*
X26250D01*
X25500Y30750D02*Y31150D01*
X27000Y29250D02*Y29000D01*
X26000Y29750D02*X26500Y29250D01*
Y28800D01*
X26800Y28500D01*
X27500D01*
X26500Y29750D02*Y30250D01*
X26750Y30500D01*
X26250D02*X26500Y30750D01*
X32000Y29600D02*X32700Y28900D01*
X39650Y29600D02*X39900Y29350D01*
X29000Y31000D02*X30700D01*
X28900Y31550D02*X30650D01*
X28800Y31950D02*X30450D01*
X33550Y23350D02*X33750D01*
X36450Y24500D02*X38600D01*
X40050Y23050D01*
X29000Y27000D02*X30950D01*
X39650Y27400D02*X39900Y27150D01*
X30950Y27000D02*X34700Y23250D01*
X35650Y25100D02*X31250Y29500D01*
X32700Y28900D02*X35000D01*
X33150Y29300D02*X34600D01*
X17000Y28000D02*X17500Y28500D01*
X17000Y27000D02*X17500Y26500D01*
X15000Y29000D02*X14500Y29500D01*
X15500Y28500D02*Y31450D01*
X15000Y31000D02*Y31600D01*
X14000Y31000D02*Y31200D01*
X14500Y29500D02*X13850D01*
X14000Y29000D02*X13850D01*
X15000Y28000D02*X14500Y28500D01*
X13850D01*
X15000Y27000D02*X14500Y27500D01*
X16000Y28000D02*X15500Y28500D01*
X14000Y27000D03*
Y28000D03*
X17500Y30750D02*Y31150D01*
X16000Y31000D02*Y31300D01*
X15000Y26000D02*X14652Y25652D01*
X15000Y25000D02*X14652Y25347D01*
X14000Y24000D03*
X15000D02*X14500Y23500D01*
X14000Y26080D02*X14420Y26500D01*
X14500D01*
X17500Y28500D02*Y30250D01*
X17250Y30500D01*
X17750D02*X17500Y30750D01*
X18750Y27500D02*X18500Y27750D01*
Y30250D01*
X18250Y30500D01*
X17750D01*
X20000Y30250D02*X19500Y30750D01*
X20500Y29750D02*Y31150D01*
X20000Y30250D03*
Y30000D01*
X19500Y30750D02*Y31150D01*
X20000Y31000D02*Y31150D01*
X19500Y27500D02*X18750D01*
X20000Y29000D02*X19500Y29500D01*
X21000Y29000D02*Y29250D01*
X20500Y29750D01*
X19500Y29500D02*Y30250D01*
X19250Y30500D01*
X18750D01*
X19000Y31000D02*Y31150D01*
X21500Y28750D02*Y31500D01*
X18750Y30500D02*X18500Y30750D01*
Y31150D01*
X17500D02*X17850Y31500D01*
X17250Y31900D02*X18000D01*
X17850Y31500D02*X18350D01*
X17250Y30500D02*X16750D01*
X16500Y30750D01*
Y31150D01*
X17250Y31900D01*
X15500Y31450D02*X16750Y32700D01*
X17550D01*
X16500Y33100D02*X17450D01*
X14000Y31200D02*X16300Y33500D01*
X15000Y31600D02*X16500Y33100D01*
X16000Y31300D02*X17000Y32300D01*
X17650D01*
X14400Y37050D02*Y39400D01*
X14800Y36650D02*Y39600D01*
X14400Y39400D02*X14050Y39750D01*
X14800Y39600D02*X14150Y40250D01*
X16300Y33500D02*X17350D01*
X16100Y33900D02*X17250D01*
X15900Y34300D02*X17150D01*
X15700Y34700D02*X17050D01*
X15500Y35100D02*X16950D01*
X16000Y35700D02*Y36250D01*
X15100Y35500D02*X15800D01*
X16000Y35700D01*
X15050Y36250D02*X15500D01*
X16950Y35100D02*X17500Y35650D01*
X17050Y34700D02*X18000Y35650D01*
X17150Y34300D02*X18500Y35650D01*
X17250Y33900D02*X19000Y35650D01*
X17350Y33500D02*X19500Y35650D01*
X17550Y32700D02*X20500Y35650D01*
X17450Y33100D02*X20000Y35650D01*
X20000Y35650D01*
X20000Y35650D01*
X20000D02*X20000Y35650D01*
X17650Y32300D02*X21000Y35650D01*
X20000Y35650D02*Y36250D01*
X21000Y35650D02*Y36250D01*
X29000Y25000D02*X29800D01*
X28500Y24500D02*X29600D01*
X28000Y25000D02*X28500Y25500D01*
X27500Y24750D02*Y26250D01*
X27750Y26500D02*X30400D01*
X28300Y27000D02*X28000D01*
X28300D02*X28800Y27500D01*
X24000Y27000D02*X24500Y27500D01*
D03*
X28500Y25500D02*X30000D01*
X30200Y26000D02*X29000D01*
X27000Y24000D02*X27500Y23500D01*
X26000Y24000D02*X26500Y24500D01*
X27250D01*
X27500Y24750D01*
X25000Y23000D02*X25500Y22500D01*
X28000Y24000D02*X28500Y24500D01*
X27500Y23500D02*X27501D01*
X29200D01*
X29000Y24000D02*X29400D01*
X18000D02*X18500Y23500D01*
X20000Y27000D02*X19500Y27500D01*
X22000Y27000D02*X22500Y27500D01*
X23300D01*
X23500Y27700D01*
X22000Y28000D02*X21500Y27500D01*
X22250Y28500D02*X21750D01*
X21500Y28750D01*
X22750Y28000D02*X22250Y28500D01*
X23500Y27700D02*Y28300D01*
X23300Y28500D01*
X22800D01*
X22750Y28000D02*X23000D01*
X22800Y28500D02*X22500Y28800D01*
X24000Y30000D02*Y30250D01*
Y29000D02*X24500Y28500D01*
D03*
X24000Y30250D02*X23500Y30750D01*
X25000Y30000D02*Y30250D01*
X25500Y30750D01*
X25000Y29000D02*X24500Y29500D01*
Y31150D01*
X22500Y28800D02*Y31150D01*
X23000Y30000D02*X23500Y29500D01*
D03*
Y30750D02*Y31150D01*
X24600Y32250D01*
X25100D01*
X24350Y32650D02*X25000Y32650D01*
X23050Y33050D02*X24500D01*
X23175Y31475D02*X24350Y32650D01*
X22800Y33450D02*X24350D01*
X22700Y33850D02*X24200D01*
X22600Y34250D02*X24050Y34250D01*
X21500Y31500D02*X23050Y33050D01*
X20500Y31150D02*X22800Y33450D01*
X22500Y31150D02*X22825Y31475D01*
X22000Y31150D02*X22900Y32050D01*
X20000Y31150D02*X22700Y33850D01*
X19500Y31150D02*X22600Y34250D01*
X19000Y31150D02*X23500Y35650D01*
X18500Y31150D02*X23000Y35650D01*
X18350Y31500D02*X22500Y35650D01*
X18000Y31900D02*X21600Y35500D01*
X21800D01*
X22825Y31475D02*X23175D01*
X22000Y31000D02*Y31150D01*
X28350Y32350D02*X29300D01*
X28100Y32750D02*X29150D01*
X28000Y33150D02*X29000D01*
X27900Y33550D02*X28850D01*
X27800Y33950D02*X28300D01*
X25000Y32650D02*X28000Y35650D01*
X25000Y31150D02*X27800Y33950D01*
X24500Y31150D02*X27700Y34350D01*
X28200D01*
X25500Y31150D02*X27900Y33550D01*
X25100Y32250D02*X28500Y35650D01*
X29300Y32350D02*X32500Y35550D01*
X29150Y32750D02*X32000Y35600D01*
X29000Y33150D02*X31500Y35650D01*
X28850Y33550D02*X31000Y35700D01*
X28300Y33950D02*X30000Y35650D01*
X28200Y34350D02*X29500Y35650D01*
X32500Y35550D02*Y36250D01*
X32000Y35600D02*Y36250D01*
X31500Y35650D02*Y36250D01*
X31000Y35700D02*Y36250D01*
X30000Y35650D02*Y36250D01*
X29500Y35650D02*Y36250D01*
X28000Y35650D02*Y36250D01*
X24500Y33050D02*X27000Y35550D01*
Y36250D01*
X26500Y35600D02*X26500Y36250D01*
X26000Y35650D02*Y36250D01*
X25500Y35700D02*Y36250D01*
X24350Y33450D02*X26500Y35600D01*
X24200Y33850D02*X26000Y35650D01*
X24050Y34250D02*X25500Y35700D01*
X28500Y35650D02*Y36250D01*
X32550Y37700D02*Y40500D01*
X35000Y38750D02*X35950D01*
X35600Y38250D02*X35000Y38250D01*
Y39250D02*X35550Y39250D01*
X36050Y39750D01*
X36900D01*
X35950Y38750D02*X36400Y38300D01*
X36900D01*
X38800Y37500D02*X36350D01*
X35600Y38250D01*
X38200Y38300D02*X39050Y39150D01*
Y42350D01*
X38200Y39875D03*
Y40750D01*
X23500Y35650D02*X23500Y36250D01*
X23000Y35650D02*Y36250D01*
X21000Y35650D02*Y36250D01*
X20500Y35650D02*X20500Y36250D01*
X19500Y35650D02*Y36250D01*
X19000Y35650D02*Y36250D01*
X18500Y35650D02*Y36250D01*
X18000Y35650D02*X18000Y36250D01*
X17500Y35650D02*X17500Y36250D01*
X22500Y35650D02*X22500Y36250D01*
X22000Y35700D02*Y36800D01*
X22050Y36850D01*
Y38100D01*
X21800Y35500D02*X22000Y35700D01*
G54D15*X60200Y34000D02*X60900D01*
X60950Y34050D01*
X60200Y34500D02*X60900D01*
X60950Y34450D01*
X61200D01*
X62750Y36000D01*
X61400Y34050D02*X63150Y35800D01*
X61000Y35550D02*X61300D01*
X61100Y35950D02*X61600Y36450D01*
X61300Y35550D02*X62000Y36250D01*
X60950Y34050D02*X61400D01*
X60200Y35500D02*X60950D01*
X61000Y35550D01*
X60200Y36000D02*X60900D01*
X60950Y35950D01*
X61100D01*
X65100Y36800D02*X61250Y32950D01*
X65500Y36600D02*X61450Y32550D01*
X62750Y36000D02*Y45850D01*
X63150Y35800D02*Y45650D01*
X61600Y36450D02*Y47500D01*
X62000Y36250D02*Y47300D01*
X65100Y38000D02*Y36800D01*
X66110Y40140D02*Y39010D01*
X65100Y38000D01*
X60200Y33000D02*X60900D01*
X60950Y32950D01*
X61250D01*
X60200Y32500D02*X60900D01*
X60950Y32550D01*
X61450D01*
X60200Y31500D02*X60900D01*
X61400Y31450D02*X63150Y33200D01*
X61600Y31050D02*X63350Y32800D01*
X60900Y31500D02*X60950Y31450D01*
X61400D01*
X60900Y31000D02*X60950Y31050D01*
X61600D01*
G54D12*X62675Y30000D02*X62675D01*
X60200D01*
G54D15*X63150Y33200D02*X66500D01*
X63350Y32800D02*X66700D01*
X67150Y33850D02*X66500Y33200D01*
X66110Y35060D02*X67150Y34020D01*
Y33850D01*
X68650Y33790D02*X67690D01*
X68650Y36330D02*X68380Y36600D01*
X65500D01*
X67690Y33790D02*X66700Y32800D01*
X60200Y31000D02*X60900D01*
X59675Y28500D02*X59686Y28489D01*
X60900Y28500D01*
X59675Y28000D02*X59682Y28007D01*
X60900Y28000D01*
Y28500D02*X60950Y28450D01*
X61600D01*
X60900Y28000D02*X60950Y28050D01*
X61400D01*
X64350Y47450D02*X66800D01*
X64550Y47050D02*X67050D01*
X67150Y47800D02*X66800Y47450D01*
X68650Y47760D02*X67760D01*
X67050Y47050D01*
X65100Y52000D02*Y51000D01*
X61600Y47500D01*
X65150Y50450D02*X62000Y47300D01*
X63150Y45650D02*X64550Y47050D01*
X62750Y45850D02*X64350Y47450D01*
X68650Y50300D02*X68500Y50450D01*
X65150D01*
X66110Y54110D02*Y52992D01*
X65100Y51982D01*
X66110Y49030D02*X67150Y47990D01*
Y47800D01*
X61600Y9200D02*Y23050D01*
X62000Y9400D02*Y23250D01*
X62750Y10000D02*Y23500D01*
X63150Y10200D02*Y23700D01*
X60200Y24000D02*X60900D01*
X60950Y23950D01*
X61300D01*
X60200Y23500D02*X60900D01*
X60950Y23550D01*
X61100D01*
X61600Y23050D01*
X61300Y23950D02*X62000Y23250D01*
X61200Y25050D02*X62750Y23500D01*
X61400Y25450D02*X63150Y23700D01*
X61350Y26550D02*X63900Y24000D01*
X61550Y26950D02*X64300Y24200D01*
X61600Y28450D02*X65000Y25050D01*
X61400Y28050D02*X64800Y24650D01*
X60200Y25500D02*X60900D01*
X60950Y25450D01*
X61400D01*
X60200Y25000D02*X60900D01*
X60950Y25050D01*
X61200D01*
X60200Y27000D02*X60900D01*
X60950Y26950D01*
X61550D01*
X60200Y26500D02*X60900D01*
X60950Y26550D01*
X61350D01*
X63900Y24000D02*Y21150D01*
X64300Y24200D02*Y21350D01*
X63900Y21150D02*X65750Y19300D01*
X64300Y21350D02*X65950Y19700D01*
X65750Y19300D02*X67150D01*
X65950Y19700D02*X66950D01*
X67150Y19900D01*
X68650Y19820D02*X67670D01*
X67150Y19300D01*
X66110Y21090D02*X67150Y20050D01*
Y19900D01*
X68650Y22360D02*X67250Y23760D01*
Y23950D01*
X65700Y5700D02*X67000D01*
X65500Y5300D02*X67200D01*
X68650Y5850D02*X67750D01*
X67200Y5300D01*
X67100Y5800D02*X67000Y5700D01*
X66110Y7120D02*X67100Y6130D01*
Y5800D01*
X66110Y12200D02*Y11060D01*
X65100Y10050D02*Y9100D01*
X64450Y8900D02*X63150Y10200D01*
X64250Y8500D02*X62750Y10000D01*
X62000Y9400D02*X65700Y5700D01*
X61600Y9200D02*X65500Y5300D01*
X66110Y11060D02*X65100Y10050D01*
Y9100D02*X64900Y8900D01*
X68540Y8500D02*X64250D01*
X64900Y8900D02*X64450D01*
X68650Y8390D02*X68540Y8500D01*
X66110Y26170D02*X67230D01*
X67500Y25900D01*
Y25300D01*
X67250Y25050D01*
X66550Y24650D02*X64800D01*
X67250Y25050D02*X65000D01*
X66550Y24650D02*X67250Y23950D01*
G54D12*X43800Y24000D02*X44500D01*
X43800Y22500D02*X44500D01*
X44750Y22250D01*
X45450D01*
X46700Y23500D01*
X45750Y20050D02*Y21700D01*
X40150Y19675D02*Y19250D01*
X38300Y20900D02*X39650Y19550D01*
X38650Y19800D02*X39100Y19350D01*
X41800Y21100D02*Y21300D01*
X39650Y20175D02*X40150Y19675D01*
X40450Y25100D02*X41250Y24300D01*
Y21050D01*
X40850Y20850D02*Y23850D01*
X40450Y20650D02*Y23400D01*
X40850Y23850D02*X40700Y24000D01*
X42750Y21450D02*Y24200D01*
X42350Y21150D02*Y23900D01*
X39650Y21900D02*Y20175D01*
X40050Y23050D02*Y20450D01*
X38750Y22800D02*X39650Y21900D01*
X38950Y15300D02*X39100Y15450D01*
Y16250D02*X38550Y15700D01*
X38250Y19400D02*X39100Y18550D01*
X38050Y16800D02*X38850Y17600D01*
X39350D01*
X37750Y17200D02*X38550Y18000D01*
X39650D01*
X40050Y20450D02*X43900Y16600D01*
X43800Y25000D02*X44800D01*
X42050Y27000D02*X43800D01*
X44900Y26500D02*X43800D01*
X44600Y25500D02*X43800D01*
X41650Y27400D02*X42050Y27000D01*
X42750Y24200D02*X41050Y25900D01*
X36600D01*
X42350Y23900D02*X40750Y25500D01*
X40450Y23400D02*X39600Y24250D01*
X40450Y25100D02*X35650D01*
X36050Y25500D02*X40750D01*
X39900Y27150D02*X40600D01*
X41650Y29400D02*X43050Y28000D01*
X43800D01*
X41650Y29600D02*Y29400D01*
X43800Y30000D02*X44500D01*
X45100Y30600D01*
X43800Y27500D03*
X45050D01*
X46850Y29750D02*X45700D01*
X44750D01*
X44500Y29500D01*
X43800D01*
X39900Y29350D02*X40600D01*
X44650Y6100D02*X44850Y5900D01*
X44750Y8100D02*X45100Y8450D01*
X45800D01*
X46250Y9500D02*X45800Y9050D01*
Y8450D01*
X46300Y15350D02*X46399Y15251D01*
X47349D01*
Y15301D02*Y12151D01*
X49249Y15301D02*Y12151D01*
X50100Y6450D02*X49450D01*
X50100D02*X50450Y6800D01*
Y7700D01*
X35000Y28900D02*X40100Y34000D01*
X35650Y27950D02*X39700Y32000D01*
X35650Y28750D02*X40400Y33500D01*
X40100Y34000D02*X43800D01*
X40000Y31500D02*X43800D01*
X39700Y32000D02*X43800D01*
X40400Y33500D02*X43800D01*
X36450Y27950D02*X40000Y31500D01*
X34600Y29300D02*X41800Y36500D01*
X34450Y29850D02*X41600Y37000D01*
X34500Y30800D02*X42200Y38500D01*
X34800Y34500D02*Y36950D01*
X35200Y34300D02*Y37050D01*
X38800Y37500D02*X39700Y38400D01*
X35550Y33650D02*X42850Y40950D01*
X42450Y35500D02*X42050Y35900D01*
X43800Y35500D02*X42450D01*
X34200Y29850D02*X34450D01*
X30450Y31950D02*X33600Y35100D01*
X30650Y31550D02*X34000Y34900D01*
X30700Y31000D02*X34400Y34700D01*
X33600Y35100D02*Y36650D01*
X32550Y37700D01*
X34000Y34900D02*Y36750D01*
X32950Y37800D01*
X34400Y34700D02*Y36850D01*
X33350Y37900D01*
X34800Y36950D02*X33750Y38000D01*
X35200Y37050D02*X34150Y38100D01*
X30800Y30500D02*X34800Y34500D01*
X30900Y30000D02*X35200Y34300D01*
X34150Y38100D02*Y39500D01*
X33750Y38000D02*Y39650D01*
X33350Y37900D02*Y40200D01*
X32950Y37800D02*Y40350D01*
X34150Y39500D02*X34400Y39750D01*
X35000D01*
X34350Y40250D02*X35000Y40250D01*
X34400Y41250D02*X35000D01*
X33750Y39650D02*X34350Y40250D01*
X33350Y40200D02*X34400Y41250D01*
X32950Y40350D02*X34350Y41750D01*
X35000D01*
X32550Y40500D02*X34300Y42250D01*
X35000Y42250D01*
X39700Y42000D02*X40650Y42950D01*
X38800Y42900D02*X36500D01*
X36350Y42750D01*
X35000D01*
X39700Y38400D02*Y42000D01*
X44900Y40000D03*
X43800D01*
X42850Y40950D02*X47250D01*
X47450Y40750D01*
X53700D01*
X54000Y41050D02*Y41500D01*
X53750Y42450D02*Y41750D01*
X54000Y41500D01*
X52750Y32250D02*Y34850D01*
X58450Y40550D01*
X52250Y35150D02*X57350Y40250D01*
X51750Y35450D02*X57600Y41300D01*
X51250Y35750D02*X56200Y40700D01*
X53700Y40750D02*X54000Y41050D01*
X41800Y36500D02*X43800D01*
X41600Y37000D02*X43800D01*
X42200Y38500D02*X43800D01*
X51250Y32850D02*Y35750D01*
X44900Y26500D02*X51250Y32850D01*
X44600Y25500D02*X51750Y32650D01*
X44800Y25000D02*X52250Y32450D01*
X51750Y32650D02*Y35450D01*
X52250Y32450D02*Y35150D01*
X44500Y24000D02*X52750Y32250D01*
X47050Y23000D02*X56300D01*
X47400Y22550D02*X55900D01*
X47600Y22050D02*X55550D01*
X46700Y23500D02*X56650D01*
X55550Y22050D02*X56150Y21450D01*
X56300Y23000D02*X57600Y21700D01*
X55900Y22550D02*X56050Y22400D01*
X56650Y23500D02*X57550Y22600D01*
X29000Y23000D02*X32600Y19400D01*
X29600Y24500D02*X33200Y20900D01*
X29200Y23500D02*X32900Y19800D01*
X29400Y24000D02*X33050Y20350D01*
X29000Y16000D02*X29700Y15300D01*
D03*
X29000Y17000D02*X30300Y15700D01*
X29000Y18000D02*X30900Y16100D01*
X29250Y18500D02*X30950Y16800D01*
X29250Y19500D02*X31550Y17200D01*
X29000Y22000D02*X33250Y17750D01*
X31900Y11500D02*X32700Y10700D01*
Y9300D01*
X29800Y25000D02*X33350Y21450D01*
X30000Y25500D02*X33250Y22250D01*
X33400Y22800D02*X30200Y26000D01*
X30400Y26500D02*X33550Y23350D01*
X30950Y28500D02*X36650Y22800D01*
X31150Y29000D02*X36250Y23900D01*
X31250Y27500D02*X36550Y22200D01*
X33400Y28150D02*X36050Y25500D01*
X34300Y28200D02*X36600Y25900D01*
X36450Y27950D02*Y27150D01*
X33000Y29450D02*X33150Y29300D01*
X29700Y15300D02*X38950D01*
X38550Y15700D02*X30300D01*
X34150Y16250D02*X34000Y16100D01*
X30900D01*
X40800Y14900D02*X30400D01*
X38700Y14500D02*X31100D01*
X39350Y14100D02*X31700D01*
X30200Y12600D01*
X31100Y14500D02*X29200Y12600D01*
X39050Y13700D02*X32300D01*
X31200Y12600D01*
X30950Y16800D02*X38050D01*
X31550Y17200D02*X37750D01*
X33250Y17750D02*X34550D01*
X32600Y19400D02*X38250D01*
X33200Y20900D02*X38300D01*
X33350Y21450D02*X34550D01*
X38650Y19800D02*X32900D01*
X33050Y20350D02*X38000D01*
X33400Y22800D02*X34300D01*
X34850Y22250D01*
X36650Y22800D02*X38750D01*
X36250Y23900D02*X38400D01*
X36550Y22200D02*X38550D01*
X33250Y22250D02*X33750D01*
X37400Y5300D03*
X38200Y4500D02*X37800Y4900D01*
X38200Y5300D02*X37800Y5700D01*
X41600Y3100D02*X33400D01*
X38200Y7700D02*X37800Y8100D01*
X33100D01*
X41900Y2700D02*X31900D01*
X43100Y2300D02*X31400D01*
X43400Y1900D02*X24250D01*
X43700Y1500D02*X22050D01*
X44000Y1100D02*X21650D01*
X32200Y4300D02*X33400Y3100D01*
X30300Y4300D02*X31900Y2700D01*
X29400Y4300D02*X31400Y2300D01*
X24250Y1900D02*X18000Y8150D01*
X37400Y6100D03*
Y6900D03*
X38200Y6100D02*X37800Y6500D01*
X38200Y6900D02*X37800Y7300D01*
X43000Y4500D02*X41600Y3100D01*
X43400Y4200D02*X41900Y2700D01*
X44200Y4900D02*Y3400D01*
X43100Y2300D01*
X45500Y4000D02*X43400Y1900D01*
X45900Y3700D02*X43700Y1500D01*
X46300Y3400D02*X44000Y1100D01*
X43000Y5300D02*X43400Y4900D01*
Y4200D01*
X43800Y5300D02*X44200Y4900D01*
X43400Y5700D02*X44150D01*
X44700Y5150D01*
X45500Y6100D02*Y4000D01*
X45900Y6400D02*Y3700D01*
X43000Y6100D02*X43400Y5700D01*
X43800Y6100D03*
X43000Y6900D02*X43400Y6500D01*
X43800Y6900D03*
X46300Y6600D02*Y3400D01*
X55250Y4700D02*X55200Y4750D01*
X54650Y2800D02*X54475Y2975D01*
Y4250D01*
X55200Y4750D02*X54475D01*
X50050Y3450D02*X52100D01*
X49500Y4400D02*X49450Y4450D01*
Y5150D01*
X51325Y5750D02*X50800D01*
X50100Y6450D01*
X43800Y6100D02*X44650D01*
X43400Y6500D02*X45100D01*
X43800Y6900D02*X45400D01*
X45100Y6500D02*X45500Y6100D01*
X45400Y6900D02*X45900Y6400D01*
X45200Y7700D02*X46300Y6600D01*
X47150Y7550D02*Y6900D01*
X47100Y7600D02*X47150Y7550D01*
X43800Y7700D02*X45200D01*
X43400Y8100D02*X44750D01*
X37400Y5300D02*X22300D01*
X37400Y6100D02*X22900D01*
X37800Y4900D02*X22000D01*
X37800Y5700D02*X22600D01*
X37800Y6500D02*X23200D01*
X36350Y10100D02*X35100Y11350D01*
X37050Y11900D02*Y12250D01*
Y11900D02*X37800Y11150D01*
X32350Y12050D02*X27800D01*
X37600Y13150D02*Y12000D01*
X37400Y6900D02*X25300D01*
X37400Y7700D02*X25900D01*
X37800Y7300D02*X25600D01*
X37400Y8500D02*X33500D01*
X32700Y9300D01*
X33100Y8100D02*X32100Y9100D01*
Y10300D01*
X38200Y8500D02*X37800Y8900D01*
X24500Y14500D02*X24400Y14400D01*
X25600D02*Y9000D01*
X26000Y12300D02*X26200Y12100D01*
X26200Y10300D01*
X26500Y13350D02*X27800Y12050D01*
X37800Y8900D02*X34700D01*
X35100Y9300D02*X37400D01*
X37800Y9700D02*X35500D01*
X37400Y10100D02*X36350D01*
X34700Y8900D02*X33300Y10300D01*
X32350Y12050D02*X35100Y9300D01*
X35500Y9700D02*X34550Y10650D01*
X30400Y14900D02*X28200Y12700D01*
X24400Y14400D02*Y9200D01*
X23500Y14750D02*X23800Y14450D01*
Y9900D01*
X24400Y9200D02*X25900Y7700D01*
X22500Y10400D02*X25600Y7300D01*
X25300Y6900D02*X22000Y10200D01*
X21500Y19500D02*Y18800D01*
X21800Y18500D01*
X22500D01*
X18500Y16200D02*Y15700D01*
X19000Y8600D02*Y15200D01*
X18500Y15700D02*X19000Y15200D01*
X22000Y4900D02*X18500Y8400D01*
X18000Y16000D02*Y15600D01*
X18500Y15100D01*
Y8400D02*Y15100D01*
X18000Y8150D02*Y15000D01*
X39000Y9300D02*X39600Y9900D01*
Y12150D01*
X39000Y8500D02*X40150Y9650D01*
Y11000D01*
X38200Y9300D02*X37800Y9700D01*
X38200Y10100D02*X37800Y10500D01*
X39000Y10100D02*X38600Y10500D01*
X37800Y11150D02*Y10500D01*
X37600Y12000D02*X38200Y11400D01*
Y10900D02*Y11400D01*
X46250Y13150D02*Y9500D01*
X45700Y12650D02*Y9750D01*
X43000Y8500D02*X43400Y8100D01*
X44450Y8500D02*X43800D01*
X43000Y9300D02*X43400Y8900D01*
X44150D01*
X43800Y9300D03*
X47100Y8575D02*Y7600D01*
X44900Y10400D02*Y12050D01*
X45300Y10050D02*Y12350D01*
X45700Y9750D02*X44450Y8500D01*
X43800Y9300D02*X44900Y10400D01*
X44150Y8900D02*X45300Y10050D01*
X43800Y10100D02*X43400Y10500D01*
X43000Y10100D02*X42600Y10500D01*
Y12400D01*
X43000Y10900D02*Y12700D01*
X43400Y10500D02*Y12850D01*
X42200Y12050D02*X41900Y12350D01*
X38600Y10500D02*Y11800D01*
X38150Y12250D01*
X41700Y10600D02*Y11750D01*
X42200Y10900D02*Y12050D01*
X41700Y11750D02*X39350Y14100D01*
X39000Y10900D02*Y12950D01*
X42200Y9300D02*X41150Y10350D01*
X42200Y10100D02*X41700Y10600D01*
X41150Y10350D02*Y11550D01*
X40600Y11300D02*Y12150D01*
Y11300D02*X40750Y11150D01*
Y9950D01*
X42200Y8500D02*X40750Y9950D01*
X46250Y20050D02*Y21400D01*
X39650Y19550D02*Y18700D01*
X41250Y21050D02*X44450Y17850D01*
X45150Y19050D02*X42750Y21450D01*
X44850Y18650D02*X42350Y21150D01*
X44650Y18250D02*X41800Y21100D01*
X44250Y17450D02*X40850Y20850D01*
X44050Y17050D02*X40450Y20650D01*
X45750Y21700D02*X47050Y23000D01*
X46250Y21400D02*X47400Y22550D01*
X47250Y20050D02*Y21700D01*
X47600Y22050D01*
X44450Y17850D02*X48100D01*
X47500Y19050D02*X45150D01*
X47700Y18650D02*X44850D01*
X47900Y18250D02*X44650D01*
X48200Y17450D02*X44250D01*
X48400Y17050D02*X44050D01*
X43900Y16600D02*X49800D01*
X40150Y19250D02*X46250Y13150D01*
X39650Y18700D02*X45700Y12650D01*
X43000Y12700D02*X40800Y14900D01*
X45300Y12350D02*X39650Y18000D01*
X42600Y12400D02*X40500Y14500D01*
X44900Y12050D02*X39350Y17600D01*
X40500Y14500D02*X38700D01*
X39000Y12950D02*X38950Y13000D01*
X43400Y12850D02*X39200Y17050D01*
X40600Y12150D02*X39050Y13700D01*
X48250Y21050D02*X48250Y19200D01*
X48250Y21050D02*X47850Y21450D01*
X48100Y17850D02*X49250Y19000D01*
X47750Y20050D02*Y19300D01*
X47500Y19050D01*
X48250Y19200D02*X47700Y18650D01*
X48750Y19100D02*X47900Y18250D01*
X48750Y21450D02*Y19100D01*
X49250Y19000D02*Y20050D01*
X49750D02*Y19000D01*
X50250Y20050D02*Y18900D01*
X49750Y19000D02*X48200Y17450D01*
X50250Y18900D02*X48400Y17050D01*
X50800Y17600D02*X51400D01*
X49800Y16600D02*X50800Y17600D01*
X50750Y20050D02*Y20800D01*
X50100Y21450D01*
X51250Y20050D02*Y21450D01*
X51750Y20050D02*Y18950D01*
X51400Y18600D01*
Y17600D01*
X54750Y20050D02*Y16450D01*
X54275Y15975D01*
X53525D01*
X54200Y14625D02*X53500Y15325D01*
Y15975D01*
X55250Y20050D02*Y19200D01*
X55975Y18475D01*
Y17825D01*
X57375Y17550D02*X57100Y17825D01*
X55975D01*
X27500Y26250D02*X27750Y26500D01*
X28500Y18500D02*X29250D01*
X28500Y19500D02*X29250D01*
X28000Y20000D02*X28500Y19500D01*
X28000Y19000D02*X28500Y18500D01*
X29000Y17000D03*
X28500Y18500D03*
X28000Y21000D02*X27500Y21500D01*
Y22500D01*
X29000Y21000D02*X28500Y21500D01*
Y22500D01*
X22000Y16000D03*
X21000Y17000D02*X20750D01*
X22000D02*X21700D01*
X21200Y16500D01*
X22500Y17500D02*Y16800D01*
X23000Y16700D02*X22500Y16200D01*
X23000Y20000D02*X23500Y19500D01*
X24000Y20000D02*X24500Y19500D01*
D03*
X25000Y19000D02*X24500Y18500D01*
D03*
X22500Y16800D02*X22200Y16500D01*
X24000Y22000D02*X24500Y22500D01*
X21000Y20000D02*X21500Y19500D01*
X25000Y16000D03*
Y17000D02*X25500Y16500D01*
Y14500D01*
X26000Y16000D03*
Y17000D02*X26500Y16500D01*
X24500D02*Y14500D01*
X24000Y17000D02*X24500Y16500D01*
X23000Y17000D03*
Y16700D01*
X23500Y17500D02*Y14750D01*
X25000Y16000D02*Y14200D01*
X26000Y16000D02*Y12300D01*
X25500Y14500D02*X25600Y14400D01*
X26500Y16500D02*X26500D01*
Y13350D01*
X20000Y16000D02*Y9000D01*
X21000Y16000D02*Y9500D01*
X19500Y16200D02*Y8800D01*
X20500Y16200D02*Y9200D01*
X22000Y16000D02*Y10200D01*
X22500Y16200D02*Y10400D01*
X21200Y16500D02*X20800D01*
X20500Y16200D01*
X22200Y16500D02*X21800D01*
X21500Y16200D01*
Y9900D01*
X17500Y15500D02*X18000Y15000D01*
X17450Y14750D02*Y13250D01*
X17000Y15200D02*X17450Y14750D01*
X16900Y13000D02*Y14500D01*
X17100Y12800D02*Y10800D01*
X16900Y13000D02*X17100Y12800D01*
X22000Y18000D02*X22500Y17500D01*
X23000Y18000D02*X23500Y17500D01*
X19700Y17000D02*X19200Y16500D01*
X18800D01*
X18500Y16200D01*
X20750Y17000D02*X20250Y16500D01*
X20000Y17000D02*X20000D01*
X19700D01*
X20250Y16500D02*X19800D01*
X19500Y16200D01*
X17000Y17000D02*Y16750D01*
X17500Y16250D01*
Y15500D01*
X16000Y17000D02*X16500Y16500D01*
Y14900D01*
X16000Y18000D02*X15500Y17500D01*
X14850D01*
X15000Y18000D02*X14700D01*
X15500Y18500D02*X15500D01*
X15000Y17000D02*X15500Y16500D01*
X16500Y18500D03*
X17000Y19000D02*X17500Y18500D01*
X16000Y19000D02*X15500Y18500D01*
X17000Y16000D02*Y15200D01*
X16900Y14500D02*X16500Y14900D01*
X14000Y18000D02*X13600D01*
X12950Y17350D01*
X12950Y11050D01*
X13800Y17500D02*X13500Y17200D01*
Y12650D01*
X14700Y18000D02*X14200Y17500D01*
X15500Y16500D02*Y11600D01*
X14850Y17500D02*X14500Y17150D01*
X14200Y17500D02*X13800D01*
X15500Y11600D02*X15400Y11500D01*
Y10800D01*
X15500Y18500D02*X13400D01*
X14000Y19000D02*X13250D01*
X12850Y18600D01*
X13400Y18500D02*X12400Y17500D01*
Y10350D01*
X14500Y17150D02*Y9050D01*
X20500Y9200D02*X23200Y6500D01*
X21500Y9900D02*X22550Y8850D01*
X21000Y9500D02*X21050Y9450D01*
X20000Y9000D02*X22900Y6100D01*
X19500Y8800D02*X22600Y5700D01*
X22300Y5300D02*X19000Y8600D01*
X22050Y1500D02*X14500Y9050D01*
X12400Y10350D02*X21650Y1100D01*
X13525Y31325D02*X16100Y33900D01*
X13150Y31550D02*X15900Y34300D01*
X12750Y31750D02*X15700Y34700D01*
X12350Y31950D02*X15500Y35100D01*
X12850Y33250D02*X15100Y35500D01*
X11000Y32850D02*X14800Y36650D01*
X11000Y32050D02*X11600Y32650D01*
Y32800D01*
X15050Y36250D01*
X11050Y31250D02*X12150Y32350D01*
Y32550D01*
X14000Y30000D02*X13525Y30475D01*
Y31325D01*
X13850Y29500D02*X13150Y30200D01*
X13150Y31550D01*
X13850Y29000D02*X12750Y30100D01*
Y31750D01*
X13850Y28500D02*X12350Y30000D01*
X13450Y27000D02*X12500Y27950D01*
X14000Y28000D02*X13100D01*
X12225Y28875D01*
X12350Y30000D02*Y31950D01*
X12225Y28875D02*X11475D01*
X10900Y30475D02*X11475Y29900D01*
Y28875D01*
X11050Y31250D02*X8850D01*
X6400Y28800D01*
Y27000D01*
X11600Y34250D02*X14400Y37050D01*
X9400Y35950D02*X12700Y39250D01*
X10000Y35850D02*X12900Y38750D01*
X8550Y34850D02*X7750Y34050D01*
X5625Y32491D02*X5750Y32365D01*
Y31650D01*
X9400Y31800D02*Y35950D01*
X10000Y32700D02*Y35850D01*
X4400Y36730D02*Y49150D01*
X7750Y34050D02*X1000D01*
X12700Y39250D02*X13500Y39250D01*
X12900Y38750D02*X13500D01*
X14050Y39750D02*X13500D01*
X14150Y40250D02*X13500D01*
X14652Y25652D02*X13500D01*
X14652Y25347D02*X13500D01*
X14000Y27000D02*X13450D01*
X14000Y24920D02*X13430Y24350D01*
X17500Y26500D02*Y19500D01*
X18500Y23500D02*Y21500D01*
X17000Y22000D02*X16500Y21500D01*
D03*
Y18500D02*Y20500D01*
X17000Y21000D02*Y20000D01*
X12500Y27950D02*X9600D01*
X9025Y27375D01*
Y27025D01*
X7375Y27300D02*X7650Y27025D01*
X9025D01*
G54D14*X4970Y25725D02*X13510D01*
X4970Y25275D02*X13510D01*
G54D12*X13275Y23500D02*X13225Y23550D01*
X12800D01*
X15000Y21000D02*X14500Y20500D01*
X16500D02*X16000Y21000D01*
X15500Y20500D02*X16000Y20000D01*
X15000D02*X15500Y19500D01*
D03*
X5000Y19750D02*X4750Y19500D01*
X4050D01*
X14000Y20000D03*
X12800D01*
X14000Y22000D02*X14000D01*
X16000D02*X16000D01*
X15500Y22500D01*
X15000Y21000D02*X15000D01*
X16500Y21500D02*X13350D01*
X14000Y22000D02*X13850Y22150D01*
X13350Y21500D02*X8850Y17000D01*
X12500Y21500D02*X10500Y19500D01*
X8850Y17000D02*X7000D01*
X10500Y19500D02*X7000D01*
X5000Y17000D02*X4050D01*
X12850Y18600D02*X12250D01*
X11350Y22100D02*X7750D01*
X13850Y22150D02*X13050D01*
X14000Y23000D02*X14000D01*
X13050D01*
X13430Y24350D02*X12100D01*
X14000Y24000D02*X12250D01*
X11750Y23500D01*
X12100Y24350D02*X11650Y23900D01*
X11350D01*
X11200Y24050D01*
X11750Y23500D02*X11350D01*
X11200Y23350D01*
X14500Y23500D02*X13275D01*
X12800Y23550D02*X11350Y22100D01*
X3000Y26450D02*X3030Y26480D01*
X2200Y29750D02*Y21900D01*
X3800Y22830D02*X2825Y21855D01*
X1450D01*
X3800Y29080D02*X3075Y29805D01*
X1450D01*
X3030Y26480D02*X4125D01*
G54D14*X4970Y25725D02*X4865Y25830D01*
X4970Y25275D02*X4875Y25180D01*
X4865Y25830D02*X4125D01*
X4875Y25180D02*X4125D01*
G54D12*X26497Y61501D02*X26750Y61247D01*
X30500Y61500D02*X30750Y61250D01*
X32500Y61500D02*X32750Y61250D01*
X26750Y61247D02*Y60500D01*
X27000Y57750D02*Y59247D01*
X26747Y59501D01*
X28500Y61500D02*X28750Y61250D01*
Y60500D01*
X30750Y61250D02*Y60500D01*
X32750Y61250D02*Y60500D01*
X28500Y57750D02*Y59261D01*
X28739Y59501D01*
X30500Y57750D02*Y59254D01*
X30747Y59501D01*
X32500Y57750D02*Y59254D01*
X32747Y59501D01*
X40650Y42950D02*Y47400D01*
X39050Y42350D02*X39600Y42900D01*
Y55500D01*
X42800Y47200D02*Y44050D01*
G54D13*X52520Y47870D02*Y49500D01*
X53850Y50240D02*Y46850D01*
X53790Y50300D02*X53850Y50240D01*
X52400Y47750D02*X52520Y47870D01*
X52400Y46975D02*Y47750D01*
X57000Y48100D02*X55750Y46850D01*
X55275D02*X55750D01*
X55150Y46975D02*X55275Y46850D01*
G54D12*X35000Y54750D02*X35600D01*
X35000Y54250D02*X36000D01*
X35000Y61500D02*X35250Y61250D01*
Y60500D01*
X35600Y54750D02*X36550Y55700D01*
X39600Y55500D02*X39355Y55745D01*
X38450D01*
X36550Y55700D02*X36549Y56291D01*
X36424Y57591D02*X36550Y57717D01*
Y58050D01*
X36800Y58300D01*
X38300Y58300D01*
X39600Y59550D02*X38450D01*
X42250D02*X42255Y59555D01*
X43450D01*
X36700Y51250D02*X36200Y51750D01*
Y52250D02*X36700Y52750D01*
X38050Y51125D03*
Y51900D01*
Y53000D02*X38850D01*
X36200Y51750D02*X35000D01*
Y52250D02*X36200D01*
X36900Y49750D02*X35000D01*
X36900D02*X37150Y49500D01*
Y49050D01*
X14000Y61500D02*X14253Y61247D01*
X18000Y61500D02*X18253Y61247D01*
X20000Y61500D02*X20250Y61250D01*
X14253Y61247D02*Y60500D01*
X14250Y58800D02*Y59500D01*
X16000Y61500D02*X16253Y61247D01*
Y60500D01*
X22550Y59550D02*X22500Y59500D01*
X24450Y61450D02*X23500Y60500D01*
X18253Y61247D02*Y60500D01*
X20250Y61250D02*Y60500D01*
X18500Y57750D02*Y59250D01*
X18250Y59500D01*
X19500Y57750D02*X19500Y58750D01*
X20250Y59500D01*
X22500D02*Y57750D01*
X23500Y60500D02*Y57750D01*
X17500D02*X17500Y58650D01*
X16650Y59500D01*
X16250D01*
X17000Y57750D02*Y58350D01*
X16750Y58600D01*
X14450D01*
X14250Y58800D01*
X16000Y57750D02*Y57100D01*
X16050Y57050D01*
X16500Y57750D02*X16500Y56500D01*
X16050Y57050D02*Y56550D01*
X15750Y56250D01*
X16500Y56500D02*X15900Y55900D01*
X15750Y56250D02*X15050D01*
X15900Y55900D02*X14550D01*
X13500Y56950D01*
X15050Y56250D02*X13450Y57850D01*
X13125Y55750D02*X13500D01*
X12400D01*
X13500Y55250D02*X12750D01*
X12700Y55200D01*
X11900D01*
X10600Y56500D01*
X7750D01*
X13450Y57850D02*X8675D01*
X7750Y56500D02*X7405Y56845D01*
Y57850D01*
X5500Y55750D02*X4865Y56385D01*
X5600Y56700D02*X5975D01*
X6135Y56860D01*
Y57850D01*
X4865Y56385D02*Y57850D01*
X5000Y55050D02*X4250Y55800D01*
Y59550D01*
X3595Y60205D01*
Y61150D01*
X4850Y59950D02*X4865Y59965D01*
X7400Y59950D02*X7405Y59955D01*
X6100Y59950D02*X6135Y59985D01*
Y61150D01*
X4865Y59965D02*Y61150D01*
X7405Y59955D02*Y61150D01*
X2300Y59950D02*X2325Y59975D01*
Y61150D01*
X3300Y59200D02*X3595Y58905D01*
Y57850D01*
X2350Y59050D02*X2325Y59025D01*
Y57850D01*
X8650Y59950D02*X8675Y59975D01*
Y61150D01*
G54D20*X8325Y49250D02*X9750D01*
Y49250D01*
X8325Y48750D02*X10400D01*
X9750Y49250D02*X11250Y50750D01*
X13500D01*
X10400Y48750D02*X11400Y49750D01*
X13500D01*
G54D15*X12950Y48750D02*X13500D01*
X8325Y51750D02*X10200D01*
X10700Y51250D01*
X13500D01*
X10050Y44950D02*X12470D01*
X10050Y44550D02*X12300D01*
X10050Y43450D02*X11530D01*
X9750Y42750D02*X8325D01*
X9750D02*X10050Y43050D01*
X11700D01*
X11950Y43300D01*
X10050Y46050D02*X11650D01*
X10050Y46450D02*X11480D01*
X12230Y47200D01*
X12900D01*
X11650Y46050D02*X12400Y46800D01*
X12900D01*
X12950Y46750D01*
X13500D01*
X12900Y47200D02*X12950Y47250D01*
X13500D01*
X10050Y47550D02*X11000D01*
X10050Y47950D02*X10830D01*
X11000Y47550D02*X11750Y48300D01*
X10830Y47950D02*X11580Y48700D01*
X12900D01*
X12950Y48750D01*
X11750Y48300D02*X12900D01*
X12950Y48250D01*
X13500D01*
X11530Y43450D02*X11780Y43700D01*
X12900D01*
X12950Y43750D01*
X13500D01*
X11950Y43300D02*X12900D01*
X12950Y43250D01*
X13500D01*
X12900Y44300D02*X12950Y44250D01*
X13500D01*
X12470Y44950D02*X12720Y44700D01*
X12900D01*
X12300Y44550D02*X12550Y44300D01*
X12900D01*
Y44700D02*X12950Y44750D01*
X13500D01*
X8325Y45250D02*X9750Y45250D01*
X10050Y44950D01*
X9750Y44250D02*X10050Y44550D01*
X9750Y43750D02*X8325D01*
X9750D02*X10050Y43450D01*
X9750Y44250D02*X8325Y44250D01*
Y45750D02*X9750D01*
X8325Y46750D02*X9750D01*
X10050Y46450D01*
X9750Y45750D02*X10050Y46050D01*
X8325Y47250D02*X9750Y47250D01*
X10050Y47550D01*
X8325Y48250D02*X9750Y48250D01*
X10050Y47950D01*
G54D12*X6500Y51250D02*Y51250D01*
X8325D01*
X6650Y50250D02*X8325D01*
X6650Y49750D02*X8325D01*
X6500Y50400D02*X6650Y50250D01*
X6500Y49600D02*X6650Y49750D01*
X4400Y49150D02*X6500Y51250D01*
G54D21*X1490Y13100D03*
X4030D03*
X6570D03*
X9110D03*
G54D22*X66110Y23630D03*
Y26170D03*
Y28710D03*
Y35060D03*
G54D23*X64840Y17280D03*
G54D24*X3800Y5650D03*
G54D25*X9800D03*
G54D21*X59150Y9060D03*
Y6520D03*
Y3980D03*
G54D22*X68650Y5850D03*
X66110Y7120D03*
X68650Y8390D03*
X66110Y9660D03*
X68650Y10930D03*
X66110Y12200D03*
Y14740D03*
Y21090D03*
G54D26*X71950Y1780D03*
G54D21*X59150Y1440D03*
G54D27*X75000Y4580D03*
G54D22*X68650Y36330D03*
Y38870D03*
Y41410D03*
X66110Y37600D03*
Y40140D03*
Y42680D03*
Y49030D03*
Y51570D03*
Y54110D03*
X68650Y47760D03*
Y50300D03*
Y52840D03*
Y55380D03*
X66110Y56650D03*
G54D21*X60500Y58370D03*
Y60910D03*
G54D23*X64840Y45220D03*
G54D26*X71950Y60720D03*
G54D27*X75000Y57920D03*
G54D21*X79060Y3830D03*
Y6370D03*
Y14220D03*
Y16760D03*
X77280Y17800D03*
Y20340D03*
X79060Y28190D03*
Y30730D03*
X77280Y31770D03*
Y34310D03*
Y42160D03*
Y44700D03*
X79060Y45740D03*
Y48280D03*
Y56130D03*
Y58670D03*
G54D22*X68650Y13470D03*
Y19820D03*
Y22360D03*
Y24900D03*
Y27440D03*
Y33790D03*
G54D23*X64840Y31250D03*
G54D21*X1780Y36650D03*
X4320D03*
G54D28*X1550Y54500D03*
Y40000D03*
G54D29*X7500Y54500D03*
Y40000D03*
G54D21*X60500Y53290D03*
Y55830D03*
G54D30*X16975Y10800D02*X17225D01*
X16975Y9500D02*X17225D01*
X15275Y10800D02*X15525D01*
X15275Y9500D02*X15525D01*
G54D31*X20000Y23000D03*
Y22000D03*
X17000Y23000D03*
Y22000D03*
X18000D03*
X19000D03*
X18000Y23000D03*
X19000D03*
X21000D03*
Y22000D03*
Y19000D03*
Y18000D03*
Y17000D03*
X20000Y21000D03*
X21000D03*
Y20000D03*
Y16000D03*
X16000Y23000D03*
Y22000D03*
Y21000D03*
X17000D03*
X18000D03*
X16000Y20000D03*
X17000D03*
X18000D03*
X16000Y19000D03*
Y18000D03*
Y17000D03*
Y16000D03*
X17000Y19000D03*
Y18000D03*
Y17000D03*
Y16000D03*
X18000Y19000D03*
Y18000D03*
Y17000D03*
Y16000D03*
X19000Y21000D03*
Y20000D03*
X20000D03*
X19000Y19000D03*
X20000D03*
X19000Y18000D03*
X20000D03*
X19000Y17000D03*
X20000D03*
X19000Y16000D03*
X20000D03*
G54D32*X7000Y19750D02*Y19250D01*
Y17250D02*Y16750D01*
G54D33*X14000Y24920D03*
G54D18*X13900Y25020D02*X14100D01*
G54D31*X14000Y24000D03*
X15000D03*
G54D18*X13875Y24970D02*X14125D01*
G54D31*X14000Y23000D03*
Y22000D03*
Y21000D03*
X15000Y25000D03*
X16000D03*
X17000D03*
X18000D03*
X19000D03*
X20000D03*
X21000D03*
X15000Y23000D03*
Y22000D03*
Y21000D03*
X25000Y25000D03*
Y24000D03*
Y23000D03*
Y22000D03*
X22000Y21000D03*
Y19000D03*
Y18000D03*
Y17000D03*
Y16000D03*
X23000Y21000D03*
Y19000D03*
Y18000D03*
Y17000D03*
Y16000D03*
X24000Y21000D03*
Y19000D03*
Y18000D03*
Y17000D03*
Y16000D03*
X25000Y21000D03*
Y19000D03*
Y18000D03*
Y17000D03*
Y16000D03*
X22000Y20000D03*
X23000D03*
X24000D03*
X25000D03*
X14000D03*
X15000D03*
X14000Y19000D03*
X15000D03*
X14000Y18000D03*
X15000D03*
Y17000D03*
Y16000D03*
X14000Y17000D03*
Y16000D03*
G54D34*X42954Y55745D02*X43946D01*
X42954Y57015D02*X43946D01*
X42954Y58285D02*X43946D01*
X42954Y59555D02*X43946D01*
G54D35*X42800Y47200D02*Y47100D01*
Y44100D02*Y44000D01*
X40900Y44100D02*Y44000D01*
Y47200D02*Y47100D01*
G54D30*X37025Y47750D02*X37275D01*
G54D34*X37954Y59555D02*X38946D01*
X37954Y58285D02*X38946D01*
X37954Y57015D02*X38946D01*
G54D36*X33000Y58125D02*Y57375D01*
X32500Y58125D02*Y57375D01*
X32000Y58125D02*Y57375D01*
G54D34*X37954Y55745D02*X38946D01*
G54D30*X38050Y53125D02*Y52875D01*
X36750Y53125D02*Y52875D01*
Y51125D02*Y50875D01*
X38050Y51125D02*Y50875D01*
X41150Y53125D02*Y52875D01*
X39850Y53125D02*Y52875D01*
X37025Y49050D02*X37275D01*
G54D37*X44450Y51850D02*X45050D01*
X44450Y48850D02*X45050D01*
G54D38*X47440Y50300D02*Y48700D01*
X48710Y50300D02*Y48700D01*
X49980Y50300D02*Y48700D01*
X51250Y50300D02*Y48700D01*
X52520Y50300D02*Y48700D01*
X53790Y50300D02*Y48700D01*
G54D39*X51250Y58800D02*Y55400D01*
G54D30*X53850Y46975D02*Y46725D01*
X51100Y46975D02*Y46725D01*
X52400Y46975D02*Y46725D01*
X47350Y46975D02*Y46725D01*
X48650Y46975D02*Y46725D01*
G54D36*X49250Y42975D02*Y41925D01*
X48750Y42975D02*Y41925D01*
X48250Y42975D02*Y41925D01*
X47750Y42975D02*Y41925D01*
X47250Y42975D02*Y41925D01*
X46750Y42975D02*Y41925D01*
X46250Y42975D02*Y41925D01*
X45750Y42975D02*Y41925D01*
G54D30*X41250Y41475D02*Y41225D01*
X39950Y41475D02*Y41225D01*
X38200Y38425D02*Y38175D01*
Y39875D02*Y39625D01*
X36900Y38425D02*Y38175D01*
Y39875D02*Y39625D01*
G54D36*X43275Y40500D02*X44325D01*
X43275Y40000D02*X44325D01*
X43275Y39500D02*X44325D01*
X43275Y39000D02*X44325D01*
X43275Y38500D02*X44325D01*
X43275Y38000D02*X44325D01*
X43275Y37500D02*X44325D01*
X43275Y37000D02*X44325D01*
X43275Y36500D02*X44325D01*
X43275Y36000D02*X44325D01*
X52750Y42975D02*Y41925D01*
X52250Y42975D02*Y41925D01*
X54250Y42975D02*Y41925D01*
X53750Y42975D02*Y41925D01*
X53250Y42975D02*Y41925D01*
X51750Y42975D02*Y41925D01*
X51250Y42975D02*Y41925D01*
X50750Y42975D02*Y41925D01*
X50250Y42975D02*Y41925D01*
X49750Y42975D02*Y41925D01*
X28000Y36625D02*Y35875D01*
X28500Y36625D02*Y35875D01*
X29000Y36625D02*Y35875D01*
X25000Y36625D02*Y35875D01*
X25500Y36625D02*Y35875D01*
X26000Y36625D02*Y35875D01*
X26500Y36625D02*Y35875D01*
X27000Y36625D02*Y35875D01*
X27500Y36625D02*Y35875D01*
X29500Y36625D02*Y35875D01*
X30000Y36625D02*Y35875D01*
X30500Y36625D02*Y35875D01*
X31000Y36625D02*Y35875D01*
X31500Y36625D02*Y35875D01*
X32000Y36625D02*Y35875D01*
X32500Y36625D02*Y35875D01*
X33000Y36625D02*Y35875D01*
X34625Y38250D02*X35375D01*
X34625Y38750D02*X35375D01*
X34625Y39250D02*X35375D01*
X34625Y39750D02*X35375D01*
X34625Y40250D02*X35375D01*
X34625Y40750D02*X35375D01*
X34625Y41250D02*X35375D01*
X34625Y41750D02*X35375D01*
X34625Y42250D02*X35375D01*
X34625Y42750D02*X35375D01*
X34625Y43250D02*X35375D01*
X34625Y43750D02*X35375D01*
X34625Y44250D02*X35375D01*
X34625Y44750D02*X35375D01*
X34625Y45250D02*X35375D01*
X34625Y45750D02*X35375D01*
X34625Y46250D02*X35375D01*
X34625Y46750D02*X35375D01*
X34625Y47250D02*X35375D01*
X34625Y47750D02*X35375D01*
X34625Y48250D02*X35375D01*
X34625Y48750D02*X35375D01*
X34625Y49250D02*X35375D01*
X34625Y49750D02*X35375D01*
X34625Y50250D02*X35375D01*
X34625Y50750D02*X35375D01*
X34625Y51250D02*X35375D01*
G54D34*X2325Y58446D02*Y57254D01*
X3595Y58446D02*Y57254D01*
X4865Y58446D02*Y57254D01*
X6135Y58446D02*Y57254D01*
X7405Y58446D02*Y57254D01*
X8675Y58446D02*Y57254D01*
Y61746D02*Y60554D01*
G54D30*X11575Y52750D02*X11825D01*
X11575Y51450D02*X11825D01*
G54D40*X7100Y51750D02*X9550D01*
G54D34*X7405Y61746D02*Y60554D01*
X6135Y61746D02*Y60554D01*
X4865Y61746D02*Y60554D01*
X3595Y61746D02*Y60554D01*
X2325Y61746D02*Y60554D01*
G54D36*X19500Y58125D02*Y57375D01*
X19000Y58125D02*Y57375D01*
X18500Y58125D02*Y57375D01*
X18000Y58125D02*Y57375D01*
X15500Y58125D02*Y57375D01*
X13125Y55750D02*X13875D01*
X13125Y55250D02*X13875D01*
X13125Y54750D02*X13875D01*
X13125Y54250D02*X13875D01*
G54D32*X14000Y59500D02*X14500D01*
X14000Y61500D02*X14500D01*
G54D36*X17500Y58125D02*Y57375D01*
X17000Y58125D02*Y57375D01*
X16500Y58125D02*Y57375D01*
X16000Y58125D02*Y57375D01*
G54D32*X20000Y59500D02*X20500D01*
X20000Y61500D02*X20500D01*
X18000Y59500D02*X18500D01*
X18000Y61500D02*X18500D01*
X16000Y59500D02*X16500D01*
X16000Y61500D02*X16500D01*
G54D40*X7100Y49750D02*X9550D01*
X7100Y50250D02*X9550D01*
X7100Y50750D02*X9550D01*
X7100Y51250D02*X9550D01*
G54D32*X35000Y59500D02*X35500D01*
X35000Y61500D02*X35500D01*
G54D30*X36424Y57591D02*X36674D01*
G54D36*X31500Y58125D02*Y57375D01*
X31000Y58125D02*Y57375D01*
X30500Y58125D02*Y57375D01*
X30000Y58125D02*Y57375D01*
X29500Y58125D02*Y57375D01*
X29000Y58125D02*Y57375D01*
G54D32*X26497Y59501D02*X26997D01*
X26497Y61501D02*X26997D01*
X28500Y61500D02*X29000D01*
X30497Y61501D02*X30997D01*
X32500Y61500D02*X33000D01*
G54D11*G36*
X23900Y62000D02*Y60900D01*
X25000D01*
Y62000D01*
X23900D01*
G37*
G36*
Y60100D02*Y59000D01*
X25000D01*
Y60100D01*
X23900D01*
G37*
G54D32*X28500Y59500D02*X29000D01*
X30497Y59501D02*X30997D01*
X32500Y59500D02*X33000D01*
G54D11*G36*
X22000Y62000D02*Y60900D01*
X23100D01*
Y62000D01*
X22000D01*
G37*
G36*
Y60100D02*Y59000D01*
X23100D01*
Y60100D01*
X22000D01*
G37*
G54D36*X28500Y58125D02*Y57375D01*
X28000Y58125D02*Y57375D01*
X27500Y58125D02*Y57375D01*
X27000Y58125D02*Y57375D01*
X26500Y58125D02*Y57375D01*
X26000Y58125D02*Y57375D01*
X25500Y58125D02*Y57375D01*
X25000Y58125D02*Y57375D01*
X24500Y58125D02*Y57375D01*
X24000Y58125D02*Y57375D01*
X23500Y58125D02*Y57375D01*
X23000Y58125D02*Y57375D01*
X22500Y58125D02*Y57375D01*
X22000Y58125D02*Y57375D01*
X21500Y58125D02*Y57375D01*
X21000Y58125D02*Y57375D01*
X20500Y58125D02*Y57375D01*
X20000Y58125D02*Y57375D01*
G54D30*X36424Y56291D02*X36674D01*
G54D36*X34625Y52750D02*X35375D01*
X34625Y53250D02*X35375D01*
X34625Y53750D02*X35375D01*
X34625Y51750D02*X35375D01*
X34625Y52250D02*X35375D01*
X34625Y54250D02*X35375D01*
X34625Y54750D02*X35375D01*
X34625Y55250D02*X35375D01*
X34625Y55750D02*X35375D01*
X13125Y53750D02*X13875D01*
X13125Y53250D02*X13875D01*
X13125Y52750D02*X13875D01*
X13125Y52250D02*X13875D01*
X13125Y51750D02*X13875D01*
X13125Y51250D02*X13875D01*
X13125Y50750D02*X13875D01*
X13125Y50250D02*X13875D01*
X13125Y49750D02*X13875D01*
X13125Y49250D02*X13875D01*
X13125Y48750D02*X13875D01*
X13125Y48250D02*X13875D01*
X13125Y47750D02*X13875D01*
X13125Y47250D02*X13875D01*
X13125Y46750D02*X13875D01*
X13125Y46250D02*X13875D01*
X13125Y45750D02*X13875D01*
X13125Y45250D02*X13875D01*
X13125Y44750D02*X13875D01*
X13125Y44250D02*X13875D01*
X13125Y43750D02*X13875D01*
X13125Y43250D02*X13875D01*
X13125Y42750D02*X13875D01*
X13125Y42250D02*X13875D01*
X13125Y41750D02*X13875D01*
X13125Y41250D02*X13875D01*
X13125Y40750D02*X13875D01*
X13125Y40250D02*X13875D01*
X13125Y39750D02*X13875D01*
X13125Y39250D02*X13875D01*
X13125Y38750D02*X13875D01*
G54D40*X7100Y42750D02*X9550D01*
X7100Y43250D02*X9550D01*
X7100Y43750D02*X9550D01*
X7100Y44250D02*X9550D01*
X7100Y44750D02*X9550D01*
X7100Y45250D02*X9550D01*
X7100Y45750D02*X9550D01*
X7100Y46250D02*X9550D01*
X7100Y46750D02*X9550D01*
X7100Y47250D02*X9550D01*
X7100Y47750D02*X9550D01*
X7100Y48250D02*X9550D01*
X7100Y48750D02*X9550D01*
X7100Y49250D02*X9550D01*
G54D36*X59675Y22000D02*X60725D01*
X59675Y22500D02*X60725D01*
X59675Y23000D02*X60725D01*
X59675Y23500D02*X60725D01*
G54D41*X35900Y3600D02*X36100D01*
X35900Y4400D02*X36100D01*
X35900Y12400D02*X36100D01*
X35900Y11600D02*X36100D01*
G54D33*X39000Y4500D03*
X38200D03*
X39000Y5300D03*
X38200D03*
X39000Y6100D03*
X38200D03*
G54D42*X43800Y4525D02*Y4475D01*
X43000Y4525D02*Y4475D01*
G54D33*X42200Y4500D03*
G54D42*X43775Y5300D02*X43825D01*
G54D33*X43000D03*
X42200D03*
G54D42*X43775Y6100D02*X43825D01*
G54D33*X43000D03*
X42200D03*
G54D42*X43775Y6900D02*X43825D01*
G54D30*X48750Y3575D02*Y3325D01*
X50050Y3575D02*Y3325D01*
X49325Y6450D02*X49575D01*
X49325Y5150D02*X49575D01*
G54D42*X37375Y4500D02*X37425D01*
X37375Y5300D02*X37425D01*
X37375Y6100D02*X37425D01*
G54D33*X39000Y6900D03*
Y7700D03*
Y8500D03*
Y9300D03*
X38200Y6900D03*
Y7700D03*
Y8500D03*
Y9300D03*
G54D42*X37375Y6900D02*X37425D01*
X37375Y7700D02*X37425D01*
X37375Y8500D02*X37425D01*
X37375Y9300D02*X37425D01*
X37375Y10100D02*X37425D01*
X37400Y10925D02*Y10875D01*
G54D33*X39000Y10100D03*
G54D42*Y10925D02*Y10875D01*
G54D33*X38200Y10100D03*
G54D42*Y10925D02*Y10875D01*
G54D33*X43000Y6900D03*
Y7700D03*
Y8500D03*
Y9300D03*
Y10100D03*
G54D42*Y10925D02*Y10875D01*
G54D33*X42200Y6900D03*
Y7700D03*
Y8500D03*
Y9300D03*
Y10100D03*
G54D42*Y10925D02*Y10875D01*
X43775Y7700D02*X43825D01*
X43775Y8500D02*X43825D01*
X43775Y9300D02*X43825D01*
X43775Y10100D02*X43825D01*
X43800Y10925D02*Y10875D01*
G54D30*X47100Y8575D02*Y8325D01*
X45800Y8575D02*Y8325D01*
X50325Y9000D02*X50575D01*
X50325Y7700D02*X50575D01*
X47025Y5600D02*X47275D01*
X47025Y6900D02*X47275D01*
G54D35*X47349Y12201D02*Y12101D01*
X49249Y12201D02*Y12101D01*
G54D36*X52150Y3725D02*Y3125D01*
X52650Y3725D02*Y3125D01*
X53150Y3725D02*Y3125D01*
X53650Y3725D02*Y3125D01*
G54D37*X53400Y1800D02*Y1200D01*
G54D43*X56288Y10606D02*Y8194D01*
G54D37*X56400Y1800D02*Y1200D01*
G54D32*X56250Y4500D02*X56750D01*
X56250Y6500D02*X56750D01*
G54D36*X53650Y6875D02*Y6275D01*
X53150Y6875D02*Y6275D01*
X52650Y6875D02*Y6275D01*
G54D43*X53112Y10606D02*Y8194D01*
G54D36*X52150Y6875D02*Y6275D01*
X51025Y5750D02*X51625D01*
X51025Y5250D02*X51625D01*
X51025Y4750D02*X51625D01*
X51025Y4250D02*X51625D01*
X54175D02*X54775D01*
X54175Y4750D02*X54775D01*
X54175Y5250D02*X54775D01*
X54175Y5750D02*X54775D01*
G54D11*G36*
X52050Y5850D02*Y4150D01*
X53750D01*
Y5850D01*
X52050D01*
G37*
G54D36*X43275Y35500D02*X44325D01*
X43275Y35000D02*X44325D01*
X43275Y34500D02*X44325D01*
X43275Y34000D02*X44325D01*
X43275Y33500D02*X44325D01*
X43275Y33000D02*X44325D01*
X43275Y32500D02*X44325D01*
X43275Y32000D02*X44325D01*
X43275Y31500D02*X44325D01*
X43275Y31000D02*X44325D01*
X43275Y30500D02*X44325D01*
X43275Y30000D02*X44325D01*
G54D32*X41650Y29600D02*Y29100D01*
X39650Y29600D02*Y29100D01*
G54D36*X43275Y29500D02*X44325D01*
X43275Y29000D02*X44325D01*
X43275Y28500D02*X44325D01*
X43275Y28000D02*X44325D01*
X43275Y27500D02*X44325D01*
X43275Y27000D02*X44325D01*
X43275Y26500D02*X44325D01*
X43275Y26000D02*X44325D01*
X43275Y25500D02*X44325D01*
X43275Y25000D02*X44325D01*
X43275Y24500D02*X44325D01*
X43275Y24000D02*X44325D01*
G54D32*X39650Y27400D02*Y26900D01*
X41650Y27400D02*Y26900D01*
G54D30*X62675Y30000D02*X62925D01*
X62675Y28700D02*X62925D01*
G54D36*X59675Y31000D02*X60725D01*
X59675Y31500D02*X60725D01*
X59675Y27500D02*X60725D01*
X59675Y28000D02*X60725D01*
X59675Y24000D02*X60725D01*
X59675Y24500D02*X60725D01*
X59675Y25000D02*X60725D01*
X59675Y25500D02*X60725D01*
X59675Y26000D02*X60725D01*
X59675Y26500D02*X60725D01*
X59675Y27000D02*X60725D01*
X59675Y28500D02*X60725D01*
X59675Y29000D02*X60725D01*
X59675Y29500D02*X60725D01*
X59675Y30000D02*X60725D01*
X59675Y30500D02*X60725D01*
X59675Y36000D02*X60725D01*
X59675Y36500D02*X60725D01*
X59675Y37000D02*X60725D01*
X59675Y37500D02*X60725D01*
X59675Y39000D02*X60725D01*
X59675Y39500D02*X60725D01*
X59675Y40000D02*X60725D01*
X59675Y40500D02*X60725D01*
X59675Y33500D02*X60725D01*
X59675Y34000D02*X60725D01*
X59675Y32000D02*X60725D01*
X59675Y32500D02*X60725D01*
X59675Y33000D02*X60725D01*
X59675Y34500D02*X60725D01*
X59675Y35000D02*X60725D01*
X59675Y35500D02*X60725D01*
X59675Y38000D02*X60725D01*
X59675Y38500D02*X60725D01*
X58250Y42975D02*Y41925D01*
X57750Y42975D02*Y41925D01*
G54D32*X56989Y46114D02*X57489D01*
X56989Y48114D02*X57489D01*
G54D30*X57125Y51000D02*X57375D01*
X57125Y49700D02*X57375D01*
G54D36*X57250Y42975D02*Y41925D01*
X56750Y42975D02*Y41925D01*
X56250Y42975D02*Y41925D01*
X55750Y42975D02*Y41925D01*
X55250Y42975D02*Y41925D01*
X54750Y42975D02*Y41925D01*
G54D38*X55060Y50300D02*Y48700D01*
G54D30*X55150Y46975D02*Y46725D01*
G54D36*X46750Y20575D02*Y19525D01*
X47250Y20575D02*Y19525D01*
X47750Y20575D02*Y19525D01*
X48250Y20575D02*Y19525D01*
X48750Y20575D02*Y19525D01*
X51250Y20575D02*Y19525D01*
X51750Y20575D02*Y19525D01*
X52250Y20575D02*Y19525D01*
X52750Y20575D02*Y19525D01*
X53250Y20575D02*Y19525D01*
X53750Y20575D02*Y19525D01*
X54250Y20575D02*Y19525D01*
X54750Y20575D02*Y19525D01*
X55250Y20575D02*Y19525D01*
X55750Y20575D02*Y19525D01*
X56250Y20575D02*Y19525D01*
X56750Y20575D02*Y19525D01*
X57250Y20575D02*Y19525D01*
X57750Y20575D02*Y19525D01*
X58250Y20575D02*Y19525D01*
X43275Y23500D02*X44325D01*
X43275Y23000D02*X44325D01*
X43275Y22500D02*X44325D01*
X43275Y22000D02*X44325D01*
X45750Y20575D02*Y19525D01*
X46250Y20575D02*Y19525D01*
G54D35*X47349Y15301D02*Y15201D01*
G54D30*X36575Y19150D02*X36825D01*
X36575Y17850D02*X36825D01*
X51275Y17600D02*X51525D01*
X51275Y16300D02*X51525D01*
G54D36*X49250Y20575D02*Y19525D01*
X49750Y20575D02*Y19525D01*
X50250Y20575D02*Y19525D01*
X50750Y20575D02*Y19525D01*
G54D35*X49249Y15301D02*Y15201D01*
G54D44*X53475Y15975D02*X53575D01*
X53475Y17825D02*X53575D01*
G54D30*X57375Y16250D02*X57625D01*
X57375Y17550D02*X57625D01*
X55500Y14625D02*Y14375D01*
X54200Y14625D02*Y14375D01*
G54D44*X55925Y15975D02*X56025D01*
X55925Y17825D02*X56025D01*
G54D31*X26000Y29000D03*
Y28000D03*
X27000D03*
X26000Y31000D03*
Y30000D03*
X27000D03*
X28000D03*
X29000D03*
X27000Y31000D03*
X28000D03*
X29000D03*
X27000Y29000D03*
X28000D03*
X29000D03*
X27000Y20000D03*
Y19000D03*
Y18000D03*
Y17000D03*
X26000Y21000D03*
Y20000D03*
Y19000D03*
Y22000D03*
X27000D03*
Y21000D03*
X28000Y22000D03*
Y21000D03*
Y20000D03*
Y19000D03*
Y18000D03*
Y17000D03*
X29000Y22000D03*
Y21000D03*
Y20000D03*
Y19000D03*
Y18000D03*
Y17000D03*
X26000Y27000D03*
Y26000D03*
Y25000D03*
X28000Y28000D03*
X29000D03*
X28000Y27000D03*
X29000D03*
X28000Y26000D03*
X29000D03*
X27000Y27000D03*
Y26000D03*
Y25000D03*
Y24000D03*
Y23000D03*
X28000Y25000D03*
Y24000D03*
Y23000D03*
X29000Y25000D03*
Y24000D03*
Y23000D03*
X26000Y24000D03*
Y23000D03*
Y18000D03*
Y17000D03*
Y16000D03*
X27000D03*
X28000D03*
X29000D03*
G54D30*X10675Y24350D02*X10925D01*
X10675Y23050D02*X10925D01*
G54D32*X5000Y19750D02*Y19250D01*
Y17250D02*Y16750D01*
G54D30*X7375Y28600D02*X7625D01*
X9600Y30475D02*Y30225D01*
X10900Y30475D02*Y30225D01*
G54D44*X8975Y28875D02*X9075D01*
G54D30*X5625Y32491D02*X5875D01*
X5625Y33791D02*X5875D01*
G54D35*X4050Y32150D02*X4150D01*
X950D02*X1050D01*
X950Y34050D02*X1050D01*
X4050D02*X4150D01*
G54D45*X3650Y25830D02*X4600D01*
X3650Y26480D02*X4600D01*
X3650Y25180D02*X4600D01*
X3650Y27130D02*X4600D01*
G54D46*X3800Y29080D02*Y28830D01*
G54D45*X3650Y24530D02*X4600D01*
G54D46*X3800Y22830D02*Y22580D01*
G54D47*X1425Y21855D02*X1475D01*
G54D48*X1225Y24855D02*X1675D01*
X1225Y26805D02*X1675D01*
G54D47*X1425Y29805D02*X1475D01*
G54D30*X7375Y27300D02*X7625D01*
G54D44*X8975Y27025D02*X9075D01*
X11425Y28875D02*X11525D01*
G54D31*X22000Y22000D03*
X23000D03*
X24000D03*
X16000Y24000D03*
X17000D03*
X19000D03*
X18000D03*
X20000D03*
X21000D03*
G54D36*Y36625D02*Y35875D01*
X21500Y36625D02*Y35875D01*
X22000Y36625D02*Y35875D01*
G54D31*X20000Y31000D03*
X21000D03*
X22000D03*
G54D36*X15500Y36625D02*Y35875D01*
G54D31*X16000Y31000D03*
Y30000D03*
X19000Y31000D03*
X23000D03*
X24000D03*
X17000D03*
X18000D03*
X17000Y30000D03*
X22000Y25000D03*
X23000D03*
X24000D03*
X22000Y24000D03*
Y23000D03*
X23000D03*
Y24000D03*
X24000D03*
Y23000D03*
G54D36*X16000Y36625D02*Y35875D01*
X16500Y36625D02*Y35875D01*
X17000Y36625D02*Y35875D01*
X13125Y38250D02*X13875D01*
X17500Y36625D02*Y35875D01*
X18000Y36625D02*Y35875D01*
X18500Y36625D02*Y35875D01*
X19000Y36625D02*Y35875D01*
X19500Y36625D02*Y35875D01*
X20000Y36625D02*Y35875D01*
X20500Y36625D02*Y35875D01*
X22500Y36625D02*Y35875D01*
X23000Y36625D02*Y35875D01*
X23500Y36625D02*Y35875D01*
X24000Y36625D02*Y35875D01*
X24500Y36625D02*Y35875D01*
G54D31*X25000Y31000D03*
X22000Y30000D03*
X23000D03*
X24000D03*
X25000D03*
X21000Y29000D03*
X22000D03*
X23000D03*
X24000D03*
X25000D03*
Y28000D03*
X14000Y31000D03*
X15000D03*
X14000Y30000D03*
X15000D03*
X14000Y29000D03*
X15000D03*
X16000D03*
X14000Y28000D03*
X15000D03*
X16000D03*
X18000Y30000D03*
X19000D03*
X20000D03*
X21000D03*
X17000Y29000D03*
Y28000D03*
X18000Y29000D03*
X19000D03*
X20000D03*
X18000Y28000D03*
X19000D03*
X20000D03*
X21000D03*
G54D44*X11425Y27025D02*X11525D01*
G54D31*X15000Y27000D03*
X16000D03*
X17000D03*
X18000D03*
X19000D03*
X14000D03*
G54D33*Y26080D03*
G54D18*X13900Y25980D02*X14100D01*
X13875Y26030D02*X14125D01*
G54D31*X15000Y26000D03*
X16000D03*
X17000D03*
X22000Y28000D03*
Y27000D03*
X23000Y28000D03*
Y27000D03*
X24000Y28000D03*
Y27000D03*
X25000D03*
X20000D03*
X21000D03*
X18000Y26000D03*
X19000D03*
X20000D03*
X21000D03*
X22000D03*
X23000D03*
X24000D03*
X25000D03*
G54D49*X59100Y23150D03*
X50100Y24450D03*
X59100Y22350D03*
X56150Y21450D03*
X56050Y22400D03*
X57600Y21700D03*
X57550Y22600D03*
X59100Y24550D03*
Y26000D03*
X48750Y21450D03*
X47850D03*
X50100D03*
X51250D03*
X48000Y26700D03*
X59100Y27500D03*
X71300Y24250D03*
X74450Y27750D03*
X59100Y35000D03*
Y38500D03*
Y37150D03*
Y36300D03*
Y30500D03*
Y33500D03*
Y32000D03*
Y29650D03*
Y28850D03*
X63700Y28700D03*
X59100Y40000D03*
X58450Y40550D03*
X57350Y40250D03*
X57600Y41300D03*
X56200Y40700D03*
X71300Y38250D03*
G54D50*X58400Y34150D03*
G54D49*X48900Y41300D03*
X48100D03*
X52600D03*
X53450D03*
X46850Y29750D03*
X45100Y30600D03*
X47850Y32600D03*
X44900Y40000D03*
X47900D03*
G54D50*X54400Y34150D03*
G54D49*X52100Y21100D03*
X52400Y18300D03*
X51400Y15450D03*
X49250Y13700D03*
X49800Y16600D03*
X50300Y13750D03*
X52900Y21100D03*
X55250Y4700D03*
Y6500D03*
G54D22*X52900Y5000D03*
G54D49*X56800Y15100D03*
X57500Y18850D03*
X49550Y9000D03*
X48700Y4350D03*
X46300Y15350D03*
X55700Y3500D03*
G54D51*X54650Y2800D03*
X54950Y1450D03*
G54D49*X56500Y3500D03*
X57300D03*
X49500Y4400D03*
X52350Y2550D03*
X50450Y4950D03*
X46450Y2750D03*
X71300Y10300D03*
X26750Y60500D03*
X25300Y56750D03*
X26500Y54600D03*
X25300Y54550D03*
X23700Y56750D03*
X26500Y56800D03*
X31650D03*
X30850D03*
X33000D03*
X28750Y60500D03*
X30750D03*
X32750D03*
X35950Y40750D03*
X36750Y42350D03*
X38800Y42900D03*
X30500Y37200D03*
X27500D03*
X24500Y37250D03*
X25300D03*
X23700D03*
X29000Y37200D03*
X30500Y39400D03*
X29000D03*
X38200Y40750D03*
X42050Y41350D03*
X32100Y37250D03*
X35750Y36500D03*
X42050Y35900D03*
X34050Y53750D03*
X36000Y54250D03*
X38050Y51900D03*
X38850Y53000D03*
X34050Y51250D03*
X34000Y47050D03*
Y46250D03*
X34050Y44250D03*
X34000Y45450D03*
X42250Y58300D03*
Y57000D03*
X39596Y59554D03*
X39700Y57000D03*
X42250Y59550D03*
X35250Y60500D03*
X37150Y46950D03*
X41950Y53000D03*
X42800Y45600D03*
G54D21*X42900Y48850D03*
G54D52*X51250Y47850D03*
G54D49*X53750D03*
X56750Y45100D03*
X56000Y46100D03*
X57500Y45100D03*
X56000Y47100D03*
G54D52*X55235Y51353D03*
X56234Y49104D03*
G54D49*X57734Y52353D03*
X56734D03*
G54D52*X58484Y50103D03*
Y49104D03*
G54D21*X44750Y53450D03*
G54D49*X49250Y55100D03*
Y54100D03*
Y53100D03*
X49750Y54600D03*
Y53600D03*
X50250Y53100D03*
Y54100D03*
X46487Y52853D03*
X49250Y60100D03*
Y59100D03*
X49750Y59600D03*
Y60550D03*
X50250Y60100D03*
X50750Y60550D03*
X53250Y59100D03*
G54D53*X51250Y57100D03*
G54D49*X53250Y60100D03*
X52750Y59600D03*
Y60550D03*
X51750D03*
X52250Y60100D03*
X51250D03*
X52750Y54600D03*
Y53600D03*
X52250Y54100D03*
X50750Y53600D03*
X52250Y53100D03*
X51750Y53600D03*
X51250Y53100D03*
Y54100D03*
X53250Y55100D03*
Y54100D03*
Y53100D03*
X55734Y52853D03*
X54735D03*
X53485Y51853D03*
X52485D03*
X51486D03*
X50486D03*
X49486D03*
X48486D03*
X47487Y52103D03*
X46487D03*
X71300Y52200D03*
X44950Y34350D03*
Y35150D03*
Y29150D03*
Y28350D03*
X45050Y27500D03*
X35650Y27950D03*
X36450Y27150D03*
X34200Y29850D03*
X37100Y26500D03*
X37150Y27800D03*
X33000Y29450D03*
X32600Y30200D03*
X33550Y30850D03*
X33400Y30150D03*
X32850Y30850D03*
X33400Y28150D03*
X40600Y27150D03*
X40650Y28250D03*
X40600Y29350D03*
X34500Y30800D03*
X34700Y32800D03*
X35650D03*
X35550Y33650D03*
X33000Y35300D03*
X30500Y32800D03*
X25000Y9750D03*
X27150Y8400D03*
X25000Y10450D03*
X27350Y10300D03*
X30950D03*
X33500Y9300D03*
X29100Y8300D03*
X33050Y4300D03*
X31200D03*
X31400Y9650D03*
X28550Y4300D03*
X26250D03*
X28850Y3600D03*
X25950Y2850D03*
X44750Y4150D03*
X44700Y5150D03*
X41900Y12350D03*
X41100Y13150D03*
X44950Y23650D03*
Y22850D03*
X39600Y24250D03*
X34700Y23250D03*
X36450Y24500D03*
X35750Y22200D03*
X35850Y21500D03*
X37750Y23350D03*
X36900D03*
X39100Y21600D03*
X41800Y22300D03*
Y23650D03*
X28500Y20500D03*
X27500D03*
X30900Y11400D03*
X32550Y12800D03*
X35750Y16250D03*
X33000Y12250D03*
X24500Y17530D03*
X24525Y22500D03*
X27050Y13800D03*
X28500D03*
X37600Y18100D03*
X36850Y16250D03*
X35150Y18800D03*
X35700Y18250D03*
X16500Y28500D03*
Y29500D03*
X16350Y37200D03*
X17150D03*
X21500Y27500D03*
X20500Y26500D03*
X21500D03*
X19500D03*
X20500Y27500D03*
Y28500D03*
X21500Y37200D03*
X24500Y39450D03*
X22050Y38100D03*
X22900Y32050D03*
X16500Y27500D03*
X22500Y26500D03*
X23425Y22500D03*
X22525Y24500D03*
X23475D03*
X19450Y24525D03*
X21425Y24500D03*
X14500Y30500D03*
Y27500D03*
X12500Y27150D03*
X14500Y26500D03*
Y24500D03*
X11000Y32050D03*
X9400Y31800D03*
X8100Y29700D03*
X8600Y31800D03*
X3000Y26450D03*
X6400Y27000D03*
G54D54*X3000Y27400D03*
G54D49*X8000Y24000D03*
X7750Y22100D03*
X6400Y24000D03*
X2950Y32150D03*
G54D54*X3000Y24250D03*
G54D49*X5750Y31650D03*
X11000Y32850D03*
X11600Y34250D03*
X12850Y33250D03*
X9050Y23650D03*
X10100Y50750D03*
X10000Y32700D03*
X8550Y34850D03*
X12150Y32550D03*
X10850Y34050D03*
X10550Y33500D03*
X8850Y32700D03*
X39550Y4100D03*
X36750Y3800D03*
X37500Y3950D03*
X41650Y4100D03*
X39550Y5100D03*
X41650D03*
X39550Y6100D03*
X41650D03*
X30300Y4300D03*
X29400D03*
X32200D03*
X32100Y10300D03*
X33300D03*
X34550Y10650D03*
X36650Y10900D03*
X31900Y11500D03*
X43600Y3600D03*
X44850Y5900D03*
X47150Y4850D03*
X44200Y11300D03*
X30200Y12600D03*
X29200D03*
X28200Y12700D03*
X31200Y12600D03*
X39550Y7100D03*
X41650D03*
X39550Y8100D03*
X41650D03*
X35100Y11350D03*
X37050Y12250D03*
X41150Y11550D03*
X40150Y11000D03*
X39600Y12150D03*
X38150Y12250D03*
X39100Y16250D03*
X37600Y13150D03*
X39100Y15450D03*
X38950Y13000D03*
X36000D03*
X25000Y14200D03*
X25600Y9000D03*
X26200Y10300D03*
X23800Y9900D03*
X22550Y8850D03*
X21050Y9450D03*
X21700Y8800D03*
X22500Y8000D03*
X12950Y11050D03*
X15500Y11600D03*
X13500Y12700D03*
X16250Y8850D03*
X13800Y11750D03*
X13700Y10450D03*
X4050Y17000D03*
Y19500D03*
X6650Y18250D03*
X34150Y16250D03*
X33750Y22250D03*
Y23350D03*
X34550Y17750D03*
Y21450D03*
X34850Y22250D03*
X22500Y18500D03*
X23500Y19500D03*
X22500Y20500D03*
X23500D03*
X24500Y19500D03*
Y18500D03*
X26500D03*
Y19500D03*
X25500D03*
X27500Y22500D03*
X28500D03*
X25500D03*
X35650Y28750D03*
X34300Y28200D03*
X32000Y29600D03*
X24500Y27500D03*
X25500D03*
X26500D03*
X24500Y28500D03*
X27500D03*
X23500Y29500D03*
X38000Y20350D03*
X39100Y19350D03*
X38550Y22200D03*
X39100Y20900D03*
X38000Y21650D03*
X39100Y17050D03*
Y18550D03*
X41800Y21300D03*
X38400Y23900D03*
X40700Y24000D03*
X14450Y42100D03*
X14500Y44950D03*
X14450Y42900D03*
X22050Y43550D03*
X14450Y53750D03*
X15200Y50750D03*
X15500Y56800D03*
X14253Y60500D03*
X16253D03*
X13500Y56950D03*
X18000Y56800D03*
X19500Y56000D03*
X18253Y60500D03*
X20250D03*
X21500Y56800D03*
X24500Y56750D03*
Y58650D03*
X21700Y60700D03*
X14500Y45750D03*
Y46550D03*
X14400Y47750D03*
Y49250D03*
X16700Y46550D03*
X16600Y47750D03*
X6550Y43250D03*
Y44750D03*
Y46250D03*
Y47750D03*
X11700Y53550D03*
X12400Y55750D03*
X6500Y49600D03*
Y50400D03*
Y51250D03*
X5500Y55750D03*
X5600Y56700D03*
X5000Y55050D03*
X6100Y59950D03*
X4850D03*
X7400D03*
X8650D03*
X2300D03*
X2350Y59050D03*
X3300Y59200D03*
X15500Y19500D03*
X16500Y18500D03*
Y17500D03*
X17500Y19500D03*
Y18500D03*
X17450Y13250D03*
X17100Y12150D03*
X16200D03*
X16350Y13250D03*
X16500Y24500D03*
X15500Y25500D03*
Y23500D03*
Y22500D03*
Y20500D03*
X18500Y21500D03*
Y19500D03*
X13050Y23000D03*
Y22150D03*
X14500Y20500D03*
X12500Y21500D03*
X12800Y20000D03*
X12250Y18600D03*
X14500Y19500D03*
Y22500D03*
X12200Y19450D03*
X9300Y20900D03*
X10000Y20050D03*
X11400Y18300D03*
X20500Y18500D03*
X21500Y17500D03*
X20500D03*
Y19500D03*
X21500Y20500D03*
X19500Y19500D03*
Y18500D03*
X22550Y22500D03*
X23250Y14200D03*
X22525Y19500D03*
X23500Y23500D03*
X24500D03*
X23500Y25500D03*
X20500Y20500D03*
X19500Y21500D03*
Y22500D03*
X20550D03*
X21450D03*
X19500Y23500D03*
X21500Y23450D03*
X18525Y24500D03*
X20550D03*
G54D55*G54D19*G54D55*G54D19*G54D55*G54D16*G54D55*G54D13*G54D55*G54D16*G54D56*G54D55*G54D56*G54D55*G54D56*G54D16*G54D55*G54D57*G54D55*G54D19*G54D55*G54D19*G54D55*G54D16*G54D51*G54D58*G54D59*G54D60*G54D16*G54D51*G54D58*G54D16*G54D61*G54D51*G54D16*G54D58*G54D61*G54D16*G54D51*G54D58*G54D16*G54D62*G54D28*G54D16*M02*
