%FSLAX23Y23*%
%MOIN*%
G70*
G01*
G75*
G04 Layer_Physical_Order=2*
G04 Layer_Color=16711680*
%ADD10C,0.020*%
%ADD11C,0.047*%
%ADD12C,0.010*%
%ADD13C,0.120*%
%ADD14P,0.130X8X202.5*%
%ADD15C,0.070*%
%ADD16C,0.055*%
%ADD17C,0.060*%
G04:AMPARAMS|DCode=18|XSize=80mil|YSize=100mil|CornerRadius=0mil|HoleSize=0mil|Usage=FLASHONLY|Rotation=0.000|XOffset=0mil|YOffset=0mil|HoleType=Round|Shape=Octagon|*
%AMOCTAGOND18*
4,1,8,-0.020,0.050,0.020,0.050,0.040,0.030,0.040,-0.030,0.020,-0.050,-0.020,-0.050,-0.040,-0.030,-0.040,0.030,-0.020,0.050,0.0*
%
%ADD18OCTAGOND18*%

%ADD19P,0.213X8X22.5*%
%ADD20R,0.059X0.059*%
%ADD21C,0.059*%
%ADD22R,0.059X0.059*%
%ADD23C,0.059*%
%ADD24C,0.116*%
%ADD25R,0.059X0.059*%
%ADD26C,0.065*%
%ADD27C,0.049*%
%ADD28R,0.049X0.049*%
%ADD29R,0.049X0.049*%
%ADD30C,0.050*%
%ADD31R,0.050X0.050*%
G04:AMPARAMS|DCode=32|XSize=80mil|YSize=60mil|CornerRadius=0mil|HoleSize=0mil|Usage=FLASHONLY|Rotation=0.000|XOffset=0mil|YOffset=0mil|HoleType=Round|Shape=Octagon|*
%AMOCTAGOND32*
4,1,8,0.040,-0.015,0.040,0.015,0.025,0.030,-0.025,0.030,-0.040,0.015,-0.040,-0.015,-0.025,-0.030,0.025,-0.030,0.040,-0.015,0.0*
%
%ADD32OCTAGOND32*%

%ADD33O,0.100X0.060*%
G04:AMPARAMS|DCode=34|XSize=100mil|YSize=60mil|CornerRadius=0mil|HoleSize=0mil|Usage=FLASHONLY|Rotation=0.000|XOffset=0mil|YOffset=0mil|HoleType=Round|Shape=Octagon|*
%AMOCTAGOND34*
4,1,8,0.050,-0.015,0.050,0.015,0.035,0.030,-0.035,0.030,-0.050,0.015,-0.050,-0.015,-0.035,-0.030,0.035,-0.030,0.050,-0.015,0.0*
%
%ADD34OCTAGOND34*%

%ADD35R,0.070X0.040*%
%ADD36R,0.075X0.040*%
D10*
X3538Y4220D02*
Y4251D01*
X1185Y2165D02*
X1240Y2220D01*
X1185Y1735D02*
Y2165D01*
Y1735D02*
X1249Y1671D01*
X1518D01*
X1699Y1852D01*
X2075D01*
X2420Y2945D02*
X2464Y2989D01*
X2834D01*
X3066Y2757D01*
X3552D01*
X3575Y2780D01*
Y2965D01*
X3520Y3020D02*
X3575Y2965D01*
X3510Y3020D02*
X3520D01*
X1940Y2395D02*
X2185Y2640D01*
X3260Y3120D02*
X3510D01*
X2719Y3604D02*
X2776D01*
X2610Y3495D02*
X2719Y3604D01*
X3510Y3920D02*
X3562D01*
X3610Y3968D01*
Y4386D01*
X3496Y4500D02*
X3610Y4386D01*
X2140Y4500D02*
X3496D01*
X2658Y3947D02*
X2855D01*
X2610Y3995D02*
X2658Y3947D01*
X2855D02*
X3030D01*
X3060Y3977D01*
X2662Y4147D02*
X2855D01*
X2610Y4095D02*
X2662Y4147D01*
X1320Y4040D02*
X2265D01*
X2310Y3995D01*
X1985Y2140D02*
X2240Y2395D01*
X1320Y2140D02*
X1985D01*
X1480Y4670D02*
X1930D01*
X2000Y4600D01*
X3190Y3320D02*
X3510D01*
X3010Y3141D02*
X3190Y3320D01*
X2400Y3141D02*
X3010D01*
X2365Y3176D02*
X2400Y3141D01*
X2365Y3176D02*
Y3540D01*
X2310Y3595D02*
X2365Y3540D01*
X2310Y3105D02*
Y3495D01*
Y3105D02*
X2319Y3096D01*
X3022D01*
X3145Y3220D01*
X3510D01*
X3159Y2920D02*
X3510D01*
X3019Y3060D02*
X3159Y2920D01*
X2180Y3060D02*
X3019D01*
X1840Y3400D02*
X2180Y3060D01*
X3152Y2820D02*
X3510D01*
X2947Y3025D02*
X3152Y2820D01*
X2143Y3025D02*
X2947D01*
X1986Y3182D02*
X2143Y3025D01*
X1750Y3182D02*
X1986D01*
X1700Y3232D02*
X1750Y3182D01*
X1700Y3232D02*
Y3340D01*
X1760Y3400D01*
X1216Y3560D02*
X1760D01*
X1170Y3606D02*
X1216Y3560D01*
X1170Y3606D02*
Y3690D01*
X1220Y3740D01*
X1420Y4410D02*
X1480Y4350D01*
X1420Y4410D02*
Y4800D01*
X1462Y4842D01*
X1898D01*
X2140Y4600D01*
X1320Y2220D02*
X1862D01*
X2735Y4320D02*
X3510D01*
X2610Y4195D02*
X2735Y4320D01*
X3510Y4220D02*
X3538D01*
Y4251D02*
X3575Y4288D01*
Y4347D01*
X3547Y4375D02*
X3575Y4347D01*
X2690Y4375D02*
X3547D01*
X2610Y4295D02*
X2690Y4375D01*
X3175Y3420D02*
X3510D01*
X2939Y3184D02*
X3175Y3420D01*
X2416Y3184D02*
X2939D01*
X2400Y3201D02*
X2416Y3184D01*
X2400Y3201D02*
Y3605D01*
X2310Y3695D02*
X2400Y3605D01*
X1480Y4450D02*
X1760Y4170D01*
X1840D01*
X2340Y2695D02*
X2436Y2599D01*
X2620D01*
X2000Y4500D02*
X2095Y4405D01*
X2500D01*
X2610Y4295D01*
X2989Y3520D02*
X3510D01*
X2760Y3291D02*
X2989Y3520D01*
X2472Y3291D02*
X2760D01*
X2435Y3328D02*
X2472Y3291D01*
X2435Y3328D02*
Y3670D01*
X2310Y3795D02*
X2435Y3670D01*
X1840Y3560D02*
X1869Y3589D01*
Y3687D01*
X1824Y3732D02*
X1869Y3687D01*
X1412Y3732D02*
X1824D01*
X1320Y3640D02*
X1412Y3732D01*
X1240Y2060D02*
X1320D01*
X1480Y4770D02*
X1720D01*
X2958Y4145D02*
X3060D01*
X2956Y4147D02*
X2958Y4145D01*
X2855Y4147D02*
X2956D01*
X1160Y2640D02*
X1410D01*
X1220Y4040D02*
X1320D01*
X1224Y3180D02*
X1310D01*
X1224Y3180D02*
X1224Y3180D01*
X1140Y3180D02*
X1224D01*
X1220Y3740D02*
X1320D01*
X1220Y3640D02*
X1320D01*
D11*
X3160Y3847D02*
Y3977D01*
Y3660D02*
Y3847D01*
X2721Y3408D02*
X3160Y3847D01*
X2255Y3840D02*
X2310Y3895D01*
X1600Y3840D02*
X2255D01*
X1504Y2924D02*
X1890D01*
X1340Y2760D02*
X1504Y2924D01*
X2346Y1760D02*
Y2180D01*
Y1760D02*
X2386Y1720D01*
X2960D01*
X3160Y3660D02*
X3200Y3620D01*
X3510D01*
X3060Y1535D02*
Y1720D01*
X2820Y1296D02*
X3060Y1535D01*
X3060Y1940D02*
Y2009D01*
X3040Y2029D02*
X3060Y2009D01*
X2575Y2029D02*
X3040D01*
X2424Y2180D02*
X2575Y2029D01*
X1610Y3180D02*
X1767Y3023D01*
X1920D01*
X1954Y2989D01*
Y2896D02*
Y2989D01*
Y2896D02*
X2076Y2774D01*
X2673D01*
X2684Y2763D01*
Y2544D02*
Y2763D01*
X2661Y2521D02*
X2684Y2544D01*
X2620Y2521D02*
X2661D01*
X2440Y2395D02*
X2566Y2521D01*
X2620D01*
X2310Y3895D02*
X2483Y3722D01*
Y3453D02*
Y3722D01*
Y3453D02*
X2528Y3408D01*
X2721D01*
X3160Y3847D02*
Y3977D01*
X3332Y1850D02*
X3460Y1978D01*
X2898Y1850D02*
X3332D01*
X2860Y1888D02*
X2898Y1850D01*
X2860Y1888D02*
Y1940D01*
X1500Y1850D02*
X1610Y1960D01*
X2067D01*
X2175Y1852D01*
X1320Y3840D02*
X1600D01*
X1220D02*
X1320D01*
X1720Y4470D02*
X1840D01*
X1160Y2480D02*
X1410D01*
X1320Y3940D02*
X1600D01*
X1220D02*
X1320D01*
D12*
X3755Y4970D02*
Y4910D01*
X3752Y4970D02*
Y4910D01*
X3772Y4970D02*
X3775Y4953D01*
Y4970D01*
X3732D01*
Y4953D01*
X3735Y4970D01*
X3764Y4910D02*
X3744D01*
X3718Y4944D02*
Y4941D01*
X3721D01*
Y4944D01*
X3718Y4947D01*
X3712Y4950D01*
X3701D01*
X3695Y4947D01*
X3692Y4944D01*
X3689Y4939D01*
Y4919D01*
X3686Y4913D01*
X3684Y4910D01*
X3692Y4944D02*
Y4919D01*
X3689Y4913D01*
X3684Y4910D01*
X3681D01*
X3692Y4939D02*
X3695Y4936D01*
X3712Y4933D01*
X3721Y4930D01*
X3724Y4924D01*
Y4919D01*
X3721Y4913D01*
X3712Y4910D01*
X3704D01*
X3698Y4913D01*
X3692Y4919D01*
X3712Y4933D02*
X3718Y4930D01*
X3721Y4924D01*
Y4919D01*
X3718Y4913D01*
X3712Y4910D01*
X3664Y4970D02*
Y4910D01*
X3661Y4970D02*
Y4910D01*
X3672Y4970D02*
X3661D01*
X3672Y4910D02*
X3652D01*
X3633Y4970D02*
Y4910D01*
X3630Y4970D02*
Y4910D01*
X3641Y4970D02*
X3630D01*
X3641Y4910D02*
X3621D01*
X3608Y4933D02*
X3573D01*
Y4939D01*
X3576Y4944D01*
X3579Y4947D01*
X3585Y4950D01*
X3593D01*
X3602Y4947D01*
X3608Y4941D01*
X3610Y4933D01*
Y4927D01*
X3608Y4919D01*
X3602Y4913D01*
X3593Y4910D01*
X3588D01*
X3579Y4913D01*
X3573Y4919D01*
X3576Y4933D02*
Y4941D01*
X3579Y4947D01*
X3593Y4950D02*
X3599Y4947D01*
X3605Y4941D01*
X3608Y4933D01*
Y4927D01*
X3605Y4919D01*
X3599Y4913D01*
X3593Y4910D01*
X3556Y4950D02*
Y4910D01*
X3553Y4950D02*
Y4910D01*
Y4933D02*
X3550Y4941D01*
X3544Y4947D01*
X3538Y4950D01*
X3530D01*
X3527Y4947D01*
Y4944D01*
X3530Y4941D01*
X3533Y4944D01*
X3530Y4947D01*
X3564Y4950D02*
X3553D01*
X3564Y4910D02*
X3544D01*
X3430Y4970D02*
Y4910D01*
X3427Y4970D02*
Y4910D01*
X3430Y4941D02*
X3435Y4947D01*
X3441Y4950D01*
X3447D01*
X3455Y4947D01*
X3461Y4941D01*
X3464Y4933D01*
Y4927D01*
X3461Y4919D01*
X3455Y4913D01*
X3447Y4910D01*
X3441D01*
X3435Y4913D01*
X3430Y4919D01*
X3447Y4950D02*
X3452Y4947D01*
X3458Y4941D01*
X3461Y4933D01*
Y4927D01*
X3458Y4919D01*
X3452Y4913D01*
X3447Y4910D01*
X3438Y4970D02*
X3427D01*
X3430Y4910D02*
X3418D01*
X3407Y4933D02*
X3373D01*
Y4939D01*
X3376Y4944D01*
X3379Y4947D01*
X3384Y4950D01*
X3393D01*
X3401Y4947D01*
X3407Y4941D01*
X3410Y4933D01*
Y4927D01*
X3407Y4919D01*
X3401Y4913D01*
X3393Y4910D01*
X3387D01*
X3379Y4913D01*
X3373Y4919D01*
X3376Y4933D02*
Y4941D01*
X3379Y4947D01*
X3393Y4950D02*
X3399Y4947D01*
X3404Y4941D01*
X3407Y4933D01*
Y4927D01*
X3404Y4919D01*
X3399Y4913D01*
X3393Y4910D01*
X3301Y4970D02*
Y4910D01*
X3298Y4970D02*
Y4910D01*
X3310Y4970D02*
X3275D01*
X3267Y4967D01*
X3264Y4964D01*
X3261Y4959D01*
Y4950D01*
X3264Y4944D01*
X3267Y4941D01*
X3275Y4939D01*
X3298D01*
X3275Y4970D02*
X3270Y4967D01*
X3267Y4964D01*
X3264Y4959D01*
Y4950D01*
X3267Y4944D01*
X3270Y4941D01*
X3275Y4939D01*
X3310Y4910D02*
X3290D01*
X3245Y4950D02*
Y4910D01*
X3242Y4950D02*
Y4910D01*
Y4933D02*
X3239Y4941D01*
X3233Y4947D01*
X3227Y4950D01*
X3219D01*
X3216Y4947D01*
Y4944D01*
X3219Y4941D01*
X3222Y4944D01*
X3219Y4947D01*
X3253Y4950D02*
X3242D01*
X3253Y4910D02*
X3233D01*
X3190Y4950D02*
X3198Y4947D01*
X3204Y4941D01*
X3207Y4933D01*
Y4927D01*
X3204Y4919D01*
X3198Y4913D01*
X3190Y4910D01*
X3184D01*
X3175Y4913D01*
X3170Y4919D01*
X3167Y4927D01*
Y4933D01*
X3170Y4941D01*
X3175Y4947D01*
X3184Y4950D01*
X3190D01*
X3195Y4947D01*
X3201Y4941D01*
X3204Y4933D01*
Y4927D01*
X3201Y4919D01*
X3195Y4913D01*
X3190Y4910D01*
X3184D02*
X3178Y4913D01*
X3173Y4919D01*
X3170Y4927D01*
Y4933D01*
X3173Y4941D01*
X3178Y4947D01*
X3184Y4950D01*
X3152D02*
X3135Y4910D01*
X3149Y4950D02*
X3135Y4916D01*
X3118Y4950D02*
X3135Y4910D01*
X3141Y4899D01*
X3147Y4893D01*
X3152Y4890D01*
X3155D01*
X3158Y4893D01*
X3155Y4896D01*
X3152Y4893D01*
X3158Y4950D02*
X3141D01*
X3129D02*
X3112D01*
X3101Y4933D02*
X3067D01*
Y4939D01*
X3070Y4944D01*
X3073Y4947D01*
X3078Y4950D01*
X3087D01*
X3095Y4947D01*
X3101Y4941D01*
X3104Y4933D01*
Y4927D01*
X3101Y4919D01*
X3095Y4913D01*
X3087Y4910D01*
X3081D01*
X3073Y4913D01*
X3067Y4919D01*
X3070Y4933D02*
Y4941D01*
X3073Y4947D01*
X3087Y4950D02*
X3093Y4947D01*
X3098Y4941D01*
X3101Y4933D01*
Y4927D01*
X3098Y4919D01*
X3093Y4913D01*
X3087Y4910D01*
X3023Y4941D02*
X3026Y4939D01*
X3023Y4936D01*
X3021Y4939D01*
Y4941D01*
X3026Y4947D01*
X3032Y4950D01*
X3041D01*
X3049Y4947D01*
X3055Y4941D01*
X3058Y4933D01*
Y4927D01*
X3055Y4919D01*
X3049Y4913D01*
X3041Y4910D01*
X3035D01*
X3026Y4913D01*
X3021Y4919D01*
X3041Y4950D02*
X3046Y4947D01*
X3052Y4941D01*
X3055Y4933D01*
Y4927D01*
X3052Y4919D01*
X3046Y4913D01*
X3041Y4910D01*
X2994D02*
X2997Y4913D01*
X3000Y4921D01*
Y4970D01*
X3003D01*
Y4921D01*
X3000Y4913D01*
X2994Y4910D01*
X2989D01*
X2983Y4913D01*
X2980Y4919D01*
X3011Y4950D02*
X2989D01*
X2953D02*
X2962Y4947D01*
X2967Y4941D01*
X2970Y4933D01*
Y4927D01*
X2967Y4919D01*
X2962Y4913D01*
X2953Y4910D01*
X2947D01*
X2939Y4913D01*
X2933Y4919D01*
X2930Y4927D01*
Y4933D01*
X2933Y4941D01*
X2939Y4947D01*
X2947Y4950D01*
X2953D01*
X2959Y4947D01*
X2965Y4941D01*
X2967Y4933D01*
Y4927D01*
X2965Y4919D01*
X2959Y4913D01*
X2953Y4910D01*
X2947D02*
X2942Y4913D01*
X2936Y4919D01*
X2933Y4927D01*
Y4933D01*
X2936Y4941D01*
X2942Y4947D01*
X2947Y4950D01*
X2859Y4970D02*
Y4910D01*
X2856Y4970D02*
Y4910D01*
X2839Y4953D02*
Y4930D01*
X2867Y4970D02*
X2822D01*
Y4953D01*
X2825Y4970D01*
X2856Y4941D02*
X2839D01*
X2867Y4910D02*
X2847D01*
X2805Y4970D02*
X2808Y4967D01*
X2805Y4964D01*
X2802Y4967D01*
X2805Y4970D01*
Y4950D02*
Y4910D01*
X2802Y4950D02*
Y4910D01*
X2813Y4950D02*
X2802D01*
X2813Y4910D02*
X2793D01*
X2774Y4950D02*
Y4910D01*
X2771Y4950D02*
Y4910D01*
Y4941D02*
X2766Y4947D01*
X2757Y4950D01*
X2751D01*
X2743Y4947D01*
X2740Y4941D01*
Y4910D01*
X2751Y4950D02*
X2746Y4947D01*
X2743Y4941D01*
Y4910D01*
X2783Y4950D02*
X2771D01*
X2783Y4910D02*
X2763D01*
X2751D02*
X2731D01*
X2718Y4944D02*
Y4941D01*
X2721D01*
Y4944D01*
X2718Y4947D01*
X2712Y4950D01*
X2701D01*
X2695Y4947D01*
X2692Y4944D01*
X2689Y4939D01*
Y4919D01*
X2686Y4913D01*
X2684Y4910D01*
X2692Y4944D02*
Y4919D01*
X2689Y4913D01*
X2684Y4910D01*
X2681D01*
X2692Y4939D02*
X2695Y4936D01*
X2712Y4933D01*
X2721Y4930D01*
X2724Y4924D01*
Y4919D01*
X2721Y4913D01*
X2712Y4910D01*
X2704D01*
X2698Y4913D01*
X2692Y4919D01*
X2712Y4933D02*
X2718Y4930D01*
X2721Y4924D01*
Y4919D01*
X2718Y4913D01*
X2712Y4910D01*
X2664Y4970D02*
Y4910D01*
X2661Y4970D02*
Y4910D01*
X2672Y4970D02*
X2661D01*
X2672Y4910D02*
X2652D01*
X2587Y4936D02*
X2536D01*
X2466Y4970D02*
Y4910D01*
X2463Y4970D02*
Y4910D01*
X2474Y4970D02*
X2454D01*
X2474Y4910D02*
X2454D01*
X2423Y4970D02*
Y4910D01*
X2420Y4970D02*
Y4910D01*
X2440Y4970D02*
X2443Y4953D01*
Y4970D01*
X2400D01*
Y4953D01*
X2403Y4970D01*
X2432Y4910D02*
X2412D01*
X2383Y4970D02*
Y4910D01*
X2380Y4970D02*
Y4910D01*
X2392Y4970D02*
X2358D01*
X2349Y4967D01*
X2346Y4964D01*
X2343Y4959D01*
Y4953D01*
X2346Y4947D01*
X2349Y4944D01*
X2358Y4941D01*
Y4970D02*
X2352Y4967D01*
X2349Y4964D01*
X2346Y4959D01*
Y4953D01*
X2349Y4947D01*
X2352Y4944D01*
X2358Y4941D01*
X2380D02*
X2358D01*
X2349Y4939D01*
X2346Y4936D01*
X2343Y4930D01*
Y4921D01*
X2346Y4916D01*
X2349Y4913D01*
X2358Y4910D01*
X2392D01*
X2358Y4941D02*
X2352Y4939D01*
X2349Y4936D01*
X2346Y4930D01*
Y4921D01*
X2349Y4916D01*
X2352Y4913D01*
X2358Y4910D01*
X2310Y4970D02*
X2330Y4910D01*
X2310Y4970D02*
X2290Y4910D01*
X2310Y4961D02*
X2292Y4910D01*
X2324Y4927D02*
X2298D01*
X2335Y4910D02*
X2318D01*
X2301D02*
X2284D01*
X2214Y4970D02*
Y4910D01*
X2211Y4970D02*
Y4910D01*
X2194Y4953D02*
Y4930D01*
X2222Y4970D02*
X2176D01*
Y4953D01*
X2179Y4970D01*
X2211Y4941D02*
X2194D01*
X2222Y4910D02*
X2202D01*
X2165Y4933D02*
X2131D01*
Y4939D01*
X2134Y4944D01*
X2137Y4947D01*
X2142Y4950D01*
X2151D01*
X2160Y4947D01*
X2165Y4941D01*
X2168Y4933D01*
Y4927D01*
X2165Y4919D01*
X2160Y4913D01*
X2151Y4910D01*
X2145D01*
X2137Y4913D01*
X2131Y4919D01*
X2134Y4933D02*
Y4941D01*
X2137Y4947D01*
X2151Y4950D02*
X2157Y4947D01*
X2162Y4941D01*
X2165Y4933D01*
Y4927D01*
X2162Y4919D01*
X2157Y4913D01*
X2151Y4910D01*
X2113Y4970D02*
Y4910D01*
X2111Y4970D02*
Y4910D01*
Y4941D02*
X2105Y4947D01*
X2099Y4950D01*
X2093D01*
X2085Y4947D01*
X2079Y4941D01*
X2076Y4933D01*
Y4927D01*
X2079Y4919D01*
X2085Y4913D01*
X2093Y4910D01*
X2099D01*
X2105Y4913D01*
X2111Y4919D01*
X2093Y4950D02*
X2088Y4947D01*
X2082Y4941D01*
X2079Y4933D01*
Y4927D01*
X2082Y4919D01*
X2088Y4913D01*
X2093Y4910D01*
X2122Y4970D02*
X2111D01*
X2011Y4959D02*
X2008Y4956D01*
X2011Y4953D01*
X2014Y4956D01*
Y4959D01*
X2011Y4964D01*
X2008Y4967D01*
X2000Y4970D01*
X1988D01*
X1980Y4967D01*
X1977Y4964D01*
X1974Y4959D01*
Y4953D01*
X1977Y4947D01*
X1985Y4941D01*
X2000Y4936D01*
X2005Y4933D01*
X2011Y4927D01*
X2014Y4919D01*
Y4910D01*
X1988Y4970D02*
X1983Y4967D01*
X1980Y4964D01*
X1977Y4959D01*
Y4953D01*
X1980Y4947D01*
X1988Y4941D01*
X2000Y4936D01*
X2014Y4916D02*
X2011Y4919D01*
X2005D01*
X1991Y4913D01*
X1983D01*
X1977Y4916D01*
X1974Y4919D01*
Y4924D01*
X2005Y4919D02*
X1991Y4910D01*
X1980D01*
X1977Y4913D01*
X1974Y4919D01*
X1948Y4970D02*
X1957Y4967D01*
X1962Y4959D01*
X1965Y4944D01*
Y4936D01*
X1962Y4921D01*
X1957Y4913D01*
X1948Y4910D01*
X1942D01*
X1934Y4913D01*
X1928Y4921D01*
X1925Y4936D01*
Y4944D01*
X1928Y4959D01*
X1934Y4967D01*
X1942Y4970D01*
X1948D01*
X1954Y4967D01*
X1957Y4964D01*
X1959Y4959D01*
X1962Y4944D01*
Y4936D01*
X1959Y4921D01*
X1957Y4916D01*
X1954Y4913D01*
X1948Y4910D01*
X1942D02*
X1937Y4913D01*
X1934Y4916D01*
X1931Y4921D01*
X1928Y4936D01*
Y4944D01*
X1931Y4959D01*
X1934Y4964D01*
X1937Y4967D01*
X1942Y4970D01*
X1916Y4959D02*
X1911Y4961D01*
X1902Y4970D01*
Y4910D01*
X1905Y4967D02*
Y4910D01*
X1916D02*
X1891D01*
X1863Y4970D02*
X1872Y4967D01*
X1877Y4959D01*
X1880Y4944D01*
Y4936D01*
X1877Y4921D01*
X1872Y4913D01*
X1863Y4910D01*
X1857D01*
X1849Y4913D01*
X1843Y4921D01*
X1840Y4936D01*
Y4944D01*
X1843Y4959D01*
X1849Y4967D01*
X1857Y4970D01*
X1863D01*
X1869Y4967D01*
X1872Y4964D01*
X1875Y4959D01*
X1877Y4944D01*
Y4936D01*
X1875Y4921D01*
X1872Y4916D01*
X1869Y4913D01*
X1863Y4910D01*
X1857D02*
X1852Y4913D01*
X1849Y4916D01*
X1846Y4921D01*
X1843Y4936D01*
Y4944D01*
X1846Y4959D01*
X1849Y4964D01*
X1852Y4967D01*
X1857Y4970D01*
X3766Y4865D02*
Y4805D01*
X3764Y4865D02*
X3746Y4814D01*
X3766Y4865D02*
X3746Y4805D01*
X3726Y4865D02*
X3746Y4805D01*
X3726Y4865D02*
Y4805D01*
X3724Y4865D02*
Y4805D01*
X3775Y4865D02*
X3764D01*
X3726D02*
X3715D01*
X3775Y4805D02*
X3758D01*
X3735D02*
X3715D01*
X3691Y4845D02*
X3700Y4842D01*
X3705Y4836D01*
X3708Y4828D01*
Y4822D01*
X3705Y4814D01*
X3700Y4808D01*
X3691Y4805D01*
X3685D01*
X3677Y4808D01*
X3671Y4814D01*
X3668Y4822D01*
Y4828D01*
X3671Y4836D01*
X3677Y4842D01*
X3685Y4845D01*
X3691D01*
X3697Y4842D01*
X3702Y4836D01*
X3705Y4828D01*
Y4822D01*
X3702Y4814D01*
X3697Y4808D01*
X3691Y4805D01*
X3685D02*
X3680Y4808D01*
X3674Y4814D01*
X3671Y4822D01*
Y4828D01*
X3674Y4836D01*
X3680Y4842D01*
X3685Y4845D01*
X3625Y4865D02*
Y4805D01*
X3622Y4865D02*
Y4805D01*
X3625Y4836D02*
X3631Y4842D01*
X3636Y4845D01*
X3642D01*
X3651Y4842D01*
X3656Y4836D01*
X3659Y4828D01*
Y4822D01*
X3656Y4814D01*
X3651Y4808D01*
X3642Y4805D01*
X3636D01*
X3631Y4808D01*
X3625Y4814D01*
X3642Y4845D02*
X3648Y4842D01*
X3654Y4836D01*
X3656Y4828D01*
Y4822D01*
X3654Y4814D01*
X3648Y4808D01*
X3642Y4805D01*
X3634Y4865D02*
X3622D01*
X3625Y4805D02*
X3614D01*
X3597Y4845D02*
Y4814D01*
X3594Y4808D01*
X3585Y4805D01*
X3580D01*
X3571Y4808D01*
X3565Y4814D01*
X3594Y4845D02*
Y4814D01*
X3591Y4808D01*
X3585Y4805D01*
X3565Y4845D02*
Y4805D01*
X3562Y4845D02*
Y4805D01*
X3605Y4845D02*
X3594D01*
X3574D02*
X3562D01*
X3565Y4805D02*
X3554D01*
X3538Y4865D02*
Y4805D01*
X3535Y4865D02*
Y4805D01*
X3546Y4865D02*
X3535D01*
X3546Y4805D02*
X3526D01*
X3498Y4845D02*
X3507Y4842D01*
X3512Y4836D01*
X3515Y4828D01*
Y4822D01*
X3512Y4814D01*
X3507Y4808D01*
X3498Y4805D01*
X3492D01*
X3484Y4808D01*
X3478Y4814D01*
X3475Y4822D01*
Y4828D01*
X3478Y4836D01*
X3484Y4842D01*
X3492Y4845D01*
X3498D01*
X3504Y4842D01*
X3510Y4836D01*
X3512Y4828D01*
Y4822D01*
X3510Y4814D01*
X3504Y4808D01*
X3498Y4805D01*
X3492D02*
X3487Y4808D01*
X3481Y4814D01*
X3478Y4822D01*
Y4828D01*
X3481Y4836D01*
X3487Y4842D01*
X3492Y4845D01*
X3373Y4856D02*
X3370Y4848D01*
Y4865D01*
X3373Y4856D01*
X3378Y4862D01*
X3387Y4865D01*
X3393D01*
X3401Y4862D01*
X3407Y4856D01*
X3410Y4851D01*
X3413Y4842D01*
Y4828D01*
X3410Y4819D01*
X3407Y4814D01*
X3401Y4808D01*
X3393Y4805D01*
X3387D01*
X3378Y4808D01*
X3373Y4814D01*
X3393Y4865D02*
X3398Y4862D01*
X3404Y4856D01*
X3407Y4851D01*
X3410Y4842D01*
Y4828D01*
X3407Y4819D01*
X3404Y4814D01*
X3398Y4808D01*
X3393Y4805D01*
X3373Y4828D02*
Y4805D01*
X3370Y4828D02*
Y4805D01*
X3381Y4828D02*
X3361D01*
X3351D02*
X3316D01*
Y4834D01*
X3319Y4839D01*
X3322Y4842D01*
X3328Y4845D01*
X3336D01*
X3345Y4842D01*
X3351Y4836D01*
X3353Y4828D01*
Y4822D01*
X3351Y4814D01*
X3345Y4808D01*
X3336Y4805D01*
X3331D01*
X3322Y4808D01*
X3316Y4814D01*
X3319Y4828D02*
Y4836D01*
X3322Y4842D01*
X3336Y4845D02*
X3342Y4842D01*
X3348Y4836D01*
X3351Y4828D01*
Y4822D01*
X3348Y4814D01*
X3342Y4808D01*
X3336Y4805D01*
X3299Y4845D02*
Y4805D01*
X3296Y4845D02*
Y4805D01*
Y4836D02*
X3290Y4842D01*
X3281Y4845D01*
X3276D01*
X3267Y4842D01*
X3264Y4836D01*
Y4805D01*
X3276Y4845D02*
X3270Y4842D01*
X3267Y4836D01*
Y4805D01*
X3307Y4845D02*
X3296D01*
X3307Y4805D02*
X3287D01*
X3276D02*
X3256D01*
X3245Y4828D02*
X3211D01*
Y4834D01*
X3214Y4839D01*
X3217Y4842D01*
X3222Y4845D01*
X3231D01*
X3239Y4842D01*
X3245Y4836D01*
X3248Y4828D01*
Y4822D01*
X3245Y4814D01*
X3239Y4808D01*
X3231Y4805D01*
X3225D01*
X3217Y4808D01*
X3211Y4814D01*
X3214Y4828D02*
Y4836D01*
X3217Y4842D01*
X3231Y4845D02*
X3237Y4842D01*
X3242Y4836D01*
X3245Y4828D01*
Y4822D01*
X3242Y4814D01*
X3237Y4808D01*
X3231Y4805D01*
X3193Y4845D02*
Y4805D01*
X3190Y4845D02*
Y4805D01*
Y4828D02*
X3187Y4836D01*
X3182Y4842D01*
X3176Y4845D01*
X3167D01*
X3165Y4842D01*
Y4839D01*
X3167Y4836D01*
X3170Y4839D01*
X3167Y4842D01*
X3202Y4845D02*
X3190D01*
X3202Y4805D02*
X3182D01*
X3147Y4865D02*
X3150Y4862D01*
X3147Y4859D01*
X3144Y4862D01*
X3147Y4865D01*
Y4845D02*
Y4805D01*
X3144Y4845D02*
Y4805D01*
X3155Y4845D02*
X3144D01*
X3155Y4805D02*
X3135D01*
X3090Y4836D02*
X3093Y4834D01*
X3090Y4831D01*
X3087Y4834D01*
Y4836D01*
X3093Y4842D01*
X3099Y4845D01*
X3107D01*
X3116Y4842D01*
X3122Y4836D01*
X3125Y4828D01*
Y4822D01*
X3122Y4814D01*
X3116Y4808D01*
X3107Y4805D01*
X3102D01*
X3093Y4808D01*
X3087Y4814D01*
X3107Y4845D02*
X3113Y4842D01*
X3119Y4836D01*
X3122Y4828D01*
Y4822D01*
X3119Y4814D01*
X3113Y4808D01*
X3107Y4805D01*
X3061Y4845D02*
X3070Y4842D01*
X3075Y4836D01*
X3078Y4828D01*
Y4822D01*
X3075Y4814D01*
X3070Y4808D01*
X3061Y4805D01*
X3055D01*
X3047Y4808D01*
X3041Y4814D01*
X3038Y4822D01*
Y4828D01*
X3041Y4836D01*
X3047Y4842D01*
X3055Y4845D01*
X3061D01*
X3067Y4842D01*
X3073Y4836D01*
X3075Y4828D01*
Y4822D01*
X3073Y4814D01*
X3067Y4808D01*
X3061Y4805D01*
X3055D02*
X3050Y4808D01*
X3044Y4814D01*
X3041Y4822D01*
Y4828D01*
X3044Y4836D01*
X3050Y4842D01*
X3055Y4845D01*
X2975Y4831D02*
X2924D01*
X2857Y4845D02*
X2839Y4805D01*
X2854Y4845D02*
X2839Y4811D01*
X2822Y4845D02*
X2839Y4805D01*
X2862Y4845D02*
X2845D01*
X2834D02*
X2817D01*
X2754Y4854D02*
X2749Y4856D01*
X2740Y4865D01*
Y4805D01*
X2743Y4862D02*
Y4805D01*
X2754D02*
X2729D01*
X2716Y4811D02*
X2718Y4808D01*
X2716Y4805D01*
X2713Y4808D01*
X2716Y4811D01*
X2683Y4865D02*
X2692Y4862D01*
X2698Y4854D01*
X2700Y4839D01*
Y4831D01*
X2698Y4816D01*
X2692Y4808D01*
X2683Y4805D01*
X2678D01*
X2669Y4808D01*
X2663Y4816D01*
X2660Y4831D01*
Y4839D01*
X2663Y4854D01*
X2669Y4862D01*
X2678Y4865D01*
X2683D01*
X2689Y4862D01*
X2692Y4859D01*
X2695Y4854D01*
X2698Y4839D01*
Y4831D01*
X2695Y4816D01*
X2692Y4811D01*
X2689Y4808D01*
X2683Y4805D01*
X2678D02*
X2672Y4808D01*
X2669Y4811D01*
X2666Y4816D01*
X2663Y4831D01*
Y4839D01*
X2666Y4854D01*
X2669Y4859D01*
X2672Y4862D01*
X2678Y4865D01*
X3735Y4751D02*
X3732Y4743D01*
Y4760D01*
X3735Y4751D01*
X3741Y4757D01*
X3749Y4760D01*
X3755D01*
X3764Y4757D01*
X3769Y4751D01*
X3772Y4746D01*
X3775Y4737D01*
Y4723D01*
X3772Y4714D01*
X3769Y4709D01*
X3764Y4703D01*
X3755Y4700D01*
X3749D01*
X3741Y4703D01*
X3735Y4709D01*
X3732Y4714D01*
X3755Y4760D02*
X3761Y4757D01*
X3766Y4751D01*
X3769Y4746D01*
X3772Y4737D01*
Y4723D01*
X3769Y4714D01*
X3766Y4709D01*
X3761Y4703D01*
X3755Y4700D01*
X3698Y4760D02*
X3718Y4700D01*
X3698Y4760D02*
X3678Y4700D01*
X3698Y4751D02*
X3681Y4700D01*
X3712Y4717D02*
X3686D01*
X3724Y4700D02*
X3706D01*
X3689D02*
X3672D01*
X3656Y4760D02*
Y4700D01*
X3653Y4760D02*
X3636Y4709D01*
X3656Y4760D02*
X3636Y4700D01*
X3616Y4760D02*
X3636Y4700D01*
X3616Y4760D02*
Y4700D01*
X3613Y4760D02*
Y4700D01*
X3664Y4760D02*
X3653D01*
X3616D02*
X3604D01*
X3664Y4700D02*
X3647D01*
X3624D02*
X3604D01*
X3589Y4760D02*
Y4700D01*
X3586Y4760D02*
Y4700D01*
X3598Y4760D02*
X3563D01*
X3555Y4757D01*
X3552Y4754D01*
X3549Y4749D01*
Y4740D01*
X3552Y4734D01*
X3555Y4731D01*
X3563Y4729D01*
X3586D01*
X3563Y4760D02*
X3558Y4757D01*
X3555Y4754D01*
X3552Y4749D01*
Y4740D01*
X3555Y4734D01*
X3558Y4731D01*
X3563Y4729D01*
X3598Y4700D02*
X3578D01*
X3532Y4760D02*
Y4700D01*
X3530Y4760D02*
Y4700D01*
X3512Y4743D02*
Y4720D01*
X3541Y4760D02*
X3495D01*
Y4743D01*
X3498Y4760D01*
X3530Y4731D02*
X3512D01*
X3541Y4700D02*
X3495D01*
Y4717D01*
X3498Y4700D01*
X3478Y4760D02*
Y4700D01*
X3476Y4760D02*
Y4700D01*
X3487Y4760D02*
X3467D01*
X3487Y4700D02*
X3444D01*
Y4717D01*
X3447Y4700D01*
X3416Y4760D02*
X3424Y4757D01*
X3430Y4751D01*
X3433Y4746D01*
X3436Y4734D01*
Y4726D01*
X3433Y4714D01*
X3430Y4709D01*
X3424Y4703D01*
X3416Y4700D01*
X3410D01*
X3401Y4703D01*
X3396Y4709D01*
X3393Y4714D01*
X3390Y4726D01*
Y4734D01*
X3393Y4746D01*
X3396Y4751D01*
X3401Y4757D01*
X3410Y4760D01*
X3416D01*
X3421Y4757D01*
X3427Y4751D01*
X3430Y4746D01*
X3433Y4734D01*
Y4726D01*
X3430Y4714D01*
X3427Y4709D01*
X3421Y4703D01*
X3416Y4700D01*
X3410D02*
X3404Y4703D01*
X3399Y4709D01*
X3396Y4714D01*
X3393Y4726D01*
Y4734D01*
X3396Y4746D01*
X3399Y4751D01*
X3404Y4757D01*
X3410Y4760D01*
X3328Y4726D02*
X3276D01*
X3175Y4751D02*
X3172Y4743D01*
Y4760D01*
X3175Y4751D01*
X3180Y4757D01*
X3189Y4760D01*
X3195D01*
X3203Y4757D01*
X3209Y4751D01*
X3212Y4746D01*
X3215Y4737D01*
Y4723D01*
X3212Y4714D01*
X3209Y4709D01*
X3203Y4703D01*
X3195Y4700D01*
X3189D01*
X3180Y4703D01*
X3175Y4709D01*
X3195Y4760D02*
X3200Y4757D01*
X3206Y4751D01*
X3209Y4746D01*
X3212Y4737D01*
Y4723D01*
X3209Y4714D01*
X3206Y4709D01*
X3200Y4703D01*
X3195Y4700D01*
X3175Y4723D02*
Y4700D01*
X3172Y4723D02*
Y4700D01*
X3183Y4723D02*
X3163D01*
X3135Y4760D02*
X3144Y4757D01*
X3150Y4751D01*
X3153Y4746D01*
X3155Y4734D01*
Y4726D01*
X3153Y4714D01*
X3150Y4709D01*
X3144Y4703D01*
X3135Y4700D01*
X3130D01*
X3121Y4703D01*
X3115Y4709D01*
X3113Y4714D01*
X3110Y4726D01*
Y4734D01*
X3113Y4746D01*
X3115Y4751D01*
X3121Y4757D01*
X3130Y4760D01*
X3135D01*
X3141Y4757D01*
X3147Y4751D01*
X3150Y4746D01*
X3153Y4734D01*
Y4726D01*
X3150Y4714D01*
X3147Y4709D01*
X3141Y4703D01*
X3135Y4700D01*
X3130D02*
X3124Y4703D01*
X3118Y4709D01*
X3115Y4714D01*
X3113Y4726D01*
Y4734D01*
X3115Y4746D01*
X3118Y4751D01*
X3124Y4757D01*
X3130Y4760D01*
X3093D02*
Y4700D01*
X3090Y4760D02*
X3056Y4706D01*
X3090Y4754D02*
X3056Y4700D01*
Y4760D02*
Y4700D01*
X3101Y4760D02*
X3090D01*
X3064D02*
X3047D01*
X3101Y4700D02*
X3084D01*
X3031Y4760D02*
Y4700D01*
X3028Y4760D02*
Y4700D01*
X3040Y4760D02*
X3020D01*
X3040Y4700D02*
X3020D01*
X2955Y4726D02*
X2903D01*
X2833Y4760D02*
Y4700D01*
X2830Y4760D02*
X2796Y4706D01*
X2830Y4754D02*
X2796Y4700D01*
Y4760D02*
Y4700D01*
X2842Y4760D02*
X2830D01*
X2805D02*
X2787D01*
X2842Y4700D02*
X2825D01*
X2772Y4760D02*
Y4717D01*
X2769Y4709D01*
X2763Y4703D01*
X2754Y4700D01*
X2749D01*
X2740Y4703D01*
X2734Y4709D01*
X2732Y4717D01*
Y4760D01*
X2769D02*
Y4717D01*
X2766Y4709D01*
X2760Y4703D01*
X2754Y4700D01*
X2780Y4760D02*
X2760D01*
X2740D02*
X2723D01*
X2707D02*
Y4700D01*
X2704Y4760D02*
Y4700D01*
X2716Y4760D02*
X2696D01*
X2716Y4700D02*
X2673D01*
Y4717D01*
X2676Y4700D01*
D13*
X2621Y1296D02*
D03*
X2820D02*
D03*
D14*
X3020D02*
D03*
D15*
X1480Y4770D02*
D03*
Y4670D02*
D03*
Y4450D02*
D03*
Y4350D02*
D03*
D16*
X1720Y4770D02*
D03*
Y4470D02*
D03*
X1310Y3180D02*
D03*
X1610D02*
D03*
X1840Y4170D02*
D03*
Y4470D02*
D03*
D17*
X1760Y3480D02*
D03*
X1840D02*
D03*
Y3400D02*
D03*
X1760D02*
D03*
X1840Y3560D02*
D03*
X1760D02*
D03*
X1240Y2140D02*
D03*
X1320D02*
D03*
Y2060D02*
D03*
X1240D02*
D03*
X1320Y2220D02*
D03*
X1240D02*
D03*
X1410Y2480D02*
D03*
X1160D02*
D03*
X1410Y2640D02*
D03*
X1160D02*
D03*
D18*
X2860Y1940D02*
D03*
X2960D02*
D03*
X3060D02*
D03*
D19*
X2960Y2640D02*
D03*
D20*
X2440Y2695D02*
D03*
X2000Y4500D02*
D03*
X2140D02*
D03*
X1140Y3180D02*
D03*
D21*
X2340Y2695D02*
D03*
X2240D02*
D03*
X2140D02*
D03*
X2040D02*
D03*
X1940D02*
D03*
X1840D02*
D03*
X1740D02*
D03*
X2440Y2395D02*
D03*
X2340D02*
D03*
X2240D02*
D03*
X2140D02*
D03*
X2040D02*
D03*
X1940D02*
D03*
X1840D02*
D03*
X1740D02*
D03*
X2310Y4195D02*
D03*
Y4095D02*
D03*
Y3995D02*
D03*
Y3895D02*
D03*
Y3795D02*
D03*
Y3695D02*
D03*
Y3595D02*
D03*
Y3495D02*
D03*
X2610Y4295D02*
D03*
Y4195D02*
D03*
Y4095D02*
D03*
Y3995D02*
D03*
Y3895D02*
D03*
Y3795D02*
D03*
Y3695D02*
D03*
Y3595D02*
D03*
Y3495D02*
D03*
X2000Y4600D02*
D03*
X2140D02*
D03*
X1140Y2900D02*
D03*
X3460Y1782D02*
D03*
Y1978D02*
D03*
D22*
X2310Y4295D02*
D03*
D23*
X2175Y1852D02*
D03*
X2075D02*
D03*
X2125Y1752D02*
D03*
X1500Y1850D02*
D03*
X1400D02*
D03*
X1450Y1750D02*
D03*
D24*
X1875Y1502D02*
D03*
X2325D02*
D03*
X1200Y1500D02*
D03*
X1650D02*
D03*
D25*
X2025Y1752D02*
D03*
X1350Y1750D02*
D03*
D26*
X2960Y1720D02*
D03*
X3060D02*
D03*
X3160Y3977D02*
D03*
X3060D02*
D03*
X3160Y4145D02*
D03*
X3060D02*
D03*
X1340Y2760D02*
D03*
X1240D02*
D03*
X1600Y3840D02*
D03*
Y3940D02*
D03*
D27*
X1890Y2846D02*
D03*
X2346Y2180D02*
D03*
X2110Y2846D02*
D03*
X2620Y2521D02*
D03*
X2330Y2846D02*
D03*
D28*
X1890Y2924D02*
D03*
X2110D02*
D03*
X2620Y2599D02*
D03*
X2330Y2924D02*
D03*
D29*
X2424Y2180D02*
D03*
D30*
X1320Y3640D02*
D03*
Y3740D02*
D03*
Y3840D02*
D03*
Y3940D02*
D03*
Y4040D02*
D03*
X1220Y3640D02*
D03*
Y3740D02*
D03*
Y3840D02*
D03*
Y3940D02*
D03*
X2420Y2945D02*
D03*
X2185Y2640D02*
D03*
X3260Y3120D02*
D03*
X2776Y3604D02*
D03*
X1862Y2220D02*
D03*
D31*
X1220Y4040D02*
D03*
D32*
X3510Y2820D02*
D03*
Y2920D02*
D03*
Y3020D02*
D03*
Y3120D02*
D03*
Y3220D02*
D03*
Y3320D02*
D03*
Y3420D02*
D03*
Y3520D02*
D03*
Y3620D02*
D03*
Y3720D02*
D03*
Y3820D02*
D03*
Y3920D02*
D03*
Y4020D02*
D03*
Y4120D02*
D03*
Y4220D02*
D03*
Y4320D02*
D03*
D33*
X2855Y3947D02*
D03*
D34*
Y4147D02*
D03*
D35*
X1800Y3635D02*
D03*
X1280Y2295D02*
D03*
D36*
X1803Y3325D02*
D03*
X1283Y1985D02*
D03*
M02*
