G04 start of page 7 for group 5 idx 5 *
G04 Title: (unknown), signal1 *
G04 Creator: pcb 20110918 *
G04 CreationDate: Sat 31 Dec 2011 12:16:43 AM GMT UTC *
G04 For: andy *
G04 Format: Gerber/RS-274X *
G04 PCB-Dimensions: 346457 244094 *
G04 PCB-Coordinate-Origin: lower left *
%MOIN*%
%FSLAX25Y25*%
%LNGROUP5*%
%ADD195C,0.0430*%
%ADD194C,0.0280*%
%ADD193C,0.0380*%
%ADD192C,0.0300*%
%ADD191C,0.0350*%
%ADD190C,0.0650*%
%ADD189C,0.1280*%
%ADD188C,0.0700*%
%ADD187C,0.0600*%
%ADD186C,0.0550*%
%ADD185C,0.0001*%
G54D185*G36*
X215124Y232907D02*Y227407D01*
X220624D01*
Y232907D01*
X215124D01*
G37*
G54D186*X197874Y230157D03*
G54D187*X145000Y219094D03*
G54D185*G36*
X172000Y222094D02*Y216094D01*
X178000D01*
Y222094D01*
X172000D01*
G37*
G54D187*X145000Y209094D03*
Y199094D03*
X175000Y209094D03*
Y199094D03*
Y189094D03*
Y179094D03*
Y169094D03*
G54D188*X55118Y67243D03*
X65118Y62243D03*
X55118Y57243D03*
X65118Y52243D03*
X55118Y47243D03*
X65118Y42243D03*
X55118Y37243D03*
X65118Y32243D03*
G54D185*G36*
X99362Y22685D02*Y16685D01*
X105362D01*
Y22685D01*
X99362D01*
G37*
G54D187*X92362Y19685D03*
G54D185*G36*
X72053Y11261D02*Y5761D01*
X77553D01*
Y11261D01*
X72053D01*
G37*
G54D186*X114803Y8511D03*
G54D189*X30118Y27243D03*
G54D185*G36*
X14691Y11182D02*Y5682D01*
X20191D01*
Y11182D01*
X14691D01*
G37*
G54D186*X57441Y8432D03*
G54D185*G36*
X76502Y199639D02*Y194139D01*
X82002D01*
Y199639D01*
X76502D01*
G37*
G54D186*X119252Y196889D03*
G54D185*G36*
X76502Y209639D02*Y204139D01*
X82002D01*
Y209639D01*
X76502D01*
G37*
G54D186*X119252Y206889D03*
G54D185*G36*
X76502Y219639D02*Y214139D01*
X82002D01*
Y219639D01*
X76502D01*
G37*
G54D186*X119252Y216889D03*
G54D185*G36*
X132000Y222094D02*Y216094D01*
X138000D01*
Y222094D01*
X132000D01*
G37*
G54D187*X135000Y209094D03*
Y199094D03*
G54D185*G36*
X105267Y172291D02*Y166291D01*
X111267D01*
Y172291D01*
X105267D01*
G37*
G54D187*X118267Y169291D03*
X128267D03*
X138267D03*
G54D189*X30118Y72243D03*
G54D185*G36*
X27486Y135505D02*Y130005D01*
X32986D01*
Y135505D01*
X27486D01*
G37*
G54D186*X10236Y132755D03*
G54D185*G36*
X27486Y115505D02*Y110005D01*
X32986D01*
Y115505D01*
X27486D01*
G37*
G54D186*X10236Y112755D03*
G54D185*G36*
X36986Y106005D02*Y99505D01*
X43486D01*
Y106005D01*
X36986D01*
G37*
G54D190*X50236Y102755D03*
G54D185*G36*
X62367Y107198D02*Y101698D01*
X67867D01*
Y107198D01*
X62367D01*
G37*
G54D186*X65117Y144448D03*
G54D185*G36*
X266750Y32344D02*Y25844D01*
X273250D01*
Y32344D01*
X266750D01*
G37*
G54D190*X270000Y39094D03*
G54D185*G36*
X267250Y56844D02*Y51344D01*
X272750D01*
Y56844D01*
X267250D01*
G37*
G36*
X286750Y32344D02*Y25844D01*
X293250D01*
Y32344D01*
X286750D01*
G37*
G36*
X326750D02*Y25844D01*
X333250D01*
Y32344D01*
X326750D01*
G37*
G36*
X306750D02*Y25844D01*
X313250D01*
Y32344D01*
X306750D01*
G37*
G54D190*X290000Y39094D03*
G54D185*G36*
X287250Y56844D02*Y51344D01*
X292750D01*
Y56844D01*
X287250D01*
G37*
G36*
X327250D02*Y51344D01*
X332750D01*
Y56844D01*
X327250D01*
G37*
G36*
X307250D02*Y51344D01*
X312750D01*
Y56844D01*
X307250D01*
G37*
G54D190*X330000Y39094D03*
X310000D03*
G54D186*X330000Y94094D03*
X310000D03*
X290000D03*
X270000D03*
G54D185*G36*
X277000Y157094D02*Y151094D01*
X283000D01*
Y157094D01*
X277000D01*
G37*
G54D187*X290000Y154094D03*
X280000Y144094D03*
X290000D03*
X280000Y134094D03*
X290000D03*
X280000Y124094D03*
X290000D03*
X280000Y114094D03*
X290000D03*
G54D185*G36*
X313549Y121490D02*Y115990D01*
X319049D01*
Y121490D01*
X313549D01*
G37*
G36*
X328549Y131490D02*Y125990D01*
X334049D01*
Y131490D01*
X328549D01*
G37*
G54D186*X331299Y148740D03*
X316299Y158740D03*
G54D185*G36*
X134636Y37645D02*Y31645D01*
X140636D01*
Y37645D01*
X134636D01*
G37*
G54D187*X137636Y54645D03*
G54D185*G36*
X115596Y36647D02*Y31147D01*
X121096D01*
Y36647D01*
X115596D01*
G37*
G36*
Y57395D02*Y51895D01*
X121096D01*
Y57395D01*
X115596D01*
G37*
G54D186*X98346Y33897D03*
Y54645D03*
G54D187*X99842Y77519D03*
G54D185*G36*
X126842Y80519D02*Y74519D01*
X132842D01*
Y80519D01*
X126842D01*
G37*
G54D187*X129842Y87519D03*
Y97519D03*
Y107519D03*
X99842D03*
Y97519D03*
Y87519D03*
X129842Y117519D03*
X99842D03*
X129842Y127519D03*
Y137519D03*
X99842D03*
Y127519D03*
G54D185*G36*
X102486Y150505D02*Y145005D01*
X107986D01*
Y150505D01*
X102486D01*
G37*
G54D186*X125236Y147755D03*
G54D187*X175000Y159094D03*
Y149094D03*
Y139094D03*
Y129094D03*
Y119094D03*
Y109094D03*
Y99094D03*
Y89094D03*
Y79094D03*
Y69094D03*
Y59094D03*
Y49094D03*
Y39094D03*
Y29094D03*
X235000D03*
Y39094D03*
Y49094D03*
Y59094D03*
Y69094D03*
Y79094D03*
Y89094D03*
Y99094D03*
Y109094D03*
Y119094D03*
Y129094D03*
Y139094D03*
Y149094D03*
Y159094D03*
Y169094D03*
Y179094D03*
Y189094D03*
Y199094D03*
Y209094D03*
Y219094D03*
G54D185*G36*
X250780Y231346D02*Y225346D01*
X256780D01*
Y231346D01*
X250780D01*
G37*
G54D187*X263780Y228346D03*
X273780D03*
X283780D03*
X293780D03*
X303780D03*
X313780D03*
X323780D03*
X205000Y39094D03*
X150000Y64094D03*
X160000D03*
Y44094D03*
X250000Y74094D03*
X205000Y84094D03*
X185000Y79094D03*
X90000D03*
X55000Y89094D03*
X10000Y99094D03*
X86575Y97519D03*
X74803Y98425D03*
X185000Y69094D03*
X78740Y19685D03*
X100000Y64094D03*
X320000Y14094D03*
X305000Y134094D03*
X260000Y74094D03*
X255000Y129094D03*
X80000Y124094D03*
X20000D03*
X220000Y129094D03*
X110000Y229094D03*
X102440Y191654D03*
X75000Y229094D03*
X90000Y184094D03*
X124016Y159448D03*
X45000Y134094D03*
Y154094D03*
X185000Y169094D03*
Y179094D03*
X265000Y144094D03*
X160000Y99094D03*
X155000Y109094D03*
X160000Y209094D03*
X200000Y139094D03*
Y119094D03*
X195000Y109094D03*
X150000Y179094D03*
X160000Y149094D03*
X150000Y169094D03*
X160000D03*
X190000Y149094D03*
G54D191*G54D192*G54D193*G54D194*G54D193*G54D194*G54D192*G54D193*G54D192*G54D189*G54D192*G54D193*G54D189*G54D192*G54D195*G54D192*G54D195*G54D192*G54D195*G54D192*G54D195*G54D192*G54D193*G54D192*G54D194*G54D192*G54D194*G54D192*G54D194*G54D193*M02*
