G04 start of page 4 for group 2 idx 2 *
G04 Title: (unknown), outline *
G04 Creator: pcb 20110918 *
G04 CreationDate: Sat 31 Dec 2011 12:16:43 AM GMT UTC *
G04 For: andy *
G04 Format: Gerber/RS-274X *
G04 PCB-Dimensions: 346457 244094 *
G04 PCB-Coordinate-Origin: lower left *
%MOIN*%
%FSLAX25Y25*%
%LNOUTLINE*%
%ADD162C,0.0100*%
G54D162*X0Y244094D02*Y0D01*
Y244094D02*X346457D01*
X0Y0D02*X346457D01*
Y244094D02*Y0D01*
M02*
