%FSLAX24Y24*%
%MOIN*%
G70*
G01*
G75*
G04 Layer_Physical_Order=2*
G04 Layer_Color=16711680*
%ADD10R,0.0250X0.0200*%
%ADD11R,0.0118X0.0118*%
%ADD12R,0.0118X0.0118*%
%ADD13R,0.0236X0.0197*%
%ADD14R,0.0551X0.0295*%
%ADD15R,0.0089X0.0222*%
%ADD16R,0.0222X0.0089*%
%ADD17R,0.1732X0.1732*%
%ADD18O,0.0315X0.0138*%
%ADD19O,0.0138X0.0315*%
%ADD20C,0.0060*%
%ADD21C,0.0100*%
%ADD22C,0.0120*%
%ADD23C,0.0230*%
%ADD24O,0.0295X0.0118*%
%ADD25O,0.0118X0.0295*%
%ADD26R,0.1024X0.1024*%
%ADD27R,0.0472X0.0394*%
%ADD28R,0.0472X0.0394*%
%ADD29R,0.0098X0.0217*%
%ADD30R,0.0315X0.0630*%
%ADD31R,0.0118X0.0098*%
%ADD32C,0.0098*%
%ADD33R,0.0197X0.0118*%
%ADD34R,0.0118X0.0197*%
%ADD35R,0.0315X0.0354*%
%ADD36R,0.0945X0.0295*%
%ADD37R,0.0197X0.0236*%
%ADD38C,0.0150*%
%ADD39C,0.0200*%
G36*
X35082Y33685D02*
Y33670D01*
X35082D01*
Y33353D01*
X35102D01*
Y33224D01*
X35037Y33159D01*
X35017Y33129D01*
X35010Y33094D01*
Y32873D01*
X34934Y32797D01*
X34914Y32767D01*
X34907Y32732D01*
Y32668D01*
X34666Y32427D01*
X34599Y32427D01*
Y32427D01*
X34581Y32427D01*
Y32588D01*
Y32806D01*
X34381D01*
Y32821D01*
X34381D01*
D01*
D01*
X34381D01*
Y33047D01*
X34385Y33050D01*
X34438Y33061D01*
X34483Y33091D01*
X34587Y33195D01*
X34587Y33195D01*
X34617Y33239D01*
X34617Y33239D01*
X34617Y33239D01*
X34627Y33292D01*
X34627Y33292D01*
Y33305D01*
X34648D01*
Y33661D01*
D01*
Y33661D01*
X34648Y33661D01*
Y33698D01*
D01*
X34648Y33713D01*
X34987D01*
X35035Y33723D01*
X35082Y33685D01*
D02*
G37*
G36*
X37304Y34374D02*
X37301Y34358D01*
X37469D01*
Y34308D01*
X37519D01*
Y34197D01*
X37510Y34189D01*
X37490Y34159D01*
X37485Y34132D01*
X37469Y34129D01*
X37483Y34057D01*
Y33094D01*
X37428Y33071D01*
X37403Y33096D01*
X37373Y33116D01*
X37338Y33123D01*
X36929D01*
X36894Y33116D01*
X36864Y33096D01*
X36763Y32996D01*
X36708Y33019D01*
Y33002D01*
X36579D01*
Y32893D01*
X36676D01*
X36718Y32851D01*
Y32695D01*
X36003D01*
X35999Y32699D01*
X35969Y32719D01*
X35935Y32726D01*
Y32754D01*
X35697D01*
Y32515D01*
Y32448D01*
X35816D01*
Y32348D01*
X35697D01*
Y32281D01*
X35667Y32262D01*
X35642D01*
X35605Y32286D01*
Y32518D01*
Y32587D01*
X35486D01*
Y32637D01*
X35436D01*
Y32742D01*
X35450Y32756D01*
X35528D01*
X35505Y32811D01*
X35584Y32891D01*
X35586Y32891D01*
X35594Y32896D01*
X35958D01*
Y32893D01*
X36314D01*
X36314Y32893D01*
Y32893D01*
X36314D01*
X36351D01*
X36356Y32893D01*
X36356Y32893D01*
Y32893D01*
X36479D01*
Y33052D01*
Y33210D01*
X36356D01*
X36356Y33210D01*
Y33210D01*
X36351Y33210D01*
X36333D01*
X36314D01*
X36314D01*
X36309D01*
X36309D01*
D01*
X36273Y33210D01*
Y33304D01*
X36386D01*
Y33779D01*
X36306D01*
Y33944D01*
X36536Y34175D01*
X36536Y34175D01*
X36566Y34220D01*
X36566Y34220D01*
X36566Y34220D01*
X36577Y34272D01*
X36577Y34272D01*
Y34301D01*
X36591Y34315D01*
X36639Y34325D01*
X36697Y34364D01*
X36735Y34421D01*
X37266D01*
X37304Y34374D01*
D02*
G37*
G36*
X34331Y33402D02*
Y33328D01*
X34303Y33300D01*
X34274D01*
X34274Y33300D01*
X34250Y33295D01*
X33943D01*
Y33237D01*
X33931Y33219D01*
X33922Y33176D01*
X33931Y33133D01*
X33943Y33115D01*
Y33057D01*
Y32821D01*
D01*
Y32821D01*
X33928Y32806D01*
X33743D01*
Y32588D01*
Y32570D01*
X33862D01*
Y32470D01*
X33743D01*
Y32427D01*
X33675D01*
Y32358D01*
X33794D01*
Y32308D01*
X33844D01*
Y32189D01*
X34599D01*
Y32216D01*
X34677D01*
X34712Y32223D01*
X34742Y32243D01*
X35015Y32517D01*
X35071Y32494D01*
Y31814D01*
X35028Y31806D01*
X34988Y31780D01*
X34962Y31740D01*
X34953Y31694D01*
X34962Y31647D01*
X34988Y31608D01*
Y31583D01*
X34964Y31547D01*
X35163D01*
Y31447D01*
X34964D01*
X34966Y31445D01*
X34937Y31392D01*
X34853D01*
Y31518D01*
X34639D01*
Y31753D01*
X34633Y31782D01*
X34632Y31788D01*
X34612Y31818D01*
X34547Y31883D01*
X34517Y31903D01*
X34482Y31910D01*
X34269D01*
Y31937D01*
X34200D01*
Y31818D01*
X34150D01*
Y31768D01*
X34031D01*
Y31699D01*
Y31651D01*
X33557D01*
X33539Y31708D01*
X33568Y31728D01*
X33607Y31786D01*
X33611Y31804D01*
X33274D01*
X33277Y31786D01*
X33316Y31728D01*
X33345Y31708D01*
X33328Y31651D01*
X32909D01*
Y33049D01*
X33552Y33315D01*
X33858Y33433D01*
X34288Y33444D01*
X34331Y33402D01*
D02*
G37*
G36*
X37483Y32746D02*
Y30426D01*
X37419Y30361D01*
X37365Y30366D01*
X37365Y30366D01*
Y30366D01*
D01*
D01*
D01*
X37307Y30405D01*
X37239Y30418D01*
X37204Y30411D01*
X37171Y30461D01*
X37175Y30467D01*
X37188Y30535D01*
X37175Y30603D01*
X37165Y30618D01*
X37185Y30649D01*
X37254Y30663D01*
X37312Y30701D01*
X37350Y30759D01*
X37364Y30828D01*
X37350Y30896D01*
X37312Y30954D01*
X37254Y30993D01*
X37185Y31006D01*
X37145Y30998D01*
X37102Y31041D01*
X37140Y31087D01*
X37145Y31084D01*
X37213Y31070D01*
X37282Y31084D01*
X37340Y31123D01*
X37378Y31181D01*
X37392Y31249D01*
X37378Y31317D01*
X37340Y31375D01*
X37282Y31414D01*
X37277Y31438D01*
X37307Y31458D01*
X37345Y31516D01*
X37359Y31584D01*
X37345Y31652D01*
X37307Y31710D01*
X37249Y31749D01*
X37181Y31762D01*
X37179Y31766D01*
X37366Y31953D01*
X37386Y31983D01*
X37393Y32018D01*
X37393Y32018D01*
X37393Y32018D01*
Y32018D01*
Y32769D01*
X37425Y32782D01*
X37437Y32785D01*
X37483Y32746D01*
D02*
G37*
G36*
X36873Y32457D02*
X36866Y32426D01*
X36880Y32358D01*
X36919Y32300D01*
X36977Y32261D01*
X37045Y32247D01*
X37113Y32261D01*
X37156Y32290D01*
X37209Y32262D01*
Y32056D01*
X36938Y31785D01*
X36903D01*
X36872Y31806D01*
X36826Y31815D01*
X36649D01*
X36602Y31806D01*
X36575Y31787D01*
X36522Y31816D01*
Y31872D01*
X36466D01*
X36437Y31925D01*
X36456Y31952D01*
X36465Y31999D01*
Y32037D01*
X36344D01*
Y32087D01*
X36294D01*
Y32286D01*
X36297Y32288D01*
X36344Y32297D01*
X36344Y32297D01*
X36370Y32324D01*
X36371D01*
Y32443D01*
X36421D01*
Y32493D01*
X36540D01*
Y32512D01*
X36818D01*
X36873Y32457D01*
D02*
G37*
G36*
X37862Y29626D02*
X37854D01*
Y29626D01*
X37719D01*
Y29465D01*
Y29306D01*
X37854D01*
D01*
X37854D01*
X37862Y29298D01*
Y28790D01*
X34402D01*
X34221Y29098D01*
Y30299D01*
X34331D01*
Y30232D01*
X34569D01*
Y30299D01*
X34570Y30540D01*
X34585Y30555D01*
X34903D01*
X34938Y30562D01*
X34968Y30582D01*
X34968Y30582D01*
X34968Y30582D01*
X35171Y30785D01*
X35251D01*
X35298Y30794D01*
X35321Y30810D01*
X35375Y30783D01*
X35378Y30728D01*
X35378Y30728D01*
X35378D01*
Y30728D01*
X35378Y30728D01*
X35433Y30723D01*
X35459Y30669D01*
X35444Y30648D01*
X35435Y30601D01*
Y30424D01*
X35444Y30378D01*
X35465Y30347D01*
Y30099D01*
X35143D01*
Y29994D01*
X35114D01*
Y29994D01*
X35045D01*
Y29835D01*
X34995D01*
Y29785D01*
X34875D01*
Y29677D01*
Y29500D01*
X34873Y29490D01*
X34875Y29480D01*
Y29401D01*
X34950D01*
X34965Y29398D01*
X34965D01*
X34980Y29401D01*
X35114D01*
D01*
X35114D01*
X35143Y29371D01*
Y29381D01*
X35440D01*
Y29281D01*
X35143D01*
Y29112D01*
X34840D01*
X34812Y29165D01*
X34818Y29173D01*
X34831Y29242D01*
X34818Y29310D01*
X34779Y29368D01*
X34721Y29407D01*
X34653Y29420D01*
X34585Y29407D01*
X34558Y29389D01*
X34505Y29417D01*
Y29485D01*
X34551Y29530D01*
X34594Y29522D01*
X34662Y29535D01*
X34720Y29574D01*
X34759Y29632D01*
X34772Y29700D01*
X34759Y29768D01*
X34720Y29826D01*
X34662Y29865D01*
X34594Y29878D01*
X34526Y29865D01*
X34468Y29826D01*
X34429Y29768D01*
X34415Y29700D01*
X34423Y29662D01*
X34349Y29588D01*
X34329Y29558D01*
X34322Y29523D01*
Y29163D01*
X34322Y29163D01*
X34322D01*
X34329Y29128D01*
X34349Y29098D01*
X34491Y28955D01*
X34521Y28935D01*
X34556Y28928D01*
X37224D01*
X37259Y28935D01*
X37289Y28955D01*
X37485Y29152D01*
X37505Y29181D01*
X37512Y29216D01*
X37512Y29216D01*
X37512Y29216D01*
Y29216D01*
Y29306D01*
X37619D01*
Y29465D01*
Y29626D01*
X37512D01*
Y29869D01*
X37505Y29904D01*
X37485Y29934D01*
X37361Y30058D01*
X37337Y30074D01*
Y30095D01*
X37365Y30114D01*
X37388Y30148D01*
X37427D01*
X37462Y30155D01*
X37492Y30175D01*
X37640Y30323D01*
X37660Y30353D01*
X37661Y30358D01*
X37667Y30388D01*
Y32794D01*
X37667Y32794D01*
X37667Y32794D01*
Y32794D01*
Y34086D01*
X37739Y34158D01*
X37759Y34187D01*
X37760Y34193D01*
X37766Y34223D01*
Y34392D01*
X37760Y34422D01*
X37759Y34428D01*
X37739Y34457D01*
X37645Y34551D01*
X37645Y34551D01*
X37619Y34577D01*
X37589Y34597D01*
X37554Y34604D01*
X36705D01*
X36697Y34616D01*
X36639Y34655D01*
X36570Y34668D01*
X36502Y34655D01*
X36444Y34616D01*
X36406Y34558D01*
X36396Y34510D01*
X36342Y34456D01*
X36312Y34411D01*
X36301Y34358D01*
X36301Y34358D01*
X36301D01*
X36301Y34358D01*
X36301D01*
Y34329D01*
X36071Y34099D01*
X36041Y34054D01*
X36031Y34002D01*
X36031Y34002D01*
X36031D01*
X36031Y34002D01*
X36031D01*
Y33779D01*
X35951D01*
Y33304D01*
X35998D01*
Y33210D01*
X35958D01*
Y33079D01*
X35664D01*
X35636Y33132D01*
X35642Y33141D01*
X35544D01*
Y33241D01*
X35642D01*
X35647Y33233D01*
X35655Y33191D01*
X35651Y33168D01*
X35700Y33217D01*
X35720Y33247D01*
X35727Y33282D01*
Y33353D01*
X35832D01*
Y33462D01*
X35654D01*
Y33512D01*
X35604D01*
Y33670D01*
X35564D01*
Y33724D01*
X35564D01*
Y33832D01*
X35386D01*
Y33882D01*
X35336D01*
Y34041D01*
X35337D01*
X35295Y34083D01*
X35299Y34246D01*
X35698Y34252D01*
Y35095D01*
X36888D01*
X36894Y35036D01*
X36934Y35044D01*
X36973Y35036D01*
X36979Y35095D01*
X37862D01*
Y29626D01*
D02*
G37*
%LPC*%
G36*
X36394Y32286D02*
Y32137D01*
X36465D01*
Y32176D01*
X36456Y32222D01*
X36430Y32262D01*
X36394Y32286D01*
D02*
G37*
G36*
X33492Y32022D02*
Y31904D01*
X33611D01*
X33607Y31922D01*
X33568Y31980D01*
X33510Y32019D01*
X33492Y32022D01*
D02*
G37*
G36*
X36540Y32393D02*
X36471D01*
Y32324D01*
X36540D01*
Y32393D01*
D02*
G37*
G36*
X36984Y35034D02*
Y34915D01*
X37102D01*
X37099Y34933D01*
X37060Y34991D01*
X37002Y35030D01*
X36984Y35034D01*
D02*
G37*
G36*
X33744Y32258D02*
X33675D01*
Y32189D01*
X33744D01*
Y32258D01*
D02*
G37*
G36*
X33392Y32022D02*
X33374Y32019D01*
X33316Y31980D01*
X33277Y31922D01*
X33274Y31904D01*
X33392D01*
Y32022D01*
D02*
G37*
G36*
X34400Y30132D02*
X34331D01*
Y30063D01*
X34400D01*
Y30132D01*
D02*
G37*
G36*
X34945Y29994D02*
X34875D01*
Y29885D01*
X34945D01*
Y29994D01*
D02*
G37*
G36*
X34569Y30132D02*
X34500D01*
Y30063D01*
X34569D01*
Y30132D01*
D02*
G37*
G36*
X34100Y31937D02*
X34031D01*
Y31868D01*
X34100D01*
Y31937D01*
D02*
G37*
G36*
X34963Y30465D02*
X34895Y30451D01*
X34837Y30412D01*
X34798Y30354D01*
X34785Y30286D01*
X34798Y30218D01*
X34837Y30160D01*
X34895Y30121D01*
X34963Y30108D01*
X35032Y30121D01*
X35090Y30160D01*
X35128Y30218D01*
X35142Y30286D01*
X35128Y30354D01*
X35090Y30412D01*
X35032Y30451D01*
X34963Y30465D01*
D02*
G37*
G36*
X35605Y32646D02*
Y32627D01*
X35607Y32637D01*
X35605Y32646D01*
D02*
G37*
G36*
X37102Y34815D02*
X36984D01*
Y34697D01*
X37002Y34700D01*
X37060Y34739D01*
X37099Y34797D01*
X37102Y34815D01*
D02*
G37*
G36*
X36937Y33779D02*
X36769D01*
Y33591D01*
X36937D01*
Y33779D01*
D02*
G37*
G36*
X36669D02*
X36502D01*
Y33591D01*
X36669D01*
Y33779D01*
D02*
G37*
G36*
X36884Y34815D02*
X36765D01*
X36769Y34797D01*
X36808Y34739D01*
X36866Y34700D01*
X36884Y34697D01*
Y34815D01*
D02*
G37*
G36*
X37419Y34258D02*
X37301D01*
X37304Y34239D01*
X37343Y34181D01*
X37401Y34143D01*
X37419Y34139D01*
Y34258D01*
D02*
G37*
G36*
X35564Y34040D02*
X35436D01*
Y33932D01*
X35564D01*
Y34040D01*
D02*
G37*
G36*
X36884Y35034D02*
X36866Y35030D01*
X36808Y34991D01*
X36769Y34933D01*
X36765Y34915D01*
X36884D01*
Y35034D01*
D02*
G37*
G36*
X36708Y33210D02*
X36579D01*
Y33102D01*
X36708D01*
Y33210D01*
D02*
G37*
G36*
X35605Y32756D02*
X35536D01*
Y32687D01*
X35605D01*
Y32756D01*
D02*
G37*
G36*
X35832Y33670D02*
X35704D01*
Y33562D01*
X35832D01*
Y33670D01*
D02*
G37*
G36*
X36937Y33491D02*
X36769D01*
Y33304D01*
X36937D01*
Y33491D01*
D02*
G37*
G36*
X36669D02*
X36502D01*
Y33304D01*
X36669D01*
Y33491D01*
D02*
G37*
%LPD*%
D10*
X37669Y29466D02*
D03*
X37169D02*
D03*
D11*
X33886Y31500D02*
D03*
X33650D02*
D03*
X36421Y32443D02*
D03*
X36185D02*
D03*
X34480Y32308D02*
D03*
X34244D02*
D03*
X34030D02*
D03*
X33794D02*
D03*
D12*
X35486Y32401D02*
D03*
Y32637D02*
D03*
X37162Y29989D02*
D03*
Y29753D02*
D03*
X34450Y30418D02*
D03*
Y30182D02*
D03*
X35816Y32635D02*
D03*
Y32398D02*
D03*
X34150Y31818D02*
D03*
Y31582D02*
D03*
X34262Y32940D02*
D03*
Y33176D02*
D03*
X34062Y32940D02*
D03*
Y33176D02*
D03*
D13*
X36136Y33052D02*
D03*
X36530D02*
D03*
X35654Y33512D02*
D03*
X35260D02*
D03*
X34993Y33882D02*
D03*
X35386D02*
D03*
D20*
X35556Y32087D02*
Y32202D01*
X35486Y32273D02*
X35556Y32202D01*
X35486Y32273D02*
Y32401D01*
X35753Y32190D02*
X35816Y32252D01*
X35753Y32087D02*
Y32190D01*
X35816Y32252D02*
Y32398D01*
X34594Y29700D02*
X34638Y29744D01*
X34637Y29746D02*
X34638Y29744D01*
X34556Y29020D02*
X37224D01*
X34414Y29163D02*
X34556Y29020D01*
X34414Y29163D02*
Y29523D01*
X34637Y29746D01*
X36991Y29341D02*
X37143Y29492D01*
X35431Y29250D02*
X35487D01*
X37077Y29945D02*
X37245Y30114D01*
X35163Y32598D02*
X35552Y32987D01*
X36570Y34490D02*
X36593Y34513D01*
X37554D01*
X37581Y34486D01*
Y34486D02*
Y34486D01*
Y34486D02*
X37674Y34392D01*
Y34223D02*
Y34392D01*
X37575Y34124D02*
X37674Y34223D01*
X37575Y32794D02*
Y34124D01*
X35544Y33191D02*
X35636Y33282D01*
X35102Y33094D02*
X35193Y33186D01*
X35102Y32835D02*
Y33094D01*
X34998Y32732D02*
X35254Y32987D01*
X37245Y30114D02*
Y30234D01*
Y29994D02*
Y30114D01*
X35163Y31694D02*
Y32598D01*
X36991Y29213D02*
Y29341D01*
X37143Y29492D02*
Y29734D01*
X36939D02*
X37143D01*
X37296Y29994D02*
X37420Y29869D01*
X37245Y29994D02*
X37296D01*
X37420Y29216D02*
Y29869D01*
X37224Y29020D02*
X37420Y29216D01*
X36810Y32650D02*
X36856Y32603D01*
X36810Y32650D02*
Y32913D01*
X36929Y33031D01*
X37338D01*
X37575Y32794D01*
Y30388D02*
Y32794D01*
X37427Y30240D02*
X37575Y30388D01*
X37239Y30240D02*
X37427D01*
X34450Y30418D02*
Y30550D01*
X36072Y32987D02*
X36136Y33052D01*
X35552Y32987D02*
X36072D01*
X37034Y32426D02*
X37045D01*
X36856Y32603D02*
X37034Y32426D01*
X35965Y32603D02*
X36856D01*
X37301Y32018D02*
Y32776D01*
X36976Y31694D02*
X37301Y32018D01*
X36737Y31694D02*
X36976D01*
X37263Y32814D02*
X37301Y32776D01*
X37073Y32814D02*
X37263D01*
X34998Y32630D02*
Y32732D01*
X34480Y32308D02*
Y32520D01*
X34677Y32308D02*
X34998Y32630D01*
X35636Y33494D02*
X35654Y33512D01*
X35636Y33282D02*
Y33494D01*
X35193Y33186D02*
X35195Y33184D01*
X35193Y33186D02*
Y33445D01*
X35195Y33184D02*
X35347D01*
X35254Y32987D02*
X35347D01*
X35193Y33445D02*
X35260Y33512D01*
X35486Y32637D02*
X35515D01*
X35965Y32102D02*
Y32603D01*
X35934Y32635D02*
X35965Y32603D01*
X35816Y32635D02*
X35934D01*
X34480Y32308D02*
X34677D01*
X35950Y32087D02*
X35965Y32102D01*
X34262Y32520D02*
X34262Y32520D01*
X34062Y32520D02*
X34262D01*
X34150Y31818D02*
X34482D01*
X34547Y31753D01*
Y31350D02*
Y31753D01*
X36475Y29841D02*
X36700Y29616D01*
X36715Y29945D02*
X37077D01*
X36475Y29841D02*
Y30037D01*
X36357Y30155D02*
X36475Y30037D01*
X36595Y30065D02*
X36715Y29945D01*
X36595Y30065D02*
Y30119D01*
X36439Y30275D02*
X36595Y30119D01*
X36800Y30150D02*
X36803D01*
X36828Y30176D01*
X35753Y30247D02*
X35845Y30155D01*
X36218Y30275D02*
X36439D01*
X35845Y30155D02*
X36357D01*
X36147Y30346D02*
X36218Y30275D01*
X36147Y30346D02*
Y30513D01*
X36700Y29200D02*
Y29616D01*
X36344Y30513D02*
X36491D01*
X36828Y30176D01*
X36910Y31103D02*
X37185Y30828D01*
X36737Y31103D02*
X36910D01*
X36737Y30807D02*
X37010Y30535D01*
X36737Y30807D02*
Y30906D01*
X37162Y31300D02*
X37213Y31249D01*
X37220Y31242D01*
X37093Y31497D02*
X37181Y31584D01*
X36737Y31497D02*
X37093D01*
X36737Y31300D02*
X37162D01*
X34965Y29490D02*
X35052Y29577D01*
X35062D01*
X35062Y29577D01*
X35126D01*
X34965Y29490D02*
X34965D01*
X35126Y29577D02*
X35436Y29887D01*
X35556D01*
X36002Y29664D02*
X36100Y29762D01*
X35753Y30247D02*
Y30513D01*
X35950D02*
Y31300D01*
X34547Y30647D02*
X34903D01*
X34547D02*
Y31015D01*
X34903Y30647D02*
X35163Y30906D01*
X34450Y30550D02*
X34547Y30647D01*
X34744Y31015D02*
X34832Y31103D01*
X35163D01*
X34744Y31350D02*
X34794Y31300D01*
X35163D01*
X36100Y29250D02*
X36150Y29200D01*
X36700D01*
X35556Y29887D02*
Y30513D01*
X35753Y31497D02*
X35950Y31300D01*
X35163Y31497D02*
X35753D01*
X35950Y31300D02*
X36344Y31694D01*
Y32087D01*
X35753Y31497D02*
Y32087D01*
X36147D02*
Y32447D01*
X34062Y32697D02*
Y32940D01*
X34262Y32697D02*
Y32940D01*
X33862Y32520D02*
X33862Y32520D01*
Y32376D02*
Y32520D01*
X33794Y32308D02*
X33862Y32376D01*
Y32697D02*
X34062D01*
X34062Y33176D02*
X34262D01*
X34462Y32520D02*
X34480D01*
X34030Y32488D02*
X34062Y32520D01*
X34030Y32308D02*
Y32488D01*
X34244Y32308D02*
X34262Y32326D01*
Y32520D01*
X34062Y32697D02*
X34062Y32697D01*
X34262Y32697D02*
X34262Y32697D01*
X34462D01*
Y32326D02*
X34480Y32308D01*
X34462Y32520D02*
X34462Y32520D01*
D21*
X35440Y29331D02*
X35520D01*
X36032Y29843D01*
X36109D01*
X34262Y33176D02*
X34274Y33188D01*
X34385D01*
X34035Y33176D02*
X34062D01*
X33886Y31500D02*
X34200D01*
X34350Y31350D01*
D22*
X33532Y31500D02*
X33650D01*
X33373Y31341D02*
X33532Y31500D01*
X33373Y31278D02*
Y31341D01*
D23*
X34594Y29700D02*
D03*
X36934Y34865D02*
D03*
X37469Y34307D02*
D03*
X36570Y34490D02*
D03*
X33442Y31854D02*
D03*
X37045Y32426D02*
D03*
X36800Y30150D02*
D03*
X37010Y30535D02*
D03*
X37239Y30240D02*
D03*
X34653Y29242D02*
D03*
X34963Y30286D02*
D03*
X36939Y29734D02*
D03*
X37185Y30828D02*
D03*
X37213Y31249D02*
D03*
X37181Y31584D02*
D03*
X37073Y32814D02*
D03*
D24*
X35163Y31300D02*
D03*
X36737Y31694D02*
D03*
X35163Y30906D02*
D03*
Y31694D02*
D03*
Y31497D02*
D03*
X36737Y30906D02*
D03*
Y31103D02*
D03*
Y31300D02*
D03*
Y31497D02*
D03*
X35163Y31103D02*
D03*
D25*
X35556Y30513D02*
D03*
X35753D02*
D03*
X35950D02*
D03*
X36344Y32087D02*
D03*
X36147D02*
D03*
X35950D02*
D03*
X35753D02*
D03*
X35556D02*
D03*
X36147Y30513D02*
D03*
X36344D02*
D03*
D26*
X35950Y31300D02*
D03*
D27*
X36109Y29843D02*
D03*
X35440D02*
D03*
Y29331D02*
D03*
D28*
X36109D02*
D03*
D29*
X34744Y31015D02*
D03*
X34547D02*
D03*
X34350D02*
D03*
X34744Y31350D02*
D03*
X34547D02*
D03*
X34350D02*
D03*
D30*
X33161Y34617D02*
D03*
X34499D02*
D03*
D31*
X33862Y32697D02*
D03*
Y32520D02*
D03*
X34462Y32520D02*
D03*
Y32697D02*
D03*
X34262Y32697D02*
D03*
Y32520D02*
D03*
X34062Y32520D02*
D03*
Y32697D02*
D03*
D32*
X35347Y32994D02*
D03*
Y33191D02*
D03*
X35544Y32994D02*
D03*
Y33191D02*
D03*
D33*
X36991Y29213D02*
D03*
X36715D02*
D03*
D34*
X34994Y29560D02*
D03*
Y29835D02*
D03*
D35*
X36719Y33541D02*
D03*
X36168D02*
D03*
D36*
X33421Y29149D02*
D03*
Y30507D02*
D03*
D37*
X34489Y33483D02*
D03*
Y33876D02*
D03*
D38*
X36439Y34358D02*
X36570Y34490D01*
X36439Y34272D02*
Y34358D01*
X36168Y34002D02*
X36439Y34272D01*
X36168Y33541D02*
Y34002D01*
X36136Y33052D02*
Y33455D01*
X34385Y33188D02*
X34489Y33292D01*
Y33483D01*
D39*
X34987Y33876D02*
X34993Y33882D01*
X34489Y33876D02*
X34987D01*
X34489D02*
Y34549D01*
X34557Y34617D01*
X34513Y34381D02*
Y34532D01*
X33373Y30507D02*
Y31278D01*
M02*
