G04 (created by PCBNEW-RS274X (2010-05-05 BZR 2356)-stable) date 12/12/2010 12:48:27 p.m.*
G01*
G70*
G90*
%MOIN*%
G04 Gerber Fmt 3.4, Leading zero omitted, Abs format*
%FSLAX34Y34*%
G04 APERTURE LIST*
%ADD10C,0.006000*%
G04 APERTURE END LIST*
G54D10*
M02*
