G04 start of page 13 for group -4079 idx -4079 *
G04 Title: HacDC SMT Practice, topsilk *
G04 Creator: pcb 1.99z *
G04 CreationDate: Tue 09 Oct 2012 07:04:56 PM GMT UTC *
G04 For: nock *
G04 Format: Gerber/RS-274X *
G04 PCB-Dimensions (mil): 3000.00 2000.00 *
G04 PCB-Coordinate-Origin: lower left *
%MOIN*%
%FSLAX25Y25*%
%LNTOPSILK*%
%ADD63C,0.0150*%
%ADD62C,0.0100*%
%ADD61C,0.0080*%
%ADD60R,0.0080X0.0080*%
G54D60*X0Y200000D02*Y0D01*
Y200000D02*X300000D01*
X0Y0D02*X300000D01*
Y200000D02*Y0D01*
G54D61*X292000Y194000D02*X7000D01*
Y5000D01*
X292000D02*X7000D01*
X197079Y5921D02*Y100921D01*
X102923Y100535D02*Y6535D01*
X197412Y100921D02*X102412D01*
X292000Y5000D02*Y194000D01*
X18000Y183500D02*Y180500D01*
Y183500D02*X18500Y184000D01*
X19500D01*
X20000Y183500D01*
Y181000D01*
X19000Y180000D02*X20000Y181000D01*
X18500Y180000D02*X19000D01*
X18000Y180500D02*X18500Y180000D01*
X19000Y181500D02*X20000Y180000D01*
X21200Y184000D02*Y180000D01*
Y184000D02*X23200D01*
X21200Y182200D02*X22700D01*
X24900Y184000D02*Y180000D01*
X24400Y184000D02*X26400D01*
X26900Y183500D01*
Y182500D01*
X26400Y182000D02*X26900Y182500D01*
X24900Y182000D02*X26400D01*
X29600Y184000D02*X30100Y183500D01*
X28600Y184000D02*X29600D01*
X28100Y183500D02*X28600Y184000D01*
X28100Y183500D02*Y180500D01*
X28600Y180000D01*
X29600Y182200D02*X30100Y181700D01*
X28100Y182200D02*X29600D01*
X28600Y180000D02*X29600D01*
X30100Y180500D01*
Y181700D02*Y180500D01*
X31300Y181500D02*X33300Y184000D01*
X31300Y181500D02*X33800D01*
X33300Y184000D02*Y180000D01*
X36800Y180500D02*X37300Y180000D01*
X36800Y183500D02*X37300Y184000D01*
X36800Y183500D02*Y180500D01*
X38500Y183200D02*X39300Y184000D01*
Y180000D01*
X38500D02*X40000D01*
X41200Y180500D02*X41700Y180000D01*
X41200Y183500D02*Y180500D01*
Y183500D02*X41700Y184000D01*
X42700D01*
X43200Y183500D01*
Y180500D01*
X42700Y180000D02*X43200Y180500D01*
X41700Y180000D02*X42700D01*
X41200Y181000D02*X43200Y183000D01*
X44900Y181500D02*Y180000D01*
Y181500D02*X45400Y182000D01*
X45900D01*
X46400Y181500D01*
Y180000D01*
Y181500D02*X46900Y182000D01*
X47400D01*
X47900Y181500D01*
Y180000D01*
X44400Y182000D02*X44900Y181500D01*
X49600D02*Y180000D01*
Y181500D02*X50100Y182000D01*
X50600D01*
X51100Y181500D01*
Y180000D01*
Y181500D02*X51600Y182000D01*
X52100D01*
X52600Y181500D01*
Y180000D01*
X49100Y182000D02*X49600Y181500D01*
X53800Y184000D02*X54300Y183500D01*
Y180500D01*
X53800Y180000D02*X54300Y180500D01*
X132079Y50921D02*X134079D01*
X134579Y51421D01*
Y52621D02*Y51421D01*
X134079Y53121D02*X134579Y52621D01*
X132579Y53121D02*X134079D01*
X132579Y54921D02*Y50921D01*
X132079Y54921D02*X134079D01*
X134579Y54421D01*
Y53621D01*
X134079Y53121D02*X134579Y53621D01*
X137779Y54921D02*X138279Y54421D01*
X136279Y54921D02*X137779D01*
X135779Y54421D02*X136279Y54921D01*
X135779Y54421D02*Y51421D01*
X136279Y50921D01*
X137779D01*
X138279Y51421D01*
Y52421D02*Y51421D01*
X137779Y52921D02*X138279Y52421D01*
X136779Y52921D02*X137779D01*
X139479Y53921D02*Y50921D01*
Y53921D02*X140179Y54921D01*
X141279D01*
X141979Y53921D01*
Y50921D01*
X139479Y52921D02*X141979D01*
X144679Y54921D02*X145179Y54421D01*
X143679Y54921D02*X144679D01*
X143179Y54421D02*X143679Y54921D01*
X143179Y54421D02*Y51421D01*
X143679Y50921D01*
X144679Y53121D02*X145179Y52621D01*
X143179Y53121D02*X144679D01*
X143679Y50921D02*X144679D01*
X145179Y51421D01*
Y52621D02*Y51421D01*
X146379Y52421D02*X148379Y54921D01*
X146379Y52421D02*X148879D01*
X148379Y54921D02*Y50921D01*
X151879Y51421D02*X152379Y50921D01*
X151879Y54421D02*X152379Y54921D01*
X151879Y54421D02*Y51421D01*
X153579Y54921D02*X155579D01*
X153579D02*Y52921D01*
X154079Y53421D01*
X155079D01*
X155579Y52921D01*
Y51421D01*
X155079Y50921D02*X155579Y51421D01*
X154079Y50921D02*X155079D01*
X153579Y51421D02*X154079Y50921D01*
X157279Y52421D02*Y50921D01*
Y52421D02*X157779Y52921D01*
X158279D01*
X158779Y52421D01*
Y50921D01*
Y52421D02*X159279Y52921D01*
X159779D01*
X160279Y52421D01*
Y50921D01*
X156779Y52921D02*X157279Y52421D01*
X161979D02*Y50921D01*
Y52421D02*X162479Y52921D01*
X162979D01*
X163479Y52421D01*
Y50921D01*
Y52421D02*X163979Y52921D01*
X164479D01*
X164979Y52421D01*
Y50921D01*
X161479Y52921D02*X161979Y52421D01*
X166179Y54921D02*X166679Y54421D01*
Y51421D01*
X166179Y50921D02*X166679Y51421D01*
X39615Y72285D02*X75285D01*
Y33715D01*
X36715D01*
Y69385D01*
X39615Y72285D01*
X38615Y69385D02*G75*G03X38615Y69385I1000J0D01*G01*
X39615Y165285D02*X75285D01*
Y126715D01*
X36715D01*
Y162385D01*
X39615Y165285D01*
X38615Y162385D02*G75*G03X38615Y162385I1000J0D01*G01*
G54D62*X135842Y38842D02*Y19158D01*
X116158D01*
Y38842D01*
X135842D01*
G54D63*X113408Y40842D02*G75*G03X113408Y40842I750J0D01*G01*
G54D62*X135842Y86842D02*Y67158D01*
X116158D01*
Y86842D01*
X135842D01*
G54D63*X113408Y88842D02*G75*G03X113408Y88842I750J0D01*G01*
G54D61*X133615Y165285D02*X169285D01*
Y126715D01*
X130715D01*
Y162385D01*
X133615Y165285D01*
X132615Y162385D02*G75*G03X132615Y162385I1000J0D01*G01*
X227615Y165285D02*X263285D01*
Y126715D01*
X224715D01*
Y162385D01*
X227615Y165285D01*
X226615Y162385D02*G75*G03X226615Y162385I1000J0D01*G01*
X227615Y72285D02*X263285D01*
Y33715D01*
X224715D01*
Y69385D01*
X227615Y72285D01*
X226615Y69385D02*G75*G03X226615Y69385I1000J0D01*G01*
G54D62*X183842Y38842D02*Y19158D01*
X164158D01*
Y38842D01*
X183842D01*
G54D63*X161408Y40842D02*G75*G03X161408Y40842I750J0D01*G01*
G54D62*X183842Y86842D02*Y67158D01*
X164158D01*
Y86842D01*
X183842D01*
G54D63*X161408Y88842D02*G75*G03X161408Y88842I750J0D01*G01*
M02*
