G04 DipTrace 2.4.0.2*
%INi2cswitch.gbl*%
%MOMM*%
%ADD13C,0.305*%
%ADD15C,0.152*%
%ADD16C,0.127*%
%ADD20R,1.6X1.7*%
%ADD21R,2.032X1.7*%
%ADD22R,1.7X1.6*%
%ADD23R,1.7X2.032*%
%ADD35C,0.711*%
%ADD40C,0.686*%
%FSLAX53Y53*%
G04*
G71*
G90*
G75*
G01*
%LNBottom*%
%LPD*%
X17146Y19385D2*
D13*
Y19343D1*
X17827D1*
X19109Y20625D1*
Y21247D1*
X19690Y21827D1*
X13810Y12433D2*
Y11270D1*
Y10000D1*
X17826Y20957D2*
Y20679D1*
X17208Y20061D1*
X16869D1*
X16496Y19688D1*
Y19072D1*
X16853Y18715D1*
X17925D1*
Y18480D1*
X19772Y20945D2*
Y20610D1*
X18640Y19478D1*
Y17876D1*
X19422Y18786D2*
X19232D1*
Y19387D1*
X20428Y20582D1*
Y22006D1*
X19923Y22511D1*
X19351D1*
X19136Y22296D1*
X15680D1*
X22808Y16350D2*
X23970D1*
X25240D1*
X22808Y21430D2*
X23970D1*
X25240D1*
X22808Y26510D2*
X23970D1*
X25240D1*
X13810Y27888D2*
Y29050D1*
Y30320D1*
X21430Y27885D2*
Y29050D1*
Y30320D1*
X12433Y18890D2*
X11270D1*
X10000D1*
X12433Y13810D2*
X11270D1*
X10000D1*
X18890Y12435D2*
Y11270D1*
Y10000D1*
Y12435D2*
Y13043D1*
X15057Y16876D1*
Y21565D1*
X15011Y21610D1*
X22808Y13810D2*
X23970D1*
X25240D1*
X22808Y18890D2*
X23970D1*
X25240D1*
X22805Y23970D2*
X23970D1*
X25240D2*
X23970D1*
X16350Y27885D2*
Y29050D1*
Y30320D1*
X18890Y29050D2*
Y30320D1*
Y29050D2*
Y27888D1*
X12433Y21430D2*
X11270D1*
X10000D1*
X12433Y16350D2*
X11270D1*
X10000D1*
X21430Y12433D2*
Y11270D1*
Y10000D1*
X16147Y20847D2*
X16033D1*
X15516Y20329D1*
Y17083D1*
X19663Y12936D1*
X19880D1*
X21369Y11446D1*
Y12493D1*
X21430Y12433D1*
X16350D2*
X17039D1*
Y14152D1*
X14325Y16866D1*
Y23357D1*
X14894Y23927D1*
X16680D1*
X17580D1*
Y27478D1*
X17622Y27521D1*
X16350Y12433D2*
Y11270D1*
Y10000D1*
X18480Y23027D2*
X20592D1*
X20746Y22872D1*
X20910D1*
X21205Y22577D1*
Y20330D1*
X20171Y19296D1*
X18480Y23027D2*
X17580Y23927D1*
X16680D2*
D3*
Y23027D2*
X17580D1*
X18480Y23927D2*
X17580D1*
Y24827D1*
X16680D1*
X17580D2*
X18480D1*
X17622Y27521D2*
Y27086D1*
X13247D1*
D15*
X12425Y27908D1*
X12217D1*
X17622Y27118D2*
D13*
X19664D1*
X20956Y25826D1*
X14310Y14326D2*
Y16866D1*
X12435Y26510D2*
X11270D1*
X10000D1*
X12433Y23970D2*
X11270D1*
X10000D1*
D40*
X17146Y19385D3*
X19690Y21827D3*
X17826Y20957D3*
X19772Y20945D3*
X15680Y22296D3*
X19422Y18786D3*
X17925Y18480D3*
X18640Y17876D3*
X17622Y27521D3*
X20171Y19296D3*
X16147Y20847D3*
X15011Y21610D3*
X12217Y27908D3*
X20956Y25826D3*
X14310Y14326D3*
X14869Y29473D2*
D16*
X15292D1*
X17409D2*
X17832D1*
X19949D2*
X20372D1*
X14869Y29349D2*
X15292D1*
X17409D2*
X17832D1*
X19949D2*
X20372D1*
X14869Y29226D2*
X15292D1*
X17409D2*
X17832D1*
X19949D2*
X20372D1*
X14869Y29102D2*
X15292D1*
X17409D2*
X17832D1*
X19949D2*
X20372D1*
X12652Y28978D2*
X12752D1*
X14869D2*
X15292D1*
X17409D2*
X17832D1*
X19949D2*
X20372D1*
X22489D2*
X22586D1*
X12529Y28855D2*
X12752D1*
X14869D2*
X15292D1*
X17409D2*
X17832D1*
X19949D2*
X20372D1*
X22489D2*
X22711D1*
X12406Y28731D2*
X12752D1*
X14869D2*
X15292D1*
X17409D2*
X17832D1*
X19949D2*
X20372D1*
X22489D2*
X22834D1*
X12281Y28607D2*
X12752D1*
X14869D2*
X15292D1*
X17409D2*
X17832D1*
X19949D2*
X20372D1*
X22489D2*
X22957D1*
X12158Y28484D2*
X12752D1*
X14869D2*
X15292D1*
X17409D2*
X17832D1*
X19949D2*
X20372D1*
X22489D2*
X23082D1*
X12035Y28360D2*
X12752D1*
X14869D2*
X15292D1*
X17409D2*
X17832D1*
X19949D2*
X20372D1*
X22489D2*
X23205D1*
X11910Y28236D2*
X12752D1*
X14869D2*
X15292D1*
X17409D2*
X17832D1*
X19949D2*
X20372D1*
X22489D2*
X23328D1*
X11787Y28113D2*
X12752D1*
X14869D2*
X15292D1*
X17409D2*
X17832D1*
X19949D2*
X20372D1*
X22489D2*
X23453D1*
X11664Y27989D2*
X12752D1*
X14869D2*
X15292D1*
X17409D2*
X17832D1*
X19949D2*
X20372D1*
X22489D2*
X23577D1*
X11539Y27865D2*
X12752D1*
X14869D2*
X15292D1*
X17409D2*
X17832D1*
X19949D2*
X20372D1*
X22489D2*
X23700D1*
X11416Y27742D2*
X12758D1*
X14863D2*
X15298D1*
X17403D2*
X17838D1*
X19943D2*
X20378D1*
X22483D2*
X23823D1*
X11293Y27618D2*
X12855D1*
X14765D2*
X15395D1*
X17305D2*
X17935D1*
X19845D2*
X20475D1*
X22385D2*
X23948D1*
X12684Y27494D2*
X13095D1*
X14525D2*
X15635D1*
X17065D2*
X18175D1*
X19605D2*
X20715D1*
X22145D2*
X22555D1*
X12757Y27371D2*
X13335D1*
X14283D2*
X15875D1*
X16823D2*
X18415D1*
X19363D2*
X20955D1*
X21903D2*
X22483D1*
X12821Y27247D2*
X22420D1*
X12884Y27123D2*
X22356D1*
X12948Y27000D2*
X22293D1*
X13003Y26876D2*
X22237D1*
X13007Y26752D2*
X22231D1*
X13007Y26629D2*
X22231D1*
X13007Y26505D2*
X22231D1*
X13007Y26381D2*
X22231D1*
X13007Y26258D2*
X22231D1*
X13001Y26134D2*
X22239D1*
X12942Y26010D2*
X22299D1*
X12878Y25887D2*
X22362D1*
X12815Y25763D2*
X22426D1*
X12751Y25639D2*
X22489D1*
X12674Y25516D2*
X22566D1*
X10736Y25392D2*
X24503D1*
X10736Y25268D2*
X24503D1*
X10736Y25145D2*
X24503D1*
X10736Y25021D2*
X24503D1*
X12724Y24897D2*
X22517D1*
X12787Y24774D2*
X22453D1*
X12851Y24650D2*
X22390D1*
X12914Y24526D2*
X22326D1*
X12978Y24403D2*
X22263D1*
X13007Y24279D2*
X22231D1*
X13007Y24155D2*
X22231D1*
X13007Y24032D2*
X22231D1*
X13007Y23908D2*
X22231D1*
X13007Y23784D2*
X22231D1*
X13007Y23661D2*
X22231D1*
X12978Y23537D2*
X22263D1*
X12912Y23413D2*
X22326D1*
X12849Y23290D2*
X22390D1*
X12785Y23166D2*
X22453D1*
X12722Y23042D2*
X22517D1*
X10736Y22919D2*
X24503D1*
X10736Y22795D2*
X15466D1*
X15895D2*
X19137D1*
X20135D2*
X24503D1*
X10736Y22671D2*
X15282D1*
X16079D2*
X19006D1*
X20266D2*
X24503D1*
X10736Y22548D2*
X15193D1*
X20391D2*
X24503D1*
X12674Y22424D2*
X15145D1*
X20514D2*
X22564D1*
X12751Y22300D2*
X15129D1*
X20637D2*
X22489D1*
X12815Y22177D2*
X15143D1*
X20742D2*
X22424D1*
X12878Y22053D2*
X14692D1*
X20784D2*
X22360D1*
X12942Y21929D2*
X14565D1*
X16087D2*
X19149D1*
X20788D2*
X22297D1*
X13001Y21806D2*
X14498D1*
X15914D2*
X19139D1*
X20788D2*
X22239D1*
X13007Y21682D2*
X14466D1*
X15557D2*
X19040D1*
X20788D2*
X22231D1*
X13007Y21558D2*
X14462D1*
X15559D2*
X18917D1*
X20788D2*
X22231D1*
X13007Y21435D2*
X14490D1*
X15533D2*
X17564D1*
X18087D2*
X18804D1*
X20788D2*
X22231D1*
X13007Y21311D2*
X14552D1*
X15472D2*
X15861D1*
X16432D2*
X17407D1*
X18244D2*
X18754D1*
X20788D2*
X22231D1*
X13007Y21187D2*
X14667D1*
X15416D2*
X15716D1*
X16575D2*
X17326D1*
X18325D2*
X18749D1*
X20788D2*
X22231D1*
X13003Y21064D2*
X14696D1*
X15416D2*
X15641D1*
X16653D2*
X17286D1*
X18367D2*
X18749D1*
X20788D2*
X22237D1*
X12948Y20940D2*
X14696D1*
X15416D2*
X15603D1*
X16688D2*
X17276D1*
X18377D2*
X18749D1*
X20788D2*
X22293D1*
X12884Y20816D2*
X14696D1*
X15416D2*
X15498D1*
X16696D2*
X17294D1*
X18357D2*
X18749D1*
X20788D2*
X22356D1*
X12821Y20693D2*
X14696D1*
X16674D2*
X17336D1*
X18308D2*
X18671D1*
X20788D2*
X22420D1*
X12757Y20569D2*
X14696D1*
X16621D2*
X17213D1*
X18210D2*
X18548D1*
X20788D2*
X22483D1*
X12684Y20445D2*
X14696D1*
X16518D2*
X17088D1*
X18097D2*
X18425D1*
X20760D2*
X22557D1*
X10736Y20322D2*
X14696D1*
X16276D2*
X16625D1*
X17972D2*
X18302D1*
X20671D2*
X24503D1*
X10736Y20198D2*
X14696D1*
X15889D2*
X16500D1*
X17849D2*
X18177D1*
X20548D2*
X24503D1*
X10736Y20074D2*
X14696D1*
X15877D2*
X16377D1*
X17726D2*
X18054D1*
X20425D2*
X24503D1*
X10736Y19951D2*
X14696D1*
X15877D2*
X16254D1*
X17603D2*
X17931D1*
X20300D2*
X24503D1*
X12718Y19827D2*
X14696D1*
X15877D2*
X16165D1*
X17478D2*
X17806D1*
X20177D2*
X22523D1*
X12781Y19703D2*
X14696D1*
X15877D2*
X16135D1*
X17593D2*
X17683D1*
X20054D2*
X22459D1*
X12845Y19580D2*
X14696D1*
X15877D2*
X16135D1*
X19929D2*
X22396D1*
X12908Y19456D2*
X14696D1*
X15877D2*
X16135D1*
X19806D2*
X22332D1*
X12972Y19332D2*
X14696D1*
X15877D2*
X16135D1*
X19683D2*
X22269D1*
X13007Y19209D2*
X14696D1*
X15877D2*
X16135D1*
X19768D2*
X22231D1*
X13007Y19085D2*
X14696D1*
X15877D2*
X16135D1*
X19881D2*
X22231D1*
X13007Y18961D2*
X14696D1*
X15877D2*
X16153D1*
X19943D2*
X22231D1*
X13007Y18838D2*
X14696D1*
X15877D2*
X16226D1*
X19970D2*
X22231D1*
X13007Y18714D2*
X14696D1*
X15877D2*
X16349D1*
X19969D2*
X22231D1*
X13007Y18590D2*
X14696D1*
X15877D2*
X16474D1*
X19935D2*
X22231D1*
X12982Y18467D2*
X14696D1*
X15877D2*
X16597D1*
X19867D2*
X22259D1*
X12918Y18343D2*
X14696D1*
X15877D2*
X17391D1*
X19000D2*
X19104D1*
X19740D2*
X22322D1*
X12855Y18219D2*
X14696D1*
X15877D2*
X17443D1*
X19068D2*
X22386D1*
X12791Y18096D2*
X14696D1*
X15877D2*
X17536D1*
X19143D2*
X22449D1*
X12728Y17972D2*
X14696D1*
X15877D2*
X17736D1*
X19183D2*
X22513D1*
X12579Y17848D2*
X14696D1*
X15877D2*
X18090D1*
X19191D2*
X22662D1*
X10736Y17725D2*
X14696D1*
X15877D2*
X18112D1*
X19169D2*
X24503D1*
X10736Y17601D2*
X14696D1*
X15877D2*
X18165D1*
X19115D2*
X24503D1*
X10736Y17477D2*
X14696D1*
X15877D2*
X18266D1*
X19014D2*
X24503D1*
X12664Y17354D2*
X14696D1*
X15877D2*
X18497D1*
X18784D2*
X22576D1*
X12747Y17230D2*
X14696D1*
X15877D2*
X22493D1*
X12811Y17106D2*
X14696D1*
X15996D2*
X22430D1*
X12874Y16983D2*
X14696D1*
X16121D2*
X22366D1*
X12938Y16859D2*
X14696D1*
X16244D2*
X22303D1*
X12999Y16735D2*
X14726D1*
X16367D2*
X22241D1*
X13007Y16612D2*
X14817D1*
X16492D2*
X22231D1*
X13007Y16488D2*
X14941D1*
X16615D2*
X22231D1*
X13007Y16364D2*
X15066D1*
X16738D2*
X22231D1*
X13007Y16241D2*
X15189D1*
X16863D2*
X22231D1*
X13007Y16117D2*
X15312D1*
X16986D2*
X22231D1*
X13005Y15993D2*
X15435D1*
X17109D2*
X22235D1*
X12952Y15870D2*
X15560D1*
X17234D2*
X22289D1*
X12888Y15746D2*
X15683D1*
X17357D2*
X22352D1*
X12825Y15622D2*
X15806D1*
X17480D2*
X22416D1*
X12761Y15499D2*
X15931D1*
X17605D2*
X22479D1*
X12692Y15375D2*
X16054D1*
X17728D2*
X22547D1*
X10736Y15251D2*
X16177D1*
X17851D2*
X24503D1*
X10736Y15128D2*
X16302D1*
X17976D2*
X24503D1*
X10736Y15004D2*
X16425D1*
X18099D2*
X24503D1*
X10736Y14880D2*
X16548D1*
X18222D2*
X24503D1*
X12712Y14757D2*
X16673D1*
X18345D2*
X22527D1*
X12777Y14633D2*
X16796D1*
X18470D2*
X22463D1*
X12841Y14509D2*
X16919D1*
X18593D2*
X22400D1*
X12904Y14386D2*
X17044D1*
X18716D2*
X22336D1*
X12968Y14262D2*
X17167D1*
X18841D2*
X22273D1*
X13007Y14138D2*
X17290D1*
X18964D2*
X22231D1*
X13007Y14015D2*
X17415D1*
X19087D2*
X22231D1*
X13007Y13891D2*
X17538D1*
X19212D2*
X22231D1*
X13007Y13767D2*
X17661D1*
X19335D2*
X22231D1*
X13007Y13644D2*
X17786D1*
X19459D2*
X22231D1*
X13007Y13520D2*
X17909D1*
X19584D2*
X22231D1*
X12987Y13396D2*
X18032D1*
X19707D2*
X22253D1*
X12922Y13273D2*
X18157D1*
X19978D2*
X22316D1*
X12858Y13149D2*
X18280D1*
X20171D2*
X22380D1*
X12795Y13025D2*
X18403D1*
X20294D2*
X22443D1*
X12731Y12902D2*
X13242D1*
X14377D2*
X18322D1*
X20419D2*
X20862D1*
X21997D2*
X22507D1*
X12612Y12778D2*
X13002D1*
X14619D2*
X18082D1*
X20542D2*
X20622D1*
X22239D2*
X22628D1*
X11340Y12654D2*
X12797D1*
X14823D2*
X17877D1*
X22443D2*
X23900D1*
X11463Y12531D2*
X12752D1*
X14869D2*
X17832D1*
X22489D2*
X23775D1*
X11588Y12407D2*
X12752D1*
X14869D2*
X17832D1*
X22489D2*
X23652D1*
X11712Y12283D2*
X12752D1*
X14869D2*
X17832D1*
X22489D2*
X23529D1*
X11835Y12160D2*
X12752D1*
X14869D2*
X17832D1*
X22489D2*
X23404D1*
X11960Y12036D2*
X12752D1*
X14869D2*
X17832D1*
X22489D2*
X23281D1*
X12083Y11912D2*
X12752D1*
X14869D2*
X17832D1*
X22489D2*
X23158D1*
X12206Y11789D2*
X12752D1*
X14869D2*
X17832D1*
X22489D2*
X23033D1*
X12331Y11665D2*
X12752D1*
X14869D2*
X17832D1*
X22489D2*
X22910D1*
X12454Y11541D2*
X12752D1*
X14869D2*
X17832D1*
X22489D2*
X22787D1*
X12577Y11418D2*
X12752D1*
X14869D2*
X17832D1*
X22489D2*
X22662D1*
X14869Y11294D2*
X17832D1*
X14869Y11170D2*
X17832D1*
X14869Y11047D2*
X17832D1*
X14869Y10923D2*
X17832D1*
X14869Y10799D2*
X17832D1*
X10725Y22476D2*
X12266Y22474D1*
X12319Y22476D1*
X12530D1*
X12592Y22465D1*
X12648Y22436D1*
X12693Y22388D1*
X12733Y22313D1*
X12974Y21844D1*
X12993Y21782D1*
X12996Y21692D1*
Y21105D1*
X12984Y21041D1*
X12945Y20959D1*
X12704Y20491D1*
X12666Y20440D1*
X12614Y20404D1*
X12552Y20386D1*
X12467Y20384D1*
X10724D1*
Y19934D1*
X11074Y19936D1*
X11212Y19934D1*
X11417Y19936D1*
X12266Y19934D1*
X12319Y19936D1*
X12530D1*
X12592Y19925D1*
X12648Y19896D1*
X12693Y19848D1*
X12733Y19773D1*
X12974Y19304D1*
X12993Y19242D1*
X12996Y19152D1*
Y18565D1*
X12984Y18501D1*
X12945Y18419D1*
X12704Y17951D1*
X12666Y17900D1*
X12614Y17864D1*
X12552Y17846D1*
X12467Y17844D1*
X10724D1*
Y17394D1*
X11074Y17396D1*
X11212Y17394D1*
X11417Y17396D1*
X12266Y17394D1*
X12319Y17396D1*
X12530D1*
X12592Y17385D1*
X12648Y17356D1*
X12693Y17308D1*
X12733Y17233D1*
X12974Y16764D1*
X12993Y16702D1*
X12996Y16612D1*
Y16025D1*
X12984Y15961D1*
X12945Y15879D1*
X12704Y15411D1*
X12666Y15360D1*
X12614Y15324D1*
X12552Y15306D1*
X12467Y15304D1*
X10724D1*
Y14854D1*
X11074Y14856D1*
X11212Y14854D1*
X11417Y14856D1*
X12266Y14854D1*
X12319Y14856D1*
X12530D1*
X12592Y14845D1*
X12648Y14816D1*
X12693Y14768D1*
X12733Y14693D1*
X12974Y14224D1*
X12993Y14162D1*
X12996Y14072D1*
Y13485D1*
X12984Y13421D1*
X12945Y13339D1*
X12704Y12871D1*
X12666Y12820D1*
X12614Y12784D1*
X12552Y12766D1*
X12467Y12764D1*
X11216D1*
X11648Y12334D1*
X12766Y11216D1*
X12764Y11417D1*
X12766Y12266D1*
X12764Y12319D1*
Y12530D1*
X12775Y12592D1*
X12804Y12648D1*
X12852Y12693D1*
X12927Y12733D1*
X13396Y12974D1*
X13458Y12993D1*
X13549Y12996D1*
X14135D1*
X14199Y12984D1*
X14281Y12945D1*
X14749Y12704D1*
X14800Y12666D1*
X14836Y12614D1*
X14854Y12552D1*
X14856Y12467D1*
Y10724D1*
X17846D1*
X17844Y11074D1*
X17846Y11212D1*
X17844Y11417D1*
X17846Y12266D1*
X17844Y12324D1*
Y12530D1*
X17855Y12592D1*
X17884Y12648D1*
X17932Y12693D1*
X18007Y12733D1*
X18470Y12971D1*
X14811Y16630D1*
X14770Y16679D1*
X14739Y16734D1*
X14719Y16794D1*
X14709Y16876D1*
Y21165D1*
X14630Y21231D1*
X14588Y21278D1*
X14552Y21330D1*
X14522Y21386D1*
X14499Y21445D1*
X14483Y21507D1*
X14474Y21570D1*
X14473Y21633D1*
X14480Y21696D1*
X14494Y21758D1*
X14515Y21818D1*
X14543Y21875D1*
X14577Y21929D1*
X14617Y21977D1*
X14663Y22021D1*
X14714Y22059D1*
X14769Y22091D1*
X14827Y22116D1*
X14888Y22135D1*
X14951Y22145D1*
X15014Y22149D1*
X15077Y22145D1*
X15172Y22123D1*
X15152Y22192D1*
X15143Y22255D1*
X15142Y22319D1*
X15149Y22382D1*
X15163Y22444D1*
X15184Y22503D1*
X15212Y22560D1*
X15246Y22614D1*
X15286Y22663D1*
X15332Y22707D1*
X15383Y22745D1*
X15438Y22777D1*
X15496Y22802D1*
X15557Y22820D1*
X15620Y22831D1*
X15683Y22834D1*
X15746Y22830D1*
X15809Y22819D1*
X15869Y22800D1*
X15927Y22774D1*
X15982Y22742D1*
X16032Y22703D1*
X16092Y22642D1*
X16569Y22644D1*
X18992D1*
X19105Y22757D1*
X19153Y22798D1*
X19209Y22829D1*
X19269Y22849D1*
X19351Y22859D1*
X19923D1*
X19986Y22853D1*
X20047Y22836D1*
X20104Y22808D1*
X20169Y22757D1*
X20674Y22252D1*
X20714Y22203D1*
X20746Y22148D1*
X20766Y22088D1*
X20776Y22006D1*
Y20582D1*
X20770Y20519D1*
X20753Y20458D1*
X20725Y20401D1*
X20674Y20336D1*
X19623Y19285D1*
X19723Y19232D1*
X19774Y19194D1*
X19819Y19149D1*
X19859Y19100D1*
X19893Y19047D1*
X19921Y18989D1*
X19941Y18929D1*
X19954Y18867D1*
X19960Y18786D1*
X19957Y18723D1*
X19945Y18660D1*
X19927Y18600D1*
X19902Y18541D1*
X19869Y18487D1*
X19831Y18436D1*
X19787Y18390D1*
X19738Y18350D1*
X19684Y18316D1*
X19627Y18288D1*
X19567Y18268D1*
X19505Y18254D1*
X19442Y18248D1*
X19379Y18249D1*
X19316Y18258D1*
X19254Y18274D1*
X19195Y18297D1*
X19140Y18328D1*
X19088Y18364D1*
X19040Y18406D1*
X18988Y18468D1*
Y18286D1*
X19037Y18239D1*
X19077Y18190D1*
X19111Y18136D1*
X19139Y18079D1*
X19159Y18019D1*
X19172Y17957D1*
X19179Y17876D1*
X19175Y17812D1*
X19164Y17750D1*
X19145Y17689D1*
X19120Y17631D1*
X19088Y17576D1*
X19049Y17526D1*
X19005Y17480D1*
X18956Y17440D1*
X18903Y17406D1*
X18846Y17378D1*
X18786Y17357D1*
X18724Y17344D1*
X18660Y17338D1*
X18597Y17339D1*
X18534Y17348D1*
X18473Y17364D1*
X18414Y17387D1*
X18358Y17417D1*
X18306Y17453D1*
X18258Y17496D1*
X18216Y17543D1*
X18180Y17595D1*
X18150Y17651D1*
X18127Y17711D1*
X18112Y17772D1*
X18103Y17835D1*
X18102Y17898D1*
X18112Y17975D1*
X18009Y17948D1*
X17945Y17942D1*
X17882Y17944D1*
X17819Y17952D1*
X17758Y17969D1*
X17699Y17992D1*
X17643Y18022D1*
X17591Y18058D1*
X17543Y18101D1*
X17501Y18148D1*
X17465Y18200D1*
X17435Y18256D1*
X17413Y18315D1*
X17399Y18367D1*
X16853D1*
X16790Y18372D1*
X16729Y18390D1*
X16672Y18417D1*
X16607Y18469D1*
X16250Y18826D1*
X16209Y18875D1*
X16178Y18930D1*
X16158Y18990D1*
X16148Y19072D1*
Y19688D1*
X16154Y19751D1*
X16171Y19813D1*
X16199Y19869D1*
X16250Y19934D1*
X16622Y20307D1*
X16671Y20348D1*
X16727Y20379D1*
X16787Y20399D1*
X16869Y20409D1*
X17065D1*
X17354Y20698D1*
X17313Y20792D1*
X17297Y20854D1*
X17289Y20917D1*
X17288Y20980D1*
X17294Y21043D1*
X17308Y21105D1*
X17329Y21165D1*
X17357Y21222D1*
X17391Y21275D1*
X17432Y21324D1*
X17478Y21368D1*
X17529Y21406D1*
X17583Y21438D1*
X17642Y21463D1*
X17702Y21482D1*
X17765Y21492D1*
X17828Y21496D1*
X17892Y21492D1*
X17954Y21480D1*
X18015Y21462D1*
X18073Y21436D1*
X18127Y21404D1*
X18178Y21365D1*
X18223Y21321D1*
X18263Y21271D1*
X18297Y21218D1*
X18325Y21161D1*
X18345Y21101D1*
X18358Y21038D1*
X18364Y20957D1*
X18361Y20894D1*
X18349Y20832D1*
X18331Y20771D1*
X18306Y20713D1*
X18273Y20658D1*
X18235Y20607D1*
X18191Y20562D1*
X18134Y20516D1*
X18081Y20442D1*
X17462Y19822D1*
X17543Y19749D1*
X17590Y19691D1*
X17684D1*
X18761Y20769D1*
Y21247D1*
X18767Y21310D1*
X18784Y21371D1*
X18812Y21428D1*
X18863Y21493D1*
X19153Y21787D1*
X19152Y21850D1*
X19166Y21950D1*
X19072Y21948D1*
X16090Y21946D1*
X16046Y21900D1*
X15997Y21860D1*
X15943Y21826D1*
X15886Y21798D1*
X15826Y21777D1*
X15764Y21764D1*
X15701Y21758D1*
X15637Y21759D1*
X15574Y21768D1*
X15523Y21781D1*
X15544Y21692D1*
X15550Y21610D1*
X15546Y21547D1*
X15535Y21485D1*
X15517Y21424D1*
X15491Y21366D1*
X15459Y21311D1*
X15406Y21245D1*
X15405Y20710D1*
X15613Y20919D1*
X15629Y20995D1*
X15650Y21055D1*
X15678Y21112D1*
X15712Y21165D1*
X15753Y21214D1*
X15798Y21258D1*
X15849Y21296D1*
X15904Y21328D1*
X15962Y21353D1*
X16023Y21371D1*
X16086Y21382D1*
X16149Y21385D1*
X16212Y21381D1*
X16275Y21370D1*
X16335Y21351D1*
X16393Y21325D1*
X16448Y21293D1*
X16498Y21254D1*
X16544Y21210D1*
X16584Y21161D1*
X16618Y21107D1*
X16645Y21050D1*
X16666Y20990D1*
X16679Y20928D1*
X16685Y20847D1*
X16681Y20783D1*
X16670Y20721D1*
X16652Y20660D1*
X16626Y20602D1*
X16594Y20547D1*
X16556Y20497D1*
X16512Y20451D1*
X16463Y20411D1*
X16409Y20377D1*
X16352Y20349D1*
X16292Y20328D1*
X16230Y20315D1*
X16167Y20309D1*
X16103Y20310D1*
X16008Y20327D1*
X15863Y20184D1*
Y17227D1*
X19807Y13284D1*
X19943Y13278D1*
X20004Y13261D1*
X20061Y13233D1*
X20126Y13182D1*
X20565Y12743D1*
X21016Y12974D1*
X21078Y12993D1*
X21169Y12996D1*
X21755D1*
X21819Y12984D1*
X21901Y12945D1*
X22369Y12704D1*
X22420Y12666D1*
X22456Y12614D1*
X22474Y12552D1*
X22476Y12467D1*
Y11216D1*
X22906Y11648D1*
X24024Y12766D1*
X23823Y12764D1*
X22974Y12766D1*
X22921Y12764D1*
X22710D1*
X22648Y12775D1*
X22592Y12804D1*
X22547Y12852D1*
X22507Y12927D1*
X22266Y13396D1*
X22247Y13458D1*
X22244Y13549D1*
Y14135D1*
X22256Y14199D1*
X22295Y14281D1*
X22536Y14749D1*
X22574Y14800D1*
X22626Y14836D1*
X22688Y14854D1*
X22774Y14856D1*
X24516D1*
X24517Y15306D1*
X24166Y15304D1*
X24028Y15306D1*
X23823Y15304D1*
X22974Y15306D1*
X22921Y15304D1*
X22710D1*
X22648Y15315D1*
X22592Y15344D1*
X22547Y15392D1*
X22507Y15467D1*
X22266Y15936D1*
X22247Y15998D1*
X22244Y16089D1*
Y16675D1*
X22256Y16739D1*
X22295Y16821D1*
X22536Y17289D1*
X22574Y17340D1*
X22626Y17376D1*
X22688Y17394D1*
X22774Y17396D1*
X24516D1*
X24517Y17846D1*
X24166Y17844D1*
X24028Y17846D1*
X23823Y17844D1*
X22974Y17846D1*
X22921Y17844D1*
X22710D1*
X22648Y17855D1*
X22592Y17884D1*
X22547Y17932D1*
X22507Y18007D1*
X22266Y18476D1*
X22247Y18538D1*
X22244Y18629D1*
Y19215D1*
X22256Y19279D1*
X22295Y19361D1*
X22536Y19829D1*
X22574Y19880D1*
X22626Y19916D1*
X22688Y19934D1*
X22774Y19936D1*
X24516D1*
X24517Y20386D1*
X24166Y20384D1*
X24028Y20386D1*
X23823Y20384D1*
X22974Y20386D1*
X22921Y20384D1*
X22710D1*
X22648Y20395D1*
X22592Y20424D1*
X22547Y20472D1*
X22507Y20547D1*
X22266Y21016D1*
X22247Y21078D1*
X22244Y21169D1*
Y21755D1*
X22256Y21819D1*
X22295Y21901D1*
X22536Y22369D1*
X22574Y22420D1*
X22626Y22456D1*
X22688Y22474D1*
X22774Y22476D1*
X24516D1*
X24517Y22926D1*
X24166Y22924D1*
X24028Y22926D1*
X23823Y22924D1*
X22974Y22926D1*
X22916Y22924D1*
X22710D1*
X22648Y22935D1*
X22592Y22964D1*
X22547Y23012D1*
X22507Y23087D1*
X22266Y23556D1*
X22247Y23618D1*
X22244Y23709D1*
Y24295D1*
X22256Y24359D1*
X22295Y24441D1*
X22536Y24909D1*
X22574Y24960D1*
X22626Y24996D1*
X22688Y25014D1*
X22774Y25016D1*
X24516D1*
X24517Y25466D1*
X24166Y25464D1*
X24028Y25466D1*
X23823Y25464D1*
X22974Y25466D1*
X22921Y25464D1*
X22710D1*
X22648Y25475D1*
X22592Y25504D1*
X22547Y25552D1*
X22507Y25627D1*
X22266Y26096D1*
X22247Y26158D1*
X22244Y26249D1*
Y26835D1*
X22256Y26899D1*
X22295Y26981D1*
X22536Y27449D1*
X22574Y27500D1*
X22626Y27536D1*
X22688Y27554D1*
X22774Y27556D1*
X24024D1*
X23592Y27986D1*
X22474Y29104D1*
X22476Y28903D1*
X22474Y28054D1*
X22476Y27996D1*
Y27790D1*
X22465Y27728D1*
X22436Y27672D1*
X22388Y27627D1*
X22313Y27587D1*
X21844Y27346D1*
X21782Y27327D1*
X21692Y27324D1*
X21105D1*
X21041Y27336D1*
X20959Y27375D1*
X20491Y27616D1*
X20440Y27654D1*
X20404Y27706D1*
X20386Y27768D1*
X20384Y27854D1*
Y29596D1*
X19934Y29597D1*
X19936Y29246D1*
X19934Y29108D1*
X19936Y28903D1*
X19934Y28054D1*
X19936Y28001D1*
Y27790D1*
X19925Y27728D1*
X19896Y27672D1*
X19848Y27627D1*
X19773Y27587D1*
X19304Y27346D1*
X19242Y27327D1*
X19152Y27324D1*
X18565D1*
X18501Y27336D1*
X18419Y27375D1*
X17951Y27616D1*
X17900Y27654D1*
X17864Y27706D1*
X17846Y27768D1*
X17844Y27854D1*
Y29596D1*
X17394Y29597D1*
X17396Y29246D1*
X17394Y29108D1*
X17396Y28903D1*
X17394Y28054D1*
X17396Y27996D1*
Y27790D1*
X17385Y27728D1*
X17356Y27672D1*
X17308Y27627D1*
X17233Y27587D1*
X16764Y27346D1*
X16702Y27327D1*
X16612Y27324D1*
X16025D1*
X15961Y27336D1*
X15879Y27375D1*
X15411Y27616D1*
X15360Y27654D1*
X15324Y27706D1*
X15306Y27768D1*
X15304Y27854D1*
Y29596D1*
X14854Y29597D1*
X14856Y29246D1*
X14854Y29108D1*
X14856Y28903D1*
X14854Y28054D1*
X14856Y28001D1*
Y27790D1*
X14845Y27728D1*
X14816Y27672D1*
X14768Y27627D1*
X14693Y27587D1*
X14224Y27346D1*
X14162Y27327D1*
X14072Y27324D1*
X13485D1*
X13421Y27336D1*
X13339Y27375D1*
X12871Y27616D1*
X12820Y27654D1*
X12784Y27706D1*
X12766Y27768D1*
X12764Y27854D1*
Y29104D1*
X12334Y28672D1*
X11216Y27554D1*
X11417Y27556D1*
X12266Y27554D1*
X12324Y27556D1*
X12530D1*
X12592Y27545D1*
X12648Y27516D1*
X12693Y27468D1*
X12733Y27393D1*
X12974Y26924D1*
X12993Y26862D1*
X12996Y26772D1*
Y26185D1*
X12984Y26121D1*
X12945Y26039D1*
X12704Y25571D1*
X12666Y25520D1*
X12614Y25484D1*
X12552Y25466D1*
X12467Y25464D1*
X10724D1*
Y25014D1*
X11074Y25016D1*
X11212Y25014D1*
X11417Y25016D1*
X12266Y25014D1*
X12319Y25016D1*
X12530D1*
X12592Y25005D1*
X12648Y24976D1*
X12693Y24928D1*
X12733Y24853D1*
X12974Y24384D1*
X12993Y24322D1*
X12996Y24232D1*
Y23645D1*
X12984Y23581D1*
X12945Y23499D1*
X12704Y23031D1*
X12666Y22980D1*
X12614Y22944D1*
X12552Y22926D1*
X12467Y22924D1*
X10724D1*
Y22474D1*
X11074Y22476D1*
X11212Y22474D1*
D20*
X11270Y21430D3*
Y18890D3*
Y16350D3*
Y13810D3*
G36*
X12530Y18040D2*
X12065D1*
Y19740D1*
X12530D1*
X12800Y19215D1*
Y18565D1*
X12530Y18040D1*
G37*
G36*
Y20580D2*
X12065D1*
Y22280D1*
X12530D1*
X12800Y21755D1*
Y21105D1*
X12530Y20580D1*
G37*
G36*
Y12960D2*
X12065D1*
Y14660D1*
X12530D1*
X12800Y14135D1*
Y13485D1*
X12530Y12960D1*
G37*
G36*
Y15500D2*
X12065D1*
Y17200D1*
X12530D1*
X12800Y16675D1*
Y16025D1*
X12530Y15500D1*
G37*
D21*
X10000Y21430D3*
Y18890D3*
Y16350D3*
Y13810D3*
D20*
X23970D3*
Y16350D3*
Y18890D3*
Y21430D3*
G36*
X22710Y17200D2*
X23175D1*
Y15500D1*
X22710D1*
X22440Y16025D1*
Y16675D1*
X22710Y17200D1*
G37*
G36*
Y14660D2*
X23175D1*
Y12960D1*
X22710D1*
X22440Y13485D1*
Y14135D1*
X22710Y14660D1*
G37*
G36*
Y22280D2*
X23175D1*
Y20580D1*
X22710D1*
X22440Y21105D1*
Y21755D1*
X22710Y22280D1*
G37*
G36*
Y19740D2*
X23175D1*
Y18040D1*
X22710D1*
X22440Y18565D1*
Y19215D1*
X22710Y19740D1*
G37*
D21*
X25240Y13810D3*
Y16350D3*
Y18890D3*
Y21430D3*
D20*
X23970Y23970D3*
Y26510D3*
D21*
X25240Y23970D3*
Y26510D3*
G36*
X22710Y27360D2*
X23175D1*
Y25660D1*
X22710D1*
X22440Y26185D1*
Y26835D1*
X22710Y27360D1*
G37*
G36*
Y24820D2*
X23170D1*
Y23120D1*
X22710D1*
X22440Y23645D1*
Y24295D1*
X22710Y24820D1*
G37*
D22*
X16350Y29050D3*
X13810D3*
D23*
X16350Y30320D3*
X13810D3*
G36*
X12960Y27790D2*
Y28255D1*
X14660D1*
Y27790D1*
X14135Y27520D1*
X13485D1*
X12960Y27790D1*
G37*
G36*
X15500D2*
Y28250D1*
X17200D1*
Y27790D1*
X16675Y27520D1*
X16025D1*
X15500Y27790D1*
G37*
D22*
X16350Y11270D3*
X13810D3*
G36*
X14660Y12530D2*
Y12065D1*
X12960D1*
Y12530D1*
X13485Y12800D1*
X14135D1*
X14660Y12530D1*
G37*
G36*
X17200D2*
Y12065D1*
X15500D1*
Y12530D1*
X16025Y12800D1*
X16675D1*
X17200Y12530D1*
G37*
D23*
X16350Y10000D3*
X13810D3*
D22*
X18890Y11270D3*
X21430D3*
D23*
X18890Y10000D3*
X21430D3*
G36*
X22280Y12530D2*
Y12065D1*
X20580D1*
Y12530D1*
X21105Y12800D1*
X21755D1*
X22280Y12530D1*
G37*
G36*
X19740D2*
Y12070D1*
X18040D1*
Y12530D1*
X18565Y12800D1*
X19215D1*
X19740Y12530D1*
G37*
D22*
X21430Y29050D3*
X18890D3*
D23*
X21430Y30320D3*
X18890D3*
G36*
X18040Y27790D2*
Y28255D1*
X19740D1*
Y27790D1*
X19215Y27520D1*
X18565D1*
X18040Y27790D1*
G37*
G36*
X20580D2*
Y28250D1*
X22280D1*
Y27790D1*
X21755Y27520D1*
X21105D1*
X20580Y27790D1*
G37*
D20*
X11270Y26510D3*
Y23970D3*
D21*
X10000Y26510D3*
Y23970D3*
G36*
X12530Y23120D2*
X12065D1*
Y24820D1*
X12530D1*
X12800Y24295D1*
Y23645D1*
X12530Y23120D1*
G37*
G36*
Y25660D2*
X12070D1*
Y27360D1*
X12530D1*
X12800Y26835D1*
Y26185D1*
X12530Y25660D1*
G37*
D35*
X18480Y23027D3*
X17580D3*
X16680D3*
X18480Y23927D3*
X17580D3*
X16680D3*
X18480Y24827D3*
X17580D3*
X16680D3*
G36*
X20162Y23858D2*
X20352Y23887D1*
X20499Y23947D1*
X20593Y24023D1*
X20670Y24099D1*
X20733Y24212D1*
X20759Y24277D1*
X20779Y24372D1*
X20789Y24423D1*
X20794Y24505D1*
X20771Y24570D1*
X20733Y24608D1*
X20708Y24634D1*
X20695Y24698D1*
X20700Y24723D1*
X20715Y24774D1*
X20746Y24801D1*
X20664Y24900D1*
X20588Y24850D1*
X20570D1*
X20534Y24939D1*
X20479Y24951D1*
X20378Y24961D1*
X20484Y24709D1*
Y24677D1*
X20477Y24634D1*
X20454Y24624D1*
X20403Y24644D1*
X20339Y24759D1*
X20269Y24931D1*
X20218Y24906D1*
X20163Y24842D1*
X20238Y24652D1*
X20200Y24658D1*
X20162D1*
Y23858D1*
G37*
M02*
