G04 DipTrace 2.4.0.2*
%INi2cswitch.gtl*%
%MOMM*%
%ADD10C,0.25*%
%ADD13C,0.305*%
%ADD14C,0.28*%
%ADD16C,0.127*%
%ADD17C,0.254*%
%ADD19R,0.7X0.9*%
%ADD20R,1.6X1.7*%
%ADD21R,2.032X1.7*%
%ADD22R,1.7X1.6*%
%ADD23R,1.7X2.032*%
%ADD25R,0.525X0.5*%
%ADD26R,0.25X0.5*%
%ADD28R,0.4X0.5*%
%ADD33O,1.0X0.28*%
%ADD34O,0.28X1.0*%
%ADD35C,0.711*%
%ADD36R,2.7X2.7*%
%ADD39R,0.737X1.2*%
%ADD40C,0.686*%
%FSLAX53Y53*%
G04*
G71*
G90*
G75*
G01*
%LNTop*%
%LPD*%
X17554Y19310D2*
D13*
X17146D1*
Y19385D1*
X19690Y21827D2*
X18879D1*
D14*
X18830Y21877D1*
X13810Y11270D2*
D13*
Y10852D1*
X16127Y13169D1*
Y14294D1*
X17957D1*
X17960Y14291D1*
X19762D1*
X19791Y14320D1*
X17554Y20210D2*
X17060Y20703D1*
Y20923D1*
X17294Y21356D1*
X17330Y21877D1*
X13810Y15264D2*
Y15017D1*
X14788D1*
Y14969D1*
X15113D1*
X15510Y14572D1*
Y14294D1*
X16127D1*
X14788Y15264D2*
Y15017D1*
X14870Y18430D2*
Y17212D1*
Y15345D1*
X14788Y15264D1*
X17554Y20210D2*
X16696D1*
X16302Y19817D1*
Y19284D1*
X16743Y18844D1*
Y17966D1*
X16301Y17525D1*
X15182D1*
X14870Y17212D1*
X17830Y21877D2*
D14*
X17826Y21224D1*
D13*
Y20957D1*
X17925Y18480D2*
X17882Y18479D1*
X17830Y18496D1*
X17951Y18306D1*
X17977Y18539D1*
D10*
X18194Y19310D1*
X16127Y15782D2*
D13*
Y15581D1*
X16284D1*
X17452Y16749D1*
Y17660D1*
X17882Y18090D1*
Y18480D1*
X18694Y19310D2*
D10*
X18664D1*
Y19144D1*
D13*
Y18026D1*
X17960Y17322D1*
Y15779D1*
X18330Y21877D2*
D14*
Y21373D1*
D13*
X18705Y20998D1*
X19719D1*
X19772Y20945D1*
X18640Y17876D2*
X18664Y17899D1*
Y18026D1*
X19791Y15808D2*
X19328D1*
Y18695D1*
X19231Y18792D1*
Y19212D1*
X19329Y19310D1*
X19422Y18786D2*
X19328Y18695D1*
X15530Y22677D2*
D14*
Y22446D1*
D13*
X15680Y22296D1*
X19630Y23177D2*
D14*
X20715D1*
D13*
X21498D1*
X21936Y22739D1*
Y18840D1*
X24426Y16350D1*
X23970D1*
X19630Y24177D2*
D14*
X20715D1*
D13*
X22197D1*
X22863Y23511D1*
Y22752D1*
X24185Y21430D1*
X23970D1*
X19630Y25177D2*
D14*
Y26017D1*
D13*
X21546Y27932D1*
X22548D1*
X23970Y26510D1*
X16830Y25977D2*
D14*
Y26723D1*
X16757Y26796D1*
D13*
X15692D1*
X13810Y28677D1*
Y29050D1*
X18830Y25977D2*
D14*
X18920D1*
D13*
X20958Y28015D1*
Y28578D1*
X21430Y29050D1*
X15530Y24177D2*
D14*
X15310D1*
D13*
X13215D1*
X12878Y23840D1*
Y20498D1*
X11270Y18890D1*
X15530Y23177D2*
D14*
X15310D1*
D13*
X14039D1*
X13827Y22964D1*
Y19941D1*
X13674D1*
X12857Y19124D1*
Y17688D1*
X12392Y17223D1*
Y14932D1*
X11270Y13810D1*
X14958Y21054D2*
Y21180D1*
X15028Y21250D1*
Y21646D1*
X16061D1*
D14*
X16291Y21877D1*
X16330D1*
X15011Y21610D2*
D13*
Y21180D1*
X14958D1*
X19630Y22677D2*
D14*
X20715D1*
D13*
X21104D1*
X21470Y22310D1*
Y18635D1*
X22832Y17272D1*
Y14948D1*
X23970Y13810D1*
X19630Y23677D2*
D14*
X20715D1*
D13*
X21795D1*
X22401Y23071D1*
Y20459D1*
X23970Y18890D1*
X19630Y24677D2*
D14*
X20715D1*
D13*
X24677D1*
X23970Y23970D1*
X17330Y25977D2*
D14*
Y26885D1*
X16705Y27449D1*
D13*
X16628Y27717D1*
Y28772D1*
X16350Y29050D1*
X18330Y25977D2*
D14*
Y26497D1*
D13*
X19094Y27261D1*
Y29050D1*
X18890D1*
X15530Y24677D2*
D14*
X15310D1*
D13*
X13035D1*
X12393Y24035D1*
Y22553D1*
X11270Y21430D1*
X15530Y23677D2*
D14*
X15310D1*
D13*
X13590D1*
X13343Y23430D1*
Y20283D1*
X12377Y19317D1*
Y17893D1*
X10833Y16350D1*
X11270D1*
X15658Y21054D2*
Y20924D1*
X16130D1*
X16593Y21001D1*
D14*
X16809Y21512D1*
X16830Y21877D1*
X16147Y20847D2*
D13*
X16130Y20863D1*
Y20924D1*
X18194Y20210D2*
D10*
X18694D1*
X18606D1*
D13*
X19329D1*
Y20313D1*
X20346Y19296D1*
X20171D1*
X17830Y25977D2*
D14*
Y27313D1*
D13*
X17622Y27521D1*
X18480Y24827D2*
X17580Y23927D1*
Y23027D2*
X18480D1*
X14788Y13964D2*
X14673D1*
X14310Y14326D1*
X13810Y13964D2*
X13948D1*
X14310Y14326D1*
X16330Y25977D2*
Y25658D1*
X12712D1*
X11678Y26691D1*
X11089D1*
X11270Y26510D1*
X15530Y25177D2*
D14*
X15310D1*
D13*
X12477D1*
X11270Y23970D1*
X15658Y20054D2*
Y18734D1*
X15962Y18430D1*
X14958Y20054D2*
X14721D1*
X13937Y19270D1*
Y18589D1*
X13777Y18430D1*
D40*
X17146Y19385D3*
X19690Y21827D3*
X17826Y20957D3*
X19772Y20945D3*
X15680Y22296D3*
X19422Y18786D3*
X17925Y18480D3*
X18640Y17876D3*
X17622Y27521D3*
X20171Y19296D3*
X16147Y20847D3*
X15011Y21610D3*
X12217Y27908D3*
X20956Y25826D3*
X14310Y14326D3*
X20056Y22266D2*
D16*
X20975D1*
X20171Y22142D2*
X21084D1*
X20232Y22018D2*
X21084D1*
X20262Y21895D2*
X21084D1*
X20262Y21771D2*
X21084D1*
X20236Y21647D2*
X21084D1*
X20177Y21524D2*
X21084D1*
X20117Y21400D2*
X21084D1*
X20240Y21276D2*
X21084D1*
X17061Y21153D2*
X17284D1*
X20308D2*
X21084D1*
X17010Y21029D2*
X17254D1*
X20342D2*
X21084D1*
X16966Y20905D2*
X17252D1*
X20348D2*
X21084D1*
X16907Y20782D2*
X17278D1*
X20324D2*
X21084D1*
X16752Y20658D2*
X17058D1*
X20270D2*
X21084D1*
X16629Y20534D2*
X17058D1*
X20171D2*
X21084D1*
X16516Y20411D2*
X17058D1*
X19965D2*
X21084D1*
X16222Y20287D2*
X17058D1*
X19895D2*
X21084D1*
X16091Y20163D2*
X17058D1*
X20018D2*
X21084D1*
X16091Y20040D2*
X17058D1*
X20141D2*
X21084D1*
X16091Y19916D2*
X16943D1*
X20266D2*
X21084D1*
X16091Y19792D2*
X16742D1*
X20451D2*
X21084D1*
X16091Y19669D2*
X16645D1*
X20605D2*
X21084D1*
X16043Y19545D2*
X16593D1*
X20689D2*
X21084D1*
X16043Y19421D2*
X16572D1*
X20732D2*
X21084D1*
X16043Y19298D2*
X16576D1*
X20746D2*
X21084D1*
X16188Y19174D2*
X16611D1*
X20734D2*
X21084D1*
X16375Y19050D2*
X16681D1*
X20691D2*
X21084D1*
X16504Y18927D2*
X16806D1*
X20609D2*
X21084D1*
X16565Y18803D2*
X17451D1*
X20457D2*
X21084D1*
X16621Y18679D2*
X17385D1*
X19988D2*
X21084D1*
X16645Y18556D2*
X17354D1*
X19949D2*
X21092D1*
X16665Y18432D2*
X17352D1*
X19873D2*
X21144D1*
X16645Y18308D2*
X17375D1*
X19732D2*
X21257D1*
X16621Y18185D2*
X17433D1*
X19715D2*
X21380D1*
X16567Y18061D2*
X17312D1*
X19715D2*
X21503D1*
X16506Y17937D2*
X17189D1*
X19715D2*
X21628D1*
X13243Y17814D2*
X13357D1*
X16381D2*
X17100D1*
X19715D2*
X21751D1*
X13243Y17690D2*
X13540D1*
X16200D2*
X17068D1*
X19715D2*
X21874D1*
X13222Y17566D2*
X13839D1*
X15899D2*
X17066D1*
X19715D2*
X21999D1*
X13150Y17443D2*
X17066D1*
X19715D2*
X22122D1*
X13029Y17319D2*
X17066D1*
X19715D2*
X22245D1*
X12904Y17195D2*
X17066D1*
X19715D2*
X22370D1*
X12781Y17072D2*
X17066D1*
X19715D2*
X22447D1*
X12777Y16948D2*
X17066D1*
X19715D2*
X22447D1*
X12777Y16824D2*
X16986D1*
X19715D2*
X22447D1*
X12777Y16701D2*
X16863D1*
X19715D2*
X22447D1*
X12777Y16577D2*
X15855D1*
X16399D2*
X16740D1*
X20125D2*
X22447D1*
X12777Y16453D2*
X15599D1*
X20353D2*
X22447D1*
X12777Y16330D2*
X15490D1*
X20756D2*
X22447D1*
X12777Y16206D2*
X15135D1*
X20756D2*
X22447D1*
X12777Y16082D2*
X15135D1*
X20756D2*
X22447D1*
X12777Y15959D2*
X15135D1*
X20756D2*
X22447D1*
X12777Y15835D2*
X13226D1*
X20756D2*
X22447D1*
X12777Y15711D2*
X13226D1*
X20756D2*
X22447D1*
X12777Y15588D2*
X13226D1*
X20756D2*
X22447D1*
X12777Y15464D2*
X13226D1*
X20770D2*
X22447D1*
X12777Y15340D2*
X13226D1*
X20770D2*
X22447D1*
X12777Y15217D2*
X13226D1*
X20770D2*
X22447D1*
X12777Y15093D2*
X13226D1*
X20770D2*
X22447D1*
X12777Y14969D2*
X13226D1*
X20770D2*
X22447D1*
X12767Y14846D2*
X13226D1*
X20770D2*
X22461D1*
X12714Y14722D2*
X13226D1*
X20770D2*
X22523D1*
X12599Y14598D2*
X13226D1*
X20770D2*
X22642D1*
X12476Y14475D2*
X13226D1*
X20625D2*
X22765D1*
X12350Y14351D2*
X13226D1*
X16960D2*
X17127D1*
X18794D2*
X18957D1*
X20625D2*
X22888D1*
X12303Y14227D2*
X13226D1*
X16960D2*
X17127D1*
X18794D2*
X18957D1*
X20625D2*
X22938D1*
X12303Y14104D2*
X13226D1*
X16950D2*
X17137D1*
X18784D2*
X18979D1*
X20604D2*
X22938D1*
X12303Y13980D2*
X13226D1*
X16903D2*
X17183D1*
X18738D2*
X19024D1*
X20558D2*
X22938D1*
X12303Y13856D2*
X13226D1*
X16839D2*
X17244D1*
X18675D2*
X19096D1*
X20486D2*
X22938D1*
X12303Y13733D2*
X13226D1*
X15371D2*
X15500D1*
X16754D2*
X17332D1*
X18589D2*
X19183D1*
X20399D2*
X22938D1*
X12303Y13609D2*
X13226D1*
X15371D2*
X15627D1*
X16627D2*
X17455D1*
X18466D2*
X19344D1*
X20240D2*
X22938D1*
X12303Y13485D2*
X13226D1*
X15371D2*
X15927D1*
X16325D2*
X17744D1*
X18175D2*
X19739D1*
X19842D2*
X22938D1*
X12303Y13362D2*
X13226D1*
X15371D2*
X22938D1*
X12303Y13238D2*
X22938D1*
X12303Y13114D2*
X22938D1*
X12303Y12991D2*
X22938D1*
X12303Y12867D2*
X22938D1*
X12303Y12743D2*
X22938D1*
X11350Y12620D2*
X23888D1*
X11477Y12496D2*
X23763D1*
X11602Y12372D2*
X23636D1*
X11729Y12249D2*
X15266D1*
X17432D2*
X17806D1*
X19972D2*
X20346D1*
X22512D2*
X23511D1*
X11854Y12125D2*
X15266D1*
X17432D2*
X17806D1*
X19972D2*
X20346D1*
X22512D2*
X23386D1*
X11979Y12001D2*
X15266D1*
X17432D2*
X17806D1*
X19972D2*
X20346D1*
X22512D2*
X23259D1*
X12106Y11878D2*
X15266D1*
X17432D2*
X17806D1*
X19972D2*
X20346D1*
X22512D2*
X23134D1*
X12231Y11754D2*
X15266D1*
X17432D2*
X17806D1*
X19972D2*
X20346D1*
X22512D2*
X23007D1*
X12358Y11630D2*
X15266D1*
X17432D2*
X17806D1*
X19972D2*
X20346D1*
X22512D2*
X22882D1*
X12483Y11507D2*
X15266D1*
X17432D2*
X17806D1*
X19972D2*
X20346D1*
X22512D2*
X22757D1*
X12608Y11383D2*
X15266D1*
X17432D2*
X17806D1*
X19972D2*
X20346D1*
X22512D2*
X22630D1*
X12735Y11259D2*
X15266D1*
X17432D2*
X17806D1*
X19972D2*
X20346D1*
X14892Y11136D2*
X15266D1*
X17432D2*
X17806D1*
X19972D2*
X20346D1*
X14892Y11012D2*
X15266D1*
X17432D2*
X17806D1*
X19972D2*
X20346D1*
X14892Y10888D2*
X15266D1*
X17432D2*
X17806D1*
X19972D2*
X20346D1*
X14892Y10765D2*
X15266D1*
X17432D2*
X17806D1*
X19972D2*
X20346D1*
X15493Y16316D2*
X15546Y16391D1*
X15579Y16429D1*
X15628Y16462D1*
X15828Y16562D1*
X15888Y16582D1*
X16088Y16618D1*
X16166D1*
X16366Y16582D1*
X16426Y16562D1*
X16627Y16461D1*
X16648Y16473D1*
X17079Y16904D1*
X17078Y17660D1*
X17084Y17723D1*
X17100Y17785D1*
X17126Y17842D1*
X17167Y17902D1*
X17447Y18184D1*
X17415Y18241D1*
X17391Y18300D1*
X17374Y18361D1*
X17364Y18424D1*
X17361Y18487D1*
X17366Y18550D1*
X17377Y18613D1*
X17395Y18673D1*
X17420Y18732D1*
X17452Y18787D1*
X17491Y18840D1*
X17285Y18839D1*
X17206Y18825D1*
X17143Y18821D1*
X17079Y18825D1*
X17017Y18836D1*
X16956Y18854D1*
X16897Y18879D1*
X16842Y18910D1*
X16791Y18947D1*
X16744Y18990D1*
X16702Y19038D1*
X16665Y19090D1*
X16635Y19146D1*
X16612Y19204D1*
X16595Y19266D1*
X16585Y19328D1*
X16582Y19392D1*
X16586Y19455D1*
X16598Y19517D1*
X16616Y19578D1*
X16641Y19637D1*
X16672Y19692D1*
X16710Y19743D1*
X16753Y19790D1*
X16801Y19831D1*
X16853Y19867D1*
X16909Y19897D1*
X16968Y19920D1*
X17071Y19943D1*
X17070Y20681D1*
X17335D1*
X17292Y20777D1*
X17275Y20838D1*
X17265Y20900D1*
X17262Y20964D1*
X17266Y21027D1*
X17278Y21090D1*
X17298Y21156D1*
X17225Y21171D1*
X17166Y21195D1*
X17113Y21228D1*
X17089Y21248D1*
X16961Y20945D1*
X16949Y20889D1*
X16925Y20831D1*
X16891Y20777D1*
X16849Y20730D1*
X16800Y20690D1*
X16744Y20660D1*
X16668Y20636D1*
X16623Y20546D1*
X16587Y20494D1*
X16544Y20447D1*
X16497Y20405D1*
X16445Y20368D1*
X16389Y20338D1*
X16330Y20314D1*
X16269Y20296D1*
X16207Y20286D1*
X16143Y20283D1*
X16078Y20287D1*
Y19583D1*
X16029D1*
X16031Y19292D1*
Y19227D1*
X16170Y19176D1*
X16219Y19151D1*
X16419Y19011D1*
X16457Y18977D1*
X16490Y18928D1*
X16590Y18728D1*
X16610Y18671D1*
X16648Y18471D1*
Y18388D1*
X16610Y18188D1*
X16590Y18131D1*
X16490Y17931D1*
X16456Y17881D1*
X16419Y17848D1*
X16219Y17708D1*
X16170Y17683D1*
X16010Y17623D1*
X15933Y17609D1*
X15887D1*
Y17487D1*
X14827Y17489D1*
X14697Y17487D1*
X13852D1*
Y17608D1*
X13807Y17609D1*
X13729Y17623D1*
X13569Y17683D1*
X13520Y17708D1*
X13320Y17848D1*
X13279Y17886D1*
X13249Y17931D1*
X13230Y17968D1*
Y17688D1*
X13225Y17625D1*
X13209Y17563D1*
X13183Y17505D1*
X13141Y17446D1*
X12766Y17069D1*
X12765Y15064D1*
Y14932D1*
X12760Y14869D1*
X12744Y14807D1*
X12718Y14749D1*
X12676Y14690D1*
X12290Y14302D1*
X12291Y13547D1*
Y12739D1*
X11215D1*
X11656Y12308D1*
X12747Y11236D1*
X13946Y11237D1*
X14881D1*
Y10723D1*
X15280Y10724D1*
X15279Y11237D1*
Y12291D1*
X17421D1*
Y10723D1*
X17820Y10724D1*
X17819Y11237D1*
Y12291D1*
X19961D1*
Y10723D1*
X20360Y10724D1*
X20359Y11237D1*
Y12291D1*
X22501D1*
Y11241D1*
X23041Y11774D1*
X24024Y12740D1*
X24003Y12741D1*
X23784Y12739D1*
X22949D1*
Y14305D1*
X22583Y14669D1*
X22527Y14732D1*
X22495Y14787D1*
X22473Y14846D1*
X22460Y14918D1*
X22459Y15773D1*
Y17117D1*
X21206Y18370D1*
X21165Y18419D1*
X21133Y18474D1*
X21111Y18533D1*
X21098Y18605D1*
X21097Y19460D1*
Y22157D1*
X20949Y22303D1*
X20715D1*
X20651Y22309D1*
X20623Y22316D1*
X19972D1*
X20050Y22261D1*
X20096Y22218D1*
X20138Y22170D1*
X20173Y22117D1*
X20203Y22061D1*
X20226Y22002D1*
X20242Y21940D1*
X20254Y21827D1*
X20250Y21764D1*
X20239Y21701D1*
X20222Y21640D1*
X20197Y21582D1*
X20167Y21526D1*
X20130Y21475D1*
X20077Y21418D1*
X20132Y21378D1*
X20178Y21335D1*
X20220Y21287D1*
X20255Y21234D1*
X20285Y21178D1*
X20308Y21119D1*
X20324Y21058D1*
X20336Y20945D1*
X20332Y20881D1*
X20321Y20819D1*
X20304Y20758D1*
X20279Y20699D1*
X20249Y20644D1*
X20212Y20592D1*
X20169Y20545D1*
X20122Y20503D1*
X20070Y20466D1*
X20014Y20436D1*
X19956Y20412D1*
X19894Y20394D1*
X19810Y20383D1*
X19812Y20357D1*
X20335Y19834D1*
X20425Y19799D1*
X20480Y19767D1*
X20531Y19729D1*
X20578Y19686D1*
X20619Y19638D1*
X20655Y19585D1*
X20684Y19529D1*
X20707Y19470D1*
X20723Y19409D1*
X20735Y19296D1*
X20731Y19232D1*
X20721Y19170D1*
X20703Y19109D1*
X20679Y19050D1*
X20648Y18995D1*
X20611Y18943D1*
X20569Y18896D1*
X20521Y18853D1*
X20469Y18817D1*
X20414Y18786D1*
X20355Y18762D1*
X20294Y18745D1*
X20231Y18735D1*
X20168Y18732D1*
X20104Y18736D1*
X20042Y18747D1*
X19987Y18763D1*
X19971Y18660D1*
X19954Y18599D1*
X19929Y18541D1*
X19899Y18485D1*
X19862Y18433D1*
X19819Y18386D1*
X19772Y18344D1*
X19701Y18297D1*
Y16633D1*
X19752Y16644D1*
X19830D1*
X20030Y16608D1*
X20090Y16588D1*
X20290Y16488D1*
X20332Y16461D1*
X20372Y16417D1*
X20430Y16334D1*
X20743Y16335D1*
Y15555D1*
X20759Y15557D1*
Y14572D1*
X20693D1*
X20695Y14475D1*
X20610D1*
X20612Y14430D1*
X20609Y14160D1*
X20594Y14108D1*
X20522Y13926D1*
X20365Y13701D1*
X20329Y13665D1*
X20279Y13634D1*
X20055Y13526D1*
X19917Y13500D1*
X19792Y13481D1*
X19727Y13489D1*
X19516Y13530D1*
X19390Y13591D1*
X19260Y13660D1*
X19223Y13695D1*
X19070Y13911D1*
X19046Y13956D1*
X18977Y14144D1*
X18970Y14195D1*
X18971Y14449D1*
X18917Y14475D1*
X18898D1*
Y14461D1*
X18781D1*
X18780Y14144D1*
X18768Y14094D1*
X18697Y13908D1*
X18645Y13830D1*
X18517Y13653D1*
X18477Y13621D1*
X18259Y13511D1*
X18211Y13494D1*
X17974Y13453D1*
X17923Y13456D1*
X17697Y13497D1*
X17639Y13523D1*
X17429Y13631D1*
X17392Y13666D1*
X17239Y13882D1*
X17215Y13927D1*
X17146Y14116D1*
X17139Y14166D1*
Y14461D1*
X17060D1*
X17058Y14492D1*
Y14433D1*
X16949D1*
X16948Y14353D1*
X16945Y14134D1*
X16929Y14082D1*
X16857Y13900D1*
X16700Y13675D1*
X16665Y13639D1*
X16614Y13608D1*
X16390Y13500D1*
X16253Y13474D1*
X16128Y13455D1*
X16063Y13463D1*
X15851Y13504D1*
X15726Y13565D1*
X15596Y13634D1*
X15559Y13668D1*
X15406Y13885D1*
X15382Y13930D1*
X15359Y13991D1*
Y13293D1*
X14217Y13295D1*
X14000Y13293D1*
X13239D1*
X13241Y14635D1*
X13239Y14643D1*
Y15935D1*
X15147D1*
Y16317D1*
X15494D1*
X16127Y14294D2*
D17*
Y13456D1*
Y14294D2*
X16947D1*
X17960Y14291D2*
Y13453D1*
X17140Y14291D2*
X18781D1*
X19791Y14320D2*
Y13482D1*
X18971Y14320D2*
X20612D1*
X13810Y15934D2*
Y15264D1*
X13239D2*
X13810D1*
X14788Y15934D2*
Y15264D1*
X17070Y20210D2*
X17554D1*
X17330Y21877D2*
Y21156D1*
X17408Y29490D2*
D16*
X17833D1*
X17408Y29366D2*
X17833D1*
X17408Y29243D2*
X17833D1*
X17408Y29119D2*
X17833D1*
X12647Y28995D2*
X12753D1*
X17408D2*
X17833D1*
X12518Y28872D2*
X12753D1*
X17408D2*
X17833D1*
X12391Y28748D2*
X12753D1*
X17408D2*
X17833D1*
X12264Y28624D2*
X12753D1*
X17408D2*
X17833D1*
X12137Y28501D2*
X12753D1*
X17408D2*
X17833D1*
X12010Y28377D2*
X12753D1*
X17408D2*
X17833D1*
X11883Y28253D2*
X12753D1*
X17408D2*
X17833D1*
X11754Y28130D2*
X12753D1*
X17408D2*
X17833D1*
X11627Y28006D2*
X13977D1*
X16989D2*
X18734D1*
X11500Y27882D2*
X14100D1*
X16989D2*
X18734D1*
X11373Y27759D2*
X14225D1*
X16991D2*
X18734D1*
X11246Y27635D2*
X14348D1*
X17027D2*
X18734D1*
X12278Y27511D2*
X14471D1*
X17150D2*
X18734D1*
X21628D2*
X22464D1*
X12278Y27388D2*
X14596D1*
X17287D2*
X18716D1*
X21505D2*
X22587D1*
X12278Y27264D2*
X14719D1*
X17424D2*
X18593D1*
X21382D2*
X22712D1*
X12278Y27140D2*
X14842D1*
X17560D2*
X18468D1*
X21257D2*
X22835D1*
X12278Y27017D2*
X14965D1*
X17652D2*
X18345D1*
X21134D2*
X22958D1*
X12278Y26893D2*
X15090D1*
X17678D2*
X18222D1*
X21011D2*
X22962D1*
X12278Y26769D2*
X15213D1*
X17678D2*
X18099D1*
X20886D2*
X22962D1*
X12278Y26646D2*
X15336D1*
X17678D2*
X18003D1*
X20763D2*
X22962D1*
X12351Y26522D2*
X15465D1*
X17678D2*
X17970D1*
X20640D2*
X22962D1*
X12476Y26398D2*
X15987D1*
X17678D2*
X17982D1*
X20515D2*
X22962D1*
X12600Y26275D2*
X15981D1*
X17678D2*
X17982D1*
X20392D2*
X22962D1*
X12723Y26151D2*
X15981D1*
X17678D2*
X17982D1*
X20269D2*
X22962D1*
X12848Y26027D2*
X15973D1*
X17678D2*
X17982D1*
X20144D2*
X22962D1*
X17678Y25904D2*
X17982D1*
X20021D2*
X22962D1*
X17678Y25780D2*
X17982D1*
X19977D2*
X22962D1*
X17678Y25656D2*
X17982D1*
X19977D2*
X22962D1*
X17668Y25533D2*
X17993D1*
X19977D2*
X22962D1*
X17606Y25409D2*
X18053D1*
X20243D2*
X24484D1*
X16396Y25285D2*
X16765D1*
X16896D2*
X17265D1*
X17395D2*
X18265D1*
X18396D2*
X18765D1*
X20319D2*
X24484D1*
X16237Y25162D2*
X18922D1*
X20337D2*
X24484D1*
X16207Y25038D2*
X18952D1*
X20309D2*
X24484D1*
X16140Y24914D2*
X19021D1*
X16217Y24791D2*
X18942D1*
X16237Y24667D2*
X18922D1*
X16211Y24543D2*
X18950D1*
X16134Y24420D2*
X19027D1*
X16215Y24296D2*
X18944D1*
X16237Y24172D2*
X18922D1*
X16213Y24049D2*
X18948D1*
X16128Y23925D2*
X19031D1*
X16213Y23801D2*
X18946D1*
X16237Y23678D2*
X18922D1*
X16215Y23554D2*
X18946D1*
X16130Y23430D2*
X19029D1*
X16211Y23307D2*
X18948D1*
X16237Y23183D2*
X18922D1*
X16217Y23059D2*
X18944D1*
X16136Y22936D2*
X19023D1*
X16209Y22812D2*
X18950D1*
X16237Y22688D2*
X18922D1*
X16411Y22565D2*
X16749D1*
X16912D2*
X17249D1*
X17412D2*
X17749D1*
X17912D2*
X18249D1*
X18412D2*
X18749D1*
X24499Y25464D2*
X22974D1*
Y27014D1*
X22404Y27584D1*
X21688D1*
X20759Y26654D1*
X19966Y25861D1*
X19965Y25511D1*
X19990Y25512D1*
X20059Y25505D1*
X20120Y25486D1*
X20175Y25456D1*
X20225Y25416D1*
X20266Y25368D1*
X20297Y25313D1*
X20317Y25252D1*
X20325Y25177D1*
X20319Y25113D1*
X20302Y25053D1*
X20281Y25012D1*
X20624D1*
X20701Y25024D1*
X24499Y25025D1*
X24497Y25466D1*
X24293Y25464D1*
X24028Y25466D1*
X17396Y29567D2*
Y28054D1*
X16977D1*
X16976Y27766D1*
X17019Y27617D1*
X17555Y27134D1*
X17598Y27087D1*
X17631Y27033D1*
X17653Y26974D1*
X17663Y26923D1*
X17665Y26694D1*
X17663Y25617D1*
X17659Y25553D1*
X17642Y25493D1*
X17613Y25436D1*
X17574Y25386D1*
X17526Y25344D1*
X17471Y25312D1*
X17412Y25291D1*
X17349Y25282D1*
X17286Y25284D1*
X17224Y25298D1*
X17166Y25324D1*
X17114Y25360D1*
X17082Y25392D1*
X17026Y25344D1*
X16971Y25312D1*
X16912Y25291D1*
X16849Y25282D1*
X16786Y25284D1*
X16724Y25298D1*
X16666Y25324D1*
X16614Y25360D1*
X16582Y25392D1*
X16526Y25344D1*
X16471Y25312D1*
X16412Y25291D1*
X16349Y25282D1*
X16286Y25284D1*
X16224Y25298D1*
X16197Y25310D1*
X16217Y25252D1*
X16225Y25177D1*
X16219Y25113D1*
X16202Y25053D1*
X16173Y24996D1*
X16134Y24946D1*
X16111Y24927D1*
X16166Y24868D1*
X16197Y24813D1*
X16217Y24752D1*
X16225Y24677D1*
X16219Y24613D1*
X16202Y24553D1*
X16173Y24496D1*
X16134Y24446D1*
X16111Y24427D1*
X16166Y24368D1*
X16197Y24313D1*
X16217Y24252D1*
X16225Y24177D1*
X16219Y24113D1*
X16202Y24053D1*
X16173Y23996D1*
X16134Y23946D1*
X16111Y23927D1*
X16166Y23868D1*
X16197Y23813D1*
X16217Y23752D1*
X16225Y23677D1*
X16219Y23613D1*
X16202Y23553D1*
X16173Y23496D1*
X16134Y23446D1*
X16111Y23427D1*
X16166Y23368D1*
X16197Y23313D1*
X16217Y23252D1*
X16225Y23177D1*
X16219Y23113D1*
X16202Y23053D1*
X16173Y22996D1*
X16134Y22946D1*
X16111Y22927D1*
X16166Y22868D1*
X16197Y22813D1*
X16217Y22752D1*
X16225Y22677D1*
X16219Y22613D1*
X16197Y22544D1*
X16273Y22567D1*
X16336Y22572D1*
X16399Y22565D1*
X16460Y22546D1*
X16515Y22516D1*
X16579Y22460D1*
X16655Y22523D1*
X16712Y22551D1*
X16773Y22567D1*
X16836Y22572D1*
X16899Y22565D1*
X16960Y22546D1*
X17015Y22516D1*
X17079Y22460D1*
X17155Y22523D1*
X17212Y22551D1*
X17273Y22567D1*
X17336Y22572D1*
X17399Y22565D1*
X17460Y22546D1*
X17515Y22516D1*
X17579Y22460D1*
X17655Y22523D1*
X17712Y22551D1*
X17773Y22567D1*
X17836Y22572D1*
X17899Y22565D1*
X17960Y22546D1*
X18015Y22516D1*
X18079Y22460D1*
X18155Y22523D1*
X18212Y22551D1*
X18273Y22567D1*
X18336Y22572D1*
X18399Y22565D1*
X18460Y22546D1*
X18515Y22516D1*
X18579Y22460D1*
X18655Y22523D1*
X18712Y22551D1*
X18773Y22567D1*
X18836Y22572D1*
X18899Y22565D1*
X18961Y22545D1*
X18950Y22576D1*
X18936Y22638D1*
X18935Y22702D1*
X18946Y22764D1*
X18968Y22824D1*
X19001Y22878D1*
X19046Y22926D1*
X19009Y22965D1*
X18974Y23018D1*
X18950Y23076D1*
X18936Y23138D1*
X18935Y23202D1*
X18946Y23264D1*
X18968Y23324D1*
X19001Y23378D1*
X19046Y23426D1*
X19009Y23465D1*
X18974Y23518D1*
X18950Y23576D1*
X18936Y23638D1*
X18935Y23702D1*
X18946Y23764D1*
X18968Y23824D1*
X19001Y23878D1*
X19046Y23926D1*
X19009Y23965D1*
X18974Y24018D1*
X18950Y24076D1*
X18936Y24138D1*
X18935Y24202D1*
X18946Y24264D1*
X18968Y24324D1*
X19001Y24378D1*
X19046Y24426D1*
X19009Y24465D1*
X18974Y24518D1*
X18950Y24576D1*
X18936Y24638D1*
X18935Y24702D1*
X18946Y24764D1*
X18968Y24824D1*
X19001Y24878D1*
X19046Y24926D1*
X19009Y24965D1*
X18974Y25018D1*
X18950Y25076D1*
X18936Y25138D1*
X18935Y25202D1*
X18946Y25264D1*
X18962Y25307D1*
X18912Y25291D1*
X18849Y25282D1*
X18786Y25284D1*
X18724Y25298D1*
X18666Y25324D1*
X18614Y25360D1*
X18582Y25392D1*
X18526Y25344D1*
X18471Y25312D1*
X18412Y25291D1*
X18349Y25282D1*
X18286Y25284D1*
X18224Y25298D1*
X18166Y25324D1*
X18114Y25360D1*
X18069Y25405D1*
X18034Y25458D1*
X18010Y25516D1*
X17996Y25578D1*
X17994Y25680D1*
X17996Y26337D1*
X17994Y26407D1*
X17987Y26440D1*
X17982Y26503D1*
X17989Y26566D1*
X18007Y26627D1*
X18036Y26683D1*
X18084Y26743D1*
X18748Y27407D1*
X18746Y27833D1*
Y28053D1*
X18412Y28054D1*
X17844D1*
Y29563D1*
X17394Y29568D1*
X17396Y29309D1*
X17394Y29108D1*
X13941Y28054D2*
X12764D1*
Y29122D1*
X11150Y27554D1*
X11417Y27556D1*
X12266D1*
Y26597D1*
X12857Y26004D1*
X13664Y26006D1*
X15984D1*
X15995Y26064D1*
X15996Y26337D1*
X15995Y26362D1*
X16006Y26424D1*
X16015Y26448D1*
X15692D1*
X15628Y26453D1*
X15567Y26471D1*
X15510Y26499D1*
X15446Y26550D1*
X13940Y28055D1*
G36*
X16727Y15904D2*
Y15164D1*
X15527D1*
Y15904D1*
X15587Y16064D1*
X15727Y16264D1*
X15927Y16364D1*
X16127Y16400D1*
X16327Y16364D1*
X16527Y16264D1*
X16667Y16064D1*
X16727Y15904D1*
G37*
G36*
X15527Y14172D2*
Y14912D1*
X16727D1*
Y14172D1*
X16667Y14012D1*
X16527Y13812D1*
X16327Y13712D1*
X16127Y13676D1*
X15927Y13712D1*
X15727Y13812D1*
X15587Y14012D1*
X15527Y14172D1*
G37*
G36*
X18560Y15902D2*
Y15162D1*
X17360D1*
Y15902D1*
X17420Y16062D1*
X17560Y16262D1*
X17760Y16362D1*
X17960Y16397D1*
X18160Y16362D1*
X18360Y16262D1*
X18500Y16062D1*
X18560Y15902D1*
G37*
G36*
X17360Y14169D2*
Y14909D1*
X18560D1*
Y14169D1*
X18500Y14009D1*
X18360Y13809D1*
X18160Y13709D1*
X17960Y13673D1*
X17760Y13709D1*
X17560Y13809D1*
X17420Y14009D1*
X17360Y14169D1*
G37*
G36*
X20391Y15931D2*
Y15191D1*
X19191D1*
Y15931D1*
X19251Y16091D1*
X19391Y16291D1*
X19591Y16391D1*
X19791Y16426D1*
X19991Y16391D1*
X20191Y16291D1*
X20331Y16091D1*
X20391Y15931D1*
G37*
G36*
X19191Y14198D2*
Y14938D1*
X20391D1*
Y14198D1*
X20331Y14038D1*
X20191Y13838D1*
X19991Y13738D1*
X19791Y13702D1*
X19591Y13738D1*
X19391Y13838D1*
X19251Y14038D1*
X19191Y14198D1*
G37*
D19*
X13810Y15264D3*
Y13964D3*
X14788Y15264D3*
Y13964D3*
D20*
X11270Y21430D3*
Y18890D3*
Y16350D3*
Y13810D3*
D21*
X10000Y21430D3*
Y18890D3*
Y16350D3*
Y13810D3*
D20*
X23970D3*
Y16350D3*
Y18890D3*
Y21430D3*
D21*
X25240Y13810D3*
Y16350D3*
Y18890D3*
Y21430D3*
D20*
X23970Y23970D3*
Y26510D3*
D21*
X25240Y23970D3*
Y26510D3*
D22*
X16350Y29050D3*
X13810D3*
D23*
X16350Y30320D3*
X13810D3*
D22*
X16350Y11270D3*
X13810D3*
D23*
X16350Y10000D3*
X13810D3*
D22*
X18890Y11270D3*
X21430D3*
D23*
X18890Y10000D3*
X21430D3*
D22*
Y29050D3*
X18890D3*
D23*
X21430Y30320D3*
X18890D3*
D20*
X11270Y26510D3*
Y23970D3*
D21*
X10000Y26510D3*
Y23970D3*
D25*
X17554Y19310D3*
D26*
X18194D3*
X18694D3*
D25*
X19329D3*
Y20210D3*
D26*
X18694D3*
X18194D3*
D25*
X17554D3*
D28*
X15658Y21054D3*
X14958D3*
Y20054D3*
X15658D3*
D33*
X19630Y22677D3*
Y23177D3*
Y23677D3*
Y24177D3*
Y24677D3*
Y25177D3*
D34*
X18830Y25977D3*
X18330D3*
X17830D3*
X17330D3*
X16830D3*
X16330D3*
D33*
X15530Y25177D3*
Y24677D3*
Y24177D3*
Y23677D3*
Y23177D3*
Y22677D3*
D34*
X16330Y21877D3*
X16830D3*
X17330D3*
X17830D3*
X18330D3*
X18830D3*
D35*
X18480Y23027D3*
X17580D3*
X16680D3*
X18480Y23927D3*
X17580D3*
X16680D3*
X18480Y24827D3*
X17580D3*
X16680D3*
D36*
X17580Y23927D3*
G36*
X13807Y19030D2*
X14247D1*
Y17830D1*
X13807D1*
X13647Y17890D1*
X13447Y18030D1*
X13346Y18230D1*
X13308Y18430D1*
X13347Y18630D1*
X13447Y18830D1*
X13647Y18970D1*
X13807Y19030D1*
G37*
G36*
X15933Y17830D2*
X15493D1*
Y19030D1*
X15933D1*
X16093Y18970D1*
X16293Y18830D1*
X16393Y18630D1*
X16431Y18430D1*
X16393Y18230D1*
X16293Y18030D1*
X16093Y17890D1*
X15933Y17830D1*
G37*
D39*
X14870Y18430D3*
M02*
