G04 #@! TF.FileFunction,Profile,NP*
%FSLAX46Y46*%
G04 Gerber Fmt 4.6, Leading zero omitted, Abs format (unit mm)*
G04 Created by KiCad (PCBNEW (2015-08-30 BZR 6133)-product) date Fr 30 Okt 2015 20:42:02 CET*
%MOMM*%
G01*
G04 APERTURE LIST*
%ADD10C,0.100000*%
G04 APERTURE END LIST*
D10*
X80000000Y-81270000D02*
X80000000Y-81295000D01*
X85000000Y-81270000D02*
X80000000Y-81270000D01*
X85000000Y-79995000D02*
X85000000Y-81270000D01*
X85000000Y-114570000D02*
X80000000Y-114570000D01*
X85000000Y-119995000D02*
X85000000Y-114570000D01*
X80000000Y-86000000D02*
X80000000Y-81288000D01*
X80000000Y-109500000D02*
X80000000Y-114562000D01*
X107315000Y-76000000D02*
X107315000Y-124000000D01*
X107315000Y-124000000D02*
X93000000Y-124000000D01*
X92996322Y-123998927D02*
G75*
G02X85000000Y-120000000I7003678J23998927D01*
G01*
X85001058Y-79999206D02*
G75*
G02X93000000Y-76000000I14998942J-20000794D01*
G01*
X93000000Y-76000000D02*
X107315000Y-76000000D01*
X80000000Y-86000000D02*
X80000000Y-109500000D01*
M02*
