G04 #@! TF.FileFunction,Soldermask,Top*
%FSLAX46Y46*%
G04 Gerber Fmt 4.6, Leading zero omitted, Abs format (unit mm)*
G04 Created by KiCad (PCBNEW (2015-08-30 BZR 6133)-product) date Fr 30 Okt 2015 20:42:02 CET*
%MOMM*%
G01*
G04 APERTURE LIST*
%ADD10C,0.100000*%
%ADD11C,2.500000*%
%ADD12C,2.540000*%
%ADD13R,1.651000X1.651000*%
%ADD14C,1.600200*%
%ADD15C,3.500000*%
%ADD16R,1.397000X0.889000*%
%ADD17R,1.198880X2.799080*%
%ADD18R,1.000760X2.799080*%
%ADD19C,1.524000*%
%ADD20R,1.524000X1.524000*%
%ADD21R,1.998980X4.500880*%
%ADD22R,0.508000X1.270000*%
%ADD23C,0.700000*%
G04 APERTURE END LIST*
D10*
D11*
X82650000Y-112070000D03*
X82650000Y-83820000D03*
D12*
X87114000Y-95156400D03*
X87120200Y-100896800D03*
X87114000Y-106637200D03*
D13*
X92448000Y-83320000D03*
D14*
X92448000Y-80780000D03*
X89908000Y-83320000D03*
X89908000Y-80780000D03*
X87368000Y-83320000D03*
X87368000Y-80780000D03*
D15*
X104132000Y-107704000D03*
D16*
X92448000Y-104211500D03*
X92448000Y-106116500D03*
X92448000Y-110688500D03*
X92448000Y-108783500D03*
D17*
X81873980Y-96243140D03*
D18*
X83593560Y-96243140D03*
X81693640Y-99844860D03*
D10*
G36*
X84093940Y-98445320D02*
X84093940Y-101244400D01*
X83093180Y-101244400D01*
X83093180Y-98445320D01*
X84093940Y-98445320D01*
X84093940Y-98445320D01*
G37*
D13*
X95496000Y-118880000D03*
D14*
X95496000Y-116340000D03*
X98036000Y-118880000D03*
X98036000Y-116340000D03*
X100576000Y-118880000D03*
X100576000Y-116340000D03*
X103116000Y-118880000D03*
X103116000Y-116340000D03*
X105656000Y-118880000D03*
X105656000Y-116340000D03*
D13*
X95496000Y-83320000D03*
D14*
X95496000Y-80780000D03*
X98036000Y-83320000D03*
X98036000Y-80780000D03*
X100576000Y-83320000D03*
X100576000Y-80780000D03*
X103116000Y-83320000D03*
X103116000Y-80780000D03*
X105656000Y-83320000D03*
X105656000Y-80780000D03*
D16*
X105910000Y-101163500D03*
X105910000Y-103068500D03*
X103878000Y-101163500D03*
X103878000Y-103068500D03*
X101338000Y-101163500D03*
X101338000Y-103068500D03*
D19*
X92448000Y-102370000D03*
X92448000Y-92210000D03*
D16*
X92575000Y-98877500D03*
X92575000Y-96972500D03*
D12*
X87114000Y-89416000D03*
D20*
X88434800Y-119286400D03*
D19*
X88434800Y-116746400D03*
X88434800Y-114206400D03*
X88434800Y-111666400D03*
D21*
X96512000Y-102761160D03*
X96512000Y-111260000D03*
D22*
X94480000Y-98941000D03*
X95750000Y-98941000D03*
X97020000Y-98941000D03*
X98290000Y-98941000D03*
X99560000Y-98941000D03*
X100830000Y-98941000D03*
X102100000Y-98941000D03*
X103370000Y-98941000D03*
X104640000Y-98941000D03*
X105910000Y-98941000D03*
X105910000Y-89289000D03*
X104640000Y-89289000D03*
X103370000Y-89289000D03*
X102100000Y-89289000D03*
X100830000Y-89289000D03*
X99560000Y-89289000D03*
X98290000Y-89289000D03*
X97020000Y-89289000D03*
X95750000Y-89289000D03*
X94480000Y-89289000D03*
D23*
X82650000Y-85820000D03*
X83650000Y-85820000D03*
X84650000Y-85820000D03*
X81650000Y-85820000D03*
X80650000Y-85820000D03*
X82650000Y-110070000D03*
X81650000Y-110070000D03*
X80650000Y-110070000D03*
X83650000Y-110070000D03*
X84650000Y-110070000D03*
X84650000Y-82820000D03*
X84650000Y-81820000D03*
X84650000Y-83820000D03*
X84650000Y-84820000D03*
X84650000Y-112070000D03*
X84650000Y-111070000D03*
X84650000Y-113070000D03*
X84650000Y-114070000D03*
M02*
