G04 start of page 3 for group 1 idx 1 *
G04 Title: (unknown), ground *
G04 Creator: pcb 1.99z *
G04 CreationDate: Fri Jun 17 03:18:51 2011 UTC *
G04 For: apoelstra *
G04 Format: Gerber/RS-274X *
G04 PCB-Dimensions: 3000000 2000000 *
G04 PCB-Coordinate-Origin: lower left *
%MOIN*%
%FSLAX25Y25*%
%LNGROUP1*%
%ADD22C,0.6500*%
%ADD21C,0.7500*%
%ADD20C,1.0000*%
%ADD19C,0.5000*%
%ADD18C,0.2500*%
%ADD17C,0.1000*%
G54D17*X1497000Y1791000D02*G75*G03X2430000Y858000I933000J0D01*G01*
G54D18*X1861000Y1776000D02*G75*G02X2415000Y1222000I0J-554000D01*G01*
G54D19*X1845000Y1608000D02*G75*G02X2203000Y1250000I0J-358000D01*G01*
G54D20*X1845000Y1455000D02*G75*G02X2029000Y1271000I0J-184000D01*G01*
G54D21*X600000Y450000D03*
G54D22*Y290000D03*
G54D20*X450000Y600000D03*
X600000D03*
G54D22*X450000Y290000D03*
G54D21*Y450000D03*
G54D19*G54D18*G54D19*G54D18*G54D19*M02*
