G04 (created by PCBNEW (2013-07-07 BZR 4022)-stable) date 11/09/2013 12:50:20*
%MOIN*%
G04 Gerber Fmt 3.4, Leading zero omitted, Abs format*
%FSLAX34Y34*%
G01*
G70*
G90*
G04 APERTURE LIST*
%ADD10C,0.00590551*%
G04 APERTURE END LIST*
G54D10*
X0Y0D02*
G75*
G03X0Y0I0J0D01*
G74*
G01*
X0Y0D02*
X0Y0D01*
X0Y0D02*
X0Y0D01*
X196Y-22047D02*
X25000Y-22047D01*
X0Y-196D02*
X0Y-21850D01*
X15157Y0D02*
X196Y0D01*
X29133Y-14370D02*
X29133Y-196D01*
X25196Y-14566D02*
X28937Y-14566D01*
X25196Y-21850D02*
X25196Y-14566D01*
X0Y-196D02*
X196Y0D01*
X196Y-22047D02*
X0Y-21850D01*
X25196Y-21850D02*
X25000Y-22047D01*
X29133Y-14370D02*
X28937Y-14566D01*
X28937Y0D02*
X29133Y-196D01*
X20275Y0D02*
X28937Y0D01*
X20078Y-196D02*
X20275Y0D01*
X20078Y-5118D02*
X20078Y-196D01*
X20078Y-5511D02*
X20078Y-5118D01*
X15354Y-5511D02*
X20078Y-5511D01*
X15354Y-196D02*
X15354Y-5511D01*
X15157Y0D02*
X15354Y-196D01*
M02*
