%FSLAX25Y25*%
%MOIN*%
G70*
G01*
G75*
G04 Layer_Physical_Order=6*
G04 Layer_Color=16711680*
%ADD10O,0.01378X0.06693*%
%ADD11R,0.06693X0.04331*%
%ADD12R,0.11811X0.04331*%
%ADD13R,0.35827X0.41929*%
%ADD14R,0.10236X0.04331*%
%ADD15R,0.04331X0.06693*%
%ADD16R,0.05512X0.03937*%
%ADD17R,0.05512X0.12795*%
%ADD18O,0.07087X0.02362*%
%ADD19O,0.02165X0.07874*%
%ADD20O,0.07874X0.02165*%
%ADD21O,0.02756X0.09843*%
%ADD22C,0.01000*%
%ADD23C,0.02000*%
%ADD24C,0.02953*%
%ADD25C,0.03937*%
%ADD26C,0.04000*%
%ADD27C,0.01969*%
%ADD28R,0.05906X0.05906*%
%ADD29C,0.05906*%
%ADD30C,0.05512*%
%ADD31R,0.05906X0.05906*%
%ADD32C,0.07874*%
%ADD33C,0.03937*%
%ADD34C,0.05000*%
%ADD35C,0.07543*%
G04:AMPARAMS|DCode=36|XSize=93.465mil|YSize=93.465mil|CornerRadius=0mil|HoleSize=0mil|Usage=FLASHONLY|Rotation=0.000|XOffset=0mil|YOffset=0mil|HoleType=Round|Shape=Relief|Width=10mil|Gap=10mil|Entries=4|*
%AMTHD36*
7,0,0,0.09347,0.07347,0.01000,45*
%
%ADD36THD36*%
%ADD37C,0.07347*%
%ADD38C,0.08921*%
%ADD39C,0.05969*%
G04:AMPARAMS|DCode=40|XSize=79.685mil|YSize=79.685mil|CornerRadius=0mil|HoleSize=0mil|Usage=FLASHONLY|Rotation=0.000|XOffset=0mil|YOffset=0mil|HoleType=Round|Shape=Relief|Width=10mil|Gap=10mil|Entries=4|*
%AMTHD40*
7,0,0,0.07969,0.05969,0.01000,45*
%
%ADD40THD40*%
%ADD41C,0.06800*%
G04:AMPARAMS|DCode=42|XSize=95.433mil|YSize=95.433mil|CornerRadius=0mil|HoleSize=0mil|Usage=FLASHONLY|Rotation=0.000|XOffset=0mil|YOffset=0mil|HoleType=Round|Shape=Relief|Width=10mil|Gap=10mil|Entries=4|*
%AMTHD42*
7,0,0,0.09543,0.07543,0.01000,45*
%
%ADD42THD42*%
%ADD43C,0.02913*%
D22*
X240453Y487500D02*
X240551Y487402D01*
X240453Y487500D02*
X315650D01*
X312000Y179500D02*
X313968Y181468D01*
X336937D01*
X337303Y181102D02*
X513602D01*
X336937Y181468D02*
X337303Y181102D01*
X513602D02*
X515000Y182500D01*
X240158Y173228D02*
X240551D01*
X327949Y187004D02*
X331000Y190055D01*
X251000Y187000D02*
X327953D01*
X504724Y314173D02*
X505512D01*
X330650Y472500D02*
X510000D01*
X315650Y487500D02*
X330650Y472500D01*
X209055Y439555D02*
X210000Y440500D01*
X170866Y148819D02*
X171260D01*
X154500Y217886D02*
X154500D01*
X171260Y148819D02*
X171653Y148425D01*
X164500Y119500D02*
Y120405D01*
X124488Y119512D02*
X124500Y119500D01*
X515000Y204500D02*
Y206000D01*
X513500D02*
X515000Y204500D01*
X364500Y339500D02*
X365500Y338500D01*
X535500Y178500D02*
X544000Y187000D01*
X536000Y172500D02*
X536500Y173000D01*
X266500Y417000D02*
X280500Y431000D01*
X250000Y417000D02*
X266500D01*
X247000Y414000D02*
X250000Y417000D01*
X247000Y412000D02*
Y414000D01*
X286000Y435500D02*
X290500Y431000D01*
X274500Y435500D02*
X286000D01*
X273000Y434000D02*
X274500Y435500D01*
X273000Y429500D02*
Y434000D01*
X270500Y427000D02*
X273000Y429500D01*
X250000Y427000D02*
X270500D01*
X247000Y424000D02*
X250000Y427000D01*
X247000Y422000D02*
Y424000D01*
X296000Y435500D02*
X300500Y431000D01*
X296000Y435500D02*
Y444500D01*
X294000Y446500D02*
X296000Y444500D01*
X273000Y446500D02*
X294000D01*
X271000Y444500D02*
X273000Y446500D01*
X271000Y439000D02*
Y444500D01*
X269000Y437000D02*
X271000Y439000D01*
X252000Y437000D02*
X269000D01*
X247000Y432000D02*
X252000Y437000D01*
X309500Y431000D02*
X310500D01*
X305500Y435000D02*
X309500Y431000D01*
X305500Y435000D02*
Y447000D01*
X303500Y449000D02*
X305500Y447000D01*
X270000Y449000D02*
X303500D01*
X267500Y446500D02*
X270000Y449000D01*
X252000Y446500D02*
X267500D01*
X247500Y442000D02*
X252000Y446500D01*
X247000Y442000D02*
X247500D01*
X277000Y396500D02*
X280500D01*
X273000Y392500D02*
X277000Y396500D01*
X247000Y374000D02*
X250000Y377000D01*
X247000Y372000D02*
Y374000D01*
X290500Y396500D02*
Y399500D01*
X288000Y402000D02*
X290500Y399500D01*
X273000Y402000D02*
X288000D01*
X270500Y399500D02*
X273000Y402000D01*
X270500Y390000D02*
Y399500D01*
X267500Y387000D02*
X270500Y390000D01*
X252000Y387000D02*
X267500D01*
X247000Y382000D02*
X252000Y387000D01*
X296000Y401000D02*
X300500Y396500D01*
X296000Y401000D02*
Y412000D01*
X270500D02*
X296000D01*
X267500Y409000D02*
X270500Y412000D01*
X267500Y399500D02*
Y409000D01*
X265000Y397000D02*
X267500Y399500D01*
X250000Y397000D02*
X265000D01*
X247000Y394000D02*
X250000Y397000D01*
X306000Y401000D02*
X310500Y396500D01*
X306000Y401000D02*
Y410500D01*
X301500Y415000D02*
X306000Y410500D01*
X268500Y415000D02*
X301500D01*
X265000Y411500D02*
X268500Y415000D01*
X265000Y408500D02*
Y411500D01*
X263500Y407000D02*
X265000Y408500D01*
X250000Y407000D02*
X263500D01*
X247000Y404000D02*
X250000Y407000D01*
X247000Y402000D02*
Y404000D01*
X277000Y360500D02*
X280500D01*
X273000Y356500D02*
X277000Y360500D01*
X247000Y333500D02*
X250500Y337000D01*
X285500Y365500D02*
X290500Y360500D01*
X274000Y365500D02*
X285500D01*
X271000Y362500D02*
X274000Y365500D01*
X271000Y349500D02*
Y362500D01*
X268000Y346500D02*
X271000Y349500D01*
X250500Y346500D02*
X268000D01*
X247000Y343000D02*
X250500Y346500D01*
X296000Y365000D02*
X300500Y360500D01*
X296000Y365000D02*
Y375500D01*
X294500Y377000D02*
X296000Y375500D01*
X273000Y388500D02*
Y392500D01*
X261500Y377000D02*
X273000Y388500D01*
X250000Y377000D02*
X261500D01*
X272000D02*
X294500D01*
X268000Y373000D02*
X272000Y377000D01*
X268000Y360000D02*
Y373000D01*
X265000Y357000D02*
X268000Y360000D01*
X251000Y357000D02*
X265000D01*
X247000Y353000D02*
X251000Y357000D01*
X247000Y352000D02*
Y353000D01*
X305500Y365500D02*
X310500Y360500D01*
X305500Y365500D02*
Y377000D01*
X302500Y380000D02*
X305500Y377000D01*
X271500Y380000D02*
X302500D01*
X264500Y373000D02*
X271500Y380000D01*
X264500Y369500D02*
Y373000D01*
X262500Y367500D02*
X264500Y369500D01*
X250500Y367500D02*
X262500D01*
X247000Y364000D02*
X250500Y367500D01*
X247000Y362000D02*
Y364000D01*
X273000Y345500D02*
Y356500D01*
X271000Y343500D02*
X273000Y345500D01*
X265500Y343500D02*
X271000D01*
X259000Y337000D02*
X265500Y343500D01*
X250500Y337000D02*
X259000D01*
X276000Y323000D02*
X280500D01*
X269000Y316000D02*
X276000Y323000D01*
X269000Y300500D02*
Y316000D01*
X265000Y296500D02*
X269000Y300500D01*
X251500Y296500D02*
X265000D01*
X247000Y292000D02*
X251500Y296500D01*
X285500Y328000D02*
X290500Y323000D01*
X274500Y328000D02*
X285500D01*
X271000Y324500D02*
X274500Y328000D01*
X271000Y321500D02*
Y324500D01*
X266500Y317000D02*
X271000Y321500D01*
X266500Y309500D02*
Y317000D01*
X263500Y306500D02*
X266500Y309500D01*
X251500Y306500D02*
X263500D01*
X247000Y302000D02*
X251500Y306500D01*
X296000Y327500D02*
X300500Y323000D01*
X296000Y327500D02*
Y337000D01*
X294000Y339000D02*
X296000Y337000D01*
X270500Y339000D02*
X294000D01*
X266500Y335000D02*
X270500Y339000D01*
X266500Y320000D02*
Y335000D01*
X263500Y317000D02*
X266500Y320000D01*
X252000Y317000D02*
X263500D01*
X247000Y312000D02*
X252000Y317000D01*
X305500Y328000D02*
X310500Y323000D01*
X305500Y328000D02*
Y339000D01*
X303000Y341500D02*
X305500Y339000D01*
X270172Y341500D02*
X303000D01*
X264500Y335828D02*
X270172Y341500D01*
X264500Y329000D02*
Y335828D01*
X262500Y327000D02*
X264500Y329000D01*
X250000Y327000D02*
X262500D01*
X247000Y324000D02*
X250000Y327000D01*
X247000Y322000D02*
Y324000D01*
X266000Y290000D02*
X280500D01*
X264000Y292000D02*
X266000Y290000D01*
X257000Y292000D02*
X264000D01*
X290500Y289500D02*
Y290000D01*
X285500Y284500D02*
X290500Y289500D01*
X259500Y284500D02*
X285500D01*
X257000Y282000D02*
X259500Y284500D01*
X300500Y289500D02*
Y290000D01*
X292500Y281500D02*
X300500Y289500D01*
X266500Y281500D02*
X292500D01*
X262500Y277500D02*
X266500Y281500D01*
X262500Y274000D02*
Y277500D01*
X260500Y272000D02*
X262500Y274000D01*
X257000Y272000D02*
X260500D01*
X310500Y281500D02*
Y290000D01*
X308000Y279000D02*
X310500Y281500D01*
X268000Y279000D02*
X308000D01*
X266000Y277000D02*
X268000Y279000D01*
X266000Y266500D02*
Y277000D01*
X261500Y262000D02*
X266000Y266500D01*
X257000Y262000D02*
X261500D01*
X272500D02*
X282000D01*
X267500Y257000D02*
X272500Y262000D01*
X252000Y257000D02*
X267500D01*
X247000Y252000D02*
X252000Y257000D01*
X277000Y229500D02*
X282500D01*
X274500Y232000D02*
X277000Y229500D01*
X274500Y232000D02*
Y248000D01*
X270500Y252000D02*
X274500Y248000D01*
X257000Y252000D02*
X270500D01*
X292500Y226500D02*
Y229500D01*
X290000Y224000D02*
X292500Y226500D01*
X271000Y227000D02*
Y238500D01*
X267500Y242000D02*
X271000Y238500D01*
X257000Y242000D02*
X267500D01*
X302500Y223500D02*
Y229500D01*
X301000Y222000D02*
X302500Y223500D01*
X267500Y225500D02*
Y229000D01*
X264500Y232000D02*
X267500Y229000D01*
X257000Y232000D02*
X264500D01*
X312500Y221500D02*
Y229500D01*
X310500Y219500D02*
X312500Y221500D01*
X257000Y222000D02*
X266500D01*
X278000Y195500D02*
X282000D01*
X274500Y199000D02*
X278000Y195500D01*
X274500Y199000D02*
Y199500D01*
X273500Y200500D02*
X274500Y199500D01*
X273500Y200500D02*
Y204500D01*
X271000Y207000D02*
X273500Y204500D01*
X251000Y207000D02*
X271000D01*
X247000Y211000D02*
X251000Y207000D01*
X247000Y211000D02*
Y212000D01*
X286453Y201047D02*
X292000Y195500D01*
X278953Y201047D02*
X286453D01*
X276500Y203500D02*
X278953Y201047D01*
X271000Y227000D02*
X274000Y224000D01*
X290000D01*
X267500Y225500D02*
X271000Y222000D01*
X301000D01*
X266500D02*
X269000Y219500D01*
X310500D01*
X247000Y222000D02*
X252000Y217000D01*
X274500D01*
X276500Y215000D01*
Y203500D02*
Y215000D01*
X282000Y272000D02*
X292000D01*
X302000D01*
X312000D01*
X282500Y239500D02*
X292500D01*
X302500D01*
X312500D01*
X335500Y178000D02*
X336000Y178500D01*
X535500D01*
X327000Y206000D02*
X513500D01*
X344000Y172500D02*
X536000D01*
X312000Y176000D02*
Y179500D01*
X340000Y478500D02*
X521000D01*
X310500Y300000D02*
X347500D01*
X351500Y339500D02*
X364500D01*
X312000Y272000D02*
X351500D01*
X355500Y344500D02*
X364000D01*
X316500Y210000D02*
X355500D01*
X312000Y205500D02*
X316500Y210000D01*
X310500Y333000D02*
X359000D01*
X324500Y352500D02*
X357500D01*
X247000Y183000D02*
X251000Y187000D01*
X247000Y192000D02*
X248000Y191000D01*
X249703D01*
X255156Y196453D01*
X266953D01*
X269905Y193500D01*
Y191595D02*
Y193500D01*
Y191595D02*
X272000Y189500D01*
X324000D01*
X326000Y191500D01*
Y199000D01*
X328000Y201000D01*
X536500D01*
X384500Y359000D02*
X385500Y358000D01*
X433500Y219000D02*
X434000Y218500D01*
X546457Y194095D02*
X547051Y193500D01*
X340000D02*
X547051D01*
X409449Y347638D02*
X409842D01*
X404724Y318504D02*
Y319685D01*
X440043Y363894D02*
X440158Y363779D01*
X438583Y308266D02*
X439369Y307480D01*
X438583Y268504D02*
X439369Y269290D01*
X439764Y244882D02*
X440158Y245276D01*
X484646Y268504D02*
X485039Y268110D01*
X404724Y141732D02*
X405118Y141339D01*
X302000Y205500D02*
X312000D01*
X292000D02*
X302000D01*
X282000D02*
X292000D01*
X302000Y176000D02*
X312000D01*
X292000D02*
X302000D01*
X282000D02*
X292000D01*
D23*
X342520Y188976D02*
X524624D01*
X524900Y188700D01*
X337795Y184252D02*
X342520Y188976D01*
X266535Y184252D02*
X337795D01*
X262598Y180315D02*
X266535Y184252D01*
X240158Y173228D02*
X242913Y170472D01*
X258268D01*
X262598Y174803D01*
Y180315D01*
X513779Y447638D02*
Y455118D01*
X512205Y456693D02*
X513779Y455118D01*
X496557Y456693D02*
X512205D01*
X496526Y456724D02*
X496557Y456693D01*
X474835Y456724D02*
X496526D01*
X474803Y456693D02*
X474835Y456724D01*
X259311Y456693D02*
X474803D01*
X259051Y456953D02*
X259311Y456693D01*
X244949Y456953D02*
X259051D01*
X238783Y450787D02*
X244949Y456953D01*
X197638Y450787D02*
X238783D01*
X385500Y330000D02*
Y358000D01*
X384500Y359000D02*
Y403500D01*
X381500Y406500D02*
X384500Y403500D01*
X374000Y406500D02*
X381500D01*
X433500Y219000D02*
Y277000D01*
Y336500D01*
Y396500D01*
D24*
X510630Y163386D02*
X568898D01*
X571654Y166142D01*
X490158Y448032D02*
X494882Y452756D01*
X490158Y432677D02*
Y448032D01*
X226772Y482677D02*
X303543D01*
X505512Y314173D02*
X507087Y315748D01*
X528346D01*
X529921Y317323D01*
Y440945D01*
X536614Y447638D01*
X317717Y468504D02*
X474803D01*
X475197Y468110D01*
X311024Y463386D02*
X488189D01*
X296488Y477921D02*
X311024Y463386D01*
X475197Y468110D02*
X483071D01*
X303543Y482677D02*
X317717Y468504D01*
X244547Y477921D02*
X296488D01*
X239067Y472441D02*
X244547Y477921D01*
X233858Y472441D02*
X239067D01*
X226378Y482282D02*
X226772Y482677D01*
X559448Y216929D02*
X559841Y217322D01*
X540144Y216929D02*
X559448D01*
X540030Y217043D02*
X540144Y216929D01*
X536894Y217043D02*
X540030D01*
X533071Y220866D02*
X536894Y217043D01*
X533071Y220866D02*
Y278740D01*
X525984Y285827D02*
X533071Y278740D01*
X515354Y285827D02*
X525984D01*
X509449Y291732D02*
X515354Y285827D01*
X509449Y291732D02*
Y298425D01*
X571654Y166142D02*
Y172835D01*
X509055Y298425D02*
X509449D01*
X497638Y309842D02*
X509055Y298425D01*
X497638Y309842D02*
Y425197D01*
X490158Y432677D02*
X497638Y425197D01*
X493701Y270079D02*
X507087D01*
X491339Y272441D02*
X493701Y270079D01*
X491339Y272441D02*
Y424409D01*
X455945Y259095D02*
Y289331D01*
X455905Y259055D02*
X455945Y259095D01*
X455905Y289370D02*
X455945Y289331D01*
X404724Y259055D02*
Y294882D01*
Y235039D02*
Y259055D01*
Y294882D02*
Y318504D01*
X406299Y413779D02*
Y437402D01*
X440158Y427559D02*
Y446457D01*
X440043Y363894D02*
Y386500D01*
X440158D02*
Y427559D01*
Y329134D02*
Y363779D01*
X438583Y327559D02*
X440158Y329134D01*
X438583Y308266D02*
Y327559D01*
X439369Y269290D02*
Y307480D01*
X438583Y248031D02*
Y268504D01*
Y248031D02*
X439764Y246850D01*
X455905Y289370D02*
Y318504D01*
Y348819D01*
Y377559D01*
X484646Y424016D02*
Y446457D01*
Y386614D02*
Y424016D01*
Y364173D02*
Y386614D01*
Y327559D02*
Y364173D01*
Y305118D02*
Y327559D01*
Y268504D02*
Y305118D01*
X455905Y377559D02*
Y408661D01*
Y437402D01*
X409842Y347638D02*
X409957Y347524D01*
X404724Y319685D02*
X409957Y324917D01*
Y347524D01*
X455905Y226378D02*
Y259055D01*
X439764Y244882D02*
Y246850D01*
X490551Y226378D02*
X498425Y234252D01*
Y241339D01*
X494882Y244882D02*
X498425Y241339D01*
X485039Y244882D02*
X494882D01*
X485039D02*
Y268110D01*
X406299Y350787D02*
Y377559D01*
Y413779D01*
X246063Y156299D02*
X362598D01*
X353543Y302362D02*
X362992Y292913D01*
X353543Y302362D02*
Y320866D01*
X359055Y326378D01*
X362992Y156693D02*
X579134D01*
Y194093D01*
Y195276D01*
D25*
X220472Y383858D02*
X228740D01*
X234252Y378346D01*
Y146457D02*
Y378346D01*
Y146457D02*
X236614Y144095D01*
X248425D02*
X252362Y140157D01*
X236614Y144095D02*
X248425D01*
X252362Y121339D02*
Y140157D01*
X250157Y119134D02*
X252362Y121339D01*
X240551Y119134D02*
X250157D01*
X220866Y305906D02*
X223228D01*
X227559Y301575D01*
Y140945D02*
X230315Y138189D01*
X237402D01*
X240551Y135039D01*
Y129134D02*
Y135039D01*
X212598Y122047D02*
Y241339D01*
Y122047D02*
X215512Y119134D01*
X220551D01*
X220079Y131968D02*
Y164567D01*
X172835Y296850D02*
X175591Y299606D01*
Y424803D01*
X199213D01*
X209055Y434646D01*
Y439555D01*
X164173Y148819D02*
X170866D01*
X172835Y150787D01*
Y296850D01*
X154500Y217886D02*
X164567Y227953D01*
Y377559D01*
X171653Y127559D02*
Y148425D01*
X164500Y120405D02*
X171653Y127559D01*
X154500Y119500D02*
Y217886D01*
X114500Y119500D02*
X124500D01*
X124488Y119512D02*
Y132283D01*
X230551Y115118D02*
Y119134D01*
Y115118D02*
X233071Y112598D01*
X259842Y139370D02*
X268898Y148425D01*
X447244D01*
X233071Y112598D02*
X265748D01*
X268504Y115354D01*
Y137795D01*
X272441Y141732D01*
X404724D01*
X405118Y141339D02*
X455905D01*
X447244Y148425D02*
X490551D01*
X362598Y156299D02*
X362992Y156693D01*
X227559Y140945D02*
Y156299D01*
Y301575D01*
D28*
X114500Y119500D02*
D03*
X240551Y129134D02*
D03*
X282000Y166000D02*
D03*
Y195500D02*
D03*
X282500Y229500D02*
D03*
X282000Y262000D02*
D03*
X280500Y290000D02*
D03*
Y323000D02*
D03*
Y360500D02*
D03*
Y396500D02*
D03*
X296272Y122453D02*
D03*
X280500Y431000D02*
D03*
D29*
X124500Y119500D02*
D03*
X134500D02*
D03*
X144500D02*
D03*
X154500D02*
D03*
X164500D02*
D03*
X240551Y119134D02*
D03*
X230551Y129134D02*
D03*
Y119134D02*
D03*
X220551Y129134D02*
D03*
Y119134D02*
D03*
X638425Y484173D02*
D03*
X648425D02*
D03*
X638425Y474173D02*
D03*
X648425D02*
D03*
X638425Y464173D02*
D03*
X648425D02*
D03*
X638425Y454173D02*
D03*
X648425D02*
D03*
X638425Y444173D02*
D03*
X648425D02*
D03*
X638425Y434173D02*
D03*
X648425D02*
D03*
X638425Y424173D02*
D03*
X648425D02*
D03*
X638425Y414173D02*
D03*
X648425D02*
D03*
X638425Y404173D02*
D03*
X648425D02*
D03*
X638425Y394173D02*
D03*
X648425D02*
D03*
X638425Y384173D02*
D03*
X648425D02*
D03*
X638425Y374173D02*
D03*
X648425D02*
D03*
X638425Y364173D02*
D03*
X648425D02*
D03*
X638425Y354173D02*
D03*
X648425D02*
D03*
X638425Y344173D02*
D03*
X648425D02*
D03*
X638425Y334173D02*
D03*
X648425D02*
D03*
X638425Y324173D02*
D03*
X648425D02*
D03*
X638425Y314173D02*
D03*
X257000Y432000D02*
D03*
X247000D02*
D03*
X257000Y442000D02*
D03*
X247000D02*
D03*
X257000Y452000D02*
D03*
X247000D02*
D03*
X257000Y462000D02*
D03*
X247000D02*
D03*
X257000Y472000D02*
D03*
X247000D02*
D03*
Y182000D02*
D03*
X257000Y192000D02*
D03*
X247000D02*
D03*
X257000Y202000D02*
D03*
X247000D02*
D03*
X257000Y212000D02*
D03*
X247000D02*
D03*
X257000Y222000D02*
D03*
X247000D02*
D03*
X257000Y232000D02*
D03*
X247000D02*
D03*
X257000Y242000D02*
D03*
X247000D02*
D03*
X257000Y252000D02*
D03*
X247000D02*
D03*
X257000Y262000D02*
D03*
X247000D02*
D03*
X257000Y272000D02*
D03*
X247000D02*
D03*
X257000Y282000D02*
D03*
X247000D02*
D03*
X257000Y292000D02*
D03*
X247000D02*
D03*
X257000Y302000D02*
D03*
X247000D02*
D03*
X257000Y312000D02*
D03*
X247000D02*
D03*
X257000Y322000D02*
D03*
X247000D02*
D03*
X257000Y332000D02*
D03*
X247000D02*
D03*
X257000Y342000D02*
D03*
X247000D02*
D03*
X257000Y352000D02*
D03*
X247000D02*
D03*
X257000Y362000D02*
D03*
X247000D02*
D03*
X257000Y372000D02*
D03*
X247000D02*
D03*
X257000Y382000D02*
D03*
X247000D02*
D03*
X257000Y392000D02*
D03*
X247000D02*
D03*
X257000Y402000D02*
D03*
X247000D02*
D03*
X257000Y412000D02*
D03*
X247000D02*
D03*
X257000Y422000D02*
D03*
X247000D02*
D03*
X312000Y176000D02*
D03*
Y166000D02*
D03*
X302000Y176000D02*
D03*
Y166000D02*
D03*
X292000Y176000D02*
D03*
Y166000D02*
D03*
X282000Y176000D02*
D03*
X312000Y205500D02*
D03*
Y195500D02*
D03*
X302000Y205500D02*
D03*
Y195500D02*
D03*
X292000Y205500D02*
D03*
Y195500D02*
D03*
X282000Y205500D02*
D03*
X312500Y239500D02*
D03*
Y229500D02*
D03*
X302500Y239500D02*
D03*
Y229500D02*
D03*
X292500Y239500D02*
D03*
Y229500D02*
D03*
X282500Y239500D02*
D03*
X312000Y272000D02*
D03*
Y262000D02*
D03*
X302000Y272000D02*
D03*
Y262000D02*
D03*
X292000Y272000D02*
D03*
Y262000D02*
D03*
X282000Y272000D02*
D03*
X310500Y300000D02*
D03*
Y290000D02*
D03*
X300500Y300000D02*
D03*
Y290000D02*
D03*
X290500Y300000D02*
D03*
Y290000D02*
D03*
X280500Y300000D02*
D03*
X310500Y333000D02*
D03*
Y323000D02*
D03*
X300500Y333000D02*
D03*
Y323000D02*
D03*
X290500Y333000D02*
D03*
Y323000D02*
D03*
X280500Y333000D02*
D03*
X310500Y370500D02*
D03*
Y360500D02*
D03*
X300500Y370500D02*
D03*
Y360500D02*
D03*
X290500Y370500D02*
D03*
Y360500D02*
D03*
X280500Y370500D02*
D03*
X310500Y406500D02*
D03*
Y396500D02*
D03*
X300500Y406500D02*
D03*
Y396500D02*
D03*
X290500Y406500D02*
D03*
Y396500D02*
D03*
X280500Y406500D02*
D03*
X546272Y122453D02*
D03*
Y132453D02*
D03*
X556272Y122453D02*
D03*
Y132453D02*
D03*
X566272Y122453D02*
D03*
Y132453D02*
D03*
X576272Y122453D02*
D03*
Y132453D02*
D03*
X586272Y122453D02*
D03*
Y132453D02*
D03*
X296272D02*
D03*
X306272Y122453D02*
D03*
Y132453D02*
D03*
X316272Y122453D02*
D03*
Y132453D02*
D03*
X326272Y122453D02*
D03*
Y132453D02*
D03*
X336272Y122453D02*
D03*
Y132453D02*
D03*
X346272Y122453D02*
D03*
Y132453D02*
D03*
X356272Y122453D02*
D03*
Y132453D02*
D03*
X366272Y122453D02*
D03*
Y132453D02*
D03*
X376272Y122453D02*
D03*
Y132453D02*
D03*
X386272Y122453D02*
D03*
Y132453D02*
D03*
X396272Y122453D02*
D03*
Y132453D02*
D03*
X406272Y122453D02*
D03*
Y132453D02*
D03*
X416272Y122453D02*
D03*
Y132453D02*
D03*
X426272Y122453D02*
D03*
Y132453D02*
D03*
X436272Y122453D02*
D03*
Y132453D02*
D03*
X446272Y122453D02*
D03*
Y132453D02*
D03*
X456272Y122453D02*
D03*
Y132453D02*
D03*
X466272Y122453D02*
D03*
Y132453D02*
D03*
X476272Y122453D02*
D03*
Y132453D02*
D03*
X486272Y122453D02*
D03*
Y132453D02*
D03*
X496272Y122453D02*
D03*
Y132453D02*
D03*
X506272Y122453D02*
D03*
Y132453D02*
D03*
X516272Y122453D02*
D03*
Y132453D02*
D03*
X526272Y122453D02*
D03*
Y132453D02*
D03*
X536272Y122453D02*
D03*
Y132453D02*
D03*
X310500Y441000D02*
D03*
Y431000D02*
D03*
X300500Y441000D02*
D03*
Y431000D02*
D03*
X290500Y441000D02*
D03*
Y431000D02*
D03*
X280500Y441000D02*
D03*
D30*
X164488Y132283D02*
D03*
X124488D02*
D03*
X210000Y480500D02*
D03*
Y440500D02*
D03*
D31*
X648425Y314173D02*
D03*
X257000Y182000D02*
D03*
D32*
X664300Y488300D02*
D03*
X684300Y488700D02*
D03*
X664100Y472700D02*
D03*
X684100D02*
D03*
X664100Y457100D02*
D03*
X684300Y457000D02*
D03*
X664300Y441500D02*
D03*
X684200D02*
D03*
X664300Y425800D02*
D03*
X684300D02*
D03*
X664300Y410300D02*
D03*
X684200D02*
D03*
X664100Y394600D02*
D03*
X684300Y394700D02*
D03*
X664500Y378900D02*
D03*
X684400Y379100D02*
D03*
X664400Y363500D02*
D03*
X684400D02*
D03*
X664300Y347900D02*
D03*
X684400D02*
D03*
X664400Y332300D02*
D03*
X684200D02*
D03*
X664100Y316600D02*
D03*
X684400D02*
D03*
X664400Y301100D02*
D03*
X684300D02*
D03*
X664500Y285400D02*
D03*
X684300Y285500D02*
D03*
X664200Y269900D02*
D03*
X684400D02*
D03*
X664200Y254300D02*
D03*
X684300D02*
D03*
X664500Y238700D02*
D03*
X684200D02*
D03*
X664300Y223100D02*
D03*
X684300D02*
D03*
D33*
X406200Y411700D02*
D03*
X172900Y465200D02*
D03*
X533900Y188800D02*
D03*
X524900Y188700D02*
D03*
X151500Y318900D02*
D03*
X561900Y184900D02*
D03*
X538189Y206693D02*
D03*
X542520Y171260D02*
D03*
X546457Y168110D02*
D03*
X507874Y275984D02*
D03*
X240551Y487402D02*
D03*
X185039Y465748D02*
D03*
X167323Y435039D02*
D03*
X240551Y173228D02*
D03*
X331102Y190157D02*
D03*
X527953Y309055D02*
D03*
X504724Y314173D02*
D03*
X536614Y447638D02*
D03*
X513779D02*
D03*
X488189Y463386D02*
D03*
X388583Y462992D02*
D03*
X483071Y468110D02*
D03*
X197638Y450787D02*
D03*
X233858Y472441D02*
D03*
X226378Y482282D02*
D03*
X559841Y217322D02*
D03*
X571654Y172835D02*
D03*
X510630Y163386D02*
D03*
X509449Y298425D02*
D03*
X491339Y424409D02*
D03*
X484646Y424016D02*
D03*
X507087Y270079D02*
D03*
Y242126D02*
D03*
X451124Y264961D02*
D03*
X220472Y383858D02*
D03*
X220866Y305906D02*
D03*
X212598Y241339D02*
D03*
X220079Y164567D02*
D03*
X172835Y296850D02*
D03*
X164567Y377559D02*
D03*
X164173Y148819D02*
D03*
X154500Y217886D02*
D03*
X389500Y356000D02*
D03*
X385500Y330000D02*
D03*
X522000Y422500D02*
D03*
Y278000D02*
D03*
X515000Y268000D02*
D03*
X518500Y273000D02*
D03*
X443500Y255500D02*
D03*
X447000Y248000D02*
D03*
X515000Y206000D02*
D03*
Y259500D02*
D03*
X510000Y427500D02*
D03*
Y472500D02*
D03*
X515500Y432500D02*
D03*
X521000Y437500D02*
D03*
Y478500D02*
D03*
X542000Y291500D02*
D03*
X579134Y347244D02*
D03*
X378398Y337102D02*
D03*
X398500Y363000D02*
D03*
X371000D02*
D03*
X393000Y300000D02*
D03*
X447000Y359000D02*
D03*
X448500Y419000D02*
D03*
X395500Y424000D02*
D03*
X557000Y188000D02*
D03*
X551000D02*
D03*
X569500Y201000D02*
D03*
X567000Y207500D02*
D03*
X602500Y191500D02*
D03*
X609000Y188000D02*
D03*
X613000Y184500D02*
D03*
X618000Y201000D02*
D03*
X621500Y207500D02*
D03*
X566500Y213000D02*
D03*
X625000D02*
D03*
X626000Y222000D02*
D03*
X566500Y219000D02*
D03*
X586000Y230500D02*
D03*
X440500D02*
D03*
X490500Y234500D02*
D03*
X599500Y234000D02*
D03*
X500500Y226500D02*
D03*
X603000D02*
D03*
X496500Y221500D02*
D03*
X581000Y222500D02*
D03*
X575500Y314000D02*
D03*
X571000Y319500D02*
D03*
X566000Y324500D02*
D03*
X561000Y329500D02*
D03*
X556000Y334500D02*
D03*
X551000Y339500D02*
D03*
X546000Y344500D02*
D03*
X541000Y349500D02*
D03*
X601500Y263000D02*
D03*
X582000Y250500D02*
D03*
X601500Y269500D02*
D03*
X576000Y234000D02*
D03*
X538000Y275000D02*
D03*
X545500Y287000D02*
D03*
X551000Y283500D02*
D03*
X562500Y286500D02*
D03*
X561000Y278500D02*
D03*
X566500Y277000D02*
D03*
X573500Y276500D02*
D03*
X536000Y392500D02*
D03*
X450000Y300000D02*
D03*
X434000Y218500D02*
D03*
X480000D02*
D03*
X433500Y277000D02*
D03*
X480000D02*
D03*
X433500Y336500D02*
D03*
X480000D02*
D03*
X433500Y396500D02*
D03*
X480000D02*
D03*
X364000Y344500D02*
D03*
X365500Y338500D02*
D03*
X544000Y187000D02*
D03*
X340000Y193500D02*
D03*
X536500Y173000D02*
D03*
X357500Y352500D02*
D03*
X536500Y201000D02*
D03*
X335500Y178000D02*
D03*
X327000Y206000D02*
D03*
X344000Y172500D02*
D03*
X515000Y182500D02*
D03*
X340000Y478500D02*
D03*
X347500Y300000D02*
D03*
X351500Y339500D02*
D03*
Y272000D02*
D03*
X355500Y344500D02*
D03*
Y210000D02*
D03*
X359000Y333000D02*
D03*
X324500Y352500D02*
D03*
X384500Y359000D02*
D03*
X374000Y406500D02*
D03*
X546457Y194095D02*
D03*
X409842Y347638D02*
D03*
X404724Y294882D02*
D03*
Y259055D02*
D03*
Y235039D02*
D03*
Y318504D02*
D03*
X406299Y437402D02*
D03*
X440158Y446457D02*
D03*
Y427559D02*
D03*
X440043Y386500D02*
D03*
X440158Y363779D02*
D03*
X438583Y327559D02*
D03*
X439369Y307480D02*
D03*
X438583Y268504D02*
D03*
X440158Y245276D02*
D03*
X455905Y226378D02*
D03*
Y259055D02*
D03*
Y289370D02*
D03*
Y318504D02*
D03*
Y348819D02*
D03*
Y377559D02*
D03*
X484646Y446457D02*
D03*
Y386614D02*
D03*
Y364173D02*
D03*
Y327559D02*
D03*
Y305118D02*
D03*
Y268504D02*
D03*
X485433Y237795D02*
D03*
X485039Y244882D02*
D03*
X455905Y408661D02*
D03*
Y437402D02*
D03*
X404331Y337402D02*
D03*
X562992Y150787D02*
D03*
X449606Y239764D02*
D03*
X259842Y139370D02*
D03*
X447244Y148425D02*
D03*
X404724Y141732D02*
D03*
X455905Y141339D02*
D03*
X490551Y148425D02*
D03*
Y226378D02*
D03*
X411417Y446457D02*
D03*
X435039Y437402D02*
D03*
X411811Y386614D02*
D03*
X406299Y377559D02*
D03*
X403937Y325590D02*
D03*
X411028Y268500D02*
D03*
X479472Y259000D02*
D03*
X479917Y318500D02*
D03*
X479921Y377559D02*
D03*
X455905Y446457D02*
D03*
X362205Y302362D02*
D03*
X379134Y240158D02*
D03*
X538189Y212598D02*
D03*
X227559Y156299D02*
D03*
X246063D02*
D03*
X362992Y156693D02*
D03*
Y292913D02*
D03*
X359055Y326378D02*
D03*
X595276Y195669D02*
D03*
X579134Y195276D02*
D03*
X388500Y374886D02*
D03*
X366142Y360236D02*
D03*
X354000Y374472D02*
D03*
X126902Y197508D02*
D03*
X494882Y463386D02*
D03*
X508268Y399606D02*
D03*
X494882Y452756D02*
D03*
X496063Y434252D02*
D03*
X579000Y321500D02*
D03*
X579133Y326771D02*
D03*
X579069Y331760D02*
D03*
X579133Y337007D02*
D03*
Y342125D02*
D03*
Y352361D02*
D03*
X540945Y410630D02*
D03*
X546063Y414173D02*
D03*
X551181Y418110D02*
D03*
X555905Y422441D02*
D03*
X561024Y426378D02*
D03*
X566142Y430709D02*
D03*
X570866Y434646D02*
D03*
X575591Y438976D02*
D03*
X579528Y409449D02*
D03*
X583858Y414173D02*
D03*
X579528Y418110D02*
D03*
X583858Y422441D02*
D03*
X579528Y426378D02*
D03*
X583858Y430709D02*
D03*
X579528Y434646D02*
D03*
X592520Y401575D02*
D03*
X579133Y388582D02*
D03*
X592126Y70472D02*
D03*
X596457Y73622D02*
D03*
X580709Y393701D02*
D03*
X599999Y77165D02*
D03*
X586602Y388965D02*
D03*
X603936Y80708D02*
D03*
X598819Y401575D02*
D03*
X606692Y85039D02*
D03*
X610235Y88976D02*
D03*
X598818Y396062D02*
D03*
X598819Y390945D02*
D03*
X614246Y92198D02*
D03*
X617714Y95712D02*
D03*
X599605Y385432D02*
D03*
X621654Y99213D02*
D03*
X600392Y379133D02*
D03*
X625441Y102756D02*
D03*
X602071Y374196D02*
D03*
X629133Y106299D02*
D03*
X604329Y368897D02*
D03*
X632676Y110236D02*
D03*
X606298Y362598D02*
D03*
X636614Y113779D02*
D03*
X608266Y357086D02*
D03*
X613386Y356693D02*
D03*
X641339Y117323D02*
D03*
X645276Y120866D02*
D03*
X618503Y356692D02*
D03*
X623145Y359032D02*
D03*
X648818Y125197D02*
D03*
X206000Y400500D02*
D03*
X127500Y297500D02*
D03*
X201400Y220600D02*
D03*
X153000Y241400D02*
D03*
D34*
X400000Y345500D02*
D03*
X373000D02*
D03*
D43*
X406299Y350787D02*
X409449Y347638D01*
M02*
