G04 (created by PCBNEW (2013-06-18 BZR 4216)-testing) date 12/22/2013 11:46:30 AM*
%MOIN*%
G04 Gerber Fmt 3.4, Leading zero omitted, Abs format*
%FSLAX34Y34*%
G01*
G70*
G90*
G04 APERTURE LIST*
%ADD10C,0.003937*%
%ADD11C,0.005906*%
G04 APERTURE END LIST*
G54D10*
G54D11*
X84200Y-63600D02*
X34200Y-63600D01*
X34200Y-13600D02*
X34200Y-63600D01*
X84200Y-13600D02*
X34200Y-13600D01*
X84200Y-63600D02*
X84200Y-13600D01*
M02*
