G04 #@! TF.FileFunction,Legend,Bot*
%FSLAX46Y46*%
G04 Gerber Fmt 4.6, Leading zero omitted, Abs format (unit mm)*
G04 Created by KiCad (PCBNEW 4.0.1-stable) date 3/25/2016 2:12:27 PM*
%MOMM*%
G01*
G04 APERTURE LIST*
%ADD10C,0.150000*%
%ADD11C,0.304800*%
%ADD12C,0.650000*%
%ADD13R,2.032000X2.032000*%
%ADD14C,2.032000*%
%ADD15R,2.540000X2.235200*%
%ADD16O,2.540000X2.235200*%
%ADD17C,5.080000*%
%ADD18R,2.159000X2.159000*%
%ADD19C,1.808480*%
%ADD20R,2.540000X2.540000*%
%ADD21O,2.540000X2.540000*%
%ADD22R,2.413000X1.930400*%
%ADD23O,2.413000X1.930400*%
%ADD24R,1.930400X2.413000*%
%ADD25O,1.930400X2.413000*%
%ADD26R,2.159000X2.413000*%
%ADD27O,2.159000X2.413000*%
G04 APERTURE END LIST*
D10*
D11*
X5049762Y-33818285D02*
X5146524Y-33963427D01*
X5340048Y-34035999D01*
X7081762Y-34035999D01*
X5049762Y-32584570D02*
X6114143Y-32584570D01*
X6307667Y-32657141D01*
X6404429Y-32802284D01*
X6404429Y-33092570D01*
X6307667Y-33237713D01*
X5146524Y-32584570D02*
X5049762Y-32729713D01*
X5049762Y-33092570D01*
X5146524Y-33237713D01*
X5340048Y-33310284D01*
X5533571Y-33310284D01*
X5727095Y-33237713D01*
X5823857Y-33092570D01*
X5823857Y-32729713D01*
X5920619Y-32584570D01*
X6404429Y-31858856D02*
X5049762Y-31858856D01*
X6210905Y-31858856D02*
X6307667Y-31786284D01*
X6404429Y-31641142D01*
X6404429Y-31423427D01*
X6307667Y-31278284D01*
X6114143Y-31205713D01*
X5049762Y-31205713D01*
X5049762Y-29826856D02*
X7081762Y-29826856D01*
X5146524Y-29826856D02*
X5049762Y-29971999D01*
X5049762Y-30262285D01*
X5146524Y-30407427D01*
X5243286Y-30479999D01*
X5436810Y-30552570D01*
X6017381Y-30552570D01*
X6210905Y-30479999D01*
X6307667Y-30407427D01*
X6404429Y-30262285D01*
X6404429Y-29971999D01*
X6307667Y-29826856D01*
X5823857Y-29101142D02*
X5823857Y-27939999D01*
X5049762Y-27214285D02*
X7081762Y-27214285D01*
X6307667Y-27214285D02*
X6404429Y-27069142D01*
X6404429Y-26778856D01*
X6307667Y-26633713D01*
X6210905Y-26561142D01*
X6017381Y-26488571D01*
X5436810Y-26488571D01*
X5243286Y-26561142D01*
X5146524Y-26633713D01*
X5049762Y-26778856D01*
X5049762Y-27069142D01*
X5146524Y-27214285D01*
X5049762Y-25617714D02*
X5146524Y-25762856D01*
X5243286Y-25835428D01*
X5436810Y-25907999D01*
X6017381Y-25907999D01*
X6210905Y-25835428D01*
X6307667Y-25762856D01*
X6404429Y-25617714D01*
X6404429Y-25399999D01*
X6307667Y-25254856D01*
X6210905Y-25182285D01*
X6017381Y-25109714D01*
X5436810Y-25109714D01*
X5243286Y-25182285D01*
X5146524Y-25254856D01*
X5049762Y-25399999D01*
X5049762Y-25617714D01*
X5049762Y-23803428D02*
X6114143Y-23803428D01*
X6307667Y-23875999D01*
X6404429Y-24021142D01*
X6404429Y-24311428D01*
X6307667Y-24456571D01*
X5146524Y-23803428D02*
X5049762Y-23948571D01*
X5049762Y-24311428D01*
X5146524Y-24456571D01*
X5340048Y-24529142D01*
X5533571Y-24529142D01*
X5727095Y-24456571D01*
X5823857Y-24311428D01*
X5823857Y-23948571D01*
X5920619Y-23803428D01*
X5049762Y-23077714D02*
X6404429Y-23077714D01*
X6017381Y-23077714D02*
X6210905Y-23005142D01*
X6307667Y-22932571D01*
X6404429Y-22787428D01*
X6404429Y-22642285D01*
X5049762Y-21481142D02*
X7081762Y-21481142D01*
X5146524Y-21481142D02*
X5049762Y-21626285D01*
X5049762Y-21916571D01*
X5146524Y-22061713D01*
X5243286Y-22134285D01*
X5436810Y-22206856D01*
X6017381Y-22206856D01*
X6210905Y-22134285D01*
X6307667Y-22061713D01*
X6404429Y-21916571D01*
X6404429Y-21626285D01*
X6307667Y-21481142D01*
X5146524Y-20827999D02*
X5049762Y-20682856D01*
X5049762Y-20392571D01*
X5146524Y-20247428D01*
X5340048Y-20174856D01*
X5436810Y-20174856D01*
X5630333Y-20247428D01*
X5727095Y-20392571D01*
X5727095Y-20610285D01*
X5823857Y-20755428D01*
X6017381Y-20827999D01*
X6114143Y-20827999D01*
X6307667Y-20755428D01*
X6404429Y-20610285D01*
X6404429Y-20392571D01*
X6307667Y-20247428D01*
X5243286Y-19521714D02*
X5146524Y-19449142D01*
X5049762Y-19521714D01*
X5146524Y-19594285D01*
X5243286Y-19521714D01*
X5049762Y-19521714D01*
X5146524Y-18142857D02*
X5049762Y-18288000D01*
X5049762Y-18578286D01*
X5146524Y-18723428D01*
X5243286Y-18796000D01*
X5436810Y-18868571D01*
X6017381Y-18868571D01*
X6210905Y-18796000D01*
X6307667Y-18723428D01*
X6404429Y-18578286D01*
X6404429Y-18288000D01*
X6307667Y-18142857D01*
X5049762Y-17272000D02*
X5146524Y-17417142D01*
X5243286Y-17489714D01*
X5436810Y-17562285D01*
X6017381Y-17562285D01*
X6210905Y-17489714D01*
X6307667Y-17417142D01*
X6404429Y-17272000D01*
X6404429Y-17054285D01*
X6307667Y-16909142D01*
X6210905Y-16836571D01*
X6017381Y-16764000D01*
X5436810Y-16764000D01*
X5243286Y-16836571D01*
X5146524Y-16909142D01*
X5049762Y-17054285D01*
X5049762Y-17272000D01*
X5049762Y-16110857D02*
X6404429Y-16110857D01*
X6210905Y-16110857D02*
X6307667Y-16038285D01*
X6404429Y-15893143D01*
X6404429Y-15675428D01*
X6307667Y-15530285D01*
X6114143Y-15457714D01*
X5049762Y-15457714D01*
X6114143Y-15457714D02*
X6307667Y-15385143D01*
X6404429Y-15240000D01*
X6404429Y-15022285D01*
X6307667Y-14877143D01*
X6114143Y-14804571D01*
X5049762Y-14804571D01*
X7178524Y-12990285D02*
X4565952Y-14296571D01*
D12*
X19653000Y-45434000D02*
X19653000Y-41434000D01*
X19653000Y-41434000D02*
X15653000Y-41434000D01*
X15653000Y-41434000D02*
X15653000Y-45434000D01*
X15653000Y-41434000D02*
X19653000Y-41434000D01*
X15653000Y-41934000D02*
X19653000Y-41934000D01*
X15653000Y-42434000D02*
X19653000Y-42434000D01*
X15653000Y-42934000D02*
X19653000Y-42934000D01*
X15653000Y-43434000D02*
X19653000Y-43434000D01*
X15653000Y-43934000D02*
X19653000Y-43934000D01*
X15653000Y-44434000D02*
X19653000Y-44434000D01*
X15653000Y-45434000D02*
X19653000Y-45434000D01*
X15653000Y-44934000D02*
X19653000Y-44934000D01*
D10*
X15653000Y-45434000D02*
X19653000Y-45434000D01*
X19653000Y-45434000D02*
X19653000Y-41434000D01*
X19653000Y-41434000D02*
X15653000Y-41434000D01*
X15653000Y-41434000D02*
X15653000Y-45434000D01*
D11*
X20084143Y-46599429D02*
X19213286Y-46599429D01*
X19648715Y-48123429D02*
X19648715Y-46599429D01*
X18705286Y-47325143D02*
X18197286Y-47325143D01*
X17979572Y-48123429D02*
X18705286Y-48123429D01*
X18705286Y-46599429D01*
X17979572Y-46599429D01*
X17399000Y-48050857D02*
X17181286Y-48123429D01*
X16818429Y-48123429D01*
X16673286Y-48050857D01*
X16600715Y-47978286D01*
X16528143Y-47833143D01*
X16528143Y-47688000D01*
X16600715Y-47542857D01*
X16673286Y-47470286D01*
X16818429Y-47397714D01*
X17108715Y-47325143D01*
X17253857Y-47252571D01*
X17326429Y-47180000D01*
X17399000Y-47034857D01*
X17399000Y-46889714D01*
X17326429Y-46744571D01*
X17253857Y-46672000D01*
X17108715Y-46599429D01*
X16745857Y-46599429D01*
X16528143Y-46672000D01*
X16092714Y-46599429D02*
X15221857Y-46599429D01*
X15657286Y-48123429D02*
X15657286Y-46599429D01*
%LPC*%
D13*
X23749000Y-33020000D03*
D14*
X23749000Y-30480000D03*
X23749000Y-27940000D03*
D13*
X26289000Y-33020000D03*
D14*
X26289000Y-30480000D03*
X26289000Y-27940000D03*
D13*
X21209000Y-33020000D03*
D14*
X21209000Y-30480000D03*
X21209000Y-27940000D03*
D13*
X13589000Y-33020000D03*
D14*
X13589000Y-30480000D03*
X13589000Y-27940000D03*
D13*
X11049000Y-33020000D03*
D14*
X11049000Y-30480000D03*
X11049000Y-27940000D03*
D13*
X16129000Y-33020000D03*
D14*
X16129000Y-30480000D03*
X16129000Y-27940000D03*
D13*
X18669000Y-33020000D03*
D14*
X18669000Y-30480000D03*
X18669000Y-27940000D03*
D13*
X63627000Y-26035000D03*
D14*
X63627000Y-23495000D03*
X63627000Y-20955000D03*
D15*
X36195000Y-19812000D03*
D16*
X36195000Y-22352000D03*
X36195000Y-24892000D03*
X36195000Y-27432000D03*
X36195000Y-29972000D03*
X36195000Y-32512000D03*
X36195000Y-35052000D03*
X36195000Y-37592000D03*
D15*
X36195000Y-46863000D03*
D16*
X36195000Y-44323000D03*
X36195000Y-41783000D03*
D15*
X36195000Y-15240000D03*
D16*
X36195000Y-12700000D03*
X36195000Y-10160000D03*
X36195000Y-7620000D03*
D15*
X51435000Y-15240000D03*
D16*
X51435000Y-12700000D03*
X51435000Y-10160000D03*
X51435000Y-7620000D03*
D15*
X46355000Y-15240000D03*
D16*
X46355000Y-12700000D03*
X46355000Y-10160000D03*
X46355000Y-7620000D03*
D15*
X41275000Y-15240000D03*
D16*
X41275000Y-12700000D03*
X41275000Y-10160000D03*
X41275000Y-7620000D03*
D15*
X48895000Y-15240000D03*
D16*
X48895000Y-12700000D03*
X48895000Y-10160000D03*
D15*
X38735000Y-15240000D03*
D16*
X38735000Y-12700000D03*
X38735000Y-10160000D03*
D15*
X33655000Y-15240000D03*
D16*
X33655000Y-12700000D03*
X33655000Y-10160000D03*
D15*
X56515000Y-15240000D03*
D16*
X56515000Y-12700000D03*
X56515000Y-10160000D03*
D15*
X53975000Y-15240000D03*
D16*
X53975000Y-12700000D03*
X53975000Y-10160000D03*
D15*
X31115000Y-15240000D03*
D16*
X31115000Y-12700000D03*
X31115000Y-10160000D03*
D17*
X5715000Y-6350000D03*
X71755000Y-3175000D03*
X71755000Y-51435000D03*
X5715000Y-48260000D03*
D18*
X66675000Y-1905000D03*
D19*
X66675000Y-4445000D03*
X64135000Y-1905000D03*
X64135000Y-4445000D03*
X61595000Y-1905000D03*
X61595000Y-4445000D03*
X59055000Y-1905000D03*
X59055000Y-4445000D03*
X56515000Y-1905000D03*
X56515000Y-4445000D03*
X53975000Y-1905000D03*
X53975000Y-4445000D03*
X51435000Y-1905000D03*
X51435000Y-4445000D03*
X48895000Y-1905000D03*
X48895000Y-4445000D03*
X46355000Y-1905000D03*
X46355000Y-4445000D03*
X43815000Y-1905000D03*
X43815000Y-4445000D03*
X41275000Y-1905000D03*
X41275000Y-4445000D03*
X38735000Y-1905000D03*
X38735000Y-4445000D03*
X36195000Y-1905000D03*
X36195000Y-4445000D03*
X33655000Y-1905000D03*
X33655000Y-4445000D03*
X31115000Y-1905000D03*
X31115000Y-4445000D03*
X28575000Y-1905000D03*
X28575000Y-4445000D03*
X26035000Y-1905000D03*
X26035000Y-4445000D03*
X23495000Y-1905000D03*
X23495000Y-4445000D03*
X20955000Y-1905000D03*
X20955000Y-4445000D03*
X18415000Y-1905000D03*
X18415000Y-4445000D03*
X15875000Y-1905000D03*
X15875000Y-4445000D03*
X13335000Y-1905000D03*
X13335000Y-4445000D03*
X10795000Y-1905000D03*
X10795000Y-4445000D03*
D18*
X66675000Y-50165000D03*
D19*
X66675000Y-52705000D03*
X64135000Y-50165000D03*
X64135000Y-52705000D03*
X61595000Y-50165000D03*
X61595000Y-52705000D03*
X59055000Y-50165000D03*
X59055000Y-52705000D03*
X56515000Y-50165000D03*
X56515000Y-52705000D03*
X53975000Y-50165000D03*
X53975000Y-52705000D03*
X51435000Y-50165000D03*
X51435000Y-52705000D03*
X48895000Y-50165000D03*
X48895000Y-52705000D03*
X46355000Y-50165000D03*
X46355000Y-52705000D03*
X43815000Y-50165000D03*
X43815000Y-52705000D03*
X41275000Y-50165000D03*
X41275000Y-52705000D03*
X38735000Y-50165000D03*
X38735000Y-52705000D03*
X36195000Y-50165000D03*
X36195000Y-52705000D03*
X33655000Y-50165000D03*
X33655000Y-52705000D03*
X31115000Y-50165000D03*
X31115000Y-52705000D03*
X28575000Y-50165000D03*
X28575000Y-52705000D03*
X26035000Y-50165000D03*
X26035000Y-52705000D03*
X23495000Y-50165000D03*
X23495000Y-52705000D03*
X20955000Y-50165000D03*
X20955000Y-52705000D03*
X18415000Y-50165000D03*
X18415000Y-52705000D03*
X15875000Y-50165000D03*
X15875000Y-52705000D03*
X13335000Y-50165000D03*
X13335000Y-52705000D03*
X10795000Y-50165000D03*
X10795000Y-52705000D03*
D20*
X80772000Y-17145000D03*
D21*
X83312000Y-17145000D03*
D22*
X56388000Y-37465000D03*
D23*
X53848000Y-37465000D03*
X51308000Y-37465000D03*
D22*
X56388000Y-34925000D03*
D23*
X53848000Y-34925000D03*
X51308000Y-34925000D03*
D22*
X56388000Y-32385000D03*
D23*
X53848000Y-32385000D03*
X51308000Y-32385000D03*
D22*
X56388000Y-29845000D03*
D23*
X53848000Y-29845000D03*
X51308000Y-29845000D03*
D22*
X56388000Y-27305000D03*
D23*
X53848000Y-27305000D03*
X51308000Y-27305000D03*
D22*
X56388000Y-24765000D03*
D23*
X53848000Y-24765000D03*
X51308000Y-24765000D03*
D22*
X56388000Y-22225000D03*
D23*
X53848000Y-22225000D03*
X51308000Y-22225000D03*
D22*
X56388000Y-19685000D03*
D23*
X53848000Y-19685000D03*
X51308000Y-19685000D03*
D24*
X48895000Y-46863000D03*
D25*
X48895000Y-44323000D03*
X48895000Y-41783000D03*
D24*
X51435000Y-46863000D03*
D25*
X51435000Y-44323000D03*
X51435000Y-41783000D03*
D24*
X53975000Y-46863000D03*
D25*
X53975000Y-44323000D03*
X53975000Y-41783000D03*
D24*
X56515000Y-46863000D03*
D25*
X56515000Y-44323000D03*
X56515000Y-41783000D03*
D24*
X59055000Y-46863000D03*
D25*
X59055000Y-44323000D03*
X59055000Y-41783000D03*
D24*
X61595000Y-46863000D03*
D25*
X61595000Y-44323000D03*
X61595000Y-41783000D03*
D24*
X64135000Y-46863000D03*
D25*
X64135000Y-44323000D03*
X64135000Y-41783000D03*
D24*
X66675000Y-46863000D03*
D25*
X66675000Y-44323000D03*
X66675000Y-41783000D03*
D26*
X38735000Y-46863000D03*
D27*
X38735000Y-44323000D03*
X38735000Y-41783000D03*
D26*
X41275000Y-46863000D03*
D27*
X41275000Y-44323000D03*
X41275000Y-41783000D03*
D26*
X43815000Y-46863000D03*
D27*
X43815000Y-44323000D03*
X43815000Y-41783000D03*
D26*
X46355000Y-46863000D03*
D27*
X46355000Y-44323000D03*
X46355000Y-41783000D03*
M02*
