G04 Layer_Color=8388736*
%FSLAX44Y44*%
%MOMM*%
G71*
G01*
G75*
%ADD30C,0.2000*%
D30*
X1045000Y560000D02*
X1220000Y385000D01*
X1045000Y0D02*
X1220000Y175000D01*
Y385000D01*
X0D02*
X175000Y560000D01*
X1045000D01*
X0Y175000D02*
Y385000D01*
Y175000D02*
X175000Y0D01*
X1045000D01*
M02*
