G04 DipTrace 2.4.0.2*
%INPCA9685.gbl*%
%MOMM*%
%ADD10C,0.25*%
%ADD13C,0.152*%
%ADD15C,0.4*%
%ADD16C,0.254*%
%ADD23R,1.7X1.6*%
%ADD24R,1.7X2.032*%
%ADD25R,1.6X1.7*%
%ADD26R,2.032X1.7*%
%ADD40C,0.711*%
%ADD44C,0.711*%
%FSLAX53Y53*%
G04*
G71*
G90*
G75*
G01*
%LNBottom*%
%LPD*%
X16610Y25289D2*
D13*
Y25411D1*
X16804D1*
X15281Y26934D1*
X13534D1*
X13039Y26440D1*
Y16480D1*
X13999Y15520D1*
X15024Y25737D2*
Y25494D1*
X14395Y26123D1*
X13773D1*
X13348Y25698D1*
Y18762D1*
X14995Y17115D1*
Y16350D1*
X15843Y15501D1*
X15767D1*
X14034Y25518D2*
X13946D1*
X13656Y25227D1*
Y19573D1*
X14777Y18452D1*
X16957D1*
X17240Y18169D1*
Y15739D1*
X17501Y15478D1*
X18521Y15996D2*
X18301D1*
X17561Y16736D1*
Y18617D1*
X17388Y18791D1*
X14887D1*
X14481Y19197D1*
Y23559D1*
X14244Y23796D1*
X14283Y24678D2*
X14429D1*
X14830Y24278D1*
Y19332D1*
X15060Y19102D1*
X17544D1*
X19554Y17093D1*
Y16199D1*
X19705Y16048D1*
X19865D1*
X19889Y16072D1*
X21207Y16141D2*
D10*
X21385D1*
X20635Y16891D1*
Y23755D1*
X20677Y23797D1*
X18890Y27888D2*
D15*
Y29050D1*
Y30320D1*
Y27907D2*
X20739Y26058D1*
Y24749D1*
X20735Y24745D1*
X19987D1*
X18425Y23183D1*
X17904D1*
X20735Y24745D2*
Y25087D1*
X21507Y24316D1*
Y18073D1*
X21309Y17875D1*
X17904Y23183D2*
X18984D1*
Y22148D1*
X18969Y22133D1*
Y20918D1*
Y19883D1*
X18984Y19868D1*
X17949D1*
X17934Y19883D1*
Y20903D1*
X17919Y20918D1*
X16704Y22133D1*
Y23168D1*
X16719Y23183D1*
X16878D1*
X17418Y22643D1*
Y22620D1*
X17904Y22133D1*
Y23183D2*
Y22133D1*
X16719Y23183D2*
X15669D1*
Y22148D1*
X15684Y22133D1*
Y20963D1*
X15669Y20948D1*
X16674D1*
X16689Y20933D1*
Y19913D1*
X16719Y19883D1*
X15669D1*
X10000Y26510D2*
D10*
X11270D1*
X12433D1*
Y23970D2*
X11270D1*
X10000D1*
X12433Y21430D2*
X11270D1*
X10000D1*
X12433Y18890D2*
X11270D1*
X10000D1*
X12433Y16350D2*
X11270D1*
X10000D1*
X12433Y13810D2*
X11270D1*
X10000D1*
X14214Y17060D2*
X14639Y16635D1*
Y15231D1*
X13179Y13772D1*
Y12433D1*
X13810D1*
Y11270D1*
Y10000D1*
X16651Y17852D2*
X16789D1*
Y12872D1*
X16350Y12433D1*
Y11270D1*
Y10000D1*
X18153Y17443D2*
Y17324D1*
X19189Y16287D1*
Y12134D1*
X18890Y12433D1*
Y11270D1*
Y10000D1*
X19971Y18077D2*
X19921D1*
Y16956D1*
X20544Y16333D1*
Y13318D1*
X21430Y12433D1*
Y11270D1*
Y10000D1*
X22808Y13810D2*
X23970D1*
X25240D1*
X22808Y16350D2*
X23970D1*
X25240D1*
X22808Y18890D2*
X23970D1*
X25240D1*
X22808Y21430D2*
X23970D1*
X25240D1*
X22808Y23970D2*
X23970D1*
X25240D1*
X22808Y26510D2*
X23970D1*
X25240D1*
X18976Y25608D2*
Y26420D1*
X17458Y27937D1*
Y27942D1*
X16350Y29050D1*
Y30320D2*
Y29050D1*
Y27888D1*
X18068Y25348D2*
Y26624D1*
X17454Y27237D1*
X15623D1*
X13810Y29050D1*
Y27888D2*
Y29050D1*
Y30320D1*
X21430Y27888D2*
D15*
Y29050D1*
Y30320D1*
Y29050D2*
Y27693D1*
X22080Y27044D1*
Y13160D1*
D16*
X22815Y12425D1*
Y12230D1*
X17178Y25959D2*
D15*
Y25790D1*
X17347Y25621D1*
Y25061D1*
X17772Y24637D1*
X19021D1*
X19764Y25380D1*
Y26005D1*
X19757Y26012D1*
D44*
X17178Y25959D3*
X19757Y26012D3*
X20735Y24745D3*
X20677Y23797D3*
X18068Y25348D3*
X18976Y25608D3*
X16610Y25289D3*
X15024Y25737D3*
X14034Y25518D3*
X14244Y23796D3*
X14283Y24678D3*
X14214Y17060D3*
X18153Y17443D3*
X19971Y18077D3*
X16651Y17852D3*
X22815Y12230D3*
X19889Y16072D3*
X21207Y16141D3*
X18521Y15996D3*
X13999Y15520D3*
X15767Y15501D3*
X17501Y15478D3*
X21309Y17875D3*
X17449Y29595D2*
D13*
X18345D1*
X17449Y29447D2*
X18404D1*
X17449Y29298D2*
X18461D1*
X17449Y29149D2*
X18521D1*
X17449Y29001D2*
X18580D1*
X17449Y28852D2*
X18639D1*
X17449Y28703D2*
X18696D1*
X17449Y28555D2*
X18756D1*
X17516Y28406D2*
X18815D1*
X17665Y28257D2*
X18875D1*
X17810Y28109D2*
X18932D1*
X17957Y27960D2*
X18991D1*
X18107Y27811D2*
X19050D1*
X18254Y27663D2*
X19110D1*
X18404Y27514D2*
X19167D1*
X18553Y27365D2*
X19252D1*
X18701Y27217D2*
X19409D1*
X18850Y27068D2*
X19566D1*
X18998Y26919D2*
X19722D1*
X19147Y26771D2*
X19879D1*
X13675Y26622D2*
X15139D1*
X19287D2*
X20036D1*
X13526Y26473D2*
X15288D1*
X13378Y26325D2*
X13521D1*
X14647D2*
X14963D1*
X15086D2*
X15438D1*
X15433Y26176D2*
X15585D1*
X20339D2*
X20506D1*
X15551Y26027D2*
X15735D1*
X20361D2*
X20663D1*
X15611Y25879D2*
X15882D1*
X20347D2*
X20820D1*
X15627Y25730D2*
X16032D1*
X20290D2*
X20976D1*
X15608Y25581D2*
X16084D1*
X20214D2*
X21133D1*
X15544Y25433D2*
X16022D1*
X20214D2*
X21290D1*
X15416Y25284D2*
X16006D1*
X20202D2*
X21447D1*
X14670Y25135D2*
X16025D1*
X20138D2*
X21603D1*
X14801Y24987D2*
X16089D1*
X20000D2*
X21632D1*
X14865Y24838D2*
X16215D1*
X19850D2*
X21632D1*
X14886Y24689D2*
X17091D1*
X19703D2*
X21632D1*
X15019Y24541D2*
X17238D1*
X19553D2*
X21632D1*
X15133Y24392D2*
X17388D1*
X19406D2*
X21632D1*
X15155Y24243D2*
X17573D1*
X19218D2*
X20278D1*
X21078D2*
X21632D1*
X15155Y24095D2*
X20152D1*
X21202D2*
X21632D1*
X15155Y23946D2*
X20093D1*
X21263D2*
X21632D1*
X15155Y23797D2*
X20072D1*
X21282D2*
X21632D1*
X15155Y23649D2*
X20091D1*
X21263D2*
X21632D1*
X15155Y23500D2*
X20152D1*
X21202D2*
X21632D1*
X15155Y23351D2*
X20262D1*
X21078D2*
X21632D1*
X15155Y23203D2*
X20262D1*
X21009D2*
X21632D1*
X15155Y23054D2*
X20262D1*
X21009D2*
X21632D1*
X15155Y22905D2*
X20262D1*
X21009D2*
X21632D1*
X15155Y22757D2*
X20262D1*
X21009D2*
X21632D1*
X15155Y22608D2*
X20262D1*
X21009D2*
X21632D1*
X15155Y22459D2*
X20262D1*
X21009D2*
X21632D1*
X15155Y22311D2*
X20262D1*
X21009D2*
X21632D1*
X15155Y22162D2*
X20262D1*
X21009D2*
X21632D1*
X15155Y22013D2*
X20262D1*
X21009D2*
X21632D1*
X15155Y21865D2*
X20262D1*
X21009D2*
X21632D1*
X15155Y21716D2*
X20262D1*
X21009D2*
X21632D1*
X15155Y21567D2*
X20262D1*
X21009D2*
X21632D1*
X15155Y21419D2*
X20262D1*
X21009D2*
X21632D1*
X15155Y21270D2*
X20262D1*
X21009D2*
X21632D1*
X15155Y21121D2*
X20262D1*
X21009D2*
X21632D1*
X15155Y20973D2*
X20262D1*
X21009D2*
X21632D1*
X15155Y20824D2*
X20262D1*
X21009D2*
X21632D1*
X15155Y20675D2*
X20262D1*
X21009D2*
X21632D1*
X15155Y20527D2*
X20262D1*
X21009D2*
X21632D1*
X15155Y20378D2*
X20262D1*
X21009D2*
X21632D1*
X15155Y20229D2*
X20262D1*
X21009D2*
X21632D1*
X15155Y20081D2*
X20262D1*
X21009D2*
X21632D1*
X15155Y19932D2*
X20262D1*
X21009D2*
X21632D1*
X15155Y19783D2*
X20262D1*
X21009D2*
X21632D1*
X15155Y19635D2*
X20262D1*
X21009D2*
X21632D1*
X15155Y19486D2*
X20262D1*
X21009D2*
X21632D1*
X17763Y19337D2*
X20262D1*
X21009D2*
X21632D1*
X17912Y19189D2*
X20262D1*
X21009D2*
X21632D1*
X18059Y19040D2*
X20262D1*
X21009D2*
X21632D1*
X13673Y18891D2*
X13885D1*
X18209D2*
X20262D1*
X21009D2*
X21632D1*
X13820Y18743D2*
X14032D1*
X18356D2*
X20262D1*
X21009D2*
X21632D1*
X13970Y18594D2*
X14182D1*
X18506D2*
X19673D1*
X21009D2*
X21632D1*
X14117Y18445D2*
X14329D1*
X18656D2*
X19494D1*
X21009D2*
X21632D1*
X14267Y18297D2*
X14478D1*
X18803D2*
X19409D1*
X21009D2*
X21632D1*
X14416Y18148D2*
X14699D1*
X18952D2*
X19371D1*
X21009D2*
X21632D1*
X14563Y17999D2*
X16065D1*
X19100D2*
X19371D1*
X21009D2*
X21632D1*
X14713Y17851D2*
X16046D1*
X19249D2*
X19411D1*
X21009D2*
X21632D1*
X14860Y17702D2*
X16065D1*
X19399D2*
X19502D1*
X21009D2*
X21632D1*
X15010Y17553D2*
X16127D1*
X21009D2*
X21632D1*
X15160Y17405D2*
X16253D1*
X21009D2*
X21632D1*
X15285Y17256D2*
X16416D1*
X21009D2*
X21632D1*
X15321Y17107D2*
X16416D1*
X21009D2*
X21632D1*
X15321Y16959D2*
X16416D1*
X21090D2*
X21632D1*
X15321Y16810D2*
X16416D1*
X21240D2*
X21632D1*
X15321Y16661D2*
X16416D1*
X21498D2*
X21632D1*
X15321Y16513D2*
X16416D1*
X15433Y16364D2*
X16416D1*
X15582Y16215D2*
X16416D1*
X15948Y16067D2*
X16416D1*
X16197Y15918D2*
X16416D1*
X15012Y15769D2*
X15122D1*
X16307D2*
X16416D1*
X15012Y15621D2*
X15174D1*
X15012Y15472D2*
X15162D1*
X15012Y15323D2*
X15189D1*
X15008Y15175D2*
X15260D1*
X16273D2*
X16416D1*
X14948Y15026D2*
X15402D1*
X16131D2*
X16416D1*
X14808Y14877D2*
X16416D1*
X14658Y14729D2*
X16416D1*
X14511Y14580D2*
X16416D1*
X14362Y14431D2*
X16416D1*
X14212Y14283D2*
X16416D1*
X14065Y14134D2*
X16416D1*
X13915Y13985D2*
X16416D1*
X13768Y13837D2*
X16416D1*
X13618Y13688D2*
X16416D1*
X13554Y13539D2*
X16416D1*
X13554Y13391D2*
X16416D1*
X13554Y13242D2*
X16416D1*
X13554Y13093D2*
X16416D1*
X14381Y12945D2*
X15780D1*
X14668Y12796D2*
X15490D1*
X14877Y12647D2*
X15284D1*
X14908Y12499D2*
X15250D1*
X14908Y12350D2*
X15250D1*
X14908Y12201D2*
X15250D1*
X14908Y12053D2*
X15250D1*
X14908Y11904D2*
X15250D1*
X14908Y11755D2*
X15250D1*
X14908Y11607D2*
X15250D1*
X14908Y11458D2*
X15250D1*
X14908Y11309D2*
X15250D1*
X14908Y11161D2*
X15250D1*
X14908Y11012D2*
X15250D1*
X14908Y10863D2*
X15250D1*
X14908Y10715D2*
X15250D1*
X17434Y29744D2*
Y28471D1*
X17706Y28201D1*
X17980Y27923D1*
X19230Y26673D1*
X19277Y26614D1*
X19311Y26547D1*
X19329Y26481D1*
X19369Y26457D1*
X19430Y26503D1*
X19495Y26541D1*
X19566Y26570D1*
X19639Y26590D1*
X19714Y26601D1*
X19790D1*
X19865Y26592D1*
X19939Y26573D1*
X20010Y26545D1*
X20076Y26508D1*
X20137Y26463D1*
X20192Y26411D1*
X20239Y26351D1*
X20279Y26287D1*
X20310Y26217D1*
X20332Y26144D1*
X20347Y26012D1*
X20342Y25937D1*
X20327Y25862D1*
X20303Y25790D1*
X20270Y25722D1*
X20199Y25624D1*
X20198Y25380D1*
X20191Y25304D1*
X20172Y25231D1*
X20140Y25162D1*
X20071Y25073D1*
X19328Y24330D1*
X19270Y24281D1*
X19204Y24243D1*
X19133Y24217D1*
X19021Y24203D1*
X17772D1*
X17696Y24209D1*
X17623Y24229D1*
X17554Y24261D1*
X17465Y24330D1*
X17040Y24755D1*
X16975Y24827D1*
X16913Y24783D1*
X16845Y24749D1*
X16774Y24723D1*
X16700Y24706D1*
X16624Y24700D1*
X16548Y24703D1*
X16473Y24716D1*
X16401Y24738D1*
X16332Y24769D1*
X16267Y24809D1*
X16208Y24857D1*
X16156Y24913D1*
X16111Y24974D1*
X16075Y25041D1*
X16048Y25111D1*
X16029Y25185D1*
X16021Y25261D1*
X16022Y25337D1*
X16033Y25412D1*
X16054Y25485D1*
X16083Y25555D1*
X16138Y25641D1*
X15564Y26213D1*
X15152Y26624D1*
X13663D1*
X13348Y26310D1*
X13349Y26138D1*
X13554Y26342D1*
X13613Y26389D1*
X13683Y26420D1*
X13773Y26433D1*
X14395D1*
X14470Y26424D1*
X14541Y26397D1*
X14615Y26342D1*
X14717Y26240D1*
X14833Y26295D1*
X14906Y26315D1*
X14981Y26325D1*
X15057Y26326D1*
X15133Y26317D1*
X15206Y26298D1*
X15277Y26270D1*
X15343Y26233D1*
X15404Y26188D1*
X15459Y26135D1*
X15507Y26076D1*
X15546Y26011D1*
X15577Y25942D1*
X15599Y25869D1*
X15614Y25737D1*
X15609Y25661D1*
X15594Y25587D1*
X15570Y25515D1*
X15537Y25447D1*
X15495Y25383D1*
X15446Y25325D1*
X15390Y25275D1*
X15327Y25231D1*
X15259Y25197D1*
X15188Y25171D1*
X15114Y25154D1*
X15038Y25148D1*
X14962Y25151D1*
X14887Y25164D1*
X14815Y25186D1*
X14746Y25217D1*
X14681Y25257D1*
X14595Y25335D1*
X14547Y25227D1*
X14535Y25209D1*
X14602Y25174D1*
X14663Y25129D1*
X14718Y25076D1*
X14765Y25017D1*
X14805Y24952D1*
X14836Y24883D1*
X14858Y24810D1*
X14873Y24678D1*
X14872Y24671D1*
X15049Y24497D1*
X15096Y24437D1*
X15126Y24368D1*
X15140Y24278D1*
Y19459D1*
X15188Y19412D1*
X17544D1*
X17620Y19403D1*
X17690Y19376D1*
X17764Y19321D1*
X19562Y17523D1*
Y17652D1*
X19517Y17701D1*
X19473Y17762D1*
X19436Y17829D1*
X19409Y17900D1*
X19390Y17973D1*
X19382Y18049D1*
X19383Y18125D1*
X19394Y18200D1*
X19415Y18273D1*
X19444Y18343D1*
X19483Y18408D1*
X19529Y18468D1*
X19583Y18522D1*
X19644Y18568D1*
X19709Y18606D1*
X19780Y18635D1*
X19853Y18655D1*
X19928Y18666D1*
X20004D1*
X20079Y18657D1*
X20153Y18638D1*
X20224Y18610D1*
X20275Y18581D1*
X20276Y23365D1*
X20223Y23420D1*
X20179Y23482D1*
X20142Y23548D1*
X20115Y23619D1*
X20097Y23693D1*
X20088Y23768D1*
X20089Y23844D1*
X20100Y23920D1*
X20121Y23993D1*
X20151Y24063D1*
X20189Y24128D1*
X20236Y24188D1*
X20290Y24242D1*
X20350Y24288D1*
X20416Y24326D1*
X20486Y24355D1*
X20559Y24375D1*
X20634Y24385D1*
X20710Y24386D1*
X20786Y24377D1*
X20859Y24358D1*
X20930Y24330D1*
X20996Y24293D1*
X21057Y24248D1*
X21112Y24195D1*
X21160Y24136D1*
X21199Y24071D1*
X21230Y24002D1*
X21252Y23929D1*
X21267Y23797D1*
X21262Y23721D1*
X21247Y23647D1*
X21223Y23575D1*
X21190Y23506D1*
X21149Y23443D1*
X21099Y23385D1*
X21043Y23334D1*
X20994Y23299D1*
X20996Y17037D1*
X21316Y16720D1*
X21390Y16701D1*
X21460Y16673D1*
X21527Y16636D1*
X21588Y16591D1*
X21647Y16533D1*
X21646Y19012D1*
Y25109D1*
X19264Y27367D1*
X19218Y27429D1*
X18956Y28087D1*
X18305Y29737D1*
X18274Y29744D1*
X17435D1*
X17434Y29070D1*
X17432D1*
X14894Y12000D2*
Y10577D1*
X15268Y10576D1*
X15266Y10996D1*
X15268Y12304D1*
X15267Y12315D1*
X15266Y12530D1*
X15278Y12605D1*
X15314Y12672D1*
X15371Y12725D1*
X15461Y12773D1*
X15918Y13008D1*
X15992Y13031D1*
X16101Y13034D1*
X16431D1*
X16430Y17306D1*
X16373Y17332D1*
X16308Y17372D1*
X16249Y17420D1*
X16197Y17476D1*
X16152Y17537D1*
X16116Y17604D1*
X16088Y17675D1*
X16070Y17748D1*
X16062Y17824D1*
X16063Y17900D1*
X16074Y17975D1*
X16094Y18048D1*
X16137Y18140D1*
X14777Y18141D1*
X14702Y18151D1*
X14631Y18178D1*
X14558Y18232D1*
X13659Y19131D1*
X13658Y18889D1*
X14266Y18283D1*
X15214Y17335D1*
X15261Y17275D1*
X15292Y17205D1*
X15305Y17115D1*
Y16476D1*
X15696Y16087D1*
X15800Y16090D1*
X15875Y16081D1*
X15949Y16062D1*
X16019Y16034D1*
X16086Y15997D1*
X16147Y15952D1*
X16202Y15899D1*
X16249Y15840D1*
X16289Y15775D1*
X16320Y15706D1*
X16341Y15633D1*
X16356Y15501D1*
X16351Y15426D1*
X16337Y15351D1*
X16313Y15279D1*
X16280Y15211D1*
X16238Y15147D1*
X16188Y15089D1*
X16132Y15039D1*
X16070Y14995D1*
X16002Y14961D1*
X15931Y14935D1*
X15856Y14919D1*
X15781Y14912D1*
X15705Y14915D1*
X15630Y14928D1*
X15557Y14950D1*
X15488Y14981D1*
X15424Y15021D1*
X15365Y15069D1*
X15313Y15125D1*
X15268Y15186D1*
X15232Y15253D1*
X15204Y15324D1*
X15186Y15397D1*
X15178Y15473D1*
X15179Y15549D1*
X15190Y15624D1*
X15210Y15695D1*
X14997Y15908D1*
X14998Y15231D1*
X14990Y15156D1*
X14966Y15084D1*
X14934Y15026D1*
X14839Y14924D1*
X13538Y13620D1*
Y13033D1*
X14135Y13034D1*
X14212Y13021D1*
X14310Y12973D1*
X14767Y12738D1*
X14828Y12693D1*
X14871Y12631D1*
X14892Y12556D1*
X14894Y12454D1*
Y12000D1*
X19989Y29571D2*
X22111D1*
X19989Y29422D2*
X22261D1*
X19989Y29273D2*
X22411D1*
X19989Y29124D2*
X22561D1*
X19989Y28975D2*
X22711D1*
X19989Y28825D2*
X22861D1*
X19989Y28676D2*
X23011D1*
X19989Y28527D2*
X23161D1*
X19989Y28378D2*
X23311D1*
X19989Y28229D2*
X23461D1*
X19989Y28080D2*
X23611D1*
X19989Y27931D2*
X23761D1*
X19989Y27782D2*
X23911D1*
X19929Y27633D2*
X24063D1*
X19943Y27484D2*
X22497D1*
X20091Y27335D2*
X22418D1*
X20241Y27186D2*
X22342D1*
X20389Y27037D2*
X22266D1*
X20539Y26888D2*
X22196D1*
X20689Y26739D2*
X22189D1*
X20836Y26589D2*
X22189D1*
X20986Y26440D2*
X22189D1*
X21120Y26291D2*
X22189D1*
X21179Y26142D2*
X22194D1*
X21189Y25993D2*
X22168D1*
X21336Y25844D2*
X22101D1*
X21494Y25695D2*
X22035D1*
X21651Y25546D2*
X21968D1*
X21808Y25397D2*
X21901D1*
X19975Y29711D2*
X19972Y28015D1*
X19975Y27950D1*
Y27790D1*
X19962Y27715D1*
X19927Y27648D1*
X19870Y27595D1*
X19837Y27576D1*
X21046Y26365D1*
X21095Y26307D1*
X21133Y26241D1*
X21159Y26170D1*
X21173Y26058D1*
Y25984D1*
X21878Y25316D1*
X22147Y25912D1*
X22225Y26088D1*
X22211Y26134D1*
X22205Y26261D1*
Y26835D1*
X22219Y26912D1*
X22266Y27010D1*
X22501Y27467D1*
X22546Y27528D1*
X22609Y27572D1*
X22684Y27593D1*
X22786Y27595D1*
X24119D1*
X23950Y27760D1*
X22001Y29695D1*
X19972Y29710D1*
X19975Y29437D1*
X19972Y29069D1*
D23*
X21430Y29050D3*
X18890D3*
X16350D3*
X13810D3*
G36*
X18040Y27790D2*
Y28255D1*
X19740D1*
Y27790D1*
X19215Y27520D1*
X18565D1*
X18040Y27790D1*
G37*
G36*
X20580D2*
Y28255D1*
X22280D1*
Y27790D1*
X21755Y27520D1*
X21105D1*
X20580Y27790D1*
G37*
G36*
X12960D2*
Y28255D1*
X14660D1*
Y27790D1*
X14135Y27520D1*
X13485D1*
X12960Y27790D1*
G37*
G36*
X15500D2*
Y28255D1*
X17200D1*
Y27790D1*
X16675Y27520D1*
X16025D1*
X15500Y27790D1*
G37*
D24*
X21430Y30320D3*
X18890D3*
X16350D3*
X13810D3*
D23*
Y11270D3*
X16350D3*
X18890D3*
X21430D3*
G36*
X17200Y12530D2*
Y12065D1*
X15500D1*
Y12530D1*
X16025Y12800D1*
X16675D1*
X17200Y12530D1*
G37*
G36*
X14660D2*
Y12065D1*
X12960D1*
Y12530D1*
X13485Y12800D1*
X14135D1*
X14660Y12530D1*
G37*
G36*
X22280D2*
Y12065D1*
X20580D1*
Y12530D1*
X21105Y12800D1*
X21755D1*
X22280Y12530D1*
G37*
G36*
X19740D2*
Y12065D1*
X18040D1*
Y12530D1*
X18565Y12800D1*
X19215D1*
X19740Y12530D1*
G37*
D24*
X13810Y10000D3*
X16350D3*
X18890D3*
X21430D3*
D25*
X11270Y26510D3*
Y23970D3*
Y21430D3*
Y18890D3*
Y16350D3*
Y13810D3*
G36*
X12530Y23120D2*
X12065D1*
Y24820D1*
X12530D1*
X12800Y24295D1*
Y23645D1*
X12530Y23120D1*
G37*
G36*
Y25660D2*
X12065D1*
Y27360D1*
X12530D1*
X12800Y26835D1*
Y26185D1*
X12530Y25660D1*
G37*
G36*
Y20580D2*
X12065D1*
Y22280D1*
X12530D1*
X12800Y21755D1*
Y21105D1*
X12530Y20580D1*
G37*
G36*
Y15500D2*
X12065D1*
Y17200D1*
X12530D1*
X12800Y16675D1*
Y16025D1*
X12530Y15500D1*
G37*
G36*
Y18040D2*
X12065D1*
Y19740D1*
X12530D1*
X12800Y19215D1*
Y18565D1*
X12530Y18040D1*
G37*
G36*
Y12960D2*
X12065D1*
Y14660D1*
X12530D1*
X12800Y14135D1*
Y13485D1*
X12530Y12960D1*
G37*
D26*
X10000Y26510D3*
Y23970D3*
Y21430D3*
Y18890D3*
Y16350D3*
Y13810D3*
D25*
X23970D3*
Y16350D3*
Y18890D3*
Y21430D3*
Y23970D3*
Y26510D3*
G36*
X22710Y17200D2*
X23175D1*
Y15500D1*
X22710D1*
X22440Y16025D1*
Y16675D1*
X22710Y17200D1*
G37*
G36*
Y14660D2*
X23175D1*
Y12960D1*
X22710D1*
X22440Y13485D1*
Y14135D1*
X22710Y14660D1*
G37*
G36*
Y19740D2*
X23175D1*
Y18040D1*
X22710D1*
X22440Y18565D1*
Y19215D1*
X22710Y19740D1*
G37*
G36*
Y24820D2*
X23175D1*
Y23120D1*
X22710D1*
X22440Y23645D1*
Y24295D1*
X22710Y24820D1*
G37*
G36*
Y22280D2*
X23175D1*
Y20580D1*
X22710D1*
X22440Y21105D1*
Y21755D1*
X22710Y22280D1*
G37*
G36*
Y27360D2*
X23175D1*
Y25660D1*
X22710D1*
X22440Y26185D1*
Y26835D1*
X22710Y27360D1*
G37*
D26*
X25240Y13810D3*
Y16350D3*
Y18890D3*
Y21430D3*
Y23970D3*
Y26510D3*
D40*
X18984Y19868D3*
X18969Y20918D3*
X16719Y19883D3*
X15669Y20948D3*
X17934Y19883D3*
X15669D3*
X16689Y20933D3*
X17919Y20918D3*
X18969Y22133D3*
X18984Y23183D3*
X16704Y22133D3*
X15669Y23183D3*
X17904Y22133D3*
X15684D3*
X16719Y23183D3*
X17904D3*
G36*
X19557Y18466D2*
X19528Y18656D1*
X19468Y18804D1*
X19392Y18898D1*
X19316Y18974D1*
X19203Y19037D1*
X19138Y19063D1*
X19043Y19083D1*
X18992Y19093D1*
X18910Y19098D1*
X18845Y19075D1*
X18807Y19037D1*
X18781Y19012D1*
X18717Y18999D1*
X18692Y19004D1*
X18641Y19019D1*
X18614Y19050D1*
X18515Y18968D1*
X18565Y18892D1*
Y18874D1*
X18476Y18838D1*
X18464Y18783D1*
X18454Y18682D1*
X18706Y18788D1*
X18738D1*
X18781Y18781D1*
X18791Y18758D1*
X18771Y18707D1*
X18656Y18644D1*
X18484Y18573D1*
X18509Y18522D1*
X18573Y18468D1*
X18763Y18542D1*
X18757Y18504D1*
Y18466D1*
X19557D1*
G37*
M02*
