G04 #@! TF.FileFunction,Soldermask,Bot*
%FSLAX46Y46*%
G04 Gerber Fmt 4.6, Leading zero omitted, Abs format (unit mm)*
G04 Created by KiCad (PCBNEW (2015-02-24 BZR 5451)-product) date mar 19 mag 2015 11:10:47 CEST*
%MOMM*%
G01*
G04 APERTURE LIST*
%ADD10C,0.150000*%
%ADD11C,3.756000*%
%ADD12C,1.701140*%
%ADD13R,1.701140X1.701140*%
%ADD14R,1.200000X2.900000*%
%ADD15R,1.700000X3.200000*%
%ADD16C,2.550000*%
%ADD17C,1.200000*%
%ADD18R,1.200000X1.200000*%
G04 APERTURE END LIST*
D10*
D11*
X88500000Y-106500000D03*
X137500000Y-106500000D03*
X88500000Y-57500000D03*
X137500000Y-57500000D03*
D12*
X89770000Y-69300000D03*
X89770000Y-71840000D03*
X89770000Y-74380000D03*
X89770000Y-76920000D03*
X89770000Y-79460000D03*
X89770000Y-82000000D03*
X89770000Y-84540000D03*
X89770000Y-87080000D03*
X89770000Y-89620000D03*
X89770000Y-92160000D03*
X89770000Y-94700000D03*
X89770000Y-97240000D03*
X89770000Y-99780000D03*
D13*
X89770000Y-102320000D03*
X87230000Y-102320000D03*
D12*
X87230000Y-99780000D03*
X87230000Y-97240000D03*
X87230000Y-94700000D03*
X87230000Y-92160000D03*
X87230000Y-89620000D03*
X87230000Y-87080000D03*
X87230000Y-84540000D03*
X87230000Y-82000000D03*
X87230000Y-79460000D03*
X87230000Y-76920000D03*
X87230000Y-74380000D03*
X87230000Y-71840000D03*
X87230000Y-69300000D03*
X87230000Y-66760000D03*
X87230000Y-64220000D03*
X87230000Y-61680000D03*
X89770000Y-66760000D03*
X89770000Y-64220000D03*
X89770000Y-61680000D03*
X136230000Y-94700000D03*
X136230000Y-92160000D03*
X136230000Y-89620000D03*
X136230000Y-87080000D03*
X136230000Y-84540000D03*
X136230000Y-82000000D03*
X136230000Y-79460000D03*
X136230000Y-76920000D03*
X136230000Y-74380000D03*
X136230000Y-71840000D03*
X136230000Y-69300000D03*
X136230000Y-66760000D03*
X136230000Y-64220000D03*
D13*
X136230000Y-61680000D03*
X138770000Y-61680000D03*
D12*
X138770000Y-64220000D03*
X138770000Y-66760000D03*
X138770000Y-69300000D03*
X138770000Y-71840000D03*
X138770000Y-74380000D03*
X138770000Y-76920000D03*
X138770000Y-79460000D03*
X138770000Y-82000000D03*
X138770000Y-84540000D03*
X138770000Y-87080000D03*
X138770000Y-89620000D03*
X138770000Y-92160000D03*
X138770000Y-94700000D03*
X138770000Y-97240000D03*
X138770000Y-99780000D03*
X138770000Y-102320000D03*
X136230000Y-97240000D03*
X136230000Y-99780000D03*
X136230000Y-102320000D03*
D14*
X95000000Y-65350000D03*
X97000000Y-65350000D03*
X99000000Y-65350000D03*
X101000000Y-65350000D03*
D15*
X92750000Y-58000000D03*
X103250000Y-58000000D03*
D14*
X101000000Y-98650000D03*
X99000000Y-98650000D03*
X97000000Y-98650000D03*
X95000000Y-98650000D03*
D15*
X103250000Y-106000000D03*
X92750000Y-106000000D03*
D14*
X116000000Y-98650000D03*
X114000000Y-98650000D03*
X112000000Y-98650000D03*
X110000000Y-98650000D03*
D15*
X118250000Y-106000000D03*
X107750000Y-106000000D03*
D14*
X131000000Y-98650000D03*
X129000000Y-98650000D03*
X127000000Y-98650000D03*
X125000000Y-98650000D03*
D15*
X133250000Y-106000000D03*
X122750000Y-106000000D03*
D14*
X125000000Y-65350000D03*
X127000000Y-65350000D03*
X129000000Y-65350000D03*
X131000000Y-65350000D03*
D15*
X122750000Y-58000000D03*
X133250000Y-58000000D03*
D14*
X110000000Y-65350000D03*
X112000000Y-65350000D03*
X114000000Y-65350000D03*
X116000000Y-65350000D03*
D15*
X107750000Y-58000000D03*
X118250000Y-58000000D03*
D16*
X98000000Y-93150000D03*
D17*
X96750000Y-74350000D03*
X96750000Y-76350000D03*
X96750000Y-78350000D03*
X96750000Y-80350000D03*
X96750000Y-82350000D03*
D18*
X96750000Y-72350000D03*
D16*
X98000000Y-84000000D03*
D18*
X99250000Y-72350000D03*
D17*
X99250000Y-82350000D03*
X99250000Y-80350000D03*
X99250000Y-78350000D03*
X99250000Y-76350000D03*
X99250000Y-74350000D03*
X101250000Y-73350000D03*
X101250000Y-75350000D03*
X101250000Y-77350000D03*
X101250000Y-79350000D03*
X101250000Y-81350000D03*
X94750000Y-73350000D03*
X94750000Y-75350000D03*
X94750000Y-77350000D03*
X94750000Y-79350000D03*
X94750000Y-81350000D03*
X101250000Y-85350000D03*
X99250000Y-86350000D03*
X101250000Y-87350000D03*
X99250000Y-88350000D03*
X101250000Y-89350000D03*
X99250000Y-90350000D03*
X101250000Y-91350000D03*
X94750000Y-85350000D03*
X96750000Y-86350000D03*
X94750000Y-87350000D03*
X96750000Y-88350000D03*
X94750000Y-89350000D03*
X96750000Y-90350000D03*
X94750000Y-91350000D03*
D16*
X108000000Y-93150000D03*
D17*
X106750000Y-74350000D03*
X106750000Y-76350000D03*
X106750000Y-78350000D03*
X106750000Y-80350000D03*
X106750000Y-82350000D03*
D18*
X106750000Y-72350000D03*
D16*
X108000000Y-84000000D03*
D18*
X109250000Y-72350000D03*
D17*
X109250000Y-82350000D03*
X109250000Y-80350000D03*
X109250000Y-78350000D03*
X109250000Y-76350000D03*
X109250000Y-74350000D03*
X111250000Y-73350000D03*
X111250000Y-75350000D03*
X111250000Y-77350000D03*
X111250000Y-79350000D03*
X111250000Y-81350000D03*
X104750000Y-73350000D03*
X104750000Y-75350000D03*
X104750000Y-77350000D03*
X104750000Y-79350000D03*
X104750000Y-81350000D03*
X111250000Y-85350000D03*
X109250000Y-86350000D03*
X111250000Y-87350000D03*
X109250000Y-88350000D03*
X111250000Y-89350000D03*
X109250000Y-90350000D03*
X111250000Y-91350000D03*
X104750000Y-85350000D03*
X106750000Y-86350000D03*
X104750000Y-87350000D03*
X106750000Y-88350000D03*
X104750000Y-89350000D03*
X106750000Y-90350000D03*
X104750000Y-91350000D03*
D16*
X118000000Y-93150000D03*
D17*
X116750000Y-74350000D03*
X116750000Y-76350000D03*
X116750000Y-78350000D03*
X116750000Y-80350000D03*
X116750000Y-82350000D03*
D18*
X116750000Y-72350000D03*
D16*
X118000000Y-84000000D03*
D18*
X119250000Y-72350000D03*
D17*
X119250000Y-82350000D03*
X119250000Y-80350000D03*
X119250000Y-78350000D03*
X119250000Y-76350000D03*
X119250000Y-74350000D03*
X121250000Y-73350000D03*
X121250000Y-75350000D03*
X121250000Y-77350000D03*
X121250000Y-79350000D03*
X121250000Y-81350000D03*
X114750000Y-73350000D03*
X114750000Y-75350000D03*
X114750000Y-77350000D03*
X114750000Y-79350000D03*
X114750000Y-81350000D03*
X121250000Y-85350000D03*
X119250000Y-86350000D03*
X121250000Y-87350000D03*
X119250000Y-88350000D03*
X121250000Y-89350000D03*
X119250000Y-90350000D03*
X121250000Y-91350000D03*
X114750000Y-85350000D03*
X116750000Y-86350000D03*
X114750000Y-87350000D03*
X116750000Y-88350000D03*
X114750000Y-89350000D03*
X116750000Y-90350000D03*
X114750000Y-91350000D03*
D16*
X128000000Y-93150000D03*
D17*
X126750000Y-74350000D03*
X126750000Y-76350000D03*
X126750000Y-78350000D03*
X126750000Y-80350000D03*
X126750000Y-82350000D03*
D18*
X126750000Y-72350000D03*
D16*
X128000000Y-84000000D03*
D18*
X129250000Y-72350000D03*
D17*
X129250000Y-82350000D03*
X129250000Y-80350000D03*
X129250000Y-78350000D03*
X129250000Y-76350000D03*
X129250000Y-74350000D03*
X131250000Y-73350000D03*
X131250000Y-75350000D03*
X131250000Y-77350000D03*
X131250000Y-79350000D03*
X131250000Y-81350000D03*
X124750000Y-73350000D03*
X124750000Y-75350000D03*
X124750000Y-77350000D03*
X124750000Y-79350000D03*
X124750000Y-81350000D03*
X131250000Y-85350000D03*
X129250000Y-86350000D03*
X131250000Y-87350000D03*
X129250000Y-88350000D03*
X131250000Y-89350000D03*
X129250000Y-90350000D03*
X131250000Y-91350000D03*
X124750000Y-85350000D03*
X126750000Y-86350000D03*
X124750000Y-87350000D03*
X126750000Y-88350000D03*
X124750000Y-89350000D03*
X126750000Y-90350000D03*
X124750000Y-91350000D03*
M02*
