G04 (created by PCBNEW-RS274X (2012-01-19 BZR 3256)-stable) date 27/06/2012 6:41:12 PM*
G01*
G70*
G90*
%MOIN*%
G04 Gerber Fmt 3.4, Leading zero omitted, Abs format*
%FSLAX34Y34*%
G04 APERTURE LIST*
%ADD10C,0.006000*%
%ADD11C,0.015000*%
G04 APERTURE END LIST*
G54D10*
G54D11*
X04725Y-44094D02*
X04725Y-04724D01*
X44056Y-44094D02*
X04686Y-44094D01*
X44095Y-04724D02*
X44095Y-44094D01*
X04725Y-04724D02*
X44095Y-04724D01*
M02*
