G04 Layer_Physical_Order=1*
G04 Layer_Color=255*
%FSAX24Y24*%
%MOIN*%
G70*
G01*
G75*
%ADD10R,0.0480X0.0358*%
%ADD11R,0.0610X0.0945*%
%ADD12R,0.0354X0.0276*%
%ADD13R,0.0394X0.0354*%
%ADD14R,0.0453X0.0571*%
%ADD15R,0.0354X0.0394*%
%ADD16R,0.0571X0.0453*%
%ADD17R,0.1969X0.1969*%
%ADD18R,0.0669X0.0118*%
%ADD19R,0.0118X0.0669*%
%ADD20R,0.0925X0.0512*%
%ADD21R,0.0587X0.1732*%
%ADD22R,0.0354X0.0098*%
G04:AMPARAMS|DCode=23|XSize=106.3mil|YSize=315mil|CornerRadius=53.2mil|HoleSize=0mil|Usage=FLASHONLY|Rotation=0.000|XOffset=0mil|YOffset=0mil|HoleType=Round|Shape=RoundedRectangle|*
%AMROUNDEDRECTD23*
21,1,0.1063,0.2087,0,0,0.0*
21,1,0.0000,0.3150,0,0,0.0*
1,1,0.1063,0.0000,-0.1043*
1,1,0.1063,0.0000,-0.1043*
1,1,0.1063,0.0000,0.1043*
1,1,0.1063,0.0000,0.1043*
%
%ADD23ROUNDEDRECTD23*%
%ADD24R,0.0413X0.1634*%
%ADD25R,0.4173X0.3465*%
%ADD26R,0.0480X0.0560*%
%ADD27C,0.0100*%
%ADD28C,0.0200*%
%ADD29C,0.0120*%
%ADD30C,0.0500*%
%ADD31C,0.0400*%
%ADD32C,0.0600*%
%ADD33R,0.3005X0.1700*%
%ADD34C,0.0570*%
%ADD35C,0.0630*%
%ADD36C,0.2010*%
%ADD37C,0.0500*%
%ADD38C,0.0400*%
%ADD39C,0.0200*%
G36*
X067800Y031700D02*
X057000Y031700D01*
X057000Y031700D01*
X056958Y031702D01*
X056835Y031687D01*
X056707Y031635D01*
X056598Y031547D01*
X056568Y031511D01*
X056568Y031511D01*
X056483Y031416D01*
X056248Y031113D01*
X056039Y030784D01*
X055858Y030438D01*
X055709Y030077D01*
X055592Y029705D01*
X055507Y029324D01*
X055448Y028816D01*
X055445Y028645D01*
X055445Y028645D01*
X055443Y028583D01*
X055398Y028406D01*
X055336Y028291D01*
X055254Y028191D01*
X055154Y028108D01*
X055039Y028047D01*
X054861Y028001D01*
X054800Y028000D01*
X053000Y028000D01*
Y028000D01*
X052928D01*
X052723Y028070D01*
X052608Y028158D01*
X052520Y028273D01*
X052450Y028478D01*
Y028550D01*
X052450Y033950D01*
Y034014D01*
X052497Y034200D01*
X052557Y034313D01*
X052638Y034412D01*
X052737Y034493D01*
X052850Y034553D01*
X053036Y034600D01*
X053100D01*
X067800Y034600D01*
X067800Y031700D01*
D02*
G37*
G36*
X062001Y030585D02*
X061989Y030558D01*
X061979Y030480D01*
X061989Y030402D01*
X062013Y030345D01*
X061988Y030295D01*
X061609D01*
Y030232D01*
X061559Y030208D01*
X061532Y030229D01*
X061456Y030260D01*
Y029923D01*
X061256D01*
Y030260D01*
X061197Y030236D01*
X061147Y030261D01*
Y030542D01*
X060553D01*
Y030186D01*
X060445Y030078D01*
X060414Y030032D01*
X060404Y029979D01*
Y029035D01*
X060414Y028981D01*
X060445Y028936D01*
X060710Y028671D01*
Y028300D01*
X060712Y028287D01*
X060680Y028248D01*
X060365D01*
Y028189D01*
X060768D01*
X060796Y028170D01*
X060800Y028169D01*
X060850Y028159D01*
X060904Y028170D01*
X060932Y028189D01*
X061235D01*
Y028224D01*
X061247Y028254D01*
X061277Y028267D01*
X061448D01*
Y028265D01*
X061507D01*
Y028267D01*
X061568D01*
Y028700D01*
X061639D01*
X061646Y028663D01*
Y028267D01*
X061707D01*
Y028265D01*
X061766D01*
Y028267D01*
X061842D01*
Y028265D01*
X061901D01*
Y028267D01*
X061961D01*
Y028700D01*
X062040D01*
Y028267D01*
X062101D01*
Y028265D01*
X062160D01*
Y028267D01*
X062432D01*
Y028265D01*
X062491D01*
Y028267D01*
X062552D01*
Y028700D01*
X062631D01*
Y028267D01*
X062691D01*
Y028265D01*
X062750D01*
Y028267D01*
X063417D01*
Y028265D01*
X063476D01*
Y028267D01*
X063536D01*
Y028700D01*
X063637D01*
X063676Y028661D01*
Y028265D01*
X063708D01*
X063739Y028253D01*
X063751Y028222D01*
Y028189D01*
X064163D01*
X064164Y028189D01*
X064186Y028185D01*
Y027989D01*
X064186D01*
Y027853D01*
X063753D01*
Y027793D01*
X063751D01*
Y027733D01*
X063753D01*
Y027341D01*
Y026948D01*
Y026554D01*
Y026083D01*
X063751D01*
Y025992D01*
X063701Y025951D01*
X063700Y025951D01*
X063700Y025951D01*
X063584D01*
Y026900D01*
X062600D01*
Y025916D01*
X063102D01*
X063123Y025866D01*
X063075Y025818D01*
X063042Y025769D01*
X063038Y025748D01*
X062826D01*
Y025747D01*
X061569D01*
Y025748D01*
X061510D01*
Y025747D01*
X061450D01*
Y025314D01*
X061410D01*
Y025214D01*
X061251D01*
Y024879D01*
X061456D01*
Y024791D01*
X061455D01*
Y024666D01*
X061295D01*
Y024791D01*
X061118D01*
X061107Y024807D01*
X061058Y024840D01*
X061000Y024851D01*
X060951Y024893D01*
Y025767D01*
X061209D01*
X061238Y025754D01*
X061251Y025724D01*
Y025414D01*
X061310D01*
Y025748D01*
X061276D01*
X061246Y025761D01*
X061233Y025791D01*
Y025963D01*
Y026357D01*
Y026751D01*
Y027144D01*
Y027537D01*
X061235D01*
Y027596D01*
X061233D01*
Y027656D01*
X060800D01*
Y027735D01*
X061233D01*
Y027796D01*
X061235D01*
Y027855D01*
X061233D01*
Y027930D01*
X061235D01*
Y027989D01*
X061233D01*
Y028050D01*
X060800D01*
X060367D01*
Y028039D01*
X060365Y028038D01*
Y028038D01*
X060335Y028032D01*
X060286Y028000D01*
X059022Y026736D01*
X058976Y026756D01*
Y027043D01*
X058975Y027055D01*
Y027227D01*
X059025Y027258D01*
X059100Y027249D01*
X059191Y027261D01*
X059276Y027296D01*
X059349Y027352D01*
X059404Y027424D01*
X059439Y027509D01*
X059451Y027600D01*
X059439Y027691D01*
X059404Y027776D01*
X059349Y027848D01*
X059302Y027884D01*
Y028112D01*
X059431Y028241D01*
X060061D01*
Y028950D01*
X059310D01*
X059286Y029000D01*
X059304Y029024D01*
X059339Y029109D01*
X059351Y029200D01*
X059339Y029291D01*
X059304Y029376D01*
X059289Y029396D01*
X059311Y029441D01*
X059400D01*
Y029796D01*
Y030152D01*
X059002D01*
Y030500D01*
X058987Y030577D01*
X058943Y030643D01*
X058602Y030984D01*
X058580Y030999D01*
X058595Y031049D01*
X059401D01*
X059407Y031036D01*
X059414Y030999D01*
X059350Y030950D01*
X059294Y030877D01*
X059263Y030800D01*
X059937D01*
X059906Y030877D01*
X059850Y030950D01*
X059786Y030999D01*
X059793Y031036D01*
X059799Y031049D01*
X061537D01*
X062001Y030585D01*
D02*
G37*
G36*
X058598Y030416D02*
Y030038D01*
X058449D01*
Y029889D01*
X058249D01*
Y030038D01*
X058193D01*
Y030166D01*
X058168D01*
X058151Y030192D01*
X058148Y030200D01*
X057452D01*
X057449Y030192D01*
X057432Y030166D01*
X057407D01*
Y030037D01*
X057269D01*
X057251Y030040D01*
X057188D01*
X057134Y030095D01*
X057139Y030109D01*
X057151Y030200D01*
X057139Y030291D01*
X057104Y030376D01*
X057049Y030449D01*
X056976Y030504D01*
X056891Y030539D01*
X056800Y030551D01*
X056709Y030539D01*
X056687Y030530D01*
X056659Y030573D01*
X056725Y030639D01*
X057584D01*
X057601Y030589D01*
X057550Y030550D01*
X057494Y030477D01*
X057463Y030400D01*
X058137D01*
X058106Y030477D01*
X058050Y030550D01*
X057999Y030589D01*
X058016Y030639D01*
X058375D01*
X058598Y030416D01*
D02*
G37*
G36*
X058686Y040800D02*
X058709Y040773D01*
X058700Y040734D01*
X058618Y040690D01*
X058610Y040684D01*
X058601Y040679D01*
X058510Y040604D01*
X058504Y040596D01*
X058496Y040590D01*
X058421Y040499D01*
X058416Y040490D01*
X058410Y040482D01*
X058354Y040378D01*
X058352Y040369D01*
X058347Y040360D01*
X058313Y040247D01*
X058312Y040237D01*
X058309Y040227D01*
X058300Y040139D01*
X058301Y040134D01*
X058300Y040129D01*
Y038762D01*
X058252Y038746D01*
X058250Y038750D01*
X058177Y038806D01*
X058100Y038837D01*
Y038500D01*
Y038163D01*
X058177Y038194D01*
X058250Y038250D01*
X058288Y038301D01*
X058317Y038321D01*
X058355Y038312D01*
X058362Y038307D01*
X058400Y038300D01*
X061320D01*
X061339Y038253D01*
X061186Y038100D01*
X058395D01*
X058356Y038093D01*
X058324Y038071D01*
X058302Y038038D01*
X058295Y038000D01*
Y036300D01*
X058302Y036262D01*
X058324Y036229D01*
X058356Y036207D01*
X058395Y036200D01*
X061400D01*
X061438Y036207D01*
X061471Y036229D01*
X061482Y036245D01*
X062005D01*
Y037180D01*
X062438Y037613D01*
X062505D01*
Y037539D01*
X063049D01*
Y037461D01*
X062505D01*
Y036909D01*
X062649D01*
Y036600D01*
X062649Y036600D01*
X062660Y036542D01*
X062693Y036493D01*
X062795Y036391D01*
X062772Y036344D01*
X062700Y036353D01*
X062609Y036341D01*
X062523Y036306D01*
X062450Y036250D01*
X062394Y036177D01*
X062363Y036100D01*
X062700D01*
Y035900D01*
X062363D01*
X062394Y035823D01*
X062450Y035750D01*
X062523Y035694D01*
X062609Y035659D01*
X062600Y035610D01*
X058604D01*
X057851Y036363D01*
Y036933D01*
X057857Y036963D01*
Y037407D01*
X057851Y037437D01*
Y037563D01*
X057857Y037593D01*
Y038094D01*
X057857Y038094D01*
X057850Y038129D01*
X057876Y038157D01*
X057892Y038166D01*
X057900Y038163D01*
Y038500D01*
Y038837D01*
X057823Y038806D01*
X057750Y038750D01*
X057694Y038677D01*
X057659Y038591D01*
X057647Y038500D01*
X057656Y038428D01*
X057609Y038405D01*
X057607Y038407D01*
X057558Y038440D01*
X057500Y038451D01*
X057500Y038451D01*
X057139D01*
Y038634D01*
X056461D01*
Y038451D01*
X056100D01*
X056050Y038441D01*
X056000Y038467D01*
X056000Y040100D01*
X056000Y040129D01*
X055999Y040134D01*
X056000Y040139D01*
X055991Y040227D01*
X055988Y040237D01*
X055987Y040247D01*
X055953Y040360D01*
X055948Y040369D01*
X055946Y040378D01*
X055890Y040482D01*
X055884Y040490D01*
X055879Y040499D01*
X055804Y040590D01*
X055796Y040596D01*
X055790Y040604D01*
X055699Y040679D01*
X055690Y040684D01*
X055682Y040690D01*
X055600Y040734D01*
X055591Y040773D01*
X055614Y040800D01*
X058686Y040800D01*
D02*
G37*
G36*
X060918Y040691D02*
X061031Y040657D01*
X061135Y040601D01*
X061226Y040526D01*
X061301Y040435D01*
X061357Y040331D01*
X061391Y040218D01*
X061400Y040129D01*
X061400Y040100D01*
X061400Y038400D01*
X058400D01*
Y040100D01*
Y040129D01*
X058409Y040218D01*
X058443Y040331D01*
X058499Y040435D01*
X058574Y040526D01*
X058665Y040601D01*
X058769Y040657D01*
X058882Y040691D01*
X058971Y040700D01*
X059000D01*
X060800Y040700D01*
X060829Y040700D01*
X060918Y040691D01*
D02*
G37*
G36*
X066418Y040691D02*
X066531Y040657D01*
X066635Y040601D01*
X066726Y040526D01*
X066801Y040435D01*
X066857Y040331D01*
X066891Y040218D01*
X066900Y040129D01*
X066900Y040100D01*
X066900Y038400D01*
X063900D01*
Y040100D01*
Y040129D01*
X063909Y040218D01*
X063943Y040331D01*
X063999Y040435D01*
X064074Y040526D01*
X064165Y040601D01*
X064269Y040657D01*
X064382Y040691D01*
X064471Y040700D01*
X064500D01*
X066300Y040700D01*
X066329Y040700D01*
X066418Y040691D01*
D02*
G37*
G36*
X058657Y027567D02*
X058728Y027537D01*
X058790Y027490D01*
X058837Y027428D01*
X058867Y027357D01*
X058875Y027299D01*
Y027280D01*
Y024720D01*
Y024701D01*
X058867Y024643D01*
X058837Y024572D01*
X058790Y024510D01*
X058728Y024463D01*
X058657Y024433D01*
X058599Y024425D01*
X057812D01*
Y027575D01*
X058599D01*
X058657Y027567D01*
D02*
G37*
G36*
X061800Y028800D02*
Y029000D01*
X061900Y029100D01*
X061800Y028800D01*
D02*
G37*
G36*
X064440Y029813D02*
Y029109D01*
X064451Y029018D01*
X064487Y028933D01*
X064542Y028861D01*
X064552Y028851D01*
X064624Y028796D01*
X064669Y028777D01*
X064660Y028727D01*
X064287D01*
X064054Y028960D01*
Y029145D01*
X064054Y029145D01*
X064043Y029203D01*
X064010Y029252D01*
X064010Y029252D01*
X063994Y029268D01*
X064013Y029315D01*
X064281D01*
Y029600D01*
X063954D01*
Y029800D01*
X064281D01*
Y029907D01*
X064327Y029926D01*
X064440Y029813D01*
D02*
G37*
G36*
X056788Y024425D02*
X056001D01*
X055943Y024433D01*
X055872Y024463D01*
X055810Y024510D01*
X055763Y024572D01*
X055733Y024643D01*
X055725Y024701D01*
Y024720D01*
Y027280D01*
Y027299D01*
X055733Y027357D01*
X055763Y027428D01*
X055810Y027490D01*
X055872Y027537D01*
X055943Y027567D01*
X056001Y027575D01*
X056020Y027575D01*
Y027575D01*
X056788D01*
Y024425D01*
D02*
G37*
G36*
X057900Y028234D02*
X058121D01*
X058139Y028189D01*
X058187Y028127D01*
X058250Y028079D01*
X058322Y028049D01*
X058400Y028039D01*
X058437Y028044D01*
X058461Y027996D01*
X058316Y027851D01*
X057515D01*
X057504Y027883D01*
X057502Y027901D01*
X057557Y027973D01*
X057592Y028058D01*
X057604Y028149D01*
X057598Y028196D01*
X057631Y028234D01*
X057700D01*
Y029200D01*
X057900D01*
Y028234D01*
D02*
G37*
G36*
X068700Y030546D02*
Y016800D01*
Y016500D01*
X068350Y016150D01*
X055233D01*
X055220Y016172D01*
X055214Y016200D01*
X055658Y016644D01*
X055700Y016626D01*
X055800Y016613D01*
X055900Y016626D01*
X055993Y016665D01*
X056073Y016727D01*
X056135Y016807D01*
X056174Y016900D01*
X056187Y017000D01*
X056174Y017100D01*
X056135Y017193D01*
X056073Y017273D01*
X055993Y017335D01*
X055900Y017374D01*
X055800Y017387D01*
X055700Y017374D01*
X055607Y017335D01*
X055527Y017273D01*
X055465Y017193D01*
X055426Y017100D01*
X055413Y017000D01*
X055426Y016900D01*
X055444Y016858D01*
X055037Y016451D01*
X052383D01*
X052369Y016470D01*
X052394Y016520D01*
X052400D01*
Y016800D01*
X052160D01*
Y016719D01*
X052114Y016700D01*
X051874Y016940D01*
Y025346D01*
X051920Y025366D01*
X052058Y025228D01*
X052061Y025209D01*
X052096Y025124D01*
X052151Y025052D01*
X052224Y024996D01*
X052309Y024961D01*
X052400Y024949D01*
X052491Y024961D01*
X052576Y024996D01*
X052599Y025013D01*
X052649Y024989D01*
Y024863D01*
X052593Y024807D01*
X052560Y024758D01*
X052549Y024700D01*
X052549Y024700D01*
Y021700D01*
X052549Y021700D01*
X052560Y021642D01*
X052593Y021593D01*
X053134Y021052D01*
X053134Y021052D01*
X053183Y021019D01*
X053241Y021008D01*
X053241Y021008D01*
X053478D01*
X053861Y020625D01*
X053842Y020578D01*
X053352D01*
Y019822D01*
X054029D01*
Y020371D01*
X054078Y020393D01*
X054103Y020374D01*
Y019774D01*
X054103Y019774D01*
X054115Y019716D01*
X054148Y019667D01*
X054422Y019393D01*
X054471Y019360D01*
X054529Y019349D01*
X054529Y019349D01*
X054542D01*
X054559Y019299D01*
X054527Y019273D01*
X054465Y019193D01*
X054426Y019100D01*
X054413Y019000D01*
X054426Y018900D01*
X054465Y018807D01*
X054527Y018727D01*
X054607Y018665D01*
X054700Y018626D01*
X054800Y018613D01*
X054900Y018626D01*
X054993Y018665D01*
X055073Y018727D01*
X055135Y018807D01*
X055174Y018900D01*
X055187Y019000D01*
X055174Y019100D01*
X055135Y019193D01*
X055073Y019273D01*
X055041Y019299D01*
X055058Y019349D01*
X055186D01*
X055196Y019324D01*
X055251Y019252D01*
X055324Y019196D01*
X055409Y019161D01*
X055500Y019149D01*
X055591Y019161D01*
X055676Y019196D01*
X055749Y019252D01*
X055804Y019324D01*
X055839Y019409D01*
X055851Y019500D01*
X055839Y019591D01*
X055804Y019676D01*
X055749Y019749D01*
X055676Y019804D01*
X055591Y019839D01*
X055500Y019851D01*
X055409Y019839D01*
X055324Y019804D01*
X055251Y019749D01*
X055196Y019676D01*
X055186Y019651D01*
X055060D01*
X055043Y019701D01*
X055075Y019725D01*
X055136Y019806D01*
X055175Y019899D01*
X055175Y019900D01*
X054800D01*
Y020000D01*
X054700D01*
Y020375D01*
X054699Y020375D01*
X054606Y020336D01*
X054525Y020275D01*
X054464Y020194D01*
X054456Y020175D01*
X054406Y020185D01*
Y020445D01*
X054406Y020445D01*
X054394Y020503D01*
X054362Y020552D01*
X054362Y020552D01*
X053648Y021266D01*
X053599Y021299D01*
X053541Y021310D01*
X053541Y021310D01*
X053304D01*
X052851Y021763D01*
Y021814D01*
X052899Y021830D01*
X052904Y021823D01*
X052991Y021756D01*
X053092Y021715D01*
X053100Y021713D01*
Y022119D01*
X053300D01*
Y021713D01*
X053308Y021715D01*
X053409Y021756D01*
X053428Y021771D01*
X053473Y021749D01*
Y021619D01*
X053473Y021619D01*
X053484Y021561D01*
X053517Y021512D01*
X053518Y021511D01*
X053518Y021511D01*
X053539Y021497D01*
X054285Y020751D01*
X054299Y020730D01*
X054530Y020499D01*
X054530Y020499D01*
X054579Y020466D01*
X054637Y020455D01*
X055149D01*
X055152Y020452D01*
X055224Y020396D01*
X055309Y020361D01*
X055400Y020349D01*
X055491Y020361D01*
X055545Y020383D01*
X055590Y020348D01*
X055590Y020341D01*
X055601Y020250D01*
X055637Y020165D01*
X055692Y020092D01*
X055765Y020037D01*
X055850Y020001D01*
X055941Y019990D01*
X056032Y020001D01*
X056117Y020037D01*
X056189Y020092D01*
X056205Y020112D01*
X056255Y020095D01*
Y016837D01*
X056255Y016837D01*
X056266Y016779D01*
X056299Y016730D01*
X056536Y016493D01*
X056536Y016493D01*
X056585Y016460D01*
X056643Y016449D01*
X056643Y016449D01*
X062400D01*
X062400Y016449D01*
X062458Y016460D01*
X062507Y016493D01*
X062658Y016644D01*
X062700Y016626D01*
X062800Y016613D01*
X062900Y016626D01*
X062993Y016665D01*
X063073Y016727D01*
X063135Y016807D01*
X063174Y016900D01*
X063187Y017000D01*
X063174Y017100D01*
X063135Y017193D01*
X063073Y017273D01*
X062993Y017335D01*
X062900Y017374D01*
X062800Y017387D01*
X062700Y017374D01*
X062607Y017335D01*
X062527Y017273D01*
X062465Y017193D01*
X062426Y017100D01*
X062413Y017000D01*
X062426Y016900D01*
X062444Y016858D01*
X062337Y016751D01*
X062149D01*
X062127Y016796D01*
X062135Y016807D01*
X062174Y016900D01*
X062187Y017000D01*
X062174Y017100D01*
X062135Y017193D01*
X062073Y017273D01*
X061993Y017335D01*
X061951Y017352D01*
Y019200D01*
X061940Y019258D01*
X061907Y019307D01*
X061907Y019307D01*
X060349Y020865D01*
Y023172D01*
X060395Y023191D01*
X060444Y023142D01*
X060426Y023100D01*
X060413Y023000D01*
X060426Y022900D01*
X060465Y022807D01*
X060527Y022727D01*
X060607Y022665D01*
X060700Y022626D01*
X060800Y022613D01*
X060900Y022626D01*
X060993Y022665D01*
X061073Y022727D01*
X061135Y022807D01*
X061174Y022900D01*
X061187Y023000D01*
X061174Y023100D01*
X061135Y023193D01*
X061073Y023273D01*
X060993Y023335D01*
X060900Y023374D01*
X060800Y023387D01*
X060700Y023374D01*
X060658Y023356D01*
X060508Y023506D01*
Y024173D01*
X060558Y024207D01*
X060609Y024186D01*
X060660Y024179D01*
X060701Y024163D01*
X060703Y024125D01*
Y023985D01*
X061000D01*
Y023885D01*
X061100D01*
Y023608D01*
X061206D01*
X061223Y023594D01*
X061300Y023563D01*
Y023900D01*
X061500D01*
Y023563D01*
X061577Y023594D01*
X061594Y023608D01*
X061650D01*
Y023885D01*
Y024162D01*
X061635D01*
X061607Y024193D01*
X061624Y024239D01*
X062045D01*
Y024364D01*
X062205D01*
Y024239D01*
X062558D01*
X062584Y024208D01*
X062564Y024162D01*
X062203D01*
Y023985D01*
X062500D01*
X062797D01*
Y024034D01*
X062815Y024049D01*
X063385D01*
X063385Y024049D01*
X063403Y024034D01*
Y023985D01*
X063700D01*
X063997D01*
Y024162D01*
X063636D01*
X063616Y024208D01*
X063642Y024239D01*
X063995D01*
Y024364D01*
X064205D01*
Y024239D01*
X064795D01*
Y024791D01*
X064205D01*
Y024666D01*
X063995D01*
Y024791D01*
X063405D01*
X063405Y024791D01*
Y024791D01*
X063370Y024823D01*
X063365Y024829D01*
X063390Y024879D01*
X063476D01*
Y025314D01*
X063576D01*
Y025414D01*
X063735D01*
Y025486D01*
X063781Y025505D01*
X064343Y024943D01*
X064343Y024943D01*
X064392Y024910D01*
X064450Y024899D01*
X065240D01*
X065287Y024837D01*
X065349Y024789D01*
X065422Y024759D01*
X065500Y024749D01*
X065578Y024759D01*
X065651Y024789D01*
X065713Y024837D01*
X065761Y024899D01*
X065791Y024972D01*
X065801Y025050D01*
X065791Y025128D01*
X065761Y025201D01*
X065713Y025263D01*
X065651Y025311D01*
X065578Y025341D01*
X065500Y025351D01*
X065422Y025341D01*
X065349Y025311D01*
X065287Y025263D01*
X065240Y025201D01*
X064513D01*
X063995Y025719D01*
X064014Y025765D01*
X064086D01*
Y025924D01*
X064286D01*
Y025765D01*
X064522D01*
X064523Y025763D01*
X064769Y025517D01*
X064769Y025517D01*
X064818Y025485D01*
X064824Y025483D01*
Y025388D01*
X065376D01*
Y025473D01*
X065524D01*
X065524Y025473D01*
X065582Y025485D01*
X065631Y025517D01*
X066113Y025999D01*
X066172Y025987D01*
X066188Y025949D01*
X066236Y025886D01*
X066299Y025838D01*
X066350Y025817D01*
Y026100D01*
X066550D01*
Y025817D01*
X066575Y025827D01*
X066625Y025796D01*
Y024039D01*
X065942Y023356D01*
X065900Y023374D01*
X065800Y023387D01*
X065700Y023374D01*
X065607Y023335D01*
X065527Y023273D01*
X065465Y023193D01*
X065426Y023100D01*
X065413Y023000D01*
X065426Y022900D01*
X065465Y022807D01*
X065519Y022736D01*
X065484Y022700D01*
X065477Y022706D01*
X065400Y022737D01*
Y022500D01*
X065637D01*
X065606Y022577D01*
X065557Y022640D01*
X065592Y022676D01*
X065607Y022665D01*
X065700Y022626D01*
X065800Y022613D01*
X065900Y022626D01*
X065993Y022665D01*
X066073Y022727D01*
X066135Y022807D01*
X066174Y022900D01*
X066187Y023000D01*
X066174Y023100D01*
X066156Y023142D01*
X066883Y023869D01*
X066883Y023869D01*
X066916Y023918D01*
X066927Y023976D01*
X066927Y023976D01*
Y024369D01*
X066972Y024392D01*
X066992Y024377D01*
X067092Y024335D01*
X067200Y024321D01*
X067308Y024335D01*
X067408Y024377D01*
X067428Y024392D01*
X067473Y024369D01*
Y023887D01*
X066942Y023356D01*
X066900Y023374D01*
X066800Y023387D01*
X066700Y023374D01*
X066607Y023335D01*
X066527Y023273D01*
X066465Y023193D01*
X066426Y023100D01*
X066413Y023000D01*
X066426Y022900D01*
X066465Y022807D01*
X066527Y022727D01*
X066607Y022665D01*
X066700Y022626D01*
X066800Y022613D01*
X066900Y022626D01*
X066993Y022665D01*
X067073Y022727D01*
X067135Y022807D01*
X067174Y022900D01*
X067187Y023000D01*
X067174Y023100D01*
X067156Y023142D01*
X067731Y023717D01*
X067731Y023717D01*
X067764Y023766D01*
X067775Y023824D01*
X067775Y023824D01*
Y026673D01*
X067764Y026731D01*
X067731Y026780D01*
X067731Y026780D01*
X067579Y026932D01*
X067603Y026989D01*
X067617Y027097D01*
X067603Y027205D01*
X067561Y027306D01*
X067495Y027392D01*
X067408Y027459D01*
X067387Y027467D01*
Y027517D01*
X067408Y027526D01*
X067495Y027593D01*
X067561Y027679D01*
X067603Y027779D01*
X067617Y027887D01*
X067603Y027995D01*
X067561Y028096D01*
X067495Y028182D01*
X067408Y028249D01*
X067390Y028256D01*
Y028306D01*
X067408Y028314D01*
X067495Y028380D01*
X067561Y028466D01*
X067603Y028567D01*
X067617Y028675D01*
X067603Y028783D01*
X067561Y028883D01*
X067495Y028970D01*
X067408Y029036D01*
X067392Y029043D01*
Y029093D01*
X067409Y029100D01*
X067496Y029166D01*
X067562Y029253D01*
X067604Y029354D01*
X067605Y029362D01*
X067200D01*
Y029562D01*
X067605D01*
X067604Y029571D01*
X067562Y029671D01*
X067496Y029758D01*
X067409Y029825D01*
X067308Y029867D01*
X067271Y029871D01*
X067274Y029922D01*
X067948D01*
X067948Y029922D01*
X068006Y029933D01*
X068055Y029966D01*
X068654Y030565D01*
X068700Y030546D01*
D02*
G37*
G36*
X064186Y040800D02*
X064209Y040773D01*
X064200Y040734D01*
X064118Y040690D01*
X064110Y040684D01*
X064101Y040679D01*
X064010Y040604D01*
X064004Y040596D01*
X063996Y040590D01*
X063921Y040499D01*
X063916Y040490D01*
X063910Y040482D01*
X063854Y040378D01*
X063852Y040369D01*
X063847Y040360D01*
X063813Y040247D01*
X063812Y040237D01*
X063809Y040227D01*
X063800Y040139D01*
X063801Y040134D01*
X063800Y040129D01*
Y038762D01*
X063752Y038746D01*
X063750Y038750D01*
X063677Y038806D01*
X063600Y038837D01*
Y038500D01*
Y038163D01*
X063677Y038194D01*
X063750Y038250D01*
X063788Y038301D01*
X063817Y038321D01*
X063855Y038312D01*
X063862Y038307D01*
X063900Y038300D01*
X066876D01*
X066897Y038250D01*
X066748Y038100D01*
X063895D01*
X063856Y038093D01*
X063824Y038071D01*
X063802Y038038D01*
X063795Y038000D01*
Y036300D01*
X063797Y036288D01*
X063751Y036263D01*
X063351Y036663D01*
Y038100D01*
X063351Y038100D01*
X063345Y038131D01*
X063389Y038167D01*
X063400Y038163D01*
Y038500D01*
Y038837D01*
X063323Y038806D01*
X063250Y038750D01*
X063194Y038677D01*
X063159Y038591D01*
X063147Y038500D01*
X063156Y038428D01*
X063109Y038405D01*
X063107Y038407D01*
X063058Y038440D01*
X063000Y038451D01*
X063000Y038451D01*
X062639D01*
Y038634D01*
X061961D01*
Y038451D01*
X061600D01*
X061600Y038451D01*
X061550Y038441D01*
X061520Y038457D01*
X061500Y038472D01*
Y039138D01*
X061548Y039154D01*
X061550Y039150D01*
X061623Y039094D01*
X061700Y039063D01*
Y039400D01*
Y039737D01*
X061623Y039706D01*
X061550Y039650D01*
X061548Y039646D01*
X061500Y039662D01*
Y040100D01*
X061500Y040129D01*
X061499Y040134D01*
X061500Y040139D01*
X061491Y040227D01*
X061488Y040237D01*
X061487Y040247D01*
X061453Y040360D01*
X061448Y040369D01*
X061446Y040378D01*
X061390Y040482D01*
X061384Y040490D01*
X061379Y040499D01*
X061304Y040590D01*
X061296Y040596D01*
X061290Y040604D01*
X061199Y040679D01*
X061190Y040684D01*
X061182Y040690D01*
X061100Y040734D01*
X061091Y040773D01*
X061114Y040800D01*
X064186Y040800D01*
D02*
G37*
G36*
X055418Y040691D02*
X055531Y040657D01*
X055635Y040601D01*
X055726Y040526D01*
X055801Y040435D01*
X055857Y040331D01*
X055891Y040218D01*
X055900Y040129D01*
X055900Y040100D01*
X055900Y036300D01*
X052900D01*
Y040100D01*
X052900Y040129D01*
X052909Y040218D01*
X052943Y040331D01*
X052999Y040435D01*
X053074Y040526D01*
X053165Y040601D01*
X053269Y040657D01*
X053382Y040691D01*
X053471Y040700D01*
X053500Y040700D01*
X055300Y040700D01*
X055329Y040700D01*
X055418Y040691D01*
D02*
G37*
G36*
X055716Y029230D02*
X056484D01*
Y029344D01*
X056975D01*
Y029054D01*
X056974D01*
Y029005D01*
X056975D01*
Y028954D01*
X057251D01*
Y028859D01*
X057013D01*
X056994Y028856D01*
X056975D01*
Y028852D01*
X056974Y028851D01*
Y028851D01*
X056955Y028848D01*
X056906Y028815D01*
X056906Y028815D01*
X056734Y028643D01*
X056701Y028594D01*
X056690Y028536D01*
X056690Y028536D01*
Y028051D01*
X056690Y028051D01*
X056701Y027993D01*
X056734Y027944D01*
X057085Y027593D01*
X057085Y027593D01*
X057134Y027560D01*
X057192Y027549D01*
X057192Y027549D01*
X057711D01*
Y027296D01*
X057696Y027276D01*
X057661Y027191D01*
X057649Y027100D01*
X057661Y027009D01*
X057696Y026924D01*
X057710Y026905D01*
Y024996D01*
X057182Y024468D01*
X056922D01*
X056905Y024518D01*
X056948Y024551D01*
X057004Y024624D01*
X057039Y024709D01*
X057051Y024800D01*
X057039Y024891D01*
X057004Y024976D01*
X056948Y025048D01*
X056890Y025094D01*
Y025163D01*
X056940Y025188D01*
X057000Y025163D01*
Y025500D01*
Y025837D01*
X056940Y025812D01*
X056890Y025837D01*
Y026806D01*
X056948Y026851D01*
X057004Y026924D01*
X057039Y027009D01*
X057051Y027100D01*
X057039Y027191D01*
X057004Y027276D01*
X056948Y027348D01*
X056889Y027395D01*
Y027575D01*
X056881Y027613D01*
X056859Y027646D01*
X056827Y027668D01*
X056788Y027675D01*
X056268D01*
X056257Y027676D01*
X056245Y027675D01*
X056020D01*
X056020Y027675D01*
X056001Y027675D01*
X055995Y027674D01*
X055988Y027674D01*
X055930Y027667D01*
X055918Y027662D01*
X055905Y027660D01*
X055840Y027633D01*
X055805Y027644D01*
X055797Y027648D01*
X055786Y027660D01*
X055780Y027713D01*
X055739Y027810D01*
X055676Y027893D01*
X055381Y028187D01*
X055414Y028227D01*
X055419Y028236D01*
X055425Y028244D01*
X055486Y028358D01*
X055490Y028370D01*
X055495Y028381D01*
X055541Y028558D01*
X055541Y028570D01*
X055544Y028581D01*
X055545Y028643D01*
X055545Y028643D01*
X055549Y028809D01*
X055607Y029308D01*
X055616Y029352D01*
X055716D01*
Y029230D01*
D02*
G37*
G36*
X059527Y022727D02*
X059607Y022665D01*
X059700Y022626D01*
X059800Y022613D01*
X059900Y022626D01*
X059993Y022665D01*
X060001Y022671D01*
X060046Y022649D01*
Y020803D01*
X060046Y020803D01*
X060057Y020745D01*
X060090Y020696D01*
X061297Y019489D01*
X061274Y019442D01*
X061200Y019451D01*
X061109Y019439D01*
X061024Y019404D01*
X060951Y019348D01*
X060908Y019292D01*
X059522D01*
X059403Y019411D01*
X059426Y019458D01*
X059500Y019449D01*
X059591Y019461D01*
X059676Y019496D01*
X059749Y019552D01*
X059804Y019624D01*
X059839Y019709D01*
X059851Y019800D01*
X059839Y019891D01*
X059804Y019976D01*
X059749Y020048D01*
X059676Y020104D01*
X059591Y020139D01*
X059500Y020151D01*
X059409Y020139D01*
X059344Y020113D01*
X056878Y022578D01*
X056894Y022626D01*
X056900Y022626D01*
X056942Y022644D01*
X057293Y022293D01*
X057293Y022293D01*
X057342Y022260D01*
X057400Y022249D01*
X059000D01*
X059000Y022249D01*
X059058Y022260D01*
X059107Y022293D01*
X059407Y022593D01*
X059440Y022642D01*
X059451Y022700D01*
X059451Y022700D01*
Y022742D01*
X059501Y022759D01*
X059527Y022727D01*
D02*
G37*
G36*
X054298Y027900D02*
Y027271D01*
X054296D01*
Y026130D01*
X055104D01*
Y027264D01*
X055120Y027278D01*
X055152Y027290D01*
X055190Y027261D01*
X055287Y027220D01*
X055391Y027207D01*
X055495Y027220D01*
X055575Y027253D01*
X055617Y027232D01*
X055625Y027223D01*
Y027055D01*
X055624Y027043D01*
Y024957D01*
X055625Y024945D01*
Y024701D01*
X055626Y024695D01*
X055626Y024688D01*
X055633Y024630D01*
X055638Y024618D01*
X055640Y024605D01*
X055670Y024533D01*
X055677Y024522D01*
X055679Y024518D01*
X055661Y024468D01*
X055081D01*
X055071Y024470D01*
X053629D01*
X053617Y024484D01*
X053603Y024592D01*
X053561Y024692D01*
X053495Y024779D01*
X053408Y024845D01*
X053308Y024886D01*
X053200Y024901D01*
X053092Y024886D01*
X053001Y024849D01*
X052951Y024870D01*
Y027896D01*
X053001Y027900D01*
X054298Y027900D01*
D02*
G37*
G36*
X067200Y040800D02*
X068027Y039973D01*
X068006Y039923D01*
X067800D01*
Y039744D01*
X068040D01*
Y039889D01*
X068090Y039910D01*
X068700Y039300D01*
Y038279D01*
X068654Y038260D01*
X068507Y038407D01*
X068458Y038440D01*
X068400Y038451D01*
X068400Y038451D01*
X068039D01*
Y038634D01*
X067361D01*
Y038451D01*
X067162D01*
X067104Y038440D01*
X067055Y038407D01*
X067055Y038407D01*
X067050Y038403D01*
X067000Y038424D01*
X067000Y039571D01*
X067050Y039574D01*
X067059Y039509D01*
X067094Y039423D01*
X067150Y039350D01*
X067223Y039294D01*
X067300Y039263D01*
Y039600D01*
Y039937D01*
X067223Y039906D01*
X067150Y039850D01*
X067094Y039777D01*
X067059Y039691D01*
X067050Y039626D01*
X067000Y039629D01*
Y040100D01*
X067000Y040129D01*
X066999Y040134D01*
X067000Y040139D01*
X066991Y040227D01*
X066988Y040237D01*
X066987Y040247D01*
X066953Y040360D01*
X066948Y040369D01*
X066946Y040378D01*
X066890Y040482D01*
X066884Y040490D01*
X066879Y040499D01*
X066804Y040590D01*
X066796Y040596D01*
X066790Y040604D01*
X066699Y040679D01*
X066690Y040684D01*
X066682Y040690D01*
X066600Y040734D01*
X066591Y040773D01*
X066614Y040800D01*
X067200D01*
D02*
G37*
G36*
X057585Y020101D02*
X057567Y020049D01*
X057509Y020041D01*
X057423Y020006D01*
X057350Y019950D01*
X057294Y019877D01*
X057263Y019800D01*
X057600D01*
Y019700D01*
X057700D01*
Y019363D01*
X057777Y019394D01*
X057850Y019450D01*
X057906Y019523D01*
X057941Y019609D01*
X057949Y019667D01*
X058001Y019685D01*
X059649Y018037D01*
Y017352D01*
X059607Y017335D01*
X059527Y017273D01*
X059465Y017193D01*
X059426Y017100D01*
X059413Y017000D01*
X059426Y016900D01*
X059465Y016807D01*
X059473Y016796D01*
X059451Y016751D01*
X059149D01*
X059127Y016796D01*
X059135Y016807D01*
X059174Y016900D01*
X059187Y017000D01*
X059174Y017100D01*
X059135Y017193D01*
X059073Y017273D01*
X058993Y017335D01*
X058900Y017374D01*
X058800Y017387D01*
X058700Y017374D01*
X058607Y017335D01*
X058527Y017273D01*
X058465Y017193D01*
X058426Y017100D01*
X058413Y017000D01*
X058426Y016900D01*
X058465Y016807D01*
X058473Y016796D01*
X058451Y016751D01*
X058149D01*
X058127Y016796D01*
X058135Y016807D01*
X058174Y016900D01*
X058187Y017000D01*
X058174Y017100D01*
X058135Y017193D01*
X058073Y017273D01*
X057993Y017335D01*
X057900Y017374D01*
X057800Y017387D01*
X057700Y017374D01*
X057607Y017335D01*
X057527Y017273D01*
X057465Y017193D01*
X057426Y017100D01*
X057413Y017000D01*
X057426Y016900D01*
X057465Y016807D01*
X057473Y016796D01*
X057451Y016751D01*
X057149D01*
X057127Y016796D01*
X057135Y016807D01*
X057174Y016900D01*
X057187Y017000D01*
X057174Y017100D01*
X057135Y017193D01*
X057073Y017273D01*
X056993Y017335D01*
X056900Y017374D01*
X056800Y017387D01*
X056700Y017374D01*
X056607Y017335D01*
X056602Y017331D01*
X056557Y017354D01*
Y021058D01*
X056607Y021079D01*
X057585Y020101D01*
D02*
G37*
%LPC*%
G36*
X063437Y021100D02*
X063200D01*
Y020863D01*
X063277Y020894D01*
X063350Y020950D01*
X063406Y021023D01*
X063437Y021100D01*
D02*
G37*
G36*
X067187Y021050D02*
X066950D01*
Y020813D01*
X067027Y020844D01*
X067100Y020900D01*
X067156Y020973D01*
X067187Y021050D01*
D02*
G37*
G36*
X052400Y020580D02*
X052160D01*
Y020300D01*
X052400D01*
Y020580D01*
D02*
G37*
G36*
X063000Y021100D02*
X062763D01*
X062794Y021023D01*
X062850Y020950D01*
X062923Y020894D01*
X063000Y020863D01*
Y021100D01*
D02*
G37*
G36*
X066750Y021050D02*
X066513D01*
X066544Y020973D01*
X066600Y020900D01*
X066673Y020844D01*
X066750Y020813D01*
Y021050D01*
D02*
G37*
G36*
X052300D02*
X052063D01*
X052094Y020973D01*
X052150Y020900D01*
X052223Y020844D01*
X052300Y020813D01*
Y021050D01*
D02*
G37*
G36*
X052737D02*
X052500D01*
Y020813D01*
X052577Y020844D01*
X052650Y020900D01*
X052706Y020973D01*
X052737Y021050D01*
D02*
G37*
G36*
X061637Y020700D02*
X061400D01*
Y020463D01*
X061477Y020494D01*
X061550Y020550D01*
X061606Y020623D01*
X061637Y020700D01*
D02*
G37*
G36*
X052840Y020580D02*
X052600D01*
Y020300D01*
X052840D01*
Y020580D01*
D02*
G37*
G36*
X061200Y020700D02*
X060963D01*
X060994Y020623D01*
X061050Y020550D01*
X061123Y020494D01*
X061200Y020463D01*
Y020700D01*
D02*
G37*
G36*
Y021137D02*
X061123Y021106D01*
X061050Y021050D01*
X060994Y020977D01*
X060963Y020900D01*
X061200D01*
Y021137D01*
D02*
G37*
G36*
X059300Y021637D02*
Y021400D01*
X059537D01*
X059506Y021477D01*
X059450Y021550D01*
X059377Y021606D01*
X059300Y021637D01*
D02*
G37*
G36*
X059100D02*
X059023Y021606D01*
X058950Y021550D01*
X058894Y021477D01*
X058863Y021400D01*
X059100D01*
Y021637D01*
D02*
G37*
G36*
X063200Y021537D02*
Y021300D01*
X063437D01*
X063406Y021377D01*
X063350Y021450D01*
X063277Y021506D01*
X063200Y021537D01*
D02*
G37*
G36*
X065200Y022300D02*
X064963D01*
X064994Y022223D01*
X065050Y022150D01*
X065123Y022094D01*
X065200Y022063D01*
Y022300D01*
D02*
G37*
G36*
X061800Y023387D02*
X061700Y023374D01*
X061607Y023335D01*
X061527Y023273D01*
X061465Y023193D01*
X061426Y023100D01*
X061413Y023000D01*
X061426Y022900D01*
X061465Y022807D01*
X061527Y022727D01*
X061607Y022665D01*
X061700Y022626D01*
X061800Y022613D01*
X061900Y022626D01*
X061993Y022665D01*
X062073Y022727D01*
X062135Y022807D01*
X062174Y022900D01*
X062187Y023000D01*
X062174Y023100D01*
X062135Y023193D01*
X062073Y023273D01*
X061993Y023335D01*
X061900Y023374D01*
X061800Y023387D01*
D02*
G37*
G36*
X064800D02*
X064700Y023374D01*
X064607Y023335D01*
X064527Y023273D01*
X064465Y023193D01*
X064426Y023100D01*
X064413Y023000D01*
X064426Y022900D01*
X064465Y022807D01*
X064527Y022727D01*
X064607Y022665D01*
X064700Y022626D01*
X064800Y022613D01*
X064900Y022626D01*
X064993Y022665D01*
X065008Y022676D01*
X065043Y022640D01*
X064994Y022577D01*
X064963Y022500D01*
X065200D01*
Y022737D01*
X065123Y022706D01*
X065116Y022700D01*
X065081Y022736D01*
X065135Y022807D01*
X065174Y022900D01*
X065187Y023000D01*
X065174Y023100D01*
X065135Y023193D01*
X065073Y023273D01*
X064993Y023335D01*
X064900Y023374D01*
X064800Y023387D01*
D02*
G37*
G36*
X065637Y022300D02*
X065400D01*
Y022063D01*
X065477Y022094D01*
X065550Y022150D01*
X065606Y022223D01*
X065637Y022300D01*
D02*
G37*
G36*
X063000Y021537D02*
X062923Y021506D01*
X062850Y021450D01*
X062794Y021377D01*
X062763Y021300D01*
X063000D01*
Y021537D01*
D02*
G37*
G36*
X059537Y021200D02*
X059300D01*
Y020963D01*
X059377Y020994D01*
X059450Y021050D01*
X059506Y021123D01*
X059537Y021200D01*
D02*
G37*
G36*
X059100D02*
X058863D01*
X058894Y021123D01*
X058950Y021050D01*
X059023Y020994D01*
X059100Y020963D01*
Y021200D01*
D02*
G37*
G36*
X061400Y021137D02*
Y020900D01*
X061637D01*
X061606Y020977D01*
X061550Y021050D01*
X061477Y021106D01*
X061400Y021137D01*
D02*
G37*
G36*
X052300Y021487D02*
X052223Y021456D01*
X052150Y021400D01*
X052094Y021327D01*
X052063Y021250D01*
X052300D01*
Y021487D01*
D02*
G37*
G36*
X066950D02*
Y021250D01*
X067187D01*
X067156Y021327D01*
X067100Y021400D01*
X067027Y021456D01*
X066950Y021487D01*
D02*
G37*
G36*
X066750D02*
X066673Y021456D01*
X066600Y021400D01*
X066544Y021327D01*
X066513Y021250D01*
X066750D01*
Y021487D01*
D02*
G37*
G36*
X052500D02*
Y021250D01*
X052737D01*
X052706Y021327D01*
X052650Y021400D01*
X052577Y021456D01*
X052500Y021487D01*
D02*
G37*
G36*
X054800Y018387D02*
X054700Y018374D01*
X054607Y018335D01*
X054527Y018273D01*
X054465Y018193D01*
X054426Y018100D01*
X054413Y018000D01*
X054426Y017900D01*
X054465Y017807D01*
X054527Y017727D01*
X054607Y017665D01*
X054700Y017626D01*
X054800Y017613D01*
X054900Y017626D01*
X054993Y017665D01*
X055073Y017727D01*
X055135Y017807D01*
X055174Y017900D01*
X055187Y018000D01*
X055174Y018100D01*
X055135Y018193D01*
X055073Y018273D01*
X054993Y018335D01*
X054900Y018374D01*
X054800Y018387D01*
D02*
G37*
G36*
X052840Y017280D02*
X052600D01*
Y017000D01*
X052840D01*
Y017280D01*
D02*
G37*
G36*
X052400D02*
X052160D01*
Y017000D01*
X052400D01*
Y017280D01*
D02*
G37*
G36*
X062800Y018387D02*
X062700Y018374D01*
X062607Y018335D01*
X062527Y018273D01*
X062465Y018193D01*
X062426Y018100D01*
X062413Y018000D01*
X062426Y017900D01*
X062465Y017807D01*
X062527Y017727D01*
X062607Y017665D01*
X062700Y017626D01*
X062800Y017613D01*
X062900Y017626D01*
X062993Y017665D01*
X063073Y017727D01*
X063135Y017807D01*
X063174Y017900D01*
X063187Y018000D01*
X063174Y018100D01*
X063135Y018193D01*
X063073Y018273D01*
X062993Y018335D01*
X062900Y018374D01*
X062800Y018387D01*
D02*
G37*
G36*
X066800D02*
X066700Y018374D01*
X066607Y018335D01*
X066527Y018273D01*
X066465Y018193D01*
X066426Y018100D01*
X066413Y018000D01*
X066426Y017900D01*
X066465Y017807D01*
X066527Y017727D01*
X066607Y017665D01*
X066700Y017626D01*
X066800Y017613D01*
X066900Y017626D01*
X066993Y017665D01*
X067073Y017727D01*
X067135Y017807D01*
X067174Y017900D01*
X067187Y018000D01*
X067174Y018100D01*
X067135Y018193D01*
X067073Y018273D01*
X066993Y018335D01*
X066900Y018374D01*
X066800Y018387D01*
D02*
G37*
G36*
X064800D02*
X064700Y018374D01*
X064607Y018335D01*
X064527Y018273D01*
X064465Y018193D01*
X064426Y018100D01*
X064413Y018000D01*
X064426Y017900D01*
X064465Y017807D01*
X064527Y017727D01*
X064607Y017665D01*
X064700Y017626D01*
X064800Y017613D01*
X064900Y017626D01*
X064993Y017665D01*
X065073Y017727D01*
X065135Y017807D01*
X065174Y017900D01*
X065187Y018000D01*
X065174Y018100D01*
X065135Y018193D01*
X065073Y018273D01*
X064993Y018335D01*
X064900Y018374D01*
X064800Y018387D01*
D02*
G37*
G36*
X063800D02*
X063700Y018374D01*
X063607Y018335D01*
X063527Y018273D01*
X063465Y018193D01*
X063426Y018100D01*
X063413Y018000D01*
X063426Y017900D01*
X063465Y017807D01*
X063527Y017727D01*
X063607Y017665D01*
X063700Y017626D01*
X063800Y017613D01*
X063900Y017626D01*
X063993Y017665D01*
X064073Y017727D01*
X064135Y017807D01*
X064174Y017900D01*
X064187Y018000D01*
X064174Y018100D01*
X064135Y018193D01*
X064073Y018273D01*
X063993Y018335D01*
X063900Y018374D01*
X063800Y018387D01*
D02*
G37*
G36*
X067800Y017387D02*
X067700Y017374D01*
X067607Y017335D01*
X067527Y017273D01*
X067465Y017193D01*
X067426Y017100D01*
X067413Y017000D01*
X067426Y016900D01*
X067465Y016807D01*
X067527Y016727D01*
X067607Y016665D01*
X067700Y016626D01*
X067800Y016613D01*
X067900Y016626D01*
X067993Y016665D01*
X068073Y016727D01*
X068135Y016807D01*
X068174Y016900D01*
X068187Y017000D01*
X068174Y017100D01*
X068135Y017193D01*
X068073Y017273D01*
X067993Y017335D01*
X067900Y017374D01*
X067800Y017387D01*
D02*
G37*
G36*
X054800D02*
X054700Y017374D01*
X054607Y017335D01*
X054527Y017273D01*
X054465Y017193D01*
X054426Y017100D01*
X054413Y017000D01*
X054426Y016900D01*
X054465Y016807D01*
X054527Y016727D01*
X054607Y016665D01*
X054700Y016626D01*
X054800Y016613D01*
X054900Y016626D01*
X054993Y016665D01*
X055073Y016727D01*
X055135Y016807D01*
X055174Y016900D01*
X055187Y017000D01*
X055174Y017100D01*
X055135Y017193D01*
X055073Y017273D01*
X054993Y017335D01*
X054900Y017374D01*
X054800Y017387D01*
D02*
G37*
G36*
X054029Y017278D02*
X053352D01*
Y016522D01*
X054029D01*
Y017278D01*
D02*
G37*
G36*
X052840Y016800D02*
X052600D01*
Y016520D01*
X052840D01*
Y016800D01*
D02*
G37*
G36*
X063800Y017387D02*
X063700Y017374D01*
X063607Y017335D01*
X063527Y017273D01*
X063465Y017193D01*
X063426Y017100D01*
X063413Y017000D01*
X063426Y016900D01*
X063465Y016807D01*
X063527Y016727D01*
X063607Y016665D01*
X063700Y016626D01*
X063800Y016613D01*
X063900Y016626D01*
X063993Y016665D01*
X064073Y016727D01*
X064135Y016807D01*
X064174Y016900D01*
X064187Y017000D01*
X064174Y017100D01*
X064135Y017193D01*
X064073Y017273D01*
X063993Y017335D01*
X063900Y017374D01*
X063800Y017387D01*
D02*
G37*
G36*
X066800D02*
X066700Y017374D01*
X066607Y017335D01*
X066527Y017273D01*
X066465Y017193D01*
X066426Y017100D01*
X066413Y017000D01*
X066426Y016900D01*
X066465Y016807D01*
X066527Y016727D01*
X066607Y016665D01*
X066700Y016626D01*
X066800Y016613D01*
X066900Y016626D01*
X066993Y016665D01*
X067073Y016727D01*
X067135Y016807D01*
X067174Y016900D01*
X067187Y017000D01*
X067174Y017100D01*
X067135Y017193D01*
X067073Y017273D01*
X066993Y017335D01*
X066900Y017374D01*
X066800Y017387D01*
D02*
G37*
G36*
X065800D02*
X065700Y017374D01*
X065607Y017335D01*
X065527Y017273D01*
X065465Y017193D01*
X065426Y017100D01*
X065413Y017000D01*
X065426Y016900D01*
X065465Y016807D01*
X065527Y016727D01*
X065607Y016665D01*
X065700Y016626D01*
X065800Y016613D01*
X065900Y016626D01*
X065993Y016665D01*
X066073Y016727D01*
X066135Y016807D01*
X066174Y016900D01*
X066187Y017000D01*
X066174Y017100D01*
X066135Y017193D01*
X066073Y017273D01*
X065993Y017335D01*
X065900Y017374D01*
X065800Y017387D01*
D02*
G37*
G36*
X064800D02*
X064700Y017374D01*
X064607Y017335D01*
X064527Y017273D01*
X064465Y017193D01*
X064426Y017100D01*
X064413Y017000D01*
X064426Y016900D01*
X064465Y016807D01*
X064527Y016727D01*
X064607Y016665D01*
X064700Y016626D01*
X064800Y016613D01*
X064900Y016626D01*
X064993Y016665D01*
X065073Y016727D01*
X065135Y016807D01*
X065174Y016900D01*
X065187Y017000D01*
X065174Y017100D01*
X065135Y017193D01*
X065073Y017273D01*
X064993Y017335D01*
X064900Y017374D01*
X064800Y017387D01*
D02*
G37*
G36*
X052840Y019000D02*
X052600D01*
Y018720D01*
X052840D01*
Y019000D01*
D02*
G37*
G36*
X052400D02*
X052160D01*
Y018720D01*
X052400D01*
Y019000D01*
D02*
G37*
G36*
X058700Y018437D02*
Y018200D01*
X058937D01*
X058906Y018277D01*
X058850Y018350D01*
X058777Y018406D01*
X058700Y018437D01*
D02*
G37*
G36*
X054029Y019478D02*
X053352D01*
Y018722D01*
X054029D01*
Y019478D01*
D02*
G37*
G36*
X054900Y020375D02*
Y020100D01*
X055175D01*
X055175Y020101D01*
X055136Y020194D01*
X055075Y020275D01*
X054994Y020336D01*
X054901Y020375D01*
X054900Y020375D01*
D02*
G37*
G36*
X057500Y019600D02*
X057263D01*
X057294Y019523D01*
X057350Y019450D01*
X057423Y019394D01*
X057500Y019363D01*
Y019600D01*
D02*
G37*
G36*
X052500Y020200D02*
D01*
Y020100D01*
X052160D01*
Y019980D01*
X052138Y019951D01*
X052117Y019900D01*
X052400D01*
Y019700D01*
X052117D01*
X052138Y019649D01*
X052186Y019586D01*
X052249Y019538D01*
X052268Y019530D01*
X052258Y019480D01*
X052160D01*
Y019200D01*
X052500D01*
X052840D01*
Y019480D01*
X052542D01*
X052532Y019530D01*
X052551Y019538D01*
X052614Y019586D01*
X052662Y019649D01*
X052692Y019722D01*
X052703Y019800D01*
X052720Y019820D01*
X052840D01*
Y020100D01*
X052500D01*
Y020200D01*
D02*
G37*
G36*
X058500Y018437D02*
X058423Y018406D01*
X058350Y018350D01*
X058294Y018277D01*
X058263Y018200D01*
X058500D01*
Y018437D01*
D02*
G37*
G36*
X054029Y018378D02*
X053352D01*
Y017622D01*
X054029D01*
Y018378D01*
D02*
G37*
G36*
X052840Y017900D02*
X052600D01*
Y017620D01*
X052840D01*
Y017900D01*
D02*
G37*
G36*
X052400D02*
X052160D01*
Y017620D01*
X052400D01*
Y017900D01*
D02*
G37*
G36*
X058500Y018000D02*
X058263D01*
X058294Y017923D01*
X058350Y017850D01*
X058423Y017794D01*
X058500Y017763D01*
Y018000D01*
D02*
G37*
G36*
X052840Y018380D02*
X052600D01*
Y018100D01*
X052840D01*
Y018380D01*
D02*
G37*
G36*
X052400D02*
X052160D01*
Y018100D01*
X052400D01*
Y018380D01*
D02*
G37*
G36*
X058937Y018000D02*
X058700D01*
Y017763D01*
X058777Y017794D01*
X058850Y017850D01*
X058906Y017923D01*
X058937Y018000D01*
D02*
G37*
G36*
X068437Y028350D02*
X068200D01*
Y028113D01*
X068277Y028144D01*
X068350Y028200D01*
X068406Y028273D01*
X068437Y028350D01*
D02*
G37*
G36*
X068000D02*
X067763D01*
X067794Y028273D01*
X067850Y028200D01*
X067923Y028144D01*
X068000Y028113D01*
Y028350D01*
D02*
G37*
G36*
X056337Y028100D02*
X056100D01*
Y027863D01*
X056177Y027894D01*
X056250Y027950D01*
X056306Y028023D01*
X056337Y028100D01*
D02*
G37*
G36*
X056485Y028746D02*
X055715D01*
Y028519D01*
X055759D01*
X055776Y028469D01*
X055750Y028450D01*
X055694Y028377D01*
X055663Y028300D01*
X056337D01*
X056306Y028377D01*
X056250Y028450D01*
X056224Y028469D01*
X056241Y028519D01*
X056485D01*
Y028746D01*
D02*
G37*
G36*
X056000Y029172D02*
X055715D01*
Y028946D01*
X056000D01*
Y029172D01*
D02*
G37*
G36*
X068200Y028787D02*
Y028550D01*
X068437D01*
X068406Y028627D01*
X068350Y028700D01*
X068277Y028756D01*
X068200Y028787D01*
D02*
G37*
G36*
X068000D02*
X067923Y028756D01*
X067850Y028700D01*
X067794Y028627D01*
X067763Y028550D01*
X068000D01*
Y028787D01*
D02*
G37*
G36*
X053400Y027137D02*
X053323Y027106D01*
X053250Y027050D01*
X053194Y026977D01*
X053163Y026900D01*
X053400D01*
Y027137D01*
D02*
G37*
G36*
X053837Y026700D02*
X053600D01*
Y026463D01*
X053677Y026494D01*
X053750Y026550D01*
X053806Y026623D01*
X053837Y026700D01*
D02*
G37*
G36*
X053400D02*
X053163D01*
X053194Y026623D01*
X053250Y026550D01*
X053323Y026494D01*
X053400Y026463D01*
Y026700D01*
D02*
G37*
G36*
X053600Y027137D02*
Y026900D01*
X053837D01*
X053806Y026977D01*
X053750Y027050D01*
X053677Y027106D01*
X053600Y027137D01*
D02*
G37*
G36*
X055900Y028100D02*
X055663D01*
X055694Y028023D01*
X055750Y027950D01*
X055823Y027894D01*
X055900Y027863D01*
Y028100D01*
D02*
G37*
G36*
X063584Y028084D02*
X062600D01*
Y027100D01*
X063584D01*
Y028084D01*
D02*
G37*
G36*
X062400D02*
X061416D01*
Y027100D01*
X062400D01*
Y028084D01*
D02*
G37*
G36*
X056485Y029172D02*
X056200D01*
Y028946D01*
X056485D01*
Y029172D01*
D02*
G37*
G36*
X062200Y039923D02*
X061960D01*
Y039758D01*
X061918Y039730D01*
X061900Y039737D01*
Y039400D01*
Y039063D01*
X061977Y039094D01*
X062050Y039150D01*
X062106Y039223D01*
X062141Y039309D01*
X062148Y039365D01*
X062200D01*
Y039644D01*
Y039923D01*
D02*
G37*
G36*
X068040Y039544D02*
X067800D01*
Y039365D01*
X068040D01*
Y039544D01*
D02*
G37*
G36*
X062640D02*
X062400D01*
Y039365D01*
X062640D01*
Y039544D01*
D02*
G37*
G36*
X057140Y039800D02*
X056460D01*
Y039744D01*
X056800D01*
X057140D01*
Y039800D01*
D02*
G37*
G36*
X056900Y040237D02*
Y040000D01*
X057137D01*
X057106Y040077D01*
X057050Y040150D01*
X056977Y040206D01*
X056900Y040237D01*
D02*
G37*
G36*
X056700D02*
X056623Y040206D01*
X056550Y040150D01*
X056494Y040077D01*
X056463Y040000D01*
X056700D01*
Y040237D01*
D02*
G37*
G36*
X062640Y039923D02*
X062400D01*
Y039744D01*
X062640D01*
Y039923D01*
D02*
G37*
G36*
X059500Y030600D02*
X059263D01*
X059294Y030523D01*
X059350Y030450D01*
X059423Y030394D01*
X059500Y030363D01*
Y030600D01*
D02*
G37*
G36*
X060062Y030152D02*
X059600D01*
Y029896D01*
X060062D01*
Y030152D01*
D02*
G37*
G36*
Y029696D02*
X059600D01*
Y029441D01*
X060062D01*
Y029696D01*
D02*
G37*
G36*
X059937Y030600D02*
X059700D01*
Y030363D01*
X059777Y030394D01*
X059850Y030450D01*
X059906Y030523D01*
X059937Y030600D01*
D02*
G37*
G36*
X057140Y039544D02*
X056900D01*
Y039365D01*
X057140D01*
Y039544D01*
D02*
G37*
G36*
X056700D02*
X056460D01*
Y039365D01*
X056700D01*
Y039544D01*
D02*
G37*
G36*
X067500Y039937D02*
Y039600D01*
Y039263D01*
X067577Y039294D01*
X067600Y039312D01*
Y039644D01*
Y039923D01*
X067535D01*
X067500Y039937D01*
D02*
G37*
G36*
X062797Y023785D02*
X062600D01*
Y023608D01*
X062797D01*
Y023785D01*
D02*
G37*
G36*
X062400D02*
X062203D01*
Y023608D01*
X062400D01*
Y023785D01*
D02*
G37*
G36*
X062047D02*
X061850D01*
Y023608D01*
X062047D01*
Y023785D01*
D02*
G37*
G36*
X063600D02*
X063403D01*
Y023608D01*
X063600D01*
Y023785D01*
D02*
G37*
G36*
X064797D02*
X064600D01*
Y023608D01*
X064797D01*
Y023785D01*
D02*
G37*
G36*
X064400D02*
X064203D01*
Y023608D01*
X064400D01*
Y023785D01*
D02*
G37*
G36*
X063997D02*
X063800D01*
Y023608D01*
X063997D01*
Y023785D01*
D02*
G37*
G36*
X067700Y022900D02*
X067425D01*
X067425Y022899D01*
X067464Y022806D01*
X067525Y022725D01*
X067606Y022664D01*
X067699Y022625D01*
X067700Y022625D01*
Y022900D01*
D02*
G37*
G36*
X063800Y023387D02*
X063700Y023374D01*
X063607Y023335D01*
X063527Y023273D01*
X063465Y023193D01*
X063426Y023100D01*
X063413Y023000D01*
X063426Y022900D01*
X063465Y022807D01*
X063527Y022727D01*
X063607Y022665D01*
X063700Y022626D01*
X063800Y022613D01*
X063900Y022626D01*
X063993Y022665D01*
X064073Y022727D01*
X064135Y022807D01*
X064174Y022900D01*
X064187Y023000D01*
X064174Y023100D01*
X064135Y023193D01*
X064073Y023273D01*
X063993Y023335D01*
X063900Y023374D01*
X063800Y023387D01*
D02*
G37*
G36*
X062800D02*
X062700Y023374D01*
X062607Y023335D01*
X062527Y023273D01*
X062465Y023193D01*
X062426Y023100D01*
X062413Y023000D01*
X062426Y022900D01*
X062465Y022807D01*
X062527Y022727D01*
X062607Y022665D01*
X062700Y022626D01*
X062800Y022613D01*
X062900Y022626D01*
X062993Y022665D01*
X063073Y022727D01*
X063135Y022807D01*
X063174Y022900D01*
X063187Y023000D01*
X063174Y023100D01*
X063135Y023193D01*
X063073Y023273D01*
X062993Y023335D01*
X062900Y023374D01*
X062800Y023387D01*
D02*
G37*
G36*
X068175Y022900D02*
X067900D01*
Y022625D01*
X067901Y022625D01*
X067994Y022664D01*
X068075Y022725D01*
X068136Y022806D01*
X068175Y022899D01*
X068175Y022900D01*
D02*
G37*
G36*
X060900Y023785D02*
X060703D01*
Y023608D01*
X060900D01*
Y023785D01*
D02*
G37*
G36*
X067900Y023375D02*
Y023100D01*
X068175D01*
X068175Y023101D01*
X068136Y023194D01*
X068075Y023275D01*
X067994Y023336D01*
X067901Y023375D01*
X067900Y023375D01*
D02*
G37*
G36*
X067700D02*
X067699Y023375D01*
X067606Y023336D01*
X067525Y023275D01*
X067464Y023194D01*
X067425Y023101D01*
X067425Y023100D01*
X067700D01*
Y023375D01*
D02*
G37*
G36*
X065500Y024200D02*
X065263D01*
X065294Y024123D01*
X065350Y024050D01*
X065423Y023994D01*
X065500Y023963D01*
Y024200D01*
D02*
G37*
G36*
X057437Y025400D02*
X057200D01*
Y025163D01*
X057277Y025194D01*
X057350Y025250D01*
X057406Y025323D01*
X057437Y025400D01*
D02*
G37*
G36*
X055105Y025400D02*
X054800D01*
Y024927D01*
X055105D01*
Y025400D01*
D02*
G37*
G36*
X054600D02*
X054295D01*
Y024927D01*
X054600D01*
Y025400D01*
D02*
G37*
G36*
Y026072D02*
X054295D01*
Y025600D01*
X054600D01*
Y026072D01*
D02*
G37*
G36*
X062400Y026900D02*
X061416D01*
Y025916D01*
X062400D01*
Y026900D01*
D02*
G37*
G36*
X057200Y025837D02*
Y025600D01*
X057437D01*
X057406Y025677D01*
X057350Y025750D01*
X057277Y025806D01*
X057200Y025837D01*
D02*
G37*
G36*
X055105Y026072D02*
X054800D01*
Y025600D01*
X055105D01*
Y026072D01*
D02*
G37*
G36*
X062047Y024162D02*
X061850D01*
Y023985D01*
X062047D01*
Y024162D01*
D02*
G37*
G36*
X064400D02*
X064203D01*
Y023985D01*
X064400D01*
Y024162D01*
D02*
G37*
G36*
X065937Y024200D02*
X065700D01*
Y023963D01*
X065777Y023994D01*
X065850Y024050D01*
X065906Y024123D01*
X065937Y024200D01*
D02*
G37*
G36*
X064797Y024162D02*
X064600D01*
Y023985D01*
X064797D01*
Y024162D01*
D02*
G37*
G36*
X063735Y025214D02*
X063676D01*
Y024879D01*
X063735D01*
Y025214D01*
D02*
G37*
G36*
X065700Y024637D02*
Y024400D01*
X065937D01*
X065906Y024477D01*
X065850Y024550D01*
X065777Y024606D01*
X065700Y024637D01*
D02*
G37*
G36*
X065500D02*
X065423Y024606D01*
X065350Y024550D01*
X065294Y024477D01*
X065263Y024400D01*
X065500D01*
Y024637D01*
D02*
G37*
%LPD*%
D10*
X056800Y039644D02*
D03*
Y038356D02*
D03*
X062300Y039644D02*
D03*
Y038356D02*
D03*
X067700Y039644D02*
D03*
Y038356D02*
D03*
D11*
X054700Y026700D02*
D03*
Y025500D02*
D03*
D12*
X065100Y028576D02*
D03*
Y028024D02*
D03*
Y027376D02*
D03*
Y026824D02*
D03*
Y026176D02*
D03*
Y025624D02*
D03*
X052550Y036424D02*
D03*
Y036976D02*
D03*
D13*
X064500Y023885D02*
D03*
Y024515D02*
D03*
X061750Y023885D02*
D03*
Y024515D02*
D03*
X061000Y023885D02*
D03*
Y024515D02*
D03*
X068200Y037185D02*
D03*
Y037815D02*
D03*
X062800Y037185D02*
D03*
Y037815D02*
D03*
X057300Y037185D02*
D03*
Y037815D02*
D03*
X060850Y029635D02*
D03*
Y030265D02*
D03*
X062500Y023885D02*
D03*
Y024515D02*
D03*
X063700Y023885D02*
D03*
Y024515D02*
D03*
D14*
X063246Y029700D02*
D03*
X063954D02*
D03*
D15*
X061885Y030000D02*
D03*
X062515D02*
D03*
D16*
X056100Y029554D02*
D03*
Y028846D02*
D03*
D17*
X062500Y027000D02*
D03*
D18*
X060800Y028089D02*
D03*
Y027893D02*
D03*
Y027696D02*
D03*
Y027499D02*
D03*
Y027302D02*
D03*
Y027105D02*
D03*
Y026908D02*
D03*
Y026711D02*
D03*
Y026515D02*
D03*
Y026318D02*
D03*
Y026121D02*
D03*
Y025924D02*
D03*
X064186D02*
D03*
Y026121D02*
D03*
Y026318D02*
D03*
Y026515D02*
D03*
Y026711D02*
D03*
Y026908D02*
D03*
Y027105D02*
D03*
Y027302D02*
D03*
Y027499D02*
D03*
Y027696D02*
D03*
Y027893D02*
D03*
Y028089D02*
D03*
D19*
X061410Y025314D02*
D03*
X061607D02*
D03*
X061804D02*
D03*
X062001D02*
D03*
X062198D02*
D03*
X062394D02*
D03*
X062591D02*
D03*
X062788D02*
D03*
X062985D02*
D03*
X063182D02*
D03*
X063379D02*
D03*
X063576D02*
D03*
Y028700D02*
D03*
X063379D02*
D03*
X063182D02*
D03*
X062985D02*
D03*
X062788D02*
D03*
X062591D02*
D03*
X062394D02*
D03*
X062198D02*
D03*
X062001D02*
D03*
X061804D02*
D03*
X061607D02*
D03*
X061410D02*
D03*
D20*
X059500Y029796D02*
D03*
Y028596D02*
D03*
D21*
X057800Y029200D02*
D03*
D22*
X058349Y028511D02*
D03*
Y028708D02*
D03*
Y028905D02*
D03*
Y029102D02*
D03*
Y029298D02*
D03*
Y029495D02*
D03*
Y029692D02*
D03*
Y029889D02*
D03*
X057251Y028511D02*
D03*
Y028708D02*
D03*
Y028905D02*
D03*
Y029102D02*
D03*
Y029298D02*
D03*
Y029495D02*
D03*
Y029692D02*
D03*
Y029889D02*
D03*
D23*
X058343Y026000D02*
D03*
X056257D02*
D03*
D24*
X056200Y037161D02*
D03*
X055700D02*
D03*
X055200D02*
D03*
X054200D02*
D03*
X053700D02*
D03*
X053200D02*
D03*
X058700D02*
D03*
X059200D02*
D03*
X059700D02*
D03*
X060700D02*
D03*
X061200D02*
D03*
X061700D02*
D03*
X067200D02*
D03*
X066700D02*
D03*
X066200D02*
D03*
X065200D02*
D03*
X064700D02*
D03*
X064200D02*
D03*
D25*
X054700Y033145D02*
D03*
X060200D02*
D03*
X065700D02*
D03*
D26*
X052500Y020200D02*
D03*
X053691D02*
D03*
Y019100D02*
D03*
X052500D02*
D03*
Y018000D02*
D03*
X053691D02*
D03*
Y016900D02*
D03*
X052500D02*
D03*
D27*
X053241Y021159D02*
X053541D01*
X052700Y021700D02*
X053241Y021159D01*
X052700Y021700D02*
Y024700D01*
X059300Y023300D02*
X060000Y024000D01*
X059300Y022700D02*
Y023300D01*
X059000Y022400D02*
X059300Y022700D01*
X057400Y022400D02*
X059000D01*
X056800Y023000D02*
X057400Y022400D01*
X052800Y024800D02*
Y028100D01*
X052700Y024700D02*
X052800Y024800D01*
X053200Y023694D02*
X053900Y022994D01*
Y022000D02*
Y022994D01*
Y022000D02*
X054400Y021500D01*
X055400D01*
X055941Y020959D01*
Y020341D02*
Y020959D01*
X055000Y022500D02*
X056406Y021094D01*
X054600Y022500D02*
X055000D01*
X054300Y022800D02*
X054600Y022500D01*
X054300Y023200D02*
X055130Y024030D01*
X054300Y022800D02*
Y023200D01*
X056406Y016837D02*
Y021094D01*
X052237Y039800D02*
X052700Y039337D01*
X052200Y039800D02*
X052237D01*
X052133Y038841D02*
X052200D01*
X052700Y038082D02*
Y039337D01*
X052200Y039300D02*
X052278D01*
X052541Y038182D02*
Y039037D01*
X052278Y039300D02*
X052541Y039037D01*
X052041Y037682D02*
X052541Y038182D01*
X052200Y037582D02*
X052700Y038082D01*
X052100Y038300D02*
X052149D01*
X052041Y026434D02*
Y037682D01*
X052200Y026800D02*
Y037582D01*
X051882Y038033D02*
X052149Y038300D01*
X051723Y016877D02*
Y038431D01*
Y016877D02*
X052300Y016300D01*
X051723Y038431D02*
X052133Y038841D01*
X051882Y025618D02*
X052200Y025300D01*
X052041Y026434D02*
X052400Y026075D01*
X051882Y025618D02*
Y038033D01*
X052200Y026800D02*
X052400Y026600D01*
X053200Y023694D02*
Y023794D01*
X053624Y021619D02*
Y022482D01*
X053200Y022906D02*
X053624Y022482D01*
X053200Y022906D02*
Y023006D01*
X052200Y025300D02*
X052400D01*
X053541Y021159D02*
X054255Y020445D01*
X055100Y016300D02*
X055800Y017000D01*
X052300Y016300D02*
X055100D01*
X059800Y017000D02*
Y018100D01*
X055247Y022653D02*
X059800Y018100D01*
X055247Y022653D02*
Y023229D01*
X060800Y017000D02*
Y017400D01*
X055406Y022794D02*
X060800Y017400D01*
X055406Y022794D02*
Y023163D01*
X059459Y019141D02*
X061159D01*
X056247Y022353D02*
X059459Y019141D01*
X056247Y022353D02*
Y023347D01*
X055130Y024030D02*
X058148D01*
X054637Y020606D02*
X055394D01*
X054406Y020837D02*
X054637Y020606D01*
X055394D02*
X055400Y020612D01*
Y020700D01*
X054255Y019774D02*
Y020445D01*
X054406Y020837D02*
Y020844D01*
X053632Y021618D02*
X054406Y020844D01*
X053625Y021618D02*
X053632D01*
X054529Y019500D02*
X055500D01*
X054255Y019774D02*
X054529Y019500D01*
X059443Y019800D02*
X059500D01*
X061356Y029923D02*
X061420D01*
X062217Y028719D02*
Y029668D01*
X062394Y028700D02*
Y029880D01*
X062198Y028700D02*
X062217Y028719D01*
X061885Y030000D02*
X062217Y029668D01*
X068766Y030891D02*
Y037934D01*
X068400Y038300D02*
X068766Y037934D01*
X067162Y038300D02*
X068400D01*
X068200Y036985D02*
X068300Y037085D01*
X068200Y035650D02*
Y036985D01*
Y035650D02*
X068607Y035243D01*
X063000Y038300D02*
X063200Y038100D01*
Y036600D02*
Y038100D01*
Y036600D02*
X064023Y035777D01*
X062800Y037085D02*
X062900Y037185D01*
X062800Y036600D02*
Y037085D01*
Y036600D02*
X063782Y035618D01*
X057300Y037085D02*
X057400Y037185D01*
X057300Y036300D02*
Y037085D01*
Y036300D02*
X058300Y035300D01*
X057700Y036300D02*
X058541Y035459D01*
X057700Y036300D02*
Y036957D01*
X057706Y036963D01*
Y037407D01*
X057700Y037413D02*
X057706Y037407D01*
X057500Y038300D02*
X057706Y038094D01*
Y037593D02*
Y038094D01*
X057700Y037413D02*
Y037587D01*
X057706Y037593D01*
X058541Y035459D02*
X067666D01*
X058300Y035300D02*
X067600D01*
X066531Y037669D02*
X067162Y038300D01*
X063903Y028897D02*
Y029145D01*
X063746Y029302D02*
X063903Y029145D01*
X063402Y029302D02*
X063746D01*
X063744Y028807D02*
Y029079D01*
X063680Y029143D02*
X063744Y029079D01*
X063468Y029143D02*
X063680D01*
X063600Y030900D02*
X064400D01*
X063159Y031259D02*
X064341D01*
X063182Y029082D02*
X063402Y029302D01*
X063182Y028700D02*
Y029082D01*
X065500Y029900D02*
X065600Y030000D01*
X064341Y031259D02*
X065600Y030000D01*
X065200Y029250D02*
Y030100D01*
X064400Y030900D02*
X065200Y030100D01*
Y029250D02*
X065350Y029100D01*
X065500Y029900D02*
X065600Y029800D01*
X066100Y028750D02*
Y030200D01*
X065909Y028915D02*
Y030309D01*
X066259Y030059D02*
X066750Y030550D01*
X066259Y027559D02*
Y030059D01*
X066418Y029918D02*
X066891Y030391D01*
X066418Y027318D02*
Y029918D01*
X066591Y029791D02*
X067032Y030232D01*
X066591Y026949D02*
Y029791D01*
X066750Y029650D02*
X067173Y030073D01*
X066750Y026850D02*
Y029650D01*
X065322Y028329D02*
X065909Y028915D01*
X065374Y028024D02*
X066100Y028750D01*
X062280Y030480D02*
Y030520D01*
X061600Y031200D02*
X062280Y030520D01*
X063050Y031150D02*
X063159Y031259D01*
X062788Y028700D02*
Y029745D01*
X062850Y029807D02*
Y030578D01*
X062788Y029745D02*
X062850Y029807D01*
X063379Y029054D02*
X063468Y029143D01*
X063379Y028700D02*
Y029054D01*
X058354Y029500D02*
X058800D01*
X058349Y029495D02*
X058354Y029500D01*
X066800Y023000D02*
X067624Y023824D01*
X065800Y023000D02*
X066776Y023976D01*
X057800Y023000D02*
X058243D01*
X061750Y024515D02*
X062500D01*
X061800Y025310D02*
X061804Y025314D01*
X062198Y024817D02*
Y025314D01*
Y024817D02*
X062500Y024515D01*
X056406Y022837D02*
X059443Y019800D01*
X060356Y023444D02*
X060800Y023000D01*
X061607Y024658D02*
X061750Y024515D01*
X061607Y024658D02*
Y025314D01*
X061000Y024515D02*
X061750D01*
X061159Y019141D02*
X061200Y019100D01*
X064186Y027696D02*
X064601D01*
X064186Y027499D02*
X064215Y027528D01*
X064575Y027537D02*
X064667D01*
X064601Y027696D02*
X064930Y028024D01*
X064667Y027537D02*
X064839Y027709D01*
X064186Y026121D02*
X064537D01*
X064186Y026318D02*
X064565D01*
X064867Y027302D02*
X064941Y027376D01*
X064186Y027302D02*
X064867D01*
X065500Y025000D02*
Y025050D01*
X064537Y026121D02*
X064630Y026028D01*
X064565Y026318D02*
X064789Y026094D01*
X064630Y025870D02*
Y026028D01*
X064789Y025960D02*
Y026094D01*
Y025960D02*
X064878Y025871D01*
X060700Y037161D02*
X060950Y037411D01*
X064215Y027528D02*
X064566D01*
X064575Y027537D01*
X060900Y029210D02*
X061410Y028700D01*
X060900Y029210D02*
Y029600D01*
X064186Y026515D02*
X064635D01*
X064975Y026175D01*
X065100D01*
X065033Y026422D02*
X065628D01*
X064186Y026908D02*
X064967D01*
X064750Y026705D02*
X065033Y026422D01*
X064750Y026705D02*
Y026711D01*
X064186D02*
X064750D01*
X060761Y027499D02*
X060771Y027509D01*
X060761Y027499D02*
X060800D01*
X053624Y021619D02*
X053625Y021618D01*
X062394Y029880D02*
X062515Y030000D01*
X064222Y028329D02*
X065322D01*
X065100Y028024D02*
X065374D01*
X065659Y027709D02*
X065700Y027750D01*
X064839Y027709D02*
X065659D01*
X068607Y030957D02*
Y035243D01*
X068448Y031023D02*
Y035177D01*
X068289Y031089D02*
Y035111D01*
X067948Y030073D02*
X068766Y030891D01*
X067882Y030232D02*
X068607Y030957D01*
X067816Y030391D02*
X068448Y031023D01*
X067750Y030550D02*
X068289Y031089D01*
X067679Y030729D02*
X068130Y031180D01*
Y034995D01*
X067559Y030909D02*
X067950Y031300D01*
Y034950D01*
X066776Y025883D02*
X067200Y026307D01*
Y027097D02*
X067624Y026673D01*
Y023824D02*
Y026673D01*
X066776Y023976D02*
Y025883D01*
X066509Y030909D02*
X067559D01*
X066629Y030729D02*
X067679D01*
X066750Y030550D02*
X067750D01*
X066891Y030391D02*
X067816D01*
X067032Y030232D02*
X067882D01*
X067173Y030073D02*
X067948D01*
X067600Y035300D02*
X067950Y034950D01*
X067666Y035459D02*
X068130Y034995D01*
X067782Y035618D02*
X068289Y035111D01*
X067848Y035777D02*
X068448Y035177D01*
X063782Y035618D02*
X067782D01*
X064023Y035777D02*
X067848D01*
X063744Y028807D02*
X064222Y028329D01*
X061800Y028704D02*
X061804Y028700D01*
X060421Y026318D02*
X060800D01*
X066100Y030200D02*
X066629Y030729D01*
X065909Y030309D02*
X066509Y030909D01*
X064878Y025871D02*
X065513D01*
X066591Y026949D01*
X065100Y025624D02*
X065524D01*
X066750Y026850D01*
X064630Y025870D02*
X064876Y025624D01*
X065100D01*
X058855Y024030D02*
X059159Y024334D01*
X059103Y023553D02*
X059636Y024086D01*
X059037Y023712D02*
X059477Y024152D01*
X058971Y023871D02*
X059318Y024218D01*
X059169Y023394D02*
X059800Y024025D01*
X060449Y026121D02*
X060800D01*
X060000Y024000D02*
Y026122D01*
X060393Y026515D01*
X060800D01*
X059000Y024400D02*
Y026500D01*
X060393Y027893D01*
X060800D01*
X059159Y024334D02*
Y026434D01*
X060234Y027509D01*
X060771D01*
X059318Y026368D02*
X060252Y027302D01*
X060800D01*
X059477Y024152D02*
Y026302D01*
X060280Y027105D01*
X060800D01*
X059636Y024086D02*
Y026236D01*
X060308Y026908D01*
X060800D01*
X059800Y024025D02*
Y026175D01*
X060336Y026711D01*
X060800D01*
X059318Y024218D02*
Y026368D01*
X058243Y023000D02*
X058637Y023394D01*
X058571Y023553D02*
X059103D01*
X058637Y023394D02*
X059169D01*
X058400Y028340D02*
X058460Y028400D01*
X058349Y028511D02*
X058460Y028400D01*
X058709Y028031D02*
Y028532D01*
X058400Y027722D02*
X058709Y028031D01*
X057898Y029102D02*
X058349D01*
X057800Y029200D02*
X057898Y029102D01*
X057505Y028905D02*
X057800Y029200D01*
X057251Y028905D02*
X057505D01*
X057251Y028149D02*
Y028511D01*
X056259Y029495D02*
X057251D01*
X058800Y029500D02*
Y029700D01*
X057700Y031200D02*
X061600D01*
X057811Y029889D02*
X058349D01*
X057800Y029900D02*
X057811Y029889D01*
X059000Y029200D02*
Y029300D01*
X056100Y029654D02*
X056259Y029495D01*
X057013Y028708D02*
X057251D01*
X057111Y029889D02*
X057251D01*
X056406Y022837D02*
Y023163D01*
X058307Y024189D02*
X058789D01*
X059000Y024400D01*
X058373Y024030D02*
X058855D01*
X058439Y023871D02*
X058971D01*
X058505Y023712D02*
X059037D01*
X058148Y024030D02*
X058307Y024189D01*
X058412Y023394D02*
X058571Y023553D01*
X058346D02*
X058505Y023712D01*
X058280D02*
X058439Y023871D01*
X058214D02*
X058373Y024030D01*
X056406Y023163D02*
X056637Y023394D01*
X058412D01*
X056247Y023347D02*
X056453Y023553D01*
X058346D01*
X055406Y023163D02*
X055955Y023712D01*
X058280D01*
X055247Y023229D02*
X055889Y023871D01*
X058214D01*
X058243Y025243D02*
Y026000D01*
X058400Y027700D02*
Y027722D01*
X056841Y028536D02*
X057013Y028708D01*
X056841Y028051D02*
X057192Y027700D01*
X056841Y028051D02*
Y028536D01*
X057192Y027700D02*
X058400D01*
X060950Y037411D02*
Y037650D01*
X061600Y038300D01*
X063000D01*
X055200Y037161D02*
Y037400D01*
X056100Y038300D01*
X057500D01*
X063182Y025314D02*
Y025711D01*
X063271Y025800D01*
X063700D01*
X063668Y025999D02*
X063708Y025959D01*
X063800D01*
X063835Y025924D01*
X064186D01*
X063700Y024515D02*
X064500D01*
X063379Y024879D02*
Y025314D01*
X063576D01*
X063700Y025800D02*
X064450Y025050D01*
X065500D01*
X061000Y024515D02*
Y024700D01*
X060356Y023444D02*
Y024361D01*
X060341Y024376D02*
X060356Y024361D01*
X060182Y024310D02*
Y026079D01*
X060341Y024376D02*
Y026013D01*
X060449Y026121D01*
X060182Y026079D02*
X060421Y026318D01*
X060182Y024310D02*
X060197Y024295D01*
X060907Y024607D02*
X061000Y024700D01*
X060800Y024625D02*
Y025924D01*
X060700Y024525D02*
X060800Y024625D01*
X062500Y024515D02*
Y024675D01*
X063385Y024200D02*
X063700Y024515D01*
X062500D02*
X062815Y024200D01*
X063385D01*
X062500Y024675D02*
X062788Y024963D01*
Y025314D01*
X062985Y024715D02*
X063100Y024600D01*
X063903Y028897D02*
X064224Y028576D01*
X065100D01*
X060544Y029035D02*
X060850Y028729D01*
Y028139D02*
Y028729D01*
X060800Y028089D02*
X060850Y028139D01*
X060544Y029035D02*
Y029959D01*
X060850Y030265D01*
X064186Y027105D02*
X065805D01*
X066259Y027559D01*
X065100Y026824D02*
X065924D01*
X066418Y027318D01*
X057251Y028511D02*
X057262Y028500D01*
X057500D01*
X061750Y024515D02*
X061800Y024565D01*
Y025310D01*
X058349Y028708D02*
X058533D01*
X058709Y028532D01*
X060197Y020803D02*
Y024295D01*
Y020803D02*
X061800Y019200D01*
Y017000D02*
Y019200D01*
X062400Y016600D02*
X062800Y017000D01*
X056406Y016837D02*
X056643Y016600D01*
X062400D01*
D28*
X053516Y024268D02*
X055071D01*
X053200Y024584D02*
X053516Y024268D01*
X053015Y036976D02*
X053200Y037161D01*
X052600Y036976D02*
X053015D01*
X061856Y039644D02*
X062300D01*
X061477Y029343D02*
X061582D01*
X067854Y037815D02*
X068200D01*
X067200Y037161D02*
X067854Y037815D01*
X062354D02*
X062900D01*
X061700Y037161D02*
X062354Y037815D01*
X065700Y033145D02*
X066200Y032645D01*
X065450Y031895D02*
X065600Y031745D01*
X065450Y031895D02*
X066200Y032645D01*
X056854Y037815D02*
X057400D01*
X056200Y037161D02*
X056854Y037815D01*
X061582Y029343D02*
X061800Y029125D01*
X059100Y027600D02*
Y028196D01*
X059500Y028596D01*
X055354Y029554D02*
X056200D01*
X058800Y029500D02*
X059000Y029300D01*
X057800Y029900D02*
Y030300D01*
Y029200D02*
Y029900D01*
X058459Y030841D02*
X058800Y030500D01*
Y029500D02*
Y030500D01*
X056641Y030841D02*
X058459D01*
X056100Y029654D02*
Y030300D01*
X056641Y030841D01*
X055071Y024268D02*
X055073Y024266D01*
X057266D01*
X058243Y025243D01*
X057251Y028149D02*
X057749D01*
X052550Y033300D02*
Y036424D01*
X052600Y033300D02*
X052600Y033300D01*
X056000Y028200D02*
X056100Y028300D01*
Y028746D01*
X056200Y028846D01*
D29*
X062019Y028851D02*
Y029481D01*
X062001Y028832D02*
X062019Y028851D01*
X061659Y029684D02*
X061816D01*
X061420Y029923D02*
X061659Y029684D01*
X061816D02*
X062019Y029481D01*
X062001Y028700D02*
Y028832D01*
X062985Y029539D02*
X063246Y029800D01*
X062985Y028700D02*
Y029539D01*
X061800Y028704D02*
Y029125D01*
X056800Y030200D02*
X057111Y029889D01*
X062985Y024715D02*
Y025314D01*
D30*
X062541Y030939D02*
X063089Y030391D01*
X063811D01*
X063820Y030400D02*
X064350D01*
X063811Y030391D02*
X063820Y030400D01*
X064350D02*
X064791Y029959D01*
Y029109D02*
Y029959D01*
Y029109D02*
X064800Y029100D01*
X060335Y033145D02*
X062541Y030939D01*
X060304Y033145D02*
X060335D01*
X062541Y030939D02*
Y030939D01*
X055391Y027609D02*
Y027609D01*
D31*
X060200Y033145D02*
X060304D01*
D32*
X054700Y028300D02*
X055391Y027609D01*
X054700Y026661D02*
Y028300D01*
D33*
X065397Y037150D02*
D03*
X059897D02*
D03*
D34*
X062800Y018000D02*
D03*
X063800D02*
D03*
X064800D02*
D03*
X066800D02*
D03*
X067800Y017000D02*
D03*
X066800D02*
D03*
X065800D02*
D03*
X064800D02*
D03*
X063800D02*
D03*
X062800D02*
D03*
X061800D02*
D03*
X060800D02*
D03*
X059800D02*
D03*
X058800D02*
D03*
X057800D02*
D03*
X056800D02*
D03*
X055800D02*
D03*
X054800D02*
D03*
Y018000D02*
D03*
Y019000D02*
D03*
Y020000D02*
D03*
Y021000D02*
D03*
Y022000D02*
D03*
Y023000D02*
D03*
X055800D02*
D03*
X056800D02*
D03*
X057800D02*
D03*
X058800D02*
D03*
X059800D02*
D03*
X060800D02*
D03*
X061800D02*
D03*
X062800D02*
D03*
X063800D02*
D03*
X064800D02*
D03*
X065800D02*
D03*
X066800D02*
D03*
X067800D02*
D03*
D35*
X053200Y024484D02*
D03*
Y023694D02*
D03*
Y022906D02*
D03*
Y022119D02*
D03*
X067200Y024738D02*
D03*
Y026307D02*
D03*
Y027097D02*
D03*
Y027887D02*
D03*
Y028675D02*
D03*
Y029462D02*
D03*
Y025525D02*
D03*
D36*
X067600Y015000D02*
D03*
X052900D02*
D03*
D37*
X059200Y021300D02*
D03*
X052100Y038300D02*
D03*
X052400Y025300D02*
D03*
X053300Y037500D02*
D03*
Y036800D02*
D03*
X056800Y039900D02*
D03*
X058600Y018100D02*
D03*
X057600Y019700D02*
D03*
X055941Y020341D02*
D03*
X055400Y020700D02*
D03*
X055500Y019500D02*
D03*
X059500Y019800D02*
D03*
X053500Y026800D02*
D03*
X067400Y039600D02*
D03*
X059600Y030700D02*
D03*
X055400Y037500D02*
D03*
X061800Y039400D02*
D03*
X061477Y029343D02*
D03*
X063500Y038500D02*
D03*
X062700Y036000D02*
D03*
X058000Y038500D02*
D03*
X064400Y037500D02*
D03*
X065100D02*
D03*
X065800D02*
D03*
X066500D02*
D03*
X054000D02*
D03*
X054700D02*
D03*
X064400Y039500D02*
D03*
X065100D02*
D03*
X065800D02*
D03*
X066500D02*
D03*
X060300D02*
D03*
X059600D02*
D03*
X061200Y019100D02*
D03*
X063100Y021200D02*
D03*
X065300Y022400D02*
D03*
X061000Y037500D02*
D03*
X060300D02*
D03*
X059600D02*
D03*
X058900D02*
D03*
X068100Y028450D02*
D03*
X061356Y029923D02*
D03*
X065600Y024300D02*
D03*
X052400Y021150D02*
D03*
X066850D02*
D03*
X058900Y039500D02*
D03*
X061000D02*
D03*
X058500Y025500D02*
D03*
X059100Y027600D02*
D03*
X056700Y024800D02*
D03*
X061400Y023900D02*
D03*
X056700Y027100D02*
D03*
X056000Y028200D02*
D03*
X057800Y030300D02*
D03*
X056800Y030200D02*
D03*
X059000Y029200D02*
D03*
X055391Y027609D02*
D03*
X057100Y025500D02*
D03*
X058000Y027100D02*
D03*
X057251Y028149D02*
D03*
X063200Y034600D02*
D03*
X057700D02*
D03*
X054000Y036800D02*
D03*
X054700D02*
D03*
X055400D02*
D03*
X058900D02*
D03*
X059600D02*
D03*
X060300D02*
D03*
X061000D02*
D03*
X064400D02*
D03*
X065100D02*
D03*
X065800D02*
D03*
X066500D02*
D03*
X060700Y024525D02*
D03*
X063100Y024600D02*
D03*
X063850Y029700D02*
D03*
X064800Y029100D02*
D03*
X061300Y020800D02*
D03*
D38*
X052200Y039800D02*
D03*
Y038841D02*
D03*
Y039300D02*
D03*
X052400Y026600D02*
D03*
Y026075D02*
D03*
X063600Y030900D02*
D03*
X065600Y029800D02*
D03*
X062280Y030480D02*
D03*
X063050Y031150D02*
D03*
X053691Y016900D02*
D03*
Y018000D02*
D03*
Y019100D02*
D03*
X057700Y031200D02*
D03*
X065500Y025050D02*
D03*
X065628Y026422D02*
D03*
X053691Y020200D02*
D03*
X066450Y026100D02*
D03*
X065700Y027750D02*
D03*
X052400Y019800D02*
D03*
X058400Y028340D02*
D03*
X065350Y029100D02*
D03*
D39*
X061673Y027827D02*
D03*
X061909D02*
D03*
X062146D02*
D03*
X062382D02*
D03*
X062618D02*
D03*
X062854D02*
D03*
X063091D02*
D03*
X063327D02*
D03*
Y027591D02*
D03*
X063091D02*
D03*
X062854D02*
D03*
X062618D02*
D03*
X062382D02*
D03*
X062146D02*
D03*
X061909D02*
D03*
X061673D02*
D03*
X063327Y027354D02*
D03*
X063091D02*
D03*
X062854D02*
D03*
X062618D02*
D03*
X062382D02*
D03*
X062146D02*
D03*
X061909D02*
D03*
X061673D02*
D03*
X063327Y027118D02*
D03*
X063091D02*
D03*
X062854D02*
D03*
X062618D02*
D03*
X062382D02*
D03*
X062146D02*
D03*
X061909D02*
D03*
X061673D02*
D03*
X063327Y026882D02*
D03*
X063091D02*
D03*
X062854D02*
D03*
X062618D02*
D03*
X062382D02*
D03*
X062146D02*
D03*
X061909D02*
D03*
X061673D02*
D03*
X063327Y026646D02*
D03*
X063091D02*
D03*
X062854D02*
D03*
X062618D02*
D03*
X062382D02*
D03*
X062146D02*
D03*
X061909D02*
D03*
X061673D02*
D03*
X063327Y026409D02*
D03*
X063091D02*
D03*
X062854D02*
D03*
X062618D02*
D03*
X062382D02*
D03*
X062146D02*
D03*
X061909D02*
D03*
X061673D02*
D03*
X063327Y026173D02*
D03*
X063091D02*
D03*
X062854D02*
D03*
X062618D02*
D03*
X062382D02*
D03*
X062146D02*
D03*
X061909D02*
D03*
X061673D02*
D03*
M02*
