G04 (created by PCBNEW-RS274X (2012-01-19 BZR 3256)-stable) date 6/12/2012 4:44:28 PM*
G01*
G70*
G90*
%MOIN*%
G04 Gerber Fmt 3.4, Leading zero omitted, Abs format*
%FSLAX34Y34*%
G04 APERTURE LIST*
%ADD10C,0.006000*%
%ADD11C,0.075000*%
%ADD12C,0.109000*%
%ADD13C,0.095200*%
%ADD14C,0.266100*%
%ADD15R,0.075000X0.075000*%
G04 APERTURE END LIST*
G54D10*
G54D11*
X41850Y-46425D03*
X41850Y-43425D03*
X43180Y-48430D03*
X46180Y-48430D03*
X47600Y-46675D03*
X47600Y-43675D03*
X40600Y-46425D03*
X40600Y-43425D03*
X48850Y-46675D03*
X48850Y-43675D03*
G54D12*
X43600Y-47175D03*
G54D13*
X45057Y-47175D03*
G54D12*
X46159Y-47175D03*
X46159Y-43120D03*
G54D13*
X45057Y-43120D03*
G54D12*
X43600Y-43120D03*
G54D14*
X48175Y-41325D03*
X41325Y-41325D03*
X41325Y-48175D03*
X48175Y-48175D03*
G54D15*
X43700Y-40880D03*
G54D11*
X44700Y-40880D03*
X45700Y-40880D03*
M02*
