%FSTAX24Y24*%
%MOIN*%
G70*
G01*
G75*
G04 Layer_Physical_Order=1*
G04 Layer_Color=255*
%ADD10R,0.0374X0.0315*%
%ADD11R,0.0709X0.0709*%
%ADD12R,0.0472X0.0256*%
%ADD13R,0.0315X0.0374*%
%ADD14R,0.0670X0.1575*%
%ADD15C,0.0200*%
%ADD16C,0.0079*%
%ADD17C,0.2362*%
%ADD18C,0.0787*%
%ADD19R,0.0787X0.0787*%
%ADD20R,0.0591X0.0591*%
%ADD21C,0.0591*%
%ADD22C,0.1181*%
%ADD23C,0.1800*%
%ADD24C,0.0709*%
%ADD25C,0.0500*%
D10*
X042323Y012953D02*
D03*
Y012244D02*
D03*
X048228Y012047D02*
D03*
Y012756D02*
D03*
X04626Y022402D02*
D03*
Y021693D02*
D03*
X047835Y021693D02*
D03*
Y022402D02*
D03*
Y020315D02*
D03*
Y021024D02*
D03*
Y018937D02*
D03*
Y019646D02*
D03*
Y017559D02*
D03*
Y018268D02*
D03*
Y016181D02*
D03*
Y01689D02*
D03*
X051575Y016102D02*
D03*
Y015394D02*
D03*
X050591Y022283D02*
D03*
Y022992D02*
D03*
Y020906D02*
D03*
Y021614D02*
D03*
Y019528D02*
D03*
Y020236D02*
D03*
Y01815D02*
D03*
Y018858D02*
D03*
Y016772D02*
D03*
Y01748D02*
D03*
Y015394D02*
D03*
Y016102D02*
D03*
X042126Y016181D02*
D03*
Y01689D02*
D03*
X042913Y016181D02*
D03*
Y01689D02*
D03*
X042126Y015512D02*
D03*
Y014803D02*
D03*
X042913Y015512D02*
D03*
Y014803D02*
D03*
D11*
X044409Y020472D02*
D03*
X046063D02*
D03*
D12*
X045601Y022421D02*
D03*
Y021673D02*
D03*
X044556Y022047D02*
D03*
X04869Y022638D02*
D03*
X049735Y022264D02*
D03*
Y023012D02*
D03*
X04869Y02126D02*
D03*
X049735Y020886D02*
D03*
Y021634D02*
D03*
X04869Y019882D02*
D03*
X049735Y019508D02*
D03*
Y020256D02*
D03*
X04869Y018504D02*
D03*
X049735Y01813D02*
D03*
Y018878D02*
D03*
X04869Y017126D02*
D03*
X049735Y016752D02*
D03*
Y0175D02*
D03*
X04869Y015748D02*
D03*
X049735Y015374D02*
D03*
Y016122D02*
D03*
D13*
X026614Y019291D02*
D03*
X027323D02*
D03*
X028583D02*
D03*
X029291D02*
D03*
D14*
X04325Y01085D02*
D03*
X04225D02*
D03*
X04915D02*
D03*
X04815D02*
D03*
D15*
X036433Y020654D02*
Y021079D01*
X045621Y021693D02*
X04626D01*
X045601Y021673D02*
X045621Y021693D01*
X045256Y021673D02*
X045601D01*
X045079Y02185D02*
X045256Y021673D01*
X045079Y02185D02*
Y023031D01*
X045276Y023228D01*
X049518D01*
X049735Y023012D01*
X045601Y022421D02*
X04624D01*
X04626Y022402D01*
X04689D01*
X044556Y021389D02*
Y022047D01*
Y021389D02*
X044685Y02126D01*
X045276D01*
X046063Y020472D01*
X042142Y020654D02*
Y0213D01*
X044488Y022115D02*
X044556Y022047D01*
X044488Y022115D02*
Y022835D01*
X036433Y022654D02*
Y02285D01*
X04765Y0142D02*
Y015539D01*
X04705Y016139D02*
X04765Y015539D01*
X04705Y016139D02*
Y022241D01*
X04689Y022402D02*
X04705Y022241D01*
X046063Y020472D02*
X04626Y020276D01*
X049755Y015394D02*
X050591D01*
X049735Y015374D02*
X049755Y015394D01*
X048268Y015748D02*
X04869D01*
X047835Y016181D02*
X048268Y015748D01*
X047835Y01689D02*
Y017559D01*
Y018268D02*
Y018937D01*
Y019646D02*
Y020315D01*
Y021024D02*
Y021693D01*
X048071Y022638D02*
X04869D01*
X047835Y022402D02*
X048071Y022638D01*
X048071Y02126D02*
X04869D01*
X047835Y021024D02*
X048071Y02126D01*
X048071Y019882D02*
X04869D01*
X047835Y019646D02*
X048071Y019882D01*
Y018504D02*
X04869D01*
X047835Y018268D02*
X048071Y018504D01*
Y017126D02*
X04869D01*
X047835Y01689D02*
X048071Y017126D01*
X049735Y016122D02*
Y016752D01*
Y0175D02*
Y01813D01*
Y018878D02*
Y019508D01*
Y020256D02*
Y020886D01*
Y021634D02*
Y022264D01*
X049755Y022992D02*
X050591D01*
X049735Y023012D02*
X049755Y022992D01*
X049755Y022283D02*
X050591D01*
X049735Y022264D02*
X049755Y022283D01*
X050591Y021614D02*
Y022283D01*
X049755Y020906D02*
X050591D01*
X049735Y020886D02*
X049755Y020906D01*
X050591Y020236D02*
Y020906D01*
X049755Y019528D02*
X050591D01*
X049735Y019508D02*
X049755Y019528D01*
X050591Y018858D02*
Y019528D01*
X049755Y01815D02*
X050591D01*
X049735Y01813D02*
X049755Y01815D01*
X050591Y01748D02*
Y01815D01*
Y016102D02*
Y016772D01*
X049755D02*
X050591D01*
X049735Y016752D02*
X049755Y016772D01*
X04869Y015089D02*
Y015748D01*
Y015089D02*
X049213Y014567D01*
Y012795D02*
Y014567D01*
Y012795D02*
X049606Y012402D01*
X051968D01*
X052165Y012598D01*
X051575Y015394D02*
X052165Y014803D01*
Y012598D02*
Y014803D01*
X051575Y016102D02*
X052402D01*
X053626Y014878D01*
X053134Y013118D02*
X053626D01*
X054118D01*
X053626D02*
Y014878D01*
X050591Y015394D02*
X050674Y015311D01*
X050181Y013118D02*
X050674D01*
X051166D01*
X050674D02*
Y015311D01*
X04815Y01085D02*
Y011969D01*
X048228Y012047D01*
X04225Y01085D02*
Y012171D01*
X042323Y012244D01*
X044409Y016691D02*
Y020472D01*
Y016691D02*
X04565Y01545D01*
X037748Y01689D02*
X042126D01*
X036614Y018024D02*
X037748Y01689D01*
X042913D02*
Y01752D01*
X042409Y018024D02*
X042913Y01752D01*
X038114Y018024D02*
X042409D01*
X042126Y015512D02*
Y016181D01*
X042913Y015512D02*
Y016181D01*
X042126Y014803D02*
X042913D01*
X037835D02*
X042126D01*
X036614Y016024D02*
X037835Y014803D01*
X027878Y016024D02*
X036614D01*
Y016524D01*
X035114Y018024D02*
X036614Y016524D01*
X038114Y018024D02*
Y019626D01*
X039142Y020654D01*
X033433D02*
X033984D01*
X036614Y018024D01*
X026969Y020965D02*
X030512D01*
X024016Y018012D02*
X026969Y020965D01*
X025787Y015354D02*
X026457Y016024D01*
X027878D01*
X024016Y015748D02*
X024409Y015354D01*
X024016Y015748D02*
Y018012D01*
X024409Y015354D02*
X025787D01*
X029291Y019291D02*
X032071D01*
X033433Y020654D01*
X035886Y019626D02*
X038114D01*
X034252Y02126D02*
X035886Y019626D01*
X032566Y02126D02*
X034252D01*
X032563Y021257D02*
X032566Y02126D01*
X032477Y021257D02*
X032563D01*
X031102Y019882D02*
X032477Y021257D01*
X024878Y017555D02*
X026614Y019291D01*
X024878Y016274D02*
Y017555D01*
X027067Y017776D02*
X028583Y019291D01*
X026378Y017776D02*
X027067D01*
X027362Y019488D02*
X027756Y019882D01*
X031102D01*
X04325Y01085D02*
Y01235D01*
X04915Y01085D02*
Y01215D01*
X042323Y012953D02*
X045647D01*
X04565Y01295D01*
X047556Y012756D02*
X048228D01*
X04715Y01235D02*
X047556Y012756D01*
X04715Y01185D02*
Y01235D01*
X04626Y01775D02*
Y020276D01*
X0464Y01295D02*
X04765Y0142D01*
X04565Y01295D02*
X0464D01*
X032134Y022D02*
X03678D01*
X037433Y022654D01*
X026969Y022343D02*
X027626Y023D01*
X031134D01*
X032134Y022D01*
X036433Y02285D02*
X036883Y0233D01*
X042142D01*
Y022654D02*
Y0233D01*
X044023D01*
X044488Y022835D01*
X036433Y021079D02*
X036654Y0213D01*
X043582D01*
X044409Y020472D01*
X030512Y022343D02*
X031204Y02165D01*
X042138D01*
X043142Y022654D01*
D16*
X052997Y02013D02*
X05339D01*
X053259Y019999D01*
X05339Y019868D01*
X052997D01*
X05339Y019737D02*
Y019606D01*
Y019671D01*
X052997D01*
Y019737D01*
Y019606D01*
X053325Y019146D02*
X05339Y019212D01*
Y019343D01*
X053325Y019409D01*
X053062D01*
X052997Y019343D01*
Y019212D01*
X053062Y019146D01*
X052997Y019015D02*
X053259D01*
Y01895D01*
X053193Y018884D01*
X052997D01*
X053193D01*
X053259Y018818D01*
X053193Y018753D01*
X052997D01*
X053259Y018622D02*
X053062D01*
X052997Y018556D01*
Y018359D01*
X053259D01*
X053325Y018162D02*
X053259D01*
Y018228D01*
Y018097D01*
Y018162D01*
X053062D01*
X052997Y018097D01*
Y017703D02*
Y017834D01*
X053062Y0179D01*
X053193D01*
X053259Y017834D01*
Y017703D01*
X053193Y017638D01*
X053128D01*
Y0179D01*
X053259Y017506D02*
X052997D01*
X053128D01*
X053193Y017441D01*
X053259Y017375D01*
Y01731D01*
X052931Y017113D02*
Y016851D01*
X053259Y016719D02*
X052997Y016588D01*
X053259Y016457D01*
X052997Y016063D02*
Y016326D01*
X053259Y016063D01*
X053325D01*
X05339Y016129D01*
Y01626D01*
X053325Y016326D01*
X052099Y020614D02*
X051706D01*
Y020417D01*
X051771Y020351D01*
X052034D01*
X052099Y020417D01*
Y020614D01*
X051706Y02022D02*
Y020089D01*
Y020155D01*
X051968D01*
Y02022D01*
Y019827D02*
Y019695D01*
X051902Y01963D01*
X051706D01*
Y019827D01*
X051771Y019892D01*
X051837Y019827D01*
Y01963D01*
X051574Y019499D02*
X051968D01*
Y019302D01*
X051902Y019236D01*
X051771D01*
X051706Y019302D01*
Y019499D01*
X051968Y019105D02*
X051706D01*
X051837D01*
X051902Y019039D01*
X051968Y018974D01*
Y018908D01*
X051706Y018646D02*
Y018515D01*
X051771Y018449D01*
X051902D01*
X051968Y018515D01*
Y018646D01*
X051902Y018712D01*
X051771D01*
X051706Y018646D01*
X052099Y017924D02*
X051706D01*
X051837D01*
X052099Y017662D01*
X051902Y017859D01*
X051706Y017662D01*
Y017465D02*
X052034D01*
X051902D01*
Y017531D01*
Y0174D01*
Y017465D01*
X052034D01*
X052099Y0174D01*
X052034Y017137D02*
X051968D01*
Y017203D01*
Y017072D01*
Y017137D01*
X051771D01*
X051706Y017072D01*
Y016875D02*
X051771D01*
Y016809D01*
X051706D01*
Y016875D01*
X054659Y02048D02*
X054462D01*
X054397Y020415D01*
X054462Y020349D01*
X054397Y020284D01*
X054462Y020218D01*
X054659D01*
Y020087D02*
X054462D01*
X054397Y020021D01*
X054462Y019956D01*
X054397Y01989D01*
X054462Y019824D01*
X054659D01*
Y019693D02*
X054462D01*
X054397Y019628D01*
X054462Y019562D01*
X054397Y019496D01*
X054462Y019431D01*
X054659D01*
X054397Y0193D02*
X054462D01*
Y019234D01*
X054397D01*
Y0193D01*
X05479Y018709D02*
X054397D01*
Y018906D01*
X054462Y018972D01*
X054593D01*
X054659Y018906D01*
Y018709D01*
X054397Y018578D02*
Y018447D01*
Y018512D01*
X054659D01*
Y018578D01*
Y018184D02*
Y018053D01*
X054593Y017988D01*
X054397D01*
Y018184D01*
X054462Y01825D01*
X054528Y018184D01*
Y017988D01*
X054265Y017856D02*
X054659D01*
Y01766D01*
X054593Y017594D01*
X054462D01*
X054397Y01766D01*
Y017856D01*
X054659Y017463D02*
X054397D01*
X054528D01*
X054593Y017397D01*
X054659Y017332D01*
Y017266D01*
X054397Y017004D02*
Y016873D01*
X054462Y016807D01*
X054593D01*
X054659Y016873D01*
Y017004D01*
X054593Y017069D01*
X054462D01*
X054397Y017004D01*
Y016676D02*
X054462D01*
Y01661D01*
X054397D01*
Y016676D01*
X05479Y016348D02*
X054397D01*
X054593D01*
X054659Y016282D01*
Y016151D01*
X054593Y016085D01*
X054397D01*
X054659Y015954D02*
X054462D01*
X054397Y015889D01*
Y015692D01*
X054659D01*
D17*
X05315Y021654D02*
D03*
X023622D02*
D03*
D18*
X037433Y022654D02*
D03*
X036433D02*
D03*
X033433D02*
D03*
X037433Y020654D02*
D03*
X036433D02*
D03*
X043142Y022654D02*
D03*
X042142D02*
D03*
X039142D02*
D03*
X043142Y020654D02*
D03*
X042142D02*
D03*
X026378Y017776D02*
D03*
X036614Y018024D02*
D03*
Y016024D02*
D03*
D19*
X033433Y020654D02*
D03*
X039142D02*
D03*
D20*
X030512Y022343D02*
D03*
X026969D02*
D03*
D21*
X030512Y020965D02*
D03*
X026969D02*
D03*
D22*
X024878Y014524D02*
D03*
Y016274D02*
D03*
X027878Y016024D02*
D03*
Y012524D02*
D03*
X035114Y014524D02*
D03*
Y018024D02*
D03*
X038114D02*
D03*
Y012524D02*
D03*
D23*
X04565Y01545D02*
D03*
Y01295D02*
D03*
X04765Y0142D02*
D03*
D24*
X05215Y01115D02*
D03*
X050181Y013118D02*
D03*
X054118D02*
D03*
X051166D02*
D03*
X053134D02*
D03*
D25*
X04325Y01235D02*
D03*
X04915Y01215D02*
D03*
X04715Y01185D02*
D03*
X04625Y01775D02*
D03*
M02*
