G04 start of page 5 for group -4062 idx -4062 *
G04 Title: Ultim809, soldermask *
G04 Creator: pcb 20091103 *
G04 CreationDate: Tue Apr  5 07:19:05 2011 UTC *
G04 For: matt *
G04 Format: Gerber/RS-274X *
G04 PCB-Dimensions: 900000 650000 *
G04 PCB-Coordinate-Origin: lower left *
%MOIN*%
%FSLAX25Y25*%
%LNBACKMASK*%
%ADD11C,0.0200*%
%ADD18C,0.1500*%
%ADD36C,0.0709*%
%ADD37C,0.0512*%
%ADD40C,0.0660*%
%ADD41C,0.0740*%
%ADD42C,0.2560*%
%ADD43C,0.1060*%
%ADD44C,0.1560*%
%ADD45C,0.0750*%
%ADD46C,0.1510*%
%ADD47C,0.0860*%
%ADD48C,0.1260*%
%ADD49C,0.1660*%
%ADD50C,0.1860*%
G54D11*G36*
X726700Y353300D02*Y346700D01*
X733300D01*
Y353300D01*
X726700D01*
G37*
G54D40*X720000Y350000D03*
X730000Y310000D03*
Y320000D03*
Y330000D03*
Y340000D03*
Y270000D03*
Y280000D03*
Y290000D03*
Y300000D03*
G54D11*G36*
X776700Y283300D02*Y276700D01*
X783300D01*
Y283300D01*
X776700D01*
G37*
G54D40*X770000Y280000D03*
X760000Y300000D03*
Y290000D03*
X790000D03*
Y300000D03*
Y310000D03*
Y320000D03*
Y330000D03*
Y340000D03*
Y350000D03*
X760000D03*
Y340000D03*
Y330000D03*
Y320000D03*
Y310000D03*
X670000Y290000D03*
Y280000D03*
Y270000D03*
Y310000D03*
X630000D03*
X650000D03*
X640000D03*
X670000Y300000D03*
G54D11*G36*
X646700Y303300D02*Y296700D01*
X653300D01*
Y303300D01*
X646700D01*
G37*
G54D40*X610000Y290000D03*
Y300000D03*
Y310000D03*
Y270000D03*
X650000D03*
X610000Y280000D03*
G54D11*G36*
X666700Y343300D02*Y336700D01*
X673300D01*
Y343300D01*
X666700D01*
G37*
G54D40*X670000Y330000D03*
Y320000D03*
X610000D03*
Y330000D03*
Y340000D03*
G54D11*G36*
X626700Y343300D02*Y336700D01*
X633300D01*
Y343300D01*
X626700D01*
G37*
G36*
X636700D02*Y336700D01*
X643300D01*
Y343300D01*
X636700D01*
G37*
G36*
X646700D02*Y336700D01*
X653300D01*
Y343300D01*
X646700D01*
G37*
G54D40*X790000Y420000D03*
Y430000D03*
Y440000D03*
X760000D03*
Y430000D03*
Y420000D03*
Y410000D03*
X790000D03*
G54D11*G36*
X776700Y403300D02*Y396700D01*
X783300D01*
Y403300D01*
X776700D01*
G37*
G54D40*X770000Y400000D03*
X790000Y360000D03*
Y370000D03*
Y380000D03*
G54D11*G36*
X756700Y383300D02*Y376700D01*
X763300D01*
Y383300D01*
X756700D01*
G37*
G54D40*X760000Y370000D03*
Y360000D03*
X790000Y450000D03*
Y460000D03*
Y470000D03*
Y480000D03*
Y490000D03*
X760000D03*
Y480000D03*
G54D41*X850000D03*
G54D40*X760000Y470000D03*
G54D41*X850000D03*
G54D40*X760000Y460000D03*
G54D41*X850000D03*
G54D40*X760000Y450000D03*
G54D41*X850000D03*
Y440000D03*
Y430000D03*
G54D11*G36*
X629000Y46400D02*Y39800D01*
X635600D01*
Y46400D01*
X629000D01*
G37*
G54D40*X637700Y31900D03*
G54D42*X605300Y37500D03*
G54D40*X643100Y43100D03*
X648500Y31900D03*
X653900Y43100D03*
X659300Y31900D03*
X670100D03*
X664700Y43100D03*
X675500D03*
X670000Y170000D03*
Y160000D03*
Y150000D03*
G54D42*X702500Y37500D03*
G54D11*G36*
X776200Y46400D02*Y39800D01*
X782800D01*
Y46400D01*
X776200D01*
G37*
G54D40*X790300Y43100D03*
X784900Y31900D03*
X795700D03*
X801100Y43100D03*
X811900D03*
X822700D03*
X806500Y31900D03*
X817300D03*
G54D42*X849700Y37500D03*
X752500D03*
G54D40*X670000Y210000D03*
Y200000D03*
Y190000D03*
Y180000D03*
Y240000D03*
Y230000D03*
Y220000D03*
X610000Y190000D03*
Y200000D03*
Y210000D03*
Y220000D03*
Y230000D03*
Y240000D03*
Y180000D03*
X730000Y200000D03*
Y210000D03*
Y220000D03*
Y230000D03*
Y240000D03*
Y150000D03*
Y160000D03*
Y170000D03*
Y180000D03*
Y190000D03*
X670000Y260000D03*
Y250000D03*
X730000D03*
Y260000D03*
X610000Y490000D03*
X640000D03*
X670000D03*
X730000D03*
X640000Y430000D03*
Y440000D03*
Y450000D03*
Y460000D03*
G54D11*G36*
X666700Y463300D02*Y456700D01*
X673300D01*
Y463300D01*
X666700D01*
G37*
G54D40*X670000Y450000D03*
Y440000D03*
Y430000D03*
G54D11*G36*
X606700Y463300D02*Y456700D01*
X613300D01*
Y463300D01*
X606700D01*
G37*
G54D40*X610000Y450000D03*
Y440000D03*
Y430000D03*
X640000Y370000D03*
Y380000D03*
Y390000D03*
Y400000D03*
Y410000D03*
Y420000D03*
X610000Y380000D03*
Y370000D03*
Y420000D03*
Y410000D03*
Y400000D03*
Y390000D03*
X700000Y370000D03*
Y380000D03*
Y390000D03*
Y400000D03*
Y410000D03*
Y420000D03*
X670000Y380000D03*
Y370000D03*
Y420000D03*
Y410000D03*
Y400000D03*
Y390000D03*
X700000Y430000D03*
Y440000D03*
Y450000D03*
Y460000D03*
G54D11*G36*
X421700Y563300D02*Y556700D01*
X428300D01*
Y563300D01*
X421700D01*
G37*
G54D43*X462500Y610000D03*
G54D44*X441600D03*
X483400D03*
G54D40*X470000Y570000D03*
X460000D03*
X425000Y580000D03*
X450000Y570000D03*
G54D44*X462500Y630000D03*
G54D11*G36*
X456700Y543300D02*Y536700D01*
X463300D01*
Y543300D01*
X456700D01*
G37*
G36*
Y523300D02*Y516700D01*
X463300D01*
Y523300D01*
X456700D01*
G37*
G54D40*X490000Y540000D03*
X430000Y520000D03*
Y530000D03*
G54D11*G36*
X446700Y543300D02*Y536700D01*
X453300D01*
Y543300D01*
X446700D01*
G37*
G36*
X476700D02*Y536700D01*
X483300D01*
Y543300D01*
X476700D01*
G37*
G36*
X466700D02*Y536700D01*
X473300D01*
Y543300D01*
X466700D01*
G37*
G36*
X476700Y533300D02*Y526700D01*
X483300D01*
Y533300D01*
X476700D01*
G37*
G54D40*X470000Y520000D03*
X480000D03*
G54D11*G36*
X356700Y363300D02*Y356700D01*
X363300D01*
Y363300D01*
X356700D01*
G37*
G54D40*X350000Y360000D03*
X340000Y370000D03*
X370000D03*
X310000D03*
Y380000D03*
Y390000D03*
Y400000D03*
Y410000D03*
Y420000D03*
X340000Y470000D03*
G54D11*G36*
X336700Y443300D02*Y436700D01*
X343300D01*
Y443300D01*
X336700D01*
G37*
G54D40*X340000Y430000D03*
X310000Y450000D03*
Y460000D03*
Y470000D03*
Y430000D03*
Y440000D03*
X370000Y380000D03*
Y390000D03*
Y400000D03*
X340000Y390000D03*
Y380000D03*
Y410000D03*
Y400000D03*
X370000Y470000D03*
X340000Y420000D03*
X370000Y410000D03*
Y420000D03*
Y430000D03*
Y440000D03*
G54D11*G36*
X356700Y463300D02*Y456700D01*
X363300D01*
Y463300D01*
X356700D01*
G37*
G54D40*X370000Y510000D03*
Y520000D03*
Y530000D03*
G54D11*G36*
X366700Y553300D02*Y546700D01*
X373300D01*
Y553300D01*
X366700D01*
G37*
G36*
Y543300D02*Y536700D01*
X373300D01*
Y543300D01*
X366700D01*
G37*
G54D40*X370000Y560000D03*
Y480000D03*
Y490000D03*
Y500000D03*
G54D11*G36*
X356700Y553300D02*Y546700D01*
X363300D01*
Y553300D01*
X356700D01*
G37*
G54D40*X360000Y560000D03*
X400000Y500000D03*
Y490000D03*
Y480000D03*
Y470000D03*
G54D11*G36*
X396700Y533300D02*Y526700D01*
X403300D01*
Y533300D01*
X396700D01*
G37*
G54D40*X400000Y550000D03*
Y520000D03*
Y510000D03*
G54D11*G36*
X396700Y563300D02*Y556700D01*
X403300D01*
Y563300D01*
X396700D01*
G37*
G54D44*X362500Y630000D03*
G54D43*Y610000D03*
G54D44*X341600D03*
X383400D03*
G54D45*X282382Y615472D03*
X292618D03*
X300886D03*
G54D46*X314075Y627283D03*
G54D45*X300886Y605630D03*
G54D40*X350000Y460000D03*
G54D11*G36*
X336700Y533300D02*Y526700D01*
X343300D01*
Y533300D01*
X336700D01*
G37*
G54D40*X340000Y520000D03*
Y510000D03*
X310000Y520000D03*
Y530000D03*
Y540000D03*
Y550000D03*
Y560000D03*
Y510000D03*
X340000Y540000D03*
Y500000D03*
Y490000D03*
Y480000D03*
X310000D03*
Y490000D03*
Y500000D03*
X410000Y360000D03*
X400000Y370000D03*
X430000D03*
G54D11*G36*
X476700Y423300D02*Y416700D01*
X483300D01*
Y423300D01*
X476700D01*
G37*
G54D40*X470000Y420000D03*
X500000Y400000D03*
X490000D03*
X480000D03*
X470000D03*
X460000D03*
X480000Y370000D03*
X490000D03*
X500000D03*
G54D11*G36*
X456700Y373300D02*Y366700D01*
X463300D01*
Y373300D01*
X456700D01*
G37*
G54D40*X470000Y370000D03*
X430000Y380000D03*
Y390000D03*
Y400000D03*
Y410000D03*
Y420000D03*
X400000D03*
Y410000D03*
Y400000D03*
Y390000D03*
Y380000D03*
G54D11*G36*
X416700Y463300D02*Y456700D01*
X423300D01*
Y463300D01*
X416700D01*
G37*
G54D40*X410000Y460000D03*
X430000Y470000D03*
Y480000D03*
Y490000D03*
Y500000D03*
Y510000D03*
X460000Y440000D03*
Y430000D03*
X490000D03*
Y440000D03*
X430000Y430000D03*
Y440000D03*
X490000Y450000D03*
Y460000D03*
Y470000D03*
Y480000D03*
Y490000D03*
G54D11*G36*
X456700Y493300D02*Y486700D01*
X463300D01*
Y493300D01*
X456700D01*
G37*
G54D40*X460000Y480000D03*
Y470000D03*
Y460000D03*
Y450000D03*
G54D11*G36*
X396700Y443300D02*Y436700D01*
X403300D01*
Y443300D01*
X396700D01*
G37*
G54D40*X400000Y430000D03*
X760000Y580000D03*
Y570000D03*
Y560000D03*
Y550000D03*
Y540000D03*
Y530000D03*
G54D11*G36*
X756700Y623300D02*Y616700D01*
X763300D01*
Y623300D01*
X756700D01*
G37*
G54D40*X760000Y610000D03*
Y600000D03*
Y590000D03*
G54D11*G36*
X756700Y503300D02*Y496700D01*
X763300D01*
Y503300D01*
X756700D01*
G37*
G54D40*X670000Y570000D03*
Y560000D03*
Y550000D03*
G54D11*G36*
X666700Y623300D02*Y616700D01*
X673300D01*
Y623300D01*
X666700D01*
G37*
G54D40*X670000Y610000D03*
Y600000D03*
Y590000D03*
Y580000D03*
X730000Y550000D03*
Y560000D03*
Y570000D03*
Y500000D03*
Y510000D03*
Y520000D03*
Y530000D03*
Y540000D03*
X670000D03*
Y530000D03*
Y520000D03*
Y510000D03*
Y500000D03*
X730000Y580000D03*
Y590000D03*
Y600000D03*
Y610000D03*
Y620000D03*
G54D11*G36*
X776700Y523300D02*Y516700D01*
X783300D01*
Y523300D01*
X776700D01*
G37*
G54D40*X770000Y520000D03*
X790000Y530000D03*
Y540000D03*
Y550000D03*
Y560000D03*
Y570000D03*
Y500000D03*
G54D11*G36*
X516700Y623300D02*Y616700D01*
X523300D01*
Y623300D01*
X516700D01*
G37*
G54D40*X520000Y610000D03*
Y600000D03*
Y590000D03*
Y580000D03*
Y570000D03*
G54D11*G36*
X476700Y563300D02*Y556700D01*
X483300D01*
Y563300D01*
X476700D01*
G37*
G54D40*X490000Y560000D03*
G54D11*G36*
X506700Y503300D02*Y496700D01*
X513300D01*
Y503300D01*
X506700D01*
G37*
G54D40*X510000Y510000D03*
Y530000D03*
X520000Y540000D03*
Y530000D03*
Y520000D03*
Y510000D03*
Y500000D03*
Y560000D03*
Y550000D03*
X580000D03*
Y560000D03*
Y570000D03*
Y580000D03*
Y590000D03*
Y500000D03*
Y510000D03*
Y520000D03*
Y530000D03*
Y540000D03*
G54D11*G36*
X626700Y603300D02*Y596700D01*
X633300D01*
Y603300D01*
X626700D01*
G37*
G54D40*X620000Y600000D03*
X600000D03*
G54D11*G36*
X626700Y623300D02*Y616700D01*
X633300D01*
Y623300D01*
X626700D01*
G37*
G54D40*X620000Y620000D03*
G54D11*G36*
X596700Y623300D02*Y616700D01*
X603300D01*
Y623300D01*
X596700D01*
G37*
G54D40*X580000Y600000D03*
Y610000D03*
Y620000D03*
X640000Y530000D03*
Y540000D03*
Y550000D03*
Y560000D03*
Y570000D03*
Y580000D03*
X610000Y540000D03*
Y530000D03*
G54D11*G36*
X606700Y583300D02*Y576700D01*
X613300D01*
Y583300D01*
X606700D01*
G37*
G54D40*X610000Y570000D03*
Y560000D03*
Y550000D03*
Y520000D03*
Y510000D03*
Y500000D03*
X640000D03*
Y510000D03*
Y520000D03*
X540000Y400000D03*
X550000D03*
X510000Y370000D03*
X520000D03*
Y400000D03*
X510000D03*
G54D11*G36*
X536700Y373300D02*Y366700D01*
X543300D01*
Y373300D01*
X536700D01*
G37*
G36*
X546700D02*Y366700D01*
X553300D01*
Y373300D01*
X546700D01*
G37*
G36*
X626700Y483300D02*Y476700D01*
X633300D01*
Y483300D01*
X626700D01*
G37*
G54D40*X620000Y480000D03*
X520000Y440000D03*
Y430000D03*
Y490000D03*
Y480000D03*
Y470000D03*
Y460000D03*
Y450000D03*
X580000Y480000D03*
Y490000D03*
Y430000D03*
Y440000D03*
Y450000D03*
Y460000D03*
Y470000D03*
G54D11*G36*
X686700Y363300D02*Y356700D01*
X693300D01*
Y363300D01*
X686700D01*
G37*
G54D40*X680000Y360000D03*
G54D11*G36*
X696700Y483300D02*Y476700D01*
X703300D01*
Y483300D01*
X696700D01*
G37*
G54D40*X690000Y480000D03*
X790000Y580000D03*
Y590000D03*
Y600000D03*
Y610000D03*
Y620000D03*
G54D41*X860000Y480000D03*
Y470000D03*
Y460000D03*
Y450000D03*
Y440000D03*
Y430000D03*
Y600000D03*
Y590000D03*
X850000Y600000D03*
Y590000D03*
G54D11*G36*
X846300Y623700D02*Y616300D01*
X853700D01*
Y623700D01*
X846300D01*
G37*
G54D41*X860000Y620000D03*
X850000Y610000D03*
X860000D03*
X850000Y560000D03*
Y550000D03*
Y540000D03*
Y530000D03*
Y520000D03*
X860000Y560000D03*
Y550000D03*
Y540000D03*
Y530000D03*
Y520000D03*
X850000Y580000D03*
X860000D03*
X850000Y570000D03*
X860000D03*
X850000Y510000D03*
X860000D03*
X850000Y500000D03*
X860000D03*
X850000Y490000D03*
X860000D03*
G54D11*G36*
X626700Y303300D02*Y296700D01*
X633300D01*
Y303300D01*
X626700D01*
G37*
G54D40*X630000Y290000D03*
X580000Y310000D03*
Y300000D03*
Y290000D03*
Y280000D03*
Y270000D03*
Y330000D03*
Y320000D03*
G54D11*G36*
X596700Y353300D02*Y346700D01*
X603300D01*
Y353300D01*
X596700D01*
G37*
G54D40*X590000Y350000D03*
X620000Y360000D03*
X550000Y340000D03*
G54D11*G36*
X576700Y343300D02*Y336700D01*
X583300D01*
Y343300D01*
X576700D01*
G37*
G36*
X526700Y353300D02*Y346700D01*
X533300D01*
Y353300D01*
X526700D01*
G37*
G54D40*X540000Y350000D03*
X520000Y320000D03*
Y310000D03*
Y300000D03*
Y290000D03*
Y280000D03*
G54D11*G36*
X516700Y343300D02*Y336700D01*
X523300D01*
Y343300D01*
X516700D01*
G37*
G54D40*X520000Y330000D03*
X550000Y280000D03*
Y290000D03*
Y300000D03*
Y310000D03*
Y320000D03*
Y330000D03*
G54D11*G36*
X416700Y363300D02*Y356700D01*
X423300D01*
Y363300D01*
X416700D01*
G37*
G36*
X626700D02*Y356700D01*
X633300D01*
Y363300D01*
X626700D01*
G37*
G54D40*X550000Y220000D03*
Y230000D03*
Y240000D03*
G54D11*G36*
X516700Y243300D02*Y236700D01*
X523300D01*
Y243300D01*
X516700D01*
G37*
G54D40*X520000Y230000D03*
Y220000D03*
X580000Y230000D03*
Y220000D03*
G54D11*G36*
X576700Y243300D02*Y236700D01*
X583300D01*
Y243300D01*
X576700D01*
G37*
G36*
X596700Y173300D02*Y166700D01*
X603300D01*
Y173300D01*
X596700D01*
G37*
G54D40*X590000Y170000D03*
X580000Y210000D03*
Y200000D03*
Y190000D03*
Y180000D03*
G54D11*G36*
X536700Y173300D02*Y166700D01*
X543300D01*
Y173300D01*
X536700D01*
G37*
G54D40*X530000Y170000D03*
X550000Y180000D03*
Y190000D03*
Y200000D03*
Y210000D03*
X520000D03*
Y200000D03*
Y190000D03*
Y180000D03*
X310000Y240000D03*
Y250000D03*
Y260000D03*
Y190000D03*
Y200000D03*
Y210000D03*
Y220000D03*
Y230000D03*
G54D11*G36*
X286700Y53300D02*Y46700D01*
X293300D01*
Y53300D01*
X286700D01*
G37*
G54D40*X290000Y80000D03*
G54D11*G36*
X296700Y53300D02*Y46700D01*
X303300D01*
Y53300D01*
X296700D01*
G37*
G54D40*X300000Y80000D03*
X280000Y30000D03*
G54D11*G36*
X306700Y33300D02*Y26700D01*
X313300D01*
Y33300D01*
X306700D01*
G37*
G54D40*X320000Y30000D03*
G54D11*G36*
X355700Y41800D02*Y33200D01*
X364300D01*
Y41800D01*
X355700D01*
G37*
G54D47*X360000Y47500D03*
G54D11*G36*
X290700Y114300D02*Y105700D01*
X299300D01*
Y114300D01*
X290700D01*
G37*
G54D47*X305000Y110000D03*
X285000D03*
G54D11*G36*
X416700Y283300D02*Y276700D01*
X423300D01*
Y283300D01*
X416700D01*
G37*
G54D40*X420000Y290000D03*
G54D47*X404409Y45217D03*
X430000D03*
G54D11*G36*
X426700Y343300D02*Y336700D01*
X433300D01*
Y343300D01*
X426700D01*
G37*
G54D40*X430000Y330000D03*
Y320000D03*
Y310000D03*
Y300000D03*
Y290000D03*
Y280000D03*
Y250000D03*
Y240000D03*
Y230000D03*
Y220000D03*
Y210000D03*
Y200000D03*
Y190000D03*
Y180000D03*
Y170000D03*
Y160000D03*
Y150000D03*
X490000Y200000D03*
Y210000D03*
Y220000D03*
Y150000D03*
G54D47*X502500Y27500D03*
X476909D03*
Y45217D03*
X502500D03*
G54D40*X490000Y160000D03*
Y170000D03*
Y180000D03*
Y190000D03*
X430000Y270000D03*
Y260000D03*
X490000Y320000D03*
Y330000D03*
Y340000D03*
Y270000D03*
Y280000D03*
Y290000D03*
Y300000D03*
Y310000D03*
Y230000D03*
Y240000D03*
Y250000D03*
Y260000D03*
X310000Y310000D03*
Y320000D03*
Y330000D03*
Y340000D03*
Y270000D03*
Y280000D03*
Y290000D03*
Y300000D03*
G54D11*G36*
X336300Y343700D02*Y336300D01*
X343700D01*
Y343700D01*
X336300D01*
G37*
G54D41*X340000Y330000D03*
Y320000D03*
X350000Y340000D03*
Y330000D03*
Y320000D03*
Y310000D03*
Y300000D03*
Y290000D03*
X340000Y310000D03*
Y300000D03*
Y290000D03*
Y280000D03*
X350000D03*
X340000Y270000D03*
Y260000D03*
Y250000D03*
X350000Y270000D03*
Y260000D03*
Y250000D03*
Y240000D03*
Y230000D03*
Y220000D03*
X340000Y240000D03*
Y230000D03*
Y220000D03*
Y210000D03*
X350000D03*
Y200000D03*
Y190000D03*
Y180000D03*
X340000Y200000D03*
Y190000D03*
Y180000D03*
G54D40*X70000Y320000D03*
Y330000D03*
Y340000D03*
G54D11*G36*
X6700Y343300D02*Y336700D01*
X13300D01*
Y343300D01*
X6700D01*
G37*
G54D40*X10000Y330000D03*
Y320000D03*
Y310000D03*
X70000D03*
X130000Y300000D03*
Y310000D03*
Y320000D03*
Y330000D03*
Y340000D03*
G54D11*G36*
X96700Y343300D02*Y336700D01*
X103300D01*
Y343300D01*
X96700D01*
G37*
G54D40*X100000Y330000D03*
Y320000D03*
Y310000D03*
Y300000D03*
G54D11*G36*
X116700Y263300D02*Y256700D01*
X123300D01*
Y263300D01*
X116700D01*
G37*
G54D40*X110000Y260000D03*
X130000Y280000D03*
Y290000D03*
X100000D03*
Y280000D03*
Y270000D03*
X130000D03*
X70000Y260000D03*
Y270000D03*
Y280000D03*
Y290000D03*
Y300000D03*
X10000D03*
Y290000D03*
Y280000D03*
Y270000D03*
Y260000D03*
G54D11*G36*
X16700Y143300D02*Y136700D01*
X23300D01*
Y143300D01*
X16700D01*
G37*
G54D40*X30000Y140000D03*
G54D11*G36*
X46700Y103300D02*Y96700D01*
X53300D01*
Y103300D01*
X46700D01*
G37*
G54D40*X50000Y120000D03*
G54D11*G36*
X76700Y103300D02*Y96700D01*
X83300D01*
Y103300D01*
X76700D01*
G37*
G54D40*X70000Y100000D03*
G54D11*G36*
X76700Y123300D02*Y116700D01*
X83300D01*
Y123300D01*
X76700D01*
G37*
G54D40*X70000Y120000D03*
G54D11*G36*
X6700Y103300D02*Y96700D01*
X13300D01*
Y103300D01*
X6700D01*
G37*
G54D40*X40000Y100000D03*
Y120000D03*
G54D11*G36*
X6700Y123300D02*Y116700D01*
X13300D01*
Y123300D01*
X6700D01*
G37*
G54D36*X132363Y21653D03*
G54D37*X227637D03*
G54D40*X60000Y70000D03*
G54D11*G36*
X76700Y73300D02*Y66700D01*
X83300D01*
Y73300D01*
X76700D01*
G37*
G36*
X56700Y43300D02*Y36700D01*
X63300D01*
Y43300D01*
X56700D01*
G37*
G54D40*X80000Y40000D03*
G54D11*G36*
X36700Y33300D02*Y26700D01*
X43300D01*
Y33300D01*
X36700D01*
G37*
G54D40*X50000Y30000D03*
G54D11*G36*
X78700Y33300D02*Y26700D01*
X85300D01*
Y33300D01*
X78700D01*
G37*
G54D40*X90000Y30000D03*
X98000D03*
G54D11*G36*
X96700Y73300D02*Y66700D01*
X103300D01*
Y73300D01*
X96700D01*
G37*
G54D40*X100000Y40000D03*
G54D41*X180000Y140000D03*
X170000D03*
X160000D03*
X150000D03*
X140000D03*
X130000D03*
G54D11*G36*
X226300Y143700D02*Y136300D01*
X233700D01*
Y143700D01*
X226300D01*
G37*
G54D41*X220000Y140000D03*
X210000D03*
X200000D03*
X190000D03*
G54D40*X220000Y260000D03*
Y270000D03*
Y280000D03*
Y290000D03*
X250000Y280000D03*
Y270000D03*
Y260000D03*
Y290000D03*
X160000Y270000D03*
Y260000D03*
G54D11*G36*
X156700Y323300D02*Y316700D01*
X163300D01*
Y323300D01*
X156700D01*
G37*
G54D40*X160000Y310000D03*
Y300000D03*
Y290000D03*
Y280000D03*
X220000Y300000D03*
Y310000D03*
Y320000D03*
X250000D03*
Y310000D03*
Y300000D03*
X10000Y200000D03*
Y190000D03*
Y180000D03*
Y170000D03*
Y160000D03*
Y150000D03*
Y250000D03*
Y240000D03*
Y230000D03*
Y220000D03*
Y210000D03*
X70000Y150000D03*
Y160000D03*
Y170000D03*
Y180000D03*
X100000Y240000D03*
Y230000D03*
Y220000D03*
Y210000D03*
Y200000D03*
Y190000D03*
G54D11*G36*
X96700Y253300D02*Y246700D01*
X103300D01*
Y253300D01*
X96700D01*
G37*
G54D40*X70000Y220000D03*
Y230000D03*
Y240000D03*
Y250000D03*
Y190000D03*
Y200000D03*
Y210000D03*
G54D11*G36*
X186700Y183300D02*Y176700D01*
X193300D01*
Y183300D01*
X186700D01*
G37*
G54D40*X180000Y180000D03*
X130000Y190000D03*
X160000D03*
G54D11*G36*
X116700Y183300D02*Y176700D01*
X123300D01*
Y183300D01*
X116700D01*
G37*
G54D40*X110000Y180000D03*
X130000Y200000D03*
X160000D03*
X130000Y210000D03*
X160000D03*
X130000Y220000D03*
X160000D03*
X130000Y230000D03*
X160000D03*
X130000Y240000D03*
Y250000D03*
X160000D03*
Y240000D03*
X220000Y230000D03*
Y240000D03*
Y250000D03*
Y190000D03*
Y200000D03*
Y210000D03*
Y220000D03*
X250000D03*
Y210000D03*
Y200000D03*
Y190000D03*
G54D11*G36*
X246700Y343300D02*Y336700D01*
X253300D01*
Y343300D01*
X246700D01*
G37*
G54D40*X250000Y330000D03*
Y250000D03*
Y240000D03*
Y230000D03*
G54D11*G36*
X96700Y483300D02*Y476700D01*
X103300D01*
Y483300D01*
X96700D01*
G37*
G54D40*X20000Y480000D03*
G54D11*G36*
X226300Y613700D02*Y606300D01*
X233700D01*
Y613700D01*
X226300D01*
G37*
G54D41*X220000Y610000D03*
G54D45*X274114Y615472D03*
Y605630D03*
G54D46*X260925Y627283D03*
X287500Y630433D03*
G54D11*G36*
X136700Y553300D02*Y546700D01*
X143300D01*
Y553300D01*
X136700D01*
G37*
G54D40*X150000Y550000D03*
G54D48*X120000Y590000D03*
Y575000D03*
Y560000D03*
X130000Y640000D03*
X110000D03*
G54D49*X41000Y608000D03*
X60000Y620000D03*
G54D50*Y596000D03*
G54D11*G36*
X26700Y553300D02*Y546700D01*
X33300D01*
Y553300D01*
X26700D01*
G37*
G54D40*X40000Y550000D03*
G54D11*G36*
X26700Y573300D02*Y566700D01*
X33300D01*
Y573300D01*
X26700D01*
G37*
G54D40*X40000Y570000D03*
G54D11*G36*
X186300Y553700D02*Y546300D01*
X193700D01*
Y553700D01*
X186300D01*
G37*
G54D41*X200000Y550000D03*
X210000D03*
G54D11*G36*
X56300Y553700D02*Y546300D01*
X63700D01*
Y553700D01*
X56300D01*
G37*
G54D41*X70000Y550000D03*
X80000D03*
G54D11*G36*
X136700Y573300D02*Y566700D01*
X143300D01*
Y573300D01*
X136700D01*
G37*
G54D40*X150000Y570000D03*
G54D41*X210000Y610000D03*
X200000D03*
X190000D03*
X180000D03*
G54D11*G36*
X16300Y593700D02*Y586300D01*
X23700D01*
Y593700D01*
X16300D01*
G37*
G54D41*X20000Y550000D03*
G54D40*X230000Y480000D03*
X190000D03*
Y490000D03*
Y500000D03*
G54D11*G36*
X156700Y503300D02*Y496700D01*
X163300D01*
Y503300D01*
X156700D01*
G37*
G54D41*X130000Y500000D03*
G54D40*X160000Y490000D03*
G54D41*X130000D03*
G54D40*X160000Y480000D03*
G54D11*G36*
X126300Y473700D02*Y466300D01*
X133700D01*
Y473700D01*
X126300D01*
G37*
G54D41*X130000Y480000D03*
G54D11*G36*
X196700Y503300D02*Y496700D01*
X203300D01*
Y503300D01*
X196700D01*
G37*
G54D40*X200000Y470000D03*
G54D11*G36*
X206700Y503300D02*Y496700D01*
X213300D01*
Y503300D01*
X206700D01*
G37*
G54D40*X210000Y470000D03*
G54D11*G36*
X146700Y493300D02*Y486700D01*
X153300D01*
Y493300D01*
X146700D01*
G37*
G54D40*X150000Y500000D03*
G54D11*G36*
X196700Y523300D02*Y516700D01*
X203300D01*
Y523300D01*
X196700D01*
G37*
G36*
X176700Y463300D02*Y456700D01*
X183300D01*
Y463300D01*
X176700D01*
G37*
G54D40*X190000Y520000D03*
Y470000D03*
X170000Y460000D03*
X210000D03*
X160000Y470000D03*
G54D11*G36*
X246700Y563300D02*Y556700D01*
X253300D01*
Y563300D01*
X246700D01*
G37*
G54D40*X250000Y550000D03*
Y540000D03*
Y530000D03*
Y520000D03*
G54D11*G36*
X226700Y513300D02*Y506700D01*
X233300D01*
Y513300D01*
X226700D01*
G37*
G54D40*X230000Y500000D03*
Y490000D03*
X250000Y480000D03*
Y470000D03*
Y460000D03*
Y510000D03*
Y500000D03*
Y490000D03*
G54D11*G36*
X206700Y393300D02*Y386700D01*
X213300D01*
Y393300D01*
X206700D01*
G37*
G54D40*X210000Y420000D03*
G54D11*G36*
X206700Y433300D02*Y426700D01*
X213300D01*
Y433300D01*
X206700D01*
G37*
G36*
X236700Y373300D02*Y366700D01*
X243300D01*
Y373300D01*
X236700D01*
G37*
G54D40*X240000Y380000D03*
X230000Y470000D03*
Y460000D03*
G54D11*G36*
X226700Y443300D02*Y436700D01*
X233300D01*
Y443300D01*
X226700D01*
G37*
G54D40*X230000Y430000D03*
Y420000D03*
Y410000D03*
Y400000D03*
Y390000D03*
X250000Y400000D03*
Y390000D03*
Y380000D03*
Y370000D03*
Y450000D03*
Y440000D03*
Y430000D03*
Y420000D03*
Y410000D03*
G54D11*G36*
X176700Y363300D02*Y356700D01*
X183300D01*
Y363300D01*
X176700D01*
G37*
G54D40*X170000Y360000D03*
X160000Y390000D03*
Y380000D03*
Y370000D03*
G54D11*G36*
X156700Y443300D02*Y436700D01*
X163300D01*
Y443300D01*
X156700D01*
G37*
G54D40*X160000Y430000D03*
Y420000D03*
Y410000D03*
Y400000D03*
X190000Y420000D03*
Y430000D03*
Y440000D03*
Y370000D03*
Y380000D03*
Y390000D03*
Y400000D03*
Y410000D03*
G54D47*X360000Y27500D03*
X430000D03*
X404409D03*
G54D40*X270000Y180000D03*
G54D11*G36*
X266700Y33300D02*Y26700D01*
X273300D01*
Y33300D01*
X266700D01*
G37*
G36*
X276700Y183300D02*Y176700D01*
X283300D01*
Y183300D01*
X276700D01*
G37*
G36*
X376700Y313300D02*Y306700D01*
X383300D01*
Y313300D01*
X376700D01*
G37*
G54D40*X380000Y320000D03*
G54D11*G36*
X396700Y343300D02*Y336700D01*
X403300D01*
Y343300D01*
X396700D01*
G37*
G54D40*X400000Y330000D03*
Y320000D03*
Y310000D03*
Y300000D03*
Y290000D03*
G54D18*X12500Y637500D03*
X412500Y625000D03*
X887500Y12500D03*
Y637500D03*
X12500Y12500D03*
X450000D03*
M02*
