G04 (created by PCBNEW (2013-07-07 BZR 4022)-stable) date 7/27/2014 4:03:04 PM*
%MOIN*%
G04 Gerber Fmt 3.4, Leading zero omitted, Abs format*
%FSLAX34Y34*%
G01*
G70*
G90*
G04 APERTURE LIST*
%ADD10C,0.00590551*%
%ADD11C,0.00390157*%
G04 APERTURE END LIST*
G54D10*
G54D11*
X129000Y-31400D02*
X129000Y-31800D01*
X128200Y-31000D02*
X128600Y-31000D01*
X129000Y-31400D02*
G75*
G03X128600Y-31000I-400J0D01*
G74*
G01*
X35800Y-59600D02*
X35800Y-60000D01*
X36600Y-60400D02*
X36200Y-60400D01*
X35800Y-60000D02*
G75*
G03X36200Y-60400I400J0D01*
G74*
G01*
X35800Y-31800D02*
X35800Y-31400D01*
X36600Y-31000D02*
X36200Y-31000D01*
X36200Y-31000D02*
G75*
G03X35800Y-31400I0J-400D01*
G74*
G01*
X129000Y-59800D02*
X129000Y-60000D01*
X128400Y-60400D02*
X128600Y-60400D01*
X128600Y-60400D02*
G75*
G03X129000Y-60000I0J400D01*
G74*
G01*
X128400Y-60400D02*
X128000Y-60400D01*
X35800Y-31800D02*
X35800Y-59600D01*
X128200Y-31000D02*
X36600Y-31000D01*
X129000Y-59800D02*
X129000Y-31800D01*
X36600Y-60400D02*
X128000Y-60400D01*
M02*
