G04 (created by PCBNEW-RS274X (2011-05-25)-stable) date Wed 26 Dec 2012 09:03:40 PM EST*
G01*
G70*
G90*
%MOIN*%
G04 Gerber Fmt 3.4, Leading zero omitted, Abs format*
%FSLAX34Y34*%
G04 APERTURE LIST*
%ADD10C,0.006000*%
%ADD11C,0.250000*%
%ADD12R,0.055000X0.055000*%
%ADD13C,0.055000*%
%ADD14R,0.062000X0.090000*%
%ADD15O,0.062000X0.090000*%
%ADD16R,0.060000X0.060000*%
%ADD17C,0.060000*%
%ADD18C,0.066000*%
%ADD19C,0.035000*%
%ADD20C,0.008000*%
%ADD21C,0.010000*%
G04 APERTURE END LIST*
G54D10*
G54D11*
X64250Y-32400D03*
X64250Y-27400D03*
X82700Y-27400D03*
X82700Y-34500D03*
G54D12*
X77900Y-34200D03*
G54D13*
X76900Y-34200D03*
X76900Y-35200D03*
G54D12*
X77150Y-32000D03*
G54D13*
X78150Y-32000D03*
X78150Y-31000D03*
G54D12*
X77800Y-29750D03*
G54D13*
X76800Y-29750D03*
X76800Y-30750D03*
G54D12*
X77150Y-27700D03*
G54D13*
X78150Y-27700D03*
X78150Y-26700D03*
X80400Y-33800D03*
X79400Y-33800D03*
X79800Y-27950D03*
X80800Y-27950D03*
G54D14*
X82750Y-29400D03*
G54D15*
X81750Y-29400D03*
X80750Y-29400D03*
X79750Y-29400D03*
X79750Y-32400D03*
X80750Y-32400D03*
X81750Y-32400D03*
X82750Y-32400D03*
G54D16*
X79800Y-26700D03*
G54D17*
X80800Y-26700D03*
G54D16*
X78800Y-35250D03*
G54D17*
X79800Y-35250D03*
X80800Y-35250D03*
G54D13*
X76150Y-27750D03*
X73150Y-27750D03*
X75300Y-30350D03*
X72300Y-30350D03*
X76250Y-32800D03*
X73250Y-32800D03*
X75450Y-35200D03*
X72450Y-35200D03*
X73200Y-26750D03*
X76200Y-26750D03*
X72250Y-29350D03*
X75250Y-29350D03*
X73250Y-31750D03*
X76250Y-31750D03*
X72450Y-34150D03*
X75450Y-34150D03*
G54D18*
X66400Y-32250D03*
X67400Y-32250D03*
X70300Y-34750D03*
X71300Y-34750D03*
X67900Y-34750D03*
X68900Y-34750D03*
X65500Y-34750D03*
X66500Y-34750D03*
X71200Y-32250D03*
X72200Y-32250D03*
X68800Y-32250D03*
X69800Y-32250D03*
X70050Y-29900D03*
X71050Y-29900D03*
X67650Y-29900D03*
X68650Y-29900D03*
X65250Y-29950D03*
X66250Y-29950D03*
X71100Y-27550D03*
X72100Y-27550D03*
X68700Y-27550D03*
X69700Y-27550D03*
X66300Y-27550D03*
X67300Y-27550D03*
G54D19*
X78450Y-28800D03*
X81050Y-30750D03*
G54D20*
X67400Y-32250D02*
X68800Y-32250D01*
X66500Y-34750D02*
X67900Y-34750D01*
X68900Y-34750D02*
X70300Y-34750D01*
X71300Y-34750D02*
X71300Y-34700D01*
X71850Y-34150D02*
X72450Y-34150D01*
X71300Y-34700D02*
X71850Y-34150D01*
X72250Y-29350D02*
X71600Y-29350D01*
X71600Y-29350D02*
X71050Y-29900D01*
X68650Y-29900D02*
X70050Y-29900D01*
X66250Y-29950D02*
X67600Y-29950D01*
X67600Y-29950D02*
X67650Y-29900D01*
X76250Y-32800D02*
X77600Y-32800D01*
X78150Y-32250D02*
X78150Y-32000D01*
X77600Y-32800D02*
X78150Y-32250D01*
X76150Y-27750D02*
X76150Y-27850D01*
X77550Y-28300D02*
X78150Y-27700D01*
X76600Y-28300D02*
X77550Y-28300D01*
X76150Y-27850D02*
X76600Y-28300D01*
X69800Y-32250D02*
X71200Y-32250D01*
X73250Y-31750D02*
X72700Y-31750D01*
X72700Y-31750D02*
X72200Y-32250D01*
X80400Y-33800D02*
X80400Y-33450D01*
X79750Y-32800D02*
X79750Y-32400D01*
X80400Y-33450D02*
X79750Y-32800D01*
X80750Y-29400D02*
X80750Y-29800D01*
X78700Y-29050D02*
X78450Y-28800D01*
X78700Y-29700D02*
X78700Y-29050D01*
X79050Y-30050D02*
X78700Y-29700D01*
X80500Y-30050D02*
X79050Y-30050D01*
X80750Y-29800D02*
X80500Y-30050D01*
X73250Y-32800D02*
X73250Y-34400D01*
X73250Y-34400D02*
X72450Y-35200D01*
X73250Y-32800D02*
X73750Y-32800D01*
X72850Y-30350D02*
X72300Y-30350D01*
X74050Y-31550D02*
X72850Y-30350D01*
X74050Y-32500D02*
X74050Y-31550D01*
X73750Y-32800D02*
X74050Y-32500D01*
X73150Y-27750D02*
X73150Y-29500D01*
X73150Y-29500D02*
X72300Y-30350D01*
X79800Y-35250D02*
X79800Y-35050D01*
X81750Y-32850D02*
X81750Y-32400D01*
X81000Y-33600D02*
X81750Y-32850D01*
X81000Y-34100D02*
X81000Y-33600D01*
X80850Y-34250D02*
X81000Y-34100D01*
X80600Y-34250D02*
X80850Y-34250D01*
X79800Y-35050D02*
X80600Y-34250D01*
X77900Y-34200D02*
X77900Y-33950D01*
X75850Y-33750D02*
X75450Y-34150D01*
X77700Y-33750D02*
X75850Y-33750D01*
X77900Y-33950D02*
X77700Y-33750D01*
X67300Y-27550D02*
X68700Y-27550D01*
X69700Y-27550D02*
X71100Y-27550D01*
X73200Y-26750D02*
X72900Y-26750D01*
X72900Y-26750D02*
X72100Y-27550D01*
X76900Y-34200D02*
X76450Y-34200D01*
X76450Y-34200D02*
X75450Y-35200D01*
X77150Y-32000D02*
X76500Y-32000D01*
X76500Y-32000D02*
X76250Y-31750D01*
X76800Y-29750D02*
X76450Y-29750D01*
X75850Y-30350D02*
X75300Y-30350D01*
X76450Y-29750D02*
X75850Y-30350D01*
X75250Y-29350D02*
X75800Y-29350D01*
X77150Y-29100D02*
X77800Y-29750D01*
X76050Y-29100D02*
X77150Y-29100D01*
X75800Y-29350D02*
X76050Y-29100D01*
X76200Y-26750D02*
X76600Y-26750D01*
X77150Y-27300D02*
X77150Y-27700D01*
X76600Y-26750D02*
X77150Y-27300D01*
X80750Y-31050D02*
X80750Y-32400D01*
X81050Y-30750D02*
X80750Y-31050D01*
G54D10*
G36*
X83825Y-33504D02*
X83551Y-33229D01*
X83310Y-33129D01*
X83310Y-29512D01*
X83248Y-29450D01*
X82800Y-29450D01*
X82800Y-30038D01*
X82862Y-30100D01*
X83109Y-30099D01*
X83201Y-30061D01*
X83271Y-29991D01*
X83309Y-29900D01*
X83309Y-29801D01*
X83310Y-29512D01*
X83310Y-33129D01*
X83051Y-33022D01*
X83061Y-33018D01*
X83215Y-32864D01*
X83299Y-32662D01*
X83299Y-32444D01*
X83299Y-32138D01*
X83215Y-31936D01*
X83061Y-31782D01*
X82859Y-31698D01*
X82641Y-31698D01*
X82439Y-31782D01*
X82285Y-31936D01*
X82250Y-32020D01*
X82215Y-31936D01*
X82061Y-31782D01*
X81859Y-31698D01*
X81641Y-31698D01*
X81439Y-31782D01*
X81285Y-31936D01*
X81250Y-32020D01*
X81215Y-31936D01*
X81061Y-31782D01*
X81040Y-31773D01*
X81040Y-31175D01*
X81134Y-31175D01*
X81290Y-31111D01*
X81410Y-30991D01*
X81475Y-30835D01*
X81475Y-30666D01*
X81411Y-30510D01*
X81291Y-30390D01*
X81135Y-30325D01*
X80966Y-30325D01*
X80810Y-30389D01*
X80690Y-30509D01*
X80625Y-30665D01*
X80625Y-30765D01*
X80545Y-30845D01*
X80482Y-30939D01*
X80460Y-31050D01*
X80460Y-31773D01*
X80439Y-31782D01*
X80285Y-31936D01*
X80250Y-32020D01*
X80215Y-31936D01*
X80061Y-31782D01*
X79859Y-31698D01*
X79641Y-31698D01*
X79439Y-31782D01*
X79285Y-31936D01*
X79201Y-32138D01*
X79201Y-32356D01*
X79201Y-32662D01*
X79285Y-32864D01*
X79439Y-33018D01*
X79641Y-33102D01*
X79642Y-33102D01*
X79998Y-33458D01*
X79955Y-33502D01*
X79896Y-33642D01*
X79852Y-33533D01*
X79761Y-33510D01*
X79690Y-33581D01*
X79690Y-33439D01*
X79667Y-33348D01*
X79474Y-33281D01*
X79270Y-33292D01*
X79133Y-33348D01*
X79110Y-33439D01*
X79400Y-33729D01*
X79690Y-33439D01*
X79690Y-33581D01*
X79471Y-33800D01*
X79761Y-34090D01*
X79852Y-34067D01*
X79893Y-33948D01*
X79955Y-34097D01*
X80102Y-34245D01*
X80167Y-34272D01*
X79739Y-34701D01*
X79691Y-34701D01*
X79690Y-34701D01*
X79690Y-34161D01*
X79400Y-33871D01*
X79329Y-33942D01*
X79329Y-33800D01*
X79039Y-33510D01*
X78948Y-33533D01*
X78881Y-33726D01*
X78892Y-33930D01*
X78948Y-34067D01*
X79039Y-34090D01*
X79329Y-33800D01*
X79329Y-33942D01*
X79110Y-34161D01*
X79133Y-34252D01*
X79326Y-34319D01*
X79530Y-34308D01*
X79667Y-34252D01*
X79690Y-34161D01*
X79690Y-34701D01*
X79489Y-34785D01*
X79349Y-34925D01*
X79349Y-34901D01*
X79311Y-34809D01*
X79241Y-34739D01*
X79150Y-34701D01*
X79051Y-34701D01*
X78451Y-34701D01*
X78359Y-34739D01*
X78289Y-34809D01*
X78251Y-34900D01*
X78251Y-34999D01*
X78251Y-35599D01*
X78261Y-35625D01*
X77419Y-35625D01*
X77419Y-35274D01*
X77408Y-35070D01*
X77352Y-34933D01*
X77261Y-34910D01*
X76971Y-35200D01*
X77261Y-35490D01*
X77352Y-35467D01*
X77419Y-35274D01*
X77419Y-35625D01*
X77173Y-35625D01*
X77190Y-35561D01*
X76900Y-35271D01*
X76829Y-35342D01*
X76829Y-35200D01*
X76539Y-34910D01*
X76448Y-34933D01*
X76381Y-35126D01*
X76392Y-35330D01*
X76448Y-35467D01*
X76539Y-35490D01*
X76829Y-35200D01*
X76829Y-35342D01*
X76610Y-35561D01*
X76626Y-35625D01*
X75798Y-35625D01*
X75798Y-35593D01*
X75895Y-35498D01*
X75975Y-35305D01*
X75975Y-35096D01*
X75971Y-35088D01*
X76508Y-34551D01*
X76602Y-34645D01*
X76742Y-34703D01*
X76633Y-34748D01*
X76610Y-34839D01*
X76900Y-35129D01*
X77190Y-34839D01*
X77167Y-34748D01*
X77048Y-34706D01*
X77197Y-34645D01*
X77345Y-34498D01*
X77376Y-34423D01*
X77376Y-34524D01*
X77414Y-34616D01*
X77484Y-34686D01*
X77575Y-34724D01*
X77674Y-34724D01*
X78224Y-34724D01*
X78316Y-34686D01*
X78386Y-34616D01*
X78424Y-34525D01*
X78424Y-34426D01*
X78424Y-33876D01*
X78386Y-33784D01*
X78316Y-33714D01*
X78225Y-33676D01*
X78126Y-33676D01*
X78036Y-33676D01*
X77905Y-33545D01*
X77811Y-33482D01*
X77700Y-33460D01*
X75850Y-33460D01*
X75787Y-33472D01*
X75785Y-33050D01*
X75805Y-33097D01*
X75952Y-33245D01*
X76145Y-33325D01*
X76354Y-33325D01*
X76547Y-33245D01*
X76695Y-33098D01*
X76698Y-33090D01*
X77600Y-33090D01*
X77711Y-33068D01*
X77805Y-33005D01*
X78306Y-32503D01*
X78447Y-32445D01*
X78595Y-32298D01*
X78675Y-32105D01*
X78675Y-31896D01*
X78669Y-31881D01*
X78669Y-31074D01*
X78658Y-30870D01*
X78602Y-30733D01*
X78511Y-30710D01*
X78440Y-30781D01*
X78440Y-30639D01*
X78417Y-30548D01*
X78224Y-30481D01*
X78020Y-30492D01*
X77883Y-30548D01*
X77860Y-30639D01*
X78150Y-30929D01*
X78440Y-30639D01*
X78440Y-30781D01*
X78221Y-31000D01*
X78511Y-31290D01*
X78602Y-31267D01*
X78669Y-31074D01*
X78669Y-31881D01*
X78595Y-31703D01*
X78448Y-31555D01*
X78307Y-31496D01*
X78417Y-31452D01*
X78440Y-31361D01*
X78150Y-31071D01*
X78079Y-31142D01*
X78079Y-31000D01*
X77789Y-30710D01*
X77698Y-30733D01*
X77631Y-30926D01*
X77642Y-31130D01*
X77698Y-31267D01*
X77789Y-31290D01*
X78079Y-31000D01*
X78079Y-31142D01*
X77860Y-31361D01*
X77883Y-31452D01*
X78001Y-31493D01*
X77853Y-31555D01*
X77705Y-31702D01*
X77674Y-31776D01*
X77674Y-31676D01*
X77636Y-31584D01*
X77566Y-31514D01*
X77475Y-31476D01*
X77376Y-31476D01*
X77319Y-31476D01*
X77319Y-30824D01*
X77308Y-30620D01*
X77252Y-30483D01*
X77161Y-30460D01*
X76871Y-30750D01*
X77161Y-31040D01*
X77252Y-31017D01*
X77319Y-30824D01*
X77319Y-31476D01*
X77090Y-31476D01*
X77090Y-31111D01*
X76800Y-30821D01*
X76729Y-30892D01*
X76729Y-30750D01*
X76439Y-30460D01*
X76348Y-30483D01*
X76281Y-30676D01*
X76292Y-30880D01*
X76348Y-31017D01*
X76439Y-31040D01*
X76729Y-30750D01*
X76729Y-30892D01*
X76510Y-31111D01*
X76533Y-31202D01*
X76726Y-31269D01*
X76930Y-31258D01*
X77067Y-31202D01*
X77090Y-31111D01*
X77090Y-31476D01*
X76826Y-31476D01*
X76734Y-31514D01*
X76724Y-31523D01*
X76695Y-31453D01*
X76548Y-31305D01*
X76355Y-31225D01*
X76146Y-31225D01*
X75953Y-31305D01*
X75805Y-31452D01*
X75778Y-31517D01*
X75773Y-30640D01*
X75850Y-30640D01*
X75961Y-30618D01*
X76055Y-30555D01*
X76458Y-30151D01*
X76502Y-30195D01*
X76642Y-30253D01*
X76533Y-30298D01*
X76510Y-30389D01*
X76800Y-30679D01*
X77090Y-30389D01*
X77067Y-30298D01*
X76948Y-30256D01*
X77097Y-30195D01*
X77245Y-30048D01*
X77276Y-29973D01*
X77276Y-30074D01*
X77314Y-30166D01*
X77384Y-30236D01*
X77475Y-30274D01*
X77574Y-30274D01*
X78124Y-30274D01*
X78216Y-30236D01*
X78286Y-30166D01*
X78324Y-30075D01*
X78324Y-29976D01*
X78324Y-29426D01*
X78286Y-29334D01*
X78216Y-29264D01*
X78125Y-29226D01*
X78026Y-29226D01*
X77686Y-29226D01*
X77355Y-28895D01*
X77261Y-28832D01*
X77150Y-28810D01*
X76050Y-28810D01*
X75939Y-28832D01*
X75845Y-28895D01*
X75765Y-28974D01*
X75760Y-28103D01*
X75852Y-28195D01*
X76045Y-28275D01*
X76165Y-28275D01*
X76395Y-28505D01*
X76489Y-28568D01*
X76600Y-28590D01*
X77550Y-28590D01*
X77661Y-28568D01*
X77755Y-28505D01*
X78037Y-28222D01*
X78045Y-28225D01*
X78254Y-28225D01*
X78447Y-28145D01*
X78595Y-27998D01*
X78675Y-27805D01*
X78675Y-27596D01*
X78669Y-27581D01*
X78669Y-26774D01*
X78658Y-26570D01*
X78602Y-26433D01*
X78511Y-26410D01*
X78221Y-26700D01*
X78511Y-26990D01*
X78602Y-26967D01*
X78669Y-26774D01*
X78669Y-27581D01*
X78595Y-27403D01*
X78448Y-27255D01*
X78307Y-27196D01*
X78417Y-27152D01*
X78440Y-27061D01*
X78150Y-26771D01*
X78079Y-26842D01*
X78079Y-26700D01*
X77789Y-26410D01*
X77698Y-26433D01*
X77631Y-26626D01*
X77642Y-26830D01*
X77698Y-26967D01*
X77789Y-26990D01*
X78079Y-26700D01*
X78079Y-26842D01*
X77860Y-27061D01*
X77883Y-27152D01*
X78001Y-27193D01*
X77853Y-27255D01*
X77705Y-27402D01*
X77674Y-27476D01*
X77674Y-27376D01*
X77636Y-27284D01*
X77566Y-27214D01*
X77475Y-27176D01*
X77409Y-27176D01*
X77355Y-27095D01*
X77354Y-27094D01*
X76805Y-26545D01*
X76711Y-26482D01*
X76652Y-26470D01*
X76645Y-26453D01*
X76498Y-26305D01*
X76425Y-26275D01*
X77876Y-26275D01*
X77860Y-26339D01*
X78150Y-26629D01*
X78440Y-26339D01*
X78423Y-26275D01*
X79282Y-26275D01*
X79251Y-26350D01*
X79251Y-26449D01*
X79251Y-27049D01*
X79289Y-27141D01*
X79359Y-27211D01*
X79450Y-27249D01*
X79549Y-27249D01*
X80149Y-27249D01*
X80241Y-27211D01*
X80311Y-27141D01*
X80349Y-27050D01*
X80349Y-26987D01*
X80422Y-27008D01*
X80729Y-26700D01*
X80422Y-26392D01*
X80349Y-26412D01*
X80349Y-26351D01*
X80317Y-26275D01*
X80505Y-26275D01*
X80492Y-26322D01*
X80800Y-26629D01*
X81108Y-26322D01*
X81094Y-26275D01*
X81494Y-26275D01*
X81490Y-26488D01*
X81429Y-26549D01*
X81341Y-26759D01*
X81332Y-26566D01*
X81272Y-26419D01*
X81178Y-26392D01*
X80871Y-26700D01*
X81178Y-27008D01*
X81247Y-26988D01*
X81201Y-27100D01*
X81200Y-27669D01*
X81161Y-27660D01*
X81108Y-27713D01*
X81108Y-27078D01*
X80800Y-26771D01*
X80492Y-27078D01*
X80519Y-27172D01*
X80721Y-27243D01*
X80934Y-27232D01*
X81081Y-27172D01*
X81108Y-27078D01*
X81108Y-27713D01*
X81090Y-27731D01*
X81090Y-27589D01*
X81067Y-27498D01*
X80874Y-27431D01*
X80670Y-27442D01*
X80533Y-27498D01*
X80510Y-27589D01*
X80800Y-27879D01*
X81090Y-27589D01*
X81090Y-27731D01*
X80871Y-27950D01*
X81161Y-28240D01*
X81252Y-28217D01*
X81319Y-28024D01*
X81316Y-27978D01*
X81428Y-28248D01*
X81458Y-28278D01*
X81449Y-28777D01*
X81439Y-28782D01*
X81285Y-28936D01*
X81250Y-29020D01*
X81215Y-28936D01*
X81090Y-28811D01*
X81090Y-28311D01*
X80800Y-28021D01*
X80729Y-28092D01*
X80729Y-27950D01*
X80439Y-27660D01*
X80348Y-27683D01*
X80306Y-27801D01*
X80245Y-27653D01*
X80098Y-27505D01*
X79905Y-27425D01*
X79696Y-27425D01*
X79503Y-27505D01*
X79355Y-27652D01*
X79275Y-27845D01*
X79275Y-28054D01*
X79355Y-28247D01*
X79502Y-28395D01*
X79695Y-28475D01*
X79904Y-28475D01*
X80097Y-28395D01*
X80245Y-28248D01*
X80303Y-28107D01*
X80348Y-28217D01*
X80439Y-28240D01*
X80729Y-27950D01*
X80729Y-28092D01*
X80510Y-28311D01*
X80533Y-28402D01*
X80726Y-28469D01*
X80930Y-28458D01*
X81067Y-28402D01*
X81090Y-28311D01*
X81090Y-28811D01*
X81061Y-28782D01*
X80859Y-28698D01*
X80641Y-28698D01*
X80439Y-28782D01*
X80285Y-28936D01*
X80250Y-29020D01*
X80215Y-28936D01*
X80061Y-28782D01*
X79859Y-28698D01*
X79641Y-28698D01*
X79439Y-28782D01*
X79285Y-28936D01*
X79201Y-29138D01*
X79201Y-29356D01*
X79201Y-29662D01*
X79241Y-29760D01*
X79170Y-29760D01*
X78990Y-29580D01*
X78990Y-29050D01*
X78968Y-28939D01*
X78905Y-28845D01*
X78875Y-28815D01*
X78875Y-28716D01*
X78811Y-28560D01*
X78691Y-28440D01*
X78535Y-28375D01*
X78366Y-28375D01*
X78210Y-28439D01*
X78090Y-28559D01*
X78025Y-28715D01*
X78025Y-28884D01*
X78089Y-29040D01*
X78209Y-29160D01*
X78365Y-29225D01*
X78410Y-29225D01*
X78410Y-29700D01*
X78432Y-29811D01*
X78495Y-29905D01*
X78844Y-30254D01*
X78845Y-30255D01*
X78938Y-30317D01*
X78939Y-30318D01*
X79049Y-30339D01*
X79050Y-30340D01*
X80500Y-30340D01*
X80611Y-30318D01*
X80705Y-30255D01*
X80858Y-30102D01*
X80859Y-30102D01*
X81061Y-30018D01*
X81215Y-29864D01*
X81250Y-29779D01*
X81285Y-29864D01*
X81439Y-30018D01*
X81641Y-30102D01*
X81859Y-30102D01*
X82061Y-30018D01*
X82191Y-29888D01*
X82191Y-29900D01*
X82229Y-29991D01*
X82299Y-30061D01*
X82391Y-30099D01*
X82638Y-30100D01*
X82700Y-30038D01*
X82700Y-29500D01*
X82700Y-29450D01*
X82700Y-29350D01*
X82800Y-29350D01*
X82850Y-29350D01*
X83248Y-29350D01*
X83310Y-29288D01*
X83309Y-28999D01*
X83309Y-28900D01*
X83271Y-28809D01*
X83262Y-28800D01*
X83825Y-28800D01*
X83825Y-33504D01*
X83825Y-33504D01*
G37*
G54D21*
X83825Y-33504D02*
X83551Y-33229D01*
X83310Y-33129D01*
X83310Y-29512D01*
X83248Y-29450D01*
X82800Y-29450D01*
X82800Y-30038D01*
X82862Y-30100D01*
X83109Y-30099D01*
X83201Y-30061D01*
X83271Y-29991D01*
X83309Y-29900D01*
X83309Y-29801D01*
X83310Y-29512D01*
X83310Y-33129D01*
X83051Y-33022D01*
X83061Y-33018D01*
X83215Y-32864D01*
X83299Y-32662D01*
X83299Y-32444D01*
X83299Y-32138D01*
X83215Y-31936D01*
X83061Y-31782D01*
X82859Y-31698D01*
X82641Y-31698D01*
X82439Y-31782D01*
X82285Y-31936D01*
X82250Y-32020D01*
X82215Y-31936D01*
X82061Y-31782D01*
X81859Y-31698D01*
X81641Y-31698D01*
X81439Y-31782D01*
X81285Y-31936D01*
X81250Y-32020D01*
X81215Y-31936D01*
X81061Y-31782D01*
X81040Y-31773D01*
X81040Y-31175D01*
X81134Y-31175D01*
X81290Y-31111D01*
X81410Y-30991D01*
X81475Y-30835D01*
X81475Y-30666D01*
X81411Y-30510D01*
X81291Y-30390D01*
X81135Y-30325D01*
X80966Y-30325D01*
X80810Y-30389D01*
X80690Y-30509D01*
X80625Y-30665D01*
X80625Y-30765D01*
X80545Y-30845D01*
X80482Y-30939D01*
X80460Y-31050D01*
X80460Y-31773D01*
X80439Y-31782D01*
X80285Y-31936D01*
X80250Y-32020D01*
X80215Y-31936D01*
X80061Y-31782D01*
X79859Y-31698D01*
X79641Y-31698D01*
X79439Y-31782D01*
X79285Y-31936D01*
X79201Y-32138D01*
X79201Y-32356D01*
X79201Y-32662D01*
X79285Y-32864D01*
X79439Y-33018D01*
X79641Y-33102D01*
X79642Y-33102D01*
X79998Y-33458D01*
X79955Y-33502D01*
X79896Y-33642D01*
X79852Y-33533D01*
X79761Y-33510D01*
X79690Y-33581D01*
X79690Y-33439D01*
X79667Y-33348D01*
X79474Y-33281D01*
X79270Y-33292D01*
X79133Y-33348D01*
X79110Y-33439D01*
X79400Y-33729D01*
X79690Y-33439D01*
X79690Y-33581D01*
X79471Y-33800D01*
X79761Y-34090D01*
X79852Y-34067D01*
X79893Y-33948D01*
X79955Y-34097D01*
X80102Y-34245D01*
X80167Y-34272D01*
X79739Y-34701D01*
X79691Y-34701D01*
X79690Y-34701D01*
X79690Y-34161D01*
X79400Y-33871D01*
X79329Y-33942D01*
X79329Y-33800D01*
X79039Y-33510D01*
X78948Y-33533D01*
X78881Y-33726D01*
X78892Y-33930D01*
X78948Y-34067D01*
X79039Y-34090D01*
X79329Y-33800D01*
X79329Y-33942D01*
X79110Y-34161D01*
X79133Y-34252D01*
X79326Y-34319D01*
X79530Y-34308D01*
X79667Y-34252D01*
X79690Y-34161D01*
X79690Y-34701D01*
X79489Y-34785D01*
X79349Y-34925D01*
X79349Y-34901D01*
X79311Y-34809D01*
X79241Y-34739D01*
X79150Y-34701D01*
X79051Y-34701D01*
X78451Y-34701D01*
X78359Y-34739D01*
X78289Y-34809D01*
X78251Y-34900D01*
X78251Y-34999D01*
X78251Y-35599D01*
X78261Y-35625D01*
X77419Y-35625D01*
X77419Y-35274D01*
X77408Y-35070D01*
X77352Y-34933D01*
X77261Y-34910D01*
X76971Y-35200D01*
X77261Y-35490D01*
X77352Y-35467D01*
X77419Y-35274D01*
X77419Y-35625D01*
X77173Y-35625D01*
X77190Y-35561D01*
X76900Y-35271D01*
X76829Y-35342D01*
X76829Y-35200D01*
X76539Y-34910D01*
X76448Y-34933D01*
X76381Y-35126D01*
X76392Y-35330D01*
X76448Y-35467D01*
X76539Y-35490D01*
X76829Y-35200D01*
X76829Y-35342D01*
X76610Y-35561D01*
X76626Y-35625D01*
X75798Y-35625D01*
X75798Y-35593D01*
X75895Y-35498D01*
X75975Y-35305D01*
X75975Y-35096D01*
X75971Y-35088D01*
X76508Y-34551D01*
X76602Y-34645D01*
X76742Y-34703D01*
X76633Y-34748D01*
X76610Y-34839D01*
X76900Y-35129D01*
X77190Y-34839D01*
X77167Y-34748D01*
X77048Y-34706D01*
X77197Y-34645D01*
X77345Y-34498D01*
X77376Y-34423D01*
X77376Y-34524D01*
X77414Y-34616D01*
X77484Y-34686D01*
X77575Y-34724D01*
X77674Y-34724D01*
X78224Y-34724D01*
X78316Y-34686D01*
X78386Y-34616D01*
X78424Y-34525D01*
X78424Y-34426D01*
X78424Y-33876D01*
X78386Y-33784D01*
X78316Y-33714D01*
X78225Y-33676D01*
X78126Y-33676D01*
X78036Y-33676D01*
X77905Y-33545D01*
X77811Y-33482D01*
X77700Y-33460D01*
X75850Y-33460D01*
X75787Y-33472D01*
X75785Y-33050D01*
X75805Y-33097D01*
X75952Y-33245D01*
X76145Y-33325D01*
X76354Y-33325D01*
X76547Y-33245D01*
X76695Y-33098D01*
X76698Y-33090D01*
X77600Y-33090D01*
X77711Y-33068D01*
X77805Y-33005D01*
X78306Y-32503D01*
X78447Y-32445D01*
X78595Y-32298D01*
X78675Y-32105D01*
X78675Y-31896D01*
X78669Y-31881D01*
X78669Y-31074D01*
X78658Y-30870D01*
X78602Y-30733D01*
X78511Y-30710D01*
X78440Y-30781D01*
X78440Y-30639D01*
X78417Y-30548D01*
X78224Y-30481D01*
X78020Y-30492D01*
X77883Y-30548D01*
X77860Y-30639D01*
X78150Y-30929D01*
X78440Y-30639D01*
X78440Y-30781D01*
X78221Y-31000D01*
X78511Y-31290D01*
X78602Y-31267D01*
X78669Y-31074D01*
X78669Y-31881D01*
X78595Y-31703D01*
X78448Y-31555D01*
X78307Y-31496D01*
X78417Y-31452D01*
X78440Y-31361D01*
X78150Y-31071D01*
X78079Y-31142D01*
X78079Y-31000D01*
X77789Y-30710D01*
X77698Y-30733D01*
X77631Y-30926D01*
X77642Y-31130D01*
X77698Y-31267D01*
X77789Y-31290D01*
X78079Y-31000D01*
X78079Y-31142D01*
X77860Y-31361D01*
X77883Y-31452D01*
X78001Y-31493D01*
X77853Y-31555D01*
X77705Y-31702D01*
X77674Y-31776D01*
X77674Y-31676D01*
X77636Y-31584D01*
X77566Y-31514D01*
X77475Y-31476D01*
X77376Y-31476D01*
X77319Y-31476D01*
X77319Y-30824D01*
X77308Y-30620D01*
X77252Y-30483D01*
X77161Y-30460D01*
X76871Y-30750D01*
X77161Y-31040D01*
X77252Y-31017D01*
X77319Y-30824D01*
X77319Y-31476D01*
X77090Y-31476D01*
X77090Y-31111D01*
X76800Y-30821D01*
X76729Y-30892D01*
X76729Y-30750D01*
X76439Y-30460D01*
X76348Y-30483D01*
X76281Y-30676D01*
X76292Y-30880D01*
X76348Y-31017D01*
X76439Y-31040D01*
X76729Y-30750D01*
X76729Y-30892D01*
X76510Y-31111D01*
X76533Y-31202D01*
X76726Y-31269D01*
X76930Y-31258D01*
X77067Y-31202D01*
X77090Y-31111D01*
X77090Y-31476D01*
X76826Y-31476D01*
X76734Y-31514D01*
X76724Y-31523D01*
X76695Y-31453D01*
X76548Y-31305D01*
X76355Y-31225D01*
X76146Y-31225D01*
X75953Y-31305D01*
X75805Y-31452D01*
X75778Y-31517D01*
X75773Y-30640D01*
X75850Y-30640D01*
X75961Y-30618D01*
X76055Y-30555D01*
X76458Y-30151D01*
X76502Y-30195D01*
X76642Y-30253D01*
X76533Y-30298D01*
X76510Y-30389D01*
X76800Y-30679D01*
X77090Y-30389D01*
X77067Y-30298D01*
X76948Y-30256D01*
X77097Y-30195D01*
X77245Y-30048D01*
X77276Y-29973D01*
X77276Y-30074D01*
X77314Y-30166D01*
X77384Y-30236D01*
X77475Y-30274D01*
X77574Y-30274D01*
X78124Y-30274D01*
X78216Y-30236D01*
X78286Y-30166D01*
X78324Y-30075D01*
X78324Y-29976D01*
X78324Y-29426D01*
X78286Y-29334D01*
X78216Y-29264D01*
X78125Y-29226D01*
X78026Y-29226D01*
X77686Y-29226D01*
X77355Y-28895D01*
X77261Y-28832D01*
X77150Y-28810D01*
X76050Y-28810D01*
X75939Y-28832D01*
X75845Y-28895D01*
X75765Y-28974D01*
X75760Y-28103D01*
X75852Y-28195D01*
X76045Y-28275D01*
X76165Y-28275D01*
X76395Y-28505D01*
X76489Y-28568D01*
X76600Y-28590D01*
X77550Y-28590D01*
X77661Y-28568D01*
X77755Y-28505D01*
X78037Y-28222D01*
X78045Y-28225D01*
X78254Y-28225D01*
X78447Y-28145D01*
X78595Y-27998D01*
X78675Y-27805D01*
X78675Y-27596D01*
X78669Y-27581D01*
X78669Y-26774D01*
X78658Y-26570D01*
X78602Y-26433D01*
X78511Y-26410D01*
X78221Y-26700D01*
X78511Y-26990D01*
X78602Y-26967D01*
X78669Y-26774D01*
X78669Y-27581D01*
X78595Y-27403D01*
X78448Y-27255D01*
X78307Y-27196D01*
X78417Y-27152D01*
X78440Y-27061D01*
X78150Y-26771D01*
X78079Y-26842D01*
X78079Y-26700D01*
X77789Y-26410D01*
X77698Y-26433D01*
X77631Y-26626D01*
X77642Y-26830D01*
X77698Y-26967D01*
X77789Y-26990D01*
X78079Y-26700D01*
X78079Y-26842D01*
X77860Y-27061D01*
X77883Y-27152D01*
X78001Y-27193D01*
X77853Y-27255D01*
X77705Y-27402D01*
X77674Y-27476D01*
X77674Y-27376D01*
X77636Y-27284D01*
X77566Y-27214D01*
X77475Y-27176D01*
X77409Y-27176D01*
X77355Y-27095D01*
X77354Y-27094D01*
X76805Y-26545D01*
X76711Y-26482D01*
X76652Y-26470D01*
X76645Y-26453D01*
X76498Y-26305D01*
X76425Y-26275D01*
X77876Y-26275D01*
X77860Y-26339D01*
X78150Y-26629D01*
X78440Y-26339D01*
X78423Y-26275D01*
X79282Y-26275D01*
X79251Y-26350D01*
X79251Y-26449D01*
X79251Y-27049D01*
X79289Y-27141D01*
X79359Y-27211D01*
X79450Y-27249D01*
X79549Y-27249D01*
X80149Y-27249D01*
X80241Y-27211D01*
X80311Y-27141D01*
X80349Y-27050D01*
X80349Y-26987D01*
X80422Y-27008D01*
X80729Y-26700D01*
X80422Y-26392D01*
X80349Y-26412D01*
X80349Y-26351D01*
X80317Y-26275D01*
X80505Y-26275D01*
X80492Y-26322D01*
X80800Y-26629D01*
X81108Y-26322D01*
X81094Y-26275D01*
X81494Y-26275D01*
X81490Y-26488D01*
X81429Y-26549D01*
X81341Y-26759D01*
X81332Y-26566D01*
X81272Y-26419D01*
X81178Y-26392D01*
X80871Y-26700D01*
X81178Y-27008D01*
X81247Y-26988D01*
X81201Y-27100D01*
X81200Y-27669D01*
X81161Y-27660D01*
X81108Y-27713D01*
X81108Y-27078D01*
X80800Y-26771D01*
X80492Y-27078D01*
X80519Y-27172D01*
X80721Y-27243D01*
X80934Y-27232D01*
X81081Y-27172D01*
X81108Y-27078D01*
X81108Y-27713D01*
X81090Y-27731D01*
X81090Y-27589D01*
X81067Y-27498D01*
X80874Y-27431D01*
X80670Y-27442D01*
X80533Y-27498D01*
X80510Y-27589D01*
X80800Y-27879D01*
X81090Y-27589D01*
X81090Y-27731D01*
X80871Y-27950D01*
X81161Y-28240D01*
X81252Y-28217D01*
X81319Y-28024D01*
X81316Y-27978D01*
X81428Y-28248D01*
X81458Y-28278D01*
X81449Y-28777D01*
X81439Y-28782D01*
X81285Y-28936D01*
X81250Y-29020D01*
X81215Y-28936D01*
X81090Y-28811D01*
X81090Y-28311D01*
X80800Y-28021D01*
X80729Y-28092D01*
X80729Y-27950D01*
X80439Y-27660D01*
X80348Y-27683D01*
X80306Y-27801D01*
X80245Y-27653D01*
X80098Y-27505D01*
X79905Y-27425D01*
X79696Y-27425D01*
X79503Y-27505D01*
X79355Y-27652D01*
X79275Y-27845D01*
X79275Y-28054D01*
X79355Y-28247D01*
X79502Y-28395D01*
X79695Y-28475D01*
X79904Y-28475D01*
X80097Y-28395D01*
X80245Y-28248D01*
X80303Y-28107D01*
X80348Y-28217D01*
X80439Y-28240D01*
X80729Y-27950D01*
X80729Y-28092D01*
X80510Y-28311D01*
X80533Y-28402D01*
X80726Y-28469D01*
X80930Y-28458D01*
X81067Y-28402D01*
X81090Y-28311D01*
X81090Y-28811D01*
X81061Y-28782D01*
X80859Y-28698D01*
X80641Y-28698D01*
X80439Y-28782D01*
X80285Y-28936D01*
X80250Y-29020D01*
X80215Y-28936D01*
X80061Y-28782D01*
X79859Y-28698D01*
X79641Y-28698D01*
X79439Y-28782D01*
X79285Y-28936D01*
X79201Y-29138D01*
X79201Y-29356D01*
X79201Y-29662D01*
X79241Y-29760D01*
X79170Y-29760D01*
X78990Y-29580D01*
X78990Y-29050D01*
X78968Y-28939D01*
X78905Y-28845D01*
X78875Y-28815D01*
X78875Y-28716D01*
X78811Y-28560D01*
X78691Y-28440D01*
X78535Y-28375D01*
X78366Y-28375D01*
X78210Y-28439D01*
X78090Y-28559D01*
X78025Y-28715D01*
X78025Y-28884D01*
X78089Y-29040D01*
X78209Y-29160D01*
X78365Y-29225D01*
X78410Y-29225D01*
X78410Y-29700D01*
X78432Y-29811D01*
X78495Y-29905D01*
X78844Y-30254D01*
X78845Y-30255D01*
X78938Y-30317D01*
X78939Y-30318D01*
X79049Y-30339D01*
X79050Y-30340D01*
X80500Y-30340D01*
X80611Y-30318D01*
X80705Y-30255D01*
X80858Y-30102D01*
X80859Y-30102D01*
X81061Y-30018D01*
X81215Y-29864D01*
X81250Y-29779D01*
X81285Y-29864D01*
X81439Y-30018D01*
X81641Y-30102D01*
X81859Y-30102D01*
X82061Y-30018D01*
X82191Y-29888D01*
X82191Y-29900D01*
X82229Y-29991D01*
X82299Y-30061D01*
X82391Y-30099D01*
X82638Y-30100D01*
X82700Y-30038D01*
X82700Y-29500D01*
X82700Y-29450D01*
X82700Y-29350D01*
X82800Y-29350D01*
X82850Y-29350D01*
X83248Y-29350D01*
X83310Y-29288D01*
X83309Y-28999D01*
X83309Y-28900D01*
X83271Y-28809D01*
X83262Y-28800D01*
X83825Y-28800D01*
X83825Y-33504D01*
M02*
