G04 #@! TF.FileFunction,Copper,L1,Top,Signal*
%FSLAX46Y46*%
G04 Gerber Fmt 4.6, Leading zero omitted, Abs format (unit mm)*
G04 Created by KiCad (PCBNEW 4.0.2-stable) date Fri May 20 00:00:43 2016*
%MOMM*%
G01*
G04 APERTURE LIST*
%ADD10C,0.100000*%
%ADD11R,0.600000X0.400000*%
%ADD12R,0.797560X0.797560*%
%ADD13R,0.600000X0.500000*%
%ADD14R,0.800000X0.750000*%
%ADD15R,0.750000X0.800000*%
%ADD16R,0.500000X0.600000*%
%ADD17R,1.220000X0.910000*%
%ADD18R,1.040000X1.800000*%
%ADD19R,0.610000X1.245000*%
%ADD20R,1.800000X1.040000*%
%ADD21R,1.245000X0.610000*%
%ADD22R,0.900000X0.500000*%
%ADD23C,2.400000*%
%ADD24R,2.400000X2.400000*%
%ADD25R,0.400000X0.600000*%
%ADD26R,1.000000X1.000000*%
%ADD27R,1.050000X2.200000*%
%ADD28R,0.500000X0.300000*%
%ADD29R,0.300000X0.500000*%
%ADD30R,1.150000X1.150000*%
%ADD31R,0.300000X0.850000*%
%ADD32R,0.850000X0.300000*%
%ADD33R,1.300000X1.300000*%
%ADD34R,1.060000X0.650000*%
%ADD35O,0.750000X0.300000*%
%ADD36O,0.300000X0.750000*%
%ADD37R,0.900000X0.900000*%
%ADD38R,1.450000X0.450000*%
%ADD39R,0.749300X0.398780*%
%ADD40R,0.800000X0.350000*%
%ADD41R,0.350000X0.800000*%
%ADD42R,1.250000X1.250000*%
%ADD43R,1.000000X1.400000*%
%ADD44R,0.800000X0.800000*%
%ADD45R,6.350000X1.910000*%
%ADD46R,6.000000X0.380000*%
%ADD47R,0.700000X0.250000*%
%ADD48R,0.830000X1.190000*%
%ADD49R,0.900000X1.700000*%
%ADD50C,0.925000*%
%ADD51R,0.800100X0.800100*%
%ADD52C,0.600000*%
%ADD53C,0.350000*%
%ADD54C,0.200000*%
%ADD55C,1.000000*%
%ADD56C,0.127000*%
%ADD57C,0.254000*%
G04 APERTURE END LIST*
D10*
D11*
X181300000Y-114550000D03*
X181300000Y-115450000D03*
D12*
X181300000Y-111501400D03*
X181300000Y-113000000D03*
D13*
X254550000Y-109250000D03*
X253450000Y-109250000D03*
D14*
X186350000Y-88700000D03*
X184850000Y-88700000D03*
X183500000Y-103750000D03*
X182000000Y-103750000D03*
D15*
X195600000Y-100950000D03*
X195600000Y-102450000D03*
D13*
X183050000Y-98000000D03*
X181950000Y-98000000D03*
X181950000Y-99250000D03*
X183050000Y-99250000D03*
D15*
X182750000Y-95250000D03*
X182750000Y-93750000D03*
D16*
X181250000Y-94250000D03*
X181250000Y-95350000D03*
D13*
X181950000Y-100500000D03*
X183050000Y-100500000D03*
X185300000Y-105600000D03*
X184200000Y-105600000D03*
X182450000Y-102300000D03*
X183550000Y-102300000D03*
X185200000Y-104250000D03*
X186300000Y-104250000D03*
X186350000Y-90200000D03*
X185250000Y-90200000D03*
D16*
X185900000Y-91600000D03*
X185900000Y-92700000D03*
D13*
X186650000Y-102750000D03*
X187750000Y-102750000D03*
D15*
X187800000Y-91950000D03*
X187800000Y-90450000D03*
X189300000Y-91950000D03*
X189300000Y-90450000D03*
D16*
X189750000Y-87850000D03*
X189750000Y-86750000D03*
D13*
X189650000Y-89000000D03*
X188550000Y-89000000D03*
D16*
X194000000Y-100850000D03*
X194000000Y-101950000D03*
D15*
X192100000Y-92950000D03*
X192100000Y-91450000D03*
X193600000Y-92950000D03*
X193600000Y-91450000D03*
D16*
X193700000Y-95350000D03*
X193700000Y-96450000D03*
D13*
X202600000Y-111250000D03*
X201500000Y-111250000D03*
X202600000Y-110000000D03*
X201500000Y-110000000D03*
X202550000Y-107250000D03*
X201450000Y-107250000D03*
X204100000Y-113500000D03*
X203000000Y-113500000D03*
X197650000Y-97150000D03*
X196550000Y-97150000D03*
X198500000Y-94600000D03*
X197400000Y-94600000D03*
D16*
X195250000Y-91450000D03*
X195250000Y-92550000D03*
X196250000Y-91450000D03*
X196250000Y-92550000D03*
D13*
X198950000Y-99300000D03*
X197850000Y-99300000D03*
D16*
X200250000Y-98050000D03*
X200250000Y-96950000D03*
X221700000Y-94550000D03*
X221700000Y-93450000D03*
D13*
X213050000Y-108250000D03*
X211950000Y-108250000D03*
X213050000Y-104750000D03*
X211950000Y-104750000D03*
X212250000Y-101250000D03*
X211150000Y-101250000D03*
X212550000Y-97750000D03*
X211450000Y-97750000D03*
X212550000Y-94500000D03*
X211450000Y-94500000D03*
X212300000Y-91000000D03*
X211200000Y-91000000D03*
X211750000Y-87500000D03*
X210650000Y-87500000D03*
D16*
X228000000Y-89100000D03*
X228000000Y-88000000D03*
D13*
X221050000Y-108250000D03*
X219950000Y-108250000D03*
X221000000Y-104750000D03*
X219900000Y-104750000D03*
X221250000Y-101250000D03*
X220150000Y-101250000D03*
X221300000Y-98000000D03*
X220200000Y-98000000D03*
D16*
X220250000Y-93450000D03*
X220250000Y-94550000D03*
X220250000Y-89950000D03*
X220250000Y-91050000D03*
D13*
X220800000Y-87500000D03*
X219700000Y-87500000D03*
X234300000Y-91750000D03*
X233200000Y-91750000D03*
X247050000Y-101250000D03*
X245950000Y-101250000D03*
X250050000Y-101250000D03*
X248950000Y-101250000D03*
D15*
X250000000Y-102750000D03*
X250000000Y-104250000D03*
X244250000Y-103500000D03*
X244250000Y-102000000D03*
D13*
X247750000Y-106000000D03*
X246650000Y-106000000D03*
X238800000Y-94500000D03*
X237700000Y-94500000D03*
X239700000Y-91750000D03*
X240800000Y-91750000D03*
X243300000Y-91750000D03*
X242200000Y-91750000D03*
X246300000Y-94500000D03*
X245200000Y-94500000D03*
X230450000Y-104750000D03*
X231550000Y-104750000D03*
D16*
X249500000Y-98550000D03*
X249500000Y-97450000D03*
D15*
X246750000Y-99000000D03*
X246750000Y-97500000D03*
D13*
X253800000Y-97500000D03*
X252700000Y-97500000D03*
D16*
X248250000Y-98550000D03*
X248250000Y-97450000D03*
D13*
X253750000Y-96250000D03*
X252650000Y-96250000D03*
X253800000Y-93250000D03*
X252700000Y-93250000D03*
D16*
X225750000Y-106750000D03*
X225750000Y-105650000D03*
X231500000Y-95500000D03*
X231500000Y-96600000D03*
D15*
X230000000Y-95500000D03*
X230000000Y-97000000D03*
D16*
X251750000Y-105500000D03*
X251750000Y-106600000D03*
X253000000Y-105500000D03*
X253000000Y-106600000D03*
D13*
X255500000Y-100750000D03*
X254400000Y-100750000D03*
X255550000Y-99750000D03*
X254450000Y-99750000D03*
D16*
X256750000Y-100800000D03*
X256750000Y-99700000D03*
X257500000Y-100800000D03*
X257500000Y-99700000D03*
X260000000Y-105750000D03*
X260000000Y-106850000D03*
X261500000Y-105950000D03*
X261500000Y-107050000D03*
D13*
X221050000Y-111750000D03*
X219950000Y-111750000D03*
X176750000Y-97200000D03*
X175650000Y-97200000D03*
X176750000Y-95900000D03*
X175650000Y-95900000D03*
D14*
X176750000Y-94500000D03*
X175250000Y-94500000D03*
D12*
X194000000Y-110750700D03*
X194000000Y-112249300D03*
D17*
X229750000Y-112385000D03*
X229750000Y-109115000D03*
X232250000Y-112385000D03*
X232250000Y-109115000D03*
X234750000Y-112385000D03*
X234750000Y-109115000D03*
X242250000Y-112385000D03*
X242250000Y-109115000D03*
X239750000Y-112385000D03*
X239750000Y-109115000D03*
X237250000Y-112385000D03*
X237250000Y-109115000D03*
D12*
X257500700Y-88750000D03*
X258999300Y-88750000D03*
D18*
X214625000Y-108250000D03*
X217875000Y-108250000D03*
D19*
X216250000Y-109177500D03*
X216250000Y-107322500D03*
D18*
X214625000Y-104750000D03*
X217875000Y-104750000D03*
D19*
X216250000Y-105677500D03*
X216250000Y-103822500D03*
D18*
X214625000Y-101250000D03*
X217875000Y-101250000D03*
D19*
X216250000Y-102177500D03*
X216250000Y-100322500D03*
D18*
X214625000Y-97750000D03*
X217875000Y-97750000D03*
D19*
X216250000Y-98677500D03*
X216250000Y-96822500D03*
D18*
X214625000Y-94500000D03*
X217875000Y-94500000D03*
D19*
X216250000Y-95427500D03*
X216250000Y-93572500D03*
D18*
X214625000Y-91000000D03*
X217875000Y-91000000D03*
D19*
X216250000Y-91927500D03*
X216250000Y-90072500D03*
D18*
X214625000Y-87500000D03*
X217875000Y-87500000D03*
D19*
X216250000Y-88427500D03*
X216250000Y-86572500D03*
D18*
X214625000Y-111750000D03*
X217875000Y-111750000D03*
D19*
X216250000Y-112677500D03*
X216250000Y-110822500D03*
D20*
X225750000Y-111750000D03*
X225750000Y-108500000D03*
D21*
X226677500Y-110125000D03*
X224822500Y-110125000D03*
D11*
X200000000Y-107300000D03*
X200000000Y-108200000D03*
X201500000Y-112550000D03*
X201500000Y-113450000D03*
X251250000Y-96200000D03*
X251250000Y-95300000D03*
X251250000Y-94150000D03*
X251250000Y-93250000D03*
D22*
X178400000Y-92950000D03*
X178400000Y-94450000D03*
D23*
X269750000Y-106250000D03*
D24*
X269750000Y-109750000D03*
D11*
X179600000Y-105250000D03*
X179600000Y-104350000D03*
X178600000Y-100150000D03*
X178600000Y-99250000D03*
D25*
X179800000Y-100550000D03*
X180700000Y-100550000D03*
D11*
X180400000Y-101950000D03*
X180400000Y-102850000D03*
X178600000Y-98000000D03*
X178600000Y-97100000D03*
D25*
X180700000Y-98000000D03*
X179800000Y-98000000D03*
X180700000Y-99250000D03*
X179800000Y-99250000D03*
D11*
X194000000Y-114850000D03*
X194000000Y-113950000D03*
D25*
X182000000Y-105600000D03*
X182900000Y-105600000D03*
X185200000Y-107000000D03*
X184300000Y-107000000D03*
D11*
X188500000Y-86850000D03*
X188500000Y-87750000D03*
X183800000Y-91550000D03*
X183800000Y-92450000D03*
X191100000Y-106050000D03*
X191100000Y-106950000D03*
X189750000Y-106050000D03*
X189750000Y-106950000D03*
X188300000Y-106000000D03*
X188300000Y-106900000D03*
X186900000Y-106050000D03*
X186900000Y-106950000D03*
X190700000Y-91250000D03*
X190700000Y-92150000D03*
D25*
X196200000Y-94650000D03*
X195300000Y-94650000D03*
D11*
X196600000Y-99250000D03*
X196600000Y-98350000D03*
D25*
X203800000Y-107250000D03*
X204700000Y-107250000D03*
X205550000Y-113500000D03*
X206450000Y-113500000D03*
D11*
X206000000Y-108150000D03*
X206000000Y-107250000D03*
X207750000Y-114400000D03*
X207750000Y-113500000D03*
D25*
X207550000Y-107000000D03*
X208450000Y-107000000D03*
X209050000Y-113500000D03*
X209950000Y-113500000D03*
X194350000Y-90100000D03*
X195250000Y-90100000D03*
D11*
X200250000Y-100150000D03*
X200250000Y-99250000D03*
X229750000Y-107400000D03*
X229750000Y-106500000D03*
X232250000Y-107450000D03*
X232250000Y-106550000D03*
X234750000Y-107450000D03*
X234750000Y-106550000D03*
D25*
X231200000Y-100500000D03*
X230300000Y-100500000D03*
X231150000Y-102000000D03*
X230250000Y-102000000D03*
X231200000Y-103500000D03*
X230300000Y-103500000D03*
X242200000Y-100750000D03*
X241300000Y-100750000D03*
X242200000Y-102000000D03*
X241300000Y-102000000D03*
X242200000Y-103250000D03*
X241300000Y-103250000D03*
D11*
X237250000Y-107450000D03*
X237250000Y-106550000D03*
X239750000Y-107450000D03*
X239750000Y-106550000D03*
X242250000Y-107450000D03*
X242250000Y-106550000D03*
X251250000Y-97500000D03*
X251250000Y-98400000D03*
D25*
X257300000Y-98500000D03*
X258200000Y-98500000D03*
X255950000Y-93250000D03*
X255050000Y-93250000D03*
X258200000Y-95500000D03*
X257300000Y-95500000D03*
D11*
X257250000Y-94450000D03*
X257250000Y-93550000D03*
X257250000Y-97450000D03*
X257250000Y-96550000D03*
D25*
X259450000Y-93250000D03*
X258550000Y-93250000D03*
D11*
X260000000Y-103550000D03*
X260000000Y-104450000D03*
X260000000Y-101550000D03*
X260000000Y-102450000D03*
X262250000Y-102350000D03*
X262250000Y-103250000D03*
D25*
X262200000Y-104500000D03*
X261300000Y-104500000D03*
X255800000Y-109250000D03*
X256700000Y-109250000D03*
D11*
X171100000Y-102450000D03*
X171100000Y-103350000D03*
X173800000Y-96250000D03*
X173800000Y-97150000D03*
D25*
X173650000Y-107500000D03*
X174550000Y-107500000D03*
X260500000Y-88750000D03*
X261400000Y-88750000D03*
D26*
X176900000Y-111350000D03*
D27*
X178375000Y-112850000D03*
X175425000Y-112850000D03*
D26*
X176900000Y-114350000D03*
D28*
X185425000Y-95175000D03*
X185425000Y-95675000D03*
X185425000Y-96175000D03*
X185425000Y-96675000D03*
X185425000Y-97175000D03*
X185425000Y-97675000D03*
X185425000Y-98175000D03*
X185425000Y-98675000D03*
X185425000Y-99175000D03*
X185425000Y-99675000D03*
D29*
X186175000Y-100425000D03*
X186675000Y-100425000D03*
X187175000Y-100425000D03*
X187675000Y-100425000D03*
X188175000Y-100425000D03*
X188675000Y-100425000D03*
X189175000Y-100425000D03*
X189675000Y-100425000D03*
X190175000Y-100425000D03*
X190675000Y-100425000D03*
D28*
X191425000Y-99675000D03*
X191425000Y-99175000D03*
X191425000Y-98675000D03*
X191425000Y-98175000D03*
X191425000Y-97675000D03*
X191425000Y-97175000D03*
X191425000Y-96675000D03*
X191425000Y-96175000D03*
X191425000Y-95675000D03*
X191425000Y-95175000D03*
D29*
X190675000Y-94425000D03*
X190175000Y-94425000D03*
X189675000Y-94425000D03*
X189175000Y-94425000D03*
X188675000Y-94425000D03*
X188175000Y-94425000D03*
X187675000Y-94425000D03*
X187175000Y-94425000D03*
X186675000Y-94425000D03*
X186175000Y-94425000D03*
D30*
X190150000Y-99150000D03*
X190150000Y-98000000D03*
X190150000Y-96850000D03*
X190150000Y-95700000D03*
X189000000Y-99150000D03*
X189000000Y-98000000D03*
X189000000Y-96850000D03*
X189000000Y-95700000D03*
X187850000Y-99150000D03*
X187850000Y-98000000D03*
X187850000Y-96850000D03*
X187850000Y-95700000D03*
X186700000Y-99150000D03*
X186700000Y-98000000D03*
X186700000Y-96850000D03*
X186700000Y-95700000D03*
D26*
X208500000Y-108750000D03*
D27*
X209975000Y-110250000D03*
X207025000Y-110250000D03*
D26*
X208500000Y-111750000D03*
X195250000Y-88700000D03*
D27*
X193775000Y-87200000D03*
X196725000Y-87200000D03*
D26*
X195250000Y-85700000D03*
D31*
X203350000Y-98600000D03*
X203850000Y-98600000D03*
X204350000Y-98600000D03*
X204850000Y-98600000D03*
X205350000Y-98600000D03*
X205850000Y-98600000D03*
D32*
X206550000Y-97900000D03*
X206550000Y-97400000D03*
X206550000Y-96900000D03*
X206550000Y-96400000D03*
X206550000Y-95900000D03*
X206550000Y-95400000D03*
D31*
X205850000Y-94700000D03*
X205350000Y-94700000D03*
X204850000Y-94700000D03*
X204350000Y-94700000D03*
X203850000Y-94700000D03*
X203350000Y-94700000D03*
D32*
X202650000Y-95400000D03*
X202650000Y-95900000D03*
X202650000Y-96400000D03*
X202650000Y-96900000D03*
X202650000Y-97400000D03*
X202650000Y-97900000D03*
D33*
X205250000Y-96000000D03*
X203950000Y-96000000D03*
X205250000Y-97300000D03*
X203950000Y-97300000D03*
D31*
X227350000Y-91200000D03*
X226850000Y-91200000D03*
X226350000Y-91200000D03*
X225850000Y-91200000D03*
X225350000Y-91200000D03*
X224850000Y-91200000D03*
D32*
X224150000Y-91900000D03*
X224150000Y-92400000D03*
X224150000Y-92900000D03*
X224150000Y-93400000D03*
X224150000Y-93900000D03*
X224150000Y-94400000D03*
D31*
X224850000Y-95100000D03*
X225350000Y-95100000D03*
X225850000Y-95100000D03*
X226350000Y-95100000D03*
X226850000Y-95100000D03*
X227350000Y-95100000D03*
D32*
X228050000Y-94400000D03*
X228050000Y-93900000D03*
X228050000Y-93400000D03*
X228050000Y-92900000D03*
X228050000Y-92400000D03*
X228050000Y-91900000D03*
D33*
X225450000Y-93800000D03*
X226750000Y-93800000D03*
X225450000Y-92500000D03*
X226750000Y-92500000D03*
D34*
X245900000Y-102690000D03*
X245900000Y-103640000D03*
X245900000Y-104590000D03*
X248100000Y-104590000D03*
X248100000Y-102690000D03*
X248100000Y-103640000D03*
D35*
X240575000Y-94050000D03*
X240575000Y-94550000D03*
X240575000Y-95050000D03*
X240575000Y-95550000D03*
D36*
X241300000Y-96275000D03*
X241800000Y-96275000D03*
X242300000Y-96275000D03*
X242800000Y-96275000D03*
D35*
X243525000Y-95550000D03*
X243525000Y-95050000D03*
X243525000Y-94550000D03*
X243525000Y-94050000D03*
D36*
X242800000Y-93325000D03*
X242300000Y-93325000D03*
X241800000Y-93325000D03*
X241300000Y-93325000D03*
D37*
X242500000Y-95250000D03*
X242500000Y-94350000D03*
X241600000Y-95250000D03*
X241600000Y-94350000D03*
D38*
X233550000Y-99800000D03*
X233550000Y-100450000D03*
X233550000Y-101100000D03*
X233550000Y-101750000D03*
X233550000Y-102400000D03*
X233550000Y-103050000D03*
X233550000Y-103700000D03*
X239450000Y-103700000D03*
X239450000Y-103050000D03*
X239450000Y-102400000D03*
X239450000Y-101750000D03*
X239450000Y-101100000D03*
X239450000Y-100450000D03*
X239450000Y-99800000D03*
D39*
X247850080Y-93199520D03*
X247850080Y-93849760D03*
X247850080Y-94500000D03*
X249750000Y-94500000D03*
X249750000Y-93849760D03*
X249750000Y-93199520D03*
D36*
X233750000Y-96225000D03*
X234250000Y-96225000D03*
X234750000Y-96225000D03*
X235250000Y-96225000D03*
D35*
X235975000Y-95500000D03*
X235975000Y-95000000D03*
X235975000Y-94500000D03*
X235975000Y-94000000D03*
D36*
X235250000Y-93275000D03*
X234750000Y-93275000D03*
X234250000Y-93275000D03*
X233750000Y-93275000D03*
D35*
X233025000Y-94000000D03*
X233025000Y-94500000D03*
X233025000Y-95000000D03*
X233025000Y-95500000D03*
D37*
X234950000Y-94300000D03*
X234050000Y-94300000D03*
X234950000Y-95200000D03*
X234050000Y-95200000D03*
D40*
X254500000Y-104025000D03*
X254500000Y-104675000D03*
X254500000Y-105325000D03*
X254500000Y-105975000D03*
D41*
X255525000Y-107000000D03*
X256175000Y-107000000D03*
X256825000Y-107000000D03*
X257475000Y-107000000D03*
D40*
X258500000Y-105975000D03*
X258500000Y-105325000D03*
X258500000Y-104675000D03*
X258500000Y-104025000D03*
D41*
X257475000Y-103000000D03*
X256825000Y-103000000D03*
X256175000Y-103000000D03*
X255525000Y-103000000D03*
D42*
X257125000Y-105625000D03*
X257125000Y-104375000D03*
X255875000Y-105625000D03*
X255875000Y-104375000D03*
D43*
X173000000Y-99860000D03*
X173000000Y-102400000D03*
X173000000Y-104940000D03*
X176700000Y-104940000D03*
X176700000Y-102400000D03*
X176700000Y-99860000D03*
D44*
X174850000Y-99535000D03*
X174850000Y-105265000D03*
D45*
X269750000Y-97770000D03*
X269750000Y-88730000D03*
D46*
X263575000Y-93250000D03*
D15*
X251750000Y-104000000D03*
X251750000Y-102500000D03*
X191500000Y-113250000D03*
X191500000Y-111750000D03*
D13*
X188900000Y-115300000D03*
X190000000Y-115300000D03*
D16*
X184900000Y-114400000D03*
X184900000Y-113300000D03*
D14*
X187350000Y-109600000D03*
X185850000Y-109600000D03*
D15*
X184100000Y-110350000D03*
X184100000Y-111850000D03*
D47*
X186285000Y-111955000D03*
X186285000Y-112455000D03*
X186285000Y-112955000D03*
X186285000Y-113455000D03*
X189085000Y-113455000D03*
X189085000Y-112955000D03*
X189085000Y-112455000D03*
X189085000Y-111955000D03*
D48*
X188100000Y-113300000D03*
X188100000Y-112110000D03*
X187270000Y-113300000D03*
X187270000Y-112110000D03*
D49*
X261550000Y-113000000D03*
X264450000Y-113000000D03*
D16*
X208500000Y-96300000D03*
X208500000Y-97400000D03*
D50*
X164180000Y-88450000D03*
X165450000Y-88450000D03*
X164180000Y-89720000D03*
X165450000Y-89720000D03*
X164180000Y-90990000D03*
X165450000Y-90990000D03*
X164180000Y-92260000D03*
X165450000Y-92260000D03*
X164180000Y-93530000D03*
X165450000Y-93530000D03*
X164180000Y-94800000D03*
X165450000Y-94800000D03*
X164180000Y-96070000D03*
X165450000Y-96070000D03*
X164180000Y-97340000D03*
X165450000Y-97340000D03*
X164180000Y-98610000D03*
X165450000Y-98610000D03*
X164180000Y-99880000D03*
X165450000Y-99880000D03*
X164180000Y-101150000D03*
X165450000Y-101150000D03*
X164180000Y-102420000D03*
X165450000Y-102420000D03*
X164180000Y-103690000D03*
X165450000Y-103690000D03*
X164180000Y-104960000D03*
X165450000Y-104960000D03*
X164180000Y-106230000D03*
X165450000Y-106230000D03*
X164180000Y-107500000D03*
X165450000Y-107500000D03*
X164180000Y-108770000D03*
X165450000Y-108770000D03*
X164180000Y-110040000D03*
X165450000Y-110040000D03*
X164180000Y-111310000D03*
X165450000Y-111310000D03*
X164180000Y-112580000D03*
X165450000Y-112580000D03*
D51*
X256799240Y-112050000D03*
X256799240Y-113950000D03*
X258798220Y-113000000D03*
D52*
X180600000Y-103600000D03*
X187000000Y-104250000D03*
X190325000Y-90000000D03*
X187848126Y-89888232D03*
X181200000Y-103800000D03*
X181200000Y-93600000D03*
X174300000Y-94500000D03*
X174900000Y-95900000D03*
X174900000Y-97200000D03*
X171100000Y-104100000D03*
X173000000Y-106000000D03*
X172200000Y-105000000D03*
X176900000Y-115200000D03*
X178400000Y-111700000D03*
X175425000Y-111725000D03*
X178650000Y-96650000D03*
X181950000Y-101250000D03*
X180300000Y-115500000D03*
X194000000Y-115400000D03*
X184100000Y-109400000D03*
X186100000Y-115000000D03*
X187200000Y-115000000D03*
X188100000Y-110800000D03*
X187300000Y-110800000D03*
X188100000Y-112110000D03*
X187270000Y-112110000D03*
X187270000Y-113300000D03*
X188100000Y-113300000D03*
X188000000Y-115000000D03*
X191500000Y-114000000D03*
X195250000Y-84950000D03*
X209300000Y-96300000D03*
X227800000Y-110100000D03*
X223775000Y-110125000D03*
X225705000Y-110125000D03*
X255450000Y-112050000D03*
X181500000Y-102300000D03*
X182750000Y-92750000D03*
X181250000Y-105500000D03*
X187000000Y-102000000D03*
X195600000Y-103200000D03*
X194000000Y-102600000D03*
X190300000Y-89000000D03*
X183900000Y-88700000D03*
X184500000Y-90200000D03*
X186700000Y-99150000D03*
X187850000Y-99150000D03*
X189000000Y-99150000D03*
X190150000Y-99150000D03*
X190150000Y-98000000D03*
X189000000Y-98000000D03*
X187850000Y-98000000D03*
X186700000Y-98000000D03*
X186700000Y-96850000D03*
X187850000Y-96850000D03*
X189000000Y-96850000D03*
X190150000Y-96850000D03*
X190150000Y-95700000D03*
X189000000Y-95700000D03*
X187850000Y-95700000D03*
X186700000Y-95700000D03*
X221700000Y-95200000D03*
X200200000Y-100800000D03*
X193600000Y-90700000D03*
X192100000Y-90700000D03*
X190700000Y-90700000D03*
X185000000Y-91600000D03*
X193700000Y-94600000D03*
X199100000Y-94600000D03*
X193700000Y-90100000D03*
X193000000Y-87000000D03*
X197500000Y-87000000D03*
X198350000Y-97150000D03*
X210750000Y-110250000D03*
X203950000Y-97300000D03*
X205250000Y-97300000D03*
X205250000Y-96000000D03*
X203950000Y-96000000D03*
X203150000Y-110050000D03*
X203150000Y-111250000D03*
X206000000Y-108700000D03*
X206250000Y-110250000D03*
X208550000Y-112350000D03*
X207750000Y-115050000D03*
X230000000Y-97600000D03*
X231500000Y-97200000D03*
X229650000Y-104750000D03*
X239050000Y-91750000D03*
X243900000Y-91700000D03*
X247249760Y-93849760D03*
X250400000Y-94000000D03*
X250400000Y-94500000D03*
X248775350Y-94250000D03*
X248750000Y-93750000D03*
X247250000Y-93000000D03*
X269750000Y-88730000D03*
X269750000Y-97770000D03*
X266250000Y-97750000D03*
X266270000Y-88730000D03*
X262000000Y-88750000D03*
X251000000Y-101250000D03*
X244250000Y-101000000D03*
X247200000Y-100500000D03*
X246000000Y-99000000D03*
X248250000Y-99250000D03*
X249500000Y-99200000D03*
X238500000Y-99750000D03*
X241600000Y-95250000D03*
X242500000Y-95250000D03*
X242500000Y-94350000D03*
X241600000Y-94350000D03*
X234050000Y-95200000D03*
X234950000Y-95200000D03*
X234950000Y-94300000D03*
X234050000Y-94300000D03*
X225450000Y-93800000D03*
X226750000Y-93800000D03*
X226750000Y-92500000D03*
X225450000Y-92500000D03*
X251750000Y-101750000D03*
X250000000Y-105000000D03*
X249000000Y-103750000D03*
X251750000Y-107500000D03*
X253000000Y-107500000D03*
X252500000Y-109250000D03*
X260000000Y-107750000D03*
X261500000Y-108000000D03*
X255875000Y-105625000D03*
X257125000Y-105625000D03*
X257125000Y-104375000D03*
X255875000Y-104375000D03*
X253500000Y-99750000D03*
X253500000Y-100750000D03*
X262250000Y-101750000D03*
X260000000Y-101000000D03*
X258750000Y-98500000D03*
X254450000Y-97500000D03*
X254500000Y-96250000D03*
X258750000Y-95500000D03*
X216250000Y-86572500D03*
X216250000Y-113500000D03*
X216250000Y-111750000D03*
X216250000Y-108250000D03*
X216250000Y-104750000D03*
X216250000Y-101250000D03*
X216250000Y-97750000D03*
X216250000Y-89250000D03*
X216250000Y-87500000D03*
X216250000Y-91000000D03*
X216250000Y-92750000D03*
X216250000Y-94500000D03*
X216250000Y-96250000D03*
X216250000Y-99500000D03*
X216250000Y-103000000D03*
X216250000Y-106500000D03*
X216250000Y-110000000D03*
X183000000Y-106600000D03*
X187500000Y-89250000D03*
X188500000Y-86000000D03*
X191500000Y-110900000D03*
X209300000Y-97027003D03*
X255450000Y-113950000D03*
X223000000Y-91800000D03*
X230000000Y-94700000D03*
X256250000Y-88750000D03*
X246000000Y-97500000D03*
X248950000Y-100650000D03*
X253000000Y-104000000D03*
X262200000Y-105950000D03*
X243500000Y-103500000D03*
X244800000Y-91300000D03*
X189750000Y-104500000D03*
X191500000Y-101000000D03*
X229600000Y-114000000D03*
X235900000Y-100200000D03*
X228900000Y-107400000D03*
X232200000Y-114000000D03*
X235650000Y-101100000D03*
X231300000Y-107450000D03*
X234600000Y-113800000D03*
X236252010Y-102500000D03*
X233800000Y-107450000D03*
X242200000Y-113800000D03*
X238000000Y-100500000D03*
X241050000Y-107450000D03*
X239800000Y-113600000D03*
X237250000Y-101750000D03*
X238800000Y-107450000D03*
X237200000Y-113800000D03*
X236250000Y-105000000D03*
X236300000Y-107450000D03*
X188000000Y-103400000D03*
X177350000Y-92950000D03*
X173600000Y-108400000D03*
X173100000Y-96200000D03*
X180600000Y-95350000D03*
X183150000Y-111850000D03*
X183250000Y-104500000D03*
X196600000Y-101000000D03*
X186400000Y-87800000D03*
X183800000Y-90900000D03*
X193000000Y-96500000D03*
X196550000Y-95550000D03*
X200750000Y-111250000D03*
X190500000Y-104500000D03*
X192600000Y-97800000D03*
X196600000Y-103400000D03*
X179200000Y-86000000D03*
X191200000Y-107783929D03*
X194600000Y-103400000D03*
X179200000Y-85200000D03*
X189600000Y-107783929D03*
X167400000Y-87000000D03*
X180000000Y-106600000D03*
X188300000Y-107700000D03*
X168000000Y-87760499D03*
X181400000Y-106600000D03*
X186800000Y-107783929D03*
X244150000Y-96750000D03*
X229500000Y-100500000D03*
X243800000Y-97600000D03*
X229500000Y-102000000D03*
X243172652Y-98127348D03*
X229500000Y-103500000D03*
X261250000Y-103250000D03*
X253750000Y-103000000D03*
X168530000Y-93530000D03*
X172200000Y-97200000D03*
X175800000Y-106600000D03*
X169600000Y-97400000D03*
X171379962Y-95600000D03*
X168600000Y-90400000D03*
X162130000Y-93530000D03*
X207600000Y-95645994D03*
X207600000Y-96372997D03*
X207600000Y-97100000D03*
X177400000Y-85800000D03*
X231600000Y-94200000D03*
X191400000Y-115172981D03*
X174200000Y-114400000D03*
X190055000Y-112455000D03*
X222900000Y-92927010D03*
X222900000Y-93654013D03*
X222900000Y-94381016D03*
D53*
X180400000Y-102850000D02*
X180400000Y-103400000D01*
X180400000Y-103400000D02*
X180600000Y-103600000D01*
D54*
X189300000Y-90450000D02*
X189875000Y-90450000D01*
X189875000Y-90450000D02*
X190325000Y-90000000D01*
X187800000Y-90450000D02*
X187848126Y-89888232D01*
X187800000Y-89800000D02*
X187800000Y-89840106D01*
X187800000Y-89840106D02*
X187848126Y-89888232D01*
D53*
X181350000Y-103750000D02*
X181300000Y-103800000D01*
X181300000Y-103800000D02*
X181200000Y-103800000D01*
X182000000Y-103750000D02*
X181350000Y-103750000D01*
X181250000Y-94250000D02*
X181250000Y-93650000D01*
X181250000Y-93650000D02*
X181200000Y-93600000D01*
X175250000Y-94500000D02*
X174300000Y-94500000D01*
X175650000Y-95900000D02*
X174900000Y-95900000D01*
X175650000Y-97200000D02*
X174900000Y-97200000D01*
X171100000Y-103900000D02*
X171100000Y-104100000D01*
X171100000Y-103350000D02*
X171100000Y-103900000D01*
X173000000Y-104940000D02*
X173000000Y-106000000D01*
X173000000Y-104940000D02*
X172260000Y-104940000D01*
X172260000Y-104940000D02*
X172200000Y-105000000D01*
D54*
X176900000Y-115050000D02*
X176900000Y-115200000D01*
X176900000Y-114350000D02*
X176900000Y-115050000D01*
X178375000Y-112850000D02*
X178375000Y-111725000D01*
X178375000Y-111725000D02*
X178400000Y-111700000D01*
X175425000Y-112850000D02*
X175425000Y-111725000D01*
D53*
X178650000Y-97100000D02*
X178650000Y-96650000D01*
D54*
X181950000Y-100500000D02*
X181950000Y-101250000D01*
X181300000Y-115450000D02*
X180350000Y-115450000D01*
X180350000Y-115450000D02*
X180300000Y-115500000D01*
D53*
X194000000Y-114850000D02*
X194000000Y-115400000D01*
D54*
X184100000Y-110325000D02*
X184100000Y-109400000D01*
X184100000Y-110350000D02*
X184100000Y-110325000D01*
X187950000Y-109600000D02*
X188100000Y-109600000D01*
X187350000Y-109600000D02*
X187950000Y-109600000D01*
X184900000Y-115300000D02*
X186100000Y-115300000D01*
X184900000Y-115300000D02*
X184900000Y-115400000D01*
X184900000Y-114400000D02*
X184900000Y-115300000D01*
X187200000Y-114165000D02*
X187200000Y-115300000D01*
X187270000Y-113300000D02*
X187270000Y-114095000D01*
X187270000Y-114095000D02*
X187200000Y-114165000D01*
X188100000Y-112110000D02*
X188100000Y-110800000D01*
X187300000Y-111285000D02*
X187300000Y-110800000D01*
X187270000Y-112110000D02*
X187270000Y-111315000D01*
X187270000Y-111315000D02*
X187300000Y-111285000D01*
X186285000Y-113455000D02*
X187115000Y-113455000D01*
X187115000Y-113455000D02*
X187270000Y-113300000D01*
D53*
X188100000Y-113300000D02*
X188100000Y-115200000D01*
X188100000Y-115200000D02*
X188000000Y-115300000D01*
X188250000Y-115300000D02*
X188000000Y-115300000D01*
X188900000Y-115300000D02*
X188250000Y-115300000D01*
X191500000Y-113800000D02*
X191500000Y-114000000D01*
X191500000Y-113250000D02*
X191500000Y-113800000D01*
X195250000Y-85700000D02*
X195250000Y-84950000D01*
D54*
X208500000Y-96300000D02*
X209300000Y-96300000D01*
D53*
X226677500Y-110125000D02*
X227775000Y-110125000D01*
X227775000Y-110125000D02*
X227800000Y-110100000D01*
X224822500Y-110125000D02*
X223775000Y-110125000D01*
X225705000Y-110125000D02*
X224822500Y-110125000D01*
X225700000Y-110130000D02*
X225705000Y-110125000D01*
X226677500Y-110125000D02*
X225705000Y-110125000D01*
D55*
X256799240Y-112050000D02*
X255450000Y-112050000D01*
D54*
X182450000Y-102300000D02*
X181500000Y-102300000D01*
X182750000Y-93150000D02*
X182750000Y-92750000D01*
X182750000Y-93750000D02*
X182750000Y-93150000D01*
X181350000Y-105600000D02*
X181250000Y-105500000D01*
X182000000Y-105600000D02*
X181350000Y-105600000D01*
X189750000Y-87850000D02*
X189750000Y-88900000D01*
X189750000Y-88900000D02*
X189650000Y-89000000D01*
X186300000Y-104250000D02*
X187000000Y-104250000D01*
X186950000Y-102000000D02*
X187000000Y-102000000D01*
X186650000Y-102750000D02*
X186650000Y-102300000D01*
X186650000Y-102300000D02*
X186950000Y-102000000D01*
D53*
X195600000Y-102450000D02*
X195600000Y-103200000D01*
X194000000Y-102400000D02*
X194000000Y-102600000D01*
X194000000Y-101950000D02*
X194000000Y-102400000D01*
D54*
X190200000Y-89000000D02*
X190300000Y-89000000D01*
X189650000Y-89000000D02*
X190200000Y-89000000D01*
X184250000Y-88700000D02*
X183900000Y-88700000D01*
X184850000Y-88700000D02*
X184250000Y-88700000D01*
X184750000Y-90200000D02*
X184500000Y-90200000D01*
X185250000Y-90200000D02*
X184750000Y-90200000D01*
X187675000Y-100425000D02*
X187675000Y-99325000D01*
X187675000Y-99325000D02*
X187850000Y-99150000D01*
X187175000Y-100425000D02*
X187175000Y-99625000D01*
X187175000Y-99625000D02*
X186700000Y-99150000D01*
X191425000Y-97675000D02*
X190475000Y-97675000D01*
X190475000Y-97675000D02*
X190150000Y-98000000D01*
X190675000Y-94425000D02*
X190675000Y-95175000D01*
X190675000Y-95175000D02*
X190150000Y-95700000D01*
X189175000Y-94425000D02*
X189175000Y-95525000D01*
X189175000Y-95525000D02*
X189000000Y-95700000D01*
X186675000Y-94425000D02*
X186675000Y-95675000D01*
X186675000Y-95675000D02*
X186700000Y-95700000D01*
X186175000Y-94425000D02*
X186175000Y-95175000D01*
X186175000Y-95175000D02*
X186700000Y-95700000D01*
X185425000Y-95675000D02*
X186675000Y-95675000D01*
X185425000Y-96675000D02*
X186525000Y-96675000D01*
X186525000Y-96675000D02*
X186700000Y-96850000D01*
X185425000Y-97675000D02*
X186375000Y-97675000D01*
X186375000Y-97675000D02*
X186700000Y-98000000D01*
X189000000Y-98000000D02*
X190150000Y-98000000D01*
X187850000Y-98000000D02*
X189000000Y-98000000D01*
X221700000Y-94550000D02*
X221700000Y-95200000D01*
D53*
X200250000Y-100150000D02*
X200250000Y-100750000D01*
X200250000Y-100750000D02*
X200200000Y-100800000D01*
D54*
X193600000Y-90850000D02*
X193600000Y-90700000D01*
X193600000Y-91450000D02*
X193600000Y-90850000D01*
X192100000Y-91450000D02*
X192100000Y-90700000D01*
X190700000Y-91250000D02*
X190700000Y-90700000D01*
X185900000Y-91600000D02*
X185000000Y-91600000D01*
X193700000Y-94850000D02*
X193700000Y-94600000D01*
X193700000Y-95350000D02*
X193700000Y-94850000D01*
D53*
X198500000Y-94600000D02*
X199100000Y-94600000D01*
X196725000Y-87050000D02*
X197450000Y-87050000D01*
X197450000Y-87050000D02*
X197500000Y-87000000D01*
X193775000Y-87050000D02*
X193050000Y-87050000D01*
X193050000Y-87050000D02*
X193000000Y-87000000D01*
X194350000Y-90100000D02*
X193700000Y-90100000D01*
X197650000Y-97150000D02*
X198350000Y-97150000D01*
D54*
X203350000Y-98600000D02*
X203350000Y-97900000D01*
X203350000Y-97900000D02*
X203950000Y-97300000D01*
X202650000Y-97400000D02*
X203850000Y-97400000D01*
X203850000Y-97400000D02*
X203950000Y-97300000D01*
X204350000Y-98600000D02*
X204350000Y-97700000D01*
X204350000Y-97700000D02*
X203950000Y-97300000D01*
X205350000Y-98600000D02*
X205350000Y-97400000D01*
X205350000Y-97400000D02*
X205250000Y-97300000D01*
X206550000Y-97900000D02*
X205850000Y-97900000D01*
X205850000Y-97900000D02*
X205250000Y-97300000D01*
X206550000Y-95400000D02*
X205850000Y-95400000D01*
X205850000Y-95400000D02*
X205250000Y-96000000D01*
X205350000Y-94700000D02*
X205350000Y-95900000D01*
X205350000Y-95900000D02*
X205250000Y-96000000D01*
X204350000Y-94700000D02*
X204350000Y-95600000D01*
X204350000Y-95600000D02*
X203950000Y-96000000D01*
X203350000Y-94700000D02*
X203350000Y-95400000D01*
X203350000Y-95400000D02*
X203950000Y-96000000D01*
X202650000Y-96400000D02*
X203550000Y-96400000D01*
X203550000Y-96400000D02*
X203950000Y-96000000D01*
D53*
X202600000Y-110000000D02*
X203100000Y-110000000D01*
X203100000Y-110000000D02*
X203150000Y-110050000D01*
X202600000Y-111250000D02*
X203150000Y-111250000D01*
X206000000Y-108150000D02*
X206000000Y-108700000D01*
X207025000Y-110250000D02*
X206250000Y-110250000D01*
X209975000Y-110250000D02*
X210750000Y-110250000D01*
X208500000Y-111750000D02*
X208500000Y-112300000D01*
X208500000Y-112300000D02*
X208550000Y-112350000D01*
X207750000Y-114400000D02*
X207750000Y-115050000D01*
D54*
X230000000Y-97000000D02*
X230000000Y-97600000D01*
X231500000Y-96600000D02*
X231500000Y-97200000D01*
D53*
X230450000Y-104750000D02*
X229650000Y-104750000D01*
X239700000Y-91750000D02*
X239050000Y-91750000D01*
X243300000Y-91750000D02*
X243850000Y-91750000D01*
X243850000Y-91750000D02*
X243900000Y-91700000D01*
X247349760Y-93849760D02*
X247249760Y-93849760D01*
X250249760Y-93849760D02*
X250400000Y-94000000D01*
X249750000Y-94500000D02*
X250400000Y-94500000D01*
X249750000Y-93849760D02*
X250249760Y-93849760D01*
X250249760Y-93849760D02*
X250300000Y-93900000D01*
X248775350Y-94250000D02*
X248775350Y-93775350D01*
X248775350Y-93775350D02*
X248750000Y-93750000D01*
X248750000Y-93374790D02*
X248750000Y-93750000D01*
X247850080Y-93199520D02*
X248574730Y-93199520D01*
X248574730Y-93199520D02*
X248750000Y-93374790D01*
X247850080Y-93849760D02*
X248650240Y-93849760D01*
X248650240Y-93849760D02*
X248750000Y-93750000D01*
X249750000Y-94500000D02*
X249025350Y-94500000D01*
X249025350Y-94500000D02*
X248775350Y-94250000D01*
X248925590Y-93750000D02*
X248750000Y-93750000D01*
X249750000Y-93849760D02*
X249025350Y-93849760D01*
X249025350Y-93849760D02*
X248925590Y-93750000D01*
X249750000Y-94500000D02*
X250250000Y-94500000D01*
X249750000Y-93849760D02*
X250099760Y-93849760D01*
X247449520Y-93199520D02*
X247250000Y-93000000D01*
X247850080Y-93199520D02*
X247449520Y-93199520D01*
X247850080Y-93849760D02*
X247349760Y-93849760D01*
X269750000Y-97770000D02*
X266270000Y-97770000D01*
X266270000Y-97770000D02*
X266250000Y-97750000D01*
X269750000Y-88730000D02*
X266270000Y-88730000D01*
X261400000Y-88750000D02*
X262000000Y-88750000D01*
X250700000Y-101250000D02*
X251000000Y-101250000D01*
X250050000Y-101250000D02*
X250700000Y-101250000D01*
X244250000Y-102000000D02*
X244250000Y-101000000D01*
X247050000Y-101250000D02*
X247050000Y-100650000D01*
X247050000Y-100650000D02*
X247200000Y-100500000D01*
X246750000Y-99000000D02*
X246000000Y-99000000D01*
X248250000Y-98550000D02*
X248250000Y-99250000D01*
X249500000Y-98550000D02*
X249500000Y-99200000D01*
X239450000Y-99800000D02*
X238550000Y-99800000D01*
X238550000Y-99800000D02*
X238500000Y-99750000D01*
D54*
X240575000Y-95050000D02*
X241400000Y-95050000D01*
X241400000Y-95050000D02*
X241600000Y-95250000D01*
X243525000Y-95050000D02*
X242700000Y-95050000D01*
X242700000Y-95050000D02*
X242500000Y-95250000D01*
X243525000Y-94050000D02*
X242800000Y-94050000D01*
X242800000Y-94050000D02*
X242500000Y-94350000D01*
X240575000Y-94050000D02*
X241300000Y-94050000D01*
X241300000Y-94050000D02*
X241600000Y-94350000D01*
X233750000Y-96225000D02*
X233750000Y-95500000D01*
X233750000Y-95500000D02*
X234050000Y-95200000D01*
X234750000Y-96225000D02*
X234750000Y-95400000D01*
X234750000Y-95400000D02*
X234950000Y-95200000D01*
X235250000Y-96225000D02*
X235250000Y-95500000D01*
X235250000Y-95500000D02*
X234950000Y-95200000D01*
X235975000Y-95500000D02*
X235250000Y-95500000D01*
X235975000Y-95000000D02*
X235150000Y-95000000D01*
X235150000Y-95000000D02*
X234950000Y-95200000D01*
X235975000Y-94000000D02*
X235250000Y-94000000D01*
X235250000Y-94000000D02*
X234950000Y-94300000D01*
X235250000Y-93275000D02*
X235250000Y-94000000D01*
X234750000Y-93275000D02*
X234750000Y-94100000D01*
X234750000Y-94100000D02*
X234950000Y-94300000D01*
X234750000Y-93275000D02*
X234750000Y-93600000D01*
X233750000Y-93275000D02*
X233750000Y-94000000D01*
X233750000Y-94000000D02*
X234050000Y-94300000D01*
X233025000Y-94000000D02*
X233750000Y-94000000D01*
X233025000Y-95000000D02*
X233850000Y-95000000D01*
X233850000Y-95000000D02*
X234050000Y-95200000D01*
X224150000Y-94400000D02*
X224850000Y-94400000D01*
X224850000Y-94400000D02*
X225450000Y-93800000D01*
X225350000Y-95100000D02*
X225350000Y-93900000D01*
X225350000Y-93900000D02*
X225450000Y-93800000D01*
X226350000Y-95100000D02*
X226350000Y-94200000D01*
X226350000Y-94200000D02*
X226750000Y-93800000D01*
X227350000Y-95100000D02*
X227350000Y-94400000D01*
X227350000Y-94400000D02*
X226750000Y-93800000D01*
X228050000Y-93400000D02*
X227150000Y-93400000D01*
X227150000Y-93400000D02*
X226750000Y-93800000D01*
X228050000Y-92400000D02*
X226850000Y-92400000D01*
X226850000Y-92400000D02*
X226750000Y-92500000D01*
X227350000Y-91200000D02*
X227350000Y-91900000D01*
X227350000Y-91900000D02*
X226750000Y-92500000D01*
X226350000Y-91200000D02*
X226350000Y-92100000D01*
X226350000Y-92100000D02*
X226750000Y-92500000D01*
X225350000Y-91200000D02*
X225350000Y-92400000D01*
X225350000Y-92400000D02*
X225450000Y-92500000D01*
X224150000Y-91900000D02*
X224850000Y-91900000D01*
X224850000Y-91900000D02*
X225450000Y-92500000D01*
D56*
X225302000Y-93800000D02*
X225450000Y-93800000D01*
D53*
X251750000Y-102500000D02*
X251750000Y-101750000D01*
X250000000Y-104250000D02*
X250000000Y-105000000D01*
X248100000Y-103640000D02*
X248890000Y-103640000D01*
X248890000Y-103640000D02*
X249000000Y-103750000D01*
X251750000Y-106650000D02*
X251750000Y-107500000D01*
X251750000Y-106600000D02*
X251750000Y-106650000D01*
X253000000Y-106600000D02*
X253000000Y-107500000D01*
X253450000Y-109250000D02*
X252500000Y-109250000D01*
X260000000Y-106850000D02*
X260000000Y-107750000D01*
X261500000Y-107050000D02*
X261500000Y-108000000D01*
X254450000Y-99750000D02*
X253500000Y-99750000D01*
X254400000Y-100750000D02*
X253500000Y-100750000D01*
X262250000Y-102350000D02*
X262250000Y-101750000D01*
X260000000Y-101550000D02*
X260000000Y-101000000D01*
X258200000Y-98500000D02*
X258750000Y-98500000D01*
X253800000Y-97500000D02*
X254450000Y-97500000D01*
X253750000Y-96250000D02*
X254500000Y-96250000D01*
X258200000Y-95500000D02*
X258750000Y-95500000D01*
X216250000Y-112677500D02*
X216250000Y-113500000D01*
X216250000Y-111750000D02*
X216250000Y-112677500D01*
X216250000Y-110822500D02*
X216250000Y-111750000D01*
X216250000Y-108250000D02*
X216250000Y-109177500D01*
X216250000Y-107322500D02*
X216250000Y-108250000D01*
X216250000Y-104750000D02*
X216250000Y-105677500D01*
X216250000Y-103822500D02*
X216250000Y-104750000D01*
X216250000Y-101250000D02*
X216250000Y-102177500D01*
X216250000Y-100322500D02*
X216250000Y-101250000D01*
X216250000Y-97750000D02*
X216250000Y-98677500D01*
X216250000Y-96822500D02*
X216250000Y-97750000D01*
X216250000Y-89250000D02*
X216250000Y-90072500D01*
X216250000Y-88427500D02*
X216250000Y-89250000D01*
X216250000Y-87500000D02*
X216250000Y-88427500D01*
X216250000Y-86572500D02*
X216250000Y-87500000D01*
X216250000Y-91000000D02*
X216250000Y-90072500D01*
X216250000Y-91927500D02*
X216250000Y-91000000D01*
X216250000Y-92750000D02*
X216250000Y-91927500D01*
X216250000Y-93572500D02*
X216250000Y-92750000D01*
X216250000Y-94500000D02*
X216250000Y-93572500D01*
X216250000Y-95427500D02*
X216250000Y-94500000D01*
X216250000Y-96250000D02*
X216250000Y-95427500D01*
X216250000Y-96822500D02*
X216250000Y-96250000D01*
X216250000Y-99500000D02*
X216250000Y-98677500D01*
X216250000Y-100322500D02*
X216250000Y-99500000D01*
X216250000Y-103822500D02*
X216250000Y-103000000D01*
X216250000Y-102177500D02*
X216250000Y-103000000D01*
X216250000Y-106500000D02*
X216250000Y-105677500D01*
X216250000Y-107322500D02*
X216250000Y-106500000D01*
X216250000Y-110000000D02*
X216250000Y-109177500D01*
X216250000Y-110822500D02*
X216250000Y-110000000D01*
X258500000Y-105975000D02*
X257475000Y-105975000D01*
X257475000Y-105975000D02*
X257125000Y-105625000D01*
X254500000Y-105975000D02*
X255525000Y-105975000D01*
X255525000Y-105975000D02*
X255875000Y-105625000D01*
D54*
X184475000Y-98675000D02*
X183800000Y-98000000D01*
X183800000Y-98000000D02*
X183050000Y-98000000D01*
X185425000Y-98675000D02*
X184475000Y-98675000D01*
X181950000Y-98000000D02*
X180700000Y-98000000D01*
X180700000Y-99250000D02*
X181950000Y-99250000D01*
X185425000Y-99175000D02*
X183125000Y-99175000D01*
X183125000Y-99175000D02*
X183050000Y-99250000D01*
X184000000Y-95250000D02*
X184925000Y-96175000D01*
X184925000Y-96175000D02*
X185425000Y-96175000D01*
X182750000Y-95250000D02*
X184000000Y-95250000D01*
X183550000Y-100500000D02*
X184375000Y-99675000D01*
X184375000Y-99675000D02*
X185425000Y-99675000D01*
X183050000Y-100500000D02*
X183550000Y-100500000D01*
X183100000Y-100500000D02*
X183050000Y-100500000D01*
X185300000Y-105600000D02*
X185300000Y-106900000D01*
X185300000Y-106900000D02*
X185200000Y-107000000D01*
X185200000Y-104250000D02*
X185200000Y-105500000D01*
X185200000Y-105500000D02*
X185300000Y-105600000D01*
X185250000Y-102250000D02*
X185200000Y-102300000D01*
X185200000Y-102300000D02*
X185200000Y-104250000D01*
X185250000Y-102000000D02*
X185250000Y-102250000D01*
X185500000Y-101750000D02*
X185250000Y-102000000D01*
X186000000Y-101750000D02*
X185500000Y-101750000D01*
X186675000Y-101075000D02*
X186000000Y-101750000D01*
X186675000Y-100425000D02*
X186675000Y-101075000D01*
X184200000Y-105600000D02*
X182900000Y-105600000D01*
X186500000Y-92700000D02*
X187175000Y-93375000D01*
X187175000Y-93375000D02*
X187175000Y-94425000D01*
X185900000Y-92700000D02*
X186500000Y-92700000D01*
X187800000Y-91950000D02*
X187800000Y-92550000D01*
X187800000Y-92550000D02*
X188175000Y-92925000D01*
X188175000Y-92925000D02*
X188175000Y-93975000D01*
X188175000Y-93975000D02*
X188175000Y-94425000D01*
X189675000Y-93375000D02*
X189300000Y-93000000D01*
X189300000Y-93000000D02*
X189300000Y-91950000D01*
X189675000Y-94425000D02*
X189675000Y-93375000D01*
X183400000Y-107000000D02*
X183000000Y-106600000D01*
X183500000Y-107000000D02*
X183400000Y-107000000D01*
X187500000Y-87000000D02*
X187650000Y-86850000D01*
X187650000Y-86850000D02*
X188500000Y-86850000D01*
X187500000Y-89250000D02*
X187500000Y-87000000D01*
X183900000Y-107000000D02*
X183500000Y-107000000D01*
X184300000Y-107000000D02*
X183900000Y-107000000D01*
X188500000Y-86850000D02*
X189650000Y-86850000D01*
X189650000Y-86850000D02*
X189750000Y-86750000D01*
X188500000Y-86450000D02*
X188500000Y-86000000D01*
X188500000Y-86850000D02*
X188500000Y-86450000D01*
X188550000Y-89000000D02*
X188550000Y-87800000D01*
X188550000Y-87800000D02*
X188500000Y-87750000D01*
X188550000Y-92550000D02*
X188675000Y-92675000D01*
X188550000Y-89000000D02*
X188550000Y-92550000D01*
X188675000Y-94425000D02*
X188675000Y-92675000D01*
X192100000Y-92950000D02*
X192100000Y-93550000D01*
X192100000Y-93550000D02*
X192500000Y-93950000D01*
X192500000Y-95050000D02*
X191875000Y-95675000D01*
X192500000Y-93950000D02*
X192500000Y-95050000D01*
X191875000Y-95675000D02*
X191425000Y-95675000D01*
X192900000Y-95800000D02*
X192900000Y-94250000D01*
X192900000Y-94250000D02*
X193600000Y-93550000D01*
X193600000Y-93550000D02*
X193600000Y-92950000D01*
X192052001Y-96647999D02*
X192900000Y-95800000D01*
X191875000Y-96675000D02*
X191902001Y-96647999D01*
X191902001Y-96647999D02*
X192052001Y-96647999D01*
X191425000Y-96675000D02*
X191875000Y-96675000D01*
D53*
X203800000Y-107250000D02*
X202550000Y-107250000D01*
X195250000Y-92550000D02*
X196250000Y-92550000D01*
X195250000Y-92550000D02*
X195250000Y-94600000D01*
X195250000Y-94600000D02*
X195300000Y-94650000D01*
X194300000Y-98600000D02*
X195300000Y-97600000D01*
X195300000Y-97600000D02*
X195300000Y-94650000D01*
X192200000Y-98600000D02*
X194300000Y-98600000D01*
D54*
X191950000Y-98600000D02*
X192200000Y-98600000D01*
X191425000Y-98675000D02*
X191875000Y-98675000D01*
X191875000Y-98675000D02*
X191950000Y-98600000D01*
D53*
X204100000Y-113500000D02*
X205550000Y-113500000D01*
X192000000Y-99200000D02*
X192050000Y-99250000D01*
X192050000Y-99250000D02*
X196600000Y-99250000D01*
D54*
X191900000Y-99200000D02*
X192000000Y-99200000D01*
X191425000Y-99175000D02*
X191875000Y-99175000D01*
X191875000Y-99175000D02*
X191900000Y-99200000D01*
D53*
X196600000Y-99250000D02*
X197800000Y-99250000D01*
X197800000Y-99250000D02*
X197850000Y-99300000D01*
X195250000Y-88550000D02*
X195250000Y-90100000D01*
X195250000Y-91450000D02*
X195250000Y-89800000D01*
X196250000Y-91450000D02*
X195250000Y-91450000D01*
X190400000Y-101300000D02*
X196400000Y-107300000D01*
X196400000Y-107300000D02*
X200000000Y-107300000D01*
D54*
X190175000Y-101075000D02*
X190400000Y-101300000D01*
X190175000Y-100425000D02*
X190175000Y-101075000D01*
D53*
X201450000Y-107250000D02*
X200050000Y-107250000D01*
X200050000Y-107250000D02*
X200000000Y-107300000D01*
X200250000Y-99250000D02*
X199000000Y-99250000D01*
X199000000Y-99250000D02*
X198950000Y-99300000D01*
X200250000Y-98050000D02*
X200250000Y-99250000D01*
X201500000Y-113450000D02*
X200950000Y-113450000D01*
X189700000Y-102200000D02*
X189700000Y-101300000D01*
X200950000Y-113450000D02*
X189700000Y-102200000D01*
D54*
X189700000Y-100900000D02*
X189700000Y-101300000D01*
X189675000Y-100425000D02*
X189675000Y-100875000D01*
X189675000Y-100875000D02*
X189700000Y-100900000D01*
D53*
X201500000Y-113450000D02*
X202950000Y-113450000D01*
X202950000Y-113450000D02*
X203000000Y-113500000D01*
X202025000Y-96900000D02*
X201975000Y-96950000D01*
X201975000Y-96950000D02*
X200250000Y-96950000D01*
D54*
X202650000Y-96900000D02*
X202025000Y-96900000D01*
X224150000Y-92400000D02*
X223000000Y-92400000D01*
X223000000Y-92400000D02*
X222700000Y-92400000D01*
X223000000Y-91800000D02*
X223000000Y-92400000D01*
D53*
X191500000Y-111750000D02*
X191500000Y-110900000D01*
X191500000Y-111750000D02*
X189950000Y-111750000D01*
X189950000Y-111750000D02*
X189900000Y-111800000D01*
D54*
X189790000Y-111800000D02*
X189900000Y-111800000D01*
X189085000Y-111955000D02*
X189635000Y-111955000D01*
X189635000Y-111955000D02*
X189790000Y-111800000D01*
X208500000Y-97400000D02*
X208927003Y-97400000D01*
X208927003Y-97400000D02*
X209300000Y-97027003D01*
X208000000Y-97500000D02*
X208000000Y-97450000D01*
X208000000Y-97450000D02*
X208050000Y-97400000D01*
X208050000Y-97400000D02*
X208500000Y-97400000D01*
X207800000Y-97700000D02*
X208000000Y-97500000D01*
X207300000Y-97700000D02*
X207800000Y-97700000D01*
X207000000Y-97400000D02*
X207300000Y-97700000D01*
X206550000Y-97400000D02*
X207000000Y-97400000D01*
D55*
X256799240Y-113950000D02*
X255450000Y-113950000D01*
D54*
X222700000Y-92400000D02*
X222100000Y-92400000D01*
X222100000Y-92400000D02*
X221700000Y-92800000D01*
X221700000Y-92800000D02*
X221700000Y-93450000D01*
X230000000Y-94900000D02*
X230000000Y-94700000D01*
X230000000Y-95500000D02*
X230000000Y-94900000D01*
X231500000Y-95500000D02*
X233025000Y-95500000D01*
X230000000Y-95500000D02*
X231500000Y-95500000D01*
D53*
X257500700Y-88750000D02*
X256250000Y-88750000D01*
X246750000Y-97500000D02*
X246000000Y-97500000D01*
X249000000Y-100600000D02*
X248950000Y-100650000D01*
X248950000Y-101250000D02*
X248950000Y-100650000D01*
X248950000Y-101250000D02*
X248300000Y-101250000D01*
X248100000Y-101450000D02*
X248100000Y-102690000D01*
X248300000Y-101250000D02*
X248100000Y-101450000D01*
X251750000Y-104000000D02*
X253000000Y-104000000D01*
X261500000Y-105950000D02*
X262200000Y-105950000D01*
X245950000Y-101250000D02*
X245950000Y-102640000D01*
X245950000Y-102640000D02*
X245900000Y-102690000D01*
X245900000Y-102690000D02*
X248100000Y-102690000D01*
X250000000Y-102750000D02*
X248160000Y-102750000D01*
X248160000Y-102750000D02*
X248100000Y-102690000D01*
X248250000Y-97450000D02*
X246800000Y-97450000D01*
X249500000Y-97450000D02*
X248250000Y-97450000D01*
X249500000Y-97450000D02*
X250100000Y-97450000D01*
X250100000Y-97450000D02*
X250250000Y-97600000D01*
X250250000Y-97600000D02*
X250250000Y-98050000D01*
X250250000Y-98050000D02*
X250600000Y-98400000D01*
X250600000Y-98400000D02*
X251250000Y-98400000D01*
X260850000Y-106000000D02*
X260900000Y-105950000D01*
X260900000Y-105950000D02*
X261500000Y-105950000D01*
X260000000Y-105750000D02*
X260600000Y-105750000D01*
X260600000Y-105750000D02*
X260850000Y-106000000D01*
X259500000Y-105575000D02*
X259825000Y-105575000D01*
X259825000Y-105575000D02*
X260000000Y-105750000D01*
X258500000Y-105325000D02*
X259250000Y-105325000D01*
X259250000Y-105325000D02*
X259500000Y-105575000D01*
X251750000Y-104000000D02*
X251750000Y-105500000D01*
X253000000Y-105500000D02*
X251750000Y-105500000D01*
X254500000Y-105325000D02*
X253175000Y-105325000D01*
X253175000Y-105325000D02*
X253000000Y-105500000D01*
X213050000Y-108250000D02*
X214625000Y-108250000D01*
X202650000Y-97900000D02*
X202350000Y-97900000D01*
X202350000Y-97900000D02*
X202000000Y-98250000D01*
X202000000Y-98250000D02*
X202000000Y-99000000D01*
X211950000Y-106700000D02*
X211950000Y-108250000D01*
X202000000Y-99000000D02*
X208650000Y-105650000D01*
X208650000Y-105650000D02*
X210900000Y-105650000D01*
X210900000Y-105650000D02*
X211950000Y-106700000D01*
X213050000Y-104750000D02*
X214625000Y-104750000D01*
X203850000Y-98600000D02*
X203850000Y-99375000D01*
X203850000Y-99375000D02*
X207225000Y-102750000D01*
X207225000Y-102750000D02*
X211250000Y-102750000D01*
X211250000Y-102750000D02*
X211950000Y-103450000D01*
X211950000Y-103450000D02*
X211950000Y-104750000D01*
X212250000Y-101250000D02*
X214625000Y-101250000D01*
X204850000Y-98600000D02*
X204850000Y-99218602D01*
X204850000Y-99218602D02*
X206881398Y-101250000D01*
X206881398Y-101250000D02*
X210500000Y-101250000D01*
X210500000Y-101250000D02*
X211150000Y-101250000D01*
X212550000Y-97750000D02*
X214625000Y-97750000D01*
X205850000Y-98600000D02*
X205850000Y-98850000D01*
X205850000Y-98850000D02*
X206000000Y-99000000D01*
X206000000Y-99000000D02*
X209400000Y-99000000D01*
X209400000Y-99000000D02*
X210650000Y-97750000D01*
X210650000Y-97750000D02*
X211450000Y-97750000D01*
X212550000Y-94500000D02*
X214625000Y-94500000D01*
X205850000Y-94700000D02*
X206350000Y-94700000D01*
X206350000Y-94700000D02*
X206550000Y-94500000D01*
X206550000Y-94500000D02*
X207250000Y-94500000D01*
X211450000Y-94500000D02*
X207250000Y-94500000D01*
X212300000Y-91000000D02*
X214625000Y-91000000D01*
X204850000Y-92900000D02*
X204850000Y-94150000D01*
X204850000Y-94150000D02*
X204850000Y-94700000D01*
X206750000Y-91000000D02*
X204850000Y-92900000D01*
X211200000Y-91000000D02*
X206750000Y-91000000D01*
X211750000Y-87500000D02*
X214625000Y-87500000D01*
X203850000Y-92400000D02*
X203850000Y-94150000D01*
X203850000Y-94150000D02*
X203850000Y-94700000D01*
X208750000Y-87500000D02*
X203850000Y-92400000D01*
X210650000Y-87500000D02*
X208750000Y-87500000D01*
X228050000Y-91900000D02*
X228050000Y-89150000D01*
X228050000Y-89150000D02*
X228000000Y-89100000D01*
X202650000Y-95400000D02*
X201875000Y-95400000D01*
X201875000Y-95400000D02*
X201500000Y-95025000D01*
X227400000Y-88000000D02*
X228000000Y-88000000D01*
X201500000Y-95025000D02*
X201500000Y-91750000D01*
X201500000Y-91750000D02*
X208000000Y-85250000D01*
X224650000Y-85250000D02*
X227400000Y-88000000D01*
X208000000Y-85250000D02*
X224650000Y-85250000D01*
X221050000Y-108250000D02*
X222500000Y-108250000D01*
X224500000Y-106250000D02*
X222500000Y-108250000D01*
X224500000Y-101750000D02*
X224500000Y-106250000D01*
X228050000Y-98200000D02*
X224500000Y-101750000D01*
X228050000Y-94400000D02*
X228050000Y-98200000D01*
X221050000Y-108250000D02*
X221100000Y-108250000D01*
X219950000Y-108250000D02*
X217875000Y-108250000D01*
X222250000Y-104750000D02*
X221000000Y-104750000D01*
X223750000Y-101250000D02*
X226850000Y-98150000D01*
X226850000Y-98150000D02*
X226850000Y-95100000D01*
X223750000Y-103250000D02*
X223750000Y-101250000D01*
X222250000Y-104750000D02*
X223750000Y-103250000D01*
X221000000Y-104750000D02*
X221050000Y-104750000D01*
X217875000Y-104750000D02*
X219900000Y-104750000D01*
X222750000Y-101250000D02*
X221250000Y-101250000D01*
X225850000Y-98150000D02*
X222750000Y-101250000D01*
X225850000Y-95100000D02*
X225850000Y-98150000D01*
X217875000Y-101250000D02*
X220150000Y-101250000D01*
X223000000Y-98000000D02*
X221300000Y-98000000D01*
X223000000Y-98000000D02*
X224850000Y-96150000D01*
X224850000Y-96150000D02*
X224850000Y-95100000D01*
X220200000Y-98000000D02*
X218125000Y-98000000D01*
X218125000Y-98000000D02*
X217875000Y-97750000D01*
X220250000Y-93450000D02*
X220250000Y-92800000D01*
X223050000Y-90000000D02*
X224250000Y-90000000D01*
X220250000Y-92800000D02*
X223050000Y-90000000D01*
X224250000Y-90000000D02*
X224897999Y-90647999D01*
X224897999Y-90647999D02*
X224897999Y-91152001D01*
X224897999Y-91152001D02*
X224850000Y-91200000D01*
X217875000Y-94500000D02*
X220200000Y-94500000D01*
X220200000Y-94500000D02*
X220250000Y-94550000D01*
X224750000Y-89250000D02*
X225850000Y-90350000D01*
X225850000Y-90350000D02*
X225850000Y-91200000D01*
X221550000Y-89250000D02*
X224750000Y-89250000D01*
X220250000Y-89950000D02*
X220850000Y-89950000D01*
X220850000Y-89950000D02*
X221550000Y-89250000D01*
X220250000Y-91050000D02*
X217925000Y-91050000D01*
X217925000Y-91050000D02*
X217875000Y-91000000D01*
X225750000Y-87500000D02*
X220800000Y-87500000D01*
X225750000Y-87500000D02*
X226850000Y-88600000D01*
X226850000Y-88600000D02*
X226850000Y-91200000D01*
X219700000Y-87500000D02*
X217875000Y-87500000D01*
X234250000Y-93275000D02*
X234250000Y-91800000D01*
X234250000Y-91800000D02*
X234300000Y-91750000D01*
X244250000Y-103500000D02*
X243500000Y-103500000D01*
X242350000Y-91000000D02*
X244500001Y-91000001D01*
X244500001Y-91000001D02*
X244800000Y-91300000D01*
X242200000Y-91750000D02*
X242200000Y-91150000D01*
X242200000Y-91150000D02*
X242350000Y-91000000D01*
D54*
X241800000Y-93325000D02*
X241800000Y-92750000D01*
X241800000Y-92750000D02*
X242200000Y-92350000D01*
X242200000Y-92350000D02*
X242200000Y-91750000D01*
D53*
X240800000Y-91750000D02*
X242200000Y-91750000D01*
X244250000Y-103500000D02*
X244250000Y-103475000D01*
X242250000Y-106550000D02*
X242900000Y-106550000D01*
X242900000Y-106550000D02*
X244250000Y-105200000D01*
X244250000Y-105200000D02*
X244250000Y-104250000D01*
X244250000Y-104250000D02*
X244250000Y-103500000D01*
X239750000Y-106550000D02*
X242250000Y-106550000D01*
X237250000Y-106550000D02*
X239750000Y-106550000D01*
X234750000Y-106550000D02*
X237250000Y-106550000D01*
X232250000Y-106550000D02*
X234750000Y-106550000D01*
X232250000Y-104700000D02*
X232250000Y-106550000D01*
X229750000Y-106500000D02*
X232200000Y-106500000D01*
X232200000Y-106500000D02*
X232250000Y-106550000D01*
X233550000Y-103700000D02*
X232475000Y-103700000D01*
X232250000Y-103925000D02*
X232250000Y-104700000D01*
X232475000Y-103700000D02*
X232250000Y-103925000D01*
X232250000Y-104700000D02*
X232200000Y-104750000D01*
X232200000Y-104750000D02*
X231550000Y-104750000D01*
X245900000Y-103640000D02*
X244390000Y-103640000D01*
X244390000Y-103640000D02*
X244250000Y-103500000D01*
X248100000Y-104900000D02*
X247750000Y-105250000D01*
X247750000Y-105250000D02*
X247750000Y-106000000D01*
X248100000Y-104590000D02*
X248100000Y-104900000D01*
X245900000Y-105900000D02*
X246000000Y-106000000D01*
X246000000Y-106000000D02*
X246650000Y-106000000D01*
X245900000Y-104590000D02*
X245900000Y-105900000D01*
X240575000Y-94550000D02*
X238850000Y-94550000D01*
X238850000Y-94550000D02*
X238800000Y-94500000D01*
X235975000Y-94500000D02*
X237700000Y-94500000D01*
X247850080Y-94500000D02*
X246300000Y-94500000D01*
X244200000Y-94550000D02*
X244250000Y-94500000D01*
X244250000Y-94500000D02*
X245200000Y-94500000D01*
X243525000Y-94550000D02*
X244200000Y-94550000D01*
X245200000Y-94500000D02*
X245150000Y-94550000D01*
D56*
X243575000Y-94500000D02*
X243525000Y-94550000D01*
D53*
X252650000Y-96250000D02*
X252650000Y-97450000D01*
X252650000Y-97450000D02*
X252700000Y-97500000D01*
X251250000Y-97500000D02*
X251250000Y-96200000D01*
X251250000Y-96200000D02*
X252600000Y-96200000D01*
X252600000Y-96200000D02*
X252650000Y-96250000D01*
X253800000Y-93250000D02*
X255050000Y-93250000D01*
X251250000Y-93250000D02*
X252700000Y-93250000D01*
X249949960Y-93199520D02*
X251199520Y-93199520D01*
X251199520Y-93199520D02*
X251250000Y-93250000D01*
X252600000Y-93150000D02*
X252700000Y-93250000D01*
X225750000Y-108500000D02*
X225750000Y-106750000D01*
D54*
X234250000Y-96225000D02*
X234250000Y-96950000D01*
D53*
X225750000Y-105650000D02*
X225750000Y-102000000D01*
X225750000Y-102000000D02*
X228750000Y-99000000D01*
X228750000Y-99000000D02*
X232200000Y-99000000D01*
X232200000Y-99000000D02*
X234250000Y-96950000D01*
X255550000Y-99750000D02*
X255550000Y-100700000D01*
X255550000Y-100700000D02*
X255500000Y-100750000D01*
X255500000Y-101575000D02*
X255500000Y-100750000D01*
X256175000Y-103000000D02*
X256175000Y-102250000D01*
X256175000Y-102250000D02*
X255500000Y-101575000D01*
X254550000Y-109250000D02*
X254550000Y-108650000D01*
X254550000Y-108650000D02*
X255200000Y-108000000D01*
X255200000Y-108000000D02*
X255275000Y-108000000D01*
X255275000Y-108000000D02*
X255525000Y-107750000D01*
X255525000Y-107750000D02*
X255525000Y-107000000D01*
X256750000Y-100800000D02*
X257500000Y-100800000D01*
X256825000Y-101325000D02*
X256750000Y-101250000D01*
X256750000Y-101250000D02*
X256750000Y-100800000D01*
X256825000Y-103000000D02*
X256825000Y-101325000D01*
X257300000Y-98500000D02*
X257300000Y-97500000D01*
X257300000Y-97500000D02*
X257250000Y-97450000D01*
X256750000Y-99700000D02*
X257250000Y-99700000D01*
X257250000Y-99700000D02*
X257500000Y-99700000D01*
X257300000Y-98500000D02*
X257300000Y-99650000D01*
X257300000Y-99650000D02*
X257250000Y-99700000D01*
X221050000Y-111750000D02*
X221100000Y-111750000D01*
X221100000Y-111750000D02*
X225750000Y-111750000D01*
X219950000Y-111750000D02*
X217875000Y-111750000D01*
X176750000Y-94500000D02*
X178350000Y-94500000D01*
X178350000Y-94500000D02*
X178400000Y-94450000D01*
X176750000Y-95900000D02*
X176750000Y-94500000D01*
X176750000Y-97200000D02*
X176750000Y-95900000D01*
X176700000Y-99860000D02*
X176700000Y-97250000D01*
X176700000Y-97250000D02*
X176750000Y-97200000D01*
D54*
X189750000Y-106050000D02*
X190250000Y-106050000D01*
X190250000Y-106050000D02*
X190400000Y-106200000D01*
X190400000Y-106200000D02*
X190400000Y-108800000D01*
X190400000Y-108800000D02*
X192350700Y-110750700D01*
X192350700Y-110750700D02*
X194000000Y-110750700D01*
X189750000Y-106050000D02*
X189750000Y-104500000D01*
X190800000Y-101000000D02*
X191500000Y-101000000D01*
X190675000Y-100425000D02*
X190675000Y-100875000D01*
X190675000Y-100875000D02*
X190800000Y-101000000D01*
D53*
X194000000Y-113950000D02*
X194000000Y-112249300D01*
D54*
X229600000Y-113190000D02*
X229600000Y-114000000D01*
X229750000Y-112385000D02*
X229750000Y-113040000D01*
X229750000Y-113040000D02*
X229600000Y-113190000D01*
D53*
X233550000Y-99800000D02*
X235500000Y-99800000D01*
X235500000Y-99800000D02*
X235900000Y-100200000D01*
X229750000Y-107400000D02*
X228900000Y-107400000D01*
X229750000Y-107400000D02*
X229750000Y-109115000D01*
D54*
X232200000Y-114000000D02*
X232200000Y-112435000D01*
X232200000Y-112435000D02*
X232250000Y-112385000D01*
D53*
X233550000Y-101100000D02*
X235650000Y-101100000D01*
X232250000Y-107450000D02*
X231300000Y-107450000D01*
X232250000Y-107450000D02*
X232250000Y-109115000D01*
D54*
X234600000Y-113190000D02*
X234600000Y-113800000D01*
X234750000Y-112385000D02*
X234750000Y-113040000D01*
X234750000Y-113040000D02*
X234600000Y-113190000D01*
D53*
X236150000Y-102400000D02*
X236250000Y-102500000D01*
X236250000Y-102500000D02*
X236252010Y-102500000D01*
X233550000Y-102400000D02*
X236150000Y-102400000D01*
X234750000Y-107450000D02*
X233800000Y-107450000D01*
X234750000Y-107450000D02*
X234750000Y-109115000D01*
D54*
X242200000Y-113800000D02*
X242200000Y-112435000D01*
X242200000Y-112435000D02*
X242250000Y-112385000D01*
D53*
X238900000Y-100500000D02*
X238000000Y-100500000D01*
X239450000Y-100450000D02*
X238950000Y-100450000D01*
X238950000Y-100450000D02*
X238900000Y-100500000D01*
X242250000Y-107450000D02*
X241050000Y-107450000D01*
X242250000Y-107450000D02*
X242250000Y-109115000D01*
D54*
X239800000Y-113600000D02*
X239800000Y-112435000D01*
X239800000Y-112435000D02*
X239750000Y-112385000D01*
D53*
X237250000Y-101750000D02*
X239450000Y-101750000D01*
X239750000Y-107450000D02*
X238800000Y-107450000D01*
X239750000Y-107450000D02*
X239750000Y-109115000D01*
D54*
X237200000Y-113800000D02*
X237200000Y-112435000D01*
X237200000Y-112435000D02*
X237250000Y-112385000D01*
D53*
X236250000Y-105000000D02*
X238200000Y-103050000D01*
X238200000Y-103050000D02*
X239450000Y-103050000D01*
X237250000Y-107450000D02*
X236300000Y-107450000D01*
X237250000Y-107450000D02*
X237250000Y-109115000D01*
X188000000Y-103400000D02*
X187750000Y-103150000D01*
X187750000Y-103150000D02*
X187750000Y-102750000D01*
X178400000Y-92950000D02*
X177350000Y-92950000D01*
X173650000Y-107500000D02*
X173650000Y-108350000D01*
X173650000Y-108350000D02*
X173600000Y-108400000D01*
X173250000Y-96250000D02*
X173200000Y-96200000D01*
X173200000Y-96200000D02*
X173100000Y-96200000D01*
X173800000Y-96250000D02*
X173250000Y-96250000D01*
X181250000Y-95350000D02*
X180600000Y-95350000D01*
X184750000Y-97950000D02*
X183400000Y-96600000D01*
X183400000Y-96600000D02*
X181700000Y-96600000D01*
X181700000Y-96600000D02*
X181250000Y-96150000D01*
X181250000Y-96150000D02*
X181250000Y-95350000D01*
D54*
X184750000Y-97950000D02*
X184650000Y-97950000D01*
X185425000Y-98175000D02*
X184975000Y-98175000D01*
X184975000Y-98175000D02*
X184750000Y-97950000D01*
D53*
X182201400Y-111501400D02*
X182550000Y-111850000D01*
X182550000Y-111850000D02*
X183150000Y-111850000D01*
X181300000Y-111501400D02*
X182201400Y-111501400D01*
D54*
X185455000Y-112455000D02*
X184850000Y-111850000D01*
X184850000Y-111850000D02*
X184100000Y-111850000D01*
X186285000Y-112455000D02*
X185455000Y-112455000D01*
D53*
X184100000Y-111850000D02*
X183150000Y-111850000D01*
D54*
X183325000Y-104500000D02*
X183250000Y-104500000D01*
X183500000Y-103750000D02*
X183500000Y-104325000D01*
X183500000Y-104325000D02*
X183325000Y-104500000D01*
X188175000Y-100425000D02*
X188175000Y-100875000D01*
X188175000Y-100875000D02*
X187750000Y-101300000D01*
X187750000Y-101300000D02*
X187750000Y-102750000D01*
X183550000Y-102300000D02*
X183550000Y-103700000D01*
X183550000Y-103700000D02*
X183500000Y-103750000D01*
X184000000Y-101250000D02*
X183550000Y-101700000D01*
X183550000Y-101700000D02*
X183550000Y-102300000D01*
X185800000Y-101250000D02*
X184000000Y-101250000D01*
X186175000Y-100425000D02*
X186175000Y-100875000D01*
X186175000Y-100875000D02*
X185800000Y-101250000D01*
D53*
X195600000Y-100950000D02*
X196550000Y-100950000D01*
X196550000Y-100950000D02*
X196600000Y-101000000D01*
X194000000Y-100850000D02*
X195500000Y-100850000D01*
X195500000Y-100850000D02*
X195600000Y-100950000D01*
D54*
X191425000Y-99675000D02*
X191875000Y-99675000D01*
X191875000Y-99675000D02*
X193050000Y-100850000D01*
X193050000Y-100850000D02*
X194000000Y-100850000D01*
X186400000Y-88075000D02*
X186400000Y-87800000D01*
X186350000Y-88700000D02*
X186350000Y-88125000D01*
X186350000Y-88125000D02*
X186400000Y-88075000D01*
X186350000Y-89550000D02*
X186350000Y-88700000D01*
X183800000Y-91550000D02*
X183800000Y-90900000D01*
X186350000Y-90200000D02*
X186350000Y-89550000D01*
X186900000Y-92600000D02*
X187675000Y-93375000D01*
X187675000Y-93375000D02*
X187675000Y-94425000D01*
X186900000Y-91200000D02*
X186900000Y-92600000D01*
X186350000Y-90200000D02*
X186350000Y-90650000D01*
X186350000Y-90650000D02*
X186900000Y-91200000D01*
X193200000Y-96500000D02*
X193000000Y-96500000D01*
X193700000Y-96450000D02*
X193250000Y-96450000D01*
X193250000Y-96450000D02*
X193200000Y-96500000D01*
X193500000Y-97200000D02*
X193700000Y-97000000D01*
X193700000Y-97000000D02*
X193700000Y-96700000D01*
X191900000Y-97200000D02*
X193500000Y-97200000D01*
X191425000Y-97175000D02*
X191875000Y-97175000D01*
X191875000Y-97175000D02*
X191900000Y-97200000D01*
D53*
X197400000Y-94600000D02*
X197400000Y-95200000D01*
X197400000Y-95200000D02*
X197050000Y-95550000D01*
X197050000Y-95550000D02*
X196550000Y-95550000D01*
X196250000Y-94600000D02*
X196200000Y-94650000D01*
X196550000Y-97150000D02*
X196550000Y-95550000D01*
X196550000Y-95550000D02*
X196200000Y-95200000D01*
X196200000Y-95200000D02*
X196200000Y-95000000D01*
X196200000Y-95000000D02*
X196200000Y-94650000D01*
X196550000Y-97150000D02*
X196550000Y-98300000D01*
X196550000Y-98300000D02*
X196600000Y-98350000D01*
X201500000Y-111250000D02*
X200750000Y-111250000D01*
X201500000Y-110000000D02*
X201500000Y-111250000D01*
X200000000Y-109250000D02*
X200750000Y-110000000D01*
X200750000Y-110000000D02*
X201500000Y-110000000D01*
X200000000Y-108200000D02*
X200000000Y-109250000D01*
X201500000Y-111250000D02*
X201500000Y-112550000D01*
X181300000Y-114550000D02*
X181300000Y-113000000D01*
X260500000Y-88750000D02*
X258999300Y-88750000D01*
X209950000Y-113500000D02*
X211250000Y-113500000D01*
X211250000Y-113500000D02*
X213000000Y-111750000D01*
X213000000Y-111750000D02*
X214625000Y-111750000D01*
X251250000Y-94150000D02*
X251250000Y-95300000D01*
X179600000Y-105250000D02*
X179600000Y-105800000D01*
X179600000Y-105800000D02*
X176900000Y-108500000D01*
X176900000Y-108500000D02*
X176900000Y-109800000D01*
X176900000Y-109800000D02*
X176900000Y-111350000D01*
X179600000Y-103800000D02*
X179600000Y-104350000D01*
X179600000Y-102400000D02*
X179600000Y-103800000D01*
X180050000Y-101950000D02*
X179600000Y-102400000D01*
X180400000Y-101950000D02*
X180050000Y-101950000D01*
X180400000Y-101950000D02*
X180400000Y-101500000D01*
X180700000Y-101200000D02*
X180700000Y-100550000D01*
X180400000Y-101500000D02*
X180700000Y-101200000D01*
D54*
X179900000Y-99900000D02*
X179800000Y-99800000D01*
X179800000Y-99800000D02*
X179800000Y-99250000D01*
X180550000Y-99900000D02*
X179900000Y-99900000D01*
X180700000Y-100550000D02*
X180700000Y-100050000D01*
X180700000Y-100050000D02*
X180550000Y-99900000D01*
D53*
X179800000Y-100550000D02*
X179800000Y-101200000D01*
X177997999Y-103202001D02*
X177997999Y-104492001D01*
X177997999Y-104492001D02*
X177550000Y-104940000D01*
X179800000Y-101200000D02*
X179400000Y-101600000D01*
X179400000Y-101600000D02*
X179400000Y-101800000D01*
X177550000Y-104940000D02*
X176700000Y-104940000D01*
X179400000Y-101800000D02*
X177997999Y-103202001D01*
X176710000Y-104950000D02*
X176700000Y-104940000D01*
X178600000Y-101700000D02*
X177900000Y-102400000D01*
X177900000Y-102400000D02*
X176700000Y-102400000D01*
X178600000Y-100150000D02*
X178600000Y-101700000D01*
D54*
X169390000Y-98610000D02*
X175777001Y-92222999D01*
X183300000Y-92450000D02*
X183800000Y-92450000D01*
X175777001Y-92222999D02*
X183072999Y-92222999D01*
X183072999Y-92222999D02*
X183300000Y-92450000D01*
X165450000Y-98610000D02*
X169390000Y-98610000D01*
X185425000Y-95175000D02*
X185325000Y-95175000D01*
X185325000Y-95175000D02*
X183800000Y-93650000D01*
X183800000Y-93650000D02*
X183800000Y-92850000D01*
X183800000Y-92850000D02*
X183800000Y-92450000D01*
X190500000Y-104500000D02*
X190500000Y-105000000D01*
X190500000Y-105000000D02*
X191100000Y-105600000D01*
X191100000Y-105600000D02*
X191100000Y-106050000D01*
X191425000Y-98175000D02*
X191825000Y-98175000D01*
X191825000Y-98175000D02*
X192200000Y-97800000D01*
X192200000Y-97800000D02*
X192300000Y-97800000D01*
X192300000Y-97800000D02*
X192600000Y-97800000D01*
X178662460Y-86000000D02*
X179200000Y-86000000D01*
X168130000Y-96070000D02*
X168592460Y-96070000D01*
X168592460Y-96070000D02*
X178662460Y-86000000D01*
X165450000Y-96070000D02*
X168130000Y-96070000D01*
X191200000Y-107450000D02*
X191200000Y-107783929D01*
X191100000Y-106950000D02*
X191100000Y-107350000D01*
X191100000Y-107350000D02*
X191200000Y-107450000D01*
X179000000Y-85200000D02*
X179200000Y-85200000D01*
X178800000Y-85400000D02*
X179000000Y-85200000D01*
X178200000Y-86000000D02*
X178800000Y-85400000D01*
X169400000Y-94800000D02*
X178200000Y-86000000D01*
X165450000Y-94800000D02*
X169400000Y-94800000D01*
X189600000Y-107500000D02*
X189600000Y-107783929D01*
X189750000Y-106950000D02*
X189750000Y-107350000D01*
X189750000Y-107350000D02*
X189600000Y-107500000D01*
X189175000Y-104075000D02*
X188300000Y-104950000D01*
X188300000Y-104950000D02*
X188300000Y-106000000D01*
X189175000Y-100425000D02*
X189175000Y-104075000D01*
X162800000Y-87937539D02*
X162800000Y-95960000D01*
X162800000Y-95960000D02*
X164180000Y-97340000D01*
X162800000Y-87937539D02*
X162800000Y-88000000D01*
X167400000Y-87000000D02*
X166966511Y-87433489D01*
X166966511Y-87433489D02*
X163304050Y-87433489D01*
X163304050Y-87433489D02*
X162800000Y-87937539D01*
X181710930Y-108310930D02*
X180000000Y-106600000D01*
X188300000Y-107700000D02*
X187689070Y-108310930D01*
X187689070Y-108310930D02*
X181710930Y-108310930D01*
X188300000Y-106900000D02*
X188300000Y-107700000D01*
X188675000Y-103575000D02*
X186900000Y-105350000D01*
X186900000Y-105350000D02*
X186900000Y-106050000D01*
X188675000Y-100425000D02*
X188675000Y-103575000D01*
X163439501Y-87760499D02*
X168000000Y-87760499D01*
X186800000Y-107783929D02*
X182583929Y-107783929D01*
X182583929Y-107783929D02*
X181400000Y-106600000D01*
X163200000Y-88000000D02*
X163439501Y-87760499D01*
X163200000Y-91800000D02*
X163200000Y-88000000D01*
X163660000Y-92260000D02*
X163200000Y-91800000D01*
X164180000Y-92260000D02*
X163660000Y-92260000D01*
X186800000Y-107450000D02*
X186800000Y-107783929D01*
X186900000Y-106950000D02*
X186900000Y-107350000D01*
X186900000Y-107350000D02*
X186800000Y-107450000D01*
X191425000Y-95175000D02*
X191875000Y-95175000D01*
X191875000Y-95175000D02*
X192000000Y-95050000D01*
X190700000Y-93200000D02*
X190700000Y-92150000D01*
X192000000Y-95050000D02*
X192000000Y-94500000D01*
X192000000Y-94500000D02*
X190700000Y-93200000D01*
D53*
X207000000Y-107000000D02*
X206750000Y-107250000D01*
X206750000Y-107250000D02*
X206000000Y-107250000D01*
X207550000Y-107000000D02*
X207000000Y-107000000D01*
X204700000Y-107250000D02*
X206000000Y-107250000D01*
X207750000Y-113500000D02*
X206450000Y-113500000D01*
X209050000Y-113500000D02*
X207750000Y-113500000D01*
X231200000Y-100500000D02*
X233500000Y-100500000D01*
X233500000Y-100500000D02*
X233550000Y-100450000D01*
D54*
X244150000Y-95600000D02*
X244150000Y-96750000D01*
X243525000Y-95550000D02*
X244100000Y-95550000D01*
X244100000Y-95550000D02*
X244150000Y-95600000D01*
X230300000Y-100500000D02*
X229500000Y-100500000D01*
D53*
X231950000Y-101750000D02*
X233550000Y-101750000D01*
X231150000Y-102000000D02*
X231700000Y-102000000D01*
X231700000Y-102000000D02*
X231950000Y-101750000D01*
D54*
X242800000Y-96275000D02*
X242800000Y-96600000D01*
X242800000Y-96600000D02*
X243800000Y-97600000D01*
X230250000Y-102000000D02*
X229500000Y-102000000D01*
D53*
X231750000Y-103500000D02*
X232200000Y-103050000D01*
X232200000Y-103050000D02*
X233550000Y-103050000D01*
X231200000Y-103500000D02*
X231750000Y-103500000D01*
D54*
X243172652Y-98127348D02*
X242300000Y-97254696D01*
X242300000Y-97254696D02*
X242300000Y-96275000D01*
X230300000Y-103500000D02*
X229500000Y-103500000D01*
X242200000Y-100750000D02*
X242200000Y-99200000D01*
X242200000Y-99200000D02*
X239700000Y-96700000D01*
X239700000Y-96700000D02*
X239700000Y-95900000D01*
X240050000Y-95550000D02*
X240575000Y-95550000D01*
X239700000Y-95900000D02*
X240050000Y-95550000D01*
D53*
X239450000Y-101100000D02*
X240650000Y-101100000D01*
X240650000Y-101100000D02*
X241000000Y-100750000D01*
X241000000Y-100750000D02*
X241300000Y-100750000D01*
D54*
X243000000Y-99300000D02*
X241300000Y-97600000D01*
X241300000Y-97600000D02*
X241300000Y-96275000D01*
X243000000Y-101600000D02*
X243000000Y-99300000D01*
X242200000Y-102000000D02*
X242600000Y-102000000D01*
X242600000Y-102000000D02*
X243000000Y-101600000D01*
D53*
X239450000Y-102400000D02*
X240600000Y-102400000D01*
X240600000Y-102400000D02*
X241000000Y-102000000D01*
X241000000Y-102000000D02*
X241300000Y-102000000D01*
D54*
X243400000Y-99100000D02*
X241800000Y-97500000D01*
X241800000Y-97500000D02*
X241800000Y-96275000D01*
X243400000Y-102450000D02*
X243400000Y-99100000D01*
X242200000Y-103250000D02*
X242600000Y-103250000D01*
X242600000Y-103250000D02*
X243400000Y-102450000D01*
D53*
X241000000Y-103250000D02*
X240550000Y-103700000D01*
X240550000Y-103700000D02*
X239450000Y-103700000D01*
X241300000Y-103250000D02*
X241000000Y-103250000D01*
X258550000Y-93250000D02*
X257250000Y-93250000D01*
X257250000Y-93250000D02*
X255950000Y-93250000D01*
X257250000Y-93550000D02*
X257250000Y-93250000D01*
X257300000Y-95500000D02*
X257300000Y-96500000D01*
X257300000Y-96500000D02*
X257250000Y-96550000D01*
X257250000Y-94450000D02*
X257250000Y-95450000D01*
X257250000Y-95450000D02*
X257300000Y-95500000D01*
X263575000Y-93250000D02*
X260225000Y-93250000D01*
X260225000Y-93250000D02*
X259450000Y-93250000D01*
X260000000Y-102450000D02*
X260000000Y-103550000D01*
X259250000Y-103828235D02*
X259250000Y-103650000D01*
X259350000Y-103550000D02*
X260000000Y-103550000D01*
X259250000Y-103650000D02*
X259350000Y-103550000D01*
X258500000Y-104025000D02*
X259053235Y-104025000D01*
X259053235Y-104025000D02*
X259250000Y-103828235D01*
X260000000Y-104450000D02*
X261250000Y-104450000D01*
X261250000Y-104450000D02*
X261300000Y-104500000D01*
X259075000Y-104675000D02*
X259300000Y-104450000D01*
X259300000Y-104450000D02*
X260000000Y-104450000D01*
X258500000Y-104675000D02*
X259075000Y-104675000D01*
X261250000Y-103250000D02*
X262250000Y-103250000D01*
X253750000Y-104000000D02*
X253750000Y-103000000D01*
X253775000Y-104025000D02*
X253750000Y-104000000D01*
X254500000Y-104025000D02*
X253775000Y-104025000D01*
X262250000Y-103250000D02*
X262250000Y-104450000D01*
X262250000Y-104450000D02*
X262200000Y-104500000D01*
X255800000Y-109250000D02*
X255800000Y-110200000D01*
X255800000Y-110200000D02*
X250000000Y-116000000D01*
X162102001Y-116102001D02*
X161500000Y-115500000D01*
X250000000Y-116000000D02*
X194290962Y-116000000D01*
X194290962Y-116000000D02*
X194188961Y-116102001D01*
X162580000Y-102420000D02*
X164180000Y-102420000D01*
X194188961Y-116102001D02*
X162102001Y-116102001D01*
X161500000Y-115500000D02*
X161500000Y-103500000D01*
X161500000Y-103500000D02*
X162580000Y-102420000D01*
X256175000Y-107000000D02*
X256175000Y-108075000D01*
X256175000Y-108075000D02*
X255800000Y-108450000D01*
X255800000Y-108450000D02*
X255800000Y-109250000D01*
X256700000Y-108300000D02*
X256825000Y-108175000D01*
X256825000Y-108175000D02*
X256825000Y-107000000D01*
X256700000Y-109250000D02*
X256700000Y-108300000D01*
X171100000Y-102450000D02*
X172950000Y-102450000D01*
X172950000Y-102450000D02*
X173000000Y-102400000D01*
D54*
X165450000Y-93530000D02*
X168530000Y-93530000D01*
X172200000Y-97200000D02*
X173750000Y-97200000D01*
X173750000Y-97200000D02*
X173800000Y-97150000D01*
D53*
X174850000Y-99535000D02*
X174850000Y-98785000D01*
X174850000Y-98785000D02*
X173800000Y-97735000D01*
X173800000Y-97735000D02*
X173800000Y-97150000D01*
D54*
X175800000Y-106600000D02*
X175500001Y-106300001D01*
X175500001Y-106300001D02*
X175000001Y-106300001D01*
X175000001Y-106300001D02*
X174850000Y-106150000D01*
X171379962Y-95600000D02*
X169600000Y-97379962D01*
X169600000Y-97379962D02*
X169600000Y-97400000D01*
X168600000Y-87420038D02*
X168600000Y-90400000D01*
X163275079Y-87000000D02*
X163802080Y-86472999D01*
X163802080Y-86472999D02*
X167652961Y-86472999D01*
X167652961Y-86472999D02*
X168600000Y-87420038D01*
X162130000Y-93530000D02*
X162429999Y-93230001D01*
X162429999Y-93230001D02*
X162429999Y-87845080D01*
X162429999Y-87845080D02*
X163275079Y-87000000D01*
D53*
X174850000Y-106150000D02*
X174550000Y-106450000D01*
X174550000Y-106450000D02*
X174550000Y-107500000D01*
X174850000Y-105265000D02*
X174850000Y-106150000D01*
D54*
X207493035Y-95700000D02*
X207545994Y-95700000D01*
X207545994Y-95700000D02*
X207600000Y-95645994D01*
X207175000Y-95900000D02*
X207293035Y-95900000D01*
X207293035Y-95900000D02*
X207493035Y-95700000D01*
X206550000Y-95900000D02*
X207175000Y-95900000D01*
X207500000Y-96400000D02*
X207527003Y-96372997D01*
X207527003Y-96372997D02*
X207600000Y-96372997D01*
X207175000Y-96400000D02*
X207500000Y-96400000D01*
X206550000Y-96400000D02*
X207175000Y-96400000D01*
X207375000Y-97100000D02*
X207600000Y-97100000D01*
X206550000Y-96900000D02*
X207175000Y-96900000D01*
X207175000Y-96900000D02*
X207375000Y-97100000D01*
X177400000Y-85800000D02*
X172200000Y-91000000D01*
X172200000Y-91000000D02*
X172190000Y-90990000D01*
X172190000Y-90990000D02*
X165450000Y-90990000D01*
X232150000Y-94200000D02*
X231600000Y-94200000D01*
X233025000Y-94500000D02*
X232450000Y-94500000D01*
X232450000Y-94500000D02*
X232150000Y-94200000D01*
X171940000Y-99860000D02*
X169380000Y-102420000D01*
X169380000Y-102420000D02*
X165450000Y-102420000D01*
X173000000Y-99860000D02*
X171940000Y-99860000D01*
D53*
X231302001Y-92947999D02*
X232500000Y-91750000D01*
X232500000Y-91750000D02*
X233200000Y-91750000D01*
X228050000Y-92900000D02*
X228400000Y-92900000D01*
X228400000Y-92900000D02*
X228447999Y-92947999D01*
X228447999Y-92947999D02*
X231302001Y-92947999D01*
X190065000Y-113455000D02*
X190000000Y-113520000D01*
X190000000Y-113520000D02*
X190000000Y-115300000D01*
D54*
X189085000Y-113455000D02*
X190065000Y-113455000D01*
X190065000Y-113455000D02*
X190100000Y-113420000D01*
X189085000Y-112955000D02*
X189635000Y-112955000D01*
X189635000Y-112955000D02*
X190100000Y-113420000D01*
X186285000Y-112955000D02*
X185735000Y-112955000D01*
X185735000Y-112955000D02*
X185390000Y-113300000D01*
X185390000Y-113300000D02*
X184900000Y-113300000D01*
D53*
X185850000Y-111850000D02*
X185850000Y-109600000D01*
D54*
X185955000Y-111955000D02*
X185850000Y-111850000D01*
X186285000Y-111955000D02*
X185955000Y-111955000D01*
X190600000Y-114372981D02*
X190600000Y-113000000D01*
X190600000Y-113000000D02*
X190055000Y-112455000D01*
X191400000Y-115172981D02*
X190600000Y-114372981D01*
X173200000Y-115400000D02*
X174200000Y-114400000D01*
X169600000Y-115400000D02*
X173200000Y-115400000D01*
X168000000Y-115400000D02*
X169600000Y-115400000D01*
X167200000Y-108595927D02*
X167200000Y-114600000D01*
X167200000Y-114600000D02*
X168000000Y-115400000D01*
X165450000Y-107500000D02*
X166104073Y-107500000D01*
X166104073Y-107500000D02*
X167200000Y-108595927D01*
X189085000Y-112455000D02*
X190055000Y-112455000D01*
D55*
X266350000Y-106250000D02*
X264450000Y-108150000D01*
X264450000Y-108150000D02*
X264450000Y-113000000D01*
X269750000Y-106250000D02*
X266350000Y-106250000D01*
D53*
X208450000Y-107000000D02*
X208450000Y-108700000D01*
X208450000Y-108700000D02*
X208500000Y-108750000D01*
D54*
X224150000Y-92900000D02*
X222900000Y-92927010D01*
X222900000Y-92900000D02*
X222900000Y-92927010D01*
X223106972Y-93500000D02*
X223054013Y-93500000D01*
X223054013Y-93500000D02*
X222900000Y-93654013D01*
X224150000Y-93400000D02*
X223206972Y-93400000D01*
X223206972Y-93400000D02*
X223106972Y-93500000D01*
X224150000Y-93900000D02*
X223427001Y-93900000D01*
X223427001Y-93900000D02*
X222945985Y-94381016D01*
X222945985Y-94381016D02*
X222900000Y-94381016D01*
D55*
X258798220Y-113000000D02*
X261550000Y-113000000D01*
D53*
X178600000Y-98000000D02*
X178600000Y-99250000D01*
X178650000Y-98000000D02*
X179800000Y-98000000D01*
D57*
G36*
X188373000Y-111436696D02*
X188360340Y-111444842D01*
X188240010Y-111620951D01*
X188197676Y-111830000D01*
X188197676Y-112080000D01*
X188222060Y-112209590D01*
X188197676Y-112330000D01*
X188197676Y-112580000D01*
X188222060Y-112709590D01*
X188197676Y-112830000D01*
X188197676Y-113080000D01*
X188222060Y-113209590D01*
X188197676Y-113330000D01*
X188197676Y-113580000D01*
X188234423Y-113775294D01*
X188349842Y-113954660D01*
X188373000Y-113970483D01*
X188373000Y-114400000D01*
X188383006Y-114449410D01*
X188411447Y-114491035D01*
X188453841Y-114518315D01*
X188500000Y-114527000D01*
X189073000Y-114527000D01*
X189073000Y-115400001D01*
X184027000Y-115400001D01*
X184027000Y-114227000D01*
X186000000Y-114227000D01*
X186049410Y-114216994D01*
X186091035Y-114188553D01*
X186118315Y-114146159D01*
X186127000Y-114100000D01*
X186127000Y-113617324D01*
X186635000Y-113617324D01*
X186830294Y-113580577D01*
X186919780Y-113522994D01*
X186949410Y-113516994D01*
X186991035Y-113488553D01*
X187003566Y-113469079D01*
X187009660Y-113465158D01*
X187129990Y-113289049D01*
X187172324Y-113080000D01*
X187172324Y-112830000D01*
X187147940Y-112700410D01*
X187172324Y-112580000D01*
X187172324Y-112330000D01*
X187147940Y-112200410D01*
X187172324Y-112080000D01*
X187172324Y-111830000D01*
X187135577Y-111634706D01*
X187027000Y-111465973D01*
X187027000Y-109327000D01*
X188373000Y-109327000D01*
X188373000Y-111436696D01*
X188373000Y-111436696D01*
G37*
X188373000Y-111436696D02*
X188360340Y-111444842D01*
X188240010Y-111620951D01*
X188197676Y-111830000D01*
X188197676Y-112080000D01*
X188222060Y-112209590D01*
X188197676Y-112330000D01*
X188197676Y-112580000D01*
X188222060Y-112709590D01*
X188197676Y-112830000D01*
X188197676Y-113080000D01*
X188222060Y-113209590D01*
X188197676Y-113330000D01*
X188197676Y-113580000D01*
X188234423Y-113775294D01*
X188349842Y-113954660D01*
X188373000Y-113970483D01*
X188373000Y-114400000D01*
X188383006Y-114449410D01*
X188411447Y-114491035D01*
X188453841Y-114518315D01*
X188500000Y-114527000D01*
X189073000Y-114527000D01*
X189073000Y-115400001D01*
X184027000Y-115400001D01*
X184027000Y-114227000D01*
X186000000Y-114227000D01*
X186049410Y-114216994D01*
X186091035Y-114188553D01*
X186118315Y-114146159D01*
X186127000Y-114100000D01*
X186127000Y-113617324D01*
X186635000Y-113617324D01*
X186830294Y-113580577D01*
X186919780Y-113522994D01*
X186949410Y-113516994D01*
X186991035Y-113488553D01*
X187003566Y-113469079D01*
X187009660Y-113465158D01*
X187129990Y-113289049D01*
X187172324Y-113080000D01*
X187172324Y-112830000D01*
X187147940Y-112700410D01*
X187172324Y-112580000D01*
X187172324Y-112330000D01*
X187147940Y-112200410D01*
X187172324Y-112080000D01*
X187172324Y-111830000D01*
X187135577Y-111634706D01*
X187027000Y-111465973D01*
X187027000Y-109327000D01*
X188373000Y-109327000D01*
X188373000Y-111436696D01*
M02*
