G04 start of page 10 for group -4014 idx -4014 *
G04 Title: (unknown), bottompaste *
G04 Creator: pcb 20091103 *
G04 CreationDate: Wed 16 Nov 2011 10:52:43 GMT UTC *
G04 For: jeanmarc *
G04 Format: Gerber/RS-274X *
G04 PCB-Dimensions: 657480 551181 *
G04 PCB-Coordinate-Origin: lower left *
%MOIN*%
%FSLAX25Y25*%
%LNBACKPASTE*%
%ADD35R,0.0512X0.0512*%
%ADD36R,0.0394X0.0394*%
%ADD37R,0.0630X0.0630*%
%ADD38R,0.2280X0.2280*%
G54D37*X608433Y263825D02*Y258325D01*
X626433Y263825D02*Y258325D01*
G54D38*X617433Y239575D02*Y237975D01*
G54D36*X604298Y307181D02*X604692D01*
X597606D02*X598000D01*
G54D35*X594991Y258277D02*X595777D01*
X594991Y265757D02*X595777D01*
X597520Y297181D02*Y296395D01*
X605000Y297181D02*Y296395D01*
G54D36*X314936Y275189D02*X315330D01*
X308244D02*X308638D01*
M02*
