%FSLAX25Y25*%
%MOIN*%
G70*
G01*
G75*
G04 Layer_Physical_Order=1*
G04 Layer_Color=255*
%ADD10C,0.02000*%
%ADD11C,0.04000*%
%ADD12R,0.02362X0.03347*%
%ADD13R,0.05118X0.03347*%
%ADD14R,0.03347X0.05118*%
%ADD15R,0.06299X0.02165*%
%ADD16R,0.04331X0.10236*%
%ADD17R,0.03740X0.05315*%
%ADD18R,0.05315X0.03740*%
%ADD19C,0.05000*%
%ADD20C,0.06700*%
%ADD21C,0.03000*%
%ADD22C,0.00700*%
%ADD23C,0.05906*%
%ADD24R,0.05906X0.05906*%
%ADD25C,0.03000*%
G36*
X65041Y71658D02*
X63350D01*
Y68000D01*
Y64342D01*
X65041D01*
Y38658D01*
X63000D01*
Y35000D01*
Y31343D01*
X65041D01*
Y11500D01*
X2039D01*
Y92961D01*
X65041D01*
Y71658D01*
D02*
G37*
%LPC*%
G36*
X11000Y28728D02*
Y25768D01*
X10000D01*
Y28728D01*
X9717Y28690D01*
X9114Y28441D01*
X3988D01*
Y23095D01*
X7474D01*
Y21000D01*
X7577Y20217D01*
X7880Y19487D01*
X8360Y18860D01*
X8987Y18380D01*
X9717Y18077D01*
X10000Y18040D01*
Y21000D01*
X11000D01*
Y18040D01*
X11283Y18077D01*
X12013Y18380D01*
X12640Y18860D01*
X13121Y19487D01*
X13423Y20217D01*
X13526Y21000D01*
Y23095D01*
X17012D01*
Y28441D01*
X11886D01*
X11283Y28690D01*
X11000Y28728D01*
D02*
G37*
G36*
X58500Y29540D02*
X57500D01*
X58000Y29474D01*
X58500Y29540D01*
D02*
G37*
G36*
X32000Y21040D02*
X31000D01*
X31500Y20974D01*
X32000Y21040D01*
D02*
G37*
G36*
X11000Y18040D02*
X10000D01*
X10500Y17974D01*
X11000Y18040D01*
D02*
G37*
G36*
X24000Y21040D02*
X23000D01*
X23500Y20974D01*
X24000Y21040D01*
D02*
G37*
G36*
X11559Y71653D02*
X4441D01*
Y69480D01*
X4974D01*
Y67500D01*
X5077Y66717D01*
X5379Y65987D01*
X5860Y65360D01*
X6487Y64880D01*
X7217Y64577D01*
X8000Y64474D01*
X8783Y64577D01*
X9513Y64880D01*
X10140Y65360D01*
X10621Y65987D01*
X10923Y66717D01*
X11026Y67500D01*
Y69480D01*
X11559D01*
Y71653D01*
D02*
G37*
G36*
X8000Y90987D02*
X6968Y90851D01*
X6007Y90453D01*
X5181Y89819D01*
X4547Y88993D01*
X4149Y88032D01*
X4013Y87000D01*
X4149Y85968D01*
X4470Y85194D01*
Y81520D01*
X4441D01*
Y76173D01*
X5494D01*
X6050Y75342D01*
X5836Y74827D01*
X4441D01*
Y72654D01*
X11559D01*
Y74827D01*
X10164D01*
X9950Y75342D01*
X10506Y76173D01*
X11559D01*
Y81520D01*
X11530D01*
Y85194D01*
X11851Y85968D01*
X11987Y87000D01*
X11851Y88032D01*
X11453Y88993D01*
X10819Y89819D01*
X9993Y90453D01*
X9032Y90851D01*
X8000Y90987D01*
D02*
G37*
G36*
X31953Y90953D02*
X24047D01*
Y83047D01*
X27674D01*
X41628Y69093D01*
Y66000D01*
X41731Y65217D01*
X41980Y64614D01*
Y62865D01*
X41980D01*
X41980Y62865D01*
X41980Y62441D01*
X41980Y62299D01*
Y62157D01*
D01*
Y61734D01*
Y61734D01*
D01*
Y61526D01*
X40000D01*
X39217Y61423D01*
X38487Y61120D01*
X37860Y60640D01*
X37380Y60013D01*
X37077Y59283D01*
X36974Y58500D01*
X37077Y57717D01*
X37380Y56987D01*
X37860Y56360D01*
X38487Y55879D01*
X39217Y55577D01*
X40000Y55474D01*
X41980D01*
Y54843D01*
X44350D01*
Y58500D01*
X45350D01*
Y54843D01*
X47572D01*
Y54843D01*
X47572Y54843D01*
X47721Y54843D01*
X48000D01*
X48280D01*
X48428Y54843D01*
X48428Y54843D01*
Y54843D01*
X54020D01*
Y56461D01*
X55020D01*
Y52325D01*
X55020D01*
X55020Y52325D01*
X55020Y51882D01*
Y51750D01*
Y51618D01*
X55020Y51175D01*
X55020Y51175D01*
X55020D01*
Y46011D01*
X54188Y45455D01*
X54020Y45525D01*
Y52559D01*
X48673D01*
Y45441D01*
X48673D01*
Y45441D01*
X48673Y45441D01*
X48280Y45158D01*
X48000D01*
X47721D01*
X47327Y45441D01*
X47327Y45441D01*
Y45441D01*
X47327D01*
Y52559D01*
X41980D01*
Y49211D01*
X40852Y48083D01*
X33681D01*
D01*
Y48083D01*
D01*
D01*
X33681D01*
D01*
D01*
X33319D01*
X33319D01*
Y51823D01*
X29856D01*
X29540Y52034D01*
X28760Y52189D01*
X24158D01*
Y53020D01*
X23827D01*
Y53441D01*
X23827D01*
Y60559D01*
X18480D01*
Y56445D01*
X18461Y56346D01*
Y53020D01*
X16842D01*
Y47428D01*
X16842D01*
X16842Y47428D01*
X16842Y47280D01*
Y47000D01*
Y46720D01*
X16842Y46572D01*
X16842Y46572D01*
X16842D01*
Y44811D01*
X10208Y38176D01*
X9766Y37514D01*
X9645Y36906D01*
X3988D01*
Y31559D01*
X17012D01*
Y36906D01*
X16012D01*
X15629Y37829D01*
X18780Y40980D01*
X24158D01*
Y40980D01*
X24313D01*
X25020Y40273D01*
Y40177D01*
X28368D01*
X29461Y39085D01*
Y37870D01*
X27941D01*
D01*
D01*
X27941Y37870D01*
X27158D01*
Y37870D01*
X19842D01*
Y32278D01*
X19842D01*
X19842Y32278D01*
X19842Y32130D01*
Y31850D01*
Y31571D01*
X19842Y31423D01*
X19842Y31423D01*
X19842D01*
Y29201D01*
X23500D01*
Y28201D01*
X19842D01*
Y25831D01*
X20474D01*
Y24000D01*
X20577Y23217D01*
X20879Y22487D01*
X21360Y21860D01*
X21987Y21380D01*
X22717Y21077D01*
X23000Y21040D01*
Y24000D01*
X24000D01*
Y21040D01*
X24283Y21077D01*
X25013Y21380D01*
X25640Y21860D01*
X26120Y22487D01*
X26423Y23217D01*
X26526Y24000D01*
Y25831D01*
X27158Y25831D01*
D01*
D01*
X27941D01*
D01*
X28474Y25831D01*
Y24000D01*
X28577Y23217D01*
X28879Y22487D01*
X29360Y21860D01*
X29987Y21380D01*
X30717Y21077D01*
X31000Y21040D01*
Y24000D01*
X32000D01*
Y21040D01*
X32283Y21077D01*
X33013Y21380D01*
X33640Y21860D01*
X34121Y22487D01*
X34423Y23217D01*
X34526Y24000D01*
Y25831D01*
X35059D01*
Y28004D01*
X31500D01*
Y29004D01*
X35059D01*
Y30941D01*
X35480D01*
Y30941D01*
X40827D01*
Y38059D01*
X35480D01*
Y37870D01*
X35059D01*
Y37870D01*
X33539D01*
Y39929D01*
X33384Y40709D01*
X33319Y40807D01*
Y43917D01*
X33654D01*
X33681D01*
D01*
X33681Y43917D01*
X33681D01*
Y43917D01*
D01*
X41980D01*
D01*
X41980D01*
X41980Y43917D01*
Y37843D01*
X42173D01*
Y30941D01*
X47520D01*
Y37843D01*
X47572D01*
D01*
X47572D01*
X47721D01*
X47721D01*
X48000D01*
X48280D01*
X48428Y37843D01*
X48428Y37843D01*
Y37843D01*
X54020D01*
Y39296D01*
X55013Y39410D01*
X55020Y39382D01*
Y39382D01*
X55020Y39382D01*
X55020Y39382D01*
X55020D01*
X55020D01*
Y39382D01*
X55020Y39382D01*
D01*
D01*
Y39382D01*
X55334Y39141D01*
X55379Y38513D01*
X55077Y37783D01*
X54974Y37000D01*
Y32500D01*
X55077Y31717D01*
X55291Y31201D01*
X55379Y30987D01*
X55860Y30360D01*
X56487Y29880D01*
X56701Y29791D01*
X57217Y29577D01*
X57500Y29540D01*
Y32500D01*
X58500D01*
Y29540D01*
X58783Y29577D01*
X59299Y29791D01*
X59513Y29880D01*
X60140Y30360D01*
X61122Y31343D01*
X62000D01*
Y35000D01*
Y38658D01*
X61350D01*
Y39382D01*
D01*
D01*
Y39382D01*
X61350D01*
Y51175D01*
X61350D01*
X61350Y51175D01*
X61350Y51618D01*
Y51750D01*
Y51882D01*
X61350Y52325D01*
X61350Y52325D01*
X61350D01*
Y63635D01*
X61350D01*
X61350Y63635D01*
X61350Y64118D01*
X61575Y64342D01*
X62350D01*
Y68000D01*
Y71658D01*
X59980D01*
Y71026D01*
X58000D01*
X57217Y70923D01*
X56487Y70621D01*
X55860Y70140D01*
X55379Y69513D01*
X55077Y68783D01*
X55018Y68330D01*
X54020Y68395D01*
Y69559D01*
X48673D01*
Y69559D01*
X48386D01*
X47679Y70266D01*
Y70346D01*
X47576Y71130D01*
X47363Y71646D01*
X47274Y71859D01*
X46793Y72486D01*
X31953Y87327D01*
Y90953D01*
D02*
G37*
G36*
X18000Y90987D02*
X16968Y90851D01*
X16007Y90453D01*
X15181Y89819D01*
X14547Y88993D01*
X14149Y88032D01*
X14013Y87000D01*
X14149Y85968D01*
X14547Y85007D01*
X15181Y84181D01*
X15961Y83582D01*
Y74000D01*
X16116Y73220D01*
X16558Y72558D01*
X25807Y63309D01*
Y60559D01*
X25173D01*
Y53441D01*
X30520D01*
Y60559D01*
X29886D01*
Y64153D01*
X29730Y64934D01*
X29288Y65596D01*
X20039Y74845D01*
Y83582D01*
X20819Y84181D01*
X21453Y85007D01*
X21851Y85968D01*
X21987Y87000D01*
X21851Y88032D01*
X21453Y88993D01*
X20819Y89819D01*
X19993Y90453D01*
X19032Y90851D01*
X18000Y90987D01*
D02*
G37*
%LPD*%
G36*
X8500Y64540D02*
X8500D01*
X7500D01*
X7500D01*
Y67500D01*
X8500D01*
Y64540D01*
D02*
G37*
G36*
X40000Y58000D02*
X37040D01*
Y58000D01*
Y59000D01*
Y59000D01*
X40000D01*
Y58000D01*
D02*
G37*
D10*
X50534Y59903D02*
G03*
X51346Y61863I-1960J1960D01*
G01*
X53250Y58500D02*
G03*
X51765Y57885I0J-2101D01*
G01*
Y59115D02*
G03*
X53250Y58500I1485J1485D01*
G01*
X44846Y38622D02*
G03*
X44235Y40097I-2087J0D01*
G01*
X45466D02*
G03*
X44846Y38603I1495J-1495D01*
G01*
X51150Y44388D02*
G03*
X51765Y42903I2101J0D01*
G01*
X50534D02*
G03*
X51150Y44388I-1485J1485D01*
G01*
X53250Y41500D02*
G03*
X51765Y40885I0J-2101D01*
G01*
Y42115D02*
G03*
X53250Y41500I1485J1485D01*
G01*
X20500Y52250D02*
G03*
X21115Y50765I2101J0D01*
G01*
X19885D02*
G03*
X20500Y52250I-1485J1485D01*
G01*
X23388Y50150D02*
G03*
X21903Y49534I0J-2101D01*
G01*
Y50765D02*
G03*
X23388Y50150I1485J1485D01*
G01*
X26388Y35000D02*
G03*
X24903Y34385I0J-2101D01*
G01*
Y35615D02*
G03*
X26388Y35000I1485J1485D01*
G01*
X70900D02*
G03*
X69414Y34385I0J-2101D01*
G01*
Y35615D02*
G03*
X70900Y35000I1485J1485D01*
G01*
X27044Y49682D02*
G03*
X25914Y50150I-1130J-1130D01*
G01*
X31304Y42212D02*
G03*
X31500Y39929I1454J-1025D01*
G01*
X44654Y47441D02*
G03*
X41992Y46338I0J-3764D01*
G01*
X51823Y47638D02*
G03*
X51150Y46014I1625J-1625D01*
G01*
X21630Y55638D02*
G03*
X20500Y52911I2727J-2727D01*
G01*
X35597Y35000D02*
G03*
X37677Y35862I0J2943D01*
G01*
X32862Y35673D02*
G03*
X34486Y35000I1625J1625D01*
G01*
X28514D02*
G03*
X30138Y35673I0J2297D01*
G01*
X10429Y34891D02*
G03*
X11650Y36734I-781J1843D01*
G01*
X18000Y74000D02*
Y87000D01*
X68799Y35000D02*
X77000D01*
X27847Y57000D02*
Y64153D01*
X18000Y74000D02*
X27847Y64153D01*
X51150Y58500D02*
X57685D01*
X51346Y58697D02*
Y66000D01*
X41654Y46000D02*
X44654Y49000D01*
X37831Y46000D02*
X41654D01*
X54185Y41500D02*
X58185Y45500D01*
X51150Y41500D02*
X54185D01*
X51150D02*
Y48803D01*
X44846Y34500D02*
Y41496D01*
X31500Y35197D02*
Y39929D01*
X29169Y42260D02*
X31500Y39929D01*
X28760Y50150D02*
X29169Y49740D01*
X20500Y50150D02*
X28760D01*
X20500Y56346D02*
X21154Y57000D01*
X20500Y50150D02*
Y56346D01*
X18766Y43850D02*
X20500D01*
X11650Y36734D02*
X18766Y43850D01*
X11650Y35382D02*
Y36734D01*
X10500Y34232D02*
X11650Y35382D01*
X23500Y35000D02*
X37654D01*
D11*
X62501Y34343D02*
G03*
X58000Y32500I-53J-6291D01*
G01*
X58500Y37000D02*
G03*
X62518Y35659I3351J3351D01*
G01*
X57647Y36646D02*
G03*
X61621Y35000I3975J3975D01*
G01*
X57559Y36765D02*
G03*
X60500Y35000I2941J1568D01*
G01*
X58000Y32500D02*
G03*
X58408Y37289I-2636J2636D01*
G01*
X44653Y66000D02*
Y70346D01*
X28000Y87000D02*
X44653Y70346D01*
X31500Y24000D02*
Y28504D01*
X23500Y24000D02*
Y28701D01*
X10500Y21000D02*
Y25768D01*
X8000Y67500D02*
Y72154D01*
X40000Y58500D02*
X44850D01*
X58000Y68000D02*
X62850D01*
X58000Y37000D02*
X58500D01*
X60500Y35000D01*
X58000Y32500D02*
Y37000D01*
X60500Y35000D02*
X62500D01*
X58000Y32500D02*
X60500Y35000D01*
D12*
X14831Y34232D02*
D03*
Y25768D02*
D03*
X10500D02*
D03*
X6169D02*
D03*
Y34232D02*
D03*
X10500D02*
D03*
D13*
X8000Y72154D02*
D03*
Y78847D02*
D03*
X31500Y35197D02*
D03*
Y28504D02*
D03*
D14*
X44846Y34500D02*
D03*
X38154D02*
D03*
X27847Y57000D02*
D03*
X21154D02*
D03*
X51346Y49000D02*
D03*
X44654D02*
D03*
X44653Y66000D02*
D03*
X51346D02*
D03*
D15*
X37831Y46000D02*
D03*
X29169Y42260D02*
D03*
Y49740D02*
D03*
D16*
X68815Y58000D02*
D03*
X58185D02*
D03*
X68815Y45500D02*
D03*
X58185D02*
D03*
D17*
X62500Y35000D02*
D03*
X68799D02*
D03*
X69150Y68000D02*
D03*
X62850D02*
D03*
X51150Y41500D02*
D03*
X44850D02*
D03*
X51150Y58500D02*
D03*
X44850D02*
D03*
D18*
X23500Y35000D02*
D03*
Y28701D02*
D03*
X20500Y50150D02*
D03*
Y43850D02*
D03*
D19*
X8000Y78847D02*
Y87000D01*
D20*
X76000Y67850D02*
Y79850D01*
X81500Y85350D01*
X81000Y5350D02*
X97500D01*
X77000Y9350D02*
X81000Y5350D01*
X97500D02*
X102000Y9850D01*
X97000Y85350D02*
X102000Y80350D01*
X81500Y85350D02*
X97000D01*
X77000Y9350D02*
Y35000D01*
X102000Y9850D02*
Y80350D01*
D21*
X69150Y68000D02*
X75850D01*
X68815Y58000D02*
Y67665D01*
Y45500D02*
Y58000D01*
D22*
X3500Y4500D02*
Y7832D01*
X5166Y9498D01*
X6832Y7832D01*
Y4500D01*
Y6999D01*
X3500D01*
X8498Y4500D02*
X10165D01*
X9331D01*
Y9498D01*
X8498D01*
X12664Y2834D02*
Y7832D01*
X15163D01*
X15996Y6999D01*
Y5333D01*
X15163Y4500D01*
X12664D01*
X18495Y7832D02*
X20161D01*
X20994Y6999D01*
Y4500D01*
X18495D01*
X17662Y5333D01*
X18495Y6166D01*
X20994D01*
X25993Y7832D02*
X23494D01*
X22660Y6999D01*
Y5333D01*
X23494Y4500D01*
X25993D01*
X28492Y7832D02*
X30158D01*
X30991Y6999D01*
Y4500D01*
X28492D01*
X27659Y5333D01*
X28492Y6166D01*
X30991D01*
X35989Y8665D02*
X35156Y9498D01*
X33490D01*
X32657Y8665D01*
Y7832D01*
X33490Y6999D01*
X35156D01*
X35989Y6166D01*
Y5333D01*
X35156Y4500D01*
X33490D01*
X32657Y5333D01*
X40155Y4500D02*
X38489D01*
X37656Y5333D01*
Y6999D01*
X38489Y7832D01*
X40155D01*
X40988Y6999D01*
Y6166D01*
X37656D01*
X45986Y7832D02*
X43487D01*
X42654Y6999D01*
Y5333D01*
X43487Y4500D01*
X45986D01*
X52651Y9498D02*
X55983D01*
X54317D01*
Y4500D01*
X57649Y9498D02*
X60981Y4500D01*
Y9498D02*
X57649Y4500D01*
D23*
X8000Y87000D02*
D03*
X18000D02*
D03*
D24*
X28000D02*
D03*
D25*
X23500Y24000D02*
D03*
X31500D02*
D03*
X40000Y58500D02*
D03*
X10500Y21000D02*
D03*
X58000Y37000D02*
D03*
Y32500D02*
D03*
Y68000D02*
D03*
X8000Y67500D02*
D03*
X47000Y87500D02*
D03*
X53000D02*
D03*
X59000D02*
D03*
X47000Y81250D02*
D03*
X53000D02*
D03*
X59000D02*
D03*
X50000Y75000D02*
D03*
X56000D02*
D03*
X40857Y23000D02*
D03*
X47071D02*
D03*
X53286D02*
D03*
X59500D02*
D03*
X40857Y16000D02*
D03*
X47071D02*
D03*
X53286D02*
D03*
X59500D02*
D03*
X34643D02*
D03*
X28429D02*
D03*
X22214D02*
D03*
X16000D02*
D03*
X5000Y59000D02*
D03*
X10250D02*
D03*
X15500D02*
D03*
X5000Y53000D02*
D03*
X10250D02*
D03*
X5000Y47000D02*
D03*
X10250D02*
D03*
X5000Y41000D02*
D03*
X23500Y76500D02*
D03*
X28500D02*
D03*
Y71500D02*
D03*
X33500D02*
D03*
Y66500D02*
D03*
X38500D02*
D03*
X33500Y61500D02*
D03*
Y56500D02*
D03*
X15500Y65000D02*
D03*
X50500Y28000D02*
D03*
M02*
