G04 (created by PCBNEW-RS274X (2011-05-25)-stable) date Mon 13 Aug 2012 04:34:50 PM EDT*
G01*
G70*
G90*
%MOIN*%
G04 Gerber Fmt 3.4, Leading zero omitted, Abs format*
%FSLAX34Y34*%
G04 APERTURE LIST*
%ADD10C,0.006000*%
%ADD11C,0.012000*%
G04 APERTURE END LIST*
G54D10*
G54D11*
X66917Y-45919D02*
X66950Y-45990D01*
X66983Y-46014D01*
X67050Y-46038D01*
X67150Y-46038D01*
X67217Y-46014D01*
X67250Y-45990D01*
X67283Y-45943D01*
X67283Y-45752D01*
X66583Y-45752D01*
X66583Y-45919D01*
X66617Y-45966D01*
X66650Y-45990D01*
X66717Y-46014D01*
X66783Y-46014D01*
X66850Y-45990D01*
X66883Y-45966D01*
X66917Y-45919D01*
X66917Y-45752D01*
X67283Y-46538D02*
X66950Y-46371D01*
X67283Y-46252D02*
X66583Y-46252D01*
X66583Y-46443D01*
X66617Y-46490D01*
X66650Y-46514D01*
X66717Y-46538D01*
X66817Y-46538D01*
X66883Y-46514D01*
X66917Y-46490D01*
X66950Y-46443D01*
X66950Y-46252D01*
X66917Y-46752D02*
X66917Y-46919D01*
X67283Y-46990D02*
X67283Y-46752D01*
X66583Y-46752D01*
X66583Y-46990D01*
X67083Y-47180D02*
X67083Y-47418D01*
X67283Y-47133D02*
X66583Y-47299D01*
X67283Y-47466D01*
X67283Y-47633D02*
X66583Y-47633D01*
X66583Y-47752D01*
X66617Y-47824D01*
X66683Y-47871D01*
X66750Y-47895D01*
X66883Y-47919D01*
X66983Y-47919D01*
X67117Y-47895D01*
X67183Y-47871D01*
X67250Y-47824D01*
X67283Y-47752D01*
X67283Y-47633D01*
X66917Y-48300D02*
X66950Y-48371D01*
X66983Y-48395D01*
X67050Y-48419D01*
X67150Y-48419D01*
X67217Y-48395D01*
X67250Y-48371D01*
X67283Y-48324D01*
X67283Y-48133D01*
X66583Y-48133D01*
X66583Y-48300D01*
X66617Y-48347D01*
X66650Y-48371D01*
X66717Y-48395D01*
X66783Y-48395D01*
X66850Y-48371D01*
X66883Y-48347D01*
X66917Y-48300D01*
X66917Y-48133D01*
X66583Y-48728D02*
X66583Y-48824D01*
X66617Y-48871D01*
X66683Y-48919D01*
X66817Y-48943D01*
X67050Y-48943D01*
X67183Y-48919D01*
X67250Y-48871D01*
X67283Y-48824D01*
X67283Y-48728D01*
X67250Y-48681D01*
X67183Y-48633D01*
X67050Y-48609D01*
X66817Y-48609D01*
X66683Y-48633D01*
X66617Y-48681D01*
X66583Y-48728D01*
X67083Y-49133D02*
X67083Y-49371D01*
X67283Y-49086D02*
X66583Y-49252D01*
X67283Y-49419D01*
X67283Y-49872D02*
X66950Y-49705D01*
X67283Y-49586D02*
X66583Y-49586D01*
X66583Y-49777D01*
X66617Y-49824D01*
X66650Y-49848D01*
X66717Y-49872D01*
X66817Y-49872D01*
X66883Y-49848D01*
X66917Y-49824D01*
X66950Y-49777D01*
X66950Y-49586D01*
X67283Y-50086D02*
X66583Y-50086D01*
X66583Y-50205D01*
X66617Y-50277D01*
X66683Y-50324D01*
X66750Y-50348D01*
X66883Y-50372D01*
X66983Y-50372D01*
X67117Y-50348D01*
X67183Y-50324D01*
X67250Y-50277D01*
X67283Y-50205D01*
X67283Y-50086D01*
X68383Y-45288D02*
X67683Y-45288D01*
X67683Y-45479D01*
X67717Y-45526D01*
X67750Y-45550D01*
X67817Y-45574D01*
X67917Y-45574D01*
X67983Y-45550D01*
X68017Y-45526D01*
X68050Y-45479D01*
X68050Y-45288D01*
X67683Y-45883D02*
X67683Y-45979D01*
X67717Y-46026D01*
X67783Y-46074D01*
X67917Y-46098D01*
X68150Y-46098D01*
X68283Y-46074D01*
X68350Y-46026D01*
X68383Y-45979D01*
X68383Y-45883D01*
X68350Y-45836D01*
X68283Y-45788D01*
X68150Y-45764D01*
X67917Y-45764D01*
X67783Y-45788D01*
X67717Y-45836D01*
X67683Y-45883D01*
X67683Y-46264D02*
X68383Y-46383D01*
X67883Y-46479D01*
X68383Y-46574D01*
X67683Y-46693D01*
X68017Y-46883D02*
X68017Y-47050D01*
X68383Y-47121D02*
X68383Y-46883D01*
X67683Y-46883D01*
X67683Y-47121D01*
X68383Y-47621D02*
X68050Y-47454D01*
X68383Y-47335D02*
X67683Y-47335D01*
X67683Y-47526D01*
X67717Y-47573D01*
X67750Y-47597D01*
X67817Y-47621D01*
X67917Y-47621D01*
X67983Y-47597D01*
X68017Y-47573D01*
X68050Y-47526D01*
X68050Y-47335D01*
X68350Y-48192D02*
X68383Y-48264D01*
X68383Y-48383D01*
X68350Y-48430D01*
X68317Y-48454D01*
X68250Y-48478D01*
X68183Y-48478D01*
X68117Y-48454D01*
X68083Y-48430D01*
X68050Y-48383D01*
X68017Y-48287D01*
X67983Y-48240D01*
X67950Y-48216D01*
X67883Y-48192D01*
X67817Y-48192D01*
X67750Y-48216D01*
X67717Y-48240D01*
X67683Y-48287D01*
X67683Y-48407D01*
X67717Y-48478D01*
X67683Y-48692D02*
X68250Y-48692D01*
X68317Y-48716D01*
X68350Y-48740D01*
X68383Y-48787D01*
X68383Y-48883D01*
X68350Y-48930D01*
X68317Y-48954D01*
X68250Y-48978D01*
X67683Y-48978D01*
X68383Y-49216D02*
X67683Y-49216D01*
X67683Y-49407D01*
X67717Y-49454D01*
X67750Y-49478D01*
X67817Y-49502D01*
X67917Y-49502D01*
X67983Y-49478D01*
X68017Y-49454D01*
X68050Y-49407D01*
X68050Y-49216D01*
X68383Y-49716D02*
X67683Y-49716D01*
X67683Y-49907D01*
X67717Y-49954D01*
X67750Y-49978D01*
X67817Y-50002D01*
X67917Y-50002D01*
X67983Y-49978D01*
X68017Y-49954D01*
X68050Y-49907D01*
X68050Y-49716D01*
X68383Y-50454D02*
X68383Y-50216D01*
X67683Y-50216D01*
X68050Y-50716D02*
X68383Y-50716D01*
X67683Y-50550D02*
X68050Y-50716D01*
X67683Y-50883D01*
X68783Y-47645D02*
X69483Y-47979D01*
X68783Y-47979D02*
X69483Y-47645D01*
X68850Y-48145D02*
X68817Y-48169D01*
X68783Y-48217D01*
X68783Y-48336D01*
X68817Y-48383D01*
X68850Y-48407D01*
X68917Y-48431D01*
X68983Y-48431D01*
X69083Y-48407D01*
X69483Y-48121D01*
X69483Y-48431D01*
X67695Y-36915D02*
X67695Y-37201D01*
X67924Y-36858D02*
X67124Y-37058D01*
X67924Y-37258D01*
X67695Y-37429D02*
X67695Y-37715D01*
X67924Y-37372D02*
X67124Y-37572D01*
X67924Y-37772D01*
X67124Y-38229D02*
X67124Y-38115D01*
X67162Y-38058D01*
X67200Y-38029D01*
X67314Y-37972D01*
X67467Y-37943D01*
X67771Y-37943D01*
X67848Y-37972D01*
X67886Y-38000D01*
X67924Y-38058D01*
X67924Y-38172D01*
X67886Y-38229D01*
X67848Y-38258D01*
X67771Y-38286D01*
X67581Y-38286D01*
X67505Y-38258D01*
X67467Y-38229D01*
X67429Y-38172D01*
X67429Y-38058D01*
X67467Y-38000D01*
X67505Y-37972D01*
X67581Y-37943D01*
X67924Y-38543D02*
X67124Y-38543D01*
X67124Y-38771D01*
X67162Y-38829D01*
X67200Y-38857D01*
X67276Y-38886D01*
X67390Y-38886D01*
X67467Y-38857D01*
X67505Y-38829D01*
X67543Y-38771D01*
X67543Y-38543D01*
X67924Y-39486D02*
X67543Y-39286D01*
X67924Y-39143D02*
X67124Y-39143D01*
X67124Y-39371D01*
X67162Y-39429D01*
X67200Y-39457D01*
X67276Y-39486D01*
X67390Y-39486D01*
X67467Y-39457D01*
X67505Y-39429D01*
X67543Y-39371D01*
X67543Y-39143D01*
M02*
