G04 #@! TF.FileFunction,Legend,Top*
%FSLAX46Y46*%
G04 Gerber Fmt 4.6, Leading zero omitted, Abs format (unit mm)*
G04 Created by KiCad (PCBNEW 4.0.1-stable) date 7/11/2016 2:58:10 PM*
%MOMM*%
G01*
G04 APERTURE LIST*
%ADD10C,0.150000*%
%ADD11C,0.300000*%
%ADD12C,0.476250*%
%ADD13C,0.203200*%
G04 APERTURE END LIST*
D10*
D11*
X12839095Y-24704524D02*
X12718142Y-24644048D01*
X12657666Y-24523095D01*
X12657666Y-23434524D01*
X13867190Y-24704524D02*
X13867190Y-24039286D01*
X13806713Y-23918333D01*
X13685761Y-23857857D01*
X13443856Y-23857857D01*
X13322904Y-23918333D01*
X13867190Y-24644048D02*
X13746237Y-24704524D01*
X13443856Y-24704524D01*
X13322904Y-24644048D01*
X13262428Y-24523095D01*
X13262428Y-24402143D01*
X13322904Y-24281190D01*
X13443856Y-24220714D01*
X13746237Y-24220714D01*
X13867190Y-24160238D01*
X14471952Y-23857857D02*
X14471952Y-24704524D01*
X14471952Y-23978810D02*
X14532428Y-23918333D01*
X14653381Y-23857857D01*
X14834809Y-23857857D01*
X14955761Y-23918333D01*
X15016238Y-24039286D01*
X15016238Y-24704524D01*
X16165286Y-24704524D02*
X16165286Y-23434524D01*
X16165286Y-24644048D02*
X16044333Y-24704524D01*
X15802429Y-24704524D01*
X15681476Y-24644048D01*
X15621000Y-24583571D01*
X15560524Y-24462619D01*
X15560524Y-24099762D01*
X15621000Y-23978810D01*
X15681476Y-23918333D01*
X15802429Y-23857857D01*
X16044333Y-23857857D01*
X16165286Y-23918333D01*
X16770048Y-24220714D02*
X17737667Y-24220714D01*
X18342429Y-24704524D02*
X18342429Y-23434524D01*
X18342429Y-23918333D02*
X18463381Y-23857857D01*
X18705286Y-23857857D01*
X18826238Y-23918333D01*
X18886715Y-23978810D01*
X18947191Y-24099762D01*
X18947191Y-24462619D01*
X18886715Y-24583571D01*
X18826238Y-24644048D01*
X18705286Y-24704524D01*
X18463381Y-24704524D01*
X18342429Y-24644048D01*
X19672906Y-24704524D02*
X19551953Y-24644048D01*
X19491477Y-24583571D01*
X19431001Y-24462619D01*
X19431001Y-24099762D01*
X19491477Y-23978810D01*
X19551953Y-23918333D01*
X19672906Y-23857857D01*
X19854334Y-23857857D01*
X19975286Y-23918333D01*
X20035763Y-23978810D01*
X20096239Y-24099762D01*
X20096239Y-24462619D01*
X20035763Y-24583571D01*
X19975286Y-24644048D01*
X19854334Y-24704524D01*
X19672906Y-24704524D01*
X21184811Y-24704524D02*
X21184811Y-24039286D01*
X21124334Y-23918333D01*
X21003382Y-23857857D01*
X20761477Y-23857857D01*
X20640525Y-23918333D01*
X21184811Y-24644048D02*
X21063858Y-24704524D01*
X20761477Y-24704524D01*
X20640525Y-24644048D01*
X20580049Y-24523095D01*
X20580049Y-24402143D01*
X20640525Y-24281190D01*
X20761477Y-24220714D01*
X21063858Y-24220714D01*
X21184811Y-24160238D01*
X21789573Y-24704524D02*
X21789573Y-23857857D01*
X21789573Y-24099762D02*
X21850049Y-23978810D01*
X21910525Y-23918333D01*
X22031478Y-23857857D01*
X22152430Y-23857857D01*
X23120049Y-24704524D02*
X23120049Y-23434524D01*
X23120049Y-24644048D02*
X22999096Y-24704524D01*
X22757192Y-24704524D01*
X22636239Y-24644048D01*
X22575763Y-24583571D01*
X22515287Y-24462619D01*
X22515287Y-24099762D01*
X22575763Y-23978810D01*
X22636239Y-23918333D01*
X22757192Y-23857857D01*
X22999096Y-23857857D01*
X23120049Y-23918333D01*
X23664335Y-24644048D02*
X23785287Y-24704524D01*
X24027192Y-24704524D01*
X24148144Y-24644048D01*
X24208620Y-24523095D01*
X24208620Y-24462619D01*
X24148144Y-24341667D01*
X24027192Y-24281190D01*
X23845763Y-24281190D01*
X23724811Y-24220714D01*
X23664335Y-24099762D01*
X23664335Y-24039286D01*
X23724811Y-23918333D01*
X23845763Y-23857857D01*
X24027192Y-23857857D01*
X24148144Y-23918333D01*
X24752906Y-24583571D02*
X24813382Y-24644048D01*
X24752906Y-24704524D01*
X24692430Y-24644048D01*
X24752906Y-24583571D01*
X24752906Y-24704524D01*
X25901954Y-24644048D02*
X25781001Y-24704524D01*
X25539097Y-24704524D01*
X25418144Y-24644048D01*
X25357668Y-24583571D01*
X25297192Y-24462619D01*
X25297192Y-24099762D01*
X25357668Y-23978810D01*
X25418144Y-23918333D01*
X25539097Y-23857857D01*
X25781001Y-23857857D01*
X25901954Y-23918333D01*
X26627668Y-24704524D02*
X26506715Y-24644048D01*
X26446239Y-24583571D01*
X26385763Y-24462619D01*
X26385763Y-24099762D01*
X26446239Y-23978810D01*
X26506715Y-23918333D01*
X26627668Y-23857857D01*
X26809096Y-23857857D01*
X26930048Y-23918333D01*
X26990525Y-23978810D01*
X27051001Y-24099762D01*
X27051001Y-24462619D01*
X26990525Y-24583571D01*
X26930048Y-24644048D01*
X26809096Y-24704524D01*
X26627668Y-24704524D01*
X27595287Y-24704524D02*
X27595287Y-23857857D01*
X27595287Y-23978810D02*
X27655763Y-23918333D01*
X27776716Y-23857857D01*
X27958144Y-23857857D01*
X28079096Y-23918333D01*
X28139573Y-24039286D01*
X28139573Y-24704524D01*
X28139573Y-24039286D02*
X28200049Y-23918333D01*
X28321001Y-23857857D01*
X28502430Y-23857857D01*
X28623382Y-23918333D01*
X28683858Y-24039286D01*
X28683858Y-24704524D01*
X30195763Y-23374048D02*
X29107191Y-25006905D01*
D12*
X15584715Y-27785786D02*
X14949715Y-26878643D01*
X14496143Y-27785786D02*
X14496143Y-25880786D01*
X15221858Y-25880786D01*
X15403286Y-25971500D01*
X15494001Y-26062214D01*
X15584715Y-26243643D01*
X15584715Y-26515786D01*
X15494001Y-26697214D01*
X15403286Y-26787929D01*
X15221858Y-26878643D01*
X14496143Y-26878643D01*
X16401143Y-27785786D02*
X16401143Y-25880786D01*
X17126858Y-25880786D01*
X17308286Y-25971500D01*
X17399001Y-26062214D01*
X17489715Y-26243643D01*
X17489715Y-26515786D01*
X17399001Y-26697214D01*
X17308286Y-26787929D01*
X17126858Y-26878643D01*
X16401143Y-26878643D01*
X18306143Y-27785786D02*
X18306143Y-25880786D01*
X19213286Y-27060071D02*
X20664715Y-27060071D01*
X21571857Y-27785786D02*
X21571857Y-25880786D01*
X22297572Y-25880786D01*
X22479000Y-25971500D01*
X22569715Y-26062214D01*
X22660429Y-26243643D01*
X22660429Y-26515786D01*
X22569715Y-26697214D01*
X22479000Y-26787929D01*
X22297572Y-26878643D01*
X21571857Y-26878643D01*
X23295429Y-25880786D02*
X23749000Y-27785786D01*
X24111857Y-26425071D01*
X24474715Y-27785786D01*
X24928286Y-25880786D01*
X26742572Y-27785786D02*
X26107572Y-26878643D01*
X25654000Y-27785786D02*
X25654000Y-25880786D01*
X26379715Y-25880786D01*
X26561143Y-25971500D01*
X26651858Y-26062214D01*
X26742572Y-26243643D01*
X26742572Y-26515786D01*
X26651858Y-26697214D01*
X26561143Y-26787929D01*
X26379715Y-26878643D01*
X25654000Y-26878643D01*
D13*
X635000Y-5715000D02*
X33655000Y-5715000D01*
X33655000Y-635000D02*
X635000Y-635000D01*
X635000Y-635000D02*
X635000Y-5715000D01*
X33655000Y-5715000D02*
X33655000Y-635000D01*
D10*
X7604000Y-8695000D02*
X5604000Y-8695000D01*
X5604000Y-6545000D02*
X7604000Y-6545000D01*
X11223667Y-7548571D02*
X10890333Y-7548571D01*
X10890333Y-8072381D02*
X10890333Y-7072381D01*
X11366524Y-7072381D01*
X12271286Y-8072381D02*
X11699857Y-8072381D01*
X11985571Y-8072381D02*
X11985571Y-7072381D01*
X11890333Y-7215238D01*
X11795095Y-7310476D01*
X11699857Y-7358095D01*
M02*
