G04 #@! TF.FileFunction,Legend,Bot*
%FSLAX46Y46*%
G04 Gerber Fmt 4.6, Leading zero omitted, Abs format (unit mm)*
G04 Created by KiCad (PCBNEW 4.0.1-stable) date 7/11/2016 2:58:10 PM*
%MOMM*%
G01*
G04 APERTURE LIST*
%ADD10C,0.150000*%
%ADD11C,0.300000*%
%ADD12C,0.650000*%
%ADD13C,0.304800*%
G04 APERTURE END LIST*
D10*
D11*
X26454856Y-8171571D02*
X26454856Y-6671571D01*
X25883428Y-6671571D01*
X25740570Y-6743000D01*
X25669142Y-6814429D01*
X25597713Y-6957286D01*
X25597713Y-7171571D01*
X25669142Y-7314429D01*
X25740570Y-7385857D01*
X25883428Y-7457286D01*
X26454856Y-7457286D01*
X25097713Y-6671571D02*
X24740570Y-8171571D01*
X24454856Y-7100143D01*
X24169142Y-8171571D01*
X23811999Y-6671571D01*
X22740570Y-7385857D02*
X22526284Y-7457286D01*
X22454856Y-7528714D01*
X22383427Y-7671571D01*
X22383427Y-7885857D01*
X22454856Y-8028714D01*
X22526284Y-8100143D01*
X22669142Y-8171571D01*
X23240570Y-8171571D01*
X23240570Y-6671571D01*
X22740570Y-6671571D01*
X22597713Y-6743000D01*
X22526284Y-6814429D01*
X22454856Y-6957286D01*
X22454856Y-7100143D01*
X22526284Y-7243000D01*
X22597713Y-7314429D01*
X22740570Y-7385857D01*
X23240570Y-7385857D01*
X19740570Y-8171571D02*
X20240570Y-7457286D01*
X20597713Y-8171571D02*
X20597713Y-6671571D01*
X20026285Y-6671571D01*
X19883427Y-6743000D01*
X19811999Y-6814429D01*
X19740570Y-6957286D01*
X19740570Y-7171571D01*
X19811999Y-7314429D01*
X19883427Y-7385857D01*
X20026285Y-7457286D01*
X20597713Y-7457286D01*
X19097713Y-7385857D02*
X18597713Y-7385857D01*
X18383427Y-8171571D02*
X19097713Y-8171571D01*
X19097713Y-6671571D01*
X18383427Y-6671571D01*
X17954856Y-6671571D02*
X17454856Y-8171571D01*
X16954856Y-6671571D01*
X15454856Y-6671571D02*
X14454856Y-8171571D01*
X14454856Y-6671571D02*
X15454856Y-8171571D01*
X13954857Y-6814429D02*
X13883428Y-6743000D01*
X13740571Y-6671571D01*
X13383428Y-6671571D01*
X13240571Y-6743000D01*
X13169142Y-6814429D01*
X13097714Y-6957286D01*
X13097714Y-7100143D01*
X13169142Y-7314429D01*
X14026285Y-8171571D01*
X13097714Y-8171571D01*
D10*
X9144000Y-27990800D02*
X6604000Y-27990800D01*
X6898473Y-25245136D02*
G75*
G02X7874000Y-24892000I975527J-1170864D01*
G01*
X7874469Y-24893889D02*
G75*
G02X8884920Y-25278080I-469J-1522111D01*
G01*
X7873966Y-27938147D02*
G75*
G02X6883400Y-27571700I34J1522147D01*
G01*
X8849527Y-27586864D02*
G75*
G02X7874000Y-27940000I-975527J1170864D01*
G01*
X6986845Y-27655166D02*
G75*
G02X6350000Y-26416000I887155J1239166D01*
G01*
X6350000Y-26415199D02*
G75*
G02X6959600Y-25196800I1524000J-801D01*
G01*
X9396206Y-26416442D02*
G75*
G02X8808720Y-27617420I-1522206J442D01*
G01*
X8810171Y-25213436D02*
G75*
G02X9398000Y-26416000I-936171J-1202564D01*
G01*
X7239000Y-26416000D02*
G75*
G02X7874000Y-25781000I635000J0D01*
G01*
X6858000Y-26416000D02*
G75*
G02X7874000Y-25400000I1016000J0D01*
G01*
X8509000Y-26416000D02*
G75*
G02X7874000Y-27051000I-635000J0D01*
G01*
X8890000Y-26416000D02*
G75*
G02X7874000Y-27432000I-1016000J0D01*
G01*
X6570574Y-27974880D02*
G75*
G02X5842000Y-26416000I1303426J1558880D01*
G01*
X5844540Y-26415025D02*
G75*
G02X6918960Y-24625300I2029460J-975D01*
G01*
X9903386Y-26418552D02*
G75*
G02X9184640Y-27965400I-2029386J2552D01*
G01*
X8883851Y-24652701D02*
G75*
G02X9906000Y-26416000I-1009851J-1763299D01*
G01*
X6910653Y-24626870D02*
G75*
G02X7874000Y-24384000I963347J-1789130D01*
G01*
X7874100Y-24385077D02*
G75*
G02X8938260Y-24686260I-100J-2030923D01*
G01*
X25795000Y-14132000D02*
X25795000Y-15332000D01*
X27545000Y-15332000D02*
X27545000Y-14132000D01*
X13370000Y-25767000D02*
X14570000Y-25767000D01*
X14570000Y-24017000D02*
X13370000Y-24017000D01*
D12*
X29813000Y-28289000D02*
X29813000Y-24289000D01*
X29813000Y-24289000D02*
X25813000Y-24289000D01*
X25813000Y-24289000D02*
X25813000Y-28289000D01*
X25813000Y-24289000D02*
X29813000Y-24289000D01*
X25813000Y-24789000D02*
X29813000Y-24789000D01*
X25813000Y-25289000D02*
X29813000Y-25289000D01*
X25813000Y-25789000D02*
X29813000Y-25789000D01*
X25813000Y-26289000D02*
X29813000Y-26289000D01*
X25813000Y-26789000D02*
X29813000Y-26789000D01*
X25813000Y-27289000D02*
X29813000Y-27289000D01*
X25813000Y-28289000D02*
X29813000Y-28289000D01*
X25813000Y-27789000D02*
X29813000Y-27789000D01*
D10*
X25813000Y-28289000D02*
X29813000Y-28289000D01*
X29813000Y-28289000D02*
X29813000Y-24289000D01*
X29813000Y-24289000D02*
X25813000Y-24289000D01*
X25813000Y-24289000D02*
X25813000Y-28289000D01*
X10654095Y-28930381D02*
X10654095Y-27930381D01*
X10416000Y-27930381D01*
X10273142Y-27978000D01*
X10177904Y-28073238D01*
X10130285Y-28168476D01*
X10082666Y-28358952D01*
X10082666Y-28501810D01*
X10130285Y-28692286D01*
X10177904Y-28787524D01*
X10273142Y-28882762D01*
X10416000Y-28930381D01*
X10654095Y-28930381D01*
X9130285Y-28930381D02*
X9701714Y-28930381D01*
X9416000Y-28930381D02*
X9416000Y-27930381D01*
X9511238Y-28073238D01*
X9606476Y-28168476D01*
X9701714Y-28216095D01*
X29154381Y-14565334D02*
X28678190Y-14232000D01*
X29154381Y-13993905D02*
X28154381Y-13993905D01*
X28154381Y-14374858D01*
X28202000Y-14470096D01*
X28249619Y-14517715D01*
X28344857Y-14565334D01*
X28487714Y-14565334D01*
X28582952Y-14517715D01*
X28630571Y-14470096D01*
X28678190Y-14374858D01*
X28678190Y-13993905D01*
X28249619Y-14946286D02*
X28202000Y-14993905D01*
X28154381Y-15089143D01*
X28154381Y-15327239D01*
X28202000Y-15422477D01*
X28249619Y-15470096D01*
X28344857Y-15517715D01*
X28440095Y-15517715D01*
X28582952Y-15470096D01*
X29154381Y-14898667D01*
X29154381Y-15517715D01*
X14030166Y-27048381D02*
X14363500Y-26572190D01*
X14601595Y-27048381D02*
X14601595Y-26048381D01*
X14220642Y-26048381D01*
X14125404Y-26096000D01*
X14077785Y-26143619D01*
X14030166Y-26238857D01*
X14030166Y-26381714D01*
X14077785Y-26476952D01*
X14125404Y-26524571D01*
X14220642Y-26572190D01*
X14601595Y-26572190D01*
X13077785Y-27048381D02*
X13649214Y-27048381D01*
X13363500Y-27048381D02*
X13363500Y-26048381D01*
X13458738Y-26191238D01*
X13553976Y-26286476D01*
X13649214Y-26334095D01*
D13*
X31187571Y-21644429D02*
X30316714Y-21644429D01*
X30752143Y-23168429D02*
X30752143Y-21644429D01*
X29808714Y-22370143D02*
X29300714Y-22370143D01*
X29083000Y-23168429D02*
X29808714Y-23168429D01*
X29808714Y-21644429D01*
X29083000Y-21644429D01*
X28502428Y-23095857D02*
X28284714Y-23168429D01*
X27921857Y-23168429D01*
X27776714Y-23095857D01*
X27704143Y-23023286D01*
X27631571Y-22878143D01*
X27631571Y-22733000D01*
X27704143Y-22587857D01*
X27776714Y-22515286D01*
X27921857Y-22442714D01*
X28212143Y-22370143D01*
X28357285Y-22297571D01*
X28429857Y-22225000D01*
X28502428Y-22079857D01*
X28502428Y-21934714D01*
X28429857Y-21789571D01*
X28357285Y-21717000D01*
X28212143Y-21644429D01*
X27849285Y-21644429D01*
X27631571Y-21717000D01*
X27196142Y-21644429D02*
X26325285Y-21644429D01*
X26760714Y-23168429D02*
X26760714Y-21644429D01*
X25817285Y-22370143D02*
X25309285Y-22370143D01*
X25091571Y-23168429D02*
X25817285Y-23168429D01*
X25817285Y-21644429D01*
X25091571Y-21644429D01*
X24438428Y-23168429D02*
X24438428Y-21644429D01*
X24075571Y-21644429D01*
X23857856Y-21717000D01*
X23712714Y-21862143D01*
X23640142Y-22007286D01*
X23567571Y-22297571D01*
X23567571Y-22515286D01*
X23640142Y-22805571D01*
X23712714Y-22950714D01*
X23857856Y-23095857D01*
X24075571Y-23168429D01*
X24438428Y-23168429D01*
M02*
