G04 #@! TF.FileFunction,Copper,L2,Bot,Signal*
%FSLAX46Y46*%
G04 Gerber Fmt 4.6, Leading zero omitted, Abs format (unit mm)*
G04 Created by KiCad (PCBNEW (2015-06-26 BZR 5830)-product) date Wed 08 Jul 2015 19:22:31 BST*
%MOMM*%
G01*
G04 APERTURE LIST*
%ADD10C,0.100000*%
%ADD11R,1.198880X1.198880*%
%ADD12R,1.727200X1.727200*%
%ADD13O,1.727200X1.727200*%
%ADD14R,1.727200X2.032000*%
%ADD15O,1.727200X2.032000*%
%ADD16R,1.600000X3.000000*%
%ADD17C,0.600000*%
%ADD18C,0.450000*%
%ADD19C,1.000000*%
%ADD20C,0.400000*%
%ADD21C,0.200000*%
%ADD22C,0.800000*%
%ADD23C,0.254000*%
G04 APERTURE END LIST*
D10*
D11*
X173950980Y-111750000D03*
X176049020Y-111750000D03*
D12*
X166960000Y-111960000D03*
D13*
X169500000Y-111960000D03*
X166960000Y-114500000D03*
X169500000Y-114500000D03*
X166960000Y-117040000D03*
X169500000Y-117040000D03*
D14*
X167670000Y-123000000D03*
D15*
X170210000Y-123000000D03*
X172750000Y-123000000D03*
D16*
X177500000Y-91250000D03*
X177500000Y-78750000D03*
X172500000Y-91250000D03*
X172500000Y-78750000D03*
X172500000Y-96250000D03*
X172500000Y-108750000D03*
X177500000Y-96250000D03*
X177500000Y-108750000D03*
D14*
X171160000Y-71600000D03*
D15*
X173700000Y-71600000D03*
X176240000Y-71600000D03*
X178780000Y-71600000D03*
D17*
X180000000Y-105250000D03*
X167700000Y-120300000D03*
X179449140Y-111050860D03*
X173642500Y-83212500D03*
X175432500Y-83212500D03*
X174537500Y-84682500D03*
X176327500Y-83212500D03*
X175432500Y-84682500D03*
X174537500Y-83212500D03*
X173642500Y-84682500D03*
X179449140Y-111050860D03*
X177250000Y-113250000D03*
X169000000Y-99750000D03*
X169000000Y-100613823D03*
X169000000Y-101492967D03*
X172000000Y-101500000D03*
X172000000Y-100632138D03*
X172000000Y-99750000D03*
X166250000Y-81000000D03*
X166250000Y-78500000D03*
X166250000Y-79750000D03*
X175000000Y-76800000D03*
X169000000Y-106250000D03*
X175000000Y-92007969D03*
X175000000Y-91000000D03*
X175000000Y-90000000D03*
X178482290Y-83517710D03*
X177977199Y-84022801D03*
X179000000Y-83000000D03*
X182000000Y-74972400D03*
X178263188Y-87239054D03*
X177731782Y-87803219D03*
X176988989Y-88088989D03*
X171500000Y-80900000D03*
X173841275Y-79653457D03*
X178500000Y-80900000D03*
X176119737Y-79662443D03*
X176250000Y-110599998D03*
X176350000Y-111750000D03*
X180000000Y-104000000D03*
X181012427Y-88987573D03*
X170950000Y-76950000D03*
X179000000Y-77000000D03*
X167900000Y-75012400D03*
X167900000Y-87100000D03*
X168400000Y-87600000D03*
X168913706Y-88100000D03*
X169135000Y-104115000D03*
X170500000Y-85600000D03*
X166960000Y-105503968D03*
D18*
X178774990Y-105024990D02*
X179000000Y-105250000D01*
X179000000Y-105250000D02*
X180000000Y-105250000D01*
X178774990Y-104524990D02*
X178774990Y-105024990D01*
X178774990Y-100630630D02*
X178774990Y-104524990D01*
X178774990Y-99100000D02*
X178774990Y-100630630D01*
X177500000Y-91250000D02*
X177500000Y-91950000D01*
X177500000Y-91950000D02*
X178774990Y-93224990D01*
X178774990Y-93224990D02*
X178774990Y-99100000D01*
D19*
X172500000Y-93000000D02*
X173000000Y-93500000D01*
X172500000Y-91250000D02*
X172500000Y-93000000D01*
X177500000Y-108750000D02*
X177500000Y-109101720D01*
X177500000Y-109101720D02*
X179449140Y-111050860D01*
D20*
X172750000Y-123000000D02*
X172750000Y-122847600D01*
X172750000Y-122847600D02*
X170902400Y-121000000D01*
X170902400Y-121000000D02*
X167700000Y-121000000D01*
D19*
X166250000Y-79750000D02*
X166250000Y-78500000D01*
X177500000Y-96250000D02*
X177500000Y-108750000D01*
X175000000Y-76800000D02*
X175000000Y-78209913D01*
X175000000Y-78209913D02*
X175000000Y-84200000D01*
X172500000Y-78750000D02*
X172978812Y-78271188D01*
X172978812Y-78271188D02*
X174938725Y-78271188D01*
X174938725Y-78271188D02*
X175000000Y-78209913D01*
X172500000Y-91250000D02*
X172500000Y-91950000D01*
X172500000Y-91950000D02*
X176800000Y-96250000D01*
X176800000Y-96250000D02*
X177500000Y-96250000D01*
X175000000Y-84200000D02*
X172500000Y-86700000D01*
X172500000Y-86700000D02*
X172500000Y-91250000D01*
X173000000Y-78250000D02*
X172500000Y-78750000D01*
D18*
X172500000Y-108750000D02*
X172500000Y-108050000D01*
X170700000Y-106250000D02*
X169424264Y-106250000D01*
X172500000Y-108050000D02*
X170700000Y-106250000D01*
X169424264Y-106250000D02*
X169000000Y-106250000D01*
X166960000Y-114500000D02*
X168258999Y-113201001D01*
X168258999Y-113201001D02*
X168258999Y-106991001D01*
X168258999Y-106991001D02*
X168700001Y-106549999D01*
X168700001Y-106549999D02*
X169000000Y-106250000D01*
D19*
X175000000Y-91000000D02*
X175000000Y-92007969D01*
X175000000Y-90000000D02*
X175000000Y-91000000D01*
X175000000Y-90000000D02*
X175000000Y-87000000D01*
X175000000Y-87000000D02*
X175310000Y-86690000D01*
X179000000Y-83000000D02*
X178482290Y-83517710D01*
X178482290Y-83517710D02*
X175310000Y-86690000D01*
X177977199Y-84022801D02*
X178482290Y-83517710D01*
D18*
X177977199Y-84022801D02*
X175310000Y-86690000D01*
D19*
X182000000Y-75615896D02*
X182000000Y-74972400D01*
X182000000Y-83502242D02*
X182000000Y-75615896D01*
X178263188Y-87239054D02*
X182000000Y-83502242D01*
X182000000Y-74972400D02*
X178780000Y-71752400D01*
X178780000Y-71752400D02*
X178780000Y-71600000D01*
X177413253Y-88088989D02*
X178263188Y-87239054D01*
X176988989Y-88088989D02*
X177413253Y-88088989D01*
D18*
X173415002Y-80900000D02*
X171500000Y-80900000D01*
X173841275Y-79653457D02*
X173841275Y-80473727D01*
X173841275Y-80473727D02*
X173415002Y-80900000D01*
X176119737Y-79662443D02*
X176119737Y-80434739D01*
X176119737Y-80434739D02*
X176584998Y-80900000D01*
X176584998Y-80900000D02*
X178500000Y-80900000D01*
D20*
X176250000Y-110599998D02*
X175280140Y-110599998D01*
X175280140Y-110599998D02*
X174950421Y-110929717D01*
X174950421Y-112669441D02*
X171843463Y-115776399D01*
X174950421Y-110929717D02*
X174950421Y-112669441D01*
X171843463Y-115776399D02*
X168223601Y-115776399D01*
X168223601Y-115776399D02*
X167823599Y-116176401D01*
X167823599Y-116176401D02*
X166960000Y-117040000D01*
D21*
X176049020Y-111750000D02*
X176350000Y-111750000D01*
D18*
X180000000Y-90000000D02*
X180000000Y-104000000D01*
X180712428Y-89287572D02*
X180000000Y-90000000D01*
X181012427Y-88987573D02*
X180712428Y-89287572D01*
D22*
X170950000Y-76525736D02*
X173700000Y-73775736D01*
X173700000Y-73775736D02*
X173700000Y-71600000D01*
X170950000Y-76950000D02*
X170950000Y-76525736D01*
X176240000Y-71600000D02*
X176240000Y-73740000D01*
X179000000Y-76500000D02*
X179000000Y-77000000D01*
X176240000Y-73740000D02*
X179000000Y-76500000D01*
D19*
X167900000Y-75012400D02*
X167900000Y-75650468D01*
X167900000Y-87100000D02*
X167900000Y-75650468D01*
X167900000Y-75012400D02*
X171160000Y-71752400D01*
X171160000Y-71752400D02*
X171160000Y-71600000D01*
X168913706Y-88100000D02*
X168900000Y-88100000D01*
X168900000Y-88100000D02*
X167900000Y-87100000D01*
D18*
X170504475Y-86254475D02*
X170504475Y-100876048D01*
X170504475Y-100876048D02*
X170504475Y-102745525D01*
X170504475Y-102745525D02*
X169135000Y-104115000D01*
X170500000Y-86250000D02*
X170504475Y-86254475D01*
X170500000Y-85600000D02*
X170500000Y-86250000D01*
D20*
X169503804Y-105500000D02*
X166963968Y-105500000D01*
X166963968Y-105500000D02*
X166960000Y-105503968D01*
X173950980Y-107180978D02*
X172713871Y-105943869D01*
X172713871Y-105943869D02*
X172270002Y-105500000D01*
X172270002Y-105500000D02*
X169503804Y-105500000D01*
X169503804Y-105500000D02*
X169500000Y-105496196D01*
X173950980Y-111750000D02*
X173950980Y-107180978D01*
D23*
G36*
X167618532Y-67213841D02*
X167719017Y-67280983D01*
X167786159Y-67381468D01*
X167836008Y-67632075D01*
X167861526Y-67693680D01*
X167874534Y-67759077D01*
X167911578Y-67814517D01*
X167937095Y-67876121D01*
X167984245Y-67923271D01*
X168021289Y-67978711D01*
X168076731Y-68015756D01*
X168123879Y-68062904D01*
X168185480Y-68088420D01*
X168240923Y-68125466D01*
X168306322Y-68138475D01*
X168367923Y-68163991D01*
X168434601Y-68163991D01*
X168500000Y-68177000D01*
X181500000Y-68177000D01*
X181565399Y-68163991D01*
X181632077Y-68163991D01*
X181693678Y-68138475D01*
X181759077Y-68125466D01*
X181814520Y-68088420D01*
X181876121Y-68062904D01*
X181923269Y-68015756D01*
X181978711Y-67978711D01*
X182015755Y-67923271D01*
X182062905Y-67876121D01*
X182088423Y-67814516D01*
X182125466Y-67759077D01*
X182138474Y-67693682D01*
X182163992Y-67632076D01*
X182213841Y-67381468D01*
X182280983Y-67280983D01*
X182381468Y-67213841D01*
X182566679Y-67177000D01*
X184933320Y-67177000D01*
X185118532Y-67213841D01*
X185219017Y-67280983D01*
X185286159Y-67381468D01*
X185323000Y-67566679D01*
X185323000Y-67623281D01*
X184529260Y-67622588D01*
X183655297Y-67983703D01*
X182986053Y-68651780D01*
X182623414Y-69525111D01*
X182622588Y-70470740D01*
X182983703Y-71344703D01*
X183651780Y-72013947D01*
X184525111Y-72376586D01*
X185323000Y-72377283D01*
X185323000Y-72433321D01*
X185286159Y-72618532D01*
X185219017Y-72719017D01*
X185118532Y-72786159D01*
X184867924Y-72836008D01*
X184806318Y-72861526D01*
X184740923Y-72874534D01*
X184685484Y-72911577D01*
X184623879Y-72937095D01*
X184576729Y-72984245D01*
X184521289Y-73021289D01*
X184484244Y-73076731D01*
X184437096Y-73123879D01*
X184411580Y-73185480D01*
X184374534Y-73240923D01*
X184361525Y-73306322D01*
X184336009Y-73367923D01*
X184336009Y-73434601D01*
X184323000Y-73500000D01*
X184323000Y-98500000D01*
X184336009Y-98565399D01*
X184336009Y-98632077D01*
X184361525Y-98693678D01*
X184374534Y-98759077D01*
X184411580Y-98814520D01*
X184437096Y-98876121D01*
X184484244Y-98923269D01*
X184521289Y-98978711D01*
X184576729Y-99015755D01*
X184623879Y-99062905D01*
X184685484Y-99088423D01*
X184740923Y-99125466D01*
X184806318Y-99138474D01*
X184867924Y-99163992D01*
X185118532Y-99213841D01*
X185219017Y-99280983D01*
X185286159Y-99381468D01*
X185323000Y-99566679D01*
X185323000Y-99623281D01*
X184529260Y-99622588D01*
X183655297Y-99983703D01*
X182986053Y-100651780D01*
X182623414Y-101525111D01*
X182622588Y-102470740D01*
X182983703Y-103344703D01*
X183651780Y-104013947D01*
X184525111Y-104376586D01*
X185323000Y-104377283D01*
X185323000Y-104433321D01*
X185286159Y-104618532D01*
X185219017Y-104719017D01*
X185118532Y-104786159D01*
X184867924Y-104836008D01*
X184806318Y-104861526D01*
X184740923Y-104874534D01*
X184685484Y-104911577D01*
X184623879Y-104937095D01*
X184576729Y-104984245D01*
X184521289Y-105021289D01*
X184484244Y-105076731D01*
X184437096Y-105123879D01*
X184411580Y-105185480D01*
X184374534Y-105240923D01*
X184361525Y-105306322D01*
X184336009Y-105367923D01*
X184336009Y-105434601D01*
X184323000Y-105500000D01*
X184323000Y-123933321D01*
X184286159Y-124118532D01*
X184219017Y-124219017D01*
X184118532Y-124286159D01*
X183933320Y-124323000D01*
X173667547Y-124323000D01*
X174037339Y-123906801D01*
X174228043Y-123356732D01*
X174085060Y-123123000D01*
X172873000Y-123123000D01*
X172873000Y-123143000D01*
X172627000Y-123143000D01*
X172627000Y-123123000D01*
X172607000Y-123123000D01*
X172607000Y-122877000D01*
X172627000Y-122877000D01*
X172627000Y-121519433D01*
X172873000Y-121519433D01*
X172873000Y-122877000D01*
X174085060Y-122877000D01*
X174228043Y-122643268D01*
X174037339Y-122093199D01*
X173650649Y-121657981D01*
X173126844Y-121403872D01*
X173103872Y-121399614D01*
X172873000Y-121519433D01*
X172627000Y-121519433D01*
X172627000Y-121519433D01*
X172396128Y-121399614D01*
X172373156Y-121403872D01*
X171849351Y-121657981D01*
X171475820Y-122078389D01*
X171264013Y-121761399D01*
X170780428Y-121438277D01*
X170210000Y-121324812D01*
X169639572Y-121438277D01*
X169155987Y-121761399D01*
X169133806Y-121794595D01*
X169065145Y-121628833D01*
X168888767Y-121452455D01*
X168658318Y-121357000D01*
X167949750Y-121357000D01*
X167793000Y-121513750D01*
X167793000Y-122877000D01*
X167813000Y-122877000D01*
X167813000Y-123123000D01*
X167793000Y-123123000D01*
X167793000Y-123143000D01*
X167547000Y-123143000D01*
X167547000Y-123123000D01*
X166336150Y-123123000D01*
X166179400Y-123279750D01*
X166179400Y-124140718D01*
X166254904Y-124323000D01*
X166066679Y-124323000D01*
X165881468Y-124286159D01*
X165780983Y-124219017D01*
X165713841Y-124118532D01*
X165677000Y-123933320D01*
X165677000Y-121357000D01*
X166681682Y-121357000D01*
X166451233Y-121452455D01*
X166274855Y-121628833D01*
X166179400Y-121859282D01*
X166179400Y-122720250D01*
X166336150Y-122877000D01*
X167547000Y-122877000D01*
X167547000Y-121513750D01*
X167390250Y-121357000D01*
X166681682Y-121357000D01*
X165677000Y-121357000D01*
X165677000Y-117795016D01*
X165876784Y-118094013D01*
X166360369Y-118417135D01*
X166930797Y-118530600D01*
X166989203Y-118530600D01*
X167559631Y-118417135D01*
X168043216Y-118094013D01*
X168228580Y-117816598D01*
X168618940Y-118242352D01*
X169146127Y-118487995D01*
X169377000Y-118368776D01*
X169377000Y-117163000D01*
X169623000Y-117163000D01*
X169623000Y-118368776D01*
X169853873Y-118487995D01*
X170381060Y-118242352D01*
X170774113Y-117813661D01*
X170947986Y-117393872D01*
X170828167Y-117163000D01*
X169623000Y-117163000D01*
X169377000Y-117163000D01*
X169377000Y-117163000D01*
X169357000Y-117163000D01*
X169357000Y-116917000D01*
X169377000Y-116917000D01*
X169377000Y-116897000D01*
X169623000Y-116897000D01*
X169623000Y-116917000D01*
X170828167Y-116917000D01*
X170947986Y-116686128D01*
X170913720Y-116603399D01*
X171843463Y-116603399D01*
X172159942Y-116540447D01*
X172428240Y-116361176D01*
X175535198Y-113254218D01*
X175712595Y-112988724D01*
X176648460Y-112988724D01*
X176887533Y-112942338D01*
X177097656Y-112804310D01*
X177238311Y-112595935D01*
X177287744Y-112349440D01*
X177287744Y-111150560D01*
X177241358Y-110911487D01*
X177218704Y-110877000D01*
X177220250Y-110877000D01*
X177377000Y-110720250D01*
X177377000Y-108873000D01*
X177623000Y-108873000D01*
X177623000Y-110720250D01*
X177779750Y-110877000D01*
X178424718Y-110877000D01*
X178655167Y-110781545D01*
X178831545Y-110605167D01*
X178927000Y-110374718D01*
X178927000Y-109029750D01*
X178770250Y-108873000D01*
X177623000Y-108873000D01*
X177377000Y-108873000D01*
X177377000Y-108873000D01*
X176229750Y-108873000D01*
X176073000Y-109029750D01*
X176073000Y-109672843D01*
X176066417Y-109672837D01*
X175824009Y-109772998D01*
X175280140Y-109772998D01*
X174963661Y-109835950D01*
X174777980Y-109960018D01*
X174777980Y-107180978D01*
X174715028Y-106864499D01*
X174706980Y-106852455D01*
X174553665Y-106623000D01*
X176575282Y-106623000D01*
X176344833Y-106718455D01*
X176168455Y-106894833D01*
X176073000Y-107125282D01*
X176073000Y-108470250D01*
X176229750Y-108627000D01*
X177377000Y-108627000D01*
X177377000Y-106779750D01*
X177220250Y-106623000D01*
X177779750Y-106623000D01*
X177220250Y-106623000D01*
X177220250Y-106623000D01*
X177779750Y-106623000D01*
X177623000Y-106779750D01*
X177623000Y-108627000D01*
X178770250Y-108627000D01*
X178927000Y-108470250D01*
X178927000Y-107125282D01*
X178831545Y-106894833D01*
X178655167Y-106718455D01*
X178424718Y-106623000D01*
X177779750Y-106623000D01*
X177220250Y-106623000D01*
X177220250Y-106623000D01*
X176575282Y-106623000D01*
X174553665Y-106623000D01*
X174535757Y-106596200D01*
X173298651Y-105359095D01*
X173298649Y-105359092D01*
X172854779Y-104915223D01*
X172586481Y-104735952D01*
X172270002Y-104673000D01*
X169888147Y-104673000D01*
X169920414Y-104640789D01*
X169995892Y-104459018D01*
X171106930Y-103347980D01*
X171291620Y-103071571D01*
X171356475Y-102745525D01*
X171356475Y-98274355D01*
X171453505Y-98339851D01*
X171700000Y-98389284D01*
X173300000Y-98389284D01*
X173539073Y-98342898D01*
X173749196Y-98204870D01*
X173889851Y-97996495D01*
X173939284Y-97750000D01*
X173939284Y-96373000D01*
X176229750Y-96373000D01*
X176073000Y-96529750D01*
X176073000Y-97874718D01*
X176168455Y-98105167D01*
X176344833Y-98281545D01*
X176575282Y-98377000D01*
X177220250Y-98377000D01*
X177377000Y-98220250D01*
X177377000Y-96373000D01*
X176229750Y-96373000D01*
X173939284Y-96373000D01*
X173939284Y-94750000D01*
X173892898Y-94510927D01*
X173754870Y-94300804D01*
X173546495Y-94160149D01*
X173361254Y-94123000D01*
X176575282Y-94123000D01*
X176344833Y-94218455D01*
X176168455Y-94394833D01*
X176073000Y-94625282D01*
X176073000Y-95970250D01*
X176229750Y-96127000D01*
X177377000Y-96127000D01*
X177377000Y-94279750D01*
X177220250Y-94123000D01*
X176575282Y-94123000D01*
X173361254Y-94123000D01*
X173300000Y-94110716D01*
X171700000Y-94110716D01*
X171460927Y-94157102D01*
X171356475Y-94225716D01*
X171356475Y-93286367D01*
X171575282Y-93377000D01*
X172220250Y-93377000D01*
X172377000Y-93220250D01*
X172377000Y-91373000D01*
X172357000Y-91373000D01*
X172357000Y-91127000D01*
X172377000Y-91127000D01*
X172377000Y-89279750D01*
X172220250Y-89123000D01*
X171575282Y-89123000D01*
X171356475Y-89213633D01*
X171356475Y-86254475D01*
X171352000Y-86231978D01*
X171352000Y-85965433D01*
X171426839Y-85785201D01*
X171427161Y-85416417D01*
X171286331Y-85075583D01*
X171025789Y-84814586D01*
X170685201Y-84673161D01*
X170316417Y-84672839D01*
X169975583Y-84813669D01*
X169714586Y-85074211D01*
X169573161Y-85414799D01*
X169572839Y-85783583D01*
X169648000Y-85965486D01*
X169648000Y-86250000D01*
X169652475Y-86272497D01*
X169652475Y-87258656D01*
X169027000Y-86633182D01*
X169027000Y-75479218D01*
X171250934Y-73255284D01*
X172023600Y-73255284D01*
X172262673Y-73208898D01*
X172472796Y-73070870D01*
X172613451Y-72862495D01*
X172624647Y-72806664D01*
X172645987Y-72838601D01*
X172673000Y-72856651D01*
X172673000Y-73350339D01*
X170223801Y-75799537D01*
X170001176Y-76132720D01*
X169923000Y-76525736D01*
X169923000Y-76950000D01*
X170001176Y-77343016D01*
X170223801Y-77676199D01*
X170556984Y-77898824D01*
X170950000Y-77977000D01*
X171073000Y-77952534D01*
X171073000Y-78470250D01*
X171229750Y-78627000D01*
X172377000Y-78627000D01*
X172377000Y-76779750D01*
X172262692Y-76665442D01*
X172305133Y-76623000D01*
X172779750Y-76623000D01*
X172623000Y-76779750D01*
X172623000Y-78627000D01*
X172643000Y-78627000D01*
X172643000Y-78873000D01*
X172623000Y-78873000D01*
X172623000Y-78893000D01*
X172377000Y-78893000D01*
X172377000Y-78873000D01*
X171229750Y-78873000D01*
X171073000Y-79029750D01*
X171073000Y-80073417D01*
X170975583Y-80113669D01*
X170714586Y-80374211D01*
X170573161Y-80714799D01*
X170572839Y-81083583D01*
X170713669Y-81424417D01*
X170974211Y-81685414D01*
X171314799Y-81826839D01*
X171683583Y-81827161D01*
X171865486Y-81752000D01*
X173415002Y-81752000D01*
X173741048Y-81687145D01*
X174017457Y-81502455D01*
X174443730Y-81076182D01*
X174628420Y-80799773D01*
X174693275Y-80473727D01*
X174693275Y-80018890D01*
X174768114Y-79838658D01*
X174768436Y-79469874D01*
X174627606Y-79129040D01*
X174367064Y-78868043D01*
X174026476Y-78726618D01*
X173927000Y-78726531D01*
X173927000Y-78626998D01*
X173770252Y-78626998D01*
X173927000Y-78470250D01*
X173927000Y-77125282D01*
X173831545Y-76894833D01*
X173655167Y-76718455D01*
X173424718Y-76623000D01*
X172779750Y-76623000D01*
X172305133Y-76623000D01*
X174426196Y-74501937D01*
X174426199Y-74501935D01*
X174648824Y-74168752D01*
X174727000Y-73775736D01*
X174727000Y-72856651D01*
X174754013Y-72838601D01*
X174970000Y-72515354D01*
X175185987Y-72838601D01*
X175213000Y-72856651D01*
X175213000Y-73740000D01*
X175291176Y-74133016D01*
X175513801Y-74466199D01*
X177658319Y-76610716D01*
X176700000Y-76610716D01*
X176460927Y-76657102D01*
X176250804Y-76795130D01*
X176110149Y-77003505D01*
X176060716Y-77250000D01*
X176060716Y-78735391D01*
X175936154Y-78735282D01*
X175595320Y-78876112D01*
X175334323Y-79136654D01*
X175192898Y-79477242D01*
X175192576Y-79846026D01*
X175267737Y-80027929D01*
X175267737Y-80434739D01*
X175332592Y-80760785D01*
X175517282Y-81037194D01*
X175982543Y-81502455D01*
X176258951Y-81687145D01*
X176584998Y-81752000D01*
X178134567Y-81752000D01*
X178314799Y-81826839D01*
X178683583Y-81827161D01*
X179024417Y-81686331D01*
X179285414Y-81425789D01*
X179426839Y-81085201D01*
X179427161Y-80716417D01*
X179286331Y-80375583D01*
X179025789Y-80114586D01*
X178939284Y-80078666D01*
X178939284Y-78014923D01*
X179000000Y-78027000D01*
X179393016Y-77948824D01*
X179726199Y-77726199D01*
X179948824Y-77393016D01*
X180027000Y-77000000D01*
X180027000Y-76500000D01*
X179948824Y-76106984D01*
X179726199Y-75773801D01*
X179726196Y-75773799D01*
X177267000Y-73314602D01*
X177267000Y-72856651D01*
X177294013Y-72838601D01*
X177510000Y-72515354D01*
X177725987Y-72838601D01*
X178209572Y-73161723D01*
X178691333Y-73257551D01*
X180873000Y-75439219D01*
X180873000Y-83035424D01*
X177466282Y-86442142D01*
X177466279Y-86442144D01*
X176935868Y-86972555D01*
X176557705Y-87047777D01*
X176522554Y-87071264D01*
X179279200Y-84314619D01*
X179279202Y-84314616D01*
X179796910Y-83796909D01*
X180041212Y-83431284D01*
X180127000Y-83000000D01*
X180041212Y-82568715D01*
X179796910Y-82203090D01*
X179431285Y-81958788D01*
X179000000Y-81873000D01*
X178568716Y-81958788D01*
X178203091Y-82203090D01*
X177685384Y-82720798D01*
X177685381Y-82720800D01*
X174513091Y-85893091D01*
X174203091Y-86203091D01*
X173958788Y-86568716D01*
X173873000Y-87000000D01*
X173873000Y-89494914D01*
X173831545Y-89394833D01*
X173655167Y-89218455D01*
X173424718Y-89123000D01*
X172779750Y-89123000D01*
X172623000Y-89279750D01*
X172623000Y-91127000D01*
X172643000Y-91127000D01*
X172643000Y-91373000D01*
X172623000Y-91373000D01*
X172623000Y-93220250D01*
X172779750Y-93377000D01*
X173424718Y-93377000D01*
X173655167Y-93281545D01*
X173831545Y-93105167D01*
X173927000Y-92874718D01*
X173927000Y-92279444D01*
X173958788Y-92439253D01*
X174203091Y-92804878D01*
X174568716Y-93049181D01*
X175000000Y-93134969D01*
X175431284Y-93049181D01*
X175796909Y-92804878D01*
X176041212Y-92439253D01*
X176060716Y-92341200D01*
X176060716Y-92750000D01*
X176107102Y-92989073D01*
X176245130Y-93199196D01*
X176453505Y-93339851D01*
X176700000Y-93389284D01*
X177734374Y-93389284D01*
X177922990Y-93577900D01*
X177922990Y-94123000D01*
X177779750Y-94123000D01*
X177623000Y-94279750D01*
X177623000Y-96127000D01*
X177643000Y-96127000D01*
X177643000Y-96373000D01*
X177623000Y-96373000D01*
X177623000Y-98220250D01*
X177779750Y-98377000D01*
X177922990Y-98377000D01*
X177922990Y-105024990D01*
X177987845Y-105351036D01*
X178172535Y-105627445D01*
X178397545Y-105852455D01*
X178673954Y-106037145D01*
X179000000Y-106102000D01*
X179634567Y-106102000D01*
X179814799Y-106176839D01*
X180183583Y-106177161D01*
X180524417Y-106036331D01*
X180785414Y-105775789D01*
X180926839Y-105435201D01*
X180927161Y-105066417D01*
X180786331Y-104725583D01*
X180685976Y-104625053D01*
X180785414Y-104525789D01*
X180926839Y-104185201D01*
X180927161Y-103816417D01*
X180852000Y-103634514D01*
X180852000Y-90352910D01*
X181356482Y-89848428D01*
X181536844Y-89773904D01*
X181797841Y-89513362D01*
X181939266Y-89172774D01*
X181939588Y-88803990D01*
X181798758Y-88463156D01*
X181538216Y-88202159D01*
X181197628Y-88060734D01*
X180828844Y-88060412D01*
X180488010Y-88201242D01*
X180227013Y-88461784D01*
X180151535Y-88643555D01*
X179397545Y-89397545D01*
X179212855Y-89673954D01*
X179148000Y-90000000D01*
X179148000Y-92393090D01*
X178939284Y-92184374D01*
X178939284Y-89750000D01*
X178892898Y-89510927D01*
X178754870Y-89300804D01*
X178546495Y-89160149D01*
X178300000Y-89110716D01*
X177873698Y-89110716D01*
X178210162Y-88885898D01*
X179060098Y-88035963D01*
X179060100Y-88035960D01*
X182796909Y-84299151D01*
X183041212Y-83933526D01*
X183087406Y-83701293D01*
X183127000Y-83502242D01*
X183127000Y-74972400D01*
X183041212Y-74541116D01*
X182991154Y-74466199D01*
X182796910Y-74175491D01*
X180270600Y-71649182D01*
X180270600Y-71415412D01*
X180157135Y-70844984D01*
X179834013Y-70361399D01*
X179350428Y-70038277D01*
X178780000Y-69924812D01*
X178209572Y-70038277D01*
X177725987Y-70361399D01*
X177510000Y-70684646D01*
X177294013Y-70361399D01*
X176810428Y-70038277D01*
X176240000Y-69924812D01*
X175669572Y-70038277D01*
X175185987Y-70361399D01*
X174970000Y-70684646D01*
X174754013Y-70361399D01*
X174270428Y-70038277D01*
X173700000Y-69924812D01*
X173129572Y-70038277D01*
X172645987Y-70361399D01*
X172625611Y-70391894D01*
X172616498Y-70344927D01*
X172478470Y-70134804D01*
X172270095Y-69994149D01*
X172023600Y-69944716D01*
X170296400Y-69944716D01*
X170057327Y-69991102D01*
X169847204Y-70129130D01*
X169706549Y-70337505D01*
X169657116Y-70584000D01*
X169657116Y-71661466D01*
X167103091Y-74215491D01*
X166858788Y-74581116D01*
X166773000Y-75012400D01*
X166773000Y-87100000D01*
X166858788Y-87531284D01*
X167103091Y-87896909D01*
X168103091Y-88896910D01*
X168441460Y-89123000D01*
X168468716Y-89141212D01*
X168900000Y-89227000D01*
X168913706Y-89227000D01*
X169344990Y-89141212D01*
X169652475Y-88935757D01*
X169652475Y-102392615D01*
X168790945Y-103254145D01*
X168610583Y-103328669D01*
X168349586Y-103589211D01*
X168208161Y-103929799D01*
X168207839Y-104298583D01*
X168348669Y-104639417D01*
X168382193Y-104673000D01*
X167376083Y-104673000D01*
X167145201Y-104577129D01*
X166776417Y-104576807D01*
X166435583Y-104717637D01*
X166174586Y-104978179D01*
X166033161Y-105318767D01*
X166032839Y-105687551D01*
X166173669Y-106028385D01*
X166434211Y-106289382D01*
X166774799Y-106430807D01*
X167143583Y-106431129D01*
X167395594Y-106327000D01*
X167718090Y-106327000D01*
X167656544Y-106388546D01*
X167471854Y-106664955D01*
X167406999Y-106991001D01*
X167406999Y-110457116D01*
X166096400Y-110457116D01*
X165857327Y-110503502D01*
X165677000Y-110621957D01*
X165677000Y-105500000D01*
X165663991Y-105434601D01*
X165663991Y-105367923D01*
X165638475Y-105306322D01*
X165625466Y-105240923D01*
X165588420Y-105185480D01*
X165562904Y-105123879D01*
X165515756Y-105076731D01*
X165478711Y-105021289D01*
X165423271Y-104984245D01*
X165376121Y-104937095D01*
X165314517Y-104911578D01*
X165259077Y-104874534D01*
X165193680Y-104861526D01*
X165132075Y-104836008D01*
X164881468Y-104786159D01*
X164780983Y-104719017D01*
X164713841Y-104618532D01*
X164677000Y-104433320D01*
X164677000Y-104376719D01*
X165470740Y-104377412D01*
X166344703Y-104016297D01*
X167013947Y-103348220D01*
X167376586Y-102474889D01*
X167377412Y-101529260D01*
X167016297Y-100655297D01*
X166348220Y-99986053D01*
X165474889Y-99623414D01*
X164677000Y-99622717D01*
X164677000Y-99566680D01*
X164713841Y-99381468D01*
X164780983Y-99280983D01*
X164881468Y-99213841D01*
X165132075Y-99163992D01*
X165193680Y-99138474D01*
X165259077Y-99125466D01*
X165314517Y-99088422D01*
X165376121Y-99062905D01*
X165423271Y-99015755D01*
X165478711Y-98978711D01*
X165515756Y-98923269D01*
X165562904Y-98876121D01*
X165588420Y-98814520D01*
X165625466Y-98759077D01*
X165638475Y-98693678D01*
X165663991Y-98632077D01*
X165663991Y-98565399D01*
X165677000Y-98500000D01*
X165677000Y-73500000D01*
X165663991Y-73434601D01*
X165663991Y-73367923D01*
X165638475Y-73306322D01*
X165625466Y-73240923D01*
X165588420Y-73185480D01*
X165562904Y-73123879D01*
X165515756Y-73076731D01*
X165478711Y-73021289D01*
X165423271Y-72984245D01*
X165376121Y-72937095D01*
X165314517Y-72911578D01*
X165259077Y-72874534D01*
X165193680Y-72861526D01*
X165132075Y-72836008D01*
X164881468Y-72786159D01*
X164780983Y-72719017D01*
X164713841Y-72618532D01*
X164677000Y-72433320D01*
X164677000Y-72376719D01*
X165470740Y-72377412D01*
X166344703Y-72016297D01*
X167013947Y-71348220D01*
X167376586Y-70474889D01*
X167377412Y-69529260D01*
X167016297Y-68655297D01*
X166348220Y-67986053D01*
X165474889Y-67623414D01*
X164677000Y-67622717D01*
X164677000Y-67566680D01*
X164713841Y-67381468D01*
X164780983Y-67280983D01*
X164881468Y-67213841D01*
X165066679Y-67177000D01*
X167433320Y-67177000D01*
X167618532Y-67213841D01*
X167618532Y-67213841D01*
G37*
X167618532Y-67213841D02*
X167719017Y-67280983D01*
X167786159Y-67381468D01*
X167836008Y-67632075D01*
X167861526Y-67693680D01*
X167874534Y-67759077D01*
X167911578Y-67814517D01*
X167937095Y-67876121D01*
X167984245Y-67923271D01*
X168021289Y-67978711D01*
X168076731Y-68015756D01*
X168123879Y-68062904D01*
X168185480Y-68088420D01*
X168240923Y-68125466D01*
X168306322Y-68138475D01*
X168367923Y-68163991D01*
X168434601Y-68163991D01*
X168500000Y-68177000D01*
X181500000Y-68177000D01*
X181565399Y-68163991D01*
X181632077Y-68163991D01*
X181693678Y-68138475D01*
X181759077Y-68125466D01*
X181814520Y-68088420D01*
X181876121Y-68062904D01*
X181923269Y-68015756D01*
X181978711Y-67978711D01*
X182015755Y-67923271D01*
X182062905Y-67876121D01*
X182088423Y-67814516D01*
X182125466Y-67759077D01*
X182138474Y-67693682D01*
X182163992Y-67632076D01*
X182213841Y-67381468D01*
X182280983Y-67280983D01*
X182381468Y-67213841D01*
X182566679Y-67177000D01*
X184933320Y-67177000D01*
X185118532Y-67213841D01*
X185219017Y-67280983D01*
X185286159Y-67381468D01*
X185323000Y-67566679D01*
X185323000Y-67623281D01*
X184529260Y-67622588D01*
X183655297Y-67983703D01*
X182986053Y-68651780D01*
X182623414Y-69525111D01*
X182622588Y-70470740D01*
X182983703Y-71344703D01*
X183651780Y-72013947D01*
X184525111Y-72376586D01*
X185323000Y-72377283D01*
X185323000Y-72433321D01*
X185286159Y-72618532D01*
X185219017Y-72719017D01*
X185118532Y-72786159D01*
X184867924Y-72836008D01*
X184806318Y-72861526D01*
X184740923Y-72874534D01*
X184685484Y-72911577D01*
X184623879Y-72937095D01*
X184576729Y-72984245D01*
X184521289Y-73021289D01*
X184484244Y-73076731D01*
X184437096Y-73123879D01*
X184411580Y-73185480D01*
X184374534Y-73240923D01*
X184361525Y-73306322D01*
X184336009Y-73367923D01*
X184336009Y-73434601D01*
X184323000Y-73500000D01*
X184323000Y-98500000D01*
X184336009Y-98565399D01*
X184336009Y-98632077D01*
X184361525Y-98693678D01*
X184374534Y-98759077D01*
X184411580Y-98814520D01*
X184437096Y-98876121D01*
X184484244Y-98923269D01*
X184521289Y-98978711D01*
X184576729Y-99015755D01*
X184623879Y-99062905D01*
X184685484Y-99088423D01*
X184740923Y-99125466D01*
X184806318Y-99138474D01*
X184867924Y-99163992D01*
X185118532Y-99213841D01*
X185219017Y-99280983D01*
X185286159Y-99381468D01*
X185323000Y-99566679D01*
X185323000Y-99623281D01*
X184529260Y-99622588D01*
X183655297Y-99983703D01*
X182986053Y-100651780D01*
X182623414Y-101525111D01*
X182622588Y-102470740D01*
X182983703Y-103344703D01*
X183651780Y-104013947D01*
X184525111Y-104376586D01*
X185323000Y-104377283D01*
X185323000Y-104433321D01*
X185286159Y-104618532D01*
X185219017Y-104719017D01*
X185118532Y-104786159D01*
X184867924Y-104836008D01*
X184806318Y-104861526D01*
X184740923Y-104874534D01*
X184685484Y-104911577D01*
X184623879Y-104937095D01*
X184576729Y-104984245D01*
X184521289Y-105021289D01*
X184484244Y-105076731D01*
X184437096Y-105123879D01*
X184411580Y-105185480D01*
X184374534Y-105240923D01*
X184361525Y-105306322D01*
X184336009Y-105367923D01*
X184336009Y-105434601D01*
X184323000Y-105500000D01*
X184323000Y-123933321D01*
X184286159Y-124118532D01*
X184219017Y-124219017D01*
X184118532Y-124286159D01*
X183933320Y-124323000D01*
X173667547Y-124323000D01*
X174037339Y-123906801D01*
X174228043Y-123356732D01*
X174085060Y-123123000D01*
X172873000Y-123123000D01*
X172873000Y-123143000D01*
X172627000Y-123143000D01*
X172627000Y-123123000D01*
X172607000Y-123123000D01*
X172607000Y-122877000D01*
X172627000Y-122877000D01*
X172627000Y-121519433D01*
X172873000Y-121519433D01*
X172873000Y-122877000D01*
X174085060Y-122877000D01*
X174228043Y-122643268D01*
X174037339Y-122093199D01*
X173650649Y-121657981D01*
X173126844Y-121403872D01*
X173103872Y-121399614D01*
X172873000Y-121519433D01*
X172627000Y-121519433D01*
X172627000Y-121519433D01*
X172396128Y-121399614D01*
X172373156Y-121403872D01*
X171849351Y-121657981D01*
X171475820Y-122078389D01*
X171264013Y-121761399D01*
X170780428Y-121438277D01*
X170210000Y-121324812D01*
X169639572Y-121438277D01*
X169155987Y-121761399D01*
X169133806Y-121794595D01*
X169065145Y-121628833D01*
X168888767Y-121452455D01*
X168658318Y-121357000D01*
X167949750Y-121357000D01*
X167793000Y-121513750D01*
X167793000Y-122877000D01*
X167813000Y-122877000D01*
X167813000Y-123123000D01*
X167793000Y-123123000D01*
X167793000Y-123143000D01*
X167547000Y-123143000D01*
X167547000Y-123123000D01*
X166336150Y-123123000D01*
X166179400Y-123279750D01*
X166179400Y-124140718D01*
X166254904Y-124323000D01*
X166066679Y-124323000D01*
X165881468Y-124286159D01*
X165780983Y-124219017D01*
X165713841Y-124118532D01*
X165677000Y-123933320D01*
X165677000Y-121357000D01*
X166681682Y-121357000D01*
X166451233Y-121452455D01*
X166274855Y-121628833D01*
X166179400Y-121859282D01*
X166179400Y-122720250D01*
X166336150Y-122877000D01*
X167547000Y-122877000D01*
X167547000Y-121513750D01*
X167390250Y-121357000D01*
X166681682Y-121357000D01*
X165677000Y-121357000D01*
X165677000Y-117795016D01*
X165876784Y-118094013D01*
X166360369Y-118417135D01*
X166930797Y-118530600D01*
X166989203Y-118530600D01*
X167559631Y-118417135D01*
X168043216Y-118094013D01*
X168228580Y-117816598D01*
X168618940Y-118242352D01*
X169146127Y-118487995D01*
X169377000Y-118368776D01*
X169377000Y-117163000D01*
X169623000Y-117163000D01*
X169623000Y-118368776D01*
X169853873Y-118487995D01*
X170381060Y-118242352D01*
X170774113Y-117813661D01*
X170947986Y-117393872D01*
X170828167Y-117163000D01*
X169623000Y-117163000D01*
X169377000Y-117163000D01*
X169377000Y-117163000D01*
X169357000Y-117163000D01*
X169357000Y-116917000D01*
X169377000Y-116917000D01*
X169377000Y-116897000D01*
X169623000Y-116897000D01*
X169623000Y-116917000D01*
X170828167Y-116917000D01*
X170947986Y-116686128D01*
X170913720Y-116603399D01*
X171843463Y-116603399D01*
X172159942Y-116540447D01*
X172428240Y-116361176D01*
X175535198Y-113254218D01*
X175712595Y-112988724D01*
X176648460Y-112988724D01*
X176887533Y-112942338D01*
X177097656Y-112804310D01*
X177238311Y-112595935D01*
X177287744Y-112349440D01*
X177287744Y-111150560D01*
X177241358Y-110911487D01*
X177218704Y-110877000D01*
X177220250Y-110877000D01*
X177377000Y-110720250D01*
X177377000Y-108873000D01*
X177623000Y-108873000D01*
X177623000Y-110720250D01*
X177779750Y-110877000D01*
X178424718Y-110877000D01*
X178655167Y-110781545D01*
X178831545Y-110605167D01*
X178927000Y-110374718D01*
X178927000Y-109029750D01*
X178770250Y-108873000D01*
X177623000Y-108873000D01*
X177377000Y-108873000D01*
X177377000Y-108873000D01*
X176229750Y-108873000D01*
X176073000Y-109029750D01*
X176073000Y-109672843D01*
X176066417Y-109672837D01*
X175824009Y-109772998D01*
X175280140Y-109772998D01*
X174963661Y-109835950D01*
X174777980Y-109960018D01*
X174777980Y-107180978D01*
X174715028Y-106864499D01*
X174706980Y-106852455D01*
X174553665Y-106623000D01*
X176575282Y-106623000D01*
X176344833Y-106718455D01*
X176168455Y-106894833D01*
X176073000Y-107125282D01*
X176073000Y-108470250D01*
X176229750Y-108627000D01*
X177377000Y-108627000D01*
X177377000Y-106779750D01*
X177220250Y-106623000D01*
X177779750Y-106623000D01*
X177220250Y-106623000D01*
X177220250Y-106623000D01*
X177779750Y-106623000D01*
X177623000Y-106779750D01*
X177623000Y-108627000D01*
X178770250Y-108627000D01*
X178927000Y-108470250D01*
X178927000Y-107125282D01*
X178831545Y-106894833D01*
X178655167Y-106718455D01*
X178424718Y-106623000D01*
X177779750Y-106623000D01*
X177220250Y-106623000D01*
X177220250Y-106623000D01*
X176575282Y-106623000D01*
X174553665Y-106623000D01*
X174535757Y-106596200D01*
X173298651Y-105359095D01*
X173298649Y-105359092D01*
X172854779Y-104915223D01*
X172586481Y-104735952D01*
X172270002Y-104673000D01*
X169888147Y-104673000D01*
X169920414Y-104640789D01*
X169995892Y-104459018D01*
X171106930Y-103347980D01*
X171291620Y-103071571D01*
X171356475Y-102745525D01*
X171356475Y-98274355D01*
X171453505Y-98339851D01*
X171700000Y-98389284D01*
X173300000Y-98389284D01*
X173539073Y-98342898D01*
X173749196Y-98204870D01*
X173889851Y-97996495D01*
X173939284Y-97750000D01*
X173939284Y-96373000D01*
X176229750Y-96373000D01*
X176073000Y-96529750D01*
X176073000Y-97874718D01*
X176168455Y-98105167D01*
X176344833Y-98281545D01*
X176575282Y-98377000D01*
X177220250Y-98377000D01*
X177377000Y-98220250D01*
X177377000Y-96373000D01*
X176229750Y-96373000D01*
X173939284Y-96373000D01*
X173939284Y-94750000D01*
X173892898Y-94510927D01*
X173754870Y-94300804D01*
X173546495Y-94160149D01*
X173361254Y-94123000D01*
X176575282Y-94123000D01*
X176344833Y-94218455D01*
X176168455Y-94394833D01*
X176073000Y-94625282D01*
X176073000Y-95970250D01*
X176229750Y-96127000D01*
X177377000Y-96127000D01*
X177377000Y-94279750D01*
X177220250Y-94123000D01*
X176575282Y-94123000D01*
X173361254Y-94123000D01*
X173300000Y-94110716D01*
X171700000Y-94110716D01*
X171460927Y-94157102D01*
X171356475Y-94225716D01*
X171356475Y-93286367D01*
X171575282Y-93377000D01*
X172220250Y-93377000D01*
X172377000Y-93220250D01*
X172377000Y-91373000D01*
X172357000Y-91373000D01*
X172357000Y-91127000D01*
X172377000Y-91127000D01*
X172377000Y-89279750D01*
X172220250Y-89123000D01*
X171575282Y-89123000D01*
X171356475Y-89213633D01*
X171356475Y-86254475D01*
X171352000Y-86231978D01*
X171352000Y-85965433D01*
X171426839Y-85785201D01*
X171427161Y-85416417D01*
X171286331Y-85075583D01*
X171025789Y-84814586D01*
X170685201Y-84673161D01*
X170316417Y-84672839D01*
X169975583Y-84813669D01*
X169714586Y-85074211D01*
X169573161Y-85414799D01*
X169572839Y-85783583D01*
X169648000Y-85965486D01*
X169648000Y-86250000D01*
X169652475Y-86272497D01*
X169652475Y-87258656D01*
X169027000Y-86633182D01*
X169027000Y-75479218D01*
X171250934Y-73255284D01*
X172023600Y-73255284D01*
X172262673Y-73208898D01*
X172472796Y-73070870D01*
X172613451Y-72862495D01*
X172624647Y-72806664D01*
X172645987Y-72838601D01*
X172673000Y-72856651D01*
X172673000Y-73350339D01*
X170223801Y-75799537D01*
X170001176Y-76132720D01*
X169923000Y-76525736D01*
X169923000Y-76950000D01*
X170001176Y-77343016D01*
X170223801Y-77676199D01*
X170556984Y-77898824D01*
X170950000Y-77977000D01*
X171073000Y-77952534D01*
X171073000Y-78470250D01*
X171229750Y-78627000D01*
X172377000Y-78627000D01*
X172377000Y-76779750D01*
X172262692Y-76665442D01*
X172305133Y-76623000D01*
X172779750Y-76623000D01*
X172623000Y-76779750D01*
X172623000Y-78627000D01*
X172643000Y-78627000D01*
X172643000Y-78873000D01*
X172623000Y-78873000D01*
X172623000Y-78893000D01*
X172377000Y-78893000D01*
X172377000Y-78873000D01*
X171229750Y-78873000D01*
X171073000Y-79029750D01*
X171073000Y-80073417D01*
X170975583Y-80113669D01*
X170714586Y-80374211D01*
X170573161Y-80714799D01*
X170572839Y-81083583D01*
X170713669Y-81424417D01*
X170974211Y-81685414D01*
X171314799Y-81826839D01*
X171683583Y-81827161D01*
X171865486Y-81752000D01*
X173415002Y-81752000D01*
X173741048Y-81687145D01*
X174017457Y-81502455D01*
X174443730Y-81076182D01*
X174628420Y-80799773D01*
X174693275Y-80473727D01*
X174693275Y-80018890D01*
X174768114Y-79838658D01*
X174768436Y-79469874D01*
X174627606Y-79129040D01*
X174367064Y-78868043D01*
X174026476Y-78726618D01*
X173927000Y-78726531D01*
X173927000Y-78626998D01*
X173770252Y-78626998D01*
X173927000Y-78470250D01*
X173927000Y-77125282D01*
X173831545Y-76894833D01*
X173655167Y-76718455D01*
X173424718Y-76623000D01*
X172779750Y-76623000D01*
X172305133Y-76623000D01*
X174426196Y-74501937D01*
X174426199Y-74501935D01*
X174648824Y-74168752D01*
X174727000Y-73775736D01*
X174727000Y-72856651D01*
X174754013Y-72838601D01*
X174970000Y-72515354D01*
X175185987Y-72838601D01*
X175213000Y-72856651D01*
X175213000Y-73740000D01*
X175291176Y-74133016D01*
X175513801Y-74466199D01*
X177658319Y-76610716D01*
X176700000Y-76610716D01*
X176460927Y-76657102D01*
X176250804Y-76795130D01*
X176110149Y-77003505D01*
X176060716Y-77250000D01*
X176060716Y-78735391D01*
X175936154Y-78735282D01*
X175595320Y-78876112D01*
X175334323Y-79136654D01*
X175192898Y-79477242D01*
X175192576Y-79846026D01*
X175267737Y-80027929D01*
X175267737Y-80434739D01*
X175332592Y-80760785D01*
X175517282Y-81037194D01*
X175982543Y-81502455D01*
X176258951Y-81687145D01*
X176584998Y-81752000D01*
X178134567Y-81752000D01*
X178314799Y-81826839D01*
X178683583Y-81827161D01*
X179024417Y-81686331D01*
X179285414Y-81425789D01*
X179426839Y-81085201D01*
X179427161Y-80716417D01*
X179286331Y-80375583D01*
X179025789Y-80114586D01*
X178939284Y-80078666D01*
X178939284Y-78014923D01*
X179000000Y-78027000D01*
X179393016Y-77948824D01*
X179726199Y-77726199D01*
X179948824Y-77393016D01*
X180027000Y-77000000D01*
X180027000Y-76500000D01*
X179948824Y-76106984D01*
X179726199Y-75773801D01*
X179726196Y-75773799D01*
X177267000Y-73314602D01*
X177267000Y-72856651D01*
X177294013Y-72838601D01*
X177510000Y-72515354D01*
X177725987Y-72838601D01*
X178209572Y-73161723D01*
X178691333Y-73257551D01*
X180873000Y-75439219D01*
X180873000Y-83035424D01*
X177466282Y-86442142D01*
X177466279Y-86442144D01*
X176935868Y-86972555D01*
X176557705Y-87047777D01*
X176522554Y-87071264D01*
X179279200Y-84314619D01*
X179279202Y-84314616D01*
X179796910Y-83796909D01*
X180041212Y-83431284D01*
X180127000Y-83000000D01*
X180041212Y-82568715D01*
X179796910Y-82203090D01*
X179431285Y-81958788D01*
X179000000Y-81873000D01*
X178568716Y-81958788D01*
X178203091Y-82203090D01*
X177685384Y-82720798D01*
X177685381Y-82720800D01*
X174513091Y-85893091D01*
X174203091Y-86203091D01*
X173958788Y-86568716D01*
X173873000Y-87000000D01*
X173873000Y-89494914D01*
X173831545Y-89394833D01*
X173655167Y-89218455D01*
X173424718Y-89123000D01*
X172779750Y-89123000D01*
X172623000Y-89279750D01*
X172623000Y-91127000D01*
X172643000Y-91127000D01*
X172643000Y-91373000D01*
X172623000Y-91373000D01*
X172623000Y-93220250D01*
X172779750Y-93377000D01*
X173424718Y-93377000D01*
X173655167Y-93281545D01*
X173831545Y-93105167D01*
X173927000Y-92874718D01*
X173927000Y-92279444D01*
X173958788Y-92439253D01*
X174203091Y-92804878D01*
X174568716Y-93049181D01*
X175000000Y-93134969D01*
X175431284Y-93049181D01*
X175796909Y-92804878D01*
X176041212Y-92439253D01*
X176060716Y-92341200D01*
X176060716Y-92750000D01*
X176107102Y-92989073D01*
X176245130Y-93199196D01*
X176453505Y-93339851D01*
X176700000Y-93389284D01*
X177734374Y-93389284D01*
X177922990Y-93577900D01*
X177922990Y-94123000D01*
X177779750Y-94123000D01*
X177623000Y-94279750D01*
X177623000Y-96127000D01*
X177643000Y-96127000D01*
X177643000Y-96373000D01*
X177623000Y-96373000D01*
X177623000Y-98220250D01*
X177779750Y-98377000D01*
X177922990Y-98377000D01*
X177922990Y-105024990D01*
X177987845Y-105351036D01*
X178172535Y-105627445D01*
X178397545Y-105852455D01*
X178673954Y-106037145D01*
X179000000Y-106102000D01*
X179634567Y-106102000D01*
X179814799Y-106176839D01*
X180183583Y-106177161D01*
X180524417Y-106036331D01*
X180785414Y-105775789D01*
X180926839Y-105435201D01*
X180927161Y-105066417D01*
X180786331Y-104725583D01*
X180685976Y-104625053D01*
X180785414Y-104525789D01*
X180926839Y-104185201D01*
X180927161Y-103816417D01*
X180852000Y-103634514D01*
X180852000Y-90352910D01*
X181356482Y-89848428D01*
X181536844Y-89773904D01*
X181797841Y-89513362D01*
X181939266Y-89172774D01*
X181939588Y-88803990D01*
X181798758Y-88463156D01*
X181538216Y-88202159D01*
X181197628Y-88060734D01*
X180828844Y-88060412D01*
X180488010Y-88201242D01*
X180227013Y-88461784D01*
X180151535Y-88643555D01*
X179397545Y-89397545D01*
X179212855Y-89673954D01*
X179148000Y-90000000D01*
X179148000Y-92393090D01*
X178939284Y-92184374D01*
X178939284Y-89750000D01*
X178892898Y-89510927D01*
X178754870Y-89300804D01*
X178546495Y-89160149D01*
X178300000Y-89110716D01*
X177873698Y-89110716D01*
X178210162Y-88885898D01*
X179060098Y-88035963D01*
X179060100Y-88035960D01*
X182796909Y-84299151D01*
X183041212Y-83933526D01*
X183087406Y-83701293D01*
X183127000Y-83502242D01*
X183127000Y-74972400D01*
X183041212Y-74541116D01*
X182991154Y-74466199D01*
X182796910Y-74175491D01*
X180270600Y-71649182D01*
X180270600Y-71415412D01*
X180157135Y-70844984D01*
X179834013Y-70361399D01*
X179350428Y-70038277D01*
X178780000Y-69924812D01*
X178209572Y-70038277D01*
X177725987Y-70361399D01*
X177510000Y-70684646D01*
X177294013Y-70361399D01*
X176810428Y-70038277D01*
X176240000Y-69924812D01*
X175669572Y-70038277D01*
X175185987Y-70361399D01*
X174970000Y-70684646D01*
X174754013Y-70361399D01*
X174270428Y-70038277D01*
X173700000Y-69924812D01*
X173129572Y-70038277D01*
X172645987Y-70361399D01*
X172625611Y-70391894D01*
X172616498Y-70344927D01*
X172478470Y-70134804D01*
X172270095Y-69994149D01*
X172023600Y-69944716D01*
X170296400Y-69944716D01*
X170057327Y-69991102D01*
X169847204Y-70129130D01*
X169706549Y-70337505D01*
X169657116Y-70584000D01*
X169657116Y-71661466D01*
X167103091Y-74215491D01*
X166858788Y-74581116D01*
X166773000Y-75012400D01*
X166773000Y-87100000D01*
X166858788Y-87531284D01*
X167103091Y-87896909D01*
X168103091Y-88896910D01*
X168441460Y-89123000D01*
X168468716Y-89141212D01*
X168900000Y-89227000D01*
X168913706Y-89227000D01*
X169344990Y-89141212D01*
X169652475Y-88935757D01*
X169652475Y-102392615D01*
X168790945Y-103254145D01*
X168610583Y-103328669D01*
X168349586Y-103589211D01*
X168208161Y-103929799D01*
X168207839Y-104298583D01*
X168348669Y-104639417D01*
X168382193Y-104673000D01*
X167376083Y-104673000D01*
X167145201Y-104577129D01*
X166776417Y-104576807D01*
X166435583Y-104717637D01*
X166174586Y-104978179D01*
X166033161Y-105318767D01*
X166032839Y-105687551D01*
X166173669Y-106028385D01*
X166434211Y-106289382D01*
X166774799Y-106430807D01*
X167143583Y-106431129D01*
X167395594Y-106327000D01*
X167718090Y-106327000D01*
X167656544Y-106388546D01*
X167471854Y-106664955D01*
X167406999Y-106991001D01*
X167406999Y-110457116D01*
X166096400Y-110457116D01*
X165857327Y-110503502D01*
X165677000Y-110621957D01*
X165677000Y-105500000D01*
X165663991Y-105434601D01*
X165663991Y-105367923D01*
X165638475Y-105306322D01*
X165625466Y-105240923D01*
X165588420Y-105185480D01*
X165562904Y-105123879D01*
X165515756Y-105076731D01*
X165478711Y-105021289D01*
X165423271Y-104984245D01*
X165376121Y-104937095D01*
X165314517Y-104911578D01*
X165259077Y-104874534D01*
X165193680Y-104861526D01*
X165132075Y-104836008D01*
X164881468Y-104786159D01*
X164780983Y-104719017D01*
X164713841Y-104618532D01*
X164677000Y-104433320D01*
X164677000Y-104376719D01*
X165470740Y-104377412D01*
X166344703Y-104016297D01*
X167013947Y-103348220D01*
X167376586Y-102474889D01*
X167377412Y-101529260D01*
X167016297Y-100655297D01*
X166348220Y-99986053D01*
X165474889Y-99623414D01*
X164677000Y-99622717D01*
X164677000Y-99566680D01*
X164713841Y-99381468D01*
X164780983Y-99280983D01*
X164881468Y-99213841D01*
X165132075Y-99163992D01*
X165193680Y-99138474D01*
X165259077Y-99125466D01*
X165314517Y-99088422D01*
X165376121Y-99062905D01*
X165423271Y-99015755D01*
X165478711Y-98978711D01*
X165515756Y-98923269D01*
X165562904Y-98876121D01*
X165588420Y-98814520D01*
X165625466Y-98759077D01*
X165638475Y-98693678D01*
X165663991Y-98632077D01*
X165663991Y-98565399D01*
X165677000Y-98500000D01*
X165677000Y-73500000D01*
X165663991Y-73434601D01*
X165663991Y-73367923D01*
X165638475Y-73306322D01*
X165625466Y-73240923D01*
X165588420Y-73185480D01*
X165562904Y-73123879D01*
X165515756Y-73076731D01*
X165478711Y-73021289D01*
X165423271Y-72984245D01*
X165376121Y-72937095D01*
X165314517Y-72911578D01*
X165259077Y-72874534D01*
X165193680Y-72861526D01*
X165132075Y-72836008D01*
X164881468Y-72786159D01*
X164780983Y-72719017D01*
X164713841Y-72618532D01*
X164677000Y-72433320D01*
X164677000Y-72376719D01*
X165470740Y-72377412D01*
X166344703Y-72016297D01*
X167013947Y-71348220D01*
X167376586Y-70474889D01*
X167377412Y-69529260D01*
X167016297Y-68655297D01*
X166348220Y-67986053D01*
X165474889Y-67623414D01*
X164677000Y-67622717D01*
X164677000Y-67566680D01*
X164713841Y-67381468D01*
X164780983Y-67280983D01*
X164881468Y-67213841D01*
X165066679Y-67177000D01*
X167433320Y-67177000D01*
X167618532Y-67213841D01*
M02*
