G04 #@! TF.FileFunction,Profile,NP*
%FSLAX46Y46*%
G04 Gerber Fmt 4.6, Leading zero omitted, Abs format (unit mm)*
G04 Created by KiCad (PCBNEW (after 2015-mar-04 BZR unknown)-product) date 8/29/2015 5:31:21 PM*
%MOMM*%
G01*
G04 APERTURE LIST*
%ADD10C,0.150000*%
%ADD11C,0.381000*%
G04 APERTURE END LIST*
D10*
D11*
X10000000Y-55000000D02*
X10000000Y-14000000D01*
X55000000Y-59000000D02*
X14000000Y-59000000D01*
X59000000Y-14000000D02*
X59000000Y-55000000D01*
X14000000Y-10000000D02*
X55000000Y-10000000D01*
X55000000Y-59000000D02*
G75*
G03X59000000Y-55000000I0J4000000D01*
G01*
X59000000Y-14000000D02*
G75*
G03X55000000Y-10000000I-4000000J0D01*
G01*
X14000000Y-10000000D02*
G75*
G03X10000000Y-14000000I0J-4000000D01*
G01*
X10000000Y-55000000D02*
G75*
G03X14000000Y-59000000I4000000J0D01*
G01*
M02*
