G04 #@! TF.FileFunction,Copper,L2,Bot,Signal*
%FSLAX46Y46*%
G04 Gerber Fmt 4.6, Leading zero omitted, Abs format (unit mm)*
G04 Created by KiCad (PCBNEW 4.0.0-rc2-stable) date 23/12/2015 16:59:54*
%MOMM*%
G01*
G04 APERTURE LIST*
%ADD10C,0.150000*%
%ADD11R,2.032000X2.032000*%
%ADD12C,2.032000*%
%ADD13C,1.905000*%
%ADD14R,2.286000X1.574800*%
%ADD15O,2.286000X1.574800*%
%ADD16R,2.499360X2.499360*%
%ADD17C,2.499360*%
%ADD18C,1.998980*%
%ADD19R,1.600200X1.600200*%
%ADD20C,1.600200*%
%ADD21R,1.905000X1.905000*%
%ADD22C,0.889000*%
%ADD23C,0.635000*%
%ADD24C,0.254000*%
G04 APERTURE END LIST*
D10*
D11*
X56515000Y-82550000D03*
D12*
X56515000Y-80010000D03*
D13*
X61595000Y-83820000D03*
X61595000Y-78740000D03*
D12*
X78105000Y-62865000D03*
X78105000Y-60325000D03*
X82550000Y-69215000D03*
X82550000Y-66675000D03*
X82550000Y-76835000D03*
X82550000Y-74295000D03*
X78105000Y-83185000D03*
X78105000Y-80645000D03*
X69215000Y-76200000D03*
X69215000Y-73660000D03*
D14*
X45720000Y-67945000D03*
D15*
X45720000Y-70485000D03*
X45720000Y-73025000D03*
X45720000Y-75565000D03*
X53340000Y-75565000D03*
X53340000Y-73025000D03*
X53340000Y-70485000D03*
X53340000Y-67945000D03*
D16*
X50800000Y-80010000D03*
D17*
X47371000Y-80010000D03*
D18*
X50800000Y-83566000D03*
X47244000Y-83439000D03*
D19*
X60325000Y-62230000D03*
D20*
X60325000Y-59690000D03*
X62865000Y-62230000D03*
X62865000Y-59690000D03*
X65405000Y-62230000D03*
X65405000Y-59690000D03*
D21*
X68580000Y-70485000D03*
D13*
X71120000Y-67945000D03*
X68580000Y-67945000D03*
D21*
X69215000Y-62230000D03*
D13*
X71755000Y-62230000D03*
X71755000Y-59690000D03*
D21*
X73660000Y-69215000D03*
D13*
X76200000Y-69215000D03*
X76200000Y-66675000D03*
D21*
X73660000Y-76200000D03*
D13*
X76200000Y-76200000D03*
X76200000Y-73660000D03*
D21*
X68580000Y-83185000D03*
D13*
X71120000Y-83185000D03*
X71120000Y-80645000D03*
D12*
X59055000Y-67310000D03*
X59055000Y-74930000D03*
X61595000Y-74930000D03*
X61595000Y-67310000D03*
X56896000Y-69215000D03*
X56896000Y-61595000D03*
X64135000Y-67310000D03*
X64135000Y-74930000D03*
X54610000Y-59690000D03*
X54610000Y-64770000D03*
X46990000Y-59690000D03*
X46990000Y-64770000D03*
D11*
X41910000Y-73025000D03*
D12*
X41910000Y-70485000D03*
X41910000Y-67945000D03*
D22*
X64516000Y-70485000D03*
D23*
X45720000Y-75565000D02*
X45720000Y-77470000D01*
X45720000Y-77470000D02*
X44577000Y-78613000D01*
X45720000Y-75565000D02*
X45720000Y-76327000D01*
X65405000Y-59690000D02*
X65405000Y-58166000D01*
X65405000Y-58166000D02*
X65405000Y-58293000D01*
X65405000Y-58293000D02*
X65405000Y-58166000D01*
X46990000Y-59690000D02*
X54610000Y-59690000D01*
X56896000Y-61595000D02*
X56896000Y-60071000D01*
X56896000Y-60071000D02*
X58801000Y-58166000D01*
X58801000Y-58166000D02*
X65405000Y-58166000D01*
X67056000Y-58166000D02*
X68580000Y-59690000D01*
X65405000Y-58166000D02*
X67056000Y-58166000D01*
X47371000Y-80010000D02*
X45466000Y-80010000D01*
X43815000Y-71247000D02*
X43815000Y-76073000D01*
X43053000Y-70485000D02*
X43815000Y-71247000D01*
X41910000Y-70485000D02*
X43053000Y-70485000D01*
X45466000Y-80010000D02*
X43815000Y-78359000D01*
X43815000Y-78359000D02*
X43815000Y-77851000D01*
X43815000Y-77851000D02*
X43815000Y-76073000D01*
X69215000Y-62230000D02*
X69215000Y-60325000D01*
X69215000Y-60325000D02*
X68580000Y-59690000D01*
X56515000Y-82550000D02*
X56515000Y-85725000D01*
X56515000Y-85725000D02*
X56515000Y-85471000D01*
X56515000Y-85471000D02*
X56515000Y-85725000D01*
X61595000Y-83820000D02*
X61595000Y-85725000D01*
X61595000Y-85725000D02*
X61595000Y-85471000D01*
X61595000Y-85471000D02*
X61595000Y-85725000D01*
X66421000Y-83312000D02*
X66421000Y-85725000D01*
X66548000Y-85471000D02*
X66548000Y-85725000D01*
X66548000Y-85598000D02*
X66548000Y-85471000D01*
X66421000Y-85725000D02*
X66548000Y-85598000D01*
X50800000Y-80010000D02*
X52324000Y-80010000D01*
X52324000Y-80010000D02*
X53848000Y-81534000D01*
X55372000Y-85725000D02*
X56515000Y-85725000D01*
X56515000Y-85725000D02*
X61595000Y-85725000D01*
X53848000Y-84201000D02*
X55372000Y-85725000D01*
X53848000Y-81534000D02*
X53848000Y-84201000D01*
X61595000Y-85725000D02*
X66548000Y-85725000D01*
X78105000Y-84836000D02*
X78105000Y-83185000D01*
X66548000Y-85725000D02*
X77216000Y-85725000D01*
X77216000Y-85725000D02*
X78105000Y-84836000D01*
X66421000Y-83820000D02*
X66421000Y-83820000D01*
X66421000Y-82423000D02*
X66421000Y-83312000D01*
X66421000Y-83312000D02*
X66421000Y-83820000D01*
X66421000Y-82423000D02*
X66421000Y-78994000D01*
X66421000Y-78994000D02*
X69215000Y-76200000D01*
X84328000Y-64516000D02*
X85344000Y-65532000D01*
X82931000Y-64516000D02*
X84328000Y-64516000D01*
X78105000Y-62865000D02*
X80010000Y-62865000D01*
X81661000Y-64516000D02*
X82931000Y-64516000D01*
X80010000Y-62865000D02*
X81661000Y-64516000D01*
X85344000Y-71501000D02*
X85344000Y-76073000D01*
X85344000Y-76073000D02*
X84582000Y-76835000D01*
X82550000Y-76835000D02*
X82550000Y-77216000D01*
X82550000Y-77216000D02*
X83375500Y-78041500D01*
X82550000Y-78867000D02*
X83375500Y-78041500D01*
X83375500Y-78041500D02*
X84582000Y-76835000D01*
X84582000Y-76835000D02*
X85344000Y-76073000D01*
X78105000Y-83185000D02*
X78232000Y-83185000D01*
X78232000Y-83185000D02*
X82550000Y-78867000D01*
X53340000Y-67945000D02*
X54991000Y-67945000D01*
X58674000Y-60325000D02*
X59309000Y-59690000D01*
X58674000Y-62865000D02*
X58674000Y-60325000D01*
X56896000Y-64643000D02*
X58674000Y-62865000D01*
X56896000Y-66040000D02*
X56896000Y-64643000D01*
X54991000Y-67945000D02*
X56896000Y-66040000D01*
X60325000Y-59690000D02*
X59309000Y-59690000D01*
X54356000Y-67945000D02*
X53340000Y-67945000D01*
X82550000Y-69215000D02*
X85344000Y-69215000D01*
X85344000Y-65532000D02*
X85344000Y-69215000D01*
X85344000Y-69215000D02*
X85344000Y-71501000D01*
X68580000Y-67945000D02*
X68580000Y-66421000D01*
X74295000Y-62865000D02*
X78105000Y-62865000D01*
X71755000Y-65405000D02*
X74295000Y-62865000D01*
X69596000Y-65405000D02*
X71755000Y-65405000D01*
X68580000Y-66421000D02*
X69596000Y-65405000D01*
X50800000Y-80010000D02*
X50800000Y-69215000D01*
X52070000Y-67945000D02*
X53340000Y-67945000D01*
X50800000Y-69215000D02*
X52070000Y-67945000D01*
X71755000Y-59690000D02*
X74930000Y-59690000D01*
X75565000Y-60325000D02*
X78105000Y-60325000D01*
X74930000Y-59690000D02*
X75565000Y-60325000D01*
X82550000Y-66675000D02*
X76200000Y-66675000D01*
X76200000Y-73660000D02*
X78994000Y-73660000D01*
X78994000Y-73660000D02*
X79629000Y-74295000D01*
X82550000Y-74295000D02*
X79629000Y-74295000D01*
X78105000Y-80645000D02*
X71120000Y-80645000D01*
X64135000Y-74930000D02*
X66040000Y-74930000D01*
X66040000Y-74930000D02*
X67310000Y-73660000D01*
X64135000Y-74930000D02*
X65151000Y-74930000D01*
X67310000Y-73660000D02*
X69215000Y-73660000D01*
X46990000Y-64770000D02*
X54610000Y-64770000D01*
X53340000Y-75565000D02*
X55753000Y-75565000D01*
X56388000Y-74930000D02*
X59055000Y-74930000D01*
X55753000Y-75565000D02*
X56388000Y-74930000D01*
X64135000Y-67310000D02*
X64135000Y-65278000D01*
X62865000Y-64008000D02*
X62865000Y-62230000D01*
X64135000Y-65278000D02*
X62865000Y-64008000D01*
X56896000Y-69215000D02*
X56896000Y-70612000D01*
X56896000Y-70612000D02*
X58674000Y-72390000D01*
X63627000Y-72390000D02*
X65278000Y-72390000D01*
X67183000Y-70485000D02*
X68580000Y-70485000D01*
X65278000Y-72390000D02*
X67183000Y-70485000D01*
X68580000Y-70485000D02*
X70485000Y-70485000D01*
X70485000Y-70485000D02*
X71247000Y-71247000D01*
X71247000Y-71247000D02*
X75311000Y-71247000D01*
X75311000Y-71247000D02*
X76200000Y-70358000D01*
X76200000Y-70358000D02*
X76200000Y-69215000D01*
X58674000Y-72390000D02*
X63627000Y-72390000D01*
X71755000Y-62230000D02*
X71755000Y-62865000D01*
X59055000Y-69850000D02*
X59055000Y-67310000D01*
X59690000Y-70485000D02*
X59055000Y-69850000D01*
X64516000Y-70485000D02*
X59690000Y-70485000D01*
D24*
G36*
X81951439Y-56888355D02*
X80895064Y-57942888D01*
X80322653Y-59321407D01*
X80321350Y-60814045D01*
X80891355Y-62193561D01*
X81945888Y-63249936D01*
X82701034Y-63563500D01*
X82055538Y-63563500D01*
X80683519Y-62191481D01*
X80374506Y-61985005D01*
X80010000Y-61912500D01*
X79486993Y-61912500D01*
X79169868Y-61594821D01*
X79503834Y-61261437D01*
X79755713Y-60654845D01*
X79756286Y-59998037D01*
X79505466Y-59391005D01*
X79041437Y-58926166D01*
X78434845Y-58674287D01*
X77778037Y-58673714D01*
X77171005Y-58924534D01*
X76722257Y-59372500D01*
X75959538Y-59372500D01*
X75603519Y-59016481D01*
X75294506Y-58810005D01*
X74930000Y-58737500D01*
X73047269Y-58737500D01*
X72655421Y-58344968D01*
X72072159Y-58102776D01*
X71440612Y-58102225D01*
X70856928Y-58343398D01*
X70409968Y-58789579D01*
X70167776Y-59372841D01*
X70167225Y-60004388D01*
X70408398Y-60588072D01*
X70779935Y-60960257D01*
X70742190Y-60997936D01*
X70631590Y-60826059D01*
X70419390Y-60681069D01*
X70167500Y-60630060D01*
X68262500Y-60630060D01*
X68027183Y-60674338D01*
X67811059Y-60813410D01*
X67666069Y-61025610D01*
X67615060Y-61277500D01*
X67615060Y-63182500D01*
X67659338Y-63417817D01*
X67798410Y-63633941D01*
X68010610Y-63778931D01*
X68262500Y-63829940D01*
X70167500Y-63829940D01*
X70402817Y-63785662D01*
X70618941Y-63646590D01*
X70743716Y-63463976D01*
X70854579Y-63575032D01*
X71437841Y-63817224D01*
X71995251Y-63817710D01*
X71360462Y-64452500D01*
X69596000Y-64452500D01*
X69231494Y-64525005D01*
X68922481Y-64731481D01*
X67906481Y-65747481D01*
X67700005Y-66056494D01*
X67627500Y-66421000D01*
X67627500Y-66652731D01*
X67234968Y-67044579D01*
X66992776Y-67627841D01*
X66992225Y-68259388D01*
X67233398Y-68843072D01*
X67347936Y-68957810D01*
X67176059Y-69068410D01*
X67031069Y-69280610D01*
X66980060Y-69532500D01*
X66980060Y-69572867D01*
X66818494Y-69605005D01*
X66509481Y-69811481D01*
X65577574Y-70743388D01*
X65595313Y-70700668D01*
X65595687Y-70271216D01*
X65431689Y-69874311D01*
X65128286Y-69570378D01*
X64731668Y-69405687D01*
X64302216Y-69405313D01*
X63994400Y-69532500D01*
X60084538Y-69532500D01*
X60007500Y-69455462D01*
X60007500Y-68691993D01*
X60325179Y-68374868D01*
X60658563Y-68708834D01*
X61265155Y-68960713D01*
X61921963Y-68961286D01*
X62528995Y-68710466D01*
X62865179Y-68374868D01*
X63198563Y-68708834D01*
X63805155Y-68960713D01*
X64461963Y-68961286D01*
X65068995Y-68710466D01*
X65533834Y-68246437D01*
X65785713Y-67639845D01*
X65786286Y-66983037D01*
X65535466Y-66376005D01*
X65087500Y-65927257D01*
X65087500Y-65278000D01*
X65014995Y-64913494D01*
X64808519Y-64604481D01*
X63817500Y-63613462D01*
X63817500Y-63306930D01*
X64080909Y-63043980D01*
X64134862Y-62914047D01*
X64187672Y-63041857D01*
X64591020Y-63445909D01*
X65118289Y-63664850D01*
X65689207Y-63665348D01*
X66216857Y-63447328D01*
X66620909Y-63043980D01*
X66839850Y-62516711D01*
X66840348Y-61945793D01*
X66622328Y-61418143D01*
X66218980Y-61014091D01*
X66089047Y-60960138D01*
X66216857Y-60907328D01*
X66620909Y-60503980D01*
X66839850Y-59976711D01*
X66840348Y-59405793D01*
X66622328Y-58878143D01*
X66218980Y-58474091D01*
X65691711Y-58255150D01*
X65120793Y-58254652D01*
X64593143Y-58472672D01*
X64189091Y-58876020D01*
X64135138Y-59005953D01*
X64082328Y-58878143D01*
X63678980Y-58474091D01*
X63151711Y-58255150D01*
X62580793Y-58254652D01*
X62053143Y-58472672D01*
X61649091Y-58876020D01*
X61595138Y-59005953D01*
X61542328Y-58878143D01*
X61138980Y-58474091D01*
X60611711Y-58255150D01*
X60040793Y-58254652D01*
X59513143Y-58472672D01*
X59232637Y-58752690D01*
X58944494Y-58810005D01*
X58635481Y-59016481D01*
X58000481Y-59651481D01*
X57794005Y-59960494D01*
X57753635Y-60163445D01*
X57225845Y-59944287D01*
X56569037Y-59943714D01*
X56235017Y-60081728D01*
X56260713Y-60019845D01*
X56261286Y-59363037D01*
X56010466Y-58756005D01*
X55546437Y-58291166D01*
X54939845Y-58039287D01*
X54283037Y-58038714D01*
X53676005Y-58289534D01*
X53211166Y-58753563D01*
X52959287Y-59360155D01*
X52958714Y-60016963D01*
X53209534Y-60623995D01*
X53673563Y-61088834D01*
X54280155Y-61340713D01*
X54936963Y-61341286D01*
X55270983Y-61203272D01*
X55245287Y-61265155D01*
X55244714Y-61921963D01*
X55495534Y-62528995D01*
X55959563Y-62993834D01*
X56566155Y-63245713D01*
X56945918Y-63246044D01*
X56222481Y-63969481D01*
X56125555Y-64114541D01*
X56010466Y-63836005D01*
X55546437Y-63371166D01*
X54939845Y-63119287D01*
X54283037Y-63118714D01*
X53676005Y-63369534D01*
X53227257Y-63817500D01*
X48371993Y-63817500D01*
X47926437Y-63371166D01*
X47319845Y-63119287D01*
X46663037Y-63118714D01*
X46056005Y-63369534D01*
X45591166Y-63833563D01*
X45339287Y-64440155D01*
X45338714Y-65096963D01*
X45589534Y-65703995D01*
X46053563Y-66168834D01*
X46660155Y-66420713D01*
X47316963Y-66421286D01*
X47923995Y-66170466D01*
X48372743Y-65722500D01*
X53228007Y-65722500D01*
X53673563Y-66168834D01*
X54280155Y-66420713D01*
X54936963Y-66421286D01*
X55330128Y-66258834D01*
X54684386Y-66904576D01*
X54274762Y-66630874D01*
X53730433Y-66522600D01*
X52949567Y-66522600D01*
X52405238Y-66630874D01*
X51943778Y-66939211D01*
X51883366Y-67029624D01*
X51705494Y-67065005D01*
X51396481Y-67271481D01*
X50126481Y-68541481D01*
X49920005Y-68850494D01*
X49847500Y-69215000D01*
X49847500Y-78112880D01*
X49550320Y-78112880D01*
X49315003Y-78157158D01*
X49098879Y-78296230D01*
X48953889Y-78508430D01*
X48902880Y-78760320D01*
X48902880Y-78876886D01*
X48439979Y-78413178D01*
X47747531Y-78125648D01*
X46997759Y-78124994D01*
X46304809Y-78411314D01*
X45774178Y-78941021D01*
X45486648Y-79633469D01*
X45485994Y-80383241D01*
X45772314Y-81076191D01*
X46302021Y-81606822D01*
X46848688Y-81833818D01*
X46319345Y-82052538D01*
X45916417Y-82454764D01*
X45916650Y-82187955D01*
X45346645Y-80808439D01*
X44292112Y-79752064D01*
X42913593Y-79179653D01*
X41420955Y-79178350D01*
X40041439Y-79748355D01*
X38985064Y-80802888D01*
X38925500Y-80946334D01*
X38925500Y-72009000D01*
X40246560Y-72009000D01*
X40246560Y-74041000D01*
X40290838Y-74276317D01*
X40429910Y-74492441D01*
X40642110Y-74637431D01*
X40894000Y-74688440D01*
X42926000Y-74688440D01*
X43161317Y-74644162D01*
X43377441Y-74505090D01*
X43522431Y-74292890D01*
X43573440Y-74041000D01*
X43573440Y-72009000D01*
X43529162Y-71773683D01*
X43390090Y-71557559D01*
X43260900Y-71469287D01*
X43308834Y-71421437D01*
X43560713Y-70814845D01*
X43561000Y-70485000D01*
X43907167Y-70485000D01*
X44015441Y-71029329D01*
X44323778Y-71490789D01*
X44719199Y-71755000D01*
X44323778Y-72019211D01*
X44015441Y-72480671D01*
X43907167Y-73025000D01*
X44015441Y-73569329D01*
X44323778Y-74030789D01*
X44719199Y-74295000D01*
X44323778Y-74559211D01*
X44015441Y-75020671D01*
X43907167Y-75565000D01*
X44015441Y-76109329D01*
X44323778Y-76570789D01*
X44785238Y-76879126D01*
X45329567Y-76987400D01*
X46110433Y-76987400D01*
X46654762Y-76879126D01*
X47116222Y-76570789D01*
X47424559Y-76109329D01*
X47532833Y-75565000D01*
X47424559Y-75020671D01*
X47116222Y-74559211D01*
X46720801Y-74295000D01*
X47116222Y-74030789D01*
X47424559Y-73569329D01*
X47532833Y-73025000D01*
X47424559Y-72480671D01*
X47116222Y-72019211D01*
X46720801Y-71755000D01*
X47116222Y-71490789D01*
X47424559Y-71029329D01*
X47532833Y-70485000D01*
X47424559Y-69940671D01*
X47116222Y-69479211D01*
X46944540Y-69364497D01*
X47098317Y-69335562D01*
X47314441Y-69196490D01*
X47459431Y-68984290D01*
X47510440Y-68732400D01*
X47510440Y-67157600D01*
X47466162Y-66922283D01*
X47327090Y-66706159D01*
X47114890Y-66561169D01*
X46863000Y-66510160D01*
X44577000Y-66510160D01*
X44341683Y-66554438D01*
X44125559Y-66693510D01*
X43980569Y-66905710D01*
X43929560Y-67157600D01*
X43929560Y-68732400D01*
X43973838Y-68967717D01*
X44112910Y-69183841D01*
X44325110Y-69328831D01*
X44496803Y-69363600D01*
X44323778Y-69479211D01*
X44015441Y-69940671D01*
X43907167Y-70485000D01*
X43561000Y-70485000D01*
X43561286Y-70158037D01*
X43310466Y-69551005D01*
X42974868Y-69214821D01*
X43308834Y-68881437D01*
X43560713Y-68274845D01*
X43561286Y-67618037D01*
X43310466Y-67011005D01*
X42846437Y-66546166D01*
X42239845Y-66294287D01*
X41583037Y-66293714D01*
X40976005Y-66544534D01*
X40511166Y-67008563D01*
X40259287Y-67615155D01*
X40258714Y-68271963D01*
X40509534Y-68878995D01*
X40845132Y-69215179D01*
X40511166Y-69548563D01*
X40259287Y-70155155D01*
X40258714Y-70811963D01*
X40509534Y-71418995D01*
X40559872Y-71469421D01*
X40442559Y-71544910D01*
X40297569Y-71757110D01*
X40246560Y-72009000D01*
X38925500Y-72009000D01*
X38925500Y-62058382D01*
X38981355Y-62193561D01*
X40035888Y-63249936D01*
X41414407Y-63822347D01*
X42907045Y-63823650D01*
X44286561Y-63253645D01*
X45342936Y-62199112D01*
X45877287Y-60912251D01*
X46053563Y-61088834D01*
X46660155Y-61340713D01*
X47316963Y-61341286D01*
X47923995Y-61090466D01*
X48388834Y-60626437D01*
X48640713Y-60019845D01*
X48641286Y-59363037D01*
X48390466Y-58756005D01*
X47926437Y-58291166D01*
X47319845Y-58039287D01*
X46663037Y-58038714D01*
X46056005Y-58289534D01*
X45653574Y-58691264D01*
X45346645Y-57948439D01*
X44292112Y-56892064D01*
X43842816Y-56705500D01*
X82393981Y-56705500D01*
X81951439Y-56888355D01*
X81951439Y-56888355D01*
G37*
X81951439Y-56888355D02*
X80895064Y-57942888D01*
X80322653Y-59321407D01*
X80321350Y-60814045D01*
X80891355Y-62193561D01*
X81945888Y-63249936D01*
X82701034Y-63563500D01*
X82055538Y-63563500D01*
X80683519Y-62191481D01*
X80374506Y-61985005D01*
X80010000Y-61912500D01*
X79486993Y-61912500D01*
X79169868Y-61594821D01*
X79503834Y-61261437D01*
X79755713Y-60654845D01*
X79756286Y-59998037D01*
X79505466Y-59391005D01*
X79041437Y-58926166D01*
X78434845Y-58674287D01*
X77778037Y-58673714D01*
X77171005Y-58924534D01*
X76722257Y-59372500D01*
X75959538Y-59372500D01*
X75603519Y-59016481D01*
X75294506Y-58810005D01*
X74930000Y-58737500D01*
X73047269Y-58737500D01*
X72655421Y-58344968D01*
X72072159Y-58102776D01*
X71440612Y-58102225D01*
X70856928Y-58343398D01*
X70409968Y-58789579D01*
X70167776Y-59372841D01*
X70167225Y-60004388D01*
X70408398Y-60588072D01*
X70779935Y-60960257D01*
X70742190Y-60997936D01*
X70631590Y-60826059D01*
X70419390Y-60681069D01*
X70167500Y-60630060D01*
X68262500Y-60630060D01*
X68027183Y-60674338D01*
X67811059Y-60813410D01*
X67666069Y-61025610D01*
X67615060Y-61277500D01*
X67615060Y-63182500D01*
X67659338Y-63417817D01*
X67798410Y-63633941D01*
X68010610Y-63778931D01*
X68262500Y-63829940D01*
X70167500Y-63829940D01*
X70402817Y-63785662D01*
X70618941Y-63646590D01*
X70743716Y-63463976D01*
X70854579Y-63575032D01*
X71437841Y-63817224D01*
X71995251Y-63817710D01*
X71360462Y-64452500D01*
X69596000Y-64452500D01*
X69231494Y-64525005D01*
X68922481Y-64731481D01*
X67906481Y-65747481D01*
X67700005Y-66056494D01*
X67627500Y-66421000D01*
X67627500Y-66652731D01*
X67234968Y-67044579D01*
X66992776Y-67627841D01*
X66992225Y-68259388D01*
X67233398Y-68843072D01*
X67347936Y-68957810D01*
X67176059Y-69068410D01*
X67031069Y-69280610D01*
X66980060Y-69532500D01*
X66980060Y-69572867D01*
X66818494Y-69605005D01*
X66509481Y-69811481D01*
X65577574Y-70743388D01*
X65595313Y-70700668D01*
X65595687Y-70271216D01*
X65431689Y-69874311D01*
X65128286Y-69570378D01*
X64731668Y-69405687D01*
X64302216Y-69405313D01*
X63994400Y-69532500D01*
X60084538Y-69532500D01*
X60007500Y-69455462D01*
X60007500Y-68691993D01*
X60325179Y-68374868D01*
X60658563Y-68708834D01*
X61265155Y-68960713D01*
X61921963Y-68961286D01*
X62528995Y-68710466D01*
X62865179Y-68374868D01*
X63198563Y-68708834D01*
X63805155Y-68960713D01*
X64461963Y-68961286D01*
X65068995Y-68710466D01*
X65533834Y-68246437D01*
X65785713Y-67639845D01*
X65786286Y-66983037D01*
X65535466Y-66376005D01*
X65087500Y-65927257D01*
X65087500Y-65278000D01*
X65014995Y-64913494D01*
X64808519Y-64604481D01*
X63817500Y-63613462D01*
X63817500Y-63306930D01*
X64080909Y-63043980D01*
X64134862Y-62914047D01*
X64187672Y-63041857D01*
X64591020Y-63445909D01*
X65118289Y-63664850D01*
X65689207Y-63665348D01*
X66216857Y-63447328D01*
X66620909Y-63043980D01*
X66839850Y-62516711D01*
X66840348Y-61945793D01*
X66622328Y-61418143D01*
X66218980Y-61014091D01*
X66089047Y-60960138D01*
X66216857Y-60907328D01*
X66620909Y-60503980D01*
X66839850Y-59976711D01*
X66840348Y-59405793D01*
X66622328Y-58878143D01*
X66218980Y-58474091D01*
X65691711Y-58255150D01*
X65120793Y-58254652D01*
X64593143Y-58472672D01*
X64189091Y-58876020D01*
X64135138Y-59005953D01*
X64082328Y-58878143D01*
X63678980Y-58474091D01*
X63151711Y-58255150D01*
X62580793Y-58254652D01*
X62053143Y-58472672D01*
X61649091Y-58876020D01*
X61595138Y-59005953D01*
X61542328Y-58878143D01*
X61138980Y-58474091D01*
X60611711Y-58255150D01*
X60040793Y-58254652D01*
X59513143Y-58472672D01*
X59232637Y-58752690D01*
X58944494Y-58810005D01*
X58635481Y-59016481D01*
X58000481Y-59651481D01*
X57794005Y-59960494D01*
X57753635Y-60163445D01*
X57225845Y-59944287D01*
X56569037Y-59943714D01*
X56235017Y-60081728D01*
X56260713Y-60019845D01*
X56261286Y-59363037D01*
X56010466Y-58756005D01*
X55546437Y-58291166D01*
X54939845Y-58039287D01*
X54283037Y-58038714D01*
X53676005Y-58289534D01*
X53211166Y-58753563D01*
X52959287Y-59360155D01*
X52958714Y-60016963D01*
X53209534Y-60623995D01*
X53673563Y-61088834D01*
X54280155Y-61340713D01*
X54936963Y-61341286D01*
X55270983Y-61203272D01*
X55245287Y-61265155D01*
X55244714Y-61921963D01*
X55495534Y-62528995D01*
X55959563Y-62993834D01*
X56566155Y-63245713D01*
X56945918Y-63246044D01*
X56222481Y-63969481D01*
X56125555Y-64114541D01*
X56010466Y-63836005D01*
X55546437Y-63371166D01*
X54939845Y-63119287D01*
X54283037Y-63118714D01*
X53676005Y-63369534D01*
X53227257Y-63817500D01*
X48371993Y-63817500D01*
X47926437Y-63371166D01*
X47319845Y-63119287D01*
X46663037Y-63118714D01*
X46056005Y-63369534D01*
X45591166Y-63833563D01*
X45339287Y-64440155D01*
X45338714Y-65096963D01*
X45589534Y-65703995D01*
X46053563Y-66168834D01*
X46660155Y-66420713D01*
X47316963Y-66421286D01*
X47923995Y-66170466D01*
X48372743Y-65722500D01*
X53228007Y-65722500D01*
X53673563Y-66168834D01*
X54280155Y-66420713D01*
X54936963Y-66421286D01*
X55330128Y-66258834D01*
X54684386Y-66904576D01*
X54274762Y-66630874D01*
X53730433Y-66522600D01*
X52949567Y-66522600D01*
X52405238Y-66630874D01*
X51943778Y-66939211D01*
X51883366Y-67029624D01*
X51705494Y-67065005D01*
X51396481Y-67271481D01*
X50126481Y-68541481D01*
X49920005Y-68850494D01*
X49847500Y-69215000D01*
X49847500Y-78112880D01*
X49550320Y-78112880D01*
X49315003Y-78157158D01*
X49098879Y-78296230D01*
X48953889Y-78508430D01*
X48902880Y-78760320D01*
X48902880Y-78876886D01*
X48439979Y-78413178D01*
X47747531Y-78125648D01*
X46997759Y-78124994D01*
X46304809Y-78411314D01*
X45774178Y-78941021D01*
X45486648Y-79633469D01*
X45485994Y-80383241D01*
X45772314Y-81076191D01*
X46302021Y-81606822D01*
X46848688Y-81833818D01*
X46319345Y-82052538D01*
X45916417Y-82454764D01*
X45916650Y-82187955D01*
X45346645Y-80808439D01*
X44292112Y-79752064D01*
X42913593Y-79179653D01*
X41420955Y-79178350D01*
X40041439Y-79748355D01*
X38985064Y-80802888D01*
X38925500Y-80946334D01*
X38925500Y-72009000D01*
X40246560Y-72009000D01*
X40246560Y-74041000D01*
X40290838Y-74276317D01*
X40429910Y-74492441D01*
X40642110Y-74637431D01*
X40894000Y-74688440D01*
X42926000Y-74688440D01*
X43161317Y-74644162D01*
X43377441Y-74505090D01*
X43522431Y-74292890D01*
X43573440Y-74041000D01*
X43573440Y-72009000D01*
X43529162Y-71773683D01*
X43390090Y-71557559D01*
X43260900Y-71469287D01*
X43308834Y-71421437D01*
X43560713Y-70814845D01*
X43561000Y-70485000D01*
X43907167Y-70485000D01*
X44015441Y-71029329D01*
X44323778Y-71490789D01*
X44719199Y-71755000D01*
X44323778Y-72019211D01*
X44015441Y-72480671D01*
X43907167Y-73025000D01*
X44015441Y-73569329D01*
X44323778Y-74030789D01*
X44719199Y-74295000D01*
X44323778Y-74559211D01*
X44015441Y-75020671D01*
X43907167Y-75565000D01*
X44015441Y-76109329D01*
X44323778Y-76570789D01*
X44785238Y-76879126D01*
X45329567Y-76987400D01*
X46110433Y-76987400D01*
X46654762Y-76879126D01*
X47116222Y-76570789D01*
X47424559Y-76109329D01*
X47532833Y-75565000D01*
X47424559Y-75020671D01*
X47116222Y-74559211D01*
X46720801Y-74295000D01*
X47116222Y-74030789D01*
X47424559Y-73569329D01*
X47532833Y-73025000D01*
X47424559Y-72480671D01*
X47116222Y-72019211D01*
X46720801Y-71755000D01*
X47116222Y-71490789D01*
X47424559Y-71029329D01*
X47532833Y-70485000D01*
X47424559Y-69940671D01*
X47116222Y-69479211D01*
X46944540Y-69364497D01*
X47098317Y-69335562D01*
X47314441Y-69196490D01*
X47459431Y-68984290D01*
X47510440Y-68732400D01*
X47510440Y-67157600D01*
X47466162Y-66922283D01*
X47327090Y-66706159D01*
X47114890Y-66561169D01*
X46863000Y-66510160D01*
X44577000Y-66510160D01*
X44341683Y-66554438D01*
X44125559Y-66693510D01*
X43980569Y-66905710D01*
X43929560Y-67157600D01*
X43929560Y-68732400D01*
X43973838Y-68967717D01*
X44112910Y-69183841D01*
X44325110Y-69328831D01*
X44496803Y-69363600D01*
X44323778Y-69479211D01*
X44015441Y-69940671D01*
X43907167Y-70485000D01*
X43561000Y-70485000D01*
X43561286Y-70158037D01*
X43310466Y-69551005D01*
X42974868Y-69214821D01*
X43308834Y-68881437D01*
X43560713Y-68274845D01*
X43561286Y-67618037D01*
X43310466Y-67011005D01*
X42846437Y-66546166D01*
X42239845Y-66294287D01*
X41583037Y-66293714D01*
X40976005Y-66544534D01*
X40511166Y-67008563D01*
X40259287Y-67615155D01*
X40258714Y-68271963D01*
X40509534Y-68878995D01*
X40845132Y-69215179D01*
X40511166Y-69548563D01*
X40259287Y-70155155D01*
X40258714Y-70811963D01*
X40509534Y-71418995D01*
X40559872Y-71469421D01*
X40442559Y-71544910D01*
X40297569Y-71757110D01*
X40246560Y-72009000D01*
X38925500Y-72009000D01*
X38925500Y-62058382D01*
X38981355Y-62193561D01*
X40035888Y-63249936D01*
X41414407Y-63822347D01*
X42907045Y-63823650D01*
X44286561Y-63253645D01*
X45342936Y-62199112D01*
X45877287Y-60912251D01*
X46053563Y-61088834D01*
X46660155Y-61340713D01*
X47316963Y-61341286D01*
X47923995Y-61090466D01*
X48388834Y-60626437D01*
X48640713Y-60019845D01*
X48641286Y-59363037D01*
X48390466Y-58756005D01*
X47926437Y-58291166D01*
X47319845Y-58039287D01*
X46663037Y-58038714D01*
X46056005Y-58289534D01*
X45653574Y-58691264D01*
X45346645Y-57948439D01*
X44292112Y-56892064D01*
X43842816Y-56705500D01*
X82393981Y-56705500D01*
X81951439Y-56888355D01*
M02*
