G04 (created by PCBNEW (2013-05-31 BZR 4019)-stable) date 7/20/2013 3:51:13 PM*
%MOIN*%
G04 Gerber Fmt 3.4, Leading zero omitted, Abs format*
%FSLAX34Y34*%
G01*
G70*
G90*
G04 APERTURE LIST*
%ADD10C,0.00590551*%
%ADD11R,0.06X0.06*%
%ADD12C,0.06*%
%ADD13C,0.1575*%
%ADD14R,0.025X0.045*%
%ADD15C,0.035*%
%ADD16C,0.008*%
%ADD17C,0.01*%
G04 APERTURE END LIST*
G54D10*
G54D11*
X24106Y-13681D03*
G54D12*
X25106Y-13681D03*
G54D11*
X22736Y-20464D03*
G54D12*
X22736Y-21464D03*
G54D13*
X18504Y-21948D03*
G54D14*
X25400Y-10850D03*
X26000Y-10850D03*
G54D11*
X22637Y-13346D03*
G54D12*
X22637Y-14346D03*
X22637Y-15346D03*
X22637Y-16346D03*
X22637Y-17346D03*
X22637Y-18346D03*
G54D11*
X27200Y-13100D03*
G54D12*
X27200Y-14100D03*
G54D15*
X19000Y-14200D03*
X29800Y-20600D03*
X27165Y-15551D03*
X29400Y-15800D03*
X23600Y-18900D03*
X18100Y-14600D03*
X21000Y-18400D03*
X14850Y-19100D03*
X19000Y-17500D03*
X16800Y-18600D03*
X15400Y-18400D03*
X22000Y-20900D03*
X20000Y-18800D03*
X23350Y-20000D03*
X19600Y-17600D03*
X15800Y-17550D03*
X19300Y-16200D03*
X19950Y-16800D03*
X21900Y-16900D03*
X23622Y-15354D03*
X23700Y-17200D03*
X18520Y-15840D03*
X20100Y-14750D03*
X25100Y-11150D03*
X26100Y-15300D03*
X25300Y-18000D03*
X20100Y-22400D03*
X26050Y-11350D03*
X18050Y-18750D03*
X21550Y-17700D03*
X16350Y-10350D03*
X30000Y-17100D03*
X23500Y-19400D03*
X29900Y-21300D03*
X23600Y-17700D03*
X23700Y-20700D03*
X16000Y-22200D03*
X12900Y-21400D03*
X12200Y-19000D03*
X20000Y-13200D03*
X17500Y-14300D03*
X17000Y-15600D03*
X14700Y-17400D03*
X12700Y-17700D03*
X14000Y-16200D03*
X12700Y-12900D03*
X28051Y-10964D03*
X18188Y-12519D03*
X22736Y-11811D03*
X17400Y-15100D03*
X16900Y-12200D03*
G54D16*
X19400Y-13800D02*
X19900Y-13800D01*
X19000Y-14200D02*
X19400Y-13800D01*
X29400Y-16732D02*
X29400Y-15800D01*
X23040Y-13800D02*
X23100Y-13800D01*
X26181Y-14700D02*
X24000Y-14700D01*
X24000Y-14700D02*
X23100Y-13800D01*
X23040Y-13800D02*
X19900Y-13800D01*
X29400Y-20200D02*
X29800Y-20600D01*
X29400Y-16732D02*
X29400Y-20200D01*
X27165Y-15551D02*
X26314Y-14700D01*
X26314Y-14700D02*
X26181Y-14700D01*
X20200Y-15400D02*
X18900Y-15400D01*
X18900Y-15400D02*
X18100Y-14600D01*
X23200Y-17950D02*
X23200Y-18500D01*
X23200Y-18500D02*
X23600Y-18900D01*
X21000Y-15400D02*
X21600Y-14800D01*
X20200Y-15400D02*
X21000Y-15400D01*
X21600Y-14800D02*
X22840Y-14800D01*
X23200Y-16700D02*
X23200Y-15100D01*
X23200Y-15100D02*
X22900Y-14800D01*
X23200Y-17950D02*
X23200Y-16700D01*
X22840Y-14800D02*
X22900Y-14800D01*
X21000Y-18400D02*
X21400Y-18400D01*
X21400Y-18400D02*
X22500Y-19500D01*
X22500Y-19500D02*
X22500Y-20228D01*
X22500Y-20228D02*
X22736Y-20464D01*
X21400Y-18400D02*
X22500Y-19500D01*
X22500Y-19500D02*
X22500Y-20228D01*
X22500Y-20228D02*
X22736Y-20464D01*
X19000Y-17500D02*
X16900Y-17500D01*
X16900Y-17500D02*
X16350Y-18050D01*
X14850Y-19100D02*
X14850Y-18350D01*
X14850Y-18350D02*
X15150Y-18050D01*
X15150Y-18050D02*
X16350Y-18050D01*
X15600Y-18600D02*
X16800Y-18600D01*
X15400Y-18400D02*
X15600Y-18600D01*
X20000Y-18800D02*
X21500Y-18800D01*
X21500Y-18800D02*
X22000Y-19300D01*
X22000Y-20900D02*
X22000Y-19300D01*
X23200Y-19850D02*
X23150Y-19850D01*
X23350Y-20000D02*
X23200Y-19850D01*
X19600Y-17600D02*
X20900Y-17600D01*
X20900Y-17600D02*
X23150Y-19850D01*
X15800Y-17550D02*
X16500Y-17550D01*
X18750Y-17150D02*
X19700Y-17150D01*
X18580Y-17319D02*
X18750Y-17150D01*
X16730Y-17319D02*
X18580Y-17319D01*
X16500Y-17550D02*
X16730Y-17319D01*
X19700Y-17150D02*
X19850Y-17150D01*
X20320Y-17150D02*
X21650Y-17150D01*
X20320Y-17150D02*
X19850Y-17150D01*
X21650Y-17150D02*
X21846Y-17346D01*
X21846Y-17346D02*
X22637Y-17346D01*
X22637Y-17346D02*
X21846Y-17346D01*
X21846Y-17346D02*
X21650Y-17150D01*
X19300Y-16200D02*
X22491Y-16200D01*
X22491Y-16200D02*
X22637Y-16346D01*
X20050Y-16900D02*
X21900Y-16900D01*
X19950Y-16800D02*
X20050Y-16900D01*
X23622Y-15354D02*
X23600Y-15376D01*
X23600Y-15376D02*
X23600Y-16141D01*
X23600Y-17100D02*
X23600Y-16141D01*
X23600Y-16141D02*
X23600Y-15900D01*
X23700Y-17200D02*
X23600Y-17100D01*
X22124Y-15860D02*
X22637Y-15346D01*
X18520Y-15840D02*
X18540Y-15860D01*
X18540Y-15860D02*
X22124Y-15860D01*
X20503Y-14346D02*
X20550Y-14346D01*
X20100Y-14750D02*
X20503Y-14346D01*
X21653Y-14346D02*
X22637Y-14346D01*
X20550Y-14346D02*
X21653Y-14346D01*
X25100Y-11150D02*
X25400Y-10850D01*
X25300Y-18000D02*
X25300Y-16100D01*
X25300Y-16100D02*
X26100Y-15300D01*
X28090Y-10925D02*
X28090Y-10885D01*
X28051Y-10964D02*
X28090Y-10925D01*
X17400Y-15100D02*
X17400Y-14900D01*
X17400Y-14900D02*
X16900Y-14400D01*
X16900Y-14400D02*
X16900Y-12200D01*
G54D10*
G36*
X31054Y-22415D02*
X31038Y-22495D01*
X31007Y-22541D01*
X30960Y-22573D01*
X30886Y-22587D01*
X30145Y-22587D01*
X30145Y-20531D01*
X30092Y-20404D01*
X29995Y-20307D01*
X29868Y-20255D01*
X29751Y-20254D01*
X29610Y-20113D01*
X29610Y-16732D01*
X29610Y-16077D01*
X29692Y-15995D01*
X29744Y-15868D01*
X29745Y-15731D01*
X29692Y-15604D01*
X29595Y-15507D01*
X29468Y-15455D01*
X29331Y-15454D01*
X29204Y-15507D01*
X29107Y-15604D01*
X29055Y-15731D01*
X29054Y-15868D01*
X29107Y-15995D01*
X29190Y-16077D01*
X29190Y-16732D01*
X29190Y-20200D01*
X29205Y-20280D01*
X29251Y-20348D01*
X29455Y-20552D01*
X29454Y-20668D01*
X29507Y-20795D01*
X29604Y-20892D01*
X29731Y-20944D01*
X29868Y-20945D01*
X29995Y-20892D01*
X30092Y-20795D01*
X30144Y-20668D01*
X30145Y-20531D01*
X30145Y-22587D01*
X27670Y-22587D01*
X27670Y-14006D01*
X27670Y-14006D01*
X27670Y-13366D01*
X27670Y-12766D01*
X27644Y-12703D01*
X27596Y-12655D01*
X27533Y-12630D01*
X27466Y-12629D01*
X26866Y-12629D01*
X26803Y-12655D01*
X26755Y-12703D01*
X26730Y-12766D01*
X26729Y-12833D01*
X26729Y-13433D01*
X26755Y-13496D01*
X26803Y-13544D01*
X26866Y-13569D01*
X26933Y-13570D01*
X27533Y-13570D01*
X27596Y-13544D01*
X27644Y-13496D01*
X27669Y-13433D01*
X27670Y-13366D01*
X27670Y-14006D01*
X27598Y-13834D01*
X27466Y-13701D01*
X27293Y-13630D01*
X27106Y-13629D01*
X26934Y-13701D01*
X26801Y-13833D01*
X26730Y-14006D01*
X26729Y-14193D01*
X26801Y-14365D01*
X26933Y-14498D01*
X27106Y-14569D01*
X27293Y-14570D01*
X27465Y-14498D01*
X27598Y-14366D01*
X27669Y-14193D01*
X27670Y-14006D01*
X27670Y-22587D01*
X27510Y-22587D01*
X27510Y-15482D01*
X27458Y-15356D01*
X27361Y-15258D01*
X27234Y-15206D01*
X27117Y-15206D01*
X26462Y-14551D01*
X26394Y-14505D01*
X26375Y-14502D01*
X26375Y-11025D01*
X26375Y-10674D01*
X26374Y-10575D01*
X26336Y-10483D01*
X26266Y-10412D01*
X26174Y-10374D01*
X26112Y-10375D01*
X26050Y-10437D01*
X26050Y-10800D01*
X26312Y-10800D01*
X26375Y-10737D01*
X26375Y-10674D01*
X26375Y-11025D01*
X26375Y-10962D01*
X26312Y-10900D01*
X26050Y-10900D01*
X26050Y-11262D01*
X26112Y-11325D01*
X26174Y-11325D01*
X26266Y-11287D01*
X26336Y-11216D01*
X26374Y-11124D01*
X26375Y-11025D01*
X26375Y-14502D01*
X26314Y-14490D01*
X26181Y-14490D01*
X25950Y-14490D01*
X25950Y-11262D01*
X25950Y-10900D01*
X25942Y-10900D01*
X25942Y-10800D01*
X25950Y-10800D01*
X25950Y-10437D01*
X25887Y-10375D01*
X25825Y-10374D01*
X25733Y-10412D01*
X25663Y-10483D01*
X25651Y-10511D01*
X25621Y-10480D01*
X25558Y-10455D01*
X25491Y-10454D01*
X25241Y-10454D01*
X25178Y-10480D01*
X25130Y-10528D01*
X25105Y-10591D01*
X25104Y-10658D01*
X25104Y-10805D01*
X25031Y-10804D01*
X24904Y-10857D01*
X24807Y-10954D01*
X24755Y-11081D01*
X24754Y-11218D01*
X24807Y-11345D01*
X24904Y-11442D01*
X25031Y-11494D01*
X25168Y-11495D01*
X25295Y-11442D01*
X25392Y-11345D01*
X25434Y-11245D01*
X25558Y-11245D01*
X25621Y-11219D01*
X25651Y-11188D01*
X25663Y-11216D01*
X25733Y-11287D01*
X25825Y-11325D01*
X25887Y-11325D01*
X25950Y-11262D01*
X25950Y-14490D01*
X25661Y-14490D01*
X25661Y-13762D01*
X25650Y-13544D01*
X25587Y-13393D01*
X25492Y-13365D01*
X25421Y-13436D01*
X25421Y-13295D01*
X25394Y-13199D01*
X25188Y-13126D01*
X24969Y-13137D01*
X24818Y-13199D01*
X24791Y-13295D01*
X25106Y-13610D01*
X25421Y-13295D01*
X25421Y-13436D01*
X25177Y-13681D01*
X25492Y-13996D01*
X25587Y-13968D01*
X25661Y-13762D01*
X25661Y-14490D01*
X25421Y-14490D01*
X25421Y-14067D01*
X25106Y-13751D01*
X24791Y-14067D01*
X24818Y-14162D01*
X25024Y-14235D01*
X25243Y-14224D01*
X25394Y-14162D01*
X25421Y-14067D01*
X25421Y-14490D01*
X24086Y-14490D01*
X23730Y-14133D01*
X23772Y-14151D01*
X23839Y-14151D01*
X24439Y-14151D01*
X24502Y-14125D01*
X24550Y-14077D01*
X24576Y-14015D01*
X24576Y-13947D01*
X24576Y-13851D01*
X24625Y-13968D01*
X24720Y-13996D01*
X25035Y-13681D01*
X24720Y-13365D01*
X24625Y-13393D01*
X24576Y-13529D01*
X24576Y-13347D01*
X24550Y-13284D01*
X24502Y-13237D01*
X24440Y-13211D01*
X24372Y-13211D01*
X23772Y-13211D01*
X23710Y-13236D01*
X23662Y-13284D01*
X23636Y-13347D01*
X23636Y-13414D01*
X23636Y-14014D01*
X23653Y-14056D01*
X23248Y-13651D01*
X23187Y-13610D01*
X23187Y-12996D01*
X23149Y-12905D01*
X23079Y-12834D01*
X22987Y-12796D01*
X22888Y-12796D01*
X22750Y-12796D01*
X22687Y-12858D01*
X22687Y-13296D01*
X23125Y-13296D01*
X23187Y-13233D01*
X23187Y-12996D01*
X23187Y-13610D01*
X23187Y-13610D01*
X23187Y-13458D01*
X23125Y-13396D01*
X22687Y-13396D01*
X22687Y-13404D01*
X22587Y-13404D01*
X22587Y-13396D01*
X22587Y-13296D01*
X22587Y-12858D01*
X22525Y-12796D01*
X22387Y-12796D01*
X22287Y-12796D01*
X22195Y-12834D01*
X22125Y-12905D01*
X22087Y-12996D01*
X22087Y-13233D01*
X22150Y-13296D01*
X22587Y-13296D01*
X22587Y-13396D01*
X22150Y-13396D01*
X22087Y-13458D01*
X22087Y-13590D01*
X19900Y-13590D01*
X19400Y-13590D01*
X19399Y-13590D01*
X19384Y-13593D01*
X19319Y-13605D01*
X19251Y-13651D01*
X19251Y-13651D01*
X19047Y-13855D01*
X18931Y-13854D01*
X18804Y-13907D01*
X18707Y-14004D01*
X18655Y-14131D01*
X18654Y-14268D01*
X18707Y-14395D01*
X18804Y-14492D01*
X18931Y-14544D01*
X19068Y-14545D01*
X19195Y-14492D01*
X19292Y-14395D01*
X19344Y-14268D01*
X19345Y-14151D01*
X19486Y-14010D01*
X19900Y-14010D01*
X22309Y-14010D01*
X22239Y-14079D01*
X22216Y-14136D01*
X21653Y-14136D01*
X20550Y-14136D01*
X20503Y-14136D01*
X20503Y-14136D01*
X20487Y-14139D01*
X20423Y-14152D01*
X20355Y-14197D01*
X20355Y-14197D01*
X20147Y-14405D01*
X20031Y-14404D01*
X19904Y-14457D01*
X19807Y-14554D01*
X19755Y-14681D01*
X19754Y-14818D01*
X19807Y-14945D01*
X19904Y-15042D01*
X20031Y-15094D01*
X20168Y-15095D01*
X20295Y-15042D01*
X20392Y-14945D01*
X20444Y-14818D01*
X20445Y-14701D01*
X20590Y-14556D01*
X21653Y-14556D01*
X22216Y-14556D01*
X22229Y-14590D01*
X21600Y-14590D01*
X21519Y-14605D01*
X21492Y-14624D01*
X21451Y-14651D01*
X21451Y-14651D01*
X20913Y-15190D01*
X20200Y-15190D01*
X18986Y-15190D01*
X18444Y-14647D01*
X18445Y-14531D01*
X18392Y-14404D01*
X18295Y-14307D01*
X18168Y-14255D01*
X18031Y-14254D01*
X17904Y-14307D01*
X17807Y-14404D01*
X17755Y-14531D01*
X17754Y-14668D01*
X17807Y-14795D01*
X17904Y-14892D01*
X18031Y-14944D01*
X18148Y-14945D01*
X18751Y-15548D01*
X18751Y-15548D01*
X18819Y-15594D01*
X18819Y-15594D01*
X18884Y-15606D01*
X18899Y-15610D01*
X18899Y-15609D01*
X18900Y-15610D01*
X20200Y-15610D01*
X21000Y-15610D01*
X21080Y-15594D01*
X21148Y-15548D01*
X21686Y-15010D01*
X22309Y-15010D01*
X22239Y-15079D01*
X22167Y-15252D01*
X22167Y-15439D01*
X22191Y-15496D01*
X22037Y-15650D01*
X18814Y-15650D01*
X18812Y-15644D01*
X18715Y-15547D01*
X18588Y-15495D01*
X18451Y-15494D01*
X18324Y-15547D01*
X18227Y-15644D01*
X18175Y-15771D01*
X18174Y-15908D01*
X18227Y-16035D01*
X18324Y-16132D01*
X18451Y-16184D01*
X18588Y-16185D01*
X18715Y-16132D01*
X18777Y-16070D01*
X18980Y-16070D01*
X18955Y-16131D01*
X18954Y-16268D01*
X19007Y-16395D01*
X19104Y-16492D01*
X19231Y-16544D01*
X19368Y-16545D01*
X19495Y-16492D01*
X19577Y-16410D01*
X22167Y-16410D01*
X22167Y-16439D01*
X22239Y-16612D01*
X22371Y-16744D01*
X22543Y-16816D01*
X22730Y-16816D01*
X22903Y-16745D01*
X22990Y-16658D01*
X22990Y-16700D01*
X22990Y-17034D01*
X22904Y-16948D01*
X22731Y-16876D01*
X22544Y-16876D01*
X22371Y-16947D01*
X22239Y-17079D01*
X22216Y-17136D01*
X22151Y-17136D01*
X22192Y-17095D01*
X22244Y-16968D01*
X22245Y-16831D01*
X22192Y-16704D01*
X22095Y-16607D01*
X21968Y-16555D01*
X21831Y-16554D01*
X21704Y-16607D01*
X21622Y-16690D01*
X20277Y-16690D01*
X20242Y-16604D01*
X20145Y-16507D01*
X20018Y-16455D01*
X19881Y-16454D01*
X19754Y-16507D01*
X19657Y-16604D01*
X19605Y-16731D01*
X19604Y-16868D01*
X19634Y-16940D01*
X18750Y-16940D01*
X18669Y-16955D01*
X18601Y-17001D01*
X18601Y-17001D01*
X18493Y-17109D01*
X17745Y-17109D01*
X17745Y-15031D01*
X17692Y-14904D01*
X17595Y-14807D01*
X17582Y-14802D01*
X17582Y-14802D01*
X17548Y-14751D01*
X17110Y-14313D01*
X17110Y-12477D01*
X17192Y-12395D01*
X17244Y-12268D01*
X17245Y-12131D01*
X17192Y-12004D01*
X17095Y-11907D01*
X16968Y-11855D01*
X16831Y-11854D01*
X16704Y-11907D01*
X16607Y-12004D01*
X16555Y-12131D01*
X16554Y-12268D01*
X16607Y-12395D01*
X16690Y-12477D01*
X16690Y-14400D01*
X16705Y-14480D01*
X16751Y-14548D01*
X17107Y-14904D01*
X17055Y-15031D01*
X17054Y-15168D01*
X17107Y-15295D01*
X17204Y-15392D01*
X17331Y-15444D01*
X17468Y-15445D01*
X17595Y-15392D01*
X17692Y-15295D01*
X17744Y-15168D01*
X17745Y-15031D01*
X17745Y-17109D01*
X16730Y-17109D01*
X16649Y-17125D01*
X16622Y-17144D01*
X16581Y-17171D01*
X16581Y-17171D01*
X16413Y-17340D01*
X16077Y-17340D01*
X15995Y-17257D01*
X15868Y-17205D01*
X15731Y-17204D01*
X15604Y-17257D01*
X15507Y-17354D01*
X15455Y-17481D01*
X15454Y-17618D01*
X15507Y-17745D01*
X15602Y-17840D01*
X15150Y-17840D01*
X15149Y-17840D01*
X15134Y-17843D01*
X15069Y-17855D01*
X15001Y-17901D01*
X15001Y-17901D01*
X14701Y-18201D01*
X14655Y-18269D01*
X14640Y-18350D01*
X14640Y-18822D01*
X14557Y-18904D01*
X14505Y-19031D01*
X14504Y-19168D01*
X14557Y-19295D01*
X14654Y-19392D01*
X14781Y-19444D01*
X14918Y-19445D01*
X15045Y-19392D01*
X15142Y-19295D01*
X15194Y-19168D01*
X15195Y-19031D01*
X15142Y-18904D01*
X15060Y-18822D01*
X15060Y-18480D01*
X15107Y-18595D01*
X15204Y-18692D01*
X15331Y-18744D01*
X15448Y-18745D01*
X15451Y-18748D01*
X15451Y-18748D01*
X15492Y-18775D01*
X15519Y-18794D01*
X15519Y-18794D01*
X15600Y-18810D01*
X16522Y-18810D01*
X16604Y-18892D01*
X16731Y-18944D01*
X16868Y-18945D01*
X16995Y-18892D01*
X17092Y-18795D01*
X17144Y-18668D01*
X17145Y-18531D01*
X17092Y-18404D01*
X16995Y-18307D01*
X16868Y-18255D01*
X16731Y-18254D01*
X16604Y-18307D01*
X16522Y-18390D01*
X15745Y-18390D01*
X15745Y-18331D01*
X15715Y-18260D01*
X16350Y-18260D01*
X16430Y-18244D01*
X16498Y-18198D01*
X16986Y-17710D01*
X18722Y-17710D01*
X18804Y-17792D01*
X18931Y-17844D01*
X19068Y-17845D01*
X19195Y-17792D01*
X19273Y-17714D01*
X19307Y-17795D01*
X19404Y-17892D01*
X19531Y-17944D01*
X19668Y-17945D01*
X19795Y-17892D01*
X19877Y-17810D01*
X20813Y-17810D01*
X21058Y-18055D01*
X20931Y-18054D01*
X20804Y-18107D01*
X20707Y-18204D01*
X20655Y-18331D01*
X20654Y-18468D01*
X20705Y-18590D01*
X20277Y-18590D01*
X20195Y-18507D01*
X20068Y-18455D01*
X19931Y-18454D01*
X19804Y-18507D01*
X19707Y-18604D01*
X19655Y-18731D01*
X19654Y-18868D01*
X19707Y-18995D01*
X19804Y-19092D01*
X19931Y-19144D01*
X20068Y-19145D01*
X20195Y-19092D01*
X20277Y-19010D01*
X21413Y-19010D01*
X21790Y-19386D01*
X21790Y-20622D01*
X21707Y-20704D01*
X21655Y-20831D01*
X21654Y-20968D01*
X21707Y-21095D01*
X21804Y-21192D01*
X21931Y-21244D01*
X22068Y-21245D01*
X22195Y-21192D01*
X22292Y-21095D01*
X22344Y-20968D01*
X22344Y-20910D01*
X22402Y-20934D01*
X22469Y-20934D01*
X22565Y-20934D01*
X22448Y-20983D01*
X22421Y-21078D01*
X22736Y-21393D01*
X23051Y-21078D01*
X23024Y-20983D01*
X22887Y-20934D01*
X23069Y-20934D01*
X23132Y-20908D01*
X23180Y-20860D01*
X23206Y-20798D01*
X23206Y-20730D01*
X23206Y-20313D01*
X23281Y-20344D01*
X23418Y-20345D01*
X23545Y-20292D01*
X23642Y-20195D01*
X23694Y-20068D01*
X23695Y-19931D01*
X23642Y-19804D01*
X23545Y-19707D01*
X23418Y-19655D01*
X23281Y-19654D01*
X23279Y-19655D01*
X23246Y-19649D01*
X21048Y-17451D01*
X20980Y-17405D01*
X20900Y-17390D01*
X19877Y-17390D01*
X19847Y-17360D01*
X19850Y-17360D01*
X20320Y-17360D01*
X21563Y-17360D01*
X21697Y-17494D01*
X21697Y-17494D01*
X21766Y-17540D01*
X21766Y-17540D01*
X21846Y-17556D01*
X22216Y-17556D01*
X22239Y-17612D01*
X22371Y-17744D01*
X22543Y-17816D01*
X22730Y-17816D01*
X22903Y-17745D01*
X22990Y-17658D01*
X22990Y-17950D01*
X22990Y-18034D01*
X22904Y-17948D01*
X22731Y-17876D01*
X22544Y-17876D01*
X22371Y-17947D01*
X22239Y-18079D01*
X22167Y-18252D01*
X22167Y-18439D01*
X22239Y-18612D01*
X22371Y-18744D01*
X22543Y-18816D01*
X22730Y-18816D01*
X22903Y-18745D01*
X23031Y-18617D01*
X23051Y-18648D01*
X23255Y-18852D01*
X23254Y-18968D01*
X23307Y-19095D01*
X23404Y-19192D01*
X23531Y-19244D01*
X23668Y-19245D01*
X23795Y-19192D01*
X23892Y-19095D01*
X23944Y-18968D01*
X23945Y-18831D01*
X23892Y-18704D01*
X23795Y-18607D01*
X23668Y-18555D01*
X23551Y-18554D01*
X23410Y-18413D01*
X23410Y-17950D01*
X23410Y-17397D01*
X23504Y-17492D01*
X23631Y-17544D01*
X23768Y-17545D01*
X23895Y-17492D01*
X23992Y-17395D01*
X24044Y-17268D01*
X24045Y-17131D01*
X23992Y-17004D01*
X23895Y-16907D01*
X23810Y-16872D01*
X23810Y-16141D01*
X23810Y-15900D01*
X23810Y-15649D01*
X23817Y-15646D01*
X23914Y-15550D01*
X23966Y-15423D01*
X23967Y-15286D01*
X23914Y-15159D01*
X23817Y-15062D01*
X23690Y-15009D01*
X23553Y-15009D01*
X23426Y-15061D01*
X23406Y-15082D01*
X23394Y-15019D01*
X23394Y-15019D01*
X23348Y-14951D01*
X23348Y-14951D01*
X23048Y-14651D01*
X23017Y-14631D01*
X23036Y-14613D01*
X23107Y-14440D01*
X23107Y-14253D01*
X23036Y-14080D01*
X22966Y-14010D01*
X23013Y-14010D01*
X23851Y-14848D01*
X23919Y-14894D01*
X24000Y-14910D01*
X26181Y-14910D01*
X26227Y-14910D01*
X26820Y-15503D01*
X26820Y-15619D01*
X26872Y-15746D01*
X26969Y-15843D01*
X27096Y-15896D01*
X27233Y-15896D01*
X27360Y-15843D01*
X27457Y-15746D01*
X27510Y-15620D01*
X27510Y-15482D01*
X27510Y-22587D01*
X26445Y-22587D01*
X26445Y-15231D01*
X26392Y-15104D01*
X26295Y-15007D01*
X26168Y-14955D01*
X26031Y-14954D01*
X25904Y-15007D01*
X25807Y-15104D01*
X25755Y-15231D01*
X25754Y-15348D01*
X25151Y-15951D01*
X25105Y-16019D01*
X25090Y-16100D01*
X25090Y-17722D01*
X25007Y-17804D01*
X24955Y-17931D01*
X24954Y-18068D01*
X25007Y-18195D01*
X25104Y-18292D01*
X25231Y-18344D01*
X25368Y-18345D01*
X25495Y-18292D01*
X25592Y-18195D01*
X25644Y-18068D01*
X25645Y-17931D01*
X25592Y-17804D01*
X25510Y-17722D01*
X25510Y-16186D01*
X26052Y-15644D01*
X26168Y-15645D01*
X26295Y-15592D01*
X26392Y-15495D01*
X26444Y-15368D01*
X26445Y-15231D01*
X26445Y-22587D01*
X23291Y-22587D01*
X23291Y-21546D01*
X23280Y-21327D01*
X23217Y-21176D01*
X23122Y-21149D01*
X22806Y-21464D01*
X23122Y-21779D01*
X23217Y-21752D01*
X23291Y-21546D01*
X23291Y-22587D01*
X23051Y-22587D01*
X23051Y-21850D01*
X22736Y-21535D01*
X22665Y-21605D01*
X22665Y-21464D01*
X22350Y-21149D01*
X22254Y-21176D01*
X22181Y-21382D01*
X22192Y-21601D01*
X22254Y-21752D01*
X22350Y-21779D01*
X22665Y-21464D01*
X22665Y-21605D01*
X22421Y-21850D01*
X22448Y-21945D01*
X22654Y-22019D01*
X22872Y-22008D01*
X23024Y-21945D01*
X23051Y-21850D01*
X23051Y-22587D01*
X19735Y-22587D01*
X19735Y-21339D01*
X19216Y-20717D01*
X17892Y-20717D01*
X17273Y-21337D01*
X17273Y-22587D01*
X12225Y-22587D01*
X12058Y-22420D01*
X12058Y-12808D01*
X12071Y-12740D01*
X12091Y-12711D01*
X12215Y-12648D01*
X12219Y-12647D01*
X14193Y-12647D01*
X14617Y-12225D01*
X14617Y-10256D01*
X14785Y-10088D01*
X14881Y-10087D01*
X30879Y-10087D01*
X30960Y-10103D01*
X31007Y-10134D01*
X31038Y-10181D01*
X31054Y-10261D01*
X31054Y-22415D01*
X31054Y-22415D01*
G37*
G54D17*
X31054Y-22415D02*
X31038Y-22495D01*
X31007Y-22541D01*
X30960Y-22573D01*
X30886Y-22587D01*
X30145Y-22587D01*
X30145Y-20531D01*
X30092Y-20404D01*
X29995Y-20307D01*
X29868Y-20255D01*
X29751Y-20254D01*
X29610Y-20113D01*
X29610Y-16732D01*
X29610Y-16077D01*
X29692Y-15995D01*
X29744Y-15868D01*
X29745Y-15731D01*
X29692Y-15604D01*
X29595Y-15507D01*
X29468Y-15455D01*
X29331Y-15454D01*
X29204Y-15507D01*
X29107Y-15604D01*
X29055Y-15731D01*
X29054Y-15868D01*
X29107Y-15995D01*
X29190Y-16077D01*
X29190Y-16732D01*
X29190Y-20200D01*
X29205Y-20280D01*
X29251Y-20348D01*
X29455Y-20552D01*
X29454Y-20668D01*
X29507Y-20795D01*
X29604Y-20892D01*
X29731Y-20944D01*
X29868Y-20945D01*
X29995Y-20892D01*
X30092Y-20795D01*
X30144Y-20668D01*
X30145Y-20531D01*
X30145Y-22587D01*
X27670Y-22587D01*
X27670Y-14006D01*
X27670Y-14006D01*
X27670Y-13366D01*
X27670Y-12766D01*
X27644Y-12703D01*
X27596Y-12655D01*
X27533Y-12630D01*
X27466Y-12629D01*
X26866Y-12629D01*
X26803Y-12655D01*
X26755Y-12703D01*
X26730Y-12766D01*
X26729Y-12833D01*
X26729Y-13433D01*
X26755Y-13496D01*
X26803Y-13544D01*
X26866Y-13569D01*
X26933Y-13570D01*
X27533Y-13570D01*
X27596Y-13544D01*
X27644Y-13496D01*
X27669Y-13433D01*
X27670Y-13366D01*
X27670Y-14006D01*
X27598Y-13834D01*
X27466Y-13701D01*
X27293Y-13630D01*
X27106Y-13629D01*
X26934Y-13701D01*
X26801Y-13833D01*
X26730Y-14006D01*
X26729Y-14193D01*
X26801Y-14365D01*
X26933Y-14498D01*
X27106Y-14569D01*
X27293Y-14570D01*
X27465Y-14498D01*
X27598Y-14366D01*
X27669Y-14193D01*
X27670Y-14006D01*
X27670Y-22587D01*
X27510Y-22587D01*
X27510Y-15482D01*
X27458Y-15356D01*
X27361Y-15258D01*
X27234Y-15206D01*
X27117Y-15206D01*
X26462Y-14551D01*
X26394Y-14505D01*
X26375Y-14502D01*
X26375Y-11025D01*
X26375Y-10674D01*
X26374Y-10575D01*
X26336Y-10483D01*
X26266Y-10412D01*
X26174Y-10374D01*
X26112Y-10375D01*
X26050Y-10437D01*
X26050Y-10800D01*
X26312Y-10800D01*
X26375Y-10737D01*
X26375Y-10674D01*
X26375Y-11025D01*
X26375Y-10962D01*
X26312Y-10900D01*
X26050Y-10900D01*
X26050Y-11262D01*
X26112Y-11325D01*
X26174Y-11325D01*
X26266Y-11287D01*
X26336Y-11216D01*
X26374Y-11124D01*
X26375Y-11025D01*
X26375Y-14502D01*
X26314Y-14490D01*
X26181Y-14490D01*
X25950Y-14490D01*
X25950Y-11262D01*
X25950Y-10900D01*
X25942Y-10900D01*
X25942Y-10800D01*
X25950Y-10800D01*
X25950Y-10437D01*
X25887Y-10375D01*
X25825Y-10374D01*
X25733Y-10412D01*
X25663Y-10483D01*
X25651Y-10511D01*
X25621Y-10480D01*
X25558Y-10455D01*
X25491Y-10454D01*
X25241Y-10454D01*
X25178Y-10480D01*
X25130Y-10528D01*
X25105Y-10591D01*
X25104Y-10658D01*
X25104Y-10805D01*
X25031Y-10804D01*
X24904Y-10857D01*
X24807Y-10954D01*
X24755Y-11081D01*
X24754Y-11218D01*
X24807Y-11345D01*
X24904Y-11442D01*
X25031Y-11494D01*
X25168Y-11495D01*
X25295Y-11442D01*
X25392Y-11345D01*
X25434Y-11245D01*
X25558Y-11245D01*
X25621Y-11219D01*
X25651Y-11188D01*
X25663Y-11216D01*
X25733Y-11287D01*
X25825Y-11325D01*
X25887Y-11325D01*
X25950Y-11262D01*
X25950Y-14490D01*
X25661Y-14490D01*
X25661Y-13762D01*
X25650Y-13544D01*
X25587Y-13393D01*
X25492Y-13365D01*
X25421Y-13436D01*
X25421Y-13295D01*
X25394Y-13199D01*
X25188Y-13126D01*
X24969Y-13137D01*
X24818Y-13199D01*
X24791Y-13295D01*
X25106Y-13610D01*
X25421Y-13295D01*
X25421Y-13436D01*
X25177Y-13681D01*
X25492Y-13996D01*
X25587Y-13968D01*
X25661Y-13762D01*
X25661Y-14490D01*
X25421Y-14490D01*
X25421Y-14067D01*
X25106Y-13751D01*
X24791Y-14067D01*
X24818Y-14162D01*
X25024Y-14235D01*
X25243Y-14224D01*
X25394Y-14162D01*
X25421Y-14067D01*
X25421Y-14490D01*
X24086Y-14490D01*
X23730Y-14133D01*
X23772Y-14151D01*
X23839Y-14151D01*
X24439Y-14151D01*
X24502Y-14125D01*
X24550Y-14077D01*
X24576Y-14015D01*
X24576Y-13947D01*
X24576Y-13851D01*
X24625Y-13968D01*
X24720Y-13996D01*
X25035Y-13681D01*
X24720Y-13365D01*
X24625Y-13393D01*
X24576Y-13529D01*
X24576Y-13347D01*
X24550Y-13284D01*
X24502Y-13237D01*
X24440Y-13211D01*
X24372Y-13211D01*
X23772Y-13211D01*
X23710Y-13236D01*
X23662Y-13284D01*
X23636Y-13347D01*
X23636Y-13414D01*
X23636Y-14014D01*
X23653Y-14056D01*
X23248Y-13651D01*
X23187Y-13610D01*
X23187Y-12996D01*
X23149Y-12905D01*
X23079Y-12834D01*
X22987Y-12796D01*
X22888Y-12796D01*
X22750Y-12796D01*
X22687Y-12858D01*
X22687Y-13296D01*
X23125Y-13296D01*
X23187Y-13233D01*
X23187Y-12996D01*
X23187Y-13610D01*
X23187Y-13610D01*
X23187Y-13458D01*
X23125Y-13396D01*
X22687Y-13396D01*
X22687Y-13404D01*
X22587Y-13404D01*
X22587Y-13396D01*
X22587Y-13296D01*
X22587Y-12858D01*
X22525Y-12796D01*
X22387Y-12796D01*
X22287Y-12796D01*
X22195Y-12834D01*
X22125Y-12905D01*
X22087Y-12996D01*
X22087Y-13233D01*
X22150Y-13296D01*
X22587Y-13296D01*
X22587Y-13396D01*
X22150Y-13396D01*
X22087Y-13458D01*
X22087Y-13590D01*
X19900Y-13590D01*
X19400Y-13590D01*
X19399Y-13590D01*
X19384Y-13593D01*
X19319Y-13605D01*
X19251Y-13651D01*
X19251Y-13651D01*
X19047Y-13855D01*
X18931Y-13854D01*
X18804Y-13907D01*
X18707Y-14004D01*
X18655Y-14131D01*
X18654Y-14268D01*
X18707Y-14395D01*
X18804Y-14492D01*
X18931Y-14544D01*
X19068Y-14545D01*
X19195Y-14492D01*
X19292Y-14395D01*
X19344Y-14268D01*
X19345Y-14151D01*
X19486Y-14010D01*
X19900Y-14010D01*
X22309Y-14010D01*
X22239Y-14079D01*
X22216Y-14136D01*
X21653Y-14136D01*
X20550Y-14136D01*
X20503Y-14136D01*
X20503Y-14136D01*
X20487Y-14139D01*
X20423Y-14152D01*
X20355Y-14197D01*
X20355Y-14197D01*
X20147Y-14405D01*
X20031Y-14404D01*
X19904Y-14457D01*
X19807Y-14554D01*
X19755Y-14681D01*
X19754Y-14818D01*
X19807Y-14945D01*
X19904Y-15042D01*
X20031Y-15094D01*
X20168Y-15095D01*
X20295Y-15042D01*
X20392Y-14945D01*
X20444Y-14818D01*
X20445Y-14701D01*
X20590Y-14556D01*
X21653Y-14556D01*
X22216Y-14556D01*
X22229Y-14590D01*
X21600Y-14590D01*
X21519Y-14605D01*
X21492Y-14624D01*
X21451Y-14651D01*
X21451Y-14651D01*
X20913Y-15190D01*
X20200Y-15190D01*
X18986Y-15190D01*
X18444Y-14647D01*
X18445Y-14531D01*
X18392Y-14404D01*
X18295Y-14307D01*
X18168Y-14255D01*
X18031Y-14254D01*
X17904Y-14307D01*
X17807Y-14404D01*
X17755Y-14531D01*
X17754Y-14668D01*
X17807Y-14795D01*
X17904Y-14892D01*
X18031Y-14944D01*
X18148Y-14945D01*
X18751Y-15548D01*
X18751Y-15548D01*
X18819Y-15594D01*
X18819Y-15594D01*
X18884Y-15606D01*
X18899Y-15610D01*
X18899Y-15609D01*
X18900Y-15610D01*
X20200Y-15610D01*
X21000Y-15610D01*
X21080Y-15594D01*
X21148Y-15548D01*
X21686Y-15010D01*
X22309Y-15010D01*
X22239Y-15079D01*
X22167Y-15252D01*
X22167Y-15439D01*
X22191Y-15496D01*
X22037Y-15650D01*
X18814Y-15650D01*
X18812Y-15644D01*
X18715Y-15547D01*
X18588Y-15495D01*
X18451Y-15494D01*
X18324Y-15547D01*
X18227Y-15644D01*
X18175Y-15771D01*
X18174Y-15908D01*
X18227Y-16035D01*
X18324Y-16132D01*
X18451Y-16184D01*
X18588Y-16185D01*
X18715Y-16132D01*
X18777Y-16070D01*
X18980Y-16070D01*
X18955Y-16131D01*
X18954Y-16268D01*
X19007Y-16395D01*
X19104Y-16492D01*
X19231Y-16544D01*
X19368Y-16545D01*
X19495Y-16492D01*
X19577Y-16410D01*
X22167Y-16410D01*
X22167Y-16439D01*
X22239Y-16612D01*
X22371Y-16744D01*
X22543Y-16816D01*
X22730Y-16816D01*
X22903Y-16745D01*
X22990Y-16658D01*
X22990Y-16700D01*
X22990Y-17034D01*
X22904Y-16948D01*
X22731Y-16876D01*
X22544Y-16876D01*
X22371Y-16947D01*
X22239Y-17079D01*
X22216Y-17136D01*
X22151Y-17136D01*
X22192Y-17095D01*
X22244Y-16968D01*
X22245Y-16831D01*
X22192Y-16704D01*
X22095Y-16607D01*
X21968Y-16555D01*
X21831Y-16554D01*
X21704Y-16607D01*
X21622Y-16690D01*
X20277Y-16690D01*
X20242Y-16604D01*
X20145Y-16507D01*
X20018Y-16455D01*
X19881Y-16454D01*
X19754Y-16507D01*
X19657Y-16604D01*
X19605Y-16731D01*
X19604Y-16868D01*
X19634Y-16940D01*
X18750Y-16940D01*
X18669Y-16955D01*
X18601Y-17001D01*
X18601Y-17001D01*
X18493Y-17109D01*
X17745Y-17109D01*
X17745Y-15031D01*
X17692Y-14904D01*
X17595Y-14807D01*
X17582Y-14802D01*
X17582Y-14802D01*
X17548Y-14751D01*
X17110Y-14313D01*
X17110Y-12477D01*
X17192Y-12395D01*
X17244Y-12268D01*
X17245Y-12131D01*
X17192Y-12004D01*
X17095Y-11907D01*
X16968Y-11855D01*
X16831Y-11854D01*
X16704Y-11907D01*
X16607Y-12004D01*
X16555Y-12131D01*
X16554Y-12268D01*
X16607Y-12395D01*
X16690Y-12477D01*
X16690Y-14400D01*
X16705Y-14480D01*
X16751Y-14548D01*
X17107Y-14904D01*
X17055Y-15031D01*
X17054Y-15168D01*
X17107Y-15295D01*
X17204Y-15392D01*
X17331Y-15444D01*
X17468Y-15445D01*
X17595Y-15392D01*
X17692Y-15295D01*
X17744Y-15168D01*
X17745Y-15031D01*
X17745Y-17109D01*
X16730Y-17109D01*
X16649Y-17125D01*
X16622Y-17144D01*
X16581Y-17171D01*
X16581Y-17171D01*
X16413Y-17340D01*
X16077Y-17340D01*
X15995Y-17257D01*
X15868Y-17205D01*
X15731Y-17204D01*
X15604Y-17257D01*
X15507Y-17354D01*
X15455Y-17481D01*
X15454Y-17618D01*
X15507Y-17745D01*
X15602Y-17840D01*
X15150Y-17840D01*
X15149Y-17840D01*
X15134Y-17843D01*
X15069Y-17855D01*
X15001Y-17901D01*
X15001Y-17901D01*
X14701Y-18201D01*
X14655Y-18269D01*
X14640Y-18350D01*
X14640Y-18822D01*
X14557Y-18904D01*
X14505Y-19031D01*
X14504Y-19168D01*
X14557Y-19295D01*
X14654Y-19392D01*
X14781Y-19444D01*
X14918Y-19445D01*
X15045Y-19392D01*
X15142Y-19295D01*
X15194Y-19168D01*
X15195Y-19031D01*
X15142Y-18904D01*
X15060Y-18822D01*
X15060Y-18480D01*
X15107Y-18595D01*
X15204Y-18692D01*
X15331Y-18744D01*
X15448Y-18745D01*
X15451Y-18748D01*
X15451Y-18748D01*
X15492Y-18775D01*
X15519Y-18794D01*
X15519Y-18794D01*
X15600Y-18810D01*
X16522Y-18810D01*
X16604Y-18892D01*
X16731Y-18944D01*
X16868Y-18945D01*
X16995Y-18892D01*
X17092Y-18795D01*
X17144Y-18668D01*
X17145Y-18531D01*
X17092Y-18404D01*
X16995Y-18307D01*
X16868Y-18255D01*
X16731Y-18254D01*
X16604Y-18307D01*
X16522Y-18390D01*
X15745Y-18390D01*
X15745Y-18331D01*
X15715Y-18260D01*
X16350Y-18260D01*
X16430Y-18244D01*
X16498Y-18198D01*
X16986Y-17710D01*
X18722Y-17710D01*
X18804Y-17792D01*
X18931Y-17844D01*
X19068Y-17845D01*
X19195Y-17792D01*
X19273Y-17714D01*
X19307Y-17795D01*
X19404Y-17892D01*
X19531Y-17944D01*
X19668Y-17945D01*
X19795Y-17892D01*
X19877Y-17810D01*
X20813Y-17810D01*
X21058Y-18055D01*
X20931Y-18054D01*
X20804Y-18107D01*
X20707Y-18204D01*
X20655Y-18331D01*
X20654Y-18468D01*
X20705Y-18590D01*
X20277Y-18590D01*
X20195Y-18507D01*
X20068Y-18455D01*
X19931Y-18454D01*
X19804Y-18507D01*
X19707Y-18604D01*
X19655Y-18731D01*
X19654Y-18868D01*
X19707Y-18995D01*
X19804Y-19092D01*
X19931Y-19144D01*
X20068Y-19145D01*
X20195Y-19092D01*
X20277Y-19010D01*
X21413Y-19010D01*
X21790Y-19386D01*
X21790Y-20622D01*
X21707Y-20704D01*
X21655Y-20831D01*
X21654Y-20968D01*
X21707Y-21095D01*
X21804Y-21192D01*
X21931Y-21244D01*
X22068Y-21245D01*
X22195Y-21192D01*
X22292Y-21095D01*
X22344Y-20968D01*
X22344Y-20910D01*
X22402Y-20934D01*
X22469Y-20934D01*
X22565Y-20934D01*
X22448Y-20983D01*
X22421Y-21078D01*
X22736Y-21393D01*
X23051Y-21078D01*
X23024Y-20983D01*
X22887Y-20934D01*
X23069Y-20934D01*
X23132Y-20908D01*
X23180Y-20860D01*
X23206Y-20798D01*
X23206Y-20730D01*
X23206Y-20313D01*
X23281Y-20344D01*
X23418Y-20345D01*
X23545Y-20292D01*
X23642Y-20195D01*
X23694Y-20068D01*
X23695Y-19931D01*
X23642Y-19804D01*
X23545Y-19707D01*
X23418Y-19655D01*
X23281Y-19654D01*
X23279Y-19655D01*
X23246Y-19649D01*
X21048Y-17451D01*
X20980Y-17405D01*
X20900Y-17390D01*
X19877Y-17390D01*
X19847Y-17360D01*
X19850Y-17360D01*
X20320Y-17360D01*
X21563Y-17360D01*
X21697Y-17494D01*
X21697Y-17494D01*
X21766Y-17540D01*
X21766Y-17540D01*
X21846Y-17556D01*
X22216Y-17556D01*
X22239Y-17612D01*
X22371Y-17744D01*
X22543Y-17816D01*
X22730Y-17816D01*
X22903Y-17745D01*
X22990Y-17658D01*
X22990Y-17950D01*
X22990Y-18034D01*
X22904Y-17948D01*
X22731Y-17876D01*
X22544Y-17876D01*
X22371Y-17947D01*
X22239Y-18079D01*
X22167Y-18252D01*
X22167Y-18439D01*
X22239Y-18612D01*
X22371Y-18744D01*
X22543Y-18816D01*
X22730Y-18816D01*
X22903Y-18745D01*
X23031Y-18617D01*
X23051Y-18648D01*
X23255Y-18852D01*
X23254Y-18968D01*
X23307Y-19095D01*
X23404Y-19192D01*
X23531Y-19244D01*
X23668Y-19245D01*
X23795Y-19192D01*
X23892Y-19095D01*
X23944Y-18968D01*
X23945Y-18831D01*
X23892Y-18704D01*
X23795Y-18607D01*
X23668Y-18555D01*
X23551Y-18554D01*
X23410Y-18413D01*
X23410Y-17950D01*
X23410Y-17397D01*
X23504Y-17492D01*
X23631Y-17544D01*
X23768Y-17545D01*
X23895Y-17492D01*
X23992Y-17395D01*
X24044Y-17268D01*
X24045Y-17131D01*
X23992Y-17004D01*
X23895Y-16907D01*
X23810Y-16872D01*
X23810Y-16141D01*
X23810Y-15900D01*
X23810Y-15649D01*
X23817Y-15646D01*
X23914Y-15550D01*
X23966Y-15423D01*
X23967Y-15286D01*
X23914Y-15159D01*
X23817Y-15062D01*
X23690Y-15009D01*
X23553Y-15009D01*
X23426Y-15061D01*
X23406Y-15082D01*
X23394Y-15019D01*
X23394Y-15019D01*
X23348Y-14951D01*
X23348Y-14951D01*
X23048Y-14651D01*
X23017Y-14631D01*
X23036Y-14613D01*
X23107Y-14440D01*
X23107Y-14253D01*
X23036Y-14080D01*
X22966Y-14010D01*
X23013Y-14010D01*
X23851Y-14848D01*
X23919Y-14894D01*
X24000Y-14910D01*
X26181Y-14910D01*
X26227Y-14910D01*
X26820Y-15503D01*
X26820Y-15619D01*
X26872Y-15746D01*
X26969Y-15843D01*
X27096Y-15896D01*
X27233Y-15896D01*
X27360Y-15843D01*
X27457Y-15746D01*
X27510Y-15620D01*
X27510Y-15482D01*
X27510Y-22587D01*
X26445Y-22587D01*
X26445Y-15231D01*
X26392Y-15104D01*
X26295Y-15007D01*
X26168Y-14955D01*
X26031Y-14954D01*
X25904Y-15007D01*
X25807Y-15104D01*
X25755Y-15231D01*
X25754Y-15348D01*
X25151Y-15951D01*
X25105Y-16019D01*
X25090Y-16100D01*
X25090Y-17722D01*
X25007Y-17804D01*
X24955Y-17931D01*
X24954Y-18068D01*
X25007Y-18195D01*
X25104Y-18292D01*
X25231Y-18344D01*
X25368Y-18345D01*
X25495Y-18292D01*
X25592Y-18195D01*
X25644Y-18068D01*
X25645Y-17931D01*
X25592Y-17804D01*
X25510Y-17722D01*
X25510Y-16186D01*
X26052Y-15644D01*
X26168Y-15645D01*
X26295Y-15592D01*
X26392Y-15495D01*
X26444Y-15368D01*
X26445Y-15231D01*
X26445Y-22587D01*
X23291Y-22587D01*
X23291Y-21546D01*
X23280Y-21327D01*
X23217Y-21176D01*
X23122Y-21149D01*
X22806Y-21464D01*
X23122Y-21779D01*
X23217Y-21752D01*
X23291Y-21546D01*
X23291Y-22587D01*
X23051Y-22587D01*
X23051Y-21850D01*
X22736Y-21535D01*
X22665Y-21605D01*
X22665Y-21464D01*
X22350Y-21149D01*
X22254Y-21176D01*
X22181Y-21382D01*
X22192Y-21601D01*
X22254Y-21752D01*
X22350Y-21779D01*
X22665Y-21464D01*
X22665Y-21605D01*
X22421Y-21850D01*
X22448Y-21945D01*
X22654Y-22019D01*
X22872Y-22008D01*
X23024Y-21945D01*
X23051Y-21850D01*
X23051Y-22587D01*
X19735Y-22587D01*
X19735Y-21339D01*
X19216Y-20717D01*
X17892Y-20717D01*
X17273Y-21337D01*
X17273Y-22587D01*
X12225Y-22587D01*
X12058Y-22420D01*
X12058Y-12808D01*
X12071Y-12740D01*
X12091Y-12711D01*
X12215Y-12648D01*
X12219Y-12647D01*
X14193Y-12647D01*
X14617Y-12225D01*
X14617Y-10256D01*
X14785Y-10088D01*
X14881Y-10087D01*
X30879Y-10087D01*
X30960Y-10103D01*
X31007Y-10134D01*
X31038Y-10181D01*
X31054Y-10261D01*
X31054Y-22415D01*
M02*
