G04 #@! TF.FileFunction,Copper,L2,Bot,Signal*
%FSLAX46Y46*%
G04 Gerber Fmt 4.6, Leading zero omitted, Abs format (unit mm)*
G04 Created by KiCad (PCBNEW (after 2015-mar-04 BZR unknown)-product) date 2/18/2016 12:28:49 PM*
%MOMM*%
G01*
G04 APERTURE LIST*
%ADD10C,0.150000*%
%ADD11R,1.397000X0.889000*%
%ADD12C,2.540000*%
%ADD13C,6.350000*%
%ADD14R,5.080000X2.413000*%
%ADD15C,1.574800*%
%ADD16C,1.651000*%
%ADD17R,0.909320X1.219200*%
%ADD18R,0.889000X1.397000*%
%ADD19R,1.524000X1.524000*%
%ADD20C,1.524000*%
%ADD21R,1.300000X1.300000*%
%ADD22C,1.300000*%
%ADD23C,0.889000*%
%ADD24C,0.203200*%
%ADD25C,0.254000*%
%ADD26C,0.635000*%
G04 APERTURE END LIST*
D10*
D11*
X22225000Y-18732500D03*
X22225000Y-16827500D03*
X19685000Y-18732500D03*
X19685000Y-16827500D03*
X26035000Y-11747500D03*
X26035000Y-13652500D03*
X23495000Y-11747500D03*
X23495000Y-13652500D03*
X20955000Y-11747500D03*
X20955000Y-13652500D03*
D12*
X17018000Y-27178000D03*
X12018000Y-27178000D03*
D13*
X4000000Y-27030000D03*
X41000000Y-4030000D03*
X4000000Y-4030000D03*
D14*
X2540000Y-10668000D03*
X2540000Y-19304000D03*
D15*
X13000000Y-15030000D03*
D16*
X13000000Y-17570000D03*
D12*
X7920000Y-20110000D03*
X7920000Y-9950000D03*
D14*
X42418000Y-10668000D03*
X42418000Y-19304000D03*
D13*
X41000000Y-27030000D03*
D15*
X32000000Y-15030000D03*
D16*
X32000000Y-12490000D03*
D12*
X37080000Y-9950000D03*
X37080000Y-20110000D03*
D17*
X24876760Y-23114000D03*
X21605240Y-23114000D03*
D18*
X22923500Y-20828000D03*
X24828500Y-20828000D03*
D19*
X15748000Y-29464000D03*
D20*
X13208000Y-29464000D03*
D21*
X32131000Y-27051000D03*
D22*
X34631000Y-27051000D03*
D23*
X17600000Y-10230000D03*
X42418000Y-8636000D03*
X42418000Y-21336000D03*
X2540000Y-8382000D03*
X2540000Y-21590000D03*
X24638000Y-28575000D03*
X18161000Y-21463000D03*
X27000000Y-18030000D03*
X21400000Y-19830000D03*
X19600000Y-19830000D03*
X26416000Y-21336000D03*
X26000000Y-10630000D03*
X23400000Y-10630000D03*
X21000000Y-10630000D03*
X23749000Y-23241000D03*
D24*
X21400000Y-19830000D02*
X22225000Y-19005000D01*
X22225000Y-19005000D02*
X22225000Y-18732500D01*
X19600000Y-19830000D02*
X19685000Y-19745000D01*
X19685000Y-19745000D02*
X19685000Y-18732500D01*
D25*
X25908000Y-20828000D02*
X26416000Y-21336000D01*
X24828500Y-20828000D02*
X25908000Y-20828000D01*
D26*
X26035000Y-15030000D02*
X32000000Y-15030000D01*
X23495000Y-15030000D02*
X26035000Y-15030000D01*
X22225000Y-15030000D02*
X23495000Y-15030000D01*
X20955000Y-15030000D02*
X22225000Y-15030000D01*
X19685000Y-15030000D02*
X20955000Y-15030000D01*
X13000000Y-15030000D02*
X19685000Y-15030000D01*
X26035000Y-13652500D02*
X26035000Y-15030000D01*
X23495000Y-13652500D02*
X23495000Y-15030000D01*
X20955000Y-13652500D02*
X20955000Y-15030000D01*
X22225000Y-16827500D02*
X22225000Y-15030000D01*
X19685000Y-16827500D02*
X19685000Y-15030000D01*
D25*
X26000000Y-10630000D02*
X26035000Y-10665000D01*
X26035000Y-10665000D02*
X26035000Y-11747500D01*
X23400000Y-10630000D02*
X23495000Y-10725000D01*
X23495000Y-10725000D02*
X23495000Y-11747500D01*
X20955000Y-10675000D02*
X21000000Y-10630000D01*
X20955000Y-11747500D02*
X20955000Y-10675000D01*
X22923500Y-21653500D02*
X22923500Y-20828000D01*
X21605240Y-22971760D02*
X22923500Y-21653500D01*
X21605240Y-23114000D02*
X21605240Y-22971760D01*
X23749000Y-23241000D02*
X23876000Y-23114000D01*
X23876000Y-23114000D02*
X24876760Y-23114000D01*
G36*
X41033172Y-394247D02*
X41127349Y-474110D01*
X40295771Y-473384D01*
X38988319Y-1013612D01*
X37987128Y-2013058D01*
X37444619Y-3319565D01*
X37443384Y-4734229D01*
X37983612Y-6041681D01*
X38983058Y-7042872D01*
X40289565Y-7585381D01*
X41704229Y-7586616D01*
X43011681Y-7046388D01*
X44012872Y-6046942D01*
X44555381Y-4740435D01*
X44556274Y-3718079D01*
X44619800Y-4037448D01*
X44619800Y-8826500D01*
X42703750Y-8826500D01*
X42545000Y-8985250D01*
X42545000Y-10541000D01*
X42565000Y-10541000D01*
X42565000Y-10795000D01*
X42545000Y-10795000D01*
X42545000Y-12350750D01*
X42703750Y-12509500D01*
X44619800Y-12509500D01*
X44619800Y-17462500D01*
X42703750Y-17462500D01*
X42545000Y-17621250D01*
X42545000Y-19177000D01*
X42565000Y-19177000D01*
X42565000Y-19431000D01*
X42545000Y-19431000D01*
X42545000Y-20986750D01*
X42703750Y-21145500D01*
X44619800Y-21145500D01*
X44619800Y-26992552D01*
X44564791Y-27269103D01*
X44555785Y-27277680D01*
X44556616Y-26325771D01*
X44016388Y-25018319D01*
X43016942Y-24017128D01*
X41710435Y-23474619D01*
X40295771Y-23473384D01*
X38988319Y-24013612D01*
X37987128Y-25013058D01*
X37444619Y-26319565D01*
X37443384Y-27734229D01*
X37983612Y-29041681D01*
X38983058Y-30042872D01*
X40289565Y-30585381D01*
X41081974Y-30586072D01*
X41028922Y-30636598D01*
X40962552Y-30649800D01*
X13949640Y-30649800D01*
X14008608Y-30444213D01*
X13208000Y-29643605D01*
X12407392Y-30444213D01*
X12466360Y-30649800D01*
X4037448Y-30649800D01*
X3715461Y-30585753D01*
X4704229Y-30586616D01*
X6011681Y-30046388D01*
X7012872Y-29046942D01*
X7229278Y-28525777D01*
X10849828Y-28525777D01*
X10981520Y-28820657D01*
X11689036Y-29092261D01*
X11858967Y-29087814D01*
X11798856Y-29256302D01*
X11826638Y-29811368D01*
X11985603Y-30195143D01*
X12227787Y-30264608D01*
X13028395Y-29464000D01*
X13387605Y-29464000D01*
X14188213Y-30264608D01*
X14430397Y-30195143D01*
X14597536Y-29726659D01*
X14597536Y-30226000D01*
X14624103Y-30367190D01*
X14707546Y-30496865D01*
X14834866Y-30583859D01*
X14986000Y-30614464D01*
X16510000Y-30614464D01*
X16651190Y-30587897D01*
X16780865Y-30504454D01*
X16867859Y-30377134D01*
X16898464Y-30226000D01*
X16898464Y-28828896D01*
X17344963Y-28829286D01*
X17951995Y-28578466D01*
X18416834Y-28114437D01*
X18668713Y-27507845D01*
X18669286Y-26851037D01*
X18483335Y-26401000D01*
X31092536Y-26401000D01*
X31092536Y-27701000D01*
X31119103Y-27842190D01*
X31202546Y-27971865D01*
X31329866Y-28058859D01*
X31481000Y-28089464D01*
X32781000Y-28089464D01*
X32922190Y-28062897D01*
X33051865Y-27979454D01*
X33071979Y-27950016D01*
X33911590Y-27950016D01*
X33967271Y-28180611D01*
X34450078Y-28348622D01*
X34960428Y-28319083D01*
X35294729Y-28180611D01*
X35350410Y-27950016D01*
X34631000Y-27230605D01*
X33911590Y-27950016D01*
X33071979Y-27950016D01*
X33138859Y-27852134D01*
X33169464Y-27701000D01*
X33169464Y-26870078D01*
X33333378Y-26870078D01*
X33362917Y-27380428D01*
X33501389Y-27714729D01*
X33731984Y-27770410D01*
X34451395Y-27051000D01*
X34810605Y-27051000D01*
X35530016Y-27770410D01*
X35760611Y-27714729D01*
X35928622Y-27231922D01*
X35899083Y-26721572D01*
X35760611Y-26387271D01*
X35530016Y-26331590D01*
X34810605Y-27051000D01*
X34451395Y-27051000D01*
X33731984Y-26331590D01*
X33501389Y-26387271D01*
X33333378Y-26870078D01*
X33169464Y-26870078D01*
X33169464Y-26401000D01*
X33142897Y-26259810D01*
X33073514Y-26151984D01*
X33911590Y-26151984D01*
X34631000Y-26871395D01*
X35350410Y-26151984D01*
X35294729Y-25921389D01*
X34811922Y-25753378D01*
X34301572Y-25782917D01*
X33967271Y-25921389D01*
X33911590Y-26151984D01*
X33073514Y-26151984D01*
X33059454Y-26130135D01*
X32932134Y-26043141D01*
X32781000Y-26012536D01*
X31481000Y-26012536D01*
X31339810Y-26039103D01*
X31210135Y-26122546D01*
X31123141Y-26249866D01*
X31092536Y-26401000D01*
X18483335Y-26401000D01*
X18418466Y-26244005D01*
X17954437Y-25779166D01*
X17347845Y-25527287D01*
X16691037Y-25526714D01*
X16084005Y-25777534D01*
X15619166Y-26241563D01*
X15367287Y-26848155D01*
X15366714Y-27504963D01*
X15617534Y-28111995D01*
X15818724Y-28313536D01*
X14986000Y-28313536D01*
X14844810Y-28340103D01*
X14715135Y-28423546D01*
X14628141Y-28550866D01*
X14597536Y-28702000D01*
X14597536Y-29279943D01*
X14589362Y-29116632D01*
X14430397Y-28732857D01*
X14188213Y-28663392D01*
X13387605Y-29464000D01*
X13028395Y-29464000D01*
X13014253Y-29449858D01*
X13193858Y-29270253D01*
X13208000Y-29284395D01*
X14008608Y-28483787D01*
X13939143Y-28241603D01*
X13685045Y-28150950D01*
X13932261Y-27506964D01*
X13912436Y-26749368D01*
X13660657Y-26141520D01*
X13365777Y-26009828D01*
X12197605Y-27178000D01*
X12211748Y-27192143D01*
X12032143Y-27371748D01*
X12018000Y-27357605D01*
X10849828Y-28525777D01*
X7229278Y-28525777D01*
X7555381Y-27740435D01*
X7556159Y-26849036D01*
X10103739Y-26849036D01*
X10123564Y-27606632D01*
X10375343Y-28214480D01*
X10670223Y-28346172D01*
X11838395Y-27178000D01*
X10670223Y-26009828D01*
X10375343Y-26141520D01*
X10103739Y-26849036D01*
X7556159Y-26849036D01*
X7556616Y-26325771D01*
X7351860Y-25830223D01*
X10849828Y-25830223D01*
X12018000Y-26998395D01*
X13186172Y-25830223D01*
X13054480Y-25535343D01*
X12346964Y-25263739D01*
X11589368Y-25283564D01*
X10981520Y-25535343D01*
X10849828Y-25830223D01*
X7351860Y-25830223D01*
X7016388Y-25018319D01*
X6016942Y-24017128D01*
X4710435Y-23474619D01*
X3295771Y-23473384D01*
X1988319Y-24013612D01*
X987128Y-25013058D01*
X444619Y-26319565D01*
X443911Y-27131344D01*
X397633Y-27080195D01*
X380200Y-26992552D01*
X380200Y-21145500D01*
X2254250Y-21145500D01*
X2413000Y-20986750D01*
X2413000Y-19431000D01*
X2667000Y-19431000D01*
X2667000Y-20986750D01*
X2825750Y-21145500D01*
X5206309Y-21145500D01*
X5439698Y-21048827D01*
X5618327Y-20870199D01*
X5715000Y-20636810D01*
X5715000Y-20436963D01*
X6268714Y-20436963D01*
X6519534Y-21043995D01*
X6983563Y-21508834D01*
X7590155Y-21760713D01*
X8246963Y-21761286D01*
X8853995Y-21510466D01*
X9318834Y-21046437D01*
X9570713Y-20439845D01*
X9571286Y-19783037D01*
X9320466Y-19176005D01*
X8856437Y-18711166D01*
X8579605Y-18596215D01*
X12153390Y-18596215D01*
X12230656Y-18844976D01*
X12777131Y-19042340D01*
X13357535Y-19015553D01*
X13769344Y-18844976D01*
X13846610Y-18596215D01*
X13000000Y-17749605D01*
X12153390Y-18596215D01*
X8579605Y-18596215D01*
X8249845Y-18459287D01*
X7593037Y-18458714D01*
X6986005Y-18709534D01*
X6521166Y-19173563D01*
X6269287Y-19780155D01*
X6268714Y-20436963D01*
X5715000Y-20436963D01*
X5715000Y-19589750D01*
X5556250Y-19431000D01*
X2667000Y-19431000D01*
X2413000Y-19431000D01*
X2393000Y-19431000D01*
X2393000Y-19177000D01*
X2413000Y-19177000D01*
X2413000Y-17621250D01*
X2667000Y-17621250D01*
X2667000Y-19177000D01*
X5556250Y-19177000D01*
X5715000Y-19018250D01*
X5715000Y-17971190D01*
X5618327Y-17737801D01*
X5439698Y-17559173D01*
X5206309Y-17462500D01*
X2825750Y-17462500D01*
X2667000Y-17621250D01*
X2413000Y-17621250D01*
X2254250Y-17462500D01*
X380200Y-17462500D01*
X380200Y-17347131D01*
X11527660Y-17347131D01*
X11554447Y-17927535D01*
X11725024Y-18339344D01*
X11973785Y-18416610D01*
X12820395Y-17570000D01*
X13179605Y-17570000D01*
X14026215Y-18416610D01*
X14274976Y-18339344D01*
X14293519Y-18288000D01*
X18598036Y-18288000D01*
X18598036Y-19177000D01*
X18624603Y-19318190D01*
X18708046Y-19447865D01*
X18830185Y-19531319D01*
X18774643Y-19665077D01*
X18774357Y-19993482D01*
X18899767Y-20296998D01*
X19131781Y-20529417D01*
X19435077Y-20655357D01*
X19763482Y-20655643D01*
X20066998Y-20530233D01*
X20299417Y-20298219D01*
X20425357Y-19994923D01*
X20425643Y-19666518D01*
X20383860Y-19565396D01*
X20524690Y-19538897D01*
X20654365Y-19455454D01*
X20673029Y-19428139D01*
X20574643Y-19665077D01*
X20574357Y-19993482D01*
X20699767Y-20296998D01*
X20931781Y-20529417D01*
X21235077Y-20655357D01*
X21563482Y-20655643D01*
X21866998Y-20530233D01*
X22090536Y-20307085D01*
X22090536Y-21526500D01*
X22117103Y-21667690D01*
X22145993Y-21712587D01*
X21742644Y-22115936D01*
X21150580Y-22115936D01*
X21009390Y-22142503D01*
X20879715Y-22225946D01*
X20792721Y-22353266D01*
X20762116Y-22504400D01*
X20762116Y-23723600D01*
X20788683Y-23864790D01*
X20872126Y-23994465D01*
X20999446Y-24081459D01*
X21150580Y-24112064D01*
X22059900Y-24112064D01*
X22201090Y-24085497D01*
X22330765Y-24002054D01*
X22417759Y-23874734D01*
X22448364Y-23723600D01*
X22448364Y-23404482D01*
X22923357Y-23404482D01*
X23048767Y-23707998D01*
X23280781Y-23940417D01*
X23584077Y-24066357D01*
X23912482Y-24066643D01*
X24131783Y-23976030D01*
X24143646Y-23994465D01*
X24270966Y-24081459D01*
X24422100Y-24112064D01*
X25331420Y-24112064D01*
X25472610Y-24085497D01*
X25602285Y-24002054D01*
X25689279Y-23874734D01*
X25719884Y-23723600D01*
X25719884Y-22504400D01*
X25693317Y-22363210D01*
X25609874Y-22233535D01*
X25482554Y-22146541D01*
X25331420Y-22115936D01*
X24422100Y-22115936D01*
X24280910Y-22142503D01*
X24151235Y-22225946D01*
X24064241Y-22353266D01*
X24040930Y-22468381D01*
X23913923Y-22415643D01*
X23585518Y-22415357D01*
X23282002Y-22540767D01*
X23049583Y-22772781D01*
X22923643Y-23076077D01*
X22923357Y-23404482D01*
X22448364Y-23404482D01*
X22448364Y-22847056D01*
X23282710Y-22012710D01*
X23348022Y-21914964D01*
X23368000Y-21914964D01*
X23509190Y-21888397D01*
X23638865Y-21804954D01*
X23725859Y-21677634D01*
X23756464Y-21526500D01*
X23756464Y-20129500D01*
X23995536Y-20129500D01*
X23995536Y-21526500D01*
X24022103Y-21667690D01*
X24105546Y-21797365D01*
X24232866Y-21884359D01*
X24384000Y-21914964D01*
X25273000Y-21914964D01*
X25414190Y-21888397D01*
X25543865Y-21804954D01*
X25630859Y-21677634D01*
X25641749Y-21623859D01*
X25715767Y-21802998D01*
X25947781Y-22035417D01*
X26251077Y-22161357D01*
X26579482Y-22161643D01*
X26882998Y-22036233D01*
X27115417Y-21804219D01*
X27241357Y-21500923D01*
X27241643Y-21172518D01*
X27116233Y-20869002D01*
X26884219Y-20636583D01*
X26580923Y-20510643D01*
X26308826Y-20510406D01*
X26267210Y-20468790D01*
X26219578Y-20436963D01*
X35428714Y-20436963D01*
X35679534Y-21043995D01*
X36143563Y-21508834D01*
X36750155Y-21760713D01*
X37406963Y-21761286D01*
X38013995Y-21510466D01*
X38478834Y-21046437D01*
X38730713Y-20439845D01*
X38731286Y-19783037D01*
X38651422Y-19589750D01*
X39243000Y-19589750D01*
X39243000Y-20636810D01*
X39339673Y-20870199D01*
X39518302Y-21048827D01*
X39751691Y-21145500D01*
X42132250Y-21145500D01*
X42291000Y-20986750D01*
X42291000Y-19431000D01*
X39401750Y-19431000D01*
X39243000Y-19589750D01*
X38651422Y-19589750D01*
X38480466Y-19176005D01*
X38016437Y-18711166D01*
X37409845Y-18459287D01*
X36753037Y-18458714D01*
X36146005Y-18709534D01*
X35681166Y-19173563D01*
X35429287Y-19780155D01*
X35428714Y-20436963D01*
X26219578Y-20436963D01*
X26102403Y-20358669D01*
X25908000Y-20320000D01*
X25661464Y-20320000D01*
X25661464Y-20129500D01*
X25634897Y-19988310D01*
X25551454Y-19858635D01*
X25424134Y-19771641D01*
X25273000Y-19741036D01*
X24384000Y-19741036D01*
X24242810Y-19767603D01*
X24113135Y-19851046D01*
X24026141Y-19978366D01*
X23995536Y-20129500D01*
X23756464Y-20129500D01*
X23729897Y-19988310D01*
X23646454Y-19858635D01*
X23519134Y-19771641D01*
X23368000Y-19741036D01*
X22479000Y-19741036D01*
X22337810Y-19767603D01*
X22225492Y-19839877D01*
X22225625Y-19686875D01*
X22347036Y-19565464D01*
X22923500Y-19565464D01*
X23064690Y-19538897D01*
X23194365Y-19455454D01*
X23281359Y-19328134D01*
X23311964Y-19177000D01*
X23311964Y-18288000D01*
X23285397Y-18146810D01*
X23201954Y-18017135D01*
X23134712Y-17971190D01*
X39243000Y-17971190D01*
X39243000Y-19018250D01*
X39401750Y-19177000D01*
X42291000Y-19177000D01*
X42291000Y-17621250D01*
X42132250Y-17462500D01*
X39751691Y-17462500D01*
X39518302Y-17559173D01*
X39339673Y-17737801D01*
X39243000Y-17971190D01*
X23134712Y-17971190D01*
X23074634Y-17930141D01*
X22923500Y-17899536D01*
X21526500Y-17899536D01*
X21385310Y-17926103D01*
X21255635Y-18009546D01*
X21168641Y-18136866D01*
X21138036Y-18288000D01*
X21138036Y-19045049D01*
X20933002Y-19129767D01*
X20743150Y-19319288D01*
X20771964Y-19177000D01*
X20771964Y-18288000D01*
X20745397Y-18146810D01*
X20661954Y-18017135D01*
X20534634Y-17930141D01*
X20383500Y-17899536D01*
X18986500Y-17899536D01*
X18845310Y-17926103D01*
X18715635Y-18009546D01*
X18628641Y-18136866D01*
X18598036Y-18288000D01*
X14293519Y-18288000D01*
X14472340Y-17792869D01*
X14445553Y-17212465D01*
X14274976Y-16800656D01*
X14026215Y-16723390D01*
X13179605Y-17570000D01*
X12820395Y-17570000D01*
X11973785Y-16723390D01*
X11725024Y-16800656D01*
X11527660Y-17347131D01*
X380200Y-17347131D01*
X380200Y-15261389D01*
X11831398Y-15261389D01*
X12008901Y-15690981D01*
X12337291Y-16019943D01*
X12615682Y-16135541D01*
X12230656Y-16295024D01*
X12153390Y-16543785D01*
X13000000Y-17390395D01*
X13846610Y-16543785D01*
X13769344Y-16295024D01*
X13357773Y-16146382D01*
X13660981Y-16021099D01*
X13954090Y-15728500D01*
X18986500Y-15728500D01*
X18986500Y-15994536D01*
X18845310Y-16021103D01*
X18715635Y-16104546D01*
X18628641Y-16231866D01*
X18598036Y-16383000D01*
X18598036Y-17272000D01*
X18624603Y-17413190D01*
X18708046Y-17542865D01*
X18835366Y-17629859D01*
X18986500Y-17660464D01*
X20383500Y-17660464D01*
X20524690Y-17633897D01*
X20654365Y-17550454D01*
X20741359Y-17423134D01*
X20771964Y-17272000D01*
X20771964Y-16383000D01*
X20745397Y-16241810D01*
X20661954Y-16112135D01*
X20534634Y-16025141D01*
X20383500Y-15994536D01*
X20383500Y-15728500D01*
X21526500Y-15728500D01*
X21526500Y-15994536D01*
X21385310Y-16021103D01*
X21255635Y-16104546D01*
X21168641Y-16231866D01*
X21138036Y-16383000D01*
X21138036Y-17272000D01*
X21164603Y-17413190D01*
X21248046Y-17542865D01*
X21375366Y-17629859D01*
X21526500Y-17660464D01*
X22923500Y-17660464D01*
X23064690Y-17633897D01*
X23194365Y-17550454D01*
X23281359Y-17423134D01*
X23311964Y-17272000D01*
X23311964Y-16383000D01*
X23285397Y-16241810D01*
X23201954Y-16112135D01*
X23074634Y-16025141D01*
X22923500Y-15994536D01*
X22923500Y-15728500D01*
X31046355Y-15728500D01*
X31337291Y-16019943D01*
X31766571Y-16198196D01*
X32231389Y-16198602D01*
X32660981Y-16021099D01*
X32989943Y-15692709D01*
X33168196Y-15263429D01*
X33168602Y-14798611D01*
X32991099Y-14369019D01*
X32662709Y-14040057D01*
X32384318Y-13924459D01*
X32769344Y-13764976D01*
X32846610Y-13516215D01*
X32000000Y-12669605D01*
X31153390Y-13516215D01*
X31230656Y-13764976D01*
X31642227Y-13913618D01*
X31339019Y-14038901D01*
X31045910Y-14331500D01*
X27034397Y-14331500D01*
X27091359Y-14248134D01*
X27121964Y-14097000D01*
X27121964Y-13208000D01*
X27095397Y-13066810D01*
X27011954Y-12937135D01*
X26884634Y-12850141D01*
X26733500Y-12819536D01*
X25336500Y-12819536D01*
X25195310Y-12846103D01*
X25065635Y-12929546D01*
X24978641Y-13056866D01*
X24948036Y-13208000D01*
X24948036Y-14097000D01*
X24974603Y-14238190D01*
X25034646Y-14331500D01*
X24494397Y-14331500D01*
X24551359Y-14248134D01*
X24581964Y-14097000D01*
X24581964Y-13208000D01*
X24555397Y-13066810D01*
X24471954Y-12937135D01*
X24344634Y-12850141D01*
X24193500Y-12819536D01*
X22796500Y-12819536D01*
X22655310Y-12846103D01*
X22525635Y-12929546D01*
X22438641Y-13056866D01*
X22408036Y-13208000D01*
X22408036Y-14097000D01*
X22434603Y-14238190D01*
X22494646Y-14331500D01*
X21954397Y-14331500D01*
X22011359Y-14248134D01*
X22041964Y-14097000D01*
X22041964Y-13208000D01*
X22015397Y-13066810D01*
X21931954Y-12937135D01*
X21804634Y-12850141D01*
X21653500Y-12819536D01*
X20256500Y-12819536D01*
X20115310Y-12846103D01*
X19985635Y-12929546D01*
X19898641Y-13056866D01*
X19868036Y-13208000D01*
X19868036Y-14097000D01*
X19894603Y-14238190D01*
X19954646Y-14331500D01*
X13953645Y-14331500D01*
X13662709Y-14040057D01*
X13233429Y-13861804D01*
X12768611Y-13861398D01*
X12339019Y-14038901D01*
X12010057Y-14367291D01*
X11831804Y-14796571D01*
X11831398Y-15261389D01*
X380200Y-15261389D01*
X380200Y-12509500D01*
X2254250Y-12509500D01*
X2413000Y-12350750D01*
X2413000Y-10795000D01*
X2667000Y-10795000D01*
X2667000Y-12350750D01*
X2825750Y-12509500D01*
X5206309Y-12509500D01*
X5439698Y-12412827D01*
X5618327Y-12234199D01*
X5715000Y-12000810D01*
X5715000Y-10953750D01*
X5556250Y-10795000D01*
X2667000Y-10795000D01*
X2413000Y-10795000D01*
X2393000Y-10795000D01*
X2393000Y-10541000D01*
X2413000Y-10541000D01*
X2413000Y-8985250D01*
X2667000Y-8985250D01*
X2667000Y-10541000D01*
X5556250Y-10541000D01*
X5715000Y-10382250D01*
X5715000Y-10276963D01*
X6268714Y-10276963D01*
X6519534Y-10883995D01*
X6983563Y-11348834D01*
X7590155Y-11600713D01*
X8246963Y-11601286D01*
X8853995Y-11350466D01*
X8901543Y-11303000D01*
X19868036Y-11303000D01*
X19868036Y-12192000D01*
X19894603Y-12333190D01*
X19978046Y-12462865D01*
X20105366Y-12549859D01*
X20256500Y-12580464D01*
X21653500Y-12580464D01*
X21794690Y-12553897D01*
X21924365Y-12470454D01*
X22011359Y-12343134D01*
X22041964Y-12192000D01*
X22041964Y-11303000D01*
X22408036Y-11303000D01*
X22408036Y-12192000D01*
X22434603Y-12333190D01*
X22518046Y-12462865D01*
X22645366Y-12549859D01*
X22796500Y-12580464D01*
X24193500Y-12580464D01*
X24334690Y-12553897D01*
X24464365Y-12470454D01*
X24551359Y-12343134D01*
X24581964Y-12192000D01*
X24581964Y-11303000D01*
X24948036Y-11303000D01*
X24948036Y-12192000D01*
X24974603Y-12333190D01*
X25058046Y-12462865D01*
X25185366Y-12549859D01*
X25336500Y-12580464D01*
X26733500Y-12580464D01*
X26874690Y-12553897D01*
X27004365Y-12470454D01*
X27091359Y-12343134D01*
X27106749Y-12267131D01*
X30527660Y-12267131D01*
X30554447Y-12847535D01*
X30725024Y-13259344D01*
X30973785Y-13336610D01*
X31820395Y-12490000D01*
X32179605Y-12490000D01*
X33026215Y-13336610D01*
X33274976Y-13259344D01*
X33472340Y-12712869D01*
X33445553Y-12132465D01*
X33274976Y-11720656D01*
X33026215Y-11643390D01*
X32179605Y-12490000D01*
X31820395Y-12490000D01*
X30973785Y-11643390D01*
X30725024Y-11720656D01*
X30527660Y-12267131D01*
X27106749Y-12267131D01*
X27121964Y-12192000D01*
X27121964Y-11463785D01*
X31153390Y-11463785D01*
X32000000Y-12310395D01*
X32846610Y-11463785D01*
X32769344Y-11215024D01*
X32222869Y-11017660D01*
X31642465Y-11044447D01*
X31230656Y-11215024D01*
X31153390Y-11463785D01*
X27121964Y-11463785D01*
X27121964Y-11303000D01*
X27095397Y-11161810D01*
X27011954Y-11032135D01*
X26884634Y-10945141D01*
X26772417Y-10922417D01*
X26825357Y-10794923D01*
X26825643Y-10466518D01*
X26747321Y-10276963D01*
X35428714Y-10276963D01*
X35679534Y-10883995D01*
X36143563Y-11348834D01*
X36750155Y-11600713D01*
X37406963Y-11601286D01*
X38013995Y-11350466D01*
X38411403Y-10953750D01*
X39243000Y-10953750D01*
X39243000Y-12000810D01*
X39339673Y-12234199D01*
X39518302Y-12412827D01*
X39751691Y-12509500D01*
X42132250Y-12509500D01*
X42291000Y-12350750D01*
X42291000Y-10795000D01*
X39401750Y-10795000D01*
X39243000Y-10953750D01*
X38411403Y-10953750D01*
X38478834Y-10886437D01*
X38730713Y-10279845D01*
X38731286Y-9623037D01*
X38612351Y-9335190D01*
X39243000Y-9335190D01*
X39243000Y-10382250D01*
X39401750Y-10541000D01*
X42291000Y-10541000D01*
X42291000Y-8985250D01*
X42132250Y-8826500D01*
X39751691Y-8826500D01*
X39518302Y-8923173D01*
X39339673Y-9101801D01*
X39243000Y-9335190D01*
X38612351Y-9335190D01*
X38480466Y-9016005D01*
X38016437Y-8551166D01*
X37409845Y-8299287D01*
X36753037Y-8298714D01*
X36146005Y-8549534D01*
X35681166Y-9013563D01*
X35429287Y-9620155D01*
X35428714Y-10276963D01*
X26747321Y-10276963D01*
X26700233Y-10163002D01*
X26468219Y-9930583D01*
X26164923Y-9804643D01*
X25836518Y-9804357D01*
X25533002Y-9929767D01*
X25300583Y-10161781D01*
X25174643Y-10465077D01*
X25174357Y-10793482D01*
X25232464Y-10934112D01*
X25195310Y-10941103D01*
X25065635Y-11024546D01*
X24978641Y-11151866D01*
X24948036Y-11303000D01*
X24581964Y-11303000D01*
X24555397Y-11161810D01*
X24471954Y-11032135D01*
X24344634Y-10945141D01*
X24193500Y-10914536D01*
X24175689Y-10914536D01*
X24225357Y-10794923D01*
X24225643Y-10466518D01*
X24100233Y-10163002D01*
X23868219Y-9930583D01*
X23564923Y-9804643D01*
X23236518Y-9804357D01*
X22933002Y-9929767D01*
X22700583Y-10161781D01*
X22574643Y-10465077D01*
X22574357Y-10793482D01*
X22639544Y-10951248D01*
X22525635Y-11024546D01*
X22438641Y-11151866D01*
X22408036Y-11303000D01*
X22041964Y-11303000D01*
X22015397Y-11161810D01*
X21931954Y-11032135D01*
X21804634Y-10945141D01*
X21766212Y-10937360D01*
X21825357Y-10794923D01*
X21825643Y-10466518D01*
X21700233Y-10163002D01*
X21468219Y-9930583D01*
X21164923Y-9804643D01*
X20836518Y-9804357D01*
X20533002Y-9929767D01*
X20300583Y-10161781D01*
X20174643Y-10465077D01*
X20174357Y-10793482D01*
X20226693Y-10920145D01*
X20115310Y-10941103D01*
X19985635Y-11024546D01*
X19898641Y-11151866D01*
X19868036Y-11303000D01*
X8901543Y-11303000D01*
X9318834Y-10886437D01*
X9570713Y-10279845D01*
X9571286Y-9623037D01*
X9320466Y-9016005D01*
X8856437Y-8551166D01*
X8249845Y-8299287D01*
X7593037Y-8298714D01*
X6986005Y-8549534D01*
X6521166Y-9013563D01*
X6269287Y-9620155D01*
X6268714Y-10276963D01*
X5715000Y-10276963D01*
X5715000Y-9335190D01*
X5618327Y-9101801D01*
X5439698Y-8923173D01*
X5206309Y-8826500D01*
X2825750Y-8826500D01*
X2667000Y-8985250D01*
X2413000Y-8985250D01*
X2254250Y-8826500D01*
X380200Y-8826500D01*
X380200Y-4037448D01*
X444273Y-3715329D01*
X443384Y-4734229D01*
X983612Y-6041681D01*
X1983058Y-7042872D01*
X3289565Y-7585381D01*
X4704229Y-7586616D01*
X6011681Y-7046388D01*
X7012872Y-6046942D01*
X7555381Y-4740435D01*
X7556616Y-3325771D01*
X7016388Y-2018319D01*
X6016942Y-1017128D01*
X4710435Y-474619D01*
X3688681Y-473727D01*
X3724065Y-442536D01*
X4037448Y-380200D01*
X40962552Y-380200D01*
X41033172Y-394247D01*
X41033172Y-394247D01*
G37*
X41033172Y-394247D02*
X41127349Y-474110D01*
X40295771Y-473384D01*
X38988319Y-1013612D01*
X37987128Y-2013058D01*
X37444619Y-3319565D01*
X37443384Y-4734229D01*
X37983612Y-6041681D01*
X38983058Y-7042872D01*
X40289565Y-7585381D01*
X41704229Y-7586616D01*
X43011681Y-7046388D01*
X44012872Y-6046942D01*
X44555381Y-4740435D01*
X44556274Y-3718079D01*
X44619800Y-4037448D01*
X44619800Y-8826500D01*
X42703750Y-8826500D01*
X42545000Y-8985250D01*
X42545000Y-10541000D01*
X42565000Y-10541000D01*
X42565000Y-10795000D01*
X42545000Y-10795000D01*
X42545000Y-12350750D01*
X42703750Y-12509500D01*
X44619800Y-12509500D01*
X44619800Y-17462500D01*
X42703750Y-17462500D01*
X42545000Y-17621250D01*
X42545000Y-19177000D01*
X42565000Y-19177000D01*
X42565000Y-19431000D01*
X42545000Y-19431000D01*
X42545000Y-20986750D01*
X42703750Y-21145500D01*
X44619800Y-21145500D01*
X44619800Y-26992552D01*
X44564791Y-27269103D01*
X44555785Y-27277680D01*
X44556616Y-26325771D01*
X44016388Y-25018319D01*
X43016942Y-24017128D01*
X41710435Y-23474619D01*
X40295771Y-23473384D01*
X38988319Y-24013612D01*
X37987128Y-25013058D01*
X37444619Y-26319565D01*
X37443384Y-27734229D01*
X37983612Y-29041681D01*
X38983058Y-30042872D01*
X40289565Y-30585381D01*
X41081974Y-30586072D01*
X41028922Y-30636598D01*
X40962552Y-30649800D01*
X13949640Y-30649800D01*
X14008608Y-30444213D01*
X13208000Y-29643605D01*
X12407392Y-30444213D01*
X12466360Y-30649800D01*
X4037448Y-30649800D01*
X3715461Y-30585753D01*
X4704229Y-30586616D01*
X6011681Y-30046388D01*
X7012872Y-29046942D01*
X7229278Y-28525777D01*
X10849828Y-28525777D01*
X10981520Y-28820657D01*
X11689036Y-29092261D01*
X11858967Y-29087814D01*
X11798856Y-29256302D01*
X11826638Y-29811368D01*
X11985603Y-30195143D01*
X12227787Y-30264608D01*
X13028395Y-29464000D01*
X13387605Y-29464000D01*
X14188213Y-30264608D01*
X14430397Y-30195143D01*
X14597536Y-29726659D01*
X14597536Y-30226000D01*
X14624103Y-30367190D01*
X14707546Y-30496865D01*
X14834866Y-30583859D01*
X14986000Y-30614464D01*
X16510000Y-30614464D01*
X16651190Y-30587897D01*
X16780865Y-30504454D01*
X16867859Y-30377134D01*
X16898464Y-30226000D01*
X16898464Y-28828896D01*
X17344963Y-28829286D01*
X17951995Y-28578466D01*
X18416834Y-28114437D01*
X18668713Y-27507845D01*
X18669286Y-26851037D01*
X18483335Y-26401000D01*
X31092536Y-26401000D01*
X31092536Y-27701000D01*
X31119103Y-27842190D01*
X31202546Y-27971865D01*
X31329866Y-28058859D01*
X31481000Y-28089464D01*
X32781000Y-28089464D01*
X32922190Y-28062897D01*
X33051865Y-27979454D01*
X33071979Y-27950016D01*
X33911590Y-27950016D01*
X33967271Y-28180611D01*
X34450078Y-28348622D01*
X34960428Y-28319083D01*
X35294729Y-28180611D01*
X35350410Y-27950016D01*
X34631000Y-27230605D01*
X33911590Y-27950016D01*
X33071979Y-27950016D01*
X33138859Y-27852134D01*
X33169464Y-27701000D01*
X33169464Y-26870078D01*
X33333378Y-26870078D01*
X33362917Y-27380428D01*
X33501389Y-27714729D01*
X33731984Y-27770410D01*
X34451395Y-27051000D01*
X34810605Y-27051000D01*
X35530016Y-27770410D01*
X35760611Y-27714729D01*
X35928622Y-27231922D01*
X35899083Y-26721572D01*
X35760611Y-26387271D01*
X35530016Y-26331590D01*
X34810605Y-27051000D01*
X34451395Y-27051000D01*
X33731984Y-26331590D01*
X33501389Y-26387271D01*
X33333378Y-26870078D01*
X33169464Y-26870078D01*
X33169464Y-26401000D01*
X33142897Y-26259810D01*
X33073514Y-26151984D01*
X33911590Y-26151984D01*
X34631000Y-26871395D01*
X35350410Y-26151984D01*
X35294729Y-25921389D01*
X34811922Y-25753378D01*
X34301572Y-25782917D01*
X33967271Y-25921389D01*
X33911590Y-26151984D01*
X33073514Y-26151984D01*
X33059454Y-26130135D01*
X32932134Y-26043141D01*
X32781000Y-26012536D01*
X31481000Y-26012536D01*
X31339810Y-26039103D01*
X31210135Y-26122546D01*
X31123141Y-26249866D01*
X31092536Y-26401000D01*
X18483335Y-26401000D01*
X18418466Y-26244005D01*
X17954437Y-25779166D01*
X17347845Y-25527287D01*
X16691037Y-25526714D01*
X16084005Y-25777534D01*
X15619166Y-26241563D01*
X15367287Y-26848155D01*
X15366714Y-27504963D01*
X15617534Y-28111995D01*
X15818724Y-28313536D01*
X14986000Y-28313536D01*
X14844810Y-28340103D01*
X14715135Y-28423546D01*
X14628141Y-28550866D01*
X14597536Y-28702000D01*
X14597536Y-29279943D01*
X14589362Y-29116632D01*
X14430397Y-28732857D01*
X14188213Y-28663392D01*
X13387605Y-29464000D01*
X13028395Y-29464000D01*
X13014253Y-29449858D01*
X13193858Y-29270253D01*
X13208000Y-29284395D01*
X14008608Y-28483787D01*
X13939143Y-28241603D01*
X13685045Y-28150950D01*
X13932261Y-27506964D01*
X13912436Y-26749368D01*
X13660657Y-26141520D01*
X13365777Y-26009828D01*
X12197605Y-27178000D01*
X12211748Y-27192143D01*
X12032143Y-27371748D01*
X12018000Y-27357605D01*
X10849828Y-28525777D01*
X7229278Y-28525777D01*
X7555381Y-27740435D01*
X7556159Y-26849036D01*
X10103739Y-26849036D01*
X10123564Y-27606632D01*
X10375343Y-28214480D01*
X10670223Y-28346172D01*
X11838395Y-27178000D01*
X10670223Y-26009828D01*
X10375343Y-26141520D01*
X10103739Y-26849036D01*
X7556159Y-26849036D01*
X7556616Y-26325771D01*
X7351860Y-25830223D01*
X10849828Y-25830223D01*
X12018000Y-26998395D01*
X13186172Y-25830223D01*
X13054480Y-25535343D01*
X12346964Y-25263739D01*
X11589368Y-25283564D01*
X10981520Y-25535343D01*
X10849828Y-25830223D01*
X7351860Y-25830223D01*
X7016388Y-25018319D01*
X6016942Y-24017128D01*
X4710435Y-23474619D01*
X3295771Y-23473384D01*
X1988319Y-24013612D01*
X987128Y-25013058D01*
X444619Y-26319565D01*
X443911Y-27131344D01*
X397633Y-27080195D01*
X380200Y-26992552D01*
X380200Y-21145500D01*
X2254250Y-21145500D01*
X2413000Y-20986750D01*
X2413000Y-19431000D01*
X2667000Y-19431000D01*
X2667000Y-20986750D01*
X2825750Y-21145500D01*
X5206309Y-21145500D01*
X5439698Y-21048827D01*
X5618327Y-20870199D01*
X5715000Y-20636810D01*
X5715000Y-20436963D01*
X6268714Y-20436963D01*
X6519534Y-21043995D01*
X6983563Y-21508834D01*
X7590155Y-21760713D01*
X8246963Y-21761286D01*
X8853995Y-21510466D01*
X9318834Y-21046437D01*
X9570713Y-20439845D01*
X9571286Y-19783037D01*
X9320466Y-19176005D01*
X8856437Y-18711166D01*
X8579605Y-18596215D01*
X12153390Y-18596215D01*
X12230656Y-18844976D01*
X12777131Y-19042340D01*
X13357535Y-19015553D01*
X13769344Y-18844976D01*
X13846610Y-18596215D01*
X13000000Y-17749605D01*
X12153390Y-18596215D01*
X8579605Y-18596215D01*
X8249845Y-18459287D01*
X7593037Y-18458714D01*
X6986005Y-18709534D01*
X6521166Y-19173563D01*
X6269287Y-19780155D01*
X6268714Y-20436963D01*
X5715000Y-20436963D01*
X5715000Y-19589750D01*
X5556250Y-19431000D01*
X2667000Y-19431000D01*
X2413000Y-19431000D01*
X2393000Y-19431000D01*
X2393000Y-19177000D01*
X2413000Y-19177000D01*
X2413000Y-17621250D01*
X2667000Y-17621250D01*
X2667000Y-19177000D01*
X5556250Y-19177000D01*
X5715000Y-19018250D01*
X5715000Y-17971190D01*
X5618327Y-17737801D01*
X5439698Y-17559173D01*
X5206309Y-17462500D01*
X2825750Y-17462500D01*
X2667000Y-17621250D01*
X2413000Y-17621250D01*
X2254250Y-17462500D01*
X380200Y-17462500D01*
X380200Y-17347131D01*
X11527660Y-17347131D01*
X11554447Y-17927535D01*
X11725024Y-18339344D01*
X11973785Y-18416610D01*
X12820395Y-17570000D01*
X13179605Y-17570000D01*
X14026215Y-18416610D01*
X14274976Y-18339344D01*
X14293519Y-18288000D01*
X18598036Y-18288000D01*
X18598036Y-19177000D01*
X18624603Y-19318190D01*
X18708046Y-19447865D01*
X18830185Y-19531319D01*
X18774643Y-19665077D01*
X18774357Y-19993482D01*
X18899767Y-20296998D01*
X19131781Y-20529417D01*
X19435077Y-20655357D01*
X19763482Y-20655643D01*
X20066998Y-20530233D01*
X20299417Y-20298219D01*
X20425357Y-19994923D01*
X20425643Y-19666518D01*
X20383860Y-19565396D01*
X20524690Y-19538897D01*
X20654365Y-19455454D01*
X20673029Y-19428139D01*
X20574643Y-19665077D01*
X20574357Y-19993482D01*
X20699767Y-20296998D01*
X20931781Y-20529417D01*
X21235077Y-20655357D01*
X21563482Y-20655643D01*
X21866998Y-20530233D01*
X22090536Y-20307085D01*
X22090536Y-21526500D01*
X22117103Y-21667690D01*
X22145993Y-21712587D01*
X21742644Y-22115936D01*
X21150580Y-22115936D01*
X21009390Y-22142503D01*
X20879715Y-22225946D01*
X20792721Y-22353266D01*
X20762116Y-22504400D01*
X20762116Y-23723600D01*
X20788683Y-23864790D01*
X20872126Y-23994465D01*
X20999446Y-24081459D01*
X21150580Y-24112064D01*
X22059900Y-24112064D01*
X22201090Y-24085497D01*
X22330765Y-24002054D01*
X22417759Y-23874734D01*
X22448364Y-23723600D01*
X22448364Y-23404482D01*
X22923357Y-23404482D01*
X23048767Y-23707998D01*
X23280781Y-23940417D01*
X23584077Y-24066357D01*
X23912482Y-24066643D01*
X24131783Y-23976030D01*
X24143646Y-23994465D01*
X24270966Y-24081459D01*
X24422100Y-24112064D01*
X25331420Y-24112064D01*
X25472610Y-24085497D01*
X25602285Y-24002054D01*
X25689279Y-23874734D01*
X25719884Y-23723600D01*
X25719884Y-22504400D01*
X25693317Y-22363210D01*
X25609874Y-22233535D01*
X25482554Y-22146541D01*
X25331420Y-22115936D01*
X24422100Y-22115936D01*
X24280910Y-22142503D01*
X24151235Y-22225946D01*
X24064241Y-22353266D01*
X24040930Y-22468381D01*
X23913923Y-22415643D01*
X23585518Y-22415357D01*
X23282002Y-22540767D01*
X23049583Y-22772781D01*
X22923643Y-23076077D01*
X22923357Y-23404482D01*
X22448364Y-23404482D01*
X22448364Y-22847056D01*
X23282710Y-22012710D01*
X23348022Y-21914964D01*
X23368000Y-21914964D01*
X23509190Y-21888397D01*
X23638865Y-21804954D01*
X23725859Y-21677634D01*
X23756464Y-21526500D01*
X23756464Y-20129500D01*
X23995536Y-20129500D01*
X23995536Y-21526500D01*
X24022103Y-21667690D01*
X24105546Y-21797365D01*
X24232866Y-21884359D01*
X24384000Y-21914964D01*
X25273000Y-21914964D01*
X25414190Y-21888397D01*
X25543865Y-21804954D01*
X25630859Y-21677634D01*
X25641749Y-21623859D01*
X25715767Y-21802998D01*
X25947781Y-22035417D01*
X26251077Y-22161357D01*
X26579482Y-22161643D01*
X26882998Y-22036233D01*
X27115417Y-21804219D01*
X27241357Y-21500923D01*
X27241643Y-21172518D01*
X27116233Y-20869002D01*
X26884219Y-20636583D01*
X26580923Y-20510643D01*
X26308826Y-20510406D01*
X26267210Y-20468790D01*
X26219578Y-20436963D01*
X35428714Y-20436963D01*
X35679534Y-21043995D01*
X36143563Y-21508834D01*
X36750155Y-21760713D01*
X37406963Y-21761286D01*
X38013995Y-21510466D01*
X38478834Y-21046437D01*
X38730713Y-20439845D01*
X38731286Y-19783037D01*
X38651422Y-19589750D01*
X39243000Y-19589750D01*
X39243000Y-20636810D01*
X39339673Y-20870199D01*
X39518302Y-21048827D01*
X39751691Y-21145500D01*
X42132250Y-21145500D01*
X42291000Y-20986750D01*
X42291000Y-19431000D01*
X39401750Y-19431000D01*
X39243000Y-19589750D01*
X38651422Y-19589750D01*
X38480466Y-19176005D01*
X38016437Y-18711166D01*
X37409845Y-18459287D01*
X36753037Y-18458714D01*
X36146005Y-18709534D01*
X35681166Y-19173563D01*
X35429287Y-19780155D01*
X35428714Y-20436963D01*
X26219578Y-20436963D01*
X26102403Y-20358669D01*
X25908000Y-20320000D01*
X25661464Y-20320000D01*
X25661464Y-20129500D01*
X25634897Y-19988310D01*
X25551454Y-19858635D01*
X25424134Y-19771641D01*
X25273000Y-19741036D01*
X24384000Y-19741036D01*
X24242810Y-19767603D01*
X24113135Y-19851046D01*
X24026141Y-19978366D01*
X23995536Y-20129500D01*
X23756464Y-20129500D01*
X23729897Y-19988310D01*
X23646454Y-19858635D01*
X23519134Y-19771641D01*
X23368000Y-19741036D01*
X22479000Y-19741036D01*
X22337810Y-19767603D01*
X22225492Y-19839877D01*
X22225625Y-19686875D01*
X22347036Y-19565464D01*
X22923500Y-19565464D01*
X23064690Y-19538897D01*
X23194365Y-19455454D01*
X23281359Y-19328134D01*
X23311964Y-19177000D01*
X23311964Y-18288000D01*
X23285397Y-18146810D01*
X23201954Y-18017135D01*
X23134712Y-17971190D01*
X39243000Y-17971190D01*
X39243000Y-19018250D01*
X39401750Y-19177000D01*
X42291000Y-19177000D01*
X42291000Y-17621250D01*
X42132250Y-17462500D01*
X39751691Y-17462500D01*
X39518302Y-17559173D01*
X39339673Y-17737801D01*
X39243000Y-17971190D01*
X23134712Y-17971190D01*
X23074634Y-17930141D01*
X22923500Y-17899536D01*
X21526500Y-17899536D01*
X21385310Y-17926103D01*
X21255635Y-18009546D01*
X21168641Y-18136866D01*
X21138036Y-18288000D01*
X21138036Y-19045049D01*
X20933002Y-19129767D01*
X20743150Y-19319288D01*
X20771964Y-19177000D01*
X20771964Y-18288000D01*
X20745397Y-18146810D01*
X20661954Y-18017135D01*
X20534634Y-17930141D01*
X20383500Y-17899536D01*
X18986500Y-17899536D01*
X18845310Y-17926103D01*
X18715635Y-18009546D01*
X18628641Y-18136866D01*
X18598036Y-18288000D01*
X14293519Y-18288000D01*
X14472340Y-17792869D01*
X14445553Y-17212465D01*
X14274976Y-16800656D01*
X14026215Y-16723390D01*
X13179605Y-17570000D01*
X12820395Y-17570000D01*
X11973785Y-16723390D01*
X11725024Y-16800656D01*
X11527660Y-17347131D01*
X380200Y-17347131D01*
X380200Y-15261389D01*
X11831398Y-15261389D01*
X12008901Y-15690981D01*
X12337291Y-16019943D01*
X12615682Y-16135541D01*
X12230656Y-16295024D01*
X12153390Y-16543785D01*
X13000000Y-17390395D01*
X13846610Y-16543785D01*
X13769344Y-16295024D01*
X13357773Y-16146382D01*
X13660981Y-16021099D01*
X13954090Y-15728500D01*
X18986500Y-15728500D01*
X18986500Y-15994536D01*
X18845310Y-16021103D01*
X18715635Y-16104546D01*
X18628641Y-16231866D01*
X18598036Y-16383000D01*
X18598036Y-17272000D01*
X18624603Y-17413190D01*
X18708046Y-17542865D01*
X18835366Y-17629859D01*
X18986500Y-17660464D01*
X20383500Y-17660464D01*
X20524690Y-17633897D01*
X20654365Y-17550454D01*
X20741359Y-17423134D01*
X20771964Y-17272000D01*
X20771964Y-16383000D01*
X20745397Y-16241810D01*
X20661954Y-16112135D01*
X20534634Y-16025141D01*
X20383500Y-15994536D01*
X20383500Y-15728500D01*
X21526500Y-15728500D01*
X21526500Y-15994536D01*
X21385310Y-16021103D01*
X21255635Y-16104546D01*
X21168641Y-16231866D01*
X21138036Y-16383000D01*
X21138036Y-17272000D01*
X21164603Y-17413190D01*
X21248046Y-17542865D01*
X21375366Y-17629859D01*
X21526500Y-17660464D01*
X22923500Y-17660464D01*
X23064690Y-17633897D01*
X23194365Y-17550454D01*
X23281359Y-17423134D01*
X23311964Y-17272000D01*
X23311964Y-16383000D01*
X23285397Y-16241810D01*
X23201954Y-16112135D01*
X23074634Y-16025141D01*
X22923500Y-15994536D01*
X22923500Y-15728500D01*
X31046355Y-15728500D01*
X31337291Y-16019943D01*
X31766571Y-16198196D01*
X32231389Y-16198602D01*
X32660981Y-16021099D01*
X32989943Y-15692709D01*
X33168196Y-15263429D01*
X33168602Y-14798611D01*
X32991099Y-14369019D01*
X32662709Y-14040057D01*
X32384318Y-13924459D01*
X32769344Y-13764976D01*
X32846610Y-13516215D01*
X32000000Y-12669605D01*
X31153390Y-13516215D01*
X31230656Y-13764976D01*
X31642227Y-13913618D01*
X31339019Y-14038901D01*
X31045910Y-14331500D01*
X27034397Y-14331500D01*
X27091359Y-14248134D01*
X27121964Y-14097000D01*
X27121964Y-13208000D01*
X27095397Y-13066810D01*
X27011954Y-12937135D01*
X26884634Y-12850141D01*
X26733500Y-12819536D01*
X25336500Y-12819536D01*
X25195310Y-12846103D01*
X25065635Y-12929546D01*
X24978641Y-13056866D01*
X24948036Y-13208000D01*
X24948036Y-14097000D01*
X24974603Y-14238190D01*
X25034646Y-14331500D01*
X24494397Y-14331500D01*
X24551359Y-14248134D01*
X24581964Y-14097000D01*
X24581964Y-13208000D01*
X24555397Y-13066810D01*
X24471954Y-12937135D01*
X24344634Y-12850141D01*
X24193500Y-12819536D01*
X22796500Y-12819536D01*
X22655310Y-12846103D01*
X22525635Y-12929546D01*
X22438641Y-13056866D01*
X22408036Y-13208000D01*
X22408036Y-14097000D01*
X22434603Y-14238190D01*
X22494646Y-14331500D01*
X21954397Y-14331500D01*
X22011359Y-14248134D01*
X22041964Y-14097000D01*
X22041964Y-13208000D01*
X22015397Y-13066810D01*
X21931954Y-12937135D01*
X21804634Y-12850141D01*
X21653500Y-12819536D01*
X20256500Y-12819536D01*
X20115310Y-12846103D01*
X19985635Y-12929546D01*
X19898641Y-13056866D01*
X19868036Y-13208000D01*
X19868036Y-14097000D01*
X19894603Y-14238190D01*
X19954646Y-14331500D01*
X13953645Y-14331500D01*
X13662709Y-14040057D01*
X13233429Y-13861804D01*
X12768611Y-13861398D01*
X12339019Y-14038901D01*
X12010057Y-14367291D01*
X11831804Y-14796571D01*
X11831398Y-15261389D01*
X380200Y-15261389D01*
X380200Y-12509500D01*
X2254250Y-12509500D01*
X2413000Y-12350750D01*
X2413000Y-10795000D01*
X2667000Y-10795000D01*
X2667000Y-12350750D01*
X2825750Y-12509500D01*
X5206309Y-12509500D01*
X5439698Y-12412827D01*
X5618327Y-12234199D01*
X5715000Y-12000810D01*
X5715000Y-10953750D01*
X5556250Y-10795000D01*
X2667000Y-10795000D01*
X2413000Y-10795000D01*
X2393000Y-10795000D01*
X2393000Y-10541000D01*
X2413000Y-10541000D01*
X2413000Y-8985250D01*
X2667000Y-8985250D01*
X2667000Y-10541000D01*
X5556250Y-10541000D01*
X5715000Y-10382250D01*
X5715000Y-10276963D01*
X6268714Y-10276963D01*
X6519534Y-10883995D01*
X6983563Y-11348834D01*
X7590155Y-11600713D01*
X8246963Y-11601286D01*
X8853995Y-11350466D01*
X8901543Y-11303000D01*
X19868036Y-11303000D01*
X19868036Y-12192000D01*
X19894603Y-12333190D01*
X19978046Y-12462865D01*
X20105366Y-12549859D01*
X20256500Y-12580464D01*
X21653500Y-12580464D01*
X21794690Y-12553897D01*
X21924365Y-12470454D01*
X22011359Y-12343134D01*
X22041964Y-12192000D01*
X22041964Y-11303000D01*
X22408036Y-11303000D01*
X22408036Y-12192000D01*
X22434603Y-12333190D01*
X22518046Y-12462865D01*
X22645366Y-12549859D01*
X22796500Y-12580464D01*
X24193500Y-12580464D01*
X24334690Y-12553897D01*
X24464365Y-12470454D01*
X24551359Y-12343134D01*
X24581964Y-12192000D01*
X24581964Y-11303000D01*
X24948036Y-11303000D01*
X24948036Y-12192000D01*
X24974603Y-12333190D01*
X25058046Y-12462865D01*
X25185366Y-12549859D01*
X25336500Y-12580464D01*
X26733500Y-12580464D01*
X26874690Y-12553897D01*
X27004365Y-12470454D01*
X27091359Y-12343134D01*
X27106749Y-12267131D01*
X30527660Y-12267131D01*
X30554447Y-12847535D01*
X30725024Y-13259344D01*
X30973785Y-13336610D01*
X31820395Y-12490000D01*
X32179605Y-12490000D01*
X33026215Y-13336610D01*
X33274976Y-13259344D01*
X33472340Y-12712869D01*
X33445553Y-12132465D01*
X33274976Y-11720656D01*
X33026215Y-11643390D01*
X32179605Y-12490000D01*
X31820395Y-12490000D01*
X30973785Y-11643390D01*
X30725024Y-11720656D01*
X30527660Y-12267131D01*
X27106749Y-12267131D01*
X27121964Y-12192000D01*
X27121964Y-11463785D01*
X31153390Y-11463785D01*
X32000000Y-12310395D01*
X32846610Y-11463785D01*
X32769344Y-11215024D01*
X32222869Y-11017660D01*
X31642465Y-11044447D01*
X31230656Y-11215024D01*
X31153390Y-11463785D01*
X27121964Y-11463785D01*
X27121964Y-11303000D01*
X27095397Y-11161810D01*
X27011954Y-11032135D01*
X26884634Y-10945141D01*
X26772417Y-10922417D01*
X26825357Y-10794923D01*
X26825643Y-10466518D01*
X26747321Y-10276963D01*
X35428714Y-10276963D01*
X35679534Y-10883995D01*
X36143563Y-11348834D01*
X36750155Y-11600713D01*
X37406963Y-11601286D01*
X38013995Y-11350466D01*
X38411403Y-10953750D01*
X39243000Y-10953750D01*
X39243000Y-12000810D01*
X39339673Y-12234199D01*
X39518302Y-12412827D01*
X39751691Y-12509500D01*
X42132250Y-12509500D01*
X42291000Y-12350750D01*
X42291000Y-10795000D01*
X39401750Y-10795000D01*
X39243000Y-10953750D01*
X38411403Y-10953750D01*
X38478834Y-10886437D01*
X38730713Y-10279845D01*
X38731286Y-9623037D01*
X38612351Y-9335190D01*
X39243000Y-9335190D01*
X39243000Y-10382250D01*
X39401750Y-10541000D01*
X42291000Y-10541000D01*
X42291000Y-8985250D01*
X42132250Y-8826500D01*
X39751691Y-8826500D01*
X39518302Y-8923173D01*
X39339673Y-9101801D01*
X39243000Y-9335190D01*
X38612351Y-9335190D01*
X38480466Y-9016005D01*
X38016437Y-8551166D01*
X37409845Y-8299287D01*
X36753037Y-8298714D01*
X36146005Y-8549534D01*
X35681166Y-9013563D01*
X35429287Y-9620155D01*
X35428714Y-10276963D01*
X26747321Y-10276963D01*
X26700233Y-10163002D01*
X26468219Y-9930583D01*
X26164923Y-9804643D01*
X25836518Y-9804357D01*
X25533002Y-9929767D01*
X25300583Y-10161781D01*
X25174643Y-10465077D01*
X25174357Y-10793482D01*
X25232464Y-10934112D01*
X25195310Y-10941103D01*
X25065635Y-11024546D01*
X24978641Y-11151866D01*
X24948036Y-11303000D01*
X24581964Y-11303000D01*
X24555397Y-11161810D01*
X24471954Y-11032135D01*
X24344634Y-10945141D01*
X24193500Y-10914536D01*
X24175689Y-10914536D01*
X24225357Y-10794923D01*
X24225643Y-10466518D01*
X24100233Y-10163002D01*
X23868219Y-9930583D01*
X23564923Y-9804643D01*
X23236518Y-9804357D01*
X22933002Y-9929767D01*
X22700583Y-10161781D01*
X22574643Y-10465077D01*
X22574357Y-10793482D01*
X22639544Y-10951248D01*
X22525635Y-11024546D01*
X22438641Y-11151866D01*
X22408036Y-11303000D01*
X22041964Y-11303000D01*
X22015397Y-11161810D01*
X21931954Y-11032135D01*
X21804634Y-10945141D01*
X21766212Y-10937360D01*
X21825357Y-10794923D01*
X21825643Y-10466518D01*
X21700233Y-10163002D01*
X21468219Y-9930583D01*
X21164923Y-9804643D01*
X20836518Y-9804357D01*
X20533002Y-9929767D01*
X20300583Y-10161781D01*
X20174643Y-10465077D01*
X20174357Y-10793482D01*
X20226693Y-10920145D01*
X20115310Y-10941103D01*
X19985635Y-11024546D01*
X19898641Y-11151866D01*
X19868036Y-11303000D01*
X8901543Y-11303000D01*
X9318834Y-10886437D01*
X9570713Y-10279845D01*
X9571286Y-9623037D01*
X9320466Y-9016005D01*
X8856437Y-8551166D01*
X8249845Y-8299287D01*
X7593037Y-8298714D01*
X6986005Y-8549534D01*
X6521166Y-9013563D01*
X6269287Y-9620155D01*
X6268714Y-10276963D01*
X5715000Y-10276963D01*
X5715000Y-9335190D01*
X5618327Y-9101801D01*
X5439698Y-8923173D01*
X5206309Y-8826500D01*
X2825750Y-8826500D01*
X2667000Y-8985250D01*
X2413000Y-8985250D01*
X2254250Y-8826500D01*
X380200Y-8826500D01*
X380200Y-4037448D01*
X444273Y-3715329D01*
X443384Y-4734229D01*
X983612Y-6041681D01*
X1983058Y-7042872D01*
X3289565Y-7585381D01*
X4704229Y-7586616D01*
X6011681Y-7046388D01*
X7012872Y-6046942D01*
X7555381Y-4740435D01*
X7556616Y-3325771D01*
X7016388Y-2018319D01*
X6016942Y-1017128D01*
X4710435Y-474619D01*
X3688681Y-473727D01*
X3724065Y-442536D01*
X4037448Y-380200D01*
X40962552Y-380200D01*
X41033172Y-394247D01*
M02*
