G04 DipTrace 2.4.0.2*
%INST12axis2.gbl*%
%MOMM*%
%ADD13C,0.152*%
%ADD19R,1.6X1.7*%
%ADD20R,2.032X1.7*%
%ADD21R,2.0X1.7*%
%ADD22R,1.7X1.6*%
%ADD23R,1.7X2.032*%
%ADD37C,0.711*%
%FSLAX53Y53*%
G04*
G71*
G90*
G75*
G01*
%LNBottom*%
%LPD*%
X25348Y20160D2*
D13*
X26510D1*
X27780D1*
X25348Y12540D2*
X26510D1*
X27780D1*
X21346Y18601D2*
X20236D1*
X18793Y17157D1*
Y15879D1*
X19697Y14975D1*
X16350Y21430D2*
Y17646D1*
X16858Y17138D1*
Y15941D1*
X17047Y15753D1*
X16350Y12433D2*
Y11270D1*
Y10000D1*
Y20268D2*
Y21430D1*
Y22700D1*
X15812Y16520D2*
X15714D1*
Y13069D1*
X16350Y12433D1*
Y21430D2*
X15277D1*
X13694Y19847D1*
X25345Y17620D2*
X26510D1*
X27780D1*
X25348Y15080D2*
X26510D1*
X27780D1*
X22366Y12060D2*
X22279D1*
X21735Y12605D1*
X20594D1*
X19766Y13433D1*
X16395D1*
Y13325D1*
X10000Y17620D2*
X11270D1*
X12433D1*
X16395Y13325D2*
Y13776D1*
X16022Y14149D1*
Y15726D1*
X16454Y16158D1*
Y16874D1*
X15542Y17786D1*
X11436D1*
X11270Y17620D1*
X17605Y12846D2*
X17790Y13030D1*
X19684D1*
X20699Y12015D1*
X20952D1*
X16613Y14556D2*
Y13992D1*
X16851Y13754D1*
X20005D1*
X20847Y12912D1*
X23183D1*
X23577Y12518D1*
X23870D1*
X24583Y11805D1*
X12433Y15080D2*
X11270D1*
X10000D1*
X13426Y13402D2*
Y13624D1*
X13898Y14097D1*
Y14765D1*
X13433Y15231D1*
Y15909D1*
X14231Y16706D1*
Y16959D1*
X14470Y17198D1*
X14910D1*
X14939Y17169D1*
X24518Y13200D2*
X23593D1*
X23552Y13241D1*
X21899D1*
X20808Y14331D1*
X19395D1*
X18992Y14735D1*
Y14974D1*
X18434Y15532D1*
Y16920D1*
X18201Y17153D1*
X24597Y14061D2*
Y13967D1*
X23593D1*
X23207Y13581D1*
X22692D1*
X22385Y13887D1*
X21822D1*
X20597Y15111D1*
Y15681D1*
X19414Y16863D1*
X13309Y14492D2*
X13388D1*
X13302Y14407D1*
X13048D1*
Y16507D1*
X13287Y16746D1*
X13439D1*
X13479Y16786D1*
X21753Y19631D2*
X24364D1*
X24693Y19302D1*
Y15939D1*
X24662Y15908D1*
X21196Y16441D2*
Y15411D1*
X21789Y14818D1*
X22310D1*
X22918Y14210D1*
Y14351D1*
X24026D1*
X24714Y15039D1*
Y15908D1*
X18890Y12433D2*
Y11270D1*
Y10000D1*
Y20265D2*
Y21430D1*
Y22700D1*
X18365Y14690D2*
Y15124D1*
X17856Y15634D1*
Y16186D1*
X17389Y16652D1*
Y18764D1*
X18890Y20265D1*
D37*
X22918Y14210D3*
X21196Y16441D3*
X24597Y14061D3*
X13426Y13402D3*
X13309Y14492D3*
X16613Y14556D3*
X16395Y13325D3*
X24662Y15908D3*
X21346Y18601D3*
X17605Y12846D3*
X20952Y12015D3*
X19697Y14975D3*
X24518Y13200D3*
X17047Y15753D3*
X13479Y16786D3*
X21789Y14818D3*
X24583Y11805D3*
X22366Y12060D3*
X14939Y17169D3*
X21753Y19631D3*
X19414Y16863D3*
X18201Y17153D3*
X18365Y14690D3*
X15812Y16520D3*
D19*
X26510Y17620D3*
Y20160D3*
D20*
X27780Y17620D3*
Y20160D3*
G36*
X25250Y21010D2*
X25715D1*
Y19310D1*
X25250D1*
X24980Y19835D1*
Y20485D1*
X25250Y21010D1*
G37*
G36*
Y18470D2*
X25710D1*
Y16770D1*
X25250D1*
X24980Y17295D1*
Y17945D1*
X25250Y18470D1*
G37*
D19*
X26510Y12540D3*
G36*
X25250Y13390D2*
X25715D1*
Y11690D1*
X25250D1*
X24980Y12215D1*
Y12865D1*
X25250Y13390D1*
G37*
D21*
X27780Y12540D3*
D19*
X11270Y15080D3*
Y17620D3*
G36*
X12530Y16770D2*
X12065D1*
Y18470D1*
X12530D1*
X12800Y17945D1*
Y17295D1*
X12530Y16770D1*
G37*
G36*
Y14230D2*
X12065D1*
Y15930D1*
X12530D1*
X12800Y15405D1*
Y14755D1*
X12530Y14230D1*
G37*
D20*
X10000Y15080D3*
Y17620D3*
D19*
X26510Y15080D3*
G36*
X25250Y15930D2*
X25715D1*
Y14230D1*
X25250D1*
X24980Y14755D1*
Y15405D1*
X25250Y15930D1*
G37*
D21*
X27780Y15080D3*
D22*
X18890Y11270D3*
X16350D3*
G36*
X17200Y12530D2*
Y12065D1*
X15500D1*
Y12530D1*
X16025Y12800D1*
X16675D1*
X17200Y12530D1*
G37*
G36*
X19740D2*
Y12065D1*
X18040D1*
Y12530D1*
X18565Y12800D1*
X19215D1*
X19740Y12530D1*
G37*
D23*
X18890Y10000D3*
X16350D3*
D22*
X18890Y21430D3*
X16350D3*
D23*
X18890Y22700D3*
X16350D3*
G36*
X15500Y20170D2*
Y20635D1*
X17200D1*
Y20170D1*
X16675Y19900D1*
X16025D1*
X15500Y20170D1*
G37*
G36*
X18040D2*
Y20630D1*
X19740D1*
Y20170D1*
X19215Y19900D1*
X18565D1*
X18040Y20170D1*
G37*
G36*
X14246Y19531D2*
X14217Y19722D1*
X14157Y19869D1*
X14081Y19963D1*
X14005Y20039D1*
X13892Y20103D1*
X13827Y20128D1*
X13732Y20148D1*
X13681Y20158D1*
X13598Y20163D1*
X13534Y20141D1*
X13496Y20103D1*
X13470Y20077D1*
X13406Y20064D1*
X13381Y20069D1*
X13330Y20084D1*
X13303Y20115D1*
X13203Y20034D1*
X13254Y19957D1*
Y19940D1*
X13165Y19904D1*
X13153Y19849D1*
X13143Y19747D1*
X13395Y19854D1*
X13427D1*
X13470Y19846D1*
X13480Y19823D1*
X13460Y19772D1*
X13344Y19709D1*
X13173Y19638D1*
X13198Y19587D1*
X13262Y19533D1*
X13452Y19607D1*
X13446Y19569D1*
Y19531D1*
X14246D1*
G37*
M02*
