G04 #@! TF.FileFunction,Copper,L2,Bot,Signal*
%FSLAX46Y46*%
G04 Gerber Fmt 4.6, Leading zero omitted, Abs format (unit mm)*
G04 Created by KiCad (PCBNEW (2015-04-08 BZR 5585)-product) date 19/05/2015 19:09:26*
%MOMM*%
G01*
G04 APERTURE LIST*
%ADD10C,0.100000*%
%ADD11R,1.727200X1.727200*%
%ADD12O,1.727200X1.727200*%
%ADD13O,1.524000X2.524000*%
%ADD14C,0.600000*%
%ADD15C,0.250000*%
%ADD16C,1.000000*%
%ADD17C,2.000000*%
%ADD18C,0.500000*%
%ADD19C,0.750000*%
%ADD20C,0.254000*%
G04 APERTURE END LIST*
D10*
D11*
X144526000Y-81280000D03*
D12*
X141986000Y-81280000D03*
X144526000Y-83820000D03*
X141986000Y-83820000D03*
X144526000Y-86360000D03*
X141986000Y-86360000D03*
X144526000Y-88900000D03*
X141986000Y-88900000D03*
X144526000Y-91440000D03*
X141986000Y-91440000D03*
D13*
X182880000Y-93980000D03*
X185420000Y-93980000D03*
X187960000Y-93980000D03*
X190500000Y-93980000D03*
X193040000Y-93980000D03*
X193040000Y-78740000D03*
X190500000Y-78740000D03*
X187960000Y-78740000D03*
X185420000Y-78740000D03*
X182880000Y-78740000D03*
X165100000Y-93980000D03*
X167640000Y-93980000D03*
X170180000Y-93980000D03*
X172720000Y-93980000D03*
X175260000Y-93980000D03*
X175260000Y-78740000D03*
X172720000Y-78740000D03*
X170180000Y-78740000D03*
X167640000Y-78740000D03*
X165100000Y-78740000D03*
D14*
X147283602Y-83820000D03*
X149860000Y-90678000D03*
X149860000Y-78486000D03*
X151638000Y-96520000D03*
X162306000Y-88138000D03*
X162306000Y-84074000D03*
X156464000Y-90678000D03*
X168402000Y-91694000D03*
X152908000Y-94234000D03*
X160020000Y-86868000D03*
X160020000Y-83312000D03*
X163068000Y-89408000D03*
X163068000Y-82550000D03*
X152400000Y-88138000D03*
X160782000Y-81788000D03*
X152400000Y-89408000D03*
X161544000Y-81026000D03*
X157734000Y-97028000D03*
D15*
X149860000Y-94742000D02*
X149860000Y-90678000D01*
D16*
X151638000Y-96520000D02*
X149860000Y-94742000D01*
X149860000Y-90678000D02*
X149860000Y-78486000D01*
D17*
X144526000Y-83820000D02*
X147283602Y-83820000D01*
D18*
X162306000Y-84074000D02*
X162306000Y-88138000D01*
X168102001Y-91394001D02*
X167386000Y-90678000D01*
X168402000Y-91694000D02*
X168102001Y-91394001D01*
X167386000Y-90678000D02*
X156464000Y-90678000D01*
D19*
X154666000Y-95992000D02*
X152908000Y-94234000D01*
X170180000Y-93980000D02*
X170180000Y-94480000D01*
X170180000Y-94480000D02*
X168668000Y-95992000D01*
X168668000Y-95992000D02*
X154666000Y-95992000D01*
X170180000Y-78740000D02*
X170180000Y-93980000D01*
D18*
X160020000Y-83312000D02*
X160020000Y-86868000D01*
X163068000Y-82550000D02*
X163068000Y-89408000D01*
X160274000Y-88138000D02*
X152400000Y-88138000D01*
X160782000Y-87630000D02*
X160274000Y-88138000D01*
X160782000Y-81788000D02*
X160782000Y-87630000D01*
X160528000Y-89408000D02*
X152400000Y-89408000D01*
X161544000Y-88392000D02*
X160528000Y-89408000D01*
X161544000Y-81026000D02*
X161544000Y-88392000D01*
D19*
X187960000Y-93980000D02*
X187960000Y-95992000D01*
X187960000Y-95992000D02*
X186924000Y-97028000D01*
X186924000Y-97028000D02*
X184912000Y-97028000D01*
X184912000Y-97028000D02*
X157734000Y-97028000D01*
X187960000Y-93980000D02*
X187960000Y-78740000D01*
D20*
G36*
X194895000Y-95216494D02*
X194832262Y-95856342D01*
X194656168Y-96439594D01*
X194437000Y-96851788D01*
X194437000Y-94489179D01*
X194437000Y-93470821D01*
X194410394Y-93199476D01*
X194331591Y-92938466D01*
X194203591Y-92697733D01*
X194031270Y-92486447D01*
X193821192Y-92312656D01*
X193581359Y-92182978D01*
X193320906Y-92102354D01*
X193049753Y-92073855D01*
X192778228Y-92098566D01*
X192516675Y-92175545D01*
X192275054Y-92301861D01*
X192062570Y-92472703D01*
X191887316Y-92681562D01*
X191769216Y-92896385D01*
X191663591Y-92697733D01*
X191491270Y-92486447D01*
X191281192Y-92312656D01*
X191041359Y-92182978D01*
X190780906Y-92102354D01*
X190509753Y-92073855D01*
X190238228Y-92098566D01*
X189976675Y-92175545D01*
X189735054Y-92301861D01*
X189522570Y-92472703D01*
X189347316Y-92681562D01*
X189229216Y-92896385D01*
X189123591Y-92697733D01*
X188970000Y-92509412D01*
X188970000Y-80208481D01*
X189112684Y-80038438D01*
X189230783Y-79823614D01*
X189336409Y-80022267D01*
X189508730Y-80233553D01*
X189718808Y-80407344D01*
X189958641Y-80537022D01*
X190219094Y-80617646D01*
X190490247Y-80646145D01*
X190761772Y-80621434D01*
X191023325Y-80544455D01*
X191264946Y-80418139D01*
X191477430Y-80247297D01*
X191652684Y-80038438D01*
X191770783Y-79823614D01*
X191876409Y-80022267D01*
X192048730Y-80233553D01*
X192258808Y-80407344D01*
X192498641Y-80537022D01*
X192759094Y-80617646D01*
X193030247Y-80646145D01*
X193301772Y-80621434D01*
X193563325Y-80544455D01*
X193804946Y-80418139D01*
X194017430Y-80247297D01*
X194192684Y-80038438D01*
X194324032Y-79799516D01*
X194406472Y-79539632D01*
X194436864Y-79268684D01*
X194437000Y-79249179D01*
X194437000Y-78230821D01*
X194410394Y-77959476D01*
X194331591Y-77698466D01*
X194203591Y-77457733D01*
X194031270Y-77246447D01*
X193821192Y-77072656D01*
X193581359Y-76942978D01*
X193320906Y-76862354D01*
X193049753Y-76833855D01*
X192778228Y-76858566D01*
X192516675Y-76935545D01*
X192275054Y-77061861D01*
X192062570Y-77232703D01*
X191887316Y-77441562D01*
X191769216Y-77656385D01*
X191663591Y-77457733D01*
X191491270Y-77246447D01*
X191281192Y-77072656D01*
X191041359Y-76942978D01*
X190780906Y-76862354D01*
X190509753Y-76833855D01*
X190238228Y-76858566D01*
X189976675Y-76935545D01*
X189735054Y-77061861D01*
X189522570Y-77232703D01*
X189347316Y-77441562D01*
X189229216Y-77656385D01*
X189123591Y-77457733D01*
X188951270Y-77246447D01*
X188741192Y-77072656D01*
X188501359Y-76942978D01*
X188240906Y-76862354D01*
X187969753Y-76833855D01*
X187698228Y-76858566D01*
X187436675Y-76935545D01*
X187195054Y-77061861D01*
X186982570Y-77232703D01*
X186807316Y-77441562D01*
X186689216Y-77656385D01*
X186583591Y-77457733D01*
X186411270Y-77246447D01*
X186201192Y-77072656D01*
X185961359Y-76942978D01*
X185700906Y-76862354D01*
X185429753Y-76833855D01*
X185158228Y-76858566D01*
X184896675Y-76935545D01*
X184655054Y-77061861D01*
X184442570Y-77232703D01*
X184267316Y-77441562D01*
X184149216Y-77656385D01*
X184043591Y-77457733D01*
X183871270Y-77246447D01*
X183661192Y-77072656D01*
X183421359Y-76942978D01*
X183160906Y-76862354D01*
X182889753Y-76833855D01*
X182618228Y-76858566D01*
X182356675Y-76935545D01*
X182115054Y-77061861D01*
X181902570Y-77232703D01*
X181727316Y-77441562D01*
X181595968Y-77680484D01*
X181513528Y-77940368D01*
X181483136Y-78211316D01*
X181483000Y-78230821D01*
X181483000Y-79249179D01*
X181509606Y-79520524D01*
X181588409Y-79781534D01*
X181716409Y-80022267D01*
X181888730Y-80233553D01*
X182098808Y-80407344D01*
X182338641Y-80537022D01*
X182599094Y-80617646D01*
X182870247Y-80646145D01*
X183141772Y-80621434D01*
X183403325Y-80544455D01*
X183644946Y-80418139D01*
X183857430Y-80247297D01*
X184032684Y-80038438D01*
X184150783Y-79823614D01*
X184256409Y-80022267D01*
X184428730Y-80233553D01*
X184638808Y-80407344D01*
X184878641Y-80537022D01*
X185139094Y-80617646D01*
X185410247Y-80646145D01*
X185681772Y-80621434D01*
X185943325Y-80544455D01*
X186184946Y-80418139D01*
X186397430Y-80247297D01*
X186572684Y-80038438D01*
X186690783Y-79823614D01*
X186796409Y-80022267D01*
X186950000Y-80210587D01*
X186950000Y-92511518D01*
X186807316Y-92681562D01*
X186689216Y-92896385D01*
X186583591Y-92697733D01*
X186411270Y-92486447D01*
X186201192Y-92312656D01*
X185961359Y-92182978D01*
X185700906Y-92102354D01*
X185429753Y-92073855D01*
X185158228Y-92098566D01*
X184896675Y-92175545D01*
X184655054Y-92301861D01*
X184442570Y-92472703D01*
X184267316Y-92681562D01*
X184149216Y-92896385D01*
X184043591Y-92697733D01*
X183871270Y-92486447D01*
X183661192Y-92312656D01*
X183421359Y-92182978D01*
X183160906Y-92102354D01*
X182889753Y-92073855D01*
X182618228Y-92098566D01*
X182356675Y-92175545D01*
X182115054Y-92301861D01*
X181902570Y-92472703D01*
X181727316Y-92681562D01*
X181595968Y-92920484D01*
X181513528Y-93180368D01*
X181483136Y-93451316D01*
X181483000Y-93470821D01*
X181483000Y-94489179D01*
X181509606Y-94760524D01*
X181588409Y-95021534D01*
X181716409Y-95262267D01*
X181888730Y-95473553D01*
X182098808Y-95647344D01*
X182338641Y-95777022D01*
X182599094Y-95857646D01*
X182870247Y-95886145D01*
X183141772Y-95861434D01*
X183403325Y-95784455D01*
X183644946Y-95658139D01*
X183857430Y-95487297D01*
X184032684Y-95278438D01*
X184150783Y-95063614D01*
X184256409Y-95262267D01*
X184428730Y-95473553D01*
X184638808Y-95647344D01*
X184878641Y-95777022D01*
X185139094Y-95857646D01*
X185410247Y-95886145D01*
X185681772Y-95861434D01*
X185943325Y-95784455D01*
X186184946Y-95658139D01*
X186397430Y-95487297D01*
X186572684Y-95278438D01*
X186690783Y-95063614D01*
X186796409Y-95262267D01*
X186950000Y-95450587D01*
X186950000Y-95573644D01*
X186505644Y-96018000D01*
X184912000Y-96018000D01*
X180955081Y-96018000D01*
X180955081Y-85921166D01*
X180883279Y-85558539D01*
X180742410Y-85216764D01*
X180537839Y-84908860D01*
X180277358Y-84646555D01*
X179970890Y-84439839D01*
X179630107Y-84296587D01*
X179267990Y-84222255D01*
X178898331Y-84219674D01*
X178535211Y-84288943D01*
X178192461Y-84427423D01*
X177883137Y-84629840D01*
X177619019Y-84888482D01*
X177410169Y-85193500D01*
X177264542Y-85533275D01*
X177187683Y-85894864D01*
X177182522Y-86264496D01*
X177249254Y-86628091D01*
X177385338Y-86971799D01*
X177585590Y-87282529D01*
X177842382Y-87548446D01*
X178145935Y-87759420D01*
X178484684Y-87907416D01*
X178845729Y-87986797D01*
X179215315Y-87994539D01*
X179579367Y-87930346D01*
X179924017Y-87796666D01*
X180236137Y-87598588D01*
X180503840Y-87343658D01*
X180716929Y-87041586D01*
X180867286Y-86703877D01*
X180949185Y-86343396D01*
X180955081Y-85921166D01*
X180955081Y-96018000D01*
X170070356Y-96018000D01*
X170205411Y-95882944D01*
X170441772Y-95861434D01*
X170703325Y-95784455D01*
X170944946Y-95658139D01*
X171157430Y-95487297D01*
X171332684Y-95278438D01*
X171450783Y-95063614D01*
X171556409Y-95262267D01*
X171728730Y-95473553D01*
X171938808Y-95647344D01*
X172178641Y-95777022D01*
X172439094Y-95857646D01*
X172710247Y-95886145D01*
X172981772Y-95861434D01*
X173243325Y-95784455D01*
X173484946Y-95658139D01*
X173697430Y-95487297D01*
X173872684Y-95278438D01*
X173990783Y-95063614D01*
X174096409Y-95262267D01*
X174268730Y-95473553D01*
X174478808Y-95647344D01*
X174718641Y-95777022D01*
X174979094Y-95857646D01*
X175250247Y-95886145D01*
X175521772Y-95861434D01*
X175783325Y-95784455D01*
X176024946Y-95658139D01*
X176237430Y-95487297D01*
X176412684Y-95278438D01*
X176544032Y-95039516D01*
X176626472Y-94779632D01*
X176656864Y-94508684D01*
X176657000Y-94489179D01*
X176657000Y-93470821D01*
X176630394Y-93199476D01*
X176551591Y-92938466D01*
X176423591Y-92697733D01*
X176251270Y-92486447D01*
X176041192Y-92312656D01*
X175801359Y-92182978D01*
X175540906Y-92102354D01*
X175269753Y-92073855D01*
X174998228Y-92098566D01*
X174736675Y-92175545D01*
X174495054Y-92301861D01*
X174282570Y-92472703D01*
X174107316Y-92681562D01*
X173989216Y-92896385D01*
X173883591Y-92697733D01*
X173711270Y-92486447D01*
X173501192Y-92312656D01*
X173261359Y-92182978D01*
X173000906Y-92102354D01*
X172729753Y-92073855D01*
X172458228Y-92098566D01*
X172196675Y-92175545D01*
X171955054Y-92301861D01*
X171742570Y-92472703D01*
X171567316Y-92681562D01*
X171449216Y-92896385D01*
X171343591Y-92697733D01*
X171190000Y-92509412D01*
X171190000Y-80208481D01*
X171332684Y-80038438D01*
X171450783Y-79823614D01*
X171556409Y-80022267D01*
X171728730Y-80233553D01*
X171938808Y-80407344D01*
X172178641Y-80537022D01*
X172439094Y-80617646D01*
X172710247Y-80646145D01*
X172981772Y-80621434D01*
X173243325Y-80544455D01*
X173484946Y-80418139D01*
X173697430Y-80247297D01*
X173872684Y-80038438D01*
X173990783Y-79823614D01*
X174096409Y-80022267D01*
X174268730Y-80233553D01*
X174478808Y-80407344D01*
X174718641Y-80537022D01*
X174979094Y-80617646D01*
X175250247Y-80646145D01*
X175521772Y-80621434D01*
X175783325Y-80544455D01*
X176024946Y-80418139D01*
X176237430Y-80247297D01*
X176412684Y-80038438D01*
X176544032Y-79799516D01*
X176626472Y-79539632D01*
X176656864Y-79268684D01*
X176657000Y-79249179D01*
X176657000Y-78230821D01*
X176630394Y-77959476D01*
X176551591Y-77698466D01*
X176423591Y-77457733D01*
X176251270Y-77246447D01*
X176041192Y-77072656D01*
X175801359Y-76942978D01*
X175540906Y-76862354D01*
X175269753Y-76833855D01*
X174998228Y-76858566D01*
X174736675Y-76935545D01*
X174495054Y-77061861D01*
X174282570Y-77232703D01*
X174107316Y-77441562D01*
X173989216Y-77656385D01*
X173883591Y-77457733D01*
X173711270Y-77246447D01*
X173501192Y-77072656D01*
X173261359Y-76942978D01*
X173000906Y-76862354D01*
X172729753Y-76833855D01*
X172458228Y-76858566D01*
X172196675Y-76935545D01*
X171955054Y-77061861D01*
X171742570Y-77232703D01*
X171567316Y-77441562D01*
X171449216Y-77656385D01*
X171343591Y-77457733D01*
X171171270Y-77246447D01*
X170961192Y-77072656D01*
X170721359Y-76942978D01*
X170460906Y-76862354D01*
X170189753Y-76833855D01*
X169918228Y-76858566D01*
X169656675Y-76935545D01*
X169415054Y-77061861D01*
X169202570Y-77232703D01*
X169027316Y-77441562D01*
X168909216Y-77656385D01*
X168803591Y-77457733D01*
X168631270Y-77246447D01*
X168421192Y-77072656D01*
X168181359Y-76942978D01*
X167920906Y-76862354D01*
X167649753Y-76833855D01*
X167378228Y-76858566D01*
X167116675Y-76935545D01*
X166875054Y-77061861D01*
X166662570Y-77232703D01*
X166487316Y-77441562D01*
X166369216Y-77656385D01*
X166263591Y-77457733D01*
X166091270Y-77246447D01*
X165881192Y-77072656D01*
X165641359Y-76942978D01*
X165380906Y-76862354D01*
X165109753Y-76833855D01*
X164838228Y-76858566D01*
X164576675Y-76935545D01*
X164335054Y-77061861D01*
X164122570Y-77232703D01*
X163947316Y-77441562D01*
X163815968Y-77680484D01*
X163733528Y-77940368D01*
X163703136Y-78211316D01*
X163703000Y-78230821D01*
X163703000Y-79249179D01*
X163729606Y-79520524D01*
X163808409Y-79781534D01*
X163936409Y-80022267D01*
X164108730Y-80233553D01*
X164318808Y-80407344D01*
X164558641Y-80537022D01*
X164819094Y-80617646D01*
X165090247Y-80646145D01*
X165361772Y-80621434D01*
X165623325Y-80544455D01*
X165864946Y-80418139D01*
X166077430Y-80247297D01*
X166252684Y-80038438D01*
X166370783Y-79823614D01*
X166476409Y-80022267D01*
X166648730Y-80233553D01*
X166858808Y-80407344D01*
X167098641Y-80537022D01*
X167359094Y-80617646D01*
X167630247Y-80646145D01*
X167901772Y-80621434D01*
X168163325Y-80544455D01*
X168404946Y-80418139D01*
X168617430Y-80247297D01*
X168792684Y-80038438D01*
X168910783Y-79823614D01*
X169016409Y-80022267D01*
X169170000Y-80210587D01*
X169170000Y-91160279D01*
X169130079Y-91100193D01*
X169000875Y-90970084D01*
X168848860Y-90867549D01*
X168811368Y-90851789D01*
X168727791Y-90768211D01*
X168727785Y-90768206D01*
X168011790Y-90052210D01*
X167948573Y-90000283D01*
X167885996Y-89947775D01*
X167881919Y-89945533D01*
X167878322Y-89942579D01*
X167806291Y-89903956D01*
X167734639Y-89864565D01*
X167730200Y-89863156D01*
X167726101Y-89860959D01*
X167647974Y-89837073D01*
X167570002Y-89812339D01*
X167565374Y-89811819D01*
X167560926Y-89810460D01*
X167479660Y-89802205D01*
X167398357Y-89793086D01*
X167389252Y-89793022D01*
X167389089Y-89793006D01*
X167388936Y-89793020D01*
X167386000Y-89793000D01*
X163920115Y-89793000D01*
X163959492Y-89704560D01*
X164000116Y-89525754D01*
X164003040Y-89316319D01*
X163967425Y-89136448D01*
X163953000Y-89101450D01*
X163953000Y-82861141D01*
X163959492Y-82846560D01*
X164000116Y-82667754D01*
X164003040Y-82458319D01*
X163967425Y-82278448D01*
X163897550Y-82108920D01*
X163796079Y-81956193D01*
X163666875Y-81826084D01*
X163514860Y-81723549D01*
X163345825Y-81652493D01*
X163166207Y-81615623D01*
X162982849Y-81614343D01*
X162802733Y-81648701D01*
X162632722Y-81717390D01*
X162479291Y-81817793D01*
X162429000Y-81867041D01*
X162429000Y-81337141D01*
X162435492Y-81322560D01*
X162476116Y-81143754D01*
X162479040Y-80934319D01*
X162443425Y-80754448D01*
X162373550Y-80584920D01*
X162272079Y-80432193D01*
X162142875Y-80302084D01*
X161990860Y-80199549D01*
X161821825Y-80128493D01*
X161642207Y-80091623D01*
X161458849Y-80090343D01*
X161278733Y-80124701D01*
X161108722Y-80193390D01*
X160955291Y-80293793D01*
X160824283Y-80422086D01*
X160720689Y-80573381D01*
X160648454Y-80741916D01*
X160621945Y-80866631D01*
X160516733Y-80886701D01*
X160346722Y-80955390D01*
X160193291Y-81055793D01*
X160062283Y-81184086D01*
X159958689Y-81335381D01*
X159886454Y-81503916D01*
X159848331Y-81683272D01*
X159845771Y-81866617D01*
X159878872Y-82046968D01*
X159897000Y-82092754D01*
X159897000Y-82383562D01*
X159754733Y-82410701D01*
X159584722Y-82479390D01*
X159431291Y-82579793D01*
X159300283Y-82708086D01*
X159196689Y-82859381D01*
X159124454Y-83027916D01*
X159086331Y-83207272D01*
X159083771Y-83390617D01*
X159116872Y-83570968D01*
X159135000Y-83616754D01*
X159135000Y-86559310D01*
X159124454Y-86583916D01*
X159086331Y-86763272D01*
X159083771Y-86946617D01*
X159116872Y-87126968D01*
X159166771Y-87253000D01*
X152707577Y-87253000D01*
X152677825Y-87240493D01*
X152498207Y-87203623D01*
X152314849Y-87202343D01*
X152134733Y-87236701D01*
X151964722Y-87305390D01*
X151811291Y-87405793D01*
X151680283Y-87534086D01*
X151576689Y-87685381D01*
X151504454Y-87853916D01*
X151466331Y-88033272D01*
X151463771Y-88216617D01*
X151496872Y-88396968D01*
X151564372Y-88567454D01*
X151663701Y-88721583D01*
X151712708Y-88772332D01*
X151680283Y-88804086D01*
X151576689Y-88955381D01*
X151504454Y-89123916D01*
X151466331Y-89303272D01*
X151463771Y-89486617D01*
X151496872Y-89666968D01*
X151564372Y-89837454D01*
X151663701Y-89991583D01*
X151791076Y-90123484D01*
X151941644Y-90228131D01*
X152109671Y-90301540D01*
X152288757Y-90340915D01*
X152472079Y-90344755D01*
X152652657Y-90312914D01*
X152703998Y-90293000D01*
X155611707Y-90293000D01*
X155568454Y-90393916D01*
X155530331Y-90573272D01*
X155527771Y-90756617D01*
X155560872Y-90936968D01*
X155628372Y-91107454D01*
X155727701Y-91261583D01*
X155855076Y-91393484D01*
X156005644Y-91498131D01*
X156173671Y-91571540D01*
X156352757Y-91610915D01*
X156536079Y-91614755D01*
X156716657Y-91582914D01*
X156767998Y-91563000D01*
X167019420Y-91563000D01*
X167476140Y-92019719D01*
X167476211Y-92019791D01*
X167540241Y-92083821D01*
X167378228Y-92098566D01*
X167116675Y-92175545D01*
X166875054Y-92301861D01*
X166662570Y-92472703D01*
X166487316Y-92681562D01*
X166369216Y-92896385D01*
X166263591Y-92697733D01*
X166091270Y-92486447D01*
X165881192Y-92312656D01*
X165641359Y-92182978D01*
X165380906Y-92102354D01*
X165109753Y-92073855D01*
X164838228Y-92098566D01*
X164576675Y-92175545D01*
X164335054Y-92301861D01*
X164122570Y-92472703D01*
X163947316Y-92681562D01*
X163815968Y-92920484D01*
X163733528Y-93180368D01*
X163703136Y-93451316D01*
X163703000Y-93470821D01*
X163703000Y-94489179D01*
X163729606Y-94760524D01*
X163796473Y-94982000D01*
X155084356Y-94982000D01*
X153622178Y-93519822D01*
X153469859Y-93394705D01*
X153296138Y-93301558D01*
X153107634Y-93243927D01*
X152911525Y-93224006D01*
X152715283Y-93242556D01*
X152526381Y-93298870D01*
X152352015Y-93390803D01*
X152198826Y-93514854D01*
X152072649Y-93666296D01*
X151978290Y-93839362D01*
X151919344Y-94027459D01*
X151898056Y-94223424D01*
X151915235Y-94419791D01*
X151970229Y-94609082D01*
X152060943Y-94784085D01*
X152183920Y-94938137D01*
X152193822Y-94948178D01*
X153951822Y-96706178D01*
X154023913Y-96765394D01*
X154095383Y-96825365D01*
X154100039Y-96827924D01*
X154104141Y-96831294D01*
X154186319Y-96875357D01*
X154268119Y-96920327D01*
X154273184Y-96921933D01*
X154277862Y-96924442D01*
X154367019Y-96951699D01*
X154456009Y-96979929D01*
X154461291Y-96980521D01*
X154466366Y-96982073D01*
X154559123Y-96991495D01*
X154651898Y-97001902D01*
X154662279Y-97001974D01*
X154662475Y-97001994D01*
X154662657Y-97001976D01*
X154666000Y-97002000D01*
X156726016Y-97002000D01*
X156724025Y-97020949D01*
X156741890Y-97217255D01*
X156797544Y-97406353D01*
X156888868Y-97581039D01*
X157012383Y-97734660D01*
X157163383Y-97861365D01*
X157336119Y-97956327D01*
X157524009Y-98015929D01*
X157719898Y-98037902D01*
X157734000Y-98038000D01*
X184912000Y-98038000D01*
X186924000Y-98038000D01*
X187016875Y-98028893D01*
X187109791Y-98020765D01*
X187114891Y-98019283D01*
X187120177Y-98018765D01*
X187209451Y-97991810D01*
X187299082Y-97965771D01*
X187303801Y-97963324D01*
X187308881Y-97961791D01*
X187391209Y-97918016D01*
X187474085Y-97875057D01*
X187478236Y-97871742D01*
X187482925Y-97869250D01*
X187555198Y-97810305D01*
X187628137Y-97752080D01*
X187635531Y-97744788D01*
X187635681Y-97744666D01*
X187635795Y-97744527D01*
X187638178Y-97742178D01*
X188674178Y-96706178D01*
X188733416Y-96634059D01*
X188793365Y-96562617D01*
X188795922Y-96557964D01*
X188799295Y-96553859D01*
X188843378Y-96471641D01*
X188888327Y-96389881D01*
X188889933Y-96384816D01*
X188892442Y-96380138D01*
X188919699Y-96290980D01*
X188947929Y-96201991D01*
X188948521Y-96196708D01*
X188950073Y-96191634D01*
X188959495Y-96098876D01*
X188969902Y-96006102D01*
X188969974Y-95995720D01*
X188969994Y-95995525D01*
X188969976Y-95995342D01*
X188970000Y-95992000D01*
X188970000Y-95448481D01*
X189112684Y-95278438D01*
X189230783Y-95063614D01*
X189336409Y-95262267D01*
X189508730Y-95473553D01*
X189718808Y-95647344D01*
X189958641Y-95777022D01*
X190219094Y-95857646D01*
X190490247Y-95886145D01*
X190761772Y-95861434D01*
X191023325Y-95784455D01*
X191264946Y-95658139D01*
X191477430Y-95487297D01*
X191652684Y-95278438D01*
X191770783Y-95063614D01*
X191876409Y-95262267D01*
X192048730Y-95473553D01*
X192258808Y-95647344D01*
X192498641Y-95777022D01*
X192759094Y-95857646D01*
X193030247Y-95886145D01*
X193301772Y-95861434D01*
X193563325Y-95784455D01*
X193804946Y-95658139D01*
X194017430Y-95487297D01*
X194192684Y-95278438D01*
X194324032Y-95039516D01*
X194406472Y-94779632D01*
X194436864Y-94508684D01*
X194437000Y-94489179D01*
X194437000Y-96851788D01*
X194370142Y-96977530D01*
X193985078Y-97449666D01*
X193515640Y-97838019D01*
X192979714Y-98127793D01*
X192397704Y-98307955D01*
X191759810Y-98375000D01*
X146027672Y-98375000D01*
X146027672Y-82143600D01*
X146027672Y-80416400D01*
X146019297Y-80313357D01*
X145965827Y-80142359D01*
X145866926Y-79992966D01*
X145730392Y-79876958D01*
X145566989Y-79803481D01*
X145389600Y-79778328D01*
X143662400Y-79778328D01*
X143559357Y-79786703D01*
X143388359Y-79840173D01*
X143238966Y-79939074D01*
X143122958Y-80075608D01*
X143055881Y-80224776D01*
X143049363Y-80216784D01*
X142824006Y-80030353D01*
X142566731Y-79891245D01*
X142287335Y-79804758D01*
X141996462Y-79774186D01*
X141705190Y-79800693D01*
X141424615Y-79883271D01*
X141165422Y-80018774D01*
X140937485Y-80202040D01*
X140749485Y-80426089D01*
X140608584Y-80682388D01*
X140520148Y-80961173D01*
X140487546Y-81251825D01*
X140487400Y-81272749D01*
X140487400Y-81287251D01*
X140515941Y-81578331D01*
X140600475Y-81858323D01*
X140737784Y-82116564D01*
X140922637Y-82343216D01*
X141147994Y-82529647D01*
X141183949Y-82549088D01*
X141165422Y-82558774D01*
X140937485Y-82742040D01*
X140749485Y-82966089D01*
X140608584Y-83222388D01*
X140520148Y-83501173D01*
X140487546Y-83791825D01*
X140487400Y-83812749D01*
X140487400Y-83827251D01*
X140515941Y-84118331D01*
X140600475Y-84398323D01*
X140737784Y-84656564D01*
X140922637Y-84883216D01*
X141147994Y-85069647D01*
X141183949Y-85089088D01*
X141165422Y-85098774D01*
X140937485Y-85282040D01*
X140749485Y-85506089D01*
X140608584Y-85762388D01*
X140520148Y-86041173D01*
X140487546Y-86331825D01*
X140487400Y-86352749D01*
X140487400Y-86367251D01*
X140515941Y-86658331D01*
X140600475Y-86938323D01*
X140737784Y-87196564D01*
X140922637Y-87423216D01*
X141147994Y-87609647D01*
X141183949Y-87629088D01*
X141165422Y-87638774D01*
X140937485Y-87822040D01*
X140749485Y-88046089D01*
X140608584Y-88302388D01*
X140520148Y-88581173D01*
X140487546Y-88871825D01*
X140487400Y-88892749D01*
X140487400Y-88907251D01*
X140515941Y-89198331D01*
X140600475Y-89478323D01*
X140737784Y-89736564D01*
X140922637Y-89963216D01*
X141147994Y-90149647D01*
X141183949Y-90169088D01*
X141165422Y-90178774D01*
X140937485Y-90362040D01*
X140749485Y-90586089D01*
X140608584Y-90842388D01*
X140520148Y-91121173D01*
X140487546Y-91411825D01*
X140487400Y-91432749D01*
X140487400Y-91447251D01*
X140515941Y-91738331D01*
X140600475Y-92018323D01*
X140737784Y-92276564D01*
X140922637Y-92503216D01*
X141147994Y-92689647D01*
X141405269Y-92828755D01*
X141684665Y-92915242D01*
X141975538Y-92945814D01*
X142266810Y-92919307D01*
X142547385Y-92836729D01*
X142806578Y-92701226D01*
X143034515Y-92517960D01*
X143222515Y-92293911D01*
X143255299Y-92234276D01*
X143277784Y-92276564D01*
X143462637Y-92503216D01*
X143687994Y-92689647D01*
X143945269Y-92828755D01*
X144224665Y-92915242D01*
X144515538Y-92945814D01*
X144806810Y-92919307D01*
X145087385Y-92836729D01*
X145346578Y-92701226D01*
X145574515Y-92517960D01*
X145762515Y-92293911D01*
X145903416Y-92037612D01*
X145991852Y-91758827D01*
X146024454Y-91468175D01*
X146024600Y-91447251D01*
X146024600Y-91432749D01*
X145996059Y-91141669D01*
X145911525Y-90861677D01*
X145774216Y-90603436D01*
X145589363Y-90376784D01*
X145364006Y-90190353D01*
X145328050Y-90170911D01*
X145346578Y-90161226D01*
X145574515Y-89977960D01*
X145762515Y-89753911D01*
X145903416Y-89497612D01*
X145991852Y-89218827D01*
X146024454Y-88928175D01*
X146024600Y-88907251D01*
X146024600Y-88892749D01*
X145996059Y-88601669D01*
X145911525Y-88321677D01*
X145774216Y-88063436D01*
X145589363Y-87836784D01*
X145364006Y-87650353D01*
X145328050Y-87630911D01*
X145346578Y-87621226D01*
X145574515Y-87437960D01*
X145762515Y-87213911D01*
X145903416Y-86957612D01*
X145991852Y-86678827D01*
X146024454Y-86388175D01*
X146024600Y-86367251D01*
X146024600Y-86352749D01*
X145996059Y-86061669D01*
X145911525Y-85781677D01*
X145774216Y-85523436D01*
X145589363Y-85296784D01*
X145364006Y-85110353D01*
X145321466Y-85087351D01*
X145536293Y-84926854D01*
X145732817Y-84708488D01*
X145882964Y-84455978D01*
X145980963Y-84179027D01*
X145860464Y-83947000D01*
X144653000Y-83947000D01*
X144653000Y-83967000D01*
X144399000Y-83967000D01*
X144399000Y-83947000D01*
X144379000Y-83947000D01*
X144379000Y-83693000D01*
X144399000Y-83693000D01*
X144399000Y-83673000D01*
X144653000Y-83673000D01*
X144653000Y-83693000D01*
X145860464Y-83693000D01*
X145980963Y-83460973D01*
X145882964Y-83184022D01*
X145732817Y-82931512D01*
X145568952Y-82749435D01*
X145663641Y-82719827D01*
X145813034Y-82620926D01*
X145929042Y-82484392D01*
X146002519Y-82320989D01*
X146027672Y-82143600D01*
X146027672Y-98375000D01*
X142273505Y-98375000D01*
X141633657Y-98312262D01*
X141050405Y-98136168D01*
X140512469Y-97850142D01*
X140040333Y-97465078D01*
X139651980Y-96995640D01*
X139362206Y-96459714D01*
X139182044Y-95877704D01*
X139115000Y-95239810D01*
X139115000Y-77503504D01*
X139177737Y-76863655D01*
X139353831Y-76280405D01*
X139639855Y-75742470D01*
X140024921Y-75270333D01*
X140494359Y-74881980D01*
X141030285Y-74592206D01*
X141612290Y-74412045D01*
X142250188Y-74345000D01*
X191736495Y-74345000D01*
X192376344Y-74407737D01*
X192959594Y-74583831D01*
X193497529Y-74869855D01*
X193969666Y-75254921D01*
X194358019Y-75724359D01*
X194647793Y-76260285D01*
X194827954Y-76842290D01*
X194895000Y-77480188D01*
X194895000Y-95216494D01*
X194895000Y-95216494D01*
G37*
X194895000Y-95216494D02*
X194832262Y-95856342D01*
X194656168Y-96439594D01*
X194437000Y-96851788D01*
X194437000Y-94489179D01*
X194437000Y-93470821D01*
X194410394Y-93199476D01*
X194331591Y-92938466D01*
X194203591Y-92697733D01*
X194031270Y-92486447D01*
X193821192Y-92312656D01*
X193581359Y-92182978D01*
X193320906Y-92102354D01*
X193049753Y-92073855D01*
X192778228Y-92098566D01*
X192516675Y-92175545D01*
X192275054Y-92301861D01*
X192062570Y-92472703D01*
X191887316Y-92681562D01*
X191769216Y-92896385D01*
X191663591Y-92697733D01*
X191491270Y-92486447D01*
X191281192Y-92312656D01*
X191041359Y-92182978D01*
X190780906Y-92102354D01*
X190509753Y-92073855D01*
X190238228Y-92098566D01*
X189976675Y-92175545D01*
X189735054Y-92301861D01*
X189522570Y-92472703D01*
X189347316Y-92681562D01*
X189229216Y-92896385D01*
X189123591Y-92697733D01*
X188970000Y-92509412D01*
X188970000Y-80208481D01*
X189112684Y-80038438D01*
X189230783Y-79823614D01*
X189336409Y-80022267D01*
X189508730Y-80233553D01*
X189718808Y-80407344D01*
X189958641Y-80537022D01*
X190219094Y-80617646D01*
X190490247Y-80646145D01*
X190761772Y-80621434D01*
X191023325Y-80544455D01*
X191264946Y-80418139D01*
X191477430Y-80247297D01*
X191652684Y-80038438D01*
X191770783Y-79823614D01*
X191876409Y-80022267D01*
X192048730Y-80233553D01*
X192258808Y-80407344D01*
X192498641Y-80537022D01*
X192759094Y-80617646D01*
X193030247Y-80646145D01*
X193301772Y-80621434D01*
X193563325Y-80544455D01*
X193804946Y-80418139D01*
X194017430Y-80247297D01*
X194192684Y-80038438D01*
X194324032Y-79799516D01*
X194406472Y-79539632D01*
X194436864Y-79268684D01*
X194437000Y-79249179D01*
X194437000Y-78230821D01*
X194410394Y-77959476D01*
X194331591Y-77698466D01*
X194203591Y-77457733D01*
X194031270Y-77246447D01*
X193821192Y-77072656D01*
X193581359Y-76942978D01*
X193320906Y-76862354D01*
X193049753Y-76833855D01*
X192778228Y-76858566D01*
X192516675Y-76935545D01*
X192275054Y-77061861D01*
X192062570Y-77232703D01*
X191887316Y-77441562D01*
X191769216Y-77656385D01*
X191663591Y-77457733D01*
X191491270Y-77246447D01*
X191281192Y-77072656D01*
X191041359Y-76942978D01*
X190780906Y-76862354D01*
X190509753Y-76833855D01*
X190238228Y-76858566D01*
X189976675Y-76935545D01*
X189735054Y-77061861D01*
X189522570Y-77232703D01*
X189347316Y-77441562D01*
X189229216Y-77656385D01*
X189123591Y-77457733D01*
X188951270Y-77246447D01*
X188741192Y-77072656D01*
X188501359Y-76942978D01*
X188240906Y-76862354D01*
X187969753Y-76833855D01*
X187698228Y-76858566D01*
X187436675Y-76935545D01*
X187195054Y-77061861D01*
X186982570Y-77232703D01*
X186807316Y-77441562D01*
X186689216Y-77656385D01*
X186583591Y-77457733D01*
X186411270Y-77246447D01*
X186201192Y-77072656D01*
X185961359Y-76942978D01*
X185700906Y-76862354D01*
X185429753Y-76833855D01*
X185158228Y-76858566D01*
X184896675Y-76935545D01*
X184655054Y-77061861D01*
X184442570Y-77232703D01*
X184267316Y-77441562D01*
X184149216Y-77656385D01*
X184043591Y-77457733D01*
X183871270Y-77246447D01*
X183661192Y-77072656D01*
X183421359Y-76942978D01*
X183160906Y-76862354D01*
X182889753Y-76833855D01*
X182618228Y-76858566D01*
X182356675Y-76935545D01*
X182115054Y-77061861D01*
X181902570Y-77232703D01*
X181727316Y-77441562D01*
X181595968Y-77680484D01*
X181513528Y-77940368D01*
X181483136Y-78211316D01*
X181483000Y-78230821D01*
X181483000Y-79249179D01*
X181509606Y-79520524D01*
X181588409Y-79781534D01*
X181716409Y-80022267D01*
X181888730Y-80233553D01*
X182098808Y-80407344D01*
X182338641Y-80537022D01*
X182599094Y-80617646D01*
X182870247Y-80646145D01*
X183141772Y-80621434D01*
X183403325Y-80544455D01*
X183644946Y-80418139D01*
X183857430Y-80247297D01*
X184032684Y-80038438D01*
X184150783Y-79823614D01*
X184256409Y-80022267D01*
X184428730Y-80233553D01*
X184638808Y-80407344D01*
X184878641Y-80537022D01*
X185139094Y-80617646D01*
X185410247Y-80646145D01*
X185681772Y-80621434D01*
X185943325Y-80544455D01*
X186184946Y-80418139D01*
X186397430Y-80247297D01*
X186572684Y-80038438D01*
X186690783Y-79823614D01*
X186796409Y-80022267D01*
X186950000Y-80210587D01*
X186950000Y-92511518D01*
X186807316Y-92681562D01*
X186689216Y-92896385D01*
X186583591Y-92697733D01*
X186411270Y-92486447D01*
X186201192Y-92312656D01*
X185961359Y-92182978D01*
X185700906Y-92102354D01*
X185429753Y-92073855D01*
X185158228Y-92098566D01*
X184896675Y-92175545D01*
X184655054Y-92301861D01*
X184442570Y-92472703D01*
X184267316Y-92681562D01*
X184149216Y-92896385D01*
X184043591Y-92697733D01*
X183871270Y-92486447D01*
X183661192Y-92312656D01*
X183421359Y-92182978D01*
X183160906Y-92102354D01*
X182889753Y-92073855D01*
X182618228Y-92098566D01*
X182356675Y-92175545D01*
X182115054Y-92301861D01*
X181902570Y-92472703D01*
X181727316Y-92681562D01*
X181595968Y-92920484D01*
X181513528Y-93180368D01*
X181483136Y-93451316D01*
X181483000Y-93470821D01*
X181483000Y-94489179D01*
X181509606Y-94760524D01*
X181588409Y-95021534D01*
X181716409Y-95262267D01*
X181888730Y-95473553D01*
X182098808Y-95647344D01*
X182338641Y-95777022D01*
X182599094Y-95857646D01*
X182870247Y-95886145D01*
X183141772Y-95861434D01*
X183403325Y-95784455D01*
X183644946Y-95658139D01*
X183857430Y-95487297D01*
X184032684Y-95278438D01*
X184150783Y-95063614D01*
X184256409Y-95262267D01*
X184428730Y-95473553D01*
X184638808Y-95647344D01*
X184878641Y-95777022D01*
X185139094Y-95857646D01*
X185410247Y-95886145D01*
X185681772Y-95861434D01*
X185943325Y-95784455D01*
X186184946Y-95658139D01*
X186397430Y-95487297D01*
X186572684Y-95278438D01*
X186690783Y-95063614D01*
X186796409Y-95262267D01*
X186950000Y-95450587D01*
X186950000Y-95573644D01*
X186505644Y-96018000D01*
X184912000Y-96018000D01*
X180955081Y-96018000D01*
X180955081Y-85921166D01*
X180883279Y-85558539D01*
X180742410Y-85216764D01*
X180537839Y-84908860D01*
X180277358Y-84646555D01*
X179970890Y-84439839D01*
X179630107Y-84296587D01*
X179267990Y-84222255D01*
X178898331Y-84219674D01*
X178535211Y-84288943D01*
X178192461Y-84427423D01*
X177883137Y-84629840D01*
X177619019Y-84888482D01*
X177410169Y-85193500D01*
X177264542Y-85533275D01*
X177187683Y-85894864D01*
X177182522Y-86264496D01*
X177249254Y-86628091D01*
X177385338Y-86971799D01*
X177585590Y-87282529D01*
X177842382Y-87548446D01*
X178145935Y-87759420D01*
X178484684Y-87907416D01*
X178845729Y-87986797D01*
X179215315Y-87994539D01*
X179579367Y-87930346D01*
X179924017Y-87796666D01*
X180236137Y-87598588D01*
X180503840Y-87343658D01*
X180716929Y-87041586D01*
X180867286Y-86703877D01*
X180949185Y-86343396D01*
X180955081Y-85921166D01*
X180955081Y-96018000D01*
X170070356Y-96018000D01*
X170205411Y-95882944D01*
X170441772Y-95861434D01*
X170703325Y-95784455D01*
X170944946Y-95658139D01*
X171157430Y-95487297D01*
X171332684Y-95278438D01*
X171450783Y-95063614D01*
X171556409Y-95262267D01*
X171728730Y-95473553D01*
X171938808Y-95647344D01*
X172178641Y-95777022D01*
X172439094Y-95857646D01*
X172710247Y-95886145D01*
X172981772Y-95861434D01*
X173243325Y-95784455D01*
X173484946Y-95658139D01*
X173697430Y-95487297D01*
X173872684Y-95278438D01*
X173990783Y-95063614D01*
X174096409Y-95262267D01*
X174268730Y-95473553D01*
X174478808Y-95647344D01*
X174718641Y-95777022D01*
X174979094Y-95857646D01*
X175250247Y-95886145D01*
X175521772Y-95861434D01*
X175783325Y-95784455D01*
X176024946Y-95658139D01*
X176237430Y-95487297D01*
X176412684Y-95278438D01*
X176544032Y-95039516D01*
X176626472Y-94779632D01*
X176656864Y-94508684D01*
X176657000Y-94489179D01*
X176657000Y-93470821D01*
X176630394Y-93199476D01*
X176551591Y-92938466D01*
X176423591Y-92697733D01*
X176251270Y-92486447D01*
X176041192Y-92312656D01*
X175801359Y-92182978D01*
X175540906Y-92102354D01*
X175269753Y-92073855D01*
X174998228Y-92098566D01*
X174736675Y-92175545D01*
X174495054Y-92301861D01*
X174282570Y-92472703D01*
X174107316Y-92681562D01*
X173989216Y-92896385D01*
X173883591Y-92697733D01*
X173711270Y-92486447D01*
X173501192Y-92312656D01*
X173261359Y-92182978D01*
X173000906Y-92102354D01*
X172729753Y-92073855D01*
X172458228Y-92098566D01*
X172196675Y-92175545D01*
X171955054Y-92301861D01*
X171742570Y-92472703D01*
X171567316Y-92681562D01*
X171449216Y-92896385D01*
X171343591Y-92697733D01*
X171190000Y-92509412D01*
X171190000Y-80208481D01*
X171332684Y-80038438D01*
X171450783Y-79823614D01*
X171556409Y-80022267D01*
X171728730Y-80233553D01*
X171938808Y-80407344D01*
X172178641Y-80537022D01*
X172439094Y-80617646D01*
X172710247Y-80646145D01*
X172981772Y-80621434D01*
X173243325Y-80544455D01*
X173484946Y-80418139D01*
X173697430Y-80247297D01*
X173872684Y-80038438D01*
X173990783Y-79823614D01*
X174096409Y-80022267D01*
X174268730Y-80233553D01*
X174478808Y-80407344D01*
X174718641Y-80537022D01*
X174979094Y-80617646D01*
X175250247Y-80646145D01*
X175521772Y-80621434D01*
X175783325Y-80544455D01*
X176024946Y-80418139D01*
X176237430Y-80247297D01*
X176412684Y-80038438D01*
X176544032Y-79799516D01*
X176626472Y-79539632D01*
X176656864Y-79268684D01*
X176657000Y-79249179D01*
X176657000Y-78230821D01*
X176630394Y-77959476D01*
X176551591Y-77698466D01*
X176423591Y-77457733D01*
X176251270Y-77246447D01*
X176041192Y-77072656D01*
X175801359Y-76942978D01*
X175540906Y-76862354D01*
X175269753Y-76833855D01*
X174998228Y-76858566D01*
X174736675Y-76935545D01*
X174495054Y-77061861D01*
X174282570Y-77232703D01*
X174107316Y-77441562D01*
X173989216Y-77656385D01*
X173883591Y-77457733D01*
X173711270Y-77246447D01*
X173501192Y-77072656D01*
X173261359Y-76942978D01*
X173000906Y-76862354D01*
X172729753Y-76833855D01*
X172458228Y-76858566D01*
X172196675Y-76935545D01*
X171955054Y-77061861D01*
X171742570Y-77232703D01*
X171567316Y-77441562D01*
X171449216Y-77656385D01*
X171343591Y-77457733D01*
X171171270Y-77246447D01*
X170961192Y-77072656D01*
X170721359Y-76942978D01*
X170460906Y-76862354D01*
X170189753Y-76833855D01*
X169918228Y-76858566D01*
X169656675Y-76935545D01*
X169415054Y-77061861D01*
X169202570Y-77232703D01*
X169027316Y-77441562D01*
X168909216Y-77656385D01*
X168803591Y-77457733D01*
X168631270Y-77246447D01*
X168421192Y-77072656D01*
X168181359Y-76942978D01*
X167920906Y-76862354D01*
X167649753Y-76833855D01*
X167378228Y-76858566D01*
X167116675Y-76935545D01*
X166875054Y-77061861D01*
X166662570Y-77232703D01*
X166487316Y-77441562D01*
X166369216Y-77656385D01*
X166263591Y-77457733D01*
X166091270Y-77246447D01*
X165881192Y-77072656D01*
X165641359Y-76942978D01*
X165380906Y-76862354D01*
X165109753Y-76833855D01*
X164838228Y-76858566D01*
X164576675Y-76935545D01*
X164335054Y-77061861D01*
X164122570Y-77232703D01*
X163947316Y-77441562D01*
X163815968Y-77680484D01*
X163733528Y-77940368D01*
X163703136Y-78211316D01*
X163703000Y-78230821D01*
X163703000Y-79249179D01*
X163729606Y-79520524D01*
X163808409Y-79781534D01*
X163936409Y-80022267D01*
X164108730Y-80233553D01*
X164318808Y-80407344D01*
X164558641Y-80537022D01*
X164819094Y-80617646D01*
X165090247Y-80646145D01*
X165361772Y-80621434D01*
X165623325Y-80544455D01*
X165864946Y-80418139D01*
X166077430Y-80247297D01*
X166252684Y-80038438D01*
X166370783Y-79823614D01*
X166476409Y-80022267D01*
X166648730Y-80233553D01*
X166858808Y-80407344D01*
X167098641Y-80537022D01*
X167359094Y-80617646D01*
X167630247Y-80646145D01*
X167901772Y-80621434D01*
X168163325Y-80544455D01*
X168404946Y-80418139D01*
X168617430Y-80247297D01*
X168792684Y-80038438D01*
X168910783Y-79823614D01*
X169016409Y-80022267D01*
X169170000Y-80210587D01*
X169170000Y-91160279D01*
X169130079Y-91100193D01*
X169000875Y-90970084D01*
X168848860Y-90867549D01*
X168811368Y-90851789D01*
X168727791Y-90768211D01*
X168727785Y-90768206D01*
X168011790Y-90052210D01*
X167948573Y-90000283D01*
X167885996Y-89947775D01*
X167881919Y-89945533D01*
X167878322Y-89942579D01*
X167806291Y-89903956D01*
X167734639Y-89864565D01*
X167730200Y-89863156D01*
X167726101Y-89860959D01*
X167647974Y-89837073D01*
X167570002Y-89812339D01*
X167565374Y-89811819D01*
X167560926Y-89810460D01*
X167479660Y-89802205D01*
X167398357Y-89793086D01*
X167389252Y-89793022D01*
X167389089Y-89793006D01*
X167388936Y-89793020D01*
X167386000Y-89793000D01*
X163920115Y-89793000D01*
X163959492Y-89704560D01*
X164000116Y-89525754D01*
X164003040Y-89316319D01*
X163967425Y-89136448D01*
X163953000Y-89101450D01*
X163953000Y-82861141D01*
X163959492Y-82846560D01*
X164000116Y-82667754D01*
X164003040Y-82458319D01*
X163967425Y-82278448D01*
X163897550Y-82108920D01*
X163796079Y-81956193D01*
X163666875Y-81826084D01*
X163514860Y-81723549D01*
X163345825Y-81652493D01*
X163166207Y-81615623D01*
X162982849Y-81614343D01*
X162802733Y-81648701D01*
X162632722Y-81717390D01*
X162479291Y-81817793D01*
X162429000Y-81867041D01*
X162429000Y-81337141D01*
X162435492Y-81322560D01*
X162476116Y-81143754D01*
X162479040Y-80934319D01*
X162443425Y-80754448D01*
X162373550Y-80584920D01*
X162272079Y-80432193D01*
X162142875Y-80302084D01*
X161990860Y-80199549D01*
X161821825Y-80128493D01*
X161642207Y-80091623D01*
X161458849Y-80090343D01*
X161278733Y-80124701D01*
X161108722Y-80193390D01*
X160955291Y-80293793D01*
X160824283Y-80422086D01*
X160720689Y-80573381D01*
X160648454Y-80741916D01*
X160621945Y-80866631D01*
X160516733Y-80886701D01*
X160346722Y-80955390D01*
X160193291Y-81055793D01*
X160062283Y-81184086D01*
X159958689Y-81335381D01*
X159886454Y-81503916D01*
X159848331Y-81683272D01*
X159845771Y-81866617D01*
X159878872Y-82046968D01*
X159897000Y-82092754D01*
X159897000Y-82383562D01*
X159754733Y-82410701D01*
X159584722Y-82479390D01*
X159431291Y-82579793D01*
X159300283Y-82708086D01*
X159196689Y-82859381D01*
X159124454Y-83027916D01*
X159086331Y-83207272D01*
X159083771Y-83390617D01*
X159116872Y-83570968D01*
X159135000Y-83616754D01*
X159135000Y-86559310D01*
X159124454Y-86583916D01*
X159086331Y-86763272D01*
X159083771Y-86946617D01*
X159116872Y-87126968D01*
X159166771Y-87253000D01*
X152707577Y-87253000D01*
X152677825Y-87240493D01*
X152498207Y-87203623D01*
X152314849Y-87202343D01*
X152134733Y-87236701D01*
X151964722Y-87305390D01*
X151811291Y-87405793D01*
X151680283Y-87534086D01*
X151576689Y-87685381D01*
X151504454Y-87853916D01*
X151466331Y-88033272D01*
X151463771Y-88216617D01*
X151496872Y-88396968D01*
X151564372Y-88567454D01*
X151663701Y-88721583D01*
X151712708Y-88772332D01*
X151680283Y-88804086D01*
X151576689Y-88955381D01*
X151504454Y-89123916D01*
X151466331Y-89303272D01*
X151463771Y-89486617D01*
X151496872Y-89666968D01*
X151564372Y-89837454D01*
X151663701Y-89991583D01*
X151791076Y-90123484D01*
X151941644Y-90228131D01*
X152109671Y-90301540D01*
X152288757Y-90340915D01*
X152472079Y-90344755D01*
X152652657Y-90312914D01*
X152703998Y-90293000D01*
X155611707Y-90293000D01*
X155568454Y-90393916D01*
X155530331Y-90573272D01*
X155527771Y-90756617D01*
X155560872Y-90936968D01*
X155628372Y-91107454D01*
X155727701Y-91261583D01*
X155855076Y-91393484D01*
X156005644Y-91498131D01*
X156173671Y-91571540D01*
X156352757Y-91610915D01*
X156536079Y-91614755D01*
X156716657Y-91582914D01*
X156767998Y-91563000D01*
X167019420Y-91563000D01*
X167476140Y-92019719D01*
X167476211Y-92019791D01*
X167540241Y-92083821D01*
X167378228Y-92098566D01*
X167116675Y-92175545D01*
X166875054Y-92301861D01*
X166662570Y-92472703D01*
X166487316Y-92681562D01*
X166369216Y-92896385D01*
X166263591Y-92697733D01*
X166091270Y-92486447D01*
X165881192Y-92312656D01*
X165641359Y-92182978D01*
X165380906Y-92102354D01*
X165109753Y-92073855D01*
X164838228Y-92098566D01*
X164576675Y-92175545D01*
X164335054Y-92301861D01*
X164122570Y-92472703D01*
X163947316Y-92681562D01*
X163815968Y-92920484D01*
X163733528Y-93180368D01*
X163703136Y-93451316D01*
X163703000Y-93470821D01*
X163703000Y-94489179D01*
X163729606Y-94760524D01*
X163796473Y-94982000D01*
X155084356Y-94982000D01*
X153622178Y-93519822D01*
X153469859Y-93394705D01*
X153296138Y-93301558D01*
X153107634Y-93243927D01*
X152911525Y-93224006D01*
X152715283Y-93242556D01*
X152526381Y-93298870D01*
X152352015Y-93390803D01*
X152198826Y-93514854D01*
X152072649Y-93666296D01*
X151978290Y-93839362D01*
X151919344Y-94027459D01*
X151898056Y-94223424D01*
X151915235Y-94419791D01*
X151970229Y-94609082D01*
X152060943Y-94784085D01*
X152183920Y-94938137D01*
X152193822Y-94948178D01*
X153951822Y-96706178D01*
X154023913Y-96765394D01*
X154095383Y-96825365D01*
X154100039Y-96827924D01*
X154104141Y-96831294D01*
X154186319Y-96875357D01*
X154268119Y-96920327D01*
X154273184Y-96921933D01*
X154277862Y-96924442D01*
X154367019Y-96951699D01*
X154456009Y-96979929D01*
X154461291Y-96980521D01*
X154466366Y-96982073D01*
X154559123Y-96991495D01*
X154651898Y-97001902D01*
X154662279Y-97001974D01*
X154662475Y-97001994D01*
X154662657Y-97001976D01*
X154666000Y-97002000D01*
X156726016Y-97002000D01*
X156724025Y-97020949D01*
X156741890Y-97217255D01*
X156797544Y-97406353D01*
X156888868Y-97581039D01*
X157012383Y-97734660D01*
X157163383Y-97861365D01*
X157336119Y-97956327D01*
X157524009Y-98015929D01*
X157719898Y-98037902D01*
X157734000Y-98038000D01*
X184912000Y-98038000D01*
X186924000Y-98038000D01*
X187016875Y-98028893D01*
X187109791Y-98020765D01*
X187114891Y-98019283D01*
X187120177Y-98018765D01*
X187209451Y-97991810D01*
X187299082Y-97965771D01*
X187303801Y-97963324D01*
X187308881Y-97961791D01*
X187391209Y-97918016D01*
X187474085Y-97875057D01*
X187478236Y-97871742D01*
X187482925Y-97869250D01*
X187555198Y-97810305D01*
X187628137Y-97752080D01*
X187635531Y-97744788D01*
X187635681Y-97744666D01*
X187635795Y-97744527D01*
X187638178Y-97742178D01*
X188674178Y-96706178D01*
X188733416Y-96634059D01*
X188793365Y-96562617D01*
X188795922Y-96557964D01*
X188799295Y-96553859D01*
X188843378Y-96471641D01*
X188888327Y-96389881D01*
X188889933Y-96384816D01*
X188892442Y-96380138D01*
X188919699Y-96290980D01*
X188947929Y-96201991D01*
X188948521Y-96196708D01*
X188950073Y-96191634D01*
X188959495Y-96098876D01*
X188969902Y-96006102D01*
X188969974Y-95995720D01*
X188969994Y-95995525D01*
X188969976Y-95995342D01*
X188970000Y-95992000D01*
X188970000Y-95448481D01*
X189112684Y-95278438D01*
X189230783Y-95063614D01*
X189336409Y-95262267D01*
X189508730Y-95473553D01*
X189718808Y-95647344D01*
X189958641Y-95777022D01*
X190219094Y-95857646D01*
X190490247Y-95886145D01*
X190761772Y-95861434D01*
X191023325Y-95784455D01*
X191264946Y-95658139D01*
X191477430Y-95487297D01*
X191652684Y-95278438D01*
X191770783Y-95063614D01*
X191876409Y-95262267D01*
X192048730Y-95473553D01*
X192258808Y-95647344D01*
X192498641Y-95777022D01*
X192759094Y-95857646D01*
X193030247Y-95886145D01*
X193301772Y-95861434D01*
X193563325Y-95784455D01*
X193804946Y-95658139D01*
X194017430Y-95487297D01*
X194192684Y-95278438D01*
X194324032Y-95039516D01*
X194406472Y-94779632D01*
X194436864Y-94508684D01*
X194437000Y-94489179D01*
X194437000Y-96851788D01*
X194370142Y-96977530D01*
X193985078Y-97449666D01*
X193515640Y-97838019D01*
X192979714Y-98127793D01*
X192397704Y-98307955D01*
X191759810Y-98375000D01*
X146027672Y-98375000D01*
X146027672Y-82143600D01*
X146027672Y-80416400D01*
X146019297Y-80313357D01*
X145965827Y-80142359D01*
X145866926Y-79992966D01*
X145730392Y-79876958D01*
X145566989Y-79803481D01*
X145389600Y-79778328D01*
X143662400Y-79778328D01*
X143559357Y-79786703D01*
X143388359Y-79840173D01*
X143238966Y-79939074D01*
X143122958Y-80075608D01*
X143055881Y-80224776D01*
X143049363Y-80216784D01*
X142824006Y-80030353D01*
X142566731Y-79891245D01*
X142287335Y-79804758D01*
X141996462Y-79774186D01*
X141705190Y-79800693D01*
X141424615Y-79883271D01*
X141165422Y-80018774D01*
X140937485Y-80202040D01*
X140749485Y-80426089D01*
X140608584Y-80682388D01*
X140520148Y-80961173D01*
X140487546Y-81251825D01*
X140487400Y-81272749D01*
X140487400Y-81287251D01*
X140515941Y-81578331D01*
X140600475Y-81858323D01*
X140737784Y-82116564D01*
X140922637Y-82343216D01*
X141147994Y-82529647D01*
X141183949Y-82549088D01*
X141165422Y-82558774D01*
X140937485Y-82742040D01*
X140749485Y-82966089D01*
X140608584Y-83222388D01*
X140520148Y-83501173D01*
X140487546Y-83791825D01*
X140487400Y-83812749D01*
X140487400Y-83827251D01*
X140515941Y-84118331D01*
X140600475Y-84398323D01*
X140737784Y-84656564D01*
X140922637Y-84883216D01*
X141147994Y-85069647D01*
X141183949Y-85089088D01*
X141165422Y-85098774D01*
X140937485Y-85282040D01*
X140749485Y-85506089D01*
X140608584Y-85762388D01*
X140520148Y-86041173D01*
X140487546Y-86331825D01*
X140487400Y-86352749D01*
X140487400Y-86367251D01*
X140515941Y-86658331D01*
X140600475Y-86938323D01*
X140737784Y-87196564D01*
X140922637Y-87423216D01*
X141147994Y-87609647D01*
X141183949Y-87629088D01*
X141165422Y-87638774D01*
X140937485Y-87822040D01*
X140749485Y-88046089D01*
X140608584Y-88302388D01*
X140520148Y-88581173D01*
X140487546Y-88871825D01*
X140487400Y-88892749D01*
X140487400Y-88907251D01*
X140515941Y-89198331D01*
X140600475Y-89478323D01*
X140737784Y-89736564D01*
X140922637Y-89963216D01*
X141147994Y-90149647D01*
X141183949Y-90169088D01*
X141165422Y-90178774D01*
X140937485Y-90362040D01*
X140749485Y-90586089D01*
X140608584Y-90842388D01*
X140520148Y-91121173D01*
X140487546Y-91411825D01*
X140487400Y-91432749D01*
X140487400Y-91447251D01*
X140515941Y-91738331D01*
X140600475Y-92018323D01*
X140737784Y-92276564D01*
X140922637Y-92503216D01*
X141147994Y-92689647D01*
X141405269Y-92828755D01*
X141684665Y-92915242D01*
X141975538Y-92945814D01*
X142266810Y-92919307D01*
X142547385Y-92836729D01*
X142806578Y-92701226D01*
X143034515Y-92517960D01*
X143222515Y-92293911D01*
X143255299Y-92234276D01*
X143277784Y-92276564D01*
X143462637Y-92503216D01*
X143687994Y-92689647D01*
X143945269Y-92828755D01*
X144224665Y-92915242D01*
X144515538Y-92945814D01*
X144806810Y-92919307D01*
X145087385Y-92836729D01*
X145346578Y-92701226D01*
X145574515Y-92517960D01*
X145762515Y-92293911D01*
X145903416Y-92037612D01*
X145991852Y-91758827D01*
X146024454Y-91468175D01*
X146024600Y-91447251D01*
X146024600Y-91432749D01*
X145996059Y-91141669D01*
X145911525Y-90861677D01*
X145774216Y-90603436D01*
X145589363Y-90376784D01*
X145364006Y-90190353D01*
X145328050Y-90170911D01*
X145346578Y-90161226D01*
X145574515Y-89977960D01*
X145762515Y-89753911D01*
X145903416Y-89497612D01*
X145991852Y-89218827D01*
X146024454Y-88928175D01*
X146024600Y-88907251D01*
X146024600Y-88892749D01*
X145996059Y-88601669D01*
X145911525Y-88321677D01*
X145774216Y-88063436D01*
X145589363Y-87836784D01*
X145364006Y-87650353D01*
X145328050Y-87630911D01*
X145346578Y-87621226D01*
X145574515Y-87437960D01*
X145762515Y-87213911D01*
X145903416Y-86957612D01*
X145991852Y-86678827D01*
X146024454Y-86388175D01*
X146024600Y-86367251D01*
X146024600Y-86352749D01*
X145996059Y-86061669D01*
X145911525Y-85781677D01*
X145774216Y-85523436D01*
X145589363Y-85296784D01*
X145364006Y-85110353D01*
X145321466Y-85087351D01*
X145536293Y-84926854D01*
X145732817Y-84708488D01*
X145882964Y-84455978D01*
X145980963Y-84179027D01*
X145860464Y-83947000D01*
X144653000Y-83947000D01*
X144653000Y-83967000D01*
X144399000Y-83967000D01*
X144399000Y-83947000D01*
X144379000Y-83947000D01*
X144379000Y-83693000D01*
X144399000Y-83693000D01*
X144399000Y-83673000D01*
X144653000Y-83673000D01*
X144653000Y-83693000D01*
X145860464Y-83693000D01*
X145980963Y-83460973D01*
X145882964Y-83184022D01*
X145732817Y-82931512D01*
X145568952Y-82749435D01*
X145663641Y-82719827D01*
X145813034Y-82620926D01*
X145929042Y-82484392D01*
X146002519Y-82320989D01*
X146027672Y-82143600D01*
X146027672Y-98375000D01*
X142273505Y-98375000D01*
X141633657Y-98312262D01*
X141050405Y-98136168D01*
X140512469Y-97850142D01*
X140040333Y-97465078D01*
X139651980Y-96995640D01*
X139362206Y-96459714D01*
X139182044Y-95877704D01*
X139115000Y-95239810D01*
X139115000Y-77503504D01*
X139177737Y-76863655D01*
X139353831Y-76280405D01*
X139639855Y-75742470D01*
X140024921Y-75270333D01*
X140494359Y-74881980D01*
X141030285Y-74592206D01*
X141612290Y-74412045D01*
X142250188Y-74345000D01*
X191736495Y-74345000D01*
X192376344Y-74407737D01*
X192959594Y-74583831D01*
X193497529Y-74869855D01*
X193969666Y-75254921D01*
X194358019Y-75724359D01*
X194647793Y-76260285D01*
X194827954Y-76842290D01*
X194895000Y-77480188D01*
X194895000Y-95216494D01*
M02*
