G04 #@! TF.FileFunction,Soldermask,Top*
%FSLAX46Y46*%
G04 Gerber Fmt 4.6, Leading zero omitted, Abs format (unit mm)*
G04 Created by KiCad (PCBNEW 4.0.0-rc1-stable) date Fri 22 Jan 2016 12:17:39 PM CET*
%MOMM*%
G01*
G04 APERTURE LIST*
%ADD10C,0.150000*%
%ADD11O,0.440000X1.050000*%
%ADD12R,0.751180X0.741020*%
%ADD13R,0.741020X0.751180*%
%ADD14O,0.900000X1.400000*%
%ADD15O,0.850000X1.250000*%
%ADD16O,1.500000X2.400000*%
%ADD17R,1.250000X1.660000*%
%ADD18O,1.400000X7.200000*%
%ADD19O,1.400000X8.200000*%
%ADD20C,1.200000*%
%ADD21R,2.400000X1.310000*%
%ADD22R,1.200000X1.200000*%
%ADD23R,0.650000X1.050000*%
%ADD24R,2.700000X1.800000*%
%ADD25R,1.050000X1.150000*%
%ADD26R,1.600000X0.900000*%
%ADD27R,6.800000X6.800000*%
%ADD28O,1.050000X0.440000*%
%ADD29R,0.900000X4.400000*%
%ADD30R,0.900000X3.400000*%
%ADD31R,20.500000X5.800000*%
%ADD32R,1.700000X1.100000*%
%ADD33R,1.000000X1.200000*%
%ADD34R,1.000000X1.000000*%
%ADD35C,1.724000*%
%ADD36C,1.100000*%
%ADD37R,1.600000X1.400000*%
%ADD38R,1.343000X0.835000*%
%ADD39R,0.835000X1.343000*%
%ADD40R,0.606400X2.000860*%
%ADD41O,0.600000X1.000000*%
%ADD42R,0.500000X1.000000*%
%ADD43O,1.200000X1.000000*%
%ADD44O,1.000000X0.600000*%
%ADD45R,1.000000X0.500000*%
%ADD46O,1.000000X1.200000*%
G04 APERTURE END LIST*
D10*
D11*
X83599900Y-65213440D03*
X84099900Y-65213440D03*
D12*
X77600050Y-64700000D03*
X76799950Y-64700000D03*
X77600050Y-67100000D03*
X76799950Y-67100000D03*
D13*
X85760000Y-59619950D03*
X85760000Y-60420050D03*
D12*
X80449950Y-61010000D03*
X81250050Y-61010000D03*
D10*
G36*
X76813530Y-57410450D02*
X76289550Y-56886470D01*
X76820714Y-56355306D01*
X77344694Y-56879286D01*
X76813530Y-57410450D01*
X76813530Y-57410450D01*
G37*
G36*
X77379286Y-56844694D02*
X76855306Y-56320714D01*
X77386470Y-55789550D01*
X77910450Y-56313530D01*
X77379286Y-56844694D01*
X77379286Y-56844694D01*
G37*
D13*
X89040000Y-59370050D03*
X89040000Y-58569950D03*
D12*
X82100050Y-58500000D03*
X81299950Y-58500000D03*
D13*
X86000000Y-55700050D03*
X86000000Y-54899950D03*
X86930000Y-75099950D03*
X86930000Y-75900050D03*
X89580000Y-73389950D03*
X89580000Y-74190050D03*
X90720000Y-67290050D03*
X90720000Y-66489950D03*
X88611600Y-62354590D03*
X88611600Y-61554490D03*
X87537200Y-62359590D03*
X87537200Y-61559490D03*
X86302700Y-62359590D03*
X86302700Y-61559490D03*
X84321500Y-63736540D03*
X84321500Y-62936440D03*
X84362200Y-60688540D03*
X84362200Y-59888440D03*
D12*
X83882100Y-57277340D03*
X84682200Y-57277340D03*
X83882100Y-54727140D03*
X84682200Y-54727140D03*
D13*
X83381700Y-60688540D03*
X83381700Y-59888440D03*
D12*
X83432500Y-61526740D03*
X82632400Y-61526740D03*
D13*
X81613000Y-63035590D03*
X81613000Y-62235490D03*
X80713800Y-63035590D03*
X80713800Y-62235490D03*
D12*
X79400050Y-64000000D03*
X78599950Y-64000000D03*
X79100050Y-71900000D03*
X78299950Y-71900000D03*
X79100050Y-72850000D03*
X78299950Y-72850000D03*
X84321500Y-61526740D03*
X85121600Y-61526740D03*
D13*
X83882100Y-58958840D03*
X83882100Y-58158740D03*
D12*
X83081740Y-56398440D03*
X83881840Y-56398440D03*
D13*
X83882100Y-55598440D03*
X83882100Y-56398540D03*
X83432500Y-63736540D03*
X83432500Y-62936440D03*
D12*
X81250050Y-59350000D03*
X80449950Y-59350000D03*
X81250050Y-60190000D03*
X80449950Y-60190000D03*
X89600000Y-57000000D03*
X90400100Y-57000000D03*
X88000100Y-57000000D03*
X87200000Y-57000000D03*
X74009950Y-67060000D03*
X74810050Y-67060000D03*
X74009950Y-69060000D03*
X74810050Y-69060000D03*
X74009950Y-71060000D03*
X74810050Y-71060000D03*
D13*
X86000000Y-57300050D03*
X86000000Y-56499950D03*
X85200000Y-75099950D03*
X85200000Y-75900050D03*
X79779100Y-63035590D03*
X79779100Y-62235490D03*
D12*
X76799950Y-65500000D03*
X77600050Y-65500000D03*
X76799950Y-66300000D03*
X77600050Y-66300000D03*
D13*
X86000000Y-75099950D03*
X86000000Y-75900050D03*
D14*
X84725000Y-107800000D03*
X79275000Y-107800000D03*
D15*
X79575000Y-104770000D03*
X84425000Y-104770000D03*
D16*
X84725000Y-107800000D03*
X79275000Y-107800000D03*
D17*
X79575000Y-104770000D03*
X84425000Y-104770000D03*
D18*
X83000000Y-113500000D03*
D19*
X85650000Y-114000000D03*
D18*
X81000000Y-113500000D03*
D19*
X78350000Y-114000000D03*
D20*
X93500000Y-88300000D03*
X70550000Y-102950000D03*
D21*
X74761840Y-53235320D03*
X74761840Y-56244320D03*
D22*
X76261840Y-54739820D03*
D10*
G36*
X78195787Y-56957157D02*
X79327157Y-55825787D01*
X79963553Y-56462183D01*
X78832183Y-57593553D01*
X78195787Y-56957157D01*
X78195787Y-56957157D01*
G37*
G36*
X79256447Y-58017817D02*
X80387817Y-56886447D01*
X81024213Y-57522843D01*
X79892843Y-58654213D01*
X79256447Y-58017817D01*
X79256447Y-58017817D01*
G37*
D23*
X87100000Y-52400000D03*
X88100000Y-52400000D03*
X89100000Y-52400000D03*
X89100000Y-49500000D03*
X88100000Y-49500000D03*
X87100000Y-49500000D03*
D24*
X88100000Y-50950000D03*
D25*
X86825000Y-58775000D03*
X86825000Y-60225000D03*
X87975000Y-60225000D03*
X87975000Y-58775000D03*
D10*
G36*
X77270000Y-58587918D02*
X78472082Y-59790000D01*
X77270000Y-60992082D01*
X76067918Y-59790000D01*
X77270000Y-58587918D01*
X77270000Y-58587918D01*
G37*
G36*
X76470970Y-57619182D02*
X77248787Y-58396999D01*
X76937660Y-58708126D01*
X76159843Y-57930309D01*
X76470970Y-57619182D01*
X76470970Y-57619182D01*
G37*
G36*
X76117416Y-57972736D02*
X76895233Y-58750553D01*
X76584106Y-59061680D01*
X75806289Y-58283863D01*
X76117416Y-57972736D01*
X76117416Y-57972736D01*
G37*
G36*
X75763863Y-58326289D02*
X76541680Y-59104106D01*
X76230553Y-59415233D01*
X75452736Y-58637416D01*
X75763863Y-58326289D01*
X75763863Y-58326289D01*
G37*
G36*
X75410309Y-58679843D02*
X76188126Y-59457660D01*
X75876999Y-59768787D01*
X75099182Y-58990970D01*
X75410309Y-58679843D01*
X75410309Y-58679843D01*
G37*
G36*
X77602340Y-60871874D02*
X78380157Y-61649691D01*
X78069030Y-61960818D01*
X77291213Y-61183001D01*
X77602340Y-60871874D01*
X77602340Y-60871874D01*
G37*
G36*
X77955894Y-60518320D02*
X78733711Y-61296137D01*
X78422584Y-61607264D01*
X77644767Y-60829447D01*
X77955894Y-60518320D01*
X77955894Y-60518320D01*
G37*
G36*
X78309447Y-60164767D02*
X79087264Y-60942584D01*
X78776137Y-61253711D01*
X77998320Y-60475894D01*
X78309447Y-60164767D01*
X78309447Y-60164767D01*
G37*
G36*
X78663001Y-59811213D02*
X79440818Y-60589030D01*
X79129691Y-60900157D01*
X78351874Y-60122340D01*
X78663001Y-59811213D01*
X78663001Y-59811213D01*
G37*
G36*
X75876999Y-59811213D02*
X76188126Y-60122340D01*
X75410309Y-60900157D01*
X75099182Y-60589030D01*
X75876999Y-59811213D01*
X75876999Y-59811213D01*
G37*
G36*
X76230553Y-60164767D02*
X76541680Y-60475894D01*
X75763863Y-61253711D01*
X75452736Y-60942584D01*
X76230553Y-60164767D01*
X76230553Y-60164767D01*
G37*
G36*
X76584106Y-60518320D02*
X76895233Y-60829447D01*
X76117416Y-61607264D01*
X75806289Y-61296137D01*
X76584106Y-60518320D01*
X76584106Y-60518320D01*
G37*
G36*
X76937660Y-60871874D02*
X77248787Y-61183001D01*
X76470970Y-61960818D01*
X76159843Y-61649691D01*
X76937660Y-60871874D01*
X76937660Y-60871874D01*
G37*
G36*
X79129691Y-58679843D02*
X79440818Y-58990970D01*
X78663001Y-59768787D01*
X78351874Y-59457660D01*
X79129691Y-58679843D01*
X79129691Y-58679843D01*
G37*
G36*
X78776137Y-58326289D02*
X79087264Y-58637416D01*
X78309447Y-59415233D01*
X77998320Y-59104106D01*
X78776137Y-58326289D01*
X78776137Y-58326289D01*
G37*
G36*
X78422584Y-57972736D02*
X78733711Y-58283863D01*
X77955894Y-59061680D01*
X77644767Y-58750553D01*
X78422584Y-57972736D01*
X78422584Y-57972736D01*
G37*
G36*
X78069030Y-57619182D02*
X78380157Y-57930309D01*
X77602340Y-58708126D01*
X77291213Y-58396999D01*
X78069030Y-57619182D01*
X78069030Y-57619182D01*
G37*
D26*
X79100000Y-65150000D03*
X79100000Y-66650000D03*
D27*
X84849900Y-69188440D03*
D11*
X84599900Y-73163440D03*
X84099900Y-73163440D03*
X83599900Y-73163440D03*
X83099900Y-73163440D03*
X82599900Y-73163440D03*
X82099900Y-73163440D03*
X81599900Y-73163440D03*
X85099900Y-73163440D03*
X85599900Y-73163440D03*
X86099900Y-73163440D03*
X86599900Y-73163440D03*
X87099900Y-73163440D03*
X87599900Y-73163440D03*
X88099900Y-73163440D03*
X88099900Y-65213440D03*
X87599900Y-65213440D03*
X87099900Y-65213440D03*
X86599900Y-65213440D03*
X86099900Y-65213440D03*
X85599900Y-65213440D03*
X85099900Y-65213440D03*
X84599900Y-65213440D03*
X84099900Y-65213440D03*
X83599900Y-65213440D03*
X83099900Y-65213440D03*
X82599900Y-65213440D03*
X82099900Y-65213440D03*
X81599900Y-65213440D03*
D28*
X88824900Y-72438440D03*
X88824900Y-71938440D03*
X88824900Y-71438440D03*
X88824900Y-70938440D03*
X88824900Y-70438440D03*
X88824900Y-69938440D03*
X88824900Y-69438440D03*
X88824900Y-68938440D03*
X88824900Y-68438440D03*
X88824900Y-67938440D03*
X88824900Y-67438440D03*
X88824900Y-66938440D03*
X88824900Y-66438440D03*
X88824900Y-65938440D03*
X80874900Y-65938440D03*
X80874900Y-66438440D03*
X80874900Y-66938440D03*
X80874900Y-67438440D03*
X80874900Y-67938440D03*
X80874900Y-68438440D03*
X80874900Y-68938440D03*
X80874900Y-69438440D03*
X80874900Y-69938440D03*
X80874900Y-70438440D03*
X80874900Y-70938440D03*
X80874900Y-71438440D03*
X80874900Y-71938440D03*
X80874900Y-72438440D03*
D12*
X74810050Y-69860000D03*
X74009950Y-69860000D03*
X74810050Y-67860000D03*
X74009950Y-67860000D03*
X74810050Y-71860000D03*
X74009950Y-71860000D03*
D29*
X91500000Y-82400000D03*
X90500000Y-82400000D03*
X89500000Y-82400000D03*
X88500000Y-82400000D03*
X87500000Y-82400000D03*
X86500000Y-82400000D03*
X85500000Y-82400000D03*
D30*
X72500000Y-82900000D03*
D29*
X73500000Y-82400000D03*
X74500000Y-82400000D03*
X75500000Y-82400000D03*
X76500000Y-82400000D03*
X77500000Y-82400000D03*
X78500000Y-82400000D03*
X79500000Y-82400000D03*
X80500000Y-82400000D03*
X81500000Y-82400000D03*
X82500000Y-82400000D03*
D31*
X82000000Y-81700000D03*
D32*
X73750000Y-96100000D03*
X73750000Y-90100000D03*
X73750000Y-98100000D03*
D33*
X71200000Y-99800000D03*
X71200000Y-88400000D03*
D34*
X72500000Y-99700000D03*
X72500000Y-88500000D03*
D35*
X74550000Y-101500000D03*
X72050000Y-101500000D03*
D36*
X93000000Y-92550000D03*
X90000000Y-92550000D03*
D37*
X89800000Y-89775000D03*
X89800000Y-95325000D03*
X93200000Y-89775000D03*
X93200000Y-95325000D03*
D35*
X91950000Y-101500000D03*
X89450000Y-101500000D03*
D38*
X87750000Y-98812000D03*
X87750000Y-97288000D03*
X86250000Y-98812000D03*
X86250000Y-97288000D03*
X86650000Y-92488000D03*
X86650000Y-94012000D03*
D39*
X76738000Y-100000000D03*
X78262000Y-100000000D03*
D38*
X74168000Y-75971400D03*
X74168000Y-74447400D03*
X88350000Y-89862000D03*
X88350000Y-88338000D03*
X86250000Y-89862000D03*
X86250000Y-88338000D03*
X86250000Y-101338000D03*
X86250000Y-102862000D03*
X84650000Y-101338000D03*
X84650000Y-102862000D03*
X76285000Y-74447400D03*
X76285000Y-75971400D03*
D39*
X79012000Y-103150000D03*
X77488000Y-103150000D03*
D40*
X84891000Y-89694000D03*
X84256000Y-89694000D03*
X83595600Y-89694000D03*
X82935200Y-89694000D03*
X82300200Y-89694000D03*
X81639800Y-89694000D03*
X80979400Y-89694000D03*
X80344400Y-89694000D03*
X79684000Y-89694000D03*
X79049000Y-89694000D03*
X78388600Y-89694000D03*
X77728200Y-89694000D03*
X77093200Y-89694000D03*
X76432800Y-89694000D03*
X76432800Y-96806000D03*
X77093200Y-96806000D03*
X77702800Y-96806000D03*
X78388600Y-96806000D03*
X79049000Y-96806000D03*
X79684000Y-96806000D03*
X80344400Y-96806000D03*
X80979400Y-96806000D03*
X81639800Y-96806000D03*
X82300200Y-96806000D03*
X82935200Y-96806000D03*
X83595600Y-96806000D03*
X84256000Y-96806000D03*
X84891000Y-96806000D03*
D41*
X91700000Y-65115000D03*
D42*
X91850000Y-65115000D03*
X91850000Y-63845000D03*
D41*
X91700000Y-63845000D03*
X91700000Y-61305000D03*
D42*
X91850000Y-61305000D03*
X91850000Y-62575000D03*
D41*
X91700000Y-62575000D03*
X91700000Y-57495000D03*
D42*
X91850000Y-57495000D03*
X91850000Y-56225000D03*
D41*
X91700000Y-56225000D03*
X91700000Y-58765000D03*
D42*
X91850000Y-58765000D03*
X91850000Y-60035000D03*
D41*
X91700000Y-60035000D03*
X91700000Y-70195000D03*
D42*
X91850000Y-70195000D03*
X91850000Y-68925000D03*
D41*
X91700000Y-68925000D03*
X91700000Y-66385000D03*
D42*
X91850000Y-66385000D03*
X91850000Y-67655000D03*
D41*
X91700000Y-67655000D03*
X91700000Y-72735000D03*
D42*
X91850000Y-72735000D03*
X91850000Y-71465000D03*
D41*
X91700000Y-71465000D03*
X91700000Y-74005000D03*
D42*
X91850000Y-74005000D03*
X91850000Y-75275000D03*
D41*
X91700000Y-75275000D03*
D43*
X92050000Y-75275000D03*
X92050000Y-74005000D03*
X92050000Y-72735000D03*
X92050000Y-71465000D03*
X92050000Y-70195000D03*
X92050000Y-68925000D03*
X92050000Y-67655000D03*
X92050000Y-66385000D03*
X92050000Y-65115000D03*
X92050000Y-63845000D03*
X92050000Y-62575000D03*
X92050000Y-61305000D03*
X92050000Y-60035000D03*
X92050000Y-58765000D03*
X92050000Y-57495000D03*
X92050000Y-56225000D03*
D44*
X85810000Y-76700000D03*
D45*
X85810000Y-76850000D03*
X87080000Y-76850000D03*
D44*
X87080000Y-76700000D03*
D45*
X88350000Y-76850000D03*
D44*
X88350000Y-76700000D03*
X80730000Y-76700000D03*
D45*
X80730000Y-76850000D03*
X82000000Y-76850000D03*
D44*
X82000000Y-76700000D03*
X84540000Y-76700000D03*
D45*
X84540000Y-76850000D03*
X83270000Y-76850000D03*
D44*
X83270000Y-76700000D03*
X78190000Y-76700000D03*
D45*
X78190000Y-76850000D03*
X79460000Y-76850000D03*
D44*
X79460000Y-76700000D03*
X76920000Y-76700000D03*
D45*
X76920000Y-76850000D03*
X75650000Y-76850000D03*
D44*
X75650000Y-76700000D03*
D46*
X75650000Y-77050000D03*
X76920000Y-77050000D03*
X78190000Y-77050000D03*
X79460000Y-77050000D03*
X80730000Y-77050000D03*
X82000000Y-77050000D03*
X83270000Y-77050000D03*
X84540000Y-77050000D03*
X85810000Y-77050000D03*
X87080000Y-77050000D03*
X88350000Y-77050000D03*
D41*
X72300000Y-66385000D03*
D42*
X72150000Y-66385000D03*
X72150000Y-67655000D03*
D41*
X72300000Y-67655000D03*
X72300000Y-70195000D03*
D42*
X72150000Y-70195000D03*
X72150000Y-68925000D03*
D41*
X72300000Y-68925000D03*
X72300000Y-74005000D03*
D42*
X72150000Y-74005000D03*
X72150000Y-75275000D03*
D41*
X72300000Y-75275000D03*
X72300000Y-72735000D03*
D42*
X72150000Y-72735000D03*
X72150000Y-71465000D03*
D41*
X72300000Y-71465000D03*
X72300000Y-61305000D03*
D42*
X72150000Y-61305000D03*
X72150000Y-62575000D03*
D41*
X72300000Y-62575000D03*
X72300000Y-65115000D03*
D42*
X72150000Y-65115000D03*
X72150000Y-63845000D03*
D41*
X72300000Y-63845000D03*
X72300000Y-58765000D03*
D42*
X72150000Y-58765000D03*
X72150000Y-60035000D03*
D41*
X72300000Y-60035000D03*
X72300000Y-57495000D03*
D42*
X72150000Y-57495000D03*
X72150000Y-56225000D03*
D41*
X72300000Y-56225000D03*
D43*
X71950000Y-56225000D03*
X71950000Y-57495000D03*
X71950000Y-58765000D03*
X71950000Y-60035000D03*
X71950000Y-61305000D03*
X71950000Y-62575000D03*
X71950000Y-63845000D03*
X71950000Y-65115000D03*
X71950000Y-66385000D03*
X71950000Y-67655000D03*
X71950000Y-68925000D03*
X71950000Y-70195000D03*
X71950000Y-71465000D03*
X71950000Y-72735000D03*
X71950000Y-74005000D03*
X71950000Y-75275000D03*
M02*
