G04 (created by PCBNEW (2013-04-19 BZR 4011)-stable) date 16/10/2013 10:05:19*
%MOIN*%
G04 Gerber Fmt 3.4, Leading zero omitted, Abs format*
%FSLAX34Y34*%
G01*
G70*
G90*
G04 APERTURE LIST*
%ADD10C,2.3622e-006*%
%ADD11R,0.035X0.055*%
%ADD12C,0.2461*%
%ADD13R,0.06X0.06*%
%ADD14C,0.06*%
%ADD15R,0.016X0.065*%
%ADD16C,0.035*%
%ADD17C,0.008*%
G04 APERTURE END LIST*
G54D10*
G54D11*
X64415Y-36570D03*
X63665Y-36570D03*
X64405Y-35790D03*
X63655Y-35790D03*
G54D12*
X59900Y-36500D03*
X59900Y-43700D03*
G54D13*
X61800Y-44300D03*
G54D14*
X62800Y-44300D03*
X63800Y-44300D03*
G54D13*
X64010Y-42500D03*
G54D14*
X64010Y-41500D03*
X64010Y-40500D03*
X64010Y-39500D03*
X64010Y-38500D03*
X64010Y-37500D03*
G54D13*
X61810Y-35900D03*
G54D14*
X61810Y-36900D03*
X62810Y-35900D03*
X62810Y-36900D03*
G54D15*
X62125Y-39150D03*
X61875Y-39150D03*
X61625Y-39150D03*
X61375Y-39150D03*
X62875Y-41250D03*
X62875Y-39150D03*
X62625Y-39150D03*
X62375Y-39150D03*
X61125Y-41250D03*
X61375Y-41250D03*
X61625Y-41250D03*
X61875Y-41250D03*
X62125Y-41250D03*
X62375Y-41250D03*
X61125Y-39150D03*
X62625Y-41250D03*
G54D16*
X62100Y-39900D03*
X61050Y-42250D03*
X62200Y-38100D03*
X62400Y-42400D03*
X61600Y-40500D03*
X62800Y-40400D03*
X61100Y-40500D03*
X61100Y-39900D03*
X63300Y-39900D03*
X61900Y-42000D03*
X61800Y-38400D03*
G54D17*
X61800Y-44300D02*
X61800Y-43000D01*
X61800Y-43000D02*
X61050Y-42250D01*
X62375Y-39625D02*
X62100Y-39900D01*
X62375Y-39625D02*
X62375Y-39150D01*
X61375Y-41250D02*
X61375Y-41925D01*
X61375Y-41925D02*
X61050Y-42250D01*
X63985Y-37000D02*
X64415Y-36570D01*
X63600Y-37000D02*
X63985Y-37000D01*
X62800Y-37800D02*
X63600Y-37000D01*
X62500Y-37800D02*
X62800Y-37800D01*
X62200Y-38100D02*
X62500Y-37800D01*
X63800Y-44300D02*
X63800Y-43800D01*
X63800Y-43800D02*
X62400Y-42400D01*
X61875Y-41250D02*
X61875Y-41575D01*
X61750Y-42400D02*
X62400Y-42400D01*
X61600Y-42250D02*
X61750Y-42400D01*
X61600Y-41850D02*
X61600Y-42250D01*
X61875Y-41575D02*
X61600Y-41850D01*
X61875Y-41250D02*
X61875Y-40875D01*
X61600Y-40600D02*
X61600Y-40500D01*
X61875Y-40875D02*
X61600Y-40600D01*
X64415Y-36570D02*
X64415Y-35800D01*
X64415Y-35800D02*
X64405Y-35790D01*
X62800Y-40400D02*
X62040Y-40400D01*
X61625Y-39985D02*
X61625Y-39150D01*
X62040Y-40400D02*
X61625Y-39985D01*
X61125Y-40525D02*
X61125Y-41250D01*
X61100Y-40500D02*
X61125Y-40525D01*
X61125Y-39875D02*
X61125Y-39150D01*
X61100Y-39900D02*
X61125Y-39875D01*
X63665Y-36570D02*
X63320Y-36570D01*
X61810Y-36190D02*
X61810Y-35900D01*
X62020Y-36400D02*
X61810Y-36190D01*
X63150Y-36400D02*
X62020Y-36400D01*
X63320Y-36570D02*
X63150Y-36400D01*
X62810Y-35900D02*
X63545Y-35900D01*
X63545Y-35900D02*
X63655Y-35790D01*
X63100Y-38500D02*
X63170Y-38500D01*
X64320Y-37500D02*
X64010Y-37500D01*
X64520Y-37700D02*
X64320Y-37500D01*
X64520Y-38930D02*
X64520Y-37700D01*
X64450Y-39000D02*
X64520Y-38930D01*
X63670Y-39000D02*
X64450Y-39000D01*
X63170Y-38500D02*
X63670Y-39000D01*
X62625Y-39150D02*
X62625Y-38575D01*
X62625Y-38575D02*
X62700Y-38500D01*
X62700Y-38500D02*
X63100Y-38500D01*
X62125Y-39150D02*
X62125Y-38625D01*
X63810Y-38300D02*
X64010Y-38500D01*
X62450Y-38300D02*
X63810Y-38300D01*
X62125Y-38625D02*
X62450Y-38300D01*
X62375Y-41250D02*
X62375Y-40925D01*
X62375Y-40925D02*
X62600Y-40700D01*
X63300Y-40400D02*
X63300Y-39900D01*
X63000Y-40700D02*
X63300Y-40400D01*
X62600Y-40700D02*
X63000Y-40700D01*
X62875Y-39150D02*
X63150Y-39150D01*
X63500Y-39500D02*
X64010Y-39500D01*
X63150Y-39150D02*
X63500Y-39500D01*
X63985Y-39485D02*
X64000Y-39500D01*
X61375Y-39150D02*
X61375Y-38225D01*
X61810Y-37790D02*
X61810Y-36900D01*
X61375Y-38225D02*
X61810Y-37790D01*
X62800Y-44300D02*
X62810Y-44300D01*
X64290Y-40500D02*
X64010Y-40500D01*
X64550Y-40760D02*
X64290Y-40500D01*
X64550Y-44270D02*
X64550Y-40760D01*
X64010Y-44810D02*
X64550Y-44270D01*
X63320Y-44810D02*
X64010Y-44810D01*
X62810Y-44300D02*
X63320Y-44810D01*
X62125Y-41250D02*
X62125Y-41775D01*
X62125Y-41775D02*
X61900Y-42000D01*
X61875Y-39150D02*
X61875Y-38475D01*
X61875Y-38475D02*
X61800Y-38400D01*
M02*
