G04 start of page 6 for group -4063 idx -4063
G04 Title: RX Daughterboard, componentmask *
G04 Creator: pcb 20070208 *
G04 CreationDate: Mon Dec 24 21:51:39 2007 UTC *
G04 For: matt *
G04 Format: Gerber/RS-274X *
G04 PCB-Dimensions: 275000 250000 *
G04 PCB-Coordinate-Origin: lower left *
%MOIN*%
%FSLAX24Y24*%
%LNFRONTMASK*%
%ADD13C,0.0900*%
%ADD20C,0.0200*%
%ADD21R,0.0650X0.0650*%
%ADD22R,0.0240X0.0240*%
%ADD23R,0.0200X0.0200*%
%ADD24C,0.0720*%
%ADD25R,0.0660X0.0660*%
%ADD26C,0.0660*%
%ADD27C,0.1100*%
G54D24*X22373Y14700D03*
G54D13*X22350Y1850D03*
X21350Y2850D03*
X23350D03*
X21350Y850D03*
X23350D03*
G54D25*X18350Y11250D03*
G54D13*X16050Y1850D03*
X15050Y2850D03*
X17050D03*
X15050Y850D03*
X17050D03*
G54D26*X18350Y12250D03*
X19350Y11250D03*
Y12250D03*
X20350D03*
X21350D03*
X22350D03*
X20350Y11250D03*
X21350D03*
X22350D03*
G54D24*X8830Y14700D03*
G54D25*X9500Y12100D03*
G54D26*X10500D03*
X11500D03*
X12500D03*
G54D25*X7050Y6650D03*
G54D26*Y7650D03*
X8050Y6650D03*
Y7650D03*
X9050Y6650D03*
Y7650D03*
X10050Y6650D03*
Y7650D03*
X11050Y6650D03*
Y7650D03*
X12050Y6650D03*
X13050D03*
X14050D03*
X12050Y7650D03*
X13050D03*
X14050D03*
X10700Y20950D03*
Y21950D03*
X11700D03*
X12700D03*
X11700Y20950D03*
X12700D03*
X13700D03*
X14700D03*
X15700D03*
X16700D03*
X13700Y21950D03*
X14700D03*
X15700D03*
X16700D03*
G54D25*X7700Y20950D03*
G54D26*Y21950D03*
X8700Y20950D03*
Y21950D03*
X9700Y20950D03*
Y21950D03*
G54D25*X1100Y23500D03*
G54D26*X2100D03*
X1100Y22500D03*
Y21500D03*
Y20500D03*
X2100Y22500D03*
Y21500D03*
Y20500D03*
Y19500D03*
Y18500D03*
Y17500D03*
X1100Y19500D03*
Y18500D03*
Y17500D03*
Y16500D03*
X2100D03*
X2050Y11750D03*
Y10750D03*
G54D25*X1050Y11750D03*
G54D26*Y10750D03*
Y9750D03*
X2050D03*
X1050Y8750D03*
Y7750D03*
Y6750D03*
Y5750D03*
Y4750D03*
X2050Y8750D03*
Y7750D03*
Y6750D03*
Y5750D03*
Y4750D03*
G54D27*X1500Y1500D03*
X26000D03*
Y23500D03*
X5500Y19500D03*
G54D21*X23950Y8620D02*Y8270D01*
X22950Y8620D02*Y8270D01*
X21950Y8620D02*Y8270D01*
G54D22*X24010Y9510D02*X24190D01*
X21660D02*X21840D01*
X23260D02*X23440D01*
X22410D02*X22590D01*
X24010Y9990D02*X24190D01*
X21660D02*X21840D01*
X23260D02*X23440D01*
X22410D02*X22590D01*
X18160Y9360D02*X18340D01*
G54D21*X18000Y8370D02*Y8020D01*
G54D22*X18160Y9840D02*X18340D01*
X19910Y7590D02*X20090D01*
X19910Y7110D02*X20090D01*
X19210Y6540D02*X19390D01*
X19160Y7590D02*X19340D01*
X19160Y7110D02*X19340D01*
X19910Y6540D02*X20090D01*
X17460Y9840D02*X17640D01*
X17460Y9360D02*X17640D01*
G54D21*X17000Y8370D02*Y8020D01*
X16000Y8370D02*Y8020D01*
G54D22*X15810Y9360D02*X15990D01*
X16510D02*X16690D01*
X15810Y9840D02*X15990D01*
X16510D02*X16690D01*
G54D21*X21950Y5630D02*Y5280D01*
X22950Y5630D02*Y5280D01*
X23950Y5630D02*Y5280D01*
G54D22*X22310Y4040D02*Y3860D01*
X22790Y4040D02*Y3860D01*
X19210Y6060D02*X19390D01*
X19910D02*X20090D01*
G54D21*X17000Y5380D02*Y5030D01*
X18000Y5380D02*Y5030D01*
G54D22*X16040Y4090D02*Y3910D01*
X15560Y4090D02*Y3910D01*
G54D21*X16000Y5380D02*Y5030D01*
G54D20*X8660Y5000D02*X8940D01*
G54D23*X8660Y4500D02*X8940D01*
X8660Y4000D02*X8940D01*
X8660Y3500D02*X8940D01*
X10700D02*X10980D01*
X10700Y4000D02*X10980D01*
X10700Y4500D02*X10980D01*
X10700Y5000D02*X10980D01*
M02*
