%FSLAX44Y44*%
%MOMM*%
G71*
G01*
G75*
G04 Layer_Physical_Order=1*
G04 Layer_Color=255*
%ADD10C,0.2540*%
%ADD11R,0.6500X0.9000*%
%ADD12R,0.8000X0.9000*%
%ADD13C,1.2000*%
%ADD14C,0.8000*%
%ADD15C,0.7000*%
%ADD16C,0.2000*%
%ADD17C,1.4000*%
%ADD18C,2.0000*%
%ADD19R,2.0000X2.0000*%
%ADD20C,1.5240*%
%ADD21R,1.0000X1.0000*%
%ADD22C,1.0000*%
%ADD23C,1.6000*%
%ADD24R,1.6000X1.6000*%
%ADD25C,1.2000*%
%ADD26C,0.8000*%
G36*
X72530Y283235D02*
X58820D01*
X58556Y283190D01*
X58249Y283059D01*
X57941Y282795D01*
X57897Y282707D01*
X57765Y282487D01*
X57589Y282180D01*
X57545Y281784D01*
Y281740D01*
Y281696D01*
X57589Y281433D01*
X57677Y281081D01*
X57897Y280730D01*
X57985Y280686D01*
X58161Y280554D01*
X58512Y280378D01*
X58952Y280334D01*
X72530D01*
Y273611D01*
X58820D01*
X58556Y273567D01*
X58249Y273435D01*
X57941Y273172D01*
X57897Y273084D01*
X57765Y272908D01*
X57589Y272557D01*
X57545Y272117D01*
Y272073D01*
Y272029D01*
X57589Y271722D01*
X57721Y271370D01*
X57941Y271019D01*
X58029Y270975D01*
X58205Y270843D01*
X58556Y270667D01*
X58952Y270623D01*
X72530D01*
Y263900D01*
X57677D01*
X57370Y263944D01*
X56930Y263988D01*
X56447Y264032D01*
X55920Y264164D01*
X55392Y264296D01*
X54865Y264471D01*
X54821Y264515D01*
X54645Y264603D01*
X54382Y264735D01*
X54074Y264911D01*
X53723Y265130D01*
X53327Y265438D01*
X52976Y265746D01*
X52624Y266097D01*
X52580Y266141D01*
X52492Y266273D01*
X52316Y266493D01*
X52141Y266756D01*
X51921Y267108D01*
X51701Y267547D01*
X51481Y267987D01*
X51262Y268470D01*
Y268514D01*
X51174Y268734D01*
X51130Y268997D01*
X51042Y269349D01*
X50954Y269788D01*
X50866Y270272D01*
X50822Y270799D01*
X50778Y271370D01*
Y271414D01*
Y271502D01*
Y271634D01*
X50822Y271810D01*
X50866Y272293D01*
X50954Y272820D01*
Y272864D01*
X50998Y272952D01*
X51042Y273128D01*
X51086Y273304D01*
X51262Y273787D01*
X51481Y274358D01*
Y274402D01*
X51569Y274490D01*
X51657Y274666D01*
X51745Y274841D01*
X52053Y275325D01*
X52448Y275852D01*
X52492Y275896D01*
X52536Y275984D01*
X52668Y276116D01*
X52844Y276248D01*
X53239Y276643D01*
X53766Y277039D01*
X53679Y277083D01*
X53503Y277214D01*
X53195Y277434D01*
X52844Y277742D01*
X52448Y278137D01*
X52097Y278577D01*
X51745Y279104D01*
X51438Y279675D01*
X51394Y279763D01*
X51350Y279939D01*
X51262Y280290D01*
X51130Y280730D01*
X50998Y281257D01*
X50910Y281828D01*
X50866Y282487D01*
X50822Y283147D01*
Y283190D01*
Y283366D01*
X50866Y283630D01*
Y283981D01*
X50954Y284377D01*
X51042Y284816D01*
X51130Y285256D01*
X51306Y285739D01*
X51350Y285783D01*
X51394Y285959D01*
X51525Y286179D01*
X51701Y286486D01*
X52141Y287189D01*
X52756Y287892D01*
X52800Y287936D01*
X52931Y288068D01*
X53107Y288200D01*
X53371Y288420D01*
X53723Y288683D01*
X54074Y288903D01*
X54514Y289167D01*
X54997Y289386D01*
X55041Y289430D01*
X55216Y289474D01*
X55524Y289562D01*
X55876Y289694D01*
X56315Y289782D01*
X56798Y289870D01*
X57370Y289914D01*
X57985Y289958D01*
X72530D01*
Y283235D01*
D02*
G37*
G36*
X47878Y263900D02*
X41155D01*
Y289958D01*
X47878D01*
Y263900D01*
D02*
G37*
G36*
X82636Y275325D02*
Y275281D01*
Y275237D01*
Y274973D01*
X82724Y274534D01*
X82812Y274051D01*
X82944Y273479D01*
X83164Y272908D01*
X83471Y272337D01*
X83867Y271854D01*
X83911Y271810D01*
X84086Y271678D01*
X84394Y271458D01*
X84789Y271238D01*
X85273Y271019D01*
X85888Y270799D01*
X86591Y270667D01*
X87426Y270623D01*
X95907D01*
Y263900D01*
X87074D01*
X86811Y263944D01*
X86547D01*
X85844Y263988D01*
X85053Y264076D01*
X84174Y264251D01*
X83295Y264427D01*
X82461Y264691D01*
X82417D01*
X82373Y264735D01*
X82109Y264823D01*
X81670Y265042D01*
X81186Y265262D01*
X80615Y265614D01*
X80000Y266009D01*
X79385Y266449D01*
X78813Y266976D01*
X78769Y267064D01*
X78594Y267240D01*
X78330Y267547D01*
X77979Y267987D01*
X77627Y268514D01*
X77275Y269129D01*
X76924Y269832D01*
X76616Y270579D01*
Y270623D01*
X76572Y270667D01*
Y270799D01*
X76528Y270931D01*
X76397Y271370D01*
X76265Y271985D01*
X76133Y272644D01*
X76045Y273479D01*
X75957Y274358D01*
X75913Y275325D01*
Y289958D01*
X82636D01*
Y275325D01*
D02*
G37*
G36*
X37815Y263900D02*
X31092D01*
Y273655D01*
X22831D01*
Y263900D01*
X16108D01*
Y289958D01*
X22831D01*
Y280378D01*
X31092D01*
Y289958D01*
X37815D01*
Y263900D01*
D02*
G37*
G36*
X110408Y289914D02*
X110671D01*
X110979Y289870D01*
X111770Y289738D01*
X112649Y289562D01*
X113659Y289254D01*
X114758Y288859D01*
X115857Y288332D01*
X116955Y287629D01*
X117526Y287233D01*
X118054Y286794D01*
X118581Y286266D01*
X119064Y285739D01*
X119548Y285124D01*
X119987Y284465D01*
X120382Y283762D01*
X120734Y282971D01*
X121042Y282136D01*
X121305Y281257D01*
X121525Y280290D01*
X121701Y279236D01*
X121789Y278137D01*
X121833Y276951D01*
Y276863D01*
Y276643D01*
Y276336D01*
X121789Y275852D01*
X121745Y275325D01*
X121657Y274710D01*
X121569Y274007D01*
X121437Y273260D01*
X121305Y272469D01*
X121086Y271634D01*
X120822Y270843D01*
X120558Y270008D01*
X120163Y269217D01*
X119767Y268470D01*
X119284Y267767D01*
X118757Y267108D01*
X118713Y267064D01*
X118625Y266976D01*
X118449Y266800D01*
X118185Y266624D01*
X117878Y266361D01*
X117482Y266097D01*
X117043Y265790D01*
X116516Y265526D01*
X115900Y265218D01*
X115241Y264911D01*
X114494Y264647D01*
X113703Y264383D01*
X112868Y264208D01*
X111902Y264032D01*
X110891Y263944D01*
X109836Y263900D01*
X98895D01*
Y289958D01*
X110188D01*
X110408Y289914D01*
D02*
G37*
G36*
X11494Y283235D02*
X-2216D01*
X-2479Y283190D01*
X-2787Y283059D01*
X-3095Y282795D01*
X-3138Y282707D01*
X-3270Y282487D01*
X-3446Y282180D01*
X-3490Y281784D01*
Y281740D01*
Y281696D01*
X-3446Y281433D01*
X-3314Y281081D01*
X-3095Y280730D01*
X-3007Y280686D01*
X-2831Y280554D01*
X-2479Y280378D01*
X-2084Y280334D01*
X4815D01*
X5079Y280290D01*
X5430D01*
X5826Y280246D01*
X6748Y280071D01*
X7759Y279851D01*
X8814Y279455D01*
X9824Y278972D01*
X10308Y278621D01*
X10747Y278269D01*
X10791Y278225D01*
X10835Y278181D01*
X10967Y278049D01*
X11099Y277873D01*
X11274Y277654D01*
X11494Y277434D01*
X11714Y277083D01*
X11934Y276731D01*
X12109Y276336D01*
X12329Y275896D01*
X12549Y275369D01*
X12725Y274841D01*
X12856Y274226D01*
X12988Y273567D01*
X13032Y272864D01*
X13076Y272117D01*
Y272073D01*
Y271941D01*
Y271722D01*
X13032Y271458D01*
X12988Y271106D01*
X12944Y270711D01*
X12812Y269832D01*
X12505Y268822D01*
X12109Y267811D01*
X11846Y267283D01*
X11538Y266844D01*
X11187Y266361D01*
X10791Y265965D01*
X10747D01*
X10703Y265877D01*
X10572Y265790D01*
X10352Y265658D01*
X10132Y265482D01*
X9868Y265306D01*
X9517Y265130D01*
X9121Y264955D01*
X8682Y264735D01*
X8199Y264559D01*
X7671Y264383D01*
X7100Y264208D01*
X6485Y264076D01*
X5826Y263988D01*
X5079Y263944D01*
X4332Y263900D01*
X-9027D01*
Y270623D01*
X5210D01*
X5430Y270667D01*
X5694Y270799D01*
X5957Y271019D01*
X6001Y271106D01*
X6133Y271326D01*
X6265Y271678D01*
X6309Y272117D01*
Y272161D01*
Y272205D01*
Y272249D01*
X6265Y272513D01*
X6177Y272864D01*
X5957Y273172D01*
X5914Y273260D01*
X5738Y273391D01*
X5474Y273523D01*
X5123Y273611D01*
X-1908D01*
X-2348Y273655D01*
X-2919Y273699D01*
X-3578Y273787D01*
X-4237Y273919D01*
X-4940Y274095D01*
X-5599Y274358D01*
X-5687Y274402D01*
X-5863Y274490D01*
X-6170Y274666D01*
X-6522Y274886D01*
X-6961Y275149D01*
X-7401Y275457D01*
X-7840Y275852D01*
X-8280Y276248D01*
X-8324Y276292D01*
X-8455Y276467D01*
X-8631Y276687D01*
X-8851Y276995D01*
X-9071Y277390D01*
X-9334Y277830D01*
X-9554Y278313D01*
X-9774Y278840D01*
Y278928D01*
X-9862Y279104D01*
X-9905Y279412D01*
X-9993Y279763D01*
X-10081Y280246D01*
X-10125Y280730D01*
X-10213Y281828D01*
Y281916D01*
Y282092D01*
X-10169Y282400D01*
Y282839D01*
X-10081Y283278D01*
X-9993Y283806D01*
X-9905Y284377D01*
X-9730Y284904D01*
X-9686Y284992D01*
X-9642Y285168D01*
X-9510Y285432D01*
X-9334Y285783D01*
X-9158Y286179D01*
X-8895Y286618D01*
X-8543Y287057D01*
X-8192Y287497D01*
X-8148Y287541D01*
X-8016Y287673D01*
X-7752Y287892D01*
X-7445Y288156D01*
X-7049Y288420D01*
X-6610Y288727D01*
X-6083Y289035D01*
X-5467Y289298D01*
X-5379Y289342D01*
X-5160Y289386D01*
X-4808Y289518D01*
X-4325Y289650D01*
X-3754Y289738D01*
X-3095Y289870D01*
X-2348Y289914D01*
X-1513Y289958D01*
X11494D01*
Y283235D01*
D02*
G37*
G36*
X49565Y322089D02*
X50004Y322046D01*
X50531Y321914D01*
X51191Y321738D01*
X51894Y321430D01*
X52641Y321035D01*
X53344Y320463D01*
X53388D01*
X53432Y320376D01*
X53651Y320156D01*
X54003Y319760D01*
X54398Y319277D01*
X54882Y318618D01*
X55365Y317827D01*
X55804Y316904D01*
X56200Y315850D01*
X60462Y302711D01*
Y302667D01*
X60550Y302579D01*
X60638Y302447D01*
X60770Y302403D01*
X60814D01*
X60902Y302447D01*
X60989Y302579D01*
X61034Y302843D01*
Y321914D01*
X68020D01*
Y302711D01*
Y302623D01*
Y302447D01*
X67976Y302140D01*
X67932Y301744D01*
X67888Y301305D01*
X67801Y300821D01*
X67625Y300294D01*
X67449Y299811D01*
X67405Y299767D01*
X67361Y299591D01*
X67229Y299327D01*
X67053Y299020D01*
X66834Y298668D01*
X66526Y298317D01*
X66219Y297921D01*
X65867Y297570D01*
X65823Y297526D01*
X65691Y297438D01*
X65472Y297262D01*
X65208Y297043D01*
X64856Y296823D01*
X64461Y296603D01*
X64022Y296383D01*
X63538Y296164D01*
X63494D01*
X63319Y296076D01*
X63055Y296032D01*
X62703Y295944D01*
X62264Y295856D01*
X61781Y295768D01*
X61209Y295724D01*
X60638Y295680D01*
X60418D01*
X60243Y295724D01*
X59803Y295768D01*
X59276Y295856D01*
X58617Y296032D01*
X57958Y296252D01*
X57255Y296603D01*
X56551Y297043D01*
X56463Y297086D01*
X56244Y297306D01*
X55936Y297614D01*
X55541Y298053D01*
X55101Y298580D01*
X54662Y299284D01*
X54266Y300075D01*
X53915Y300953D01*
X49345Y315059D01*
Y315103D01*
X49301Y315234D01*
X49213Y315322D01*
X49037Y315366D01*
X48993D01*
X48949Y315322D01*
X48861Y315234D01*
X48818Y315015D01*
Y295900D01*
X41831D01*
Y315059D01*
Y315147D01*
Y315322D01*
X41875Y315630D01*
X41919Y316025D01*
X41963Y316465D01*
X42050Y316948D01*
X42182Y317475D01*
X42358Y317959D01*
X42402Y318003D01*
X42446Y318179D01*
X42578Y318442D01*
X42754Y318750D01*
X42973Y319101D01*
X43237Y319453D01*
X43896Y320200D01*
X43940Y320244D01*
X44072Y320332D01*
X44292Y320508D01*
X44555Y320727D01*
X44907Y320947D01*
X45346Y321167D01*
X45786Y321386D01*
X46269Y321606D01*
X46313Y321650D01*
X46489Y321694D01*
X46796Y321782D01*
X47148Y321870D01*
X47587Y321958D01*
X48071Y322046D01*
X48598Y322133D01*
X49389D01*
X49565Y322089D01*
D02*
G37*
G36*
X332496Y44993D02*
X332158Y43768D01*
X260522Y3788D01*
X-263964D01*
X-334426Y43112D01*
X-334763Y44337D01*
X-171834Y326512D01*
X38561D01*
Y325403D01*
X38561D01*
Y293228D01*
X-13483D01*
Y260630D01*
X125103D01*
Y293228D01*
X124065D01*
Y325403D01*
X124065D01*
Y325614D01*
X124963Y326512D01*
X169946D01*
X332496Y44993D01*
D02*
G37*
G36*
X92847Y315234D02*
X81862D01*
X81598Y315191D01*
X81247Y315147D01*
X80763Y315059D01*
X80236Y314839D01*
X79709Y314575D01*
X79226Y314224D01*
X78786Y313696D01*
X78742Y313609D01*
X78610Y313433D01*
X78435Y313037D01*
X78259Y312510D01*
X78083Y311851D01*
X77907Y311016D01*
X77775Y310005D01*
X77731Y309434D01*
Y308819D01*
Y308731D01*
Y308555D01*
X77775Y308248D01*
X77819Y307852D01*
X77863Y307369D01*
X77951Y306842D01*
X78083Y306314D01*
X78259Y305743D01*
X78478Y305128D01*
X78742Y304601D01*
X79094Y304073D01*
X79489Y303590D01*
X79973Y303194D01*
X80544Y302887D01*
X81159Y302711D01*
X81906Y302623D01*
X86959D01*
X87179Y302667D01*
X87443Y302799D01*
X87706Y303062D01*
Y303106D01*
X87750Y303150D01*
X87926Y303370D01*
X88058Y303722D01*
X88102Y304117D01*
Y304161D01*
Y304205D01*
X88058Y304469D01*
X87926Y304820D01*
X87706Y305216D01*
Y305260D01*
X87662Y305304D01*
X87487Y305479D01*
X87223Y305655D01*
X87047Y305743D01*
X81818D01*
Y312466D01*
X87311D01*
X87618Y312422D01*
X88058Y312378D01*
X88497Y312290D01*
X89024Y312159D01*
X89552Y311983D01*
X90079Y311763D01*
X90123Y311719D01*
X90343Y311631D01*
X90606Y311499D01*
X90914Y311280D01*
X91309Y311016D01*
X91749Y310708D01*
X92144Y310313D01*
X92540Y309918D01*
X92584Y309874D01*
X92716Y309698D01*
X92891Y309478D01*
X93155Y309170D01*
X93419Y308775D01*
X93682Y308336D01*
X93946Y307808D01*
X94210Y307281D01*
X94254Y307237D01*
X94298Y307017D01*
X94385Y306754D01*
X94517Y306358D01*
X94649Y305919D01*
X94737Y305435D01*
X94781Y304908D01*
X94825Y304337D01*
Y304249D01*
Y304029D01*
X94781Y303678D01*
X94737Y303238D01*
X94649Y302711D01*
X94561Y302140D01*
X94385Y301525D01*
X94166Y300953D01*
X94122Y300909D01*
X94034Y300690D01*
X93902Y300426D01*
X93726Y300075D01*
X93463Y299635D01*
X93199Y299196D01*
X92847Y298756D01*
X92452Y298317D01*
X92408Y298273D01*
X92276Y298141D01*
X92013Y297921D01*
X91749Y297702D01*
X91354Y297394D01*
X90914Y297130D01*
X90475Y296823D01*
X89947Y296559D01*
X89903Y296515D01*
X89728Y296471D01*
X89420Y296383D01*
X89068Y296252D01*
X88629Y296120D01*
X88146Y296032D01*
X87575Y295944D01*
X87003Y295900D01*
X82653D01*
X82433Y295944D01*
X82170D01*
X81862Y295988D01*
X81115Y296120D01*
X80192Y296295D01*
X79181Y296603D01*
X78083Y296999D01*
X76984Y297526D01*
X75886Y298229D01*
X75315Y298624D01*
X74787Y299064D01*
X74260Y299547D01*
X73777Y300118D01*
X73293Y300734D01*
X72898Y301349D01*
X72458Y302096D01*
X72107Y302843D01*
X71799Y303678D01*
X71536Y304601D01*
X71316Y305567D01*
X71140Y306578D01*
X71052Y307676D01*
X71008Y308863D01*
Y308995D01*
Y309039D01*
Y309126D01*
Y309302D01*
X71052Y309566D01*
Y309830D01*
X71096Y310181D01*
X71140Y310577D01*
X71228Y311016D01*
X71404Y311983D01*
X71667Y313081D01*
X72063Y314268D01*
X72546Y315498D01*
X73205Y316684D01*
X73996Y317871D01*
X74480Y318398D01*
X74963Y318969D01*
X75534Y319453D01*
X76106Y319936D01*
X76765Y320376D01*
X77512Y320771D01*
X78259Y321123D01*
X79094Y321386D01*
X79973Y321650D01*
X80895Y321826D01*
X81906Y321914D01*
X83005Y321958D01*
X92847D01*
Y315234D01*
D02*
G37*
G36*
X109370Y321914D02*
X109633D01*
X109941Y321870D01*
X110732Y321738D01*
X111611Y321562D01*
X112621Y321255D01*
X113720Y320859D01*
X114818Y320332D01*
X115917Y319629D01*
X116488Y319233D01*
X117016Y318794D01*
X117543Y318266D01*
X118026Y317739D01*
X118510Y317124D01*
X118949Y316465D01*
X119345Y315762D01*
X119696Y314971D01*
X120004Y314136D01*
X120267Y313257D01*
X120487Y312290D01*
X120663Y311236D01*
X120751Y310137D01*
X120795Y308951D01*
Y308863D01*
Y308643D01*
Y308336D01*
X120751Y307852D01*
X120707Y307325D01*
X120619Y306710D01*
X120531Y306007D01*
X120399Y305260D01*
X120267Y304469D01*
X120048Y303634D01*
X119784Y302843D01*
X119520Y302008D01*
X119125Y301217D01*
X118729Y300470D01*
X118246Y299767D01*
X117719Y299108D01*
X117675Y299064D01*
X117587Y298976D01*
X117411Y298800D01*
X117147Y298624D01*
X116840Y298361D01*
X116444Y298097D01*
X116005Y297789D01*
X115478Y297526D01*
X114862Y297218D01*
X114203Y296911D01*
X113456Y296647D01*
X112665Y296383D01*
X111830Y296208D01*
X110864Y296032D01*
X109853Y295944D01*
X108798Y295900D01*
X97857D01*
Y321958D01*
X109150D01*
X109370Y321914D01*
D02*
G37*
%LPC*%
G36*
X-283772Y111353D02*
X-289030Y107318D01*
X-289895Y100747D01*
X-285860Y95489D01*
X-279289Y94624D01*
X-274032Y98659D01*
X-273166Y105230D01*
X-277201Y110487D01*
X-283772Y111353D01*
D02*
G37*
G36*
X204970Y110937D02*
X199613Y108717D01*
X197393Y103360D01*
X199613Y98002D01*
X204970Y95783D01*
X210327Y98002D01*
X212547Y103360D01*
X210327Y108717D01*
X204970Y110937D01*
D02*
G37*
G36*
X219570Y101937D02*
X214212Y99718D01*
X211993Y94360D01*
X214212Y89002D01*
X219570Y86783D01*
X224928Y89002D01*
X227147Y94360D01*
X224928Y99718D01*
X219570Y101937D01*
D02*
G37*
G36*
X-256485Y97215D02*
X-261743Y93180D01*
X-262608Y86610D01*
X-258573Y81352D01*
X-252002Y80487D01*
X-246744Y84521D01*
X-245879Y91092D01*
X-249914Y96350D01*
X-256485Y97215D01*
D02*
G37*
G36*
X280083Y112652D02*
X273513Y111786D01*
X269478Y106529D01*
X270343Y99958D01*
X275601Y95924D01*
X282172Y96789D01*
X286206Y102046D01*
X285341Y108617D01*
X280083Y112652D01*
D02*
G37*
G36*
X219570Y119937D02*
X214212Y117718D01*
X211993Y112360D01*
X214212Y107002D01*
X219570Y104783D01*
X224928Y107002D01*
X227147Y112360D01*
X224928Y117718D01*
X219570Y119937D01*
D02*
G37*
G36*
X-271072Y133350D02*
X-276329Y129315D01*
X-277195Y122744D01*
X-273160Y117486D01*
X-266589Y116621D01*
X-261332Y120656D01*
X-260466Y127227D01*
X-264501Y132485D01*
X-271072Y133350D01*
D02*
G37*
G36*
X241546Y117999D02*
X234976Y117135D01*
X230941Y111877D01*
X231806Y105306D01*
X237064Y101271D01*
X243635Y102136D01*
X247669Y107394D01*
X246804Y113965D01*
X241546Y117999D01*
D02*
G37*
G36*
X-243785Y119212D02*
X-249043Y115177D01*
X-249908Y108607D01*
X-245873Y103349D01*
X-239302Y102484D01*
X-234044Y106518D01*
X-233179Y113089D01*
X-237214Y118347D01*
X-243785Y119212D01*
D02*
G37*
G36*
X254246Y96003D02*
X247676Y95138D01*
X243641Y89880D01*
X244506Y83309D01*
X249764Y79274D01*
X256335Y80139D01*
X260369Y85397D01*
X259504Y91968D01*
X254246Y96003D01*
D02*
G37*
G36*
X-281885Y53221D02*
X-287143Y49186D01*
X-288008Y42616D01*
X-283973Y37358D01*
X-277402Y36493D01*
X-272145Y40527D01*
X-271280Y47098D01*
X-275314Y52356D01*
X-281885Y53221D01*
D02*
G37*
G36*
X-309172Y67358D02*
X-314429Y63324D01*
X-315295Y56753D01*
X-311260Y51495D01*
X-304689Y50630D01*
X-299431Y54665D01*
X-298566Y61235D01*
X-302601Y66493D01*
X-309172Y67358D01*
D02*
G37*
G36*
X109853Y315234D02*
X104580D01*
Y302623D01*
X109941D01*
X110205Y302667D01*
X110556Y302711D01*
X111039Y302799D01*
X111567Y302975D01*
X112094Y303238D01*
X112577Y303634D01*
X113017Y304117D01*
X113061Y304205D01*
X113193Y304425D01*
X113368Y304776D01*
X113544Y305304D01*
X113720Y305963D01*
X113896Y306798D01*
X114028Y307808D01*
X114072Y308379D01*
Y308995D01*
Y309083D01*
Y309258D01*
X114028Y309566D01*
Y309961D01*
X113940Y310445D01*
X113852Y310972D01*
X113720Y311543D01*
X113544Y312115D01*
X113324Y312686D01*
X113061Y313257D01*
X112709Y313784D01*
X112314Y314268D01*
X111830Y314663D01*
X111259Y314971D01*
X110600Y315147D01*
X109853Y315234D01*
D02*
G37*
G36*
X110891Y283235D02*
X105618D01*
Y270623D01*
X110979D01*
X111243Y270667D01*
X111594Y270711D01*
X112078Y270799D01*
X112605Y270975D01*
X113132Y271238D01*
X113615Y271634D01*
X114055Y272117D01*
X114099Y272205D01*
X114231Y272425D01*
X114406Y272776D01*
X114582Y273304D01*
X114758Y273963D01*
X114934Y274798D01*
X115065Y275808D01*
X115110Y276380D01*
Y276995D01*
Y277083D01*
Y277258D01*
X115065Y277566D01*
Y277961D01*
X114978Y278445D01*
X114890Y278972D01*
X114758Y279543D01*
X114582Y280115D01*
X114362Y280686D01*
X114099Y281257D01*
X113747Y281784D01*
X113352Y282268D01*
X112868Y282663D01*
X112297Y282971D01*
X111638Y283147D01*
X110891Y283235D01*
D02*
G37*
G36*
X-269185Y75218D02*
X-274443Y71183D01*
X-275308Y64613D01*
X-271273Y59355D01*
X-264702Y58490D01*
X-259445Y62524D01*
X-258580Y69095D01*
X-262614Y74353D01*
X-269185Y75218D01*
D02*
G37*
G36*
X292783Y90655D02*
X286213Y89789D01*
X282178Y84532D01*
X283043Y77961D01*
X288301Y73926D01*
X294872Y74791D01*
X298906Y80049D01*
X298041Y86620D01*
X292783Y90655D01*
D02*
G37*
G36*
X204970Y92932D02*
X199613Y90712D01*
X197393Y85355D01*
X199613Y79998D01*
X204970Y77778D01*
X210327Y79998D01*
X212547Y85355D01*
X210327Y90712D01*
X204970Y92932D01*
D02*
G37*
G36*
X219570Y84407D02*
X214212Y82188D01*
X211993Y76830D01*
X214212Y71473D01*
X219570Y69253D01*
X224928Y71473D01*
X227147Y76830D01*
X224928Y82188D01*
X219570Y84407D01*
D02*
G37*
G36*
X-296472Y89355D02*
X-301730Y85321D01*
X-302595Y78750D01*
X-298560Y73492D01*
X-291989Y72627D01*
X-286731Y76662D01*
X-285866Y83232D01*
X-289901Y88490D01*
X-296472Y89355D01*
D02*
G37*
G36*
X267383Y134649D02*
X260813Y133784D01*
X256778Y128526D01*
X257643Y121955D01*
X262901Y117921D01*
X269472Y118786D01*
X273506Y124043D01*
X272641Y130614D01*
X267383Y134649D01*
D02*
G37*
G36*
X216583Y222637D02*
X210013Y221772D01*
X205978Y216514D01*
X206843Y209943D01*
X212101Y205909D01*
X218672Y206774D01*
X222706Y212032D01*
X221841Y218602D01*
X216583Y222637D01*
D02*
G37*
G36*
X178046Y227985D02*
X171476Y227120D01*
X167441Y221862D01*
X168306Y215291D01*
X173564Y211257D01*
X180135Y212122D01*
X184169Y217379D01*
X183304Y223950D01*
X178046Y227985D01*
D02*
G37*
G36*
X-180285Y229197D02*
X-185543Y225163D01*
X-186408Y218592D01*
X-182373Y213334D01*
X-175802Y212469D01*
X-170544Y216504D01*
X-169680Y223074D01*
X-173714Y228332D01*
X-180285Y229197D01*
D02*
G37*
G36*
X190746Y205988D02*
X184176Y205123D01*
X180141Y199865D01*
X181006Y193294D01*
X186264Y189260D01*
X192835Y190125D01*
X196869Y195382D01*
X196004Y201953D01*
X190746Y205988D01*
D02*
G37*
G36*
X-192985Y207200D02*
X-198243Y203166D01*
X-199108Y196595D01*
X-195073Y191337D01*
X-188502Y190472D01*
X-183244Y194506D01*
X-182379Y201077D01*
X-186414Y206335D01*
X-192985Y207200D01*
D02*
G37*
G36*
X-220272Y221338D02*
X-225529Y217303D01*
X-226395Y210732D01*
X-222360Y205475D01*
X-215789Y204610D01*
X-210532Y208644D01*
X-209666Y215215D01*
X-213701Y220473D01*
X-220272Y221338D01*
D02*
G37*
G36*
X57904Y253832D02*
X41355Y246977D01*
X37374Y245626D01*
X37262Y245527D01*
X37113Y245518D01*
X33342Y243658D01*
X16793Y236803D01*
X10536Y221698D01*
X4167Y219060D01*
X4167Y219060D01*
X3769Y218396D01*
X3624Y218440D01*
X3403Y218418D01*
X3208Y218522D01*
X-1183Y218955D01*
X-1396Y218890D01*
X-1608Y218955D01*
X-5999Y218522D01*
X-6194Y218418D01*
X-6415Y218440D01*
X-10638Y217159D01*
X-10809Y217018D01*
X-11030Y216996D01*
X-14921Y214916D01*
X-15062Y214745D01*
X-15274Y214681D01*
X-18685Y211881D01*
X-18789Y211686D01*
X-18985Y211581D01*
X-21784Y208170D01*
X-21848Y207958D01*
X-22020Y207818D01*
X-24100Y203926D01*
X-24121Y203706D01*
X-24262Y203534D01*
X-25543Y199312D01*
X-25521Y199091D01*
X-25626Y198895D01*
X-26058Y194504D01*
X-25994Y194292D01*
X-26058Y194080D01*
X-25626Y189689D01*
X-25521Y189493D01*
X-25543Y189273D01*
X-24808Y186849D01*
X-25764Y185893D01*
X-31887Y188429D01*
X-46090D01*
X-46796Y189485D01*
X-45506Y192600D01*
Y208950D01*
X-45470D01*
Y213915D01*
X-44876Y215350D01*
X-44976Y215591D01*
Y238950D01*
X-45470Y240144D01*
Y245450D01*
X-57470D01*
Y240144D01*
X-57835Y239262D01*
X-59105D01*
X-59470Y240143D01*
Y245450D01*
X-71470D01*
Y245444D01*
X-78270D01*
X-82862Y243542D01*
X-84764Y238950D01*
X-82862Y234358D01*
X-78270Y232456D01*
X-71470D01*
Y232450D01*
X-59470D01*
Y237435D01*
X-58488Y238241D01*
X-57964Y238137D01*
Y216263D01*
X-58488Y216159D01*
X-59470Y216965D01*
Y221950D01*
X-71470D01*
Y221944D01*
X-78270D01*
X-82862Y220042D01*
X-84764Y215450D01*
X-82862Y210858D01*
X-78270Y208956D01*
X-71470D01*
Y208950D01*
X-59659D01*
X-59659Y208950D01*
X-59470D01*
Y208950D01*
X-59392D01*
X-58494Y208052D01*
Y206632D01*
X-59120Y206214D01*
X-82030D01*
X-88768Y212952D01*
X-93360Y214854D01*
X-137350D01*
X-141942Y212952D01*
X-145382Y209512D01*
X-147284Y204920D01*
X-146743Y203613D01*
Y197860D01*
X-146040Y196162D01*
Y191360D01*
X-137243D01*
Y180360D01*
X-146040D01*
Y175558D01*
X-146743Y173860D01*
Y166520D01*
X-145572Y163694D01*
X-146628Y162988D01*
X-155463Y171823D01*
X-161586Y174359D01*
X-176350D01*
X-182473Y171823D01*
X-200353Y153943D01*
X-202889Y147820D01*
Y64130D01*
X-200353Y58007D01*
X-182623Y40277D01*
X-176500Y37741D01*
X-170377Y40277D01*
X-167841Y46400D01*
X-170377Y52523D01*
X-185571Y67717D01*
Y144233D01*
X-178732Y151072D01*
X-177559Y150586D01*
Y147620D01*
X-175023Y141497D01*
X-170405Y136879D01*
X-170652Y135633D01*
X-175023Y133823D01*
X-177559Y127700D01*
X-175023Y121577D01*
X-172259Y118813D01*
Y107900D01*
X-169723Y101777D01*
X-93023Y25077D01*
X-86900Y22541D01*
X-29800D01*
Y16900D01*
X-22070D01*
Y25903D01*
X-19530D01*
Y16900D01*
X-11800D01*
Y22541D01*
X57400D01*
X63523Y25077D01*
X83829Y45384D01*
X88063Y47137D01*
X90587Y53230D01*
X80697D01*
Y55770D01*
X90587D01*
X88063Y61863D01*
X86536Y62495D01*
X86784Y63741D01*
X126113D01*
X177877Y11977D01*
X184000Y9441D01*
X251861D01*
X257984Y11977D01*
X283528Y37521D01*
X284393Y39610D01*
X285769Y41403D01*
X285616Y42563D01*
X286064Y43644D01*
X285199Y45733D01*
X284904Y47974D01*
X283976Y48686D01*
X283528Y49767D01*
X281440Y50632D01*
X279646Y52008D01*
Y52008D01*
D01*
X279453Y53478D01*
X279774Y53799D01*
X298564D01*
X301001Y51929D01*
X307572Y52794D01*
X311606Y58052D01*
X310741Y64623D01*
X305483Y68657D01*
X298913Y67793D01*
X298142Y66788D01*
X277084D01*
X273818Y65435D01*
X272718Y66070D01*
X272204Y69971D01*
X266946Y74005D01*
X260376Y73140D01*
X256341Y67882D01*
X257206Y61312D01*
X262464Y57277D01*
X263291Y57386D01*
X263853Y56247D01*
X255964Y48358D01*
X253860Y49229D01*
X250190Y47709D01*
X186447D01*
X136263Y97893D01*
X130140Y100429D01*
X28580D01*
X22457Y97893D01*
X19921Y91770D01*
X22457Y85647D01*
X28580Y83111D01*
X126553D01*
X127432Y82232D01*
X126946Y81059D01*
X57400D01*
X57400Y81059D01*
X51277Y78523D01*
X35913Y63159D01*
X34933D01*
X30700Y64913D01*
X23337Y61863D01*
X20287Y54500D01*
X23337Y47137D01*
X30700Y44087D01*
X34933Y45841D01*
X39500D01*
X45623Y48377D01*
X60987Y63741D01*
X74616D01*
X74864Y62495D01*
X73337Y61863D01*
X71584Y57629D01*
X53813Y39859D01*
X-83313D01*
X-154941Y111487D01*
Y119756D01*
X-153768Y120242D01*
X-143943Y110417D01*
X-137820Y107881D01*
X-136630D01*
Y104540D01*
X-133289D01*
Y99640D01*
X-130753Y93517D01*
X-82413Y45177D01*
X-76290Y42641D01*
X-76290Y42641D01*
X-23413D01*
X-20800Y41558D01*
X-13912Y44412D01*
X-11058Y51300D01*
X-13912Y58188D01*
X-20800Y61041D01*
X-23413Y59959D01*
X-72703D01*
X-115971Y103227D01*
Y104540D01*
X-112630D01*
Y126186D01*
X-106200D01*
X-95658Y115643D01*
X-93493Y110417D01*
X-87370Y107881D01*
X-29432D01*
X-29214Y107355D01*
X-20030Y103551D01*
X-10846Y107355D01*
X-7041Y116540D01*
X-10846Y125724D01*
X-20030Y129529D01*
X-29214Y125724D01*
X-29432Y125199D01*
X-86845D01*
X-98918Y137272D01*
X-103510Y139174D01*
X-112420D01*
X-113126Y140230D01*
X-111395Y144410D01*
X-120612D01*
Y146950D01*
X-111395D01*
X-113058Y150965D01*
X-112352Y152021D01*
X-37597D01*
X-26981Y141405D01*
X-25898Y138792D01*
X-19010Y135939D01*
X-12122Y138792D01*
X-9933Y144077D01*
X-8687Y144324D01*
X4141Y131496D01*
Y113887D01*
X-25075Y84671D01*
X-27688Y83588D01*
X-30542Y76700D01*
X-27688Y69812D01*
X-20800Y66958D01*
X-13912Y69812D01*
X-12829Y72425D01*
X18923Y104177D01*
X21459Y110300D01*
Y135083D01*
X18923Y141206D01*
X-9736Y169865D01*
X-9083Y170954D01*
X-6415Y170145D01*
X-6194Y170166D01*
X-5999Y170062D01*
X-1608Y169629D01*
X-1396Y169694D01*
X-1183Y169629D01*
X3208Y170062D01*
X3403Y170166D01*
X3624Y170145D01*
X6100Y170896D01*
X6398Y170417D01*
X6398Y170417D01*
X9453Y169152D01*
X16193Y152881D01*
X32742Y146026D01*
X36513Y144167D01*
X36662Y144157D01*
X36774Y144058D01*
X40755Y142707D01*
X57304Y135852D01*
X73854Y142707D01*
X77835Y144058D01*
X77947Y144157D01*
X78096Y144167D01*
X81867Y146026D01*
X98416Y152881D01*
X104865Y168452D01*
X112042Y171424D01*
X112042Y171424D01*
X112287Y171833D01*
X114044Y171300D01*
X114265Y171321D01*
X114460Y171217D01*
X118851Y170784D01*
X119064Y170849D01*
X119276Y170784D01*
X123667Y171217D01*
X123863Y171321D01*
X124083Y171300D01*
X128306Y172581D01*
X128477Y172721D01*
X128698Y172743D01*
X132589Y174823D01*
X132730Y174994D01*
X132942Y175059D01*
X136353Y177858D01*
X136457Y178053D01*
X136653Y178158D01*
X139452Y181569D01*
X139516Y181781D01*
X139688Y181922D01*
X141768Y185813D01*
X141790Y186034D01*
X141930Y186205D01*
X143211Y190428D01*
X143189Y190648D01*
X143294Y190844D01*
X143726Y195235D01*
X143662Y195447D01*
X143726Y195659D01*
X143294Y200051D01*
X143189Y200246D01*
X143211Y200467D01*
X141930Y204689D01*
X141790Y204860D01*
X141768Y205081D01*
X139688Y208973D01*
X139516Y209113D01*
X139452Y209325D01*
X136653Y212736D01*
X136457Y212841D01*
X136353Y213036D01*
X132942Y215836D01*
X132730Y215900D01*
X132589Y216071D01*
X128698Y218151D01*
X128477Y218173D01*
X128306Y218314D01*
X124083Y219595D01*
X123863Y219573D01*
X123667Y219677D01*
X119276Y220110D01*
X119064Y220046D01*
X118851Y220110D01*
X114460Y219677D01*
X114265Y219573D01*
X114044Y219595D01*
X110600Y218550D01*
X109544Y219255D01*
X109497Y219732D01*
X109811Y220067D01*
X105148Y221998D01*
X99016Y236803D01*
X82466Y243658D01*
X78696Y245518D01*
X78547Y245527D01*
X78435Y245626D01*
X74454Y246977D01*
X57904Y253832D01*
D02*
G37*
G36*
X-167585Y251194D02*
X-172843Y247160D01*
X-173708Y240589D01*
X-169673Y235331D01*
X-163102Y234466D01*
X-157844Y238501D01*
X-156980Y245071D01*
X-161014Y250329D01*
X-167585Y251194D01*
D02*
G37*
G36*
X-194872Y265332D02*
X-200130Y261297D01*
X-200995Y254727D01*
X-196960Y249469D01*
X-190389Y248604D01*
X-185131Y252638D01*
X-184266Y259209D01*
X-188301Y264467D01*
X-194872Y265332D01*
D02*
G37*
G36*
X191183Y266631D02*
X184613Y265766D01*
X180578Y260508D01*
X181443Y253937D01*
X186701Y249903D01*
X193272Y250768D01*
X197306Y256026D01*
X196441Y262596D01*
X191183Y266631D01*
D02*
G37*
G36*
X-207572Y243335D02*
X-212829Y239300D01*
X-213695Y232730D01*
X-209660Y227472D01*
X-203089Y226607D01*
X-197831Y230641D01*
X-196966Y237212D01*
X-201001Y242470D01*
X-207572Y243335D01*
D02*
G37*
G36*
X203883Y244634D02*
X197313Y243769D01*
X193278Y238511D01*
X194143Y231940D01*
X199401Y227906D01*
X205972Y228771D01*
X210006Y234029D01*
X209141Y240599D01*
X203883Y244634D01*
D02*
G37*
G36*
X165346Y249982D02*
X158776Y249117D01*
X154741Y243859D01*
X155606Y237288D01*
X160864Y233254D01*
X167435Y234119D01*
X171469Y239377D01*
X170604Y245947D01*
X165346Y249982D01*
D02*
G37*
G36*
X229283Y200640D02*
X222713Y199775D01*
X218678Y194517D01*
X219543Y187946D01*
X224801Y183912D01*
X231372Y184777D01*
X235406Y190035D01*
X234541Y196605D01*
X229283Y200640D01*
D02*
G37*
G36*
X-245672Y177344D02*
X-250930Y173309D01*
X-251795Y166738D01*
X-247760Y161481D01*
X-241189Y160616D01*
X-235931Y164650D01*
X-235066Y171221D01*
X-239101Y176479D01*
X-245672Y177344D01*
D02*
G37*
G36*
X-258372Y155347D02*
X-263629Y151312D01*
X-264495Y144741D01*
X-260460Y139483D01*
X-253889Y138618D01*
X-248631Y142653D01*
X-247766Y149224D01*
X-251801Y154482D01*
X-258372Y155347D01*
D02*
G37*
G36*
X-218385Y163206D02*
X-223643Y159171D01*
X-224508Y152601D01*
X-220473Y147343D01*
X-213902Y146478D01*
X-208645Y150512D01*
X-207780Y157083D01*
X-211814Y162341D01*
X-218385Y163206D01*
D02*
G37*
G36*
X254683Y156646D02*
X248113Y155781D01*
X244078Y150523D01*
X244943Y143952D01*
X250201Y139918D01*
X256772Y140783D01*
X260806Y146040D01*
X259941Y152611D01*
X254683Y156646D01*
D02*
G37*
G36*
X216146Y161994D02*
X209576Y161129D01*
X205541Y155871D01*
X206406Y149300D01*
X211664Y145266D01*
X218235Y146131D01*
X222269Y151388D01*
X221404Y157959D01*
X216146Y161994D01*
D02*
G37*
G36*
X241983Y178643D02*
X235413Y177778D01*
X231378Y172520D01*
X232243Y165949D01*
X237501Y161915D01*
X244072Y162780D01*
X248106Y168037D01*
X247241Y174608D01*
X241983Y178643D01*
D02*
G37*
G36*
X228846Y139997D02*
X222276Y139131D01*
X218241Y133874D01*
X219106Y127303D01*
X224364Y123268D01*
X230935Y124134D01*
X234969Y129391D01*
X234104Y135962D01*
X228846Y139997D01*
D02*
G37*
G36*
X-232972Y199341D02*
X-238230Y195306D01*
X-239095Y188736D01*
X-235060Y183478D01*
X-228489Y182613D01*
X-223232Y186647D01*
X-222366Y193218D01*
X-226401Y198476D01*
X-232972Y199341D01*
D02*
G37*
G36*
X-231085Y141209D02*
X-236343Y137175D01*
X-237208Y130604D01*
X-233173Y125346D01*
X-226602Y124481D01*
X-221345Y128515D01*
X-220480Y135086D01*
X-224514Y140344D01*
X-231085Y141209D01*
D02*
G37*
G36*
X203446Y183991D02*
X196876Y183126D01*
X192841Y177868D01*
X193706Y171297D01*
X198964Y167263D01*
X205535Y168128D01*
X209569Y173386D01*
X208704Y179956D01*
X203446Y183991D01*
D02*
G37*
G36*
X-205685Y185203D02*
X-210943Y181169D01*
X-211808Y174598D01*
X-207773Y169340D01*
X-201202Y168475D01*
X-195944Y172509D01*
X-195079Y179080D01*
X-199114Y184338D01*
X-205685Y185203D01*
D02*
G37*
%LPD*%
G36*
X61896Y216568D02*
X66118Y215287D01*
X70009Y213207D01*
X73420Y210408D01*
X76220Y206997D01*
X78299Y203106D01*
X79580Y198883D01*
X80013Y194492D01*
X79580Y190101D01*
X78299Y185879D01*
X76220Y181987D01*
X73420Y178576D01*
X70009Y175777D01*
X66118Y173697D01*
X61896Y172416D01*
X57504Y171984D01*
X53113Y172416D01*
X48891Y173697D01*
X44999Y175777D01*
X41589Y178576D01*
X38789Y181987D01*
X36709Y185879D01*
X35429Y190101D01*
X34996Y194492D01*
X35429Y198883D01*
X36709Y203106D01*
X38789Y206997D01*
X41589Y210408D01*
X44999Y213207D01*
X48891Y215287D01*
X53113Y216568D01*
X57504Y217001D01*
X61896Y216568D01*
D02*
G37*
G36*
X64669Y247078D02*
X71319Y245755D01*
X77739Y243576D01*
X83819Y240578D01*
X89456Y236811D01*
X94553Y232341D01*
X99023Y227244D01*
X102790Y221607D01*
X105788Y215526D01*
X105935Y215096D01*
X105857Y215065D01*
X106055Y214588D01*
X105651Y213613D01*
X105385Y213502D01*
X105379Y213512D01*
X105381Y213516D01*
X105373Y213521D01*
X105379Y213512D01*
X105238Y213172D01*
X104263Y212768D01*
X103333Y213153D01*
X103392Y213217D01*
X103405Y213230D01*
X99474Y216743D01*
X93421Y221038D01*
X86924Y224629D01*
X80066Y227470D01*
X72934Y229524D01*
X65616Y230768D01*
X58204Y231184D01*
X50793Y230768D01*
X43475Y229524D01*
X36343Y227470D01*
X29485Y224629D01*
X22988Y221038D01*
X16934Y216743D01*
X11967Y212304D01*
X14520Y210208D01*
X17319Y206797D01*
X19399Y202906D01*
X20680Y198683D01*
X21113Y194292D01*
X20680Y189901D01*
X19399Y185679D01*
X17319Y181787D01*
X14520Y178376D01*
X12971Y177105D01*
X16734Y173741D01*
X22788Y169446D01*
X29285Y165855D01*
X36143Y163015D01*
X43275Y160960D01*
X50593Y159717D01*
X58004Y159300D01*
X65416Y159717D01*
X72733Y160960D01*
X79866Y163015D01*
X86724Y165855D01*
X93221Y169446D01*
X99274Y173741D01*
X104506Y178417D01*
X103148Y179531D01*
X100349Y182942D01*
X98269Y186834D01*
X96988Y191056D01*
X96555Y195447D01*
X96988Y199838D01*
X98269Y204061D01*
X100349Y207952D01*
X103148Y211363D01*
X106559Y214162D01*
X110450Y216242D01*
X114672Y217523D01*
X119064Y217955D01*
X123455Y217523D01*
X127677Y216242D01*
X131569Y214162D01*
X134979Y211363D01*
X137779Y207952D01*
X139859Y204061D01*
X141140Y199838D01*
X141572Y195447D01*
X141140Y191056D01*
X139859Y186834D01*
X137779Y182942D01*
X134979Y179531D01*
X131569Y176732D01*
X127677Y174652D01*
X123455Y173371D01*
X119064Y172939D01*
X114672Y173371D01*
X110450Y174652D01*
X106559Y176732D01*
X106499Y176781D01*
X105967Y176305D01*
X105930Y176343D01*
X105188Y174158D01*
X102190Y168078D01*
X98423Y162440D01*
X93953Y157343D01*
X88856Y152873D01*
X83219Y149107D01*
X77139Y146108D01*
X70719Y143929D01*
X64069Y142606D01*
X57304Y142163D01*
X50539Y142606D01*
X43890Y143929D01*
X37470Y146108D01*
X31390Y149107D01*
X25753Y152873D01*
X20656Y157343D01*
X16185Y162440D01*
X12419Y168078D01*
X9420Y174158D01*
X9274Y174588D01*
X9351Y174620D01*
X9345Y174634D01*
X7218Y173497D01*
X2996Y172216D01*
X-1396Y171784D01*
X-5787Y172216D01*
X-10009Y173497D01*
X-13901Y175577D01*
X-17311Y178376D01*
X-20111Y181787D01*
X-22191Y185679D01*
X-23472Y189901D01*
X-23904Y194292D01*
X-23472Y198683D01*
X-22191Y202906D01*
X-20111Y206797D01*
X-17311Y210208D01*
X-13901Y213007D01*
X-10009Y215087D01*
X-5787Y216368D01*
X-1396Y216800D01*
X2996Y216368D01*
X7218Y215087D01*
X9464Y213887D01*
X10020Y215526D01*
X13019Y221607D01*
X16786Y227244D01*
X21256Y232341D01*
X26353Y236811D01*
X31990Y240578D01*
X38070Y243576D01*
X44490Y245755D01*
X51139Y247078D01*
X57904Y247521D01*
X64669Y247078D01*
D02*
G37*
%LPC*%
G36*
X105921Y176352D02*
X105930Y176343D01*
X105932Y176348D01*
X105921Y176352D01*
D02*
G37*
%LPD*%
D10*
X10532Y175097D02*
G03*
X104766Y176903I46772J18895D01*
G01*
X104676Y214588D02*
G03*
X10443Y212781I-46772J-18895D01*
G01*
X104263Y214147D02*
G03*
X10586Y212638I-46059J-49155D01*
G01*
X11946Y176338D02*
G03*
X105623Y177847I46059J49155D01*
G01*
D11*
X-121790Y173860D02*
D03*
X-131290D02*
D03*
X-140790D02*
D03*
Y197860D02*
D03*
X-131290D02*
D03*
X-121790D02*
D03*
D12*
X-51470Y238950D02*
D03*
X-65470D02*
D03*
Y215450D02*
D03*
X-51470D02*
D03*
D13*
X28580Y91770D02*
X130140D01*
X-87370Y116540D02*
X-20030D01*
X182860Y39050D02*
X252340D01*
X253860Y40570D01*
X251861Y18100D02*
X277405Y43644D01*
X184000Y18100D02*
X251861D01*
X130140Y91770D02*
X182860Y39050D01*
X12800Y110300D02*
Y135083D01*
X-126680Y185410D02*
X-112140D01*
X-106500Y179770D01*
X-31887D02*
X12800Y135083D01*
X-106500Y179770D02*
X-31887D01*
X-168900Y147620D02*
Y151700D01*
Y147620D02*
X-137820Y116540D01*
X-124630D01*
Y99640D02*
Y116540D01*
Y99640D02*
X-76290Y51300D01*
X-20800D01*
X-34010Y160680D02*
X-19010Y145680D01*
X-126823Y160680D02*
X-34010D01*
X-127563Y159940D02*
X-126823Y160680D01*
X-134210Y159940D02*
X-127563D01*
X-86900Y31200D02*
X57400D01*
X-161586Y165700D02*
X-134050Y138164D01*
X-176350Y165700D02*
X-161586D01*
X-194230Y147820D02*
X-176350Y165700D01*
X-194230Y64130D02*
Y147820D01*
Y64130D02*
X-176500Y46400D01*
X-20800Y76700D02*
X12800Y110300D01*
X-168900Y127700D02*
X-163600Y122400D01*
Y107900D02*
X-86900Y31200D01*
X-163600Y107900D02*
Y122400D01*
X129700Y72400D02*
X184000Y18100D01*
X57400Y72400D02*
X129700D01*
X39500Y54500D02*
X57400Y72400D01*
X30700Y54500D02*
X39500D01*
X57400Y31200D02*
X80700Y54500D01*
D14*
X-134050Y138164D02*
X-128566Y132680D01*
X-103510D01*
X-87370Y116540D01*
X253860Y40570D02*
X257360D01*
X277084Y60293D01*
X-59120Y199720D02*
X-52000Y192600D01*
X-84720Y199720D02*
X-59120D01*
X-93360Y208360D02*
X-84720Y199720D01*
X277084Y60293D02*
X303242D01*
X-137350Y208360D02*
X-93360D01*
X-140790Y204920D02*
X-137350Y208360D01*
X-51470Y215450D02*
X-51370Y215350D01*
X-52000Y192600D02*
Y209000D01*
X-78270Y215450D02*
X-65470D01*
X-78270Y238950D02*
X-65470D01*
X-51470Y215450D02*
Y238950D01*
D15*
X-131290Y173860D02*
Y197860D01*
X-140790Y166520D02*
X-134210Y159940D01*
X-140790Y166520D02*
Y173860D01*
Y197860D02*
Y204920D01*
X-131290Y173860D02*
X-121790D01*
X-131290Y197860D02*
X-121790D01*
D16*
X247769Y87638D02*
X252005D01*
X-192631Y256968D02*
X-190798Y258800D01*
X-230730Y190977D02*
Y193239D01*
X-205331Y234971D02*
X-200798D01*
X277842Y101611D02*
Y104288D01*
X201642Y233411D02*
Y236270D01*
D17*
X-120610Y145680D02*
D03*
X-19010D02*
D03*
D18*
X-20030Y116540D02*
D03*
D19*
X-124630D02*
D03*
D20*
X80700Y54500D02*
D03*
X30700D02*
D03*
D21*
X-168900Y151700D02*
D03*
D22*
Y127700D02*
D03*
X219570Y112360D02*
D03*
X204970Y103360D02*
D03*
X219570Y94360D02*
D03*
X204970Y85355D02*
D03*
X219570Y76830D02*
D03*
D23*
X-20800Y76700D02*
D03*
Y51300D02*
D03*
D24*
Y25900D02*
D03*
D25*
X303242Y60293D02*
D03*
X290542Y82290D02*
D03*
X277842Y104288D02*
D03*
X265142Y126285D02*
D03*
X252442Y148282D02*
D03*
X239742Y170279D02*
D03*
X227042Y192276D02*
D03*
X214342Y214273D02*
D03*
X201642Y236270D02*
D03*
X188942Y258267D02*
D03*
X163105Y241618D02*
D03*
X175805Y219621D02*
D03*
X188505Y197624D02*
D03*
X201205Y175627D02*
D03*
X213905Y153630D02*
D03*
X226605Y131632D02*
D03*
X239305Y109635D02*
D03*
X252005Y87638D02*
D03*
X264705Y65641D02*
D03*
X277405Y43644D02*
D03*
X-279643Y44857D02*
D03*
X-266943Y66854D02*
D03*
X-254244Y88851D02*
D03*
X-241544Y110848D02*
D03*
X-228843Y132845D02*
D03*
X-216143Y154842D02*
D03*
X-203444Y176839D02*
D03*
X-190744Y198836D02*
D03*
X-178043Y220833D02*
D03*
X-165343Y242830D02*
D03*
X-192631Y256968D02*
D03*
X-205331Y234971D02*
D03*
X-218030Y212974D02*
D03*
X-230730Y190977D02*
D03*
X-243431Y168980D02*
D03*
X-256131Y146982D02*
D03*
X-268831Y124986D02*
D03*
X-281530Y102988D02*
D03*
X-294230Y80991D02*
D03*
X-306931Y58994D02*
D03*
D26*
X28580Y91770D02*
D03*
X-52000Y192600D02*
D03*
X-78270Y238950D02*
D03*
Y215450D02*
D03*
X-176500Y46400D02*
D03*
M02*
