G04 DipTrace 2.1.0.5*
%INTop Paste.gbr*%
%MOIN*%
%ADD10C,0.0098*%
%ADD11C,0.0055*%
%ADD12C,0.003*%
%ADD13C,0.05*%
%ADD14C,0.025*%
%ADD15C,0.01*%
%ADD16C,0.0125*%
%ADD17C,0.02*%
%ADD18C,0.1*%
%ADD19C,0.0013*%
%ADD20C,0.15*%
%ADD21C,0.0039*%
%ADD22R,0.0591X0.0591*%
%ADD23C,0.0591*%
%ADD24R,0.0433X0.0394*%
%ADD25R,0.0512X0.0591*%
%ADD26R,0.0591X0.0512*%
%ADD27R,0.0394X0.0433*%
%ADD28R,0.063X0.0709*%
%ADD29R,0.0886X0.0197*%
%ADD30R,0.1378X0.0807*%
%ADD31R,0.1535X0.0807*%
%ADD32C,0.0551*%
%ADD33C,0.0984*%
%ADD34R,0.0665X0.0665*%
%ADD35C,0.0665*%
%ADD36C,0.1874*%
%ADD37R,0.0748X0.0394*%
%ADD38R,0.0866X0.0551*%
%ADD39R,0.0354X0.0551*%
%ADD40C,0.0591*%
%ADD41C,0.0512*%
%ADD42R,0.1181X0.0433*%
%ADD43R,0.0787X0.1181*%
%ADD44R,0.0394X0.1181*%
%ADD45C,0.0709*%
%ADD46R,0.063X0.063*%
%ADD47C,0.063*%
%ADD48C,0.0142*%
%ADD49R,0.0315X0.0217*%
%ADD50C,0.06*%
%ADD51C,0.0669*%
%ADD52R,0.0512X0.0512*%
%ADD53C,0.0709*%
%ADD54R,0.0315X0.0512*%
%ADD55R,0.0512X0.0315*%
%ADD56R,0.0512X0.0236*%
%ADD57R,0.0138X0.0571*%
%ADD58C,0.0197*%
%ADD59R,0.0748X0.0098*%
%ADD60R,0.0098X0.0748*%
%ADD61R,0.0315X0.0354*%
%ADD62R,0.0669X0.0598*%
%ADD63C,0.0827*%
%ADD64C,0.1181*%
%ADD65C,0.126*%
%ADD66C,0.1772*%
%ADD67R,0.0394X0.0669*%
%ADD68R,0.0098X0.0472*%
%ADD69R,0.0472X0.0098*%
%ADD70R,0.0787X0.0787*%
%ADD71R,0.1811X0.0197*%
%ADD72R,0.1811X0.0315*%
%ADD73R,0.1535X0.1378*%
%ADD74C,0.1476*%
%ADD75R,0.0669X0.0394*%
%ADD76R,0.0394X0.0472*%
%ADD77C,0.22*%
%ADD78C,0.04*%
%ADD79C,0.0191*%
%ADD80C,0.0394*%
%ADD81C,0.0354*%
%ADD82C,0.0429*%
%ADD83C,0.1283*%
%ADD84C,0.038*%
%ADD85C,0.0315*%
%ADD86C,0.0276*%
%ADD87C,0.063*%
%ADD88C,0.0906*%
%ADD89C,0.1181*%
%ADD90C,0.128*%
%ADD91C,0.13*%
%ADD92C,0.0079*%
%ADD93C,0.0479*%
%ADD94C,0.0321*%
%ADD95C,0.2279*%
%ADD96C,0.2121*%
%ADD97R,0.0472X0.0551*%
%ADD98R,0.0315X0.0394*%
%ADD99R,0.0748X0.0472*%
%ADD100R,0.0591X0.0315*%
%ADD101C,0.1555*%
%ADD102C,0.1398*%
%ADD103R,0.1614X0.1457*%
%ADD104R,0.1457X0.1299*%
%ADD105R,0.189X0.0394*%
%ADD106R,0.1732X0.0236*%
%ADD107R,0.189X0.0276*%
%ADD108R,0.1732X0.0118*%
%ADD109R,0.0866X0.0866*%
%ADD110R,0.0709X0.0709*%
%ADD111R,0.0551X0.0177*%
%ADD112R,0.0394X0.002*%
%ADD113R,0.0177X0.0551*%
%ADD114R,0.002X0.0394*%
%ADD115R,0.0472X0.0748*%
%ADD116R,0.0315X0.0591*%
%ADD117C,0.185*%
%ADD118C,0.1693*%
%ADD119C,0.1339*%
%ADD120C,0.1102*%
%ADD121C,0.0906*%
%ADD122C,0.0748*%
%ADD123R,0.0748X0.0677*%
%ADD124R,0.0591X0.052*%
%ADD125R,0.0236X0.0276*%
%ADD126R,0.0177X0.0827*%
%ADD127R,0.002X0.0669*%
%ADD128R,0.0827X0.0177*%
%ADD129R,0.0669X0.002*%
%ADD130R,0.0217X0.065*%
%ADD131R,0.0059X0.0492*%
%ADD132R,0.0433X0.0157*%
%ADD133R,0.0591X0.0394*%
%ADD134R,0.0433X0.0236*%
%ADD135R,0.0394X0.0591*%
%ADD136R,0.0236X0.0433*%
%ADD137C,0.0787*%
%ADD138R,0.0433X0.0433*%
%ADD139C,0.0748*%
%ADD140C,0.0679*%
%ADD141C,0.0521*%
%ADD142R,0.0394X0.0295*%
%ADD143R,0.0236X0.0138*%
%ADD144R,0.0551X0.0551*%
%ADD145C,0.0787*%
%ADD146R,0.0472X0.126*%
%ADD147R,0.0315X0.1102*%
%ADD148R,0.0866X0.126*%
%ADD149R,0.0709X0.1102*%
%ADD150R,0.126X0.0512*%
%ADD151R,0.1102X0.0354*%
%ADD152C,0.0433*%
%ADD153C,0.0669*%
%ADD154C,0.0512*%
%ADD155R,0.0433X0.063*%
%ADD156R,0.0276X0.0472*%
%ADD157R,0.0945X0.063*%
%ADD158R,0.0787X0.0472*%
%ADD159R,0.0827X0.0472*%
%ADD160R,0.0669X0.0315*%
%ADD161C,0.1953*%
%ADD162C,0.1795*%
%ADD163C,0.0744*%
%ADD164C,0.0587*%
%ADD165R,0.0744X0.0744*%
%ADD166R,0.0587X0.0587*%
%ADD167C,0.1063*%
%ADD168C,0.0472*%
%ADD169R,0.1614X0.0886*%
%ADD170R,0.1457X0.0728*%
%ADD171R,0.1457X0.0886*%
%ADD172R,0.1299X0.0728*%
%ADD173R,0.0965X0.0276*%
%ADD174R,0.0807X0.0118*%
%ADD175R,0.0709X0.0787*%
%ADD176R,0.0551X0.063*%
%ADD177R,0.0472X0.0512*%
%ADD178R,0.0669X0.0591*%
%ADD179R,0.0512X0.0433*%
%ADD180R,0.0591X0.0669*%
%ADD181R,0.0433X0.0512*%
%ADD182R,0.0512X0.0472*%
%ADD183R,0.0354X0.0315*%
%ADD184R,0.0669X0.0669*%
%ADD185C,0.0093*%
%ADD186C,0.0077*%
%ADD187C,0.0154*%
%ADD188C,0.0062*%
%ADD189C,0.0124*%
%FSLAX44Y44*%
%SFA1B1*%
%OFA0B0*%
G04*
G70*
G90*
G75*
G01*
%LNTopPaste*%
%LPD*%
D183*
X15165Y24250D3*
X15835D3*
X15165Y25250D3*
X15835D3*
D181*
X5626Y16000D3*
X6374D3*
D183*
X14165Y28500D3*
X14835D3*
X14165Y27500D3*
X14835D3*
D174*
X2750Y29630D3*
Y29000D3*
Y29315D3*
Y28685D3*
D172*
Y27061D3*
Y30939D3*
D170*
X1077D3*
Y27061D3*
D174*
X2750Y28370D3*
D176*
X5449Y17000D3*
X6551D3*
D160*
X28500Y18209D3*
Y16791D3*
D158*
X6630Y18000D3*
D156*
X5626D3*
G36*
X14764Y42736D2*
Y43524D1*
X15236D1*
Y42736D1*
X14764D1*
G37*
G36*
Y41988D2*
Y42264D1*
X15236D1*
Y41988D1*
X14764D1*
G37*
D158*
X31370Y39000D3*
D156*
X32374D3*
D151*
X12063Y13469D3*
Y12799D3*
Y11844D3*
Y10860D3*
Y9876D3*
Y8892D3*
Y7907D3*
Y6923D3*
Y5939D3*
D149*
X9209Y15220D3*
Y3409D3*
D147*
X7378Y15063D3*
X3854D3*
X2831D3*
D149*
X1866Y15220D3*
Y3409D3*
D181*
X9626Y26000D3*
X10374D3*
D179*
X29000Y20626D3*
Y21374D3*
D183*
X5835Y47250D3*
X5165D3*
X5835Y43250D3*
X5165D3*
X5835Y45750D3*
X5165D3*
D179*
X28500Y14374D3*
Y13626D3*
X29500Y17874D3*
Y17126D3*
D183*
X5835Y43750D3*
X5165D3*
X5835Y44250D3*
X5165D3*
X5835Y42750D3*
X5165D3*
X5835Y46250D3*
X5165D3*
X5835Y46750D3*
X5165D3*
X5835Y42250D3*
X5165D3*
X5835Y41750D3*
X5165D3*
D181*
X27126Y36500D3*
X27874D3*
X27126Y37500D3*
X27874D3*
X10126Y30000D3*
X10874D3*
G36*
X17335Y24435D2*
Y23923D1*
X16665D1*
Y24435D1*
X17335D1*
G37*
G36*
Y25577D2*
Y25065D1*
X16665D1*
Y25577D1*
X17335D1*
G37*
D129*
X23323Y25524D3*
Y25720D3*
Y25917D3*
Y26114D3*
Y26311D3*
Y26508D3*
Y26705D3*
Y26902D3*
Y27098D3*
Y27295D3*
Y27492D3*
Y27689D3*
Y27886D3*
Y28083D3*
Y28280D3*
Y28476D3*
D127*
X22476Y29323D3*
X22280D3*
X22083D3*
X21886D3*
X21689D3*
X21492D3*
X21295D3*
X21098D3*
X20902D3*
X20705D3*
X20508D3*
X20311D3*
X20114D3*
X19917D3*
X19720D3*
X19524D3*
D129*
X18677Y28476D3*
Y28280D3*
Y28083D3*
Y27886D3*
Y27689D3*
Y27492D3*
Y27295D3*
Y27098D3*
Y26902D3*
Y26705D3*
Y26508D3*
Y26311D3*
Y26114D3*
Y25917D3*
Y25720D3*
Y25524D3*
D127*
X19524Y24677D3*
X19720D3*
X19917D3*
X20114D3*
X20311D3*
X20508D3*
X20705D3*
X20902D3*
X21098D3*
X21295D3*
X21492D3*
X21689D3*
X21886D3*
X22083D3*
X22280D3*
X22476D3*
D125*
X28500Y27606D3*
X28874Y28394D3*
X28126D3*
D158*
X6630Y33750D3*
D156*
X5626D3*
D124*
X31055Y40500D3*
X32945D3*
D116*
X15646Y28531D3*
Y27469D3*
X16354D3*
Y28531D3*
D108*
X10000Y23406D3*
Y23004D3*
Y22602D3*
Y22201D3*
Y21799D3*
Y21398D3*
Y20996D3*
Y20594D3*
D106*
Y20122D3*
Y23878D3*
Y24602D3*
Y19398D3*
D104*
X2157Y18390D3*
Y25610D3*
D181*
X9626Y18000D3*
X10374D3*
X9626Y27000D3*
X10374D3*
D183*
X16665Y23250D3*
X17335D3*
X16665Y22750D3*
X17335D3*
X16665Y21000D3*
X17335D3*
M02*
