%FSLAX44Y44*%
%MOMM*%
G71*
G01*
G75*
G04 Layer_Physical_Order=2*
G04 Layer_Color=16711680*
%ADD10R,3.5800X2.9400*%
%ADD11O,0.4500X1.4000*%
%ADD12R,3.7000X1.8000*%
%ADD13R,1.4500X0.9500*%
%ADD14R,0.9500X0.7500*%
%ADD15R,0.9500X0.8000*%
%ADD16C,0.5000*%
%ADD17C,0.2500*%
%ADD18C,0.2540*%
%ADD19R,1.3000X1.3000*%
%ADD20C,1.3000*%
%ADD21P,1.8385X4X63.0*%
%ADD22P,1.8385X4X81.0*%
%ADD23P,1.8385X4X99.0*%
%ADD24P,1.8385X4X117.0*%
%ADD25R,1.3000X1.3000*%
%ADD26P,1.8385X4X153.0*%
%ADD27P,1.8385X4X171.0*%
%ADD28P,1.8385X4X189.0*%
%ADD29P,1.8385X4X207.0*%
%ADD30C,2.5000*%
%ADD31R,2.5000X2.5000*%
%ADD32C,0.5000*%
%ADD33C,0.6000*%
%ADD34C,0.2000*%
G36*
X85000Y-120000D02*
X85000Y-120000D01*
X53994D01*
Y-74915D01*
X53994Y-74915D01*
X53683Y-73355D01*
X53390Y-72915D01*
X52799Y-72031D01*
X52799Y-72031D01*
X47634Y-66866D01*
X46311Y-65982D01*
X46052Y-65931D01*
X44750Y-65672D01*
X44750Y-65672D01*
X41246D01*
X41006Y-65511D01*
X39250Y-65162D01*
X37494Y-65511D01*
X36006Y-66506D01*
X35011Y-67994D01*
X34662Y-69750D01*
X35011Y-71506D01*
X36006Y-72994D01*
X37494Y-73989D01*
X39250Y-74338D01*
X41006Y-73989D01*
X41246Y-73828D01*
X43061D01*
X45837Y-76604D01*
Y-120000D01*
X-8422D01*
Y-85000D01*
X-8422Y-85000D01*
X-8681Y-83698D01*
X-8732Y-83439D01*
X-9616Y-82116D01*
X-24866Y-66866D01*
X-26189Y-65982D01*
X-26448Y-65931D01*
X-27750Y-65672D01*
X-27750Y-65672D01*
X-31004D01*
X-31244Y-65511D01*
X-33000Y-65162D01*
X-34756Y-65511D01*
X-36244Y-66506D01*
X-37239Y-67994D01*
X-37588Y-69750D01*
X-37239Y-71506D01*
X-36244Y-72994D01*
X-34756Y-73989D01*
X-33000Y-74338D01*
X-31244Y-73989D01*
X-31004Y-73828D01*
X-29439D01*
X-16578Y-86689D01*
Y-120000D01*
X-45837D01*
Y-26855D01*
X6939Y25922D01*
X30504D01*
X30744Y25761D01*
X32500Y25412D01*
X34256Y25761D01*
X35744Y26756D01*
X36739Y28244D01*
X37088Y30000D01*
X36739Y31756D01*
X35744Y33244D01*
X34256Y34239D01*
X32500Y34588D01*
X30744Y34239D01*
X30504Y34078D01*
X5250D01*
X3689Y33768D01*
X2366Y32884D01*
X2366Y32884D01*
X-52799Y-22281D01*
X-53422Y-23213D01*
Y-23213D01*
X-53422Y-23213D01*
Y15561D01*
X-43061Y25922D01*
X-34746D01*
X-34506Y25761D01*
X-32750Y25412D01*
X-30994Y25761D01*
X-29506Y26756D01*
X-28511Y28244D01*
X-28162Y30000D01*
X-28511Y31756D01*
X-29506Y33244D01*
X-30994Y34239D01*
X-32750Y34588D01*
X-34506Y34239D01*
X-34746Y34078D01*
X-44750D01*
X-44750Y34078D01*
X-46052Y33819D01*
X-46311Y33768D01*
X-47634Y32884D01*
X-60384Y20134D01*
X-61268Y18811D01*
X-61319Y18552D01*
X-61578Y17250D01*
X-61578Y17250D01*
Y-117517D01*
X-64061Y-120000D01*
X-85000D01*
Y120000D01*
D01*
D01*
X-85000D01*
X-85000Y120000D01*
X85000D01*
X85000Y-120000D01*
D02*
G37*
%LPC*%
G36*
X-1250Y-26151D02*
X-1951Y-26290D01*
X-3605Y-27395D01*
X-4710Y-29049D01*
X-4849Y-29750D01*
X-1250D01*
Y-26151D01*
D02*
G37*
G36*
X-9750D02*
Y-29750D01*
X-6151D01*
X-6290Y-29049D01*
X-7395Y-27395D01*
X-9049Y-26290D01*
X-9750Y-26151D01*
D02*
G37*
G36*
X9750D02*
X9049Y-26290D01*
X7395Y-27395D01*
X6290Y-29049D01*
X6151Y-29750D01*
X9750D01*
Y-26151D01*
D02*
G37*
G36*
X1250D02*
Y-29750D01*
X4849D01*
X4710Y-29049D01*
X3605Y-27395D01*
X1951Y-26290D01*
X1250Y-26151D01*
D02*
G37*
G36*
X-12250D02*
X-12951Y-26290D01*
X-14605Y-27395D01*
X-15710Y-29049D01*
X-15849Y-29750D01*
X-12250D01*
Y-26151D01*
D02*
G37*
G36*
X4849Y-32250D02*
X1250D01*
Y-35849D01*
X1951Y-35710D01*
X3605Y-34605D01*
X4710Y-32951D01*
X4849Y-32250D01*
D02*
G37*
G36*
X-1250D02*
X-4849D01*
X-4710Y-32951D01*
X-3605Y-34605D01*
X-1951Y-35710D01*
X-1250Y-35849D01*
Y-32250D01*
D02*
G37*
G36*
X15849D02*
X12250D01*
Y-35849D01*
X12951Y-35710D01*
X14605Y-34605D01*
X15710Y-32951D01*
X15849Y-32250D01*
D02*
G37*
G36*
X9750D02*
X6151D01*
X6290Y-32951D01*
X7395Y-34605D01*
X9049Y-35710D01*
X9750Y-35849D01*
Y-32250D01*
D02*
G37*
G36*
X15849Y-21250D02*
X12250D01*
Y-24849D01*
X12951Y-24710D01*
X14605Y-23605D01*
X15710Y-21951D01*
X15849Y-21250D01*
D02*
G37*
G36*
X9750D02*
X6151D01*
X6290Y-21951D01*
X7395Y-23605D01*
X9049Y-24710D01*
X9750Y-24849D01*
Y-21250D01*
D02*
G37*
G36*
X-9750Y-15151D02*
Y-18750D01*
X-6151D01*
X-6290Y-18049D01*
X-7395Y-16395D01*
X-9049Y-15290D01*
X-9750Y-15151D01*
D02*
G37*
G36*
X-12250D02*
X-12951Y-15290D01*
X-14605Y-16395D01*
X-15710Y-18049D01*
X-15849Y-18750D01*
X-12250D01*
Y-15151D01*
D02*
G37*
G36*
X4849Y-21250D02*
X1250D01*
Y-24849D01*
X1951Y-24710D01*
X3605Y-23605D01*
X4710Y-21951D01*
X4849Y-21250D01*
D02*
G37*
G36*
X-12250D02*
X-15849D01*
X-15710Y-21951D01*
X-14605Y-23605D01*
X-12951Y-24710D01*
X-12250Y-24849D01*
Y-21250D01*
D02*
G37*
G36*
X12250Y-26151D02*
Y-29750D01*
X15849D01*
X15710Y-29049D01*
X14605Y-27395D01*
X12951Y-26290D01*
X12250Y-26151D01*
D02*
G37*
G36*
X-1250Y-21250D02*
X-4849D01*
X-4710Y-21951D01*
X-3605Y-23605D01*
X-1951Y-24710D01*
X-1250Y-24849D01*
Y-21250D01*
D02*
G37*
G36*
X-6151D02*
X-9750D01*
Y-24849D01*
X-9049Y-24710D01*
X-7395Y-23605D01*
X-6290Y-21951D01*
X-6151Y-21250D01*
D02*
G37*
G36*
X38000Y-78867D02*
X37814Y-78892D01*
X36476Y-79446D01*
X35327Y-80327D01*
X34446Y-81476D01*
X33892Y-82814D01*
X33867Y-83000D01*
X38000D01*
Y-78867D01*
D02*
G37*
G36*
X-31750D02*
Y-83000D01*
X-27617D01*
X-27642Y-82814D01*
X-28196Y-81476D01*
X-29077Y-80327D01*
X-30226Y-79446D01*
X-31564Y-78892D01*
X-31750Y-78867D01*
D02*
G37*
G36*
X-36250Y-56250D02*
X-40383D01*
X-40358Y-56436D01*
X-39804Y-57774D01*
X-38923Y-58923D01*
X-37774Y-59804D01*
X-36436Y-60358D01*
X-36250Y-60383D01*
Y-56250D01*
D02*
G37*
G36*
X40500Y-78867D02*
Y-83000D01*
X44633D01*
X44608Y-82814D01*
X44054Y-81476D01*
X43173Y-80327D01*
X42024Y-79446D01*
X40686Y-78892D01*
X40500Y-78867D01*
D02*
G37*
G36*
X-34250D02*
X-34436Y-78892D01*
X-35774Y-79446D01*
X-36923Y-80327D01*
X-37804Y-81476D01*
X-38358Y-82814D01*
X-38383Y-83000D01*
X-34250D01*
Y-78867D01*
D02*
G37*
G36*
X-27617Y-85500D02*
X-31750D01*
Y-89633D01*
X-31564Y-89608D01*
X-30226Y-89054D01*
X-29077Y-88173D01*
X-28196Y-87024D01*
X-27642Y-85686D01*
X-27617Y-85500D01*
D02*
G37*
G36*
X-34250D02*
X-38383D01*
X-38358Y-85686D01*
X-37804Y-87024D01*
X-36923Y-88173D01*
X-35774Y-89054D01*
X-34436Y-89608D01*
X-34250Y-89633D01*
Y-85500D01*
D02*
G37*
G36*
X44633D02*
X40500D01*
Y-89633D01*
X40686Y-89608D01*
X42024Y-89054D01*
X43173Y-88173D01*
X44054Y-87024D01*
X44608Y-85686D01*
X44633Y-85500D01*
D02*
G37*
G36*
X38000D02*
X33867D01*
X33892Y-85686D01*
X34446Y-87024D01*
X35327Y-88173D01*
X36476Y-89054D01*
X37814Y-89608D01*
X38000Y-89633D01*
Y-85500D01*
D02*
G37*
G36*
X36250Y-49617D02*
Y-53750D01*
X40383D01*
X40358Y-53564D01*
X39804Y-52226D01*
X38923Y-51077D01*
X37774Y-50196D01*
X36436Y-49642D01*
X36250Y-49617D01*
D02*
G37*
G36*
X33750D02*
X33564Y-49642D01*
X32226Y-50196D01*
X31077Y-51077D01*
X30196Y-52226D01*
X29642Y-53564D01*
X29617Y-53750D01*
X33750D01*
Y-49617D01*
D02*
G37*
G36*
X-6151Y-32250D02*
X-9750D01*
Y-35849D01*
X-9049Y-35710D01*
X-7395Y-34605D01*
X-6290Y-32951D01*
X-6151Y-32250D01*
D02*
G37*
G36*
X-12250D02*
X-15849D01*
X-15710Y-32951D01*
X-14605Y-34605D01*
X-12951Y-35710D01*
X-12250Y-35849D01*
Y-32250D01*
D02*
G37*
G36*
X-33750Y-49617D02*
Y-53750D01*
X-29617D01*
X-29642Y-53564D01*
X-30196Y-52226D01*
X-31077Y-51077D01*
X-32226Y-50196D01*
X-33564Y-49642D01*
X-33750Y-49617D01*
D02*
G37*
G36*
X33750Y-56250D02*
X29617D01*
X29642Y-56436D01*
X30196Y-57774D01*
X31077Y-58923D01*
X32226Y-59804D01*
X33564Y-60358D01*
X33750Y-60383D01*
Y-56250D01*
D02*
G37*
G36*
X-29617D02*
X-33750D01*
Y-60383D01*
X-33564Y-60358D01*
X-32226Y-59804D01*
X-31077Y-58923D01*
X-30196Y-57774D01*
X-29642Y-56436D01*
X-29617Y-56250D01*
D02*
G37*
G36*
X-36250Y-49617D02*
X-36436Y-49642D01*
X-37774Y-50196D01*
X-38923Y-51077D01*
X-39804Y-52226D01*
X-40358Y-53564D01*
X-40383Y-53750D01*
X-36250D01*
Y-49617D01*
D02*
G37*
G36*
X40383Y-56250D02*
X36250D01*
Y-60383D01*
X36436Y-60358D01*
X37774Y-59804D01*
X38923Y-58923D01*
X39804Y-57774D01*
X40358Y-56436D01*
X40383Y-56250D01*
D02*
G37*
G36*
X-1250Y-15151D02*
X-1951Y-15290D01*
X-3605Y-16395D01*
X-4710Y-18049D01*
X-4849Y-18750D01*
X-1250D01*
Y-15151D01*
D02*
G37*
G36*
X-27367Y42250D02*
X-31500D01*
Y38117D01*
X-31314Y38142D01*
X-29976Y38696D01*
X-28827Y39577D01*
X-27946Y40726D01*
X-27392Y42064D01*
X-27367Y42250D01*
D02*
G37*
G36*
X-34000D02*
X-38133D01*
X-38108Y42064D01*
X-37554Y40726D01*
X-36673Y39577D01*
X-35524Y38696D01*
X-34186Y38142D01*
X-34000Y38117D01*
Y42250D01*
D02*
G37*
G36*
X37883D02*
X33750D01*
Y38117D01*
X33936Y38142D01*
X35274Y38696D01*
X36423Y39577D01*
X37304Y40726D01*
X37858Y42064D01*
X37883Y42250D01*
D02*
G37*
G36*
X31250D02*
X27117D01*
X27142Y42064D01*
X27696Y40726D01*
X28577Y39577D01*
X29726Y38696D01*
X31064Y38142D01*
X31250Y38117D01*
Y42250D01*
D02*
G37*
G36*
X36250Y20383D02*
Y16250D01*
X40383D01*
X40358Y16436D01*
X39804Y17774D01*
X38923Y18923D01*
X37774Y19804D01*
X36436Y20358D01*
X36250Y20383D01*
D02*
G37*
G36*
X-36250D02*
X-36436Y20358D01*
X-37774Y19804D01*
X-38923Y18923D01*
X-39804Y17774D01*
X-40358Y16436D01*
X-40383Y16250D01*
X-36250D01*
Y20383D01*
D02*
G37*
G36*
X40383Y13750D02*
X36250D01*
Y9617D01*
X36436Y9642D01*
X37774Y10196D01*
X38923Y11077D01*
X39804Y12226D01*
X40358Y13564D01*
X40383Y13750D01*
D02*
G37*
G36*
X33750Y20383D02*
X33564Y20358D01*
X32226Y19804D01*
X31077Y18923D01*
X30196Y17774D01*
X29642Y16436D01*
X29617Y16250D01*
X33750D01*
Y20383D01*
D02*
G37*
G36*
X-33750D02*
Y16250D01*
X-29617D01*
X-29642Y16436D01*
X-30196Y17774D01*
X-31077Y18923D01*
X-32226Y19804D01*
X-33564Y20358D01*
X-33750Y20383D01*
D02*
G37*
G36*
X34000Y109750D02*
X6000D01*
Y81750D01*
X34000D01*
Y109750D01*
D02*
G37*
G36*
X-5051Y94500D02*
X-18750D01*
Y80801D01*
X-17060Y80967D01*
X-14232Y81825D01*
X-11626Y83218D01*
X-9342Y85092D01*
X-7468Y87376D01*
X-6075Y89982D01*
X-5217Y92809D01*
X-5051Y94500D01*
D02*
G37*
G36*
X-18750Y110699D02*
Y97000D01*
X-5051D01*
X-5217Y98691D01*
X-6075Y101518D01*
X-7468Y104124D01*
X-9342Y106408D01*
X-11626Y108282D01*
X-14232Y109675D01*
X-17060Y110533D01*
X-18750Y110699D01*
D02*
G37*
G36*
X-21250D02*
X-22940Y110533D01*
X-25768Y109675D01*
X-28374Y108282D01*
X-30658Y106408D01*
X-32532Y104124D01*
X-33925Y101518D01*
X-34783Y98691D01*
X-34950Y97000D01*
X-21250D01*
Y110699D01*
D02*
G37*
G36*
Y94500D02*
X-34950D01*
X-34783Y92809D01*
X-33925Y89982D01*
X-32532Y87376D01*
X-30658Y85092D01*
X-28374Y83218D01*
X-25768Y81825D01*
X-22940Y80967D01*
X-21250Y80801D01*
Y94500D01*
D02*
G37*
G36*
X-31500Y48883D02*
Y44750D01*
X-27367D01*
X-27392Y44936D01*
X-27946Y46274D01*
X-28827Y47423D01*
X-29976Y48304D01*
X-31314Y48858D01*
X-31500Y48883D01*
D02*
G37*
G36*
X-34000D02*
X-34186Y48858D01*
X-35524Y48304D01*
X-36673Y47423D01*
X-37554Y46274D01*
X-38108Y44936D01*
X-38133Y44750D01*
X-34000D01*
Y48883D01*
D02*
G37*
G36*
X33750D02*
Y44750D01*
X37883D01*
X37858Y44936D01*
X37304Y46274D01*
X36423Y47423D01*
X35274Y48304D01*
X33936Y48858D01*
X33750Y48883D01*
D02*
G37*
G36*
X31250D02*
X31064Y48858D01*
X29726Y48304D01*
X28577Y47423D01*
X27696Y46274D01*
X27142Y44936D01*
X27117Y44750D01*
X31250D01*
Y48883D01*
D02*
G37*
G36*
X4849Y-10250D02*
X1250D01*
Y-13849D01*
X1951Y-13710D01*
X3605Y-12605D01*
X4710Y-10951D01*
X4849Y-10250D01*
D02*
G37*
G36*
X-1250D02*
X-4849D01*
X-4710Y-10951D01*
X-3605Y-12605D01*
X-1951Y-13710D01*
X-1250Y-13849D01*
Y-10250D01*
D02*
G37*
G36*
X15849D02*
X12250D01*
Y-13849D01*
X12951Y-13710D01*
X14605Y-12605D01*
X15710Y-10951D01*
X15849Y-10250D01*
D02*
G37*
G36*
X9750D02*
X6151D01*
X6290Y-10951D01*
X7395Y-12605D01*
X9049Y-13710D01*
X9750Y-13849D01*
Y-10250D01*
D02*
G37*
G36*
X-6151D02*
X-9750D01*
Y-13849D01*
X-9049Y-13710D01*
X-7395Y-12605D01*
X-6290Y-10951D01*
X-6151Y-10250D01*
D02*
G37*
G36*
X9750Y-15151D02*
X9049Y-15290D01*
X7395Y-16395D01*
X6290Y-18049D01*
X6151Y-18750D01*
X9750D01*
Y-15151D01*
D02*
G37*
G36*
X1250D02*
Y-18750D01*
X4849D01*
X4710Y-18049D01*
X3605Y-16395D01*
X1951Y-15290D01*
X1250Y-15151D01*
D02*
G37*
G36*
X-12250Y-10250D02*
X-15849D01*
X-15710Y-10951D01*
X-14605Y-12605D01*
X-12951Y-13710D01*
X-12250Y-13849D01*
Y-10250D01*
D02*
G37*
G36*
X12250Y-15151D02*
Y-18750D01*
X15849D01*
X15710Y-18049D01*
X14605Y-16395D01*
X12951Y-15290D01*
X12250Y-15151D01*
D02*
G37*
G36*
X-36250Y13750D02*
X-40383D01*
X-40358Y13564D01*
X-39804Y12226D01*
X-38923Y11077D01*
X-37774Y10196D01*
X-36436Y9642D01*
X-36250Y9617D01*
Y13750D01*
D02*
G37*
G36*
X12250Y-4151D02*
Y-7750D01*
X15849D01*
X15710Y-7049D01*
X14605Y-5395D01*
X12951Y-4290D01*
X12250Y-4151D01*
D02*
G37*
G36*
X33750Y13750D02*
X29617D01*
X29642Y13564D01*
X30196Y12226D01*
X31077Y11077D01*
X32226Y10196D01*
X33564Y9642D01*
X33750Y9617D01*
Y13750D01*
D02*
G37*
G36*
X-29617D02*
X-33750D01*
Y9617D01*
X-33564Y9642D01*
X-32226Y10196D01*
X-31077Y11077D01*
X-30196Y12226D01*
X-29642Y13564D01*
X-29617Y13750D01*
D02*
G37*
G36*
X9750Y-4151D02*
X9049Y-4290D01*
X7395Y-5395D01*
X6290Y-7049D01*
X6151Y-7750D01*
X9750D01*
Y-4151D01*
D02*
G37*
G36*
X-9750D02*
Y-7750D01*
X-6151D01*
X-6290Y-7049D01*
X-7395Y-5395D01*
X-9049Y-4290D01*
X-9750Y-4151D01*
D02*
G37*
G36*
X-12250D02*
X-12951Y-4290D01*
X-14605Y-5395D01*
X-15710Y-7049D01*
X-15849Y-7750D01*
X-12250D01*
Y-4151D01*
D02*
G37*
G36*
X1250D02*
Y-7750D01*
X4849D01*
X4710Y-7049D01*
X3605Y-5395D01*
X1951Y-4290D01*
X1250Y-4151D01*
D02*
G37*
G36*
X-1250D02*
X-1951Y-4290D01*
X-3605Y-5395D01*
X-4710Y-7049D01*
X-4849Y-7750D01*
X-1250D01*
Y-4151D01*
D02*
G37*
%LPD*%
D16*
X-33000Y-69750D02*
X-27750D01*
X-12500Y-85000D01*
Y-200000D02*
Y-85000D01*
X-107444Y-169151D02*
X-57500Y-119206D01*
Y17250D01*
X-44750Y30000D01*
X-32750D01*
X-49915Y-194074D02*
Y-25165D01*
X5250Y30000D01*
X32500D01*
X39250Y-69750D02*
X44750D01*
X49915Y-194074D02*
Y-74915D01*
X44750Y-69750D02*
X49915Y-74915D01*
D19*
X-12500Y-200000D02*
D03*
X12500Y200000D02*
D03*
D20*
Y-200000D02*
D03*
X73692Y-186349D02*
D03*
X127670Y-154456D02*
D03*
X169151Y-107444D02*
D03*
X194074Y-49915D02*
D03*
X200000Y12500D02*
D03*
X186349Y73692D02*
D03*
X154456Y127670D02*
D03*
X107444Y169151D02*
D03*
X49915Y194074D02*
D03*
X-12500Y200000D02*
D03*
X-73692Y186349D02*
D03*
X-127670Y154456D02*
D03*
X-169151Y107444D02*
D03*
X-194074Y49915D02*
D03*
X-200000Y-12500D02*
D03*
X-186349Y-73692D02*
D03*
X-154456Y-127670D02*
D03*
X-107444Y-169151D02*
D03*
X-49915Y-194074D02*
D03*
D21*
X49915D02*
D03*
X-49915Y194074D02*
D03*
D22*
X107444Y-169151D02*
D03*
X-107444Y169151D02*
D03*
D23*
X154456Y-127670D02*
D03*
X-154456Y127670D02*
D03*
D24*
X186349Y-73692D02*
D03*
X-186349Y73692D02*
D03*
D25*
X200000Y-12500D02*
D03*
X-200000Y12500D02*
D03*
D26*
X194074Y49915D02*
D03*
X-194074Y-49915D02*
D03*
D27*
X169151Y107444D02*
D03*
X-169151Y-107444D02*
D03*
D28*
X127670Y154456D02*
D03*
X-127670Y-154456D02*
D03*
D29*
X73692Y186349D02*
D03*
X-73692Y-186349D02*
D03*
D30*
X-20000Y95750D02*
D03*
D31*
X20000D02*
D03*
D32*
X11000Y-9000D02*
D03*
Y-20000D02*
D03*
Y-31000D02*
D03*
X0Y-9000D02*
D03*
Y-20000D02*
D03*
Y-31000D02*
D03*
X-11000Y-9000D02*
D03*
Y-20000D02*
D03*
Y-31000D02*
D03*
D33*
X39250Y-84250D02*
D03*
X35000Y15000D02*
D03*
X-35000D02*
D03*
Y-55000D02*
D03*
X35000D02*
D03*
X-33000Y-84250D02*
D03*
X-32750Y43500D02*
D03*
X32500D02*
D03*
X39250Y-69750D02*
D03*
X-32750Y30000D02*
D03*
X32500D02*
D03*
X-33000Y-69750D02*
D03*
D34*
X-89003Y-140000D02*
X-99000D01*
Y-133336D01*
Y-130003D02*
Y-126671D01*
Y-128337D01*
X-92336D01*
Y-130003D01*
Y-115008D02*
Y-120006D01*
X-94002Y-121673D01*
X-97334D01*
X-99000Y-120006D01*
Y-115008D01*
Y-106677D02*
Y-110010D01*
X-97334Y-111676D01*
X-94002D01*
X-92336Y-110010D01*
Y-106677D01*
X-94002Y-105011D01*
X-95668D01*
Y-111676D01*
X-99000Y-101679D02*
X-92336D01*
Y-96681D01*
X-94002Y-95014D01*
X-99000D01*
Y-91682D02*
Y-86684D01*
X-97334Y-85018D01*
X-95668Y-86684D01*
Y-90016D01*
X-94002Y-91682D01*
X-92336Y-90016D01*
Y-85018D01*
X-99000Y-76687D02*
Y-80019D01*
X-97334Y-81685D01*
X-94002D01*
X-92336Y-80019D01*
Y-76687D01*
X-94002Y-75021D01*
X-95668D01*
Y-81685D01*
X-89003Y-65024D02*
X-99000D01*
Y-70023D01*
X-97334Y-71689D01*
X-94002D01*
X-92336Y-70023D01*
Y-65024D01*
Y-51695D02*
X-97334D01*
X-99000Y-50029D01*
Y-45031D01*
X-92336D01*
X-99000Y-41698D02*
X-92336D01*
Y-36700D01*
X-94002Y-35034D01*
X-99000D01*
X-89003Y-25037D02*
X-99000D01*
Y-30035D01*
X-97334Y-31702D01*
X-94002D01*
X-92336Y-30035D01*
Y-25037D01*
X-99000Y-16706D02*
Y-20039D01*
X-97334Y-21705D01*
X-94002D01*
X-92336Y-20039D01*
Y-16706D01*
X-94002Y-15040D01*
X-95668D01*
Y-21705D01*
X-92336Y-11708D02*
X-99000D01*
X-95668D01*
X-94002Y-10042D01*
X-92336Y-8376D01*
Y-6710D01*
X-90669Y14950D02*
X-89003Y13284D01*
Y9952D01*
X-90669Y8286D01*
X-97334D01*
X-99000Y9952D01*
Y13284D01*
X-97334Y14950D01*
X-89003Y24947D02*
Y18282D01*
X-99000D01*
Y24947D01*
X-94002Y18282D02*
Y21615D01*
X-99000Y28279D02*
X-89003D01*
Y33277D01*
X-90669Y34944D01*
X-94002D01*
X-95668Y33277D01*
Y28279D01*
Y31611D02*
X-99000Y34944D01*
Y38276D02*
X-89003D01*
X-99000Y44940D01*
X-89003D01*
Y63268D02*
Y59936D01*
X-90669Y58270D01*
X-97334D01*
X-99000Y59936D01*
Y63268D01*
X-97334Y64934D01*
X-90669D01*
X-89003Y63268D01*
Y68266D02*
X-99000D01*
X-94002D01*
Y74931D01*
X-89003D01*
X-99000D01*
X-89003Y78263D02*
X-99000D01*
Y84928D01*
X-92336Y98257D02*
X-99000Y101589D01*
X-92336Y104921D01*
X-99000Y108253D02*
X-97334D01*
Y109920D01*
X-99000D01*
Y108253D01*
Y116584D02*
Y119916D01*
Y118250D01*
X-89003D01*
X-90669Y116584D01*
X-99000Y124915D02*
X-97334D01*
Y126581D01*
X-99000D01*
Y124915D01*
Y139910D02*
Y133245D01*
X-92336Y139910D01*
X-90669D01*
X-89003Y138244D01*
Y134911D01*
X-90669Y133245D01*
X98997Y-119000D02*
X90666D01*
X89000Y-117334D01*
Y-114002D01*
X90666Y-112336D01*
X98997D01*
Y-109003D02*
X89000D01*
Y-104005D01*
X90666Y-102339D01*
X92332D01*
X93998Y-104005D01*
Y-109003D01*
Y-104005D01*
X95665Y-102339D01*
X97331D01*
X98997Y-104005D01*
Y-109003D01*
X97331Y-92342D02*
X98997Y-94008D01*
Y-97340D01*
X97331Y-99006D01*
X90666D01*
X89000Y-97340D01*
Y-94008D01*
X90666Y-92342D01*
X98997Y-72348D02*
Y-79013D01*
X93998D01*
Y-75681D01*
Y-79013D01*
X89000D01*
Y-67350D02*
Y-64018D01*
X90666Y-62352D01*
X93998D01*
X95665Y-64018D01*
Y-67350D01*
X93998Y-69016D01*
X90666D01*
X89000Y-67350D01*
X95665Y-59019D02*
X89000D01*
X92332D01*
X93998Y-57353D01*
X95665Y-55687D01*
Y-54021D01*
X89000Y-49022D02*
X95665D01*
Y-47356D01*
X93998Y-45690D01*
X89000D01*
X93998D01*
X95665Y-44024D01*
X93998Y-42358D01*
X89000D01*
X95665Y-39026D02*
X90666D01*
X89000Y-37360D01*
Y-32361D01*
X95665D01*
X89000Y-29029D02*
Y-25697D01*
Y-27363D01*
X98997D01*
Y-29029D01*
X95665Y-19032D02*
Y-15700D01*
X93998Y-14034D01*
X89000D01*
Y-19032D01*
X90666Y-20698D01*
X92332Y-19032D01*
Y-14034D01*
X98997Y5960D02*
Y-705D01*
X89000D01*
Y5960D01*
X93998Y-705D02*
Y2627D01*
X89000Y9292D02*
Y12624D01*
Y10958D01*
X98997D01*
Y9292D01*
X89000Y22621D02*
Y19289D01*
X90666Y17623D01*
X93998D01*
X95665Y19289D01*
Y22621D01*
X93998Y24287D01*
X92332D01*
Y17623D01*
X95665Y34284D02*
Y29286D01*
X93998Y27619D01*
X90666D01*
X89000Y29286D01*
Y34284D01*
X97331Y39282D02*
X95665D01*
Y37616D01*
Y40949D01*
Y39282D01*
X90666D01*
X89000Y40949D01*
X95665Y45947D02*
X89000D01*
X92332D01*
X93998Y47613D01*
X95665Y49279D01*
Y50945D01*
X89000Y55944D02*
Y59276D01*
Y57610D01*
X95665D01*
Y55944D01*
Y70939D02*
Y65940D01*
X93998Y64274D01*
X90666D01*
X89000Y65940D01*
Y70939D01*
Y90932D02*
Y84268D01*
X95665Y90932D01*
X97331D01*
X98997Y89266D01*
Y85934D01*
X97331Y84268D01*
Y94265D02*
X98997Y95931D01*
Y99263D01*
X97331Y100929D01*
X90666D01*
X89000Y99263D01*
Y95931D01*
X90666Y94265D01*
X97331D01*
X89000Y104261D02*
Y107594D01*
Y105927D01*
X98997D01*
X97331Y104261D01*
X98997Y119256D02*
X97331Y115924D01*
X93998Y112592D01*
X90666D01*
X89000Y114258D01*
Y117590D01*
X90666Y119256D01*
X92332D01*
X93998Y117590D01*
Y112592D01*
M02*
