G04 start of page 5 for group 5 idx 5 *
G04 Title: (unknown), bottom *
G04 Creator: pcb 1.99z *
G04 CreationDate: Fri Jun 17 03:18:51 2011 UTC *
G04 For: apoelstra *
G04 Format: Gerber/RS-274X *
G04 PCB-Dimensions: 3000000 2000000 *
G04 PCB-Coordinate-Origin: lower left *
%MOIN*%
%FSLAX25Y25*%
%LNBOTTOM*%
%ADD32C,0.2500*%
%ADD31C,0.5000*%
%ADD30C,1.0000*%
%ADD29C,0.6500*%
%ADD28C,0.7500*%
G54D28*X600000Y450000D03*
G54D29*Y290000D03*
G54D30*X450000Y600000D03*
X600000D03*
G54D29*X450000Y290000D03*
G54D28*Y450000D03*
G54D31*G54D32*G54D31*G54D32*G54D31*M02*
