G04 Layer_Physical_Order=2*
G04 Layer_Color=16711680*
%FSLAX24Y24*%
%MOIN*%
G70*
G01*
G75*
G04:AMPARAMS|DCode=10|XSize=39.4mil|YSize=35.4mil|CornerRadius=4.4mil|HoleSize=0mil|Usage=FLASHONLY|Rotation=180.000|XOffset=0mil|YOffset=0mil|HoleType=Round|Shape=RoundedRectangle|*
%AMROUNDEDRECTD10*
21,1,0.0394,0.0266,0,0,180.0*
21,1,0.0305,0.0354,0,0,180.0*
1,1,0.0089,-0.0153,0.0133*
1,1,0.0089,0.0153,0.0133*
1,1,0.0089,0.0153,-0.0133*
1,1,0.0089,-0.0153,-0.0133*
%
%ADD10ROUNDEDRECTD10*%
%ADD15C,0.0197*%
%ADD17C,0.0157*%
%ADD18C,0.0118*%
%ADD20C,0.0394*%
%ADD21C,0.1378*%
%ADD22C,0.0512*%
%ADD23C,0.1181*%
%ADD24C,0.1181*%
%ADD25C,0.0315*%
%ADD26C,0.0394*%
%ADD27C,0.0551*%
%ADD28C,0.0591*%
G04:AMPARAMS|DCode=29|XSize=39.4mil|YSize=35.4mil|CornerRadius=4.4mil|HoleSize=0mil|Usage=FLASHONLY|Rotation=270.000|XOffset=0mil|YOffset=0mil|HoleType=Round|Shape=RoundedRectangle|*
%AMROUNDEDRECTD29*
21,1,0.0394,0.0266,0,0,270.0*
21,1,0.0305,0.0354,0,0,270.0*
1,1,0.0089,-0.0133,-0.0153*
1,1,0.0089,-0.0133,0.0153*
1,1,0.0089,0.0133,0.0153*
1,1,0.0089,0.0133,-0.0153*
%
%ADD29ROUNDEDRECTD29*%
%ADD30R,0.0650X0.0240*%
%ADD31R,0.1820X0.1780*%
G04:AMPARAMS|DCode=32|XSize=90.6mil|YSize=70.9mil|CornerRadius=8.9mil|HoleSize=0mil|Usage=FLASHONLY|Rotation=270.000|XOffset=0mil|YOffset=0mil|HoleType=Round|Shape=RoundedRectangle|*
%AMROUNDEDRECTD32*
21,1,0.0906,0.0532,0,0,270.0*
21,1,0.0728,0.0709,0,0,270.0*
1,1,0.0177,-0.0266,-0.0364*
1,1,0.0177,-0.0266,0.0364*
1,1,0.0177,0.0266,0.0364*
1,1,0.0177,0.0266,-0.0364*
%
%ADD32ROUNDEDRECTD32*%
G04:AMPARAMS|DCode=33|XSize=39.4mil|YSize=26mil|CornerRadius=6.5mil|HoleSize=0mil|Usage=FLASHONLY|Rotation=90.000|XOffset=0mil|YOffset=0mil|HoleType=Round|Shape=RoundedRectangle|*
%AMROUNDEDRECTD33*
21,1,0.0394,0.0130,0,0,90.0*
21,1,0.0264,0.0260,0,0,90.0*
1,1,0.0130,0.0065,0.0132*
1,1,0.0130,0.0065,-0.0132*
1,1,0.0130,-0.0065,-0.0132*
1,1,0.0130,-0.0065,0.0132*
%
%ADD33ROUNDEDRECTD33*%
%ADD34R,0.0260X0.0394*%
G04:AMPARAMS|DCode=35|XSize=70.9mil|YSize=45.3mil|CornerRadius=5.7mil|HoleSize=0mil|Usage=FLASHONLY|Rotation=180.000|XOffset=0mil|YOffset=0mil|HoleType=Round|Shape=RoundedRectangle|*
%AMROUNDEDRECTD35*
21,1,0.0709,0.0340,0,0,180.0*
21,1,0.0595,0.0453,0,0,180.0*
1,1,0.0113,-0.0298,0.0170*
1,1,0.0113,0.0298,0.0170*
1,1,0.0113,0.0298,-0.0170*
1,1,0.0113,-0.0298,-0.0170*
%
%ADD35ROUNDEDRECTD35*%
G04:AMPARAMS|DCode=36|XSize=70.9mil|YSize=45.3mil|CornerRadius=5.7mil|HoleSize=0mil|Usage=FLASHONLY|Rotation=270.000|XOffset=0mil|YOffset=0mil|HoleType=Round|Shape=RoundedRectangle|*
%AMROUNDEDRECTD36*
21,1,0.0709,0.0340,0,0,270.0*
21,1,0.0595,0.0453,0,0,270.0*
1,1,0.0113,-0.0170,-0.0298*
1,1,0.0113,-0.0170,0.0298*
1,1,0.0113,0.0170,0.0298*
1,1,0.0113,0.0170,-0.0298*
%
%ADD36ROUNDEDRECTD36*%
%ADD37O,0.0354X0.0118*%
%ADD38R,0.0354X0.0118*%
%ADD39R,0.0240X0.0650*%
%ADD40R,0.1780X0.1820*%
G04:AMPARAMS|DCode=41|XSize=106.3mil|YSize=55.1mil|CornerRadius=6.9mil|HoleSize=0mil|Usage=FLASHONLY|Rotation=0.000|XOffset=0mil|YOffset=0mil|HoleType=Round|Shape=RoundedRectangle|*
%AMROUNDEDRECTD41*
21,1,0.1063,0.0413,0,0,0.0*
21,1,0.0925,0.0551,0,0,0.0*
1,1,0.0138,0.0463,-0.0207*
1,1,0.0138,-0.0463,-0.0207*
1,1,0.0138,-0.0463,0.0207*
1,1,0.0138,0.0463,0.0207*
%
%ADD41ROUNDEDRECTD41*%
%ADD42O,0.0236X0.0591*%
%ADD43R,0.0236X0.0591*%
%ADD44O,0.0256X0.0728*%
G04:AMPARAMS|DCode=45|XSize=31.5mil|YSize=39.4mil|CornerRadius=3.9mil|HoleSize=0mil|Usage=FLASHONLY|Rotation=270.000|XOffset=0mil|YOffset=0mil|HoleType=Round|Shape=RoundedRectangle|*
%AMROUNDEDRECTD45*
21,1,0.0315,0.0315,0,0,270.0*
21,1,0.0236,0.0394,0,0,270.0*
1,1,0.0079,-0.0157,-0.0118*
1,1,0.0079,-0.0157,0.0118*
1,1,0.0079,0.0157,0.0118*
1,1,0.0079,0.0157,-0.0118*
%
%ADD45ROUNDEDRECTD45*%
%ADD46C,0.0236*%
G36*
X7874Y433D02*
X3585D01*
X3543Y474D01*
Y1969D01*
X5315D01*
X5906Y2559D01*
Y4528D01*
X7874D01*
Y433D01*
D02*
G37*
G36*
X7480Y4724D02*
X5906D01*
Y6693D01*
X7480D01*
Y4724D01*
D02*
G37*
G36*
X8071Y11122D02*
Y5111D01*
X7953Y5056D01*
X7917Y5085D01*
Y5542D01*
X7561D01*
Y6693D01*
X7554Y6724D01*
X7537Y6750D01*
X7511Y6767D01*
X7480Y6773D01*
X5906D01*
X5875Y6767D01*
X5849Y6750D01*
X5831Y6724D01*
X5825Y6693D01*
Y5101D01*
X4961D01*
X4907Y5090D01*
X4861Y5060D01*
X4627Y4826D01*
X4031D01*
X3978Y4815D01*
X3932Y4784D01*
X3902Y4739D01*
X3891Y4685D01*
X3902Y4631D01*
X3932Y4587D01*
X3902Y4542D01*
X3891Y4488D01*
X3902Y4434D01*
X3932Y4390D01*
X3902Y4345D01*
X3891Y4291D01*
X3902Y4238D01*
X3932Y4193D01*
X3902Y4148D01*
X3891Y4094D01*
X3902Y4041D01*
X3932Y3996D01*
X3902Y3951D01*
X3891Y3898D01*
X3902Y3844D01*
X3932Y3798D01*
X3978Y3768D01*
X3989Y3695D01*
X3909Y3583D01*
X3661D01*
X3656Y3577D01*
X3617Y3585D01*
X3543D01*
Y3307D01*
X3484D01*
Y3248D01*
X3226D01*
Y3155D01*
X3235Y3107D01*
X3252Y3082D01*
X3263Y3062D01*
Y2962D01*
X3252Y2942D01*
X3235Y2917D01*
X3226Y2869D01*
Y2776D01*
X3484D01*
Y2717D01*
X3543D01*
Y2439D01*
X3617D01*
X3656Y2446D01*
X3661Y2441D01*
X3976D01*
X3982Y2446D01*
X4021Y2439D01*
X4286D01*
X4334Y2448D01*
X4375Y2475D01*
X4402Y2516D01*
X4412Y2564D01*
Y2869D01*
X4402Y2917D01*
X4386Y2942D01*
X4375Y2962D01*
Y3062D01*
X4386Y3082D01*
X4402Y3107D01*
X4412Y3155D01*
Y3460D01*
X4402Y3508D01*
X4375Y3548D01*
X4334Y3576D01*
X4290Y3584D01*
Y3720D01*
X4397Y3789D01*
X4484Y3761D01*
X4604Y3641D01*
Y3391D01*
X4613Y3343D01*
X4641Y3302D01*
X4681Y3275D01*
X4729Y3265D01*
X4995D01*
X5034Y3273D01*
X5039Y3268D01*
X5354D01*
X5360Y3273D01*
X5399Y3265D01*
X5664D01*
X5707Y3274D01*
X5713Y3274D01*
X5825Y3214D01*
Y2592D01*
X5282Y2049D01*
X3543D01*
X3513Y2043D01*
X3487Y2025D01*
X3469Y1999D01*
X3463Y1969D01*
Y1627D01*
X3345Y1578D01*
X2798Y2125D01*
Y2160D01*
X2788Y2208D01*
X2774Y2229D01*
X2761Y2254D01*
Y2352D01*
X2774Y2377D01*
X2788Y2398D01*
X2798Y2446D01*
Y2712D01*
X2790Y2751D01*
X2795Y2756D01*
Y3071D01*
X2790Y3076D01*
X2798Y3115D01*
Y3189D01*
X2242D01*
Y3115D01*
X2249Y3076D01*
X2244Y3071D01*
Y2756D01*
X2249Y2751D01*
X2242Y2712D01*
Y2585D01*
X1889D01*
X1849Y2703D01*
X1853Y2706D01*
X1906Y2776D01*
X1940Y2858D01*
X1952Y2945D01*
X1940Y3032D01*
X1906Y3114D01*
X1853Y3184D01*
X1783Y3237D01*
X1755Y3249D01*
Y3446D01*
X2075Y3766D01*
X2185Y3760D01*
Y3760D01*
X2185Y3760D01*
X2427D01*
X2441Y3757D01*
X2677D01*
X2691Y3760D01*
X2697D01*
Y3761D01*
X2731Y3768D01*
X2777Y3798D01*
X2855Y3877D01*
X2886Y3923D01*
X2896Y3976D01*
Y4409D01*
X2886Y4463D01*
X2855Y4509D01*
X2777Y4588D01*
X2731Y4618D01*
X2677Y4629D01*
X2299D01*
X2266Y4662D01*
Y4724D01*
X2256Y4778D01*
X2241Y4801D01*
X2279Y4919D01*
X2618D01*
X2690Y4928D01*
X2757Y4956D01*
X2815Y5000D01*
X2831Y5016D01*
X3238D01*
X3303Y5029D01*
X3343Y5051D01*
X3343Y5051D01*
X3743D01*
Y6051D01*
X3545D01*
X3486Y6097D01*
X3400Y6133D01*
X3307Y6145D01*
X3215Y6133D01*
X3128Y6097D01*
X3114Y6086D01*
X2707D01*
X2641Y6073D01*
X2586Y6036D01*
X2549Y5981D01*
X2536Y5915D01*
Y5508D01*
X2503Y5475D01*
X2228D01*
Y5561D01*
X2215Y5626D01*
X2178Y5682D01*
X2122Y5719D01*
X2057Y5732D01*
X1526D01*
X1460Y5719D01*
X1420Y5697D01*
X1420Y5697D01*
X1020D01*
Y4697D01*
X1325D01*
X1435Y4692D01*
X1460Y4675D01*
X1526Y4662D01*
X1526Y4662D01*
X1546Y4662D01*
X1985D01*
Y4604D01*
X1996Y4550D01*
X2018Y4518D01*
X2027Y4501D01*
X2024Y4391D01*
X1318Y3685D01*
X1288Y3639D01*
X1277Y3585D01*
Y3405D01*
X650Y2778D01*
X614Y2782D01*
X527Y2771D01*
X445Y2737D01*
X375Y2684D01*
X322Y2614D01*
X288Y2532D01*
X277Y2445D01*
X288Y2358D01*
X322Y2276D01*
X375Y2206D01*
X445Y2153D01*
X527Y2119D01*
X614Y2107D01*
X702Y2119D01*
X783Y2153D01*
X853Y2206D01*
X906Y2276D01*
X918Y2304D01*
X1339D01*
X1379Y2186D01*
X1375Y2184D01*
X1322Y2114D01*
X1288Y2032D01*
X1277Y1945D01*
X1288Y1858D01*
X1322Y1776D01*
X1375Y1706D01*
X1445Y1653D01*
X1527Y1619D01*
X1614Y1607D01*
X1702Y1619D01*
X1783Y1653D01*
X1853Y1706D01*
X1906Y1776D01*
X1918Y1804D01*
X2244D01*
Y1535D01*
X2249Y1530D01*
X2242Y1491D01*
Y1417D01*
X2798D01*
Y1491D01*
X2790Y1530D01*
X2795Y1535D01*
Y1576D01*
X2904Y1621D01*
X3167Y1359D01*
Y512D01*
X3177Y458D01*
X3208Y412D01*
X3382Y239D01*
X3333Y120D01*
X1316D01*
X1289Y148D01*
X1246Y239D01*
X1270Y296D01*
X1283Y394D01*
X1270Y491D01*
X1232Y582D01*
X1172Y660D01*
X1094Y720D01*
X1003Y758D01*
X906Y771D01*
X808Y758D01*
X717Y720D01*
X639Y660D01*
X579Y582D01*
X541Y491D01*
X528Y394D01*
X541Y296D01*
X565Y239D01*
X522Y148D01*
X495Y120D01*
X120D01*
Y7722D01*
X215Y7757D01*
X239Y7762D01*
X279Y7734D01*
X332Y7724D01*
X928D01*
X980Y7734D01*
X1009Y7754D01*
X1027D01*
X1063Y7717D01*
X1121Y7673D01*
X1188Y7645D01*
X1257Y7594D01*
Y7328D01*
X1265Y7289D01*
X1260Y7283D01*
Y6969D01*
X1265Y6963D01*
X1257Y6924D01*
Y6850D01*
X1813D01*
Y6924D01*
X1806Y6963D01*
X1811Y6969D01*
Y7056D01*
X1923Y7113D01*
X1972Y7082D01*
X2004Y6960D01*
X1993Y6904D01*
Y6640D01*
X2004Y6584D01*
X2036Y6536D01*
X2084Y6504D01*
X2140Y6493D01*
X2270D01*
X2326Y6504D01*
X2373Y6536D01*
X2410D01*
X2458Y6504D01*
X2514Y6493D01*
X2520D01*
Y6772D01*
X2638D01*
Y6493D01*
X2644D01*
X2744Y6496D01*
X2744Y6496D01*
X3161D01*
Y6571D01*
X3258Y6606D01*
X3280Y6610D01*
X3321Y6583D01*
X3374Y6572D01*
X3713D01*
X3766Y6583D01*
X3811Y6613D01*
X3841Y6657D01*
X3851Y6710D01*
Y7306D01*
X3841Y7358D01*
X3811Y7403D01*
X3766Y7433D01*
X3713Y7444D01*
X3475D01*
X3465Y7446D01*
X3455Y7444D01*
X3374D01*
X3323Y7434D01*
X3182Y7574D01*
X3195Y7639D01*
X3227Y7660D01*
X3321Y7686D01*
X3372Y7652D01*
X3465Y7633D01*
X3557Y7652D01*
X3567Y7653D01*
X3696Y7633D01*
X3736Y7606D01*
X3784Y7596D01*
X4050D01*
X4089Y7604D01*
X4094Y7598D01*
X4409D01*
X4415Y7604D01*
X4454Y7596D01*
X4719D01*
X4767Y7606D01*
X4808Y7633D01*
X4835Y7673D01*
X4845Y7721D01*
Y8027D01*
X4835Y8075D01*
X4814Y8106D01*
X4824Y8151D01*
X4857Y8224D01*
X4872D01*
Y8622D01*
X4135D01*
X4065Y8622D01*
X4017Y8720D01*
Y10236D01*
X4011Y10267D01*
X3994Y10293D01*
X3968Y10310D01*
X3937Y10316D01*
X1805D01*
X1575Y10546D01*
Y10713D01*
X2002Y11140D01*
X8053D01*
X8071Y11122D01*
D02*
G37*
G36*
Y11220D02*
X1969D01*
X1378Y10630D01*
X120D01*
Y12478D01*
X8071D01*
Y11220D01*
D02*
G37*
G36*
X1772Y10236D02*
X3937D01*
Y8268D01*
X1287D01*
X1281Y8272D01*
X1214Y8300D01*
X1142Y8309D01*
X1009D01*
X980Y8329D01*
X928Y8339D01*
X332D01*
X279Y8329D01*
X239Y8301D01*
X215Y8306D01*
X120Y8341D01*
Y10550D01*
X1378D01*
X1378Y10550D01*
X1409Y10556D01*
X1435Y10573D01*
X1772Y10236D01*
D02*
G37*
%LPC*%
G36*
X614Y1782D02*
X527Y1771D01*
X445Y1737D01*
X375Y1684D01*
X322Y1614D01*
X288Y1532D01*
X277Y1445D01*
X288Y1358D01*
X322Y1276D01*
X375Y1206D01*
X445Y1153D01*
X527Y1119D01*
X614Y1107D01*
X702Y1119D01*
X783Y1153D01*
X853Y1206D01*
X906Y1276D01*
X940Y1358D01*
X952Y1445D01*
X940Y1532D01*
X906Y1614D01*
X853Y1684D01*
X783Y1737D01*
X702Y1771D01*
X614Y1782D01*
D02*
G37*
G36*
X3425Y2657D02*
X3226D01*
Y2564D01*
X3235Y2516D01*
X3263Y2475D01*
X3303Y2448D01*
X3351Y2439D01*
X3425D01*
Y2657D01*
D02*
G37*
G36*
X2461Y1299D02*
X2242D01*
Y1225D01*
X2251Y1177D01*
X2278Y1137D01*
X2319Y1110D01*
X2367Y1100D01*
X2461D01*
Y1299D01*
D02*
G37*
G36*
X2798D02*
X2579D01*
Y1100D01*
X2672D01*
X2720Y1110D01*
X2761Y1137D01*
X2788Y1177D01*
X2798Y1225D01*
Y1299D01*
D02*
G37*
G36*
X1476Y6732D02*
X1257D01*
Y6658D01*
X1267Y6610D01*
X1294Y6570D01*
X1335Y6543D01*
X1383Y6533D01*
X1476D01*
Y6732D01*
D02*
G37*
G36*
X1813D02*
X1594D01*
Y6533D01*
X1688D01*
X1736Y6543D01*
X1777Y6570D01*
X1804Y6610D01*
X1813Y6658D01*
Y6732D01*
D02*
G37*
G36*
X3425Y3585D02*
X3351D01*
X3303Y3576D01*
X3263Y3548D01*
X3235Y3508D01*
X3226Y3460D01*
Y3366D01*
X3425D01*
Y3585D01*
D02*
G37*
G36*
X2461Y3506D02*
X2367D01*
X2319Y3497D01*
X2278Y3470D01*
X2251Y3429D01*
X2242Y3381D01*
Y3307D01*
X2461D01*
Y3506D01*
D02*
G37*
G36*
X2672D02*
X2579D01*
Y3307D01*
X2798D01*
Y3381D01*
X2788Y3429D01*
X2761Y3470D01*
X2720Y3497D01*
X2672Y3506D01*
D02*
G37*
%LPD*%
D10*
X2520Y1358D02*
D03*
Y2028D02*
D03*
Y3248D02*
D03*
Y2579D02*
D03*
X1535Y6791D02*
D03*
Y7461D02*
D03*
X9724Y3327D02*
D03*
Y2657D02*
D03*
D15*
X8530Y2077D02*
Y2730D01*
X8602Y2657D02*
X9724D01*
X8530Y2730D02*
X8602Y2657D01*
X9705Y3346D02*
Y3976D01*
Y3346D02*
X9724Y3327D01*
Y3504D02*
X9843Y3622D01*
X9724Y3327D02*
Y3504D01*
X2205Y6772D02*
Y7205D01*
X1882Y7807D02*
X2205D01*
X1535Y7461D02*
X1882Y7807D01*
X4469Y7992D02*
Y8423D01*
Y7992D02*
X4587Y7874D01*
X3465D02*
X3917D01*
X10256Y7736D02*
X10276Y7717D01*
Y5551D02*
Y7717D01*
Y4823D02*
X10374Y4724D01*
X10276Y4823D02*
Y5551D01*
X10374Y3976D02*
Y4724D01*
X9030Y1266D02*
Y2077D01*
Y1266D02*
X9075Y1220D01*
X9138Y4724D02*
X9705D01*
X9030Y4616D02*
X9138Y4724D01*
X9776Y4795D02*
Y5551D01*
X9705Y4724D02*
X9776Y4795D01*
X8530Y4305D02*
Y4616D01*
Y4305D02*
X8858Y3976D01*
X9705D01*
X10256Y7736D02*
Y9213D01*
X7638Y11811D02*
Y11929D01*
Y11811D02*
X8799Y10650D01*
Y9213D02*
Y10650D01*
X8776Y5551D02*
Y7717D01*
Y5311D02*
Y5551D01*
X8530Y5065D02*
X8776Y5311D01*
X8530Y4616D02*
Y5065D01*
X2953Y6772D02*
Y6937D01*
X2685Y7205D02*
X2953Y6937D01*
X2205Y7205D02*
X2685D01*
D17*
X7718Y4880D02*
X7756Y4843D01*
X7718Y4880D02*
Y5138D01*
X3504Y6969D02*
X3543Y7008D01*
D18*
X2697Y2028D02*
X3307Y1417D01*
Y512D02*
Y1417D01*
Y512D02*
X3543Y276D01*
X8406Y689D02*
Y1220D01*
X7992Y276D02*
X8406Y689D01*
X3543Y276D02*
X7992D01*
X2205Y4094D02*
X2441D01*
X1614Y3504D02*
X2205Y4094D01*
X1614Y2945D02*
Y3504D01*
X2123Y4291D02*
X2441D01*
X1417Y3585D02*
X2123Y4291D01*
X614Y2445D02*
X2386D01*
X2520Y2579D01*
X1614Y1945D02*
X2437D01*
X2520Y2028D01*
X2697D01*
X4150Y4291D02*
X4705D01*
X4862Y4134D01*
X4150Y4094D02*
X4349D01*
X4862Y3582D01*
Y3543D02*
Y3582D01*
X4150Y3311D02*
Y3898D01*
Y3311D02*
X4154Y3307D01*
Y2717D02*
Y3307D01*
X4154Y2717D02*
X4154Y2717D01*
X5531Y4134D02*
X6469D01*
X6969Y3634D01*
X5531Y3543D02*
X6877D01*
X6969Y3634D01*
X4150Y4488D02*
X5039D01*
X5197Y4646D01*
X4150Y4685D02*
X4685D01*
X4961Y4961D01*
X6041D01*
X6219Y5138D01*
X2441Y3898D02*
X2677D01*
X2756Y3976D01*
Y4409D01*
X2677Y4488D02*
X2756Y4409D01*
X2441Y4488D02*
X2677D01*
X2241D02*
X2441D01*
X2126Y4604D02*
X2241Y4488D01*
X1791Y5059D02*
Y5197D01*
Y5059D02*
X2126Y4724D01*
Y4604D02*
Y4724D01*
X614Y2445D02*
Y2543D01*
X1417Y3346D01*
Y3585D01*
D20*
X3209Y5787D02*
X3307D01*
X2972Y5551D02*
X3209Y5787D01*
X1791Y5197D02*
X2618D01*
X2972Y5551D01*
X630Y8031D02*
X1142D01*
X1260Y7913D01*
D21*
X12008Y8701D02*
D03*
Y6512D02*
D03*
Y4323D02*
D03*
D22*
X614Y3445D02*
D03*
Y1445D02*
D03*
Y2445D02*
D03*
X1614Y1945D02*
D03*
Y2945D02*
D03*
Y945D02*
D03*
D23*
X15709Y4685D02*
D03*
X13740Y4685D02*
D03*
X15709Y7795D02*
D03*
X13740D02*
D03*
X984Y11417D02*
D03*
Y9449D02*
D03*
D24*
X15354Y11417D02*
D03*
Y1181D02*
D03*
D25*
X7756Y4843D02*
D03*
X3465Y7205D02*
D03*
X5197Y4646D02*
D03*
X2087Y7323D02*
D03*
X3465Y7874D02*
D03*
X9843Y3622D02*
D03*
X8530Y2730D02*
D03*
X2402Y10906D02*
D03*
D26*
X3189Y2283D02*
D03*
X5197Y7480D02*
D03*
X3189Y10551D02*
D03*
X4843Y10433D02*
D03*
X5315D02*
D03*
X6260D02*
D03*
X7205D02*
D03*
X5079Y8819D02*
D03*
Y9921D02*
D03*
Y9370D02*
D03*
X3346Y4724D02*
D03*
X1535Y6181D02*
D03*
X4055Y6378D02*
D03*
X2402Y6260D02*
D03*
X2756Y394D02*
D03*
X7874Y6102D02*
D03*
X5512Y6299D02*
D03*
X4921Y5394D02*
D03*
X1378Y4134D02*
D03*
X787Y6299D02*
D03*
X5787Y10433D02*
D03*
X6732D02*
D03*
X7677D02*
D03*
X7756Y8346D02*
D03*
X5709D02*
D03*
X6142Y8819D02*
D03*
X7323D02*
D03*
X6732D02*
D03*
X1260Y7913D02*
D03*
D27*
X3307Y5787D02*
D03*
X9567Y8307D02*
D03*
D28*
X6890Y12165D02*
D03*
X5709D02*
D03*
X4528D02*
D03*
X3346D02*
D03*
X4567Y1575D02*
D03*
X5709D02*
D03*
X6890D02*
D03*
Y906D02*
D03*
X5709D02*
D03*
X4528D02*
D03*
X5709Y11535D02*
D03*
X6890D02*
D03*
X4528D02*
D03*
X3346D02*
D03*
D29*
X3917Y7874D02*
D03*
X4587D02*
D03*
X5531Y4134D02*
D03*
X4862D02*
D03*
X5531Y3543D02*
D03*
X4862D02*
D03*
X3484Y2717D02*
D03*
X4154D02*
D03*
X3484Y3307D02*
D03*
X4154D02*
D03*
X10374Y4724D02*
D03*
X9705D02*
D03*
X10374Y3976D02*
D03*
X9705D02*
D03*
X9075Y1220D02*
D03*
X8406D02*
D03*
D30*
X4469Y8423D02*
D03*
Y8923D02*
D03*
Y9923D02*
D03*
Y9423D02*
D03*
D31*
X2965Y9173D02*
D03*
D32*
X4114Y5551D02*
D03*
X2972D02*
D03*
X1791Y5197D02*
D03*
X650D02*
D03*
D33*
X2579Y6772D02*
D03*
X2205D02*
D03*
X2953Y7807D02*
D03*
X2205D02*
D03*
D34*
X2953Y6772D02*
D03*
D35*
X630Y8031D02*
D03*
Y6850D02*
D03*
X7638Y11929D02*
D03*
Y10748D02*
D03*
X6732Y11929D02*
D03*
Y10748D02*
D03*
X5827Y11929D02*
D03*
Y10748D02*
D03*
X4921Y11929D02*
D03*
Y10748D02*
D03*
X4016Y11929D02*
D03*
Y10748D02*
D03*
X3110Y11929D02*
D03*
Y10748D02*
D03*
X2205Y11929D02*
D03*
Y10748D02*
D03*
D36*
X4724Y7008D02*
D03*
X3543D02*
D03*
D37*
X4150Y3898D02*
D03*
Y4094D02*
D03*
Y4291D02*
D03*
Y4488D02*
D03*
Y4685D02*
D03*
X2441Y4094D02*
D03*
Y4291D02*
D03*
Y4488D02*
D03*
Y4685D02*
D03*
D38*
Y3898D02*
D03*
D39*
X7718Y5138D02*
D03*
X7218D02*
D03*
X6719D02*
D03*
X6219D02*
D03*
D40*
X6969Y3634D02*
D03*
D41*
X6732Y8110D02*
D03*
Y6299D02*
D03*
D42*
X9776Y7717D02*
D03*
X10276D02*
D03*
X9776Y5551D02*
D03*
X9276Y7717D02*
D03*
X8776D02*
D03*
X9276Y5551D02*
D03*
X8776D02*
D03*
D43*
X10276D02*
D03*
D44*
X9030Y4616D02*
D03*
X8530D02*
D03*
X9030Y2077D02*
D03*
X8530D02*
D03*
D45*
X10256Y9213D02*
D03*
X8799D02*
D03*
D46*
X2953Y7520D02*
X3504Y6969D01*
X2953Y7520D02*
Y7807D01*
X9276Y8016D02*
X9567Y8307D01*
X9276Y7717D02*
Y8016D01*
X9567Y8307D02*
X9776Y8098D01*
Y7717D02*
Y8098D01*
M02*
