%FSLAX25Y25*%
%MOIN*%
G70*
G01*
G75*
G04 Layer_Physical_Order=2*
G04 Layer_Color=16711680*
%ADD10R,0.02756X0.03937*%
%ADD11R,0.03937X0.02756*%
%ADD12R,0.02165X0.05709*%
%ADD13R,0.05709X0.02165*%
%ADD14R,0.03150X0.04134*%
%ADD15R,0.04724X0.14567*%
%ADD16R,0.16339X0.05000*%
%ADD17R,0.09449X0.02992*%
%ADD18R,0.02992X0.09449*%
%ADD19C,0.01969*%
%ADD20C,0.03937*%
%ADD21C,0.00787*%
%ADD22C,0.03937*%
%ADD23C,0.05118*%
%ADD24C,0.05906*%
%ADD25R,0.05906X0.05906*%
%ADD26R,0.11811X0.11811*%
%ADD27C,0.11811*%
%ADD28C,0.06299*%
%ADD29R,0.06299X0.06299*%
%ADD30C,0.07874*%
%ADD31C,0.09843*%
%ADD32C,0.02362*%
%ADD33C,0.04724*%
G36*
X519357Y236221D02*
X453830D01*
X453539Y236923D01*
X453034Y237581D01*
X452376Y238086D01*
X451610Y238403D01*
X450787Y238511D01*
X449965Y238403D01*
X449268Y238114D01*
X435207D01*
X408685Y264636D01*
Y265705D01*
X408974Y266402D01*
X409082Y267224D01*
X408974Y268047D01*
X408657Y268813D01*
X408152Y269471D01*
X407494Y269976D01*
X406728Y270293D01*
X405905Y270401D01*
X405083Y270293D01*
X404317Y269976D01*
X403659Y269471D01*
X403154Y268813D01*
X402837Y268047D01*
X402729Y267224D01*
X402837Y266402D01*
X403126Y265705D01*
Y263484D01*
X403221Y262765D01*
X403498Y262094D01*
X403940Y261519D01*
X428776Y236682D01*
X428585Y236221D01*
X426383D01*
X402552Y260051D01*
X402161Y260313D01*
X401700Y260404D01*
X401700Y260404D01*
X291799D01*
X274457Y277746D01*
X274507Y278000D01*
X274354Y278768D01*
X273919Y279419D01*
X273268Y279854D01*
X272500Y280007D01*
X271732Y279854D01*
X271081Y279419D01*
X270646Y278768D01*
X270493Y278000D01*
X270646Y277232D01*
X271081Y276581D01*
X271732Y276146D01*
X272500Y275993D01*
X272754Y276043D01*
X290448Y258348D01*
X290448Y258348D01*
X290683Y258192D01*
X290839Y258087D01*
X291300Y257996D01*
X401201D01*
X422514Y236682D01*
X422323Y236221D01*
X414105D01*
X398489Y251836D01*
X398099Y252097D01*
X397638Y252188D01*
X397638Y252188D01*
X344082D01*
X343939Y252403D01*
X343288Y252838D01*
X342520Y252991D01*
X341752Y252838D01*
X341101Y252403D01*
X340665Y251752D01*
X340513Y250984D01*
X340665Y250216D01*
X341101Y249565D01*
X341752Y249130D01*
X342520Y248977D01*
X343288Y249130D01*
X343939Y249565D01*
X344082Y249780D01*
X397139D01*
X410237Y236682D01*
X410045Y236221D01*
X134187D01*
Y376640D01*
X519357D01*
Y236221D01*
D02*
G37*
%LPC*%
G36*
X438850Y260257D02*
X437874Y260128D01*
X436964Y259751D01*
X436183Y259152D01*
X435583Y258370D01*
X435207Y257461D01*
X435078Y256484D01*
X435207Y255508D01*
X435583Y254598D01*
X436183Y253817D01*
X436964Y253217D01*
X437874Y252840D01*
X438850Y252712D01*
X439827Y252840D01*
X440737Y253217D01*
X441518Y253817D01*
X442117Y254598D01*
X442494Y255508D01*
X442623Y256484D01*
X442494Y257461D01*
X442117Y258370D01*
X441518Y259152D01*
X440737Y259751D01*
X439827Y260128D01*
X438850Y260257D01*
D02*
G37*
G36*
X493968D02*
X492992Y260128D01*
X492082Y259751D01*
X491301Y259152D01*
X490701Y258370D01*
X490324Y257461D01*
X490196Y256484D01*
X490324Y255508D01*
X490701Y254598D01*
X491301Y253817D01*
X492082Y253217D01*
X492992Y252840D01*
X493968Y252712D01*
X494945Y252840D01*
X495855Y253217D01*
X496636Y253817D01*
X497235Y254598D01*
X497612Y255508D01*
X497741Y256484D01*
X497612Y257461D01*
X497235Y258370D01*
X496636Y259152D01*
X495855Y259751D01*
X494945Y260128D01*
X493968Y260257D01*
D02*
G37*
G36*
X218685Y255135D02*
X217452Y254973D01*
X216302Y254497D01*
X215316Y253740D01*
X214558Y252753D01*
X214082Y251603D01*
X214078Y251574D01*
X183922D01*
X183918Y251603D01*
X183442Y252753D01*
X182685Y253740D01*
X181698Y254497D01*
X180548Y254973D01*
X179315Y255135D01*
X178082Y254973D01*
X176932Y254497D01*
X175945Y253740D01*
X175188Y252753D01*
X174712Y251603D01*
X174550Y250370D01*
X174712Y249137D01*
X175188Y247987D01*
X175945Y247001D01*
X176932Y246243D01*
X178082Y245767D01*
X179315Y245605D01*
X180548Y245767D01*
X181698Y246243D01*
X182685Y247001D01*
X183442Y247987D01*
X183918Y249137D01*
X183922Y249166D01*
X214078D01*
X214082Y249137D01*
X214558Y247987D01*
X215316Y247001D01*
X216302Y246243D01*
X217452Y245767D01*
X218685Y245605D01*
X219918Y245767D01*
X221068Y246243D01*
X222055Y247001D01*
X222812Y247987D01*
X223288Y249137D01*
X223450Y250370D01*
X223288Y251603D01*
X222812Y252753D01*
X222055Y253740D01*
X221068Y254497D01*
X219918Y254973D01*
X218685Y255135D01*
D02*
G37*
G36*
X493468Y250224D02*
X490228D01*
Y246984D01*
X493468D01*
Y250224D01*
D02*
G37*
G36*
X497709D02*
X494468D01*
Y246984D01*
X497709D01*
Y250224D01*
D02*
G37*
G36*
X293630Y270883D02*
X292397Y270721D01*
X291247Y270245D01*
X290261Y269488D01*
X289503Y268501D01*
X289027Y267351D01*
X288865Y266118D01*
X289027Y264885D01*
X289503Y263735D01*
X290261Y262749D01*
X291247Y261991D01*
X292397Y261515D01*
X293630Y261353D01*
X294863Y261515D01*
X296013Y261991D01*
X297000Y262749D01*
X297757Y263735D01*
X298233Y264885D01*
X298395Y266118D01*
X298233Y267351D01*
X297757Y268501D01*
X297000Y269488D01*
X296013Y270245D01*
X294863Y270721D01*
X293630Y270883D01*
D02*
G37*
G36*
X352685D02*
X351452Y270721D01*
X350302Y270245D01*
X349316Y269488D01*
X348558Y268501D01*
X348082Y267351D01*
X348078Y267322D01*
X317922D01*
X317918Y267351D01*
X317442Y268501D01*
X316685Y269488D01*
X315698Y270245D01*
X314548Y270721D01*
X313315Y270883D01*
X312082Y270721D01*
X310932Y270245D01*
X309946Y269488D01*
X309188Y268501D01*
X308712Y267351D01*
X308550Y266118D01*
X308712Y264885D01*
X309188Y263735D01*
X309946Y262749D01*
X310932Y261991D01*
X312082Y261515D01*
X313315Y261353D01*
X314548Y261515D01*
X315698Y261991D01*
X316685Y262749D01*
X317442Y263735D01*
X317918Y264885D01*
X317922Y264914D01*
X348078D01*
X348082Y264885D01*
X348558Y263735D01*
X349316Y262749D01*
X350302Y261991D01*
X351452Y261515D01*
X352685Y261353D01*
X353918Y261515D01*
X355068Y261991D01*
X356054Y262749D01*
X356812Y263735D01*
X357288Y264885D01*
X357450Y266118D01*
X357288Y267351D01*
X356812Y268501D01*
X356054Y269488D01*
X355068Y270245D01*
X353918Y270721D01*
X352685Y270883D01*
D02*
G37*
G36*
X228346Y288307D02*
X227578Y288154D01*
X226927Y287719D01*
X226492Y287068D01*
X226339Y286300D01*
X226492Y285532D01*
X226927Y284881D01*
X227578Y284446D01*
X228346Y284293D01*
X228600Y284343D01*
X239595Y273348D01*
X239595Y273348D01*
X239829Y273192D01*
X239986Y273087D01*
X240446Y272996D01*
X254137D01*
X254281Y272781D01*
X254932Y272346D01*
X255700Y272193D01*
X256468Y272346D01*
X257119Y272781D01*
X257554Y273432D01*
X257707Y274200D01*
X257554Y274968D01*
X257119Y275619D01*
X256468Y276054D01*
X255700Y276207D01*
X254932Y276054D01*
X254281Y275619D01*
X254137Y275404D01*
X240945D01*
X230303Y286046D01*
X230353Y286300D01*
X230201Y287068D01*
X229766Y287719D01*
X229115Y288154D01*
X228346Y288307D01*
D02*
G37*
G36*
X493968Y270257D02*
X492992Y270128D01*
X492082Y269751D01*
X491301Y269152D01*
X490701Y268370D01*
X490324Y267461D01*
X490196Y266484D01*
X490324Y265508D01*
X490701Y264598D01*
X491301Y263817D01*
X492082Y263217D01*
X492992Y262840D01*
X493968Y262712D01*
X494945Y262840D01*
X495855Y263217D01*
X496636Y263817D01*
X497235Y264598D01*
X497612Y265508D01*
X497741Y266484D01*
X497612Y267461D01*
X497235Y268370D01*
X496636Y269152D01*
X495855Y269751D01*
X494945Y270128D01*
X493968Y270257D01*
D02*
G37*
G36*
X248400Y285307D02*
X247632Y285154D01*
X246981Y284719D01*
X246546Y284068D01*
X246393Y283300D01*
X246546Y282532D01*
X246981Y281881D01*
X247632Y281446D01*
X248400Y281293D01*
X249168Y281446D01*
X249819Y281881D01*
X249963Y282096D01*
X354689D01*
X368261Y268524D01*
X368243Y268501D01*
X367767Y267351D01*
X367605Y266118D01*
X367767Y264885D01*
X368243Y263735D01*
X369001Y262749D01*
X369987Y261991D01*
X371137Y261515D01*
X372370Y261353D01*
X373603Y261515D01*
X374753Y261991D01*
X375740Y262749D01*
X376497Y263735D01*
X376973Y264885D01*
X377135Y266118D01*
X376973Y267351D01*
X376497Y268501D01*
X375740Y269488D01*
X374753Y270245D01*
X373603Y270721D01*
X372370Y270883D01*
X371137Y270721D01*
X369987Y270245D01*
X369964Y270227D01*
X356040Y284152D01*
X355649Y284413D01*
X355188Y284504D01*
X355188Y284504D01*
X249963D01*
X249819Y284719D01*
X249168Y285154D01*
X248400Y285307D01*
D02*
G37*
G36*
X466409Y270257D02*
X465433Y270128D01*
X464523Y269751D01*
X463742Y269152D01*
X463142Y268370D01*
X462766Y267461D01*
X462637Y266484D01*
X462766Y265508D01*
X463142Y264598D01*
X463742Y263817D01*
X464523Y263217D01*
X465433Y262840D01*
X466409Y262712D01*
X467386Y262840D01*
X468296Y263217D01*
X469077Y263817D01*
X469676Y264598D01*
X470053Y265508D01*
X470182Y266484D01*
X470053Y267461D01*
X469676Y268370D01*
X469077Y269152D01*
X468296Y269751D01*
X467386Y270128D01*
X466409Y270257D01*
D02*
G37*
G36*
X470150Y245984D02*
X466909D01*
Y242744D01*
X470150D01*
Y245984D01*
D02*
G37*
G36*
X493468D02*
X490228D01*
Y242744D01*
X493468D01*
Y245984D01*
D02*
G37*
G36*
X465909D02*
X462669D01*
Y242744D01*
X465909D01*
Y245984D01*
D02*
G37*
G36*
X438350D02*
X435110D01*
Y242744D01*
X438350D01*
Y245984D01*
D02*
G37*
G36*
X442591D02*
X439350D01*
Y242744D01*
X442591D01*
Y245984D01*
D02*
G37*
G36*
X497709D02*
X494468D01*
Y242744D01*
X497709D01*
Y245984D01*
D02*
G37*
G36*
X465909Y250224D02*
X462669D01*
Y246984D01*
X465909D01*
Y250224D01*
D02*
G37*
G36*
X470150D02*
X466909D01*
Y246984D01*
X470150D01*
Y250224D01*
D02*
G37*
G36*
X442591D02*
X439350D01*
Y246984D01*
X442591D01*
Y250224D01*
D02*
G37*
G36*
X159630Y255135D02*
X158397Y254973D01*
X157247Y254497D01*
X156261Y253740D01*
X155503Y252753D01*
X155027Y251603D01*
X154865Y250370D01*
X155027Y249137D01*
X155503Y247987D01*
X156261Y247001D01*
X157247Y246243D01*
X158397Y245767D01*
X159630Y245605D01*
X160863Y245767D01*
X162013Y246243D01*
X162999Y247001D01*
X163757Y247987D01*
X164233Y249137D01*
X164395Y250370D01*
X164233Y251603D01*
X163757Y252753D01*
X162999Y253740D01*
X162013Y254497D01*
X160863Y254973D01*
X159630Y255135D01*
D02*
G37*
G36*
X438350Y250224D02*
X435110D01*
Y246984D01*
X438350D01*
Y250224D01*
D02*
G37*
G36*
X372335Y345957D02*
X366142D01*
Y339764D01*
X372335D01*
Y345957D01*
D02*
G37*
G36*
X165545Y358190D02*
X164671Y358075D01*
X163857Y357738D01*
X163158Y357202D01*
X162622Y356503D01*
X162285Y355689D01*
X162170Y354815D01*
X162285Y353941D01*
X162622Y353127D01*
X163158Y352428D01*
X163857Y351892D01*
X164671Y351555D01*
X165545Y351440D01*
X165801Y351473D01*
X166022Y351025D01*
X162100Y347103D01*
Y344900D01*
Y342992D01*
X162368Y343046D01*
X162531Y343155D01*
X162622Y343127D01*
X163158Y342428D01*
X163857Y341892D01*
X164575Y341595D01*
X164477Y341104D01*
X154099D01*
X150804Y344399D01*
Y353358D01*
X151019Y353501D01*
X151454Y354152D01*
X151607Y354920D01*
X151454Y355689D01*
X151019Y356340D01*
X150368Y356775D01*
X149600Y356927D01*
X148832Y356775D01*
X148181Y356340D01*
X147746Y355689D01*
X147593Y354920D01*
X147746Y354152D01*
X148181Y353501D01*
X148396Y353358D01*
Y343900D01*
X148396Y343900D01*
X148487Y343439D01*
X148749Y343049D01*
X152749Y339049D01*
X152749Y339049D01*
X152983Y338892D01*
X153139Y338787D01*
X153600Y338696D01*
X254384D01*
X254384Y338696D01*
X254845Y338787D01*
X255236Y339049D01*
X258303Y342116D01*
X258580Y341968D01*
X258654Y341473D01*
X241785Y324604D01*
X208563D01*
X208419Y324819D01*
X207768Y325254D01*
X207000Y325407D01*
X206232Y325254D01*
X205581Y324819D01*
X205146Y324168D01*
X204993Y323400D01*
X205146Y322632D01*
X205581Y321981D01*
X206232Y321546D01*
X207000Y321393D01*
X207768Y321546D01*
X208419Y321981D01*
X208563Y322196D01*
X242284D01*
X242284Y322196D01*
X242744Y322287D01*
X243135Y322549D01*
X255420Y334834D01*
X255882Y334642D01*
Y300913D01*
X255882Y300913D01*
X255974Y300453D01*
X256235Y300062D01*
X257243Y299054D01*
X257193Y298800D01*
X257346Y298032D01*
X257781Y297381D01*
X258413Y296958D01*
X258268Y296480D01*
X186522D01*
X150804Y332198D01*
Y333337D01*
X151019Y333481D01*
X151454Y334132D01*
X151607Y334900D01*
X151454Y335668D01*
X151019Y336319D01*
X150368Y336754D01*
X149600Y336907D01*
X148832Y336754D01*
X148181Y336319D01*
X147746Y335668D01*
X147593Y334900D01*
X147746Y334132D01*
X148181Y333481D01*
X148396Y333337D01*
Y331699D01*
X148396Y331699D01*
X148487Y331238D01*
X148749Y330848D01*
X170368Y309228D01*
X170132Y308787D01*
X169579Y308897D01*
X168811Y308745D01*
X168160Y308309D01*
X168016Y308094D01*
X147473D01*
X147329Y308309D01*
X146678Y308744D01*
X145910Y308897D01*
X145142Y308744D01*
X144491Y308309D01*
X144056Y307658D01*
X143903Y306890D01*
X144056Y306122D01*
X144491Y305471D01*
X145142Y305035D01*
X145910Y304883D01*
X146164Y304933D01*
X156696Y294401D01*
Y277363D01*
X156481Y277219D01*
X156046Y276568D01*
X155893Y275800D01*
X156046Y275032D01*
X156481Y274381D01*
X157132Y273946D01*
X157900Y273793D01*
X158668Y273946D01*
X159319Y274381D01*
X159463Y274596D01*
X212441D01*
X234261Y252776D01*
X234243Y252753D01*
X233767Y251603D01*
X233605Y250370D01*
X233767Y249137D01*
X234243Y247987D01*
X235000Y247001D01*
X235987Y246243D01*
X237137Y245767D01*
X238370Y245605D01*
X239603Y245767D01*
X240753Y246243D01*
X241740Y247001D01*
X242497Y247987D01*
X242973Y249137D01*
X243135Y250370D01*
X242973Y251603D01*
X242497Y252753D01*
X241740Y253740D01*
X240753Y254497D01*
X239603Y254973D01*
X238370Y255135D01*
X237137Y254973D01*
X235987Y254497D01*
X235964Y254479D01*
X213791Y276652D01*
X213401Y276913D01*
X212940Y277004D01*
X212940Y277004D01*
X159463D01*
X159319Y277219D01*
X159104Y277363D01*
Y294900D01*
X159104Y294900D01*
X159013Y295361D01*
X158751Y295752D01*
X158751Y295752D01*
X149279Y305224D01*
X149471Y305686D01*
X168016D01*
X168160Y305471D01*
X168811Y305036D01*
X169579Y304883D01*
X170347Y305036D01*
X170998Y305471D01*
X171433Y306122D01*
X171586Y306890D01*
X171476Y307443D01*
X171917Y307679D01*
X185172Y294424D01*
X185172Y294424D01*
X185406Y294268D01*
X185563Y294163D01*
X186024Y294071D01*
X377349D01*
Y291339D01*
X383520D01*
X401710Y273148D01*
X401710Y273148D01*
X402100Y272887D01*
X402561Y272796D01*
X439211D01*
X441843Y270163D01*
X441793Y269909D01*
X441882Y269462D01*
X441457Y269198D01*
X440737Y269751D01*
X439827Y270128D01*
X438850Y270257D01*
X437874Y270128D01*
X436964Y269751D01*
X436183Y269152D01*
X435583Y268370D01*
X435207Y267461D01*
X435078Y266484D01*
X435207Y265508D01*
X435583Y264598D01*
X436183Y263817D01*
X436964Y263217D01*
X437874Y262840D01*
X438850Y262712D01*
X439827Y262840D01*
X440737Y263217D01*
X441518Y263817D01*
X442117Y264598D01*
X442494Y265508D01*
X442623Y266484D01*
X442494Y267461D01*
X442278Y267984D01*
X442664Y268301D01*
X443032Y268055D01*
X443800Y267902D01*
X444568Y268055D01*
X445219Y268490D01*
X445654Y269141D01*
X445807Y269909D01*
X445654Y270677D01*
X445219Y271329D01*
X444568Y271764D01*
X443800Y271917D01*
X443546Y271866D01*
X440561Y274851D01*
X440170Y275113D01*
X439709Y275204D01*
X439709Y275204D01*
X403060D01*
X385223Y293042D01*
Y299213D01*
X377349D01*
Y296480D01*
X260132D01*
X259987Y296958D01*
X260619Y297381D01*
X261054Y298032D01*
X261207Y298800D01*
X261054Y299568D01*
X260619Y300219D01*
X259968Y300654D01*
X259200Y300807D01*
X258946Y300757D01*
X258291Y301412D01*
Y323469D01*
X258764Y323630D01*
X258979Y323349D01*
X259555Y322908D01*
X260226Y322630D01*
X260945Y322535D01*
X261664Y322630D01*
X262335Y322908D01*
X262910Y323349D01*
X263195Y323720D01*
X263695D01*
X263979Y323349D01*
X264555Y322908D01*
X265226Y322630D01*
X265945Y322535D01*
X266664Y322630D01*
X267335Y322908D01*
X267910Y323349D01*
X268352Y323925D01*
X268630Y324595D01*
X268725Y325315D01*
X268630Y326034D01*
X268352Y326705D01*
X267910Y327280D01*
X267540Y327565D01*
Y328065D01*
X267910Y328349D01*
X268352Y328925D01*
X268630Y329595D01*
X268725Y330315D01*
X268630Y331034D01*
X268352Y331705D01*
X267910Y332280D01*
X267335Y332722D01*
X266664Y333000D01*
X265945Y333095D01*
X265226Y333000D01*
X264555Y332722D01*
X263979Y332280D01*
X263695Y331910D01*
X263195D01*
X262910Y332280D01*
X262335Y332722D01*
X261664Y333000D01*
X260945Y333095D01*
X260226Y333000D01*
X259555Y332722D01*
X258979Y332280D01*
X258764Y332000D01*
X258291Y332161D01*
Y337704D01*
X260495Y339908D01*
X260748Y339858D01*
X261516Y340010D01*
X262168Y340446D01*
X262603Y341097D01*
X262755Y341865D01*
X262603Y342633D01*
X262168Y343284D01*
X261516Y343719D01*
X260748Y343872D01*
X260733Y343869D01*
X260497Y344310D01*
X268583Y352396D01*
X284646D01*
Y339764D01*
X289150D01*
Y329319D01*
X288935Y329175D01*
X288500Y328524D01*
X288347Y327756D01*
X288500Y326988D01*
X288935Y326337D01*
X289586Y325902D01*
X290354Y325749D01*
X291122Y325902D01*
X291774Y326337D01*
X292209Y326988D01*
X292361Y327756D01*
X292209Y328524D01*
X291774Y329175D01*
X291559Y329319D01*
Y339764D01*
X298031D01*
Y345058D01*
X298526Y345131D01*
X298905Y343883D01*
X299526Y342720D01*
X300363Y341701D01*
X301382Y340865D01*
X302544Y340243D01*
X303806Y339861D01*
X305118Y339731D01*
X306430Y339861D01*
X307692Y340243D01*
X308855Y340865D01*
X309874Y341701D01*
X310710Y342720D01*
X311332Y343883D01*
X311714Y345145D01*
X311758Y345588D01*
X312258D01*
X312301Y345145D01*
X312684Y343883D01*
X313306Y342720D01*
X314142Y341701D01*
X315161Y340865D01*
X316324Y340243D01*
X317586Y339861D01*
X317693Y339850D01*
Y321445D01*
X317478Y321301D01*
X317043Y320650D01*
X316990Y320382D01*
X320805D01*
X320752Y320650D01*
X320317Y321301D01*
X320102Y321445D01*
Y339850D01*
X320210Y339861D01*
X321471Y340243D01*
X322634Y340865D01*
X323653Y341701D01*
X324489Y342720D01*
X325111Y343883D01*
X325494Y345145D01*
X325574Y345957D01*
X318898D01*
Y346457D01*
X318398D01*
Y353133D01*
X317586Y353053D01*
X316324Y352670D01*
X315161Y352048D01*
X315077Y351980D01*
X311006Y356051D01*
X310615Y356313D01*
X310154Y356404D01*
X310154Y356404D01*
X171900D01*
X171900Y356404D01*
X171439Y356313D01*
X171048Y356051D01*
X169335Y354338D01*
X168886Y354559D01*
X168920Y354815D01*
X168805Y355689D01*
X168468Y356503D01*
X167932Y357202D01*
X167233Y357738D01*
X166419Y358075D01*
X165545Y358190D01*
D02*
G37*
G36*
X365142Y345957D02*
X358949D01*
Y339764D01*
X365142D01*
Y345957D01*
D02*
G37*
G36*
X439130Y353182D02*
X437818Y353053D01*
X436556Y352670D01*
X435394Y352048D01*
X434375Y351212D01*
X433538Y350193D01*
X432917Y349030D01*
X432534Y347769D01*
X432405Y346457D01*
X432534Y345145D01*
X432917Y343883D01*
X433538Y342720D01*
X434375Y341701D01*
X435394Y340865D01*
X436556Y340243D01*
X437818Y339861D01*
X439130Y339731D01*
X440442Y339861D01*
X441704Y340243D01*
X442866Y340865D01*
X443886Y341701D01*
X444722Y342720D01*
X445343Y343883D01*
X445726Y345145D01*
X445855Y346457D01*
X445726Y347769D01*
X445343Y349030D01*
X444722Y350193D01*
X443886Y351212D01*
X442866Y352048D01*
X441704Y352670D01*
X440442Y353053D01*
X439130Y353182D01*
D02*
G37*
G36*
X485874D02*
X484562Y353053D01*
X483300Y352670D01*
X482138Y352048D01*
X481118Y351212D01*
X480282Y350193D01*
X479661Y349030D01*
X479278Y347769D01*
X479149Y346457D01*
X479278Y345145D01*
X479661Y343883D01*
X480282Y342720D01*
X481118Y341701D01*
X482138Y340865D01*
X483300Y340243D01*
X484562Y339861D01*
X485874Y339731D01*
X487186Y339861D01*
X488448Y340243D01*
X489610Y340865D01*
X490629Y341701D01*
X491466Y342720D01*
X492087Y343883D01*
X492470Y345145D01*
X492599Y346457D01*
X492470Y347769D01*
X492087Y349030D01*
X491466Y350193D01*
X490629Y351212D01*
X489610Y352048D01*
X488448Y352670D01*
X487186Y353053D01*
X485874Y353182D01*
D02*
G37*
G36*
X161100Y344400D02*
X159692D01*
X159746Y344132D01*
X160181Y343481D01*
X160832Y343046D01*
X161100Y342992D01*
Y344400D01*
D02*
G37*
G36*
X165545Y368190D02*
X164671Y368075D01*
X163857Y367738D01*
X163158Y367202D01*
X162622Y366503D01*
X162285Y365689D01*
X162170Y364815D01*
X162285Y363941D01*
X162622Y363127D01*
X163158Y362428D01*
X163857Y361892D01*
X164671Y361555D01*
X165545Y361440D01*
X166419Y361555D01*
X167233Y361892D01*
X167932Y362428D01*
X168468Y363127D01*
X168805Y363941D01*
X168920Y364815D01*
X168805Y365689D01*
X168468Y366503D01*
X167932Y367202D01*
X167233Y367738D01*
X166419Y368075D01*
X165545Y368190D01*
D02*
G37*
G36*
X256245Y369195D02*
X255525Y369100D01*
X254855Y368822D01*
X254279Y368380D01*
X253995Y368010D01*
X253495D01*
X253210Y368380D01*
X252635Y368822D01*
X251964Y369100D01*
X251245Y369195D01*
X250525Y369100D01*
X249855Y368822D01*
X249279Y368380D01*
X248838Y367805D01*
X248560Y367134D01*
X248465Y366415D01*
X248560Y365696D01*
X248838Y365025D01*
X249279Y364449D01*
X249650Y364165D01*
Y363665D01*
X249279Y363381D01*
X248838Y362805D01*
X248560Y362134D01*
X248465Y361415D01*
X248560Y360696D01*
X248838Y360025D01*
X249279Y359449D01*
X249855Y359008D01*
X250525Y358730D01*
X251245Y358635D01*
X251964Y358730D01*
X252635Y359008D01*
X253210Y359449D01*
X253495Y359820D01*
X253995D01*
X254279Y359449D01*
X254855Y359008D01*
X255525Y358730D01*
X256245Y358635D01*
X256964Y358730D01*
X257635Y359008D01*
X258210Y359449D01*
X258652Y360025D01*
X258930Y360696D01*
X259025Y361415D01*
X258930Y362134D01*
X258652Y362805D01*
X258210Y363381D01*
X257840Y363665D01*
Y364165D01*
X258210Y364449D01*
X258652Y365025D01*
X258930Y365696D01*
X259025Y366415D01*
X258930Y367134D01*
X258652Y367805D01*
X258210Y368380D01*
X257635Y368822D01*
X256964Y369100D01*
X256245Y369195D01*
D02*
G37*
G36*
X357498Y355804D02*
X357498Y355804D01*
X327041D01*
X327041Y355804D01*
X326580Y355713D01*
X326189Y355451D01*
X326189Y355451D01*
X322718Y351980D01*
X322634Y352048D01*
X321471Y352670D01*
X320210Y353053D01*
X319398Y353133D01*
Y346957D01*
X325574D01*
X325494Y347769D01*
X325111Y349030D01*
X324489Y350193D01*
X324421Y350277D01*
X327540Y353396D01*
X343757D01*
X343830Y352901D01*
X343068Y352670D01*
X341905Y352048D01*
X340886Y351212D01*
X340050Y350193D01*
X339428Y349030D01*
X339046Y347769D01*
X338916Y346457D01*
X339046Y345145D01*
X339428Y343883D01*
X340050Y342720D01*
X340886Y341701D01*
X341905Y340865D01*
X342862Y340353D01*
Y335264D01*
X342957Y334544D01*
X343234Y333874D01*
X343676Y333298D01*
X354137Y322838D01*
X354713Y322396D01*
X355383Y322118D01*
X356102Y322024D01*
X498721D01*
X499440Y322118D01*
X500110Y322396D01*
X500686Y322838D01*
X500686Y322838D01*
X500686Y322838D01*
X507839Y329991D01*
X508281Y330567D01*
X508559Y331237D01*
X508654Y331957D01*
Y339764D01*
X512567D01*
Y353150D01*
X499181D01*
Y339764D01*
X503094D01*
Y333108D01*
X497569Y327583D01*
X461910D01*
Y339764D01*
X465823D01*
Y353150D01*
X452437D01*
Y339764D01*
X456350D01*
Y327583D01*
X415166D01*
Y339764D01*
X419079D01*
Y353150D01*
X405693D01*
Y339764D01*
X409606D01*
Y327583D01*
X357254D01*
X348422Y336415D01*
Y340353D01*
X349378Y340865D01*
X350397Y341701D01*
X351234Y342720D01*
X351855Y343883D01*
X352238Y345145D01*
X352367Y346457D01*
X352238Y347769D01*
X351855Y349030D01*
X351234Y350193D01*
X350397Y351212D01*
X349378Y352048D01*
X348216Y352670D01*
X347453Y352901D01*
X347527Y353396D01*
X357000D01*
X358949Y351447D01*
Y346957D01*
X365142D01*
Y353150D01*
X360652D01*
X358350Y355451D01*
X357959Y355713D01*
X357498Y355804D01*
D02*
G37*
G36*
X161100Y346808D02*
X160832Y346754D01*
X160181Y346319D01*
X159746Y345668D01*
X159692Y345400D01*
X161100D01*
Y346808D01*
D02*
G37*
G36*
X372335Y353150D02*
X366142D01*
Y346957D01*
X372335D01*
Y353150D01*
D02*
G37*
G36*
X265866Y315707D02*
X265098Y315554D01*
X264447Y315119D01*
X264012Y314468D01*
X263859Y313700D01*
X264012Y312932D01*
X264087Y312820D01*
X263701Y312502D01*
X262803Y313400D01*
X262854Y313653D01*
X262701Y314421D01*
X262266Y315072D01*
X261615Y315508D01*
X260847Y315660D01*
X260079Y315508D01*
X259428Y315072D01*
X258993Y314421D01*
X258840Y313653D01*
X258993Y312885D01*
X259428Y312234D01*
X260079Y311799D01*
X260847Y311646D01*
X261100Y311697D01*
X271549Y301249D01*
X271549Y301249D01*
X271939Y300987D01*
X271939Y300987D01*
X271939Y300987D01*
D01*
X271939Y300987D01*
X271939Y300987D01*
X272400Y300896D01*
X476325D01*
X479711Y297510D01*
Y292104D01*
X456088D01*
X455867Y292553D01*
X456433Y293290D01*
X456830Y294248D01*
X456965Y295276D01*
X456830Y296303D01*
X456433Y297261D01*
X455802Y298083D01*
X454979Y298715D01*
X454022Y299111D01*
X452994Y299247D01*
X451966Y299111D01*
X451008Y298715D01*
X450186Y298083D01*
X449555Y297261D01*
X449158Y296303D01*
X449023Y295276D01*
X449158Y294248D01*
X449555Y293290D01*
X450121Y292553D01*
X449899Y292104D01*
X446088D01*
X445867Y292553D01*
X446433Y293290D01*
X446830Y294248D01*
X446965Y295276D01*
X446830Y296303D01*
X446433Y297261D01*
X445802Y298083D01*
X444979Y298715D01*
X444022Y299111D01*
X442994Y299247D01*
X441966Y299111D01*
X441008Y298715D01*
X440186Y298083D01*
X439555Y297261D01*
X439158Y296303D01*
X439023Y295276D01*
X439158Y294248D01*
X439555Y293290D01*
X440121Y292553D01*
X439899Y292104D01*
X437868D01*
X436931Y293042D01*
Y299213D01*
X429057D01*
Y291339D01*
X431790D01*
Y289900D01*
X431789Y289900D01*
X431881Y289439D01*
X432142Y289048D01*
X463048Y258142D01*
X462766Y257461D01*
X462637Y256484D01*
X462766Y255508D01*
X463142Y254598D01*
X463742Y253817D01*
X464523Y253217D01*
X465433Y252840D01*
X466409Y252712D01*
X467386Y252840D01*
X468296Y253217D01*
X469077Y253817D01*
X469676Y254598D01*
X470053Y255508D01*
X470182Y256484D01*
X470053Y257461D01*
X469676Y258370D01*
X469077Y259152D01*
X468296Y259751D01*
X467386Y260128D01*
X466409Y260257D01*
X465433Y260128D01*
X464751Y259846D01*
X435363Y289234D01*
X435554Y289696D01*
X436871D01*
X454908Y271658D01*
X454909Y271658D01*
X455299Y271397D01*
X455299Y271397D01*
X455299Y271397D01*
D01*
X455299Y271397D01*
X455299Y271397D01*
X455760Y271305D01*
X455760Y271305D01*
X470437D01*
X470581Y271090D01*
X471232Y270655D01*
X472000Y270502D01*
X472768Y270655D01*
X473419Y271090D01*
X473854Y271741D01*
X474007Y272509D01*
X473854Y273277D01*
X473419Y273929D01*
X472768Y274364D01*
X472000Y274517D01*
X471232Y274364D01*
X470581Y273929D01*
X470437Y273714D01*
X456259D01*
X440739Y289234D01*
X440930Y289696D01*
X488000D01*
X488461Y289787D01*
X488851Y290049D01*
X489113Y290439D01*
X489204Y290900D01*
Y295043D01*
X489703Y295075D01*
X489703Y295075D01*
D01*
X489812Y294248D01*
X490209Y293290D01*
X490840Y292468D01*
X491662Y291837D01*
X492620Y291440D01*
X493648Y291305D01*
X494676Y291440D01*
X495633Y291837D01*
X496456Y292468D01*
X497087Y293290D01*
X497483Y294248D01*
X497619Y295276D01*
X497483Y296303D01*
X497087Y297261D01*
X496456Y298083D01*
X495633Y298715D01*
X494676Y299111D01*
X493648Y299247D01*
X492620Y299111D01*
X491662Y298715D01*
X490840Y298083D01*
X490209Y297261D01*
X489812Y296303D01*
X489703Y295476D01*
X489204Y295508D01*
Y298900D01*
X489113Y299361D01*
X489008Y299517D01*
X488851Y299751D01*
X488851Y299751D01*
X482652Y305951D01*
X482261Y306213D01*
X481800Y306304D01*
X481800Y306304D01*
X274965D01*
X267823Y313446D01*
X267874Y313700D01*
X267721Y314468D01*
X267286Y315119D01*
X266634Y315554D01*
X265866Y315707D01*
D02*
G37*
G36*
X391286Y299247D02*
X390258Y299111D01*
X389300Y298715D01*
X388478Y298083D01*
X387847Y297261D01*
X387450Y296303D01*
X387315Y295276D01*
X387450Y294248D01*
X387847Y293290D01*
X388478Y292468D01*
X389300Y291837D01*
X390258Y291440D01*
X391286Y291305D01*
X392313Y291440D01*
X393271Y291837D01*
X394093Y292468D01*
X394725Y293290D01*
X395121Y294248D01*
X395257Y295276D01*
X395121Y296303D01*
X394725Y297261D01*
X394093Y298083D01*
X393271Y298715D01*
X392313Y299111D01*
X391286Y299247D01*
D02*
G37*
G36*
X248319Y308897D02*
X247551Y308744D01*
X246900Y308309D01*
X246756Y308094D01*
X226173D01*
X226029Y308309D01*
X225378Y308744D01*
X224610Y308897D01*
X223842Y308744D01*
X223191Y308309D01*
X222756Y307658D01*
X222603Y306890D01*
X222756Y306122D01*
X223191Y305471D01*
X223842Y305035D01*
X224610Y304883D01*
X225378Y305035D01*
X226029Y305471D01*
X226173Y305686D01*
X246756D01*
X246900Y305471D01*
X247551Y305035D01*
X248319Y304883D01*
X249087Y305035D01*
X249738Y305471D01*
X250173Y306122D01*
X250326Y306890D01*
X250173Y307658D01*
X249738Y308309D01*
X249087Y308744D01*
X248319Y308897D01*
D02*
G37*
G36*
X503648Y299247D02*
X502620Y299111D01*
X501662Y298715D01*
X500840Y298083D01*
X500209Y297261D01*
X499812Y296303D01*
X499677Y295276D01*
X499812Y294248D01*
X500209Y293290D01*
X500840Y292468D01*
X501662Y291837D01*
X502620Y291440D01*
X503648Y291305D01*
X504676Y291440D01*
X505633Y291837D01*
X506456Y292468D01*
X507087Y293290D01*
X507483Y294248D01*
X507619Y295276D01*
X507483Y296303D01*
X507087Y297261D01*
X506456Y298083D01*
X505633Y298715D01*
X504676Y299111D01*
X503648Y299247D01*
D02*
G37*
G36*
X401286D02*
X400258Y299111D01*
X399300Y298715D01*
X398478Y298083D01*
X397847Y297261D01*
X397450Y296303D01*
X397315Y295276D01*
X397450Y294248D01*
X397847Y293290D01*
X398478Y292468D01*
X399300Y291837D01*
X400258Y291440D01*
X401286Y291305D01*
X402313Y291440D01*
X403271Y291837D01*
X404094Y292468D01*
X404725Y293290D01*
X405121Y294248D01*
X405257Y295276D01*
X405121Y296303D01*
X404725Y297261D01*
X404094Y298083D01*
X403271Y298715D01*
X402313Y299111D01*
X401286Y299247D01*
D02*
G37*
G36*
X165545Y338190D02*
X164671Y338075D01*
X163857Y337738D01*
X163158Y337202D01*
X162622Y336503D01*
X162285Y335689D01*
X162170Y334815D01*
X162285Y333941D01*
X162622Y333127D01*
X163158Y332428D01*
X163857Y331892D01*
X164671Y331555D01*
X165545Y331440D01*
X166419Y331555D01*
X167233Y331892D01*
X167932Y332428D01*
X168468Y333127D01*
X168805Y333941D01*
X168920Y334815D01*
X168805Y335689D01*
X168468Y336503D01*
X167932Y337202D01*
X167233Y337738D01*
X166419Y338075D01*
X165545Y338190D01*
D02*
G37*
G36*
X392386Y353182D02*
X391074Y353053D01*
X389812Y352670D01*
X388649Y352048D01*
X387630Y351212D01*
X386794Y350193D01*
X386172Y349030D01*
X385790Y347769D01*
X385661Y346457D01*
X385790Y345145D01*
X386172Y343883D01*
X386794Y342720D01*
X387630Y341701D01*
X388649Y340865D01*
X389812Y340243D01*
X391074Y339861D01*
X392386Y339731D01*
X393698Y339861D01*
X394959Y340243D01*
X396122Y340865D01*
X397141Y341701D01*
X397978Y342720D01*
X398599Y343883D01*
X398982Y345145D01*
X399111Y346457D01*
X398982Y347769D01*
X398599Y349030D01*
X397978Y350193D01*
X397141Y351212D01*
X396122Y352048D01*
X394959Y352670D01*
X393698Y353053D01*
X392386Y353182D01*
D02*
G37*
G36*
X165545Y328190D02*
X164671Y328075D01*
X163857Y327738D01*
X163158Y327202D01*
X162622Y326503D01*
X162285Y325689D01*
X162170Y324815D01*
X162285Y323941D01*
X162622Y323127D01*
X163158Y322428D01*
X163857Y321892D01*
X164671Y321555D01*
X165545Y321440D01*
X166419Y321555D01*
X167233Y321892D01*
X167932Y322428D01*
X168468Y323127D01*
X168805Y323941D01*
X168920Y324815D01*
X168805Y325689D01*
X168468Y326503D01*
X167932Y327202D01*
X167233Y327738D01*
X166419Y328075D01*
X165545Y328190D01*
D02*
G37*
G36*
X318398Y319382D02*
X316990D01*
X317043Y319114D01*
X317478Y318463D01*
X318130Y318028D01*
X318398Y317974D01*
Y319382D01*
D02*
G37*
G36*
X320805D02*
X319398D01*
Y317974D01*
X319666Y318028D01*
X320317Y318463D01*
X320752Y319114D01*
X320805Y319382D01*
D02*
G37*
%LPD*%
G36*
X266315Y353534D02*
X253886Y341104D01*
X166613D01*
X166515Y341595D01*
X167233Y341892D01*
X167932Y342428D01*
X168468Y343127D01*
X168805Y343941D01*
X168854Y344315D01*
X165545D01*
Y345315D01*
X168854D01*
X168805Y345689D01*
X168468Y346503D01*
X167932Y347202D01*
X167233Y347738D01*
X166876Y347885D01*
X166779Y348376D01*
X172399Y353996D01*
X266124D01*
X266315Y353534D01*
D02*
G37*
G36*
X265098Y311846D02*
X265866Y311693D01*
X266120Y311743D01*
X273615Y304248D01*
X273615Y304248D01*
X274006Y303987D01*
X274006Y303987D01*
X274006Y303987D01*
D01*
X274006Y303987D01*
X274006Y303987D01*
X274466Y303896D01*
X274466Y303896D01*
X481301D01*
X485522Y299675D01*
X485331Y299213D01*
X481414D01*
X477675Y302952D01*
X477284Y303213D01*
X476823Y303304D01*
X476823Y303304D01*
X272899D01*
X264669Y311534D01*
X264986Y311921D01*
X265098Y311846D01*
D02*
G37*
D19*
X353346Y125000D02*
X497835D01*
X420079Y125197D02*
X420276Y125000D01*
X420079Y125197D02*
Y133858D01*
X332193Y103846D02*
X353346Y125000D01*
X196457Y103846D02*
X332193D01*
X185354Y114949D02*
X196457Y103846D01*
X401575Y172244D02*
X436024D01*
X371063Y141732D02*
X401575Y172244D01*
X338583Y141732D02*
X371063D01*
X327087Y125984D02*
Y130236D01*
X338583Y141732D01*
X497835Y125000D02*
X506693Y133858D01*
X436024Y172244D02*
X450787Y157480D01*
X307087D02*
X364173D01*
X279843Y130236D02*
X307087Y157480D01*
X279843Y125984D02*
Y130236D01*
X293630Y173551D02*
Y187378D01*
X259843Y139764D02*
X293630Y173551D01*
X259843Y125984D02*
Y139764D01*
X269685Y179134D02*
Y190945D01*
X232598Y142047D02*
X269685Y179134D01*
X232598Y125984D02*
Y142047D01*
X142323Y154323D02*
X159630Y171630D01*
X142323Y135827D02*
Y154323D01*
X212598Y145858D02*
X238370Y171630D01*
X212598Y125984D02*
Y145858D01*
X185354Y114949D02*
Y125984D01*
X269685Y190945D02*
X279528Y200787D01*
X358961D01*
X372370Y187378D01*
D20*
X405905Y263484D02*
Y267224D01*
Y263484D02*
X434055Y235335D01*
X450787D01*
X356102Y324803D02*
X498721D01*
X412386Y325476D02*
Y346457D01*
X459130Y325319D02*
Y346457D01*
X505874Y331957D02*
Y346457D01*
X498721Y324803D02*
X505874Y331957D01*
X345642Y335264D02*
X356102Y324803D01*
X345642Y335264D02*
Y346457D01*
D21*
X242284Y323400D02*
X260748Y341865D01*
X257087Y300913D02*
Y338203D01*
Y300913D02*
X259200Y298800D01*
X186024Y295276D02*
X381286D01*
X149600Y331699D02*
X186024Y295276D01*
X149600Y331699D02*
Y334900D01*
X318898Y346457D02*
X318898Y346457D01*
Y319882D02*
Y346457D01*
X290354Y345472D02*
X291339Y346457D01*
X290354Y327756D02*
Y345472D01*
X342520Y250984D02*
X397638D01*
X430118Y218504D01*
Y194882D02*
Y218504D01*
X437369Y290900D02*
X488000D01*
X434094D02*
X437369D01*
X455760Y272509D01*
X432994Y295276D02*
X437369Y290900D01*
X432994Y292000D02*
Y295276D01*
Y289900D02*
Y292000D01*
X260847Y313653D02*
X272400Y302100D01*
X476823D01*
X483648Y295276D01*
X272500Y278000D02*
X291300Y259200D01*
X401700D01*
X447400Y213500D01*
X297975Y353600D02*
X305118Y346457D01*
X268084Y353600D02*
X297975D01*
X254384Y339900D02*
X268084Y353600D01*
X153600Y339900D02*
X254384D01*
X149600Y343900D02*
X153600Y339900D01*
X149600Y343900D02*
Y354920D01*
X310154Y355200D02*
X318898Y346457D01*
X171900Y355200D02*
X310154D01*
X161600Y344900D02*
X171900Y355200D01*
X432994Y289900D02*
X466409Y256484D01*
X381286Y295276D02*
X402561Y274000D01*
X439709D01*
X443800Y269909D01*
X228346Y286300D02*
X240446Y274200D01*
X255700D01*
X432994Y292000D02*
X434094Y290900D01*
X488000D02*
Y298900D01*
X481800Y305100D02*
X488000Y298900D01*
X274466Y305100D02*
X481800D01*
X265866Y313700D02*
X274466Y305100D01*
X145910Y306890D02*
X157900Y294900D01*
Y275800D02*
Y294900D01*
X455760Y272509D02*
X472000D01*
X207000Y323400D02*
X242284D01*
X157900Y275800D02*
X212940D01*
X238370Y250370D01*
X145910Y306890D02*
X169579D01*
X169579Y306890D01*
X248400Y283300D02*
X355188D01*
X372370Y266118D01*
X318898Y346457D02*
X327041Y354600D01*
X357498D01*
X365642Y346457D01*
X224610Y306890D02*
X248319D01*
X179315Y250370D02*
X218685D01*
X313315Y266118D02*
X352685D01*
D22*
X260945Y330315D02*
D03*
X251245Y361415D02*
D03*
X256245D02*
D03*
Y366415D02*
D03*
X251245D02*
D03*
X265945Y330315D02*
D03*
X260945Y325315D02*
D03*
X265945D02*
D03*
D23*
X165545Y364815D02*
D03*
Y354815D02*
D03*
Y344815D02*
D03*
Y334815D02*
D03*
Y324815D02*
D03*
D24*
X493968Y266484D02*
D03*
Y256484D02*
D03*
X466409Y266484D02*
D03*
Y256484D02*
D03*
X438850Y266484D02*
D03*
Y256484D02*
D03*
D25*
X493968Y246484D02*
D03*
X466409D02*
D03*
X438850D02*
D03*
D26*
X412386Y346457D02*
D03*
X459130D02*
D03*
X505874D02*
D03*
X291339D02*
D03*
X212598Y125984D02*
D03*
X165354D02*
D03*
X259843D02*
D03*
X365642Y346457D02*
D03*
X307087Y125984D02*
D03*
D27*
X392386Y346457D02*
D03*
X439130D02*
D03*
X485874D02*
D03*
X305118D02*
D03*
X318898D02*
D03*
X232598Y125984D02*
D03*
X185354D02*
D03*
X279843D02*
D03*
X345642Y346457D02*
D03*
X327087Y125984D02*
D03*
D28*
X401286Y295276D02*
D03*
X391286D02*
D03*
X452994D02*
D03*
X442994D02*
D03*
X503648D02*
D03*
X493648D02*
D03*
D29*
X381286D02*
D03*
X432994D02*
D03*
X483648D02*
D03*
D30*
X159630Y250370D02*
D03*
X179315D02*
D03*
X218685D02*
D03*
X238370D02*
D03*
Y171630D02*
D03*
X159630D02*
D03*
X293630Y266118D02*
D03*
X313315D02*
D03*
X352685D02*
D03*
X372370D02*
D03*
Y187378D02*
D03*
X293630D02*
D03*
X412205Y157480D02*
D03*
Y110236D02*
D03*
X498819Y157480D02*
D03*
Y110236D02*
D03*
X145669Y116142D02*
D03*
Y135827D02*
D03*
D31*
X364173Y157480D02*
D03*
Y110236D02*
D03*
X420079Y133858D02*
D03*
X450787Y157480D02*
D03*
Y110236D02*
D03*
X506693Y133858D02*
D03*
D32*
X472000Y272509D02*
D03*
X318898Y319882D02*
D03*
X290354Y327756D02*
D03*
X342520Y250984D02*
D03*
X430118Y194882D02*
D03*
X260847Y313653D02*
D03*
X272500Y278000D02*
D03*
X447400Y213500D02*
D03*
X149600Y334900D02*
D03*
Y354920D02*
D03*
X161600Y344900D02*
D03*
X443800Y269909D02*
D03*
X228346Y286300D02*
D03*
X255700Y274200D02*
D03*
X265866Y313700D02*
D03*
X145910Y306890D02*
D03*
X260748Y341865D02*
D03*
X207000Y323400D02*
D03*
X259200Y298800D02*
D03*
X157900Y275800D02*
D03*
X169579Y306890D02*
D03*
X248400Y283300D02*
D03*
X248319Y306890D02*
D03*
X224610D02*
D03*
D33*
X405905Y267224D02*
D03*
X450787Y235335D02*
D03*
M02*
