G04 (created by PCBNEW (2013-07-07 BZR 4022)-stable) date 11/10/2014 7:30:29 PM*
%MOIN*%
G04 Gerber Fmt 3.4, Leading zero omitted, Abs format*
%FSLAX34Y34*%
G01*
G70*
G90*
G04 APERTURE LIST*
%ADD10C,0.00590551*%
%ADD11C,0.015*%
G04 APERTURE END LIST*
G54D10*
G54D11*
X19314Y-17712D02*
X19314Y-1570D01*
X1598Y-19287D02*
X17740Y-19287D01*
X23Y-1570D02*
X23Y-17712D01*
X17740Y3D02*
X1598Y3D01*
X23Y-17712D02*
G75*
G03X1598Y-19287I1574J0D01*
G74*
G01*
X17740Y-19287D02*
G75*
G03X19314Y-17712I0J1574D01*
G74*
G01*
X19314Y-1570D02*
G75*
G03X17740Y3I-1574J0D01*
G74*
G01*
X1598Y3D02*
G75*
G03X23Y-1570I0J-1574D01*
G74*
G01*
M02*
