G04 DipTrace 2.05 beta*
%INTop Paste.gbr*%
%MOIN*%
%ADD10C,0.0098*%
%ADD11C,0.0055*%
%ADD12C,0.003*%
%ADD13C,0.0197*%
%ADD14C,0.0394*%
%ADD15C,0.02*%
%ADD16C,0.03*%
%ADD17C,0.0138*%
%ADD18C,0.0157*%
%ADD19C,0.0118*%
%ADD20C,0.0787*%
%ADD21C,0.0165*%
%ADD22C,0.015*%
%ADD23C,0.0079*%
%ADD24C,0.025*%
%ADD25R,0.056X0.06*%
%ADD26R,0.06X0.056*%
%ADD27R,0.064X0.064*%
%ADD28R,0.07X0.102*%
%ADD29R,0.0709X0.1043*%
%ADD30R,0.0276X0.0276*%
%ADD31R,0.0591X0.0512*%
%ADD32R,0.048X0.063*%
%ADD33R,0.0512X0.0591*%
%ADD34R,0.0866X0.0945*%
%ADD35R,0.0945X0.0866*%
%ADD36R,0.063X0.048*%
%ADD37O,0.0984X0.0709*%
%ADD38R,0.0984X0.0709*%
%ADD39R,0.0787X0.0787*%
%ADD40C,0.0787*%
%ADD41R,0.1063X0.0669*%
%ADD42O,0.1063X0.0669*%
%ADD43R,0.0984X0.0787*%
%ADD44R,0.122X0.0217*%
%ADD45C,0.01*%
%ADD46O,0.065X0.1*%
%ADD47R,0.0591X0.0591*%
%ADD48C,0.0591*%
%ADD49R,0.0669X0.1063*%
%ADD50O,0.0669X0.1063*%
%ADD51R,0.06X0.06*%
%ADD52C,0.06*%
%ADD53R,0.0472X0.0394*%
%ADD54R,0.0394X0.0472*%
%ADD55R,0.1772X0.1102*%
%ADD56R,0.1004X0.2953*%
%ADD57R,0.0551X0.0512*%
%ADD58R,0.1063X0.0472*%
%ADD59C,0.0827*%
%ADD60C,0.0906*%
%ADD61C,0.0373*%
%ADD62R,0.0709X0.0197*%
%ADD63R,0.0197X0.0709*%
%ADD64R,0.05X0.015*%
%ADD65R,0.065X0.0157*%
%ADD66O,0.0134X0.0143*%
%ADD67R,0.0165X0.0701*%
%ADD68R,0.08X0.026*%
%ADD69O,0.0143X0.0134*%
%ADD70R,0.0701X0.0165*%
%ADD71C,0.248*%
%ADD72C,0.1732*%
%ADD73C,0.1378*%
%ADD74C,0.1575*%
%ADD75C,0.0512*%
%ADD76C,0.04*%
%ADD77C,0.0191*%
%ADD78C,0.0354*%
%ADD79C,0.128*%
%ADD80C,0.0295*%
%ADD81C,0.0335*%
%ADD82C,0.035*%
%ADD83C,0.038*%
%ADD84C,0.126*%
%ADD85C,0.0236*%
%ADD86C,0.0479*%
%ADD87C,0.0321*%
%ADD88C,0.0433*%
%ADD89C,0.1654*%
%ADD90C,0.1496*%
%ADD91C,0.1457*%
%ADD92C,0.1299*%
%ADD93C,0.1811*%
%ADD94C,0.2559*%
%ADD95C,0.2402*%
%ADD96R,0.078X0.0244*%
%ADD97R,0.0622X0.0087*%
%ADD98R,0.0879X0.0339*%
%ADD99R,0.0721X0.0181*%
%ADD100R,0.0244X0.078*%
%ADD101R,0.0087X0.0622*%
%ADD102R,0.0728X0.0236*%
%ADD103R,0.0571X0.0079*%
%ADD104R,0.0579X0.0228*%
%ADD105R,0.0421X0.0071*%
%ADD106R,0.0276X0.0787*%
%ADD107R,0.0118X0.063*%
%ADD108R,0.0787X0.0276*%
%ADD109R,0.063X0.0118*%
%ADD110C,0.0984*%
%ADD111C,0.0748*%
%ADD112R,0.1142X0.0551*%
%ADD113R,0.0984X0.0394*%
%ADD114R,0.063X0.0591*%
%ADD115R,0.0472X0.0433*%
%ADD116R,0.1083X0.3031*%
%ADD117R,0.0925X0.2874*%
%ADD118R,0.185X0.1181*%
%ADD119R,0.1693X0.1024*%
%ADD120R,0.0472X0.0551*%
%ADD121R,0.0315X0.0394*%
%ADD122R,0.0551X0.0472*%
%ADD123R,0.0394X0.0315*%
%ADD124C,0.0679*%
%ADD125C,0.0521*%
%ADD126R,0.0679X0.0679*%
%ADD127R,0.0521X0.0521*%
%ADD128O,0.0748X0.1142*%
%ADD129O,0.0591X0.0984*%
%ADD130R,0.0748X0.1142*%
%ADD131R,0.0591X0.0984*%
%ADD132C,0.0669*%
%ADD133R,0.0669X0.0669*%
%ADD134R,0.0512X0.0512*%
%ADD135O,0.0729X0.1079*%
%ADD136O,0.0571X0.0921*%
%ADD137R,0.1299X0.0295*%
%ADD138R,0.1142X0.0138*%
%ADD139R,0.1063X0.0866*%
%ADD140R,0.0906X0.0709*%
%ADD141O,0.1142X0.0748*%
%ADD142O,0.0984X0.0591*%
%ADD143R,0.1142X0.0748*%
%ADD144R,0.0984X0.0591*%
%ADD145C,0.0866*%
%ADD146C,0.0709*%
%ADD147R,0.0866X0.0866*%
%ADD148R,0.0709X0.0709*%
%ADD149R,0.1063X0.0787*%
%ADD150R,0.0906X0.063*%
%ADD151O,0.1063X0.0787*%
%ADD152O,0.0906X0.063*%
%ADD153R,0.0709X0.0559*%
%ADD154R,0.0551X0.0401*%
%ADD155R,0.1024X0.0945*%
%ADD156R,0.0866X0.0787*%
%ADD157R,0.0945X0.1024*%
%ADD158R,0.0787X0.0866*%
%ADD159R,0.0591X0.0669*%
%ADD160R,0.0433X0.0512*%
%ADD161R,0.0559X0.0709*%
%ADD162R,0.0401X0.0551*%
%ADD163R,0.0669X0.0591*%
%ADD164R,0.0512X0.0433*%
%ADD165R,0.0354X0.0354*%
%ADD166R,0.0197X0.0197*%
%ADD167R,0.0787X0.1122*%
%ADD168R,0.063X0.0965*%
%ADD169R,0.0779X0.1099*%
%ADD170R,0.0621X0.0941*%
%ADD171R,0.0719X0.0719*%
%ADD172R,0.0561X0.0561*%
%ADD173R,0.0679X0.0639*%
%ADD174R,0.0521X0.0481*%
%ADD175R,0.0639X0.0679*%
%ADD176R,0.0481X0.0521*%
%ADD177C,0.0866*%
%ADD178C,0.0709*%
%ADD179C,0.0062*%
%ADD180C,0.0093*%
%ADD181C,0.0077*%
%ADD182C,0.0046*%
%ADD183C,0.0232*%
%ADD184C,0.0185*%
%ADD185C,0.017*%
%ADD186C,0.0124*%
%FSLAX44Y44*%
%SFA1B1*%
%OFA0B0*%
G04*
G70*
G90*
G75*
G01*
%LNTopPaste*%
%LPD*%
G54D87*
X24753Y-13501D3*
Y-14001D3*
X24690Y-18189D3*
X8313Y-19627D3*
X25378Y-13501D3*
X26003D3*
X26565D3*
X26128Y-14627D3*
X26628D3*
X4500Y-16314D3*
Y-15877D3*
X26128Y-15377D3*
X26628D3*
X4438Y-4438D3*
Y-4813D3*
X26128Y-16127D3*
X26628D3*
X26128Y-16877D3*
X26628D3*
X26128Y-17627D3*
X26628D3*
G54D176*
X19564Y-7500D3*
Y-6600D3*
G54D174*
X16377Y-5501D3*
X15477D3*
X17502D3*
X18402D3*
G54D176*
X6376Y-16689D3*
Y-17589D3*
G54D174*
X14502Y-14564D3*
X15402D3*
G54D176*
X20190Y-13876D3*
Y-14776D3*
X21064Y-11125D3*
Y-12025D3*
X20564Y-6562D3*
Y-7462D3*
X22502Y-15252D3*
Y-16152D3*
G54D174*
X27503Y-19752D3*
X26603D3*
G54D176*
X21377Y-16184D3*
Y-15284D3*
X13938Y-9750D3*
Y-8850D3*
G54D172*
X28003Y-20815D3*
X26663D3*
G54D176*
X11439Y-4813D3*
Y-5713D3*
X9063Y-5376D3*
Y-4476D3*
X20690Y-23252D3*
Y-22352D3*
X19752Y-22377D3*
Y-23277D3*
G54D170*
X14001Y-23065D3*
X15421D3*
G54D174*
X20127Y-15877D3*
X19227D3*
G54D172*
X6313Y-13876D3*
X7653D3*
G54D176*
X7438Y-16689D3*
Y-17589D3*
G54D174*
X7688Y-12814D3*
X6788D3*
G54D176*
X8626Y-11876D3*
Y-12776D3*
G54D174*
X4813Y-9689D3*
X5713D3*
G54D172*
X6376Y-6688D3*
X7716D3*
G54D174*
X6813Y-9689D3*
X7713D3*
X8063Y-5626D3*
X7163D3*
G54D176*
X8063Y-3625D3*
Y-4525D3*
G54D168*
X10501Y-9876D3*
Y-8085D3*
G54D170*
X13979Y-15917D3*
X15399D3*
G54D172*
X7688Y-11751D3*
X6348D3*
X7001Y-4500D3*
Y-3161D3*
G54D166*
X22002Y-6688D3*
Y-7259D3*
G54D164*
X30253Y-13126D3*
Y-13874D3*
X29378Y-13126D3*
Y-13874D3*
Y-21440D3*
Y-20692D3*
X30253Y-21440D3*
Y-20692D3*
G54D162*
X12751Y-23440D3*
Y-22100D3*
G54D164*
X9751Y-22940D3*
Y-22192D3*
G54D160*
X29066Y-4313D3*
X28318D3*
G54D158*
X5126Y-13073D3*
Y-11144D3*
G54D156*
X3241Y-2563D3*
X5170D3*
G54D154*
X16945Y-18687D3*
X15605D3*
G54D164*
X11876Y-22190D3*
Y-22938D3*
G54D162*
X27485Y-11734D3*
Y-10394D3*
G54D140*
X1188Y-10251D3*
G54D138*
X3471Y-8499D3*
G54D140*
X1188Y-6747D3*
X3353Y-10251D3*
Y-6747D3*
G54D138*
X3471Y-8814D3*
Y-9129D3*
Y-8184D3*
Y-7869D3*
X27315Y-19626D2*
G54D45*
D3*
X26316Y-20626D2*
D3*
Y-21625D2*
D3*
G54D123*
X21065Y-13064D3*
Y-13851D3*
G54D121*
X12375Y-9750D3*
X13163D3*
G54D119*
X3188Y-17564D3*
Y-14336D3*
G54D117*
X5862Y-4688D3*
X3185D3*
G54D115*
X12376Y-14564D3*
X13321D3*
G54D113*
X7876Y-20752D3*
Y-21819D3*
G54D160*
X10751Y-13626D3*
X10003D3*
X10751Y-12814D3*
X10003D3*
G54D164*
X21376Y-7437D3*
Y-6689D3*
G54D160*
X26628Y-21815D3*
X27376D3*
X27879Y-13939D3*
X28627D3*
X10501Y-2563D3*
X9753D3*
G54D164*
X11439Y-7251D3*
Y-6503D3*
X8626Y-14314D3*
Y-13566D3*
X10439Y-22940D3*
Y-22192D3*
G54D160*
X3813Y-12814D3*
X3065D3*
G54D164*
X8313Y-17564D3*
Y-16816D3*
X8563Y-6876D3*
Y-6128D3*
Y-8251D3*
Y-7503D3*
Y-9689D3*
Y-8940D3*
G54D160*
X2438Y-12814D3*
X1690D3*
G54D164*
X3313Y-23440D3*
Y-22692D3*
G54D160*
X28315Y-3500D3*
X29064D3*
X14251Y-17689D3*
X15000D3*
G54D164*
X11126Y-22940D3*
Y-22192D3*
G54D160*
X27253Y-9376D3*
X28001D3*
X27253Y-8626D3*
X28001D3*
G54D109*
X19627Y-12626D3*
Y-12311D3*
Y-11996D3*
Y-11681D3*
Y-11367D3*
Y-11052D3*
Y-10737D3*
Y-10422D3*
Y-10107D3*
Y-9792D3*
Y-9477D3*
G54D107*
X18879Y-8729D3*
X18564D3*
X18249D3*
X17934D3*
X17619D3*
X17304D3*
X16989D3*
X16674D3*
X16359D3*
X16044D3*
X15730D3*
G54D109*
X14981Y-9477D3*
Y-9792D3*
Y-10107D3*
Y-10422D3*
Y-10737D3*
Y-11052D3*
Y-11367D3*
Y-11681D3*
Y-11996D3*
Y-12311D3*
Y-12626D3*
G54D107*
X15730Y-13374D3*
X16044D3*
X16359D3*
X16674D3*
X16989D3*
X17304D3*
X17619D3*
X17934D3*
X18249D3*
X18564D3*
X18879D3*
G54D105*
X8165Y-15689D3*
Y-15433D3*
Y-15177D3*
Y-14921D3*
X6417D3*
Y-15185D3*
Y-15433D3*
Y-15689D3*
G54D103*
X27440Y-17314D3*
Y-17058D3*
Y-16803D3*
Y-16547D3*
Y-16291D3*
Y-16035D3*
Y-15779D3*
Y-15523D3*
Y-15267D3*
Y-15011D3*
Y-14755D3*
Y-14499D3*
X24665D3*
Y-14755D3*
Y-15011D3*
Y-15267D3*
Y-15523D3*
Y-15779D3*
Y-16035D3*
Y-16291D3*
Y-16547D3*
Y-16803D3*
Y-17058D3*
Y-17314D3*
G54D101*
X10626Y-4126D3*
X10370D3*
X10114D3*
X9858D3*
Y-6464D3*
X10114D3*
X10370D3*
X10626D3*
G54D99*
X18814Y-23565D3*
Y-23065D3*
Y-22565D3*
Y-22065D3*
X16615Y-23565D3*
Y-23065D3*
Y-22565D3*
Y-22065D3*
G54D105*
X7165Y-8688D3*
Y-8433D3*
Y-8177D3*
Y-7921D3*
X5417D3*
Y-8184D3*
Y-8433D3*
Y-8688D3*
G54D97*
X4313Y-22377D3*
Y-22633D3*
Y-22889D3*
Y-23145D3*
X6652D3*
Y-22889D3*
Y-22633D3*
Y-22377D3*
M02*
