G04 (created by PCBNEW-RS274X (2011-05-25)-stable) date Fri 06 Jul 2012 10:54:19 AM EDT*
G01*
G70*
G90*
%MOIN*%
G04 Gerber Fmt 3.4, Leading zero omitted, Abs format*
%FSLAX34Y34*%
G04 APERTURE LIST*
%ADD10C,0.006000*%
%ADD11C,0.015000*%
G04 APERTURE END LIST*
G54D10*
G54D11*
X64500Y-51000D02*
X77500Y-51000D01*
X64500Y-31000D02*
X77500Y-31000D01*
X64500Y-51000D02*
X64500Y-31000D01*
X77500Y-31000D02*
X77500Y-51000D01*
M02*
