G04 (created by PCBNEW-RS274X (2011-05-25)-stable) date Wed 04 Jul 2012 10:24:54 PM EDT*
G01*
G70*
G90*
%MOIN*%
G04 Gerber Fmt 3.4, Leading zero omitted, Abs format*
%FSLAX34Y34*%
G04 APERTURE LIST*
%ADD10C,0.006000*%
%ADD11C,0.015000*%
G04 APERTURE END LIST*
G54D10*
G54D11*
X71000Y-33750D02*
X65750Y-33750D01*
X71000Y-54000D02*
X65750Y-54000D01*
X71000Y-33750D02*
X71000Y-54000D01*
X65750Y-53750D02*
X65750Y-54000D01*
X65750Y-33750D02*
X65750Y-53750D01*
M02*
