G04 (created by PCBNEW (2013-04-19 BZR 4011)-stable) date 27/09/2013 13:49:53*
%MOIN*%
G04 Gerber Fmt 3.4, Leading zero omitted, Abs format*
%FSLAX34Y34*%
G01*
G70*
G90*
G04 APERTURE LIST*
%ADD10C,2.3622e-006*%
%ADD11C,0.015*%
G04 APERTURE END LIST*
G54D10*
G54D11*
X60000Y-35100D02*
X64400Y-35100D01*
X60000Y-45100D02*
X64400Y-45100D01*
X64800Y-35500D02*
X64800Y-44700D01*
X64800Y-35500D02*
G75*
G03X64400Y-35100I-400J0D01*
G74*
G01*
X64400Y-45100D02*
G75*
G03X64800Y-44700I0J400D01*
G74*
G01*
X58500Y-43800D02*
X58500Y-36400D01*
X58500Y-43800D02*
G75*
G03X60000Y-45099I1399J100D01*
G74*
G01*
X60000Y-35100D02*
G75*
G03X58500Y-36399I-100J-1399D01*
G74*
G01*
M02*
