G04 start of page 11 for group -4078 idx -4078
G04 Title: TX Daughterboard, bottomsilk *
G04 Creator: pcb 20070208 *
G04 CreationDate: Mon Dec 24 21:52:14 2007 UTC *
G04 For: matt *
G04 Format: Gerber/RS-274X *
G04 PCB-Dimensions: 275000 250000 *
G04 PCB-Coordinate-Origin: lower left *
%MOIN*%
%FSLAX24Y24*%
%LNBACKSILK*%
%ADD11C,0.0100*%
%ADD12C,0.0060*%
G54D12*X23900Y19600D02*X24100D01*
X24150Y19550D01*
Y19450D02*Y19550D01*
X24100Y19400D02*X24150Y19450D01*
X23950Y19400D02*X24100D01*
X23950Y19200D02*Y19600D01*
X23900Y19200D02*X24100D01*
X24150Y19250D01*
Y19350D01*
X24100Y19400D02*X24150Y19350D01*
X24270Y19250D02*Y19600D01*
Y19250D02*X24320Y19200D01*
X24470D01*
X24520Y19250D01*
Y19600D01*
X24270Y19400D02*X24520D01*
X24690Y19600D02*X24840D01*
X24640Y19550D02*X24690Y19600D01*
X24640Y19250D02*Y19550D01*
Y19250D02*X24690Y19200D01*
X24840D01*
X24960D02*Y19600D01*
Y19400D02*X25160Y19200D01*
X24960Y19400D02*X25160Y19600D01*
X25480Y19200D02*X25530Y19250D01*
X25330Y19200D02*X25480D01*
X25280Y19250D02*X25330Y19200D01*
X25280Y19250D02*Y19350D01*
X25330Y19400D01*
X25480D01*
X25530Y19450D01*
Y19550D01*
X25480Y19600D02*X25530Y19550D01*
X25330Y19600D02*X25480D01*
X25280Y19550D02*X25330Y19600D01*
X25650Y19200D02*X25750D01*
X25700D02*Y19600D01*
X25650D02*X25750D01*
X25870Y19200D02*Y19600D01*
X26070D01*
X26190Y19200D02*Y19600D01*
Y19400D02*X26390Y19200D01*
X26190Y19400D02*X26390Y19600D01*
G54D11*X8399Y11918D02*Y8618D01*
Y11918D02*X22899D01*
X8399Y8618D02*X22899D01*
Y11918D02*Y8618D01*
G54D12*X7399Y9818D02*X7549D01*
Y10168D01*
X7499Y10218D02*X7549Y10168D01*
X7449Y10218D02*X7499D01*
X7399Y10168D02*X7449Y10218D01*
X7669Y10018D02*X7869Y9818D01*
X7669Y10018D02*X7919D01*
X7869Y9818D02*Y10218D01*
X8039Y10018D02*X8239Y9818D01*
X8039Y10018D02*X8289D01*
X8239Y9818D02*Y10218D01*
M02*
