G04 start of page 10 for group -4063 idx -4063 *
G04 Title: (unknown), componentmask *
G04 Creator: pcb 20091103 *
G04 CreationDate: Чтв 05 Июл 2012 10:45:54 UTC *
G04 For: aml *
G04 Format: Gerber/RS-274X *
G04 PCB-Dimensions: 1259850 590550 *
G04 PCB-Coordinate-Origin: lower left *
%MOIN*%
%FSLAX25Y25*%
%LNFRONTMASK*%
%ADD20C,0.0200*%
%ADD33C,0.1181*%
%ADD34C,0.1260*%
%ADD36C,0.0780*%
%ADD37C,0.0710*%
%ADD38C,0.0760*%
%ADD39C,0.0960*%
%ADD40C,0.0660*%
%ADD41C,0.0680*%
%ADD42C,0.0847*%
%ADD43R,0.0572X0.0572*%
G54D36*X350394Y118109D03*
G54D20*G36*
X356494Y122009D02*Y114209D01*
X364294D01*
Y122009D01*
X356494D01*
G37*
G54D36*X340394Y118109D03*
X350394Y173227D03*
G54D20*G36*
X356494Y177127D02*Y169327D01*
X364294D01*
Y177127D01*
X356494D01*
G37*
G54D36*X340394Y173227D03*
G54D20*G36*
X341844Y204336D02*Y197236D01*
X348944D01*
Y204336D01*
X341844D01*
G37*
G54D37*X355394Y200786D03*
G54D36*X350394Y228345D03*
X340394D03*
G54D20*G36*
X356494Y232245D02*Y224445D01*
X364294D01*
Y232245D01*
X356494D01*
G37*
G36*
X341844Y149218D02*Y142118D01*
X348944D01*
Y149218D01*
X341844D01*
G37*
G54D37*X355394Y145668D03*
G54D36*X350394Y283463D03*
Y338581D03*
Y393700D03*
Y559054D03*
Y62991D03*
G54D20*G36*
X356494Y287363D02*Y279563D01*
X364294D01*
Y287363D01*
X356494D01*
G37*
G36*
Y342481D02*Y334681D01*
X364294D01*
Y342481D01*
X356494D01*
G37*
G36*
Y397600D02*Y389800D01*
X364294D01*
Y397600D01*
X356494D01*
G37*
G36*
Y562954D02*Y555154D01*
X364294D01*
Y562954D01*
X356494D01*
G37*
G36*
Y66891D02*Y59091D01*
X364294D01*
Y66891D01*
X356494D01*
G37*
G54D36*X340394Y283463D03*
Y338581D03*
Y393700D03*
Y559054D03*
Y62991D03*
G54D20*G36*
X341844Y259454D02*Y252354D01*
X348944D01*
Y259454D01*
X341844D01*
G37*
G36*
Y369691D02*Y362591D01*
X348944D01*
Y369691D01*
X341844D01*
G37*
G36*
Y424809D02*Y417709D01*
X348944D01*
Y424809D01*
X341844D01*
G37*
G36*
Y94100D02*Y87000D01*
X348944D01*
Y94100D01*
X341844D01*
G37*
G36*
X340781Y535045D02*Y527945D01*
X347881D01*
Y535045D01*
X340781D01*
G37*
G54D37*X355394Y255904D03*
Y366141D03*
Y421259D03*
Y90550D03*
X354331Y531495D03*
G54D20*G36*
X341844Y314572D02*Y307472D01*
X348944D01*
Y314572D01*
X341844D01*
G37*
G54D37*X355394Y311022D03*
G54D36*X188976Y393700D03*
G54D20*G36*
X195076Y397600D02*Y389800D01*
X202876D01*
Y397600D01*
X195076D01*
G37*
G54D36*X178976Y393700D03*
G54D38*X157480Y395641D03*
Y366141D03*
Y340522D03*
G54D36*X188976Y338581D03*
G54D20*G36*
X195076Y342481D02*Y334681D01*
X202876D01*
Y342481D01*
X195076D01*
G37*
G54D37*X193976Y366141D03*
Y421259D03*
G54D36*X178976Y228345D03*
Y338581D03*
Y559054D03*
G54D38*X157480Y421259D03*
G54D20*G36*
X180426Y424809D02*Y417709D01*
X187526D01*
Y424809D01*
X180426D01*
G37*
G54D38*X157480Y560995D03*
Y531495D03*
G54D20*G36*
X180426Y369691D02*Y362591D01*
X187526D01*
Y369691D01*
X180426D01*
G37*
G36*
Y479927D02*Y472827D01*
X187526D01*
Y479927D01*
X180426D01*
G37*
G36*
Y535045D02*Y527945D01*
X187526D01*
Y535045D01*
X180426D01*
G37*
G54D37*X193976Y531495D03*
G54D20*G36*
X180426Y314572D02*Y307472D01*
X187526D01*
Y314572D01*
X180426D01*
G37*
G54D37*X193976Y311022D03*
G54D20*G36*
X179363Y259454D02*Y252354D01*
X186463D01*
Y259454D01*
X179363D01*
G37*
G54D37*X192913Y255904D03*
G54D38*X157480Y230286D03*
Y285404D03*
Y255904D03*
Y311022D03*
G54D36*X350394Y503936D03*
X340394D03*
G54D38*X157480Y505877D03*
X318898D03*
G54D20*G36*
X356494Y507836D02*Y500036D01*
X364294D01*
Y507836D01*
X356494D01*
G37*
G54D36*X188976Y503936D03*
G54D20*G36*
X195076Y507836D02*Y500036D01*
X202876D01*
Y507836D01*
X195076D01*
G37*
G54D36*X178976Y503936D03*
G54D38*X157480Y476377D03*
G54D39*X225898Y490877D03*
G54D36*X350394Y448818D03*
G54D20*G36*
X356494Y452718D02*Y444918D01*
X364294D01*
Y452718D01*
X356494D01*
G37*
G54D36*X340394Y448818D03*
G54D20*G36*
X341844Y479927D02*Y472827D01*
X348944D01*
Y479927D01*
X341844D01*
G37*
G54D37*X355394Y476377D03*
G54D38*X318898Y450759D03*
Y560995D03*
Y531495D03*
Y476377D03*
G54D39*X387316Y545995D03*
X225898D03*
G54D38*X157480Y450759D03*
G54D36*X188976Y448818D03*
G54D20*G36*
X195076Y452718D02*Y444918D01*
X202876D01*
Y452718D01*
X195076D01*
G37*
G54D36*X178976Y448818D03*
X188976Y559054D03*
G54D20*G36*
X195076Y562954D02*Y555154D01*
X202876D01*
Y562954D01*
X195076D01*
G37*
G54D37*X193976Y476377D03*
G54D39*X64480Y545995D03*
Y490877D03*
X387316D03*
X64480Y435759D03*
Y380641D03*
Y325522D03*
G54D38*X318898Y340522D03*
Y311022D03*
G54D39*X387316Y325522D03*
Y270404D03*
X225898Y325522D03*
Y380641D03*
Y435759D03*
Y270404D03*
G54D38*X318898Y395641D03*
Y421259D03*
Y230286D03*
Y285404D03*
Y255904D03*
Y366141D03*
G54D39*X387316Y380641D03*
Y435759D03*
G54D36*X188976Y283463D03*
G54D20*G36*
X195076Y287363D02*Y279563D01*
X202876D01*
Y287363D01*
X195076D01*
G37*
G54D36*X178976Y283463D03*
X188976Y228345D03*
G54D39*X225898Y215286D03*
G54D20*G36*
X341844Y38982D02*Y31882D01*
X348944D01*
Y38982D01*
X341844D01*
G37*
G54D37*X355394Y35432D03*
G54D39*X387316Y49932D03*
Y160168D03*
Y105050D03*
Y215286D03*
G54D38*X318898Y200786D03*
Y175168D03*
Y64932D03*
Y120050D03*
Y90550D03*
Y145668D03*
Y35432D03*
G54D36*X178976Y62991D03*
G54D20*G36*
X180426Y38982D02*Y31882D01*
X187526D01*
Y38982D01*
X180426D01*
G37*
G54D38*X157480Y35432D03*
G54D37*X193976D03*
G54D38*X157480Y90550D03*
Y64932D03*
G54D36*X188976Y62991D03*
G54D20*G36*
X195076Y66891D02*Y59091D01*
X202876D01*
Y66891D01*
X195076D01*
G37*
G36*
X180426Y149218D02*Y142118D01*
X187526D01*
Y149218D01*
X180426D01*
G37*
G54D37*X193976Y145668D03*
G54D20*G36*
X180426Y94100D02*Y87000D01*
X187526D01*
Y94100D01*
X180426D01*
G37*
G54D37*X193976Y90550D03*
G54D39*X225898Y49932D03*
Y105050D03*
Y160168D03*
G54D20*G36*
X195076Y232245D02*Y224445D01*
X202876D01*
Y232245D01*
X195076D01*
G37*
G54D36*X188976Y118109D03*
G54D20*G36*
X195076Y122009D02*Y114209D01*
X202876D01*
Y122009D01*
X195076D01*
G37*
G54D36*X178976Y118109D03*
G54D38*X157480Y120050D03*
G54D39*X64480Y105050D03*
Y160168D03*
G54D36*X188976Y173227D03*
G54D20*G36*
X195076Y177127D02*Y169327D01*
X202876D01*
Y177127D01*
X195076D01*
G37*
G54D36*X178976Y173227D03*
G54D38*X157480Y145668D03*
G54D39*X64480Y215286D03*
Y270404D03*
Y49932D03*
G54D38*X157480Y175168D03*
Y200786D03*
G54D20*G36*
X180426Y204336D02*Y197236D01*
X187526D01*
Y204336D01*
X180426D01*
G37*
G54D37*X193976Y200786D03*
G54D36*X507874Y62991D03*
Y173227D03*
Y118109D03*
Y228345D03*
G54D20*G36*
X513974Y66891D02*Y59091D01*
X521774D01*
Y66891D01*
X513974D01*
G37*
G36*
Y177127D02*Y169327D01*
X521774D01*
Y177127D01*
X513974D01*
G37*
G36*
Y122009D02*Y114209D01*
X521774D01*
Y122009D01*
X513974D01*
G37*
G36*
Y232245D02*Y224445D01*
X521774D01*
Y232245D01*
X513974D01*
G37*
G54D36*X497874Y62991D03*
Y173227D03*
Y118109D03*
Y228345D03*
G54D38*X480316Y175168D03*
Y145668D03*
Y230286D03*
Y200786D03*
Y340522D03*
Y311022D03*
Y395641D03*
Y366141D03*
Y421259D03*
Y505877D03*
Y476377D03*
Y450759D03*
Y560995D03*
Y531495D03*
Y285404D03*
Y255904D03*
G54D20*G36*
X499324Y38982D02*Y31882D01*
X506424D01*
Y38982D01*
X499324D01*
G37*
G54D38*X480316Y35432D03*
G54D37*X512874D03*
G54D38*X480316Y64932D03*
Y120050D03*
Y90550D03*
G54D20*G36*
X719141Y212748D02*Y206148D01*
X725741D01*
Y212748D01*
X719141D01*
G37*
G54D40*X732441Y209448D03*
X722441Y199448D03*
X732441D03*
X722441Y189448D03*
X732441D03*
X722441Y179448D03*
Y169448D03*
Y159448D03*
Y149448D03*
Y139448D03*
X732441Y179448D03*
Y169448D03*
Y159448D03*
Y149448D03*
Y139448D03*
G54D20*G36*
X807724Y174716D02*Y168116D01*
X814324D01*
Y174716D01*
X807724D01*
G37*
G54D40*X811024Y161416D03*
Y151416D03*
Y141416D03*
Y131416D03*
Y121416D03*
G54D20*G36*
X846048Y123241D02*Y116441D01*
X852848D01*
Y123241D01*
X846048D01*
G37*
G54D41*X859448Y119841D03*
X869448D03*
X879448D03*
X889448D03*
X899448D03*
X909448D03*
X919448D03*
G54D20*G36*
X701424Y552157D02*Y545557D01*
X708024D01*
Y552157D01*
X701424D01*
G37*
G54D40*X704724Y538857D03*
Y528857D03*
Y518857D03*
Y508857D03*
Y498857D03*
G54D42*Y55117D03*
X724409D03*
X744094D03*
G54D41*X650551Y348818D03*
Y358818D03*
G54D20*G36*
X642119Y247643D02*Y240543D01*
X649219D01*
Y247643D01*
X642119D01*
G37*
G54D37*X645669Y234093D03*
G54D41*X650551Y368818D03*
Y378818D03*
Y388818D03*
Y398818D03*
G54D20*G36*
X685676Y463181D02*Y456581D01*
X692276D01*
Y463181D01*
X685676D01*
G37*
G54D40*X688976Y444881D03*
G54D42*X625984Y55117D03*
X645669D03*
X665354D03*
X685039D03*
G54D41*X929448Y119841D03*
X939448D03*
X949448D03*
X959448D03*
X969448D03*
X979448D03*
X989448D03*
X999448D03*
G54D42*X925197Y55117D03*
X944882D03*
X964567D03*
X984252D03*
G54D41*X1009448Y119841D03*
X1019448D03*
X1029448D03*
X1039448D03*
Y179841D03*
X1029448D03*
X1019448D03*
X1009448D03*
G54D42*X1188976Y271652D03*
Y177164D03*
Y244093D03*
Y204723D03*
Y224408D03*
Y137794D03*
Y157479D03*
Y98424D03*
Y118109D03*
G54D41*X999448Y179841D03*
X989448D03*
X979448D03*
X969448D03*
X959448D03*
X949448D03*
X939448D03*
X929448D03*
G54D20*G36*
X921897Y208023D02*Y201423D01*
X928497D01*
Y208023D01*
X921897D01*
G37*
G54D40*X940197Y204723D03*
G54D41*X919448Y179841D03*
X909448D03*
X899448D03*
X889448D03*
X879448D03*
X869448D03*
X859448D03*
X849448D03*
G54D42*X1055118Y55117D03*
X1003937D03*
X1023622D03*
X1074803D03*
X1094488D03*
X1114173D03*
X1133858D03*
X1153543D03*
X1173228D03*
X1192913D03*
X905512D03*
X834646D03*
X795276D03*
X814961D03*
X763779D03*
X854331D03*
X874016D03*
X1188976Y311022D03*
Y385826D03*
Y291337D03*
Y425196D03*
Y405511D03*
Y519684D03*
Y499999D03*
Y472440D03*
Y452755D03*
G54D20*G36*
X587151Y542218D02*Y535418D01*
X593951D01*
Y542218D01*
X587151D01*
G37*
G54D41*X590551Y528818D03*
Y518818D03*
Y508818D03*
Y498818D03*
Y488818D03*
Y478818D03*
Y468818D03*
Y458818D03*
Y448818D03*
Y438818D03*
Y428818D03*
Y418818D03*
Y408818D03*
Y398818D03*
Y388818D03*
Y378818D03*
Y368818D03*
Y358818D03*
Y348818D03*
X650551Y408818D03*
Y418818D03*
Y428818D03*
Y438818D03*
Y448818D03*
Y458818D03*
Y468818D03*
Y478818D03*
Y488818D03*
Y498818D03*
Y508818D03*
Y518818D03*
Y528818D03*
Y538818D03*
G54D20*G36*
X499324Y259454D02*Y252354D01*
X506424D01*
Y259454D01*
X499324D01*
G37*
G54D37*X512874Y255904D03*
G54D36*X507874Y283463D03*
G54D20*G36*
X513974Y287363D02*Y279563D01*
X521774D01*
Y287363D01*
X513974D01*
G37*
G54D36*X497874Y283463D03*
G54D20*G36*
X499324Y204336D02*Y197236D01*
X506424D01*
Y204336D01*
X499324D01*
G37*
G36*
Y94100D02*Y87000D01*
X506424D01*
Y94100D01*
X499324D01*
G37*
G36*
Y149218D02*Y142118D01*
X506424D01*
Y149218D01*
X499324D01*
G37*
G54D37*X512874Y200786D03*
Y90550D03*
Y145668D03*
G54D20*G36*
X499324Y314572D02*Y307472D01*
X506424D01*
Y314572D01*
X499324D01*
G37*
G54D37*X512874Y311022D03*
G54D36*X507874Y338581D03*
G54D20*G36*
X513974Y342481D02*Y334681D01*
X521774D01*
Y342481D01*
X513974D01*
G37*
G54D36*X497874Y338581D03*
G54D37*X512874Y421259D03*
Y476377D03*
Y531495D03*
Y366141D03*
G54D36*X507874Y393700D03*
X497874D03*
X507874Y448818D03*
G54D20*G36*
X513974Y397600D02*Y389800D01*
X521774D01*
Y397600D01*
X513974D01*
G37*
G36*
Y507836D02*Y500036D01*
X521774D01*
Y507836D01*
X513974D01*
G37*
G36*
Y562954D02*Y555154D01*
X521774D01*
Y562954D01*
X513974D01*
G37*
G54D36*X507874Y503936D03*
X497874D03*
X507874Y559054D03*
X497874D03*
G54D20*G36*
X513974Y452718D02*Y444918D01*
X521774D01*
Y452718D01*
X513974D01*
G37*
G54D36*X497874Y448818D03*
G54D20*G36*
X499324Y424809D02*Y417709D01*
X506424D01*
Y424809D01*
X499324D01*
G37*
G36*
Y479927D02*Y472827D01*
X506424D01*
Y479927D01*
X499324D01*
G37*
G36*
Y535045D02*Y527945D01*
X506424D01*
Y535045D01*
X499324D01*
G37*
G36*
Y369691D02*Y362591D01*
X506424D01*
Y369691D01*
X499324D01*
G37*
G54D33*X629921Y326770D03*
G54D34*X1105512Y248424D03*
X768110Y552755D03*
X1105512D03*
X768110Y262597D03*
G54D33*X23622Y543306D03*
Y51180D03*
X1232283Y543306D03*
Y51180D03*
X1212598Y326770D03*
G54D43*X643307Y267714D02*X645669D01*
X643307Y255904D02*X645669D01*
M02*
