G04 (created by PCBNEW-RS274X (2012-01-19 BZR 3256)-stable) date 15/02/2013 12:54:05*
G01*
G70*
G90*
%MOIN*%
G04 Gerber Fmt 3.4, Leading zero omitted, Abs format*
%FSLAX34Y34*%
G04 APERTURE LIST*
%ADD10C,0.006000*%
%ADD11R,0.050000X0.100000*%
%ADD12R,0.100000X0.050000*%
%ADD13R,0.055000X0.035000*%
%ADD14R,0.060000X0.060000*%
%ADD15C,0.060000*%
%ADD16R,0.144000X0.080000*%
%ADD17R,0.040000X0.080000*%
%ADD18C,0.189000*%
%ADD19C,0.035000*%
%ADD20C,0.025000*%
%ADD21C,0.008000*%
%ADD22C,0.010000*%
G04 APERTURE END LIST*
G54D10*
G54D11*
X68400Y-46250D03*
X69600Y-46250D03*
G54D12*
X69300Y-34400D03*
X69300Y-35600D03*
X69320Y-52130D03*
X69320Y-53330D03*
G54D13*
X70320Y-52375D03*
X70320Y-53125D03*
X70400Y-34425D03*
X70400Y-35175D03*
G54D14*
X66500Y-34500D03*
G54D15*
X66500Y-35500D03*
X67500Y-34500D03*
X67500Y-35500D03*
G54D14*
X66500Y-52250D03*
G54D15*
X66500Y-53250D03*
X67500Y-52250D03*
X67500Y-53250D03*
G54D16*
X69250Y-39550D03*
G54D17*
X69250Y-36950D03*
X68350Y-36950D03*
X70150Y-36950D03*
G54D16*
X69250Y-50550D03*
G54D17*
X69250Y-47950D03*
X68350Y-47950D03*
X70150Y-47950D03*
G54D18*
X69400Y-43450D03*
X67000Y-43450D03*
X68500Y-41450D03*
G54D19*
X70100Y-47100D03*
X70150Y-36150D03*
G54D20*
X68450Y-34400D02*
X68350Y-34500D01*
X68400Y-34800D02*
X68100Y-34500D01*
X68400Y-36225D02*
X68400Y-34800D01*
X68100Y-34500D02*
X67500Y-34500D01*
X66500Y-34500D02*
X67500Y-34500D01*
X69225Y-36225D02*
X68400Y-36225D01*
X69250Y-36950D02*
X69225Y-36225D01*
X67500Y-34500D02*
X68350Y-34500D01*
X69325Y-34425D02*
X69300Y-34400D01*
X70400Y-34425D02*
X69325Y-34425D01*
X69300Y-34400D02*
X68450Y-34400D01*
X70150Y-36150D02*
X70400Y-35900D01*
X66500Y-53250D02*
X67500Y-53250D01*
G54D21*
X70150Y-47150D02*
X70100Y-47100D01*
G54D20*
X69500Y-35500D02*
X70150Y-36150D01*
X70025Y-53350D02*
X70320Y-53125D01*
G54D21*
X70150Y-47950D02*
X70150Y-47150D01*
G54D20*
X68900Y-53250D02*
X69320Y-53330D01*
X70400Y-35900D02*
X70400Y-35175D01*
X69320Y-53330D02*
X70025Y-53350D01*
G54D21*
X69600Y-46600D02*
X70100Y-47100D01*
G54D20*
X69300Y-35600D02*
X69500Y-35500D01*
G54D21*
X69600Y-46600D02*
X69600Y-46250D01*
G54D20*
X70150Y-36950D02*
X70150Y-36150D01*
X67500Y-53250D02*
X68900Y-53250D01*
G54D21*
X67000Y-41650D02*
X66950Y-41600D01*
X67000Y-43450D02*
X67000Y-41650D01*
G54D20*
X67000Y-42000D02*
X67050Y-41950D01*
X67000Y-43450D02*
X67000Y-42000D01*
X66350Y-42800D02*
X67000Y-43450D01*
X66350Y-42250D02*
X66350Y-42800D01*
X66450Y-44000D02*
X67000Y-43450D01*
X66450Y-44850D02*
X66450Y-44000D01*
X67000Y-43500D02*
X67900Y-44400D01*
X67900Y-44400D02*
X67900Y-44450D01*
X67000Y-43450D02*
X67000Y-43500D01*
G54D10*
G36*
X67475Y-43996D02*
X67035Y-43556D01*
X67000Y-43521D01*
X66929Y-43450D01*
X67000Y-43379D01*
X67071Y-43450D01*
X67106Y-43485D01*
X67472Y-43851D01*
X67475Y-43996D01*
X67475Y-43996D01*
G37*
G54D22*
X67475Y-43996D02*
X67035Y-43556D01*
X67000Y-43521D01*
X66929Y-43450D01*
X67000Y-43379D01*
X67071Y-43450D01*
X67106Y-43485D01*
X67472Y-43851D01*
X67475Y-43996D01*
G54D10*
G36*
X68621Y-44361D02*
X68610Y-45500D01*
X68512Y-45500D01*
X68450Y-45562D01*
X68450Y-46150D01*
X68450Y-46200D01*
X68450Y-46300D01*
X68450Y-46350D01*
X68450Y-46938D01*
X68512Y-47000D01*
X68594Y-46999D01*
X68591Y-47300D01*
X68462Y-47300D01*
X68400Y-47362D01*
X68400Y-47850D01*
X68400Y-47900D01*
X68400Y-48000D01*
X68400Y-48050D01*
X68400Y-48538D01*
X68462Y-48600D01*
X68578Y-48599D01*
X68575Y-48950D01*
X68350Y-48950D01*
X68350Y-46938D01*
X68350Y-46300D01*
X68350Y-46200D01*
X68350Y-45562D01*
X68288Y-45500D01*
X68101Y-45501D01*
X68009Y-45539D01*
X67939Y-45609D01*
X67901Y-45700D01*
X67901Y-45799D01*
X67900Y-46138D01*
X67962Y-46200D01*
X68350Y-46200D01*
X68350Y-46300D01*
X67962Y-46300D01*
X67900Y-46362D01*
X67901Y-46701D01*
X67901Y-46800D01*
X67939Y-46891D01*
X68009Y-46961D01*
X68101Y-46999D01*
X68288Y-47000D01*
X68350Y-46938D01*
X68350Y-48950D01*
X68300Y-48950D01*
X68300Y-48538D01*
X68300Y-48000D01*
X68300Y-47900D01*
X68300Y-47362D01*
X68238Y-47300D01*
X68101Y-47301D01*
X68009Y-47339D01*
X67939Y-47409D01*
X67901Y-47500D01*
X67901Y-47599D01*
X67900Y-47838D01*
X67962Y-47900D01*
X68300Y-47900D01*
X68300Y-48000D01*
X67962Y-48000D01*
X67900Y-48062D01*
X67901Y-48301D01*
X67901Y-48400D01*
X67939Y-48491D01*
X68009Y-48561D01*
X68101Y-48599D01*
X68238Y-48600D01*
X68300Y-48538D01*
X68300Y-48950D01*
X66175Y-48950D01*
X66175Y-44346D01*
X66210Y-44381D01*
X66263Y-44327D01*
X66340Y-44444D01*
X66770Y-44622D01*
X67236Y-44621D01*
X67660Y-44444D01*
X67764Y-44285D01*
X67504Y-44025D01*
X67646Y-44025D01*
X67835Y-44214D01*
X67994Y-44110D01*
X68029Y-44025D01*
X68345Y-44025D01*
X68387Y-44126D01*
X68621Y-44361D01*
X68621Y-44361D01*
G37*
G54D22*
X68621Y-44361D02*
X68610Y-45500D01*
X68512Y-45500D01*
X68450Y-45562D01*
X68450Y-46150D01*
X68450Y-46200D01*
X68450Y-46300D01*
X68450Y-46350D01*
X68450Y-46938D01*
X68512Y-47000D01*
X68594Y-46999D01*
X68591Y-47300D01*
X68462Y-47300D01*
X68400Y-47362D01*
X68400Y-47850D01*
X68400Y-47900D01*
X68400Y-48000D01*
X68400Y-48050D01*
X68400Y-48538D01*
X68462Y-48600D01*
X68578Y-48599D01*
X68575Y-48950D01*
X68350Y-48950D01*
X68350Y-46938D01*
X68350Y-46300D01*
X68350Y-46200D01*
X68350Y-45562D01*
X68288Y-45500D01*
X68101Y-45501D01*
X68009Y-45539D01*
X67939Y-45609D01*
X67901Y-45700D01*
X67901Y-45799D01*
X67900Y-46138D01*
X67962Y-46200D01*
X68350Y-46200D01*
X68350Y-46300D01*
X67962Y-46300D01*
X67900Y-46362D01*
X67901Y-46701D01*
X67901Y-46800D01*
X67939Y-46891D01*
X68009Y-46961D01*
X68101Y-46999D01*
X68288Y-47000D01*
X68350Y-46938D01*
X68350Y-48950D01*
X68300Y-48950D01*
X68300Y-48538D01*
X68300Y-48000D01*
X68300Y-47900D01*
X68300Y-47362D01*
X68238Y-47300D01*
X68101Y-47301D01*
X68009Y-47339D01*
X67939Y-47409D01*
X67901Y-47500D01*
X67901Y-47599D01*
X67900Y-47838D01*
X67962Y-47900D01*
X68300Y-47900D01*
X68300Y-48000D01*
X67962Y-48000D01*
X67900Y-48062D01*
X67901Y-48301D01*
X67901Y-48400D01*
X67939Y-48491D01*
X68009Y-48561D01*
X68101Y-48599D01*
X68238Y-48600D01*
X68300Y-48538D01*
X68300Y-48950D01*
X66175Y-48950D01*
X66175Y-44346D01*
X66210Y-44381D01*
X66263Y-44327D01*
X66340Y-44444D01*
X66770Y-44622D01*
X67236Y-44621D01*
X67660Y-44444D01*
X67764Y-44285D01*
X67504Y-44025D01*
X67646Y-44025D01*
X67835Y-44214D01*
X67994Y-44110D01*
X68029Y-44025D01*
X68345Y-44025D01*
X68387Y-44126D01*
X68621Y-44361D01*
G54D10*
G36*
X68700Y-37650D02*
X68300Y-37650D01*
X68300Y-37538D01*
X68300Y-37000D01*
X67962Y-37000D01*
X67900Y-37062D01*
X67901Y-37301D01*
X67901Y-37400D01*
X67939Y-37491D01*
X68009Y-37561D01*
X68101Y-37599D01*
X68238Y-37600D01*
X68300Y-37538D01*
X68300Y-37650D01*
X67349Y-37650D01*
X67414Y-40947D01*
X67305Y-41212D01*
X67305Y-41687D01*
X67435Y-42002D01*
X67442Y-42366D01*
X67230Y-42278D01*
X66764Y-42279D01*
X66340Y-42456D01*
X66263Y-42572D01*
X66210Y-42519D01*
X66175Y-42554D01*
X66175Y-36700D01*
X67900Y-36700D01*
X67900Y-36838D01*
X67962Y-36900D01*
X68250Y-36900D01*
X68300Y-36900D01*
X68400Y-36900D01*
X68400Y-37000D01*
X68400Y-37050D01*
X68400Y-37538D01*
X68462Y-37600D01*
X68599Y-37599D01*
X68691Y-37561D01*
X68700Y-37552D01*
X68700Y-37650D01*
X68700Y-37650D01*
G37*
G54D22*
X68700Y-37650D02*
X68300Y-37650D01*
X68300Y-37538D01*
X68300Y-37000D01*
X67962Y-37000D01*
X67900Y-37062D01*
X67901Y-37301D01*
X67901Y-37400D01*
X67939Y-37491D01*
X68009Y-37561D01*
X68101Y-37599D01*
X68238Y-37600D01*
X68300Y-37538D01*
X68300Y-37650D01*
X67349Y-37650D01*
X67414Y-40947D01*
X67305Y-41212D01*
X67305Y-41687D01*
X67435Y-42002D01*
X67442Y-42366D01*
X67230Y-42278D01*
X66764Y-42279D01*
X66340Y-42456D01*
X66263Y-42572D01*
X66210Y-42519D01*
X66175Y-42554D01*
X66175Y-36700D01*
X67900Y-36700D01*
X67900Y-36838D01*
X67962Y-36900D01*
X68250Y-36900D01*
X68300Y-36900D01*
X68400Y-36900D01*
X68400Y-37000D01*
X68400Y-37050D01*
X68400Y-37538D01*
X68462Y-37600D01*
X68599Y-37599D01*
X68691Y-37561D01*
X68700Y-37552D01*
X68700Y-37650D01*
G54D10*
G36*
X70525Y-51950D02*
X70432Y-51950D01*
X70370Y-52012D01*
X70370Y-52275D01*
X70370Y-52325D01*
X70370Y-52425D01*
X70270Y-52425D01*
X70270Y-52325D01*
X70270Y-52275D01*
X70270Y-52012D01*
X70220Y-51962D01*
X70220Y-50662D01*
X70220Y-50438D01*
X70219Y-50199D01*
X70219Y-50100D01*
X70181Y-50009D01*
X70111Y-49939D01*
X70019Y-49901D01*
X69362Y-49900D01*
X69300Y-49962D01*
X69300Y-50500D01*
X70158Y-50500D01*
X70220Y-50438D01*
X70220Y-50662D01*
X70158Y-50600D01*
X69300Y-50600D01*
X69300Y-51138D01*
X69362Y-51200D01*
X70019Y-51199D01*
X70111Y-51161D01*
X70181Y-51091D01*
X70219Y-51000D01*
X70219Y-50901D01*
X70220Y-50662D01*
X70220Y-51962D01*
X70208Y-51950D01*
X70094Y-51951D01*
X70069Y-51951D01*
X70069Y-51831D01*
X70031Y-51739D01*
X69961Y-51669D01*
X69870Y-51631D01*
X69771Y-51631D01*
X69432Y-51630D01*
X69370Y-51692D01*
X69370Y-52030D01*
X69370Y-52080D01*
X69370Y-52180D01*
X69370Y-52230D01*
X69370Y-52568D01*
X69432Y-52630D01*
X69771Y-52629D01*
X69808Y-52629D01*
X69827Y-52675D01*
X69550Y-52675D01*
X69550Y-52799D01*
X69270Y-52793D01*
X69270Y-52568D01*
X69270Y-52180D01*
X69270Y-52080D01*
X69270Y-51692D01*
X69208Y-51630D01*
X69200Y-51630D01*
X69200Y-51138D01*
X69200Y-50600D01*
X69200Y-50500D01*
X69200Y-49962D01*
X69138Y-49900D01*
X68481Y-49901D01*
X68389Y-49939D01*
X68319Y-50009D01*
X68281Y-50100D01*
X68281Y-50199D01*
X68280Y-50438D01*
X68342Y-50500D01*
X69200Y-50500D01*
X69200Y-50600D01*
X68342Y-50600D01*
X68280Y-50662D01*
X68281Y-50901D01*
X68281Y-51000D01*
X68319Y-51091D01*
X68389Y-51161D01*
X68481Y-51199D01*
X69138Y-51200D01*
X69200Y-51138D01*
X69200Y-51630D01*
X68869Y-51631D01*
X68770Y-51631D01*
X68679Y-51669D01*
X68609Y-51739D01*
X68571Y-51831D01*
X68570Y-52018D01*
X68632Y-52080D01*
X69270Y-52080D01*
X69270Y-52180D01*
X68632Y-52180D01*
X68570Y-52242D01*
X68571Y-52429D01*
X68609Y-52521D01*
X68679Y-52591D01*
X68770Y-52629D01*
X68869Y-52629D01*
X69208Y-52630D01*
X69270Y-52568D01*
X69270Y-52793D01*
X68043Y-52767D01*
X68043Y-52329D01*
X68032Y-52116D01*
X67972Y-51969D01*
X67878Y-51942D01*
X67808Y-52012D01*
X67808Y-51872D01*
X67781Y-51778D01*
X67579Y-51707D01*
X67366Y-51718D01*
X67219Y-51778D01*
X67192Y-51872D01*
X67500Y-52179D01*
X67808Y-51872D01*
X67808Y-52012D01*
X67571Y-52250D01*
X67878Y-52558D01*
X67972Y-52531D01*
X68043Y-52329D01*
X68043Y-52767D01*
X67754Y-52761D01*
X67719Y-52747D01*
X67781Y-52722D01*
X67808Y-52628D01*
X67500Y-52321D01*
X67192Y-52628D01*
X67219Y-52722D01*
X67284Y-52745D01*
X67269Y-52751D01*
X66957Y-52744D01*
X67011Y-52691D01*
X67049Y-52600D01*
X67049Y-52537D01*
X67122Y-52558D01*
X67429Y-52250D01*
X67122Y-51942D01*
X67049Y-51962D01*
X67049Y-51900D01*
X67011Y-51809D01*
X66941Y-51739D01*
X66849Y-51701D01*
X66612Y-51700D01*
X66550Y-51762D01*
X66550Y-52150D01*
X66550Y-52200D01*
X66550Y-52300D01*
X66450Y-52300D01*
X66450Y-52200D01*
X66450Y-52150D01*
X66450Y-51762D01*
X66388Y-51700D01*
X66175Y-51700D01*
X66175Y-49300D01*
X68951Y-49300D01*
X68942Y-48574D01*
X69001Y-48599D01*
X69138Y-48600D01*
X69200Y-48538D01*
X69200Y-48050D01*
X69200Y-48000D01*
X69200Y-47900D01*
X69200Y-47850D01*
X69200Y-47362D01*
X69138Y-47300D01*
X69001Y-47301D01*
X68928Y-47330D01*
X68926Y-47075D01*
X69650Y-47075D01*
X69650Y-47398D01*
X69591Y-47339D01*
X69499Y-47301D01*
X69362Y-47300D01*
X69300Y-47362D01*
X69300Y-47850D01*
X69300Y-47900D01*
X69300Y-48000D01*
X69300Y-48050D01*
X69300Y-48538D01*
X69362Y-48600D01*
X69499Y-48599D01*
X69591Y-48561D01*
X69650Y-48502D01*
X69650Y-48750D01*
X70525Y-48750D01*
X70525Y-51950D01*
X70525Y-51950D01*
G37*
G54D22*
X70525Y-51950D02*
X70432Y-51950D01*
X70370Y-52012D01*
X70370Y-52275D01*
X70370Y-52325D01*
X70370Y-52425D01*
X70270Y-52425D01*
X70270Y-52325D01*
X70270Y-52275D01*
X70270Y-52012D01*
X70220Y-51962D01*
X70220Y-50662D01*
X70220Y-50438D01*
X70219Y-50199D01*
X70219Y-50100D01*
X70181Y-50009D01*
X70111Y-49939D01*
X70019Y-49901D01*
X69362Y-49900D01*
X69300Y-49962D01*
X69300Y-50500D01*
X70158Y-50500D01*
X70220Y-50438D01*
X70220Y-50662D01*
X70158Y-50600D01*
X69300Y-50600D01*
X69300Y-51138D01*
X69362Y-51200D01*
X70019Y-51199D01*
X70111Y-51161D01*
X70181Y-51091D01*
X70219Y-51000D01*
X70219Y-50901D01*
X70220Y-50662D01*
X70220Y-51962D01*
X70208Y-51950D01*
X70094Y-51951D01*
X70069Y-51951D01*
X70069Y-51831D01*
X70031Y-51739D01*
X69961Y-51669D01*
X69870Y-51631D01*
X69771Y-51631D01*
X69432Y-51630D01*
X69370Y-51692D01*
X69370Y-52030D01*
X69370Y-52080D01*
X69370Y-52180D01*
X69370Y-52230D01*
X69370Y-52568D01*
X69432Y-52630D01*
X69771Y-52629D01*
X69808Y-52629D01*
X69827Y-52675D01*
X69550Y-52675D01*
X69550Y-52799D01*
X69270Y-52793D01*
X69270Y-52568D01*
X69270Y-52180D01*
X69270Y-52080D01*
X69270Y-51692D01*
X69208Y-51630D01*
X69200Y-51630D01*
X69200Y-51138D01*
X69200Y-50600D01*
X69200Y-50500D01*
X69200Y-49962D01*
X69138Y-49900D01*
X68481Y-49901D01*
X68389Y-49939D01*
X68319Y-50009D01*
X68281Y-50100D01*
X68281Y-50199D01*
X68280Y-50438D01*
X68342Y-50500D01*
X69200Y-50500D01*
X69200Y-50600D01*
X68342Y-50600D01*
X68280Y-50662D01*
X68281Y-50901D01*
X68281Y-51000D01*
X68319Y-51091D01*
X68389Y-51161D01*
X68481Y-51199D01*
X69138Y-51200D01*
X69200Y-51138D01*
X69200Y-51630D01*
X68869Y-51631D01*
X68770Y-51631D01*
X68679Y-51669D01*
X68609Y-51739D01*
X68571Y-51831D01*
X68570Y-52018D01*
X68632Y-52080D01*
X69270Y-52080D01*
X69270Y-52180D01*
X68632Y-52180D01*
X68570Y-52242D01*
X68571Y-52429D01*
X68609Y-52521D01*
X68679Y-52591D01*
X68770Y-52629D01*
X68869Y-52629D01*
X69208Y-52630D01*
X69270Y-52568D01*
X69270Y-52793D01*
X68043Y-52767D01*
X68043Y-52329D01*
X68032Y-52116D01*
X67972Y-51969D01*
X67878Y-51942D01*
X67808Y-52012D01*
X67808Y-51872D01*
X67781Y-51778D01*
X67579Y-51707D01*
X67366Y-51718D01*
X67219Y-51778D01*
X67192Y-51872D01*
X67500Y-52179D01*
X67808Y-51872D01*
X67808Y-52012D01*
X67571Y-52250D01*
X67878Y-52558D01*
X67972Y-52531D01*
X68043Y-52329D01*
X68043Y-52767D01*
X67754Y-52761D01*
X67719Y-52747D01*
X67781Y-52722D01*
X67808Y-52628D01*
X67500Y-52321D01*
X67192Y-52628D01*
X67219Y-52722D01*
X67284Y-52745D01*
X67269Y-52751D01*
X66957Y-52744D01*
X67011Y-52691D01*
X67049Y-52600D01*
X67049Y-52537D01*
X67122Y-52558D01*
X67429Y-52250D01*
X67122Y-51942D01*
X67049Y-51962D01*
X67049Y-51900D01*
X67011Y-51809D01*
X66941Y-51739D01*
X66849Y-51701D01*
X66612Y-51700D01*
X66550Y-51762D01*
X66550Y-52150D01*
X66550Y-52200D01*
X66550Y-52300D01*
X66450Y-52300D01*
X66450Y-52200D01*
X66450Y-52150D01*
X66450Y-51762D01*
X66388Y-51700D01*
X66175Y-51700D01*
X66175Y-49300D01*
X68951Y-49300D01*
X68942Y-48574D01*
X69001Y-48599D01*
X69138Y-48600D01*
X69200Y-48538D01*
X69200Y-48050D01*
X69200Y-48000D01*
X69200Y-47900D01*
X69200Y-47850D01*
X69200Y-47362D01*
X69138Y-47300D01*
X69001Y-47301D01*
X68928Y-47330D01*
X68926Y-47075D01*
X69650Y-47075D01*
X69650Y-47398D01*
X69591Y-47339D01*
X69499Y-47301D01*
X69362Y-47300D01*
X69300Y-47362D01*
X69300Y-47850D01*
X69300Y-47900D01*
X69300Y-48000D01*
X69300Y-48050D01*
X69300Y-48538D01*
X69362Y-48600D01*
X69499Y-48599D01*
X69591Y-48561D01*
X69650Y-48502D01*
X69650Y-48750D01*
X70525Y-48750D01*
X70525Y-51950D01*
G54D10*
G36*
X70525Y-41850D02*
X70220Y-41850D01*
X70220Y-39662D01*
X70220Y-39438D01*
X70219Y-39199D01*
X70219Y-39100D01*
X70181Y-39009D01*
X70111Y-38939D01*
X70019Y-38901D01*
X69362Y-38900D01*
X69300Y-38962D01*
X69300Y-39500D01*
X70158Y-39500D01*
X70220Y-39438D01*
X70220Y-39662D01*
X70158Y-39600D01*
X69300Y-39600D01*
X69300Y-40138D01*
X69362Y-40200D01*
X70019Y-40199D01*
X70111Y-40161D01*
X70181Y-40091D01*
X70219Y-40000D01*
X70219Y-39901D01*
X70220Y-39662D01*
X70220Y-41850D01*
X69627Y-41850D01*
X69695Y-41688D01*
X69695Y-41213D01*
X69513Y-40774D01*
X69200Y-40460D01*
X69200Y-40138D01*
X69200Y-39600D01*
X69200Y-39500D01*
X69200Y-38962D01*
X69138Y-38900D01*
X68481Y-38901D01*
X68389Y-38939D01*
X68319Y-39009D01*
X68281Y-39100D01*
X68281Y-39199D01*
X68280Y-39438D01*
X68342Y-39500D01*
X69200Y-39500D01*
X69200Y-39600D01*
X68342Y-39600D01*
X68280Y-39662D01*
X68281Y-39901D01*
X68281Y-40000D01*
X68319Y-40091D01*
X68389Y-40161D01*
X68481Y-40199D01*
X69138Y-40200D01*
X69200Y-40138D01*
X69200Y-40460D01*
X69177Y-40437D01*
X68738Y-40255D01*
X68263Y-40255D01*
X67824Y-40437D01*
X67781Y-40479D01*
X67751Y-38050D01*
X69050Y-38050D01*
X69050Y-37599D01*
X69138Y-37600D01*
X69200Y-37538D01*
X69200Y-37050D01*
X69200Y-37000D01*
X69200Y-36900D01*
X69300Y-36900D01*
X69300Y-37000D01*
X69300Y-37050D01*
X69300Y-37538D01*
X69362Y-37600D01*
X69499Y-37599D01*
X69591Y-37561D01*
X69650Y-37502D01*
X69650Y-37950D01*
X70525Y-37950D01*
X70525Y-41850D01*
X70525Y-41850D01*
G37*
G54D22*
X70525Y-41850D02*
X70220Y-41850D01*
X70220Y-39662D01*
X70220Y-39438D01*
X70219Y-39199D01*
X70219Y-39100D01*
X70181Y-39009D01*
X70111Y-38939D01*
X70019Y-38901D01*
X69362Y-38900D01*
X69300Y-38962D01*
X69300Y-39500D01*
X70158Y-39500D01*
X70220Y-39438D01*
X70220Y-39662D01*
X70158Y-39600D01*
X69300Y-39600D01*
X69300Y-40138D01*
X69362Y-40200D01*
X70019Y-40199D01*
X70111Y-40161D01*
X70181Y-40091D01*
X70219Y-40000D01*
X70219Y-39901D01*
X70220Y-39662D01*
X70220Y-41850D01*
X69627Y-41850D01*
X69695Y-41688D01*
X69695Y-41213D01*
X69513Y-40774D01*
X69200Y-40460D01*
X69200Y-40138D01*
X69200Y-39600D01*
X69200Y-39500D01*
X69200Y-38962D01*
X69138Y-38900D01*
X68481Y-38901D01*
X68389Y-38939D01*
X68319Y-39009D01*
X68281Y-39100D01*
X68281Y-39199D01*
X68280Y-39438D01*
X68342Y-39500D01*
X69200Y-39500D01*
X69200Y-39600D01*
X68342Y-39600D01*
X68280Y-39662D01*
X68281Y-39901D01*
X68281Y-40000D01*
X68319Y-40091D01*
X68389Y-40161D01*
X68481Y-40199D01*
X69138Y-40200D01*
X69200Y-40138D01*
X69200Y-40460D01*
X69177Y-40437D01*
X68738Y-40255D01*
X68263Y-40255D01*
X67824Y-40437D01*
X67781Y-40479D01*
X67751Y-38050D01*
X69050Y-38050D01*
X69050Y-37599D01*
X69138Y-37600D01*
X69200Y-37538D01*
X69200Y-37050D01*
X69200Y-37000D01*
X69200Y-36900D01*
X69300Y-36900D01*
X69300Y-37000D01*
X69300Y-37050D01*
X69300Y-37538D01*
X69362Y-37600D01*
X69499Y-37599D01*
X69591Y-37561D01*
X69650Y-37502D01*
X69650Y-37950D01*
X70525Y-37950D01*
X70525Y-41850D01*
M02*
