G04 #@! TF.FileFunction,Copper,L2,Bot,Signal*
%FSLAX46Y46*%
G04 Gerber Fmt 4.6, Leading zero omitted, Abs format (unit mm)*
G04 Created by KiCad (PCBNEW 4.0.0-rc1-stable) date 11/15/15 04:01:34*
%MOMM*%
G01*
G04 APERTURE LIST*
%ADD10C,0.100000*%
%ADD11R,2.032000X2.032000*%
%ADD12O,2.032000X2.032000*%
%ADD13R,1.300000X1.300000*%
%ADD14C,1.300000*%
%ADD15R,1.397000X1.397000*%
%ADD16C,1.397000*%
%ADD17R,1.900000X2.000000*%
%ADD18C,1.900000*%
%ADD19O,5.500000X3.800000*%
%ADD20O,5.300000X3.800000*%
%ADD21C,1.699260*%
%ADD22R,1.699260X1.699260*%
%ADD23R,1.778000X1.778000*%
%ADD24C,1.778000*%
%ADD25O,0.899160X1.501140*%
%ADD26O,1.524000X3.048000*%
%ADD27O,1.501140X2.499360*%
%ADD28C,0.250000*%
%ADD29C,0.254000*%
G04 APERTURE END LIST*
D10*
D11*
X134000000Y-112000000D03*
D12*
X134000000Y-114540000D03*
D13*
X103000000Y-113000000D03*
D14*
X105500000Y-113000000D03*
D13*
X103000000Y-123000000D03*
D14*
X105500000Y-123000000D03*
D13*
X109000000Y-60000000D03*
D14*
X111500000Y-60000000D03*
D13*
X80000000Y-81000000D03*
D14*
X82500000Y-81000000D03*
D13*
X92000000Y-86000000D03*
D14*
X94500000Y-86000000D03*
D13*
X90000000Y-119000000D03*
D14*
X92500000Y-119000000D03*
D13*
X69000000Y-73000000D03*
D14*
X71500000Y-73000000D03*
D13*
X63000000Y-104000000D03*
D14*
X65500000Y-104000000D03*
D13*
X121000000Y-94000000D03*
D14*
X123500000Y-94000000D03*
D15*
X116810000Y-102000000D03*
D16*
X109190000Y-102000000D03*
D15*
X117810000Y-85000000D03*
D16*
X110190000Y-85000000D03*
D17*
X64000000Y-118000000D03*
D18*
X66540000Y-118000000D03*
D17*
X73000000Y-127000000D03*
D18*
X75540000Y-127000000D03*
D15*
X121810000Y-78000000D03*
D16*
X114190000Y-78000000D03*
D19*
X115000000Y-123000000D03*
D20*
X123000000Y-123000000D03*
D21*
X85160520Y-90997460D03*
D22*
X75000520Y-90997460D03*
D21*
X60160520Y-92997460D03*
D22*
X50000520Y-92997460D03*
D23*
X130460000Y-88000000D03*
D24*
X135540000Y-88000000D03*
D25*
X98270000Y-99000000D03*
X99540000Y-99000000D03*
X97000000Y-99000000D03*
X106270000Y-79000000D03*
X107540000Y-79000000D03*
X105000000Y-79000000D03*
X106270000Y-90000000D03*
X107540000Y-90000000D03*
X105000000Y-90000000D03*
D16*
X54730000Y-97000000D03*
X57270000Y-97000000D03*
X121730000Y-85000000D03*
X124270000Y-85000000D03*
X99730000Y-85000000D03*
X102270000Y-85000000D03*
X88730000Y-99000000D03*
X91270000Y-99000000D03*
X69730000Y-110000000D03*
X72270000Y-110000000D03*
X89730000Y-112000000D03*
X92270000Y-112000000D03*
X71730000Y-83000000D03*
X74270000Y-83000000D03*
X71730000Y-97000000D03*
X74270000Y-97000000D03*
X74730000Y-103000000D03*
X77270000Y-103000000D03*
X65730000Y-91000000D03*
X68270000Y-91000000D03*
X54730000Y-111000000D03*
X57270000Y-111000000D03*
X108730000Y-69000000D03*
X111270000Y-69000000D03*
D26*
X93000000Y-74080000D03*
X90460000Y-74080000D03*
X95540000Y-74080000D03*
D27*
X60000000Y-83000000D03*
X57460000Y-83000000D03*
X62540000Y-83000000D03*
D28*
X123884000Y-120774700D02*
X132658700Y-112000000D01*
X123000000Y-120774700D02*
X123884000Y-120774700D01*
X123000000Y-123000000D02*
X123000000Y-120774700D01*
X134000000Y-112000000D02*
X132658700Y-112000000D01*
X62540000Y-83000000D02*
X63615900Y-83000000D01*
X71500000Y-75990800D02*
X71500000Y-73000000D01*
X64994200Y-82496600D02*
X64994200Y-83000000D01*
X71500000Y-75990800D02*
X64994200Y-82496600D01*
X64994200Y-83000000D02*
X63615900Y-83000000D01*
X77490800Y-75990800D02*
X82500000Y-81000000D01*
X71500000Y-75990800D02*
X77490800Y-75990800D01*
X93000000Y-81000000D02*
X82500000Y-81000000D01*
X93000000Y-84500000D02*
X94500000Y-86000000D01*
X93000000Y-81000000D02*
X93000000Y-84500000D01*
X93000000Y-81000000D02*
X93000000Y-74080000D01*
X109900700Y-61599300D02*
X111500000Y-60000000D01*
X105616600Y-61599300D02*
X109900700Y-61599300D01*
X94087300Y-73128600D02*
X105616600Y-61599300D01*
X94087300Y-74080000D02*
X94087300Y-73128600D01*
X93000000Y-74080000D02*
X94087300Y-74080000D01*
X99540000Y-91040000D02*
X99540000Y-99000000D01*
X94500000Y-86000000D02*
X99540000Y-91040000D01*
X100314900Y-107814900D02*
X105500000Y-113000000D01*
X100314900Y-99000000D02*
X100314900Y-107814900D01*
X99540000Y-99000000D02*
X100314900Y-99000000D01*
X134293400Y-86753400D02*
X135540000Y-88000000D01*
X124270000Y-86753400D02*
X134293400Y-86753400D01*
X124270000Y-85000000D02*
X124270000Y-86753400D01*
X124270000Y-93230000D02*
X123500000Y-94000000D01*
X124270000Y-86753400D02*
X124270000Y-93230000D01*
X68270000Y-86275800D02*
X68270000Y-91000000D01*
X64994200Y-83000000D02*
X68270000Y-86275800D01*
X68270000Y-101230000D02*
X65500000Y-104000000D01*
X68270000Y-91000000D02*
X68270000Y-101230000D01*
X50000500Y-103730500D02*
X50000500Y-92997500D01*
X57270000Y-111000000D02*
X50000500Y-103730500D01*
X67577800Y-111000000D02*
X57270000Y-111000000D01*
X76578800Y-120001000D02*
X67577800Y-111000000D01*
X103000000Y-120001000D02*
X76578800Y-120001000D01*
X103000000Y-123000000D02*
X103000000Y-120001000D01*
X103000000Y-120001000D02*
X103000000Y-113000000D01*
X106194100Y-88924100D02*
X106270000Y-88924100D01*
X102270000Y-85000000D02*
X106194100Y-88924100D01*
X106270000Y-90000000D02*
X106270000Y-88924100D01*
X90000000Y-119000000D02*
X90000000Y-118024700D01*
X89730000Y-117754700D02*
X89730000Y-112000000D01*
X90000000Y-118024700D02*
X89730000Y-117754700D01*
X74660100Y-92512800D02*
X74660100Y-95932100D01*
X75000500Y-92172400D02*
X74660100Y-92512800D01*
X89730000Y-111002000D02*
X74660100Y-95932100D01*
X89730000Y-112000000D02*
X89730000Y-111002000D01*
X72797900Y-95932100D02*
X71730000Y-97000000D01*
X74660100Y-95932100D02*
X72797900Y-95932100D01*
X75000500Y-90997500D02*
X75000500Y-92172400D01*
X92270000Y-102540000D02*
X88730000Y-99000000D01*
X92270000Y-112000000D02*
X92270000Y-102540000D01*
X68024700Y-73400200D02*
X68024700Y-73000000D01*
X60000000Y-81424900D02*
X68024700Y-73400200D01*
X60000000Y-83000000D02*
X60000000Y-81424900D01*
X69000000Y-73000000D02*
X68024700Y-73000000D01*
X60000000Y-85270000D02*
X60000000Y-83000000D01*
X65730000Y-91000000D02*
X60000000Y-85270000D01*
X64950600Y-104975300D02*
X63975300Y-104000000D01*
X75294700Y-104975300D02*
X64950600Y-104975300D01*
X77270000Y-103000000D02*
X75294700Y-104975300D01*
X63000000Y-104000000D02*
X63975300Y-104000000D01*
X104225100Y-89495100D02*
X104225100Y-90000000D01*
X99730000Y-85000000D02*
X104225100Y-89495100D01*
X105000000Y-90000000D02*
X104225100Y-90000000D01*
X122762600Y-91262100D02*
X121000000Y-93024700D01*
X122762600Y-79976400D02*
X122762600Y-91262100D01*
X121810000Y-79023800D02*
X122762600Y-79976400D01*
X121810000Y-78000000D02*
X121810000Y-79023800D01*
X121000000Y-94000000D02*
X121000000Y-93024700D01*
X108314900Y-101124900D02*
X109190000Y-102000000D01*
X108314900Y-90000000D02*
X108314900Y-101124900D01*
X107540000Y-90000000D02*
X108314900Y-90000000D01*
X111862100Y-80075900D02*
X116786200Y-85000000D01*
X105000000Y-80075900D02*
X111862100Y-80075900D01*
X105000000Y-79000000D02*
X105000000Y-80075900D01*
X117810000Y-85000000D02*
X116786200Y-85000000D01*
X70614200Y-122074200D02*
X75540000Y-127000000D01*
X68074200Y-122074200D02*
X70614200Y-122074200D01*
X64000000Y-118000000D02*
X68074200Y-122074200D01*
X60160500Y-94109500D02*
X60160500Y-92997500D01*
X57270000Y-97000000D02*
X60160500Y-94109500D01*
X106270000Y-71460000D02*
X106270000Y-79000000D01*
X108730000Y-69000000D02*
X106270000Y-71460000D01*
X74730000Y-97460000D02*
X74270000Y-97000000D01*
X74730000Y-103000000D02*
X74730000Y-97460000D01*
D29*
G36*
X114537800Y-46831577D02*
X131101148Y-57898852D01*
X142168423Y-74462200D01*
X146054733Y-94000000D01*
X142168423Y-113537800D01*
X131101148Y-130101148D01*
X114537800Y-141168423D01*
X95000000Y-145054733D01*
X75462200Y-141168423D01*
X58898852Y-130101148D01*
X50144946Y-117000000D01*
X62402560Y-117000000D01*
X62402560Y-119000000D01*
X62446838Y-119235317D01*
X62585910Y-119451441D01*
X62798110Y-119596431D01*
X63050000Y-119647440D01*
X64572638Y-119647440D01*
X67536799Y-122611601D01*
X67783361Y-122776348D01*
X68074200Y-122834200D01*
X70299398Y-122834200D01*
X72817758Y-125352560D01*
X72050000Y-125352560D01*
X71814683Y-125396838D01*
X71598559Y-125535910D01*
X71453569Y-125748110D01*
X71402560Y-126000000D01*
X71402560Y-128000000D01*
X71446838Y-128235317D01*
X71585910Y-128451441D01*
X71798110Y-128596431D01*
X72050000Y-128647440D01*
X73950000Y-128647440D01*
X74185317Y-128603162D01*
X74401441Y-128464090D01*
X74546431Y-128251890D01*
X74547055Y-128248808D01*
X74640997Y-128342914D01*
X75223341Y-128584724D01*
X75853893Y-128585275D01*
X76436657Y-128344481D01*
X76882914Y-127899003D01*
X77124724Y-127316659D01*
X77125275Y-126686107D01*
X76884481Y-126103343D01*
X76439003Y-125657086D01*
X75856659Y-125415276D01*
X75226107Y-125414725D01*
X75087004Y-125472202D01*
X71151601Y-121536799D01*
X70905039Y-121372052D01*
X70614200Y-121314200D01*
X68389002Y-121314200D01*
X66659907Y-119585105D01*
X66853893Y-119585275D01*
X67436657Y-119344481D01*
X67882914Y-118899003D01*
X68124724Y-118316659D01*
X68125275Y-117686107D01*
X67884481Y-117103343D01*
X67439003Y-116657086D01*
X66856659Y-116415276D01*
X66226107Y-116414725D01*
X65643343Y-116655519D01*
X65545663Y-116753029D01*
X65414090Y-116548559D01*
X65201890Y-116403569D01*
X64950000Y-116352560D01*
X63050000Y-116352560D01*
X62814683Y-116396838D01*
X62598559Y-116535910D01*
X62453569Y-116748110D01*
X62402560Y-117000000D01*
X50144946Y-117000000D01*
X47831577Y-113537800D01*
X43945267Y-94000000D01*
X44313686Y-92147830D01*
X48503450Y-92147830D01*
X48503450Y-93847090D01*
X48547728Y-94082407D01*
X48686800Y-94298531D01*
X48899000Y-94443521D01*
X49150890Y-94494530D01*
X49240500Y-94494530D01*
X49240500Y-103730500D01*
X49298352Y-104021339D01*
X49463099Y-104267901D01*
X54861812Y-109666615D01*
X54465914Y-109666269D01*
X53975620Y-109868854D01*
X53600173Y-110243647D01*
X53396732Y-110733587D01*
X53396269Y-111264086D01*
X53598854Y-111754380D01*
X53973647Y-112129827D01*
X54463587Y-112333268D01*
X54994086Y-112333731D01*
X55484380Y-112131146D01*
X55859827Y-111756353D01*
X56000094Y-111418554D01*
X56138854Y-111754380D01*
X56513647Y-112129827D01*
X57003587Y-112333268D01*
X57534086Y-112333731D01*
X58024380Y-112131146D01*
X58396174Y-111760000D01*
X67262998Y-111760000D01*
X76041399Y-120538401D01*
X76287960Y-120703148D01*
X76578800Y-120761000D01*
X102240000Y-120761000D01*
X102240000Y-121723258D01*
X102114683Y-121746838D01*
X101898559Y-121885910D01*
X101753569Y-122098110D01*
X101702560Y-122350000D01*
X101702560Y-123650000D01*
X101746838Y-123885317D01*
X101885910Y-124101441D01*
X102098110Y-124246431D01*
X102350000Y-124297440D01*
X103650000Y-124297440D01*
X103885317Y-124253162D01*
X104101441Y-124114090D01*
X104246431Y-123901890D01*
X104247012Y-123899016D01*
X104780590Y-123899016D01*
X104836271Y-124129611D01*
X105319078Y-124297622D01*
X105829428Y-124268083D01*
X106163729Y-124129611D01*
X106219410Y-123899016D01*
X105500000Y-123179605D01*
X104780590Y-123899016D01*
X104247012Y-123899016D01*
X104297440Y-123650000D01*
X104297440Y-123487615D01*
X104370389Y-123663729D01*
X104600984Y-123719410D01*
X105320395Y-123000000D01*
X105679605Y-123000000D01*
X106399016Y-123719410D01*
X106629611Y-123663729D01*
X106797622Y-123180922D01*
X106787151Y-123000000D01*
X111548684Y-123000000D01*
X111741649Y-123970103D01*
X112291168Y-124792516D01*
X113113581Y-125342035D01*
X114083684Y-125535000D01*
X115916316Y-125535000D01*
X116886419Y-125342035D01*
X117708832Y-124792516D01*
X118258351Y-123970103D01*
X118451316Y-123000000D01*
X119650643Y-123000000D01*
X119843608Y-123970103D01*
X120393127Y-124792516D01*
X121215540Y-125342035D01*
X122185643Y-125535000D01*
X123814357Y-125535000D01*
X124784460Y-125342035D01*
X125606873Y-124792516D01*
X126156392Y-123970103D01*
X126349357Y-123000000D01*
X126156392Y-122029897D01*
X125606873Y-121207484D01*
X124958948Y-120774554D01*
X130810558Y-114922944D01*
X132394025Y-114922944D01*
X132593615Y-115404818D01*
X133031621Y-115877188D01*
X133617054Y-116145983D01*
X133873000Y-116027367D01*
X133873000Y-114667000D01*
X134127000Y-114667000D01*
X134127000Y-116027367D01*
X134382946Y-116145983D01*
X134968379Y-115877188D01*
X135406385Y-115404818D01*
X135605975Y-114922944D01*
X135486836Y-114667000D01*
X134127000Y-114667000D01*
X133873000Y-114667000D01*
X132513164Y-114667000D01*
X132394025Y-114922944D01*
X130810558Y-114922944D01*
X132420519Y-113312983D01*
X132519910Y-113467441D01*
X132682948Y-113578840D01*
X132593615Y-113675182D01*
X132394025Y-114157056D01*
X132513164Y-114413000D01*
X133873000Y-114413000D01*
X133873000Y-114393000D01*
X134127000Y-114393000D01*
X134127000Y-114413000D01*
X135486836Y-114413000D01*
X135605975Y-114157056D01*
X135406385Y-113675182D01*
X135315903Y-113577602D01*
X135467441Y-113480090D01*
X135612431Y-113267890D01*
X135663440Y-113016000D01*
X135663440Y-110984000D01*
X135619162Y-110748683D01*
X135480090Y-110532559D01*
X135267890Y-110387569D01*
X135016000Y-110336560D01*
X132984000Y-110336560D01*
X132748683Y-110380838D01*
X132532559Y-110519910D01*
X132387569Y-110732110D01*
X132336560Y-110984000D01*
X132336560Y-111318767D01*
X132121299Y-111462599D01*
X123569198Y-120014700D01*
X123000000Y-120014700D01*
X122709161Y-120072552D01*
X122462599Y-120237299D01*
X122310454Y-120465000D01*
X122185643Y-120465000D01*
X121215540Y-120657965D01*
X120393127Y-121207484D01*
X119843608Y-122029897D01*
X119650643Y-123000000D01*
X118451316Y-123000000D01*
X118258351Y-122029897D01*
X117708832Y-121207484D01*
X116886419Y-120657965D01*
X115916316Y-120465000D01*
X114083684Y-120465000D01*
X113113581Y-120657965D01*
X112291168Y-121207484D01*
X111741649Y-122029897D01*
X111548684Y-123000000D01*
X106787151Y-123000000D01*
X106768083Y-122670572D01*
X106629611Y-122336271D01*
X106399016Y-122280590D01*
X105679605Y-123000000D01*
X105320395Y-123000000D01*
X104600984Y-122280590D01*
X104370389Y-122336271D01*
X104297440Y-122545902D01*
X104297440Y-122350000D01*
X104253162Y-122114683D01*
X104244347Y-122100984D01*
X104780590Y-122100984D01*
X105500000Y-122820395D01*
X106219410Y-122100984D01*
X106163729Y-121870389D01*
X105680922Y-121702378D01*
X105170572Y-121731917D01*
X104836271Y-121870389D01*
X104780590Y-122100984D01*
X104244347Y-122100984D01*
X104114090Y-121898559D01*
X103901890Y-121753569D01*
X103760000Y-121724836D01*
X103760000Y-114276742D01*
X103885317Y-114253162D01*
X104101441Y-114114090D01*
X104246431Y-113901890D01*
X104247012Y-113899016D01*
X104780590Y-113899016D01*
X104836271Y-114129611D01*
X105319078Y-114297622D01*
X105829428Y-114268083D01*
X106163729Y-114129611D01*
X106219410Y-113899016D01*
X105500000Y-113179605D01*
X104780590Y-113899016D01*
X104247012Y-113899016D01*
X104297440Y-113650000D01*
X104297440Y-113487615D01*
X104370389Y-113663729D01*
X104600984Y-113719410D01*
X105320395Y-113000000D01*
X105679605Y-113000000D01*
X106399016Y-113719410D01*
X106629611Y-113663729D01*
X106797622Y-113180922D01*
X106768083Y-112670572D01*
X106629611Y-112336271D01*
X106399016Y-112280590D01*
X105679605Y-113000000D01*
X105320395Y-113000000D01*
X104600984Y-112280590D01*
X104370389Y-112336271D01*
X104297440Y-112545902D01*
X104297440Y-112350000D01*
X104253162Y-112114683D01*
X104244347Y-112100984D01*
X104780590Y-112100984D01*
X105500000Y-112820395D01*
X106219410Y-112100984D01*
X106163729Y-111870389D01*
X105680922Y-111702378D01*
X105170572Y-111731917D01*
X104836271Y-111870389D01*
X104780590Y-112100984D01*
X104244347Y-112100984D01*
X104114090Y-111898559D01*
X103901890Y-111753569D01*
X103650000Y-111702560D01*
X102350000Y-111702560D01*
X102114683Y-111746838D01*
X101898559Y-111885910D01*
X101753569Y-112098110D01*
X101702560Y-112350000D01*
X101702560Y-113650000D01*
X101746838Y-113885317D01*
X101885910Y-114101441D01*
X102098110Y-114246431D01*
X102240000Y-114275164D01*
X102240000Y-119241000D01*
X93784791Y-119241000D01*
X93785223Y-118745519D01*
X93590005Y-118273057D01*
X93228845Y-117911265D01*
X92756724Y-117715223D01*
X92245519Y-117714777D01*
X91773057Y-117909995D01*
X91411265Y-118271155D01*
X91297440Y-118545276D01*
X91297440Y-118350000D01*
X91253162Y-118114683D01*
X91114090Y-117898559D01*
X90901890Y-117753569D01*
X90686121Y-117709875D01*
X90537401Y-117487299D01*
X90490000Y-117439898D01*
X90490000Y-113125536D01*
X90859827Y-112756353D01*
X91000094Y-112418554D01*
X91138854Y-112754380D01*
X91513647Y-113129827D01*
X92003587Y-113333268D01*
X92534086Y-113333731D01*
X93024380Y-113131146D01*
X93399827Y-112756353D01*
X93603268Y-112266413D01*
X93603731Y-111735914D01*
X93401146Y-111245620D01*
X93030000Y-110873826D01*
X93030000Y-102540000D01*
X92972148Y-102249161D01*
X92807401Y-102002599D01*
X91138187Y-100333385D01*
X91534086Y-100333731D01*
X92024380Y-100131146D01*
X92399827Y-99756353D01*
X92603268Y-99266413D01*
X92603731Y-98735914D01*
X92577267Y-98671865D01*
X95915420Y-98671865D01*
X95915420Y-99328135D01*
X95997979Y-99743186D01*
X96233086Y-100095049D01*
X96584949Y-100330156D01*
X97000000Y-100412715D01*
X97415051Y-100330156D01*
X97635000Y-100183191D01*
X97854949Y-100330156D01*
X98270000Y-100412715D01*
X98685051Y-100330156D01*
X98909238Y-100180359D01*
X99246065Y-100344981D01*
X99413000Y-100218068D01*
X99413000Y-99127000D01*
X99667000Y-99127000D01*
X99667000Y-100218068D01*
X99833935Y-100344981D01*
X100217111Y-100157706D01*
X100493420Y-99833373D01*
X100624580Y-99427990D01*
X100624580Y-99127000D01*
X99667000Y-99127000D01*
X99413000Y-99127000D01*
X99393000Y-99127000D01*
X99393000Y-98873000D01*
X99413000Y-98873000D01*
X99413000Y-97781932D01*
X99667000Y-97781932D01*
X99667000Y-98873000D01*
X100624580Y-98873000D01*
X100624580Y-98572010D01*
X100493420Y-98166627D01*
X100217111Y-97842294D01*
X99833935Y-97655019D01*
X99667000Y-97781932D01*
X99413000Y-97781932D01*
X99246065Y-97655019D01*
X98909238Y-97819641D01*
X98685051Y-97669844D01*
X98270000Y-97587285D01*
X97854949Y-97669844D01*
X97635000Y-97816809D01*
X97415051Y-97669844D01*
X97000000Y-97587285D01*
X96584949Y-97669844D01*
X96233086Y-97904951D01*
X95997979Y-98256814D01*
X95915420Y-98671865D01*
X92577267Y-98671865D01*
X92401146Y-98245620D01*
X92026353Y-97870173D01*
X91536413Y-97666732D01*
X91005914Y-97666269D01*
X90515620Y-97868854D01*
X90140173Y-98243647D01*
X89999906Y-98581446D01*
X89861146Y-98245620D01*
X89486353Y-97870173D01*
X88996413Y-97666732D01*
X88465914Y-97666269D01*
X87975620Y-97868854D01*
X87600173Y-98243647D01*
X87396732Y-98733587D01*
X87396269Y-99264086D01*
X87598854Y-99754380D01*
X87973647Y-100129827D01*
X88463587Y-100333268D01*
X88988924Y-100333726D01*
X91510000Y-102854802D01*
X91510000Y-110874464D01*
X91140173Y-111243647D01*
X90999906Y-111581446D01*
X90861146Y-111245620D01*
X90486353Y-110870173D01*
X90461745Y-110859955D01*
X90432148Y-110711161D01*
X90267401Y-110464599D01*
X75420100Y-95617298D01*
X75420100Y-92827602D01*
X75537901Y-92709801D01*
X75681741Y-92494530D01*
X75850150Y-92494530D01*
X76085467Y-92450252D01*
X76301591Y-92311180D01*
X76446581Y-92098980D01*
X76497590Y-91847090D01*
X76497590Y-91291476D01*
X83675632Y-91291476D01*
X83901178Y-91837337D01*
X84318446Y-92255334D01*
X84863913Y-92481832D01*
X85454536Y-92482348D01*
X86000397Y-92256802D01*
X86418394Y-91839534D01*
X86644892Y-91294067D01*
X86645408Y-90703444D01*
X86419862Y-90157583D01*
X86002594Y-89739586D01*
X85457127Y-89513088D01*
X84866504Y-89512572D01*
X84320643Y-89738118D01*
X83902646Y-90155386D01*
X83676148Y-90700853D01*
X83675632Y-91291476D01*
X76497590Y-91291476D01*
X76497590Y-90147830D01*
X76453312Y-89912513D01*
X76314240Y-89696389D01*
X76102040Y-89551399D01*
X75850150Y-89500390D01*
X74150890Y-89500390D01*
X73915573Y-89544668D01*
X73699449Y-89683740D01*
X73554459Y-89895940D01*
X73503450Y-90147830D01*
X73503450Y-91847090D01*
X73547728Y-92082407D01*
X73686800Y-92298531D01*
X73899000Y-92443521D01*
X73913304Y-92446418D01*
X73900100Y-92512800D01*
X73900100Y-95172100D01*
X72797900Y-95172100D01*
X72507061Y-95229952D01*
X72260499Y-95394699D01*
X71988473Y-95666725D01*
X71465914Y-95666269D01*
X70975620Y-95868854D01*
X70600173Y-96243647D01*
X70396732Y-96733587D01*
X70396269Y-97264086D01*
X70598854Y-97754380D01*
X70973647Y-98129827D01*
X71463587Y-98333268D01*
X71994086Y-98333731D01*
X72484380Y-98131146D01*
X72859827Y-97756353D01*
X73000094Y-97418554D01*
X73138854Y-97754380D01*
X73513647Y-98129827D01*
X73970000Y-98319321D01*
X73970000Y-101874464D01*
X73600173Y-102243647D01*
X73396732Y-102733587D01*
X73396269Y-103264086D01*
X73598854Y-103754380D01*
X73973647Y-104129827D01*
X74179489Y-104215300D01*
X66785659Y-104215300D01*
X66797622Y-104180922D01*
X66768083Y-103670572D01*
X66629611Y-103336271D01*
X66399016Y-103280590D01*
X65679605Y-104000000D01*
X65693748Y-104014143D01*
X65514143Y-104193748D01*
X65500000Y-104179605D01*
X65485858Y-104193748D01*
X65306252Y-104014142D01*
X65320395Y-104000000D01*
X64600984Y-103280590D01*
X64370389Y-103336271D01*
X64361569Y-103361616D01*
X64290718Y-103314275D01*
X64253162Y-103114683D01*
X64244347Y-103100984D01*
X64780590Y-103100984D01*
X65500000Y-103820395D01*
X66219410Y-103100984D01*
X66163729Y-102870389D01*
X65680922Y-102702378D01*
X65170572Y-102731917D01*
X64836271Y-102870389D01*
X64780590Y-103100984D01*
X64244347Y-103100984D01*
X64114090Y-102898559D01*
X63901890Y-102753569D01*
X63650000Y-102702560D01*
X62350000Y-102702560D01*
X62114683Y-102746838D01*
X61898559Y-102885910D01*
X61753569Y-103098110D01*
X61702560Y-103350000D01*
X61702560Y-104650000D01*
X61746838Y-104885317D01*
X61885910Y-105101441D01*
X62098110Y-105246431D01*
X62350000Y-105297440D01*
X63650000Y-105297440D01*
X63885317Y-105253162D01*
X64048594Y-105148096D01*
X64413199Y-105512701D01*
X64659761Y-105677448D01*
X64950600Y-105735300D01*
X75294700Y-105735300D01*
X75585539Y-105677448D01*
X75832101Y-105512701D01*
X77011527Y-104333275D01*
X77534086Y-104333731D01*
X78024380Y-104131146D01*
X78399827Y-103756353D01*
X78603268Y-103266413D01*
X78603731Y-102735914D01*
X78401146Y-102245620D01*
X78026353Y-101870173D01*
X77536413Y-101666732D01*
X77005914Y-101666269D01*
X76515620Y-101868854D01*
X76140173Y-102243647D01*
X75999906Y-102581446D01*
X75861146Y-102245620D01*
X75490000Y-101873826D01*
X75490000Y-97836802D01*
X88748638Y-111095440D01*
X88600173Y-111243647D01*
X88396732Y-111733587D01*
X88396269Y-112264086D01*
X88598854Y-112754380D01*
X88970000Y-113126174D01*
X88970000Y-117754700D01*
X88985031Y-117830267D01*
X88898559Y-117885910D01*
X88753569Y-118098110D01*
X88702560Y-118350000D01*
X88702560Y-119241000D01*
X76893602Y-119241000D01*
X68115201Y-110462599D01*
X67868639Y-110297852D01*
X67698888Y-110264086D01*
X68396269Y-110264086D01*
X68598854Y-110754380D01*
X68973647Y-111129827D01*
X69463587Y-111333268D01*
X69994086Y-111333731D01*
X70484380Y-111131146D01*
X70859827Y-110756353D01*
X71000094Y-110418554D01*
X71138854Y-110754380D01*
X71513647Y-111129827D01*
X72003587Y-111333268D01*
X72534086Y-111333731D01*
X73024380Y-111131146D01*
X73399827Y-110756353D01*
X73603268Y-110266413D01*
X73603731Y-109735914D01*
X73401146Y-109245620D01*
X73026353Y-108870173D01*
X72536413Y-108666732D01*
X72005914Y-108666269D01*
X71515620Y-108868854D01*
X71140173Y-109243647D01*
X70999906Y-109581446D01*
X70861146Y-109245620D01*
X70486353Y-108870173D01*
X69996413Y-108666732D01*
X69465914Y-108666269D01*
X68975620Y-108868854D01*
X68600173Y-109243647D01*
X68396732Y-109733587D01*
X68396269Y-110264086D01*
X67698888Y-110264086D01*
X67577800Y-110240000D01*
X58395536Y-110240000D01*
X58026353Y-109870173D01*
X57536413Y-109666732D01*
X57011076Y-109666274D01*
X50760500Y-103415698D01*
X50760500Y-97264086D01*
X53396269Y-97264086D01*
X53598854Y-97754380D01*
X53973647Y-98129827D01*
X54463587Y-98333268D01*
X54994086Y-98333731D01*
X55484380Y-98131146D01*
X55859827Y-97756353D01*
X56000094Y-97418554D01*
X56138854Y-97754380D01*
X56513647Y-98129827D01*
X57003587Y-98333268D01*
X57534086Y-98333731D01*
X58024380Y-98131146D01*
X58399827Y-97756353D01*
X58603268Y-97266413D01*
X58603726Y-96741076D01*
X60697901Y-94646901D01*
X60862648Y-94400340D01*
X60881421Y-94305962D01*
X61000397Y-94256802D01*
X61418394Y-93839534D01*
X61644892Y-93294067D01*
X61645408Y-92703444D01*
X61419862Y-92157583D01*
X61002594Y-91739586D01*
X60457127Y-91513088D01*
X59866504Y-91512572D01*
X59320643Y-91738118D01*
X58902646Y-92155386D01*
X58676148Y-92700853D01*
X58675632Y-93291476D01*
X58901178Y-93837337D01*
X59129320Y-94065878D01*
X57528473Y-95666725D01*
X57005914Y-95666269D01*
X56515620Y-95868854D01*
X56140173Y-96243647D01*
X55999906Y-96581446D01*
X55861146Y-96245620D01*
X55486353Y-95870173D01*
X54996413Y-95666732D01*
X54465914Y-95666269D01*
X53975620Y-95868854D01*
X53600173Y-96243647D01*
X53396732Y-96733587D01*
X53396269Y-97264086D01*
X50760500Y-97264086D01*
X50760500Y-94494530D01*
X50850150Y-94494530D01*
X51085467Y-94450252D01*
X51301591Y-94311180D01*
X51446581Y-94098980D01*
X51497590Y-93847090D01*
X51497590Y-92147830D01*
X51453312Y-91912513D01*
X51314240Y-91696389D01*
X51102040Y-91551399D01*
X50850150Y-91500390D01*
X49150890Y-91500390D01*
X48915573Y-91544668D01*
X48699449Y-91683740D01*
X48554459Y-91895940D01*
X48503450Y-92147830D01*
X44313686Y-92147830D01*
X46239926Y-82463967D01*
X56074430Y-82463967D01*
X56074430Y-83536033D01*
X56179900Y-84066268D01*
X56480254Y-84515779D01*
X56929765Y-84816133D01*
X57460000Y-84921603D01*
X57990235Y-84816133D01*
X58439746Y-84515779D01*
X58730000Y-84081384D01*
X59020254Y-84515779D01*
X59240000Y-84662609D01*
X59240000Y-85270000D01*
X59297852Y-85560839D01*
X59462599Y-85807401D01*
X64396725Y-90741527D01*
X64396269Y-91264086D01*
X64598854Y-91754380D01*
X64973647Y-92129827D01*
X65463587Y-92333268D01*
X65994086Y-92333731D01*
X66484380Y-92131146D01*
X66681681Y-91934188D01*
X67515417Y-91934188D01*
X67577071Y-92169800D01*
X68077480Y-92345927D01*
X68607199Y-92317148D01*
X68962929Y-92169800D01*
X69024583Y-91934188D01*
X68270000Y-91179605D01*
X67515417Y-91934188D01*
X66681681Y-91934188D01*
X66859827Y-91756353D01*
X66993314Y-91434882D01*
X67100200Y-91692929D01*
X67335812Y-91754583D01*
X68090395Y-91000000D01*
X68449605Y-91000000D01*
X69204188Y-91754583D01*
X69439800Y-91692929D01*
X69615927Y-91192520D01*
X69587148Y-90662801D01*
X69439800Y-90307071D01*
X69204188Y-90245417D01*
X68449605Y-91000000D01*
X68090395Y-91000000D01*
X67335812Y-90245417D01*
X67100200Y-90307071D01*
X67001917Y-90586312D01*
X66861146Y-90245620D01*
X66681652Y-90065812D01*
X67515417Y-90065812D01*
X68270000Y-90820395D01*
X69024583Y-90065812D01*
X68962929Y-89830200D01*
X68462520Y-89654073D01*
X67932801Y-89682852D01*
X67577071Y-89830200D01*
X67515417Y-90065812D01*
X66681652Y-90065812D01*
X66486353Y-89870173D01*
X65996413Y-89666732D01*
X65471076Y-89666274D01*
X61154802Y-85350000D01*
X90702560Y-85350000D01*
X90702560Y-86650000D01*
X90746838Y-86885317D01*
X90885910Y-87101441D01*
X91098110Y-87246431D01*
X91350000Y-87297440D01*
X92650000Y-87297440D01*
X92885317Y-87253162D01*
X93101441Y-87114090D01*
X93246431Y-86901890D01*
X93247012Y-86899016D01*
X93780590Y-86899016D01*
X93836271Y-87129611D01*
X94319078Y-87297622D01*
X94829428Y-87268083D01*
X95163729Y-87129611D01*
X95219410Y-86899016D01*
X94500000Y-86179605D01*
X93780590Y-86899016D01*
X93247012Y-86899016D01*
X93297440Y-86650000D01*
X93297440Y-86487615D01*
X93370389Y-86663729D01*
X93600984Y-86719410D01*
X94320395Y-86000000D01*
X94679605Y-86000000D01*
X95399016Y-86719410D01*
X95629611Y-86663729D01*
X95797622Y-86180922D01*
X95768083Y-85670572D01*
X95629611Y-85336271D01*
X95399016Y-85280590D01*
X94679605Y-86000000D01*
X94320395Y-86000000D01*
X93600984Y-85280590D01*
X93370389Y-85336271D01*
X93297440Y-85545902D01*
X93297440Y-85350000D01*
X93253162Y-85114683D01*
X93244347Y-85100984D01*
X93780590Y-85100984D01*
X94500000Y-85820395D01*
X95056308Y-85264086D01*
X98396269Y-85264086D01*
X98598854Y-85754380D01*
X98973647Y-86129827D01*
X99463587Y-86333268D01*
X99988924Y-86333726D01*
X103465100Y-89809902D01*
X103465100Y-90000000D01*
X103522952Y-90290839D01*
X103687699Y-90537401D01*
X103934261Y-90702148D01*
X103992105Y-90713654D01*
X103997979Y-90743186D01*
X104233086Y-91095049D01*
X104584949Y-91330156D01*
X105000000Y-91412715D01*
X105415051Y-91330156D01*
X105635000Y-91183191D01*
X105854949Y-91330156D01*
X106270000Y-91412715D01*
X106685051Y-91330156D01*
X106905000Y-91183191D01*
X107124949Y-91330156D01*
X107540000Y-91412715D01*
X107554900Y-91409751D01*
X107554900Y-101124900D01*
X107612752Y-101415739D01*
X107777499Y-101662301D01*
X107856725Y-101741527D01*
X107856269Y-102264086D01*
X108058854Y-102754380D01*
X108433647Y-103129827D01*
X108923587Y-103333268D01*
X109454086Y-103333731D01*
X109944380Y-103131146D01*
X110319827Y-102756353D01*
X110523268Y-102266413D01*
X110523731Y-101735914D01*
X110344236Y-101301500D01*
X115464060Y-101301500D01*
X115464060Y-102698500D01*
X115508338Y-102933817D01*
X115647410Y-103149941D01*
X115859610Y-103294931D01*
X116111500Y-103345940D01*
X117508500Y-103345940D01*
X117743817Y-103301662D01*
X117959941Y-103162590D01*
X118104931Y-102950390D01*
X118155940Y-102698500D01*
X118155940Y-101301500D01*
X118111662Y-101066183D01*
X117972590Y-100850059D01*
X117760390Y-100705069D01*
X117508500Y-100654060D01*
X116111500Y-100654060D01*
X115876183Y-100698338D01*
X115660059Y-100837410D01*
X115515069Y-101049610D01*
X115464060Y-101301500D01*
X110344236Y-101301500D01*
X110321146Y-101245620D01*
X109946353Y-100870173D01*
X109456413Y-100666732D01*
X109074900Y-100666399D01*
X109074900Y-93350000D01*
X119702560Y-93350000D01*
X119702560Y-94650000D01*
X119746838Y-94885317D01*
X119885910Y-95101441D01*
X120098110Y-95246431D01*
X120350000Y-95297440D01*
X121650000Y-95297440D01*
X121885317Y-95253162D01*
X122101441Y-95114090D01*
X122246431Y-94901890D01*
X122247012Y-94899016D01*
X122780590Y-94899016D01*
X122836271Y-95129611D01*
X123319078Y-95297622D01*
X123829428Y-95268083D01*
X124163729Y-95129611D01*
X124219410Y-94899016D01*
X123500000Y-94179605D01*
X122780590Y-94899016D01*
X122247012Y-94899016D01*
X122297440Y-94650000D01*
X122297440Y-94487615D01*
X122370389Y-94663729D01*
X122600984Y-94719410D01*
X123320395Y-94000000D01*
X123679605Y-94000000D01*
X124399016Y-94719410D01*
X124629611Y-94663729D01*
X124797622Y-94180922D01*
X124768083Y-93670572D01*
X124629611Y-93336271D01*
X124399016Y-93280590D01*
X123679605Y-94000000D01*
X123320395Y-94000000D01*
X122600984Y-93280590D01*
X122370389Y-93336271D01*
X122297440Y-93545902D01*
X122297440Y-93350000D01*
X122253162Y-93114683D01*
X122244347Y-93100984D01*
X122780590Y-93100984D01*
X123500000Y-93820395D01*
X124219410Y-93100984D01*
X124163729Y-92870389D01*
X123680922Y-92702378D01*
X123170572Y-92731917D01*
X122836271Y-92870389D01*
X122780590Y-93100984D01*
X122244347Y-93100984D01*
X122148096Y-92951406D01*
X123300001Y-91799501D01*
X123464748Y-91552939D01*
X123522600Y-91262100D01*
X123522600Y-87111000D01*
X128923560Y-87111000D01*
X128923560Y-88889000D01*
X128967838Y-89124317D01*
X129106910Y-89340441D01*
X129319110Y-89485431D01*
X129571000Y-89536440D01*
X131349000Y-89536440D01*
X131584317Y-89492162D01*
X131800441Y-89353090D01*
X131945431Y-89140890D01*
X131959341Y-89072196D01*
X134647409Y-89072196D01*
X134732467Y-89327539D01*
X135301965Y-89535516D01*
X135907700Y-89509723D01*
X136347533Y-89327539D01*
X136432591Y-89072196D01*
X135540000Y-88179605D01*
X134647409Y-89072196D01*
X131959341Y-89072196D01*
X131996440Y-88889000D01*
X131996440Y-87761965D01*
X134004484Y-87761965D01*
X134030277Y-88367700D01*
X134212461Y-88807533D01*
X134467804Y-88892591D01*
X135360395Y-88000000D01*
X135719605Y-88000000D01*
X136612196Y-88892591D01*
X136867539Y-88807533D01*
X137075516Y-88238035D01*
X137049723Y-87632300D01*
X136867539Y-87192467D01*
X136612196Y-87107409D01*
X135719605Y-88000000D01*
X135360395Y-88000000D01*
X134467804Y-87107409D01*
X134212461Y-87192467D01*
X134004484Y-87761965D01*
X131996440Y-87761965D01*
X131996440Y-87111000D01*
X131961970Y-86927804D01*
X134647409Y-86927804D01*
X135540000Y-87820395D01*
X136432591Y-86927804D01*
X136347533Y-86672461D01*
X135778035Y-86464484D01*
X135172300Y-86490277D01*
X134732467Y-86672461D01*
X134647409Y-86927804D01*
X131961970Y-86927804D01*
X131952162Y-86875683D01*
X131813090Y-86659559D01*
X131600890Y-86514569D01*
X131349000Y-86463560D01*
X129571000Y-86463560D01*
X129335683Y-86507838D01*
X129119559Y-86646910D01*
X128974569Y-86859110D01*
X128923560Y-87111000D01*
X123522600Y-87111000D01*
X123522600Y-85961638D01*
X123577071Y-86169800D01*
X124077480Y-86345927D01*
X124607199Y-86317148D01*
X124962929Y-86169800D01*
X125024583Y-85934188D01*
X124270000Y-85179605D01*
X124255858Y-85193748D01*
X124076253Y-85014143D01*
X124090395Y-85000000D01*
X124449605Y-85000000D01*
X125204188Y-85754583D01*
X125439800Y-85692929D01*
X125615927Y-85192520D01*
X125587148Y-84662801D01*
X125439800Y-84307071D01*
X125204188Y-84245417D01*
X124449605Y-85000000D01*
X124090395Y-85000000D01*
X124076253Y-84985858D01*
X124255858Y-84806253D01*
X124270000Y-84820395D01*
X125024583Y-84065812D01*
X124962929Y-83830200D01*
X124462520Y-83654073D01*
X123932801Y-83682852D01*
X123577071Y-83830200D01*
X123522600Y-84038362D01*
X123522600Y-79976400D01*
X123464748Y-79685561D01*
X123300001Y-79438999D01*
X122985778Y-79124776D01*
X123104931Y-78950390D01*
X123155940Y-78698500D01*
X123155940Y-77301500D01*
X123111662Y-77066183D01*
X122972590Y-76850059D01*
X122760390Y-76705069D01*
X122508500Y-76654060D01*
X121111500Y-76654060D01*
X120876183Y-76698338D01*
X120660059Y-76837410D01*
X120515069Y-77049610D01*
X120464060Y-77301500D01*
X120464060Y-78698500D01*
X120508338Y-78933817D01*
X120647410Y-79149941D01*
X120859610Y-79294931D01*
X121111500Y-79345940D01*
X121128767Y-79345940D01*
X121272599Y-79561201D01*
X122002600Y-80291202D01*
X122002600Y-83669301D01*
X121996413Y-83666732D01*
X121465914Y-83666269D01*
X120975620Y-83868854D01*
X120600173Y-84243647D01*
X120396732Y-84733587D01*
X120396269Y-85264086D01*
X120598854Y-85754380D01*
X120973647Y-86129827D01*
X121463587Y-86333268D01*
X121994086Y-86333731D01*
X122002600Y-86330213D01*
X122002600Y-90947298D01*
X120462599Y-92487299D01*
X120314275Y-92709282D01*
X120114683Y-92746838D01*
X119898559Y-92885910D01*
X119753569Y-93098110D01*
X119702560Y-93350000D01*
X109074900Y-93350000D01*
X109074900Y-90000000D01*
X109017048Y-89709161D01*
X108852301Y-89462599D01*
X108605739Y-89297852D01*
X108547895Y-89286346D01*
X108542021Y-89256814D01*
X108306914Y-88904951D01*
X107955051Y-88669844D01*
X107540000Y-88587285D01*
X107124949Y-88669844D01*
X106996497Y-88755673D01*
X106972148Y-88633261D01*
X106807401Y-88386699D01*
X106578665Y-88233863D01*
X103608888Y-85264086D01*
X108856269Y-85264086D01*
X109058854Y-85754380D01*
X109433647Y-86129827D01*
X109923587Y-86333268D01*
X110454086Y-86333731D01*
X110944380Y-86131146D01*
X111319827Y-85756353D01*
X111523268Y-85266413D01*
X111523731Y-84735914D01*
X111321146Y-84245620D01*
X110946353Y-83870173D01*
X110456413Y-83666732D01*
X109925914Y-83666269D01*
X109435620Y-83868854D01*
X109060173Y-84243647D01*
X108856732Y-84733587D01*
X108856269Y-85264086D01*
X103608888Y-85264086D01*
X103603275Y-85258473D01*
X103603731Y-84735914D01*
X103401146Y-84245620D01*
X103026353Y-83870173D01*
X102536413Y-83666732D01*
X102005914Y-83666269D01*
X101515620Y-83868854D01*
X101140173Y-84243647D01*
X100999906Y-84581446D01*
X100861146Y-84245620D01*
X100486353Y-83870173D01*
X99996413Y-83666732D01*
X99465914Y-83666269D01*
X98975620Y-83868854D01*
X98600173Y-84243647D01*
X98396732Y-84733587D01*
X98396269Y-85264086D01*
X95056308Y-85264086D01*
X95219410Y-85100984D01*
X95163729Y-84870389D01*
X94680922Y-84702378D01*
X94170572Y-84731917D01*
X93836271Y-84870389D01*
X93780590Y-85100984D01*
X93244347Y-85100984D01*
X93114090Y-84898559D01*
X92901890Y-84753569D01*
X92650000Y-84702560D01*
X91350000Y-84702560D01*
X91114683Y-84746838D01*
X90898559Y-84885910D01*
X90753569Y-85098110D01*
X90702560Y-85350000D01*
X61154802Y-85350000D01*
X60760000Y-84955198D01*
X60760000Y-84662609D01*
X60979746Y-84515779D01*
X61280100Y-84066268D01*
X61281950Y-84056968D01*
X61308501Y-84146677D01*
X61650056Y-84568658D01*
X62127097Y-84827810D01*
X62198725Y-84841993D01*
X62413000Y-84719339D01*
X62413000Y-83127000D01*
X62667000Y-83127000D01*
X62667000Y-84719339D01*
X62881275Y-84841993D01*
X62952903Y-84827810D01*
X63429944Y-84568658D01*
X63771499Y-84146677D01*
X63925570Y-83626110D01*
X63925570Y-83264086D01*
X70396269Y-83264086D01*
X70598854Y-83754380D01*
X70973647Y-84129827D01*
X71463587Y-84333268D01*
X71994086Y-84333731D01*
X72484380Y-84131146D01*
X72859827Y-83756353D01*
X73000094Y-83418554D01*
X73138854Y-83754380D01*
X73513647Y-84129827D01*
X74003587Y-84333268D01*
X74534086Y-84333731D01*
X75024380Y-84131146D01*
X75399827Y-83756353D01*
X75603268Y-83266413D01*
X75603731Y-82735914D01*
X75401146Y-82245620D01*
X75026353Y-81870173D01*
X74536413Y-81666732D01*
X74005914Y-81666269D01*
X73515620Y-81868854D01*
X73140173Y-82243647D01*
X72999906Y-82581446D01*
X72861146Y-82245620D01*
X72486353Y-81870173D01*
X71996413Y-81666732D01*
X71465914Y-81666269D01*
X70975620Y-81868854D01*
X70600173Y-82243647D01*
X70396732Y-82733587D01*
X70396269Y-83264086D01*
X63925570Y-83264086D01*
X63925570Y-83127000D01*
X62667000Y-83127000D01*
X62413000Y-83127000D01*
X62393000Y-83127000D01*
X62393000Y-82873000D01*
X62413000Y-82873000D01*
X62413000Y-81280661D01*
X62667000Y-81280661D01*
X62667000Y-82873000D01*
X63925570Y-82873000D01*
X63925570Y-82373890D01*
X63771499Y-81853323D01*
X63429944Y-81431342D01*
X62952903Y-81172190D01*
X62881275Y-81158007D01*
X62667000Y-81280661D01*
X62413000Y-81280661D01*
X62198725Y-81158007D01*
X62127097Y-81172190D01*
X61650056Y-81431342D01*
X61308501Y-81853323D01*
X61281950Y-81943032D01*
X61280100Y-81933732D01*
X60994059Y-81505643D01*
X62149702Y-80350000D01*
X78702560Y-80350000D01*
X78702560Y-81650000D01*
X78746838Y-81885317D01*
X78885910Y-82101441D01*
X79098110Y-82246431D01*
X79350000Y-82297440D01*
X80650000Y-82297440D01*
X80885317Y-82253162D01*
X81101441Y-82114090D01*
X81246431Y-81901890D01*
X81247012Y-81899016D01*
X81780590Y-81899016D01*
X81836271Y-82129611D01*
X82319078Y-82297622D01*
X82829428Y-82268083D01*
X83163729Y-82129611D01*
X83219410Y-81899016D01*
X82500000Y-81179605D01*
X81780590Y-81899016D01*
X81247012Y-81899016D01*
X81297440Y-81650000D01*
X81297440Y-81487615D01*
X81370389Y-81663729D01*
X81600984Y-81719410D01*
X82320395Y-81000000D01*
X82679605Y-81000000D01*
X83399016Y-81719410D01*
X83629611Y-81663729D01*
X83797622Y-81180922D01*
X83768083Y-80670572D01*
X83629611Y-80336271D01*
X83399016Y-80280590D01*
X82679605Y-81000000D01*
X82320395Y-81000000D01*
X81600984Y-80280590D01*
X81370389Y-80336271D01*
X81297440Y-80545902D01*
X81297440Y-80350000D01*
X81253162Y-80114683D01*
X81244347Y-80100984D01*
X81780590Y-80100984D01*
X82500000Y-80820395D01*
X83219410Y-80100984D01*
X83163729Y-79870389D01*
X82680922Y-79702378D01*
X82170572Y-79731917D01*
X81836271Y-79870389D01*
X81780590Y-80100984D01*
X81244347Y-80100984D01*
X81114090Y-79898559D01*
X80901890Y-79753569D01*
X80650000Y-79702560D01*
X79350000Y-79702560D01*
X79114683Y-79746838D01*
X78898559Y-79885910D01*
X78753569Y-80098110D01*
X78702560Y-80350000D01*
X62149702Y-80350000D01*
X63827837Y-78671865D01*
X103915420Y-78671865D01*
X103915420Y-79328135D01*
X103997979Y-79743186D01*
X104233086Y-80095049D01*
X104245453Y-80103312D01*
X104297852Y-80366739D01*
X104462599Y-80613301D01*
X104709161Y-80778048D01*
X105000000Y-80835900D01*
X111547298Y-80835900D01*
X116248799Y-85537401D01*
X116464060Y-85681233D01*
X116464060Y-85698500D01*
X116508338Y-85933817D01*
X116647410Y-86149941D01*
X116859610Y-86294931D01*
X117111500Y-86345940D01*
X118508500Y-86345940D01*
X118743817Y-86301662D01*
X118959941Y-86162590D01*
X119104931Y-85950390D01*
X119155940Y-85698500D01*
X119155940Y-84301500D01*
X119111662Y-84066183D01*
X118972590Y-83850059D01*
X118760390Y-83705069D01*
X118508500Y-83654060D01*
X117111500Y-83654060D01*
X116876183Y-83698338D01*
X116683395Y-83822393D01*
X112399501Y-79538499D01*
X112152939Y-79373752D01*
X111862100Y-79315900D01*
X108624580Y-79315900D01*
X108624580Y-78671865D01*
X108543468Y-78264086D01*
X112856269Y-78264086D01*
X113058854Y-78754380D01*
X113433647Y-79129827D01*
X113923587Y-79333268D01*
X114454086Y-79333731D01*
X114944380Y-79131146D01*
X115319827Y-78756353D01*
X115523268Y-78266413D01*
X115523731Y-77735914D01*
X115321146Y-77245620D01*
X114946353Y-76870173D01*
X114456413Y-76666732D01*
X113925914Y-76666269D01*
X113435620Y-76868854D01*
X113060173Y-77243647D01*
X112856732Y-77733587D01*
X112856269Y-78264086D01*
X108543468Y-78264086D01*
X108542021Y-78256814D01*
X108306914Y-77904951D01*
X107955051Y-77669844D01*
X107540000Y-77587285D01*
X107124949Y-77669844D01*
X107030000Y-77733287D01*
X107030000Y-71774802D01*
X108471527Y-70333275D01*
X108994086Y-70333731D01*
X109484380Y-70131146D01*
X109859827Y-69756353D01*
X110000094Y-69418554D01*
X110138854Y-69754380D01*
X110513647Y-70129827D01*
X111003587Y-70333268D01*
X111534086Y-70333731D01*
X112024380Y-70131146D01*
X112399827Y-69756353D01*
X112603268Y-69266413D01*
X112603731Y-68735914D01*
X112401146Y-68245620D01*
X112026353Y-67870173D01*
X111536413Y-67666732D01*
X111005914Y-67666269D01*
X110515620Y-67868854D01*
X110140173Y-68243647D01*
X109999906Y-68581446D01*
X109861146Y-68245620D01*
X109486353Y-67870173D01*
X108996413Y-67666732D01*
X108465914Y-67666269D01*
X107975620Y-67868854D01*
X107600173Y-68243647D01*
X107396732Y-68733587D01*
X107396274Y-69258924D01*
X105732599Y-70922599D01*
X105567852Y-71169161D01*
X105510000Y-71460000D01*
X105510000Y-77733287D01*
X105415051Y-77669844D01*
X105000000Y-77587285D01*
X104584949Y-77669844D01*
X104233086Y-77904951D01*
X103997979Y-78256814D01*
X103915420Y-78671865D01*
X63827837Y-78671865D01*
X68227141Y-74272561D01*
X68350000Y-74297440D01*
X69650000Y-74297440D01*
X69885317Y-74253162D01*
X70101441Y-74114090D01*
X70246431Y-73901890D01*
X70247012Y-73899016D01*
X70780590Y-73899016D01*
X70836271Y-74129611D01*
X71319078Y-74297622D01*
X71829428Y-74268083D01*
X72163729Y-74129611D01*
X72219410Y-73899016D01*
X71500000Y-73179605D01*
X70780590Y-73899016D01*
X70247012Y-73899016D01*
X70297440Y-73650000D01*
X70297440Y-73487615D01*
X70370389Y-73663729D01*
X70600984Y-73719410D01*
X71320395Y-73000000D01*
X71679605Y-73000000D01*
X72399016Y-73719410D01*
X72629611Y-73663729D01*
X72764639Y-73275703D01*
X89063000Y-73275703D01*
X89063000Y-74884297D01*
X89169340Y-75418906D01*
X89472172Y-75872125D01*
X89925391Y-76174957D01*
X90460000Y-76281297D01*
X90994609Y-76174957D01*
X91447828Y-75872125D01*
X91740349Y-75434338D01*
X91757941Y-75493941D01*
X92101974Y-75919630D01*
X92582723Y-76181260D01*
X92656930Y-76196220D01*
X92873000Y-76073720D01*
X92873000Y-74207000D01*
X92853000Y-74207000D01*
X92853000Y-73953000D01*
X92873000Y-73953000D01*
X92873000Y-72086280D01*
X93127000Y-72086280D01*
X93127000Y-73953000D01*
X93147000Y-73953000D01*
X93147000Y-74207000D01*
X93127000Y-74207000D01*
X93127000Y-76073720D01*
X93343070Y-76196220D01*
X93417277Y-76181260D01*
X93898026Y-75919630D01*
X94242059Y-75493941D01*
X94259651Y-75434338D01*
X94552172Y-75872125D01*
X95005391Y-76174957D01*
X95540000Y-76281297D01*
X96074609Y-76174957D01*
X96527828Y-75872125D01*
X96830660Y-75418906D01*
X96937000Y-74884297D01*
X96937000Y-73275703D01*
X96830660Y-72741094D01*
X96527828Y-72287875D01*
X96074609Y-71985043D01*
X95540000Y-71878703D01*
X95005391Y-71985043D01*
X94552172Y-72287875D01*
X94259651Y-72725662D01*
X94242059Y-72666059D01*
X93898026Y-72240370D01*
X93417277Y-71978740D01*
X93343070Y-71963780D01*
X93127000Y-72086280D01*
X92873000Y-72086280D01*
X92656930Y-71963780D01*
X92582723Y-71978740D01*
X92101974Y-72240370D01*
X91757941Y-72666059D01*
X91740349Y-72725662D01*
X91447828Y-72287875D01*
X90994609Y-71985043D01*
X90460000Y-71878703D01*
X89925391Y-71985043D01*
X89472172Y-72287875D01*
X89169340Y-72741094D01*
X89063000Y-73275703D01*
X72764639Y-73275703D01*
X72797622Y-73180922D01*
X72768083Y-72670572D01*
X72629611Y-72336271D01*
X72399016Y-72280590D01*
X71679605Y-73000000D01*
X71320395Y-73000000D01*
X70600984Y-72280590D01*
X70370389Y-72336271D01*
X70297440Y-72545902D01*
X70297440Y-72350000D01*
X70253162Y-72114683D01*
X70244347Y-72100984D01*
X70780590Y-72100984D01*
X71500000Y-72820395D01*
X72219410Y-72100984D01*
X72163729Y-71870389D01*
X71680922Y-71702378D01*
X71170572Y-71731917D01*
X70836271Y-71870389D01*
X70780590Y-72100984D01*
X70244347Y-72100984D01*
X70114090Y-71898559D01*
X69901890Y-71753569D01*
X69650000Y-71702560D01*
X68350000Y-71702560D01*
X68114683Y-71746838D01*
X67898559Y-71885910D01*
X67753569Y-72098110D01*
X67709875Y-72313879D01*
X67487299Y-72462599D01*
X67322552Y-72709161D01*
X67264700Y-73000000D01*
X67264700Y-73085398D01*
X59462599Y-80887499D01*
X59297852Y-81134061D01*
X59260075Y-81323978D01*
X59020254Y-81484221D01*
X58730000Y-81918616D01*
X58439746Y-81484221D01*
X57990235Y-81183867D01*
X57460000Y-81078397D01*
X56929765Y-81183867D01*
X56480254Y-81484221D01*
X56179900Y-81933732D01*
X56074430Y-82463967D01*
X46239926Y-82463967D01*
X47831577Y-74462200D01*
X57929225Y-59350000D01*
X107702560Y-59350000D01*
X107702560Y-60650000D01*
X107746838Y-60885317D01*
X107885910Y-61101441D01*
X108098110Y-61246431D01*
X108350000Y-61297440D01*
X109650000Y-61297440D01*
X109885317Y-61253162D01*
X110101441Y-61114090D01*
X110246431Y-60901890D01*
X110247012Y-60899016D01*
X110780590Y-60899016D01*
X110836271Y-61129611D01*
X111319078Y-61297622D01*
X111829428Y-61268083D01*
X112163729Y-61129611D01*
X112219410Y-60899016D01*
X111500000Y-60179605D01*
X110780590Y-60899016D01*
X110247012Y-60899016D01*
X110297440Y-60650000D01*
X110297440Y-60487615D01*
X110370389Y-60663729D01*
X110600984Y-60719410D01*
X111320395Y-60000000D01*
X111679605Y-60000000D01*
X112399016Y-60719410D01*
X112629611Y-60663729D01*
X112797622Y-60180922D01*
X112768083Y-59670572D01*
X112629611Y-59336271D01*
X112399016Y-59280590D01*
X111679605Y-60000000D01*
X111320395Y-60000000D01*
X110600984Y-59280590D01*
X110370389Y-59336271D01*
X110297440Y-59545902D01*
X110297440Y-59350000D01*
X110253162Y-59114683D01*
X110244347Y-59100984D01*
X110780590Y-59100984D01*
X111500000Y-59820395D01*
X112219410Y-59100984D01*
X112163729Y-58870389D01*
X111680922Y-58702378D01*
X111170572Y-58731917D01*
X110836271Y-58870389D01*
X110780590Y-59100984D01*
X110244347Y-59100984D01*
X110114090Y-58898559D01*
X109901890Y-58753569D01*
X109650000Y-58702560D01*
X108350000Y-58702560D01*
X108114683Y-58746838D01*
X107898559Y-58885910D01*
X107753569Y-59098110D01*
X107702560Y-59350000D01*
X57929225Y-59350000D01*
X58898852Y-57898852D01*
X75462200Y-46831577D01*
X95000000Y-42945267D01*
X114537800Y-46831577D01*
X114537800Y-46831577D01*
G37*
X114537800Y-46831577D02*
X131101148Y-57898852D01*
X142168423Y-74462200D01*
X146054733Y-94000000D01*
X142168423Y-113537800D01*
X131101148Y-130101148D01*
X114537800Y-141168423D01*
X95000000Y-145054733D01*
X75462200Y-141168423D01*
X58898852Y-130101148D01*
X50144946Y-117000000D01*
X62402560Y-117000000D01*
X62402560Y-119000000D01*
X62446838Y-119235317D01*
X62585910Y-119451441D01*
X62798110Y-119596431D01*
X63050000Y-119647440D01*
X64572638Y-119647440D01*
X67536799Y-122611601D01*
X67783361Y-122776348D01*
X68074200Y-122834200D01*
X70299398Y-122834200D01*
X72817758Y-125352560D01*
X72050000Y-125352560D01*
X71814683Y-125396838D01*
X71598559Y-125535910D01*
X71453569Y-125748110D01*
X71402560Y-126000000D01*
X71402560Y-128000000D01*
X71446838Y-128235317D01*
X71585910Y-128451441D01*
X71798110Y-128596431D01*
X72050000Y-128647440D01*
X73950000Y-128647440D01*
X74185317Y-128603162D01*
X74401441Y-128464090D01*
X74546431Y-128251890D01*
X74547055Y-128248808D01*
X74640997Y-128342914D01*
X75223341Y-128584724D01*
X75853893Y-128585275D01*
X76436657Y-128344481D01*
X76882914Y-127899003D01*
X77124724Y-127316659D01*
X77125275Y-126686107D01*
X76884481Y-126103343D01*
X76439003Y-125657086D01*
X75856659Y-125415276D01*
X75226107Y-125414725D01*
X75087004Y-125472202D01*
X71151601Y-121536799D01*
X70905039Y-121372052D01*
X70614200Y-121314200D01*
X68389002Y-121314200D01*
X66659907Y-119585105D01*
X66853893Y-119585275D01*
X67436657Y-119344481D01*
X67882914Y-118899003D01*
X68124724Y-118316659D01*
X68125275Y-117686107D01*
X67884481Y-117103343D01*
X67439003Y-116657086D01*
X66856659Y-116415276D01*
X66226107Y-116414725D01*
X65643343Y-116655519D01*
X65545663Y-116753029D01*
X65414090Y-116548559D01*
X65201890Y-116403569D01*
X64950000Y-116352560D01*
X63050000Y-116352560D01*
X62814683Y-116396838D01*
X62598559Y-116535910D01*
X62453569Y-116748110D01*
X62402560Y-117000000D01*
X50144946Y-117000000D01*
X47831577Y-113537800D01*
X43945267Y-94000000D01*
X44313686Y-92147830D01*
X48503450Y-92147830D01*
X48503450Y-93847090D01*
X48547728Y-94082407D01*
X48686800Y-94298531D01*
X48899000Y-94443521D01*
X49150890Y-94494530D01*
X49240500Y-94494530D01*
X49240500Y-103730500D01*
X49298352Y-104021339D01*
X49463099Y-104267901D01*
X54861812Y-109666615D01*
X54465914Y-109666269D01*
X53975620Y-109868854D01*
X53600173Y-110243647D01*
X53396732Y-110733587D01*
X53396269Y-111264086D01*
X53598854Y-111754380D01*
X53973647Y-112129827D01*
X54463587Y-112333268D01*
X54994086Y-112333731D01*
X55484380Y-112131146D01*
X55859827Y-111756353D01*
X56000094Y-111418554D01*
X56138854Y-111754380D01*
X56513647Y-112129827D01*
X57003587Y-112333268D01*
X57534086Y-112333731D01*
X58024380Y-112131146D01*
X58396174Y-111760000D01*
X67262998Y-111760000D01*
X76041399Y-120538401D01*
X76287960Y-120703148D01*
X76578800Y-120761000D01*
X102240000Y-120761000D01*
X102240000Y-121723258D01*
X102114683Y-121746838D01*
X101898559Y-121885910D01*
X101753569Y-122098110D01*
X101702560Y-122350000D01*
X101702560Y-123650000D01*
X101746838Y-123885317D01*
X101885910Y-124101441D01*
X102098110Y-124246431D01*
X102350000Y-124297440D01*
X103650000Y-124297440D01*
X103885317Y-124253162D01*
X104101441Y-124114090D01*
X104246431Y-123901890D01*
X104247012Y-123899016D01*
X104780590Y-123899016D01*
X104836271Y-124129611D01*
X105319078Y-124297622D01*
X105829428Y-124268083D01*
X106163729Y-124129611D01*
X106219410Y-123899016D01*
X105500000Y-123179605D01*
X104780590Y-123899016D01*
X104247012Y-123899016D01*
X104297440Y-123650000D01*
X104297440Y-123487615D01*
X104370389Y-123663729D01*
X104600984Y-123719410D01*
X105320395Y-123000000D01*
X105679605Y-123000000D01*
X106399016Y-123719410D01*
X106629611Y-123663729D01*
X106797622Y-123180922D01*
X106787151Y-123000000D01*
X111548684Y-123000000D01*
X111741649Y-123970103D01*
X112291168Y-124792516D01*
X113113581Y-125342035D01*
X114083684Y-125535000D01*
X115916316Y-125535000D01*
X116886419Y-125342035D01*
X117708832Y-124792516D01*
X118258351Y-123970103D01*
X118451316Y-123000000D01*
X119650643Y-123000000D01*
X119843608Y-123970103D01*
X120393127Y-124792516D01*
X121215540Y-125342035D01*
X122185643Y-125535000D01*
X123814357Y-125535000D01*
X124784460Y-125342035D01*
X125606873Y-124792516D01*
X126156392Y-123970103D01*
X126349357Y-123000000D01*
X126156392Y-122029897D01*
X125606873Y-121207484D01*
X124958948Y-120774554D01*
X130810558Y-114922944D01*
X132394025Y-114922944D01*
X132593615Y-115404818D01*
X133031621Y-115877188D01*
X133617054Y-116145983D01*
X133873000Y-116027367D01*
X133873000Y-114667000D01*
X134127000Y-114667000D01*
X134127000Y-116027367D01*
X134382946Y-116145983D01*
X134968379Y-115877188D01*
X135406385Y-115404818D01*
X135605975Y-114922944D01*
X135486836Y-114667000D01*
X134127000Y-114667000D01*
X133873000Y-114667000D01*
X132513164Y-114667000D01*
X132394025Y-114922944D01*
X130810558Y-114922944D01*
X132420519Y-113312983D01*
X132519910Y-113467441D01*
X132682948Y-113578840D01*
X132593615Y-113675182D01*
X132394025Y-114157056D01*
X132513164Y-114413000D01*
X133873000Y-114413000D01*
X133873000Y-114393000D01*
X134127000Y-114393000D01*
X134127000Y-114413000D01*
X135486836Y-114413000D01*
X135605975Y-114157056D01*
X135406385Y-113675182D01*
X135315903Y-113577602D01*
X135467441Y-113480090D01*
X135612431Y-113267890D01*
X135663440Y-113016000D01*
X135663440Y-110984000D01*
X135619162Y-110748683D01*
X135480090Y-110532559D01*
X135267890Y-110387569D01*
X135016000Y-110336560D01*
X132984000Y-110336560D01*
X132748683Y-110380838D01*
X132532559Y-110519910D01*
X132387569Y-110732110D01*
X132336560Y-110984000D01*
X132336560Y-111318767D01*
X132121299Y-111462599D01*
X123569198Y-120014700D01*
X123000000Y-120014700D01*
X122709161Y-120072552D01*
X122462599Y-120237299D01*
X122310454Y-120465000D01*
X122185643Y-120465000D01*
X121215540Y-120657965D01*
X120393127Y-121207484D01*
X119843608Y-122029897D01*
X119650643Y-123000000D01*
X118451316Y-123000000D01*
X118258351Y-122029897D01*
X117708832Y-121207484D01*
X116886419Y-120657965D01*
X115916316Y-120465000D01*
X114083684Y-120465000D01*
X113113581Y-120657965D01*
X112291168Y-121207484D01*
X111741649Y-122029897D01*
X111548684Y-123000000D01*
X106787151Y-123000000D01*
X106768083Y-122670572D01*
X106629611Y-122336271D01*
X106399016Y-122280590D01*
X105679605Y-123000000D01*
X105320395Y-123000000D01*
X104600984Y-122280590D01*
X104370389Y-122336271D01*
X104297440Y-122545902D01*
X104297440Y-122350000D01*
X104253162Y-122114683D01*
X104244347Y-122100984D01*
X104780590Y-122100984D01*
X105500000Y-122820395D01*
X106219410Y-122100984D01*
X106163729Y-121870389D01*
X105680922Y-121702378D01*
X105170572Y-121731917D01*
X104836271Y-121870389D01*
X104780590Y-122100984D01*
X104244347Y-122100984D01*
X104114090Y-121898559D01*
X103901890Y-121753569D01*
X103760000Y-121724836D01*
X103760000Y-114276742D01*
X103885317Y-114253162D01*
X104101441Y-114114090D01*
X104246431Y-113901890D01*
X104247012Y-113899016D01*
X104780590Y-113899016D01*
X104836271Y-114129611D01*
X105319078Y-114297622D01*
X105829428Y-114268083D01*
X106163729Y-114129611D01*
X106219410Y-113899016D01*
X105500000Y-113179605D01*
X104780590Y-113899016D01*
X104247012Y-113899016D01*
X104297440Y-113650000D01*
X104297440Y-113487615D01*
X104370389Y-113663729D01*
X104600984Y-113719410D01*
X105320395Y-113000000D01*
X105679605Y-113000000D01*
X106399016Y-113719410D01*
X106629611Y-113663729D01*
X106797622Y-113180922D01*
X106768083Y-112670572D01*
X106629611Y-112336271D01*
X106399016Y-112280590D01*
X105679605Y-113000000D01*
X105320395Y-113000000D01*
X104600984Y-112280590D01*
X104370389Y-112336271D01*
X104297440Y-112545902D01*
X104297440Y-112350000D01*
X104253162Y-112114683D01*
X104244347Y-112100984D01*
X104780590Y-112100984D01*
X105500000Y-112820395D01*
X106219410Y-112100984D01*
X106163729Y-111870389D01*
X105680922Y-111702378D01*
X105170572Y-111731917D01*
X104836271Y-111870389D01*
X104780590Y-112100984D01*
X104244347Y-112100984D01*
X104114090Y-111898559D01*
X103901890Y-111753569D01*
X103650000Y-111702560D01*
X102350000Y-111702560D01*
X102114683Y-111746838D01*
X101898559Y-111885910D01*
X101753569Y-112098110D01*
X101702560Y-112350000D01*
X101702560Y-113650000D01*
X101746838Y-113885317D01*
X101885910Y-114101441D01*
X102098110Y-114246431D01*
X102240000Y-114275164D01*
X102240000Y-119241000D01*
X93784791Y-119241000D01*
X93785223Y-118745519D01*
X93590005Y-118273057D01*
X93228845Y-117911265D01*
X92756724Y-117715223D01*
X92245519Y-117714777D01*
X91773057Y-117909995D01*
X91411265Y-118271155D01*
X91297440Y-118545276D01*
X91297440Y-118350000D01*
X91253162Y-118114683D01*
X91114090Y-117898559D01*
X90901890Y-117753569D01*
X90686121Y-117709875D01*
X90537401Y-117487299D01*
X90490000Y-117439898D01*
X90490000Y-113125536D01*
X90859827Y-112756353D01*
X91000094Y-112418554D01*
X91138854Y-112754380D01*
X91513647Y-113129827D01*
X92003587Y-113333268D01*
X92534086Y-113333731D01*
X93024380Y-113131146D01*
X93399827Y-112756353D01*
X93603268Y-112266413D01*
X93603731Y-111735914D01*
X93401146Y-111245620D01*
X93030000Y-110873826D01*
X93030000Y-102540000D01*
X92972148Y-102249161D01*
X92807401Y-102002599D01*
X91138187Y-100333385D01*
X91534086Y-100333731D01*
X92024380Y-100131146D01*
X92399827Y-99756353D01*
X92603268Y-99266413D01*
X92603731Y-98735914D01*
X92577267Y-98671865D01*
X95915420Y-98671865D01*
X95915420Y-99328135D01*
X95997979Y-99743186D01*
X96233086Y-100095049D01*
X96584949Y-100330156D01*
X97000000Y-100412715D01*
X97415051Y-100330156D01*
X97635000Y-100183191D01*
X97854949Y-100330156D01*
X98270000Y-100412715D01*
X98685051Y-100330156D01*
X98909238Y-100180359D01*
X99246065Y-100344981D01*
X99413000Y-100218068D01*
X99413000Y-99127000D01*
X99667000Y-99127000D01*
X99667000Y-100218068D01*
X99833935Y-100344981D01*
X100217111Y-100157706D01*
X100493420Y-99833373D01*
X100624580Y-99427990D01*
X100624580Y-99127000D01*
X99667000Y-99127000D01*
X99413000Y-99127000D01*
X99393000Y-99127000D01*
X99393000Y-98873000D01*
X99413000Y-98873000D01*
X99413000Y-97781932D01*
X99667000Y-97781932D01*
X99667000Y-98873000D01*
X100624580Y-98873000D01*
X100624580Y-98572010D01*
X100493420Y-98166627D01*
X100217111Y-97842294D01*
X99833935Y-97655019D01*
X99667000Y-97781932D01*
X99413000Y-97781932D01*
X99246065Y-97655019D01*
X98909238Y-97819641D01*
X98685051Y-97669844D01*
X98270000Y-97587285D01*
X97854949Y-97669844D01*
X97635000Y-97816809D01*
X97415051Y-97669844D01*
X97000000Y-97587285D01*
X96584949Y-97669844D01*
X96233086Y-97904951D01*
X95997979Y-98256814D01*
X95915420Y-98671865D01*
X92577267Y-98671865D01*
X92401146Y-98245620D01*
X92026353Y-97870173D01*
X91536413Y-97666732D01*
X91005914Y-97666269D01*
X90515620Y-97868854D01*
X90140173Y-98243647D01*
X89999906Y-98581446D01*
X89861146Y-98245620D01*
X89486353Y-97870173D01*
X88996413Y-97666732D01*
X88465914Y-97666269D01*
X87975620Y-97868854D01*
X87600173Y-98243647D01*
X87396732Y-98733587D01*
X87396269Y-99264086D01*
X87598854Y-99754380D01*
X87973647Y-100129827D01*
X88463587Y-100333268D01*
X88988924Y-100333726D01*
X91510000Y-102854802D01*
X91510000Y-110874464D01*
X91140173Y-111243647D01*
X90999906Y-111581446D01*
X90861146Y-111245620D01*
X90486353Y-110870173D01*
X90461745Y-110859955D01*
X90432148Y-110711161D01*
X90267401Y-110464599D01*
X75420100Y-95617298D01*
X75420100Y-92827602D01*
X75537901Y-92709801D01*
X75681741Y-92494530D01*
X75850150Y-92494530D01*
X76085467Y-92450252D01*
X76301591Y-92311180D01*
X76446581Y-92098980D01*
X76497590Y-91847090D01*
X76497590Y-91291476D01*
X83675632Y-91291476D01*
X83901178Y-91837337D01*
X84318446Y-92255334D01*
X84863913Y-92481832D01*
X85454536Y-92482348D01*
X86000397Y-92256802D01*
X86418394Y-91839534D01*
X86644892Y-91294067D01*
X86645408Y-90703444D01*
X86419862Y-90157583D01*
X86002594Y-89739586D01*
X85457127Y-89513088D01*
X84866504Y-89512572D01*
X84320643Y-89738118D01*
X83902646Y-90155386D01*
X83676148Y-90700853D01*
X83675632Y-91291476D01*
X76497590Y-91291476D01*
X76497590Y-90147830D01*
X76453312Y-89912513D01*
X76314240Y-89696389D01*
X76102040Y-89551399D01*
X75850150Y-89500390D01*
X74150890Y-89500390D01*
X73915573Y-89544668D01*
X73699449Y-89683740D01*
X73554459Y-89895940D01*
X73503450Y-90147830D01*
X73503450Y-91847090D01*
X73547728Y-92082407D01*
X73686800Y-92298531D01*
X73899000Y-92443521D01*
X73913304Y-92446418D01*
X73900100Y-92512800D01*
X73900100Y-95172100D01*
X72797900Y-95172100D01*
X72507061Y-95229952D01*
X72260499Y-95394699D01*
X71988473Y-95666725D01*
X71465914Y-95666269D01*
X70975620Y-95868854D01*
X70600173Y-96243647D01*
X70396732Y-96733587D01*
X70396269Y-97264086D01*
X70598854Y-97754380D01*
X70973647Y-98129827D01*
X71463587Y-98333268D01*
X71994086Y-98333731D01*
X72484380Y-98131146D01*
X72859827Y-97756353D01*
X73000094Y-97418554D01*
X73138854Y-97754380D01*
X73513647Y-98129827D01*
X73970000Y-98319321D01*
X73970000Y-101874464D01*
X73600173Y-102243647D01*
X73396732Y-102733587D01*
X73396269Y-103264086D01*
X73598854Y-103754380D01*
X73973647Y-104129827D01*
X74179489Y-104215300D01*
X66785659Y-104215300D01*
X66797622Y-104180922D01*
X66768083Y-103670572D01*
X66629611Y-103336271D01*
X66399016Y-103280590D01*
X65679605Y-104000000D01*
X65693748Y-104014143D01*
X65514143Y-104193748D01*
X65500000Y-104179605D01*
X65485858Y-104193748D01*
X65306252Y-104014142D01*
X65320395Y-104000000D01*
X64600984Y-103280590D01*
X64370389Y-103336271D01*
X64361569Y-103361616D01*
X64290718Y-103314275D01*
X64253162Y-103114683D01*
X64244347Y-103100984D01*
X64780590Y-103100984D01*
X65500000Y-103820395D01*
X66219410Y-103100984D01*
X66163729Y-102870389D01*
X65680922Y-102702378D01*
X65170572Y-102731917D01*
X64836271Y-102870389D01*
X64780590Y-103100984D01*
X64244347Y-103100984D01*
X64114090Y-102898559D01*
X63901890Y-102753569D01*
X63650000Y-102702560D01*
X62350000Y-102702560D01*
X62114683Y-102746838D01*
X61898559Y-102885910D01*
X61753569Y-103098110D01*
X61702560Y-103350000D01*
X61702560Y-104650000D01*
X61746838Y-104885317D01*
X61885910Y-105101441D01*
X62098110Y-105246431D01*
X62350000Y-105297440D01*
X63650000Y-105297440D01*
X63885317Y-105253162D01*
X64048594Y-105148096D01*
X64413199Y-105512701D01*
X64659761Y-105677448D01*
X64950600Y-105735300D01*
X75294700Y-105735300D01*
X75585539Y-105677448D01*
X75832101Y-105512701D01*
X77011527Y-104333275D01*
X77534086Y-104333731D01*
X78024380Y-104131146D01*
X78399827Y-103756353D01*
X78603268Y-103266413D01*
X78603731Y-102735914D01*
X78401146Y-102245620D01*
X78026353Y-101870173D01*
X77536413Y-101666732D01*
X77005914Y-101666269D01*
X76515620Y-101868854D01*
X76140173Y-102243647D01*
X75999906Y-102581446D01*
X75861146Y-102245620D01*
X75490000Y-101873826D01*
X75490000Y-97836802D01*
X88748638Y-111095440D01*
X88600173Y-111243647D01*
X88396732Y-111733587D01*
X88396269Y-112264086D01*
X88598854Y-112754380D01*
X88970000Y-113126174D01*
X88970000Y-117754700D01*
X88985031Y-117830267D01*
X88898559Y-117885910D01*
X88753569Y-118098110D01*
X88702560Y-118350000D01*
X88702560Y-119241000D01*
X76893602Y-119241000D01*
X68115201Y-110462599D01*
X67868639Y-110297852D01*
X67698888Y-110264086D01*
X68396269Y-110264086D01*
X68598854Y-110754380D01*
X68973647Y-111129827D01*
X69463587Y-111333268D01*
X69994086Y-111333731D01*
X70484380Y-111131146D01*
X70859827Y-110756353D01*
X71000094Y-110418554D01*
X71138854Y-110754380D01*
X71513647Y-111129827D01*
X72003587Y-111333268D01*
X72534086Y-111333731D01*
X73024380Y-111131146D01*
X73399827Y-110756353D01*
X73603268Y-110266413D01*
X73603731Y-109735914D01*
X73401146Y-109245620D01*
X73026353Y-108870173D01*
X72536413Y-108666732D01*
X72005914Y-108666269D01*
X71515620Y-108868854D01*
X71140173Y-109243647D01*
X70999906Y-109581446D01*
X70861146Y-109245620D01*
X70486353Y-108870173D01*
X69996413Y-108666732D01*
X69465914Y-108666269D01*
X68975620Y-108868854D01*
X68600173Y-109243647D01*
X68396732Y-109733587D01*
X68396269Y-110264086D01*
X67698888Y-110264086D01*
X67577800Y-110240000D01*
X58395536Y-110240000D01*
X58026353Y-109870173D01*
X57536413Y-109666732D01*
X57011076Y-109666274D01*
X50760500Y-103415698D01*
X50760500Y-97264086D01*
X53396269Y-97264086D01*
X53598854Y-97754380D01*
X53973647Y-98129827D01*
X54463587Y-98333268D01*
X54994086Y-98333731D01*
X55484380Y-98131146D01*
X55859827Y-97756353D01*
X56000094Y-97418554D01*
X56138854Y-97754380D01*
X56513647Y-98129827D01*
X57003587Y-98333268D01*
X57534086Y-98333731D01*
X58024380Y-98131146D01*
X58399827Y-97756353D01*
X58603268Y-97266413D01*
X58603726Y-96741076D01*
X60697901Y-94646901D01*
X60862648Y-94400340D01*
X60881421Y-94305962D01*
X61000397Y-94256802D01*
X61418394Y-93839534D01*
X61644892Y-93294067D01*
X61645408Y-92703444D01*
X61419862Y-92157583D01*
X61002594Y-91739586D01*
X60457127Y-91513088D01*
X59866504Y-91512572D01*
X59320643Y-91738118D01*
X58902646Y-92155386D01*
X58676148Y-92700853D01*
X58675632Y-93291476D01*
X58901178Y-93837337D01*
X59129320Y-94065878D01*
X57528473Y-95666725D01*
X57005914Y-95666269D01*
X56515620Y-95868854D01*
X56140173Y-96243647D01*
X55999906Y-96581446D01*
X55861146Y-96245620D01*
X55486353Y-95870173D01*
X54996413Y-95666732D01*
X54465914Y-95666269D01*
X53975620Y-95868854D01*
X53600173Y-96243647D01*
X53396732Y-96733587D01*
X53396269Y-97264086D01*
X50760500Y-97264086D01*
X50760500Y-94494530D01*
X50850150Y-94494530D01*
X51085467Y-94450252D01*
X51301591Y-94311180D01*
X51446581Y-94098980D01*
X51497590Y-93847090D01*
X51497590Y-92147830D01*
X51453312Y-91912513D01*
X51314240Y-91696389D01*
X51102040Y-91551399D01*
X50850150Y-91500390D01*
X49150890Y-91500390D01*
X48915573Y-91544668D01*
X48699449Y-91683740D01*
X48554459Y-91895940D01*
X48503450Y-92147830D01*
X44313686Y-92147830D01*
X46239926Y-82463967D01*
X56074430Y-82463967D01*
X56074430Y-83536033D01*
X56179900Y-84066268D01*
X56480254Y-84515779D01*
X56929765Y-84816133D01*
X57460000Y-84921603D01*
X57990235Y-84816133D01*
X58439746Y-84515779D01*
X58730000Y-84081384D01*
X59020254Y-84515779D01*
X59240000Y-84662609D01*
X59240000Y-85270000D01*
X59297852Y-85560839D01*
X59462599Y-85807401D01*
X64396725Y-90741527D01*
X64396269Y-91264086D01*
X64598854Y-91754380D01*
X64973647Y-92129827D01*
X65463587Y-92333268D01*
X65994086Y-92333731D01*
X66484380Y-92131146D01*
X66681681Y-91934188D01*
X67515417Y-91934188D01*
X67577071Y-92169800D01*
X68077480Y-92345927D01*
X68607199Y-92317148D01*
X68962929Y-92169800D01*
X69024583Y-91934188D01*
X68270000Y-91179605D01*
X67515417Y-91934188D01*
X66681681Y-91934188D01*
X66859827Y-91756353D01*
X66993314Y-91434882D01*
X67100200Y-91692929D01*
X67335812Y-91754583D01*
X68090395Y-91000000D01*
X68449605Y-91000000D01*
X69204188Y-91754583D01*
X69439800Y-91692929D01*
X69615927Y-91192520D01*
X69587148Y-90662801D01*
X69439800Y-90307071D01*
X69204188Y-90245417D01*
X68449605Y-91000000D01*
X68090395Y-91000000D01*
X67335812Y-90245417D01*
X67100200Y-90307071D01*
X67001917Y-90586312D01*
X66861146Y-90245620D01*
X66681652Y-90065812D01*
X67515417Y-90065812D01*
X68270000Y-90820395D01*
X69024583Y-90065812D01*
X68962929Y-89830200D01*
X68462520Y-89654073D01*
X67932801Y-89682852D01*
X67577071Y-89830200D01*
X67515417Y-90065812D01*
X66681652Y-90065812D01*
X66486353Y-89870173D01*
X65996413Y-89666732D01*
X65471076Y-89666274D01*
X61154802Y-85350000D01*
X90702560Y-85350000D01*
X90702560Y-86650000D01*
X90746838Y-86885317D01*
X90885910Y-87101441D01*
X91098110Y-87246431D01*
X91350000Y-87297440D01*
X92650000Y-87297440D01*
X92885317Y-87253162D01*
X93101441Y-87114090D01*
X93246431Y-86901890D01*
X93247012Y-86899016D01*
X93780590Y-86899016D01*
X93836271Y-87129611D01*
X94319078Y-87297622D01*
X94829428Y-87268083D01*
X95163729Y-87129611D01*
X95219410Y-86899016D01*
X94500000Y-86179605D01*
X93780590Y-86899016D01*
X93247012Y-86899016D01*
X93297440Y-86650000D01*
X93297440Y-86487615D01*
X93370389Y-86663729D01*
X93600984Y-86719410D01*
X94320395Y-86000000D01*
X94679605Y-86000000D01*
X95399016Y-86719410D01*
X95629611Y-86663729D01*
X95797622Y-86180922D01*
X95768083Y-85670572D01*
X95629611Y-85336271D01*
X95399016Y-85280590D01*
X94679605Y-86000000D01*
X94320395Y-86000000D01*
X93600984Y-85280590D01*
X93370389Y-85336271D01*
X93297440Y-85545902D01*
X93297440Y-85350000D01*
X93253162Y-85114683D01*
X93244347Y-85100984D01*
X93780590Y-85100984D01*
X94500000Y-85820395D01*
X95056308Y-85264086D01*
X98396269Y-85264086D01*
X98598854Y-85754380D01*
X98973647Y-86129827D01*
X99463587Y-86333268D01*
X99988924Y-86333726D01*
X103465100Y-89809902D01*
X103465100Y-90000000D01*
X103522952Y-90290839D01*
X103687699Y-90537401D01*
X103934261Y-90702148D01*
X103992105Y-90713654D01*
X103997979Y-90743186D01*
X104233086Y-91095049D01*
X104584949Y-91330156D01*
X105000000Y-91412715D01*
X105415051Y-91330156D01*
X105635000Y-91183191D01*
X105854949Y-91330156D01*
X106270000Y-91412715D01*
X106685051Y-91330156D01*
X106905000Y-91183191D01*
X107124949Y-91330156D01*
X107540000Y-91412715D01*
X107554900Y-91409751D01*
X107554900Y-101124900D01*
X107612752Y-101415739D01*
X107777499Y-101662301D01*
X107856725Y-101741527D01*
X107856269Y-102264086D01*
X108058854Y-102754380D01*
X108433647Y-103129827D01*
X108923587Y-103333268D01*
X109454086Y-103333731D01*
X109944380Y-103131146D01*
X110319827Y-102756353D01*
X110523268Y-102266413D01*
X110523731Y-101735914D01*
X110344236Y-101301500D01*
X115464060Y-101301500D01*
X115464060Y-102698500D01*
X115508338Y-102933817D01*
X115647410Y-103149941D01*
X115859610Y-103294931D01*
X116111500Y-103345940D01*
X117508500Y-103345940D01*
X117743817Y-103301662D01*
X117959941Y-103162590D01*
X118104931Y-102950390D01*
X118155940Y-102698500D01*
X118155940Y-101301500D01*
X118111662Y-101066183D01*
X117972590Y-100850059D01*
X117760390Y-100705069D01*
X117508500Y-100654060D01*
X116111500Y-100654060D01*
X115876183Y-100698338D01*
X115660059Y-100837410D01*
X115515069Y-101049610D01*
X115464060Y-101301500D01*
X110344236Y-101301500D01*
X110321146Y-101245620D01*
X109946353Y-100870173D01*
X109456413Y-100666732D01*
X109074900Y-100666399D01*
X109074900Y-93350000D01*
X119702560Y-93350000D01*
X119702560Y-94650000D01*
X119746838Y-94885317D01*
X119885910Y-95101441D01*
X120098110Y-95246431D01*
X120350000Y-95297440D01*
X121650000Y-95297440D01*
X121885317Y-95253162D01*
X122101441Y-95114090D01*
X122246431Y-94901890D01*
X122247012Y-94899016D01*
X122780590Y-94899016D01*
X122836271Y-95129611D01*
X123319078Y-95297622D01*
X123829428Y-95268083D01*
X124163729Y-95129611D01*
X124219410Y-94899016D01*
X123500000Y-94179605D01*
X122780590Y-94899016D01*
X122247012Y-94899016D01*
X122297440Y-94650000D01*
X122297440Y-94487615D01*
X122370389Y-94663729D01*
X122600984Y-94719410D01*
X123320395Y-94000000D01*
X123679605Y-94000000D01*
X124399016Y-94719410D01*
X124629611Y-94663729D01*
X124797622Y-94180922D01*
X124768083Y-93670572D01*
X124629611Y-93336271D01*
X124399016Y-93280590D01*
X123679605Y-94000000D01*
X123320395Y-94000000D01*
X122600984Y-93280590D01*
X122370389Y-93336271D01*
X122297440Y-93545902D01*
X122297440Y-93350000D01*
X122253162Y-93114683D01*
X122244347Y-93100984D01*
X122780590Y-93100984D01*
X123500000Y-93820395D01*
X124219410Y-93100984D01*
X124163729Y-92870389D01*
X123680922Y-92702378D01*
X123170572Y-92731917D01*
X122836271Y-92870389D01*
X122780590Y-93100984D01*
X122244347Y-93100984D01*
X122148096Y-92951406D01*
X123300001Y-91799501D01*
X123464748Y-91552939D01*
X123522600Y-91262100D01*
X123522600Y-87111000D01*
X128923560Y-87111000D01*
X128923560Y-88889000D01*
X128967838Y-89124317D01*
X129106910Y-89340441D01*
X129319110Y-89485431D01*
X129571000Y-89536440D01*
X131349000Y-89536440D01*
X131584317Y-89492162D01*
X131800441Y-89353090D01*
X131945431Y-89140890D01*
X131959341Y-89072196D01*
X134647409Y-89072196D01*
X134732467Y-89327539D01*
X135301965Y-89535516D01*
X135907700Y-89509723D01*
X136347533Y-89327539D01*
X136432591Y-89072196D01*
X135540000Y-88179605D01*
X134647409Y-89072196D01*
X131959341Y-89072196D01*
X131996440Y-88889000D01*
X131996440Y-87761965D01*
X134004484Y-87761965D01*
X134030277Y-88367700D01*
X134212461Y-88807533D01*
X134467804Y-88892591D01*
X135360395Y-88000000D01*
X135719605Y-88000000D01*
X136612196Y-88892591D01*
X136867539Y-88807533D01*
X137075516Y-88238035D01*
X137049723Y-87632300D01*
X136867539Y-87192467D01*
X136612196Y-87107409D01*
X135719605Y-88000000D01*
X135360395Y-88000000D01*
X134467804Y-87107409D01*
X134212461Y-87192467D01*
X134004484Y-87761965D01*
X131996440Y-87761965D01*
X131996440Y-87111000D01*
X131961970Y-86927804D01*
X134647409Y-86927804D01*
X135540000Y-87820395D01*
X136432591Y-86927804D01*
X136347533Y-86672461D01*
X135778035Y-86464484D01*
X135172300Y-86490277D01*
X134732467Y-86672461D01*
X134647409Y-86927804D01*
X131961970Y-86927804D01*
X131952162Y-86875683D01*
X131813090Y-86659559D01*
X131600890Y-86514569D01*
X131349000Y-86463560D01*
X129571000Y-86463560D01*
X129335683Y-86507838D01*
X129119559Y-86646910D01*
X128974569Y-86859110D01*
X128923560Y-87111000D01*
X123522600Y-87111000D01*
X123522600Y-85961638D01*
X123577071Y-86169800D01*
X124077480Y-86345927D01*
X124607199Y-86317148D01*
X124962929Y-86169800D01*
X125024583Y-85934188D01*
X124270000Y-85179605D01*
X124255858Y-85193748D01*
X124076253Y-85014143D01*
X124090395Y-85000000D01*
X124449605Y-85000000D01*
X125204188Y-85754583D01*
X125439800Y-85692929D01*
X125615927Y-85192520D01*
X125587148Y-84662801D01*
X125439800Y-84307071D01*
X125204188Y-84245417D01*
X124449605Y-85000000D01*
X124090395Y-85000000D01*
X124076253Y-84985858D01*
X124255858Y-84806253D01*
X124270000Y-84820395D01*
X125024583Y-84065812D01*
X124962929Y-83830200D01*
X124462520Y-83654073D01*
X123932801Y-83682852D01*
X123577071Y-83830200D01*
X123522600Y-84038362D01*
X123522600Y-79976400D01*
X123464748Y-79685561D01*
X123300001Y-79438999D01*
X122985778Y-79124776D01*
X123104931Y-78950390D01*
X123155940Y-78698500D01*
X123155940Y-77301500D01*
X123111662Y-77066183D01*
X122972590Y-76850059D01*
X122760390Y-76705069D01*
X122508500Y-76654060D01*
X121111500Y-76654060D01*
X120876183Y-76698338D01*
X120660059Y-76837410D01*
X120515069Y-77049610D01*
X120464060Y-77301500D01*
X120464060Y-78698500D01*
X120508338Y-78933817D01*
X120647410Y-79149941D01*
X120859610Y-79294931D01*
X121111500Y-79345940D01*
X121128767Y-79345940D01*
X121272599Y-79561201D01*
X122002600Y-80291202D01*
X122002600Y-83669301D01*
X121996413Y-83666732D01*
X121465914Y-83666269D01*
X120975620Y-83868854D01*
X120600173Y-84243647D01*
X120396732Y-84733587D01*
X120396269Y-85264086D01*
X120598854Y-85754380D01*
X120973647Y-86129827D01*
X121463587Y-86333268D01*
X121994086Y-86333731D01*
X122002600Y-86330213D01*
X122002600Y-90947298D01*
X120462599Y-92487299D01*
X120314275Y-92709282D01*
X120114683Y-92746838D01*
X119898559Y-92885910D01*
X119753569Y-93098110D01*
X119702560Y-93350000D01*
X109074900Y-93350000D01*
X109074900Y-90000000D01*
X109017048Y-89709161D01*
X108852301Y-89462599D01*
X108605739Y-89297852D01*
X108547895Y-89286346D01*
X108542021Y-89256814D01*
X108306914Y-88904951D01*
X107955051Y-88669844D01*
X107540000Y-88587285D01*
X107124949Y-88669844D01*
X106996497Y-88755673D01*
X106972148Y-88633261D01*
X106807401Y-88386699D01*
X106578665Y-88233863D01*
X103608888Y-85264086D01*
X108856269Y-85264086D01*
X109058854Y-85754380D01*
X109433647Y-86129827D01*
X109923587Y-86333268D01*
X110454086Y-86333731D01*
X110944380Y-86131146D01*
X111319827Y-85756353D01*
X111523268Y-85266413D01*
X111523731Y-84735914D01*
X111321146Y-84245620D01*
X110946353Y-83870173D01*
X110456413Y-83666732D01*
X109925914Y-83666269D01*
X109435620Y-83868854D01*
X109060173Y-84243647D01*
X108856732Y-84733587D01*
X108856269Y-85264086D01*
X103608888Y-85264086D01*
X103603275Y-85258473D01*
X103603731Y-84735914D01*
X103401146Y-84245620D01*
X103026353Y-83870173D01*
X102536413Y-83666732D01*
X102005914Y-83666269D01*
X101515620Y-83868854D01*
X101140173Y-84243647D01*
X100999906Y-84581446D01*
X100861146Y-84245620D01*
X100486353Y-83870173D01*
X99996413Y-83666732D01*
X99465914Y-83666269D01*
X98975620Y-83868854D01*
X98600173Y-84243647D01*
X98396732Y-84733587D01*
X98396269Y-85264086D01*
X95056308Y-85264086D01*
X95219410Y-85100984D01*
X95163729Y-84870389D01*
X94680922Y-84702378D01*
X94170572Y-84731917D01*
X93836271Y-84870389D01*
X93780590Y-85100984D01*
X93244347Y-85100984D01*
X93114090Y-84898559D01*
X92901890Y-84753569D01*
X92650000Y-84702560D01*
X91350000Y-84702560D01*
X91114683Y-84746838D01*
X90898559Y-84885910D01*
X90753569Y-85098110D01*
X90702560Y-85350000D01*
X61154802Y-85350000D01*
X60760000Y-84955198D01*
X60760000Y-84662609D01*
X60979746Y-84515779D01*
X61280100Y-84066268D01*
X61281950Y-84056968D01*
X61308501Y-84146677D01*
X61650056Y-84568658D01*
X62127097Y-84827810D01*
X62198725Y-84841993D01*
X62413000Y-84719339D01*
X62413000Y-83127000D01*
X62667000Y-83127000D01*
X62667000Y-84719339D01*
X62881275Y-84841993D01*
X62952903Y-84827810D01*
X63429944Y-84568658D01*
X63771499Y-84146677D01*
X63925570Y-83626110D01*
X63925570Y-83264086D01*
X70396269Y-83264086D01*
X70598854Y-83754380D01*
X70973647Y-84129827D01*
X71463587Y-84333268D01*
X71994086Y-84333731D01*
X72484380Y-84131146D01*
X72859827Y-83756353D01*
X73000094Y-83418554D01*
X73138854Y-83754380D01*
X73513647Y-84129827D01*
X74003587Y-84333268D01*
X74534086Y-84333731D01*
X75024380Y-84131146D01*
X75399827Y-83756353D01*
X75603268Y-83266413D01*
X75603731Y-82735914D01*
X75401146Y-82245620D01*
X75026353Y-81870173D01*
X74536413Y-81666732D01*
X74005914Y-81666269D01*
X73515620Y-81868854D01*
X73140173Y-82243647D01*
X72999906Y-82581446D01*
X72861146Y-82245620D01*
X72486353Y-81870173D01*
X71996413Y-81666732D01*
X71465914Y-81666269D01*
X70975620Y-81868854D01*
X70600173Y-82243647D01*
X70396732Y-82733587D01*
X70396269Y-83264086D01*
X63925570Y-83264086D01*
X63925570Y-83127000D01*
X62667000Y-83127000D01*
X62413000Y-83127000D01*
X62393000Y-83127000D01*
X62393000Y-82873000D01*
X62413000Y-82873000D01*
X62413000Y-81280661D01*
X62667000Y-81280661D01*
X62667000Y-82873000D01*
X63925570Y-82873000D01*
X63925570Y-82373890D01*
X63771499Y-81853323D01*
X63429944Y-81431342D01*
X62952903Y-81172190D01*
X62881275Y-81158007D01*
X62667000Y-81280661D01*
X62413000Y-81280661D01*
X62198725Y-81158007D01*
X62127097Y-81172190D01*
X61650056Y-81431342D01*
X61308501Y-81853323D01*
X61281950Y-81943032D01*
X61280100Y-81933732D01*
X60994059Y-81505643D01*
X62149702Y-80350000D01*
X78702560Y-80350000D01*
X78702560Y-81650000D01*
X78746838Y-81885317D01*
X78885910Y-82101441D01*
X79098110Y-82246431D01*
X79350000Y-82297440D01*
X80650000Y-82297440D01*
X80885317Y-82253162D01*
X81101441Y-82114090D01*
X81246431Y-81901890D01*
X81247012Y-81899016D01*
X81780590Y-81899016D01*
X81836271Y-82129611D01*
X82319078Y-82297622D01*
X82829428Y-82268083D01*
X83163729Y-82129611D01*
X83219410Y-81899016D01*
X82500000Y-81179605D01*
X81780590Y-81899016D01*
X81247012Y-81899016D01*
X81297440Y-81650000D01*
X81297440Y-81487615D01*
X81370389Y-81663729D01*
X81600984Y-81719410D01*
X82320395Y-81000000D01*
X82679605Y-81000000D01*
X83399016Y-81719410D01*
X83629611Y-81663729D01*
X83797622Y-81180922D01*
X83768083Y-80670572D01*
X83629611Y-80336271D01*
X83399016Y-80280590D01*
X82679605Y-81000000D01*
X82320395Y-81000000D01*
X81600984Y-80280590D01*
X81370389Y-80336271D01*
X81297440Y-80545902D01*
X81297440Y-80350000D01*
X81253162Y-80114683D01*
X81244347Y-80100984D01*
X81780590Y-80100984D01*
X82500000Y-80820395D01*
X83219410Y-80100984D01*
X83163729Y-79870389D01*
X82680922Y-79702378D01*
X82170572Y-79731917D01*
X81836271Y-79870389D01*
X81780590Y-80100984D01*
X81244347Y-80100984D01*
X81114090Y-79898559D01*
X80901890Y-79753569D01*
X80650000Y-79702560D01*
X79350000Y-79702560D01*
X79114683Y-79746838D01*
X78898559Y-79885910D01*
X78753569Y-80098110D01*
X78702560Y-80350000D01*
X62149702Y-80350000D01*
X63827837Y-78671865D01*
X103915420Y-78671865D01*
X103915420Y-79328135D01*
X103997979Y-79743186D01*
X104233086Y-80095049D01*
X104245453Y-80103312D01*
X104297852Y-80366739D01*
X104462599Y-80613301D01*
X104709161Y-80778048D01*
X105000000Y-80835900D01*
X111547298Y-80835900D01*
X116248799Y-85537401D01*
X116464060Y-85681233D01*
X116464060Y-85698500D01*
X116508338Y-85933817D01*
X116647410Y-86149941D01*
X116859610Y-86294931D01*
X117111500Y-86345940D01*
X118508500Y-86345940D01*
X118743817Y-86301662D01*
X118959941Y-86162590D01*
X119104931Y-85950390D01*
X119155940Y-85698500D01*
X119155940Y-84301500D01*
X119111662Y-84066183D01*
X118972590Y-83850059D01*
X118760390Y-83705069D01*
X118508500Y-83654060D01*
X117111500Y-83654060D01*
X116876183Y-83698338D01*
X116683395Y-83822393D01*
X112399501Y-79538499D01*
X112152939Y-79373752D01*
X111862100Y-79315900D01*
X108624580Y-79315900D01*
X108624580Y-78671865D01*
X108543468Y-78264086D01*
X112856269Y-78264086D01*
X113058854Y-78754380D01*
X113433647Y-79129827D01*
X113923587Y-79333268D01*
X114454086Y-79333731D01*
X114944380Y-79131146D01*
X115319827Y-78756353D01*
X115523268Y-78266413D01*
X115523731Y-77735914D01*
X115321146Y-77245620D01*
X114946353Y-76870173D01*
X114456413Y-76666732D01*
X113925914Y-76666269D01*
X113435620Y-76868854D01*
X113060173Y-77243647D01*
X112856732Y-77733587D01*
X112856269Y-78264086D01*
X108543468Y-78264086D01*
X108542021Y-78256814D01*
X108306914Y-77904951D01*
X107955051Y-77669844D01*
X107540000Y-77587285D01*
X107124949Y-77669844D01*
X107030000Y-77733287D01*
X107030000Y-71774802D01*
X108471527Y-70333275D01*
X108994086Y-70333731D01*
X109484380Y-70131146D01*
X109859827Y-69756353D01*
X110000094Y-69418554D01*
X110138854Y-69754380D01*
X110513647Y-70129827D01*
X111003587Y-70333268D01*
X111534086Y-70333731D01*
X112024380Y-70131146D01*
X112399827Y-69756353D01*
X112603268Y-69266413D01*
X112603731Y-68735914D01*
X112401146Y-68245620D01*
X112026353Y-67870173D01*
X111536413Y-67666732D01*
X111005914Y-67666269D01*
X110515620Y-67868854D01*
X110140173Y-68243647D01*
X109999906Y-68581446D01*
X109861146Y-68245620D01*
X109486353Y-67870173D01*
X108996413Y-67666732D01*
X108465914Y-67666269D01*
X107975620Y-67868854D01*
X107600173Y-68243647D01*
X107396732Y-68733587D01*
X107396274Y-69258924D01*
X105732599Y-70922599D01*
X105567852Y-71169161D01*
X105510000Y-71460000D01*
X105510000Y-77733287D01*
X105415051Y-77669844D01*
X105000000Y-77587285D01*
X104584949Y-77669844D01*
X104233086Y-77904951D01*
X103997979Y-78256814D01*
X103915420Y-78671865D01*
X63827837Y-78671865D01*
X68227141Y-74272561D01*
X68350000Y-74297440D01*
X69650000Y-74297440D01*
X69885317Y-74253162D01*
X70101441Y-74114090D01*
X70246431Y-73901890D01*
X70247012Y-73899016D01*
X70780590Y-73899016D01*
X70836271Y-74129611D01*
X71319078Y-74297622D01*
X71829428Y-74268083D01*
X72163729Y-74129611D01*
X72219410Y-73899016D01*
X71500000Y-73179605D01*
X70780590Y-73899016D01*
X70247012Y-73899016D01*
X70297440Y-73650000D01*
X70297440Y-73487615D01*
X70370389Y-73663729D01*
X70600984Y-73719410D01*
X71320395Y-73000000D01*
X71679605Y-73000000D01*
X72399016Y-73719410D01*
X72629611Y-73663729D01*
X72764639Y-73275703D01*
X89063000Y-73275703D01*
X89063000Y-74884297D01*
X89169340Y-75418906D01*
X89472172Y-75872125D01*
X89925391Y-76174957D01*
X90460000Y-76281297D01*
X90994609Y-76174957D01*
X91447828Y-75872125D01*
X91740349Y-75434338D01*
X91757941Y-75493941D01*
X92101974Y-75919630D01*
X92582723Y-76181260D01*
X92656930Y-76196220D01*
X92873000Y-76073720D01*
X92873000Y-74207000D01*
X92853000Y-74207000D01*
X92853000Y-73953000D01*
X92873000Y-73953000D01*
X92873000Y-72086280D01*
X93127000Y-72086280D01*
X93127000Y-73953000D01*
X93147000Y-73953000D01*
X93147000Y-74207000D01*
X93127000Y-74207000D01*
X93127000Y-76073720D01*
X93343070Y-76196220D01*
X93417277Y-76181260D01*
X93898026Y-75919630D01*
X94242059Y-75493941D01*
X94259651Y-75434338D01*
X94552172Y-75872125D01*
X95005391Y-76174957D01*
X95540000Y-76281297D01*
X96074609Y-76174957D01*
X96527828Y-75872125D01*
X96830660Y-75418906D01*
X96937000Y-74884297D01*
X96937000Y-73275703D01*
X96830660Y-72741094D01*
X96527828Y-72287875D01*
X96074609Y-71985043D01*
X95540000Y-71878703D01*
X95005391Y-71985043D01*
X94552172Y-72287875D01*
X94259651Y-72725662D01*
X94242059Y-72666059D01*
X93898026Y-72240370D01*
X93417277Y-71978740D01*
X93343070Y-71963780D01*
X93127000Y-72086280D01*
X92873000Y-72086280D01*
X92656930Y-71963780D01*
X92582723Y-71978740D01*
X92101974Y-72240370D01*
X91757941Y-72666059D01*
X91740349Y-72725662D01*
X91447828Y-72287875D01*
X90994609Y-71985043D01*
X90460000Y-71878703D01*
X89925391Y-71985043D01*
X89472172Y-72287875D01*
X89169340Y-72741094D01*
X89063000Y-73275703D01*
X72764639Y-73275703D01*
X72797622Y-73180922D01*
X72768083Y-72670572D01*
X72629611Y-72336271D01*
X72399016Y-72280590D01*
X71679605Y-73000000D01*
X71320395Y-73000000D01*
X70600984Y-72280590D01*
X70370389Y-72336271D01*
X70297440Y-72545902D01*
X70297440Y-72350000D01*
X70253162Y-72114683D01*
X70244347Y-72100984D01*
X70780590Y-72100984D01*
X71500000Y-72820395D01*
X72219410Y-72100984D01*
X72163729Y-71870389D01*
X71680922Y-71702378D01*
X71170572Y-71731917D01*
X70836271Y-71870389D01*
X70780590Y-72100984D01*
X70244347Y-72100984D01*
X70114090Y-71898559D01*
X69901890Y-71753569D01*
X69650000Y-71702560D01*
X68350000Y-71702560D01*
X68114683Y-71746838D01*
X67898559Y-71885910D01*
X67753569Y-72098110D01*
X67709875Y-72313879D01*
X67487299Y-72462599D01*
X67322552Y-72709161D01*
X67264700Y-73000000D01*
X67264700Y-73085398D01*
X59462599Y-80887499D01*
X59297852Y-81134061D01*
X59260075Y-81323978D01*
X59020254Y-81484221D01*
X58730000Y-81918616D01*
X58439746Y-81484221D01*
X57990235Y-81183867D01*
X57460000Y-81078397D01*
X56929765Y-81183867D01*
X56480254Y-81484221D01*
X56179900Y-81933732D01*
X56074430Y-82463967D01*
X46239926Y-82463967D01*
X47831577Y-74462200D01*
X57929225Y-59350000D01*
X107702560Y-59350000D01*
X107702560Y-60650000D01*
X107746838Y-60885317D01*
X107885910Y-61101441D01*
X108098110Y-61246431D01*
X108350000Y-61297440D01*
X109650000Y-61297440D01*
X109885317Y-61253162D01*
X110101441Y-61114090D01*
X110246431Y-60901890D01*
X110247012Y-60899016D01*
X110780590Y-60899016D01*
X110836271Y-61129611D01*
X111319078Y-61297622D01*
X111829428Y-61268083D01*
X112163729Y-61129611D01*
X112219410Y-60899016D01*
X111500000Y-60179605D01*
X110780590Y-60899016D01*
X110247012Y-60899016D01*
X110297440Y-60650000D01*
X110297440Y-60487615D01*
X110370389Y-60663729D01*
X110600984Y-60719410D01*
X111320395Y-60000000D01*
X111679605Y-60000000D01*
X112399016Y-60719410D01*
X112629611Y-60663729D01*
X112797622Y-60180922D01*
X112768083Y-59670572D01*
X112629611Y-59336271D01*
X112399016Y-59280590D01*
X111679605Y-60000000D01*
X111320395Y-60000000D01*
X110600984Y-59280590D01*
X110370389Y-59336271D01*
X110297440Y-59545902D01*
X110297440Y-59350000D01*
X110253162Y-59114683D01*
X110244347Y-59100984D01*
X110780590Y-59100984D01*
X111500000Y-59820395D01*
X112219410Y-59100984D01*
X112163729Y-58870389D01*
X111680922Y-58702378D01*
X111170572Y-58731917D01*
X110836271Y-58870389D01*
X110780590Y-59100984D01*
X110244347Y-59100984D01*
X110114090Y-58898559D01*
X109901890Y-58753569D01*
X109650000Y-58702560D01*
X108350000Y-58702560D01*
X108114683Y-58746838D01*
X107898559Y-58885910D01*
X107753569Y-59098110D01*
X107702560Y-59350000D01*
X57929225Y-59350000D01*
X58898852Y-57898852D01*
X75462200Y-46831577D01*
X95000000Y-42945267D01*
X114537800Y-46831577D01*
M02*
