G04 start of page 8 for group -4079 idx -4079 *
G04 Title: (unknown), topsilk *
G04 Creator: pcb 20110918 *
G04 CreationDate: Mon Sep  2 05:41:51 2013 UTC *
G04 For: mokus *
G04 Format: Gerber/RS-274X *
G04 PCB-Dimensions: 110000 80000 *
G04 PCB-Coordinate-Origin: lower left *
%MOIN*%
%FSLAX25Y25*%
%LNTOPSILK*%
%ADD49C,0.0039*%
%ADD48C,0.0080*%
%ADD47C,0.0100*%
%ADD46C,0.0060*%
G54D46*X4500Y57200D02*X5300Y58000D01*
Y54000D01*
X4500D02*X6000D01*
G54D47*X30000Y70000D02*X110000D01*
Y80000D02*Y70000D01*
X30000Y80000D02*X110000D01*
X30000D02*Y70000D01*
X40000Y80000D02*Y70000D01*
X30000Y80000D02*X40000D01*
X0Y60000D02*X30000D01*
Y80000D02*Y60000D01*
X0Y80000D02*X30000D01*
X0D02*Y60000D01*
X10000Y70000D02*Y60000D01*
X0Y70000D02*X10000D01*
X30000Y10000D02*X110000D01*
X30000D02*Y0D01*
X110000D01*
Y10000D02*Y0D01*
X100000Y10000D02*Y0D01*
X110000D01*
G54D48*X19032Y20760D02*X22968D01*
X19032Y28240D02*X22968D01*
G54D49*X12797Y34838D02*X25101D01*
X12797Y46255D02*Y34838D01*
Y46255D02*X23920D01*
X25101Y45074D02*Y34838D01*
X23920Y46255D02*X25101Y45074D01*
G54D48*X44121Y26621D02*X67979D01*
X44121Y53379D02*Y26621D01*
Y53379D02*X70879D01*
Y29521D01*
X67979Y26621D01*
X68979Y29521D02*G75*G03X68979Y29521I-1000J0D01*G01*
G54D47*X110000Y60000D02*Y20000D01*
X90000Y60000D02*X110000D01*
X90000D02*Y20000D01*
X110000D01*
X100000Y30000D02*X110000D01*
X100000D02*Y20000D01*
X0Y10000D02*X30000D01*
X0D02*Y0D01*
X30000D01*
Y10000D02*Y0D01*
X20000Y10000D02*Y0D01*
X30000D01*
G54D46*X93500Y15000D02*Y11000D01*
X93000Y15000D02*X95000D01*
X95500Y14500D01*
Y13500D01*
X95000Y13000D02*X95500Y13500D01*
X93500Y13000D02*X95000D01*
X96700Y14500D02*Y11500D01*
Y14500D02*X97200Y15000D01*
X98200D01*
X98700Y14500D01*
Y11500D01*
X98200Y11000D02*X98700Y11500D01*
X97200Y11000D02*X98200D01*
X96700Y11500D02*X97200Y11000D01*
X99900Y15000D02*X101900D01*
X102400Y14500D01*
Y13500D01*
X101900Y13000D02*X102400Y13500D01*
X100400Y13000D02*X101900D01*
X100400Y15000D02*Y11000D01*
X101200Y13000D02*X102400Y11000D01*
X103600Y15000D02*X105600D01*
X104600D02*Y11000D01*
X106800Y14000D02*Y11000D01*
Y14000D02*X107500Y15000D01*
X108600D01*
X109300Y14000D01*
Y11000D01*
X106800Y13000D02*X109300D01*
X32000Y68500D02*Y64500D01*
X31500Y68500D02*X33500D01*
X34000Y68000D01*
Y67000D01*
X33500Y66500D02*X34000Y67000D01*
X32000Y66500D02*X33500D01*
X35200Y68000D02*Y65000D01*
Y68000D02*X35700Y68500D01*
X36700D01*
X37200Y68000D01*
Y65000D01*
X36700Y64500D02*X37200Y65000D01*
X35700Y64500D02*X36700D01*
X35200Y65000D02*X35700Y64500D01*
X38400Y68500D02*X40400D01*
X40900Y68000D01*
Y67000D01*
X40400Y66500D02*X40900Y67000D01*
X38900Y66500D02*X40400D01*
X38900Y68500D02*Y64500D01*
X39700Y66500D02*X40900Y64500D01*
X42100Y68500D02*X44100D01*
X43100D02*Y64500D01*
X46000D02*X47300D01*
X45300Y65200D02*X46000Y64500D01*
X45300Y67800D02*Y65200D01*
Y67800D02*X46000Y68500D01*
X47300D01*
X11500Y58000D02*Y54000D01*
X11000Y58000D02*X13000D01*
X13500Y57500D01*
Y56500D01*
X13000Y56000D02*X13500Y56500D01*
X11500Y56000D02*X13000D01*
X15200Y58000D02*Y54000D01*
X16500Y58000D02*X17200Y57300D01*
Y54700D01*
X16500Y54000D02*X17200Y54700D01*
X14700Y54000D02*X16500D01*
X14700Y58000D02*X16500D01*
X18400D02*X19400D01*
X18900D02*Y54000D01*
X18400D02*X19400D01*
X55500Y32500D02*Y29000D01*
X56000Y28500D01*
X57000D01*
X57500Y29000D01*
Y32500D02*Y29000D01*
X58700Y31700D02*X59500Y32500D01*
Y28500D01*
X58700D02*X60200D01*
X85000Y20500D02*X89000D01*
X85000Y22000D02*Y20000D01*
Y22000D02*X85500Y22500D01*
X86500D01*
X87000Y22000D02*X86500Y22500D01*
X87000Y22000D02*Y20500D01*
X85500Y23700D02*X88500D01*
X85500D02*X85000Y24200D01*
Y25200D02*Y24200D01*
Y25200D02*X85500Y25700D01*
X88500D01*
X89000Y25200D02*X88500Y25700D01*
X89000Y25200D02*Y24200D01*
X88500Y23700D02*X89000Y24200D01*
X85000Y28900D02*Y26900D01*
Y28900D02*X85500Y29400D01*
X86500D01*
X87000Y28900D02*X86500Y29400D01*
X87000Y28900D02*Y27400D01*
X85000D02*X89000D01*
X87000Y28200D02*X89000Y29400D01*
X85000Y32600D02*Y30600D01*
Y31600D02*X89000D01*
X85000Y34300D02*X89000D01*
X85000Y35600D02*X85700Y36300D01*
X88300D01*
X89000Y35600D02*X88300Y36300D01*
X89000Y35600D02*Y33800D01*
X85000Y35600D02*Y33800D01*
M02*
