G04 Title: RX Daughterboard, layergroup #2 *
G04 Creator: pcb-bin 1.99p *
G04 CreationDate: Tue 01 Mar 2005 01:13:31 AM GMT UTC *
G04 For: matt *
G04 Format: Gerber/RS-274X *
G04 PCB-Dimensions: 330000 250000 *
G04 PCB-Coordinate-Origin: lower left *
%MOIN*%
%FSLAX24Y24*%
G04 contains layers component (3) *
%IPPOS*%
%ADD11C,0.0400*%
%ADD12C,0.0250*%
%ADD13C,0.0450*%
%ADD14C,0.0080*%
%ADD15C,0.0280*%
%ADD16C,0.0100*%
%ADD17C,0.0300*%
%ADD18C,0.0600*%
%ADD19C,0.0240*%
%ADD20R,0.0240X0.0240*%
%ADD21R,0.0440X0.0440*%
%ADD22R,0.0300X0.0300*%
%ADD23C,0.0060*%
%ADD24R,0.0480X0.0480*%
%ADD25R,0.0680X0.0680*%
%ADD26R,0.0540X0.0540*%
%ADD27R,0.0970X0.0970*%
%ADD28R,0.1170X0.1170*%
%ADD29R,0.1030X0.1030*%
%ADD30C,0.0200*%
%ADD31R,0.0560X0.0560*%
%ADD32R,0.0860X0.0860*%
%ADD33R,0.0620X0.0620*%
%ADD34R,0.1220X0.1220*%
%ADD35R,0.1520X0.1520*%
%ADD36R,0.1280X0.1280*%
%ADD37R,0.0340X0.0340*%
%ADD38R,0.0640X0.0640*%
%ADD39R,0.0400X0.0400*%
%ADD40R,0.0200X0.0200*%
%ADD41C,0.0720*%
%ADD42C,0.0920X0.0720*%
%ADD43C,0.0920*%
%ADD44C,0.0340*%
%ADD45R,0.0600X0.0600*%
%ADD46R,0.0660X0.0660*%
%ADD47R,0.0900X0.0900X0.0600X0.0600*%
%ADD48R,0.0900X0.0900*%
%ADD49C,0.0660*%
%AMTHERM1*7,0,0,0.0900,0.0600,0.0100,45*%
%ADD50THERM1*%
%ADD51C,0.0900X0.0600*%
%ADD52C,0.0900*%
%ADD53C,0.0500*%
%ADD54R,0.0500X0.0500*%
%ADD55C,0.0750*%
%ADD56C,0.0810*%
%ADD57C,0.0950X0.0750*%
%ADD58C,0.0950*%
%ADD59C,0.0125*%
%AMTHERM2*7,0,0,0.0950,0.0750,0.0125,45*%
%ADD60THERM2*%
%ADD61C,0.1400*%
%ADD62C,0.1460*%
%ADD63C,0.1600X0.1400*%
%ADD64C,0.1600*%
%ADD65C,0.2100*%
%ADD66C,0.2160*%
%AMTHERM3*7,0,0,0.2300,0.2100,0.0500,45*%
%ADD67THERM3*%
%ADD68C,0.2300X0.2100*%
%ADD69C,0.2300*%
%ADD70C,0.0150*%
%ADD71C,0.1320*%
%ADD72C,0.1100*%
%ADD73C,0.1520*%
%ADD74C,0.1520X0.1320*%
%ADD75C,0.0610*%
%ADD76C,0.0610X0.0450*%
%ADD77C,0.0160*%
%AMTHERM4*7,0,0,0.0800,0.0600,0.0160,45*%
%ADD78THERM4*%
%ADD79C,0.0800*%
%ADD80C,0.0800X0.0600*%
%AMTHERM5*7,0,0,0.0800,0.0600,0.0125,45*%
%ADD81THERM5*%
%AMTHERM6*7,0,0,0.0600,0.0400,0.0100,45*%
%ADD82THERM6*%
%ADD83C,0.0600X0.0400*%
%ADD84C,0.0360*%
%ADD85C,0.0560*%
%ADD86C,0.0560X0.0360*%
%AMTHERM7*7,0,0,0.0560,0.0360,0.0080,45*%
%ADD87THERM7*%
%LNGROUP_1*%
%LPD*%
G01X0Y0D02*
G54D16*G36*
X250Y25000D02*X6150D01*
Y23800D01*
X250D01*
Y25000D01*
G37*
G36*
X7150Y24100D02*X26050D01*
Y18950D01*
X7150D01*
Y24100D01*
G37*
G36*
X5450Y25000D02*X28950D01*
Y24350D01*
X5450D01*
Y25000D01*
G37*
G36*
X6550Y12600D02*X11500D01*
Y18800D01*
X6550D01*
Y12600D01*
G37*
G36*
X22900Y12650D02*X32650D01*
Y18750D01*
X22900D01*
Y12650D01*
G37*
G36*
X4450Y500D02*X32750D01*
Y12800D01*
X4450D01*
Y500D01*
G37*
G36*
X26400Y24650D02*X32600D01*
Y18650D01*
X26400D01*
Y24650D01*
G37*
G36*
X300Y500D02*X6900D01*
Y24600D01*
X300D01*
Y500D01*
G37*
G36*
X11850Y13100D02*X22600D01*
Y20250D01*
X11850D01*
Y13100D01*
G37*
%LNCUTS*%
%LPC*%
G54D48*X18450Y22650D03*
G54D52*Y23650D03*
X19450Y22650D03*
X20450D03*
X21450D03*
X19450Y23650D03*
X20450D03*
X21450D03*
X22450D03*
X23450D03*
X24450D03*
X22450Y22650D03*
X23450D03*
X24450D03*
X25450D03*
Y23650D03*
G54D48*X8900Y22600D03*
G54D52*Y23600D03*
X9900Y22600D03*
X10900D03*
X11900D03*
X9900Y23600D03*
X10900D03*
X11900D03*
X12900D03*
X13900D03*
X14900D03*
X12900Y22600D03*
X13900D03*
X14900D03*
X15900D03*
Y23600D03*
G54D85*X10050Y14500D03*
X10400Y17750D03*
X7950Y16750D03*
X7250Y17500D03*
X8700Y17550D03*
G54D79*X23250Y17050D03*
G54D18*X24850Y16700D03*
G54D79*X27900Y15750D03*
G54D69*X31780Y19550D03*
G54D17*X17600Y2150D02*X18400Y2950D01*
X19700D01*
X17300Y12100D02*X18100Y11500D01*
X19450D01*
G54D19*X21700Y12650D02*Y16700D01*
X22100Y12250D02*X21700Y12650D01*
G54D13*X23300Y7850D02*X23800Y7350D01*
X22750Y7850D02*Y10500D01*
X13654Y8900D02*X14450Y8054D01*
X14400Y8150D02*X14450Y8000D01*
G54D17*X12850Y3850D02*Y8800D01*
X13950Y9900D01*
G54D13*X14500Y8050D02*X14700Y7850D01*
X23300D01*
G54D17*X14850Y1850D02*X12850Y3850D01*
G54D18*X17600Y2150D03*
X19700Y2950D03*
G54D79*X14800Y1700D03*
X17250Y6250D03*
X7950Y5900D03*
G54D18*X10150Y1900D03*
G54D85*X5700Y8650D03*
Y10450D03*
Y12250D03*
G54D79*X28850Y6150D03*
G54D75*X21300Y12950D03*
X22100Y12250D03*
G54D18*X20850Y11500D03*
G54D79*X16000Y11700D03*
G54D18*X18750Y9650D03*
G54D79*X13654Y8900D03*
G54D18*X22750Y10500D03*
X17300Y12100D03*
X19450Y11500D03*
G54D79*X13950Y9900D03*
X14500Y8050D03*
G54D18*X26250Y9350D03*
X24150Y8250D03*
X19100Y8550D03*
G54D79*X23850Y7300D03*
G54D58*X13720Y4870D03*
X15470D03*
X17220D03*
X18970D03*
X29470D03*
X24220D03*
X25970D03*
X20720D03*
X22470D03*
X27720D03*
X31220D03*
G54D64*X31780Y5890D03*
G54D58*X4970Y4870D03*
X6720D03*
X8470D03*
X10220D03*
X11970D03*
G54D69*X31780Y19550D03*
G54D18*X910Y5890D02*X850Y5950D01*
G54D85*X5700Y8650D03*
Y10450D03*
Y12250D03*
X5650Y14050D03*
X6300Y20250D03*
X5700Y15350D03*
X5650Y17400D03*
X5700Y19200D03*
G54D69*X910Y19550D03*
G54D58*X1470Y4870D03*
X3220D03*
X4970D03*
G54D64*X910Y5890D03*
G54D58*X6720Y4870D03*
G54D19*X21700Y12650D02*Y16700D01*
X21300Y12950D02*Y17600D01*
G54D75*Y12950D03*
X21700Y16700D03*
X21300Y17550D03*
G54D79*X22200Y17750D03*
X14150Y15900D03*
%LNTRACKS*%
%LPD*%
G54D11*X6050Y18800D02*X8200Y16650D01*
X5200Y18800D02*X6050D01*
X6400Y20000D02*X5200Y18800D01*
X6400Y20700D02*Y20000D01*
X10700Y14500D02*X10800Y14600D01*
X9100Y14500D02*X10700D01*
X10550Y17950D02*Y18000D01*
X10100Y17500D02*X10550Y17950D01*
X5700Y17500D02*X10100D01*
X5700Y8650D02*Y17500D01*
G54D12*X22750Y7850D02*Y10500D01*
X23300Y7850D02*X23800Y7350D01*
X14700Y7850D02*X23300D01*
X14500Y8050D02*X14700Y7850D01*
G54D11*X1250Y6500D02*X1750Y6000D01*
X1250Y6550D02*Y6500D01*
X450Y6550D02*X1250D01*
X350Y6450D02*X450Y6550D01*
X910Y5890D02*X850Y5950D01*
G54D16*X12850Y8800D02*X13950Y9900D01*
X12850Y3850D02*Y8800D01*
X14850Y1850D02*X12850Y3850D01*
X18400Y2950D02*X19700D01*
X17600Y2150D02*X18400Y2950D01*
X18100Y11500D02*X19450D01*
X17300Y12100D02*X18100Y11500D01*
G54D11*X650Y5300D02*X800Y5150D01*
X32200Y5100D02*X31900D01*
X32500Y6200D02*Y5400D01*
X32200Y5100D01*
X31050Y6150D02*X31450Y6550D01*
Y6600D02*X32100D01*
X31450Y6550D02*Y6600D01*
X1750Y6000D02*X1700Y5950D01*
Y5700D01*
X32100Y6600D02*X32500Y6200D01*
X400Y5300D02*X650D01*
G54D12*X14400Y8150D02*X14450Y8000D01*
G54D11*X31050Y5550D02*Y6150D01*
G54D12*X13654Y8900D02*X14450Y8054D01*
G54D14*X22100Y12250D02*X21700Y12650D01*
X21300Y12950D02*Y17600D01*
X21700Y12650D02*Y16700D01*
G54D16*X14950Y9750D02*X14900Y9700D01*
G04 Text: COMPONENT *
G54D14*X26550Y22250D02*X26700D01*
X26500Y22300D02*X26550Y22250D01*
X26500Y22600D02*Y22300D01*
Y22600D02*X26550Y22650D01*
X26700D01*
X26820Y22600D02*Y22300D01*
Y22600D02*X26870Y22650D01*
X26970D01*
X27020Y22600D01*
Y22300D01*
X26970Y22250D02*X27020Y22300D01*
X26870Y22250D02*X26970D01*
X26820Y22300D02*X26870Y22250D01*
X27140Y22650D02*Y22250D01*
Y22650D02*X27290Y22500D01*
X27440Y22650D01*
Y22250D01*
X27610Y22650D02*Y22250D01*
X27560Y22650D02*X27760D01*
X27810Y22600D01*
Y22500D01*
X27760Y22450D02*X27810Y22500D01*
X27610Y22450D02*X27760D01*
X27930Y22600D02*Y22300D01*
Y22600D02*X27980Y22650D01*
X28080D01*
X28130Y22600D01*
Y22300D01*
X28080Y22250D02*X28130Y22300D01*
X27980Y22250D02*X28080D01*
X27930Y22300D02*X27980Y22250D01*
X28250Y22650D02*Y22250D01*
Y22650D02*Y22600D01*
X28500Y22350D01*
Y22650D02*Y22250D01*
X28620Y22450D02*X28770D01*
X28620Y22250D02*X28820D01*
X28620Y22650D02*Y22250D01*
Y22650D02*X28820D01*
X28940D02*Y22250D01*
Y22650D02*Y22600D01*
X29190Y22350D01*
Y22650D02*Y22250D01*
X29310Y22650D02*X29510D01*
X29410D02*Y22250D01*
G54D45*X8900Y22600D03*
G54D18*Y23600D03*
G54D16*X8585Y23915D02*X9215Y23285D01*
X8585D02*X9215Y23915D01*
G54D18*X9900Y22600D03*
Y23600D03*
G54D16*X9585Y23915D02*X10215Y23285D01*
X9585D02*X10215Y23915D01*
G54D18*X10900Y22600D03*
Y23600D03*
G54D16*X10585Y23915D02*X11215Y23285D01*
X10585D02*X11215Y23915D01*
G54D18*X11900Y22600D03*
Y23600D03*
G54D16*X11585Y23915D02*X12215Y23285D01*
X11585D02*X12215Y23915D01*
G54D18*X12900Y22600D03*
Y23600D03*
G54D16*X12585Y23915D02*X13215Y23285D01*
X12585D02*X13215Y23915D01*
G54D18*X13900Y22600D03*
Y23600D03*
G54D16*X13585Y23915D02*X14215Y23285D01*
X13585D02*X14215Y23915D01*
G54D18*X14900Y22600D03*
Y23600D03*
G54D16*X14585Y23915D02*X15215Y23285D01*
X14585D02*X15215Y23915D01*
G54D18*X15900Y22600D03*
Y23600D03*
G54D16*X15585Y23915D02*X16215Y23285D01*
X15585D02*X16215Y23915D01*
G54D45*X18450Y22650D03*
G54D18*Y23650D03*
G54D16*X18135Y23965D02*X18765Y23335D01*
X18135D02*X18765Y23965D01*
G54D18*X19450Y22650D03*
Y23650D03*
G54D16*X19135Y23965D02*X19765Y23335D01*
X19135D02*X19765Y23965D01*
G54D18*X20450Y22650D03*
Y23650D03*
G54D16*X20135Y23965D02*X20765Y23335D01*
X20135D02*X20765Y23965D01*
G54D18*X21450Y22650D03*
Y23650D03*
G54D16*X21135Y23965D02*X21765Y23335D01*
X21135D02*X21765Y23965D01*
G54D18*X22450Y22650D03*
Y23650D03*
G54D16*X22135Y23965D02*X22765Y23335D01*
X22135D02*X22765Y23965D01*
G54D18*X23450Y22650D03*
Y23650D03*
G54D16*X23135Y23965D02*X23765Y23335D01*
X23135D02*X23765Y23965D01*
G54D18*X24450Y22650D03*
Y23650D03*
G54D16*X24135Y23965D02*X24765Y23335D01*
X24135D02*X24765Y23965D01*
G54D18*X25450Y22650D03*
Y23650D03*
G54D16*X25135Y23965D02*X25765Y23335D01*
X25135D02*X25765Y23965D01*
G54D55*X1470Y4870D03*
X3220D03*
X4970D03*
X6720D03*
X8470D03*
X10220D03*
X11970D03*
X13720D03*
X15470D03*
X17220D03*
X18970D03*
X20720D03*
X22470D03*
X24220D03*
G54D59*X23887Y5202D02*X24552Y4537D01*
X23887D02*X24552Y5202D01*
G54D55*X25970Y4870D03*
X27720D03*
X29470D03*
X31220D03*
G54D61*X910Y5890D03*
G54D65*Y19550D03*
G54D53*X105Y20355D02*X1715Y18745D01*
X105D02*X1715Y20355D01*
G54D65*X31780Y19550D03*
G54D53*X30975Y20355D02*X32585Y18745D01*
X30975D02*X32585Y20355D01*
G54D61*X31780Y5890D03*
G54D13*X21300Y12950D03*
G54D18*X23250Y17050D03*
G54D77*X22970Y17330D02*X23530Y16770D01*
X22970D02*X23530Y17330D01*
G54D13*X21700Y16700D03*
X22100Y12250D03*
X21300Y17550D03*
G54D18*X7950Y5900D03*
G54D59*X7670Y6180D02*X8230Y5620D01*
X7670D02*X8230Y6180D01*
G54D18*X22200Y17750D03*
G54D59*X21920Y18030D02*X22480Y17470D01*
X21920D02*X22480Y18030D01*
G54D11*X10150Y1900D03*
G54D16*X9940Y2110D02*X10360Y1690D01*
X9940D02*X10360Y2110D01*
G54D11*X24850Y16700D03*
G54D16*X24640Y16910D02*X25060Y16490D01*
X24640D02*X25060Y16910D01*
G54D18*X27900Y15750D03*
G54D59*X27620Y16030D02*X28180Y15470D01*
X27620D02*X28180Y16030D01*
G54D11*X26250Y9350D03*
G54D16*X26040Y9560D02*X26460Y9140D01*
X26040D02*X26460Y9560D01*
G54D11*X24150Y8250D03*
G54D16*X23940Y8460D02*X24360Y8040D01*
X23940D02*X24360Y8460D01*
G54D11*X19100Y8550D03*
G54D16*X18890Y8760D02*X19310Y8340D01*
X18890D02*X19310Y8760D01*
G54D11*X20850Y11500D03*
G54D16*X20640Y11710D02*X21060Y11290D01*
X20640D02*X21060Y11710D01*
G54D18*X14150Y15900D03*
G54D59*X13870Y16180D02*X14430Y15620D01*
X13870D02*X14430Y16180D01*
G54D18*X16000Y11700D03*
G54D59*X15720Y11980D02*X16280Y11420D01*
X15720D02*X16280Y11980D01*
G54D11*X18750Y9650D03*
G54D16*X18540Y9860D02*X18960Y9440D01*
X18540D02*X18960Y9860D01*
G54D18*X28850Y6150D03*
G54D59*X28570Y6430D02*X29130Y5870D01*
X28570D02*X29130Y6430D01*
G54D18*X13654Y8900D03*
G54D11*X22750Y10500D03*
X17300Y12100D03*
X19450Y11500D03*
X17600Y2150D03*
X19700Y2950D03*
G54D18*X14800Y1700D03*
X13950Y9900D03*
X14500Y8050D03*
X17250Y6250D03*
G54D59*X16970Y6530D02*X17530Y5970D01*
X16970D02*X17530Y6530D01*
G54D84*X7950Y16750D03*
X5700Y8650D03*
G54D14*X5504Y8846D02*X5896Y8454D01*
X5504D02*X5896Y8846D01*
G54D84*X5700Y10450D03*
G54D14*X5504Y10646D02*X5896Y10254D01*
X5504D02*X5896Y10646D01*
G54D84*X5700Y12250D03*
G54D14*X5504Y12446D02*X5896Y12054D01*
X5504D02*X5896Y12446D01*
G54D84*X5650Y14050D03*
G54D14*X5454Y14246D02*X5846Y13854D01*
X5454D02*X5846Y14246D01*
G54D84*X5700Y15350D03*
G54D14*X5504Y15546D02*X5896Y15154D01*
X5504D02*X5896Y15546D01*
G54D84*X5650Y17400D03*
G54D14*X5454Y17596D02*X5846Y17204D01*
X5454D02*X5846Y17596D01*
G54D84*X7250Y17500D03*
G54D14*X7054Y17696D02*X7446Y17304D01*
X7054D02*X7446Y17696D01*
G54D84*X8700Y17550D03*
G54D14*X8504Y17746D02*X8896Y17354D01*
X8504D02*X8896Y17746D01*
G54D84*X10400Y17750D03*
G54D14*X10204Y17946D02*X10596Y17554D01*
X10204D02*X10596Y17946D01*
G54D84*X10050Y14500D03*
G54D14*X9854Y14696D02*X10246Y14304D01*
X9854D02*X10246Y14696D01*
G54D84*X5700Y19200D03*
X6300Y20250D03*
G54D18*X23850Y7300D03*
M02*
