G04 Title: RX Daughterboard, silkscreen, component side *
G04 Creator: pcb-bin 1.99p *
G04 CreationDate: Tue 01 Mar 2005 01:13:31 AM GMT UTC *
G04 For: matt *
G04 Format: Gerber/RS-274X *
G04 PCB-Dimensions: 330000 250000 *
G04 PCB-Coordinate-Origin: lower left *
%MOIN*%
%FSLAX24Y24*%
%IPPOS*%
%ADD11C,0.0400*%
%ADD12C,0.0250*%
%ADD13C,0.0450*%
%ADD14C,0.0080*%
%ADD15C,0.0280*%
%ADD16C,0.0100*%
%ADD17C,0.0300*%
%ADD18C,0.0600*%
%ADD19C,0.0240*%
%ADD20R,0.0240X0.0240*%
%ADD21R,0.0440X0.0440*%
%ADD22R,0.0300X0.0300*%
%ADD23C,0.0060*%
%ADD24R,0.0480X0.0480*%
%ADD25R,0.0680X0.0680*%
%ADD26R,0.0540X0.0540*%
%ADD27R,0.0970X0.0970*%
%ADD28R,0.1170X0.1170*%
%ADD29R,0.1030X0.1030*%
%ADD30C,0.0200*%
%ADD31R,0.0560X0.0560*%
%ADD32R,0.0860X0.0860*%
%ADD33R,0.0620X0.0620*%
%ADD34R,0.1220X0.1220*%
%ADD35R,0.1520X0.1520*%
%ADD36R,0.1280X0.1280*%
%ADD37R,0.0340X0.0340*%
%ADD38R,0.0640X0.0640*%
%ADD39R,0.0400X0.0400*%
%ADD40R,0.0200X0.0200*%
%ADD41C,0.0720*%
%ADD42C,0.0920X0.0720*%
%ADD43C,0.0920*%
%ADD44C,0.0340*%
%ADD45R,0.0600X0.0600*%
%ADD46R,0.0660X0.0660*%
%ADD47R,0.0900X0.0900X0.0600X0.0600*%
%ADD48R,0.0900X0.0900*%
%ADD49C,0.0660*%
%AMTHERM1*7,0,0,0.0900,0.0600,0.0100,45*%
%ADD50THERM1*%
%ADD51C,0.0900X0.0600*%
%ADD52C,0.0900*%
%ADD53C,0.0500*%
%ADD54R,0.0500X0.0500*%
%ADD55C,0.0750*%
%ADD56C,0.0810*%
%ADD57C,0.0950X0.0750*%
%ADD58C,0.0950*%
%ADD59C,0.0125*%
%AMTHERM2*7,0,0,0.0950,0.0750,0.0125,45*%
%ADD60THERM2*%
%ADD61C,0.1400*%
%ADD62C,0.1460*%
%ADD63C,0.1600X0.1400*%
%ADD64C,0.1600*%
%ADD65C,0.2100*%
%ADD66C,0.2160*%
%AMTHERM3*7,0,0,0.2300,0.2100,0.0500,45*%
%ADD67THERM3*%
%ADD68C,0.2300X0.2100*%
%ADD69C,0.2300*%
%ADD70C,0.0150*%
%ADD71C,0.1320*%
%ADD72C,0.1100*%
%ADD73C,0.1520*%
%ADD74C,0.1520X0.1320*%
%ADD75C,0.0610*%
%ADD76C,0.0610X0.0450*%
%ADD77C,0.0160*%
%AMTHERM4*7,0,0,0.0800,0.0600,0.0160,45*%
%ADD78THERM4*%
%ADD79C,0.0800*%
%ADD80C,0.0800X0.0600*%
%AMTHERM5*7,0,0,0.0800,0.0600,0.0125,45*%
%ADD81THERM5*%
%AMTHERM6*7,0,0,0.0600,0.0400,0.0100,45*%
%ADD82THERM6*%
%ADD83C,0.0600X0.0400*%
%ADD84C,0.0360*%
%ADD85C,0.0560*%
%ADD86C,0.0560X0.0360*%
%AMTHERM7*7,0,0,0.0560,0.0360,0.0080,45*%
%ADD87THERM7*%
%LNGROUP_1*%
%LPD*%
G01X0Y0D02*
G54D30*X8400Y22100D02*X16400D01*
Y24100D02*Y22100D01*
X8400Y24100D02*X16400D01*
X8400D02*Y22100D01*
G54D16*X9400Y23100D02*Y22100D01*
X8400Y23100D02*X9400D01*
G04 Text: J25 *
G54D14*X7320Y23160D02*X7470D01*
Y22810D01*
X7420Y22760D02*X7470Y22810D01*
X7370Y22760D02*X7420D01*
X7320Y22810D02*X7370Y22760D01*
X7590Y23110D02*X7640Y23160D01*
X7790D01*
X7840Y23110D01*
Y23010D01*
X7590Y22760D02*X7840Y23010D01*
X7590Y22760D02*X7840D01*
X7960Y23160D02*X8160D01*
X7960D02*Y22960D01*
X8010Y23010D01*
X8110D01*
X8160Y22960D01*
Y22810D01*
X8110Y22760D02*X8160Y22810D01*
X8010Y22760D02*X8110D01*
X7960Y22810D02*X8010Y22760D01*
G54D30*X17950Y22150D02*X25950D01*
Y24150D02*Y22150D01*
X17950Y24150D02*X25950D01*
X17950D02*Y22150D01*
G54D16*X18950Y23150D02*Y22150D01*
X17950Y23150D02*X18950D01*
G04 Text: J24 *
G54D14*X16830Y23360D02*X16980D01*
Y23010D01*
X16930Y22960D02*X16980Y23010D01*
X16880Y22960D02*X16930D01*
X16830Y23010D02*X16880Y22960D01*
X17100Y23310D02*X17150Y23360D01*
X17300D01*
X17350Y23310D01*
Y23210D01*
X17100Y22960D02*X17350Y23210D01*
X17100Y22960D02*X17350D01*
X17470Y23160D02*X17670Y23360D01*
X17470Y23160D02*X17720D01*
X17670Y23360D02*Y22960D01*
G54D70*X30Y20520D02*Y3880D01*
Y20520D02*X32690D01*
X32720Y20490D01*
X32690Y20460D01*
Y3670D01*
X90D02*X32690D01*
X30Y3900D02*Y3660D01*
G04 Text: U2 *
G54D14*X30450Y3450D02*Y3100D01*
X30500Y3050D01*
X30600D01*
X30650Y3100D01*
Y3450D02*Y3100D01*
X30770Y3400D02*X30820Y3450D01*
X30970D01*
X31020Y3400D01*
Y3300D01*
X30770Y3050D02*X31020Y3300D01*
X30770Y3050D02*X31020D01*
G04 Text: 15 *
X8799Y21338D02*X8877D01*
X8838Y21650D02*Y21338D01*
X8760Y21572D02*X8838Y21650D01*
X8970D02*X9126D01*
X8970D02*Y21494D01*
X9009Y21533D01*
X9087D01*
X9126Y21494D01*
Y21377D01*
X9087Y21338D02*X9126Y21377D01*
X9009Y21338D02*X9087D01*
X8970Y21377D02*X9009Y21338D01*
G04 Text: 0 *
X25410Y21567D02*X25449Y21528D01*
X25410Y21801D02*Y21567D01*
Y21801D02*X25449Y21840D01*
X25527D01*
X25566Y21801D01*
Y21567D01*
X25527Y21528D02*X25566Y21567D01*
X25449Y21528D02*X25527D01*
X25410Y21606D02*X25566Y21762D01*
G04 Text: 7 *
X18290Y21508D02*X18485Y21703D01*
Y21820D02*Y21703D01*
X18290Y21820D02*X18485D01*
G04 Text: 8 *
X15980Y21743D02*X15941Y21782D01*
X15980Y21743D02*Y21665D01*
X15941Y21626D01*
X15863D02*X15941D01*
X15863D02*X15824Y21665D01*
Y21743D02*Y21665D01*
X15863Y21782D02*X15824Y21743D01*
X15863Y21782D02*X15941D01*
X15980Y21587D02*X15941Y21626D01*
X15980Y21587D02*Y21509D01*
X15941Y21470D01*
X15863D02*X15941D01*
X15863D02*X15824Y21509D01*
Y21587D02*Y21509D01*
X15863Y21626D02*X15824Y21587D01*
G04 Text: GND *
X15900Y24800D02*X15950Y24750D01*
X15750Y24800D02*X15900D01*
X15700Y24750D02*X15750Y24800D01*
X15700Y24750D02*Y24450D01*
X15750Y24400D01*
X15900D01*
X15950Y24450D01*
Y24550D02*Y24450D01*
X15900Y24600D02*X15950Y24550D01*
X15800Y24600D02*X15900D01*
X16070Y24800D02*Y24400D01*
Y24800D02*Y24750D01*
X16320Y24500D01*
Y24800D02*Y24400D01*
X16490Y24800D02*Y24400D01*
X16640Y24800D02*X16690Y24750D01*
Y24450D01*
X16640Y24400D02*X16690Y24450D01*
X16440Y24400D02*X16640D01*
X16440Y24800D02*X16640D01*
G04 Text: SILK *
X26700Y24050D02*X26750Y24000D01*
X26550Y24050D02*X26700D01*
X26500Y24000D02*X26550Y24050D01*
X26500Y24000D02*Y23900D01*
X26550Y23850D01*
X26700D01*
X26750Y23800D01*
Y23700D01*
X26700Y23650D02*X26750Y23700D01*
X26550Y23650D02*X26700D01*
X26500Y23700D02*X26550Y23650D01*
X26870Y24050D02*X26970D01*
X26920D02*Y23650D01*
X26870D02*X26970D01*
X27090Y24050D02*Y23650D01*
X27290D01*
X27410Y24050D02*Y23650D01*
Y23850D02*X27610Y24050D01*
X27410Y23850D02*X27610Y23650D01*
G04 Text: GND *
X5900Y24800D02*X5950Y24750D01*
X5750Y24800D02*X5900D01*
X5700Y24750D02*X5750Y24800D01*
X5700Y24750D02*Y24450D01*
X5750Y24400D01*
X5900D01*
X5950Y24450D01*
Y24550D02*Y24450D01*
X5900Y24600D02*X5950Y24550D01*
X5800Y24600D02*X5900D01*
X6070Y24800D02*Y24400D01*
Y24800D02*Y24750D01*
X6320Y24500D01*
Y24800D02*Y24400D01*
X6490Y24800D02*Y24400D01*
X6640Y24800D02*X6690Y24750D01*
Y24450D01*
X6640Y24400D02*X6690Y24450D01*
X6440Y24400D02*X6640D01*
X6440Y24800D02*X6640D01*
%LNCUTS*%
%LPC*%
G54D65*X910Y19550D03*
X31780D03*
M02*
