G04 CAM Products 2000  RS274-X Output*
G04 Serial Number: 0000-00-00000*
G04 File Name:Z:\media\yandex\zakaz_moduli_lcd_bt\lcd_shield\gerberRS274X\lcd_modul_BoardOutline.gbr *
%FSLAX34Y34*%
%MOIN*%
%SFA1B1*%

%IPPOS*%
%ADD11C,0.006000*%
%ADD13C,0.013000*%
%ADD14C,0.025000*%
%ADD15R,0.070900X0.063000*%
%ADD16R,0.059100X0.059100*%
%ADD17C,0.059100*%
%ADD18C,0.066000*%
%ADD19R,0.033500X0.039400*%
%ADD20R,0.063000X0.070900*%
%ADD21R,0.023600X0.078700*%
%ADD22C,0.078700*%
%ADD26R,0.031600X0.086700*%
%ADD28R,0.071000X0.078900*%
%ADD30R,0.041500X0.047400*%
%ADD32C,0.074000*%
%ADD34C,0.067100*%
%ADD36R,0.067100X0.067100*%
%ADD38R,0.078900X0.071000*%
%ADD41C,0.004600*%
%ADD42C,0.007700*%
%ADD500C,0.035400*%
%ADD501C,0.039400*%
%ADD502C,0.078700*%
%LNlcd_modul_BoardOutline-1*%
%LPD*%
G54D11*
X3940Y18504D02*
Y3940D01*
X25755*
X25751Y18503*
X3940Y18504*
M02*