G04 Layer_Physical_Order=1*
G04 Layer_Color=255*
%FSAX24Y24*%
%MOIN*%
G70*
G01*
G75*
%ADD10C,0.0200*%
%ADD11R,0.9800X0.6000*%
%ADD12C,0.0543*%
%ADD13C,0.1575*%
%ADD14O,0.0600X0.1200*%
%ADD15C,0.2500*%
G36*
X019900Y019500D02*
X010100D01*
Y030000D01*
X019900D01*
Y019500D01*
D02*
G37*
G36*
X017700Y044300D02*
X017759D01*
X017935Y044288D01*
X018167Y044242D01*
X018390Y044167D01*
X018602Y044062D01*
X018798Y043931D01*
X018976Y043776D01*
X019131Y043598D01*
X019262Y043402D01*
X019367Y043190D01*
X019442Y042967D01*
X019488Y042735D01*
X019500Y042559D01*
Y042500D01*
X019500Y042500D01*
X019500Y037000D01*
Y036941D01*
X019488Y036765D01*
X019442Y036533D01*
X019367Y036310D01*
X019262Y036098D01*
X019131Y035902D01*
X018976Y035724D01*
X018798Y035569D01*
X018602Y035438D01*
X018390Y035333D01*
X018167Y035258D01*
X017935Y035212D01*
X017759Y035200D01*
X017700D01*
X017700Y035200D01*
X012300Y035200D01*
X012241D01*
X012065Y035212D01*
X011833Y035258D01*
X011610Y035333D01*
X011398Y035438D01*
X011202Y035569D01*
X011024Y035724D01*
X010869Y035902D01*
X010738Y036098D01*
X010633Y036310D01*
X010558Y036533D01*
X010512Y036765D01*
X010500Y036941D01*
Y037000D01*
Y037000D01*
Y042500D01*
Y042559D01*
X010512Y042735D01*
X010558Y042967D01*
X010633Y043190D01*
X010738Y043402D01*
X010869Y043598D01*
X011024Y043776D01*
X011202Y043931D01*
X011398Y044062D01*
X011610Y044167D01*
X011833Y044242D01*
X012065Y044288D01*
X012241Y044300D01*
X012300D01*
X012300Y044300D01*
X017700Y044300D01*
D02*
G37*
%LPC*%
G36*
X011500Y023203D02*
X011396Y023190D01*
X011298Y023149D01*
X011215Y023085D01*
X011151Y023002D01*
X011110Y022904D01*
X011097Y022800D01*
Y022200D01*
X011110Y022096D01*
X011151Y021998D01*
X011215Y021915D01*
X011289Y021858D01*
Y021806D01*
X011235Y021765D01*
X011175Y021687D01*
X011138Y021597D01*
X011125Y021500D01*
X011138Y021403D01*
X011175Y021313D01*
X011223Y021250D01*
X011175Y021187D01*
X011138Y021097D01*
X011125Y021000D01*
X011138Y020903D01*
X011175Y020813D01*
X011235Y020735D01*
X011313Y020675D01*
X011403Y020638D01*
X011500Y020625D01*
X011597Y020638D01*
X011687Y020675D01*
X011765Y020735D01*
X011825Y020813D01*
X011862Y020903D01*
X011875Y021000D01*
X011862Y021097D01*
X011825Y021187D01*
X011777Y021250D01*
X011825Y021313D01*
X011862Y021403D01*
X011875Y021500D01*
X011862Y021597D01*
X011825Y021687D01*
X011765Y021765D01*
X011711Y021806D01*
Y021858D01*
X011785Y021915D01*
X011849Y021998D01*
X011890Y022096D01*
X011903Y022200D01*
Y022800D01*
X011890Y022904D01*
X011849Y023002D01*
X011785Y023085D01*
X011702Y023149D01*
X011604Y023190D01*
X011500Y023203D01*
D02*
G37*
G36*
X016500D02*
X016396Y023190D01*
X016298Y023149D01*
X016215Y023085D01*
X016151Y023002D01*
X016110Y022904D01*
X016097Y022800D01*
Y022200D01*
X016110Y022096D01*
X016151Y021998D01*
X016215Y021915D01*
X016289Y021858D01*
Y021806D01*
X016235Y021765D01*
X016175Y021687D01*
X016138Y021597D01*
X016125Y021500D01*
X016138Y021403D01*
X016175Y021313D01*
X016223Y021250D01*
X016175Y021187D01*
X016138Y021097D01*
X016125Y021000D01*
X016138Y020903D01*
X016175Y020813D01*
X016235Y020735D01*
X016313Y020675D01*
X016403Y020638D01*
X016500Y020625D01*
X016597Y020638D01*
X016687Y020675D01*
X016765Y020735D01*
X016825Y020813D01*
X016862Y020903D01*
X016875Y021000D01*
X016862Y021097D01*
X016825Y021187D01*
X016777Y021250D01*
X016825Y021313D01*
X016862Y021403D01*
X016875Y021500D01*
X016862Y021597D01*
X016825Y021687D01*
X016765Y021765D01*
X016711Y021806D01*
Y021858D01*
X016785Y021915D01*
X016849Y021998D01*
X016890Y022096D01*
X016903Y022200D01*
Y022800D01*
X016890Y022904D01*
X016849Y023002D01*
X016785Y023085D01*
X016702Y023149D01*
X016604Y023190D01*
X016500Y023203D01*
D02*
G37*
G36*
X017500D02*
X017396Y023190D01*
X017298Y023149D01*
X017215Y023085D01*
X017151Y023002D01*
X017110Y022904D01*
X017097Y022800D01*
Y022200D01*
X017110Y022096D01*
X017151Y021998D01*
X017215Y021915D01*
X017298Y021851D01*
X017396Y021810D01*
X017500Y021797D01*
X017604Y021810D01*
X017702Y021851D01*
X017785Y021915D01*
X017849Y021998D01*
X017890Y022096D01*
X017903Y022200D01*
Y022800D01*
X017890Y022904D01*
X017849Y023002D01*
X017785Y023085D01*
X017702Y023149D01*
X017604Y023190D01*
X017500Y023203D01*
D02*
G37*
G36*
X012500D02*
X012396Y023190D01*
X012298Y023149D01*
X012215Y023085D01*
X012151Y023002D01*
X012110Y022904D01*
X012097Y022800D01*
Y022200D01*
X012110Y022096D01*
X012151Y021998D01*
X012215Y021915D01*
X012298Y021851D01*
X012396Y021810D01*
X012500Y021797D01*
X012604Y021810D01*
X012702Y021851D01*
X012785Y021915D01*
X012849Y021998D01*
X012890Y022096D01*
X012903Y022200D01*
Y022800D01*
X012890Y022904D01*
X012849Y023002D01*
X012785Y023085D01*
X012702Y023149D01*
X012604Y023190D01*
X012500Y023203D01*
D02*
G37*
%LPD*%
D10*
X011500Y021000D02*
Y022500D01*
X016500Y021000D02*
Y022500D01*
D11*
X015000Y027000D02*
D03*
D12*
X016500Y021500D02*
D03*
X011500D02*
D03*
Y021000D02*
D03*
X016500D02*
D03*
D13*
X015000Y042531D02*
D03*
Y046469D02*
D03*
Y033031D02*
D03*
Y036969D02*
D03*
D14*
X013500Y022500D02*
D03*
X012500D02*
D03*
X011500D02*
D03*
X018500D02*
D03*
X017500D02*
D03*
X016500D02*
D03*
D15*
X012500Y027000D02*
D03*
X017500D02*
D03*
X012500Y017500D02*
D03*
X017500D02*
D03*
M02*
