G04 #@! TF.FileFunction,Copper,L2,Bot,Signal*
%FSLAX46Y46*%
G04 Gerber Fmt 4.6, Leading zero omitted, Abs format (unit mm)*
G04 Created by KiCad (PCBNEW 4.0.1-stable) date 2/3/2016 3:39:18 PM*
%MOMM*%
G01*
G04 APERTURE LIST*
%ADD10C,0.100000*%
%ADD11C,2.500000*%
%ADD12C,0.254000*%
G04 APERTURE END LIST*
D10*
D11*
X158750000Y-104140000D03*
X158750000Y-107950000D03*
X158750000Y-111760000D03*
X158750000Y-115570000D03*
D12*
G36*
X160788000Y-117608000D02*
X154807000Y-117608000D01*
X154807000Y-116205000D01*
X154768788Y-116012893D01*
X154694767Y-115902112D01*
X157072710Y-115902112D01*
X157327480Y-116518703D01*
X157798816Y-116990862D01*
X158414961Y-117246708D01*
X159082112Y-117247290D01*
X159698703Y-116992520D01*
X160170862Y-116521184D01*
X160426708Y-115905039D01*
X160427290Y-115237888D01*
X160172520Y-114621297D01*
X159701184Y-114149138D01*
X159085039Y-113893292D01*
X158417888Y-113892710D01*
X157801297Y-114147480D01*
X157329138Y-114618816D01*
X157073292Y-115234961D01*
X157072710Y-115902112D01*
X154694767Y-115902112D01*
X154659968Y-115850032D01*
X154497107Y-115741212D01*
X154305000Y-115703000D01*
X144012000Y-115703000D01*
X144012000Y-112092112D01*
X157072710Y-112092112D01*
X157327480Y-112708703D01*
X157798816Y-113180862D01*
X158414961Y-113436708D01*
X159082112Y-113437290D01*
X159698703Y-113182520D01*
X160170862Y-112711184D01*
X160426708Y-112095039D01*
X160427290Y-111427888D01*
X160172520Y-110811297D01*
X159701184Y-110339138D01*
X159085039Y-110083292D01*
X158417888Y-110082710D01*
X157801297Y-110337480D01*
X157329138Y-110808816D01*
X157073292Y-111424961D01*
X157072710Y-112092112D01*
X144012000Y-112092112D01*
X144012000Y-109283320D01*
X157596285Y-109283320D01*
X157725533Y-109576123D01*
X158425806Y-109844388D01*
X159175435Y-109824250D01*
X159774467Y-109576123D01*
X159903715Y-109283320D01*
X158750000Y-108129605D01*
X157596285Y-109283320D01*
X144012000Y-109283320D01*
X144012000Y-107625806D01*
X156855612Y-107625806D01*
X156875750Y-108375435D01*
X157123877Y-108974467D01*
X157416680Y-109103715D01*
X158570395Y-107950000D01*
X158929605Y-107950000D01*
X160083320Y-109103715D01*
X160376123Y-108974467D01*
X160644388Y-108274194D01*
X160624250Y-107524565D01*
X160376123Y-106925533D01*
X160083320Y-106796285D01*
X158929605Y-107950000D01*
X158570395Y-107950000D01*
X157416680Y-106796285D01*
X157123877Y-106925533D01*
X156855612Y-107625806D01*
X144012000Y-107625806D01*
X144012000Y-106616680D01*
X157596285Y-106616680D01*
X158750000Y-107770395D01*
X159903715Y-106616680D01*
X159774467Y-106323877D01*
X159074194Y-106055612D01*
X158324565Y-106075750D01*
X157725533Y-106323877D01*
X157596285Y-106616680D01*
X144012000Y-106616680D01*
X144012000Y-104472112D01*
X157072710Y-104472112D01*
X157327480Y-105088703D01*
X157798816Y-105560862D01*
X158414961Y-105816708D01*
X159082112Y-105817290D01*
X159698703Y-105562520D01*
X160170862Y-105091184D01*
X160426708Y-104475039D01*
X160427290Y-103807888D01*
X160172520Y-103191297D01*
X159701184Y-102719138D01*
X159085039Y-102463292D01*
X158417888Y-102462710D01*
X157801297Y-102717480D01*
X157329138Y-103188816D01*
X157073292Y-103804961D01*
X157072710Y-104472112D01*
X144012000Y-104472112D01*
X144012000Y-104007000D01*
X154305000Y-104007000D01*
X154497107Y-103968788D01*
X154659968Y-103859968D01*
X154768788Y-103697107D01*
X154807000Y-103505000D01*
X154807000Y-102102000D01*
X160788000Y-102102000D01*
X160788000Y-117608000D01*
X160788000Y-117608000D01*
G37*
X160788000Y-117608000D02*
X154807000Y-117608000D01*
X154807000Y-116205000D01*
X154768788Y-116012893D01*
X154694767Y-115902112D01*
X157072710Y-115902112D01*
X157327480Y-116518703D01*
X157798816Y-116990862D01*
X158414961Y-117246708D01*
X159082112Y-117247290D01*
X159698703Y-116992520D01*
X160170862Y-116521184D01*
X160426708Y-115905039D01*
X160427290Y-115237888D01*
X160172520Y-114621297D01*
X159701184Y-114149138D01*
X159085039Y-113893292D01*
X158417888Y-113892710D01*
X157801297Y-114147480D01*
X157329138Y-114618816D01*
X157073292Y-115234961D01*
X157072710Y-115902112D01*
X154694767Y-115902112D01*
X154659968Y-115850032D01*
X154497107Y-115741212D01*
X154305000Y-115703000D01*
X144012000Y-115703000D01*
X144012000Y-112092112D01*
X157072710Y-112092112D01*
X157327480Y-112708703D01*
X157798816Y-113180862D01*
X158414961Y-113436708D01*
X159082112Y-113437290D01*
X159698703Y-113182520D01*
X160170862Y-112711184D01*
X160426708Y-112095039D01*
X160427290Y-111427888D01*
X160172520Y-110811297D01*
X159701184Y-110339138D01*
X159085039Y-110083292D01*
X158417888Y-110082710D01*
X157801297Y-110337480D01*
X157329138Y-110808816D01*
X157073292Y-111424961D01*
X157072710Y-112092112D01*
X144012000Y-112092112D01*
X144012000Y-109283320D01*
X157596285Y-109283320D01*
X157725533Y-109576123D01*
X158425806Y-109844388D01*
X159175435Y-109824250D01*
X159774467Y-109576123D01*
X159903715Y-109283320D01*
X158750000Y-108129605D01*
X157596285Y-109283320D01*
X144012000Y-109283320D01*
X144012000Y-107625806D01*
X156855612Y-107625806D01*
X156875750Y-108375435D01*
X157123877Y-108974467D01*
X157416680Y-109103715D01*
X158570395Y-107950000D01*
X158929605Y-107950000D01*
X160083320Y-109103715D01*
X160376123Y-108974467D01*
X160644388Y-108274194D01*
X160624250Y-107524565D01*
X160376123Y-106925533D01*
X160083320Y-106796285D01*
X158929605Y-107950000D01*
X158570395Y-107950000D01*
X157416680Y-106796285D01*
X157123877Y-106925533D01*
X156855612Y-107625806D01*
X144012000Y-107625806D01*
X144012000Y-106616680D01*
X157596285Y-106616680D01*
X158750000Y-107770395D01*
X159903715Y-106616680D01*
X159774467Y-106323877D01*
X159074194Y-106055612D01*
X158324565Y-106075750D01*
X157725533Y-106323877D01*
X157596285Y-106616680D01*
X144012000Y-106616680D01*
X144012000Y-104472112D01*
X157072710Y-104472112D01*
X157327480Y-105088703D01*
X157798816Y-105560862D01*
X158414961Y-105816708D01*
X159082112Y-105817290D01*
X159698703Y-105562520D01*
X160170862Y-105091184D01*
X160426708Y-104475039D01*
X160427290Y-103807888D01*
X160172520Y-103191297D01*
X159701184Y-102719138D01*
X159085039Y-102463292D01*
X158417888Y-102462710D01*
X157801297Y-102717480D01*
X157329138Y-103188816D01*
X157073292Y-103804961D01*
X157072710Y-104472112D01*
X144012000Y-104472112D01*
X144012000Y-104007000D01*
X154305000Y-104007000D01*
X154497107Y-103968788D01*
X154659968Y-103859968D01*
X154768788Y-103697107D01*
X154807000Y-103505000D01*
X154807000Y-102102000D01*
X160788000Y-102102000D01*
X160788000Y-117608000D01*
M02*
