G04 (created by PCBNEW-RS274X (2011-05-25)-stable) date Sun 19 Aug 2012 12:01:00 PM EDT*
G01*
G70*
G90*
%MOIN*%
G04 Gerber Fmt 3.4, Leading zero omitted, Abs format*
%FSLAX34Y34*%
G04 APERTURE LIST*
%ADD10C,0.006000*%
%ADD11C,0.015000*%
G04 APERTURE END LIST*
G54D10*
G54D11*
X49000Y-31200D02*
X49000Y-20100D01*
X56500Y-32500D02*
X50500Y-32500D01*
X58000Y-20100D02*
X58000Y-31000D01*
X50400Y-18500D02*
X56600Y-18500D01*
X49001Y-31200D02*
X49015Y-31321D01*
X49040Y-31441D01*
X49075Y-31559D01*
X49120Y-31672D01*
X49175Y-31782D01*
X49239Y-31886D01*
X49312Y-31984D01*
X49393Y-32076D01*
X49482Y-32160D01*
X49578Y-32236D01*
X49680Y-32303D01*
X49788Y-32362D01*
X49900Y-32410D01*
X50016Y-32449D01*
X50135Y-32477D01*
X50256Y-32495D01*
X50378Y-32502D01*
X50500Y-32499D01*
X56500Y-32500D02*
X56630Y-32494D01*
X56760Y-32477D01*
X56888Y-32448D01*
X57013Y-32409D01*
X57133Y-32359D01*
X57250Y-32299D01*
X57360Y-32228D01*
X57464Y-32149D01*
X57560Y-32060D01*
X57649Y-31964D01*
X57728Y-31860D01*
X57799Y-31749D01*
X57859Y-31633D01*
X57909Y-31513D01*
X57948Y-31388D01*
X57977Y-31260D01*
X57994Y-31130D01*
X58000Y-31000D01*
X57999Y-20099D02*
X58002Y-19969D01*
X57994Y-19838D01*
X57974Y-19709D01*
X57943Y-19581D01*
X57901Y-19457D01*
X57848Y-19337D01*
X57785Y-19222D01*
X57712Y-19113D01*
X57630Y-19010D01*
X57540Y-18916D01*
X57441Y-18829D01*
X57336Y-18752D01*
X57224Y-18683D01*
X57106Y-18625D01*
X56984Y-18578D01*
X56858Y-18541D01*
X56729Y-18515D01*
X56599Y-18501D01*
X50401Y-18501D02*
X50271Y-18515D01*
X50142Y-18541D01*
X50016Y-18578D01*
X49894Y-18625D01*
X49776Y-18683D01*
X49664Y-18752D01*
X49559Y-18829D01*
X49460Y-18916D01*
X49370Y-19010D01*
X49288Y-19113D01*
X49215Y-19222D01*
X49152Y-19337D01*
X49099Y-19457D01*
X49057Y-19581D01*
X49026Y-19709D01*
X49006Y-19838D01*
X48998Y-19969D01*
X49001Y-20099D01*
M02*
