G04 (created by PCBNEW-RS274X (2011-05-25)-stable) date Sun 19 Aug 2012 12:01:00 PM EDT*
G01*
G70*
G90*
%MOIN*%
G04 Gerber Fmt 3.4, Leading zero omitted, Abs format*
%FSLAX34Y34*%
G04 APERTURE LIST*
%ADD10C,0.006000*%
%ADD11R,0.080000X0.080000*%
%ADD12C,0.080000*%
%ADD13C,0.270000*%
%ADD14R,0.075000X0.075000*%
%ADD15C,0.075000*%
G04 APERTURE END LIST*
G54D10*
G54D11*
X54500Y-32000D03*
G54D12*
X54500Y-31000D03*
X54500Y-30000D03*
G54D11*
X53500Y-32000D03*
G54D12*
X53500Y-31000D03*
X53500Y-30000D03*
G54D11*
X52500Y-19250D03*
G54D12*
X52500Y-20250D03*
X52500Y-21250D03*
G54D11*
X53500Y-19250D03*
G54D12*
X53500Y-20250D03*
X53500Y-21250D03*
G54D11*
X54500Y-19250D03*
G54D12*
X54500Y-20250D03*
X54500Y-21250D03*
G54D13*
X56500Y-31000D03*
X56500Y-20000D03*
X50400Y-31150D03*
X50500Y-20000D03*
G54D14*
X53000Y-27500D03*
G54D15*
X54000Y-27500D03*
X55000Y-27500D03*
X56000Y-27500D03*
X56000Y-24500D03*
X55000Y-24500D03*
X54000Y-24500D03*
X53000Y-24500D03*
G54D14*
X50750Y-24000D03*
G54D15*
X50750Y-22500D03*
X57250Y-22500D03*
X57250Y-23500D03*
X57250Y-25500D03*
X57250Y-26500D03*
X51000Y-29400D03*
X50000Y-29400D03*
X53250Y-28750D03*
X52250Y-28750D03*
X57250Y-28750D03*
X56250Y-28750D03*
X55250Y-28750D03*
X54250Y-28750D03*
X54000Y-23500D03*
X54000Y-22500D03*
X55000Y-22500D03*
X55000Y-23500D03*
X56000Y-23500D03*
X56000Y-22500D03*
G54D11*
X52500Y-30500D03*
G54D12*
X52500Y-31500D03*
M02*
