G04 (created by PCBNEW-RS274X (2012-01-19 BZR 3256)-stable) date 08/02/2013 12:46:22*
G01*
G70*
G90*
%MOIN*%
G04 Gerber Fmt 3.4, Leading zero omitted, Abs format*
%FSLAX34Y34*%
G04 APERTURE LIST*
%ADD10C,0.006000*%
%ADD11C,0.015000*%
G04 APERTURE END LIST*
G54D10*
G54D11*
X37000Y-28800D02*
X37000Y-18000D01*
X44200Y-18000D02*
X44200Y-28800D01*
X37000Y-28800D02*
X44200Y-28800D01*
X37000Y-18000D02*
X44200Y-18000D01*
M02*
