G04 (created by PCBNEW (2013-07-07 BZR 4022)-stable) date 3/23/2015 10:09:48 AM*
%MOIN*%
G04 Gerber Fmt 3.4, Leading zero omitted, Abs format*
%FSLAX34Y34*%
G01*
G70*
G90*
G04 APERTURE LIST*
%ADD10C,0.00590551*%
%ADD11R,0.06X0.08*%
%ADD12R,0.045X0.025*%
%ADD13R,0.025X0.045*%
%ADD14O,0.059X0.042*%
%ADD15R,0.026X0.016*%
%ADD16R,0.0314X0.0314*%
%ADD17R,0.0945X0.0748*%
%ADD18R,0.063X0.071*%
%ADD19R,0.0394X0.0354*%
%ADD20R,0.0354X0.0394*%
%ADD21R,0.04X0.04*%
%ADD22C,0.04*%
%ADD23R,0.067X0.0315*%
%ADD24C,0.113386*%
%ADD25R,0.0196X0.059*%
%ADD26R,0.059X0.0196*%
%ADD27R,0.0157X0.0531*%
%ADD28C,0.0689*%
%ADD29C,0.0492*%
%ADD30C,0.0591*%
%ADD31C,0.1181*%
%ADD32R,0.0315X0.0394*%
%ADD33R,0.0106X0.0394*%
%ADD34R,0.0276X0.0394*%
%ADD35R,0.02X0.03*%
%ADD36C,0.035*%
%ADD37C,0.01*%
%ADD38C,0.019685*%
G04 APERTURE END LIST*
G54D10*
G54D11*
X82342Y-77598D03*
X83642Y-77598D03*
G54D12*
X81988Y-66333D03*
X81988Y-66933D03*
X81948Y-76077D03*
X81948Y-76677D03*
G54D13*
X87307Y-74409D03*
X86707Y-74409D03*
G54D12*
X87795Y-72239D03*
X87795Y-72839D03*
G54D13*
X83951Y-75393D03*
X84551Y-75393D03*
G54D12*
X86122Y-66333D03*
X86122Y-66933D03*
X86122Y-68105D03*
X86122Y-68705D03*
X85433Y-68105D03*
X85433Y-68705D03*
X81003Y-66441D03*
X81003Y-65841D03*
G54D14*
X87893Y-69094D03*
X87893Y-68594D03*
X87893Y-68094D03*
X87598Y-75295D03*
X87598Y-75795D03*
X87598Y-76295D03*
G54D15*
X87592Y-71295D03*
X87592Y-71815D03*
X87592Y-71555D03*
X88392Y-71815D03*
X88392Y-71295D03*
X88392Y-71555D03*
X85229Y-77102D03*
X85229Y-77622D03*
X85229Y-77362D03*
X86029Y-77622D03*
X86029Y-77102D03*
X86029Y-77362D03*
G54D16*
X86122Y-65846D03*
X86122Y-65256D03*
X87697Y-74409D03*
X88287Y-74409D03*
X81988Y-65846D03*
X81988Y-65256D03*
G54D17*
X80314Y-72952D03*
X80314Y-71338D03*
G54D18*
X82520Y-68503D03*
X83620Y-68503D03*
G54D19*
X86614Y-78248D03*
X86614Y-77656D03*
X88287Y-70176D03*
X88287Y-70768D03*
X81496Y-71555D03*
X81496Y-70963D03*
X79133Y-75983D03*
X79133Y-76575D03*
X87795Y-73227D03*
X87795Y-73819D03*
G54D20*
X82382Y-75393D03*
X81790Y-75393D03*
G54D19*
X80019Y-74508D03*
X80019Y-73916D03*
X84448Y-68898D03*
X84448Y-68306D03*
X80610Y-74508D03*
X80610Y-73916D03*
X79940Y-76042D03*
X79940Y-76634D03*
X84744Y-77264D03*
X84744Y-76672D03*
X88326Y-73425D03*
X88326Y-72833D03*
G54D21*
X80708Y-70078D03*
G54D22*
X80708Y-69586D03*
X80708Y-69094D03*
X80708Y-68602D03*
X80708Y-68110D03*
X80708Y-67618D03*
G54D23*
X79527Y-69291D03*
X79527Y-67951D03*
G54D24*
X79527Y-77952D03*
X87795Y-77952D03*
X87795Y-65748D03*
X79527Y-65748D03*
G54D13*
X84640Y-78248D03*
X85240Y-78248D03*
G54D25*
X86121Y-69961D03*
X85806Y-69961D03*
X85491Y-69961D03*
X85176Y-69961D03*
X84861Y-69961D03*
X84547Y-69961D03*
X84233Y-69961D03*
X83918Y-69961D03*
X83603Y-69961D03*
X83288Y-69961D03*
X82973Y-69961D03*
G54D26*
X82264Y-70670D03*
X82264Y-70985D03*
X82264Y-71300D03*
X82264Y-71615D03*
X82264Y-71930D03*
X82264Y-72244D03*
X82264Y-72558D03*
X82264Y-72873D03*
X82264Y-73188D03*
X82264Y-73503D03*
X82264Y-73818D03*
G54D25*
X82973Y-74527D03*
X83288Y-74527D03*
X83603Y-74527D03*
X83918Y-74527D03*
X84233Y-74527D03*
X84547Y-74527D03*
X84861Y-74527D03*
X85176Y-74527D03*
X85491Y-74527D03*
X85806Y-74527D03*
X86121Y-74527D03*
G54D26*
X86830Y-73818D03*
X86830Y-73503D03*
X86830Y-73188D03*
X86830Y-72873D03*
X86830Y-72558D03*
X86830Y-72244D03*
X86830Y-71930D03*
X86830Y-71615D03*
X86830Y-71300D03*
X86830Y-70985D03*
X86830Y-70670D03*
G54D20*
X82873Y-75393D03*
X83465Y-75393D03*
G54D27*
X84567Y-66633D03*
X84311Y-66633D03*
X84055Y-66633D03*
X83799Y-66633D03*
X83543Y-66633D03*
G54D28*
X85433Y-65570D03*
G54D29*
X85039Y-66633D03*
X83071Y-66633D03*
G54D28*
X82677Y-65570D03*
G54D19*
X87677Y-70768D03*
X87677Y-70176D03*
G54D30*
X73836Y-70137D03*
X74836Y-70137D03*
X75636Y-70137D03*
X76636Y-70137D03*
G54D31*
X72636Y-69087D03*
X78036Y-69087D03*
G54D12*
X73110Y-76658D03*
X73110Y-76058D03*
G54D32*
X74468Y-75196D03*
X74843Y-76062D03*
X74093Y-76062D03*
G54D27*
X75019Y-77086D03*
X75275Y-77086D03*
X75531Y-77086D03*
X75787Y-77086D03*
X76043Y-77086D03*
G54D28*
X74153Y-78149D03*
G54D29*
X74547Y-77086D03*
X76515Y-77086D03*
G54D28*
X76909Y-78149D03*
G54D33*
X76020Y-74192D03*
X76220Y-74192D03*
X76420Y-74192D03*
X76620Y-74192D03*
X76820Y-74192D03*
X76820Y-72442D03*
X76620Y-72442D03*
X76420Y-72442D03*
X76220Y-72442D03*
X76020Y-72442D03*
G54D12*
X73287Y-75034D03*
X73287Y-75634D03*
G54D19*
X72539Y-75038D03*
X72539Y-75630D03*
G54D14*
X72244Y-73633D03*
X72244Y-74122D03*
G54D24*
X72047Y-71850D03*
G54D34*
X80432Y-75681D03*
X80807Y-75681D03*
X81182Y-75681D03*
X81182Y-76681D03*
X80807Y-76681D03*
X80432Y-76681D03*
G54D35*
X83367Y-75897D03*
X82617Y-75897D03*
X83367Y-76897D03*
X82992Y-75897D03*
X82617Y-76897D03*
X80825Y-78354D03*
X81575Y-78354D03*
X80825Y-77354D03*
X81200Y-78354D03*
X81575Y-77354D03*
G54D36*
X87086Y-67696D03*
X87086Y-69685D03*
X81200Y-77972D03*
X80019Y-75098D03*
X78700Y-67972D03*
X85629Y-76653D03*
X78562Y-75688D03*
X76023Y-77736D03*
X76220Y-73602D03*
X77263Y-74192D03*
X86102Y-71082D03*
X84842Y-70669D03*
X85925Y-73425D03*
X87992Y-71555D03*
X82578Y-74507D03*
X82972Y-71751D03*
X85137Y-75196D03*
X85137Y-73818D03*
X84645Y-77755D03*
X72362Y-76082D03*
X83661Y-70925D03*
X75531Y-72440D03*
X81594Y-70433D03*
X83818Y-72244D03*
X79192Y-74704D03*
X75078Y-73070D03*
X88326Y-72342D03*
X81496Y-69586D03*
X82972Y-73622D03*
X82972Y-73129D03*
X82972Y-70964D03*
X80511Y-65846D03*
X74055Y-76633D03*
X78287Y-76397D03*
G54D37*
X87086Y-67696D02*
X87086Y-69685D01*
X84547Y-74527D02*
X84547Y-75388D01*
X84547Y-75388D02*
X84551Y-75393D01*
X84551Y-75393D02*
X84551Y-75723D01*
X84551Y-75723D02*
X84377Y-75897D01*
X84377Y-75897D02*
X83367Y-75897D01*
X82264Y-73818D02*
X81792Y-73818D01*
X81182Y-75333D02*
X81182Y-75681D01*
X81515Y-75000D02*
X81182Y-75333D01*
X81515Y-74094D02*
X81515Y-75000D01*
X81792Y-73818D02*
X81515Y-74094D01*
X81200Y-78248D02*
X81200Y-77972D01*
X82873Y-75393D02*
X82873Y-75589D01*
X82992Y-75708D02*
X82992Y-75897D01*
X82873Y-75589D02*
X82992Y-75708D01*
X80807Y-76681D02*
X80807Y-76279D01*
X80019Y-76062D02*
X80019Y-75098D01*
X80019Y-75098D02*
X80019Y-74508D01*
X80079Y-76122D02*
X80019Y-76062D01*
X80649Y-76122D02*
X80079Y-76122D01*
X80807Y-76279D02*
X80649Y-76122D01*
X72244Y-74122D02*
X72244Y-74743D01*
X72244Y-74743D02*
X72539Y-75038D01*
X79527Y-67951D02*
X78721Y-67951D01*
X78721Y-67951D02*
X78700Y-67972D01*
X85629Y-77362D02*
X85629Y-76653D01*
G54D38*
X79133Y-75983D02*
X78857Y-75983D01*
X78857Y-75983D02*
X78562Y-75688D01*
G54D37*
X76043Y-77086D02*
X76043Y-77716D01*
X76043Y-77716D02*
X76023Y-77736D01*
X76220Y-74192D02*
X76220Y-73602D01*
X76820Y-74192D02*
X77263Y-74192D01*
X86830Y-70985D02*
X86199Y-70985D01*
X86199Y-70985D02*
X86102Y-71082D01*
X87893Y-69094D02*
X87893Y-69311D01*
X88287Y-69704D02*
X88287Y-70176D01*
X87893Y-69311D02*
X88287Y-69704D01*
X87677Y-70768D02*
X87695Y-70768D01*
X87695Y-70768D02*
X88287Y-70176D01*
X85629Y-77362D02*
X85629Y-78248D01*
X85629Y-78248D02*
X85241Y-78248D01*
X85241Y-78248D02*
X85240Y-78248D01*
X85229Y-77362D02*
X84841Y-77362D01*
X84841Y-77362D02*
X84744Y-77264D01*
X82382Y-75393D02*
X82874Y-75393D01*
X82874Y-75393D02*
X82869Y-75393D01*
X84861Y-69961D02*
X84861Y-70650D01*
X84861Y-70650D02*
X84842Y-70669D01*
X86830Y-73503D02*
X86003Y-73503D01*
X86003Y-73503D02*
X85925Y-73425D01*
X87795Y-73227D02*
X87991Y-73227D01*
X87991Y-73227D02*
X88189Y-73425D01*
X87795Y-73227D02*
X87795Y-72839D01*
X87795Y-73227D02*
X87599Y-73227D01*
X87323Y-73503D02*
X86830Y-73503D01*
X87599Y-73227D02*
X87323Y-73503D01*
X88392Y-71555D02*
X87992Y-71555D01*
X87992Y-71555D02*
X87592Y-71555D01*
X88287Y-74409D02*
X88287Y-73524D01*
X85229Y-77362D02*
X85629Y-77362D01*
X85629Y-77362D02*
X86029Y-77362D01*
X82520Y-68503D02*
X82086Y-68503D01*
X81200Y-67618D02*
X80708Y-67618D01*
X82086Y-68503D02*
X81200Y-67618D01*
X82973Y-74527D02*
X82597Y-74527D01*
X82597Y-74527D02*
X82578Y-74507D01*
X82869Y-75393D02*
X82869Y-75004D01*
X82973Y-74900D02*
X82973Y-74527D01*
X82869Y-75004D02*
X82973Y-74900D01*
X80019Y-74508D02*
X80610Y-74508D01*
X84743Y-68306D02*
X84448Y-68306D01*
X86122Y-65256D02*
X85747Y-65256D01*
X85747Y-65256D02*
X85433Y-65570D01*
X83543Y-66633D02*
X83543Y-67106D01*
X84448Y-68011D02*
X84448Y-68307D01*
X84153Y-67716D02*
X84448Y-68011D01*
X84153Y-67716D02*
X84153Y-67716D01*
X83543Y-67106D02*
X84153Y-67716D01*
X81988Y-65256D02*
X82362Y-65256D01*
X82362Y-65256D02*
X82677Y-65570D01*
X80708Y-67618D02*
X79822Y-67618D01*
X79822Y-67618D02*
X79527Y-67951D01*
X84861Y-69961D02*
X84861Y-68424D01*
X84861Y-68424D02*
X84743Y-68306D01*
X82264Y-71615D02*
X82835Y-71615D01*
X82835Y-71615D02*
X82972Y-71751D01*
X82264Y-71615D02*
X81633Y-71615D01*
X81633Y-71615D02*
X81496Y-71555D01*
X86614Y-78248D02*
X85629Y-78248D01*
X88189Y-73425D02*
X88385Y-73425D01*
X88287Y-73524D02*
X88385Y-73425D01*
X86121Y-69961D02*
X86319Y-69968D01*
X86122Y-67125D02*
X86122Y-66933D01*
X86712Y-67716D02*
X86122Y-67125D01*
X86712Y-69586D02*
X86712Y-67716D01*
X86319Y-69968D02*
X86712Y-69586D01*
X85137Y-75196D02*
X86417Y-75196D01*
X86712Y-74901D02*
X86707Y-74409D01*
X86417Y-75196D02*
X86712Y-74901D01*
X84645Y-77755D02*
X84645Y-78243D01*
X85229Y-77622D02*
X84779Y-77622D01*
X84645Y-78243D02*
X84640Y-78248D01*
X85176Y-73857D02*
X85137Y-73818D01*
X85176Y-74527D02*
X85176Y-73857D01*
X84779Y-77622D02*
X84645Y-77755D01*
G54D38*
X76636Y-70137D02*
X76636Y-69707D01*
X76636Y-69707D02*
X76299Y-69370D01*
X76299Y-69370D02*
X73720Y-69370D01*
X73720Y-69370D02*
X73169Y-69921D01*
X73169Y-69921D02*
X73169Y-70531D01*
X73169Y-70531D02*
X74468Y-71830D01*
X74468Y-71830D02*
X74468Y-75196D01*
G54D37*
X83918Y-69961D02*
X83918Y-70668D01*
X72386Y-76058D02*
X73110Y-76058D01*
X72362Y-76082D02*
X72386Y-76058D01*
X83918Y-70668D02*
X83661Y-70925D01*
X73110Y-76058D02*
X74088Y-76058D01*
X74088Y-76058D02*
X74093Y-76062D01*
G54D38*
X75019Y-77086D02*
X75019Y-76238D01*
X75019Y-76238D02*
X74843Y-76062D01*
G54D37*
X75636Y-70137D02*
X75636Y-70793D01*
X76820Y-71977D02*
X76820Y-72442D01*
X75636Y-70793D02*
X76820Y-71977D01*
X74836Y-70137D02*
X74836Y-70308D01*
X76620Y-72092D02*
X76620Y-72442D01*
X74836Y-70308D02*
X76620Y-72092D01*
X82264Y-70670D02*
X81831Y-70670D01*
X75533Y-72442D02*
X76020Y-72442D01*
X75531Y-72440D02*
X75533Y-72442D01*
X81831Y-70670D02*
X81594Y-70433D01*
X72244Y-73633D02*
X72905Y-73633D01*
X73287Y-74015D02*
X73287Y-75034D01*
X72905Y-73633D02*
X73287Y-74015D01*
X86830Y-71930D02*
X84132Y-71930D01*
X84132Y-71930D02*
X83818Y-72244D01*
X79192Y-74704D02*
X77559Y-73070D01*
X77559Y-73070D02*
X75078Y-73070D01*
X80825Y-77354D02*
X80700Y-77354D01*
X80432Y-77085D02*
X80432Y-76681D01*
X80700Y-77354D02*
X80432Y-77085D01*
X80432Y-76681D02*
X79987Y-76681D01*
X79987Y-76681D02*
X79940Y-76634D01*
X87592Y-71295D02*
X87760Y-71295D01*
X87760Y-71295D02*
X88287Y-70768D01*
X86830Y-71615D02*
X87243Y-71615D01*
X87366Y-71295D02*
X87592Y-71295D01*
X87303Y-71358D02*
X87366Y-71295D01*
X87303Y-71555D02*
X87303Y-71358D01*
X87243Y-71615D02*
X87303Y-71555D01*
X76620Y-74192D02*
X76620Y-75249D01*
X75275Y-76594D02*
X75275Y-77086D01*
X76620Y-75249D02*
X75275Y-76594D01*
X76420Y-74192D02*
X76420Y-73835D01*
X75531Y-76673D02*
X75531Y-77086D01*
X77696Y-74507D02*
X75531Y-76673D01*
X77696Y-73956D02*
X77696Y-74507D01*
X77421Y-73681D02*
X77696Y-73956D01*
X76574Y-73681D02*
X77421Y-73681D01*
X76420Y-73835D02*
X76574Y-73681D01*
X88326Y-72342D02*
X88326Y-72774D01*
X88326Y-72774D02*
X88385Y-72833D01*
X88392Y-71815D02*
X88392Y-72277D01*
X88392Y-72277D02*
X88326Y-72342D01*
X86614Y-77656D02*
X86614Y-77165D01*
X86614Y-77165D02*
X86909Y-76870D01*
X86579Y-77622D02*
X86614Y-77656D01*
X86909Y-76870D02*
X87893Y-76870D01*
X87992Y-75295D02*
X87598Y-75295D01*
X88188Y-75492D02*
X87992Y-75295D01*
X88188Y-76574D02*
X88188Y-75492D01*
X87893Y-76870D02*
X88188Y-76574D01*
X86029Y-77622D02*
X86579Y-77622D01*
X80708Y-70078D02*
X81889Y-70078D01*
X82007Y-69961D02*
X82973Y-69961D01*
X81889Y-70078D02*
X82007Y-69961D01*
X83288Y-69961D02*
X83288Y-69607D01*
X81692Y-69389D02*
X81496Y-69586D01*
X83070Y-69389D02*
X81692Y-69389D01*
X83288Y-69607D02*
X83070Y-69389D01*
X81496Y-69094D02*
X80708Y-69094D01*
X81496Y-69094D02*
X81496Y-69094D01*
X83267Y-69094D02*
X81496Y-69094D01*
X83603Y-69961D02*
X83603Y-69430D01*
X83603Y-69430D02*
X83267Y-69094D01*
X87795Y-72239D02*
X87303Y-72239D01*
X87303Y-72239D02*
X87303Y-72244D01*
X86830Y-72873D02*
X87166Y-72873D01*
X87436Y-71815D02*
X87592Y-71815D01*
X87303Y-71948D02*
X87436Y-71815D01*
X87303Y-72736D02*
X87303Y-72244D01*
X87303Y-72244D02*
X87303Y-71948D01*
X87166Y-72873D02*
X87303Y-72736D01*
X84547Y-69980D02*
X84547Y-68996D01*
X84547Y-68996D02*
X84448Y-68897D01*
X85236Y-67322D02*
X85629Y-67716D01*
X85236Y-67322D02*
X84448Y-67322D01*
X84448Y-67322D02*
X84311Y-67185D01*
X84311Y-66633D02*
X84311Y-67185D01*
X86122Y-67814D02*
X86122Y-68105D01*
X86023Y-67716D02*
X86122Y-67814D01*
X85629Y-67716D02*
X86023Y-67716D01*
X81988Y-66333D02*
X81988Y-65846D01*
X85491Y-69961D02*
X85491Y-69528D01*
X85491Y-69528D02*
X85728Y-69291D01*
X86122Y-69192D02*
X86122Y-68705D01*
X86023Y-69291D02*
X86122Y-69192D01*
X85728Y-69291D02*
X86023Y-69291D01*
X85433Y-68105D02*
X85433Y-67814D01*
X84055Y-67224D02*
X84055Y-66633D01*
X84350Y-67519D02*
X84055Y-67224D01*
X85137Y-67519D02*
X84350Y-67519D01*
X85433Y-67814D02*
X85137Y-67519D01*
X82853Y-73503D02*
X82972Y-73622D01*
X82264Y-73503D02*
X82853Y-73503D01*
X86122Y-65846D02*
X86122Y-66333D01*
X80314Y-72952D02*
X80314Y-73228D01*
X80610Y-73523D02*
X80610Y-73916D01*
X80314Y-73228D02*
X80610Y-73523D01*
X82264Y-72244D02*
X80511Y-72244D01*
X80314Y-72440D02*
X80314Y-72952D01*
X80511Y-72244D02*
X80314Y-72440D01*
X85176Y-69961D02*
X85176Y-69548D01*
X85433Y-69291D02*
X85433Y-68705D01*
X85176Y-69548D02*
X85433Y-69291D01*
X87307Y-74409D02*
X87697Y-74409D01*
X80314Y-71338D02*
X79645Y-71338D01*
X79625Y-73916D02*
X80019Y-73916D01*
X79527Y-73818D02*
X79625Y-73916D01*
X79527Y-71456D02*
X79527Y-73818D01*
X79645Y-71338D02*
X79527Y-71456D01*
X82264Y-71930D02*
X80493Y-71930D01*
X80314Y-71751D02*
X80314Y-71338D01*
X80493Y-71930D02*
X80314Y-71751D01*
X82342Y-77598D02*
X82342Y-78188D01*
X84370Y-76672D02*
X84744Y-76672D01*
X84173Y-76870D02*
X84370Y-76672D01*
X84173Y-78169D02*
X84173Y-76870D01*
X84035Y-78307D02*
X84173Y-78169D01*
X82460Y-78307D02*
X84035Y-78307D01*
X82342Y-78188D02*
X82460Y-78307D01*
X82617Y-76897D02*
X82617Y-77323D01*
X82617Y-77323D02*
X82342Y-77598D01*
X85229Y-77102D02*
X85229Y-76863D01*
X85229Y-76863D02*
X85038Y-76672D01*
X85038Y-76672D02*
X84744Y-76672D01*
X82264Y-73188D02*
X82914Y-73188D01*
X82914Y-73188D02*
X82972Y-73129D01*
X83367Y-76897D02*
X83367Y-77323D01*
X83367Y-77323D02*
X83642Y-77598D01*
X87598Y-75795D02*
X84854Y-75795D01*
X83751Y-76897D02*
X83367Y-76897D01*
X84854Y-75795D02*
X83751Y-76897D01*
X81948Y-76077D02*
X82268Y-76077D01*
X82448Y-75897D02*
X82617Y-75897D01*
X82268Y-76077D02*
X82448Y-75897D01*
X81790Y-75393D02*
X81790Y-75414D01*
X81594Y-75610D02*
X81594Y-76673D01*
X81790Y-75414D02*
X81594Y-75610D01*
X82086Y-76673D02*
X81594Y-76673D01*
X81594Y-76673D02*
X81189Y-76673D01*
X81189Y-76673D02*
X81182Y-76681D01*
X82951Y-70985D02*
X82972Y-70964D01*
X82264Y-70985D02*
X82951Y-70985D01*
X80516Y-65841D02*
X81003Y-65841D01*
X80511Y-65846D02*
X80516Y-65841D01*
X79527Y-69291D02*
X79527Y-69259D01*
X79527Y-69259D02*
X79527Y-68799D01*
X79527Y-68799D02*
X80216Y-68110D01*
X80216Y-68110D02*
X80708Y-68110D01*
X82264Y-72558D02*
X81772Y-72558D01*
X80432Y-75394D02*
X80432Y-75681D01*
X81122Y-74704D02*
X80432Y-75394D01*
X81122Y-73208D02*
X81122Y-74704D01*
X81772Y-72558D02*
X81122Y-73208D01*
X82264Y-72873D02*
X81752Y-72873D01*
X80807Y-75314D02*
X80807Y-75681D01*
X81318Y-74803D02*
X80807Y-75314D01*
X81318Y-73307D02*
X81318Y-74803D01*
X81752Y-72873D02*
X81318Y-73307D01*
X72539Y-75630D02*
X72085Y-75630D01*
X72091Y-76658D02*
X73110Y-76658D01*
X71870Y-76437D02*
X72091Y-76658D01*
X71870Y-75846D02*
X71870Y-76437D01*
X72085Y-75630D02*
X71870Y-75846D01*
X73287Y-75634D02*
X72543Y-75634D01*
X72543Y-75634D02*
X72539Y-75630D01*
X76020Y-74192D02*
X76020Y-74865D01*
X75251Y-75634D02*
X73287Y-75634D01*
X76020Y-74865D02*
X75251Y-75634D01*
X79625Y-76968D02*
X79843Y-76968D01*
X80541Y-77647D02*
X81309Y-77647D01*
X81575Y-77914D02*
X81575Y-78354D01*
X81309Y-77647D02*
X81575Y-77914D01*
X80825Y-77932D02*
X80825Y-78354D01*
X79842Y-76968D02*
X79843Y-76968D01*
X79843Y-76968D02*
X80541Y-77647D01*
X80541Y-77647D02*
X80825Y-77932D01*
X73110Y-76658D02*
X74030Y-76658D01*
X74030Y-76658D02*
X74055Y-76633D01*
X78287Y-76397D02*
X78465Y-76575D01*
X78465Y-76575D02*
X79133Y-76575D01*
X81496Y-70963D02*
X81200Y-70963D01*
X80905Y-70669D02*
X79232Y-70669D01*
X81200Y-70963D02*
X80905Y-70669D01*
X82264Y-71300D02*
X81832Y-71300D01*
X83464Y-71300D02*
X82264Y-71300D01*
X79625Y-74409D02*
X79625Y-76948D01*
X79625Y-76948D02*
X79625Y-76968D01*
X79232Y-74015D02*
X79625Y-74409D01*
X79232Y-70669D02*
X79232Y-74015D01*
X80314Y-69586D02*
X79232Y-70669D01*
X81832Y-71300D02*
X81496Y-70964D01*
X86830Y-73818D02*
X85727Y-73818D01*
X85334Y-73425D02*
X83288Y-73425D01*
X85727Y-73818D02*
X85334Y-73425D01*
X83288Y-74527D02*
X83288Y-73425D01*
X83288Y-73425D02*
X83288Y-73010D01*
X83464Y-72834D02*
X83464Y-71300D01*
X83288Y-73010D02*
X83464Y-72834D01*
X84233Y-71300D02*
X83464Y-71300D01*
X87795Y-73819D02*
X86831Y-73819D01*
X86831Y-73819D02*
X86830Y-73818D01*
X85195Y-71300D02*
X84233Y-71300D01*
X86830Y-70670D02*
X86830Y-70394D01*
X87047Y-70176D02*
X87677Y-70176D01*
X86830Y-70394D02*
X87047Y-70176D01*
X83288Y-74922D02*
X83288Y-74527D01*
X80708Y-69586D02*
X80314Y-69586D01*
X79133Y-76771D02*
X79133Y-76575D01*
X79330Y-76968D02*
X79133Y-76771D01*
X79625Y-76968D02*
X79330Y-76968D01*
X83469Y-75393D02*
X83469Y-75103D01*
X83469Y-75103D02*
X83288Y-74922D01*
X83951Y-75393D02*
X83469Y-75393D01*
X84233Y-69961D02*
X84233Y-69411D01*
X84233Y-69411D02*
X83620Y-68799D01*
X84233Y-69961D02*
X84233Y-71300D01*
X85806Y-69961D02*
X85806Y-70650D01*
X85806Y-70650D02*
X85825Y-70670D01*
X86830Y-70670D02*
X85825Y-70670D01*
X85825Y-70670D02*
X85195Y-71300D01*
X83620Y-68700D02*
X83620Y-68266D01*
X83620Y-68266D02*
X83366Y-67913D01*
X83366Y-67913D02*
X82185Y-67913D01*
X82185Y-67913D02*
X81988Y-67716D01*
X81988Y-67716D02*
X81988Y-66933D01*
X85806Y-69961D02*
X85806Y-69607D01*
X85806Y-69607D02*
X85925Y-69488D01*
X85925Y-69488D02*
X86220Y-69488D01*
X86220Y-69488D02*
X86515Y-69192D01*
X86515Y-69192D02*
X86515Y-67814D01*
X86515Y-67814D02*
X86220Y-67519D01*
X86220Y-67519D02*
X85728Y-67519D01*
X85728Y-67519D02*
X85334Y-67125D01*
X85334Y-67125D02*
X84645Y-67125D01*
X84645Y-67125D02*
X84567Y-67047D01*
X84567Y-67047D02*
X84567Y-66633D01*
X81003Y-66441D02*
X81003Y-66732D01*
X81205Y-66933D02*
X81988Y-66933D01*
X81003Y-66732D02*
X81205Y-66933D01*
M02*
