G04 start of page 10 for group -4015 idx -4015 *
G04 Title: (unknown), toppaste *
G04 Creator: pcb 20110918 *
G04 CreationDate: Thu 19 Dec 2013 05:48:54 PM GMT UTC *
G04 For: main-user *
G04 Format: Gerber/RS-274X *
G04 PCB-Dimensions: 1574803 787402 *
G04 PCB-Coordinate-Origin: lower left *
%MOIN*%
%FSLAX25Y25*%
%LNTOPPASTE*%
%ADD11C,0.0100*%
M02*
