G04 start of page 4 for group 2 idx 6 *
G04 Title: (unknown), outline *
G04 Creator: pcb 20110918 *
G04 CreationDate: Thu 19 Dec 2013 05:48:54 PM GMT UTC *
G04 For: main-user *
G04 Format: Gerber/RS-274X *
G04 PCB-Dimensions: 1574803 787402 *
G04 PCB-Coordinate-Origin: lower left *
%MOIN*%
%FSLAX25Y25*%
%LNOUTLINE*%
%ADD251C,0.0200*%
G54D251*X518189Y230591D02*X519390Y641792D01*
X1194997Y229902D02*X518189Y230591D01*
X1195000Y642402D02*X1194997Y229905D01*
X519547Y641792D02*X1195000Y642402D01*
M02*
