G04 DipTrace 2.3.0.0*
%INBottomMask.gbr*%
%MOIN*%
%ADD21C,0.0984*%
%ADD22C,0.1496*%
%ADD23C,0.0866*%
%ADD24C,0.138*%
%ADD25C,0.1377*%
%ADD28C,0.048*%
%ADD30C,0.0671*%
%ADD32C,0.0671*%
%ADD34R,0.0671X0.0671*%
%ADD36C,0.082*%
%ADD38R,0.082X0.082*%
%FSLAX44Y44*%
G04*
G70*
G90*
G75*
G01*
%LNBotMask*%
%LPD*%
D28*
X11440Y6899D3*
D3*
D3*
D38*
X16440Y17791D3*
D36*
X15440D3*
X14440D3*
X13440D3*
X12440D3*
X11440D3*
D34*
X20840Y15928D3*
D32*
Y11952D3*
D34*
X22540Y15928D3*
D32*
Y11952D3*
D34*
X6740Y15928D3*
D32*
Y11952D3*
D34*
X4940Y15928D3*
D32*
Y11952D3*
D34*
X20840Y10928D3*
D32*
Y6952D3*
D34*
X22540Y10928D3*
D32*
Y6952D3*
D34*
X6740Y10928D3*
D32*
Y6952D3*
D34*
X4940Y10928D3*
D32*
Y6952D3*
D30*
X18440Y12444D3*
X9440D3*
Y9436D3*
X18440D3*
D21*
X17495Y14495D3*
D22*
X13940Y6991D3*
D23*
X8609Y10940D3*
X19270D3*
D24*
X21940Y17740D3*
X5940Y5140D3*
D25*
Y17740D3*
D24*
X21940Y5140D3*
M02*
