G04 #@! TF.FileFunction,Copper,L2,Bot,Signal*
%FSLAX46Y46*%
G04 Gerber Fmt 4.6, Leading zero omitted, Abs format (unit mm)*
G04 Created by KiCad (PCBNEW 4.0.1-stable) date 2016 January 16, Saturday 09:18:25*
%MOMM*%
G01*
G04 APERTURE LIST*
%ADD10C,0.020000*%
%ADD11R,1.727200X2.032000*%
%ADD12O,1.727200X2.032000*%
%ADD13R,1.727200X1.727200*%
%ADD14O,1.727200X1.727200*%
%ADD15C,4.500000*%
%ADD16C,2.500000*%
%ADD17C,2.000000*%
%ADD18C,0.500000*%
%ADD19C,0.400000*%
G04 APERTURE END LIST*
D10*
D11*
X99060000Y-149860000D03*
D12*
X101600000Y-149860000D03*
X104140000Y-149860000D03*
X106680000Y-149860000D03*
X109220000Y-149860000D03*
X111760000Y-149860000D03*
X114300000Y-149860000D03*
X116840000Y-149860000D03*
D11*
X121920000Y-149860000D03*
D12*
X124460000Y-149860000D03*
X127000000Y-149860000D03*
X129540000Y-149860000D03*
X132080000Y-149860000D03*
X134620000Y-149860000D03*
D11*
X134620000Y-101600000D03*
D12*
X132080000Y-101600000D03*
X129540000Y-101600000D03*
X127000000Y-101600000D03*
X124460000Y-101600000D03*
X121920000Y-101600000D03*
X119380000Y-101600000D03*
X116840000Y-101600000D03*
D11*
X111760000Y-101600000D03*
D12*
X109220000Y-101600000D03*
X106680000Y-101600000D03*
X104140000Y-101600000D03*
X101600000Y-101600000D03*
X99060000Y-101600000D03*
X96520000Y-101600000D03*
X93980000Y-101600000D03*
X91440000Y-101600000D03*
X88900000Y-101600000D03*
D13*
X134620000Y-121920000D03*
D14*
X137160000Y-121920000D03*
X134620000Y-124460000D03*
X137160000Y-124460000D03*
X134620000Y-127000000D03*
X137160000Y-127000000D03*
D11*
X88900000Y-111760000D03*
D12*
X91440000Y-111760000D03*
X93980000Y-111760000D03*
X96520000Y-111760000D03*
X99060000Y-111760000D03*
X101600000Y-111760000D03*
X104140000Y-111760000D03*
X106680000Y-111760000D03*
D15*
X187120000Y-144900000D03*
X187120000Y-106900000D03*
X227870000Y-125900000D03*
D16*
X188620000Y-124400000D03*
X187120000Y-116900000D03*
X184620000Y-122900000D03*
X182120000Y-121400000D03*
X184120000Y-115900000D03*
X188370000Y-120400000D03*
X187620000Y-133900000D03*
X217620000Y-139400000D03*
X214620000Y-108900000D03*
X187370000Y-112400000D03*
D17*
X187370000Y-112400000D02*
X182370000Y-112400000D01*
X176870000Y-117900000D02*
X170870000Y-117900000D01*
X182370000Y-112400000D02*
X176870000Y-117900000D01*
D18*
X178620000Y-121650000D02*
X150370000Y-121650000D01*
X99060000Y-114840000D02*
X99060000Y-111760000D01*
X100370000Y-116150000D02*
X99060000Y-114840000D01*
X144870000Y-116150000D02*
X100370000Y-116150000D01*
X150370000Y-121650000D02*
X144870000Y-116150000D01*
X183870000Y-119150000D02*
X188620000Y-123900000D01*
X181120000Y-119150000D02*
X183870000Y-119150000D01*
X179870000Y-120400000D02*
X181120000Y-119150000D01*
X178620000Y-121650000D02*
X179870000Y-120400000D01*
X188620000Y-123900000D02*
X188620000Y-124400000D01*
D19*
G36*
X169920000Y-111900000D02*
X169927918Y-111955719D01*
X169951046Y-112007025D01*
X169978579Y-112041421D01*
X172420000Y-114482842D01*
X172420000Y-120800000D01*
X150722081Y-120800000D01*
X145471041Y-115548959D01*
X145410353Y-115499109D01*
X145350222Y-115448654D01*
X145346307Y-115446502D01*
X145342851Y-115443663D01*
X145273633Y-115406549D01*
X145204851Y-115368735D01*
X145200591Y-115367384D01*
X145196651Y-115365271D01*
X145121511Y-115342298D01*
X145046725Y-115318575D01*
X145042288Y-115318077D01*
X145038009Y-115316769D01*
X144959834Y-115308828D01*
X144881868Y-115300083D01*
X144873134Y-115300022D01*
X144872967Y-115300005D01*
X144872812Y-115300020D01*
X144870000Y-115300000D01*
X100722082Y-115300000D01*
X99910000Y-114487918D01*
X99910000Y-113105843D01*
X100084027Y-112965921D01*
X100267636Y-112747105D01*
X100329810Y-112634010D01*
X100380936Y-112730163D01*
X100561472Y-112951522D01*
X100781565Y-113133598D01*
X101032832Y-113269458D01*
X101305702Y-113353925D01*
X101589782Y-113383783D01*
X101874251Y-113357895D01*
X102148274Y-113277245D01*
X102401414Y-113144907D01*
X102624027Y-112965921D01*
X102807636Y-112747105D01*
X102869810Y-112634010D01*
X102920936Y-112730163D01*
X103101472Y-112951522D01*
X103321565Y-113133598D01*
X103572832Y-113269458D01*
X103845702Y-113353925D01*
X104129782Y-113383783D01*
X104414251Y-113357895D01*
X104688274Y-113277245D01*
X104941414Y-113144907D01*
X105164027Y-112965921D01*
X105347636Y-112747105D01*
X105409810Y-112634010D01*
X105460936Y-112730163D01*
X105641472Y-112951522D01*
X105861565Y-113133598D01*
X106112832Y-113269458D01*
X106385702Y-113353925D01*
X106669782Y-113383783D01*
X106954251Y-113357895D01*
X107228274Y-113277245D01*
X107481414Y-113144907D01*
X107704027Y-112965921D01*
X107887636Y-112747105D01*
X108025246Y-112496792D01*
X108111617Y-112224519D01*
X108143457Y-111940654D01*
X108143600Y-111920219D01*
X108143600Y-111599781D01*
X108115726Y-111315500D01*
X108033166Y-111042046D01*
X107899064Y-110789837D01*
X107718528Y-110568478D01*
X107498435Y-110386402D01*
X107247168Y-110250542D01*
X106974298Y-110166075D01*
X106690218Y-110136217D01*
X106405749Y-110162105D01*
X106131726Y-110242755D01*
X105878586Y-110375093D01*
X105655973Y-110554079D01*
X105472364Y-110772895D01*
X105410190Y-110885990D01*
X105359064Y-110789837D01*
X105178528Y-110568478D01*
X104958435Y-110386402D01*
X104707168Y-110250542D01*
X104434298Y-110166075D01*
X104150218Y-110136217D01*
X103865749Y-110162105D01*
X103591726Y-110242755D01*
X103338586Y-110375093D01*
X103115973Y-110554079D01*
X102932364Y-110772895D01*
X102870190Y-110885990D01*
X102819064Y-110789837D01*
X102638528Y-110568478D01*
X102418435Y-110386402D01*
X102167168Y-110250542D01*
X101894298Y-110166075D01*
X101610218Y-110136217D01*
X101325749Y-110162105D01*
X101051726Y-110242755D01*
X100798586Y-110375093D01*
X100575973Y-110554079D01*
X100392364Y-110772895D01*
X100330190Y-110885990D01*
X100279064Y-110789837D01*
X100098528Y-110568478D01*
X99878435Y-110386402D01*
X99627168Y-110250542D01*
X99354298Y-110166075D01*
X99070218Y-110136217D01*
X98785749Y-110162105D01*
X98511726Y-110242755D01*
X98258586Y-110375093D01*
X98035973Y-110554079D01*
X97852364Y-110772895D01*
X97790190Y-110885990D01*
X97739064Y-110789837D01*
X97558528Y-110568478D01*
X97338435Y-110386402D01*
X97087168Y-110250542D01*
X96814298Y-110166075D01*
X96530218Y-110136217D01*
X96245749Y-110162105D01*
X95971726Y-110242755D01*
X95718586Y-110375093D01*
X95495973Y-110554079D01*
X95312364Y-110772895D01*
X95250190Y-110885990D01*
X95199064Y-110789837D01*
X95018528Y-110568478D01*
X94798435Y-110386402D01*
X94547168Y-110250542D01*
X94274298Y-110166075D01*
X93990218Y-110136217D01*
X93705749Y-110162105D01*
X93431726Y-110242755D01*
X93178586Y-110375093D01*
X92955973Y-110554079D01*
X92772364Y-110772895D01*
X92710190Y-110885990D01*
X92659064Y-110789837D01*
X92478528Y-110568478D01*
X92258435Y-110386402D01*
X92007168Y-110250542D01*
X91734298Y-110166075D01*
X91450218Y-110136217D01*
X91165749Y-110162105D01*
X90891726Y-110242755D01*
X90638586Y-110375093D01*
X90415973Y-110554079D01*
X90352927Y-110629215D01*
X90308697Y-110486393D01*
X90215348Y-110344731D01*
X90086230Y-110234685D01*
X89931565Y-110164966D01*
X89763600Y-110141097D01*
X88036400Y-110141097D01*
X87940852Y-110148716D01*
X87778793Y-110198903D01*
X87637131Y-110292252D01*
X87527085Y-110421370D01*
X87457366Y-110576035D01*
X87433497Y-110744000D01*
X87433497Y-112776000D01*
X87441116Y-112871548D01*
X87491303Y-113033607D01*
X87584652Y-113175269D01*
X87713770Y-113285315D01*
X87868435Y-113355034D01*
X88036400Y-113378903D01*
X89763600Y-113378903D01*
X89859148Y-113371284D01*
X90021207Y-113321097D01*
X90162869Y-113227748D01*
X90272915Y-113098630D01*
X90342634Y-112943965D01*
X90350450Y-112888963D01*
X90401472Y-112951522D01*
X90621565Y-113133598D01*
X90872832Y-113269458D01*
X91145702Y-113353925D01*
X91429782Y-113383783D01*
X91714251Y-113357895D01*
X91988274Y-113277245D01*
X92241414Y-113144907D01*
X92464027Y-112965921D01*
X92647636Y-112747105D01*
X92709810Y-112634010D01*
X92760936Y-112730163D01*
X92941472Y-112951522D01*
X93161565Y-113133598D01*
X93412832Y-113269458D01*
X93685702Y-113353925D01*
X93969782Y-113383783D01*
X94254251Y-113357895D01*
X94528274Y-113277245D01*
X94781414Y-113144907D01*
X95004027Y-112965921D01*
X95187636Y-112747105D01*
X95249810Y-112634010D01*
X95300936Y-112730163D01*
X95481472Y-112951522D01*
X95701565Y-113133598D01*
X95952832Y-113269458D01*
X96225702Y-113353925D01*
X96509782Y-113383783D01*
X96794251Y-113357895D01*
X97068274Y-113277245D01*
X97321414Y-113144907D01*
X97544027Y-112965921D01*
X97727636Y-112747105D01*
X97789810Y-112634010D01*
X97840936Y-112730163D01*
X98021472Y-112951522D01*
X98210000Y-113107485D01*
X98210000Y-114840000D01*
X98217660Y-114918124D01*
X98224505Y-114996358D01*
X98225752Y-115000649D01*
X98226188Y-115005099D01*
X98248887Y-115080280D01*
X98270787Y-115155662D01*
X98272844Y-115159630D01*
X98274136Y-115163910D01*
X98311004Y-115233249D01*
X98347130Y-115302943D01*
X98349918Y-115306436D01*
X98352017Y-115310383D01*
X98401649Y-115371238D01*
X98450626Y-115432590D01*
X98456763Y-115438814D01*
X98456865Y-115438939D01*
X98456981Y-115439035D01*
X98458959Y-115441041D01*
X99768959Y-116751041D01*
X99829647Y-116800891D01*
X99889778Y-116851346D01*
X99893693Y-116853498D01*
X99897149Y-116856337D01*
X99966367Y-116893451D01*
X100035149Y-116931265D01*
X100039409Y-116932616D01*
X100043349Y-116934729D01*
X100118477Y-116957698D01*
X100193275Y-116981425D01*
X100197713Y-116981923D01*
X100201992Y-116983231D01*
X100280161Y-116991171D01*
X100358132Y-116999917D01*
X100366866Y-116999978D01*
X100367033Y-116999995D01*
X100367188Y-116999980D01*
X100370000Y-117000000D01*
X144517918Y-117000000D01*
X149768960Y-122251041D01*
X149829623Y-122300870D01*
X149889778Y-122351346D01*
X149893693Y-122353499D01*
X149897149Y-122356337D01*
X149966367Y-122393451D01*
X150035149Y-122431265D01*
X150039409Y-122432616D01*
X150043349Y-122434729D01*
X150118477Y-122457698D01*
X150193275Y-122481425D01*
X150197713Y-122481923D01*
X150201992Y-122483231D01*
X150280161Y-122491171D01*
X150358132Y-122499917D01*
X150366866Y-122499978D01*
X150367033Y-122499995D01*
X150367188Y-122499980D01*
X150370000Y-122500000D01*
X172420000Y-122500000D01*
X172420000Y-147317158D01*
X169978579Y-149758579D01*
X169944779Y-149803577D01*
X169924853Y-149856210D01*
X169920000Y-149900000D01*
X169920000Y-157225000D01*
X73153009Y-157225000D01*
X72863271Y-157196591D01*
X72616313Y-157122030D01*
X72388551Y-157000926D01*
X72188642Y-156837885D01*
X72024208Y-156639120D01*
X71901516Y-156412204D01*
X71825234Y-156165776D01*
X71795000Y-155878124D01*
X71795000Y-149930368D01*
X82945212Y-149930368D01*
X82992529Y-150352208D01*
X83120881Y-150756824D01*
X83325378Y-151128803D01*
X83598232Y-151453978D01*
X83929050Y-151719962D01*
X84305231Y-151916625D01*
X84712446Y-152036475D01*
X85135184Y-152074947D01*
X85557344Y-152030576D01*
X85962846Y-151905052D01*
X86336245Y-151703157D01*
X86663316Y-151432579D01*
X86931604Y-151103627D01*
X87130888Y-150728828D01*
X87253577Y-150322460D01*
X87295000Y-149900000D01*
X87294152Y-149839270D01*
X87240950Y-149418132D01*
X87106961Y-149015348D01*
X87009622Y-148844000D01*
X97593497Y-148844000D01*
X97593497Y-150876000D01*
X97601116Y-150971548D01*
X97651303Y-151133607D01*
X97744652Y-151275269D01*
X97873770Y-151385315D01*
X98028435Y-151455034D01*
X98196400Y-151478903D01*
X99923600Y-151478903D01*
X100019148Y-151471284D01*
X100181207Y-151421097D01*
X100322869Y-151327748D01*
X100432915Y-151198630D01*
X100502634Y-151043965D01*
X100510450Y-150988963D01*
X100561472Y-151051522D01*
X100781565Y-151233598D01*
X101032832Y-151369458D01*
X101305702Y-151453925D01*
X101589782Y-151483783D01*
X101874251Y-151457895D01*
X102148274Y-151377245D01*
X102401414Y-151244907D01*
X102624027Y-151065921D01*
X102807636Y-150847105D01*
X102869810Y-150734010D01*
X102920936Y-150830163D01*
X103101472Y-151051522D01*
X103321565Y-151233598D01*
X103572832Y-151369458D01*
X103845702Y-151453925D01*
X104129782Y-151483783D01*
X104414251Y-151457895D01*
X104688274Y-151377245D01*
X104941414Y-151244907D01*
X105164027Y-151065921D01*
X105347636Y-150847105D01*
X105409810Y-150734010D01*
X105460936Y-150830163D01*
X105641472Y-151051522D01*
X105861565Y-151233598D01*
X106112832Y-151369458D01*
X106385702Y-151453925D01*
X106669782Y-151483783D01*
X106954251Y-151457895D01*
X107228274Y-151377245D01*
X107481414Y-151244907D01*
X107704027Y-151065921D01*
X107887636Y-150847105D01*
X107949810Y-150734010D01*
X108000936Y-150830163D01*
X108181472Y-151051522D01*
X108401565Y-151233598D01*
X108652832Y-151369458D01*
X108925702Y-151453925D01*
X109209782Y-151483783D01*
X109494251Y-151457895D01*
X109768274Y-151377245D01*
X110021414Y-151244907D01*
X110244027Y-151065921D01*
X110427636Y-150847105D01*
X110492065Y-150729908D01*
X110545839Y-150829690D01*
X110728614Y-151050857D01*
X110951025Y-151232117D01*
X111204524Y-151366504D01*
X111479370Y-151448853D01*
X111526105Y-151457190D01*
X111755000Y-151325990D01*
X111755000Y-149865000D01*
X111765000Y-149865000D01*
X111765000Y-151325990D01*
X111993895Y-151457190D01*
X112040630Y-151448853D01*
X112315476Y-151366504D01*
X112568975Y-151232117D01*
X112791386Y-151050857D01*
X112974161Y-150829690D01*
X113030000Y-150726076D01*
X113085839Y-150829690D01*
X113268614Y-151050857D01*
X113491025Y-151232117D01*
X113744524Y-151366504D01*
X114019370Y-151448853D01*
X114066105Y-151457190D01*
X114295000Y-151325990D01*
X114295000Y-149865000D01*
X111765000Y-149865000D01*
X111755000Y-149865000D01*
X111735000Y-149865000D01*
X111735000Y-149855000D01*
X111755000Y-149855000D01*
X111755000Y-148394010D01*
X111765000Y-148394010D01*
X111765000Y-149855000D01*
X114295000Y-149855000D01*
X114295000Y-148394010D01*
X114305000Y-148394010D01*
X114305000Y-149855000D01*
X114325000Y-149855000D01*
X114325000Y-149865000D01*
X114305000Y-149865000D01*
X114305000Y-151325990D01*
X114533895Y-151457190D01*
X114580630Y-151448853D01*
X114855476Y-151366504D01*
X115108975Y-151232117D01*
X115331386Y-151050857D01*
X115514161Y-150829690D01*
X115567781Y-150730193D01*
X115620936Y-150830163D01*
X115801472Y-151051522D01*
X116021565Y-151233598D01*
X116272832Y-151369458D01*
X116545702Y-151453925D01*
X116829782Y-151483783D01*
X117114251Y-151457895D01*
X117388274Y-151377245D01*
X117641414Y-151244907D01*
X117864027Y-151065921D01*
X118047636Y-150847105D01*
X118185246Y-150596792D01*
X118271617Y-150324519D01*
X118303457Y-150040654D01*
X118303600Y-150020219D01*
X118303600Y-149699781D01*
X118275726Y-149415500D01*
X118193166Y-149142046D01*
X118059064Y-148889837D01*
X118021681Y-148844000D01*
X120453497Y-148844000D01*
X120453497Y-150876000D01*
X120461116Y-150971548D01*
X120511303Y-151133607D01*
X120604652Y-151275269D01*
X120733770Y-151385315D01*
X120888435Y-151455034D01*
X121056400Y-151478903D01*
X122783600Y-151478903D01*
X122879148Y-151471284D01*
X123041207Y-151421097D01*
X123182869Y-151327748D01*
X123292915Y-151198630D01*
X123362634Y-151043965D01*
X123370450Y-150988963D01*
X123421472Y-151051522D01*
X123641565Y-151233598D01*
X123892832Y-151369458D01*
X124165702Y-151453925D01*
X124449782Y-151483783D01*
X124734251Y-151457895D01*
X125008274Y-151377245D01*
X125261414Y-151244907D01*
X125484027Y-151065921D01*
X125667636Y-150847105D01*
X125729810Y-150734010D01*
X125780936Y-150830163D01*
X125961472Y-151051522D01*
X126181565Y-151233598D01*
X126432832Y-151369458D01*
X126705702Y-151453925D01*
X126989782Y-151483783D01*
X127274251Y-151457895D01*
X127548274Y-151377245D01*
X127801414Y-151244907D01*
X128024027Y-151065921D01*
X128207636Y-150847105D01*
X128269810Y-150734010D01*
X128320936Y-150830163D01*
X128501472Y-151051522D01*
X128721565Y-151233598D01*
X128972832Y-151369458D01*
X129245702Y-151453925D01*
X129529782Y-151483783D01*
X129814251Y-151457895D01*
X130088274Y-151377245D01*
X130341414Y-151244907D01*
X130564027Y-151065921D01*
X130747636Y-150847105D01*
X130809810Y-150734010D01*
X130860936Y-150830163D01*
X131041472Y-151051522D01*
X131261565Y-151233598D01*
X131512832Y-151369458D01*
X131785702Y-151453925D01*
X132069782Y-151483783D01*
X132354251Y-151457895D01*
X132628274Y-151377245D01*
X132881414Y-151244907D01*
X133104027Y-151065921D01*
X133287636Y-150847105D01*
X133349810Y-150734010D01*
X133400936Y-150830163D01*
X133581472Y-151051522D01*
X133801565Y-151233598D01*
X134052832Y-151369458D01*
X134325702Y-151453925D01*
X134609782Y-151483783D01*
X134894251Y-151457895D01*
X135168274Y-151377245D01*
X135421414Y-151244907D01*
X135644027Y-151065921D01*
X135827636Y-150847105D01*
X135965246Y-150596792D01*
X136051617Y-150324519D01*
X136083457Y-150040654D01*
X136083600Y-150020219D01*
X136083600Y-149930368D01*
X165445212Y-149930368D01*
X165492529Y-150352208D01*
X165620881Y-150756824D01*
X165825378Y-151128803D01*
X166098232Y-151453978D01*
X166429050Y-151719962D01*
X166805231Y-151916625D01*
X167212446Y-152036475D01*
X167635184Y-152074947D01*
X168057344Y-152030576D01*
X168462846Y-151905052D01*
X168836245Y-151703157D01*
X169163316Y-151432579D01*
X169431604Y-151103627D01*
X169630888Y-150728828D01*
X169753577Y-150322460D01*
X169795000Y-149900000D01*
X169794152Y-149839270D01*
X169740950Y-149418132D01*
X169606961Y-149015348D01*
X169397290Y-148646260D01*
X169119923Y-148324926D01*
X168785423Y-148063587D01*
X168406533Y-147872196D01*
X167997685Y-147758043D01*
X167574450Y-147725477D01*
X167152951Y-147775738D01*
X166749241Y-147906911D01*
X166378698Y-148114000D01*
X166055436Y-148389118D01*
X165791768Y-148721785D01*
X165597736Y-149099329D01*
X165480732Y-149507371D01*
X165445212Y-149930368D01*
X136083600Y-149930368D01*
X136083600Y-149699781D01*
X136055726Y-149415500D01*
X135973166Y-149142046D01*
X135839064Y-148889837D01*
X135658528Y-148668478D01*
X135438435Y-148486402D01*
X135187168Y-148350542D01*
X134914298Y-148266075D01*
X134630218Y-148236217D01*
X134345749Y-148262105D01*
X134071726Y-148342755D01*
X133818586Y-148475093D01*
X133595973Y-148654079D01*
X133412364Y-148872895D01*
X133350190Y-148985990D01*
X133299064Y-148889837D01*
X133118528Y-148668478D01*
X132898435Y-148486402D01*
X132647168Y-148350542D01*
X132374298Y-148266075D01*
X132090218Y-148236217D01*
X131805749Y-148262105D01*
X131531726Y-148342755D01*
X131278586Y-148475093D01*
X131055973Y-148654079D01*
X130872364Y-148872895D01*
X130810190Y-148985990D01*
X130759064Y-148889837D01*
X130578528Y-148668478D01*
X130358435Y-148486402D01*
X130107168Y-148350542D01*
X129834298Y-148266075D01*
X129550218Y-148236217D01*
X129265749Y-148262105D01*
X128991726Y-148342755D01*
X128738586Y-148475093D01*
X128515973Y-148654079D01*
X128332364Y-148872895D01*
X128270190Y-148985990D01*
X128219064Y-148889837D01*
X128038528Y-148668478D01*
X127818435Y-148486402D01*
X127567168Y-148350542D01*
X127294298Y-148266075D01*
X127010218Y-148236217D01*
X126725749Y-148262105D01*
X126451726Y-148342755D01*
X126198586Y-148475093D01*
X125975973Y-148654079D01*
X125792364Y-148872895D01*
X125730190Y-148985990D01*
X125679064Y-148889837D01*
X125498528Y-148668478D01*
X125278435Y-148486402D01*
X125027168Y-148350542D01*
X124754298Y-148266075D01*
X124470218Y-148236217D01*
X124185749Y-148262105D01*
X123911726Y-148342755D01*
X123658586Y-148475093D01*
X123435973Y-148654079D01*
X123372927Y-148729215D01*
X123328697Y-148586393D01*
X123235348Y-148444731D01*
X123106230Y-148334685D01*
X122951565Y-148264966D01*
X122783600Y-148241097D01*
X121056400Y-148241097D01*
X120960852Y-148248716D01*
X120798793Y-148298903D01*
X120657131Y-148392252D01*
X120547085Y-148521370D01*
X120477366Y-148676035D01*
X120453497Y-148844000D01*
X118021681Y-148844000D01*
X117878528Y-148668478D01*
X117658435Y-148486402D01*
X117407168Y-148350542D01*
X117134298Y-148266075D01*
X116850218Y-148236217D01*
X116565749Y-148262105D01*
X116291726Y-148342755D01*
X116038586Y-148475093D01*
X115815973Y-148654079D01*
X115632364Y-148872895D01*
X115567935Y-148990092D01*
X115514161Y-148890310D01*
X115331386Y-148669143D01*
X115108975Y-148487883D01*
X114855476Y-148353496D01*
X114580630Y-148271147D01*
X114533895Y-148262810D01*
X114305000Y-148394010D01*
X114295000Y-148394010D01*
X114066105Y-148262810D01*
X114019370Y-148271147D01*
X113744524Y-148353496D01*
X113491025Y-148487883D01*
X113268614Y-148669143D01*
X113085839Y-148890310D01*
X113030000Y-148993924D01*
X112974161Y-148890310D01*
X112791386Y-148669143D01*
X112568975Y-148487883D01*
X112315476Y-148353496D01*
X112040630Y-148271147D01*
X111993895Y-148262810D01*
X111765000Y-148394010D01*
X111755000Y-148394010D01*
X111526105Y-148262810D01*
X111479370Y-148271147D01*
X111204524Y-148353496D01*
X110951025Y-148487883D01*
X110728614Y-148669143D01*
X110545839Y-148890310D01*
X110492219Y-148989807D01*
X110439064Y-148889837D01*
X110258528Y-148668478D01*
X110038435Y-148486402D01*
X109787168Y-148350542D01*
X109514298Y-148266075D01*
X109230218Y-148236217D01*
X108945749Y-148262105D01*
X108671726Y-148342755D01*
X108418586Y-148475093D01*
X108195973Y-148654079D01*
X108012364Y-148872895D01*
X107950190Y-148985990D01*
X107899064Y-148889837D01*
X107718528Y-148668478D01*
X107498435Y-148486402D01*
X107247168Y-148350542D01*
X106974298Y-148266075D01*
X106690218Y-148236217D01*
X106405749Y-148262105D01*
X106131726Y-148342755D01*
X105878586Y-148475093D01*
X105655973Y-148654079D01*
X105472364Y-148872895D01*
X105410190Y-148985990D01*
X105359064Y-148889837D01*
X105178528Y-148668478D01*
X104958435Y-148486402D01*
X104707168Y-148350542D01*
X104434298Y-148266075D01*
X104150218Y-148236217D01*
X103865749Y-148262105D01*
X103591726Y-148342755D01*
X103338586Y-148475093D01*
X103115973Y-148654079D01*
X102932364Y-148872895D01*
X102870190Y-148985990D01*
X102819064Y-148889837D01*
X102638528Y-148668478D01*
X102418435Y-148486402D01*
X102167168Y-148350542D01*
X101894298Y-148266075D01*
X101610218Y-148236217D01*
X101325749Y-148262105D01*
X101051726Y-148342755D01*
X100798586Y-148475093D01*
X100575973Y-148654079D01*
X100512927Y-148729215D01*
X100468697Y-148586393D01*
X100375348Y-148444731D01*
X100246230Y-148334685D01*
X100091565Y-148264966D01*
X99923600Y-148241097D01*
X98196400Y-148241097D01*
X98100852Y-148248716D01*
X97938793Y-148298903D01*
X97797131Y-148392252D01*
X97687085Y-148521370D01*
X97617366Y-148676035D01*
X97593497Y-148844000D01*
X87009622Y-148844000D01*
X86897290Y-148646260D01*
X86619923Y-148324926D01*
X86285423Y-148063587D01*
X85906533Y-147872196D01*
X85497685Y-147758043D01*
X85074450Y-147725477D01*
X84652951Y-147775738D01*
X84249241Y-147906911D01*
X83878698Y-148114000D01*
X83555436Y-148389118D01*
X83291768Y-148721785D01*
X83097736Y-149099329D01*
X82980732Y-149507371D01*
X82945212Y-149930368D01*
X71795000Y-149930368D01*
X71795000Y-124449782D01*
X133149354Y-124449782D01*
X133175242Y-124734251D01*
X133255892Y-125008274D01*
X133388230Y-125261414D01*
X133567216Y-125484027D01*
X133786032Y-125667636D01*
X133899127Y-125729810D01*
X133802974Y-125780936D01*
X133581615Y-125961472D01*
X133399539Y-126181565D01*
X133263679Y-126432832D01*
X133179212Y-126705702D01*
X133149354Y-126989782D01*
X133175242Y-127274251D01*
X133255892Y-127548274D01*
X133388230Y-127801414D01*
X133567216Y-128024027D01*
X133786032Y-128207636D01*
X134036345Y-128345246D01*
X134308618Y-128431617D01*
X134592483Y-128463457D01*
X134612918Y-128463600D01*
X134627082Y-128463600D01*
X134911363Y-128435726D01*
X135184817Y-128353166D01*
X135437026Y-128219064D01*
X135658385Y-128038528D01*
X135840461Y-127818435D01*
X135889609Y-127727538D01*
X135928230Y-127801414D01*
X136107216Y-128024027D01*
X136326032Y-128207636D01*
X136576345Y-128345246D01*
X136848618Y-128431617D01*
X137132483Y-128463457D01*
X137152918Y-128463600D01*
X137167082Y-128463600D01*
X137451363Y-128435726D01*
X137724817Y-128353166D01*
X137977026Y-128219064D01*
X138198385Y-128038528D01*
X138380461Y-127818435D01*
X138516321Y-127567168D01*
X138600788Y-127294298D01*
X138630646Y-127010218D01*
X138604758Y-126725749D01*
X138524108Y-126451726D01*
X138391770Y-126198586D01*
X138212784Y-125975973D01*
X137993968Y-125792364D01*
X137880873Y-125730190D01*
X137977026Y-125679064D01*
X138198385Y-125498528D01*
X138380461Y-125278435D01*
X138516321Y-125027168D01*
X138600788Y-124754298D01*
X138630646Y-124470218D01*
X138604758Y-124185749D01*
X138524108Y-123911726D01*
X138391770Y-123658586D01*
X138212784Y-123435973D01*
X137993968Y-123252364D01*
X137880873Y-123190190D01*
X137977026Y-123139064D01*
X138198385Y-122958528D01*
X138380461Y-122738435D01*
X138516321Y-122487168D01*
X138600788Y-122214298D01*
X138630646Y-121930218D01*
X138604758Y-121645749D01*
X138524108Y-121371726D01*
X138391770Y-121118586D01*
X138212784Y-120895973D01*
X137993968Y-120712364D01*
X137743655Y-120574754D01*
X137471382Y-120488383D01*
X137187517Y-120456543D01*
X137167082Y-120456400D01*
X137152918Y-120456400D01*
X136868637Y-120484274D01*
X136595183Y-120566834D01*
X136342974Y-120700936D01*
X136121615Y-120881472D01*
X136072636Y-120940677D01*
X136028697Y-120798793D01*
X135935348Y-120657131D01*
X135806230Y-120547085D01*
X135651565Y-120477366D01*
X135483600Y-120453497D01*
X133756400Y-120453497D01*
X133660852Y-120461116D01*
X133498793Y-120511303D01*
X133357131Y-120604652D01*
X133247085Y-120733770D01*
X133177366Y-120888435D01*
X133153497Y-121056400D01*
X133153497Y-122783600D01*
X133161116Y-122879148D01*
X133211303Y-123041207D01*
X133304652Y-123182869D01*
X133433770Y-123292915D01*
X133588435Y-123362634D01*
X133644065Y-123370539D01*
X133581615Y-123421472D01*
X133399539Y-123641565D01*
X133263679Y-123892832D01*
X133179212Y-124165702D01*
X133149354Y-124449782D01*
X71795000Y-124449782D01*
X71795000Y-101680368D01*
X83195212Y-101680368D01*
X83242529Y-102102208D01*
X83370881Y-102506824D01*
X83575378Y-102878803D01*
X83848232Y-103203978D01*
X84179050Y-103469962D01*
X84555231Y-103666625D01*
X84962446Y-103786475D01*
X85385184Y-103824947D01*
X85807344Y-103780576D01*
X86212846Y-103655052D01*
X86586245Y-103453157D01*
X86913316Y-103182579D01*
X87181604Y-102853627D01*
X87380888Y-102478828D01*
X87488146Y-102123569D01*
X87546834Y-102317954D01*
X87680936Y-102570163D01*
X87861472Y-102791522D01*
X88081565Y-102973598D01*
X88332832Y-103109458D01*
X88605702Y-103193925D01*
X88889782Y-103223783D01*
X89174251Y-103197895D01*
X89448274Y-103117245D01*
X89701414Y-102984907D01*
X89924027Y-102805921D01*
X90107636Y-102587105D01*
X90169810Y-102474010D01*
X90220936Y-102570163D01*
X90401472Y-102791522D01*
X90621565Y-102973598D01*
X90872832Y-103109458D01*
X91145702Y-103193925D01*
X91429782Y-103223783D01*
X91714251Y-103197895D01*
X91988274Y-103117245D01*
X92241414Y-102984907D01*
X92464027Y-102805921D01*
X92647636Y-102587105D01*
X92709810Y-102474010D01*
X92760936Y-102570163D01*
X92941472Y-102791522D01*
X93161565Y-102973598D01*
X93412832Y-103109458D01*
X93685702Y-103193925D01*
X93969782Y-103223783D01*
X94254251Y-103197895D01*
X94528274Y-103117245D01*
X94781414Y-102984907D01*
X95004027Y-102805921D01*
X95187636Y-102587105D01*
X95252065Y-102469908D01*
X95305839Y-102569690D01*
X95488614Y-102790857D01*
X95711025Y-102972117D01*
X95964524Y-103106504D01*
X96239370Y-103188853D01*
X96286105Y-103197190D01*
X96515000Y-103065990D01*
X96515000Y-101605000D01*
X96495000Y-101605000D01*
X96495000Y-101595000D01*
X96515000Y-101595000D01*
X96515000Y-100134010D01*
X96525000Y-100134010D01*
X96525000Y-101595000D01*
X96545000Y-101595000D01*
X96545000Y-101605000D01*
X96525000Y-101605000D01*
X96525000Y-103065990D01*
X96753895Y-103197190D01*
X96800630Y-103188853D01*
X97075476Y-103106504D01*
X97328975Y-102972117D01*
X97551386Y-102790857D01*
X97734161Y-102569690D01*
X97787781Y-102470193D01*
X97840936Y-102570163D01*
X98021472Y-102791522D01*
X98241565Y-102973598D01*
X98492832Y-103109458D01*
X98765702Y-103193925D01*
X99049782Y-103223783D01*
X99334251Y-103197895D01*
X99608274Y-103117245D01*
X99861414Y-102984907D01*
X100084027Y-102805921D01*
X100267636Y-102587105D01*
X100329810Y-102474010D01*
X100380936Y-102570163D01*
X100561472Y-102791522D01*
X100781565Y-102973598D01*
X101032832Y-103109458D01*
X101305702Y-103193925D01*
X101589782Y-103223783D01*
X101874251Y-103197895D01*
X102148274Y-103117245D01*
X102401414Y-102984907D01*
X102624027Y-102805921D01*
X102807636Y-102587105D01*
X102869810Y-102474010D01*
X102920936Y-102570163D01*
X103101472Y-102791522D01*
X103321565Y-102973598D01*
X103572832Y-103109458D01*
X103845702Y-103193925D01*
X104129782Y-103223783D01*
X104414251Y-103197895D01*
X104688274Y-103117245D01*
X104941414Y-102984907D01*
X105164027Y-102805921D01*
X105347636Y-102587105D01*
X105409810Y-102474010D01*
X105460936Y-102570163D01*
X105641472Y-102791522D01*
X105861565Y-102973598D01*
X106112832Y-103109458D01*
X106385702Y-103193925D01*
X106669782Y-103223783D01*
X106954251Y-103197895D01*
X107228274Y-103117245D01*
X107481414Y-102984907D01*
X107704027Y-102805921D01*
X107887636Y-102587105D01*
X107949810Y-102474010D01*
X108000936Y-102570163D01*
X108181472Y-102791522D01*
X108401565Y-102973598D01*
X108652832Y-103109458D01*
X108925702Y-103193925D01*
X109209782Y-103223783D01*
X109494251Y-103197895D01*
X109768274Y-103117245D01*
X110021414Y-102984907D01*
X110244027Y-102805921D01*
X110307073Y-102730785D01*
X110351303Y-102873607D01*
X110444652Y-103015269D01*
X110573770Y-103125315D01*
X110728435Y-103195034D01*
X110896400Y-103218903D01*
X112623600Y-103218903D01*
X112719148Y-103211284D01*
X112881207Y-103161097D01*
X113022869Y-103067748D01*
X113132915Y-102938630D01*
X113202634Y-102783965D01*
X113226503Y-102616000D01*
X113226503Y-101439781D01*
X115376400Y-101439781D01*
X115376400Y-101760219D01*
X115404274Y-102044500D01*
X115486834Y-102317954D01*
X115620936Y-102570163D01*
X115801472Y-102791522D01*
X116021565Y-102973598D01*
X116272832Y-103109458D01*
X116545702Y-103193925D01*
X116829782Y-103223783D01*
X117114251Y-103197895D01*
X117388274Y-103117245D01*
X117641414Y-102984907D01*
X117864027Y-102805921D01*
X118047636Y-102587105D01*
X118109810Y-102474010D01*
X118160936Y-102570163D01*
X118341472Y-102791522D01*
X118561565Y-102973598D01*
X118812832Y-103109458D01*
X119085702Y-103193925D01*
X119369782Y-103223783D01*
X119654251Y-103197895D01*
X119928274Y-103117245D01*
X120181414Y-102984907D01*
X120404027Y-102805921D01*
X120587636Y-102587105D01*
X120649810Y-102474010D01*
X120700936Y-102570163D01*
X120881472Y-102791522D01*
X121101565Y-102973598D01*
X121352832Y-103109458D01*
X121625702Y-103193925D01*
X121909782Y-103223783D01*
X122194251Y-103197895D01*
X122468274Y-103117245D01*
X122721414Y-102984907D01*
X122944027Y-102805921D01*
X123127636Y-102587105D01*
X123189810Y-102474010D01*
X123240936Y-102570163D01*
X123421472Y-102791522D01*
X123641565Y-102973598D01*
X123892832Y-103109458D01*
X124165702Y-103193925D01*
X124449782Y-103223783D01*
X124734251Y-103197895D01*
X125008274Y-103117245D01*
X125261414Y-102984907D01*
X125484027Y-102805921D01*
X125667636Y-102587105D01*
X125729810Y-102474010D01*
X125780936Y-102570163D01*
X125961472Y-102791522D01*
X126181565Y-102973598D01*
X126432832Y-103109458D01*
X126705702Y-103193925D01*
X126989782Y-103223783D01*
X127274251Y-103197895D01*
X127548274Y-103117245D01*
X127801414Y-102984907D01*
X128024027Y-102805921D01*
X128207636Y-102587105D01*
X128269810Y-102474010D01*
X128320936Y-102570163D01*
X128501472Y-102791522D01*
X128721565Y-102973598D01*
X128972832Y-103109458D01*
X129245702Y-103193925D01*
X129529782Y-103223783D01*
X129814251Y-103197895D01*
X130088274Y-103117245D01*
X130341414Y-102984907D01*
X130564027Y-102805921D01*
X130747636Y-102587105D01*
X130809810Y-102474010D01*
X130860936Y-102570163D01*
X131041472Y-102791522D01*
X131261565Y-102973598D01*
X131512832Y-103109458D01*
X131785702Y-103193925D01*
X132069782Y-103223783D01*
X132354251Y-103197895D01*
X132628274Y-103117245D01*
X132881414Y-102984907D01*
X133104027Y-102805921D01*
X133167073Y-102730785D01*
X133211303Y-102873607D01*
X133304652Y-103015269D01*
X133433770Y-103125315D01*
X133588435Y-103195034D01*
X133756400Y-103218903D01*
X135483600Y-103218903D01*
X135579148Y-103211284D01*
X135741207Y-103161097D01*
X135882869Y-103067748D01*
X135992915Y-102938630D01*
X136062634Y-102783965D01*
X136086503Y-102616000D01*
X136086503Y-100584000D01*
X136078884Y-100488452D01*
X136028697Y-100326393D01*
X135935348Y-100184731D01*
X135806230Y-100074685D01*
X135651565Y-100004966D01*
X135483600Y-99981097D01*
X133756400Y-99981097D01*
X133660852Y-99988716D01*
X133498793Y-100038903D01*
X133357131Y-100132252D01*
X133247085Y-100261370D01*
X133177366Y-100416035D01*
X133169550Y-100471037D01*
X133118528Y-100408478D01*
X132898435Y-100226402D01*
X132647168Y-100090542D01*
X132374298Y-100006075D01*
X132090218Y-99976217D01*
X131805749Y-100002105D01*
X131531726Y-100082755D01*
X131278586Y-100215093D01*
X131055973Y-100394079D01*
X130872364Y-100612895D01*
X130810190Y-100725990D01*
X130759064Y-100629837D01*
X130578528Y-100408478D01*
X130358435Y-100226402D01*
X130107168Y-100090542D01*
X129834298Y-100006075D01*
X129550218Y-99976217D01*
X129265749Y-100002105D01*
X128991726Y-100082755D01*
X128738586Y-100215093D01*
X128515973Y-100394079D01*
X128332364Y-100612895D01*
X128270190Y-100725990D01*
X128219064Y-100629837D01*
X128038528Y-100408478D01*
X127818435Y-100226402D01*
X127567168Y-100090542D01*
X127294298Y-100006075D01*
X127010218Y-99976217D01*
X126725749Y-100002105D01*
X126451726Y-100082755D01*
X126198586Y-100215093D01*
X125975973Y-100394079D01*
X125792364Y-100612895D01*
X125730190Y-100725990D01*
X125679064Y-100629837D01*
X125498528Y-100408478D01*
X125278435Y-100226402D01*
X125027168Y-100090542D01*
X124754298Y-100006075D01*
X124470218Y-99976217D01*
X124185749Y-100002105D01*
X123911726Y-100082755D01*
X123658586Y-100215093D01*
X123435973Y-100394079D01*
X123252364Y-100612895D01*
X123190190Y-100725990D01*
X123139064Y-100629837D01*
X122958528Y-100408478D01*
X122738435Y-100226402D01*
X122487168Y-100090542D01*
X122214298Y-100006075D01*
X121930218Y-99976217D01*
X121645749Y-100002105D01*
X121371726Y-100082755D01*
X121118586Y-100215093D01*
X120895973Y-100394079D01*
X120712364Y-100612895D01*
X120650190Y-100725990D01*
X120599064Y-100629837D01*
X120418528Y-100408478D01*
X120198435Y-100226402D01*
X119947168Y-100090542D01*
X119674298Y-100006075D01*
X119390218Y-99976217D01*
X119105749Y-100002105D01*
X118831726Y-100082755D01*
X118578586Y-100215093D01*
X118355973Y-100394079D01*
X118172364Y-100612895D01*
X118110190Y-100725990D01*
X118059064Y-100629837D01*
X117878528Y-100408478D01*
X117658435Y-100226402D01*
X117407168Y-100090542D01*
X117134298Y-100006075D01*
X116850218Y-99976217D01*
X116565749Y-100002105D01*
X116291726Y-100082755D01*
X116038586Y-100215093D01*
X115815973Y-100394079D01*
X115632364Y-100612895D01*
X115494754Y-100863208D01*
X115408383Y-101135481D01*
X115376543Y-101419346D01*
X115376400Y-101439781D01*
X113226503Y-101439781D01*
X113226503Y-100584000D01*
X113218884Y-100488452D01*
X113168697Y-100326393D01*
X113075348Y-100184731D01*
X112946230Y-100074685D01*
X112791565Y-100004966D01*
X112623600Y-99981097D01*
X110896400Y-99981097D01*
X110800852Y-99988716D01*
X110638793Y-100038903D01*
X110497131Y-100132252D01*
X110387085Y-100261370D01*
X110317366Y-100416035D01*
X110309550Y-100471037D01*
X110258528Y-100408478D01*
X110038435Y-100226402D01*
X109787168Y-100090542D01*
X109514298Y-100006075D01*
X109230218Y-99976217D01*
X108945749Y-100002105D01*
X108671726Y-100082755D01*
X108418586Y-100215093D01*
X108195973Y-100394079D01*
X108012364Y-100612895D01*
X107950190Y-100725990D01*
X107899064Y-100629837D01*
X107718528Y-100408478D01*
X107498435Y-100226402D01*
X107247168Y-100090542D01*
X106974298Y-100006075D01*
X106690218Y-99976217D01*
X106405749Y-100002105D01*
X106131726Y-100082755D01*
X105878586Y-100215093D01*
X105655973Y-100394079D01*
X105472364Y-100612895D01*
X105410190Y-100725990D01*
X105359064Y-100629837D01*
X105178528Y-100408478D01*
X104958435Y-100226402D01*
X104707168Y-100090542D01*
X104434298Y-100006075D01*
X104150218Y-99976217D01*
X103865749Y-100002105D01*
X103591726Y-100082755D01*
X103338586Y-100215093D01*
X103115973Y-100394079D01*
X102932364Y-100612895D01*
X102870190Y-100725990D01*
X102819064Y-100629837D01*
X102638528Y-100408478D01*
X102418435Y-100226402D01*
X102167168Y-100090542D01*
X101894298Y-100006075D01*
X101610218Y-99976217D01*
X101325749Y-100002105D01*
X101051726Y-100082755D01*
X100798586Y-100215093D01*
X100575973Y-100394079D01*
X100392364Y-100612895D01*
X100330190Y-100725990D01*
X100279064Y-100629837D01*
X100098528Y-100408478D01*
X99878435Y-100226402D01*
X99627168Y-100090542D01*
X99354298Y-100006075D01*
X99070218Y-99976217D01*
X98785749Y-100002105D01*
X98511726Y-100082755D01*
X98258586Y-100215093D01*
X98035973Y-100394079D01*
X97852364Y-100612895D01*
X97787935Y-100730092D01*
X97734161Y-100630310D01*
X97551386Y-100409143D01*
X97328975Y-100227883D01*
X97075476Y-100093496D01*
X96800630Y-100011147D01*
X96753895Y-100002810D01*
X96525000Y-100134010D01*
X96515000Y-100134010D01*
X96286105Y-100002810D01*
X96239370Y-100011147D01*
X95964524Y-100093496D01*
X95711025Y-100227883D01*
X95488614Y-100409143D01*
X95305839Y-100630310D01*
X95252219Y-100729807D01*
X95199064Y-100629837D01*
X95018528Y-100408478D01*
X94798435Y-100226402D01*
X94547168Y-100090542D01*
X94274298Y-100006075D01*
X93990218Y-99976217D01*
X93705749Y-100002105D01*
X93431726Y-100082755D01*
X93178586Y-100215093D01*
X92955973Y-100394079D01*
X92772364Y-100612895D01*
X92710190Y-100725990D01*
X92659064Y-100629837D01*
X92478528Y-100408478D01*
X92258435Y-100226402D01*
X92007168Y-100090542D01*
X91734298Y-100006075D01*
X91450218Y-99976217D01*
X91165749Y-100002105D01*
X90891726Y-100082755D01*
X90638586Y-100215093D01*
X90415973Y-100394079D01*
X90232364Y-100612895D01*
X90170190Y-100725990D01*
X90119064Y-100629837D01*
X89938528Y-100408478D01*
X89718435Y-100226402D01*
X89467168Y-100090542D01*
X89194298Y-100006075D01*
X88910218Y-99976217D01*
X88625749Y-100002105D01*
X88351726Y-100082755D01*
X88098586Y-100215093D01*
X87875973Y-100394079D01*
X87692364Y-100612895D01*
X87554754Y-100863208D01*
X87474097Y-101117469D01*
X87356961Y-100765348D01*
X87147290Y-100396260D01*
X86869923Y-100074926D01*
X86535423Y-99813587D01*
X86156533Y-99622196D01*
X85747685Y-99508043D01*
X85324450Y-99475477D01*
X84902951Y-99525738D01*
X84499241Y-99656911D01*
X84128698Y-99864000D01*
X83805436Y-100139118D01*
X83541768Y-100471785D01*
X83347736Y-100849329D01*
X83230732Y-101257371D01*
X83195212Y-101680368D01*
X71795000Y-101680368D01*
X71795000Y-95933009D01*
X71823409Y-95643271D01*
X71897971Y-95396313D01*
X72019077Y-95168546D01*
X72182115Y-94968642D01*
X72380880Y-94804208D01*
X72607796Y-94681516D01*
X72854224Y-94605234D01*
X73141876Y-94575000D01*
X169920000Y-94575000D01*
X169920000Y-111900000D01*
X169920000Y-111900000D01*
G37*
X169920000Y-111900000D02*
X169927918Y-111955719D01*
X169951046Y-112007025D01*
X169978579Y-112041421D01*
X172420000Y-114482842D01*
X172420000Y-120800000D01*
X150722081Y-120800000D01*
X145471041Y-115548959D01*
X145410353Y-115499109D01*
X145350222Y-115448654D01*
X145346307Y-115446502D01*
X145342851Y-115443663D01*
X145273633Y-115406549D01*
X145204851Y-115368735D01*
X145200591Y-115367384D01*
X145196651Y-115365271D01*
X145121511Y-115342298D01*
X145046725Y-115318575D01*
X145042288Y-115318077D01*
X145038009Y-115316769D01*
X144959834Y-115308828D01*
X144881868Y-115300083D01*
X144873134Y-115300022D01*
X144872967Y-115300005D01*
X144872812Y-115300020D01*
X144870000Y-115300000D01*
X100722082Y-115300000D01*
X99910000Y-114487918D01*
X99910000Y-113105843D01*
X100084027Y-112965921D01*
X100267636Y-112747105D01*
X100329810Y-112634010D01*
X100380936Y-112730163D01*
X100561472Y-112951522D01*
X100781565Y-113133598D01*
X101032832Y-113269458D01*
X101305702Y-113353925D01*
X101589782Y-113383783D01*
X101874251Y-113357895D01*
X102148274Y-113277245D01*
X102401414Y-113144907D01*
X102624027Y-112965921D01*
X102807636Y-112747105D01*
X102869810Y-112634010D01*
X102920936Y-112730163D01*
X103101472Y-112951522D01*
X103321565Y-113133598D01*
X103572832Y-113269458D01*
X103845702Y-113353925D01*
X104129782Y-113383783D01*
X104414251Y-113357895D01*
X104688274Y-113277245D01*
X104941414Y-113144907D01*
X105164027Y-112965921D01*
X105347636Y-112747105D01*
X105409810Y-112634010D01*
X105460936Y-112730163D01*
X105641472Y-112951522D01*
X105861565Y-113133598D01*
X106112832Y-113269458D01*
X106385702Y-113353925D01*
X106669782Y-113383783D01*
X106954251Y-113357895D01*
X107228274Y-113277245D01*
X107481414Y-113144907D01*
X107704027Y-112965921D01*
X107887636Y-112747105D01*
X108025246Y-112496792D01*
X108111617Y-112224519D01*
X108143457Y-111940654D01*
X108143600Y-111920219D01*
X108143600Y-111599781D01*
X108115726Y-111315500D01*
X108033166Y-111042046D01*
X107899064Y-110789837D01*
X107718528Y-110568478D01*
X107498435Y-110386402D01*
X107247168Y-110250542D01*
X106974298Y-110166075D01*
X106690218Y-110136217D01*
X106405749Y-110162105D01*
X106131726Y-110242755D01*
X105878586Y-110375093D01*
X105655973Y-110554079D01*
X105472364Y-110772895D01*
X105410190Y-110885990D01*
X105359064Y-110789837D01*
X105178528Y-110568478D01*
X104958435Y-110386402D01*
X104707168Y-110250542D01*
X104434298Y-110166075D01*
X104150218Y-110136217D01*
X103865749Y-110162105D01*
X103591726Y-110242755D01*
X103338586Y-110375093D01*
X103115973Y-110554079D01*
X102932364Y-110772895D01*
X102870190Y-110885990D01*
X102819064Y-110789837D01*
X102638528Y-110568478D01*
X102418435Y-110386402D01*
X102167168Y-110250542D01*
X101894298Y-110166075D01*
X101610218Y-110136217D01*
X101325749Y-110162105D01*
X101051726Y-110242755D01*
X100798586Y-110375093D01*
X100575973Y-110554079D01*
X100392364Y-110772895D01*
X100330190Y-110885990D01*
X100279064Y-110789837D01*
X100098528Y-110568478D01*
X99878435Y-110386402D01*
X99627168Y-110250542D01*
X99354298Y-110166075D01*
X99070218Y-110136217D01*
X98785749Y-110162105D01*
X98511726Y-110242755D01*
X98258586Y-110375093D01*
X98035973Y-110554079D01*
X97852364Y-110772895D01*
X97790190Y-110885990D01*
X97739064Y-110789837D01*
X97558528Y-110568478D01*
X97338435Y-110386402D01*
X97087168Y-110250542D01*
X96814298Y-110166075D01*
X96530218Y-110136217D01*
X96245749Y-110162105D01*
X95971726Y-110242755D01*
X95718586Y-110375093D01*
X95495973Y-110554079D01*
X95312364Y-110772895D01*
X95250190Y-110885990D01*
X95199064Y-110789837D01*
X95018528Y-110568478D01*
X94798435Y-110386402D01*
X94547168Y-110250542D01*
X94274298Y-110166075D01*
X93990218Y-110136217D01*
X93705749Y-110162105D01*
X93431726Y-110242755D01*
X93178586Y-110375093D01*
X92955973Y-110554079D01*
X92772364Y-110772895D01*
X92710190Y-110885990D01*
X92659064Y-110789837D01*
X92478528Y-110568478D01*
X92258435Y-110386402D01*
X92007168Y-110250542D01*
X91734298Y-110166075D01*
X91450218Y-110136217D01*
X91165749Y-110162105D01*
X90891726Y-110242755D01*
X90638586Y-110375093D01*
X90415973Y-110554079D01*
X90352927Y-110629215D01*
X90308697Y-110486393D01*
X90215348Y-110344731D01*
X90086230Y-110234685D01*
X89931565Y-110164966D01*
X89763600Y-110141097D01*
X88036400Y-110141097D01*
X87940852Y-110148716D01*
X87778793Y-110198903D01*
X87637131Y-110292252D01*
X87527085Y-110421370D01*
X87457366Y-110576035D01*
X87433497Y-110744000D01*
X87433497Y-112776000D01*
X87441116Y-112871548D01*
X87491303Y-113033607D01*
X87584652Y-113175269D01*
X87713770Y-113285315D01*
X87868435Y-113355034D01*
X88036400Y-113378903D01*
X89763600Y-113378903D01*
X89859148Y-113371284D01*
X90021207Y-113321097D01*
X90162869Y-113227748D01*
X90272915Y-113098630D01*
X90342634Y-112943965D01*
X90350450Y-112888963D01*
X90401472Y-112951522D01*
X90621565Y-113133598D01*
X90872832Y-113269458D01*
X91145702Y-113353925D01*
X91429782Y-113383783D01*
X91714251Y-113357895D01*
X91988274Y-113277245D01*
X92241414Y-113144907D01*
X92464027Y-112965921D01*
X92647636Y-112747105D01*
X92709810Y-112634010D01*
X92760936Y-112730163D01*
X92941472Y-112951522D01*
X93161565Y-113133598D01*
X93412832Y-113269458D01*
X93685702Y-113353925D01*
X93969782Y-113383783D01*
X94254251Y-113357895D01*
X94528274Y-113277245D01*
X94781414Y-113144907D01*
X95004027Y-112965921D01*
X95187636Y-112747105D01*
X95249810Y-112634010D01*
X95300936Y-112730163D01*
X95481472Y-112951522D01*
X95701565Y-113133598D01*
X95952832Y-113269458D01*
X96225702Y-113353925D01*
X96509782Y-113383783D01*
X96794251Y-113357895D01*
X97068274Y-113277245D01*
X97321414Y-113144907D01*
X97544027Y-112965921D01*
X97727636Y-112747105D01*
X97789810Y-112634010D01*
X97840936Y-112730163D01*
X98021472Y-112951522D01*
X98210000Y-113107485D01*
X98210000Y-114840000D01*
X98217660Y-114918124D01*
X98224505Y-114996358D01*
X98225752Y-115000649D01*
X98226188Y-115005099D01*
X98248887Y-115080280D01*
X98270787Y-115155662D01*
X98272844Y-115159630D01*
X98274136Y-115163910D01*
X98311004Y-115233249D01*
X98347130Y-115302943D01*
X98349918Y-115306436D01*
X98352017Y-115310383D01*
X98401649Y-115371238D01*
X98450626Y-115432590D01*
X98456763Y-115438814D01*
X98456865Y-115438939D01*
X98456981Y-115439035D01*
X98458959Y-115441041D01*
X99768959Y-116751041D01*
X99829647Y-116800891D01*
X99889778Y-116851346D01*
X99893693Y-116853498D01*
X99897149Y-116856337D01*
X99966367Y-116893451D01*
X100035149Y-116931265D01*
X100039409Y-116932616D01*
X100043349Y-116934729D01*
X100118477Y-116957698D01*
X100193275Y-116981425D01*
X100197713Y-116981923D01*
X100201992Y-116983231D01*
X100280161Y-116991171D01*
X100358132Y-116999917D01*
X100366866Y-116999978D01*
X100367033Y-116999995D01*
X100367188Y-116999980D01*
X100370000Y-117000000D01*
X144517918Y-117000000D01*
X149768960Y-122251041D01*
X149829623Y-122300870D01*
X149889778Y-122351346D01*
X149893693Y-122353499D01*
X149897149Y-122356337D01*
X149966367Y-122393451D01*
X150035149Y-122431265D01*
X150039409Y-122432616D01*
X150043349Y-122434729D01*
X150118477Y-122457698D01*
X150193275Y-122481425D01*
X150197713Y-122481923D01*
X150201992Y-122483231D01*
X150280161Y-122491171D01*
X150358132Y-122499917D01*
X150366866Y-122499978D01*
X150367033Y-122499995D01*
X150367188Y-122499980D01*
X150370000Y-122500000D01*
X172420000Y-122500000D01*
X172420000Y-147317158D01*
X169978579Y-149758579D01*
X169944779Y-149803577D01*
X169924853Y-149856210D01*
X169920000Y-149900000D01*
X169920000Y-157225000D01*
X73153009Y-157225000D01*
X72863271Y-157196591D01*
X72616313Y-157122030D01*
X72388551Y-157000926D01*
X72188642Y-156837885D01*
X72024208Y-156639120D01*
X71901516Y-156412204D01*
X71825234Y-156165776D01*
X71795000Y-155878124D01*
X71795000Y-149930368D01*
X82945212Y-149930368D01*
X82992529Y-150352208D01*
X83120881Y-150756824D01*
X83325378Y-151128803D01*
X83598232Y-151453978D01*
X83929050Y-151719962D01*
X84305231Y-151916625D01*
X84712446Y-152036475D01*
X85135184Y-152074947D01*
X85557344Y-152030576D01*
X85962846Y-151905052D01*
X86336245Y-151703157D01*
X86663316Y-151432579D01*
X86931604Y-151103627D01*
X87130888Y-150728828D01*
X87253577Y-150322460D01*
X87295000Y-149900000D01*
X87294152Y-149839270D01*
X87240950Y-149418132D01*
X87106961Y-149015348D01*
X87009622Y-148844000D01*
X97593497Y-148844000D01*
X97593497Y-150876000D01*
X97601116Y-150971548D01*
X97651303Y-151133607D01*
X97744652Y-151275269D01*
X97873770Y-151385315D01*
X98028435Y-151455034D01*
X98196400Y-151478903D01*
X99923600Y-151478903D01*
X100019148Y-151471284D01*
X100181207Y-151421097D01*
X100322869Y-151327748D01*
X100432915Y-151198630D01*
X100502634Y-151043965D01*
X100510450Y-150988963D01*
X100561472Y-151051522D01*
X100781565Y-151233598D01*
X101032832Y-151369458D01*
X101305702Y-151453925D01*
X101589782Y-151483783D01*
X101874251Y-151457895D01*
X102148274Y-151377245D01*
X102401414Y-151244907D01*
X102624027Y-151065921D01*
X102807636Y-150847105D01*
X102869810Y-150734010D01*
X102920936Y-150830163D01*
X103101472Y-151051522D01*
X103321565Y-151233598D01*
X103572832Y-151369458D01*
X103845702Y-151453925D01*
X104129782Y-151483783D01*
X104414251Y-151457895D01*
X104688274Y-151377245D01*
X104941414Y-151244907D01*
X105164027Y-151065921D01*
X105347636Y-150847105D01*
X105409810Y-150734010D01*
X105460936Y-150830163D01*
X105641472Y-151051522D01*
X105861565Y-151233598D01*
X106112832Y-151369458D01*
X106385702Y-151453925D01*
X106669782Y-151483783D01*
X106954251Y-151457895D01*
X107228274Y-151377245D01*
X107481414Y-151244907D01*
X107704027Y-151065921D01*
X107887636Y-150847105D01*
X107949810Y-150734010D01*
X108000936Y-150830163D01*
X108181472Y-151051522D01*
X108401565Y-151233598D01*
X108652832Y-151369458D01*
X108925702Y-151453925D01*
X109209782Y-151483783D01*
X109494251Y-151457895D01*
X109768274Y-151377245D01*
X110021414Y-151244907D01*
X110244027Y-151065921D01*
X110427636Y-150847105D01*
X110492065Y-150729908D01*
X110545839Y-150829690D01*
X110728614Y-151050857D01*
X110951025Y-151232117D01*
X111204524Y-151366504D01*
X111479370Y-151448853D01*
X111526105Y-151457190D01*
X111755000Y-151325990D01*
X111755000Y-149865000D01*
X111765000Y-149865000D01*
X111765000Y-151325990D01*
X111993895Y-151457190D01*
X112040630Y-151448853D01*
X112315476Y-151366504D01*
X112568975Y-151232117D01*
X112791386Y-151050857D01*
X112974161Y-150829690D01*
X113030000Y-150726076D01*
X113085839Y-150829690D01*
X113268614Y-151050857D01*
X113491025Y-151232117D01*
X113744524Y-151366504D01*
X114019370Y-151448853D01*
X114066105Y-151457190D01*
X114295000Y-151325990D01*
X114295000Y-149865000D01*
X111765000Y-149865000D01*
X111755000Y-149865000D01*
X111735000Y-149865000D01*
X111735000Y-149855000D01*
X111755000Y-149855000D01*
X111755000Y-148394010D01*
X111765000Y-148394010D01*
X111765000Y-149855000D01*
X114295000Y-149855000D01*
X114295000Y-148394010D01*
X114305000Y-148394010D01*
X114305000Y-149855000D01*
X114325000Y-149855000D01*
X114325000Y-149865000D01*
X114305000Y-149865000D01*
X114305000Y-151325990D01*
X114533895Y-151457190D01*
X114580630Y-151448853D01*
X114855476Y-151366504D01*
X115108975Y-151232117D01*
X115331386Y-151050857D01*
X115514161Y-150829690D01*
X115567781Y-150730193D01*
X115620936Y-150830163D01*
X115801472Y-151051522D01*
X116021565Y-151233598D01*
X116272832Y-151369458D01*
X116545702Y-151453925D01*
X116829782Y-151483783D01*
X117114251Y-151457895D01*
X117388274Y-151377245D01*
X117641414Y-151244907D01*
X117864027Y-151065921D01*
X118047636Y-150847105D01*
X118185246Y-150596792D01*
X118271617Y-150324519D01*
X118303457Y-150040654D01*
X118303600Y-150020219D01*
X118303600Y-149699781D01*
X118275726Y-149415500D01*
X118193166Y-149142046D01*
X118059064Y-148889837D01*
X118021681Y-148844000D01*
X120453497Y-148844000D01*
X120453497Y-150876000D01*
X120461116Y-150971548D01*
X120511303Y-151133607D01*
X120604652Y-151275269D01*
X120733770Y-151385315D01*
X120888435Y-151455034D01*
X121056400Y-151478903D01*
X122783600Y-151478903D01*
X122879148Y-151471284D01*
X123041207Y-151421097D01*
X123182869Y-151327748D01*
X123292915Y-151198630D01*
X123362634Y-151043965D01*
X123370450Y-150988963D01*
X123421472Y-151051522D01*
X123641565Y-151233598D01*
X123892832Y-151369458D01*
X124165702Y-151453925D01*
X124449782Y-151483783D01*
X124734251Y-151457895D01*
X125008274Y-151377245D01*
X125261414Y-151244907D01*
X125484027Y-151065921D01*
X125667636Y-150847105D01*
X125729810Y-150734010D01*
X125780936Y-150830163D01*
X125961472Y-151051522D01*
X126181565Y-151233598D01*
X126432832Y-151369458D01*
X126705702Y-151453925D01*
X126989782Y-151483783D01*
X127274251Y-151457895D01*
X127548274Y-151377245D01*
X127801414Y-151244907D01*
X128024027Y-151065921D01*
X128207636Y-150847105D01*
X128269810Y-150734010D01*
X128320936Y-150830163D01*
X128501472Y-151051522D01*
X128721565Y-151233598D01*
X128972832Y-151369458D01*
X129245702Y-151453925D01*
X129529782Y-151483783D01*
X129814251Y-151457895D01*
X130088274Y-151377245D01*
X130341414Y-151244907D01*
X130564027Y-151065921D01*
X130747636Y-150847105D01*
X130809810Y-150734010D01*
X130860936Y-150830163D01*
X131041472Y-151051522D01*
X131261565Y-151233598D01*
X131512832Y-151369458D01*
X131785702Y-151453925D01*
X132069782Y-151483783D01*
X132354251Y-151457895D01*
X132628274Y-151377245D01*
X132881414Y-151244907D01*
X133104027Y-151065921D01*
X133287636Y-150847105D01*
X133349810Y-150734010D01*
X133400936Y-150830163D01*
X133581472Y-151051522D01*
X133801565Y-151233598D01*
X134052832Y-151369458D01*
X134325702Y-151453925D01*
X134609782Y-151483783D01*
X134894251Y-151457895D01*
X135168274Y-151377245D01*
X135421414Y-151244907D01*
X135644027Y-151065921D01*
X135827636Y-150847105D01*
X135965246Y-150596792D01*
X136051617Y-150324519D01*
X136083457Y-150040654D01*
X136083600Y-150020219D01*
X136083600Y-149930368D01*
X165445212Y-149930368D01*
X165492529Y-150352208D01*
X165620881Y-150756824D01*
X165825378Y-151128803D01*
X166098232Y-151453978D01*
X166429050Y-151719962D01*
X166805231Y-151916625D01*
X167212446Y-152036475D01*
X167635184Y-152074947D01*
X168057344Y-152030576D01*
X168462846Y-151905052D01*
X168836245Y-151703157D01*
X169163316Y-151432579D01*
X169431604Y-151103627D01*
X169630888Y-150728828D01*
X169753577Y-150322460D01*
X169795000Y-149900000D01*
X169794152Y-149839270D01*
X169740950Y-149418132D01*
X169606961Y-149015348D01*
X169397290Y-148646260D01*
X169119923Y-148324926D01*
X168785423Y-148063587D01*
X168406533Y-147872196D01*
X167997685Y-147758043D01*
X167574450Y-147725477D01*
X167152951Y-147775738D01*
X166749241Y-147906911D01*
X166378698Y-148114000D01*
X166055436Y-148389118D01*
X165791768Y-148721785D01*
X165597736Y-149099329D01*
X165480732Y-149507371D01*
X165445212Y-149930368D01*
X136083600Y-149930368D01*
X136083600Y-149699781D01*
X136055726Y-149415500D01*
X135973166Y-149142046D01*
X135839064Y-148889837D01*
X135658528Y-148668478D01*
X135438435Y-148486402D01*
X135187168Y-148350542D01*
X134914298Y-148266075D01*
X134630218Y-148236217D01*
X134345749Y-148262105D01*
X134071726Y-148342755D01*
X133818586Y-148475093D01*
X133595973Y-148654079D01*
X133412364Y-148872895D01*
X133350190Y-148985990D01*
X133299064Y-148889837D01*
X133118528Y-148668478D01*
X132898435Y-148486402D01*
X132647168Y-148350542D01*
X132374298Y-148266075D01*
X132090218Y-148236217D01*
X131805749Y-148262105D01*
X131531726Y-148342755D01*
X131278586Y-148475093D01*
X131055973Y-148654079D01*
X130872364Y-148872895D01*
X130810190Y-148985990D01*
X130759064Y-148889837D01*
X130578528Y-148668478D01*
X130358435Y-148486402D01*
X130107168Y-148350542D01*
X129834298Y-148266075D01*
X129550218Y-148236217D01*
X129265749Y-148262105D01*
X128991726Y-148342755D01*
X128738586Y-148475093D01*
X128515973Y-148654079D01*
X128332364Y-148872895D01*
X128270190Y-148985990D01*
X128219064Y-148889837D01*
X128038528Y-148668478D01*
X127818435Y-148486402D01*
X127567168Y-148350542D01*
X127294298Y-148266075D01*
X127010218Y-148236217D01*
X126725749Y-148262105D01*
X126451726Y-148342755D01*
X126198586Y-148475093D01*
X125975973Y-148654079D01*
X125792364Y-148872895D01*
X125730190Y-148985990D01*
X125679064Y-148889837D01*
X125498528Y-148668478D01*
X125278435Y-148486402D01*
X125027168Y-148350542D01*
X124754298Y-148266075D01*
X124470218Y-148236217D01*
X124185749Y-148262105D01*
X123911726Y-148342755D01*
X123658586Y-148475093D01*
X123435973Y-148654079D01*
X123372927Y-148729215D01*
X123328697Y-148586393D01*
X123235348Y-148444731D01*
X123106230Y-148334685D01*
X122951565Y-148264966D01*
X122783600Y-148241097D01*
X121056400Y-148241097D01*
X120960852Y-148248716D01*
X120798793Y-148298903D01*
X120657131Y-148392252D01*
X120547085Y-148521370D01*
X120477366Y-148676035D01*
X120453497Y-148844000D01*
X118021681Y-148844000D01*
X117878528Y-148668478D01*
X117658435Y-148486402D01*
X117407168Y-148350542D01*
X117134298Y-148266075D01*
X116850218Y-148236217D01*
X116565749Y-148262105D01*
X116291726Y-148342755D01*
X116038586Y-148475093D01*
X115815973Y-148654079D01*
X115632364Y-148872895D01*
X115567935Y-148990092D01*
X115514161Y-148890310D01*
X115331386Y-148669143D01*
X115108975Y-148487883D01*
X114855476Y-148353496D01*
X114580630Y-148271147D01*
X114533895Y-148262810D01*
X114305000Y-148394010D01*
X114295000Y-148394010D01*
X114066105Y-148262810D01*
X114019370Y-148271147D01*
X113744524Y-148353496D01*
X113491025Y-148487883D01*
X113268614Y-148669143D01*
X113085839Y-148890310D01*
X113030000Y-148993924D01*
X112974161Y-148890310D01*
X112791386Y-148669143D01*
X112568975Y-148487883D01*
X112315476Y-148353496D01*
X112040630Y-148271147D01*
X111993895Y-148262810D01*
X111765000Y-148394010D01*
X111755000Y-148394010D01*
X111526105Y-148262810D01*
X111479370Y-148271147D01*
X111204524Y-148353496D01*
X110951025Y-148487883D01*
X110728614Y-148669143D01*
X110545839Y-148890310D01*
X110492219Y-148989807D01*
X110439064Y-148889837D01*
X110258528Y-148668478D01*
X110038435Y-148486402D01*
X109787168Y-148350542D01*
X109514298Y-148266075D01*
X109230218Y-148236217D01*
X108945749Y-148262105D01*
X108671726Y-148342755D01*
X108418586Y-148475093D01*
X108195973Y-148654079D01*
X108012364Y-148872895D01*
X107950190Y-148985990D01*
X107899064Y-148889837D01*
X107718528Y-148668478D01*
X107498435Y-148486402D01*
X107247168Y-148350542D01*
X106974298Y-148266075D01*
X106690218Y-148236217D01*
X106405749Y-148262105D01*
X106131726Y-148342755D01*
X105878586Y-148475093D01*
X105655973Y-148654079D01*
X105472364Y-148872895D01*
X105410190Y-148985990D01*
X105359064Y-148889837D01*
X105178528Y-148668478D01*
X104958435Y-148486402D01*
X104707168Y-148350542D01*
X104434298Y-148266075D01*
X104150218Y-148236217D01*
X103865749Y-148262105D01*
X103591726Y-148342755D01*
X103338586Y-148475093D01*
X103115973Y-148654079D01*
X102932364Y-148872895D01*
X102870190Y-148985990D01*
X102819064Y-148889837D01*
X102638528Y-148668478D01*
X102418435Y-148486402D01*
X102167168Y-148350542D01*
X101894298Y-148266075D01*
X101610218Y-148236217D01*
X101325749Y-148262105D01*
X101051726Y-148342755D01*
X100798586Y-148475093D01*
X100575973Y-148654079D01*
X100512927Y-148729215D01*
X100468697Y-148586393D01*
X100375348Y-148444731D01*
X100246230Y-148334685D01*
X100091565Y-148264966D01*
X99923600Y-148241097D01*
X98196400Y-148241097D01*
X98100852Y-148248716D01*
X97938793Y-148298903D01*
X97797131Y-148392252D01*
X97687085Y-148521370D01*
X97617366Y-148676035D01*
X97593497Y-148844000D01*
X87009622Y-148844000D01*
X86897290Y-148646260D01*
X86619923Y-148324926D01*
X86285423Y-148063587D01*
X85906533Y-147872196D01*
X85497685Y-147758043D01*
X85074450Y-147725477D01*
X84652951Y-147775738D01*
X84249241Y-147906911D01*
X83878698Y-148114000D01*
X83555436Y-148389118D01*
X83291768Y-148721785D01*
X83097736Y-149099329D01*
X82980732Y-149507371D01*
X82945212Y-149930368D01*
X71795000Y-149930368D01*
X71795000Y-124449782D01*
X133149354Y-124449782D01*
X133175242Y-124734251D01*
X133255892Y-125008274D01*
X133388230Y-125261414D01*
X133567216Y-125484027D01*
X133786032Y-125667636D01*
X133899127Y-125729810D01*
X133802974Y-125780936D01*
X133581615Y-125961472D01*
X133399539Y-126181565D01*
X133263679Y-126432832D01*
X133179212Y-126705702D01*
X133149354Y-126989782D01*
X133175242Y-127274251D01*
X133255892Y-127548274D01*
X133388230Y-127801414D01*
X133567216Y-128024027D01*
X133786032Y-128207636D01*
X134036345Y-128345246D01*
X134308618Y-128431617D01*
X134592483Y-128463457D01*
X134612918Y-128463600D01*
X134627082Y-128463600D01*
X134911363Y-128435726D01*
X135184817Y-128353166D01*
X135437026Y-128219064D01*
X135658385Y-128038528D01*
X135840461Y-127818435D01*
X135889609Y-127727538D01*
X135928230Y-127801414D01*
X136107216Y-128024027D01*
X136326032Y-128207636D01*
X136576345Y-128345246D01*
X136848618Y-128431617D01*
X137132483Y-128463457D01*
X137152918Y-128463600D01*
X137167082Y-128463600D01*
X137451363Y-128435726D01*
X137724817Y-128353166D01*
X137977026Y-128219064D01*
X138198385Y-128038528D01*
X138380461Y-127818435D01*
X138516321Y-127567168D01*
X138600788Y-127294298D01*
X138630646Y-127010218D01*
X138604758Y-126725749D01*
X138524108Y-126451726D01*
X138391770Y-126198586D01*
X138212784Y-125975973D01*
X137993968Y-125792364D01*
X137880873Y-125730190D01*
X137977026Y-125679064D01*
X138198385Y-125498528D01*
X138380461Y-125278435D01*
X138516321Y-125027168D01*
X138600788Y-124754298D01*
X138630646Y-124470218D01*
X138604758Y-124185749D01*
X138524108Y-123911726D01*
X138391770Y-123658586D01*
X138212784Y-123435973D01*
X137993968Y-123252364D01*
X137880873Y-123190190D01*
X137977026Y-123139064D01*
X138198385Y-122958528D01*
X138380461Y-122738435D01*
X138516321Y-122487168D01*
X138600788Y-122214298D01*
X138630646Y-121930218D01*
X138604758Y-121645749D01*
X138524108Y-121371726D01*
X138391770Y-121118586D01*
X138212784Y-120895973D01*
X137993968Y-120712364D01*
X137743655Y-120574754D01*
X137471382Y-120488383D01*
X137187517Y-120456543D01*
X137167082Y-120456400D01*
X137152918Y-120456400D01*
X136868637Y-120484274D01*
X136595183Y-120566834D01*
X136342974Y-120700936D01*
X136121615Y-120881472D01*
X136072636Y-120940677D01*
X136028697Y-120798793D01*
X135935348Y-120657131D01*
X135806230Y-120547085D01*
X135651565Y-120477366D01*
X135483600Y-120453497D01*
X133756400Y-120453497D01*
X133660852Y-120461116D01*
X133498793Y-120511303D01*
X133357131Y-120604652D01*
X133247085Y-120733770D01*
X133177366Y-120888435D01*
X133153497Y-121056400D01*
X133153497Y-122783600D01*
X133161116Y-122879148D01*
X133211303Y-123041207D01*
X133304652Y-123182869D01*
X133433770Y-123292915D01*
X133588435Y-123362634D01*
X133644065Y-123370539D01*
X133581615Y-123421472D01*
X133399539Y-123641565D01*
X133263679Y-123892832D01*
X133179212Y-124165702D01*
X133149354Y-124449782D01*
X71795000Y-124449782D01*
X71795000Y-101680368D01*
X83195212Y-101680368D01*
X83242529Y-102102208D01*
X83370881Y-102506824D01*
X83575378Y-102878803D01*
X83848232Y-103203978D01*
X84179050Y-103469962D01*
X84555231Y-103666625D01*
X84962446Y-103786475D01*
X85385184Y-103824947D01*
X85807344Y-103780576D01*
X86212846Y-103655052D01*
X86586245Y-103453157D01*
X86913316Y-103182579D01*
X87181604Y-102853627D01*
X87380888Y-102478828D01*
X87488146Y-102123569D01*
X87546834Y-102317954D01*
X87680936Y-102570163D01*
X87861472Y-102791522D01*
X88081565Y-102973598D01*
X88332832Y-103109458D01*
X88605702Y-103193925D01*
X88889782Y-103223783D01*
X89174251Y-103197895D01*
X89448274Y-103117245D01*
X89701414Y-102984907D01*
X89924027Y-102805921D01*
X90107636Y-102587105D01*
X90169810Y-102474010D01*
X90220936Y-102570163D01*
X90401472Y-102791522D01*
X90621565Y-102973598D01*
X90872832Y-103109458D01*
X91145702Y-103193925D01*
X91429782Y-103223783D01*
X91714251Y-103197895D01*
X91988274Y-103117245D01*
X92241414Y-102984907D01*
X92464027Y-102805921D01*
X92647636Y-102587105D01*
X92709810Y-102474010D01*
X92760936Y-102570163D01*
X92941472Y-102791522D01*
X93161565Y-102973598D01*
X93412832Y-103109458D01*
X93685702Y-103193925D01*
X93969782Y-103223783D01*
X94254251Y-103197895D01*
X94528274Y-103117245D01*
X94781414Y-102984907D01*
X95004027Y-102805921D01*
X95187636Y-102587105D01*
X95252065Y-102469908D01*
X95305839Y-102569690D01*
X95488614Y-102790857D01*
X95711025Y-102972117D01*
X95964524Y-103106504D01*
X96239370Y-103188853D01*
X96286105Y-103197190D01*
X96515000Y-103065990D01*
X96515000Y-101605000D01*
X96495000Y-101605000D01*
X96495000Y-101595000D01*
X96515000Y-101595000D01*
X96515000Y-100134010D01*
X96525000Y-100134010D01*
X96525000Y-101595000D01*
X96545000Y-101595000D01*
X96545000Y-101605000D01*
X96525000Y-101605000D01*
X96525000Y-103065990D01*
X96753895Y-103197190D01*
X96800630Y-103188853D01*
X97075476Y-103106504D01*
X97328975Y-102972117D01*
X97551386Y-102790857D01*
X97734161Y-102569690D01*
X97787781Y-102470193D01*
X97840936Y-102570163D01*
X98021472Y-102791522D01*
X98241565Y-102973598D01*
X98492832Y-103109458D01*
X98765702Y-103193925D01*
X99049782Y-103223783D01*
X99334251Y-103197895D01*
X99608274Y-103117245D01*
X99861414Y-102984907D01*
X100084027Y-102805921D01*
X100267636Y-102587105D01*
X100329810Y-102474010D01*
X100380936Y-102570163D01*
X100561472Y-102791522D01*
X100781565Y-102973598D01*
X101032832Y-103109458D01*
X101305702Y-103193925D01*
X101589782Y-103223783D01*
X101874251Y-103197895D01*
X102148274Y-103117245D01*
X102401414Y-102984907D01*
X102624027Y-102805921D01*
X102807636Y-102587105D01*
X102869810Y-102474010D01*
X102920936Y-102570163D01*
X103101472Y-102791522D01*
X103321565Y-102973598D01*
X103572832Y-103109458D01*
X103845702Y-103193925D01*
X104129782Y-103223783D01*
X104414251Y-103197895D01*
X104688274Y-103117245D01*
X104941414Y-102984907D01*
X105164027Y-102805921D01*
X105347636Y-102587105D01*
X105409810Y-102474010D01*
X105460936Y-102570163D01*
X105641472Y-102791522D01*
X105861565Y-102973598D01*
X106112832Y-103109458D01*
X106385702Y-103193925D01*
X106669782Y-103223783D01*
X106954251Y-103197895D01*
X107228274Y-103117245D01*
X107481414Y-102984907D01*
X107704027Y-102805921D01*
X107887636Y-102587105D01*
X107949810Y-102474010D01*
X108000936Y-102570163D01*
X108181472Y-102791522D01*
X108401565Y-102973598D01*
X108652832Y-103109458D01*
X108925702Y-103193925D01*
X109209782Y-103223783D01*
X109494251Y-103197895D01*
X109768274Y-103117245D01*
X110021414Y-102984907D01*
X110244027Y-102805921D01*
X110307073Y-102730785D01*
X110351303Y-102873607D01*
X110444652Y-103015269D01*
X110573770Y-103125315D01*
X110728435Y-103195034D01*
X110896400Y-103218903D01*
X112623600Y-103218903D01*
X112719148Y-103211284D01*
X112881207Y-103161097D01*
X113022869Y-103067748D01*
X113132915Y-102938630D01*
X113202634Y-102783965D01*
X113226503Y-102616000D01*
X113226503Y-101439781D01*
X115376400Y-101439781D01*
X115376400Y-101760219D01*
X115404274Y-102044500D01*
X115486834Y-102317954D01*
X115620936Y-102570163D01*
X115801472Y-102791522D01*
X116021565Y-102973598D01*
X116272832Y-103109458D01*
X116545702Y-103193925D01*
X116829782Y-103223783D01*
X117114251Y-103197895D01*
X117388274Y-103117245D01*
X117641414Y-102984907D01*
X117864027Y-102805921D01*
X118047636Y-102587105D01*
X118109810Y-102474010D01*
X118160936Y-102570163D01*
X118341472Y-102791522D01*
X118561565Y-102973598D01*
X118812832Y-103109458D01*
X119085702Y-103193925D01*
X119369782Y-103223783D01*
X119654251Y-103197895D01*
X119928274Y-103117245D01*
X120181414Y-102984907D01*
X120404027Y-102805921D01*
X120587636Y-102587105D01*
X120649810Y-102474010D01*
X120700936Y-102570163D01*
X120881472Y-102791522D01*
X121101565Y-102973598D01*
X121352832Y-103109458D01*
X121625702Y-103193925D01*
X121909782Y-103223783D01*
X122194251Y-103197895D01*
X122468274Y-103117245D01*
X122721414Y-102984907D01*
X122944027Y-102805921D01*
X123127636Y-102587105D01*
X123189810Y-102474010D01*
X123240936Y-102570163D01*
X123421472Y-102791522D01*
X123641565Y-102973598D01*
X123892832Y-103109458D01*
X124165702Y-103193925D01*
X124449782Y-103223783D01*
X124734251Y-103197895D01*
X125008274Y-103117245D01*
X125261414Y-102984907D01*
X125484027Y-102805921D01*
X125667636Y-102587105D01*
X125729810Y-102474010D01*
X125780936Y-102570163D01*
X125961472Y-102791522D01*
X126181565Y-102973598D01*
X126432832Y-103109458D01*
X126705702Y-103193925D01*
X126989782Y-103223783D01*
X127274251Y-103197895D01*
X127548274Y-103117245D01*
X127801414Y-102984907D01*
X128024027Y-102805921D01*
X128207636Y-102587105D01*
X128269810Y-102474010D01*
X128320936Y-102570163D01*
X128501472Y-102791522D01*
X128721565Y-102973598D01*
X128972832Y-103109458D01*
X129245702Y-103193925D01*
X129529782Y-103223783D01*
X129814251Y-103197895D01*
X130088274Y-103117245D01*
X130341414Y-102984907D01*
X130564027Y-102805921D01*
X130747636Y-102587105D01*
X130809810Y-102474010D01*
X130860936Y-102570163D01*
X131041472Y-102791522D01*
X131261565Y-102973598D01*
X131512832Y-103109458D01*
X131785702Y-103193925D01*
X132069782Y-103223783D01*
X132354251Y-103197895D01*
X132628274Y-103117245D01*
X132881414Y-102984907D01*
X133104027Y-102805921D01*
X133167073Y-102730785D01*
X133211303Y-102873607D01*
X133304652Y-103015269D01*
X133433770Y-103125315D01*
X133588435Y-103195034D01*
X133756400Y-103218903D01*
X135483600Y-103218903D01*
X135579148Y-103211284D01*
X135741207Y-103161097D01*
X135882869Y-103067748D01*
X135992915Y-102938630D01*
X136062634Y-102783965D01*
X136086503Y-102616000D01*
X136086503Y-100584000D01*
X136078884Y-100488452D01*
X136028697Y-100326393D01*
X135935348Y-100184731D01*
X135806230Y-100074685D01*
X135651565Y-100004966D01*
X135483600Y-99981097D01*
X133756400Y-99981097D01*
X133660852Y-99988716D01*
X133498793Y-100038903D01*
X133357131Y-100132252D01*
X133247085Y-100261370D01*
X133177366Y-100416035D01*
X133169550Y-100471037D01*
X133118528Y-100408478D01*
X132898435Y-100226402D01*
X132647168Y-100090542D01*
X132374298Y-100006075D01*
X132090218Y-99976217D01*
X131805749Y-100002105D01*
X131531726Y-100082755D01*
X131278586Y-100215093D01*
X131055973Y-100394079D01*
X130872364Y-100612895D01*
X130810190Y-100725990D01*
X130759064Y-100629837D01*
X130578528Y-100408478D01*
X130358435Y-100226402D01*
X130107168Y-100090542D01*
X129834298Y-100006075D01*
X129550218Y-99976217D01*
X129265749Y-100002105D01*
X128991726Y-100082755D01*
X128738586Y-100215093D01*
X128515973Y-100394079D01*
X128332364Y-100612895D01*
X128270190Y-100725990D01*
X128219064Y-100629837D01*
X128038528Y-100408478D01*
X127818435Y-100226402D01*
X127567168Y-100090542D01*
X127294298Y-100006075D01*
X127010218Y-99976217D01*
X126725749Y-100002105D01*
X126451726Y-100082755D01*
X126198586Y-100215093D01*
X125975973Y-100394079D01*
X125792364Y-100612895D01*
X125730190Y-100725990D01*
X125679064Y-100629837D01*
X125498528Y-100408478D01*
X125278435Y-100226402D01*
X125027168Y-100090542D01*
X124754298Y-100006075D01*
X124470218Y-99976217D01*
X124185749Y-100002105D01*
X123911726Y-100082755D01*
X123658586Y-100215093D01*
X123435973Y-100394079D01*
X123252364Y-100612895D01*
X123190190Y-100725990D01*
X123139064Y-100629837D01*
X122958528Y-100408478D01*
X122738435Y-100226402D01*
X122487168Y-100090542D01*
X122214298Y-100006075D01*
X121930218Y-99976217D01*
X121645749Y-100002105D01*
X121371726Y-100082755D01*
X121118586Y-100215093D01*
X120895973Y-100394079D01*
X120712364Y-100612895D01*
X120650190Y-100725990D01*
X120599064Y-100629837D01*
X120418528Y-100408478D01*
X120198435Y-100226402D01*
X119947168Y-100090542D01*
X119674298Y-100006075D01*
X119390218Y-99976217D01*
X119105749Y-100002105D01*
X118831726Y-100082755D01*
X118578586Y-100215093D01*
X118355973Y-100394079D01*
X118172364Y-100612895D01*
X118110190Y-100725990D01*
X118059064Y-100629837D01*
X117878528Y-100408478D01*
X117658435Y-100226402D01*
X117407168Y-100090542D01*
X117134298Y-100006075D01*
X116850218Y-99976217D01*
X116565749Y-100002105D01*
X116291726Y-100082755D01*
X116038586Y-100215093D01*
X115815973Y-100394079D01*
X115632364Y-100612895D01*
X115494754Y-100863208D01*
X115408383Y-101135481D01*
X115376543Y-101419346D01*
X115376400Y-101439781D01*
X113226503Y-101439781D01*
X113226503Y-100584000D01*
X113218884Y-100488452D01*
X113168697Y-100326393D01*
X113075348Y-100184731D01*
X112946230Y-100074685D01*
X112791565Y-100004966D01*
X112623600Y-99981097D01*
X110896400Y-99981097D01*
X110800852Y-99988716D01*
X110638793Y-100038903D01*
X110497131Y-100132252D01*
X110387085Y-100261370D01*
X110317366Y-100416035D01*
X110309550Y-100471037D01*
X110258528Y-100408478D01*
X110038435Y-100226402D01*
X109787168Y-100090542D01*
X109514298Y-100006075D01*
X109230218Y-99976217D01*
X108945749Y-100002105D01*
X108671726Y-100082755D01*
X108418586Y-100215093D01*
X108195973Y-100394079D01*
X108012364Y-100612895D01*
X107950190Y-100725990D01*
X107899064Y-100629837D01*
X107718528Y-100408478D01*
X107498435Y-100226402D01*
X107247168Y-100090542D01*
X106974298Y-100006075D01*
X106690218Y-99976217D01*
X106405749Y-100002105D01*
X106131726Y-100082755D01*
X105878586Y-100215093D01*
X105655973Y-100394079D01*
X105472364Y-100612895D01*
X105410190Y-100725990D01*
X105359064Y-100629837D01*
X105178528Y-100408478D01*
X104958435Y-100226402D01*
X104707168Y-100090542D01*
X104434298Y-100006075D01*
X104150218Y-99976217D01*
X103865749Y-100002105D01*
X103591726Y-100082755D01*
X103338586Y-100215093D01*
X103115973Y-100394079D01*
X102932364Y-100612895D01*
X102870190Y-100725990D01*
X102819064Y-100629837D01*
X102638528Y-100408478D01*
X102418435Y-100226402D01*
X102167168Y-100090542D01*
X101894298Y-100006075D01*
X101610218Y-99976217D01*
X101325749Y-100002105D01*
X101051726Y-100082755D01*
X100798586Y-100215093D01*
X100575973Y-100394079D01*
X100392364Y-100612895D01*
X100330190Y-100725990D01*
X100279064Y-100629837D01*
X100098528Y-100408478D01*
X99878435Y-100226402D01*
X99627168Y-100090542D01*
X99354298Y-100006075D01*
X99070218Y-99976217D01*
X98785749Y-100002105D01*
X98511726Y-100082755D01*
X98258586Y-100215093D01*
X98035973Y-100394079D01*
X97852364Y-100612895D01*
X97787935Y-100730092D01*
X97734161Y-100630310D01*
X97551386Y-100409143D01*
X97328975Y-100227883D01*
X97075476Y-100093496D01*
X96800630Y-100011147D01*
X96753895Y-100002810D01*
X96525000Y-100134010D01*
X96515000Y-100134010D01*
X96286105Y-100002810D01*
X96239370Y-100011147D01*
X95964524Y-100093496D01*
X95711025Y-100227883D01*
X95488614Y-100409143D01*
X95305839Y-100630310D01*
X95252219Y-100729807D01*
X95199064Y-100629837D01*
X95018528Y-100408478D01*
X94798435Y-100226402D01*
X94547168Y-100090542D01*
X94274298Y-100006075D01*
X93990218Y-99976217D01*
X93705749Y-100002105D01*
X93431726Y-100082755D01*
X93178586Y-100215093D01*
X92955973Y-100394079D01*
X92772364Y-100612895D01*
X92710190Y-100725990D01*
X92659064Y-100629837D01*
X92478528Y-100408478D01*
X92258435Y-100226402D01*
X92007168Y-100090542D01*
X91734298Y-100006075D01*
X91450218Y-99976217D01*
X91165749Y-100002105D01*
X90891726Y-100082755D01*
X90638586Y-100215093D01*
X90415973Y-100394079D01*
X90232364Y-100612895D01*
X90170190Y-100725990D01*
X90119064Y-100629837D01*
X89938528Y-100408478D01*
X89718435Y-100226402D01*
X89467168Y-100090542D01*
X89194298Y-100006075D01*
X88910218Y-99976217D01*
X88625749Y-100002105D01*
X88351726Y-100082755D01*
X88098586Y-100215093D01*
X87875973Y-100394079D01*
X87692364Y-100612895D01*
X87554754Y-100863208D01*
X87474097Y-101117469D01*
X87356961Y-100765348D01*
X87147290Y-100396260D01*
X86869923Y-100074926D01*
X86535423Y-99813587D01*
X86156533Y-99622196D01*
X85747685Y-99508043D01*
X85324450Y-99475477D01*
X84902951Y-99525738D01*
X84499241Y-99656911D01*
X84128698Y-99864000D01*
X83805436Y-100139118D01*
X83541768Y-100471785D01*
X83347736Y-100849329D01*
X83230732Y-101257371D01*
X83195212Y-101680368D01*
X71795000Y-101680368D01*
X71795000Y-95933009D01*
X71823409Y-95643271D01*
X71897971Y-95396313D01*
X72019077Y-95168546D01*
X72182115Y-94968642D01*
X72380880Y-94804208D01*
X72607796Y-94681516D01*
X72854224Y-94605234D01*
X73141876Y-94575000D01*
X169920000Y-94575000D01*
X169920000Y-111900000D01*
M02*
