G04 start of page 6 for group -4063 idx -4063 *
G04 Title: OpenTDCS, v4, componentmask *
G04 Creator: pcb 1.99z *
G04 CreationDate: Thu 16 May 2013 08:09:45 PM GMT UTC *
G04 For: nock *
G04 Format: Gerber/RS-274X *
G04 PCB-Dimensions (mil): 2250.00 850.00 *
G04 PCB-Coordinate-Origin: lower left *
%MOIN*%
%FSLAX25Y25*%
%LNTOPMASK*%
%ADD55C,0.0780*%
%ADD54C,0.0420*%
%ADD53C,0.0710*%
%ADD52C,0.0610*%
%ADD51C,0.1100*%
%ADD50C,0.0660*%
%ADD49C,0.0001*%
G54D49*G36*
X58708Y61725D02*Y55125D01*
X65308D01*
Y61725D01*
X58708D01*
G37*
G54D50*X62008Y48425D03*
Y38425D03*
Y28425D03*
X92008D03*
Y38425D03*
Y48425D03*
G54D51*X87598Y13150D03*
X67598D03*
X44291Y31850D03*
Y51850D03*
G54D49*G36*
X6208Y52395D02*Y45795D01*
X12808D01*
Y52395D01*
X6208D01*
G37*
G54D50*X9508Y39095D03*
G54D49*G36*
X6793Y79192D02*Y73092D01*
X12893D01*
Y79192D01*
X6793D01*
G37*
G54D52*X39843Y76142D03*
G54D51*X87598D03*
X67598D03*
G54D49*G36*
X16056Y67881D02*Y60781D01*
X23156D01*
Y67881D01*
X16056D01*
G37*
G54D53*X29606Y64331D03*
G54D49*G36*
X214220Y54835D02*Y48235D01*
X220820D01*
Y54835D01*
X214220D01*
G37*
G54D50*X217520Y61535D03*
X92008Y58425D03*
G54D51*X109252Y51535D03*
G54D54*X125190Y66235D03*
X144875D03*
X135033Y76078D03*
G54D52*X156496Y70709D03*
G54D49*G36*
X163289Y73759D02*Y67659D01*
X169389D01*
Y73759D01*
X163289D01*
G37*
G54D51*X109252Y31535D03*
G54D49*G36*
X120943Y40672D02*Y32872D01*
X128743D01*
Y40672D01*
X120943D01*
G37*
G36*
X140943Y19018D02*Y11218D01*
X148743D01*
Y19018D01*
X140943D01*
G37*
G36*
X181989Y19152D02*Y13052D01*
X188089D01*
Y19152D01*
X181989D01*
G37*
G54D52*X155039Y16102D03*
G54D55*X134843Y15118D03*
X124843D03*
X134843Y36772D03*
X144843D03*
G54D49*G36*
X153446Y43759D02*Y37659D01*
X159546D01*
Y43759D01*
X153446D01*
G37*
G54D52*X166339Y40709D03*
G54D49*G36*
X152462Y28995D02*Y22895D01*
X158562D01*
Y28995D01*
X152462D01*
G37*
G54D52*X185512Y25945D03*
M02*
