G04 (created by PCBNEW-RS274X (2010-03-14)-final) date mar 08 nov 2011 08:15:05 ART*
G01*
G70*
G90*
%MOIN*%
G04 Gerber Fmt 3.4, Leading zero omitted, Abs format*
%FSLAX34Y34*%
G04 APERTURE LIST*
%ADD10C,0.000100*%
%ADD11C,0.015000*%
G04 APERTURE END LIST*
G54D10*
G54D11*
X32789Y-10150D02*
X32775Y-10283D01*
X32737Y-10412D01*
X32673Y-10531D01*
X32588Y-10635D01*
X32485Y-10721D01*
X32366Y-10785D01*
X32238Y-10824D01*
X32104Y-10838D01*
X31971Y-10826D01*
X31842Y-10788D01*
X31723Y-10726D01*
X31618Y-10642D01*
X31532Y-10539D01*
X31467Y-10421D01*
X31427Y-10293D01*
X31412Y-10159D01*
X31423Y-10026D01*
X31460Y-09897D01*
X31521Y-09777D01*
X31605Y-09672D01*
X31707Y-09585D01*
X31825Y-09519D01*
X31953Y-09478D01*
X32086Y-09462D01*
X32219Y-09472D01*
X32349Y-09508D01*
X32469Y-09569D01*
X32575Y-09652D01*
X32663Y-09753D01*
X32729Y-09870D01*
X32771Y-09998D01*
X32788Y-10131D01*
X32789Y-10150D01*
X30722Y-10150D02*
X33478Y-10150D01*
X32100Y-08772D02*
X32100Y-11528D01*
X32789Y-24250D02*
X32775Y-24383D01*
X32737Y-24512D01*
X32673Y-24631D01*
X32588Y-24735D01*
X32485Y-24821D01*
X32366Y-24885D01*
X32238Y-24924D01*
X32104Y-24938D01*
X31971Y-24926D01*
X31842Y-24888D01*
X31723Y-24826D01*
X31618Y-24742D01*
X31532Y-24639D01*
X31467Y-24521D01*
X31427Y-24393D01*
X31412Y-24259D01*
X31423Y-24126D01*
X31460Y-23997D01*
X31521Y-23877D01*
X31605Y-23772D01*
X31707Y-23685D01*
X31825Y-23619D01*
X31953Y-23578D01*
X32086Y-23562D01*
X32219Y-23572D01*
X32349Y-23608D01*
X32469Y-23669D01*
X32575Y-23752D01*
X32663Y-23853D01*
X32729Y-23970D01*
X32771Y-24098D01*
X32788Y-24231D01*
X32789Y-24250D01*
X30722Y-24250D02*
X33478Y-24250D01*
X32100Y-22872D02*
X32100Y-25628D01*
X54539Y-24250D02*
X54525Y-24383D01*
X54487Y-24512D01*
X54423Y-24631D01*
X54338Y-24735D01*
X54235Y-24821D01*
X54116Y-24885D01*
X53988Y-24924D01*
X53854Y-24938D01*
X53721Y-24926D01*
X53592Y-24888D01*
X53473Y-24826D01*
X53368Y-24742D01*
X53282Y-24639D01*
X53217Y-24521D01*
X53177Y-24393D01*
X53162Y-24259D01*
X53173Y-24126D01*
X53210Y-23997D01*
X53271Y-23877D01*
X53355Y-23772D01*
X53457Y-23685D01*
X53575Y-23619D01*
X53703Y-23578D01*
X53836Y-23562D01*
X53969Y-23572D01*
X54099Y-23608D01*
X54219Y-23669D01*
X54325Y-23752D01*
X54413Y-23853D01*
X54479Y-23970D01*
X54521Y-24098D01*
X54538Y-24231D01*
X54539Y-24250D01*
X52472Y-24250D02*
X55228Y-24250D01*
X53850Y-22872D02*
X53850Y-25628D01*
X54539Y-10150D02*
X54525Y-10283D01*
X54487Y-10412D01*
X54423Y-10531D01*
X54338Y-10635D01*
X54235Y-10721D01*
X54116Y-10785D01*
X53988Y-10824D01*
X53854Y-10838D01*
X53721Y-10826D01*
X53592Y-10788D01*
X53473Y-10726D01*
X53368Y-10642D01*
X53282Y-10539D01*
X53217Y-10421D01*
X53177Y-10293D01*
X53162Y-10159D01*
X53173Y-10026D01*
X53210Y-09897D01*
X53271Y-09777D01*
X53355Y-09672D01*
X53457Y-09585D01*
X53575Y-09519D01*
X53703Y-09478D01*
X53836Y-09462D01*
X53969Y-09472D01*
X54099Y-09508D01*
X54219Y-09569D01*
X54325Y-09652D01*
X54413Y-09753D01*
X54479Y-09870D01*
X54521Y-09998D01*
X54538Y-10131D01*
X54539Y-10150D01*
X52472Y-10150D02*
X55228Y-10150D01*
X53850Y-08772D02*
X53850Y-11528D01*
X52850Y-23250D02*
X33100Y-23250D01*
X33100Y-11150D02*
X52850Y-11150D01*
X33100Y-23250D02*
X33100Y-11150D01*
X52850Y-11150D02*
X52850Y-23250D01*
M02*
