G04 (created by PCBNEW-RS274X (2011-05-25)-stable) date Sun 09 Sep 2012 11:14:04 AM EDT*
G01*
G70*
G90*
%MOIN*%
G04 Gerber Fmt 3.4, Leading zero omitted, Abs format*
%FSLAX34Y34*%
G04 APERTURE LIST*
%ADD10C,0.006000*%
%ADD11R,0.060000X0.060000*%
%ADD12C,0.060000*%
%ADD13C,0.250000*%
%ADD14R,0.055000X0.055000*%
%ADD15C,0.055000*%
%ADD16C,0.008000*%
%ADD17C,0.010000*%
G04 APERTURE END LIST*
G54D10*
G54D11*
X54500Y-32000D03*
G54D12*
X54500Y-31000D03*
X54500Y-30000D03*
G54D11*
X53500Y-32000D03*
G54D12*
X53500Y-31000D03*
X53500Y-30000D03*
G54D11*
X52500Y-20100D03*
G54D12*
X52500Y-21100D03*
X52500Y-22100D03*
G54D11*
X53500Y-20100D03*
G54D12*
X53500Y-21100D03*
X53500Y-22100D03*
G54D11*
X54500Y-20100D03*
G54D12*
X54500Y-21100D03*
X54500Y-22100D03*
G54D13*
X56500Y-31000D03*
X56500Y-20600D03*
X50500Y-31000D03*
X50500Y-20600D03*
G54D14*
X53000Y-27500D03*
G54D15*
X54000Y-27500D03*
X55000Y-27500D03*
X56000Y-27500D03*
X56000Y-24500D03*
X55000Y-24500D03*
X54000Y-24500D03*
X53000Y-24500D03*
X57300Y-25500D03*
X57300Y-26500D03*
X51000Y-24600D03*
X50000Y-24600D03*
X51000Y-29300D03*
X50000Y-29300D03*
X53250Y-28750D03*
X52250Y-28750D03*
X57250Y-28750D03*
X56250Y-28750D03*
X55250Y-28750D03*
X54250Y-28750D03*
X53200Y-23400D03*
X52200Y-23400D03*
X55200Y-23400D03*
X54200Y-23400D03*
X57200Y-23400D03*
X56200Y-23400D03*
G54D14*
X50000Y-23000D03*
G54D15*
X51000Y-23000D03*
G54D11*
X52500Y-32000D03*
G54D12*
X52500Y-31000D03*
X52500Y-30000D03*
G54D16*
X56200Y-23400D02*
X56200Y-23300D01*
X55000Y-22100D02*
X54500Y-22100D01*
X56200Y-23300D02*
X55000Y-22100D01*
X56000Y-24500D02*
X56000Y-23600D01*
X56000Y-23600D02*
X56200Y-23400D01*
X54200Y-23400D02*
X54200Y-22800D01*
X54200Y-22800D02*
X53500Y-22100D01*
X54200Y-23400D02*
X54200Y-23700D01*
X54200Y-23700D02*
X55000Y-24500D01*
X53200Y-23400D02*
X53200Y-23700D01*
X53200Y-23700D02*
X54000Y-24500D01*
X52500Y-22100D02*
X52500Y-22700D01*
X52500Y-22700D02*
X53200Y-23400D01*
X54000Y-27500D02*
X54250Y-27750D01*
X54250Y-27750D02*
X54250Y-28750D01*
X54250Y-29250D02*
X53500Y-30000D01*
X54250Y-27750D02*
X54250Y-29250D01*
X56250Y-28750D02*
X55000Y-30000D01*
X55000Y-30000D02*
X54500Y-30000D01*
X56250Y-28750D02*
X55000Y-27500D01*
X53000Y-27500D02*
X53000Y-26600D01*
X53000Y-26600D02*
X51000Y-24600D01*
X52250Y-28750D02*
X52300Y-28700D01*
X52300Y-28200D02*
X53000Y-27500D01*
X52300Y-28700D02*
X52300Y-28200D01*
G54D10*
G36*
X57750Y-30310D02*
X57703Y-30197D01*
X57694Y-30187D01*
X57694Y-28839D01*
X57694Y-28662D01*
X57627Y-28499D01*
X57590Y-28462D01*
X57590Y-26861D01*
X57300Y-26571D01*
X57229Y-26642D01*
X57229Y-26500D01*
X56939Y-26210D01*
X56848Y-26233D01*
X56781Y-26426D01*
X56792Y-26630D01*
X56848Y-26767D01*
X56939Y-26790D01*
X57229Y-26500D01*
X57229Y-26642D01*
X57010Y-26861D01*
X57033Y-26952D01*
X57226Y-27019D01*
X57430Y-27008D01*
X57567Y-26952D01*
X57590Y-26861D01*
X57590Y-28462D01*
X57502Y-28374D01*
X57339Y-28306D01*
X57162Y-28306D01*
X56999Y-28373D01*
X56874Y-28498D01*
X56806Y-28661D01*
X56806Y-28838D01*
X56873Y-29001D01*
X56998Y-29126D01*
X57161Y-29194D01*
X57338Y-29194D01*
X57501Y-29127D01*
X57626Y-29002D01*
X57694Y-28839D01*
X57694Y-30187D01*
X57305Y-29798D01*
X56783Y-29581D01*
X56694Y-29581D01*
X56694Y-28839D01*
X56694Y-28662D01*
X56644Y-28540D01*
X56644Y-23489D01*
X56644Y-23312D01*
X56577Y-23149D01*
X56452Y-23024D01*
X56289Y-22956D01*
X56152Y-22956D01*
X55148Y-21952D01*
X55081Y-21906D01*
X55067Y-21903D01*
X55050Y-21899D01*
X55050Y-20212D01*
X55050Y-19988D01*
X55049Y-19751D01*
X55011Y-19659D01*
X54941Y-19589D01*
X54850Y-19551D01*
X54751Y-19551D01*
X54612Y-19550D01*
X54550Y-19612D01*
X54550Y-20050D01*
X54988Y-20050D01*
X55050Y-19988D01*
X55050Y-20212D01*
X54988Y-20150D01*
X54600Y-20150D01*
X54550Y-20150D01*
X54450Y-20150D01*
X54450Y-20050D01*
X54450Y-19612D01*
X54388Y-19550D01*
X54249Y-19551D01*
X54150Y-19551D01*
X54059Y-19589D01*
X54000Y-19648D01*
X53941Y-19589D01*
X53850Y-19551D01*
X53751Y-19551D01*
X53612Y-19550D01*
X53550Y-19612D01*
X53550Y-20050D01*
X53988Y-20050D01*
X54000Y-20038D01*
X54012Y-20050D01*
X54450Y-20050D01*
X54450Y-20150D01*
X54400Y-20150D01*
X54012Y-20150D01*
X54000Y-20162D01*
X53988Y-20150D01*
X53600Y-20150D01*
X53550Y-20150D01*
X53450Y-20150D01*
X53450Y-20050D01*
X53450Y-19612D01*
X53388Y-19550D01*
X53249Y-19551D01*
X53150Y-19551D01*
X53059Y-19589D01*
X53000Y-19648D01*
X52941Y-19589D01*
X52850Y-19551D01*
X52751Y-19551D01*
X52612Y-19550D01*
X52550Y-19612D01*
X52550Y-20050D01*
X52988Y-20050D01*
X53000Y-20038D01*
X53012Y-20050D01*
X53450Y-20050D01*
X53450Y-20150D01*
X53400Y-20150D01*
X53012Y-20150D01*
X53000Y-20162D01*
X52988Y-20150D01*
X52600Y-20150D01*
X52550Y-20150D01*
X52450Y-20150D01*
X52450Y-20050D01*
X52450Y-19612D01*
X52388Y-19550D01*
X52249Y-19551D01*
X52150Y-19551D01*
X52059Y-19589D01*
X51989Y-19659D01*
X51951Y-19751D01*
X51950Y-19988D01*
X52012Y-20050D01*
X52450Y-20050D01*
X52450Y-20150D01*
X52400Y-20150D01*
X52012Y-20150D01*
X51950Y-20212D01*
X51951Y-20449D01*
X51989Y-20541D01*
X52059Y-20611D01*
X52150Y-20649D01*
X52249Y-20649D01*
X52358Y-20649D01*
X52234Y-20701D01*
X52102Y-20833D01*
X52030Y-21006D01*
X52030Y-21193D01*
X52101Y-21366D01*
X52233Y-21498D01*
X52406Y-21570D01*
X52593Y-21570D01*
X52766Y-21499D01*
X52898Y-21367D01*
X52970Y-21194D01*
X52970Y-21007D01*
X52899Y-20834D01*
X52767Y-20702D01*
X52641Y-20649D01*
X52751Y-20649D01*
X52850Y-20649D01*
X52941Y-20611D01*
X53000Y-20552D01*
X53059Y-20611D01*
X53150Y-20649D01*
X53249Y-20649D01*
X53358Y-20649D01*
X53234Y-20701D01*
X53102Y-20833D01*
X53030Y-21006D01*
X53030Y-21193D01*
X53101Y-21366D01*
X53233Y-21498D01*
X53406Y-21570D01*
X53593Y-21570D01*
X53766Y-21499D01*
X53898Y-21367D01*
X53970Y-21194D01*
X53970Y-21007D01*
X53899Y-20834D01*
X53767Y-20702D01*
X53641Y-20649D01*
X53751Y-20649D01*
X53850Y-20649D01*
X53941Y-20611D01*
X54000Y-20552D01*
X54059Y-20611D01*
X54150Y-20649D01*
X54249Y-20649D01*
X54358Y-20649D01*
X54234Y-20701D01*
X54102Y-20833D01*
X54030Y-21006D01*
X54030Y-21193D01*
X54101Y-21366D01*
X54233Y-21498D01*
X54406Y-21570D01*
X54593Y-21570D01*
X54766Y-21499D01*
X54898Y-21367D01*
X54970Y-21194D01*
X54970Y-21007D01*
X54899Y-20834D01*
X54767Y-20702D01*
X54641Y-20649D01*
X54751Y-20649D01*
X54850Y-20649D01*
X54941Y-20611D01*
X55011Y-20541D01*
X55049Y-20449D01*
X55050Y-20212D01*
X55050Y-21899D01*
X55000Y-21890D01*
X54921Y-21890D01*
X54899Y-21834D01*
X54767Y-21702D01*
X54594Y-21630D01*
X54407Y-21630D01*
X54234Y-21701D01*
X54102Y-21833D01*
X54030Y-22006D01*
X54030Y-22193D01*
X54101Y-22366D01*
X54233Y-22498D01*
X54406Y-22570D01*
X54593Y-22570D01*
X54766Y-22499D01*
X54898Y-22367D01*
X54919Y-22315D01*
X55802Y-23199D01*
X55756Y-23311D01*
X55756Y-23488D01*
X55793Y-23580D01*
X55790Y-23600D01*
X55790Y-24106D01*
X55749Y-24123D01*
X55644Y-24228D01*
X55644Y-23489D01*
X55644Y-23312D01*
X55577Y-23149D01*
X55452Y-23024D01*
X55289Y-22956D01*
X55112Y-22956D01*
X54949Y-23023D01*
X54824Y-23148D01*
X54756Y-23311D01*
X54756Y-23488D01*
X54823Y-23651D01*
X54948Y-23776D01*
X55111Y-23844D01*
X55288Y-23844D01*
X55451Y-23777D01*
X55576Y-23652D01*
X55644Y-23489D01*
X55644Y-24228D01*
X55624Y-24248D01*
X55556Y-24411D01*
X55556Y-24588D01*
X55623Y-24751D01*
X55748Y-24876D01*
X55911Y-24944D01*
X56088Y-24944D01*
X56251Y-24877D01*
X56376Y-24752D01*
X56444Y-24589D01*
X56444Y-24412D01*
X56377Y-24249D01*
X56252Y-24124D01*
X56210Y-24106D01*
X56210Y-23844D01*
X56288Y-23844D01*
X56451Y-23777D01*
X56576Y-23652D01*
X56644Y-23489D01*
X56644Y-28540D01*
X56627Y-28499D01*
X56519Y-28391D01*
X56519Y-27574D01*
X56508Y-27370D01*
X56452Y-27233D01*
X56361Y-27210D01*
X56290Y-27281D01*
X56290Y-27139D01*
X56267Y-27048D01*
X56074Y-26981D01*
X55870Y-26992D01*
X55733Y-27048D01*
X55710Y-27139D01*
X56000Y-27429D01*
X56290Y-27139D01*
X56290Y-27281D01*
X56071Y-27500D01*
X56361Y-27790D01*
X56452Y-27767D01*
X56519Y-27574D01*
X56519Y-28391D01*
X56502Y-28374D01*
X56339Y-28306D01*
X56162Y-28306D01*
X56120Y-28323D01*
X55756Y-27960D01*
X55926Y-28019D01*
X56130Y-28008D01*
X56267Y-27952D01*
X56290Y-27861D01*
X56035Y-27606D01*
X56000Y-27571D01*
X55929Y-27500D01*
X55894Y-27465D01*
X55639Y-27210D01*
X55548Y-27233D01*
X55481Y-27426D01*
X55492Y-27630D01*
X55537Y-27741D01*
X55426Y-27630D01*
X55444Y-27589D01*
X55444Y-27412D01*
X55444Y-24589D01*
X55444Y-24412D01*
X55377Y-24249D01*
X55252Y-24124D01*
X55089Y-24056D01*
X54912Y-24056D01*
X54869Y-24073D01*
X54512Y-23715D01*
X54576Y-23652D01*
X54644Y-23489D01*
X54644Y-23312D01*
X54577Y-23149D01*
X54452Y-23024D01*
X54410Y-23006D01*
X54410Y-22800D01*
X54409Y-22799D01*
X54394Y-22720D01*
X54393Y-22719D01*
X54378Y-22697D01*
X54348Y-22652D01*
X54348Y-22651D01*
X53946Y-22250D01*
X53970Y-22194D01*
X53970Y-22007D01*
X53899Y-21834D01*
X53767Y-21702D01*
X53594Y-21630D01*
X53407Y-21630D01*
X53234Y-21701D01*
X53102Y-21833D01*
X53030Y-22006D01*
X53030Y-22193D01*
X53101Y-22366D01*
X53233Y-22498D01*
X53406Y-22570D01*
X53593Y-22570D01*
X53650Y-22546D01*
X53990Y-22886D01*
X53990Y-23006D01*
X53949Y-23023D01*
X53824Y-23148D01*
X53756Y-23311D01*
X53756Y-23488D01*
X53823Y-23651D01*
X53948Y-23776D01*
X54024Y-23807D01*
X54025Y-23808D01*
X54052Y-23848D01*
X54573Y-24369D01*
X54556Y-24411D01*
X54556Y-24588D01*
X54623Y-24751D01*
X54748Y-24876D01*
X54911Y-24944D01*
X55088Y-24944D01*
X55251Y-24877D01*
X55376Y-24752D01*
X55444Y-24589D01*
X55444Y-27412D01*
X55377Y-27249D01*
X55252Y-27124D01*
X55089Y-27056D01*
X54912Y-27056D01*
X54749Y-27123D01*
X54624Y-27248D01*
X54556Y-27411D01*
X54556Y-27588D01*
X54623Y-27751D01*
X54748Y-27876D01*
X54911Y-27944D01*
X55088Y-27944D01*
X55130Y-27926D01*
X55823Y-28619D01*
X55806Y-28661D01*
X55806Y-28838D01*
X55823Y-28879D01*
X55694Y-29008D01*
X55694Y-28839D01*
X55694Y-28662D01*
X55627Y-28499D01*
X55502Y-28374D01*
X55339Y-28306D01*
X55162Y-28306D01*
X54999Y-28373D01*
X54874Y-28498D01*
X54806Y-28661D01*
X54806Y-28838D01*
X54873Y-29001D01*
X54998Y-29126D01*
X55161Y-29194D01*
X55338Y-29194D01*
X55501Y-29127D01*
X55626Y-29002D01*
X55694Y-28839D01*
X55694Y-29008D01*
X54919Y-29784D01*
X54899Y-29734D01*
X54767Y-29602D01*
X54694Y-29571D01*
X54694Y-28839D01*
X54694Y-28662D01*
X54627Y-28499D01*
X54502Y-28374D01*
X54460Y-28356D01*
X54460Y-27750D01*
X54444Y-27670D01*
X54443Y-27669D01*
X54428Y-27647D01*
X54423Y-27639D01*
X54423Y-27638D01*
X54444Y-27589D01*
X54444Y-27412D01*
X54444Y-24589D01*
X54444Y-24412D01*
X54377Y-24249D01*
X54252Y-24124D01*
X54089Y-24056D01*
X53912Y-24056D01*
X53869Y-24073D01*
X53512Y-23715D01*
X53576Y-23652D01*
X53644Y-23489D01*
X53644Y-23312D01*
X53577Y-23149D01*
X53452Y-23024D01*
X53289Y-22956D01*
X53112Y-22956D01*
X53069Y-22973D01*
X52710Y-22613D01*
X52710Y-22521D01*
X52766Y-22499D01*
X52898Y-22367D01*
X52970Y-22194D01*
X52970Y-22007D01*
X52899Y-21834D01*
X52767Y-21702D01*
X52594Y-21630D01*
X52407Y-21630D01*
X52234Y-21701D01*
X52102Y-21833D01*
X52030Y-22006D01*
X52030Y-22193D01*
X52101Y-22366D01*
X52233Y-22498D01*
X52290Y-22521D01*
X52290Y-22700D01*
X52303Y-22767D01*
X52306Y-22781D01*
X52352Y-22848D01*
X52773Y-23269D01*
X52756Y-23311D01*
X52756Y-23488D01*
X52823Y-23651D01*
X52948Y-23776D01*
X53024Y-23807D01*
X53025Y-23808D01*
X53052Y-23848D01*
X53573Y-24369D01*
X53556Y-24411D01*
X53556Y-24588D01*
X53623Y-24751D01*
X53748Y-24876D01*
X53911Y-24944D01*
X54088Y-24944D01*
X54251Y-24877D01*
X54376Y-24752D01*
X54444Y-24589D01*
X54444Y-27412D01*
X54377Y-27249D01*
X54252Y-27124D01*
X54089Y-27056D01*
X53912Y-27056D01*
X53749Y-27123D01*
X53624Y-27248D01*
X53556Y-27411D01*
X53556Y-27588D01*
X53623Y-27751D01*
X53748Y-27876D01*
X53911Y-27944D01*
X54040Y-27944D01*
X54040Y-28356D01*
X53999Y-28373D01*
X53874Y-28498D01*
X53806Y-28661D01*
X53806Y-28838D01*
X53873Y-29001D01*
X53998Y-29126D01*
X54040Y-29143D01*
X54040Y-29163D01*
X53694Y-29509D01*
X53694Y-28839D01*
X53694Y-28662D01*
X53627Y-28499D01*
X53502Y-28374D01*
X53445Y-28350D01*
X53445Y-27809D01*
X53445Y-27741D01*
X53445Y-27191D01*
X53444Y-27188D01*
X53444Y-24589D01*
X53444Y-24412D01*
X53377Y-24249D01*
X53252Y-24124D01*
X53089Y-24056D01*
X52912Y-24056D01*
X52749Y-24123D01*
X52644Y-24228D01*
X52644Y-23489D01*
X52644Y-23312D01*
X52577Y-23149D01*
X52452Y-23024D01*
X52289Y-22956D01*
X52112Y-22956D01*
X51949Y-23023D01*
X51824Y-23148D01*
X51756Y-23311D01*
X51756Y-23488D01*
X51823Y-23651D01*
X51948Y-23776D01*
X52111Y-23844D01*
X52288Y-23844D01*
X52451Y-23777D01*
X52576Y-23652D01*
X52644Y-23489D01*
X52644Y-24228D01*
X52624Y-24248D01*
X52556Y-24411D01*
X52556Y-24588D01*
X52623Y-24751D01*
X52748Y-24876D01*
X52911Y-24944D01*
X53088Y-24944D01*
X53251Y-24877D01*
X53376Y-24752D01*
X53444Y-24589D01*
X53444Y-27188D01*
X53419Y-27129D01*
X53371Y-27081D01*
X53309Y-27055D01*
X53241Y-27055D01*
X53210Y-27055D01*
X53210Y-26600D01*
X53194Y-26520D01*
X53193Y-26519D01*
X53178Y-26497D01*
X53148Y-26452D01*
X53148Y-26451D01*
X51519Y-24822D01*
X51519Y-23074D01*
X51508Y-22870D01*
X51452Y-22733D01*
X51361Y-22710D01*
X51290Y-22781D01*
X51290Y-22639D01*
X51267Y-22548D01*
X51074Y-22481D01*
X50870Y-22492D01*
X50733Y-22548D01*
X50710Y-22639D01*
X51000Y-22929D01*
X51290Y-22639D01*
X51290Y-22781D01*
X51071Y-23000D01*
X51361Y-23290D01*
X51452Y-23267D01*
X51519Y-23074D01*
X51519Y-24822D01*
X51426Y-24730D01*
X51444Y-24689D01*
X51444Y-24512D01*
X51377Y-24349D01*
X51290Y-24262D01*
X51290Y-23361D01*
X51000Y-23071D01*
X50929Y-23142D01*
X50929Y-23000D01*
X50639Y-22710D01*
X50548Y-22733D01*
X50481Y-22926D01*
X50492Y-23130D01*
X50548Y-23267D01*
X50639Y-23290D01*
X50929Y-23000D01*
X50929Y-23142D01*
X50710Y-23361D01*
X50733Y-23452D01*
X50926Y-23519D01*
X51130Y-23508D01*
X51267Y-23452D01*
X51290Y-23361D01*
X51290Y-24262D01*
X51252Y-24224D01*
X51089Y-24156D01*
X50912Y-24156D01*
X50749Y-24223D01*
X50624Y-24348D01*
X50556Y-24511D01*
X50556Y-24688D01*
X50623Y-24851D01*
X50748Y-24976D01*
X50911Y-25044D01*
X51088Y-25044D01*
X51130Y-25026D01*
X52790Y-26686D01*
X52790Y-27055D01*
X52691Y-27055D01*
X52629Y-27081D01*
X52581Y-27129D01*
X52555Y-27191D01*
X52555Y-27259D01*
X52555Y-27648D01*
X52152Y-28052D01*
X52106Y-28119D01*
X52103Y-28132D01*
X52090Y-28200D01*
X52090Y-28335D01*
X51999Y-28373D01*
X51874Y-28498D01*
X51806Y-28661D01*
X51806Y-28838D01*
X51873Y-29001D01*
X51998Y-29126D01*
X52161Y-29194D01*
X52338Y-29194D01*
X52501Y-29127D01*
X52626Y-29002D01*
X52694Y-28839D01*
X52694Y-28662D01*
X52627Y-28499D01*
X52510Y-28382D01*
X52510Y-28286D01*
X52851Y-27945D01*
X53309Y-27945D01*
X53371Y-27919D01*
X53419Y-27871D01*
X53445Y-27809D01*
X53445Y-28350D01*
X53339Y-28306D01*
X53162Y-28306D01*
X52999Y-28373D01*
X52874Y-28498D01*
X52806Y-28661D01*
X52806Y-28838D01*
X52873Y-29001D01*
X52998Y-29126D01*
X53161Y-29194D01*
X53338Y-29194D01*
X53501Y-29127D01*
X53626Y-29002D01*
X53694Y-28839D01*
X53694Y-29509D01*
X53650Y-29553D01*
X53594Y-29530D01*
X53407Y-29530D01*
X53234Y-29601D01*
X53102Y-29733D01*
X53030Y-29906D01*
X53030Y-30093D01*
X53101Y-30266D01*
X53233Y-30398D01*
X53406Y-30470D01*
X53593Y-30470D01*
X53766Y-30399D01*
X53898Y-30267D01*
X53970Y-30094D01*
X53970Y-29907D01*
X53946Y-29849D01*
X54398Y-29399D01*
X54398Y-29398D01*
X54428Y-29353D01*
X54443Y-29331D01*
X54444Y-29330D01*
X54459Y-29250D01*
X54460Y-29250D01*
X54460Y-29143D01*
X54501Y-29127D01*
X54626Y-29002D01*
X54694Y-28839D01*
X54694Y-29571D01*
X54594Y-29530D01*
X54407Y-29530D01*
X54234Y-29601D01*
X54102Y-29733D01*
X54030Y-29906D01*
X54030Y-30093D01*
X54101Y-30266D01*
X54233Y-30398D01*
X54406Y-30470D01*
X54593Y-30470D01*
X54766Y-30399D01*
X54898Y-30267D01*
X54921Y-30210D01*
X55000Y-30210D01*
X55000Y-30209D01*
X55067Y-30196D01*
X55080Y-30194D01*
X55081Y-30194D01*
X55148Y-30148D01*
X56119Y-29176D01*
X56161Y-29194D01*
X56338Y-29194D01*
X56501Y-29127D01*
X56626Y-29002D01*
X56694Y-28839D01*
X56694Y-29581D01*
X56219Y-29581D01*
X55697Y-29797D01*
X55298Y-30195D01*
X55081Y-30717D01*
X55081Y-31281D01*
X55297Y-31803D01*
X55695Y-32202D01*
X55822Y-32255D01*
X55049Y-32255D01*
X55050Y-32112D01*
X55050Y-31888D01*
X55049Y-31651D01*
X55011Y-31559D01*
X54941Y-31489D01*
X54850Y-31451D01*
X54751Y-31451D01*
X54641Y-31450D01*
X54766Y-31399D01*
X54898Y-31267D01*
X54970Y-31094D01*
X54970Y-30907D01*
X54899Y-30734D01*
X54767Y-30602D01*
X54594Y-30530D01*
X54407Y-30530D01*
X54234Y-30601D01*
X54102Y-30733D01*
X54030Y-30906D01*
X54030Y-31093D01*
X54101Y-31266D01*
X54233Y-31398D01*
X54358Y-31450D01*
X54249Y-31451D01*
X54150Y-31451D01*
X54059Y-31489D01*
X54000Y-31548D01*
X53941Y-31489D01*
X53850Y-31451D01*
X53751Y-31451D01*
X53641Y-31450D01*
X53766Y-31399D01*
X53898Y-31267D01*
X53970Y-31094D01*
X53970Y-30907D01*
X53899Y-30734D01*
X53767Y-30602D01*
X53594Y-30530D01*
X53407Y-30530D01*
X53234Y-30601D01*
X53102Y-30733D01*
X53030Y-30906D01*
X53030Y-31093D01*
X53101Y-31266D01*
X53233Y-31398D01*
X53358Y-31450D01*
X53249Y-31451D01*
X53150Y-31451D01*
X53059Y-31489D01*
X53000Y-31548D01*
X52941Y-31489D01*
X52850Y-31451D01*
X52751Y-31451D01*
X52641Y-31450D01*
X52766Y-31399D01*
X52898Y-31267D01*
X52970Y-31094D01*
X52970Y-30907D01*
X52970Y-30094D01*
X52970Y-29907D01*
X52899Y-29734D01*
X52767Y-29602D01*
X52594Y-29530D01*
X52407Y-29530D01*
X52234Y-29601D01*
X52102Y-29733D01*
X52030Y-29906D01*
X52030Y-30093D01*
X52101Y-30266D01*
X52233Y-30398D01*
X52406Y-30470D01*
X52593Y-30470D01*
X52766Y-30399D01*
X52898Y-30267D01*
X52970Y-30094D01*
X52970Y-30907D01*
X52899Y-30734D01*
X52767Y-30602D01*
X52594Y-30530D01*
X52407Y-30530D01*
X52234Y-30601D01*
X52102Y-30733D01*
X52030Y-30906D01*
X52030Y-31093D01*
X52101Y-31266D01*
X52233Y-31398D01*
X52358Y-31450D01*
X52249Y-31451D01*
X52150Y-31451D01*
X52059Y-31489D01*
X51989Y-31559D01*
X51951Y-31651D01*
X51950Y-31888D01*
X52012Y-31950D01*
X52400Y-31950D01*
X52450Y-31950D01*
X52550Y-31950D01*
X52600Y-31950D01*
X52988Y-31950D01*
X53000Y-31938D01*
X53012Y-31950D01*
X53400Y-31950D01*
X53450Y-31950D01*
X53550Y-31950D01*
X53600Y-31950D01*
X53988Y-31950D01*
X54000Y-31938D01*
X54012Y-31950D01*
X54400Y-31950D01*
X54450Y-31950D01*
X54550Y-31950D01*
X54600Y-31950D01*
X54988Y-31950D01*
X55050Y-31888D01*
X55050Y-32112D01*
X54988Y-32050D01*
X54600Y-32050D01*
X54550Y-32050D01*
X54450Y-32050D01*
X54400Y-32050D01*
X54012Y-32050D01*
X54000Y-32062D01*
X53988Y-32050D01*
X53600Y-32050D01*
X53550Y-32050D01*
X53450Y-32050D01*
X53400Y-32050D01*
X53012Y-32050D01*
X53000Y-32062D01*
X52988Y-32050D01*
X52600Y-32050D01*
X52550Y-32050D01*
X52450Y-32050D01*
X52400Y-32050D01*
X52012Y-32050D01*
X51950Y-32112D01*
X51950Y-32255D01*
X51177Y-32255D01*
X51303Y-32203D01*
X51702Y-31805D01*
X51919Y-31283D01*
X51919Y-30719D01*
X51703Y-30197D01*
X51305Y-29798D01*
X51131Y-29725D01*
X51251Y-29677D01*
X51376Y-29552D01*
X51444Y-29389D01*
X51444Y-29212D01*
X51377Y-29049D01*
X51252Y-28924D01*
X51089Y-28856D01*
X50912Y-28856D01*
X50749Y-28923D01*
X50624Y-29048D01*
X50556Y-29211D01*
X50556Y-29388D01*
X50623Y-29551D01*
X50653Y-29581D01*
X50422Y-29581D01*
X50416Y-29575D01*
X50452Y-29567D01*
X50519Y-29374D01*
X50519Y-24674D01*
X50508Y-24470D01*
X50452Y-24333D01*
X50445Y-24331D01*
X50445Y-23309D01*
X50445Y-23241D01*
X50445Y-22691D01*
X50419Y-22629D01*
X50371Y-22581D01*
X50309Y-22555D01*
X50241Y-22555D01*
X49691Y-22555D01*
X49629Y-22581D01*
X49581Y-22629D01*
X49555Y-22691D01*
X49555Y-22759D01*
X49555Y-23309D01*
X49581Y-23371D01*
X49629Y-23419D01*
X49691Y-23445D01*
X49759Y-23445D01*
X50309Y-23445D01*
X50371Y-23419D01*
X50419Y-23371D01*
X50445Y-23309D01*
X50445Y-24331D01*
X50361Y-24310D01*
X50290Y-24381D01*
X50290Y-24239D01*
X50267Y-24148D01*
X50074Y-24081D01*
X49870Y-24092D01*
X49733Y-24148D01*
X49710Y-24239D01*
X50000Y-24529D01*
X50290Y-24239D01*
X50290Y-24381D01*
X50071Y-24600D01*
X50361Y-24890D01*
X50452Y-24867D01*
X50519Y-24674D01*
X50519Y-29374D01*
X50508Y-29170D01*
X50452Y-29033D01*
X50361Y-29010D01*
X50290Y-29081D01*
X50290Y-28939D01*
X50290Y-24961D01*
X50000Y-24671D01*
X49929Y-24742D01*
X49929Y-24600D01*
X49639Y-24310D01*
X49548Y-24333D01*
X49481Y-24526D01*
X49492Y-24730D01*
X49548Y-24867D01*
X49639Y-24890D01*
X49929Y-24600D01*
X49929Y-24742D01*
X49710Y-24961D01*
X49733Y-25052D01*
X49926Y-25119D01*
X50130Y-25108D01*
X50267Y-25052D01*
X50290Y-24961D01*
X50290Y-28939D01*
X50267Y-28848D01*
X50074Y-28781D01*
X49870Y-28792D01*
X49733Y-28848D01*
X49710Y-28939D01*
X50000Y-29229D01*
X50290Y-28939D01*
X50290Y-29081D01*
X50106Y-29265D01*
X50071Y-29300D01*
X50000Y-29371D01*
X49965Y-29406D01*
X49929Y-29442D01*
X49929Y-29300D01*
X49639Y-29010D01*
X49548Y-29033D01*
X49481Y-29226D01*
X49492Y-29430D01*
X49548Y-29567D01*
X49639Y-29590D01*
X49929Y-29300D01*
X49929Y-29442D01*
X49710Y-29661D01*
X49733Y-29752D01*
X49772Y-29765D01*
X49697Y-29797D01*
X49298Y-30195D01*
X49250Y-30310D01*
X49250Y-21289D01*
X49297Y-21403D01*
X49695Y-21802D01*
X50217Y-22019D01*
X50781Y-22019D01*
X51303Y-21803D01*
X51702Y-21405D01*
X51919Y-20883D01*
X51919Y-20319D01*
X51703Y-19797D01*
X51305Y-19398D01*
X51189Y-19350D01*
X55810Y-19350D01*
X55697Y-19397D01*
X55298Y-19795D01*
X55081Y-20317D01*
X55081Y-20881D01*
X55297Y-21403D01*
X55695Y-21802D01*
X56217Y-22019D01*
X56781Y-22019D01*
X57303Y-21803D01*
X57702Y-21405D01*
X57750Y-21289D01*
X57750Y-26232D01*
X57744Y-26230D01*
X57744Y-25589D01*
X57744Y-25412D01*
X57677Y-25249D01*
X57644Y-25216D01*
X57644Y-23489D01*
X57644Y-23312D01*
X57577Y-23149D01*
X57452Y-23024D01*
X57289Y-22956D01*
X57112Y-22956D01*
X56949Y-23023D01*
X56824Y-23148D01*
X56756Y-23311D01*
X56756Y-23488D01*
X56823Y-23651D01*
X56948Y-23776D01*
X57111Y-23844D01*
X57288Y-23844D01*
X57451Y-23777D01*
X57576Y-23652D01*
X57644Y-23489D01*
X57644Y-25216D01*
X57552Y-25124D01*
X57389Y-25056D01*
X57212Y-25056D01*
X57049Y-25123D01*
X56924Y-25248D01*
X56856Y-25411D01*
X56856Y-25588D01*
X56923Y-25751D01*
X57048Y-25876D01*
X57211Y-25944D01*
X57388Y-25944D01*
X57551Y-25877D01*
X57676Y-25752D01*
X57744Y-25589D01*
X57744Y-26230D01*
X57661Y-26210D01*
X57590Y-26281D01*
X57590Y-26139D01*
X57567Y-26048D01*
X57374Y-25981D01*
X57170Y-25992D01*
X57033Y-26048D01*
X57010Y-26139D01*
X57300Y-26429D01*
X57590Y-26139D01*
X57590Y-26281D01*
X57371Y-26500D01*
X57661Y-26790D01*
X57750Y-26767D01*
X57750Y-30310D01*
X57750Y-30310D01*
G37*
G54D17*
X57750Y-30310D02*
X57703Y-30197D01*
X57694Y-30187D01*
X57694Y-28839D01*
X57694Y-28662D01*
X57627Y-28499D01*
X57590Y-28462D01*
X57590Y-26861D01*
X57300Y-26571D01*
X57229Y-26642D01*
X57229Y-26500D01*
X56939Y-26210D01*
X56848Y-26233D01*
X56781Y-26426D01*
X56792Y-26630D01*
X56848Y-26767D01*
X56939Y-26790D01*
X57229Y-26500D01*
X57229Y-26642D01*
X57010Y-26861D01*
X57033Y-26952D01*
X57226Y-27019D01*
X57430Y-27008D01*
X57567Y-26952D01*
X57590Y-26861D01*
X57590Y-28462D01*
X57502Y-28374D01*
X57339Y-28306D01*
X57162Y-28306D01*
X56999Y-28373D01*
X56874Y-28498D01*
X56806Y-28661D01*
X56806Y-28838D01*
X56873Y-29001D01*
X56998Y-29126D01*
X57161Y-29194D01*
X57338Y-29194D01*
X57501Y-29127D01*
X57626Y-29002D01*
X57694Y-28839D01*
X57694Y-30187D01*
X57305Y-29798D01*
X56783Y-29581D01*
X56694Y-29581D01*
X56694Y-28839D01*
X56694Y-28662D01*
X56644Y-28540D01*
X56644Y-23489D01*
X56644Y-23312D01*
X56577Y-23149D01*
X56452Y-23024D01*
X56289Y-22956D01*
X56152Y-22956D01*
X55148Y-21952D01*
X55081Y-21906D01*
X55067Y-21903D01*
X55050Y-21899D01*
X55050Y-20212D01*
X55050Y-19988D01*
X55049Y-19751D01*
X55011Y-19659D01*
X54941Y-19589D01*
X54850Y-19551D01*
X54751Y-19551D01*
X54612Y-19550D01*
X54550Y-19612D01*
X54550Y-20050D01*
X54988Y-20050D01*
X55050Y-19988D01*
X55050Y-20212D01*
X54988Y-20150D01*
X54600Y-20150D01*
X54550Y-20150D01*
X54450Y-20150D01*
X54450Y-20050D01*
X54450Y-19612D01*
X54388Y-19550D01*
X54249Y-19551D01*
X54150Y-19551D01*
X54059Y-19589D01*
X54000Y-19648D01*
X53941Y-19589D01*
X53850Y-19551D01*
X53751Y-19551D01*
X53612Y-19550D01*
X53550Y-19612D01*
X53550Y-20050D01*
X53988Y-20050D01*
X54000Y-20038D01*
X54012Y-20050D01*
X54450Y-20050D01*
X54450Y-20150D01*
X54400Y-20150D01*
X54012Y-20150D01*
X54000Y-20162D01*
X53988Y-20150D01*
X53600Y-20150D01*
X53550Y-20150D01*
X53450Y-20150D01*
X53450Y-20050D01*
X53450Y-19612D01*
X53388Y-19550D01*
X53249Y-19551D01*
X53150Y-19551D01*
X53059Y-19589D01*
X53000Y-19648D01*
X52941Y-19589D01*
X52850Y-19551D01*
X52751Y-19551D01*
X52612Y-19550D01*
X52550Y-19612D01*
X52550Y-20050D01*
X52988Y-20050D01*
X53000Y-20038D01*
X53012Y-20050D01*
X53450Y-20050D01*
X53450Y-20150D01*
X53400Y-20150D01*
X53012Y-20150D01*
X53000Y-20162D01*
X52988Y-20150D01*
X52600Y-20150D01*
X52550Y-20150D01*
X52450Y-20150D01*
X52450Y-20050D01*
X52450Y-19612D01*
X52388Y-19550D01*
X52249Y-19551D01*
X52150Y-19551D01*
X52059Y-19589D01*
X51989Y-19659D01*
X51951Y-19751D01*
X51950Y-19988D01*
X52012Y-20050D01*
X52450Y-20050D01*
X52450Y-20150D01*
X52400Y-20150D01*
X52012Y-20150D01*
X51950Y-20212D01*
X51951Y-20449D01*
X51989Y-20541D01*
X52059Y-20611D01*
X52150Y-20649D01*
X52249Y-20649D01*
X52358Y-20649D01*
X52234Y-20701D01*
X52102Y-20833D01*
X52030Y-21006D01*
X52030Y-21193D01*
X52101Y-21366D01*
X52233Y-21498D01*
X52406Y-21570D01*
X52593Y-21570D01*
X52766Y-21499D01*
X52898Y-21367D01*
X52970Y-21194D01*
X52970Y-21007D01*
X52899Y-20834D01*
X52767Y-20702D01*
X52641Y-20649D01*
X52751Y-20649D01*
X52850Y-20649D01*
X52941Y-20611D01*
X53000Y-20552D01*
X53059Y-20611D01*
X53150Y-20649D01*
X53249Y-20649D01*
X53358Y-20649D01*
X53234Y-20701D01*
X53102Y-20833D01*
X53030Y-21006D01*
X53030Y-21193D01*
X53101Y-21366D01*
X53233Y-21498D01*
X53406Y-21570D01*
X53593Y-21570D01*
X53766Y-21499D01*
X53898Y-21367D01*
X53970Y-21194D01*
X53970Y-21007D01*
X53899Y-20834D01*
X53767Y-20702D01*
X53641Y-20649D01*
X53751Y-20649D01*
X53850Y-20649D01*
X53941Y-20611D01*
X54000Y-20552D01*
X54059Y-20611D01*
X54150Y-20649D01*
X54249Y-20649D01*
X54358Y-20649D01*
X54234Y-20701D01*
X54102Y-20833D01*
X54030Y-21006D01*
X54030Y-21193D01*
X54101Y-21366D01*
X54233Y-21498D01*
X54406Y-21570D01*
X54593Y-21570D01*
X54766Y-21499D01*
X54898Y-21367D01*
X54970Y-21194D01*
X54970Y-21007D01*
X54899Y-20834D01*
X54767Y-20702D01*
X54641Y-20649D01*
X54751Y-20649D01*
X54850Y-20649D01*
X54941Y-20611D01*
X55011Y-20541D01*
X55049Y-20449D01*
X55050Y-20212D01*
X55050Y-21899D01*
X55000Y-21890D01*
X54921Y-21890D01*
X54899Y-21834D01*
X54767Y-21702D01*
X54594Y-21630D01*
X54407Y-21630D01*
X54234Y-21701D01*
X54102Y-21833D01*
X54030Y-22006D01*
X54030Y-22193D01*
X54101Y-22366D01*
X54233Y-22498D01*
X54406Y-22570D01*
X54593Y-22570D01*
X54766Y-22499D01*
X54898Y-22367D01*
X54919Y-22315D01*
X55802Y-23199D01*
X55756Y-23311D01*
X55756Y-23488D01*
X55793Y-23580D01*
X55790Y-23600D01*
X55790Y-24106D01*
X55749Y-24123D01*
X55644Y-24228D01*
X55644Y-23489D01*
X55644Y-23312D01*
X55577Y-23149D01*
X55452Y-23024D01*
X55289Y-22956D01*
X55112Y-22956D01*
X54949Y-23023D01*
X54824Y-23148D01*
X54756Y-23311D01*
X54756Y-23488D01*
X54823Y-23651D01*
X54948Y-23776D01*
X55111Y-23844D01*
X55288Y-23844D01*
X55451Y-23777D01*
X55576Y-23652D01*
X55644Y-23489D01*
X55644Y-24228D01*
X55624Y-24248D01*
X55556Y-24411D01*
X55556Y-24588D01*
X55623Y-24751D01*
X55748Y-24876D01*
X55911Y-24944D01*
X56088Y-24944D01*
X56251Y-24877D01*
X56376Y-24752D01*
X56444Y-24589D01*
X56444Y-24412D01*
X56377Y-24249D01*
X56252Y-24124D01*
X56210Y-24106D01*
X56210Y-23844D01*
X56288Y-23844D01*
X56451Y-23777D01*
X56576Y-23652D01*
X56644Y-23489D01*
X56644Y-28540D01*
X56627Y-28499D01*
X56519Y-28391D01*
X56519Y-27574D01*
X56508Y-27370D01*
X56452Y-27233D01*
X56361Y-27210D01*
X56290Y-27281D01*
X56290Y-27139D01*
X56267Y-27048D01*
X56074Y-26981D01*
X55870Y-26992D01*
X55733Y-27048D01*
X55710Y-27139D01*
X56000Y-27429D01*
X56290Y-27139D01*
X56290Y-27281D01*
X56071Y-27500D01*
X56361Y-27790D01*
X56452Y-27767D01*
X56519Y-27574D01*
X56519Y-28391D01*
X56502Y-28374D01*
X56339Y-28306D01*
X56162Y-28306D01*
X56120Y-28323D01*
X55756Y-27960D01*
X55926Y-28019D01*
X56130Y-28008D01*
X56267Y-27952D01*
X56290Y-27861D01*
X56035Y-27606D01*
X56000Y-27571D01*
X55929Y-27500D01*
X55894Y-27465D01*
X55639Y-27210D01*
X55548Y-27233D01*
X55481Y-27426D01*
X55492Y-27630D01*
X55537Y-27741D01*
X55426Y-27630D01*
X55444Y-27589D01*
X55444Y-27412D01*
X55444Y-24589D01*
X55444Y-24412D01*
X55377Y-24249D01*
X55252Y-24124D01*
X55089Y-24056D01*
X54912Y-24056D01*
X54869Y-24073D01*
X54512Y-23715D01*
X54576Y-23652D01*
X54644Y-23489D01*
X54644Y-23312D01*
X54577Y-23149D01*
X54452Y-23024D01*
X54410Y-23006D01*
X54410Y-22800D01*
X54409Y-22799D01*
X54394Y-22720D01*
X54393Y-22719D01*
X54378Y-22697D01*
X54348Y-22652D01*
X54348Y-22651D01*
X53946Y-22250D01*
X53970Y-22194D01*
X53970Y-22007D01*
X53899Y-21834D01*
X53767Y-21702D01*
X53594Y-21630D01*
X53407Y-21630D01*
X53234Y-21701D01*
X53102Y-21833D01*
X53030Y-22006D01*
X53030Y-22193D01*
X53101Y-22366D01*
X53233Y-22498D01*
X53406Y-22570D01*
X53593Y-22570D01*
X53650Y-22546D01*
X53990Y-22886D01*
X53990Y-23006D01*
X53949Y-23023D01*
X53824Y-23148D01*
X53756Y-23311D01*
X53756Y-23488D01*
X53823Y-23651D01*
X53948Y-23776D01*
X54024Y-23807D01*
X54025Y-23808D01*
X54052Y-23848D01*
X54573Y-24369D01*
X54556Y-24411D01*
X54556Y-24588D01*
X54623Y-24751D01*
X54748Y-24876D01*
X54911Y-24944D01*
X55088Y-24944D01*
X55251Y-24877D01*
X55376Y-24752D01*
X55444Y-24589D01*
X55444Y-27412D01*
X55377Y-27249D01*
X55252Y-27124D01*
X55089Y-27056D01*
X54912Y-27056D01*
X54749Y-27123D01*
X54624Y-27248D01*
X54556Y-27411D01*
X54556Y-27588D01*
X54623Y-27751D01*
X54748Y-27876D01*
X54911Y-27944D01*
X55088Y-27944D01*
X55130Y-27926D01*
X55823Y-28619D01*
X55806Y-28661D01*
X55806Y-28838D01*
X55823Y-28879D01*
X55694Y-29008D01*
X55694Y-28839D01*
X55694Y-28662D01*
X55627Y-28499D01*
X55502Y-28374D01*
X55339Y-28306D01*
X55162Y-28306D01*
X54999Y-28373D01*
X54874Y-28498D01*
X54806Y-28661D01*
X54806Y-28838D01*
X54873Y-29001D01*
X54998Y-29126D01*
X55161Y-29194D01*
X55338Y-29194D01*
X55501Y-29127D01*
X55626Y-29002D01*
X55694Y-28839D01*
X55694Y-29008D01*
X54919Y-29784D01*
X54899Y-29734D01*
X54767Y-29602D01*
X54694Y-29571D01*
X54694Y-28839D01*
X54694Y-28662D01*
X54627Y-28499D01*
X54502Y-28374D01*
X54460Y-28356D01*
X54460Y-27750D01*
X54444Y-27670D01*
X54443Y-27669D01*
X54428Y-27647D01*
X54423Y-27639D01*
X54423Y-27638D01*
X54444Y-27589D01*
X54444Y-27412D01*
X54444Y-24589D01*
X54444Y-24412D01*
X54377Y-24249D01*
X54252Y-24124D01*
X54089Y-24056D01*
X53912Y-24056D01*
X53869Y-24073D01*
X53512Y-23715D01*
X53576Y-23652D01*
X53644Y-23489D01*
X53644Y-23312D01*
X53577Y-23149D01*
X53452Y-23024D01*
X53289Y-22956D01*
X53112Y-22956D01*
X53069Y-22973D01*
X52710Y-22613D01*
X52710Y-22521D01*
X52766Y-22499D01*
X52898Y-22367D01*
X52970Y-22194D01*
X52970Y-22007D01*
X52899Y-21834D01*
X52767Y-21702D01*
X52594Y-21630D01*
X52407Y-21630D01*
X52234Y-21701D01*
X52102Y-21833D01*
X52030Y-22006D01*
X52030Y-22193D01*
X52101Y-22366D01*
X52233Y-22498D01*
X52290Y-22521D01*
X52290Y-22700D01*
X52303Y-22767D01*
X52306Y-22781D01*
X52352Y-22848D01*
X52773Y-23269D01*
X52756Y-23311D01*
X52756Y-23488D01*
X52823Y-23651D01*
X52948Y-23776D01*
X53024Y-23807D01*
X53025Y-23808D01*
X53052Y-23848D01*
X53573Y-24369D01*
X53556Y-24411D01*
X53556Y-24588D01*
X53623Y-24751D01*
X53748Y-24876D01*
X53911Y-24944D01*
X54088Y-24944D01*
X54251Y-24877D01*
X54376Y-24752D01*
X54444Y-24589D01*
X54444Y-27412D01*
X54377Y-27249D01*
X54252Y-27124D01*
X54089Y-27056D01*
X53912Y-27056D01*
X53749Y-27123D01*
X53624Y-27248D01*
X53556Y-27411D01*
X53556Y-27588D01*
X53623Y-27751D01*
X53748Y-27876D01*
X53911Y-27944D01*
X54040Y-27944D01*
X54040Y-28356D01*
X53999Y-28373D01*
X53874Y-28498D01*
X53806Y-28661D01*
X53806Y-28838D01*
X53873Y-29001D01*
X53998Y-29126D01*
X54040Y-29143D01*
X54040Y-29163D01*
X53694Y-29509D01*
X53694Y-28839D01*
X53694Y-28662D01*
X53627Y-28499D01*
X53502Y-28374D01*
X53445Y-28350D01*
X53445Y-27809D01*
X53445Y-27741D01*
X53445Y-27191D01*
X53444Y-27188D01*
X53444Y-24589D01*
X53444Y-24412D01*
X53377Y-24249D01*
X53252Y-24124D01*
X53089Y-24056D01*
X52912Y-24056D01*
X52749Y-24123D01*
X52644Y-24228D01*
X52644Y-23489D01*
X52644Y-23312D01*
X52577Y-23149D01*
X52452Y-23024D01*
X52289Y-22956D01*
X52112Y-22956D01*
X51949Y-23023D01*
X51824Y-23148D01*
X51756Y-23311D01*
X51756Y-23488D01*
X51823Y-23651D01*
X51948Y-23776D01*
X52111Y-23844D01*
X52288Y-23844D01*
X52451Y-23777D01*
X52576Y-23652D01*
X52644Y-23489D01*
X52644Y-24228D01*
X52624Y-24248D01*
X52556Y-24411D01*
X52556Y-24588D01*
X52623Y-24751D01*
X52748Y-24876D01*
X52911Y-24944D01*
X53088Y-24944D01*
X53251Y-24877D01*
X53376Y-24752D01*
X53444Y-24589D01*
X53444Y-27188D01*
X53419Y-27129D01*
X53371Y-27081D01*
X53309Y-27055D01*
X53241Y-27055D01*
X53210Y-27055D01*
X53210Y-26600D01*
X53194Y-26520D01*
X53193Y-26519D01*
X53178Y-26497D01*
X53148Y-26452D01*
X53148Y-26451D01*
X51519Y-24822D01*
X51519Y-23074D01*
X51508Y-22870D01*
X51452Y-22733D01*
X51361Y-22710D01*
X51290Y-22781D01*
X51290Y-22639D01*
X51267Y-22548D01*
X51074Y-22481D01*
X50870Y-22492D01*
X50733Y-22548D01*
X50710Y-22639D01*
X51000Y-22929D01*
X51290Y-22639D01*
X51290Y-22781D01*
X51071Y-23000D01*
X51361Y-23290D01*
X51452Y-23267D01*
X51519Y-23074D01*
X51519Y-24822D01*
X51426Y-24730D01*
X51444Y-24689D01*
X51444Y-24512D01*
X51377Y-24349D01*
X51290Y-24262D01*
X51290Y-23361D01*
X51000Y-23071D01*
X50929Y-23142D01*
X50929Y-23000D01*
X50639Y-22710D01*
X50548Y-22733D01*
X50481Y-22926D01*
X50492Y-23130D01*
X50548Y-23267D01*
X50639Y-23290D01*
X50929Y-23000D01*
X50929Y-23142D01*
X50710Y-23361D01*
X50733Y-23452D01*
X50926Y-23519D01*
X51130Y-23508D01*
X51267Y-23452D01*
X51290Y-23361D01*
X51290Y-24262D01*
X51252Y-24224D01*
X51089Y-24156D01*
X50912Y-24156D01*
X50749Y-24223D01*
X50624Y-24348D01*
X50556Y-24511D01*
X50556Y-24688D01*
X50623Y-24851D01*
X50748Y-24976D01*
X50911Y-25044D01*
X51088Y-25044D01*
X51130Y-25026D01*
X52790Y-26686D01*
X52790Y-27055D01*
X52691Y-27055D01*
X52629Y-27081D01*
X52581Y-27129D01*
X52555Y-27191D01*
X52555Y-27259D01*
X52555Y-27648D01*
X52152Y-28052D01*
X52106Y-28119D01*
X52103Y-28132D01*
X52090Y-28200D01*
X52090Y-28335D01*
X51999Y-28373D01*
X51874Y-28498D01*
X51806Y-28661D01*
X51806Y-28838D01*
X51873Y-29001D01*
X51998Y-29126D01*
X52161Y-29194D01*
X52338Y-29194D01*
X52501Y-29127D01*
X52626Y-29002D01*
X52694Y-28839D01*
X52694Y-28662D01*
X52627Y-28499D01*
X52510Y-28382D01*
X52510Y-28286D01*
X52851Y-27945D01*
X53309Y-27945D01*
X53371Y-27919D01*
X53419Y-27871D01*
X53445Y-27809D01*
X53445Y-28350D01*
X53339Y-28306D01*
X53162Y-28306D01*
X52999Y-28373D01*
X52874Y-28498D01*
X52806Y-28661D01*
X52806Y-28838D01*
X52873Y-29001D01*
X52998Y-29126D01*
X53161Y-29194D01*
X53338Y-29194D01*
X53501Y-29127D01*
X53626Y-29002D01*
X53694Y-28839D01*
X53694Y-29509D01*
X53650Y-29553D01*
X53594Y-29530D01*
X53407Y-29530D01*
X53234Y-29601D01*
X53102Y-29733D01*
X53030Y-29906D01*
X53030Y-30093D01*
X53101Y-30266D01*
X53233Y-30398D01*
X53406Y-30470D01*
X53593Y-30470D01*
X53766Y-30399D01*
X53898Y-30267D01*
X53970Y-30094D01*
X53970Y-29907D01*
X53946Y-29849D01*
X54398Y-29399D01*
X54398Y-29398D01*
X54428Y-29353D01*
X54443Y-29331D01*
X54444Y-29330D01*
X54459Y-29250D01*
X54460Y-29250D01*
X54460Y-29143D01*
X54501Y-29127D01*
X54626Y-29002D01*
X54694Y-28839D01*
X54694Y-29571D01*
X54594Y-29530D01*
X54407Y-29530D01*
X54234Y-29601D01*
X54102Y-29733D01*
X54030Y-29906D01*
X54030Y-30093D01*
X54101Y-30266D01*
X54233Y-30398D01*
X54406Y-30470D01*
X54593Y-30470D01*
X54766Y-30399D01*
X54898Y-30267D01*
X54921Y-30210D01*
X55000Y-30210D01*
X55000Y-30209D01*
X55067Y-30196D01*
X55080Y-30194D01*
X55081Y-30194D01*
X55148Y-30148D01*
X56119Y-29176D01*
X56161Y-29194D01*
X56338Y-29194D01*
X56501Y-29127D01*
X56626Y-29002D01*
X56694Y-28839D01*
X56694Y-29581D01*
X56219Y-29581D01*
X55697Y-29797D01*
X55298Y-30195D01*
X55081Y-30717D01*
X55081Y-31281D01*
X55297Y-31803D01*
X55695Y-32202D01*
X55822Y-32255D01*
X55049Y-32255D01*
X55050Y-32112D01*
X55050Y-31888D01*
X55049Y-31651D01*
X55011Y-31559D01*
X54941Y-31489D01*
X54850Y-31451D01*
X54751Y-31451D01*
X54641Y-31450D01*
X54766Y-31399D01*
X54898Y-31267D01*
X54970Y-31094D01*
X54970Y-30907D01*
X54899Y-30734D01*
X54767Y-30602D01*
X54594Y-30530D01*
X54407Y-30530D01*
X54234Y-30601D01*
X54102Y-30733D01*
X54030Y-30906D01*
X54030Y-31093D01*
X54101Y-31266D01*
X54233Y-31398D01*
X54358Y-31450D01*
X54249Y-31451D01*
X54150Y-31451D01*
X54059Y-31489D01*
X54000Y-31548D01*
X53941Y-31489D01*
X53850Y-31451D01*
X53751Y-31451D01*
X53641Y-31450D01*
X53766Y-31399D01*
X53898Y-31267D01*
X53970Y-31094D01*
X53970Y-30907D01*
X53899Y-30734D01*
X53767Y-30602D01*
X53594Y-30530D01*
X53407Y-30530D01*
X53234Y-30601D01*
X53102Y-30733D01*
X53030Y-30906D01*
X53030Y-31093D01*
X53101Y-31266D01*
X53233Y-31398D01*
X53358Y-31450D01*
X53249Y-31451D01*
X53150Y-31451D01*
X53059Y-31489D01*
X53000Y-31548D01*
X52941Y-31489D01*
X52850Y-31451D01*
X52751Y-31451D01*
X52641Y-31450D01*
X52766Y-31399D01*
X52898Y-31267D01*
X52970Y-31094D01*
X52970Y-30907D01*
X52970Y-30094D01*
X52970Y-29907D01*
X52899Y-29734D01*
X52767Y-29602D01*
X52594Y-29530D01*
X52407Y-29530D01*
X52234Y-29601D01*
X52102Y-29733D01*
X52030Y-29906D01*
X52030Y-30093D01*
X52101Y-30266D01*
X52233Y-30398D01*
X52406Y-30470D01*
X52593Y-30470D01*
X52766Y-30399D01*
X52898Y-30267D01*
X52970Y-30094D01*
X52970Y-30907D01*
X52899Y-30734D01*
X52767Y-30602D01*
X52594Y-30530D01*
X52407Y-30530D01*
X52234Y-30601D01*
X52102Y-30733D01*
X52030Y-30906D01*
X52030Y-31093D01*
X52101Y-31266D01*
X52233Y-31398D01*
X52358Y-31450D01*
X52249Y-31451D01*
X52150Y-31451D01*
X52059Y-31489D01*
X51989Y-31559D01*
X51951Y-31651D01*
X51950Y-31888D01*
X52012Y-31950D01*
X52400Y-31950D01*
X52450Y-31950D01*
X52550Y-31950D01*
X52600Y-31950D01*
X52988Y-31950D01*
X53000Y-31938D01*
X53012Y-31950D01*
X53400Y-31950D01*
X53450Y-31950D01*
X53550Y-31950D01*
X53600Y-31950D01*
X53988Y-31950D01*
X54000Y-31938D01*
X54012Y-31950D01*
X54400Y-31950D01*
X54450Y-31950D01*
X54550Y-31950D01*
X54600Y-31950D01*
X54988Y-31950D01*
X55050Y-31888D01*
X55050Y-32112D01*
X54988Y-32050D01*
X54600Y-32050D01*
X54550Y-32050D01*
X54450Y-32050D01*
X54400Y-32050D01*
X54012Y-32050D01*
X54000Y-32062D01*
X53988Y-32050D01*
X53600Y-32050D01*
X53550Y-32050D01*
X53450Y-32050D01*
X53400Y-32050D01*
X53012Y-32050D01*
X53000Y-32062D01*
X52988Y-32050D01*
X52600Y-32050D01*
X52550Y-32050D01*
X52450Y-32050D01*
X52400Y-32050D01*
X52012Y-32050D01*
X51950Y-32112D01*
X51950Y-32255D01*
X51177Y-32255D01*
X51303Y-32203D01*
X51702Y-31805D01*
X51919Y-31283D01*
X51919Y-30719D01*
X51703Y-30197D01*
X51305Y-29798D01*
X51131Y-29725D01*
X51251Y-29677D01*
X51376Y-29552D01*
X51444Y-29389D01*
X51444Y-29212D01*
X51377Y-29049D01*
X51252Y-28924D01*
X51089Y-28856D01*
X50912Y-28856D01*
X50749Y-28923D01*
X50624Y-29048D01*
X50556Y-29211D01*
X50556Y-29388D01*
X50623Y-29551D01*
X50653Y-29581D01*
X50422Y-29581D01*
X50416Y-29575D01*
X50452Y-29567D01*
X50519Y-29374D01*
X50519Y-24674D01*
X50508Y-24470D01*
X50452Y-24333D01*
X50445Y-24331D01*
X50445Y-23309D01*
X50445Y-23241D01*
X50445Y-22691D01*
X50419Y-22629D01*
X50371Y-22581D01*
X50309Y-22555D01*
X50241Y-22555D01*
X49691Y-22555D01*
X49629Y-22581D01*
X49581Y-22629D01*
X49555Y-22691D01*
X49555Y-22759D01*
X49555Y-23309D01*
X49581Y-23371D01*
X49629Y-23419D01*
X49691Y-23445D01*
X49759Y-23445D01*
X50309Y-23445D01*
X50371Y-23419D01*
X50419Y-23371D01*
X50445Y-23309D01*
X50445Y-24331D01*
X50361Y-24310D01*
X50290Y-24381D01*
X50290Y-24239D01*
X50267Y-24148D01*
X50074Y-24081D01*
X49870Y-24092D01*
X49733Y-24148D01*
X49710Y-24239D01*
X50000Y-24529D01*
X50290Y-24239D01*
X50290Y-24381D01*
X50071Y-24600D01*
X50361Y-24890D01*
X50452Y-24867D01*
X50519Y-24674D01*
X50519Y-29374D01*
X50508Y-29170D01*
X50452Y-29033D01*
X50361Y-29010D01*
X50290Y-29081D01*
X50290Y-28939D01*
X50290Y-24961D01*
X50000Y-24671D01*
X49929Y-24742D01*
X49929Y-24600D01*
X49639Y-24310D01*
X49548Y-24333D01*
X49481Y-24526D01*
X49492Y-24730D01*
X49548Y-24867D01*
X49639Y-24890D01*
X49929Y-24600D01*
X49929Y-24742D01*
X49710Y-24961D01*
X49733Y-25052D01*
X49926Y-25119D01*
X50130Y-25108D01*
X50267Y-25052D01*
X50290Y-24961D01*
X50290Y-28939D01*
X50267Y-28848D01*
X50074Y-28781D01*
X49870Y-28792D01*
X49733Y-28848D01*
X49710Y-28939D01*
X50000Y-29229D01*
X50290Y-28939D01*
X50290Y-29081D01*
X50106Y-29265D01*
X50071Y-29300D01*
X50000Y-29371D01*
X49965Y-29406D01*
X49929Y-29442D01*
X49929Y-29300D01*
X49639Y-29010D01*
X49548Y-29033D01*
X49481Y-29226D01*
X49492Y-29430D01*
X49548Y-29567D01*
X49639Y-29590D01*
X49929Y-29300D01*
X49929Y-29442D01*
X49710Y-29661D01*
X49733Y-29752D01*
X49772Y-29765D01*
X49697Y-29797D01*
X49298Y-30195D01*
X49250Y-30310D01*
X49250Y-21289D01*
X49297Y-21403D01*
X49695Y-21802D01*
X50217Y-22019D01*
X50781Y-22019D01*
X51303Y-21803D01*
X51702Y-21405D01*
X51919Y-20883D01*
X51919Y-20319D01*
X51703Y-19797D01*
X51305Y-19398D01*
X51189Y-19350D01*
X55810Y-19350D01*
X55697Y-19397D01*
X55298Y-19795D01*
X55081Y-20317D01*
X55081Y-20881D01*
X55297Y-21403D01*
X55695Y-21802D01*
X56217Y-22019D01*
X56781Y-22019D01*
X57303Y-21803D01*
X57702Y-21405D01*
X57750Y-21289D01*
X57750Y-26232D01*
X57744Y-26230D01*
X57744Y-25589D01*
X57744Y-25412D01*
X57677Y-25249D01*
X57644Y-25216D01*
X57644Y-23489D01*
X57644Y-23312D01*
X57577Y-23149D01*
X57452Y-23024D01*
X57289Y-22956D01*
X57112Y-22956D01*
X56949Y-23023D01*
X56824Y-23148D01*
X56756Y-23311D01*
X56756Y-23488D01*
X56823Y-23651D01*
X56948Y-23776D01*
X57111Y-23844D01*
X57288Y-23844D01*
X57451Y-23777D01*
X57576Y-23652D01*
X57644Y-23489D01*
X57644Y-25216D01*
X57552Y-25124D01*
X57389Y-25056D01*
X57212Y-25056D01*
X57049Y-25123D01*
X56924Y-25248D01*
X56856Y-25411D01*
X56856Y-25588D01*
X56923Y-25751D01*
X57048Y-25876D01*
X57211Y-25944D01*
X57388Y-25944D01*
X57551Y-25877D01*
X57676Y-25752D01*
X57744Y-25589D01*
X57744Y-26230D01*
X57661Y-26210D01*
X57590Y-26281D01*
X57590Y-26139D01*
X57567Y-26048D01*
X57374Y-25981D01*
X57170Y-25992D01*
X57033Y-26048D01*
X57010Y-26139D01*
X57300Y-26429D01*
X57590Y-26139D01*
X57590Y-26281D01*
X57371Y-26500D01*
X57661Y-26790D01*
X57750Y-26767D01*
X57750Y-30310D01*
M02*
