G04 (created by PCBNEW-RS274X (2011-05-25)-stable) date Sun 09 Sep 2012 11:14:04 AM EDT*
G01*
G70*
G90*
%MOIN*%
G04 Gerber Fmt 3.4, Leading zero omitted, Abs format*
%FSLAX34Y34*%
G04 APERTURE LIST*
%ADD10C,0.006000*%
%ADD11R,0.144000X0.080000*%
%ADD12R,0.040000X0.080000*%
%ADD13R,0.060000X0.060000*%
%ADD14C,0.060000*%
%ADD15C,0.250000*%
%ADD16R,0.055000X0.055000*%
%ADD17C,0.055000*%
%ADD18C,0.008000*%
%ADD19C,0.025000*%
%ADD20C,0.010000*%
G04 APERTURE END LIST*
G54D10*
G54D11*
X50500Y-25700D03*
G54D12*
X50500Y-28300D03*
X51400Y-28300D03*
X49600Y-28300D03*
G54D13*
X54500Y-32000D03*
G54D14*
X54500Y-31000D03*
X54500Y-30000D03*
G54D13*
X53500Y-32000D03*
G54D14*
X53500Y-31000D03*
X53500Y-30000D03*
G54D13*
X52500Y-20100D03*
G54D14*
X52500Y-21100D03*
X52500Y-22100D03*
G54D13*
X53500Y-20100D03*
G54D14*
X53500Y-21100D03*
X53500Y-22100D03*
G54D13*
X54500Y-20100D03*
G54D14*
X54500Y-21100D03*
X54500Y-22100D03*
G54D15*
X56500Y-31000D03*
X56500Y-20600D03*
X50500Y-31000D03*
X50500Y-20600D03*
G54D16*
X53000Y-27500D03*
G54D17*
X54000Y-27500D03*
X55000Y-27500D03*
X56000Y-27500D03*
X56000Y-24500D03*
X55000Y-24500D03*
X54000Y-24500D03*
X53000Y-24500D03*
X57300Y-25500D03*
X57300Y-26500D03*
X51000Y-24600D03*
X50000Y-24600D03*
X51000Y-29300D03*
X50000Y-29300D03*
X53250Y-28750D03*
X52250Y-28750D03*
X57250Y-28750D03*
X56250Y-28750D03*
X55250Y-28750D03*
X54250Y-28750D03*
X53200Y-23400D03*
X52200Y-23400D03*
X55200Y-23400D03*
X54200Y-23400D03*
X57200Y-23400D03*
X56200Y-23400D03*
G54D16*
X50000Y-23000D03*
G54D17*
X51000Y-23000D03*
G54D13*
X52500Y-32000D03*
G54D14*
X52500Y-31000D03*
X52500Y-30000D03*
G54D18*
X52500Y-30000D02*
X52500Y-29500D01*
X52250Y-29250D02*
X52250Y-28750D01*
X52500Y-29500D02*
X52250Y-29250D01*
X52500Y-31000D02*
X51900Y-30400D01*
X51900Y-30200D02*
X51000Y-29300D01*
X51900Y-30400D02*
X51900Y-30200D01*
G54D19*
X51400Y-28300D02*
X51400Y-28900D01*
X51400Y-28900D02*
X51000Y-29300D01*
X49600Y-28300D02*
X49600Y-28900D01*
X49600Y-28900D02*
X50000Y-29300D01*
G54D10*
G36*
X57750Y-30310D02*
X57703Y-30197D01*
X57540Y-30033D01*
X57540Y-29111D01*
X57250Y-28821D01*
X57179Y-28892D01*
X57179Y-28750D01*
X56889Y-28460D01*
X56798Y-28483D01*
X56731Y-28676D01*
X56742Y-28880D01*
X56798Y-29017D01*
X56889Y-29040D01*
X57179Y-28750D01*
X57179Y-28892D01*
X56960Y-29111D01*
X56983Y-29202D01*
X57176Y-29269D01*
X57380Y-29258D01*
X57517Y-29202D01*
X57540Y-29111D01*
X57540Y-30033D01*
X57305Y-29798D01*
X56783Y-29581D01*
X56694Y-29581D01*
X56694Y-28839D01*
X56694Y-28662D01*
X56644Y-28540D01*
X56644Y-23489D01*
X56644Y-23312D01*
X56577Y-23149D01*
X56452Y-23024D01*
X56289Y-22956D01*
X56112Y-22956D01*
X55949Y-23023D01*
X55824Y-23148D01*
X55756Y-23311D01*
X55756Y-23488D01*
X55823Y-23651D01*
X55948Y-23776D01*
X56111Y-23844D01*
X56288Y-23844D01*
X56451Y-23777D01*
X56576Y-23652D01*
X56644Y-23489D01*
X56644Y-28540D01*
X56627Y-28499D01*
X56502Y-28374D01*
X56444Y-28349D01*
X56444Y-27589D01*
X56444Y-27412D01*
X56444Y-24589D01*
X56444Y-24412D01*
X56377Y-24249D01*
X56252Y-24124D01*
X56089Y-24056D01*
X55912Y-24056D01*
X55749Y-24123D01*
X55719Y-24153D01*
X55719Y-23474D01*
X55708Y-23270D01*
X55652Y-23133D01*
X55561Y-23110D01*
X55490Y-23181D01*
X55490Y-23039D01*
X55467Y-22948D01*
X55274Y-22881D01*
X55070Y-22892D01*
X55043Y-22903D01*
X55043Y-21179D01*
X55032Y-20966D01*
X54972Y-20819D01*
X54970Y-20818D01*
X54970Y-20434D01*
X54970Y-20366D01*
X54970Y-19766D01*
X54944Y-19704D01*
X54896Y-19656D01*
X54834Y-19630D01*
X54766Y-19630D01*
X54166Y-19630D01*
X54104Y-19656D01*
X54056Y-19704D01*
X54030Y-19766D01*
X54030Y-19834D01*
X54030Y-20434D01*
X54056Y-20496D01*
X54104Y-20544D01*
X54166Y-20570D01*
X54234Y-20570D01*
X54361Y-20570D01*
X54219Y-20628D01*
X54192Y-20722D01*
X54500Y-21029D01*
X54808Y-20722D01*
X54781Y-20628D01*
X54615Y-20570D01*
X54834Y-20570D01*
X54896Y-20544D01*
X54944Y-20496D01*
X54970Y-20434D01*
X54970Y-20818D01*
X54878Y-20792D01*
X54571Y-21100D01*
X54878Y-21408D01*
X54972Y-21381D01*
X55043Y-21179D01*
X55043Y-22903D01*
X54970Y-22932D01*
X54970Y-22194D01*
X54970Y-22007D01*
X54899Y-21834D01*
X54767Y-21702D01*
X54602Y-21633D01*
X54634Y-21632D01*
X54781Y-21572D01*
X54808Y-21478D01*
X54500Y-21171D01*
X54429Y-21241D01*
X54429Y-21100D01*
X54122Y-20792D01*
X54028Y-20819D01*
X54002Y-20892D01*
X53972Y-20819D01*
X53970Y-20818D01*
X53970Y-20434D01*
X53970Y-20366D01*
X53970Y-19766D01*
X53944Y-19704D01*
X53896Y-19656D01*
X53834Y-19630D01*
X53766Y-19630D01*
X53166Y-19630D01*
X53104Y-19656D01*
X53056Y-19704D01*
X53030Y-19766D01*
X53030Y-19834D01*
X53030Y-20434D01*
X53056Y-20496D01*
X53104Y-20544D01*
X53166Y-20570D01*
X53234Y-20570D01*
X53361Y-20570D01*
X53219Y-20628D01*
X53192Y-20722D01*
X53500Y-21029D01*
X53808Y-20722D01*
X53781Y-20628D01*
X53615Y-20570D01*
X53834Y-20570D01*
X53896Y-20544D01*
X53944Y-20496D01*
X53970Y-20434D01*
X53970Y-20818D01*
X53878Y-20792D01*
X53571Y-21100D01*
X53878Y-21408D01*
X53972Y-21381D01*
X53997Y-21307D01*
X54028Y-21381D01*
X54122Y-21408D01*
X54429Y-21100D01*
X54429Y-21241D01*
X54192Y-21478D01*
X54219Y-21572D01*
X54396Y-21634D01*
X54234Y-21701D01*
X54102Y-21833D01*
X54030Y-22006D01*
X54030Y-22193D01*
X54101Y-22366D01*
X54233Y-22498D01*
X54406Y-22570D01*
X54593Y-22570D01*
X54766Y-22499D01*
X54898Y-22367D01*
X54970Y-22194D01*
X54970Y-22932D01*
X54933Y-22948D01*
X54910Y-23039D01*
X55200Y-23329D01*
X55490Y-23039D01*
X55490Y-23181D01*
X55271Y-23400D01*
X55561Y-23690D01*
X55652Y-23667D01*
X55719Y-23474D01*
X55719Y-24153D01*
X55624Y-24248D01*
X55556Y-24411D01*
X55556Y-24588D01*
X55623Y-24751D01*
X55748Y-24876D01*
X55911Y-24944D01*
X56088Y-24944D01*
X56251Y-24877D01*
X56376Y-24752D01*
X56444Y-24589D01*
X56444Y-27412D01*
X56377Y-27249D01*
X56252Y-27124D01*
X56089Y-27056D01*
X55912Y-27056D01*
X55749Y-27123D01*
X55624Y-27248D01*
X55556Y-27411D01*
X55556Y-27588D01*
X55623Y-27751D01*
X55748Y-27876D01*
X55911Y-27944D01*
X56088Y-27944D01*
X56251Y-27877D01*
X56376Y-27752D01*
X56444Y-27589D01*
X56444Y-28349D01*
X56339Y-28306D01*
X56162Y-28306D01*
X55999Y-28373D01*
X55874Y-28498D01*
X55806Y-28661D01*
X55806Y-28838D01*
X55873Y-29001D01*
X55998Y-29126D01*
X56161Y-29194D01*
X56338Y-29194D01*
X56501Y-29127D01*
X56626Y-29002D01*
X56694Y-28839D01*
X56694Y-29581D01*
X56219Y-29581D01*
X55769Y-29767D01*
X55769Y-28824D01*
X55758Y-28620D01*
X55702Y-28483D01*
X55611Y-28460D01*
X55540Y-28531D01*
X55540Y-28389D01*
X55517Y-28298D01*
X55490Y-28288D01*
X55490Y-23761D01*
X55200Y-23471D01*
X55129Y-23542D01*
X55129Y-23400D01*
X54839Y-23110D01*
X54748Y-23133D01*
X54681Y-23326D01*
X54692Y-23530D01*
X54748Y-23667D01*
X54839Y-23690D01*
X55129Y-23400D01*
X55129Y-23542D01*
X54910Y-23761D01*
X54933Y-23852D01*
X55126Y-23919D01*
X55330Y-23908D01*
X55467Y-23852D01*
X55490Y-23761D01*
X55490Y-28288D01*
X55444Y-28272D01*
X55444Y-27589D01*
X55444Y-27412D01*
X55444Y-24589D01*
X55444Y-24412D01*
X55377Y-24249D01*
X55252Y-24124D01*
X55089Y-24056D01*
X54912Y-24056D01*
X54749Y-24123D01*
X54644Y-24228D01*
X54644Y-23489D01*
X54644Y-23312D01*
X54577Y-23149D01*
X54452Y-23024D01*
X54289Y-22956D01*
X54112Y-22956D01*
X53970Y-23014D01*
X53970Y-22194D01*
X53970Y-22007D01*
X53899Y-21834D01*
X53767Y-21702D01*
X53602Y-21633D01*
X53634Y-21632D01*
X53781Y-21572D01*
X53808Y-21478D01*
X53500Y-21171D01*
X53429Y-21241D01*
X53429Y-21100D01*
X53122Y-20792D01*
X53028Y-20819D01*
X53002Y-20892D01*
X52972Y-20819D01*
X52970Y-20818D01*
X52970Y-20434D01*
X52970Y-20366D01*
X52970Y-19766D01*
X52944Y-19704D01*
X52896Y-19656D01*
X52834Y-19630D01*
X52766Y-19630D01*
X52166Y-19630D01*
X52104Y-19656D01*
X52056Y-19704D01*
X52030Y-19766D01*
X52030Y-19834D01*
X52030Y-20434D01*
X52056Y-20496D01*
X52104Y-20544D01*
X52166Y-20570D01*
X52234Y-20570D01*
X52361Y-20570D01*
X52219Y-20628D01*
X52192Y-20722D01*
X52500Y-21029D01*
X52808Y-20722D01*
X52781Y-20628D01*
X52615Y-20570D01*
X52834Y-20570D01*
X52896Y-20544D01*
X52944Y-20496D01*
X52970Y-20434D01*
X52970Y-20818D01*
X52878Y-20792D01*
X52571Y-21100D01*
X52878Y-21408D01*
X52972Y-21381D01*
X52997Y-21307D01*
X53028Y-21381D01*
X53122Y-21408D01*
X53429Y-21100D01*
X53429Y-21241D01*
X53192Y-21478D01*
X53219Y-21572D01*
X53396Y-21634D01*
X53234Y-21701D01*
X53102Y-21833D01*
X53030Y-22006D01*
X53030Y-22193D01*
X53101Y-22366D01*
X53233Y-22498D01*
X53406Y-22570D01*
X53593Y-22570D01*
X53766Y-22499D01*
X53898Y-22367D01*
X53970Y-22194D01*
X53970Y-23014D01*
X53949Y-23023D01*
X53824Y-23148D01*
X53756Y-23311D01*
X53756Y-23488D01*
X53823Y-23651D01*
X53948Y-23776D01*
X54111Y-23844D01*
X54288Y-23844D01*
X54451Y-23777D01*
X54576Y-23652D01*
X54644Y-23489D01*
X54644Y-24228D01*
X54624Y-24248D01*
X54556Y-24411D01*
X54556Y-24588D01*
X54623Y-24751D01*
X54748Y-24876D01*
X54911Y-24944D01*
X55088Y-24944D01*
X55251Y-24877D01*
X55376Y-24752D01*
X55444Y-24589D01*
X55444Y-27412D01*
X55377Y-27249D01*
X55252Y-27124D01*
X55089Y-27056D01*
X54912Y-27056D01*
X54749Y-27123D01*
X54624Y-27248D01*
X54556Y-27411D01*
X54556Y-27588D01*
X54623Y-27751D01*
X54748Y-27876D01*
X54911Y-27944D01*
X55088Y-27944D01*
X55251Y-27877D01*
X55376Y-27752D01*
X55444Y-27589D01*
X55444Y-28272D01*
X55324Y-28231D01*
X55120Y-28242D01*
X54983Y-28298D01*
X54960Y-28389D01*
X55250Y-28679D01*
X55540Y-28389D01*
X55540Y-28531D01*
X55321Y-28750D01*
X55611Y-29040D01*
X55702Y-29017D01*
X55769Y-28824D01*
X55769Y-29767D01*
X55697Y-29797D01*
X55540Y-29953D01*
X55540Y-29111D01*
X55250Y-28821D01*
X55179Y-28892D01*
X55179Y-28750D01*
X54889Y-28460D01*
X54798Y-28483D01*
X54731Y-28676D01*
X54742Y-28880D01*
X54798Y-29017D01*
X54889Y-29040D01*
X55179Y-28750D01*
X55179Y-28892D01*
X54960Y-29111D01*
X54983Y-29202D01*
X55176Y-29269D01*
X55380Y-29258D01*
X55517Y-29202D01*
X55540Y-29111D01*
X55540Y-29953D01*
X55298Y-30195D01*
X55081Y-30717D01*
X55081Y-31281D01*
X55297Y-31803D01*
X55695Y-32202D01*
X55810Y-32250D01*
X55043Y-32250D01*
X55043Y-31079D01*
X55032Y-30866D01*
X54972Y-30719D01*
X54970Y-30718D01*
X54970Y-30094D01*
X54970Y-29907D01*
X54899Y-29734D01*
X54767Y-29602D01*
X54694Y-29571D01*
X54694Y-28839D01*
X54694Y-28662D01*
X54627Y-28499D01*
X54502Y-28374D01*
X54444Y-28349D01*
X54444Y-27589D01*
X54444Y-27412D01*
X54444Y-24589D01*
X54444Y-24412D01*
X54377Y-24249D01*
X54252Y-24124D01*
X54089Y-24056D01*
X53912Y-24056D01*
X53749Y-24123D01*
X53644Y-24228D01*
X53644Y-23489D01*
X53644Y-23312D01*
X53577Y-23149D01*
X53452Y-23024D01*
X53289Y-22956D01*
X53112Y-22956D01*
X52970Y-23014D01*
X52970Y-22194D01*
X52970Y-22007D01*
X52899Y-21834D01*
X52767Y-21702D01*
X52602Y-21633D01*
X52634Y-21632D01*
X52781Y-21572D01*
X52808Y-21478D01*
X52500Y-21171D01*
X52429Y-21241D01*
X52429Y-21100D01*
X52122Y-20792D01*
X52028Y-20819D01*
X51957Y-21021D01*
X51968Y-21234D01*
X52028Y-21381D01*
X52122Y-21408D01*
X52429Y-21100D01*
X52429Y-21241D01*
X52192Y-21478D01*
X52219Y-21572D01*
X52396Y-21634D01*
X52234Y-21701D01*
X52102Y-21833D01*
X52030Y-22006D01*
X52030Y-22193D01*
X52101Y-22366D01*
X52233Y-22498D01*
X52406Y-22570D01*
X52593Y-22570D01*
X52766Y-22499D01*
X52898Y-22367D01*
X52970Y-22194D01*
X52970Y-23014D01*
X52949Y-23023D01*
X52824Y-23148D01*
X52756Y-23311D01*
X52756Y-23488D01*
X52823Y-23651D01*
X52948Y-23776D01*
X53111Y-23844D01*
X53288Y-23844D01*
X53451Y-23777D01*
X53576Y-23652D01*
X53644Y-23489D01*
X53644Y-24228D01*
X53624Y-24248D01*
X53556Y-24411D01*
X53556Y-24588D01*
X53623Y-24751D01*
X53748Y-24876D01*
X53911Y-24944D01*
X54088Y-24944D01*
X54251Y-24877D01*
X54376Y-24752D01*
X54444Y-24589D01*
X54444Y-27412D01*
X54377Y-27249D01*
X54252Y-27124D01*
X54089Y-27056D01*
X53912Y-27056D01*
X53749Y-27123D01*
X53624Y-27248D01*
X53556Y-27411D01*
X53556Y-27588D01*
X53623Y-27751D01*
X53748Y-27876D01*
X53911Y-27944D01*
X54088Y-27944D01*
X54251Y-27877D01*
X54376Y-27752D01*
X54444Y-27589D01*
X54444Y-28349D01*
X54339Y-28306D01*
X54162Y-28306D01*
X53999Y-28373D01*
X53874Y-28498D01*
X53806Y-28661D01*
X53806Y-28838D01*
X53873Y-29001D01*
X53998Y-29126D01*
X54161Y-29194D01*
X54338Y-29194D01*
X54501Y-29127D01*
X54626Y-29002D01*
X54694Y-28839D01*
X54694Y-29571D01*
X54594Y-29530D01*
X54407Y-29530D01*
X54234Y-29601D01*
X54102Y-29733D01*
X54030Y-29906D01*
X54030Y-30093D01*
X54101Y-30266D01*
X54233Y-30398D01*
X54397Y-30466D01*
X54366Y-30468D01*
X54219Y-30528D01*
X54192Y-30622D01*
X54500Y-30929D01*
X54808Y-30622D01*
X54781Y-30528D01*
X54603Y-30465D01*
X54766Y-30399D01*
X54898Y-30267D01*
X54970Y-30094D01*
X54970Y-30718D01*
X54878Y-30692D01*
X54571Y-31000D01*
X54878Y-31308D01*
X54972Y-31281D01*
X55043Y-31079D01*
X55043Y-32250D01*
X54970Y-32250D01*
X54970Y-31666D01*
X54944Y-31604D01*
X54896Y-31556D01*
X54834Y-31530D01*
X54766Y-31530D01*
X54638Y-31530D01*
X54781Y-31472D01*
X54808Y-31378D01*
X54500Y-31071D01*
X54429Y-31141D01*
X54429Y-31000D01*
X54122Y-30692D01*
X54028Y-30719D01*
X54002Y-30792D01*
X53972Y-30719D01*
X53970Y-30718D01*
X53970Y-30094D01*
X53970Y-29907D01*
X53899Y-29734D01*
X53769Y-29604D01*
X53769Y-28824D01*
X53758Y-28620D01*
X53702Y-28483D01*
X53611Y-28460D01*
X53540Y-28531D01*
X53540Y-28389D01*
X53519Y-28305D01*
X53519Y-24574D01*
X53508Y-24370D01*
X53452Y-24233D01*
X53361Y-24210D01*
X53290Y-24281D01*
X53290Y-24139D01*
X53267Y-24048D01*
X53074Y-23981D01*
X52870Y-23992D01*
X52733Y-24048D01*
X52719Y-24103D01*
X52719Y-23474D01*
X52708Y-23270D01*
X52652Y-23133D01*
X52561Y-23110D01*
X52490Y-23181D01*
X52490Y-23039D01*
X52467Y-22948D01*
X52274Y-22881D01*
X52070Y-22892D01*
X51933Y-22948D01*
X51910Y-23039D01*
X52200Y-23329D01*
X52490Y-23039D01*
X52490Y-23181D01*
X52271Y-23400D01*
X52561Y-23690D01*
X52652Y-23667D01*
X52719Y-23474D01*
X52719Y-24103D01*
X52710Y-24139D01*
X53000Y-24429D01*
X53290Y-24139D01*
X53290Y-24281D01*
X53071Y-24500D01*
X53361Y-24790D01*
X53452Y-24767D01*
X53519Y-24574D01*
X53519Y-28305D01*
X53517Y-28298D01*
X53445Y-28273D01*
X53445Y-27809D01*
X53445Y-27741D01*
X53445Y-27191D01*
X53419Y-27129D01*
X53371Y-27081D01*
X53309Y-27055D01*
X53290Y-27055D01*
X53290Y-24861D01*
X53000Y-24571D01*
X52929Y-24642D01*
X52929Y-24500D01*
X52639Y-24210D01*
X52548Y-24233D01*
X52490Y-24400D01*
X52490Y-23761D01*
X52200Y-23471D01*
X52129Y-23542D01*
X52129Y-23400D01*
X51839Y-23110D01*
X51748Y-23133D01*
X51681Y-23326D01*
X51692Y-23530D01*
X51748Y-23667D01*
X51839Y-23690D01*
X52129Y-23400D01*
X52129Y-23542D01*
X51910Y-23761D01*
X51933Y-23852D01*
X52126Y-23919D01*
X52330Y-23908D01*
X52467Y-23852D01*
X52490Y-23761D01*
X52490Y-24400D01*
X52481Y-24426D01*
X52492Y-24630D01*
X52548Y-24767D01*
X52639Y-24790D01*
X52929Y-24500D01*
X52929Y-24642D01*
X52710Y-24861D01*
X52733Y-24952D01*
X52926Y-25019D01*
X53130Y-25008D01*
X53267Y-24952D01*
X53290Y-24861D01*
X53290Y-27055D01*
X53241Y-27055D01*
X52691Y-27055D01*
X52629Y-27081D01*
X52581Y-27129D01*
X52555Y-27191D01*
X52555Y-27259D01*
X52555Y-27809D01*
X52581Y-27871D01*
X52629Y-27919D01*
X52691Y-27945D01*
X52759Y-27945D01*
X53309Y-27945D01*
X53371Y-27919D01*
X53419Y-27871D01*
X53445Y-27809D01*
X53445Y-28273D01*
X53324Y-28231D01*
X53120Y-28242D01*
X52983Y-28298D01*
X52960Y-28389D01*
X53250Y-28679D01*
X53540Y-28389D01*
X53540Y-28531D01*
X53321Y-28750D01*
X53611Y-29040D01*
X53702Y-29017D01*
X53769Y-28824D01*
X53769Y-29604D01*
X53767Y-29602D01*
X53594Y-29530D01*
X53540Y-29530D01*
X53540Y-29111D01*
X53250Y-28821D01*
X53179Y-28892D01*
X53179Y-28750D01*
X52889Y-28460D01*
X52798Y-28483D01*
X52731Y-28676D01*
X52742Y-28880D01*
X52798Y-29017D01*
X52889Y-29040D01*
X53179Y-28750D01*
X53179Y-28892D01*
X52960Y-29111D01*
X52983Y-29202D01*
X53176Y-29269D01*
X53380Y-29258D01*
X53517Y-29202D01*
X53540Y-29111D01*
X53540Y-29530D01*
X53407Y-29530D01*
X53234Y-29601D01*
X53102Y-29733D01*
X53030Y-29906D01*
X53030Y-30093D01*
X53101Y-30266D01*
X53233Y-30398D01*
X53397Y-30466D01*
X53366Y-30468D01*
X53219Y-30528D01*
X53192Y-30622D01*
X53500Y-30929D01*
X53808Y-30622D01*
X53781Y-30528D01*
X53603Y-30465D01*
X53766Y-30399D01*
X53898Y-30267D01*
X53970Y-30094D01*
X53970Y-30718D01*
X53878Y-30692D01*
X53571Y-31000D01*
X53878Y-31308D01*
X53972Y-31281D01*
X53997Y-31207D01*
X54028Y-31281D01*
X54122Y-31308D01*
X54429Y-31000D01*
X54429Y-31141D01*
X54192Y-31378D01*
X54219Y-31472D01*
X54384Y-31530D01*
X54166Y-31530D01*
X54104Y-31556D01*
X54056Y-31604D01*
X54030Y-31666D01*
X54030Y-31734D01*
X54030Y-32250D01*
X53970Y-32250D01*
X53970Y-31666D01*
X53944Y-31604D01*
X53896Y-31556D01*
X53834Y-31530D01*
X53766Y-31530D01*
X53638Y-31530D01*
X53781Y-31472D01*
X53808Y-31378D01*
X53500Y-31071D01*
X53192Y-31378D01*
X53219Y-31472D01*
X53384Y-31530D01*
X53166Y-31530D01*
X53104Y-31556D01*
X53056Y-31604D01*
X53030Y-31666D01*
X53030Y-31734D01*
X53030Y-32250D01*
X52970Y-32250D01*
X52970Y-31666D01*
X52944Y-31604D01*
X52896Y-31556D01*
X52834Y-31530D01*
X52766Y-31530D01*
X52166Y-31530D01*
X52104Y-31556D01*
X52056Y-31604D01*
X52030Y-31666D01*
X52030Y-31734D01*
X52030Y-32250D01*
X51189Y-32250D01*
X51303Y-32203D01*
X51702Y-31805D01*
X51919Y-31283D01*
X51919Y-30719D01*
X51916Y-30712D01*
X52053Y-30849D01*
X52030Y-30906D01*
X52030Y-31093D01*
X52101Y-31266D01*
X52233Y-31398D01*
X52406Y-31470D01*
X52593Y-31470D01*
X52766Y-31399D01*
X52898Y-31267D01*
X52966Y-31102D01*
X52968Y-31134D01*
X53028Y-31281D01*
X53122Y-31308D01*
X53429Y-31000D01*
X53122Y-30692D01*
X53028Y-30719D01*
X52965Y-30896D01*
X52899Y-30734D01*
X52767Y-30602D01*
X52594Y-30530D01*
X52407Y-30530D01*
X52349Y-30553D01*
X52110Y-30313D01*
X52110Y-30275D01*
X52233Y-30398D01*
X52406Y-30470D01*
X52593Y-30470D01*
X52766Y-30399D01*
X52898Y-30267D01*
X52970Y-30094D01*
X52970Y-29907D01*
X52899Y-29734D01*
X52767Y-29602D01*
X52710Y-29578D01*
X52710Y-29500D01*
X52694Y-29420D01*
X52693Y-29419D01*
X52678Y-29397D01*
X52648Y-29352D01*
X52648Y-29351D01*
X52460Y-29163D01*
X52460Y-29143D01*
X52501Y-29127D01*
X52626Y-29002D01*
X52694Y-28839D01*
X52694Y-28662D01*
X52627Y-28499D01*
X52502Y-28374D01*
X52339Y-28306D01*
X52162Y-28306D01*
X51999Y-28373D01*
X51874Y-28498D01*
X51806Y-28661D01*
X51806Y-28838D01*
X51873Y-29001D01*
X51998Y-29126D01*
X52040Y-29143D01*
X52040Y-29250D01*
X52053Y-29317D01*
X52056Y-29331D01*
X52102Y-29398D01*
X52283Y-29580D01*
X52234Y-29601D01*
X52102Y-29733D01*
X52030Y-29906D01*
X52030Y-30033D01*
X51426Y-29430D01*
X51444Y-29389D01*
X51444Y-29273D01*
X51606Y-29110D01*
X51608Y-29109D01*
X51609Y-29109D01*
X51672Y-29014D01*
X51673Y-29013D01*
X51695Y-28900D01*
X51695Y-28844D01*
X51696Y-28844D01*
X51744Y-28796D01*
X51770Y-28734D01*
X51770Y-28666D01*
X51770Y-27866D01*
X51744Y-27804D01*
X51696Y-27756D01*
X51634Y-27730D01*
X51566Y-27730D01*
X51470Y-27730D01*
X51470Y-25812D01*
X51470Y-25588D01*
X51469Y-25349D01*
X51469Y-25250D01*
X51444Y-25190D01*
X51444Y-24689D01*
X51444Y-24512D01*
X51444Y-23089D01*
X51444Y-22912D01*
X51377Y-22749D01*
X51252Y-22624D01*
X51089Y-22556D01*
X50912Y-22556D01*
X50749Y-22623D01*
X50624Y-22748D01*
X50556Y-22911D01*
X50556Y-23088D01*
X50623Y-23251D01*
X50748Y-23376D01*
X50911Y-23444D01*
X51088Y-23444D01*
X51251Y-23377D01*
X51376Y-23252D01*
X51444Y-23089D01*
X51444Y-24512D01*
X51377Y-24349D01*
X51252Y-24224D01*
X51089Y-24156D01*
X50912Y-24156D01*
X50749Y-24223D01*
X50624Y-24348D01*
X50556Y-24511D01*
X50556Y-24688D01*
X50623Y-24851D01*
X50748Y-24976D01*
X50911Y-25044D01*
X51088Y-25044D01*
X51251Y-24977D01*
X51376Y-24852D01*
X51444Y-24689D01*
X51444Y-25190D01*
X51431Y-25159D01*
X51361Y-25089D01*
X51269Y-25051D01*
X50612Y-25050D01*
X50550Y-25112D01*
X50550Y-25650D01*
X51408Y-25650D01*
X51470Y-25588D01*
X51470Y-25812D01*
X51408Y-25750D01*
X50550Y-25750D01*
X50550Y-26288D01*
X50612Y-26350D01*
X51269Y-26349D01*
X51361Y-26311D01*
X51431Y-26241D01*
X51469Y-26150D01*
X51469Y-26051D01*
X51470Y-25812D01*
X51470Y-27730D01*
X51166Y-27730D01*
X51104Y-27756D01*
X51056Y-27804D01*
X51030Y-27866D01*
X51030Y-27934D01*
X51030Y-28734D01*
X51056Y-28796D01*
X51071Y-28811D01*
X51026Y-28856D01*
X50912Y-28856D01*
X50884Y-28867D01*
X50911Y-28841D01*
X50949Y-28750D01*
X50949Y-28651D01*
X50950Y-28412D01*
X50950Y-28188D01*
X50949Y-27949D01*
X50949Y-27850D01*
X50911Y-27759D01*
X50841Y-27689D01*
X50749Y-27651D01*
X50612Y-27650D01*
X50550Y-27712D01*
X50550Y-28250D01*
X50888Y-28250D01*
X50950Y-28188D01*
X50950Y-28412D01*
X50888Y-28350D01*
X50550Y-28350D01*
X50550Y-28888D01*
X50612Y-28950D01*
X50722Y-28949D01*
X50624Y-29048D01*
X50556Y-29211D01*
X50556Y-29388D01*
X50623Y-29551D01*
X50653Y-29581D01*
X50525Y-29581D01*
X50525Y-23112D01*
X50525Y-22888D01*
X50524Y-22774D01*
X50524Y-22675D01*
X50486Y-22584D01*
X50416Y-22514D01*
X50324Y-22476D01*
X50112Y-22475D01*
X50050Y-22537D01*
X50050Y-22950D01*
X50463Y-22950D01*
X50525Y-22888D01*
X50525Y-23112D01*
X50463Y-23050D01*
X50050Y-23050D01*
X50050Y-23463D01*
X50112Y-23525D01*
X50324Y-23524D01*
X50416Y-23486D01*
X50486Y-23416D01*
X50524Y-23325D01*
X50524Y-23226D01*
X50525Y-23112D01*
X50525Y-29581D01*
X50347Y-29581D01*
X50376Y-29552D01*
X50444Y-29389D01*
X50444Y-29212D01*
X50377Y-29049D01*
X50277Y-28949D01*
X50388Y-28950D01*
X50450Y-28888D01*
X50450Y-28350D01*
X50450Y-28250D01*
X50450Y-27712D01*
X50450Y-26288D01*
X50450Y-25750D01*
X50450Y-25650D01*
X50450Y-25112D01*
X50444Y-25106D01*
X50444Y-24689D01*
X50444Y-24512D01*
X50377Y-24349D01*
X50252Y-24224D01*
X50089Y-24156D01*
X49950Y-24156D01*
X49950Y-23463D01*
X49950Y-23050D01*
X49950Y-22950D01*
X49950Y-22537D01*
X49888Y-22475D01*
X49676Y-22476D01*
X49584Y-22514D01*
X49514Y-22584D01*
X49476Y-22675D01*
X49476Y-22774D01*
X49475Y-22888D01*
X49537Y-22950D01*
X49950Y-22950D01*
X49950Y-23050D01*
X49537Y-23050D01*
X49475Y-23112D01*
X49476Y-23226D01*
X49476Y-23325D01*
X49514Y-23416D01*
X49584Y-23486D01*
X49676Y-23524D01*
X49888Y-23525D01*
X49950Y-23463D01*
X49950Y-24156D01*
X49912Y-24156D01*
X49749Y-24223D01*
X49624Y-24348D01*
X49556Y-24511D01*
X49556Y-24688D01*
X49623Y-24851D01*
X49748Y-24976D01*
X49911Y-25044D01*
X50088Y-25044D01*
X50251Y-24977D01*
X50376Y-24852D01*
X50444Y-24689D01*
X50444Y-25106D01*
X50388Y-25050D01*
X49731Y-25051D01*
X49639Y-25089D01*
X49569Y-25159D01*
X49531Y-25250D01*
X49531Y-25349D01*
X49530Y-25588D01*
X49592Y-25650D01*
X50450Y-25650D01*
X50450Y-25750D01*
X49592Y-25750D01*
X49530Y-25812D01*
X49531Y-26051D01*
X49531Y-26150D01*
X49569Y-26241D01*
X49639Y-26311D01*
X49731Y-26349D01*
X50388Y-26350D01*
X50450Y-26288D01*
X50450Y-27712D01*
X50388Y-27650D01*
X50251Y-27651D01*
X50159Y-27689D01*
X50089Y-27759D01*
X50051Y-27850D01*
X50051Y-27949D01*
X50050Y-28188D01*
X50112Y-28250D01*
X50450Y-28250D01*
X50450Y-28350D01*
X50112Y-28350D01*
X50050Y-28412D01*
X50051Y-28651D01*
X50051Y-28750D01*
X50089Y-28841D01*
X50114Y-28866D01*
X50089Y-28856D01*
X49973Y-28856D01*
X49928Y-28811D01*
X49944Y-28796D01*
X49970Y-28734D01*
X49970Y-28666D01*
X49970Y-27866D01*
X49944Y-27804D01*
X49896Y-27756D01*
X49834Y-27730D01*
X49766Y-27730D01*
X49366Y-27730D01*
X49304Y-27756D01*
X49256Y-27804D01*
X49250Y-27818D01*
X49250Y-21289D01*
X49297Y-21403D01*
X49695Y-21802D01*
X50217Y-22019D01*
X50781Y-22019D01*
X51303Y-21803D01*
X51702Y-21405D01*
X51919Y-20883D01*
X51919Y-20319D01*
X51703Y-19797D01*
X51305Y-19398D01*
X51189Y-19350D01*
X55810Y-19350D01*
X55697Y-19397D01*
X55298Y-19795D01*
X55081Y-20317D01*
X55081Y-20881D01*
X55297Y-21403D01*
X55695Y-21802D01*
X56217Y-22019D01*
X56781Y-22019D01*
X57303Y-21803D01*
X57702Y-21405D01*
X57750Y-21289D01*
X57750Y-25232D01*
X57719Y-25224D01*
X57719Y-23474D01*
X57708Y-23270D01*
X57652Y-23133D01*
X57561Y-23110D01*
X57490Y-23181D01*
X57490Y-23039D01*
X57467Y-22948D01*
X57274Y-22881D01*
X57070Y-22892D01*
X56933Y-22948D01*
X56910Y-23039D01*
X57200Y-23329D01*
X57490Y-23039D01*
X57490Y-23181D01*
X57271Y-23400D01*
X57561Y-23690D01*
X57652Y-23667D01*
X57719Y-23474D01*
X57719Y-25224D01*
X57661Y-25210D01*
X57590Y-25281D01*
X57590Y-25139D01*
X57567Y-25048D01*
X57490Y-25021D01*
X57490Y-23761D01*
X57200Y-23471D01*
X57129Y-23542D01*
X57129Y-23400D01*
X56839Y-23110D01*
X56748Y-23133D01*
X56681Y-23326D01*
X56692Y-23530D01*
X56748Y-23667D01*
X56839Y-23690D01*
X57129Y-23400D01*
X57129Y-23542D01*
X56910Y-23761D01*
X56933Y-23852D01*
X57126Y-23919D01*
X57330Y-23908D01*
X57467Y-23852D01*
X57490Y-23761D01*
X57490Y-25021D01*
X57374Y-24981D01*
X57170Y-24992D01*
X57033Y-25048D01*
X57010Y-25139D01*
X57300Y-25429D01*
X57590Y-25139D01*
X57590Y-25281D01*
X57371Y-25500D01*
X57661Y-25790D01*
X57750Y-25767D01*
X57750Y-28600D01*
X57744Y-28585D01*
X57744Y-26589D01*
X57744Y-26412D01*
X57677Y-26249D01*
X57590Y-26162D01*
X57590Y-25861D01*
X57300Y-25571D01*
X57229Y-25642D01*
X57229Y-25500D01*
X56939Y-25210D01*
X56848Y-25233D01*
X56781Y-25426D01*
X56792Y-25630D01*
X56848Y-25767D01*
X56939Y-25790D01*
X57229Y-25500D01*
X57229Y-25642D01*
X57010Y-25861D01*
X57033Y-25952D01*
X57226Y-26019D01*
X57430Y-26008D01*
X57567Y-25952D01*
X57590Y-25861D01*
X57590Y-26162D01*
X57552Y-26124D01*
X57389Y-26056D01*
X57212Y-26056D01*
X57049Y-26123D01*
X56924Y-26248D01*
X56856Y-26411D01*
X56856Y-26588D01*
X56923Y-26751D01*
X57048Y-26876D01*
X57211Y-26944D01*
X57388Y-26944D01*
X57551Y-26877D01*
X57676Y-26752D01*
X57744Y-26589D01*
X57744Y-28585D01*
X57702Y-28483D01*
X57611Y-28460D01*
X57540Y-28531D01*
X57540Y-28389D01*
X57517Y-28298D01*
X57324Y-28231D01*
X57120Y-28242D01*
X56983Y-28298D01*
X56960Y-28389D01*
X57250Y-28679D01*
X57540Y-28389D01*
X57540Y-28531D01*
X57321Y-28750D01*
X57611Y-29040D01*
X57702Y-29017D01*
X57750Y-28878D01*
X57750Y-30310D01*
X57750Y-30310D01*
G37*
G54D20*
X57750Y-30310D02*
X57703Y-30197D01*
X57540Y-30033D01*
X57540Y-29111D01*
X57250Y-28821D01*
X57179Y-28892D01*
X57179Y-28750D01*
X56889Y-28460D01*
X56798Y-28483D01*
X56731Y-28676D01*
X56742Y-28880D01*
X56798Y-29017D01*
X56889Y-29040D01*
X57179Y-28750D01*
X57179Y-28892D01*
X56960Y-29111D01*
X56983Y-29202D01*
X57176Y-29269D01*
X57380Y-29258D01*
X57517Y-29202D01*
X57540Y-29111D01*
X57540Y-30033D01*
X57305Y-29798D01*
X56783Y-29581D01*
X56694Y-29581D01*
X56694Y-28839D01*
X56694Y-28662D01*
X56644Y-28540D01*
X56644Y-23489D01*
X56644Y-23312D01*
X56577Y-23149D01*
X56452Y-23024D01*
X56289Y-22956D01*
X56112Y-22956D01*
X55949Y-23023D01*
X55824Y-23148D01*
X55756Y-23311D01*
X55756Y-23488D01*
X55823Y-23651D01*
X55948Y-23776D01*
X56111Y-23844D01*
X56288Y-23844D01*
X56451Y-23777D01*
X56576Y-23652D01*
X56644Y-23489D01*
X56644Y-28540D01*
X56627Y-28499D01*
X56502Y-28374D01*
X56444Y-28349D01*
X56444Y-27589D01*
X56444Y-27412D01*
X56444Y-24589D01*
X56444Y-24412D01*
X56377Y-24249D01*
X56252Y-24124D01*
X56089Y-24056D01*
X55912Y-24056D01*
X55749Y-24123D01*
X55719Y-24153D01*
X55719Y-23474D01*
X55708Y-23270D01*
X55652Y-23133D01*
X55561Y-23110D01*
X55490Y-23181D01*
X55490Y-23039D01*
X55467Y-22948D01*
X55274Y-22881D01*
X55070Y-22892D01*
X55043Y-22903D01*
X55043Y-21179D01*
X55032Y-20966D01*
X54972Y-20819D01*
X54970Y-20818D01*
X54970Y-20434D01*
X54970Y-20366D01*
X54970Y-19766D01*
X54944Y-19704D01*
X54896Y-19656D01*
X54834Y-19630D01*
X54766Y-19630D01*
X54166Y-19630D01*
X54104Y-19656D01*
X54056Y-19704D01*
X54030Y-19766D01*
X54030Y-19834D01*
X54030Y-20434D01*
X54056Y-20496D01*
X54104Y-20544D01*
X54166Y-20570D01*
X54234Y-20570D01*
X54361Y-20570D01*
X54219Y-20628D01*
X54192Y-20722D01*
X54500Y-21029D01*
X54808Y-20722D01*
X54781Y-20628D01*
X54615Y-20570D01*
X54834Y-20570D01*
X54896Y-20544D01*
X54944Y-20496D01*
X54970Y-20434D01*
X54970Y-20818D01*
X54878Y-20792D01*
X54571Y-21100D01*
X54878Y-21408D01*
X54972Y-21381D01*
X55043Y-21179D01*
X55043Y-22903D01*
X54970Y-22932D01*
X54970Y-22194D01*
X54970Y-22007D01*
X54899Y-21834D01*
X54767Y-21702D01*
X54602Y-21633D01*
X54634Y-21632D01*
X54781Y-21572D01*
X54808Y-21478D01*
X54500Y-21171D01*
X54429Y-21241D01*
X54429Y-21100D01*
X54122Y-20792D01*
X54028Y-20819D01*
X54002Y-20892D01*
X53972Y-20819D01*
X53970Y-20818D01*
X53970Y-20434D01*
X53970Y-20366D01*
X53970Y-19766D01*
X53944Y-19704D01*
X53896Y-19656D01*
X53834Y-19630D01*
X53766Y-19630D01*
X53166Y-19630D01*
X53104Y-19656D01*
X53056Y-19704D01*
X53030Y-19766D01*
X53030Y-19834D01*
X53030Y-20434D01*
X53056Y-20496D01*
X53104Y-20544D01*
X53166Y-20570D01*
X53234Y-20570D01*
X53361Y-20570D01*
X53219Y-20628D01*
X53192Y-20722D01*
X53500Y-21029D01*
X53808Y-20722D01*
X53781Y-20628D01*
X53615Y-20570D01*
X53834Y-20570D01*
X53896Y-20544D01*
X53944Y-20496D01*
X53970Y-20434D01*
X53970Y-20818D01*
X53878Y-20792D01*
X53571Y-21100D01*
X53878Y-21408D01*
X53972Y-21381D01*
X53997Y-21307D01*
X54028Y-21381D01*
X54122Y-21408D01*
X54429Y-21100D01*
X54429Y-21241D01*
X54192Y-21478D01*
X54219Y-21572D01*
X54396Y-21634D01*
X54234Y-21701D01*
X54102Y-21833D01*
X54030Y-22006D01*
X54030Y-22193D01*
X54101Y-22366D01*
X54233Y-22498D01*
X54406Y-22570D01*
X54593Y-22570D01*
X54766Y-22499D01*
X54898Y-22367D01*
X54970Y-22194D01*
X54970Y-22932D01*
X54933Y-22948D01*
X54910Y-23039D01*
X55200Y-23329D01*
X55490Y-23039D01*
X55490Y-23181D01*
X55271Y-23400D01*
X55561Y-23690D01*
X55652Y-23667D01*
X55719Y-23474D01*
X55719Y-24153D01*
X55624Y-24248D01*
X55556Y-24411D01*
X55556Y-24588D01*
X55623Y-24751D01*
X55748Y-24876D01*
X55911Y-24944D01*
X56088Y-24944D01*
X56251Y-24877D01*
X56376Y-24752D01*
X56444Y-24589D01*
X56444Y-27412D01*
X56377Y-27249D01*
X56252Y-27124D01*
X56089Y-27056D01*
X55912Y-27056D01*
X55749Y-27123D01*
X55624Y-27248D01*
X55556Y-27411D01*
X55556Y-27588D01*
X55623Y-27751D01*
X55748Y-27876D01*
X55911Y-27944D01*
X56088Y-27944D01*
X56251Y-27877D01*
X56376Y-27752D01*
X56444Y-27589D01*
X56444Y-28349D01*
X56339Y-28306D01*
X56162Y-28306D01*
X55999Y-28373D01*
X55874Y-28498D01*
X55806Y-28661D01*
X55806Y-28838D01*
X55873Y-29001D01*
X55998Y-29126D01*
X56161Y-29194D01*
X56338Y-29194D01*
X56501Y-29127D01*
X56626Y-29002D01*
X56694Y-28839D01*
X56694Y-29581D01*
X56219Y-29581D01*
X55769Y-29767D01*
X55769Y-28824D01*
X55758Y-28620D01*
X55702Y-28483D01*
X55611Y-28460D01*
X55540Y-28531D01*
X55540Y-28389D01*
X55517Y-28298D01*
X55490Y-28288D01*
X55490Y-23761D01*
X55200Y-23471D01*
X55129Y-23542D01*
X55129Y-23400D01*
X54839Y-23110D01*
X54748Y-23133D01*
X54681Y-23326D01*
X54692Y-23530D01*
X54748Y-23667D01*
X54839Y-23690D01*
X55129Y-23400D01*
X55129Y-23542D01*
X54910Y-23761D01*
X54933Y-23852D01*
X55126Y-23919D01*
X55330Y-23908D01*
X55467Y-23852D01*
X55490Y-23761D01*
X55490Y-28288D01*
X55444Y-28272D01*
X55444Y-27589D01*
X55444Y-27412D01*
X55444Y-24589D01*
X55444Y-24412D01*
X55377Y-24249D01*
X55252Y-24124D01*
X55089Y-24056D01*
X54912Y-24056D01*
X54749Y-24123D01*
X54644Y-24228D01*
X54644Y-23489D01*
X54644Y-23312D01*
X54577Y-23149D01*
X54452Y-23024D01*
X54289Y-22956D01*
X54112Y-22956D01*
X53970Y-23014D01*
X53970Y-22194D01*
X53970Y-22007D01*
X53899Y-21834D01*
X53767Y-21702D01*
X53602Y-21633D01*
X53634Y-21632D01*
X53781Y-21572D01*
X53808Y-21478D01*
X53500Y-21171D01*
X53429Y-21241D01*
X53429Y-21100D01*
X53122Y-20792D01*
X53028Y-20819D01*
X53002Y-20892D01*
X52972Y-20819D01*
X52970Y-20818D01*
X52970Y-20434D01*
X52970Y-20366D01*
X52970Y-19766D01*
X52944Y-19704D01*
X52896Y-19656D01*
X52834Y-19630D01*
X52766Y-19630D01*
X52166Y-19630D01*
X52104Y-19656D01*
X52056Y-19704D01*
X52030Y-19766D01*
X52030Y-19834D01*
X52030Y-20434D01*
X52056Y-20496D01*
X52104Y-20544D01*
X52166Y-20570D01*
X52234Y-20570D01*
X52361Y-20570D01*
X52219Y-20628D01*
X52192Y-20722D01*
X52500Y-21029D01*
X52808Y-20722D01*
X52781Y-20628D01*
X52615Y-20570D01*
X52834Y-20570D01*
X52896Y-20544D01*
X52944Y-20496D01*
X52970Y-20434D01*
X52970Y-20818D01*
X52878Y-20792D01*
X52571Y-21100D01*
X52878Y-21408D01*
X52972Y-21381D01*
X52997Y-21307D01*
X53028Y-21381D01*
X53122Y-21408D01*
X53429Y-21100D01*
X53429Y-21241D01*
X53192Y-21478D01*
X53219Y-21572D01*
X53396Y-21634D01*
X53234Y-21701D01*
X53102Y-21833D01*
X53030Y-22006D01*
X53030Y-22193D01*
X53101Y-22366D01*
X53233Y-22498D01*
X53406Y-22570D01*
X53593Y-22570D01*
X53766Y-22499D01*
X53898Y-22367D01*
X53970Y-22194D01*
X53970Y-23014D01*
X53949Y-23023D01*
X53824Y-23148D01*
X53756Y-23311D01*
X53756Y-23488D01*
X53823Y-23651D01*
X53948Y-23776D01*
X54111Y-23844D01*
X54288Y-23844D01*
X54451Y-23777D01*
X54576Y-23652D01*
X54644Y-23489D01*
X54644Y-24228D01*
X54624Y-24248D01*
X54556Y-24411D01*
X54556Y-24588D01*
X54623Y-24751D01*
X54748Y-24876D01*
X54911Y-24944D01*
X55088Y-24944D01*
X55251Y-24877D01*
X55376Y-24752D01*
X55444Y-24589D01*
X55444Y-27412D01*
X55377Y-27249D01*
X55252Y-27124D01*
X55089Y-27056D01*
X54912Y-27056D01*
X54749Y-27123D01*
X54624Y-27248D01*
X54556Y-27411D01*
X54556Y-27588D01*
X54623Y-27751D01*
X54748Y-27876D01*
X54911Y-27944D01*
X55088Y-27944D01*
X55251Y-27877D01*
X55376Y-27752D01*
X55444Y-27589D01*
X55444Y-28272D01*
X55324Y-28231D01*
X55120Y-28242D01*
X54983Y-28298D01*
X54960Y-28389D01*
X55250Y-28679D01*
X55540Y-28389D01*
X55540Y-28531D01*
X55321Y-28750D01*
X55611Y-29040D01*
X55702Y-29017D01*
X55769Y-28824D01*
X55769Y-29767D01*
X55697Y-29797D01*
X55540Y-29953D01*
X55540Y-29111D01*
X55250Y-28821D01*
X55179Y-28892D01*
X55179Y-28750D01*
X54889Y-28460D01*
X54798Y-28483D01*
X54731Y-28676D01*
X54742Y-28880D01*
X54798Y-29017D01*
X54889Y-29040D01*
X55179Y-28750D01*
X55179Y-28892D01*
X54960Y-29111D01*
X54983Y-29202D01*
X55176Y-29269D01*
X55380Y-29258D01*
X55517Y-29202D01*
X55540Y-29111D01*
X55540Y-29953D01*
X55298Y-30195D01*
X55081Y-30717D01*
X55081Y-31281D01*
X55297Y-31803D01*
X55695Y-32202D01*
X55810Y-32250D01*
X55043Y-32250D01*
X55043Y-31079D01*
X55032Y-30866D01*
X54972Y-30719D01*
X54970Y-30718D01*
X54970Y-30094D01*
X54970Y-29907D01*
X54899Y-29734D01*
X54767Y-29602D01*
X54694Y-29571D01*
X54694Y-28839D01*
X54694Y-28662D01*
X54627Y-28499D01*
X54502Y-28374D01*
X54444Y-28349D01*
X54444Y-27589D01*
X54444Y-27412D01*
X54444Y-24589D01*
X54444Y-24412D01*
X54377Y-24249D01*
X54252Y-24124D01*
X54089Y-24056D01*
X53912Y-24056D01*
X53749Y-24123D01*
X53644Y-24228D01*
X53644Y-23489D01*
X53644Y-23312D01*
X53577Y-23149D01*
X53452Y-23024D01*
X53289Y-22956D01*
X53112Y-22956D01*
X52970Y-23014D01*
X52970Y-22194D01*
X52970Y-22007D01*
X52899Y-21834D01*
X52767Y-21702D01*
X52602Y-21633D01*
X52634Y-21632D01*
X52781Y-21572D01*
X52808Y-21478D01*
X52500Y-21171D01*
X52429Y-21241D01*
X52429Y-21100D01*
X52122Y-20792D01*
X52028Y-20819D01*
X51957Y-21021D01*
X51968Y-21234D01*
X52028Y-21381D01*
X52122Y-21408D01*
X52429Y-21100D01*
X52429Y-21241D01*
X52192Y-21478D01*
X52219Y-21572D01*
X52396Y-21634D01*
X52234Y-21701D01*
X52102Y-21833D01*
X52030Y-22006D01*
X52030Y-22193D01*
X52101Y-22366D01*
X52233Y-22498D01*
X52406Y-22570D01*
X52593Y-22570D01*
X52766Y-22499D01*
X52898Y-22367D01*
X52970Y-22194D01*
X52970Y-23014D01*
X52949Y-23023D01*
X52824Y-23148D01*
X52756Y-23311D01*
X52756Y-23488D01*
X52823Y-23651D01*
X52948Y-23776D01*
X53111Y-23844D01*
X53288Y-23844D01*
X53451Y-23777D01*
X53576Y-23652D01*
X53644Y-23489D01*
X53644Y-24228D01*
X53624Y-24248D01*
X53556Y-24411D01*
X53556Y-24588D01*
X53623Y-24751D01*
X53748Y-24876D01*
X53911Y-24944D01*
X54088Y-24944D01*
X54251Y-24877D01*
X54376Y-24752D01*
X54444Y-24589D01*
X54444Y-27412D01*
X54377Y-27249D01*
X54252Y-27124D01*
X54089Y-27056D01*
X53912Y-27056D01*
X53749Y-27123D01*
X53624Y-27248D01*
X53556Y-27411D01*
X53556Y-27588D01*
X53623Y-27751D01*
X53748Y-27876D01*
X53911Y-27944D01*
X54088Y-27944D01*
X54251Y-27877D01*
X54376Y-27752D01*
X54444Y-27589D01*
X54444Y-28349D01*
X54339Y-28306D01*
X54162Y-28306D01*
X53999Y-28373D01*
X53874Y-28498D01*
X53806Y-28661D01*
X53806Y-28838D01*
X53873Y-29001D01*
X53998Y-29126D01*
X54161Y-29194D01*
X54338Y-29194D01*
X54501Y-29127D01*
X54626Y-29002D01*
X54694Y-28839D01*
X54694Y-29571D01*
X54594Y-29530D01*
X54407Y-29530D01*
X54234Y-29601D01*
X54102Y-29733D01*
X54030Y-29906D01*
X54030Y-30093D01*
X54101Y-30266D01*
X54233Y-30398D01*
X54397Y-30466D01*
X54366Y-30468D01*
X54219Y-30528D01*
X54192Y-30622D01*
X54500Y-30929D01*
X54808Y-30622D01*
X54781Y-30528D01*
X54603Y-30465D01*
X54766Y-30399D01*
X54898Y-30267D01*
X54970Y-30094D01*
X54970Y-30718D01*
X54878Y-30692D01*
X54571Y-31000D01*
X54878Y-31308D01*
X54972Y-31281D01*
X55043Y-31079D01*
X55043Y-32250D01*
X54970Y-32250D01*
X54970Y-31666D01*
X54944Y-31604D01*
X54896Y-31556D01*
X54834Y-31530D01*
X54766Y-31530D01*
X54638Y-31530D01*
X54781Y-31472D01*
X54808Y-31378D01*
X54500Y-31071D01*
X54429Y-31141D01*
X54429Y-31000D01*
X54122Y-30692D01*
X54028Y-30719D01*
X54002Y-30792D01*
X53972Y-30719D01*
X53970Y-30718D01*
X53970Y-30094D01*
X53970Y-29907D01*
X53899Y-29734D01*
X53769Y-29604D01*
X53769Y-28824D01*
X53758Y-28620D01*
X53702Y-28483D01*
X53611Y-28460D01*
X53540Y-28531D01*
X53540Y-28389D01*
X53519Y-28305D01*
X53519Y-24574D01*
X53508Y-24370D01*
X53452Y-24233D01*
X53361Y-24210D01*
X53290Y-24281D01*
X53290Y-24139D01*
X53267Y-24048D01*
X53074Y-23981D01*
X52870Y-23992D01*
X52733Y-24048D01*
X52719Y-24103D01*
X52719Y-23474D01*
X52708Y-23270D01*
X52652Y-23133D01*
X52561Y-23110D01*
X52490Y-23181D01*
X52490Y-23039D01*
X52467Y-22948D01*
X52274Y-22881D01*
X52070Y-22892D01*
X51933Y-22948D01*
X51910Y-23039D01*
X52200Y-23329D01*
X52490Y-23039D01*
X52490Y-23181D01*
X52271Y-23400D01*
X52561Y-23690D01*
X52652Y-23667D01*
X52719Y-23474D01*
X52719Y-24103D01*
X52710Y-24139D01*
X53000Y-24429D01*
X53290Y-24139D01*
X53290Y-24281D01*
X53071Y-24500D01*
X53361Y-24790D01*
X53452Y-24767D01*
X53519Y-24574D01*
X53519Y-28305D01*
X53517Y-28298D01*
X53445Y-28273D01*
X53445Y-27809D01*
X53445Y-27741D01*
X53445Y-27191D01*
X53419Y-27129D01*
X53371Y-27081D01*
X53309Y-27055D01*
X53290Y-27055D01*
X53290Y-24861D01*
X53000Y-24571D01*
X52929Y-24642D01*
X52929Y-24500D01*
X52639Y-24210D01*
X52548Y-24233D01*
X52490Y-24400D01*
X52490Y-23761D01*
X52200Y-23471D01*
X52129Y-23542D01*
X52129Y-23400D01*
X51839Y-23110D01*
X51748Y-23133D01*
X51681Y-23326D01*
X51692Y-23530D01*
X51748Y-23667D01*
X51839Y-23690D01*
X52129Y-23400D01*
X52129Y-23542D01*
X51910Y-23761D01*
X51933Y-23852D01*
X52126Y-23919D01*
X52330Y-23908D01*
X52467Y-23852D01*
X52490Y-23761D01*
X52490Y-24400D01*
X52481Y-24426D01*
X52492Y-24630D01*
X52548Y-24767D01*
X52639Y-24790D01*
X52929Y-24500D01*
X52929Y-24642D01*
X52710Y-24861D01*
X52733Y-24952D01*
X52926Y-25019D01*
X53130Y-25008D01*
X53267Y-24952D01*
X53290Y-24861D01*
X53290Y-27055D01*
X53241Y-27055D01*
X52691Y-27055D01*
X52629Y-27081D01*
X52581Y-27129D01*
X52555Y-27191D01*
X52555Y-27259D01*
X52555Y-27809D01*
X52581Y-27871D01*
X52629Y-27919D01*
X52691Y-27945D01*
X52759Y-27945D01*
X53309Y-27945D01*
X53371Y-27919D01*
X53419Y-27871D01*
X53445Y-27809D01*
X53445Y-28273D01*
X53324Y-28231D01*
X53120Y-28242D01*
X52983Y-28298D01*
X52960Y-28389D01*
X53250Y-28679D01*
X53540Y-28389D01*
X53540Y-28531D01*
X53321Y-28750D01*
X53611Y-29040D01*
X53702Y-29017D01*
X53769Y-28824D01*
X53769Y-29604D01*
X53767Y-29602D01*
X53594Y-29530D01*
X53540Y-29530D01*
X53540Y-29111D01*
X53250Y-28821D01*
X53179Y-28892D01*
X53179Y-28750D01*
X52889Y-28460D01*
X52798Y-28483D01*
X52731Y-28676D01*
X52742Y-28880D01*
X52798Y-29017D01*
X52889Y-29040D01*
X53179Y-28750D01*
X53179Y-28892D01*
X52960Y-29111D01*
X52983Y-29202D01*
X53176Y-29269D01*
X53380Y-29258D01*
X53517Y-29202D01*
X53540Y-29111D01*
X53540Y-29530D01*
X53407Y-29530D01*
X53234Y-29601D01*
X53102Y-29733D01*
X53030Y-29906D01*
X53030Y-30093D01*
X53101Y-30266D01*
X53233Y-30398D01*
X53397Y-30466D01*
X53366Y-30468D01*
X53219Y-30528D01*
X53192Y-30622D01*
X53500Y-30929D01*
X53808Y-30622D01*
X53781Y-30528D01*
X53603Y-30465D01*
X53766Y-30399D01*
X53898Y-30267D01*
X53970Y-30094D01*
X53970Y-30718D01*
X53878Y-30692D01*
X53571Y-31000D01*
X53878Y-31308D01*
X53972Y-31281D01*
X53997Y-31207D01*
X54028Y-31281D01*
X54122Y-31308D01*
X54429Y-31000D01*
X54429Y-31141D01*
X54192Y-31378D01*
X54219Y-31472D01*
X54384Y-31530D01*
X54166Y-31530D01*
X54104Y-31556D01*
X54056Y-31604D01*
X54030Y-31666D01*
X54030Y-31734D01*
X54030Y-32250D01*
X53970Y-32250D01*
X53970Y-31666D01*
X53944Y-31604D01*
X53896Y-31556D01*
X53834Y-31530D01*
X53766Y-31530D01*
X53638Y-31530D01*
X53781Y-31472D01*
X53808Y-31378D01*
X53500Y-31071D01*
X53192Y-31378D01*
X53219Y-31472D01*
X53384Y-31530D01*
X53166Y-31530D01*
X53104Y-31556D01*
X53056Y-31604D01*
X53030Y-31666D01*
X53030Y-31734D01*
X53030Y-32250D01*
X52970Y-32250D01*
X52970Y-31666D01*
X52944Y-31604D01*
X52896Y-31556D01*
X52834Y-31530D01*
X52766Y-31530D01*
X52166Y-31530D01*
X52104Y-31556D01*
X52056Y-31604D01*
X52030Y-31666D01*
X52030Y-31734D01*
X52030Y-32250D01*
X51189Y-32250D01*
X51303Y-32203D01*
X51702Y-31805D01*
X51919Y-31283D01*
X51919Y-30719D01*
X51916Y-30712D01*
X52053Y-30849D01*
X52030Y-30906D01*
X52030Y-31093D01*
X52101Y-31266D01*
X52233Y-31398D01*
X52406Y-31470D01*
X52593Y-31470D01*
X52766Y-31399D01*
X52898Y-31267D01*
X52966Y-31102D01*
X52968Y-31134D01*
X53028Y-31281D01*
X53122Y-31308D01*
X53429Y-31000D01*
X53122Y-30692D01*
X53028Y-30719D01*
X52965Y-30896D01*
X52899Y-30734D01*
X52767Y-30602D01*
X52594Y-30530D01*
X52407Y-30530D01*
X52349Y-30553D01*
X52110Y-30313D01*
X52110Y-30275D01*
X52233Y-30398D01*
X52406Y-30470D01*
X52593Y-30470D01*
X52766Y-30399D01*
X52898Y-30267D01*
X52970Y-30094D01*
X52970Y-29907D01*
X52899Y-29734D01*
X52767Y-29602D01*
X52710Y-29578D01*
X52710Y-29500D01*
X52694Y-29420D01*
X52693Y-29419D01*
X52678Y-29397D01*
X52648Y-29352D01*
X52648Y-29351D01*
X52460Y-29163D01*
X52460Y-29143D01*
X52501Y-29127D01*
X52626Y-29002D01*
X52694Y-28839D01*
X52694Y-28662D01*
X52627Y-28499D01*
X52502Y-28374D01*
X52339Y-28306D01*
X52162Y-28306D01*
X51999Y-28373D01*
X51874Y-28498D01*
X51806Y-28661D01*
X51806Y-28838D01*
X51873Y-29001D01*
X51998Y-29126D01*
X52040Y-29143D01*
X52040Y-29250D01*
X52053Y-29317D01*
X52056Y-29331D01*
X52102Y-29398D01*
X52283Y-29580D01*
X52234Y-29601D01*
X52102Y-29733D01*
X52030Y-29906D01*
X52030Y-30033D01*
X51426Y-29430D01*
X51444Y-29389D01*
X51444Y-29273D01*
X51606Y-29110D01*
X51608Y-29109D01*
X51609Y-29109D01*
X51672Y-29014D01*
X51673Y-29013D01*
X51695Y-28900D01*
X51695Y-28844D01*
X51696Y-28844D01*
X51744Y-28796D01*
X51770Y-28734D01*
X51770Y-28666D01*
X51770Y-27866D01*
X51744Y-27804D01*
X51696Y-27756D01*
X51634Y-27730D01*
X51566Y-27730D01*
X51470Y-27730D01*
X51470Y-25812D01*
X51470Y-25588D01*
X51469Y-25349D01*
X51469Y-25250D01*
X51444Y-25190D01*
X51444Y-24689D01*
X51444Y-24512D01*
X51444Y-23089D01*
X51444Y-22912D01*
X51377Y-22749D01*
X51252Y-22624D01*
X51089Y-22556D01*
X50912Y-22556D01*
X50749Y-22623D01*
X50624Y-22748D01*
X50556Y-22911D01*
X50556Y-23088D01*
X50623Y-23251D01*
X50748Y-23376D01*
X50911Y-23444D01*
X51088Y-23444D01*
X51251Y-23377D01*
X51376Y-23252D01*
X51444Y-23089D01*
X51444Y-24512D01*
X51377Y-24349D01*
X51252Y-24224D01*
X51089Y-24156D01*
X50912Y-24156D01*
X50749Y-24223D01*
X50624Y-24348D01*
X50556Y-24511D01*
X50556Y-24688D01*
X50623Y-24851D01*
X50748Y-24976D01*
X50911Y-25044D01*
X51088Y-25044D01*
X51251Y-24977D01*
X51376Y-24852D01*
X51444Y-24689D01*
X51444Y-25190D01*
X51431Y-25159D01*
X51361Y-25089D01*
X51269Y-25051D01*
X50612Y-25050D01*
X50550Y-25112D01*
X50550Y-25650D01*
X51408Y-25650D01*
X51470Y-25588D01*
X51470Y-25812D01*
X51408Y-25750D01*
X50550Y-25750D01*
X50550Y-26288D01*
X50612Y-26350D01*
X51269Y-26349D01*
X51361Y-26311D01*
X51431Y-26241D01*
X51469Y-26150D01*
X51469Y-26051D01*
X51470Y-25812D01*
X51470Y-27730D01*
X51166Y-27730D01*
X51104Y-27756D01*
X51056Y-27804D01*
X51030Y-27866D01*
X51030Y-27934D01*
X51030Y-28734D01*
X51056Y-28796D01*
X51071Y-28811D01*
X51026Y-28856D01*
X50912Y-28856D01*
X50884Y-28867D01*
X50911Y-28841D01*
X50949Y-28750D01*
X50949Y-28651D01*
X50950Y-28412D01*
X50950Y-28188D01*
X50949Y-27949D01*
X50949Y-27850D01*
X50911Y-27759D01*
X50841Y-27689D01*
X50749Y-27651D01*
X50612Y-27650D01*
X50550Y-27712D01*
X50550Y-28250D01*
X50888Y-28250D01*
X50950Y-28188D01*
X50950Y-28412D01*
X50888Y-28350D01*
X50550Y-28350D01*
X50550Y-28888D01*
X50612Y-28950D01*
X50722Y-28949D01*
X50624Y-29048D01*
X50556Y-29211D01*
X50556Y-29388D01*
X50623Y-29551D01*
X50653Y-29581D01*
X50525Y-29581D01*
X50525Y-23112D01*
X50525Y-22888D01*
X50524Y-22774D01*
X50524Y-22675D01*
X50486Y-22584D01*
X50416Y-22514D01*
X50324Y-22476D01*
X50112Y-22475D01*
X50050Y-22537D01*
X50050Y-22950D01*
X50463Y-22950D01*
X50525Y-22888D01*
X50525Y-23112D01*
X50463Y-23050D01*
X50050Y-23050D01*
X50050Y-23463D01*
X50112Y-23525D01*
X50324Y-23524D01*
X50416Y-23486D01*
X50486Y-23416D01*
X50524Y-23325D01*
X50524Y-23226D01*
X50525Y-23112D01*
X50525Y-29581D01*
X50347Y-29581D01*
X50376Y-29552D01*
X50444Y-29389D01*
X50444Y-29212D01*
X50377Y-29049D01*
X50277Y-28949D01*
X50388Y-28950D01*
X50450Y-28888D01*
X50450Y-28350D01*
X50450Y-28250D01*
X50450Y-27712D01*
X50450Y-26288D01*
X50450Y-25750D01*
X50450Y-25650D01*
X50450Y-25112D01*
X50444Y-25106D01*
X50444Y-24689D01*
X50444Y-24512D01*
X50377Y-24349D01*
X50252Y-24224D01*
X50089Y-24156D01*
X49950Y-24156D01*
X49950Y-23463D01*
X49950Y-23050D01*
X49950Y-22950D01*
X49950Y-22537D01*
X49888Y-22475D01*
X49676Y-22476D01*
X49584Y-22514D01*
X49514Y-22584D01*
X49476Y-22675D01*
X49476Y-22774D01*
X49475Y-22888D01*
X49537Y-22950D01*
X49950Y-22950D01*
X49950Y-23050D01*
X49537Y-23050D01*
X49475Y-23112D01*
X49476Y-23226D01*
X49476Y-23325D01*
X49514Y-23416D01*
X49584Y-23486D01*
X49676Y-23524D01*
X49888Y-23525D01*
X49950Y-23463D01*
X49950Y-24156D01*
X49912Y-24156D01*
X49749Y-24223D01*
X49624Y-24348D01*
X49556Y-24511D01*
X49556Y-24688D01*
X49623Y-24851D01*
X49748Y-24976D01*
X49911Y-25044D01*
X50088Y-25044D01*
X50251Y-24977D01*
X50376Y-24852D01*
X50444Y-24689D01*
X50444Y-25106D01*
X50388Y-25050D01*
X49731Y-25051D01*
X49639Y-25089D01*
X49569Y-25159D01*
X49531Y-25250D01*
X49531Y-25349D01*
X49530Y-25588D01*
X49592Y-25650D01*
X50450Y-25650D01*
X50450Y-25750D01*
X49592Y-25750D01*
X49530Y-25812D01*
X49531Y-26051D01*
X49531Y-26150D01*
X49569Y-26241D01*
X49639Y-26311D01*
X49731Y-26349D01*
X50388Y-26350D01*
X50450Y-26288D01*
X50450Y-27712D01*
X50388Y-27650D01*
X50251Y-27651D01*
X50159Y-27689D01*
X50089Y-27759D01*
X50051Y-27850D01*
X50051Y-27949D01*
X50050Y-28188D01*
X50112Y-28250D01*
X50450Y-28250D01*
X50450Y-28350D01*
X50112Y-28350D01*
X50050Y-28412D01*
X50051Y-28651D01*
X50051Y-28750D01*
X50089Y-28841D01*
X50114Y-28866D01*
X50089Y-28856D01*
X49973Y-28856D01*
X49928Y-28811D01*
X49944Y-28796D01*
X49970Y-28734D01*
X49970Y-28666D01*
X49970Y-27866D01*
X49944Y-27804D01*
X49896Y-27756D01*
X49834Y-27730D01*
X49766Y-27730D01*
X49366Y-27730D01*
X49304Y-27756D01*
X49256Y-27804D01*
X49250Y-27818D01*
X49250Y-21289D01*
X49297Y-21403D01*
X49695Y-21802D01*
X50217Y-22019D01*
X50781Y-22019D01*
X51303Y-21803D01*
X51702Y-21405D01*
X51919Y-20883D01*
X51919Y-20319D01*
X51703Y-19797D01*
X51305Y-19398D01*
X51189Y-19350D01*
X55810Y-19350D01*
X55697Y-19397D01*
X55298Y-19795D01*
X55081Y-20317D01*
X55081Y-20881D01*
X55297Y-21403D01*
X55695Y-21802D01*
X56217Y-22019D01*
X56781Y-22019D01*
X57303Y-21803D01*
X57702Y-21405D01*
X57750Y-21289D01*
X57750Y-25232D01*
X57719Y-25224D01*
X57719Y-23474D01*
X57708Y-23270D01*
X57652Y-23133D01*
X57561Y-23110D01*
X57490Y-23181D01*
X57490Y-23039D01*
X57467Y-22948D01*
X57274Y-22881D01*
X57070Y-22892D01*
X56933Y-22948D01*
X56910Y-23039D01*
X57200Y-23329D01*
X57490Y-23039D01*
X57490Y-23181D01*
X57271Y-23400D01*
X57561Y-23690D01*
X57652Y-23667D01*
X57719Y-23474D01*
X57719Y-25224D01*
X57661Y-25210D01*
X57590Y-25281D01*
X57590Y-25139D01*
X57567Y-25048D01*
X57490Y-25021D01*
X57490Y-23761D01*
X57200Y-23471D01*
X57129Y-23542D01*
X57129Y-23400D01*
X56839Y-23110D01*
X56748Y-23133D01*
X56681Y-23326D01*
X56692Y-23530D01*
X56748Y-23667D01*
X56839Y-23690D01*
X57129Y-23400D01*
X57129Y-23542D01*
X56910Y-23761D01*
X56933Y-23852D01*
X57126Y-23919D01*
X57330Y-23908D01*
X57467Y-23852D01*
X57490Y-23761D01*
X57490Y-25021D01*
X57374Y-24981D01*
X57170Y-24992D01*
X57033Y-25048D01*
X57010Y-25139D01*
X57300Y-25429D01*
X57590Y-25139D01*
X57590Y-25281D01*
X57371Y-25500D01*
X57661Y-25790D01*
X57750Y-25767D01*
X57750Y-28600D01*
X57744Y-28585D01*
X57744Y-26589D01*
X57744Y-26412D01*
X57677Y-26249D01*
X57590Y-26162D01*
X57590Y-25861D01*
X57300Y-25571D01*
X57229Y-25642D01*
X57229Y-25500D01*
X56939Y-25210D01*
X56848Y-25233D01*
X56781Y-25426D01*
X56792Y-25630D01*
X56848Y-25767D01*
X56939Y-25790D01*
X57229Y-25500D01*
X57229Y-25642D01*
X57010Y-25861D01*
X57033Y-25952D01*
X57226Y-26019D01*
X57430Y-26008D01*
X57567Y-25952D01*
X57590Y-25861D01*
X57590Y-26162D01*
X57552Y-26124D01*
X57389Y-26056D01*
X57212Y-26056D01*
X57049Y-26123D01*
X56924Y-26248D01*
X56856Y-26411D01*
X56856Y-26588D01*
X56923Y-26751D01*
X57048Y-26876D01*
X57211Y-26944D01*
X57388Y-26944D01*
X57551Y-26877D01*
X57676Y-26752D01*
X57744Y-26589D01*
X57744Y-28585D01*
X57702Y-28483D01*
X57611Y-28460D01*
X57540Y-28531D01*
X57540Y-28389D01*
X57517Y-28298D01*
X57324Y-28231D01*
X57120Y-28242D01*
X56983Y-28298D01*
X56960Y-28389D01*
X57250Y-28679D01*
X57540Y-28389D01*
X57540Y-28531D01*
X57321Y-28750D01*
X57611Y-29040D01*
X57702Y-29017D01*
X57750Y-28878D01*
X57750Y-30310D01*
M02*
