G04 #@! TF.FileFunction,Copper,L1,Top,Signal*
%FSLAX46Y46*%
G04 Gerber Fmt 4.6, Leading zero omitted, Abs format (unit mm)*
G04 Created by KiCad (PCBNEW (2015-04-05 BZR 5577)-product) date 08/04/2015 15:36:37*
%MOMM*%
G01*
G04 APERTURE LIST*
%ADD10C,0.100000*%
%ADD11R,1.350000X0.400000*%
%ADD12O,2.286000X1.524000*%
%ADD13R,1.778000X1.778000*%
%ADD14C,1.778000*%
%ADD15R,1.727200X1.727200*%
%ADD16O,1.727200X1.727200*%
%ADD17R,1.600200X2.199640*%
%ADD18R,1.198880X1.198880*%
%ADD19R,1.500000X1.300000*%
%ADD20R,1.250000X1.500000*%
%ADD21C,0.400000*%
%ADD22C,0.254000*%
G04 APERTURE END LIST*
D10*
D11*
X146050000Y-113284000D03*
X146050000Y-112634000D03*
X146050000Y-111984000D03*
X146050000Y-111334000D03*
X146050000Y-110684000D03*
D12*
X146050000Y-114484000D03*
X146050000Y-109484000D03*
X148750000Y-115484000D03*
X148750000Y-108484000D03*
D13*
X139192000Y-99314000D03*
D14*
X141732000Y-99314000D03*
X144272000Y-99314000D03*
X139192000Y-104165400D03*
X141732000Y-104165400D03*
X144272000Y-104165400D03*
D15*
X139192000Y-121412000D03*
D16*
X139192000Y-118872000D03*
X141732000Y-121412000D03*
X141732000Y-118872000D03*
X144272000Y-121412000D03*
X144272000Y-118872000D03*
D17*
X142240000Y-110975140D03*
X142240000Y-107972860D03*
D18*
X138938000Y-113504980D03*
X138938000Y-115603020D03*
D19*
X143336000Y-113538000D03*
X140636000Y-113538000D03*
X143336000Y-115570000D03*
X140636000Y-115570000D03*
D20*
X139446000Y-110724000D03*
X139446000Y-108224000D03*
D21*
X142240000Y-110975140D02*
X139697140Y-110975140D01*
X139697140Y-110975140D02*
X139446000Y-110724000D01*
X142240000Y-110975140D02*
X142240000Y-112442000D01*
X142240000Y-112442000D02*
X143336000Y-113538000D01*
X146050000Y-113284000D02*
X143590000Y-113284000D01*
X143590000Y-113284000D02*
X143336000Y-113538000D01*
X137684559Y-113504981D02*
X137684559Y-105672841D01*
X137684559Y-105672841D02*
X139192000Y-104165400D01*
X138684000Y-113504980D02*
X137684559Y-113504981D01*
X137684559Y-113504981D02*
X137684559Y-117364559D01*
X137684559Y-117364559D02*
X139192000Y-118872000D01*
X138684000Y-113504980D02*
X140602980Y-113504980D01*
X140602980Y-113504980D02*
X140636000Y-113538000D01*
X146050000Y-110684000D02*
X146050000Y-109484000D01*
X141988860Y-108224000D02*
X142240000Y-107972860D01*
X138684000Y-115603020D02*
X140602980Y-115603020D01*
X140602980Y-115603020D02*
X140636000Y-115570000D01*
X139192000Y-100603000D02*
X139192000Y-99314000D01*
X136051990Y-103743010D02*
X139192000Y-100603000D01*
X136051990Y-119535590D02*
X136051990Y-103743010D01*
X137928400Y-121412000D02*
X136051990Y-119535590D01*
X139192000Y-121412000D02*
X137928400Y-121412000D01*
X140442999Y-98024999D02*
X140843001Y-98425001D01*
X141732000Y-121412000D02*
X140462000Y-122682000D01*
X140462000Y-122682000D02*
X140208000Y-122682000D01*
X140208000Y-122682000D02*
X140201601Y-122675601D01*
X140201601Y-122675601D02*
X138008399Y-122675601D01*
X138008399Y-122675601D02*
X135451980Y-120119182D01*
X135451980Y-120119182D02*
X135451980Y-100556018D01*
X135451980Y-100556018D02*
X137982999Y-98024999D01*
X137982999Y-98024999D02*
X140442999Y-98024999D01*
X140843001Y-98425001D02*
X141732000Y-99314000D01*
X136652000Y-118202130D02*
X136652000Y-104797678D01*
X136652000Y-104797678D02*
X138573279Y-102876399D01*
X138573279Y-102876399D02*
X140442999Y-102876399D01*
X140442999Y-102876399D02*
X140843001Y-103276401D01*
X140843001Y-103276401D02*
X141732000Y-104165400D01*
X141732000Y-118872000D02*
X140468399Y-120135601D01*
X140468399Y-120135601D02*
X138585471Y-120135601D01*
X138585471Y-120135601D02*
X136652000Y-118202130D01*
X134851971Y-100307485D02*
X137734467Y-97424989D01*
X137766265Y-123282009D02*
X134851970Y-120367714D01*
X143383001Y-98425001D02*
X144272000Y-99314000D01*
X142382989Y-97424989D02*
X143383001Y-98425001D01*
X137734467Y-97424989D02*
X142382989Y-97424989D01*
X134851970Y-120367714D02*
X134851971Y-100307485D01*
X144272000Y-121412000D02*
X142401991Y-123282009D01*
X142401991Y-123282009D02*
X137766265Y-123282009D01*
D22*
G36*
X149429000Y-121344532D02*
X149256063Y-122213943D01*
X148801798Y-122893798D01*
X148121943Y-123348063D01*
X147252532Y-123521000D01*
X143343867Y-123521000D01*
X143982495Y-122882372D01*
X144272000Y-122939959D01*
X144845489Y-122825885D01*
X145331670Y-122501029D01*
X145656526Y-122014848D01*
X145770600Y-121441359D01*
X145770600Y-121382641D01*
X145656526Y-120809152D01*
X145331670Y-120322971D01*
X145060839Y-120142007D01*
X145478821Y-119760490D01*
X145726968Y-119231027D01*
X145726968Y-118512973D01*
X145478821Y-117983510D01*
X145046947Y-117589312D01*
X144721000Y-117454308D01*
X144721000Y-116346310D01*
X144721000Y-116093691D01*
X144721000Y-115855750D01*
X144562250Y-115697000D01*
X143463000Y-115697000D01*
X143463000Y-116696250D01*
X143621750Y-116855000D01*
X144212309Y-116855000D01*
X144445698Y-116758327D01*
X144624327Y-116579699D01*
X144721000Y-116346310D01*
X144721000Y-117454308D01*
X144631026Y-117417042D01*
X144399000Y-117538183D01*
X144399000Y-118745000D01*
X145606469Y-118745000D01*
X145726968Y-118512973D01*
X145726968Y-119231027D01*
X145606469Y-118999000D01*
X144399000Y-118999000D01*
X144399000Y-119019000D01*
X144145000Y-119019000D01*
X144145000Y-118999000D01*
X144125000Y-118999000D01*
X144125000Y-118745000D01*
X144145000Y-118745000D01*
X144145000Y-117538183D01*
X143912974Y-117417042D01*
X143497053Y-117589312D01*
X143065179Y-117983510D01*
X143007663Y-118106228D01*
X142791670Y-117782971D01*
X142305489Y-117458115D01*
X141732000Y-117344041D01*
X141158511Y-117458115D01*
X140672330Y-117782971D01*
X140462000Y-118097751D01*
X140251670Y-117782971D01*
X139765489Y-117458115D01*
X139192000Y-117344041D01*
X138902495Y-117401627D01*
X138519559Y-117018690D01*
X138519559Y-116849900D01*
X139537440Y-116849900D01*
X139670145Y-116824152D01*
X139886000Y-116867440D01*
X141386000Y-116867440D01*
X141628123Y-116820463D01*
X141840927Y-116680673D01*
X141983377Y-116469640D01*
X141989479Y-116439208D01*
X142047673Y-116579699D01*
X142226302Y-116758327D01*
X142459691Y-116855000D01*
X143050250Y-116855000D01*
X143209000Y-116696250D01*
X143209000Y-115697000D01*
X143189000Y-115697000D01*
X143189000Y-115443000D01*
X143209000Y-115443000D01*
X143209000Y-115423000D01*
X143463000Y-115423000D01*
X143463000Y-115443000D01*
X144562250Y-115443000D01*
X144608986Y-115396263D01*
X145017059Y-115726059D01*
X145542000Y-115881000D01*
X145923000Y-115881000D01*
X145923000Y-114611000D01*
X145903000Y-114611000D01*
X145903000Y-114357000D01*
X145923000Y-114357000D01*
X145923000Y-114337000D01*
X146177000Y-114337000D01*
X146177000Y-114357000D01*
X146197000Y-114357000D01*
X146197000Y-114611000D01*
X146177000Y-114611000D01*
X146177000Y-115881000D01*
X146558000Y-115881000D01*
X147069858Y-115729920D01*
X147014780Y-115827070D01*
X147029740Y-115901277D01*
X147291370Y-116382026D01*
X147717059Y-116726059D01*
X148242000Y-116881000D01*
X148623000Y-116881000D01*
X148623000Y-115611000D01*
X148603000Y-115611000D01*
X148603000Y-115357000D01*
X148623000Y-115357000D01*
X148623000Y-114087000D01*
X148242000Y-114087000D01*
X147730141Y-114238079D01*
X147785220Y-114140930D01*
X147770260Y-114066723D01*
X147508630Y-113585974D01*
X147372440Y-113475908D01*
X147372440Y-113084000D01*
X147347786Y-112956934D01*
X147372440Y-112834000D01*
X147372440Y-112434000D01*
X147347786Y-112306934D01*
X147372440Y-112184000D01*
X147372440Y-111784000D01*
X147347786Y-111656934D01*
X147372440Y-111534000D01*
X147372440Y-111134000D01*
X147352128Y-111029313D01*
X147360000Y-111010310D01*
X147360000Y-110942750D01*
X147329395Y-110912145D01*
X147325463Y-110891877D01*
X147185673Y-110679073D01*
X147161374Y-110662670D01*
X147360000Y-110502145D01*
X147508630Y-110382026D01*
X147770260Y-109901277D01*
X147785220Y-109827070D01*
X147730141Y-109729920D01*
X148242000Y-109881000D01*
X148623000Y-109881000D01*
X148623000Y-108611000D01*
X148603000Y-108611000D01*
X148603000Y-108357000D01*
X148623000Y-108357000D01*
X148623000Y-107087000D01*
X148242000Y-107087000D01*
X147717059Y-107241941D01*
X147291370Y-107585974D01*
X147029740Y-108066723D01*
X147014780Y-108140930D01*
X147069858Y-108238079D01*
X146558000Y-108087000D01*
X146177000Y-108087000D01*
X146177000Y-109357000D01*
X146197000Y-109357000D01*
X146197000Y-109611000D01*
X146177000Y-109611000D01*
X146177000Y-109631000D01*
X145923000Y-109631000D01*
X145923000Y-109611000D01*
X145923000Y-109357000D01*
X145923000Y-108087000D01*
X145807516Y-108087000D01*
X145807516Y-104403435D01*
X145781723Y-103797700D01*
X145599539Y-103357867D01*
X145344196Y-103272809D01*
X145164591Y-103452414D01*
X145164591Y-103093204D01*
X145079533Y-102837861D01*
X144510035Y-102629884D01*
X143904300Y-102655677D01*
X143464467Y-102837861D01*
X143379409Y-103093204D01*
X144272000Y-103985795D01*
X145164591Y-103093204D01*
X145164591Y-103452414D01*
X144451605Y-104165400D01*
X145344196Y-105057991D01*
X145599539Y-104972933D01*
X145807516Y-104403435D01*
X145807516Y-108087000D01*
X145542000Y-108087000D01*
X145164591Y-108198395D01*
X145164591Y-105237596D01*
X144272000Y-104345005D01*
X143379409Y-105237596D01*
X143464467Y-105492939D01*
X144033965Y-105700916D01*
X144639700Y-105675123D01*
X145079533Y-105492939D01*
X145164591Y-105237596D01*
X145164591Y-108198395D01*
X145017059Y-108241941D01*
X144591370Y-108585974D01*
X144329740Y-109066723D01*
X144314780Y-109140930D01*
X144437280Y-109357000D01*
X145923000Y-109357000D01*
X145923000Y-109611000D01*
X144437280Y-109611000D01*
X144314780Y-109827070D01*
X144329740Y-109901277D01*
X144591370Y-110382026D01*
X144740000Y-110502145D01*
X144937580Y-110661826D01*
X144920073Y-110673327D01*
X144777623Y-110884360D01*
X144772413Y-110910336D01*
X144740000Y-110942750D01*
X144740000Y-111010310D01*
X144748331Y-111030423D01*
X144727560Y-111134000D01*
X144727560Y-111534000D01*
X144752213Y-111661065D01*
X144727560Y-111784000D01*
X144727560Y-112184000D01*
X144752213Y-112311065D01*
X144727560Y-112434000D01*
X144727560Y-112449000D01*
X144557135Y-112449000D01*
X144546673Y-112433073D01*
X144335640Y-112290623D01*
X144086000Y-112240560D01*
X143654330Y-112240560D01*
X143687540Y-112074960D01*
X143687540Y-109875320D01*
X143640563Y-109633197D01*
X143536311Y-109474493D01*
X143578427Y-109432378D01*
X143675100Y-109198989D01*
X143675100Y-108258610D01*
X143675100Y-107687110D01*
X143675100Y-106746731D01*
X143578427Y-106513342D01*
X143399799Y-106334713D01*
X143166410Y-106238040D01*
X142913791Y-106238040D01*
X142525750Y-106238040D01*
X142367000Y-106396790D01*
X142367000Y-107845860D01*
X143516350Y-107845860D01*
X143675100Y-107687110D01*
X143675100Y-108258610D01*
X143516350Y-108099860D01*
X142367000Y-108099860D01*
X142367000Y-108119860D01*
X142113000Y-108119860D01*
X142113000Y-108099860D01*
X142113000Y-107845860D01*
X142113000Y-106396790D01*
X141954250Y-106238040D01*
X141566209Y-106238040D01*
X141313590Y-106238040D01*
X141080201Y-106334713D01*
X140901573Y-106513342D01*
X140804900Y-106746731D01*
X140804900Y-107687110D01*
X140963650Y-107845860D01*
X142113000Y-107845860D01*
X142113000Y-108099860D01*
X140963650Y-108099860D01*
X140804900Y-108258610D01*
X140804900Y-109198989D01*
X140901573Y-109432378D01*
X140944218Y-109475023D01*
X140842523Y-109625680D01*
X140792460Y-109875320D01*
X140792460Y-110140140D01*
X140718440Y-110140140D01*
X140718440Y-109974000D01*
X140671463Y-109731877D01*
X140531673Y-109519073D01*
X140467362Y-109475662D01*
X140609327Y-109333698D01*
X140706000Y-109100309D01*
X140706000Y-108509750D01*
X140706000Y-107938250D01*
X140706000Y-107347691D01*
X140609327Y-107114302D01*
X140430699Y-106935673D01*
X140197310Y-106839000D01*
X139944691Y-106839000D01*
X139731750Y-106839000D01*
X139573000Y-106997750D01*
X139573000Y-108097000D01*
X140547250Y-108097000D01*
X140706000Y-107938250D01*
X140706000Y-108509750D01*
X140547250Y-108351000D01*
X139573000Y-108351000D01*
X139573000Y-108371000D01*
X139319000Y-108371000D01*
X139319000Y-108351000D01*
X139299000Y-108351000D01*
X139299000Y-108097000D01*
X139319000Y-108097000D01*
X139319000Y-106997750D01*
X139160250Y-106839000D01*
X138947309Y-106839000D01*
X138694690Y-106839000D01*
X138519559Y-106911541D01*
X138519559Y-106018709D01*
X138860398Y-105677869D01*
X138887528Y-105689135D01*
X139493812Y-105689664D01*
X140054149Y-105458138D01*
X140462335Y-105050662D01*
X140867596Y-105456631D01*
X141427528Y-105689135D01*
X142033812Y-105689664D01*
X142594149Y-105458138D01*
X143023231Y-105029804D01*
X143034404Y-105002894D01*
X143199804Y-105057991D01*
X144092395Y-104165400D01*
X143199804Y-103272809D01*
X143034862Y-103327753D01*
X143024738Y-103303251D01*
X142596404Y-102874169D01*
X142036472Y-102641665D01*
X141430188Y-102641136D01*
X141400762Y-102653294D01*
X141033433Y-102285965D01*
X140762540Y-102104960D01*
X140442999Y-102041399D01*
X138934469Y-102041399D01*
X139782434Y-101193434D01*
X139963439Y-100922541D01*
X139963440Y-100922540D01*
X139977781Y-100850440D01*
X140081000Y-100850440D01*
X140323123Y-100803463D01*
X140535927Y-100663673D01*
X140678377Y-100452640D01*
X140684548Y-100421864D01*
X140867596Y-100605231D01*
X141427528Y-100837735D01*
X142033812Y-100838264D01*
X142594149Y-100606738D01*
X143002335Y-100199262D01*
X143407596Y-100605231D01*
X143967528Y-100837735D01*
X144573812Y-100838264D01*
X145134149Y-100606738D01*
X145563231Y-100178404D01*
X145795735Y-99618472D01*
X145796264Y-99012188D01*
X145564738Y-98451851D01*
X145136404Y-98022769D01*
X144576472Y-97790265D01*
X143970188Y-97789736D01*
X143940762Y-97801894D01*
X142973423Y-96834555D01*
X142702530Y-96653550D01*
X142382989Y-96589989D01*
X137734467Y-96589989D01*
X137414926Y-96653550D01*
X137144033Y-96834555D01*
X134261537Y-99717051D01*
X134080532Y-99987944D01*
X134035000Y-100216847D01*
X134035000Y-98619467D01*
X134207936Y-97750056D01*
X134662201Y-97070201D01*
X135342056Y-96615936D01*
X136211467Y-96443000D01*
X147252532Y-96443000D01*
X148121943Y-96615936D01*
X148801798Y-97070201D01*
X149256063Y-97750056D01*
X149429000Y-98619467D01*
X149429000Y-107137472D01*
X149258000Y-107087000D01*
X148877000Y-107087000D01*
X148877000Y-108357000D01*
X148897000Y-108357000D01*
X148897000Y-108611000D01*
X148877000Y-108611000D01*
X148877000Y-109881000D01*
X149258000Y-109881000D01*
X149429000Y-109830527D01*
X149429000Y-114137472D01*
X149258000Y-114087000D01*
X148877000Y-114087000D01*
X148877000Y-115357000D01*
X148897000Y-115357000D01*
X148897000Y-115611000D01*
X148877000Y-115611000D01*
X148877000Y-116881000D01*
X149258000Y-116881000D01*
X149429000Y-116830527D01*
X149429000Y-121344532D01*
X149429000Y-121344532D01*
G37*
X149429000Y-121344532D02*
X149256063Y-122213943D01*
X148801798Y-122893798D01*
X148121943Y-123348063D01*
X147252532Y-123521000D01*
X143343867Y-123521000D01*
X143982495Y-122882372D01*
X144272000Y-122939959D01*
X144845489Y-122825885D01*
X145331670Y-122501029D01*
X145656526Y-122014848D01*
X145770600Y-121441359D01*
X145770600Y-121382641D01*
X145656526Y-120809152D01*
X145331670Y-120322971D01*
X145060839Y-120142007D01*
X145478821Y-119760490D01*
X145726968Y-119231027D01*
X145726968Y-118512973D01*
X145478821Y-117983510D01*
X145046947Y-117589312D01*
X144721000Y-117454308D01*
X144721000Y-116346310D01*
X144721000Y-116093691D01*
X144721000Y-115855750D01*
X144562250Y-115697000D01*
X143463000Y-115697000D01*
X143463000Y-116696250D01*
X143621750Y-116855000D01*
X144212309Y-116855000D01*
X144445698Y-116758327D01*
X144624327Y-116579699D01*
X144721000Y-116346310D01*
X144721000Y-117454308D01*
X144631026Y-117417042D01*
X144399000Y-117538183D01*
X144399000Y-118745000D01*
X145606469Y-118745000D01*
X145726968Y-118512973D01*
X145726968Y-119231027D01*
X145606469Y-118999000D01*
X144399000Y-118999000D01*
X144399000Y-119019000D01*
X144145000Y-119019000D01*
X144145000Y-118999000D01*
X144125000Y-118999000D01*
X144125000Y-118745000D01*
X144145000Y-118745000D01*
X144145000Y-117538183D01*
X143912974Y-117417042D01*
X143497053Y-117589312D01*
X143065179Y-117983510D01*
X143007663Y-118106228D01*
X142791670Y-117782971D01*
X142305489Y-117458115D01*
X141732000Y-117344041D01*
X141158511Y-117458115D01*
X140672330Y-117782971D01*
X140462000Y-118097751D01*
X140251670Y-117782971D01*
X139765489Y-117458115D01*
X139192000Y-117344041D01*
X138902495Y-117401627D01*
X138519559Y-117018690D01*
X138519559Y-116849900D01*
X139537440Y-116849900D01*
X139670145Y-116824152D01*
X139886000Y-116867440D01*
X141386000Y-116867440D01*
X141628123Y-116820463D01*
X141840927Y-116680673D01*
X141983377Y-116469640D01*
X141989479Y-116439208D01*
X142047673Y-116579699D01*
X142226302Y-116758327D01*
X142459691Y-116855000D01*
X143050250Y-116855000D01*
X143209000Y-116696250D01*
X143209000Y-115697000D01*
X143189000Y-115697000D01*
X143189000Y-115443000D01*
X143209000Y-115443000D01*
X143209000Y-115423000D01*
X143463000Y-115423000D01*
X143463000Y-115443000D01*
X144562250Y-115443000D01*
X144608986Y-115396263D01*
X145017059Y-115726059D01*
X145542000Y-115881000D01*
X145923000Y-115881000D01*
X145923000Y-114611000D01*
X145903000Y-114611000D01*
X145903000Y-114357000D01*
X145923000Y-114357000D01*
X145923000Y-114337000D01*
X146177000Y-114337000D01*
X146177000Y-114357000D01*
X146197000Y-114357000D01*
X146197000Y-114611000D01*
X146177000Y-114611000D01*
X146177000Y-115881000D01*
X146558000Y-115881000D01*
X147069858Y-115729920D01*
X147014780Y-115827070D01*
X147029740Y-115901277D01*
X147291370Y-116382026D01*
X147717059Y-116726059D01*
X148242000Y-116881000D01*
X148623000Y-116881000D01*
X148623000Y-115611000D01*
X148603000Y-115611000D01*
X148603000Y-115357000D01*
X148623000Y-115357000D01*
X148623000Y-114087000D01*
X148242000Y-114087000D01*
X147730141Y-114238079D01*
X147785220Y-114140930D01*
X147770260Y-114066723D01*
X147508630Y-113585974D01*
X147372440Y-113475908D01*
X147372440Y-113084000D01*
X147347786Y-112956934D01*
X147372440Y-112834000D01*
X147372440Y-112434000D01*
X147347786Y-112306934D01*
X147372440Y-112184000D01*
X147372440Y-111784000D01*
X147347786Y-111656934D01*
X147372440Y-111534000D01*
X147372440Y-111134000D01*
X147352128Y-111029313D01*
X147360000Y-111010310D01*
X147360000Y-110942750D01*
X147329395Y-110912145D01*
X147325463Y-110891877D01*
X147185673Y-110679073D01*
X147161374Y-110662670D01*
X147360000Y-110502145D01*
X147508630Y-110382026D01*
X147770260Y-109901277D01*
X147785220Y-109827070D01*
X147730141Y-109729920D01*
X148242000Y-109881000D01*
X148623000Y-109881000D01*
X148623000Y-108611000D01*
X148603000Y-108611000D01*
X148603000Y-108357000D01*
X148623000Y-108357000D01*
X148623000Y-107087000D01*
X148242000Y-107087000D01*
X147717059Y-107241941D01*
X147291370Y-107585974D01*
X147029740Y-108066723D01*
X147014780Y-108140930D01*
X147069858Y-108238079D01*
X146558000Y-108087000D01*
X146177000Y-108087000D01*
X146177000Y-109357000D01*
X146197000Y-109357000D01*
X146197000Y-109611000D01*
X146177000Y-109611000D01*
X146177000Y-109631000D01*
X145923000Y-109631000D01*
X145923000Y-109611000D01*
X145923000Y-109357000D01*
X145923000Y-108087000D01*
X145807516Y-108087000D01*
X145807516Y-104403435D01*
X145781723Y-103797700D01*
X145599539Y-103357867D01*
X145344196Y-103272809D01*
X145164591Y-103452414D01*
X145164591Y-103093204D01*
X145079533Y-102837861D01*
X144510035Y-102629884D01*
X143904300Y-102655677D01*
X143464467Y-102837861D01*
X143379409Y-103093204D01*
X144272000Y-103985795D01*
X145164591Y-103093204D01*
X145164591Y-103452414D01*
X144451605Y-104165400D01*
X145344196Y-105057991D01*
X145599539Y-104972933D01*
X145807516Y-104403435D01*
X145807516Y-108087000D01*
X145542000Y-108087000D01*
X145164591Y-108198395D01*
X145164591Y-105237596D01*
X144272000Y-104345005D01*
X143379409Y-105237596D01*
X143464467Y-105492939D01*
X144033965Y-105700916D01*
X144639700Y-105675123D01*
X145079533Y-105492939D01*
X145164591Y-105237596D01*
X145164591Y-108198395D01*
X145017059Y-108241941D01*
X144591370Y-108585974D01*
X144329740Y-109066723D01*
X144314780Y-109140930D01*
X144437280Y-109357000D01*
X145923000Y-109357000D01*
X145923000Y-109611000D01*
X144437280Y-109611000D01*
X144314780Y-109827070D01*
X144329740Y-109901277D01*
X144591370Y-110382026D01*
X144740000Y-110502145D01*
X144937580Y-110661826D01*
X144920073Y-110673327D01*
X144777623Y-110884360D01*
X144772413Y-110910336D01*
X144740000Y-110942750D01*
X144740000Y-111010310D01*
X144748331Y-111030423D01*
X144727560Y-111134000D01*
X144727560Y-111534000D01*
X144752213Y-111661065D01*
X144727560Y-111784000D01*
X144727560Y-112184000D01*
X144752213Y-112311065D01*
X144727560Y-112434000D01*
X144727560Y-112449000D01*
X144557135Y-112449000D01*
X144546673Y-112433073D01*
X144335640Y-112290623D01*
X144086000Y-112240560D01*
X143654330Y-112240560D01*
X143687540Y-112074960D01*
X143687540Y-109875320D01*
X143640563Y-109633197D01*
X143536311Y-109474493D01*
X143578427Y-109432378D01*
X143675100Y-109198989D01*
X143675100Y-108258610D01*
X143675100Y-107687110D01*
X143675100Y-106746731D01*
X143578427Y-106513342D01*
X143399799Y-106334713D01*
X143166410Y-106238040D01*
X142913791Y-106238040D01*
X142525750Y-106238040D01*
X142367000Y-106396790D01*
X142367000Y-107845860D01*
X143516350Y-107845860D01*
X143675100Y-107687110D01*
X143675100Y-108258610D01*
X143516350Y-108099860D01*
X142367000Y-108099860D01*
X142367000Y-108119860D01*
X142113000Y-108119860D01*
X142113000Y-108099860D01*
X142113000Y-107845860D01*
X142113000Y-106396790D01*
X141954250Y-106238040D01*
X141566209Y-106238040D01*
X141313590Y-106238040D01*
X141080201Y-106334713D01*
X140901573Y-106513342D01*
X140804900Y-106746731D01*
X140804900Y-107687110D01*
X140963650Y-107845860D01*
X142113000Y-107845860D01*
X142113000Y-108099860D01*
X140963650Y-108099860D01*
X140804900Y-108258610D01*
X140804900Y-109198989D01*
X140901573Y-109432378D01*
X140944218Y-109475023D01*
X140842523Y-109625680D01*
X140792460Y-109875320D01*
X140792460Y-110140140D01*
X140718440Y-110140140D01*
X140718440Y-109974000D01*
X140671463Y-109731877D01*
X140531673Y-109519073D01*
X140467362Y-109475662D01*
X140609327Y-109333698D01*
X140706000Y-109100309D01*
X140706000Y-108509750D01*
X140706000Y-107938250D01*
X140706000Y-107347691D01*
X140609327Y-107114302D01*
X140430699Y-106935673D01*
X140197310Y-106839000D01*
X139944691Y-106839000D01*
X139731750Y-106839000D01*
X139573000Y-106997750D01*
X139573000Y-108097000D01*
X140547250Y-108097000D01*
X140706000Y-107938250D01*
X140706000Y-108509750D01*
X140547250Y-108351000D01*
X139573000Y-108351000D01*
X139573000Y-108371000D01*
X139319000Y-108371000D01*
X139319000Y-108351000D01*
X139299000Y-108351000D01*
X139299000Y-108097000D01*
X139319000Y-108097000D01*
X139319000Y-106997750D01*
X139160250Y-106839000D01*
X138947309Y-106839000D01*
X138694690Y-106839000D01*
X138519559Y-106911541D01*
X138519559Y-106018709D01*
X138860398Y-105677869D01*
X138887528Y-105689135D01*
X139493812Y-105689664D01*
X140054149Y-105458138D01*
X140462335Y-105050662D01*
X140867596Y-105456631D01*
X141427528Y-105689135D01*
X142033812Y-105689664D01*
X142594149Y-105458138D01*
X143023231Y-105029804D01*
X143034404Y-105002894D01*
X143199804Y-105057991D01*
X144092395Y-104165400D01*
X143199804Y-103272809D01*
X143034862Y-103327753D01*
X143024738Y-103303251D01*
X142596404Y-102874169D01*
X142036472Y-102641665D01*
X141430188Y-102641136D01*
X141400762Y-102653294D01*
X141033433Y-102285965D01*
X140762540Y-102104960D01*
X140442999Y-102041399D01*
X138934469Y-102041399D01*
X139782434Y-101193434D01*
X139963439Y-100922541D01*
X139963440Y-100922540D01*
X139977781Y-100850440D01*
X140081000Y-100850440D01*
X140323123Y-100803463D01*
X140535927Y-100663673D01*
X140678377Y-100452640D01*
X140684548Y-100421864D01*
X140867596Y-100605231D01*
X141427528Y-100837735D01*
X142033812Y-100838264D01*
X142594149Y-100606738D01*
X143002335Y-100199262D01*
X143407596Y-100605231D01*
X143967528Y-100837735D01*
X144573812Y-100838264D01*
X145134149Y-100606738D01*
X145563231Y-100178404D01*
X145795735Y-99618472D01*
X145796264Y-99012188D01*
X145564738Y-98451851D01*
X145136404Y-98022769D01*
X144576472Y-97790265D01*
X143970188Y-97789736D01*
X143940762Y-97801894D01*
X142973423Y-96834555D01*
X142702530Y-96653550D01*
X142382989Y-96589989D01*
X137734467Y-96589989D01*
X137414926Y-96653550D01*
X137144033Y-96834555D01*
X134261537Y-99717051D01*
X134080532Y-99987944D01*
X134035000Y-100216847D01*
X134035000Y-98619467D01*
X134207936Y-97750056D01*
X134662201Y-97070201D01*
X135342056Y-96615936D01*
X136211467Y-96443000D01*
X147252532Y-96443000D01*
X148121943Y-96615936D01*
X148801798Y-97070201D01*
X149256063Y-97750056D01*
X149429000Y-98619467D01*
X149429000Y-107137472D01*
X149258000Y-107087000D01*
X148877000Y-107087000D01*
X148877000Y-108357000D01*
X148897000Y-108357000D01*
X148897000Y-108611000D01*
X148877000Y-108611000D01*
X148877000Y-109881000D01*
X149258000Y-109881000D01*
X149429000Y-109830527D01*
X149429000Y-114137472D01*
X149258000Y-114087000D01*
X148877000Y-114087000D01*
X148877000Y-115357000D01*
X148897000Y-115357000D01*
X148897000Y-115611000D01*
X148877000Y-115611000D01*
X148877000Y-116881000D01*
X149258000Y-116881000D01*
X149429000Y-116830527D01*
X149429000Y-121344532D01*
M02*
