G04 (created by PCBNEW-RS274X (2012-01-19 BZR 3256)-stable) date 13/04/2012 18:31:07*
G01*
G70*
G90*
%MOIN*%
G04 Gerber Fmt 3.4, Leading zero omitted, Abs format*
%FSLAX34Y34*%
G04 APERTURE LIST*
%ADD10C,0.006000*%
%ADD11C,0.019700*%
G04 APERTURE END LIST*
G54D10*
G54D11*
X16567Y-30819D02*
X16567Y-11535D01*
X35968Y-30815D02*
X16575Y-30815D01*
X35968Y-11535D02*
X35968Y-30815D01*
X16563Y-11512D02*
X35956Y-11512D01*
M02*
