G04 #@! TF.FileFunction,Soldermask,Top*
%FSLAX46Y46*%
G04 Gerber Fmt 4.6, Leading zero omitted, Abs format (unit mm)*
G04 Created by KiCad (PCBNEW (after 2015-mar-04 BZR unknown)-product) date 8/29/2015 7:40:19 PM*
%MOMM*%
G01*
G04 APERTURE LIST*
%ADD10C,0.150000*%
%ADD11R,1.708000X1.708000*%
%ADD12C,1.708000*%
%ADD13R,2.540000X2.235200*%
%ADD14O,2.540000X2.235200*%
%ADD15R,2.235200X2.540000*%
%ADD16O,2.235200X2.540000*%
%ADD17R,2.032000X2.032000*%
%ADD18C,2.032000*%
%ADD19C,3.007360*%
%ADD20C,6.858000*%
%ADD21C,1.905000*%
%ADD22C,2.057400*%
%ADD23O,2.082800X2.794000*%
%ADD24R,2.082800X2.794000*%
%ADD25R,4.165600X2.540000*%
%ADD26R,1.524000X2.540000*%
%ADD27C,2.286000*%
%ADD28R,2.286000X2.286000*%
%ADD29R,1.808000X1.808000*%
%ADD30C,1.808000*%
%ADD31C,5.108000*%
G04 APERTURE END LIST*
D10*
D11*
X92456000Y-93853000D03*
D12*
X92456000Y-96353000D03*
D11*
X98298000Y-107442000D03*
D12*
X100798000Y-107442000D03*
D11*
X100838000Y-113411000D03*
D12*
X98338000Y-113411000D03*
D11*
X120269000Y-113284000D03*
D12*
X122769000Y-113284000D03*
D11*
X128397000Y-94234000D03*
D12*
X125897000Y-94234000D03*
D11*
X161925000Y-94742000D03*
D12*
X161925000Y-97242000D03*
D11*
X170688000Y-107823000D03*
D12*
X170688000Y-110323000D03*
D13*
X90551000Y-115570000D03*
D14*
X90551000Y-113030000D03*
X90551000Y-110490000D03*
X90551000Y-107950000D03*
X90551000Y-105410000D03*
X90551000Y-102870000D03*
D15*
X138049000Y-94361000D03*
D16*
X135509000Y-94361000D03*
X132969000Y-94361000D03*
D17*
X147955000Y-95631000D03*
D18*
X147955000Y-93091000D03*
X150495000Y-95631000D03*
X150495000Y-93091000D03*
X153035000Y-95631000D03*
X153035000Y-93091000D03*
D19*
X174474000Y-123340000D03*
X169472740Y-123340000D03*
X164474020Y-123340000D03*
X159472760Y-123340000D03*
X154474040Y-123340000D03*
X149472780Y-123340000D03*
X144474060Y-123340000D03*
X139472800Y-123340000D03*
X99474000Y-84340000D03*
X104475260Y-84340000D03*
X109473980Y-84340000D03*
X114475240Y-84340000D03*
X119473960Y-84340000D03*
X124475220Y-84340000D03*
X129473940Y-84340000D03*
X134475200Y-84340000D03*
X139474000Y-84340000D03*
X144475260Y-84340000D03*
X149473980Y-84340000D03*
X154475240Y-84340000D03*
X159473960Y-84340000D03*
X164475220Y-84340000D03*
X169473940Y-84340000D03*
X174475200Y-84340000D03*
X134474000Y-123340000D03*
X129472740Y-123340000D03*
X124474020Y-123340000D03*
X119472760Y-123340000D03*
X114474040Y-123340000D03*
X109472780Y-123340000D03*
X104474060Y-123340000D03*
X99472800Y-123340000D03*
D13*
X102362000Y-100203000D03*
D14*
X102362000Y-97663000D03*
X102362000Y-95123000D03*
X102362000Y-92583000D03*
D20*
X181474000Y-123340000D03*
X181474000Y-84340000D03*
X92474000Y-123340000D03*
X92474000Y-84340000D03*
D21*
X96139000Y-99822000D03*
X96139000Y-90932000D03*
X98933000Y-99822000D03*
X98933000Y-90932000D03*
X167513000Y-115062000D03*
X158623000Y-115062000D03*
D22*
X155223560Y-104088800D03*
X159724440Y-104088800D03*
X155223560Y-110591200D03*
X159724440Y-110591200D03*
D23*
X113504000Y-108150000D03*
X116044000Y-108150000D03*
X118584000Y-108150000D03*
X121124000Y-108150000D03*
X123664000Y-108150000D03*
X126204000Y-108150000D03*
X128744000Y-108150000D03*
X131284000Y-108150000D03*
X133824000Y-108150000D03*
X136364000Y-108150000D03*
X138904000Y-108150000D03*
X141444000Y-108150000D03*
X143984000Y-108150000D03*
D24*
X110964000Y-108150000D03*
D23*
X143984000Y-100530000D03*
X141444000Y-100530000D03*
X138904000Y-100530000D03*
X136364000Y-100530000D03*
X133824000Y-100530000D03*
X131284000Y-100530000D03*
X128744000Y-100530000D03*
X126204000Y-100530000D03*
X123664000Y-100530000D03*
X121124000Y-100530000D03*
X118584000Y-100530000D03*
X116044000Y-100530000D03*
X113504000Y-100530000D03*
X110964000Y-100530000D03*
D25*
X168474000Y-92038000D03*
D26*
X168474000Y-98642000D03*
X170760000Y-98642000D03*
X166188000Y-98642000D03*
D21*
X128474640Y-113340000D03*
X133473360Y-113340000D03*
X130974000Y-113340000D03*
D27*
X105394000Y-113340000D03*
D28*
X115554000Y-113340000D03*
D29*
X175641000Y-98171000D03*
D30*
X178141000Y-98171000D03*
D29*
X179474000Y-92340000D03*
D30*
X181974000Y-92340000D03*
D31*
X182474000Y-109340000D03*
X176474000Y-109340000D03*
X178974000Y-104540000D03*
M02*
