G04 (created by PCBNEW (2013-07-07 BZR 4022)-stable) date 8/15/2013 8:17:49 PM*
%MOIN*%
G04 Gerber Fmt 3.4, Leading zero omitted, Abs format*
%FSLAX34Y34*%
G01*
G70*
G90*
G04 APERTURE LIST*
%ADD10C,0.00393701*%
%ADD11R,0.055X0.055*%
%ADD12C,0.055*%
%ADD13R,0.06X0.06*%
%ADD14C,0.06*%
%ADD15C,0.056*%
%ADD16C,0.035*%
%ADD17C,0.01*%
%ADD18C,0.02*%
G04 APERTURE END LIST*
G54D10*
G54D11*
X10250Y1200D03*
G54D12*
X9250Y1200D03*
X8250Y1200D03*
X7250Y1200D03*
X6250Y1200D03*
X5250Y1200D03*
X4250Y1200D03*
X3250Y1200D03*
G54D11*
X3750Y9400D03*
G54D12*
X4750Y9400D03*
X5750Y9400D03*
X6750Y9400D03*
X7750Y9400D03*
X8750Y9400D03*
X9750Y9400D03*
X10750Y9400D03*
G54D11*
X14800Y1200D03*
G54D12*
X15800Y1200D03*
X16800Y1200D03*
X17800Y1200D03*
X18800Y1200D03*
X19800Y1200D03*
X20800Y1200D03*
X21800Y1200D03*
G54D11*
X1000Y3800D03*
G54D12*
X1000Y4800D03*
X1000Y5800D03*
X1000Y6800D03*
X1000Y7800D03*
X1000Y8800D03*
X1000Y9800D03*
X1000Y10800D03*
G54D11*
X25800Y10150D03*
G54D12*
X25800Y11150D03*
X25800Y12150D03*
X25800Y13150D03*
X25800Y14150D03*
X25800Y15150D03*
G54D11*
X14600Y19800D03*
G54D12*
X15600Y19800D03*
X16600Y19800D03*
X17600Y19800D03*
X18600Y19800D03*
X19600Y19800D03*
G54D11*
X19850Y12650D03*
G54D12*
X18850Y12650D03*
X17850Y12650D03*
X16850Y12650D03*
X15850Y12650D03*
X14850Y12650D03*
G54D11*
X25800Y19850D03*
G54D12*
X25800Y18850D03*
X25800Y17850D03*
X25800Y16850D03*
G54D11*
X900Y14000D03*
G54D12*
X900Y15000D03*
X900Y16000D03*
X900Y17000D03*
G54D11*
X1900Y14000D03*
G54D12*
X1900Y15000D03*
G54D11*
X14600Y17600D03*
G54D12*
X14600Y18600D03*
G54D13*
X25700Y1200D03*
G54D14*
X24700Y1200D03*
X25700Y2200D03*
X24700Y2200D03*
X25700Y3200D03*
X24700Y3200D03*
X900Y19000D03*
X1900Y19000D03*
X2900Y19000D03*
X3900Y19000D03*
X4900Y19000D03*
X5900Y19000D03*
X6900Y19000D03*
X7900Y19000D03*
X8900Y19000D03*
X9900Y19000D03*
X10900Y19000D03*
X11900Y19000D03*
X12900Y19000D03*
X900Y20000D03*
X1900Y20000D03*
X2900Y20000D03*
X3900Y20000D03*
X4900Y20000D03*
X5900Y20000D03*
X6900Y20000D03*
X7900Y20000D03*
X8900Y20000D03*
X9900Y20000D03*
X10900Y20000D03*
X11900Y20000D03*
X12900Y20000D03*
G54D15*
X15600Y8000D03*
X15600Y10000D03*
G54D12*
X12800Y6700D03*
X12800Y7700D03*
G54D11*
X1900Y16000D03*
G54D12*
X1900Y17000D03*
G54D16*
X13450Y14550D03*
X8300Y14200D03*
X13050Y14200D03*
X17000Y10800D03*
X23250Y5600D03*
X7100Y12850D03*
X1900Y6550D03*
X9450Y7750D03*
X21100Y5950D03*
X22500Y5450D03*
X13900Y2700D03*
X23500Y19750D03*
X24700Y17150D03*
X21300Y7850D03*
X18000Y10400D03*
X19400Y7950D03*
X20600Y6250D03*
X15350Y14150D03*
X16900Y16250D03*
X17350Y13300D03*
X15350Y11150D03*
X18400Y9350D03*
X7600Y4800D03*
X7500Y3100D03*
X13950Y14300D03*
X19500Y10000D03*
X15500Y16950D03*
X17950Y16600D03*
X15650Y18100D03*
X11400Y13650D03*
X13900Y7500D03*
X17450Y7500D03*
X8800Y6850D03*
X6900Y14000D03*
X11250Y5350D03*
X20650Y7150D03*
X22950Y7450D03*
X20750Y8200D03*
X23650Y4600D03*
X23650Y6300D03*
G54D17*
X10600Y14200D02*
X12300Y14200D01*
X12650Y14550D02*
X13450Y14550D01*
X12300Y14200D02*
X12650Y14550D01*
G54D18*
X8300Y14200D02*
X10600Y14200D01*
X10600Y14200D02*
X10750Y14200D01*
G54D17*
X10600Y13050D02*
X12550Y13050D01*
X13050Y13550D02*
X13050Y14200D01*
X12550Y13050D02*
X13050Y13550D01*
X10550Y13050D02*
X10600Y13050D01*
X10600Y13050D02*
X11200Y13050D01*
X16300Y11600D02*
X17000Y10800D01*
X12650Y11600D02*
X16300Y11600D01*
X11200Y13050D02*
X12650Y11600D01*
G54D18*
X22600Y4500D02*
X22600Y4950D01*
X22600Y4950D02*
X23250Y5600D01*
X22600Y4500D02*
X22600Y4150D01*
X23950Y1950D02*
X24700Y1200D01*
X23950Y2800D02*
X23950Y1950D01*
X22600Y4150D02*
X23950Y2800D01*
X11750Y4500D02*
X22600Y4500D01*
X9450Y3449D02*
X10699Y3449D01*
X12800Y5550D02*
X12800Y6700D01*
X10699Y3449D02*
X11750Y4500D01*
X11750Y4500D02*
X12800Y5550D01*
X7300Y13050D02*
X10550Y13050D01*
X10550Y13050D02*
X10750Y13050D01*
X7100Y12850D02*
X7300Y13050D01*
X1900Y6550D02*
X6550Y1950D01*
X6550Y1950D02*
X8000Y1950D01*
X8000Y1950D02*
X9450Y3449D01*
X9450Y3449D02*
X9450Y3449D01*
X9450Y3449D02*
X9450Y5100D01*
G54D17*
X9450Y7750D02*
X9450Y5100D01*
X22000Y5950D02*
X21100Y5950D01*
X22500Y5450D02*
X22000Y5950D01*
G54D18*
X21800Y1200D02*
X21800Y750D01*
X13900Y800D02*
X13900Y2700D01*
X14200Y500D02*
X13900Y800D01*
X21550Y500D02*
X14200Y500D01*
X21800Y750D02*
X21550Y500D01*
G54D17*
X23600Y19850D02*
X25800Y19850D01*
X23500Y19750D02*
X23600Y19850D01*
X24700Y9650D02*
X24700Y17150D01*
X24150Y9100D02*
X24700Y9650D01*
X22550Y9100D02*
X24150Y9100D01*
X21300Y7850D02*
X22550Y9100D01*
X22800Y18850D02*
X25800Y18850D01*
X21350Y17400D02*
X22800Y18850D01*
X21350Y11750D02*
X21350Y17400D01*
X20000Y10400D02*
X21350Y11750D01*
X18400Y10400D02*
X20000Y10400D01*
X18000Y10400D02*
X18400Y10400D01*
X23000Y17850D02*
X25800Y17850D01*
X22000Y16850D02*
X23000Y17850D01*
X22000Y11950D02*
X22000Y16850D01*
X19800Y9750D02*
X22000Y11950D01*
X19800Y8350D02*
X19800Y9750D01*
X19400Y7950D02*
X19800Y8350D01*
X26300Y16350D02*
X25800Y16850D01*
X26300Y8950D02*
X26300Y16350D01*
X25950Y8600D02*
X26300Y8950D01*
X24950Y8600D02*
X25950Y8600D01*
X22950Y6600D02*
X24950Y8600D01*
X20950Y6600D02*
X22950Y6600D01*
X20600Y6250D02*
X20950Y6600D01*
G54D18*
X900Y19000D02*
X900Y17000D01*
X900Y20000D02*
X900Y19950D01*
X250Y15650D02*
X900Y15000D01*
X250Y19300D02*
X250Y15650D01*
X900Y19950D02*
X250Y19300D01*
G54D17*
X9050Y18050D02*
X12900Y18050D01*
X15350Y15600D02*
X15350Y14150D01*
X12900Y18050D02*
X15350Y15600D01*
X4900Y20000D02*
X4900Y19950D01*
X5650Y18050D02*
X9050Y18050D01*
X9050Y18050D02*
X9100Y18050D01*
X5400Y18300D02*
X5650Y18050D01*
X5400Y19450D02*
X5400Y18300D01*
X4900Y19950D02*
X5400Y19450D01*
X16900Y13750D02*
X16900Y16250D01*
X17350Y13300D02*
X16900Y13750D01*
X15500Y11150D02*
X15350Y11150D01*
X17300Y9350D02*
X15500Y11150D01*
X18400Y9350D02*
X17300Y9350D01*
X3400Y10900D02*
X3400Y10350D01*
X7600Y4950D02*
X7600Y4800D01*
X5550Y5500D02*
X6100Y4950D01*
X6100Y4950D02*
X7600Y4950D01*
X5200Y5500D02*
X5550Y5500D01*
X3050Y7750D02*
X5200Y5500D01*
X3050Y10000D02*
X3050Y7750D01*
X3400Y10350D02*
X3050Y10000D01*
X2900Y19000D02*
X2900Y18300D01*
X3400Y17800D02*
X3400Y10900D01*
X3400Y10900D02*
X3400Y10850D01*
X2900Y18300D02*
X3400Y17800D01*
X2700Y10850D02*
X2700Y10300D01*
X5350Y5250D02*
X7500Y3100D01*
X4950Y5250D02*
X5350Y5250D01*
X2600Y7600D02*
X4950Y5250D01*
X2600Y10200D02*
X2600Y7600D01*
X2700Y10300D02*
X2600Y10200D01*
X1900Y19000D02*
X1900Y18600D01*
X2700Y17800D02*
X2700Y10850D01*
X2700Y10850D02*
X2700Y10750D01*
X1900Y18600D02*
X2700Y17800D01*
X12650Y17750D02*
X9050Y17750D01*
X13800Y16600D02*
X12650Y17750D01*
X13800Y14450D02*
X13800Y16600D01*
X13950Y14300D02*
X13800Y14450D01*
X3900Y20000D02*
X3900Y19950D01*
X5100Y17750D02*
X9050Y17750D01*
X9050Y17750D02*
X9150Y17750D01*
X4400Y18450D02*
X5100Y17750D01*
X4400Y19450D02*
X4400Y18450D01*
X3900Y19950D02*
X4400Y19450D01*
X18850Y10000D02*
X19500Y10000D01*
X18300Y10000D02*
X18850Y10000D01*
X17800Y10000D02*
X18300Y10000D01*
X17450Y10350D02*
X17800Y10000D01*
X17450Y10950D02*
X17450Y10350D01*
X16350Y12050D02*
X17450Y10950D01*
X16350Y12950D02*
X16350Y12050D01*
X15700Y13600D02*
X16350Y12950D01*
X15700Y16750D02*
X15700Y13600D01*
X15500Y16950D02*
X15700Y16750D01*
X17150Y16600D02*
X17950Y16600D01*
X15650Y18100D02*
X17150Y16600D01*
G54D18*
X10650Y13650D02*
X11400Y13650D01*
G54D17*
X17450Y7500D02*
X13900Y7500D01*
X8800Y6850D02*
X8850Y6800D01*
X8850Y6800D02*
X8850Y4950D01*
G54D18*
X7250Y13650D02*
X10650Y13650D01*
X10650Y13650D02*
X10800Y13650D01*
X6900Y14000D02*
X7250Y13650D01*
X1000Y7800D02*
X1650Y7800D01*
X1650Y7800D02*
X6850Y2600D01*
X6850Y2600D02*
X7750Y2600D01*
X7750Y2600D02*
X8850Y3700D01*
X8850Y3700D02*
X8850Y4950D01*
X8850Y4950D02*
X8850Y5050D01*
X900Y14000D02*
X1900Y14000D01*
X900Y16000D02*
X1900Y16000D01*
G54D17*
X11250Y6350D02*
X11250Y5350D01*
X12050Y7150D02*
X11250Y6350D01*
X20650Y7150D02*
X12050Y7150D01*
X22950Y7400D02*
X22950Y7450D01*
X22700Y7150D02*
X22950Y7400D01*
X21400Y7150D02*
X22700Y7150D01*
X20950Y7600D02*
X21400Y7150D01*
X20950Y8000D02*
X20950Y7600D01*
X20750Y8200D02*
X20950Y8000D01*
G54D18*
X23650Y4600D02*
X23650Y6300D01*
G54D10*
G36*
X1674Y16525D02*
X1674Y16525D01*
X1575Y16524D01*
X1483Y16486D01*
X1412Y16416D01*
X1374Y16324D01*
X1374Y16237D01*
X1360Y16272D01*
X1267Y16297D01*
X970Y16000D01*
X1267Y15702D01*
X1360Y15727D01*
X1374Y15768D01*
X1374Y15675D01*
X1412Y15583D01*
X1483Y15513D01*
X1575Y15475D01*
X1674Y15474D01*
X1674Y15474D01*
X1603Y15445D01*
X1455Y15297D01*
X1399Y15164D01*
X1345Y15297D01*
X1197Y15444D01*
X1071Y15497D01*
X1172Y15539D01*
X1197Y15632D01*
X900Y15929D01*
X894Y15923D01*
X823Y15994D01*
X829Y16000D01*
X823Y16005D01*
X894Y16076D01*
X900Y16070D01*
X1197Y16367D01*
X1172Y16460D01*
X1062Y16499D01*
X1197Y16554D01*
X1344Y16702D01*
X1400Y16835D01*
X1454Y16703D01*
X1602Y16555D01*
X1674Y16525D01*
X1674Y16525D01*
G37*
G54D17*
X1674Y16525D02*
X1674Y16525D01*
X1575Y16524D01*
X1483Y16486D01*
X1412Y16416D01*
X1374Y16324D01*
X1374Y16237D01*
X1360Y16272D01*
X1267Y16297D01*
X970Y16000D01*
X1267Y15702D01*
X1360Y15727D01*
X1374Y15768D01*
X1374Y15675D01*
X1412Y15583D01*
X1483Y15513D01*
X1575Y15475D01*
X1674Y15474D01*
X1674Y15474D01*
X1603Y15445D01*
X1455Y15297D01*
X1399Y15164D01*
X1345Y15297D01*
X1197Y15444D01*
X1071Y15497D01*
X1172Y15539D01*
X1197Y15632D01*
X900Y15929D01*
X894Y15923D01*
X823Y15994D01*
X829Y16000D01*
X823Y16005D01*
X894Y16076D01*
X900Y16070D01*
X1197Y16367D01*
X1172Y16460D01*
X1062Y16499D01*
X1197Y16554D01*
X1344Y16702D01*
X1400Y16835D01*
X1454Y16703D01*
X1602Y16555D01*
X1674Y16525D01*
G54D10*
G36*
X1957Y15950D02*
X1950Y15950D01*
X1950Y15942D01*
X1850Y15942D01*
X1850Y15950D01*
X1842Y15950D01*
X1842Y16050D01*
X1850Y16050D01*
X1850Y16057D01*
X1950Y16057D01*
X1950Y16050D01*
X1957Y16050D01*
X1957Y15950D01*
X1957Y15950D01*
G37*
G54D17*
X1957Y15950D02*
X1950Y15950D01*
X1950Y15942D01*
X1850Y15942D01*
X1850Y15950D01*
X1842Y15950D01*
X1842Y16050D01*
X1850Y16050D01*
X1850Y16057D01*
X1950Y16057D01*
X1950Y16050D01*
X1957Y16050D01*
X1957Y15950D01*
G54D10*
G36*
X3669Y19500D02*
X3588Y19466D01*
X3434Y19311D01*
X3400Y19230D01*
X3366Y19311D01*
X3211Y19465D01*
X3136Y19497D01*
X3187Y19518D01*
X3215Y19614D01*
X2900Y19929D01*
X2584Y19614D01*
X2612Y19518D01*
X2667Y19499D01*
X2588Y19466D01*
X2434Y19311D01*
X2400Y19230D01*
X2366Y19311D01*
X2211Y19465D01*
X2130Y19499D01*
X2211Y19533D01*
X2365Y19688D01*
X2397Y19763D01*
X2418Y19712D01*
X2514Y19684D01*
X2829Y20000D01*
X2514Y20315D01*
X2418Y20287D01*
X2399Y20232D01*
X2366Y20311D01*
X2257Y20420D01*
X2594Y20420D01*
X2584Y20385D01*
X2900Y20070D01*
X3215Y20385D01*
X3205Y20420D01*
X3542Y20420D01*
X3434Y20311D01*
X3402Y20236D01*
X3381Y20287D01*
X3285Y20315D01*
X2970Y20000D01*
X3285Y19684D01*
X3381Y19712D01*
X3400Y19767D01*
X3433Y19688D01*
X3588Y19534D01*
X3669Y19500D01*
X3669Y19500D01*
G37*
G54D17*
X3669Y19500D02*
X3588Y19466D01*
X3434Y19311D01*
X3400Y19230D01*
X3366Y19311D01*
X3211Y19465D01*
X3136Y19497D01*
X3187Y19518D01*
X3215Y19614D01*
X2900Y19929D01*
X2584Y19614D01*
X2612Y19518D01*
X2667Y19499D01*
X2588Y19466D01*
X2434Y19311D01*
X2400Y19230D01*
X2366Y19311D01*
X2211Y19465D01*
X2130Y19499D01*
X2211Y19533D01*
X2365Y19688D01*
X2397Y19763D01*
X2418Y19712D01*
X2514Y19684D01*
X2829Y20000D01*
X2514Y20315D01*
X2418Y20287D01*
X2399Y20232D01*
X2366Y20311D01*
X2257Y20420D01*
X2594Y20420D01*
X2584Y20385D01*
X2900Y20070D01*
X3215Y20385D01*
X3205Y20420D01*
X3542Y20420D01*
X3434Y20311D01*
X3402Y20236D01*
X3381Y20287D01*
X3285Y20315D01*
X2970Y20000D01*
X3285Y19684D01*
X3381Y19712D01*
X3400Y19767D01*
X3433Y19688D01*
X3588Y19534D01*
X3669Y19500D01*
G54D10*
G36*
X26420Y16653D02*
X26324Y16749D01*
X26325Y16953D01*
X26245Y17147D01*
X26097Y17294D01*
X25964Y17350D01*
X26097Y17404D01*
X26244Y17552D01*
X26324Y17745D01*
X26325Y17953D01*
X26245Y18147D01*
X26097Y18294D01*
X25964Y18350D01*
X26097Y18404D01*
X26244Y18552D01*
X26324Y18745D01*
X26325Y18953D01*
X26245Y19147D01*
X26097Y19294D01*
X26025Y19324D01*
X26124Y19324D01*
X26216Y19362D01*
X26286Y19433D01*
X26324Y19525D01*
X26325Y19624D01*
X26325Y20174D01*
X26287Y20266D01*
X26216Y20336D01*
X26124Y20374D01*
X26025Y20375D01*
X25475Y20375D01*
X25383Y20337D01*
X25313Y20266D01*
X25275Y20174D01*
X25275Y20150D01*
X23644Y20150D01*
X23584Y20174D01*
X23415Y20175D01*
X23259Y20110D01*
X23139Y19991D01*
X23075Y19834D01*
X23074Y19665D01*
X23139Y19509D01*
X23258Y19389D01*
X23415Y19325D01*
X23584Y19324D01*
X23740Y19389D01*
X23860Y19508D01*
X23877Y19550D01*
X25274Y19550D01*
X25274Y19525D01*
X25312Y19433D01*
X25383Y19363D01*
X25475Y19325D01*
X25574Y19324D01*
X25574Y19324D01*
X25503Y19295D01*
X25357Y19150D01*
X22800Y19150D01*
X22685Y19127D01*
X22587Y19062D01*
X21137Y17612D01*
X21072Y17514D01*
X21050Y17400D01*
X21050Y11874D01*
X19875Y10700D01*
X18400Y10700D01*
X18301Y10700D01*
X18241Y10760D01*
X18084Y10824D01*
X17915Y10825D01*
X17759Y10760D01*
X17750Y10750D01*
X17750Y10950D01*
X17727Y11064D01*
X17662Y11162D01*
X17662Y11162D01*
X16666Y12157D01*
X16745Y12125D01*
X16953Y12124D01*
X17147Y12204D01*
X17294Y12352D01*
X17350Y12485D01*
X17404Y12353D01*
X17552Y12205D01*
X17745Y12125D01*
X17953Y12124D01*
X18147Y12204D01*
X18294Y12352D01*
X18350Y12485D01*
X18404Y12353D01*
X18552Y12205D01*
X18745Y12125D01*
X18953Y12124D01*
X19147Y12204D01*
X19294Y12352D01*
X19324Y12424D01*
X19324Y12325D01*
X19362Y12233D01*
X19433Y12163D01*
X19525Y12125D01*
X19624Y12124D01*
X20174Y12124D01*
X20266Y12162D01*
X20336Y12233D01*
X20374Y12325D01*
X20375Y12424D01*
X20375Y12974D01*
X20337Y13066D01*
X20266Y13136D01*
X20174Y13174D01*
X20125Y13174D01*
X20125Y19903D01*
X20045Y20097D01*
X19897Y20244D01*
X19704Y20324D01*
X19496Y20325D01*
X19303Y20245D01*
X19155Y20097D01*
X19099Y19964D01*
X19045Y20097D01*
X18897Y20244D01*
X18704Y20324D01*
X18496Y20325D01*
X18303Y20245D01*
X18155Y20097D01*
X18099Y19964D01*
X18045Y20097D01*
X17897Y20244D01*
X17704Y20324D01*
X17496Y20325D01*
X17303Y20245D01*
X17155Y20097D01*
X17099Y19964D01*
X17045Y20097D01*
X16897Y20244D01*
X16704Y20324D01*
X16496Y20325D01*
X16303Y20245D01*
X16155Y20097D01*
X16099Y19964D01*
X16045Y20097D01*
X15897Y20244D01*
X15704Y20324D01*
X15496Y20325D01*
X15303Y20245D01*
X15155Y20097D01*
X15125Y20025D01*
X15125Y20124D01*
X15087Y20216D01*
X15016Y20286D01*
X14924Y20324D01*
X14825Y20325D01*
X14275Y20325D01*
X14183Y20287D01*
X14113Y20216D01*
X14075Y20124D01*
X14074Y20025D01*
X14074Y19475D01*
X14112Y19383D01*
X14183Y19313D01*
X14275Y19275D01*
X14374Y19274D01*
X14924Y19274D01*
X15016Y19312D01*
X15086Y19383D01*
X15124Y19475D01*
X15125Y19574D01*
X15125Y19574D01*
X15154Y19503D01*
X15302Y19355D01*
X15495Y19275D01*
X15703Y19274D01*
X15897Y19354D01*
X16044Y19502D01*
X16100Y19635D01*
X16154Y19503D01*
X16302Y19355D01*
X16495Y19275D01*
X16703Y19274D01*
X16897Y19354D01*
X17044Y19502D01*
X17100Y19635D01*
X17154Y19503D01*
X17302Y19355D01*
X17495Y19275D01*
X17703Y19274D01*
X17897Y19354D01*
X18044Y19502D01*
X18100Y19635D01*
X18154Y19503D01*
X18302Y19355D01*
X18495Y19275D01*
X18703Y19274D01*
X18897Y19354D01*
X19044Y19502D01*
X19100Y19635D01*
X19154Y19503D01*
X19302Y19355D01*
X19495Y19275D01*
X19703Y19274D01*
X19897Y19354D01*
X20044Y19502D01*
X20124Y19695D01*
X20125Y19903D01*
X20125Y13174D01*
X20075Y13175D01*
X19525Y13175D01*
X19433Y13137D01*
X19363Y13066D01*
X19325Y12974D01*
X19324Y12875D01*
X19324Y12875D01*
X19295Y12947D01*
X19147Y13094D01*
X18954Y13174D01*
X18746Y13175D01*
X18553Y13095D01*
X18405Y12947D01*
X18349Y12814D01*
X18295Y12947D01*
X18147Y13094D01*
X17954Y13174D01*
X17758Y13175D01*
X17774Y13215D01*
X17775Y13384D01*
X17710Y13540D01*
X17591Y13660D01*
X17434Y13724D01*
X17349Y13725D01*
X17200Y13874D01*
X17200Y15948D01*
X17260Y16008D01*
X17324Y16165D01*
X17325Y16334D01*
X17260Y16490D01*
X17141Y16610D01*
X16984Y16674D01*
X16815Y16675D01*
X16659Y16610D01*
X16539Y16491D01*
X16475Y16334D01*
X16474Y16165D01*
X16539Y16009D01*
X16600Y15948D01*
X16600Y13750D01*
X16622Y13635D01*
X16687Y13537D01*
X16925Y13300D01*
X16924Y13215D01*
X16941Y13174D01*
X16746Y13175D01*
X16595Y13112D01*
X16595Y13112D01*
X16562Y13162D01*
X16562Y13162D01*
X16000Y13724D01*
X16000Y16750D01*
X15977Y16864D01*
X15924Y16942D01*
X15924Y16942D01*
X15925Y17034D01*
X15860Y17190D01*
X15741Y17310D01*
X15584Y17374D01*
X15415Y17375D01*
X15259Y17310D01*
X15139Y17191D01*
X15075Y17034D01*
X15074Y16865D01*
X15139Y16709D01*
X15258Y16589D01*
X15400Y16531D01*
X15400Y15974D01*
X14299Y17075D01*
X14374Y17074D01*
X14924Y17074D01*
X15016Y17112D01*
X15086Y17183D01*
X15124Y17275D01*
X15125Y17374D01*
X15125Y17924D01*
X15087Y18016D01*
X15016Y18086D01*
X14924Y18124D01*
X14825Y18125D01*
X14825Y18125D01*
X14897Y18154D01*
X15044Y18302D01*
X15124Y18495D01*
X15125Y18703D01*
X15045Y18897D01*
X14897Y19044D01*
X14704Y19124D01*
X14496Y19125D01*
X14303Y19045D01*
X14155Y18897D01*
X14075Y18704D01*
X14074Y18496D01*
X14154Y18303D01*
X14302Y18155D01*
X14374Y18125D01*
X14275Y18125D01*
X14183Y18087D01*
X14113Y18016D01*
X14075Y17924D01*
X14074Y17825D01*
X14074Y17299D01*
X13112Y18262D01*
X13014Y18327D01*
X12900Y18350D01*
X9100Y18350D01*
X9050Y18350D01*
X5774Y18350D01*
X5700Y18424D01*
X5700Y18487D01*
X5790Y18450D01*
X6008Y18449D01*
X6211Y18533D01*
X6365Y18688D01*
X6399Y18769D01*
X6433Y18688D01*
X6588Y18534D01*
X6790Y18450D01*
X7008Y18449D01*
X7211Y18533D01*
X7365Y18688D01*
X7399Y18769D01*
X7433Y18688D01*
X7588Y18534D01*
X7790Y18450D01*
X8008Y18449D01*
X8211Y18533D01*
X8365Y18688D01*
X8399Y18769D01*
X8433Y18688D01*
X8588Y18534D01*
X8790Y18450D01*
X9008Y18449D01*
X9211Y18533D01*
X9365Y18688D01*
X9399Y18769D01*
X9433Y18688D01*
X9588Y18534D01*
X9790Y18450D01*
X10008Y18449D01*
X10211Y18533D01*
X10365Y18688D01*
X10399Y18769D01*
X10433Y18688D01*
X10588Y18534D01*
X10790Y18450D01*
X11008Y18449D01*
X11211Y18533D01*
X11365Y18688D01*
X11399Y18769D01*
X11433Y18688D01*
X11588Y18534D01*
X11790Y18450D01*
X12008Y18449D01*
X12211Y18533D01*
X12365Y18688D01*
X12399Y18769D01*
X12433Y18688D01*
X12588Y18534D01*
X12790Y18450D01*
X13008Y18449D01*
X13211Y18533D01*
X13365Y18688D01*
X13449Y18890D01*
X13450Y19108D01*
X13366Y19311D01*
X13211Y19465D01*
X13130Y19499D01*
X13211Y19533D01*
X13365Y19688D01*
X13449Y19890D01*
X13450Y20108D01*
X13366Y20311D01*
X13257Y20420D01*
X26420Y20420D01*
X26420Y16653D01*
X26420Y16653D01*
G37*
G54D17*
X26420Y16653D02*
X26324Y16749D01*
X26325Y16953D01*
X26245Y17147D01*
X26097Y17294D01*
X25964Y17350D01*
X26097Y17404D01*
X26244Y17552D01*
X26324Y17745D01*
X26325Y17953D01*
X26245Y18147D01*
X26097Y18294D01*
X25964Y18350D01*
X26097Y18404D01*
X26244Y18552D01*
X26324Y18745D01*
X26325Y18953D01*
X26245Y19147D01*
X26097Y19294D01*
X26025Y19324D01*
X26124Y19324D01*
X26216Y19362D01*
X26286Y19433D01*
X26324Y19525D01*
X26325Y19624D01*
X26325Y20174D01*
X26287Y20266D01*
X26216Y20336D01*
X26124Y20374D01*
X26025Y20375D01*
X25475Y20375D01*
X25383Y20337D01*
X25313Y20266D01*
X25275Y20174D01*
X25275Y20150D01*
X23644Y20150D01*
X23584Y20174D01*
X23415Y20175D01*
X23259Y20110D01*
X23139Y19991D01*
X23075Y19834D01*
X23074Y19665D01*
X23139Y19509D01*
X23258Y19389D01*
X23415Y19325D01*
X23584Y19324D01*
X23740Y19389D01*
X23860Y19508D01*
X23877Y19550D01*
X25274Y19550D01*
X25274Y19525D01*
X25312Y19433D01*
X25383Y19363D01*
X25475Y19325D01*
X25574Y19324D01*
X25574Y19324D01*
X25503Y19295D01*
X25357Y19150D01*
X22800Y19150D01*
X22685Y19127D01*
X22587Y19062D01*
X21137Y17612D01*
X21072Y17514D01*
X21050Y17400D01*
X21050Y11874D01*
X19875Y10700D01*
X18400Y10700D01*
X18301Y10700D01*
X18241Y10760D01*
X18084Y10824D01*
X17915Y10825D01*
X17759Y10760D01*
X17750Y10750D01*
X17750Y10950D01*
X17727Y11064D01*
X17662Y11162D01*
X17662Y11162D01*
X16666Y12157D01*
X16745Y12125D01*
X16953Y12124D01*
X17147Y12204D01*
X17294Y12352D01*
X17350Y12485D01*
X17404Y12353D01*
X17552Y12205D01*
X17745Y12125D01*
X17953Y12124D01*
X18147Y12204D01*
X18294Y12352D01*
X18350Y12485D01*
X18404Y12353D01*
X18552Y12205D01*
X18745Y12125D01*
X18953Y12124D01*
X19147Y12204D01*
X19294Y12352D01*
X19324Y12424D01*
X19324Y12325D01*
X19362Y12233D01*
X19433Y12163D01*
X19525Y12125D01*
X19624Y12124D01*
X20174Y12124D01*
X20266Y12162D01*
X20336Y12233D01*
X20374Y12325D01*
X20375Y12424D01*
X20375Y12974D01*
X20337Y13066D01*
X20266Y13136D01*
X20174Y13174D01*
X20125Y13174D01*
X20125Y19903D01*
X20045Y20097D01*
X19897Y20244D01*
X19704Y20324D01*
X19496Y20325D01*
X19303Y20245D01*
X19155Y20097D01*
X19099Y19964D01*
X19045Y20097D01*
X18897Y20244D01*
X18704Y20324D01*
X18496Y20325D01*
X18303Y20245D01*
X18155Y20097D01*
X18099Y19964D01*
X18045Y20097D01*
X17897Y20244D01*
X17704Y20324D01*
X17496Y20325D01*
X17303Y20245D01*
X17155Y20097D01*
X17099Y19964D01*
X17045Y20097D01*
X16897Y20244D01*
X16704Y20324D01*
X16496Y20325D01*
X16303Y20245D01*
X16155Y20097D01*
X16099Y19964D01*
X16045Y20097D01*
X15897Y20244D01*
X15704Y20324D01*
X15496Y20325D01*
X15303Y20245D01*
X15155Y20097D01*
X15125Y20025D01*
X15125Y20124D01*
X15087Y20216D01*
X15016Y20286D01*
X14924Y20324D01*
X14825Y20325D01*
X14275Y20325D01*
X14183Y20287D01*
X14113Y20216D01*
X14075Y20124D01*
X14074Y20025D01*
X14074Y19475D01*
X14112Y19383D01*
X14183Y19313D01*
X14275Y19275D01*
X14374Y19274D01*
X14924Y19274D01*
X15016Y19312D01*
X15086Y19383D01*
X15124Y19475D01*
X15125Y19574D01*
X15125Y19574D01*
X15154Y19503D01*
X15302Y19355D01*
X15495Y19275D01*
X15703Y19274D01*
X15897Y19354D01*
X16044Y19502D01*
X16100Y19635D01*
X16154Y19503D01*
X16302Y19355D01*
X16495Y19275D01*
X16703Y19274D01*
X16897Y19354D01*
X17044Y19502D01*
X17100Y19635D01*
X17154Y19503D01*
X17302Y19355D01*
X17495Y19275D01*
X17703Y19274D01*
X17897Y19354D01*
X18044Y19502D01*
X18100Y19635D01*
X18154Y19503D01*
X18302Y19355D01*
X18495Y19275D01*
X18703Y19274D01*
X18897Y19354D01*
X19044Y19502D01*
X19100Y19635D01*
X19154Y19503D01*
X19302Y19355D01*
X19495Y19275D01*
X19703Y19274D01*
X19897Y19354D01*
X20044Y19502D01*
X20124Y19695D01*
X20125Y19903D01*
X20125Y13174D01*
X20075Y13175D01*
X19525Y13175D01*
X19433Y13137D01*
X19363Y13066D01*
X19325Y12974D01*
X19324Y12875D01*
X19324Y12875D01*
X19295Y12947D01*
X19147Y13094D01*
X18954Y13174D01*
X18746Y13175D01*
X18553Y13095D01*
X18405Y12947D01*
X18349Y12814D01*
X18295Y12947D01*
X18147Y13094D01*
X17954Y13174D01*
X17758Y13175D01*
X17774Y13215D01*
X17775Y13384D01*
X17710Y13540D01*
X17591Y13660D01*
X17434Y13724D01*
X17349Y13725D01*
X17200Y13874D01*
X17200Y15948D01*
X17260Y16008D01*
X17324Y16165D01*
X17325Y16334D01*
X17260Y16490D01*
X17141Y16610D01*
X16984Y16674D01*
X16815Y16675D01*
X16659Y16610D01*
X16539Y16491D01*
X16475Y16334D01*
X16474Y16165D01*
X16539Y16009D01*
X16600Y15948D01*
X16600Y13750D01*
X16622Y13635D01*
X16687Y13537D01*
X16925Y13300D01*
X16924Y13215D01*
X16941Y13174D01*
X16746Y13175D01*
X16595Y13112D01*
X16595Y13112D01*
X16562Y13162D01*
X16562Y13162D01*
X16000Y13724D01*
X16000Y16750D01*
X15977Y16864D01*
X15924Y16942D01*
X15924Y16942D01*
X15925Y17034D01*
X15860Y17190D01*
X15741Y17310D01*
X15584Y17374D01*
X15415Y17375D01*
X15259Y17310D01*
X15139Y17191D01*
X15075Y17034D01*
X15074Y16865D01*
X15139Y16709D01*
X15258Y16589D01*
X15400Y16531D01*
X15400Y15974D01*
X14299Y17075D01*
X14374Y17074D01*
X14924Y17074D01*
X15016Y17112D01*
X15086Y17183D01*
X15124Y17275D01*
X15125Y17374D01*
X15125Y17924D01*
X15087Y18016D01*
X15016Y18086D01*
X14924Y18124D01*
X14825Y18125D01*
X14825Y18125D01*
X14897Y18154D01*
X15044Y18302D01*
X15124Y18495D01*
X15125Y18703D01*
X15045Y18897D01*
X14897Y19044D01*
X14704Y19124D01*
X14496Y19125D01*
X14303Y19045D01*
X14155Y18897D01*
X14075Y18704D01*
X14074Y18496D01*
X14154Y18303D01*
X14302Y18155D01*
X14374Y18125D01*
X14275Y18125D01*
X14183Y18087D01*
X14113Y18016D01*
X14075Y17924D01*
X14074Y17825D01*
X14074Y17299D01*
X13112Y18262D01*
X13014Y18327D01*
X12900Y18350D01*
X9100Y18350D01*
X9050Y18350D01*
X5774Y18350D01*
X5700Y18424D01*
X5700Y18487D01*
X5790Y18450D01*
X6008Y18449D01*
X6211Y18533D01*
X6365Y18688D01*
X6399Y18769D01*
X6433Y18688D01*
X6588Y18534D01*
X6790Y18450D01*
X7008Y18449D01*
X7211Y18533D01*
X7365Y18688D01*
X7399Y18769D01*
X7433Y18688D01*
X7588Y18534D01*
X7790Y18450D01*
X8008Y18449D01*
X8211Y18533D01*
X8365Y18688D01*
X8399Y18769D01*
X8433Y18688D01*
X8588Y18534D01*
X8790Y18450D01*
X9008Y18449D01*
X9211Y18533D01*
X9365Y18688D01*
X9399Y18769D01*
X9433Y18688D01*
X9588Y18534D01*
X9790Y18450D01*
X10008Y18449D01*
X10211Y18533D01*
X10365Y18688D01*
X10399Y18769D01*
X10433Y18688D01*
X10588Y18534D01*
X10790Y18450D01*
X11008Y18449D01*
X11211Y18533D01*
X11365Y18688D01*
X11399Y18769D01*
X11433Y18688D01*
X11588Y18534D01*
X11790Y18450D01*
X12008Y18449D01*
X12211Y18533D01*
X12365Y18688D01*
X12399Y18769D01*
X12433Y18688D01*
X12588Y18534D01*
X12790Y18450D01*
X13008Y18449D01*
X13211Y18533D01*
X13365Y18688D01*
X13449Y18890D01*
X13450Y19108D01*
X13366Y19311D01*
X13211Y19465D01*
X13130Y19499D01*
X13211Y19533D01*
X13365Y19688D01*
X13449Y19890D01*
X13450Y20108D01*
X13366Y20311D01*
X13257Y20420D01*
X26420Y20420D01*
X26420Y16653D01*
G54D10*
G36*
X26420Y279D02*
X21824Y279D01*
X22047Y502D01*
X22047Y502D01*
X22047Y502D01*
X22123Y616D01*
X22150Y750D01*
X22150Y807D01*
X22244Y902D01*
X22324Y1095D01*
X22325Y1303D01*
X22245Y1497D01*
X22097Y1644D01*
X21904Y1724D01*
X21696Y1725D01*
X21503Y1645D01*
X21355Y1497D01*
X21299Y1364D01*
X21245Y1497D01*
X21097Y1644D01*
X20904Y1724D01*
X20696Y1725D01*
X20503Y1645D01*
X20355Y1497D01*
X20299Y1364D01*
X20245Y1497D01*
X20097Y1644D01*
X19904Y1724D01*
X19696Y1725D01*
X19503Y1645D01*
X19355Y1497D01*
X19299Y1364D01*
X19245Y1497D01*
X19097Y1644D01*
X18904Y1724D01*
X18696Y1725D01*
X18503Y1645D01*
X18355Y1497D01*
X18299Y1364D01*
X18245Y1497D01*
X18097Y1644D01*
X17904Y1724D01*
X17696Y1725D01*
X17503Y1645D01*
X17355Y1497D01*
X17299Y1364D01*
X17245Y1497D01*
X17097Y1644D01*
X16904Y1724D01*
X16696Y1725D01*
X16503Y1645D01*
X16355Y1497D01*
X16299Y1364D01*
X16245Y1497D01*
X16097Y1644D01*
X15904Y1724D01*
X15696Y1725D01*
X15503Y1645D01*
X15355Y1497D01*
X15325Y1425D01*
X15325Y1524D01*
X15287Y1616D01*
X15216Y1686D01*
X15124Y1724D01*
X15025Y1725D01*
X14475Y1725D01*
X14383Y1687D01*
X14313Y1616D01*
X14275Y1524D01*
X14274Y1425D01*
X14274Y920D01*
X14250Y944D01*
X14250Y2448D01*
X14260Y2458D01*
X14324Y2615D01*
X14325Y2784D01*
X14260Y2940D01*
X14141Y3060D01*
X13984Y3124D01*
X13815Y3125D01*
X13659Y3060D01*
X13539Y2941D01*
X13475Y2784D01*
X13474Y2615D01*
X13539Y2459D01*
X13550Y2449D01*
X13550Y800D01*
X13576Y666D01*
X13652Y552D01*
X13925Y279D01*
X279Y279D01*
X279Y15125D01*
X375Y15029D01*
X374Y14896D01*
X454Y14703D01*
X602Y14555D01*
X674Y14525D01*
X674Y14525D01*
X575Y14524D01*
X483Y14486D01*
X412Y14416D01*
X374Y14324D01*
X375Y14112D01*
X437Y14050D01*
X850Y14050D01*
X850Y14057D01*
X950Y14057D01*
X950Y14050D01*
X1362Y14050D01*
X1400Y14087D01*
X1437Y14050D01*
X1850Y14050D01*
X1850Y14057D01*
X1950Y14057D01*
X1950Y14050D01*
X1957Y14050D01*
X1957Y13950D01*
X1950Y13950D01*
X1950Y13537D01*
X2012Y13475D01*
X2125Y13474D01*
X2224Y13475D01*
X2316Y13513D01*
X2387Y13583D01*
X2400Y13614D01*
X2400Y10850D01*
X2400Y10750D01*
X2400Y10424D01*
X2387Y10412D01*
X2322Y10314D01*
X2300Y10200D01*
X2300Y7600D01*
X2322Y7485D01*
X2387Y7387D01*
X4737Y5037D01*
X4737Y5037D01*
X4835Y4972D01*
X4949Y4950D01*
X4950Y4950D01*
X5225Y4950D01*
X7075Y3100D01*
X7074Y3015D01*
X7139Y2859D01*
X7258Y2739D01*
X7415Y2675D01*
X7584Y2674D01*
X7740Y2739D01*
X7860Y2858D01*
X7924Y3015D01*
X7925Y3184D01*
X7860Y3340D01*
X7741Y3460D01*
X7584Y3524D01*
X7499Y3525D01*
X6374Y4650D01*
X7202Y4650D01*
X7239Y4559D01*
X7358Y4439D01*
X7515Y4375D01*
X7684Y4374D01*
X7840Y4439D01*
X7960Y4558D01*
X8024Y4715D01*
X8025Y4884D01*
X7960Y5040D01*
X7841Y5160D01*
X7772Y5188D01*
X7714Y5227D01*
X7600Y5250D01*
X6224Y5250D01*
X5762Y5712D01*
X5664Y5777D01*
X5550Y5800D01*
X5328Y5800D01*
X3350Y7870D01*
X3350Y8906D01*
X3425Y8875D01*
X3524Y8874D01*
X4074Y8874D01*
X4166Y8912D01*
X4236Y8983D01*
X4274Y9075D01*
X4275Y9174D01*
X4275Y9174D01*
X4304Y9103D01*
X4452Y8955D01*
X4645Y8875D01*
X4853Y8874D01*
X5047Y8954D01*
X5194Y9102D01*
X5250Y9235D01*
X5304Y9103D01*
X5452Y8955D01*
X5645Y8875D01*
X5853Y8874D01*
X6047Y8954D01*
X6194Y9102D01*
X6250Y9235D01*
X6304Y9103D01*
X6452Y8955D01*
X6645Y8875D01*
X6853Y8874D01*
X7047Y8954D01*
X7194Y9102D01*
X7250Y9235D01*
X7304Y9103D01*
X7452Y8955D01*
X7645Y8875D01*
X7853Y8874D01*
X8047Y8954D01*
X8194Y9102D01*
X8250Y9235D01*
X8304Y9103D01*
X8452Y8955D01*
X8645Y8875D01*
X8853Y8874D01*
X9047Y8954D01*
X9194Y9102D01*
X9250Y9235D01*
X9304Y9103D01*
X9452Y8955D01*
X9645Y8875D01*
X9853Y8874D01*
X10047Y8954D01*
X10194Y9102D01*
X10250Y9235D01*
X10304Y9103D01*
X10452Y8955D01*
X10645Y8875D01*
X10853Y8874D01*
X11047Y8954D01*
X11194Y9102D01*
X11274Y9295D01*
X11275Y9503D01*
X11195Y9697D01*
X11047Y9844D01*
X10854Y9924D01*
X10646Y9925D01*
X10453Y9845D01*
X10305Y9697D01*
X10249Y9564D01*
X10195Y9697D01*
X10047Y9844D01*
X9854Y9924D01*
X9646Y9925D01*
X9453Y9845D01*
X9305Y9697D01*
X9249Y9564D01*
X9195Y9697D01*
X9047Y9844D01*
X8854Y9924D01*
X8646Y9925D01*
X8453Y9845D01*
X8305Y9697D01*
X8249Y9564D01*
X8195Y9697D01*
X8047Y9844D01*
X7854Y9924D01*
X7646Y9925D01*
X7453Y9845D01*
X7305Y9697D01*
X7249Y9564D01*
X7195Y9697D01*
X7047Y9844D01*
X6854Y9924D01*
X6646Y9925D01*
X6453Y9845D01*
X6305Y9697D01*
X6249Y9564D01*
X6195Y9697D01*
X6047Y9844D01*
X5854Y9924D01*
X5646Y9925D01*
X5453Y9845D01*
X5305Y9697D01*
X5249Y9564D01*
X5195Y9697D01*
X5047Y9844D01*
X4854Y9924D01*
X4646Y9925D01*
X4453Y9845D01*
X4305Y9697D01*
X4275Y9625D01*
X4275Y9724D01*
X4237Y9816D01*
X4166Y9886D01*
X4074Y9924D01*
X3975Y9925D01*
X3425Y9925D01*
X3380Y9906D01*
X3612Y10137D01*
X3612Y10137D01*
X3677Y10235D01*
X3699Y10349D01*
X3700Y10350D01*
X3700Y10850D01*
X3700Y10900D01*
X3700Y17800D01*
X3677Y17914D01*
X3612Y18012D01*
X3612Y18012D01*
X3200Y18424D01*
X3200Y18528D01*
X3211Y18533D01*
X3365Y18688D01*
X3399Y18769D01*
X3433Y18688D01*
X3588Y18534D01*
X3790Y18450D01*
X4008Y18449D01*
X4100Y18487D01*
X4100Y18450D01*
X4122Y18335D01*
X4187Y18237D01*
X4887Y17537D01*
X4887Y17537D01*
X4985Y17472D01*
X5099Y17450D01*
X5100Y17450D01*
X9050Y17450D01*
X9150Y17450D01*
X12525Y17450D01*
X13500Y16475D01*
X13500Y14974D01*
X13365Y14975D01*
X13209Y14910D01*
X13148Y14850D01*
X12650Y14850D01*
X12535Y14827D01*
X12437Y14762D01*
X12175Y14500D01*
X10918Y14500D01*
X10883Y14523D01*
X10750Y14550D01*
X10600Y14550D01*
X8551Y14550D01*
X8541Y14560D01*
X8384Y14624D01*
X8215Y14625D01*
X8059Y14560D01*
X7939Y14441D01*
X7875Y14284D01*
X7874Y14115D01*
X7939Y13959D01*
X8058Y13839D01*
X8215Y13775D01*
X8384Y13774D01*
X8540Y13839D01*
X8550Y13850D01*
X10600Y13850D01*
X10750Y13850D01*
X10883Y13876D01*
X10918Y13900D01*
X12300Y13900D01*
X12300Y13900D01*
X12414Y13922D01*
X12414Y13922D01*
X12512Y13987D01*
X12629Y14105D01*
X12689Y13959D01*
X12750Y13898D01*
X12750Y13674D01*
X12425Y13350D01*
X11200Y13350D01*
X10918Y13350D01*
X10883Y13373D01*
X10750Y13400D01*
X10550Y13400D01*
X7300Y13400D01*
X7166Y13373D01*
X7052Y13297D01*
X7030Y13275D01*
X7015Y13275D01*
X6859Y13210D01*
X6739Y13091D01*
X6675Y12934D01*
X6674Y12765D01*
X6739Y12609D01*
X6858Y12489D01*
X7015Y12425D01*
X7184Y12424D01*
X7340Y12489D01*
X7460Y12608D01*
X7497Y12700D01*
X10550Y12700D01*
X10750Y12700D01*
X10883Y12726D01*
X10918Y12750D01*
X11075Y12750D01*
X12437Y11387D01*
X12437Y11387D01*
X12535Y11322D01*
X12650Y11300D01*
X14952Y11300D01*
X14925Y11234D01*
X14924Y11065D01*
X14989Y10909D01*
X15108Y10789D01*
X15265Y10725D01*
X15434Y10724D01*
X15481Y10744D01*
X15695Y10529D01*
X15495Y10530D01*
X15300Y10449D01*
X15150Y10300D01*
X15070Y10105D01*
X15069Y9895D01*
X15150Y9700D01*
X15299Y9550D01*
X15494Y9470D01*
X15704Y9469D01*
X15899Y9550D01*
X16049Y9699D01*
X16129Y9894D01*
X16130Y10095D01*
X17087Y9137D01*
X17087Y9137D01*
X17185Y9072D01*
X17300Y9050D01*
X18098Y9050D01*
X18158Y8989D01*
X18315Y8925D01*
X18484Y8924D01*
X18640Y8989D01*
X18760Y9108D01*
X18824Y9265D01*
X18825Y9434D01*
X18760Y9590D01*
X18651Y9700D01*
X18850Y9700D01*
X19198Y9700D01*
X19258Y9639D01*
X19415Y9575D01*
X19500Y9575D01*
X19500Y8474D01*
X19400Y8375D01*
X19315Y8375D01*
X19159Y8310D01*
X19039Y8191D01*
X18975Y8034D01*
X18974Y7865D01*
X19039Y7709D01*
X19158Y7589D01*
X19315Y7525D01*
X19484Y7524D01*
X19640Y7589D01*
X19760Y7708D01*
X19824Y7865D01*
X19825Y7950D01*
X20012Y8137D01*
X20012Y8137D01*
X20077Y8235D01*
X20099Y8349D01*
X20100Y8350D01*
X20100Y9625D01*
X22212Y11737D01*
X22212Y11737D01*
X22277Y11835D01*
X22299Y11950D01*
X22300Y11950D01*
X22300Y16725D01*
X23124Y17550D01*
X24555Y17550D01*
X24459Y17510D01*
X24339Y17391D01*
X24275Y17234D01*
X24274Y17065D01*
X24339Y16909D01*
X24400Y16848D01*
X24400Y9774D01*
X24025Y9400D01*
X22550Y9400D01*
X22435Y9377D01*
X22337Y9312D01*
X21300Y8275D01*
X21215Y8275D01*
X21175Y8258D01*
X21175Y8284D01*
X21110Y8440D01*
X20991Y8560D01*
X20834Y8624D01*
X20665Y8625D01*
X20509Y8560D01*
X20389Y8441D01*
X20325Y8284D01*
X20324Y8115D01*
X20389Y7959D01*
X20508Y7839D01*
X20650Y7781D01*
X20650Y7600D01*
X20654Y7574D01*
X20565Y7575D01*
X20409Y7510D01*
X20348Y7450D01*
X16130Y7450D01*
X16130Y8104D01*
X16049Y8299D01*
X15900Y8449D01*
X15705Y8529D01*
X15495Y8530D01*
X15300Y8449D01*
X15150Y8300D01*
X15070Y8105D01*
X15069Y7895D01*
X15150Y7700D01*
X15299Y7550D01*
X15494Y7470D01*
X15704Y7469D01*
X15899Y7550D01*
X16049Y7699D01*
X16129Y7894D01*
X16130Y8104D01*
X16130Y7450D01*
X13268Y7450D01*
X13329Y7624D01*
X13318Y7832D01*
X13260Y7972D01*
X13167Y7997D01*
X13097Y7926D01*
X13097Y8067D01*
X13072Y8160D01*
X12875Y8229D01*
X12667Y8218D01*
X12527Y8160D01*
X12502Y8067D01*
X12800Y7770D01*
X13097Y8067D01*
X13097Y7926D01*
X12870Y7700D01*
X12876Y7694D01*
X12805Y7623D01*
X12800Y7629D01*
X12794Y7623D01*
X12723Y7694D01*
X12729Y7700D01*
X12432Y7997D01*
X12339Y7972D01*
X12270Y7775D01*
X12281Y7567D01*
X12330Y7450D01*
X12050Y7450D01*
X11935Y7427D01*
X11837Y7362D01*
X11037Y6562D01*
X10972Y6464D01*
X10950Y6350D01*
X10950Y5651D01*
X10889Y5591D01*
X10825Y5434D01*
X10824Y5265D01*
X10889Y5109D01*
X11008Y4989D01*
X11165Y4925D01*
X11334Y4924D01*
X11490Y4989D01*
X11610Y5108D01*
X11674Y5265D01*
X11675Y5434D01*
X11610Y5590D01*
X11550Y5651D01*
X11550Y6225D01*
X12174Y6850D01*
X12293Y6850D01*
X12275Y6804D01*
X12274Y6596D01*
X12354Y6403D01*
X12450Y6307D01*
X12450Y5694D01*
X11502Y4747D01*
X11502Y4747D01*
X11502Y4747D01*
X10554Y3799D01*
X9800Y3799D01*
X9800Y5100D01*
X9773Y5233D01*
X9750Y5268D01*
X9750Y7448D01*
X9810Y7508D01*
X9874Y7665D01*
X9875Y7834D01*
X9810Y7990D01*
X9691Y8110D01*
X9534Y8174D01*
X9365Y8175D01*
X9209Y8110D01*
X9089Y7991D01*
X9025Y7834D01*
X9024Y7665D01*
X9089Y7509D01*
X9150Y7448D01*
X9150Y5268D01*
X9126Y5233D01*
X9100Y5100D01*
X9100Y3592D01*
X7851Y2300D01*
X6692Y2300D01*
X2325Y6621D01*
X2325Y6634D01*
X2260Y6790D01*
X2141Y6910D01*
X1984Y6974D01*
X1850Y6975D01*
X1850Y13537D01*
X1850Y13950D01*
X1437Y13950D01*
X1400Y13912D01*
X1362Y13950D01*
X950Y13950D01*
X950Y13537D01*
X1012Y13475D01*
X1125Y13474D01*
X1224Y13475D01*
X1316Y13513D01*
X1387Y13583D01*
X1400Y13614D01*
X1412Y13583D01*
X1483Y13513D01*
X1575Y13475D01*
X1674Y13474D01*
X1787Y13475D01*
X1850Y13537D01*
X1850Y6975D01*
X1815Y6975D01*
X1659Y6910D01*
X1539Y6791D01*
X1529Y6766D01*
X1529Y7724D01*
X1529Y8724D01*
X1529Y9724D01*
X1529Y10724D01*
X1518Y10932D01*
X1460Y11072D01*
X1367Y11097D01*
X1297Y11026D01*
X1297Y11167D01*
X1272Y11260D01*
X1075Y11329D01*
X867Y11318D01*
X850Y11311D01*
X850Y13537D01*
X850Y13950D01*
X437Y13950D01*
X375Y13887D01*
X374Y13675D01*
X412Y13583D01*
X483Y13513D01*
X575Y13475D01*
X674Y13474D01*
X787Y13475D01*
X850Y13537D01*
X850Y11311D01*
X727Y11260D01*
X702Y11167D01*
X1000Y10870D01*
X1297Y11167D01*
X1297Y11026D01*
X1070Y10800D01*
X1367Y10502D01*
X1460Y10527D01*
X1529Y10724D01*
X1529Y9724D01*
X1518Y9932D01*
X1460Y10072D01*
X1367Y10097D01*
X1297Y10026D01*
X1297Y10167D01*
X1272Y10260D01*
X1169Y10296D01*
X1272Y10339D01*
X1297Y10432D01*
X1000Y10729D01*
X929Y10658D01*
X929Y10800D01*
X632Y11097D01*
X539Y11072D01*
X470Y10875D01*
X481Y10667D01*
X539Y10527D01*
X632Y10502D01*
X929Y10800D01*
X929Y10658D01*
X702Y10432D01*
X727Y10339D01*
X830Y10303D01*
X727Y10260D01*
X702Y10167D01*
X1000Y9870D01*
X1297Y10167D01*
X1297Y10026D01*
X1070Y9800D01*
X1367Y9502D01*
X1460Y9527D01*
X1529Y9724D01*
X1529Y8724D01*
X1518Y8932D01*
X1460Y9072D01*
X1367Y9097D01*
X1297Y9026D01*
X1297Y9167D01*
X1272Y9260D01*
X1169Y9296D01*
X1272Y9339D01*
X1297Y9432D01*
X1000Y9729D01*
X929Y9658D01*
X929Y9800D01*
X632Y10097D01*
X539Y10072D01*
X470Y9875D01*
X481Y9667D01*
X539Y9527D01*
X632Y9502D01*
X929Y9800D01*
X929Y9658D01*
X702Y9432D01*
X727Y9339D01*
X830Y9303D01*
X727Y9260D01*
X702Y9167D01*
X1000Y8870D01*
X1297Y9167D01*
X1297Y9026D01*
X1070Y8800D01*
X1367Y8502D01*
X1460Y8527D01*
X1529Y8724D01*
X1529Y7724D01*
X1518Y7932D01*
X1460Y8072D01*
X1367Y8097D01*
X1297Y8026D01*
X1297Y8167D01*
X1272Y8260D01*
X1169Y8296D01*
X1272Y8339D01*
X1297Y8432D01*
X1000Y8729D01*
X929Y8658D01*
X929Y8800D01*
X632Y9097D01*
X539Y9072D01*
X470Y8875D01*
X481Y8667D01*
X539Y8527D01*
X632Y8502D01*
X929Y8800D01*
X929Y8658D01*
X702Y8432D01*
X727Y8339D01*
X830Y8303D01*
X727Y8260D01*
X702Y8167D01*
X1000Y7870D01*
X1297Y8167D01*
X1297Y8026D01*
X1070Y7800D01*
X1367Y7502D01*
X1460Y7527D01*
X1529Y7724D01*
X1529Y6766D01*
X1524Y6755D01*
X1525Y6903D01*
X1445Y7097D01*
X1297Y7244D01*
X1171Y7297D01*
X1272Y7339D01*
X1297Y7432D01*
X1000Y7729D01*
X929Y7658D01*
X929Y7800D01*
X632Y8097D01*
X539Y8072D01*
X470Y7875D01*
X481Y7667D01*
X539Y7527D01*
X632Y7502D01*
X929Y7800D01*
X929Y7658D01*
X702Y7432D01*
X727Y7339D01*
X837Y7300D01*
X703Y7245D01*
X555Y7097D01*
X475Y6904D01*
X474Y6696D01*
X554Y6503D01*
X702Y6355D01*
X835Y6299D01*
X703Y6245D01*
X555Y6097D01*
X475Y5904D01*
X474Y5696D01*
X554Y5503D01*
X702Y5355D01*
X835Y5299D01*
X703Y5245D01*
X555Y5097D01*
X475Y4904D01*
X474Y4696D01*
X554Y4503D01*
X702Y4355D01*
X774Y4325D01*
X675Y4325D01*
X583Y4287D01*
X513Y4216D01*
X475Y4124D01*
X474Y4025D01*
X474Y3475D01*
X512Y3383D01*
X583Y3313D01*
X675Y3275D01*
X774Y3274D01*
X1324Y3274D01*
X1416Y3312D01*
X1486Y3383D01*
X1524Y3475D01*
X1525Y3574D01*
X1525Y4124D01*
X1487Y4216D01*
X1416Y4286D01*
X1324Y4324D01*
X1225Y4325D01*
X1225Y4325D01*
X1297Y4354D01*
X1444Y4502D01*
X1524Y4695D01*
X1525Y4903D01*
X1445Y5097D01*
X1297Y5244D01*
X1164Y5300D01*
X1297Y5354D01*
X1444Y5502D01*
X1524Y5695D01*
X1525Y5903D01*
X1445Y6097D01*
X1297Y6244D01*
X1164Y6300D01*
X1297Y6354D01*
X1444Y6502D01*
X1475Y6574D01*
X1474Y6465D01*
X1539Y6309D01*
X1658Y6189D01*
X1815Y6125D01*
X1831Y6125D01*
X6278Y1724D01*
X6146Y1725D01*
X5953Y1645D01*
X5805Y1497D01*
X5749Y1364D01*
X5695Y1497D01*
X5547Y1644D01*
X5354Y1724D01*
X5146Y1725D01*
X4953Y1645D01*
X4805Y1497D01*
X4749Y1364D01*
X4695Y1497D01*
X4547Y1644D01*
X4354Y1724D01*
X4146Y1725D01*
X3953Y1645D01*
X3805Y1497D01*
X3749Y1364D01*
X3695Y1497D01*
X3547Y1644D01*
X3354Y1724D01*
X3146Y1725D01*
X2953Y1645D01*
X2805Y1497D01*
X2725Y1304D01*
X2724Y1096D01*
X2804Y903D01*
X2952Y755D01*
X3145Y675D01*
X3353Y674D01*
X3547Y754D01*
X3694Y902D01*
X3750Y1035D01*
X3804Y903D01*
X3952Y755D01*
X4145Y675D01*
X4353Y674D01*
X4547Y754D01*
X4694Y902D01*
X4750Y1035D01*
X4804Y903D01*
X4952Y755D01*
X5145Y675D01*
X5353Y674D01*
X5547Y754D01*
X5694Y902D01*
X5750Y1035D01*
X5804Y903D01*
X5952Y755D01*
X6145Y675D01*
X6353Y674D01*
X6547Y754D01*
X6694Y902D01*
X6750Y1035D01*
X6804Y903D01*
X6952Y755D01*
X7145Y675D01*
X7353Y674D01*
X7547Y754D01*
X7694Y902D01*
X7750Y1035D01*
X7804Y903D01*
X7952Y755D01*
X8145Y675D01*
X8353Y674D01*
X8547Y754D01*
X8694Y902D01*
X8750Y1035D01*
X8804Y903D01*
X8952Y755D01*
X9145Y675D01*
X9353Y674D01*
X9547Y754D01*
X9694Y902D01*
X9724Y974D01*
X9724Y875D01*
X9762Y783D01*
X9833Y713D01*
X9925Y675D01*
X10024Y674D01*
X10574Y674D01*
X10666Y712D01*
X10736Y783D01*
X10774Y875D01*
X10775Y974D01*
X10775Y1524D01*
X10737Y1616D01*
X10666Y1686D01*
X10574Y1724D01*
X10475Y1725D01*
X9925Y1725D01*
X9833Y1687D01*
X9763Y1616D01*
X9725Y1524D01*
X9724Y1425D01*
X9724Y1425D01*
X9695Y1497D01*
X9547Y1644D01*
X9354Y1724D01*
X9146Y1725D01*
X8953Y1645D01*
X8805Y1497D01*
X8749Y1364D01*
X8695Y1497D01*
X8547Y1644D01*
X8354Y1724D01*
X8269Y1724D01*
X9597Y3099D01*
X10699Y3099D01*
X10833Y3126D01*
X10833Y3126D01*
X10947Y3202D01*
X11894Y4150D01*
X22250Y4150D01*
X22276Y4016D01*
X22352Y3902D01*
X23600Y2655D01*
X23600Y1950D01*
X23626Y1816D01*
X23702Y1702D01*
X24150Y1254D01*
X24149Y1091D01*
X24233Y888D01*
X24388Y734D01*
X24590Y650D01*
X24808Y649D01*
X25011Y733D01*
X25149Y872D01*
X25149Y850D01*
X25187Y758D01*
X25258Y688D01*
X25350Y650D01*
X25449Y649D01*
X26049Y649D01*
X26141Y687D01*
X26211Y758D01*
X26249Y850D01*
X26250Y949D01*
X26250Y1549D01*
X26212Y1641D01*
X26141Y1711D01*
X26049Y1749D01*
X26027Y1749D01*
X26165Y1888D01*
X26249Y2090D01*
X26250Y2308D01*
X26166Y2511D01*
X26011Y2665D01*
X25930Y2699D01*
X26011Y2733D01*
X26165Y2888D01*
X26249Y3090D01*
X26250Y3308D01*
X26166Y3511D01*
X26011Y3665D01*
X25809Y3749D01*
X25591Y3750D01*
X25388Y3666D01*
X25234Y3511D01*
X25202Y3436D01*
X25181Y3487D01*
X25085Y3515D01*
X25015Y3444D01*
X25015Y3585D01*
X24987Y3681D01*
X24781Y3754D01*
X24563Y3743D01*
X24412Y3681D01*
X24384Y3585D01*
X24700Y3270D01*
X25015Y3585D01*
X25015Y3444D01*
X24770Y3200D01*
X25085Y2884D01*
X25181Y2912D01*
X25200Y2967D01*
X25233Y2888D01*
X25388Y2734D01*
X25469Y2700D01*
X25388Y2666D01*
X25234Y2511D01*
X25200Y2430D01*
X25166Y2511D01*
X25011Y2665D01*
X24936Y2697D01*
X24987Y2718D01*
X25015Y2814D01*
X24700Y3129D01*
X24384Y2814D01*
X24412Y2718D01*
X24467Y2699D01*
X24388Y2666D01*
X24300Y2577D01*
X24300Y2800D01*
X24281Y2894D01*
X24314Y2884D01*
X24629Y3200D01*
X24314Y3515D01*
X24218Y3487D01*
X24145Y3281D01*
X24154Y3090D01*
X22950Y4294D01*
X22950Y4500D01*
X22950Y4805D01*
X23300Y5155D01*
X23300Y4851D01*
X23289Y4841D01*
X23225Y4684D01*
X23224Y4515D01*
X23289Y4359D01*
X23408Y4239D01*
X23565Y4175D01*
X23734Y4174D01*
X23890Y4239D01*
X24010Y4358D01*
X24074Y4515D01*
X24075Y4684D01*
X24010Y4840D01*
X24000Y4850D01*
X24000Y6048D01*
X24010Y6058D01*
X24074Y6215D01*
X24075Y6384D01*
X24010Y6540D01*
X23891Y6660D01*
X23734Y6724D01*
X23565Y6725D01*
X23452Y6678D01*
X25074Y8300D01*
X25950Y8300D01*
X25950Y8300D01*
X26064Y8322D01*
X26064Y8322D01*
X26162Y8387D01*
X26420Y8646D01*
X26420Y279D01*
X26420Y279D01*
G37*
G54D17*
X26420Y279D02*
X21824Y279D01*
X22047Y502D01*
X22047Y502D01*
X22047Y502D01*
X22123Y616D01*
X22150Y750D01*
X22150Y807D01*
X22244Y902D01*
X22324Y1095D01*
X22325Y1303D01*
X22245Y1497D01*
X22097Y1644D01*
X21904Y1724D01*
X21696Y1725D01*
X21503Y1645D01*
X21355Y1497D01*
X21299Y1364D01*
X21245Y1497D01*
X21097Y1644D01*
X20904Y1724D01*
X20696Y1725D01*
X20503Y1645D01*
X20355Y1497D01*
X20299Y1364D01*
X20245Y1497D01*
X20097Y1644D01*
X19904Y1724D01*
X19696Y1725D01*
X19503Y1645D01*
X19355Y1497D01*
X19299Y1364D01*
X19245Y1497D01*
X19097Y1644D01*
X18904Y1724D01*
X18696Y1725D01*
X18503Y1645D01*
X18355Y1497D01*
X18299Y1364D01*
X18245Y1497D01*
X18097Y1644D01*
X17904Y1724D01*
X17696Y1725D01*
X17503Y1645D01*
X17355Y1497D01*
X17299Y1364D01*
X17245Y1497D01*
X17097Y1644D01*
X16904Y1724D01*
X16696Y1725D01*
X16503Y1645D01*
X16355Y1497D01*
X16299Y1364D01*
X16245Y1497D01*
X16097Y1644D01*
X15904Y1724D01*
X15696Y1725D01*
X15503Y1645D01*
X15355Y1497D01*
X15325Y1425D01*
X15325Y1524D01*
X15287Y1616D01*
X15216Y1686D01*
X15124Y1724D01*
X15025Y1725D01*
X14475Y1725D01*
X14383Y1687D01*
X14313Y1616D01*
X14275Y1524D01*
X14274Y1425D01*
X14274Y920D01*
X14250Y944D01*
X14250Y2448D01*
X14260Y2458D01*
X14324Y2615D01*
X14325Y2784D01*
X14260Y2940D01*
X14141Y3060D01*
X13984Y3124D01*
X13815Y3125D01*
X13659Y3060D01*
X13539Y2941D01*
X13475Y2784D01*
X13474Y2615D01*
X13539Y2459D01*
X13550Y2449D01*
X13550Y800D01*
X13576Y666D01*
X13652Y552D01*
X13925Y279D01*
X279Y279D01*
X279Y15125D01*
X375Y15029D01*
X374Y14896D01*
X454Y14703D01*
X602Y14555D01*
X674Y14525D01*
X674Y14525D01*
X575Y14524D01*
X483Y14486D01*
X412Y14416D01*
X374Y14324D01*
X375Y14112D01*
X437Y14050D01*
X850Y14050D01*
X850Y14057D01*
X950Y14057D01*
X950Y14050D01*
X1362Y14050D01*
X1400Y14087D01*
X1437Y14050D01*
X1850Y14050D01*
X1850Y14057D01*
X1950Y14057D01*
X1950Y14050D01*
X1957Y14050D01*
X1957Y13950D01*
X1950Y13950D01*
X1950Y13537D01*
X2012Y13475D01*
X2125Y13474D01*
X2224Y13475D01*
X2316Y13513D01*
X2387Y13583D01*
X2400Y13614D01*
X2400Y10850D01*
X2400Y10750D01*
X2400Y10424D01*
X2387Y10412D01*
X2322Y10314D01*
X2300Y10200D01*
X2300Y7600D01*
X2322Y7485D01*
X2387Y7387D01*
X4737Y5037D01*
X4737Y5037D01*
X4835Y4972D01*
X4949Y4950D01*
X4950Y4950D01*
X5225Y4950D01*
X7075Y3100D01*
X7074Y3015D01*
X7139Y2859D01*
X7258Y2739D01*
X7415Y2675D01*
X7584Y2674D01*
X7740Y2739D01*
X7860Y2858D01*
X7924Y3015D01*
X7925Y3184D01*
X7860Y3340D01*
X7741Y3460D01*
X7584Y3524D01*
X7499Y3525D01*
X6374Y4650D01*
X7202Y4650D01*
X7239Y4559D01*
X7358Y4439D01*
X7515Y4375D01*
X7684Y4374D01*
X7840Y4439D01*
X7960Y4558D01*
X8024Y4715D01*
X8025Y4884D01*
X7960Y5040D01*
X7841Y5160D01*
X7772Y5188D01*
X7714Y5227D01*
X7600Y5250D01*
X6224Y5250D01*
X5762Y5712D01*
X5664Y5777D01*
X5550Y5800D01*
X5328Y5800D01*
X3350Y7870D01*
X3350Y8906D01*
X3425Y8875D01*
X3524Y8874D01*
X4074Y8874D01*
X4166Y8912D01*
X4236Y8983D01*
X4274Y9075D01*
X4275Y9174D01*
X4275Y9174D01*
X4304Y9103D01*
X4452Y8955D01*
X4645Y8875D01*
X4853Y8874D01*
X5047Y8954D01*
X5194Y9102D01*
X5250Y9235D01*
X5304Y9103D01*
X5452Y8955D01*
X5645Y8875D01*
X5853Y8874D01*
X6047Y8954D01*
X6194Y9102D01*
X6250Y9235D01*
X6304Y9103D01*
X6452Y8955D01*
X6645Y8875D01*
X6853Y8874D01*
X7047Y8954D01*
X7194Y9102D01*
X7250Y9235D01*
X7304Y9103D01*
X7452Y8955D01*
X7645Y8875D01*
X7853Y8874D01*
X8047Y8954D01*
X8194Y9102D01*
X8250Y9235D01*
X8304Y9103D01*
X8452Y8955D01*
X8645Y8875D01*
X8853Y8874D01*
X9047Y8954D01*
X9194Y9102D01*
X9250Y9235D01*
X9304Y9103D01*
X9452Y8955D01*
X9645Y8875D01*
X9853Y8874D01*
X10047Y8954D01*
X10194Y9102D01*
X10250Y9235D01*
X10304Y9103D01*
X10452Y8955D01*
X10645Y8875D01*
X10853Y8874D01*
X11047Y8954D01*
X11194Y9102D01*
X11274Y9295D01*
X11275Y9503D01*
X11195Y9697D01*
X11047Y9844D01*
X10854Y9924D01*
X10646Y9925D01*
X10453Y9845D01*
X10305Y9697D01*
X10249Y9564D01*
X10195Y9697D01*
X10047Y9844D01*
X9854Y9924D01*
X9646Y9925D01*
X9453Y9845D01*
X9305Y9697D01*
X9249Y9564D01*
X9195Y9697D01*
X9047Y9844D01*
X8854Y9924D01*
X8646Y9925D01*
X8453Y9845D01*
X8305Y9697D01*
X8249Y9564D01*
X8195Y9697D01*
X8047Y9844D01*
X7854Y9924D01*
X7646Y9925D01*
X7453Y9845D01*
X7305Y9697D01*
X7249Y9564D01*
X7195Y9697D01*
X7047Y9844D01*
X6854Y9924D01*
X6646Y9925D01*
X6453Y9845D01*
X6305Y9697D01*
X6249Y9564D01*
X6195Y9697D01*
X6047Y9844D01*
X5854Y9924D01*
X5646Y9925D01*
X5453Y9845D01*
X5305Y9697D01*
X5249Y9564D01*
X5195Y9697D01*
X5047Y9844D01*
X4854Y9924D01*
X4646Y9925D01*
X4453Y9845D01*
X4305Y9697D01*
X4275Y9625D01*
X4275Y9724D01*
X4237Y9816D01*
X4166Y9886D01*
X4074Y9924D01*
X3975Y9925D01*
X3425Y9925D01*
X3380Y9906D01*
X3612Y10137D01*
X3612Y10137D01*
X3677Y10235D01*
X3699Y10349D01*
X3700Y10350D01*
X3700Y10850D01*
X3700Y10900D01*
X3700Y17800D01*
X3677Y17914D01*
X3612Y18012D01*
X3612Y18012D01*
X3200Y18424D01*
X3200Y18528D01*
X3211Y18533D01*
X3365Y18688D01*
X3399Y18769D01*
X3433Y18688D01*
X3588Y18534D01*
X3790Y18450D01*
X4008Y18449D01*
X4100Y18487D01*
X4100Y18450D01*
X4122Y18335D01*
X4187Y18237D01*
X4887Y17537D01*
X4887Y17537D01*
X4985Y17472D01*
X5099Y17450D01*
X5100Y17450D01*
X9050Y17450D01*
X9150Y17450D01*
X12525Y17450D01*
X13500Y16475D01*
X13500Y14974D01*
X13365Y14975D01*
X13209Y14910D01*
X13148Y14850D01*
X12650Y14850D01*
X12535Y14827D01*
X12437Y14762D01*
X12175Y14500D01*
X10918Y14500D01*
X10883Y14523D01*
X10750Y14550D01*
X10600Y14550D01*
X8551Y14550D01*
X8541Y14560D01*
X8384Y14624D01*
X8215Y14625D01*
X8059Y14560D01*
X7939Y14441D01*
X7875Y14284D01*
X7874Y14115D01*
X7939Y13959D01*
X8058Y13839D01*
X8215Y13775D01*
X8384Y13774D01*
X8540Y13839D01*
X8550Y13850D01*
X10600Y13850D01*
X10750Y13850D01*
X10883Y13876D01*
X10918Y13900D01*
X12300Y13900D01*
X12300Y13900D01*
X12414Y13922D01*
X12414Y13922D01*
X12512Y13987D01*
X12629Y14105D01*
X12689Y13959D01*
X12750Y13898D01*
X12750Y13674D01*
X12425Y13350D01*
X11200Y13350D01*
X10918Y13350D01*
X10883Y13373D01*
X10750Y13400D01*
X10550Y13400D01*
X7300Y13400D01*
X7166Y13373D01*
X7052Y13297D01*
X7030Y13275D01*
X7015Y13275D01*
X6859Y13210D01*
X6739Y13091D01*
X6675Y12934D01*
X6674Y12765D01*
X6739Y12609D01*
X6858Y12489D01*
X7015Y12425D01*
X7184Y12424D01*
X7340Y12489D01*
X7460Y12608D01*
X7497Y12700D01*
X10550Y12700D01*
X10750Y12700D01*
X10883Y12726D01*
X10918Y12750D01*
X11075Y12750D01*
X12437Y11387D01*
X12437Y11387D01*
X12535Y11322D01*
X12650Y11300D01*
X14952Y11300D01*
X14925Y11234D01*
X14924Y11065D01*
X14989Y10909D01*
X15108Y10789D01*
X15265Y10725D01*
X15434Y10724D01*
X15481Y10744D01*
X15695Y10529D01*
X15495Y10530D01*
X15300Y10449D01*
X15150Y10300D01*
X15070Y10105D01*
X15069Y9895D01*
X15150Y9700D01*
X15299Y9550D01*
X15494Y9470D01*
X15704Y9469D01*
X15899Y9550D01*
X16049Y9699D01*
X16129Y9894D01*
X16130Y10095D01*
X17087Y9137D01*
X17087Y9137D01*
X17185Y9072D01*
X17300Y9050D01*
X18098Y9050D01*
X18158Y8989D01*
X18315Y8925D01*
X18484Y8924D01*
X18640Y8989D01*
X18760Y9108D01*
X18824Y9265D01*
X18825Y9434D01*
X18760Y9590D01*
X18651Y9700D01*
X18850Y9700D01*
X19198Y9700D01*
X19258Y9639D01*
X19415Y9575D01*
X19500Y9575D01*
X19500Y8474D01*
X19400Y8375D01*
X19315Y8375D01*
X19159Y8310D01*
X19039Y8191D01*
X18975Y8034D01*
X18974Y7865D01*
X19039Y7709D01*
X19158Y7589D01*
X19315Y7525D01*
X19484Y7524D01*
X19640Y7589D01*
X19760Y7708D01*
X19824Y7865D01*
X19825Y7950D01*
X20012Y8137D01*
X20012Y8137D01*
X20077Y8235D01*
X20099Y8349D01*
X20100Y8350D01*
X20100Y9625D01*
X22212Y11737D01*
X22212Y11737D01*
X22277Y11835D01*
X22299Y11950D01*
X22300Y11950D01*
X22300Y16725D01*
X23124Y17550D01*
X24555Y17550D01*
X24459Y17510D01*
X24339Y17391D01*
X24275Y17234D01*
X24274Y17065D01*
X24339Y16909D01*
X24400Y16848D01*
X24400Y9774D01*
X24025Y9400D01*
X22550Y9400D01*
X22435Y9377D01*
X22337Y9312D01*
X21300Y8275D01*
X21215Y8275D01*
X21175Y8258D01*
X21175Y8284D01*
X21110Y8440D01*
X20991Y8560D01*
X20834Y8624D01*
X20665Y8625D01*
X20509Y8560D01*
X20389Y8441D01*
X20325Y8284D01*
X20324Y8115D01*
X20389Y7959D01*
X20508Y7839D01*
X20650Y7781D01*
X20650Y7600D01*
X20654Y7574D01*
X20565Y7575D01*
X20409Y7510D01*
X20348Y7450D01*
X16130Y7450D01*
X16130Y8104D01*
X16049Y8299D01*
X15900Y8449D01*
X15705Y8529D01*
X15495Y8530D01*
X15300Y8449D01*
X15150Y8300D01*
X15070Y8105D01*
X15069Y7895D01*
X15150Y7700D01*
X15299Y7550D01*
X15494Y7470D01*
X15704Y7469D01*
X15899Y7550D01*
X16049Y7699D01*
X16129Y7894D01*
X16130Y8104D01*
X16130Y7450D01*
X13268Y7450D01*
X13329Y7624D01*
X13318Y7832D01*
X13260Y7972D01*
X13167Y7997D01*
X13097Y7926D01*
X13097Y8067D01*
X13072Y8160D01*
X12875Y8229D01*
X12667Y8218D01*
X12527Y8160D01*
X12502Y8067D01*
X12800Y7770D01*
X13097Y8067D01*
X13097Y7926D01*
X12870Y7700D01*
X12876Y7694D01*
X12805Y7623D01*
X12800Y7629D01*
X12794Y7623D01*
X12723Y7694D01*
X12729Y7700D01*
X12432Y7997D01*
X12339Y7972D01*
X12270Y7775D01*
X12281Y7567D01*
X12330Y7450D01*
X12050Y7450D01*
X11935Y7427D01*
X11837Y7362D01*
X11037Y6562D01*
X10972Y6464D01*
X10950Y6350D01*
X10950Y5651D01*
X10889Y5591D01*
X10825Y5434D01*
X10824Y5265D01*
X10889Y5109D01*
X11008Y4989D01*
X11165Y4925D01*
X11334Y4924D01*
X11490Y4989D01*
X11610Y5108D01*
X11674Y5265D01*
X11675Y5434D01*
X11610Y5590D01*
X11550Y5651D01*
X11550Y6225D01*
X12174Y6850D01*
X12293Y6850D01*
X12275Y6804D01*
X12274Y6596D01*
X12354Y6403D01*
X12450Y6307D01*
X12450Y5694D01*
X11502Y4747D01*
X11502Y4747D01*
X11502Y4747D01*
X10554Y3799D01*
X9800Y3799D01*
X9800Y5100D01*
X9773Y5233D01*
X9750Y5268D01*
X9750Y7448D01*
X9810Y7508D01*
X9874Y7665D01*
X9875Y7834D01*
X9810Y7990D01*
X9691Y8110D01*
X9534Y8174D01*
X9365Y8175D01*
X9209Y8110D01*
X9089Y7991D01*
X9025Y7834D01*
X9024Y7665D01*
X9089Y7509D01*
X9150Y7448D01*
X9150Y5268D01*
X9126Y5233D01*
X9100Y5100D01*
X9100Y3592D01*
X7851Y2300D01*
X6692Y2300D01*
X2325Y6621D01*
X2325Y6634D01*
X2260Y6790D01*
X2141Y6910D01*
X1984Y6974D01*
X1850Y6975D01*
X1850Y13537D01*
X1850Y13950D01*
X1437Y13950D01*
X1400Y13912D01*
X1362Y13950D01*
X950Y13950D01*
X950Y13537D01*
X1012Y13475D01*
X1125Y13474D01*
X1224Y13475D01*
X1316Y13513D01*
X1387Y13583D01*
X1400Y13614D01*
X1412Y13583D01*
X1483Y13513D01*
X1575Y13475D01*
X1674Y13474D01*
X1787Y13475D01*
X1850Y13537D01*
X1850Y6975D01*
X1815Y6975D01*
X1659Y6910D01*
X1539Y6791D01*
X1529Y6766D01*
X1529Y7724D01*
X1529Y8724D01*
X1529Y9724D01*
X1529Y10724D01*
X1518Y10932D01*
X1460Y11072D01*
X1367Y11097D01*
X1297Y11026D01*
X1297Y11167D01*
X1272Y11260D01*
X1075Y11329D01*
X867Y11318D01*
X850Y11311D01*
X850Y13537D01*
X850Y13950D01*
X437Y13950D01*
X375Y13887D01*
X374Y13675D01*
X412Y13583D01*
X483Y13513D01*
X575Y13475D01*
X674Y13474D01*
X787Y13475D01*
X850Y13537D01*
X850Y11311D01*
X727Y11260D01*
X702Y11167D01*
X1000Y10870D01*
X1297Y11167D01*
X1297Y11026D01*
X1070Y10800D01*
X1367Y10502D01*
X1460Y10527D01*
X1529Y10724D01*
X1529Y9724D01*
X1518Y9932D01*
X1460Y10072D01*
X1367Y10097D01*
X1297Y10026D01*
X1297Y10167D01*
X1272Y10260D01*
X1169Y10296D01*
X1272Y10339D01*
X1297Y10432D01*
X1000Y10729D01*
X929Y10658D01*
X929Y10800D01*
X632Y11097D01*
X539Y11072D01*
X470Y10875D01*
X481Y10667D01*
X539Y10527D01*
X632Y10502D01*
X929Y10800D01*
X929Y10658D01*
X702Y10432D01*
X727Y10339D01*
X830Y10303D01*
X727Y10260D01*
X702Y10167D01*
X1000Y9870D01*
X1297Y10167D01*
X1297Y10026D01*
X1070Y9800D01*
X1367Y9502D01*
X1460Y9527D01*
X1529Y9724D01*
X1529Y8724D01*
X1518Y8932D01*
X1460Y9072D01*
X1367Y9097D01*
X1297Y9026D01*
X1297Y9167D01*
X1272Y9260D01*
X1169Y9296D01*
X1272Y9339D01*
X1297Y9432D01*
X1000Y9729D01*
X929Y9658D01*
X929Y9800D01*
X632Y10097D01*
X539Y10072D01*
X470Y9875D01*
X481Y9667D01*
X539Y9527D01*
X632Y9502D01*
X929Y9800D01*
X929Y9658D01*
X702Y9432D01*
X727Y9339D01*
X830Y9303D01*
X727Y9260D01*
X702Y9167D01*
X1000Y8870D01*
X1297Y9167D01*
X1297Y9026D01*
X1070Y8800D01*
X1367Y8502D01*
X1460Y8527D01*
X1529Y8724D01*
X1529Y7724D01*
X1518Y7932D01*
X1460Y8072D01*
X1367Y8097D01*
X1297Y8026D01*
X1297Y8167D01*
X1272Y8260D01*
X1169Y8296D01*
X1272Y8339D01*
X1297Y8432D01*
X1000Y8729D01*
X929Y8658D01*
X929Y8800D01*
X632Y9097D01*
X539Y9072D01*
X470Y8875D01*
X481Y8667D01*
X539Y8527D01*
X632Y8502D01*
X929Y8800D01*
X929Y8658D01*
X702Y8432D01*
X727Y8339D01*
X830Y8303D01*
X727Y8260D01*
X702Y8167D01*
X1000Y7870D01*
X1297Y8167D01*
X1297Y8026D01*
X1070Y7800D01*
X1367Y7502D01*
X1460Y7527D01*
X1529Y7724D01*
X1529Y6766D01*
X1524Y6755D01*
X1525Y6903D01*
X1445Y7097D01*
X1297Y7244D01*
X1171Y7297D01*
X1272Y7339D01*
X1297Y7432D01*
X1000Y7729D01*
X929Y7658D01*
X929Y7800D01*
X632Y8097D01*
X539Y8072D01*
X470Y7875D01*
X481Y7667D01*
X539Y7527D01*
X632Y7502D01*
X929Y7800D01*
X929Y7658D01*
X702Y7432D01*
X727Y7339D01*
X837Y7300D01*
X703Y7245D01*
X555Y7097D01*
X475Y6904D01*
X474Y6696D01*
X554Y6503D01*
X702Y6355D01*
X835Y6299D01*
X703Y6245D01*
X555Y6097D01*
X475Y5904D01*
X474Y5696D01*
X554Y5503D01*
X702Y5355D01*
X835Y5299D01*
X703Y5245D01*
X555Y5097D01*
X475Y4904D01*
X474Y4696D01*
X554Y4503D01*
X702Y4355D01*
X774Y4325D01*
X675Y4325D01*
X583Y4287D01*
X513Y4216D01*
X475Y4124D01*
X474Y4025D01*
X474Y3475D01*
X512Y3383D01*
X583Y3313D01*
X675Y3275D01*
X774Y3274D01*
X1324Y3274D01*
X1416Y3312D01*
X1486Y3383D01*
X1524Y3475D01*
X1525Y3574D01*
X1525Y4124D01*
X1487Y4216D01*
X1416Y4286D01*
X1324Y4324D01*
X1225Y4325D01*
X1225Y4325D01*
X1297Y4354D01*
X1444Y4502D01*
X1524Y4695D01*
X1525Y4903D01*
X1445Y5097D01*
X1297Y5244D01*
X1164Y5300D01*
X1297Y5354D01*
X1444Y5502D01*
X1524Y5695D01*
X1525Y5903D01*
X1445Y6097D01*
X1297Y6244D01*
X1164Y6300D01*
X1297Y6354D01*
X1444Y6502D01*
X1475Y6574D01*
X1474Y6465D01*
X1539Y6309D01*
X1658Y6189D01*
X1815Y6125D01*
X1831Y6125D01*
X6278Y1724D01*
X6146Y1725D01*
X5953Y1645D01*
X5805Y1497D01*
X5749Y1364D01*
X5695Y1497D01*
X5547Y1644D01*
X5354Y1724D01*
X5146Y1725D01*
X4953Y1645D01*
X4805Y1497D01*
X4749Y1364D01*
X4695Y1497D01*
X4547Y1644D01*
X4354Y1724D01*
X4146Y1725D01*
X3953Y1645D01*
X3805Y1497D01*
X3749Y1364D01*
X3695Y1497D01*
X3547Y1644D01*
X3354Y1724D01*
X3146Y1725D01*
X2953Y1645D01*
X2805Y1497D01*
X2725Y1304D01*
X2724Y1096D01*
X2804Y903D01*
X2952Y755D01*
X3145Y675D01*
X3353Y674D01*
X3547Y754D01*
X3694Y902D01*
X3750Y1035D01*
X3804Y903D01*
X3952Y755D01*
X4145Y675D01*
X4353Y674D01*
X4547Y754D01*
X4694Y902D01*
X4750Y1035D01*
X4804Y903D01*
X4952Y755D01*
X5145Y675D01*
X5353Y674D01*
X5547Y754D01*
X5694Y902D01*
X5750Y1035D01*
X5804Y903D01*
X5952Y755D01*
X6145Y675D01*
X6353Y674D01*
X6547Y754D01*
X6694Y902D01*
X6750Y1035D01*
X6804Y903D01*
X6952Y755D01*
X7145Y675D01*
X7353Y674D01*
X7547Y754D01*
X7694Y902D01*
X7750Y1035D01*
X7804Y903D01*
X7952Y755D01*
X8145Y675D01*
X8353Y674D01*
X8547Y754D01*
X8694Y902D01*
X8750Y1035D01*
X8804Y903D01*
X8952Y755D01*
X9145Y675D01*
X9353Y674D01*
X9547Y754D01*
X9694Y902D01*
X9724Y974D01*
X9724Y875D01*
X9762Y783D01*
X9833Y713D01*
X9925Y675D01*
X10024Y674D01*
X10574Y674D01*
X10666Y712D01*
X10736Y783D01*
X10774Y875D01*
X10775Y974D01*
X10775Y1524D01*
X10737Y1616D01*
X10666Y1686D01*
X10574Y1724D01*
X10475Y1725D01*
X9925Y1725D01*
X9833Y1687D01*
X9763Y1616D01*
X9725Y1524D01*
X9724Y1425D01*
X9724Y1425D01*
X9695Y1497D01*
X9547Y1644D01*
X9354Y1724D01*
X9146Y1725D01*
X8953Y1645D01*
X8805Y1497D01*
X8749Y1364D01*
X8695Y1497D01*
X8547Y1644D01*
X8354Y1724D01*
X8269Y1724D01*
X9597Y3099D01*
X10699Y3099D01*
X10833Y3126D01*
X10833Y3126D01*
X10947Y3202D01*
X11894Y4150D01*
X22250Y4150D01*
X22276Y4016D01*
X22352Y3902D01*
X23600Y2655D01*
X23600Y1950D01*
X23626Y1816D01*
X23702Y1702D01*
X24150Y1254D01*
X24149Y1091D01*
X24233Y888D01*
X24388Y734D01*
X24590Y650D01*
X24808Y649D01*
X25011Y733D01*
X25149Y872D01*
X25149Y850D01*
X25187Y758D01*
X25258Y688D01*
X25350Y650D01*
X25449Y649D01*
X26049Y649D01*
X26141Y687D01*
X26211Y758D01*
X26249Y850D01*
X26250Y949D01*
X26250Y1549D01*
X26212Y1641D01*
X26141Y1711D01*
X26049Y1749D01*
X26027Y1749D01*
X26165Y1888D01*
X26249Y2090D01*
X26250Y2308D01*
X26166Y2511D01*
X26011Y2665D01*
X25930Y2699D01*
X26011Y2733D01*
X26165Y2888D01*
X26249Y3090D01*
X26250Y3308D01*
X26166Y3511D01*
X26011Y3665D01*
X25809Y3749D01*
X25591Y3750D01*
X25388Y3666D01*
X25234Y3511D01*
X25202Y3436D01*
X25181Y3487D01*
X25085Y3515D01*
X25015Y3444D01*
X25015Y3585D01*
X24987Y3681D01*
X24781Y3754D01*
X24563Y3743D01*
X24412Y3681D01*
X24384Y3585D01*
X24700Y3270D01*
X25015Y3585D01*
X25015Y3444D01*
X24770Y3200D01*
X25085Y2884D01*
X25181Y2912D01*
X25200Y2967D01*
X25233Y2888D01*
X25388Y2734D01*
X25469Y2700D01*
X25388Y2666D01*
X25234Y2511D01*
X25200Y2430D01*
X25166Y2511D01*
X25011Y2665D01*
X24936Y2697D01*
X24987Y2718D01*
X25015Y2814D01*
X24700Y3129D01*
X24384Y2814D01*
X24412Y2718D01*
X24467Y2699D01*
X24388Y2666D01*
X24300Y2577D01*
X24300Y2800D01*
X24281Y2894D01*
X24314Y2884D01*
X24629Y3200D01*
X24314Y3515D01*
X24218Y3487D01*
X24145Y3281D01*
X24154Y3090D01*
X22950Y4294D01*
X22950Y4500D01*
X22950Y4805D01*
X23300Y5155D01*
X23300Y4851D01*
X23289Y4841D01*
X23225Y4684D01*
X23224Y4515D01*
X23289Y4359D01*
X23408Y4239D01*
X23565Y4175D01*
X23734Y4174D01*
X23890Y4239D01*
X24010Y4358D01*
X24074Y4515D01*
X24075Y4684D01*
X24010Y4840D01*
X24000Y4850D01*
X24000Y6048D01*
X24010Y6058D01*
X24074Y6215D01*
X24075Y6384D01*
X24010Y6540D01*
X23891Y6660D01*
X23734Y6724D01*
X23565Y6725D01*
X23452Y6678D01*
X25074Y8300D01*
X25950Y8300D01*
X25950Y8300D01*
X26064Y8322D01*
X26064Y8322D01*
X26162Y8387D01*
X26420Y8646D01*
X26420Y279D01*
M02*
