G04 (created by PCBNEW (2013-05-18 BZR 4017)-stable) date Tue 12 Nov 2013 00:31:20 CST*
%MOIN*%
G04 Gerber Fmt 3.4, Leading zero omitted, Abs format*
%FSLAX34Y34*%
G01*
G70*
G90*
G04 APERTURE LIST*
%ADD10C,0.00590551*%
%ADD11C,0.00393701*%
G04 APERTURE END LIST*
G54D10*
G54D11*
X45250Y-27000D02*
X54500Y-27000D01*
X54500Y-33000D02*
X45250Y-33000D01*
X54500Y-27000D02*
X54500Y-33000D01*
X45250Y-33000D02*
X45250Y-27000D01*
M02*
