G04 (created by PCBNEW (2013-05-31 BZR 4019)-stable) date 7/5/2014 4:02:46 PM*
%MOIN*%
G04 Gerber Fmt 3.4, Leading zero omitted, Abs format*
%FSLAX34Y34*%
G01*
G70*
G90*
G04 APERTURE LIST*
%ADD10C,0.00590551*%
%ADD11C,0.015*%
G04 APERTURE END LIST*
G54D10*
G54D11*
X3937Y-21653D02*
X3937Y-5511D01*
X21653Y-23228D02*
X5511Y-23228D01*
X23228Y-5511D02*
X23228Y-21653D01*
X5511Y-3937D02*
X21653Y-3937D01*
X21653Y-23228D02*
G75*
G03X23228Y-21653I0J1574D01*
G74*
G01*
X23228Y-5511D02*
G75*
G03X21653Y-3937I-1574J0D01*
G74*
G01*
X5511Y-3937D02*
G75*
G03X3937Y-5511I0J-1574D01*
G74*
G01*
X3937Y-21653D02*
G75*
G03X5511Y-23228I1574J0D01*
G74*
G01*
M02*
