G04 DipTrace 2.1.0.5*
%INTop Mask.gbr*%
%MOIN*%
%ADD10C,0.0098*%
%ADD11C,0.0055*%
%ADD12C,0.003*%
%ADD13C,0.05*%
%ADD14C,0.025*%
%ADD15C,0.0125*%
%ADD16C,0.02*%
%ADD17C,0.1*%
%ADD18C,0.01*%
%ADD19C,0.0013*%
%ADD20C,0.15*%
%ADD21C,0.0039*%
%ADD22R,0.0591X0.0591*%
%ADD23C,0.0591*%
%ADD24R,0.0512X0.0591*%
%ADD25R,0.0591X0.0512*%
%ADD26R,0.063X0.0709*%
%ADD27C,0.0984*%
%ADD28R,0.0665X0.0665*%
%ADD29C,0.0665*%
%ADD30C,0.1874*%
%ADD31R,0.0394X0.0748*%
%ADD32R,0.0866X0.0551*%
%ADD33R,0.0354X0.0551*%
%ADD34C,0.0591*%
%ADD35C,0.0512*%
%ADD36R,0.0886X0.0197*%
%ADD37R,0.1378X0.0807*%
%ADD38R,0.1535X0.0807*%
%ADD39C,0.0551*%
%ADD40R,0.1181X0.0433*%
%ADD41R,0.0787X0.1181*%
%ADD42R,0.0394X0.1181*%
%ADD43C,0.0709*%
%ADD44R,0.165X0.0701*%
%ADD45R,0.1732X0.1358*%
%ADD46C,0.085*%
%ADD47C,0.0079*%
%ADD48R,0.063X0.063*%
%ADD49C,0.063*%
%ADD50C,0.22*%
%ADD51R,0.0374X0.0354*%
%ADD52R,0.0433X0.0394*%
%ADD53C,0.06*%
%ADD54R,0.0512X0.0512*%
%ADD55C,0.0709*%
%ADD56R,0.0748X0.0591*%
%ADD57C,0.063*%
%ADD58C,0.0669*%
%ADD59R,0.0315X0.0512*%
%ADD60R,0.0512X0.0315*%
%ADD61R,0.0512X0.0236*%
%ADD62C,0.0142*%
%ADD63R,0.0315X0.0217*%
%ADD64R,0.0138X0.0571*%
%ADD65R,0.0315X0.0354*%
%ADD66R,0.0669X0.0598*%
%ADD67C,0.0827*%
%ADD68C,0.1181*%
%ADD69C,0.126*%
%ADD70C,0.1772*%
%ADD71R,0.0669X0.0394*%
%ADD72C,0.04*%
%ADD73C,0.0191*%
%ADD74C,0.0394*%
%ADD75C,0.0429*%
%ADD76C,0.1283*%
%ADD77C,0.0354*%
%ADD78C,0.0469*%
%ADD79C,0.13*%
%ADD80C,0.038*%
%ADD81C,0.0315*%
%ADD82C,0.0276*%
%ADD83C,0.0906*%
%ADD84C,0.1181*%
%ADD85C,0.0479*%
%ADD86C,0.0321*%
%ADD87R,0.0748X0.0472*%
%ADD88R,0.0591X0.0315*%
%ADD89C,0.185*%
%ADD90C,0.1693*%
%ADD91C,0.1339*%
%ADD92C,0.1102*%
%ADD93C,0.0906*%
%ADD94C,0.0748*%
%ADD95R,0.0748X0.0677*%
%ADD96R,0.0591X0.052*%
%ADD97R,0.0394X0.0433*%
%ADD98R,0.0236X0.0276*%
%ADD99R,0.0217X0.065*%
%ADD100R,0.0059X0.0492*%
%ADD101R,0.0394X0.0295*%
%ADD102R,0.0236X0.0138*%
%ADD103R,0.0433X0.0157*%
%ADD104R,0.0591X0.0394*%
%ADD105R,0.0433X0.0236*%
%ADD106R,0.0394X0.0591*%
%ADD107R,0.0236X0.0433*%
%ADD108C,0.0748*%
%ADD109C,0.0551*%
%ADD110R,0.0827X0.0669*%
%ADD111R,0.0669X0.0512*%
%ADD112C,0.0787*%
%ADD113R,0.0433X0.0433*%
%ADD114C,0.0679*%
%ADD115C,0.0521*%
%ADD116R,0.0512X0.0472*%
%ADD117R,0.0354X0.0315*%
%ADD118R,0.0453X0.0433*%
%ADD119R,0.0295X0.0276*%
%ADD120C,0.2279*%
%ADD121C,0.2121*%
%ADD122R,0.0709X0.0709*%
%ADD123R,0.0551X0.0551*%
%ADD124C,0.0929*%
%ADD125C,0.0772*%
%ADD126R,0.1811X0.1437*%
%ADD127R,0.1654X0.128*%
%ADD128R,0.1728X0.078*%
%ADD129R,0.1571X0.0622*%
%ADD130C,0.0787*%
%ADD131R,0.0472X0.126*%
%ADD132R,0.0315X0.1102*%
%ADD133R,0.0866X0.126*%
%ADD134R,0.0709X0.1102*%
%ADD135R,0.126X0.0512*%
%ADD136R,0.1102X0.0354*%
%ADD137C,0.0472*%
%ADD138R,0.1614X0.0886*%
%ADD139R,0.1457X0.0728*%
%ADD140R,0.1457X0.0886*%
%ADD141R,0.1299X0.0728*%
%ADD142R,0.0965X0.0276*%
%ADD143R,0.0807X0.0118*%
%ADD144C,0.0433*%
%ADD145C,0.0669*%
%ADD146C,0.0512*%
%ADD147R,0.0433X0.063*%
%ADD148R,0.0276X0.0472*%
%ADD149R,0.0945X0.063*%
%ADD150R,0.0787X0.0472*%
%ADD151R,0.0472X0.0827*%
%ADD152R,0.0315X0.0669*%
%ADD153C,0.1953*%
%ADD154C,0.1795*%
%ADD155C,0.0744*%
%ADD156C,0.0587*%
%ADD157R,0.0744X0.0744*%
%ADD158R,0.0587X0.0587*%
%ADD159C,0.1063*%
%ADD160R,0.0709X0.0787*%
%ADD161R,0.0551X0.063*%
%ADD162R,0.0669X0.0591*%
%ADD163R,0.0512X0.0433*%
%ADD164R,0.0591X0.0669*%
%ADD165R,0.0433X0.0512*%
%ADD166R,0.0669X0.0669*%
%ADD167C,0.0093*%
%ADD168C,0.0077*%
%ADD169C,0.0154*%
%ADD170C,0.0124*%
%FSLAX44Y44*%
%SFA1B1*%
%OFA0B0*%
G04*
G70*
G90*
G75*
G01*
%LNTopMask*%
%LPD*%
D85*
X10000Y24000D3*
Y21500D3*
X12500D3*
X9500Y7000D3*
X1000Y16567D3*
Y28000D3*
Y18000D3*
Y26000D3*
X4500Y24000D3*
X9000Y20500D3*
X10000Y29000D3*
X4500Y24000D3*
X11000D3*
X9000Y20500D3*
X18000Y29000D3*
X22000Y33000D3*
X17000Y23500D3*
X15000D3*
X29000Y17500D3*
Y16500D3*
Y15500D3*
Y14500D3*
X16000D3*
X5000Y36000D3*
X34000Y40500D3*
X28500Y27000D3*
X20000Y21500D3*
Y20500D3*
X21000Y27000D3*
X14000Y9000D3*
X17000Y6500D3*
X14000Y12000D3*
X10000D3*
Y9000D3*
X17000Y3500D3*
Y6500D3*
X15000Y46000D3*
X9000Y18000D3*
X29500Y10000D3*
Y11000D3*
X27500Y18500D3*
Y19500D3*
X13500Y33000D3*
X33000Y4000D3*
X20000Y29000D3*
X3500Y21000D3*
X10000Y25000D3*
Y22000D3*
X21500Y30500D3*
X18500Y33500D3*
X11000Y29500D3*
X6750Y21250D3*
X11000Y29500D3*
X20500D3*
X18500Y31500D3*
X8500Y14000D3*
X13500Y17000D3*
X9500Y14000D3*
X14000Y17500D3*
X21000Y30000D3*
X19000Y32000D3*
D166*
X17000Y40492D3*
D58*
Y39508D3*
D166*
X21000Y40492D3*
D58*
Y39508D3*
D166*
X25000Y40492D3*
D58*
Y39508D3*
D164*
X27874Y16500D3*
X27126D3*
X27874Y17500D3*
X27126D3*
X32374Y4000D3*
X31626D3*
X5626Y19000D3*
X6374D3*
X27874Y14500D3*
X27126D3*
X27874Y15500D3*
X27126D3*
X18126Y6500D3*
X18874D3*
X25874Y18500D3*
X25126D3*
D160*
X17949Y14500D3*
X19051D3*
D164*
X25874Y19500D3*
X25126D3*
D162*
X12500Y33126D3*
Y33874D3*
D164*
X6126Y36000D3*
X6874D3*
D159*
X24087D3*
X19913D3*
D160*
X5449Y18000D3*
X6551D3*
D157*
X30711Y20181D3*
D155*
Y19091D3*
Y18000D3*
Y16909D3*
Y15819D3*
X31829Y19636D3*
Y18545D3*
Y17455D3*
Y16364D3*
D153*
X31270Y22919D3*
Y13081D3*
D157*
X30711Y29819D3*
D155*
Y30909D3*
Y32000D3*
Y33091D3*
Y34181D3*
X31829Y30364D3*
Y31455D3*
Y32545D3*
Y33636D3*
D153*
X31270Y36919D3*
Y27081D3*
D151*
X19209Y20500D3*
X17791D3*
X30291Y10000D3*
X31709D3*
D149*
X12630Y16000D3*
D147*
X11626D3*
G36*
X26685Y37657D2*
Y38602D1*
X27315D1*
Y37657D1*
X26685D1*
G37*
G36*
Y36909D2*
Y37343D1*
X27315D1*
Y36909D1*
X26685D1*
G37*
D149*
X31370Y39000D3*
D147*
X32374D3*
D166*
X2000Y45500D3*
D145*
Y46500D3*
D23*
X2750Y45250D3*
G36*
X3526Y45865D2*
Y45636D1*
X3364Y45475D1*
X3136D1*
X2974Y45636D1*
Y45865D1*
X3136Y46026D1*
X3364D1*
X3526Y45865D1*
G37*
D23*
X2750Y46250D3*
X3250Y46750D3*
X2750Y42250D3*
G36*
X3526Y42865D2*
Y42636D1*
X3364Y42475D1*
X3136D1*
X2974Y42636D1*
Y42865D1*
X3136Y43026D1*
X3364D1*
X3526Y42865D1*
G37*
D23*
X2750Y43250D3*
X3250Y43750D3*
X1750Y42250D3*
G36*
X2526Y42865D2*
Y42636D1*
X2364Y42475D1*
X2136D1*
X1974Y42636D1*
Y42865D1*
X2136Y43026D1*
X2364D1*
X2526Y42865D1*
G37*
D23*
X1750Y43250D3*
X2250Y43750D3*
D49*
X1875Y21134D3*
Y22866D3*
D135*
X12063Y13469D3*
Y12799D3*
Y11844D3*
Y10860D3*
Y9876D3*
Y8892D3*
Y7907D3*
Y6923D3*
Y5939D3*
D133*
X9209Y15220D3*
Y3409D3*
D131*
X7378Y15063D3*
X3854D3*
X2831D3*
D133*
X1866Y15220D3*
Y3409D3*
D130*
X11000Y14000D3*
Y5181D3*
D124*
X4602Y6949D3*
Y4051D3*
Y14449D3*
Y9551D3*
D166*
X13000Y40000D3*
D58*
X14000D3*
D166*
X26500Y6500D3*
D58*
Y7500D3*
Y8500D3*
Y9500D3*
Y10500D3*
Y11500D3*
D166*
X13000Y41000D3*
D58*
X14000D3*
D166*
X13000Y42000D3*
D58*
X14000D3*
D122*
X21000Y43000D3*
D43*
Y44000D3*
Y45000D3*
D122*
X17000Y43000D3*
D43*
Y44000D3*
Y45000D3*
D166*
X20500Y25500D3*
D145*
Y24500D3*
Y23500D3*
Y22500D3*
X23500D3*
Y23500D3*
Y24500D3*
Y25500D3*
D120*
X2500Y1250D3*
X32500D3*
X2500Y48750D3*
X32500D3*
D118*
X14463Y44626D3*
Y45374D3*
X13537Y45000D3*
D164*
X18874Y22500D3*
X18126D3*
Y21500D3*
X18874D3*
X18126Y16500D3*
X18874D3*
D162*
X29000Y20626D3*
Y21374D3*
D116*
X5165Y47250D3*
X5835D3*
D114*
X29000Y35500D3*
G36*
X29339Y40839D2*
Y40161D1*
X28661D1*
Y40839D1*
X29339D1*
G37*
D116*
X5835Y43250D3*
X5165D3*
X5835Y45750D3*
X5165D3*
D164*
X29626Y7500D3*
X30374D3*
X18126Y17500D3*
X18874D3*
X32626Y11000D3*
X33374D3*
X30626D3*
X31374D3*
D116*
X5835Y43750D3*
X5165D3*
X5835Y44250D3*
X5165D3*
X5835Y42750D3*
X5165D3*
X5835Y46250D3*
X5165D3*
X5835Y46750D3*
X5165D3*
X5835Y42250D3*
X5165D3*
X5835Y41750D3*
X5165D3*
D164*
X18874Y24500D3*
X18126D3*
X18874Y23500D3*
X18126D3*
X9626Y18000D3*
X10374D3*
X10126Y30000D3*
X10874D3*
X21626Y27000D3*
X22374D3*
X30374Y6500D3*
X29626D3*
D23*
X1800Y40181D3*
Y39394D3*
Y38606D3*
D22*
Y37819D3*
D112*
X619Y40575D3*
X3572D3*
X619Y37425D3*
X3572D3*
D23*
X1800Y36181D3*
Y35394D3*
Y34606D3*
D22*
Y33819D3*
D112*
X619Y36575D3*
X3572D3*
X619Y33425D3*
X3572D3*
D110*
X25000Y16429D3*
Y17571D3*
D122*
X16500Y34000D3*
D55*
Y35000D3*
Y36000D3*
Y37000D3*
X13500D3*
Y36000D3*
Y35000D3*
Y34000D3*
D108*
X24630Y44984D3*
Y44000D3*
Y43016D3*
X23370D3*
Y44000D3*
Y44984D3*
D166*
X32000Y25000D3*
D145*
X31000D3*
D108*
X11370Y18016D3*
Y19000D3*
Y19984D3*
X12630D3*
Y19000D3*
Y18016D3*
D166*
X23500Y6500D3*
D145*
Y7500D3*
Y8500D3*
Y9500D3*
Y10500D3*
Y11500D3*
Y12500D3*
Y13500D3*
Y14500D3*
Y15500D3*
Y16500D3*
Y17500D3*
Y18500D3*
Y19500D3*
X20500D3*
Y18500D3*
Y17500D3*
Y16500D3*
Y15500D3*
Y14500D3*
Y13500D3*
Y12500D3*
Y11500D3*
Y10500D3*
Y9500D3*
Y8500D3*
Y7500D3*
Y6500D3*
D97*
X28500Y27606D3*
X28874Y28394D3*
X28126D3*
D166*
X8500Y46000D3*
D145*
Y45000D3*
Y44000D3*
Y43000D3*
Y42000D3*
Y41000D3*
Y40000D3*
Y39000D3*
Y38000D3*
Y37000D3*
Y36000D3*
Y35000D3*
Y34000D3*
Y33000D3*
X11500D3*
Y34000D3*
Y35000D3*
Y36000D3*
Y37000D3*
Y38000D3*
Y39000D3*
Y40000D3*
Y41000D3*
Y42000D3*
Y43000D3*
Y44000D3*
Y45000D3*
Y46000D3*
D95*
X31055Y40500D3*
X32945D3*
D108*
X28370Y24016D3*
Y25000D3*
Y25984D3*
X29630D3*
Y25000D3*
Y24016D3*
D49*
X25886Y42996D3*
Y45004D3*
X29114Y42996D3*
Y45004D3*
D93*
X33819Y44000D3*
D69*
X33031Y45772D3*
Y42228D3*
D91*
X32638Y44000D3*
D89*
X30276D3*
D166*
X20500Y47000D3*
D145*
X19500D3*
X18500D3*
X17500D3*
D108*
X27484Y3370D3*
X26500D3*
X25516D3*
Y4630D3*
X26500D3*
X27484D3*
D87*
X24469Y14646D3*
X25531D3*
Y15354D3*
X24469D3*
M02*
