G04 Title: RX Daughterboard, silkscreen, component side *
G04 Creator: pcb-bin 1.99q *
G04 CreationDate: Thu Mar  2 20:16:20 2006 UTC *
G04 For: matt *
G04 Format: Gerber/RS-274X *
G04 PCB-Dimensions: 275000 250000 *
G04 PCB-Coordinate-Origin: lower left *
%MOIN*%
%FSLAX24Y24*%
%IPPOS*%
%ADD11C,0.0080*%
%ADD12C,0.0280*%
%ADD13C,0.0100*%
%ADD14C,0.0300*%
%ADD15R,0.0240X0.0240*%
%ADD16R,0.0440X0.0440*%
%ADD17R,0.0300X0.0300*%
%ADD18C,0.0060*%
%ADD19R,0.0200X0.0200*%
%ADD20R,0.0540X0.0540*%
%ADD21C,0.0200*%
%ADD22C,0.0500*%
%ADD23R,0.0500X0.0500*%
%ADD24R,0.0600X0.0600*%
%ADD25R,0.0660X0.0660*%
%ADD26R,0.0900X0.0900X0.0600X0.0600*%
%ADD27R,0.0900X0.0900*%
%ADD28C,0.0600*%
%ADD29C,0.0660*%
%AMTHERM1*7,0,0,0.0900,0.0600,0.0100,45*%
%ADD30THERM1*%
%ADD31C,0.0900X0.0600*%
%ADD32C,0.0900*%
%ADD33C,0.1200X0.0900*%
%ADD34C,0.1200*%
%ADD35C,0.0150*%
%AMTHERM2*7,0,0,0.1200,0.0900,0.0150,45*%
%ADD36THERM2*%
%ADD37C,0.0720*%
%ADD38C,0.0920X0.0720*%
%ADD39C,0.0920*%
%ADD40C,0.0240*%
%ADD41C,0.0340*%
%ADD42C,0.1320*%
%ADD43C,0.1100*%
%ADD44C,0.1520*%
%ADD45C,0.1520X0.1320*%
%ADD46C,0.0400*%
%ADD47C,0.0600X0.0400*%
%AMTHERM3*7,0,0,0.0600,0.0400,0.0100,45*%
%ADD48THERM3*%
%ADD49C,0.0360*%
%ADD50C,0.0560*%
%ADD51C,0.0560X0.0360*%
%AMTHERM4*7,0,0,0.0560,0.0360,0.0080,45*%
%ADD52THERM4*%
%LNGROUP_3*%
%LPD*%
G01X0Y0D02*
G54D18*X18130Y1680D02*X18670D01*
Y2520D02*Y1680D01*
X18130Y2520D02*X18670D01*
X18130D02*Y1680D01*
G04 Text: C50 *
G54D11*X18250Y1020D02*X18400D01*
X18200Y1070D02*X18250Y1020D01*
X18200Y1370D02*Y1070D01*
Y1370D02*X18250Y1420D01*
X18400D01*
X18520D02*X18720D01*
X18520D02*Y1220D01*
X18570Y1270D01*
X18670D01*
X18720Y1220D01*
Y1070D01*
X18670Y1020D02*X18720Y1070D01*
X18570Y1020D02*X18670D01*
X18520Y1070D02*X18570Y1020D01*
X18840Y1070D02*X18890Y1020D01*
X18840Y1370D02*Y1070D01*
Y1370D02*X18890Y1420D01*
X18990D01*
X19040Y1370D01*
Y1070D01*
X18990Y1020D02*X19040Y1070D01*
X18890Y1020D02*X18990D01*
X18840Y1120D02*X19040Y1320D01*
G54D18*X18130Y2640D02*X18670D01*
Y3480D02*Y2640D01*
X18130Y3480D02*X18670D01*
X18130D02*Y2640D01*
G04 Text: R35 *
G54D11*X18800Y3280D02*X19000D01*
X19050Y3230D01*
Y3130D01*
X19000Y3080D02*X19050Y3130D01*
X18850Y3080D02*X19000D01*
X18850Y3280D02*Y2880D01*
Y3080D02*X19050Y2880D01*
X19170Y3230D02*X19220Y3280D01*
X19320D01*
X19370Y3230D01*
Y2930D01*
X19320Y2880D02*X19370Y2930D01*
X19220Y2880D02*X19320D01*
X19170Y2930D02*X19220Y2880D01*
Y3080D02*X19370D01*
X19490Y3280D02*X19690D01*
X19490D02*Y3080D01*
X19540Y3130D01*
X19640D01*
X19690Y3080D01*
Y2930D01*
X19640Y2880D02*X19690Y2930D01*
X19540Y2880D02*X19640D01*
X19490Y2930D02*X19540Y2880D01*
G54D13*X17350Y6450D02*Y4550D01*
X14250Y6450D02*X17350D01*
X14250D02*Y4550D01*
X16050D02*X17350D01*
X14250D02*X15550D01*
X16050D02*G75*G03X15550Y4550I-250J0D01*G01*
G04 Text: U3 *
G54D11*X15500Y6900D02*Y6550D01*
X15550Y6500D01*
X15650D01*
X15700Y6550D01*
Y6900D02*Y6550D01*
X15820Y6850D02*X15870Y6900D01*
X15970D01*
X16020Y6850D01*
Y6550D01*
X15970Y6500D02*X16020Y6550D01*
X15870Y6500D02*X15970D01*
X15820Y6550D02*X15870Y6500D01*
Y6700D02*X16020D01*
G54D18*X17530Y5080D02*X18070D01*
Y5920D02*Y5080D01*
X17530Y5920D02*X18070D01*
X17530D02*Y5080D01*
G04 Text: R39 *
G54D11*X18100Y5420D02*X18300D01*
X18350Y5370D01*
Y5270D01*
X18300Y5220D02*X18350Y5270D01*
X18150Y5220D02*X18300D01*
X18150Y5420D02*Y5020D01*
Y5220D02*X18350Y5020D01*
X18470Y5370D02*X18520Y5420D01*
X18620D01*
X18670Y5370D01*
Y5070D01*
X18620Y5020D02*X18670Y5070D01*
X18520Y5020D02*X18620D01*
X18470Y5070D02*X18520Y5020D01*
Y5220D02*X18670D01*
X18790Y5020D02*X18990Y5220D01*
Y5370D02*Y5220D01*
X18940Y5420D02*X18990Y5370D01*
X18840Y5420D02*X18940D01*
X18790Y5370D02*X18840Y5420D01*
X18790Y5370D02*Y5270D01*
X18840Y5220D01*
X18990D01*
G54D18*X13630Y4980D02*X14170D01*
Y5820D02*Y4980D01*
X13630Y5820D02*X14170D01*
X13630D02*Y4980D01*
G04 Text: R38 *
G54D11*X13080Y5200D02*Y5000D01*
Y5200D02*X13130Y5250D01*
X13230D01*
X13280Y5200D02*X13230Y5250D01*
X13280Y5200D02*Y5050D01*
X13080D02*X13480D01*
X13280D02*X13480Y5250D01*
X13130Y5370D02*X13080Y5420D01*
Y5520D02*Y5420D01*
Y5520D02*X13130Y5570D01*
X13430D01*
X13480Y5520D02*X13430Y5570D01*
X13480Y5520D02*Y5420D01*
X13430Y5370D02*X13480Y5420D01*
X13280Y5570D02*Y5420D01*
X13430Y5690D02*X13480Y5740D01*
X13330Y5690D02*X13430D01*
X13330D02*X13280Y5740D01*
Y5840D02*Y5740D01*
Y5840D02*X13330Y5890D01*
X13430D01*
X13480Y5840D02*X13430Y5890D01*
X13480Y5840D02*Y5740D01*
X13230Y5690D02*X13280Y5740D01*
X13130Y5690D02*X13230D01*
X13130D02*X13080Y5740D01*
Y5840D02*Y5740D01*
Y5840D02*X13130Y5890D01*
X13230D01*
X13280Y5840D02*X13230Y5890D01*
G54D18*X18130Y3680D02*X18670D01*
Y4520D02*Y3680D01*
X18130Y4520D02*X18670D01*
X18130D02*Y3680D01*
G04 Text: R36 *
G54D11*X18800Y4320D02*X19000D01*
X19050Y4270D01*
Y4170D01*
X19000Y4120D02*X19050Y4170D01*
X18850Y4120D02*X19000D01*
X18850Y4320D02*Y3920D01*
Y4120D02*X19050Y3920D01*
X19170Y4270D02*X19220Y4320D01*
X19320D01*
X19370Y4270D01*
Y3970D01*
X19320Y3920D02*X19370Y3970D01*
X19220Y3920D02*X19320D01*
X19170Y3970D02*X19220Y3920D01*
Y4120D02*X19370D01*
X19640Y4320D02*X19690Y4270D01*
X19540Y4320D02*X19640D01*
X19490Y4270D02*X19540Y4320D01*
X19490Y4270D02*Y3970D01*
X19540Y3920D01*
X19640Y4120D02*X19690Y4070D01*
X19490Y4120D02*X19640D01*
X19540Y3920D02*X19640D01*
X19690Y3970D01*
Y4070D02*Y3970D01*
G54D18*X20230Y5180D02*X20770D01*
Y6020D02*Y5180D01*
X20230Y6020D02*X20770D01*
X20230D02*Y5180D01*
G04 Text: R31 *
G54D11*X19300Y6020D02*X19500D01*
X19550Y5970D01*
Y5870D01*
X19500Y5820D02*X19550Y5870D01*
X19350Y5820D02*X19500D01*
X19350Y6020D02*Y5620D01*
Y5820D02*X19550Y5620D01*
X19670Y5970D02*X19720Y6020D01*
X19820D01*
X19870Y5970D01*
Y5670D01*
X19820Y5620D02*X19870Y5670D01*
X19720Y5620D02*X19820D01*
X19670Y5670D02*X19720Y5620D01*
Y5820D02*X19870D01*
X20040Y5620D02*X20140D01*
X20090Y6020D02*Y5620D01*
X19990Y5920D02*X20090Y6020D01*
G54D18*X22220Y4170D02*Y3630D01*
X21380Y4170D02*X22220D01*
X21380D02*Y3630D01*
X22220D01*
G04 Text: R30 *
G54D11*X20300Y4020D02*X20500D01*
X20550Y3970D01*
Y3870D01*
X20500Y3820D02*X20550Y3870D01*
X20350Y3820D02*X20500D01*
X20350Y4020D02*Y3620D01*
Y3820D02*X20550Y3620D01*
X20670Y3970D02*X20720Y4020D01*
X20820D01*
X20870Y3970D01*
Y3670D01*
X20820Y3620D02*X20870Y3670D01*
X20720Y3620D02*X20820D01*
X20670Y3670D02*X20720Y3620D01*
Y3820D02*X20870D01*
X20990Y3670D02*X21040Y3620D01*
X20990Y3970D02*Y3670D01*
Y3970D02*X21040Y4020D01*
X21140D01*
X21190Y3970D01*
Y3670D01*
X21140Y3620D02*X21190Y3670D01*
X21040Y3620D02*X21140D01*
X20990Y3720D02*X21190Y3920D01*
G54D13*X24050Y6550D02*Y4650D01*
X20950Y6550D02*X24050D01*
X20950D02*Y4650D01*
X22750D02*X24050D01*
X20950D02*X22250D01*
X22750D02*G75*G03X22250Y4650I-250J0D01*G01*
G04 Text: U2 *
G54D11*X22200Y7100D02*Y6750D01*
X22250Y6700D01*
X22350D01*
X22400Y6750D01*
Y7100D02*Y6750D01*
X22520Y7050D02*X22570Y7100D01*
X22720D01*
X22770Y7050D01*
Y6950D01*
X22520Y6700D02*X22770Y6950D01*
X22520Y6700D02*X22770D01*
G54D13*X8560Y7350D02*X10070D01*
X9570D02*X11080D01*
Y5350D01*
X8560D02*X11080D01*
X8560Y7350D02*Y5350D01*
X9570Y7350D02*G75*G03X10070Y7350I250J0D01*G01*
G04 Text: U1 *
G54D11*X10650Y5100D02*Y4750D01*
X10700Y4700D01*
X10800D01*
X10850Y4750D01*
Y5100D02*Y4750D01*
X11020Y4700D02*X11120D01*
X11070Y5100D02*Y4700D01*
X10970Y5000D02*X11070Y5100D01*
G54D18*X24330Y5280D02*X24870D01*
Y6120D02*Y5280D01*
X24330Y6120D02*X24870D01*
X24330D02*Y5280D01*
G04 Text: R34 *
G54D11*X25100Y5920D02*X25300D01*
X25350Y5870D01*
Y5770D01*
X25300Y5720D02*X25350Y5770D01*
X25150Y5720D02*X25300D01*
X25150Y5920D02*Y5520D01*
Y5720D02*X25350Y5520D01*
X25470Y5870D02*X25520Y5920D01*
X25620D01*
X25670Y5870D01*
Y5570D01*
X25620Y5520D02*X25670Y5570D01*
X25520Y5520D02*X25620D01*
X25470Y5570D02*X25520Y5520D01*
Y5720D02*X25670D01*
X25790D02*X25990Y5920D01*
X25790Y5720D02*X26040D01*
X25990Y5920D02*Y5520D01*
G54D18*X24230Y3780D02*X24770D01*
Y4620D02*Y3780D01*
X24230Y4620D02*X24770D01*
X24230D02*Y3780D01*
G04 Text: R33 *
G54D11*X24900Y4320D02*X25100D01*
X25150Y4270D01*
Y4170D01*
X25100Y4120D02*X25150Y4170D01*
X24950Y4120D02*X25100D01*
X24950Y4320D02*Y3920D01*
Y4120D02*X25150Y3920D01*
X25270Y4270D02*X25320Y4320D01*
X25420D01*
X25470Y4270D01*
Y3970D01*
X25420Y3920D02*X25470Y3970D01*
X25320Y3920D02*X25420D01*
X25270Y3970D02*X25320Y3920D01*
Y4120D02*X25470D01*
X25590Y4270D02*X25640Y4320D01*
X25740D01*
X25790Y4270D01*
Y3970D01*
X25740Y3920D02*X25790Y3970D01*
X25640Y3920D02*X25740D01*
X25590Y3970D02*X25640Y3920D01*
Y4120D02*X25790D01*
G54D21*X600Y24000D02*Y16000D01*
X2600D01*
Y24000D02*Y16000D01*
X600Y24000D02*X2600D01*
G54D13*X600Y23000D02*X1600D01*
Y24000D02*Y23000D01*
G04 Text: J25 *
G54D11*X3020Y23760D02*X3170D01*
Y23410D01*
X3120Y23360D02*X3170Y23410D01*
X3070Y23360D02*X3120D01*
X3020Y23410D02*X3070Y23360D01*
X3290Y23710D02*X3340Y23760D01*
X3490D01*
X3540Y23710D01*
Y23610D01*
X3290Y23360D02*X3540Y23610D01*
X3290Y23360D02*X3540D01*
X3660Y23760D02*X3860D01*
X3660D02*Y23560D01*
X3710Y23610D01*
X3810D01*
X3860Y23560D01*
Y23410D01*
X3810Y23360D02*X3860Y23410D01*
X3710Y23360D02*X3810D01*
X3660Y23410D02*X3710Y23360D01*
G54D21*X550Y12250D02*Y4250D01*
X2550D01*
Y12250D02*Y4250D01*
X550Y12250D02*X2550D01*
G54D13*X550Y11250D02*X1550D01*
Y12250D02*Y11250D01*
G04 Text: J24 *
G54D11*X3030Y12060D02*X3180D01*
Y11710D01*
X3130Y11660D02*X3180Y11710D01*
X3080Y11660D02*X3130D01*
X3030Y11710D02*X3080Y11660D01*
X3300Y12010D02*X3350Y12060D01*
X3500D01*
X3550Y12010D01*
Y11910D01*
X3300Y11660D02*X3550Y11910D01*
X3300Y11660D02*X3550D01*
X3670Y11860D02*X3870Y12060D01*
X3670Y11860D02*X3920D01*
X3870Y12060D02*Y11660D01*
G54D18*X16020Y4370D02*Y3830D01*
X15180Y4370D02*X16020D01*
X15180D02*Y3830D01*
X16020D01*
G04 Text: R37 *
G54D11*X14000Y4320D02*X14200D01*
X14250Y4270D01*
Y4170D01*
X14200Y4120D02*X14250Y4170D01*
X14050Y4120D02*X14200D01*
X14050Y4320D02*Y3920D01*
Y4120D02*X14250Y3920D01*
X14370Y4270D02*X14420Y4320D01*
X14520D01*
X14570Y4270D01*
Y3970D01*
X14520Y3920D02*X14570Y3970D01*
X14420Y3920D02*X14520D01*
X14370Y3970D02*X14420Y3920D01*
Y4120D02*X14570D01*
X14690Y3920D02*X14940Y4170D01*
Y4320D02*Y4170D01*
X14690Y4320D02*X14940D01*
G54D21*X6550Y8250D02*X14550D01*
Y10250D02*Y8250D01*
X6550Y10250D02*X14550D01*
X6550D02*Y8250D01*
G54D13*X7550Y9250D02*Y8250D01*
X6550Y9250D02*X7550D01*
G04 Text: J16 *
G54D11*X5450Y9650D02*X5600D01*
Y9300D01*
X5550Y9250D02*X5600Y9300D01*
X5500Y9250D02*X5550D01*
X5450Y9300D02*X5500Y9250D01*
X5770D02*X5870D01*
X5820Y9650D02*Y9250D01*
X5720Y9550D02*X5820Y9650D01*
X6140D02*X6190Y9600D01*
X6040Y9650D02*X6140D01*
X5990Y9600D02*X6040Y9650D01*
X5990Y9600D02*Y9300D01*
X6040Y9250D01*
X6140Y9450D02*X6190Y9400D01*
X5990Y9450D02*X6140D01*
X6040Y9250D02*X6140D01*
X6190Y9300D01*
Y9400D02*Y9300D01*
G54D18*X12420Y6870D02*Y6330D01*
X11580Y6870D02*X12420D01*
X11580D02*Y6330D01*
X12420D01*
G04 Text: R28 *
G54D11*X11350Y6150D02*X11550D01*
X11600Y6100D01*
Y6000D01*
X11550Y5950D02*X11600Y6000D01*
X11400Y5950D02*X11550D01*
X11400Y6150D02*Y5750D01*
Y5950D02*X11600Y5750D01*
X11720Y6100D02*X11770Y6150D01*
X11920D01*
X11970Y6100D01*
Y6000D01*
X11720Y5750D02*X11970Y6000D01*
X11720Y5750D02*X11970D01*
X12090Y5800D02*X12140Y5750D01*
X12090Y5900D02*Y5800D01*
Y5900D02*X12140Y5950D01*
X12240D01*
X12290Y5900D01*
Y5800D01*
X12240Y5750D02*X12290Y5800D01*
X12140Y5750D02*X12240D01*
X12090Y6000D02*X12140Y5950D01*
X12090Y6100D02*Y6000D01*
Y6100D02*X12140Y6150D01*
X12240D01*
X12290Y6100D01*
Y6000D01*
X12240Y5950D02*X12290Y6000D01*
G54D18*X15530Y7180D02*X16070D01*
Y8020D02*Y7180D01*
X15530Y8020D02*X16070D01*
X15530D02*Y7180D01*
G04 Text: R4 *
G54D11*X14750Y7450D02*X14950D01*
X15000Y7400D01*
Y7300D01*
X14950Y7250D02*X15000Y7300D01*
X14800Y7250D02*X14950D01*
X14800Y7450D02*Y7050D01*
Y7250D02*X15000Y7050D01*
X15120Y7250D02*X15320Y7450D01*
X15120Y7250D02*X15370D01*
X15320Y7450D02*Y7050D01*
G54D18*X18630Y7580D02*X19170D01*
Y8420D02*Y7580D01*
X18630Y8420D02*X19170D01*
X18630D02*Y7580D01*
G04 Text: R7 *
G54D11*X18350Y9000D02*X18550D01*
X18600Y8950D01*
Y8850D01*
X18550Y8800D02*X18600Y8850D01*
X18400Y8800D02*X18550D01*
X18400Y9000D02*Y8600D01*
Y8800D02*X18600Y8600D01*
X18720D02*X18970Y8850D01*
Y9000D02*Y8850D01*
X18720Y9000D02*X18970D01*
G54D18*X18580Y6630D02*X19120D01*
Y7470D02*Y6630D01*
X18580Y7470D02*X19120D01*
X18580D02*Y6630D01*
G04 Text: R6 *
G54D11*X17800Y7450D02*X18000D01*
X18050Y7400D01*
Y7300D01*
X18000Y7250D02*X18050Y7300D01*
X17850Y7250D02*X18000D01*
X17850Y7450D02*Y7050D01*
Y7250D02*X18050Y7050D01*
X18320Y7450D02*X18370Y7400D01*
X18220Y7450D02*X18320D01*
X18170Y7400D02*X18220Y7450D01*
X18170Y7400D02*Y7100D01*
X18220Y7050D01*
X18320Y7250D02*X18370Y7200D01*
X18170Y7250D02*X18320D01*
X18220Y7050D02*X18320D01*
X18370Y7100D01*
Y7200D02*Y7100D01*
G54D18*X19430Y7920D02*Y7080D01*
Y7920D02*X19970D01*
Y7080D01*
X19430D02*X19970D01*
G04 Text: C24 *
G54D11*X20050Y8000D02*X20200D01*
X20000Y8050D02*X20050Y8000D01*
X20000Y8350D02*Y8050D01*
Y8350D02*X20050Y8400D01*
X20200D01*
X20320Y8350D02*X20370Y8400D01*
X20520D01*
X20570Y8350D01*
Y8250D01*
X20320Y8000D02*X20570Y8250D01*
X20320Y8000D02*X20570D01*
X20690Y8200D02*X20890Y8400D01*
X20690Y8200D02*X20940D01*
X20890Y8400D02*Y8000D01*
G54D18*X22480Y4170D02*Y3630D01*
X23320D01*
Y4170D02*Y3630D01*
X22480Y4170D02*X23320D01*
G04 Text: R9 *
G54D11*X23400Y4050D02*X23600D01*
X23650Y4000D01*
Y3900D01*
X23600Y3850D02*X23650Y3900D01*
X23450Y3850D02*X23600D01*
X23450Y4050D02*Y3650D01*
Y3850D02*X23650Y3650D01*
X23770D02*X23970Y3850D01*
Y4000D02*Y3850D01*
X23920Y4050D02*X23970Y4000D01*
X23820Y4050D02*X23920D01*
X23770Y4000D02*X23820Y4050D01*
X23770Y4000D02*Y3900D01*
X23820Y3850D01*
X23970D01*
G54D18*X22830Y7480D02*X23370D01*
Y8320D02*Y7480D01*
X22830Y8320D02*X23370D01*
X22830D02*Y7480D01*
G04 Text: R11 *
G54D11*X23600Y7750D02*Y7550D01*
Y7750D02*X23650Y7800D01*
X23750D01*
X23800Y7750D02*X23750Y7800D01*
X23800Y7750D02*Y7600D01*
X23600D02*X24000D01*
X23800D02*X24000Y7800D01*
Y8070D02*Y7970D01*
X23600Y8020D02*X24000D01*
X23700Y7920D02*X23600Y8020D01*
X24000Y8340D02*Y8240D01*
X23600Y8290D02*X24000D01*
X23700Y8190D02*X23600Y8290D01*
G54D18*X16330Y7180D02*X16870D01*
Y8020D02*Y7180D01*
X16330Y8020D02*X16870D01*
X16330D02*Y7180D01*
G04 Text: R5 *
G54D11*X16950Y7900D02*X17150D01*
X17200Y7850D01*
Y7750D01*
X17150Y7700D02*X17200Y7750D01*
X17000Y7700D02*X17150D01*
X17000Y7900D02*Y7500D01*
Y7700D02*X17200Y7500D01*
X17320Y7900D02*X17520D01*
X17320D02*Y7700D01*
X17370Y7750D01*
X17470D01*
X17520Y7700D01*
Y7550D01*
X17470Y7500D02*X17520Y7550D01*
X17370Y7500D02*X17470D01*
X17320Y7550D02*X17370Y7500D01*
G54D13*X23950Y3450D02*Y250D01*
X20750D02*X23950D01*
X20750Y3450D02*Y250D01*
Y3450D02*X23950D01*
G04 Text: J19 *
G54D11*X24150Y750D02*X24300D01*
Y400D01*
X24250Y350D02*X24300Y400D01*
X24200Y350D02*X24250D01*
X24150Y400D02*X24200Y350D01*
X24470D02*X24570D01*
X24520Y750D02*Y350D01*
X24420Y650D02*X24520Y750D01*
X24690Y350D02*X24890Y550D01*
Y700D02*Y550D01*
X24840Y750D02*X24890Y700D01*
X24740Y750D02*X24840D01*
X24690Y700D02*X24740Y750D01*
X24690Y700D02*Y600D01*
X24740Y550D01*
X24890D01*
G54D13*X17650Y3450D02*Y250D01*
X14450D02*X17650D01*
X14450Y3450D02*Y250D01*
Y3450D02*X17650D01*
G04 Text: J18 *
G54D11*X17750Y650D02*X17900D01*
Y300D01*
X17850Y250D02*X17900Y300D01*
X17800Y250D02*X17850D01*
X17750Y300D02*X17800Y250D01*
X18070D02*X18170D01*
X18120Y650D02*Y250D01*
X18020Y550D02*X18120Y650D01*
X18290Y300D02*X18340Y250D01*
X18290Y400D02*Y300D01*
Y400D02*X18340Y450D01*
X18440D01*
X18490Y400D01*
Y300D01*
X18440Y250D02*X18490Y300D01*
X18340Y250D02*X18440D01*
X18290Y500D02*X18340Y450D01*
X18290Y600D02*Y500D01*
Y600D02*X18340Y650D01*
X18440D01*
X18490Y600D01*
Y500D01*
X18440Y450D02*X18490Y500D01*
G54D21*X17850Y10750D02*X22850D01*
Y12750D02*Y10750D01*
X17850Y12750D02*X22850D01*
X17850D02*Y10750D01*
G54D13*X18850Y11750D02*Y10750D01*
X17850Y11750D02*X18850D01*
G04 Text: J17 *
G54D11*X23250Y12450D02*X23400D01*
Y12100D01*
X23350Y12050D02*X23400Y12100D01*
X23300Y12050D02*X23350D01*
X23250Y12100D02*X23300Y12050D01*
X23570D02*X23670D01*
X23620Y12450D02*Y12050D01*
X23520Y12350D02*X23620Y12450D01*
X23790Y12050D02*X24040Y12300D01*
Y12450D02*Y12300D01*
X23790Y12450D02*X24040D01*
G54D21*X7200Y20450D02*X17200D01*
Y22450D02*Y20450D01*
X7200Y22450D02*X17200D01*
X7200D02*Y20450D01*
G54D13*X8200Y21450D02*Y20450D01*
X7200Y21450D02*X8200D01*
G04 Text: J15 *
G54D11*X5980Y22270D02*X6130D01*
Y21920D01*
X6080Y21870D02*X6130Y21920D01*
X6030Y21870D02*X6080D01*
X5980Y21920D02*X6030Y21870D01*
X6300D02*X6400D01*
X6350Y22270D02*Y21870D01*
X6250Y22170D02*X6350Y22270D01*
X6520D02*X6720D01*
X6520D02*Y22070D01*
X6570Y22120D01*
X6670D01*
X6720Y22070D01*
Y21920D01*
X6670Y21870D02*X6720Y21920D01*
X6570Y21870D02*X6670D01*
X6520Y21920D02*X6570Y21870D01*
G54D18*X21530Y7530D02*X22070D01*
Y8370D02*Y7530D01*
X21530Y8370D02*X22070D01*
X21530D02*Y7530D01*
G04 Text: R10 *
G54D11*X22250Y7650D02*Y7450D01*
Y7650D02*X22300Y7700D01*
X22400D01*
X22450Y7650D02*X22400Y7700D01*
X22450Y7650D02*Y7500D01*
X22250D02*X22650D01*
X22450D02*X22650Y7700D01*
Y7970D02*Y7870D01*
X22250Y7920D02*X22650D01*
X22350Y7820D02*X22250Y7920D01*
X22600Y8090D02*X22650Y8140D01*
X22300Y8090D02*X22600D01*
X22300D02*X22250Y8140D01*
Y8240D02*Y8140D01*
Y8240D02*X22300Y8290D01*
X22600D01*
X22650Y8240D02*X22600Y8290D01*
X22650Y8240D02*Y8140D01*
X22550Y8090D02*X22350Y8290D01*
G54D18*X24230Y2880D02*X24770D01*
Y3720D02*Y2880D01*
X24230Y3720D02*X24770D01*
X24230D02*Y2880D01*
G04 Text: R32 *
G54D11*X24900Y3420D02*X25100D01*
X25150Y3370D01*
Y3270D01*
X25100Y3220D02*X25150Y3270D01*
X24950Y3220D02*X25100D01*
X24950Y3420D02*Y3020D01*
Y3220D02*X25150Y3020D01*
X25270Y3370D02*X25320Y3420D01*
X25420D01*
X25470Y3370D01*
Y3070D01*
X25420Y3020D02*X25470Y3070D01*
X25320Y3020D02*X25420D01*
X25270Y3070D02*X25320Y3020D01*
Y3220D02*X25470D01*
X25590Y3370D02*X25640Y3420D01*
X25790D01*
X25840Y3370D01*
Y3270D01*
X25590Y3020D02*X25840Y3270D01*
X25590Y3020D02*X25840D01*
G54D18*X16280Y4370D02*Y3830D01*
X17120D01*
Y4370D02*Y3830D01*
X16280Y4370D02*X17120D01*
G04 Text: R3 *
G54D11*X17300Y4300D02*X17500D01*
X17550Y4250D01*
Y4150D01*
X17500Y4100D02*X17550Y4150D01*
X17350Y4100D02*X17500D01*
X17350Y4300D02*Y3900D01*
Y4100D02*X17550Y3900D01*
X17670Y4250D02*X17720Y4300D01*
X17820D01*
X17870Y4250D01*
Y3950D01*
X17820Y3900D02*X17870Y3950D01*
X17720Y3900D02*X17820D01*
X17670Y3950D02*X17720Y3900D01*
Y4100D02*X17870D01*
G54D13*X6400Y12500D02*X13500D01*
Y13500D02*Y7100D01*
X11600Y13500D02*Y7100D01*
X10500Y13500D02*Y7400D01*
X8500Y13500D02*Y7500D01*
X6400Y13500D02*X13500D01*
X6400Y5800D02*Y13500D01*
G04 Text: LFRX *
G54D11*X3300Y3000D02*Y2200D01*
X3700D01*
X3940Y3000D02*Y2200D01*
Y3000D02*X4340D01*
X3940Y2600D02*X4240D01*
X4580Y3000D02*X4980D01*
X5080Y2900D01*
Y2700D01*
X4980Y2600D02*X5080Y2700D01*
X4680Y2600D02*X4980D01*
X4680Y3000D02*Y2200D01*
Y2600D02*X5080Y2200D01*
X5320Y3000D02*Y2900D01*
X5820Y2400D01*
Y2200D01*
X5320Y2400D02*Y2200D01*
Y2400D02*X5820Y2900D01*
Y3000D02*Y2900D01*
G04 Text: DC-50 MHz Receiver *
X3265Y1800D02*Y1280D01*
X3460Y1800D02*X3525Y1735D01*
Y1345D01*
X3460Y1280D02*X3525Y1345D01*
X3200Y1280D02*X3460D01*
X3200Y1800D02*X3460D01*
X3746Y1280D02*X3941D01*
X3681Y1345D02*X3746Y1280D01*
X3681Y1735D02*Y1345D01*
Y1735D02*X3746Y1800D01*
X3941D01*
X4097Y1540D02*X4357D01*
X4513Y1800D02*X4773D01*
X4513D02*Y1540D01*
X4578Y1605D01*
X4708D01*
X4773Y1540D01*
Y1345D01*
X4708Y1280D02*X4773Y1345D01*
X4578Y1280D02*X4708D01*
X4513Y1345D02*X4578Y1280D01*
X4929Y1345D02*X4994Y1280D01*
X4929Y1735D02*Y1345D01*
Y1735D02*X4994Y1800D01*
X5124D01*
X5189Y1735D01*
Y1345D01*
X5124Y1280D02*X5189Y1345D01*
X4994Y1280D02*X5124D01*
X4929Y1410D02*X5189Y1670D01*
X5579Y1800D02*Y1280D01*
Y1800D02*X5774Y1605D01*
X5969Y1800D01*
Y1280D01*
X6125Y1800D02*Y1280D01*
X6450Y1800D02*Y1280D01*
X6125Y1540D02*X6450D01*
X6606D02*X6866D01*
X6606Y1280D02*X6866Y1540D01*
X6606Y1280D02*X6866D01*
X7257Y1800D02*X7517D01*
X7582Y1735D01*
Y1605D01*
X7517Y1540D02*X7582Y1605D01*
X7322Y1540D02*X7517D01*
X7322Y1800D02*Y1280D01*
Y1540D02*X7582Y1280D01*
X7803D02*X7998D01*
X7738Y1345D02*X7803Y1280D01*
X7738Y1475D02*Y1345D01*
Y1475D02*X7803Y1540D01*
X7933D01*
X7998Y1475D01*
X7738Y1410D02*X7998D01*
Y1475D02*Y1410D01*
X8219Y1540D02*X8414D01*
X8154Y1475D02*X8219Y1540D01*
X8154Y1475D02*Y1345D01*
X8219Y1280D01*
X8414D01*
X8635D02*X8830D01*
X8570Y1345D02*X8635Y1280D01*
X8570Y1475D02*Y1345D01*
Y1475D02*X8635Y1540D01*
X8765D01*
X8830Y1475D01*
X8570Y1410D02*X8830D01*
Y1475D02*Y1410D01*
X8986Y1670D02*Y1605D01*
Y1475D02*Y1280D01*
X9116Y1540D02*Y1410D01*
X9246Y1280D01*
X9376Y1410D01*
Y1540D02*Y1410D01*
X9597Y1280D02*X9792D01*
X9532Y1345D02*X9597Y1280D01*
X9532Y1475D02*Y1345D01*
Y1475D02*X9597Y1540D01*
X9727D01*
X9792Y1475D01*
X9532Y1410D02*X9792D01*
Y1475D02*Y1410D01*
X10013Y1475D02*Y1280D01*
Y1475D02*X10078Y1540D01*
X10208D01*
X9948D02*X10013Y1475D01*
G04 Text: (c) 2006 Ettus Research LLC *
X3300Y545D02*X3365Y480D01*
X3300Y935D02*X3365Y1000D01*
X3300Y935D02*Y545D01*
X3586Y740D02*X3781D01*
X3521Y675D02*X3586Y740D01*
X3521Y675D02*Y545D01*
X3586Y480D01*
X3781D01*
X3937Y1000D02*X4002Y935D01*
Y545D01*
X3937Y480D02*X4002Y545D01*
X4392Y935D02*X4457Y1000D01*
X4652D01*
X4717Y935D01*
Y805D01*
X4392Y480D02*X4717Y805D01*
X4392Y480D02*X4717D01*
X4873Y545D02*X4938Y480D01*
X4873Y935D02*Y545D01*
Y935D02*X4938Y1000D01*
X5068D01*
X5133Y935D01*
Y545D01*
X5068Y480D02*X5133Y545D01*
X4938Y480D02*X5068D01*
X4873Y610D02*X5133Y870D01*
X5289Y545D02*X5354Y480D01*
X5289Y935D02*Y545D01*
Y935D02*X5354Y1000D01*
X5484D01*
X5549Y935D01*
Y545D01*
X5484Y480D02*X5549Y545D01*
X5354Y480D02*X5484D01*
X5289Y610D02*X5549Y870D01*
X5900Y1000D02*X5965Y935D01*
X5770Y1000D02*X5900D01*
X5705Y935D02*X5770Y1000D01*
X5705Y935D02*Y545D01*
X5770Y480D01*
X5900Y740D02*X5965Y675D01*
X5705Y740D02*X5900D01*
X5770Y480D02*X5900D01*
X5965Y545D01*
Y675D02*Y545D01*
X6355Y740D02*X6550D01*
X6355Y480D02*X6615D01*
X6355Y1000D02*Y480D01*
Y1000D02*X6615D01*
X6837D02*Y545D01*
X6902Y480D01*
X6772Y805D02*X6902D01*
X7097Y1000D02*Y545D01*
X7162Y480D01*
X7032Y805D02*X7162D01*
X7292Y740D02*Y545D01*
X7357Y480D01*
X7487D01*
X7552Y545D01*
Y740D02*Y545D01*
X7773Y480D02*X7968D01*
X8033Y545D01*
X7968Y610D02*X8033Y545D01*
X7773Y610D02*X7968D01*
X7708Y675D02*X7773Y610D01*
X7708Y675D02*X7773Y740D01*
X7968D01*
X8033Y675D01*
X7708Y545D02*X7773Y480D01*
X8423Y1000D02*X8683D01*
X8748Y935D01*
Y805D01*
X8683Y740D02*X8748Y805D01*
X8488Y740D02*X8683D01*
X8488Y1000D02*Y480D01*
Y740D02*X8748Y480D01*
X8969D02*X9164D01*
X8904Y545D02*X8969Y480D01*
X8904Y675D02*Y545D01*
Y675D02*X8969Y740D01*
X9099D01*
X9164Y675D01*
X8904Y610D02*X9164D01*
Y675D02*Y610D01*
X9385Y480D02*X9580D01*
X9645Y545D01*
X9580Y610D02*X9645Y545D01*
X9385Y610D02*X9580D01*
X9320Y675D02*X9385Y610D01*
X9320Y675D02*X9385Y740D01*
X9580D01*
X9645Y675D01*
X9320Y545D02*X9385Y480D01*
X9866D02*X10061D01*
X9801Y545D02*X9866Y480D01*
X9801Y675D02*Y545D01*
Y675D02*X9866Y740D01*
X9996D01*
X10061Y675D01*
X9801Y610D02*X10061D01*
Y675D02*Y610D01*
X10413Y740D02*X10478Y675D01*
X10283Y740D02*X10413D01*
X10218Y675D02*X10283Y740D01*
X10218Y675D02*Y545D01*
X10283Y480D01*
X10478Y740D02*Y545D01*
X10543Y480D01*
X10283D02*X10413D01*
X10478Y545D01*
X10764Y675D02*Y480D01*
Y675D02*X10829Y740D01*
X10959D01*
X10699D02*X10764Y675D01*
X11180Y740D02*X11375D01*
X11115Y675D02*X11180Y740D01*
X11115Y675D02*Y545D01*
X11180Y480D01*
X11375D01*
X11531Y1000D02*Y480D01*
Y675D02*X11596Y740D01*
X11726D01*
X11791Y675D01*
Y480D01*
X12181Y1000D02*Y480D01*
X12441D01*
X12597Y1000D02*Y480D01*
X12857D01*
X13078D02*X13273D01*
X13013Y545D02*X13078Y480D01*
X13013Y935D02*Y545D01*
Y935D02*X13078Y1000D01*
X13273D01*
G04 Text: AGND *
X22539Y12900D02*X22812D01*
X22539D02*X22500Y12939D01*
Y13056D02*Y12939D01*
Y13056D02*X22539Y13095D01*
X22812D01*
X22656D02*Y12900D01*
X22500Y13344D02*X22539Y13383D01*
X22500Y13344D02*Y13227D01*
X22539Y13188D02*X22500Y13227D01*
X22539Y13188D02*X22773D01*
X22812Y13227D01*
Y13344D02*Y13227D01*
Y13344D02*X22773Y13383D01*
X22695D02*X22773D01*
X22656Y13344D02*X22695Y13383D01*
X22656Y13344D02*Y13266D01*
X22500Y13477D02*X22812D01*
X22500D02*X22539D01*
X22734Y13672D01*
X22500D02*X22812D01*
X22500Y13805D02*X22812D01*
X22500Y13922D02*X22539Y13961D01*
X22773D01*
X22812Y13922D02*X22773Y13961D01*
X22812Y13922D02*Y13766D01*
X22500Y13922D02*Y13766D01*
G04 Text: ADCREF *
X19428Y9400D02*X19624D01*
X19428D02*X19400Y9428D01*
Y9512D02*Y9428D01*
Y9512D02*X19428Y9540D01*
X19624D01*
X19512D02*Y9400D01*
X19400Y9635D02*X19624D01*
X19400Y9719D02*X19428Y9747D01*
X19596D01*
X19624Y9719D02*X19596Y9747D01*
X19624Y9719D02*Y9607D01*
X19400Y9719D02*Y9607D01*
X19624Y9926D02*Y9842D01*
X19596Y9814D02*X19624Y9842D01*
X19428Y9814D02*X19596D01*
X19428D02*X19400Y9842D01*
Y9926D02*Y9842D01*
Y10105D02*Y9993D01*
Y10105D02*X19428Y10133D01*
X19484D01*
X19512Y10105D02*X19484Y10133D01*
X19512Y10105D02*Y10021D01*
X19400D02*X19624D01*
X19512D02*X19624Y10133D01*
X19512Y10285D02*Y10201D01*
X19624Y10313D02*Y10201D01*
X19400D02*X19624D01*
X19400Y10313D02*Y10201D01*
Y10380D02*X19624D01*
X19400Y10492D02*Y10380D01*
X19512Y10464D02*Y10380D01*
G04 Text: ADC_B1 *
X20800Y10572D02*Y10376D01*
Y10572D02*X20828Y10600D01*
X20912D01*
X20940Y10572D01*
Y10376D01*
X20800Y10488D02*X20940D01*
X21035Y10600D02*Y10376D01*
X21119Y10600D02*X21147Y10572D01*
Y10404D01*
X21119Y10376D02*X21147Y10404D01*
X21007Y10376D02*X21119D01*
X21007Y10600D02*X21119D01*
X21242Y10376D02*X21326D01*
X21214Y10404D02*X21242Y10376D01*
X21214Y10572D02*Y10404D01*
Y10572D02*X21242Y10600D01*
X21326D01*
X21393Y10376D02*X21505D01*
X21573D02*X21685D01*
X21713Y10404D01*
Y10460D02*Y10404D01*
X21685Y10488D02*X21713Y10460D01*
X21601Y10488D02*X21685D01*
X21601Y10600D02*Y10376D01*
X21573Y10600D02*X21685D01*
X21713Y10572D01*
Y10516D01*
X21685Y10488D02*X21713Y10516D01*
X21808Y10376D02*X21864D01*
X21836Y10600D02*Y10376D01*
X21780Y10544D02*X21836Y10600D01*
G04 Text: DAC_B *
X20100Y13150D02*X20500D01*
X20100Y13300D02*X20150Y13350D01*
X20450D01*
X20500Y13300D02*X20450Y13350D01*
X20500Y13300D02*Y13100D01*
X20100Y13300D02*Y13100D01*
X20150Y13470D02*X20500D01*
X20150D02*X20100Y13520D01*
Y13670D02*Y13520D01*
Y13670D02*X20150Y13720D01*
X20500D01*
X20300D02*Y13470D01*
X20500Y14040D02*Y13890D01*
X20450Y13840D02*X20500Y13890D01*
X20150Y13840D02*X20450D01*
X20150D02*X20100Y13890D01*
Y14040D02*Y13890D01*
X20500Y14360D02*Y14160D01*
Y14680D02*Y14480D01*
Y14680D02*X20450Y14730D01*
X20350D02*X20450D01*
X20300Y14680D02*X20350Y14730D01*
X20300Y14680D02*Y14530D01*
X20100D02*X20500D01*
X20100Y14680D02*Y14480D01*
Y14680D02*X20150Y14730D01*
X20250D01*
X20300Y14680D02*X20250Y14730D01*
G04 Text: DAC_A *
X19200Y13050D02*X19600D01*
X19200Y13200D02*X19250Y13250D01*
X19550D01*
X19600Y13200D02*X19550Y13250D01*
X19600Y13200D02*Y13000D01*
X19200Y13200D02*Y13000D01*
X19250Y13370D02*X19600D01*
X19250D02*X19200Y13420D01*
Y13570D02*Y13420D01*
Y13570D02*X19250Y13620D01*
X19600D01*
X19400D02*Y13370D01*
X19600Y13940D02*Y13790D01*
X19550Y13740D02*X19600Y13790D01*
X19250Y13740D02*X19550D01*
X19250D02*X19200Y13790D01*
Y13940D02*Y13790D01*
X19600Y14260D02*Y14060D01*
X19250Y14380D02*X19600D01*
X19250D02*X19200Y14430D01*
Y14580D02*Y14430D01*
Y14580D02*X19250Y14630D01*
X19600D01*
X19400D02*Y14380D01*
G04 Text: 3.3VA *
X18000Y10472D02*X18028Y10500D01*
X18084D01*
X18112Y10472D01*
Y10304D01*
X18084Y10276D02*X18112Y10304D01*
X18028Y10276D02*X18084D01*
X18000Y10304D02*X18028Y10276D01*
Y10388D02*X18112D01*
X18179Y10276D02*X18207D01*
X18274Y10472D02*X18302Y10500D01*
X18358D01*
X18386Y10472D01*
Y10304D01*
X18358Y10276D02*X18386Y10304D01*
X18302Y10276D02*X18358D01*
X18274Y10304D02*X18302Y10276D01*
Y10388D02*X18386D01*
X18453Y10500D02*Y10332D01*
X18509Y10276D01*
X18565Y10332D01*
Y10500D02*Y10332D01*
X18633Y10472D02*Y10276D01*
Y10472D02*X18661Y10500D01*
X18745D01*
X18773Y10472D01*
Y10276D01*
X18633Y10388D02*X18773D01*
G04 Text: ADC_A1 *
X20328Y9400D02*X20524D01*
X20328D02*X20300Y9428D01*
Y9512D02*Y9428D01*
Y9512D02*X20328Y9540D01*
X20524D01*
X20412D02*Y9400D01*
X20300Y9635D02*X20524D01*
X20300Y9719D02*X20328Y9747D01*
X20496D01*
X20524Y9719D02*X20496Y9747D01*
X20524Y9719D02*Y9607D01*
X20300Y9719D02*Y9607D01*
X20524Y9926D02*Y9842D01*
X20496Y9814D02*X20524Y9842D01*
X20328Y9814D02*X20496D01*
X20328D02*X20300Y9842D01*
Y9926D02*Y9842D01*
X20524Y10105D02*Y9993D01*
X20328Y10173D02*X20524D01*
X20328D02*X20300Y10201D01*
Y10285D02*Y10201D01*
Y10285D02*X20328Y10313D01*
X20524D01*
X20412D02*Y10173D01*
X20524Y10464D02*Y10408D01*
X20300Y10436D02*X20524D01*
X20356Y10380D02*X20300Y10436D01*
G04 Text: DAC_D *
X18000Y13050D02*X18400D01*
X18000Y13200D02*X18050Y13250D01*
X18350D01*
X18400Y13200D02*X18350Y13250D01*
X18400Y13200D02*Y13000D01*
X18000Y13200D02*Y13000D01*
X18050Y13370D02*X18400D01*
X18050D02*X18000Y13420D01*
Y13570D02*Y13420D01*
Y13570D02*X18050Y13620D01*
X18400D01*
X18200D02*Y13370D01*
X18400Y13940D02*Y13790D01*
X18350Y13740D02*X18400Y13790D01*
X18050Y13740D02*X18350D01*
X18050D02*X18000Y13790D01*
Y13940D02*Y13790D01*
X18400Y14260D02*Y14060D01*
X18000Y14430D02*X18400D01*
X18000Y14580D02*X18050Y14630D01*
X18350D01*
X18400Y14580D02*X18350Y14630D01*
X18400Y14580D02*Y14380D01*
X18000Y14580D02*Y14380D01*
G04 Text: DAC_C *
X21100Y13050D02*X21500D01*
X21100Y13200D02*X21150Y13250D01*
X21450D01*
X21500Y13200D02*X21450Y13250D01*
X21500Y13200D02*Y13000D01*
X21100Y13200D02*Y13000D01*
X21150Y13370D02*X21500D01*
X21150D02*X21100Y13420D01*
Y13570D02*Y13420D01*
Y13570D02*X21150Y13620D01*
X21500D01*
X21300D02*Y13370D01*
X21500Y13940D02*Y13790D01*
X21450Y13740D02*X21500Y13790D01*
X21150Y13740D02*X21450D01*
X21150D02*X21100Y13790D01*
Y13940D02*Y13790D01*
X21500Y14260D02*Y14060D01*
Y14580D02*Y14430D01*
X21450Y14380D02*X21500Y14430D01*
X21150Y14380D02*X21450D01*
X21150D02*X21100Y14430D01*
Y14580D02*Y14430D01*
G04 Text: 232 *
X10700Y13161D02*X10739Y13200D01*
X10856D01*
X10895Y13161D01*
Y13083D01*
X10700Y12888D02*X10895Y13083D01*
X10700Y12888D02*X10895D01*
X10988Y13161D02*X11027Y13200D01*
X11105D01*
X11144Y13161D01*
Y12927D01*
X11105Y12888D02*X11144Y12927D01*
X11027Y12888D02*X11105D01*
X10988Y12927D02*X11027Y12888D01*
Y13044D02*X11144D01*
X11238Y13161D02*X11277Y13200D01*
X11394D01*
X11433Y13161D01*
Y13083D01*
X11238Y12888D02*X11433Y13083D01*
X11238Y12888D02*X11433D01*
G04 Text: I2C *
X9000Y13200D02*X9100D01*
X9050D02*Y12800D01*
X9000D02*X9100D01*
X9220Y13150D02*X9270Y13200D01*
X9420D01*
X9470Y13150D01*
Y13050D01*
X9220Y12800D02*X9470Y13050D01*
X9220Y12800D02*X9470D01*
X9640D02*X9790D01*
X9590Y12850D02*X9640Y12800D01*
X9590Y13150D02*Y12850D01*
Y13150D02*X9640Y13200D01*
X9790D01*
G04 Text: SPI *
X12300Y13300D02*X12350Y13250D01*
X12150Y13300D02*X12300D01*
X12100Y13250D02*X12150Y13300D01*
X12100Y13250D02*Y13150D01*
X12150Y13100D01*
X12300D01*
X12350Y13050D01*
Y12950D01*
X12300Y12900D02*X12350Y12950D01*
X12150Y12900D02*X12300D01*
X12100Y12950D02*X12150Y12900D01*
X12520Y13300D02*Y12900D01*
X12470Y13300D02*X12670D01*
X12720Y13250D01*
Y13150D01*
X12670Y13100D02*X12720Y13150D01*
X12520Y13100D02*X12670D01*
X12840Y13300D02*X12940D01*
X12890D02*Y12900D01*
X12840D02*X12940D01*
G04 Text: PWR *
X6950Y13200D02*Y12800D01*
X6900Y13200D02*X7100D01*
X7150Y13150D01*
Y13050D01*
X7100Y13000D02*X7150Y13050D01*
X6950Y13000D02*X7100D01*
X7270Y13200D02*Y12800D01*
X7420Y12950D01*
X7570Y12800D01*
Y13200D02*Y12800D01*
X7690Y13200D02*X7890D01*
X7940Y13150D01*
Y13050D01*
X7890Y13000D02*X7940Y13050D01*
X7740Y13000D02*X7890D01*
X7740Y13200D02*Y12800D01*
Y13000D02*X7940Y12800D01*
G04 Text: 6V *
X7900Y7450D02*X7950Y7500D01*
X7900Y7450D02*Y7350D01*
X7950Y7300D02*X7900Y7350D01*
X7950Y7300D02*X8250D01*
X8300Y7350D01*
X8100Y7450D02*X8150Y7500D01*
X8100Y7450D02*Y7300D01*
X8300Y7450D02*Y7350D01*
Y7450D02*X8250Y7500D01*
X8150D02*X8250D01*
X7900Y7620D02*X8200D01*
X8300Y7720D01*
X8200Y7820D01*
X7900D02*X8200D01*
G04 Text: 3.3V_Dig *
X6750Y5900D02*X6700Y5950D01*
Y6050D02*Y5950D01*
Y6050D02*X6750Y6100D01*
X7050D01*
X7100Y6050D02*X7050Y6100D01*
X7100Y6050D02*Y5950D01*
X7050Y5900D02*X7100Y5950D01*
X6900Y6100D02*Y5950D01*
X7100Y6270D02*Y6220D01*
X6750Y6390D02*X6700Y6440D01*
Y6540D02*Y6440D01*
Y6540D02*X6750Y6590D01*
X7050D01*
X7100Y6540D02*X7050Y6590D01*
X7100Y6540D02*Y6440D01*
X7050Y6390D02*X7100Y6440D01*
X6900Y6590D02*Y6440D01*
X6700Y6710D02*X7000D01*
X7100Y6810D01*
X7000Y6910D01*
X6700D02*X7000D01*
X7100Y7230D02*Y7030D01*
X6700Y7400D02*X7100D01*
X6700Y7550D02*X6750Y7600D01*
X7050D01*
X7100Y7550D02*X7050Y7600D01*
X7100Y7550D02*Y7350D01*
X6700Y7550D02*Y7350D01*
X6800Y7720D02*X6850D01*
X6950D02*X7100D01*
X6900Y7970D02*X6950Y8020D01*
X6900Y7970D02*Y7870D01*
X6950Y7820D02*X6900Y7870D01*
X6950Y7820D02*X7050D01*
X7100Y7870D01*
Y7970D02*Y7870D01*
Y7970D02*X7050Y8020D01*
X7200Y7820D02*X7250Y7870D01*
Y7970D02*Y7870D01*
Y7970D02*X7200Y8020D01*
X6900D02*X7200D01*
G04 Text: TXD *
X10600Y8000D02*X10756D01*
X10678D02*Y7688D01*
X10849Y8000D02*Y7961D01*
X11044Y7766D01*
Y7688D01*
X10849Y7766D02*Y7688D01*
Y7766D02*X11044Y7961D01*
Y8000D02*Y7961D01*
X11177Y8000D02*Y7688D01*
X11294Y8000D02*X11333Y7961D01*
Y7727D01*
X11294Y7688D02*X11333Y7727D01*
X11138Y7688D02*X11294D01*
X11138Y8000D02*X11294D01*
G04 Text: RXD *
X10800Y10800D02*Y10600D01*
Y10800D02*X10850Y10850D01*
X10950D01*
X11000Y10800D02*X10950Y10850D01*
X11000Y10800D02*Y10650D01*
X10800D02*X11200D01*
X11000D02*X11200Y10850D01*
X10800Y10970D02*X10850D01*
X11100Y11220D01*
X11200D01*
X11100Y10970D02*X11200D01*
X11100D02*X10850Y11220D01*
X10800D02*X10850D01*
X10800Y11390D02*X11200D01*
X10800Y11540D02*X10850Y11590D01*
X11150D01*
X11200Y11540D02*X11150Y11590D01*
X11200Y11540D02*Y11340D01*
X10800Y11540D02*Y11340D01*
G04 Text: Reset *
X13900Y6700D02*Y6500D01*
Y6700D02*X13950Y6750D01*
X14050D01*
X14100Y6700D02*X14050Y6750D01*
X14100Y6700D02*Y6550D01*
X13900D02*X14300D01*
X14100D02*X14300Y6750D01*
Y7070D02*Y6920D01*
X14250Y6870D02*X14300Y6920D01*
X14150Y6870D02*X14250D01*
X14150D02*X14100Y6920D01*
Y7020D02*Y6920D01*
Y7020D02*X14150Y7070D01*
X14200D02*Y6870D01*
X14150Y7070D02*X14200D01*
X14300Y7390D02*Y7240D01*
Y7390D02*X14250Y7440D01*
X14200Y7390D02*X14250Y7440D01*
X14200Y7390D02*Y7240D01*
X14150Y7190D02*X14200Y7240D01*
X14150Y7190D02*X14100Y7240D01*
Y7390D02*Y7240D01*
Y7390D02*X14150Y7440D01*
X14250Y7190D02*X14300Y7240D01*
Y7760D02*Y7610D01*
X14250Y7560D02*X14300Y7610D01*
X14150Y7560D02*X14250D01*
X14150D02*X14100Y7610D01*
Y7710D02*Y7610D01*
Y7710D02*X14150Y7760D01*
X14200D02*Y7560D01*
X14150Y7760D02*X14200D01*
X13900Y7930D02*X14250D01*
X14300Y7980D01*
X14050D02*Y7880D01*
G04 Text: SDO *
X11900Y7200D02*X11950Y7250D01*
X11900Y7200D02*Y7050D01*
X11950Y7000D02*X11900Y7050D01*
X11950Y7000D02*X12050D01*
X12100Y7050D01*
Y7200D02*Y7050D01*
Y7200D02*X12150Y7250D01*
X12250D01*
X12300Y7200D02*X12250Y7250D01*
X12300Y7200D02*Y7050D01*
X12250Y7000D02*X12300Y7050D01*
X11900Y7420D02*X12300D01*
X11900Y7570D02*X11950Y7620D01*
X12250D01*
X12300Y7570D02*X12250Y7620D01*
X12300Y7570D02*Y7370D01*
X11900Y7570D02*Y7370D01*
X11950Y7740D02*X12250D01*
X11950D02*X11900Y7790D01*
Y7890D02*Y7790D01*
Y7890D02*X11950Y7940D01*
X12250D01*
X12300Y7890D02*X12250Y7940D01*
X12300Y7890D02*Y7790D01*
X12250Y7740D02*X12300Y7790D01*
G04 Text: SDI *
X12900Y7300D02*X12950Y7350D01*
X12900Y7300D02*Y7150D01*
X12950Y7100D02*X12900Y7150D01*
X12950Y7100D02*X13050D01*
X13100Y7150D01*
Y7300D02*Y7150D01*
Y7300D02*X13150Y7350D01*
X13250D01*
X13300Y7300D02*X13250Y7350D01*
X13300Y7300D02*Y7150D01*
X13250Y7100D02*X13300Y7150D01*
X12900Y7520D02*X13300D01*
X12900Y7670D02*X12950Y7720D01*
X13250D01*
X13300Y7670D02*X13250Y7720D01*
X13300Y7670D02*Y7470D01*
X12900Y7670D02*Y7470D01*
Y7940D02*Y7840D01*
Y7890D02*X13300D01*
Y7940D02*Y7840D01*
G04 Text: SEN_RX *
X12800Y10700D02*X12850Y10750D01*
X12800Y10700D02*Y10550D01*
X12850Y10500D02*X12800Y10550D01*
X12850Y10500D02*X12950D01*
X13000Y10550D01*
Y10700D02*Y10550D01*
Y10700D02*X13050Y10750D01*
X13150D01*
X13200Y10700D02*X13150Y10750D01*
X13200Y10700D02*Y10550D01*
X13150Y10500D02*X13200Y10550D01*
X13000Y11020D02*Y10870D01*
X13200Y11070D02*Y10870D01*
X12800D02*X13200D01*
X12800Y11070D02*Y10870D01*
Y11190D02*X13200D01*
X12800D02*X12850D01*
X13100Y11440D01*
X12800D02*X13200D01*
Y11760D02*Y11560D01*
X12800Y12080D02*Y11880D01*
Y12080D02*X12850Y12130D01*
X12950D01*
X13000Y12080D02*X12950Y12130D01*
X13000Y12080D02*Y11930D01*
X12800D02*X13200D01*
X13000D02*X13200Y12130D01*
X12800Y12250D02*X12850D01*
X13100Y12500D01*
X13200D01*
X13100Y12250D02*X13200D01*
X13100D02*X12850Y12500D01*
X12800D02*X12850D01*
G04 Text: SCLK *
X11800Y10800D02*X11850Y10850D01*
X11800Y10800D02*Y10650D01*
X11850Y10600D02*X11800Y10650D01*
X11850Y10600D02*X11950D01*
X12000Y10650D01*
Y10800D02*Y10650D01*
Y10800D02*X12050Y10850D01*
X12150D01*
X12200Y10800D02*X12150Y10850D01*
X12200Y10800D02*Y10650D01*
X12150Y10600D02*X12200Y10650D01*
Y11170D02*Y11020D01*
X12150Y10970D02*X12200Y11020D01*
X11850Y10970D02*X12150D01*
X11850D02*X11800Y11020D01*
Y11170D02*Y11020D01*
Y11290D02*X12200D01*
Y11490D02*Y11290D01*
X11800Y11610D02*X12200D01*
X12000D02*X11800Y11810D01*
X12000Y11610D02*X12200Y11810D01*
G04 Text: SCL *
X9756Y8000D02*X9795Y7961D01*
X9639Y8000D02*X9756D01*
X9600Y7961D02*X9639Y8000D01*
X9600Y7961D02*Y7883D01*
X9639Y7844D01*
X9756D01*
X9795Y7805D01*
Y7727D01*
X9756Y7688D02*X9795Y7727D01*
X9639Y7688D02*X9756D01*
X9600Y7727D02*X9639Y7688D01*
X9927D02*X10044D01*
X9888Y7727D02*X9927Y7688D01*
X9888Y7961D02*Y7727D01*
Y7961D02*X9927Y8000D01*
X10044D01*
X10138D02*Y7688D01*
X10294D01*
G04 Text: SDA *
X9800Y11300D02*X9850Y11350D01*
X9800Y11300D02*Y11150D01*
X9850Y11100D02*X9800Y11150D01*
X9850Y11100D02*X9950D01*
X10000Y11150D01*
Y11300D02*Y11150D01*
Y11300D02*X10050Y11350D01*
X10150D01*
X10200Y11300D02*X10150Y11350D01*
X10200Y11300D02*Y11150D01*
X10150Y11100D02*X10200Y11150D01*
X9800Y11520D02*X10200D01*
X9800Y11670D02*X9850Y11720D01*
X10150D01*
X10200Y11670D02*X10150Y11720D01*
X10200Y11670D02*Y11470D01*
X9800Y11670D02*Y11470D01*
X9850Y11840D02*X10200D01*
X9850D02*X9800Y11890D01*
Y12040D02*Y11890D01*
Y12040D02*X9850Y12090D01*
X10200D01*
X10000D02*Y11840D01*
G04 Text: A0 *
X8850Y7500D02*X9200D01*
X8850D02*X8800Y7550D01*
Y7700D02*Y7550D01*
Y7700D02*X8850Y7750D01*
X9200D01*
X9000D02*Y7500D01*
X9150Y7870D02*X9200Y7920D01*
X8850Y7870D02*X9150D01*
X8850D02*X8800Y7920D01*
Y8020D02*Y7920D01*
Y8020D02*X8850Y8070D01*
X9150D01*
X9200Y8020D02*X9150Y8070D01*
X9200Y8020D02*Y7920D01*
X9100Y7870D02*X8900Y8070D01*
G04 Text: A1 *
X8850Y10600D02*X9200D01*
X8850D02*X8800Y10650D01*
Y10800D02*Y10650D01*
Y10800D02*X8850Y10850D01*
X9200D01*
X9000D02*Y10600D01*
X9200Y11120D02*Y11020D01*
X8800Y11070D02*X9200D01*
X8900Y10970D02*X8800Y11070D01*
G04 Text: RS232 *
X5900Y5400D02*X6144D01*
X6205Y5339D01*
Y5217D01*
X6144Y5156D02*X6205Y5217D01*
X5961Y5156D02*X6144D01*
X5961Y5400D02*Y4912D01*
Y5156D02*X6205Y4912D01*
X6595Y5400D02*X6656Y5339D01*
X6412Y5400D02*X6595D01*
X6351Y5339D02*X6412Y5400D01*
X6351Y5339D02*Y5217D01*
X6412Y5156D01*
X6595D01*
X6656Y5095D01*
Y4973D01*
X6595Y4912D02*X6656Y4973D01*
X6412Y4912D02*X6595D01*
X6351Y4973D02*X6412Y4912D01*
X6803Y5339D02*X6864Y5400D01*
X7047D01*
X7108Y5339D01*
Y5217D01*
X6803Y4912D02*X7108Y5217D01*
X6803Y4912D02*X7108D01*
X7254Y5339D02*X7315Y5400D01*
X7437D01*
X7498Y5339D01*
Y4973D01*
X7437Y4912D02*X7498Y4973D01*
X7315Y4912D02*X7437D01*
X7254Y4973D02*X7315Y4912D01*
Y5156D02*X7498D01*
X7645Y5339D02*X7706Y5400D01*
X7889D01*
X7950Y5339D01*
Y5217D01*
X7645Y4912D02*X7950Y5217D01*
X7645Y4912D02*X7950D01*
G04 Text: RX-A *
X19900Y1188D02*Y900D01*
Y1188D02*X19972Y1260D01*
X20116D01*
X20188Y1188D02*X20116Y1260D01*
X20188Y1188D02*Y972D01*
X19900D02*X20476D01*
X20188D02*X20476Y1260D01*
X19900Y1432D02*X19972D01*
X20332Y1792D01*
X20476D01*
X20332Y1432D02*X20476D01*
X20332D02*X19972Y1792D01*
X19900D02*X19972D01*
X20188Y2253D02*Y1965D01*
X19972Y2426D02*X20476D01*
X19972D02*X19900Y2498D01*
Y2714D02*Y2498D01*
Y2714D02*X19972Y2786D01*
X20476D01*
X20188D02*Y2426D01*
G04 Text: RX-B *
X13700Y1088D02*Y800D01*
Y1088D02*X13772Y1160D01*
X13916D01*
X13988Y1088D02*X13916Y1160D01*
X13988Y1088D02*Y872D01*
X13700D02*X14276D01*
X13988D02*X14276Y1160D01*
X13700Y1332D02*X13772D01*
X14132Y1692D01*
X14276D01*
X14132Y1332D02*X14276D01*
X14132D02*X13772Y1692D01*
X13700D02*X13772D01*
X13988Y2153D02*Y1865D01*
X14276Y2614D02*Y2326D01*
Y2614D02*X14204Y2686D01*
X14060D02*X14204D01*
X13988Y2614D02*X14060Y2686D01*
X13988Y2614D02*Y2398D01*
X13700D02*X14276D01*
X13700Y2614D02*Y2326D01*
Y2614D02*X13772Y2686D01*
X13916D01*
X13988Y2614D02*X13916Y2686D01*
G04 Text: DGND *
X13630Y10510D02*X14030D01*
X13630Y10660D02*X13680Y10710D01*
X13980D01*
X14030Y10660D02*X13980Y10710D01*
X14030Y10660D02*Y10460D01*
X13630Y10660D02*Y10460D01*
Y11030D02*X13680Y11080D01*
X13630Y11030D02*Y10880D01*
X13680Y10830D02*X13630Y10880D01*
X13680Y10830D02*X13980D01*
X14030Y10880D01*
Y11030D02*Y10880D01*
Y11030D02*X13980Y11080D01*
X13880D02*X13980D01*
X13830Y11030D02*X13880Y11080D01*
X13830Y11030D02*Y10930D01*
X13630Y11200D02*X14030D01*
X13630D02*X13680D01*
X13930Y11450D01*
X13630D02*X14030D01*
X13630Y11620D02*X14030D01*
X13630Y11770D02*X13680Y11820D01*
X13980D01*
X14030Y11770D02*X13980Y11820D01*
X14030Y11770D02*Y11570D01*
X13630Y11770D02*Y11570D01*
G04 Text: DGND *
X7830Y10710D02*X8230D01*
X7830Y10860D02*X7880Y10910D01*
X8180D01*
X8230Y10860D02*X8180Y10910D01*
X8230Y10860D02*Y10660D01*
X7830Y10860D02*Y10660D01*
Y11230D02*X7880Y11280D01*
X7830Y11230D02*Y11080D01*
X7880Y11030D02*X7830Y11080D01*
X7880Y11030D02*X8180D01*
X8230Y11080D01*
Y11230D02*Y11080D01*
Y11230D02*X8180Y11280D01*
X8080D02*X8180D01*
X8030Y11230D02*X8080Y11280D01*
X8030Y11230D02*Y11130D01*
X7830Y11400D02*X8230D01*
X7830D02*X7880D01*
X8130Y11650D01*
X7830D02*X8230D01*
X7830Y11820D02*X8230D01*
X7830Y11970D02*X7880Y12020D01*
X8180D01*
X8230Y11970D02*X8180Y12020D01*
X8230Y11970D02*Y11770D01*
X7830Y11970D02*Y11770D01*
G04 Text: io_rx[3] *
X14618Y22840D02*X14657D01*
X14735D02*X14852D01*
X14735Y22918D02*X14813D01*
X14735D02*X14696Y22957D01*
Y23035D02*Y22957D01*
Y23035D02*X14735Y23074D01*
X14813D01*
X14852Y23035D02*X14813Y23074D01*
X14852Y23035D02*Y22957D01*
X14813Y22918D02*X14852Y22957D01*
Y23323D02*Y23167D01*
X14735Y23456D02*X14852D01*
X14735D02*X14696Y23495D01*
Y23573D02*Y23495D01*
Y23417D02*X14735Y23456D01*
X14696Y23667D02*X14852Y23823D01*
Y23667D02*X14696Y23823D01*
X14540Y23955D02*Y23916D01*
X14852D01*
Y23955D02*Y23916D01*
X14579Y24049D02*X14540Y24088D01*
Y24166D02*Y24088D01*
Y24166D02*X14579Y24205D01*
X14813D01*
X14852Y24166D02*X14813Y24205D01*
X14852Y24166D02*Y24088D01*
X14813Y24049D02*X14852Y24088D01*
X14696Y24205D02*Y24088D01*
X14540Y24338D02*Y24299D01*
Y24338D02*X14852D01*
Y24299D01*
G04 Text: io_rx[5] *
X13618Y22840D02*X13657D01*
X13735D02*X13852D01*
X13735Y22918D02*X13813D01*
X13735D02*X13696Y22957D01*
Y23035D02*Y22957D01*
Y23035D02*X13735Y23074D01*
X13813D01*
X13852Y23035D02*X13813Y23074D01*
X13852Y23035D02*Y22957D01*
X13813Y22918D02*X13852Y22957D01*
Y23323D02*Y23167D01*
X13735Y23456D02*X13852D01*
X13735D02*X13696Y23495D01*
Y23573D02*Y23495D01*
Y23417D02*X13735Y23456D01*
X13696Y23667D02*X13852Y23823D01*
Y23667D02*X13696Y23823D01*
X13540Y23955D02*Y23916D01*
X13852D01*
Y23955D02*Y23916D01*
X13540Y24205D02*Y24049D01*
X13696D01*
X13657Y24088D01*
Y24166D02*Y24088D01*
Y24166D02*X13696Y24205D01*
X13813D01*
X13852Y24166D02*X13813Y24205D01*
X13852Y24166D02*Y24088D01*
X13813Y24049D02*X13852Y24088D01*
X13540Y24338D02*Y24299D01*
Y24338D02*X13852D01*
Y24299D01*
G04 Text: io_rx[7] *
X12618Y22840D02*X12657D01*
X12735D02*X12852D01*
X12735Y22918D02*X12813D01*
X12735D02*X12696Y22957D01*
Y23035D02*Y22957D01*
Y23035D02*X12735Y23074D01*
X12813D01*
X12852Y23035D02*X12813Y23074D01*
X12852Y23035D02*Y22957D01*
X12813Y22918D02*X12852Y22957D01*
Y23323D02*Y23167D01*
X12735Y23456D02*X12852D01*
X12735D02*X12696Y23495D01*
Y23573D02*Y23495D01*
Y23417D02*X12735Y23456D01*
X12696Y23667D02*X12852Y23823D01*
Y23667D02*X12696Y23823D01*
X12540Y23955D02*Y23916D01*
X12852D01*
Y23955D02*Y23916D01*
Y24049D02*X12657Y24244D01*
X12540D02*X12657D01*
X12540D02*Y24049D01*
Y24377D02*Y24338D01*
Y24377D02*X12852D01*
Y24338D01*
G04 Text: io_rx[9] *
X11588Y22810D02*X11627D01*
X11705D02*X11822D01*
X11705Y22888D02*X11783D01*
X11705D02*X11666Y22927D01*
Y23005D02*Y22927D01*
Y23005D02*X11705Y23044D01*
X11783D01*
X11822Y23005D02*X11783Y23044D01*
X11822Y23005D02*Y22927D01*
X11783Y22888D02*X11822Y22927D01*
Y23293D02*Y23137D01*
X11705Y23426D02*X11822D01*
X11705D02*X11666Y23465D01*
Y23543D02*Y23465D01*
Y23387D02*X11705Y23426D01*
X11666Y23637D02*X11822Y23793D01*
Y23637D02*X11666Y23793D01*
X11510Y23925D02*Y23886D01*
X11822D01*
Y23925D02*Y23886D01*
Y24019D02*X11666Y24175D01*
X11549D02*X11666D01*
X11510Y24136D02*X11549Y24175D01*
X11510Y24136D02*Y24058D01*
X11549Y24019D02*X11510Y24058D01*
X11549Y24019D02*X11627D01*
X11666Y24058D01*
Y24175D02*Y24058D01*
X11510Y24308D02*Y24269D01*
Y24308D02*X11822D01*
Y24269D01*
G04 Text: io_rx[11] *
X10668Y22810D02*X10707D01*
X10785D02*X10902D01*
X10785Y22888D02*X10863D01*
X10785D02*X10746Y22927D01*
Y23005D02*Y22927D01*
Y23005D02*X10785Y23044D01*
X10863D01*
X10902Y23005D02*X10863Y23044D01*
X10902Y23005D02*Y22927D01*
X10863Y22888D02*X10902Y22927D01*
Y23293D02*Y23137D01*
X10785Y23426D02*X10902D01*
X10785D02*X10746Y23465D01*
Y23543D02*Y23465D01*
Y23387D02*X10785Y23426D01*
X10746Y23637D02*X10902Y23793D01*
Y23637D02*X10746Y23793D01*
X10590Y23925D02*Y23886D01*
X10902D01*
Y23925D02*Y23886D01*
Y24136D02*Y24058D01*
X10590Y24097D02*X10902D01*
X10668Y24019D02*X10590Y24097D01*
X10902Y24347D02*Y24269D01*
X10590Y24308D02*X10902D01*
X10668Y24230D02*X10590Y24308D01*
Y24479D02*Y24440D01*
Y24479D02*X10902D01*
Y24440D01*
G04 Text: io_rx[13] *
X9658Y22750D02*X9697D01*
X9775D02*X9892D01*
X9775Y22828D02*X9853D01*
X9775D02*X9736Y22867D01*
Y22945D02*Y22867D01*
Y22945D02*X9775Y22984D01*
X9853D01*
X9892Y22945D02*X9853Y22984D01*
X9892Y22945D02*Y22867D01*
X9853Y22828D02*X9892Y22867D01*
Y23233D02*Y23077D01*
X9775Y23366D02*X9892D01*
X9775D02*X9736Y23405D01*
Y23483D02*Y23405D01*
Y23327D02*X9775Y23366D01*
X9736Y23577D02*X9892Y23733D01*
Y23577D02*X9736Y23733D01*
X9580Y23865D02*Y23826D01*
X9892D01*
Y23865D02*Y23826D01*
Y24076D02*Y23998D01*
X9580Y24037D02*X9892D01*
X9658Y23959D02*X9580Y24037D01*
X9619Y24170D02*X9580Y24209D01*
Y24287D02*Y24209D01*
Y24287D02*X9619Y24326D01*
X9853D01*
X9892Y24287D02*X9853Y24326D01*
X9892Y24287D02*Y24209D01*
X9853Y24170D02*X9892Y24209D01*
X9736Y24326D02*Y24209D01*
X9580Y24458D02*Y24419D01*
Y24458D02*X9892D01*
Y24419D01*
G04 Text: io_rx[15] *
X8678Y22720D02*X8717D01*
X8795D02*X8912D01*
X8795Y22798D02*X8873D01*
X8795D02*X8756Y22837D01*
Y22915D02*Y22837D01*
Y22915D02*X8795Y22954D01*
X8873D01*
X8912Y22915D02*X8873Y22954D01*
X8912Y22915D02*Y22837D01*
X8873Y22798D02*X8912Y22837D01*
Y23203D02*Y23047D01*
X8795Y23336D02*X8912D01*
X8795D02*X8756Y23375D01*
Y23453D02*Y23375D01*
Y23297D02*X8795Y23336D01*
X8756Y23547D02*X8912Y23703D01*
Y23547D02*X8756Y23703D01*
X8600Y23835D02*Y23796D01*
X8912D01*
Y23835D02*Y23796D01*
Y24046D02*Y23968D01*
X8600Y24007D02*X8912D01*
X8678Y23929D02*X8600Y24007D01*
Y24296D02*Y24140D01*
X8756D01*
X8717Y24179D01*
Y24257D02*Y24179D01*
Y24257D02*X8756Y24296D01*
X8873D01*
X8912Y24257D02*X8873Y24296D01*
X8912Y24257D02*Y24179D01*
X8873Y24140D02*X8912Y24179D01*
X8600Y24428D02*Y24389D01*
Y24428D02*X8912D01*
Y24389D01*
G04 Text: io_rx[10] *
X11618Y18440D02*X11657D01*
X11735D02*X11852D01*
X11735Y18518D02*X11813D01*
X11735D02*X11696Y18557D01*
Y18635D02*Y18557D01*
Y18635D02*X11735Y18674D01*
X11813D01*
X11852Y18635D02*X11813Y18674D01*
X11852Y18635D02*Y18557D01*
X11813Y18518D02*X11852Y18557D01*
Y18923D02*Y18767D01*
X11735Y19056D02*X11852D01*
X11735D02*X11696Y19095D01*
Y19173D02*Y19095D01*
Y19017D02*X11735Y19056D01*
X11696Y19267D02*X11852Y19423D01*
Y19267D02*X11696Y19423D01*
X11540Y19555D02*Y19516D01*
X11852D01*
Y19555D02*Y19516D01*
Y19766D02*Y19688D01*
X11540Y19727D02*X11852D01*
X11618Y19649D02*X11540Y19727D01*
X11813Y19860D02*X11852Y19899D01*
X11579Y19860D02*X11813D01*
X11579D02*X11540Y19899D01*
Y19977D02*Y19899D01*
Y19977D02*X11579Y20016D01*
X11813D01*
X11852Y19977D02*X11813Y20016D01*
X11852Y19977D02*Y19899D01*
X11774Y19860D02*X11618Y20016D01*
X11540Y20148D02*Y20109D01*
Y20148D02*X11852D01*
Y20109D01*
G04 Text: io_rx[2] *
X15688Y18460D02*X15727D01*
X15805D02*X15922D01*
X15805Y18538D02*X15883D01*
X15805D02*X15766Y18577D01*
Y18655D02*Y18577D01*
Y18655D02*X15805Y18694D01*
X15883D01*
X15922Y18655D02*X15883Y18694D01*
X15922Y18655D02*Y18577D01*
X15883Y18538D02*X15922Y18577D01*
Y18943D02*Y18787D01*
X15805Y19076D02*X15922D01*
X15805D02*X15766Y19115D01*
Y19193D02*Y19115D01*
Y19037D02*X15805Y19076D01*
X15766Y19287D02*X15922Y19443D01*
Y19287D02*X15766Y19443D01*
X15610Y19575D02*Y19536D01*
X15922D01*
Y19575D02*Y19536D01*
X15649Y19669D02*X15610Y19708D01*
Y19825D02*Y19708D01*
Y19825D02*X15649Y19864D01*
X15727D01*
X15922Y19669D02*X15727Y19864D01*
X15922D02*Y19669D01*
X15610Y19997D02*Y19958D01*
Y19997D02*X15922D01*
Y19958D01*
G04 Text: io_rx[8] *
X12618Y18440D02*X12657D01*
X12735D02*X12852D01*
X12735Y18518D02*X12813D01*
X12735D02*X12696Y18557D01*
Y18635D02*Y18557D01*
Y18635D02*X12735Y18674D01*
X12813D01*
X12852Y18635D02*X12813Y18674D01*
X12852Y18635D02*Y18557D01*
X12813Y18518D02*X12852Y18557D01*
Y18923D02*Y18767D01*
X12735Y19056D02*X12852D01*
X12735D02*X12696Y19095D01*
Y19173D02*Y19095D01*
Y19017D02*X12735Y19056D01*
X12696Y19267D02*X12852Y19423D01*
Y19267D02*X12696Y19423D01*
X12540Y19555D02*Y19516D01*
X12852D01*
Y19555D02*Y19516D01*
X12813Y19649D02*X12852Y19688D01*
X12735Y19649D02*X12813D01*
X12735D02*X12696Y19688D01*
Y19766D02*Y19688D01*
Y19766D02*X12735Y19805D01*
X12813D01*
X12852Y19766D02*X12813Y19805D01*
X12852Y19766D02*Y19688D01*
X12657Y19649D02*X12696Y19688D01*
X12579Y19649D02*X12657D01*
X12579D02*X12540Y19688D01*
Y19766D02*Y19688D01*
Y19766D02*X12579Y19805D01*
X12657D01*
X12696Y19766D02*X12657Y19805D01*
X12540Y19938D02*Y19899D01*
Y19938D02*X12852D01*
Y19899D01*
G04 Text: io_rx[6] *
X13618Y18440D02*X13657D01*
X13735D02*X13852D01*
X13735Y18518D02*X13813D01*
X13735D02*X13696Y18557D01*
Y18635D02*Y18557D01*
Y18635D02*X13735Y18674D01*
X13813D01*
X13852Y18635D02*X13813Y18674D01*
X13852Y18635D02*Y18557D01*
X13813Y18518D02*X13852Y18557D01*
Y18923D02*Y18767D01*
X13735Y19056D02*X13852D01*
X13735D02*X13696Y19095D01*
Y19173D02*Y19095D01*
Y19017D02*X13735Y19056D01*
X13696Y19267D02*X13852Y19423D01*
Y19267D02*X13696Y19423D01*
X13540Y19555D02*Y19516D01*
X13852D01*
Y19555D02*Y19516D01*
X13540Y19766D02*X13579Y19805D01*
X13540Y19766D02*Y19688D01*
X13579Y19649D02*X13540Y19688D01*
X13579Y19649D02*X13813D01*
X13852Y19688D01*
X13696Y19766D02*X13735Y19805D01*
X13696Y19766D02*Y19649D01*
X13852Y19766D02*Y19688D01*
Y19766D02*X13813Y19805D01*
X13735D02*X13813D01*
X13540Y19938D02*Y19899D01*
Y19938D02*X13852D01*
Y19899D01*
G04 Text: io_rx[4] *
X14618Y18440D02*X14657D01*
X14735D02*X14852D01*
X14735Y18518D02*X14813D01*
X14735D02*X14696Y18557D01*
Y18635D02*Y18557D01*
Y18635D02*X14735Y18674D01*
X14813D01*
X14852Y18635D02*X14813Y18674D01*
X14852Y18635D02*Y18557D01*
X14813Y18518D02*X14852Y18557D01*
Y18923D02*Y18767D01*
X14735Y19056D02*X14852D01*
X14735D02*X14696Y19095D01*
Y19173D02*Y19095D01*
Y19017D02*X14735Y19056D01*
X14696Y19267D02*X14852Y19423D01*
Y19267D02*X14696Y19423D01*
X14540Y19555D02*Y19516D01*
X14852D01*
Y19555D02*Y19516D01*
X14696Y19649D02*X14540Y19805D01*
X14696Y19844D02*Y19649D01*
X14540Y19805D02*X14852D01*
X14540Y19977D02*Y19938D01*
Y19977D02*X14852D01*
Y19938D01*
G04 Text: io_rx[14] *
X9618Y18440D02*X9657D01*
X9735D02*X9852D01*
X9735Y18518D02*X9813D01*
X9735D02*X9696Y18557D01*
Y18635D02*Y18557D01*
Y18635D02*X9735Y18674D01*
X9813D01*
X9852Y18635D02*X9813Y18674D01*
X9852Y18635D02*Y18557D01*
X9813Y18518D02*X9852Y18557D01*
Y18923D02*Y18767D01*
X9735Y19056D02*X9852D01*
X9735D02*X9696Y19095D01*
Y19173D02*Y19095D01*
Y19017D02*X9735Y19056D01*
X9696Y19267D02*X9852Y19423D01*
Y19267D02*X9696Y19423D01*
X9540Y19555D02*Y19516D01*
X9852D01*
Y19555D02*Y19516D01*
Y19766D02*Y19688D01*
X9540Y19727D02*X9852D01*
X9618Y19649D02*X9540Y19727D01*
X9696Y19860D02*X9540Y20016D01*
X9696Y20055D02*Y19860D01*
X9540Y20016D02*X9852D01*
X9540Y20187D02*Y20148D01*
Y20187D02*X9852D01*
Y20148D01*
G04 Text: io_rx[12] *
X10618Y18440D02*X10657D01*
X10735D02*X10852D01*
X10735Y18518D02*X10813D01*
X10735D02*X10696Y18557D01*
Y18635D02*Y18557D01*
Y18635D02*X10735Y18674D01*
X10813D01*
X10852Y18635D02*X10813Y18674D01*
X10852Y18635D02*Y18557D01*
X10813Y18518D02*X10852Y18557D01*
Y18923D02*Y18767D01*
X10735Y19056D02*X10852D01*
X10735D02*X10696Y19095D01*
Y19173D02*Y19095D01*
Y19017D02*X10735Y19056D01*
X10696Y19267D02*X10852Y19423D01*
Y19267D02*X10696Y19423D01*
X10540Y19555D02*Y19516D01*
X10852D01*
Y19555D02*Y19516D01*
Y19766D02*Y19688D01*
X10540Y19727D02*X10852D01*
X10618Y19649D02*X10540Y19727D01*
X10579Y19860D02*X10540Y19899D01*
Y20016D02*Y19899D01*
Y20016D02*X10579Y20055D01*
X10657D01*
X10852Y19860D02*X10657Y20055D01*
X10852D02*Y19860D01*
X10540Y20187D02*Y20148D01*
Y20187D02*X10852D01*
Y20148D01*
G04 Text: io_rx[0] *
X16718Y18440D02*X16757D01*
X16835D02*X16952D01*
X16835Y18518D02*X16913D01*
X16835D02*X16796Y18557D01*
Y18635D02*Y18557D01*
Y18635D02*X16835Y18674D01*
X16913D01*
X16952Y18635D02*X16913Y18674D01*
X16952Y18635D02*Y18557D01*
X16913Y18518D02*X16952Y18557D01*
Y18923D02*Y18767D01*
X16835Y19056D02*X16952D01*
X16835D02*X16796Y19095D01*
Y19173D02*Y19095D01*
Y19017D02*X16835Y19056D01*
X16796Y19267D02*X16952Y19423D01*
Y19267D02*X16796Y19423D01*
X16640Y19555D02*Y19516D01*
X16952D01*
Y19555D02*Y19516D01*
X16913Y19649D02*X16952Y19688D01*
X16679Y19649D02*X16913D01*
X16679D02*X16640Y19688D01*
Y19766D02*Y19688D01*
Y19766D02*X16679Y19805D01*
X16913D01*
X16952Y19766D02*X16913Y19805D01*
X16952Y19766D02*Y19688D01*
X16874Y19649D02*X16718Y19805D01*
X16640Y19938D02*Y19899D01*
Y19938D02*X16952D01*
Y19899D01*
G04 Text: io_rx[1] *
X15618Y22840D02*X15657D01*
X15735D02*X15852D01*
X15735Y22918D02*X15813D01*
X15735D02*X15696Y22957D01*
Y23035D02*Y22957D01*
Y23035D02*X15735Y23074D01*
X15813D01*
X15852Y23035D02*X15813Y23074D01*
X15852Y23035D02*Y22957D01*
X15813Y22918D02*X15852Y22957D01*
Y23323D02*Y23167D01*
X15735Y23456D02*X15852D01*
X15735D02*X15696Y23495D01*
Y23573D02*Y23495D01*
Y23417D02*X15735Y23456D01*
X15696Y23667D02*X15852Y23823D01*
Y23667D02*X15696Y23823D01*
X15540Y23955D02*Y23916D01*
X15852D01*
Y23955D02*Y23916D01*
Y24166D02*Y24088D01*
X15540Y24127D02*X15852D01*
X15618Y24049D02*X15540Y24127D01*
Y24299D02*Y24260D01*
Y24299D02*X15852D01*
Y24260D01*
G04 Text: io_rx[7] *
X758Y12440D02*X797D01*
X875D02*X992D01*
X875Y12518D02*X953D01*
X875D02*X836Y12557D01*
Y12635D02*Y12557D01*
Y12635D02*X875Y12674D01*
X953D01*
X992Y12635D02*X953Y12674D01*
X992Y12635D02*Y12557D01*
X953Y12518D02*X992Y12557D01*
Y12923D02*Y12767D01*
X875Y13056D02*X992D01*
X875D02*X836Y13095D01*
Y13173D02*Y13095D01*
Y13017D02*X875Y13056D01*
X836Y13267D02*X992Y13423D01*
Y13267D02*X836Y13423D01*
X680Y13555D02*Y13516D01*
X992D01*
Y13555D02*Y13516D01*
Y13649D02*X797Y13844D01*
X680D02*X797D01*
X680D02*Y13649D01*
Y13977D02*Y13938D01*
Y13977D02*X992D01*
Y13938D01*
G04 Text: io_rx[15] *
X210Y24472D02*Y24433D01*
Y24355D02*Y24238D01*
X288Y24355D02*Y24277D01*
Y24355D02*X327Y24394D01*
X405D01*
X444Y24355D01*
Y24277D01*
X405Y24238D02*X444Y24277D01*
X327Y24238D02*X405D01*
X288Y24277D02*X327Y24238D01*
X537D02*X693D01*
X826Y24355D02*Y24238D01*
Y24355D02*X865Y24394D01*
X943D01*
X787D02*X826Y24355D01*
X1037Y24394D02*X1193Y24238D01*
X1037D02*X1193Y24394D01*
X1286Y24550D02*X1325D01*
X1286D02*Y24238D01*
X1325D01*
X1458D02*X1536D01*
X1497Y24550D02*Y24238D01*
X1419Y24472D02*X1497Y24550D01*
X1630D02*X1786D01*
X1630D02*Y24394D01*
X1669Y24433D01*
X1747D01*
X1786Y24394D01*
Y24277D01*
X1747Y24238D02*X1786Y24277D01*
X1669Y24238D02*X1747D01*
X1630Y24277D02*X1669Y24238D01*
X1879Y24550D02*X1918D01*
Y24238D01*
X1879D02*X1918D01*
G04 Text: io_rx[0] *
X938Y2410D02*X977D01*
X1055D02*X1172D01*
X1055Y2488D02*X1133D01*
X1055D02*X1016Y2527D01*
Y2605D02*Y2527D01*
Y2605D02*X1055Y2644D01*
X1133D01*
X1172Y2605D02*X1133Y2644D01*
X1172Y2605D02*Y2527D01*
X1133Y2488D02*X1172Y2527D01*
Y2893D02*Y2737D01*
X1055Y3026D02*X1172D01*
X1055D02*X1016Y3065D01*
Y3143D02*Y3065D01*
Y2987D02*X1055Y3026D01*
X1016Y3237D02*X1172Y3393D01*
Y3237D02*X1016Y3393D01*
X860Y3525D02*Y3486D01*
X1172D01*
Y3525D02*Y3486D01*
X1133Y3619D02*X1172Y3658D01*
X899Y3619D02*X1133D01*
X899D02*X860Y3658D01*
Y3736D02*Y3658D01*
Y3736D02*X899Y3775D01*
X1133D01*
X1172Y3736D02*X1133Y3775D01*
X1172Y3736D02*Y3658D01*
X1094Y3619D02*X938Y3775D01*
X860Y3908D02*Y3869D01*
Y3908D02*X1172D01*
Y3869D01*
G04 Text: io_rx[8] *
X1148Y14270D02*X1187D01*
X1265D02*X1382D01*
X1265Y14348D02*X1343D01*
X1265D02*X1226Y14387D01*
Y14465D02*Y14387D01*
Y14465D02*X1265Y14504D01*
X1343D01*
X1382Y14465D02*X1343Y14504D01*
X1382Y14465D02*Y14387D01*
X1343Y14348D02*X1382Y14387D01*
Y14753D02*Y14597D01*
X1265Y14886D02*X1382D01*
X1265D02*X1226Y14925D01*
Y15003D02*Y14925D01*
Y14847D02*X1265Y14886D01*
X1226Y15097D02*X1382Y15253D01*
Y15097D02*X1226Y15253D01*
X1070Y15385D02*Y15346D01*
X1382D01*
Y15385D02*Y15346D01*
X1343Y15479D02*X1382Y15518D01*
X1265Y15479D02*X1343D01*
X1265D02*X1226Y15518D01*
Y15596D02*Y15518D01*
Y15596D02*X1265Y15635D01*
X1343D01*
X1382Y15596D02*X1343Y15635D01*
X1382Y15596D02*Y15518D01*
X1187Y15479D02*X1226Y15518D01*
X1109Y15479D02*X1187D01*
X1109D02*X1070Y15518D01*
Y15596D02*Y15518D01*
Y15596D02*X1109Y15635D01*
X1187D01*
X1226Y15596D02*X1187Y15635D01*
X1070Y15768D02*Y15729D01*
Y15768D02*X1382D01*
Y15729D01*
G04 Text: DGND *
X2850Y19400D02*X3250D01*
X2850Y19550D02*X2900Y19600D01*
X3200D01*
X3250Y19550D02*X3200Y19600D01*
X3250Y19550D02*Y19350D01*
X2850Y19550D02*Y19350D01*
Y19920D02*X2900Y19970D01*
X2850Y19920D02*Y19770D01*
X2900Y19720D02*X2850Y19770D01*
X2900Y19720D02*X3200D01*
X3250Y19770D01*
Y19920D02*Y19770D01*
Y19920D02*X3200Y19970D01*
X3100D02*X3200D01*
X3050Y19920D02*X3100Y19970D01*
X3050Y19920D02*Y19820D01*
X2850Y20090D02*X3250D01*
X2850D02*X2900D01*
X3150Y20340D01*
X2850D02*X3250D01*
X2850Y20510D02*X3250D01*
X2850Y20660D02*X2900Y20710D01*
X3200D01*
X3250Y20660D02*X3200Y20710D01*
X3250Y20660D02*Y20460D01*
X2850Y20660D02*Y20460D01*
G04 Text: DGND *
X6730Y10710D02*X7130D01*
X6730Y10860D02*X6780Y10910D01*
X7080D01*
X7130Y10860D02*X7080Y10910D01*
X7130Y10860D02*Y10660D01*
X6730Y10860D02*Y10660D01*
Y11230D02*X6780Y11280D01*
X6730Y11230D02*Y11080D01*
X6780Y11030D02*X6730Y11080D01*
X6780Y11030D02*X7080D01*
X7130Y11080D01*
Y11230D02*Y11080D01*
Y11230D02*X7080Y11280D01*
X6980D02*X7080D01*
X6930Y11230D02*X6980Y11280D01*
X6930Y11230D02*Y11130D01*
X6730Y11400D02*X7130D01*
X6730D02*X6780D01*
X7030Y11650D01*
X6730D02*X7130D01*
X6730Y11820D02*X7130D01*
X6730Y11970D02*X6780Y12020D01*
X7080D01*
X7130Y11970D02*X7080Y12020D01*
X7130Y11970D02*Y11770D01*
X6730Y11970D02*Y11770D01*
G04 Text: DGND *
X2750Y9000D02*X3150D01*
X2750Y9150D02*X2800Y9200D01*
X3100D01*
X3150Y9150D02*X3100Y9200D01*
X3150Y9150D02*Y8950D01*
X2750Y9150D02*Y8950D01*
Y9520D02*X2800Y9570D01*
X2750Y9520D02*Y9370D01*
X2800Y9320D02*X2750Y9370D01*
X2800Y9320D02*X3100D01*
X3150Y9370D01*
Y9520D02*Y9370D01*
Y9520D02*X3100Y9570D01*
X3000D02*X3100D01*
X2950Y9520D02*X3000Y9570D01*
X2950Y9520D02*Y9420D01*
X2750Y9690D02*X3150D01*
X2750D02*X2800D01*
X3050Y9940D01*
X2750D02*X3150D01*
X2750Y10110D02*X3150D01*
X2750Y10260D02*X2800Y10310D01*
X3100D01*
X3150Y10260D02*X3100Y10310D01*
X3150Y10260D02*Y10060D01*
X2750Y10260D02*Y10060D01*
G04 Text: DGND *
X16540Y22790D02*X16940D01*
X16540Y22940D02*X16590Y22990D01*
X16890D01*
X16940Y22940D02*X16890Y22990D01*
X16940Y22940D02*Y22740D01*
X16540Y22940D02*Y22740D01*
Y23310D02*X16590Y23360D01*
X16540Y23310D02*Y23160D01*
X16590Y23110D02*X16540Y23160D01*
X16590Y23110D02*X16890D01*
X16940Y23160D01*
Y23310D02*Y23160D01*
Y23310D02*X16890Y23360D01*
X16790D02*X16890D01*
X16740Y23310D02*X16790Y23360D01*
X16740Y23310D02*Y23210D01*
X16540Y23480D02*X16940D01*
X16540D02*X16590D01*
X16840Y23730D01*
X16540D02*X16940D01*
X16540Y23900D02*X16940D01*
X16540Y24050D02*X16590Y24100D01*
X16890D01*
X16940Y24050D02*X16890Y24100D01*
X16940Y24050D02*Y23850D01*
X16540Y24050D02*Y23850D01*
G04 Text: AGND *
X23039Y10500D02*X23312D01*
X23039D02*X23000Y10539D01*
Y10656D02*Y10539D01*
Y10656D02*X23039Y10695D01*
X23312D01*
X23156D02*Y10500D01*
X23000Y10944D02*X23039Y10983D01*
X23000Y10944D02*Y10827D01*
X23039Y10788D02*X23000Y10827D01*
X23039Y10788D02*X23273D01*
X23312Y10827D01*
Y10944D02*Y10827D01*
Y10944D02*X23273Y10983D01*
X23195D02*X23273D01*
X23156Y10944D02*X23195Y10983D01*
X23156Y10944D02*Y10866D01*
X23000Y11077D02*X23312D01*
X23000D02*X23039D01*
X23234Y11272D01*
X23000D02*X23312D01*
X23000Y11405D02*X23312D01*
X23000Y11522D02*X23039Y11561D01*
X23273D01*
X23312Y11522D02*X23273Y11561D01*
X23312Y11522D02*Y11366D01*
X23000Y11522D02*Y11366D01*
G04 Text: SILK *
X22650Y21600D02*X22700Y21550D01*
X22500Y21600D02*X22650D01*
X22450Y21550D02*X22500Y21600D01*
X22450Y21550D02*Y21450D01*
X22500Y21400D01*
X22650D01*
X22700Y21350D01*
Y21250D01*
X22650Y21200D02*X22700Y21250D01*
X22500Y21200D02*X22650D01*
X22450Y21250D02*X22500Y21200D01*
X22820Y21600D02*X22920D01*
X22870D02*Y21200D01*
X22820D02*X22920D01*
X23040Y21600D02*Y21200D01*
X23240D01*
X23360Y21600D02*Y21200D01*
Y21400D02*X23560Y21600D01*
X23360Y21400D02*X23560Y21200D01*
%LNCUTS*%
%LPC*%
G54D21*X8660Y7100D02*X8940D01*
G54D19*X8660Y6600D02*X8940D01*
X8660Y6100D02*X8940D01*
X8660Y5600D02*X8940D01*
X10700D02*X10980D01*
X10700Y6100D02*X10980D01*
X10700Y6600D02*X10980D01*
X10700Y7100D02*X10980D01*
M02*
