G04 (created by PCBNEW (2013-05-31 BZR 4019)-stable) date 3/12/2014 4:46:27 PM*
%MOIN*%
G04 Gerber Fmt 3.4, Leading zero omitted, Abs format*
%FSLAX34Y34*%
G01*
G70*
G90*
G04 APERTURE LIST*
%ADD10C,0.00590551*%
%ADD11C,0.00393701*%
G04 APERTURE END LIST*
G54D10*
G54D11*
X24000Y-10750D02*
X6250Y-10750D01*
X24000Y-10750D02*
X24000Y-21750D01*
X6250Y-21750D02*
X24000Y-21750D01*
X6250Y-10750D02*
X6250Y-21750D01*
M02*
