G04 (created by PCBNEW-RS274X (2011-05-25)-stable) date Tue 03 Jul 2012 10:17:44 PM EDT*
G01*
G70*
G90*
%MOIN*%
G04 Gerber Fmt 3.4, Leading zero omitted, Abs format*
%FSLAX34Y34*%
G04 APERTURE LIST*
%ADD10C,0.006000*%
%ADD11R,0.050000X0.016000*%
%ADD12R,0.035000X0.055000*%
%ADD13R,0.055000X0.035000*%
%ADD14R,0.055000X0.055000*%
%ADD15C,0.055000*%
%ADD16C,0.246100*%
%ADD17R,0.149600X0.098400*%
%ADD18R,0.055100X0.019700*%
%ADD19R,0.050000X0.100000*%
%ADD20C,0.035000*%
%ADD21C,0.008000*%
%ADD22C,0.025000*%
G04 APERTURE END LIST*
G54D10*
G54D11*
X64900Y-42850D03*
X64900Y-42600D03*
X64900Y-42340D03*
X64900Y-42080D03*
X64900Y-41830D03*
X64900Y-41570D03*
X64900Y-41310D03*
X64900Y-41060D03*
X64900Y-40800D03*
X64900Y-40550D03*
X64900Y-40290D03*
X64900Y-40030D03*
X64900Y-39780D03*
X64900Y-39520D03*
X62100Y-39520D03*
X62100Y-39780D03*
X62100Y-40020D03*
X62100Y-40290D03*
X62100Y-40550D03*
X62100Y-40800D03*
X62100Y-41060D03*
X62100Y-41310D03*
X62100Y-41570D03*
X62100Y-41830D03*
X62100Y-42080D03*
X62100Y-42340D03*
X62100Y-42600D03*
X62100Y-42850D03*
G54D12*
X65125Y-44200D03*
X65875Y-44200D03*
G54D13*
X65100Y-37775D03*
X65100Y-37025D03*
X61450Y-38375D03*
X61450Y-37625D03*
G54D14*
X66200Y-37700D03*
G54D15*
X66200Y-38700D03*
X66200Y-39700D03*
X66200Y-40700D03*
X66200Y-41700D03*
X66200Y-42700D03*
G54D16*
X60000Y-36500D03*
X60000Y-43700D03*
G54D14*
X65100Y-36100D03*
G54D15*
X64100Y-36100D03*
X63100Y-36100D03*
X62100Y-36100D03*
G54D14*
X64200Y-44200D03*
G54D15*
X63200Y-44200D03*
X62200Y-44200D03*
G54D17*
X59957Y-41754D03*
X59957Y-38446D03*
G54D18*
X60902Y-40730D03*
X60902Y-40415D03*
X60902Y-39470D03*
X60902Y-39785D03*
X60902Y-40100D03*
G54D19*
X62650Y-37900D03*
X63850Y-37900D03*
G54D20*
X65400Y-43300D03*
X63850Y-39700D03*
X62650Y-39700D03*
X64050Y-38800D03*
X62400Y-38800D03*
X60250Y-39450D03*
X61500Y-40550D03*
X61550Y-39450D03*
X61500Y-40100D03*
X61700Y-37000D03*
X64750Y-43200D03*
X62900Y-42100D03*
X64300Y-42100D03*
X64050Y-37000D03*
X59950Y-40700D03*
X59450Y-39300D03*
X66000Y-43650D03*
X62700Y-40300D03*
X64400Y-41300D03*
X61500Y-42200D03*
G54D21*
X63850Y-39700D02*
X63850Y-41350D01*
X63850Y-41350D02*
X63400Y-41800D01*
X63850Y-39700D02*
X63850Y-39700D01*
X63400Y-41800D02*
X63400Y-42950D01*
X63400Y-42950D02*
X64200Y-43750D01*
X64200Y-44200D02*
X65125Y-44200D01*
X64200Y-44200D02*
X64200Y-43750D01*
X62100Y-40020D02*
X62530Y-40020D01*
X62530Y-40020D02*
X62600Y-39950D01*
X62600Y-39950D02*
X62600Y-39750D01*
G54D22*
X62600Y-39750D02*
X62650Y-39700D01*
G54D21*
X65100Y-37775D02*
X65100Y-38250D01*
X64550Y-38800D02*
X64050Y-38800D01*
X65100Y-38250D02*
X64550Y-38800D01*
X62650Y-38550D02*
X62400Y-38800D01*
X62650Y-37900D02*
X62650Y-38550D01*
G54D22*
X60902Y-39200D02*
X60902Y-39198D01*
X60902Y-39198D02*
X61450Y-38650D01*
X61450Y-38650D02*
X61450Y-38375D01*
X61450Y-38375D02*
X61825Y-38375D01*
X62500Y-38050D02*
X62650Y-37900D01*
X62150Y-38050D02*
X62500Y-38050D01*
X61825Y-38375D02*
X62150Y-38050D01*
X62200Y-44200D02*
X62200Y-43800D01*
X61100Y-41350D02*
X61500Y-40950D01*
X61100Y-42450D02*
X61100Y-41350D01*
X61400Y-42750D02*
X61100Y-42450D01*
X61400Y-43000D02*
X61400Y-42750D01*
X62200Y-43800D02*
X61400Y-43000D01*
X61500Y-40950D02*
X61500Y-40550D01*
G54D21*
X60902Y-39470D02*
X60902Y-39200D01*
X61450Y-38650D02*
X61450Y-38375D01*
X60902Y-39198D02*
X61450Y-38650D01*
X61500Y-40950D02*
X61500Y-40550D01*
X62100Y-40800D02*
X61650Y-40800D01*
X61650Y-40800D02*
X61500Y-40650D01*
X61500Y-40650D02*
X61500Y-40550D01*
X60270Y-39470D02*
X60902Y-39470D01*
X60250Y-39450D02*
X60270Y-39470D01*
X64900Y-40290D02*
X65290Y-40290D01*
X65900Y-38700D02*
X66200Y-38700D01*
X65530Y-39070D02*
X65900Y-38700D01*
X65530Y-40050D02*
X65530Y-39070D01*
X65290Y-40290D02*
X65530Y-40050D01*
X62100Y-39780D02*
X60907Y-39780D01*
X60907Y-39780D02*
X60902Y-39785D01*
X60902Y-40100D02*
X61500Y-40100D01*
X61620Y-39520D02*
X62100Y-39520D01*
X61550Y-39450D02*
X61620Y-39520D01*
X64900Y-42600D02*
X65400Y-42600D01*
X66150Y-42750D02*
X66200Y-42700D01*
X65550Y-42750D02*
X66150Y-42750D01*
X65400Y-42600D02*
X65550Y-42750D01*
X65100Y-36100D02*
X65100Y-37025D01*
X61450Y-37350D02*
X61700Y-37100D01*
X61700Y-37100D02*
X61700Y-37000D01*
X61450Y-37625D02*
X61450Y-37350D01*
X66200Y-41700D02*
X65700Y-41700D01*
X65570Y-41830D02*
X64900Y-41830D01*
X65700Y-41700D02*
X65570Y-41830D01*
X64900Y-42850D02*
X64900Y-43050D01*
X64900Y-43050D02*
X64750Y-43200D01*
G54D22*
X63200Y-44200D02*
X63200Y-43450D01*
X63200Y-43450D02*
X62900Y-43150D01*
X62900Y-43150D02*
X62900Y-42100D01*
G54D21*
X64880Y-42100D02*
X64900Y-42080D01*
X64300Y-42100D02*
X64400Y-42100D01*
X64400Y-42100D02*
X64880Y-42100D01*
X64100Y-36100D02*
X64000Y-36100D01*
X64000Y-36100D02*
X63300Y-36800D01*
X63300Y-36800D02*
X63300Y-39650D01*
X63300Y-39650D02*
X63400Y-39750D01*
X64000Y-36100D02*
X63300Y-36800D01*
X62100Y-41570D02*
X63070Y-41570D01*
X63400Y-41240D02*
X63400Y-39750D01*
X63070Y-41570D02*
X63400Y-41240D01*
X62100Y-36100D02*
X63100Y-37100D01*
X63100Y-39300D02*
X63000Y-39400D01*
X63100Y-37100D02*
X63100Y-39300D01*
X62100Y-41310D02*
X62740Y-41310D01*
X62740Y-41310D02*
X63000Y-41050D01*
X63000Y-41050D02*
X63000Y-39400D01*
X63850Y-37900D02*
X63850Y-37200D01*
X63850Y-37200D02*
X64050Y-37000D01*
G54D22*
X60400Y-40730D02*
X59980Y-40730D01*
G54D21*
X60902Y-40730D02*
X60400Y-40730D01*
G54D22*
X59980Y-40730D02*
X59950Y-40700D01*
G54D21*
X59957Y-40957D02*
X59950Y-40700D01*
G54D22*
X59957Y-40957D02*
X59950Y-40700D01*
X59950Y-40700D02*
X59950Y-40700D01*
X59957Y-41754D02*
X59957Y-40957D01*
X59957Y-38446D02*
X59957Y-38793D01*
X59957Y-38793D02*
X59450Y-39300D01*
G54D21*
X65875Y-44200D02*
X65875Y-43775D01*
X65875Y-43775D02*
X66000Y-43650D01*
X62100Y-41060D02*
X62610Y-41060D01*
X62690Y-40290D02*
X62700Y-40300D01*
X62690Y-40290D02*
X62100Y-40290D01*
X62700Y-40970D02*
X62700Y-40300D01*
X62610Y-41060D02*
X62700Y-40970D01*
X64900Y-41310D02*
X64310Y-41310D01*
X64310Y-41310D02*
X64400Y-41300D01*
X62100Y-42340D02*
X61640Y-42340D01*
X61620Y-42080D02*
X61500Y-42200D01*
X61620Y-42080D02*
X62100Y-42080D01*
X61640Y-42340D02*
X61500Y-42200D01*
M02*
