G04 (created by PCBNEW-RS274X (2011-05-25)-stable) date Thu 28 Jun 2012 08:22:59 PM EDT*
G01*
G70*
G90*
%MOIN*%
G04 Gerber Fmt 3.4, Leading zero omitted, Abs format*
%FSLAX34Y34*%
G04 APERTURE LIST*
%ADD10C,0.006000*%
%ADD11C,0.012000*%
G04 APERTURE END LIST*
G54D10*
G54D11*
X56524Y-29772D02*
X55724Y-29772D01*
X55800Y-30029D02*
X55762Y-30058D01*
X55724Y-30115D01*
X55724Y-30258D01*
X55762Y-30315D01*
X55800Y-30344D01*
X55876Y-30372D01*
X55952Y-30372D01*
X56067Y-30344D01*
X56524Y-30001D01*
X56524Y-30372D01*
X56448Y-30972D02*
X56486Y-30943D01*
X56524Y-30857D01*
X56524Y-30800D01*
X56486Y-30715D01*
X56410Y-30657D01*
X56333Y-30629D01*
X56181Y-30600D01*
X56067Y-30600D01*
X55914Y-30629D01*
X55838Y-30657D01*
X55762Y-30715D01*
X55724Y-30800D01*
X55724Y-30857D01*
X55762Y-30943D01*
X55800Y-30972D01*
X56524Y-31686D02*
X55724Y-31686D01*
X55686Y-32400D02*
X56714Y-31886D01*
X56105Y-32801D02*
X56105Y-32601D01*
X56524Y-32601D02*
X55724Y-32601D01*
X55724Y-32887D01*
M02*
