G04 (created by PCBNEW-RS274X (2011-05-25)-stable) date Thu 28 Jun 2012 08:22:59 PM EDT*
G01*
G70*
G90*
%MOIN*%
G04 Gerber Fmt 3.4, Leading zero omitted, Abs format*
%FSLAX34Y34*%
G04 APERTURE LIST*
%ADD10C,0.006000*%
%ADD11R,0.055000X0.055000*%
%ADD12C,0.055000*%
%ADD13C,0.250000*%
%ADD14C,0.035000*%
%ADD15C,0.008000*%
%ADD16C,0.010000*%
G04 APERTURE END LIST*
G54D10*
G54D11*
X51200Y-30200D03*
G54D12*
X51200Y-29200D03*
X51200Y-28200D03*
X51200Y-27200D03*
G54D11*
X56800Y-36400D03*
G54D12*
X55800Y-36400D03*
X54800Y-36400D03*
G54D11*
X61000Y-34250D03*
G54D12*
X60000Y-34250D03*
X59000Y-34250D03*
G54D11*
X61000Y-27250D03*
G54D12*
X60000Y-27250D03*
X59000Y-27250D03*
G54D11*
X61000Y-28250D03*
G54D12*
X60000Y-28250D03*
X59000Y-28250D03*
G54D11*
X61000Y-29250D03*
G54D12*
X60000Y-29250D03*
X59000Y-29250D03*
G54D11*
X61000Y-30250D03*
G54D12*
X60000Y-30250D03*
X59000Y-30250D03*
G54D11*
X61000Y-31250D03*
G54D12*
X60000Y-31250D03*
X59000Y-31250D03*
G54D11*
X61000Y-32250D03*
G54D12*
X60000Y-32250D03*
X59000Y-32250D03*
G54D11*
X61000Y-33250D03*
G54D12*
X60000Y-33250D03*
X59000Y-33250D03*
G54D11*
X53600Y-31800D03*
G54D12*
X52600Y-31800D03*
G54D11*
X53600Y-28500D03*
G54D12*
X52600Y-28500D03*
G54D11*
X53600Y-29500D03*
G54D12*
X52600Y-29500D03*
X52600Y-32900D03*
X53600Y-32900D03*
X52600Y-30700D03*
X53600Y-30700D03*
X52500Y-27300D03*
X53500Y-27300D03*
X52600Y-34100D03*
X53600Y-34100D03*
X58000Y-24700D03*
X57000Y-24700D03*
X55900Y-24700D03*
X54900Y-24700D03*
G54D11*
X54750Y-26500D03*
G54D12*
X54750Y-27500D03*
X54750Y-28500D03*
X54750Y-29500D03*
X54750Y-30500D03*
X54750Y-31500D03*
X54750Y-32500D03*
X54750Y-33500D03*
X54750Y-34500D03*
X57750Y-34500D03*
X57750Y-33500D03*
X57750Y-32500D03*
X57750Y-31500D03*
X57750Y-30500D03*
X57750Y-29500D03*
X57750Y-28500D03*
X57750Y-27500D03*
X57750Y-26500D03*
G54D13*
X51800Y-25300D03*
X60100Y-25300D03*
X60200Y-36200D03*
X51800Y-36200D03*
G54D12*
X53800Y-25700D03*
X53800Y-24700D03*
G54D14*
X56600Y-26500D03*
G54D15*
X53600Y-32900D02*
X53600Y-31800D01*
X53600Y-29500D02*
X53600Y-30700D01*
X53500Y-27300D02*
X53500Y-28400D01*
X53500Y-28400D02*
X53600Y-28500D01*
X54750Y-33500D02*
X55000Y-33500D01*
X55400Y-35800D02*
X54800Y-36400D01*
X55400Y-33900D02*
X55400Y-35800D01*
X55000Y-33500D02*
X55400Y-33900D01*
X53600Y-34100D02*
X53600Y-34000D01*
X54200Y-32050D02*
X54750Y-31500D01*
X54200Y-33400D02*
X54200Y-32050D01*
X53600Y-34000D02*
X54200Y-33400D01*
X57000Y-26100D02*
X57000Y-24700D01*
X56600Y-26500D02*
X57000Y-26100D01*
X54750Y-27500D02*
X55000Y-27500D01*
X55300Y-25100D02*
X54900Y-24700D01*
X55300Y-27200D02*
X55300Y-25100D01*
X55000Y-27500D02*
X55300Y-27200D01*
G54D10*
G36*
X61255Y-35248D02*
X61005Y-34998D01*
X60519Y-34795D01*
X60519Y-34324D01*
X60519Y-33324D01*
X60519Y-32324D01*
X60519Y-31324D01*
X60519Y-30324D01*
X60519Y-29324D01*
X60519Y-28324D01*
X60519Y-27324D01*
X60508Y-27120D01*
X60452Y-26983D01*
X60361Y-26960D01*
X60290Y-27031D01*
X60290Y-26889D01*
X60267Y-26798D01*
X60074Y-26731D01*
X59870Y-26742D01*
X59733Y-26798D01*
X59710Y-26889D01*
X60000Y-27179D01*
X60290Y-26889D01*
X60290Y-27031D01*
X60071Y-27250D01*
X60361Y-27540D01*
X60452Y-27517D01*
X60519Y-27324D01*
X60519Y-28324D01*
X60508Y-28120D01*
X60452Y-27983D01*
X60361Y-27960D01*
X60290Y-28031D01*
X60290Y-27889D01*
X60267Y-27798D01*
X60140Y-27753D01*
X60267Y-27702D01*
X60290Y-27611D01*
X60000Y-27321D01*
X59929Y-27392D01*
X59929Y-27250D01*
X59639Y-26960D01*
X59548Y-26983D01*
X59481Y-27176D01*
X59492Y-27380D01*
X59548Y-27517D01*
X59639Y-27540D01*
X59929Y-27250D01*
X59929Y-27392D01*
X59710Y-27611D01*
X59733Y-27702D01*
X59859Y-27746D01*
X59733Y-27798D01*
X59710Y-27889D01*
X60000Y-28179D01*
X60290Y-27889D01*
X60290Y-28031D01*
X60071Y-28250D01*
X60361Y-28540D01*
X60452Y-28517D01*
X60519Y-28324D01*
X60519Y-29324D01*
X60508Y-29120D01*
X60452Y-28983D01*
X60361Y-28960D01*
X60290Y-29031D01*
X60290Y-28889D01*
X60267Y-28798D01*
X60140Y-28753D01*
X60267Y-28702D01*
X60290Y-28611D01*
X60000Y-28321D01*
X59929Y-28392D01*
X59929Y-28250D01*
X59639Y-27960D01*
X59548Y-27983D01*
X59481Y-28176D01*
X59492Y-28380D01*
X59548Y-28517D01*
X59639Y-28540D01*
X59929Y-28250D01*
X59929Y-28392D01*
X59710Y-28611D01*
X59733Y-28702D01*
X59859Y-28746D01*
X59733Y-28798D01*
X59710Y-28889D01*
X60000Y-29179D01*
X60290Y-28889D01*
X60290Y-29031D01*
X60071Y-29250D01*
X60361Y-29540D01*
X60452Y-29517D01*
X60519Y-29324D01*
X60519Y-30324D01*
X60508Y-30120D01*
X60452Y-29983D01*
X60361Y-29960D01*
X60290Y-30031D01*
X60290Y-29889D01*
X60267Y-29798D01*
X60140Y-29753D01*
X60267Y-29702D01*
X60290Y-29611D01*
X60000Y-29321D01*
X59929Y-29392D01*
X59929Y-29250D01*
X59639Y-28960D01*
X59548Y-28983D01*
X59481Y-29176D01*
X59492Y-29380D01*
X59548Y-29517D01*
X59639Y-29540D01*
X59929Y-29250D01*
X59929Y-29392D01*
X59710Y-29611D01*
X59733Y-29702D01*
X59859Y-29746D01*
X59733Y-29798D01*
X59710Y-29889D01*
X60000Y-30179D01*
X60290Y-29889D01*
X60290Y-30031D01*
X60071Y-30250D01*
X60361Y-30540D01*
X60452Y-30517D01*
X60519Y-30324D01*
X60519Y-31324D01*
X60508Y-31120D01*
X60452Y-30983D01*
X60361Y-30960D01*
X60290Y-31031D01*
X60290Y-30889D01*
X60267Y-30798D01*
X60140Y-30753D01*
X60267Y-30702D01*
X60290Y-30611D01*
X60000Y-30321D01*
X59929Y-30392D01*
X59929Y-30250D01*
X59639Y-29960D01*
X59548Y-29983D01*
X59481Y-30176D01*
X59492Y-30380D01*
X59548Y-30517D01*
X59639Y-30540D01*
X59929Y-30250D01*
X59929Y-30392D01*
X59710Y-30611D01*
X59733Y-30702D01*
X59859Y-30746D01*
X59733Y-30798D01*
X59710Y-30889D01*
X60000Y-31179D01*
X60290Y-30889D01*
X60290Y-31031D01*
X60071Y-31250D01*
X60361Y-31540D01*
X60452Y-31517D01*
X60519Y-31324D01*
X60519Y-32324D01*
X60508Y-32120D01*
X60452Y-31983D01*
X60361Y-31960D01*
X60290Y-32031D01*
X60290Y-31889D01*
X60267Y-31798D01*
X60140Y-31753D01*
X60267Y-31702D01*
X60290Y-31611D01*
X60000Y-31321D01*
X59929Y-31392D01*
X59929Y-31250D01*
X59639Y-30960D01*
X59548Y-30983D01*
X59481Y-31176D01*
X59492Y-31380D01*
X59548Y-31517D01*
X59639Y-31540D01*
X59929Y-31250D01*
X59929Y-31392D01*
X59710Y-31611D01*
X59733Y-31702D01*
X59859Y-31746D01*
X59733Y-31798D01*
X59710Y-31889D01*
X60000Y-32179D01*
X60290Y-31889D01*
X60290Y-32031D01*
X60071Y-32250D01*
X60361Y-32540D01*
X60452Y-32517D01*
X60519Y-32324D01*
X60519Y-33324D01*
X60508Y-33120D01*
X60452Y-32983D01*
X60361Y-32960D01*
X60290Y-33031D01*
X60290Y-32889D01*
X60267Y-32798D01*
X60140Y-32753D01*
X60267Y-32702D01*
X60290Y-32611D01*
X60000Y-32321D01*
X59929Y-32392D01*
X59929Y-32250D01*
X59639Y-31960D01*
X59548Y-31983D01*
X59481Y-32176D01*
X59492Y-32380D01*
X59548Y-32517D01*
X59639Y-32540D01*
X59929Y-32250D01*
X59929Y-32392D01*
X59710Y-32611D01*
X59733Y-32702D01*
X59859Y-32746D01*
X59733Y-32798D01*
X59710Y-32889D01*
X60000Y-33179D01*
X60290Y-32889D01*
X60290Y-33031D01*
X60071Y-33250D01*
X60361Y-33540D01*
X60452Y-33517D01*
X60519Y-33324D01*
X60519Y-34324D01*
X60508Y-34120D01*
X60452Y-33983D01*
X60361Y-33960D01*
X60290Y-34031D01*
X60290Y-33889D01*
X60267Y-33798D01*
X60140Y-33753D01*
X60267Y-33702D01*
X60290Y-33611D01*
X60000Y-33321D01*
X59929Y-33392D01*
X59929Y-33250D01*
X59639Y-32960D01*
X59548Y-32983D01*
X59481Y-33176D01*
X59492Y-33380D01*
X59548Y-33517D01*
X59639Y-33540D01*
X59929Y-33250D01*
X59929Y-33392D01*
X59710Y-33611D01*
X59733Y-33702D01*
X59859Y-33746D01*
X59733Y-33798D01*
X59710Y-33889D01*
X60000Y-34179D01*
X60290Y-33889D01*
X60290Y-34031D01*
X60071Y-34250D01*
X60361Y-34540D01*
X60452Y-34517D01*
X60519Y-34324D01*
X60519Y-34795D01*
X60483Y-34781D01*
X60290Y-34781D01*
X60290Y-34611D01*
X60000Y-34321D01*
X59929Y-34392D01*
X59929Y-34250D01*
X59639Y-33960D01*
X59548Y-33983D01*
X59481Y-34176D01*
X59492Y-34380D01*
X59548Y-34517D01*
X59639Y-34540D01*
X59929Y-34250D01*
X59929Y-34392D01*
X59710Y-34611D01*
X59733Y-34702D01*
X59926Y-34769D01*
X60130Y-34758D01*
X60267Y-34702D01*
X60290Y-34611D01*
X60290Y-34781D01*
X59919Y-34781D01*
X59444Y-34977D01*
X59444Y-34339D01*
X59444Y-34162D01*
X59444Y-33339D01*
X59444Y-33162D01*
X59444Y-32339D01*
X59444Y-32162D01*
X59444Y-31339D01*
X59444Y-31162D01*
X59444Y-30339D01*
X59444Y-30162D01*
X59444Y-29339D01*
X59444Y-29162D01*
X59444Y-28339D01*
X59444Y-28162D01*
X59444Y-27339D01*
X59444Y-27162D01*
X59377Y-26999D01*
X59252Y-26874D01*
X59089Y-26806D01*
X58912Y-26806D01*
X58749Y-26873D01*
X58624Y-26998D01*
X58556Y-27161D01*
X58556Y-27338D01*
X58623Y-27501D01*
X58748Y-27626D01*
X58911Y-27694D01*
X59088Y-27694D01*
X59251Y-27627D01*
X59376Y-27502D01*
X59444Y-27339D01*
X59444Y-28162D01*
X59377Y-27999D01*
X59252Y-27874D01*
X59089Y-27806D01*
X58912Y-27806D01*
X58749Y-27873D01*
X58624Y-27998D01*
X58556Y-28161D01*
X58556Y-28338D01*
X58623Y-28501D01*
X58748Y-28626D01*
X58911Y-28694D01*
X59088Y-28694D01*
X59251Y-28627D01*
X59376Y-28502D01*
X59444Y-28339D01*
X59444Y-29162D01*
X59377Y-28999D01*
X59252Y-28874D01*
X59089Y-28806D01*
X58912Y-28806D01*
X58749Y-28873D01*
X58624Y-28998D01*
X58556Y-29161D01*
X58556Y-29338D01*
X58623Y-29501D01*
X58748Y-29626D01*
X58911Y-29694D01*
X59088Y-29694D01*
X59251Y-29627D01*
X59376Y-29502D01*
X59444Y-29339D01*
X59444Y-30162D01*
X59377Y-29999D01*
X59252Y-29874D01*
X59089Y-29806D01*
X58912Y-29806D01*
X58749Y-29873D01*
X58624Y-29998D01*
X58556Y-30161D01*
X58556Y-30338D01*
X58623Y-30501D01*
X58748Y-30626D01*
X58911Y-30694D01*
X59088Y-30694D01*
X59251Y-30627D01*
X59376Y-30502D01*
X59444Y-30339D01*
X59444Y-31162D01*
X59377Y-30999D01*
X59252Y-30874D01*
X59089Y-30806D01*
X58912Y-30806D01*
X58749Y-30873D01*
X58624Y-30998D01*
X58556Y-31161D01*
X58556Y-31338D01*
X58623Y-31501D01*
X58748Y-31626D01*
X58911Y-31694D01*
X59088Y-31694D01*
X59251Y-31627D01*
X59376Y-31502D01*
X59444Y-31339D01*
X59444Y-32162D01*
X59377Y-31999D01*
X59252Y-31874D01*
X59089Y-31806D01*
X58912Y-31806D01*
X58749Y-31873D01*
X58624Y-31998D01*
X58556Y-32161D01*
X58556Y-32338D01*
X58623Y-32501D01*
X58748Y-32626D01*
X58911Y-32694D01*
X59088Y-32694D01*
X59251Y-32627D01*
X59376Y-32502D01*
X59444Y-32339D01*
X59444Y-33162D01*
X59377Y-32999D01*
X59252Y-32874D01*
X59089Y-32806D01*
X58912Y-32806D01*
X58749Y-32873D01*
X58624Y-32998D01*
X58556Y-33161D01*
X58556Y-33338D01*
X58623Y-33501D01*
X58748Y-33626D01*
X58911Y-33694D01*
X59088Y-33694D01*
X59251Y-33627D01*
X59376Y-33502D01*
X59444Y-33339D01*
X59444Y-34162D01*
X59377Y-33999D01*
X59252Y-33874D01*
X59089Y-33806D01*
X58912Y-33806D01*
X58749Y-33873D01*
X58624Y-33998D01*
X58556Y-34161D01*
X58556Y-34338D01*
X58623Y-34501D01*
X58748Y-34626D01*
X58911Y-34694D01*
X59088Y-34694D01*
X59251Y-34627D01*
X59376Y-34502D01*
X59444Y-34339D01*
X59444Y-34977D01*
X59397Y-34997D01*
X58998Y-35395D01*
X58781Y-35917D01*
X58781Y-36481D01*
X58997Y-37003D01*
X59348Y-37355D01*
X58519Y-37355D01*
X58519Y-24774D01*
X58508Y-24570D01*
X58452Y-24433D01*
X58361Y-24410D01*
X58290Y-24481D01*
X58290Y-24339D01*
X58267Y-24248D01*
X58074Y-24181D01*
X57870Y-24192D01*
X57733Y-24248D01*
X57710Y-24339D01*
X58000Y-24629D01*
X58290Y-24339D01*
X58290Y-24481D01*
X58071Y-24700D01*
X58361Y-24990D01*
X58452Y-24967D01*
X58519Y-24774D01*
X58519Y-37355D01*
X58290Y-37355D01*
X58290Y-25061D01*
X58000Y-24771D01*
X57929Y-24842D01*
X57929Y-24700D01*
X57639Y-24410D01*
X57548Y-24433D01*
X57481Y-24626D01*
X57492Y-24830D01*
X57548Y-24967D01*
X57639Y-24990D01*
X57929Y-24700D01*
X57929Y-24842D01*
X57710Y-25061D01*
X57733Y-25152D01*
X57926Y-25219D01*
X58130Y-25208D01*
X58267Y-25152D01*
X58290Y-25061D01*
X58290Y-37355D01*
X58269Y-37355D01*
X58269Y-26574D01*
X58258Y-26370D01*
X58202Y-26233D01*
X58111Y-26210D01*
X58040Y-26281D01*
X58040Y-26139D01*
X58017Y-26048D01*
X57824Y-25981D01*
X57620Y-25992D01*
X57483Y-26048D01*
X57460Y-26139D01*
X57750Y-26429D01*
X58040Y-26139D01*
X58040Y-26281D01*
X57821Y-26500D01*
X58111Y-26790D01*
X58202Y-26767D01*
X58269Y-26574D01*
X58269Y-37355D01*
X58194Y-37355D01*
X58194Y-34589D01*
X58194Y-34412D01*
X58194Y-33589D01*
X58194Y-33412D01*
X58194Y-32589D01*
X58194Y-32412D01*
X58194Y-31589D01*
X58194Y-31412D01*
X58194Y-30589D01*
X58194Y-30412D01*
X58194Y-29589D01*
X58194Y-29412D01*
X58194Y-28589D01*
X58194Y-28412D01*
X58194Y-27589D01*
X58194Y-27412D01*
X58127Y-27249D01*
X58040Y-27162D01*
X58040Y-26861D01*
X57750Y-26571D01*
X57679Y-26642D01*
X57679Y-26500D01*
X57444Y-26265D01*
X57444Y-24789D01*
X57444Y-24612D01*
X57377Y-24449D01*
X57252Y-24324D01*
X57089Y-24256D01*
X56912Y-24256D01*
X56749Y-24323D01*
X56624Y-24448D01*
X56556Y-24611D01*
X56556Y-24788D01*
X56623Y-24951D01*
X56748Y-25076D01*
X56790Y-25093D01*
X56790Y-26013D01*
X56647Y-26156D01*
X56532Y-26156D01*
X56419Y-26202D01*
X56419Y-24774D01*
X56408Y-24570D01*
X56352Y-24433D01*
X56261Y-24410D01*
X56190Y-24481D01*
X56190Y-24339D01*
X56167Y-24248D01*
X55974Y-24181D01*
X55770Y-24192D01*
X55633Y-24248D01*
X55610Y-24339D01*
X55900Y-24629D01*
X56190Y-24339D01*
X56190Y-24481D01*
X55971Y-24700D01*
X56261Y-24990D01*
X56352Y-24967D01*
X56419Y-24774D01*
X56419Y-26202D01*
X56406Y-26208D01*
X56309Y-26305D01*
X56256Y-26431D01*
X56256Y-26568D01*
X56308Y-26694D01*
X56405Y-26791D01*
X56531Y-26844D01*
X56668Y-26844D01*
X56794Y-26792D01*
X56891Y-26695D01*
X56944Y-26569D01*
X56944Y-26452D01*
X57148Y-26249D01*
X57148Y-26248D01*
X57178Y-26203D01*
X57193Y-26181D01*
X57194Y-26180D01*
X57209Y-26100D01*
X57210Y-26100D01*
X57210Y-25093D01*
X57251Y-25077D01*
X57376Y-24952D01*
X57444Y-24789D01*
X57444Y-26265D01*
X57389Y-26210D01*
X57298Y-26233D01*
X57231Y-26426D01*
X57242Y-26630D01*
X57298Y-26767D01*
X57389Y-26790D01*
X57679Y-26500D01*
X57679Y-26642D01*
X57460Y-26861D01*
X57483Y-26952D01*
X57676Y-27019D01*
X57880Y-27008D01*
X58017Y-26952D01*
X58040Y-26861D01*
X58040Y-27162D01*
X58002Y-27124D01*
X57839Y-27056D01*
X57662Y-27056D01*
X57499Y-27123D01*
X57374Y-27248D01*
X57306Y-27411D01*
X57306Y-27588D01*
X57373Y-27751D01*
X57498Y-27876D01*
X57661Y-27944D01*
X57838Y-27944D01*
X58001Y-27877D01*
X58126Y-27752D01*
X58194Y-27589D01*
X58194Y-28412D01*
X58127Y-28249D01*
X58002Y-28124D01*
X57839Y-28056D01*
X57662Y-28056D01*
X57499Y-28123D01*
X57374Y-28248D01*
X57306Y-28411D01*
X57306Y-28588D01*
X57373Y-28751D01*
X57498Y-28876D01*
X57661Y-28944D01*
X57838Y-28944D01*
X58001Y-28877D01*
X58126Y-28752D01*
X58194Y-28589D01*
X58194Y-29412D01*
X58127Y-29249D01*
X58002Y-29124D01*
X57839Y-29056D01*
X57662Y-29056D01*
X57499Y-29123D01*
X57374Y-29248D01*
X57306Y-29411D01*
X57306Y-29588D01*
X57373Y-29751D01*
X57498Y-29876D01*
X57661Y-29944D01*
X57838Y-29944D01*
X58001Y-29877D01*
X58126Y-29752D01*
X58194Y-29589D01*
X58194Y-30412D01*
X58127Y-30249D01*
X58002Y-30124D01*
X57839Y-30056D01*
X57662Y-30056D01*
X57499Y-30123D01*
X57374Y-30248D01*
X57306Y-30411D01*
X57306Y-30588D01*
X57373Y-30751D01*
X57498Y-30876D01*
X57661Y-30944D01*
X57838Y-30944D01*
X58001Y-30877D01*
X58126Y-30752D01*
X58194Y-30589D01*
X58194Y-31412D01*
X58127Y-31249D01*
X58002Y-31124D01*
X57839Y-31056D01*
X57662Y-31056D01*
X57499Y-31123D01*
X57374Y-31248D01*
X57306Y-31411D01*
X57306Y-31588D01*
X57373Y-31751D01*
X57498Y-31876D01*
X57661Y-31944D01*
X57838Y-31944D01*
X58001Y-31877D01*
X58126Y-31752D01*
X58194Y-31589D01*
X58194Y-32412D01*
X58127Y-32249D01*
X58002Y-32124D01*
X57839Y-32056D01*
X57662Y-32056D01*
X57499Y-32123D01*
X57374Y-32248D01*
X57306Y-32411D01*
X57306Y-32588D01*
X57373Y-32751D01*
X57498Y-32876D01*
X57661Y-32944D01*
X57838Y-32944D01*
X58001Y-32877D01*
X58126Y-32752D01*
X58194Y-32589D01*
X58194Y-33412D01*
X58127Y-33249D01*
X58002Y-33124D01*
X57839Y-33056D01*
X57662Y-33056D01*
X57499Y-33123D01*
X57374Y-33248D01*
X57306Y-33411D01*
X57306Y-33588D01*
X57373Y-33751D01*
X57498Y-33876D01*
X57661Y-33944D01*
X57838Y-33944D01*
X58001Y-33877D01*
X58126Y-33752D01*
X58194Y-33589D01*
X58194Y-34412D01*
X58127Y-34249D01*
X58002Y-34124D01*
X57839Y-34056D01*
X57662Y-34056D01*
X57499Y-34123D01*
X57374Y-34248D01*
X57306Y-34411D01*
X57306Y-34588D01*
X57373Y-34751D01*
X57498Y-34876D01*
X57661Y-34944D01*
X57838Y-34944D01*
X58001Y-34877D01*
X58126Y-34752D01*
X58194Y-34589D01*
X58194Y-37355D01*
X57245Y-37355D01*
X57245Y-36709D01*
X57245Y-36641D01*
X57245Y-36091D01*
X57219Y-36029D01*
X57171Y-35981D01*
X57109Y-35955D01*
X57041Y-35955D01*
X56491Y-35955D01*
X56429Y-35981D01*
X56381Y-36029D01*
X56355Y-36091D01*
X56355Y-36159D01*
X56355Y-36709D01*
X56381Y-36771D01*
X56429Y-36819D01*
X56491Y-36845D01*
X56559Y-36845D01*
X57109Y-36845D01*
X57171Y-36819D01*
X57219Y-36771D01*
X57245Y-36709D01*
X57245Y-37355D01*
X56319Y-37355D01*
X56319Y-36474D01*
X56308Y-36270D01*
X56252Y-36133D01*
X56190Y-36117D01*
X56190Y-25061D01*
X55900Y-24771D01*
X55829Y-24842D01*
X55829Y-24700D01*
X55539Y-24410D01*
X55448Y-24433D01*
X55381Y-24626D01*
X55392Y-24830D01*
X55436Y-24939D01*
X55326Y-24830D01*
X55344Y-24789D01*
X55344Y-24612D01*
X55277Y-24449D01*
X55152Y-24324D01*
X54989Y-24256D01*
X54812Y-24256D01*
X54649Y-24323D01*
X54524Y-24448D01*
X54456Y-24611D01*
X54456Y-24788D01*
X54523Y-24951D01*
X54648Y-25076D01*
X54811Y-25144D01*
X54988Y-25144D01*
X55030Y-25126D01*
X55090Y-25186D01*
X55090Y-26068D01*
X55059Y-26055D01*
X54991Y-26055D01*
X54441Y-26055D01*
X54379Y-26081D01*
X54331Y-26129D01*
X54319Y-26157D01*
X54319Y-25774D01*
X54308Y-25570D01*
X54252Y-25433D01*
X54244Y-25430D01*
X54244Y-24789D01*
X54244Y-24612D01*
X54177Y-24449D01*
X54052Y-24324D01*
X53889Y-24256D01*
X53712Y-24256D01*
X53549Y-24323D01*
X53424Y-24448D01*
X53356Y-24611D01*
X53356Y-24788D01*
X53423Y-24951D01*
X53548Y-25076D01*
X53711Y-25144D01*
X53888Y-25144D01*
X54051Y-25077D01*
X54176Y-24952D01*
X54244Y-24789D01*
X54244Y-25430D01*
X54161Y-25410D01*
X54090Y-25481D01*
X54090Y-25339D01*
X54067Y-25248D01*
X53874Y-25181D01*
X53670Y-25192D01*
X53533Y-25248D01*
X53510Y-25339D01*
X53800Y-25629D01*
X54090Y-25339D01*
X54090Y-25481D01*
X53871Y-25700D01*
X54161Y-25990D01*
X54252Y-25967D01*
X54319Y-25774D01*
X54319Y-26157D01*
X54305Y-26191D01*
X54305Y-26259D01*
X54305Y-26809D01*
X54331Y-26871D01*
X54379Y-26919D01*
X54441Y-26945D01*
X54509Y-26945D01*
X55059Y-26945D01*
X55090Y-26932D01*
X55090Y-27113D01*
X55040Y-27162D01*
X55002Y-27124D01*
X54839Y-27056D01*
X54662Y-27056D01*
X54499Y-27123D01*
X54374Y-27248D01*
X54306Y-27411D01*
X54306Y-27588D01*
X54373Y-27751D01*
X54498Y-27876D01*
X54661Y-27944D01*
X54838Y-27944D01*
X55001Y-27877D01*
X55126Y-27752D01*
X55184Y-27611D01*
X55448Y-27349D01*
X55448Y-27348D01*
X55494Y-27281D01*
X55494Y-27280D01*
X55496Y-27267D01*
X55509Y-27200D01*
X55510Y-27200D01*
X55510Y-25100D01*
X55494Y-25020D01*
X55493Y-25019D01*
X55478Y-24997D01*
X55460Y-24970D01*
X55539Y-24990D01*
X55829Y-24700D01*
X55829Y-24842D01*
X55610Y-25061D01*
X55633Y-25152D01*
X55826Y-25219D01*
X56030Y-25208D01*
X56167Y-25152D01*
X56190Y-25061D01*
X56190Y-36117D01*
X56161Y-36110D01*
X56090Y-36181D01*
X56090Y-36039D01*
X56067Y-35948D01*
X55874Y-35881D01*
X55670Y-35892D01*
X55554Y-35939D01*
X55578Y-35903D01*
X55593Y-35881D01*
X55594Y-35880D01*
X55609Y-35800D01*
X55610Y-35800D01*
X55610Y-33900D01*
X55594Y-33820D01*
X55593Y-33819D01*
X55578Y-33797D01*
X55548Y-33752D01*
X55548Y-33751D01*
X55184Y-33388D01*
X55127Y-33249D01*
X55002Y-33124D01*
X54839Y-33056D01*
X54662Y-33056D01*
X54499Y-33123D01*
X54410Y-33212D01*
X54410Y-32788D01*
X54498Y-32876D01*
X54661Y-32944D01*
X54838Y-32944D01*
X55001Y-32877D01*
X55126Y-32752D01*
X55194Y-32589D01*
X55194Y-32412D01*
X55127Y-32249D01*
X55002Y-32124D01*
X54839Y-32056D01*
X54662Y-32056D01*
X54499Y-32123D01*
X54410Y-32212D01*
X54410Y-32136D01*
X54619Y-31926D01*
X54661Y-31944D01*
X54838Y-31944D01*
X55001Y-31877D01*
X55126Y-31752D01*
X55194Y-31589D01*
X55194Y-31412D01*
X55194Y-30589D01*
X55194Y-30412D01*
X55194Y-29589D01*
X55194Y-29412D01*
X55194Y-28589D01*
X55194Y-28412D01*
X55127Y-28249D01*
X55002Y-28124D01*
X54839Y-28056D01*
X54662Y-28056D01*
X54499Y-28123D01*
X54374Y-28248D01*
X54306Y-28411D01*
X54306Y-28588D01*
X54373Y-28751D01*
X54498Y-28876D01*
X54661Y-28944D01*
X54838Y-28944D01*
X55001Y-28877D01*
X55126Y-28752D01*
X55194Y-28589D01*
X55194Y-29412D01*
X55127Y-29249D01*
X55002Y-29124D01*
X54839Y-29056D01*
X54662Y-29056D01*
X54499Y-29123D01*
X54374Y-29248D01*
X54306Y-29411D01*
X54306Y-29588D01*
X54373Y-29751D01*
X54498Y-29876D01*
X54661Y-29944D01*
X54838Y-29944D01*
X55001Y-29877D01*
X55126Y-29752D01*
X55194Y-29589D01*
X55194Y-30412D01*
X55127Y-30249D01*
X55002Y-30124D01*
X54839Y-30056D01*
X54662Y-30056D01*
X54499Y-30123D01*
X54374Y-30248D01*
X54306Y-30411D01*
X54306Y-30588D01*
X54373Y-30751D01*
X54498Y-30876D01*
X54661Y-30944D01*
X54838Y-30944D01*
X55001Y-30877D01*
X55126Y-30752D01*
X55194Y-30589D01*
X55194Y-31412D01*
X55127Y-31249D01*
X55002Y-31124D01*
X54839Y-31056D01*
X54662Y-31056D01*
X54499Y-31123D01*
X54374Y-31248D01*
X54306Y-31411D01*
X54306Y-31588D01*
X54323Y-31630D01*
X54090Y-31863D01*
X54090Y-26061D01*
X53800Y-25771D01*
X53729Y-25842D01*
X53729Y-25700D01*
X53439Y-25410D01*
X53348Y-25433D01*
X53281Y-25626D01*
X53292Y-25830D01*
X53348Y-25967D01*
X53439Y-25990D01*
X53729Y-25700D01*
X53729Y-25842D01*
X53510Y-26061D01*
X53533Y-26152D01*
X53726Y-26219D01*
X53930Y-26208D01*
X54067Y-26152D01*
X54090Y-26061D01*
X54090Y-31863D01*
X54052Y-31902D01*
X54045Y-31912D01*
X54045Y-31491D01*
X54045Y-29809D01*
X54045Y-29741D01*
X54045Y-29191D01*
X54045Y-28809D01*
X54045Y-28741D01*
X54045Y-28191D01*
X54019Y-28129D01*
X53971Y-28081D01*
X53909Y-28055D01*
X53841Y-28055D01*
X53710Y-28055D01*
X53710Y-27693D01*
X53751Y-27677D01*
X53876Y-27552D01*
X53944Y-27389D01*
X53944Y-27212D01*
X53877Y-27049D01*
X53752Y-26924D01*
X53589Y-26856D01*
X53412Y-26856D01*
X53249Y-26923D01*
X53124Y-27048D01*
X53056Y-27211D01*
X53056Y-27388D01*
X53123Y-27551D01*
X53248Y-27676D01*
X53290Y-27693D01*
X53290Y-28055D01*
X53229Y-28081D01*
X53181Y-28129D01*
X53155Y-28191D01*
X53155Y-28259D01*
X53155Y-28809D01*
X53181Y-28871D01*
X53229Y-28919D01*
X53291Y-28945D01*
X53359Y-28945D01*
X53909Y-28945D01*
X53971Y-28919D01*
X54019Y-28871D01*
X54045Y-28809D01*
X54045Y-29191D01*
X54019Y-29129D01*
X53971Y-29081D01*
X53909Y-29055D01*
X53841Y-29055D01*
X53291Y-29055D01*
X53229Y-29081D01*
X53181Y-29129D01*
X53155Y-29191D01*
X53155Y-29259D01*
X53155Y-29809D01*
X53181Y-29871D01*
X53229Y-29919D01*
X53291Y-29945D01*
X53359Y-29945D01*
X53390Y-29945D01*
X53390Y-30306D01*
X53349Y-30323D01*
X53224Y-30448D01*
X53156Y-30611D01*
X53156Y-30788D01*
X53223Y-30951D01*
X53348Y-31076D01*
X53511Y-31144D01*
X53688Y-31144D01*
X53851Y-31077D01*
X53976Y-30952D01*
X54044Y-30789D01*
X54044Y-30612D01*
X53977Y-30449D01*
X53852Y-30324D01*
X53810Y-30306D01*
X53810Y-29945D01*
X53909Y-29945D01*
X53971Y-29919D01*
X54019Y-29871D01*
X54045Y-29809D01*
X54045Y-31491D01*
X54019Y-31429D01*
X53971Y-31381D01*
X53909Y-31355D01*
X53841Y-31355D01*
X53291Y-31355D01*
X53229Y-31381D01*
X53181Y-31429D01*
X53155Y-31491D01*
X53155Y-31559D01*
X53155Y-32109D01*
X53181Y-32171D01*
X53229Y-32219D01*
X53291Y-32245D01*
X53359Y-32245D01*
X53390Y-32245D01*
X53390Y-32506D01*
X53349Y-32523D01*
X53224Y-32648D01*
X53156Y-32811D01*
X53156Y-32988D01*
X53223Y-33151D01*
X53348Y-33276D01*
X53511Y-33344D01*
X53688Y-33344D01*
X53851Y-33277D01*
X53976Y-33152D01*
X53990Y-33118D01*
X53990Y-33313D01*
X53647Y-33656D01*
X53512Y-33656D01*
X53349Y-33723D01*
X53224Y-33848D01*
X53156Y-34011D01*
X53156Y-34188D01*
X53223Y-34351D01*
X53348Y-34476D01*
X53511Y-34544D01*
X53688Y-34544D01*
X53851Y-34477D01*
X53976Y-34352D01*
X54044Y-34189D01*
X54044Y-34012D01*
X53997Y-33898D01*
X54306Y-33590D01*
X54373Y-33751D01*
X54498Y-33876D01*
X54661Y-33944D01*
X54838Y-33944D01*
X55001Y-33877D01*
X55040Y-33837D01*
X55190Y-33986D01*
X55190Y-34402D01*
X55127Y-34249D01*
X55002Y-34124D01*
X54839Y-34056D01*
X54662Y-34056D01*
X54499Y-34123D01*
X54374Y-34248D01*
X54306Y-34411D01*
X54306Y-34588D01*
X54373Y-34751D01*
X54498Y-34876D01*
X54661Y-34944D01*
X54838Y-34944D01*
X55001Y-34877D01*
X55126Y-34752D01*
X55190Y-34598D01*
X55190Y-35713D01*
X54930Y-35973D01*
X54889Y-35956D01*
X54712Y-35956D01*
X54549Y-36023D01*
X54424Y-36148D01*
X54356Y-36311D01*
X54356Y-36488D01*
X54423Y-36651D01*
X54548Y-36776D01*
X54711Y-36844D01*
X54888Y-36844D01*
X55051Y-36777D01*
X55176Y-36652D01*
X55244Y-36489D01*
X55244Y-36312D01*
X55226Y-36269D01*
X55339Y-36156D01*
X55281Y-36326D01*
X55292Y-36530D01*
X55348Y-36667D01*
X55439Y-36690D01*
X55694Y-36435D01*
X55729Y-36400D01*
X55800Y-36329D01*
X55835Y-36294D01*
X56090Y-36039D01*
X56090Y-36181D01*
X55871Y-36400D01*
X56161Y-36690D01*
X56252Y-36667D01*
X56319Y-36474D01*
X56319Y-37355D01*
X56090Y-37355D01*
X56090Y-36761D01*
X55800Y-36471D01*
X55510Y-36761D01*
X55533Y-36852D01*
X55726Y-36919D01*
X55930Y-36908D01*
X56067Y-36852D01*
X56090Y-36761D01*
X56090Y-37355D01*
X52651Y-37355D01*
X53002Y-37005D01*
X53219Y-36483D01*
X53219Y-35919D01*
X53119Y-35677D01*
X53119Y-34174D01*
X53119Y-32974D01*
X53119Y-30774D01*
X53108Y-30570D01*
X53052Y-30433D01*
X53044Y-30430D01*
X53044Y-29589D01*
X53044Y-29412D01*
X53044Y-28589D01*
X53044Y-28412D01*
X53019Y-28351D01*
X53019Y-27374D01*
X53008Y-27170D01*
X52952Y-27033D01*
X52861Y-27010D01*
X52790Y-27081D01*
X52790Y-26939D01*
X52767Y-26848D01*
X52574Y-26781D01*
X52370Y-26792D01*
X52233Y-26848D01*
X52210Y-26939D01*
X52500Y-27229D01*
X52790Y-26939D01*
X52790Y-27081D01*
X52571Y-27300D01*
X52861Y-27590D01*
X52952Y-27567D01*
X53019Y-27374D01*
X53019Y-28351D01*
X52977Y-28249D01*
X52852Y-28124D01*
X52790Y-28098D01*
X52790Y-27661D01*
X52500Y-27371D01*
X52429Y-27442D01*
X52429Y-27300D01*
X52139Y-27010D01*
X52048Y-27033D01*
X51981Y-27226D01*
X51992Y-27430D01*
X52048Y-27567D01*
X52139Y-27590D01*
X52429Y-27300D01*
X52429Y-27442D01*
X52210Y-27661D01*
X52233Y-27752D01*
X52426Y-27819D01*
X52630Y-27808D01*
X52767Y-27752D01*
X52790Y-27661D01*
X52790Y-28098D01*
X52689Y-28056D01*
X52512Y-28056D01*
X52349Y-28123D01*
X52224Y-28248D01*
X52156Y-28411D01*
X52156Y-28588D01*
X52223Y-28751D01*
X52348Y-28876D01*
X52511Y-28944D01*
X52688Y-28944D01*
X52851Y-28877D01*
X52976Y-28752D01*
X53044Y-28589D01*
X53044Y-29412D01*
X52977Y-29249D01*
X52852Y-29124D01*
X52689Y-29056D01*
X52512Y-29056D01*
X52349Y-29123D01*
X52224Y-29248D01*
X52156Y-29411D01*
X52156Y-29588D01*
X52223Y-29751D01*
X52348Y-29876D01*
X52511Y-29944D01*
X52688Y-29944D01*
X52851Y-29877D01*
X52976Y-29752D01*
X53044Y-29589D01*
X53044Y-30430D01*
X52961Y-30410D01*
X52890Y-30481D01*
X52890Y-30339D01*
X52867Y-30248D01*
X52674Y-30181D01*
X52470Y-30192D01*
X52333Y-30248D01*
X52310Y-30339D01*
X52600Y-30629D01*
X52890Y-30339D01*
X52890Y-30481D01*
X52671Y-30700D01*
X52961Y-30990D01*
X53052Y-30967D01*
X53119Y-30774D01*
X53119Y-32974D01*
X53108Y-32770D01*
X53052Y-32633D01*
X53044Y-32630D01*
X53044Y-31889D01*
X53044Y-31712D01*
X52977Y-31549D01*
X52890Y-31462D01*
X52890Y-31061D01*
X52600Y-30771D01*
X52529Y-30842D01*
X52529Y-30700D01*
X52239Y-30410D01*
X52148Y-30433D01*
X52081Y-30626D01*
X52092Y-30830D01*
X52148Y-30967D01*
X52239Y-30990D01*
X52529Y-30700D01*
X52529Y-30842D01*
X52310Y-31061D01*
X52333Y-31152D01*
X52526Y-31219D01*
X52730Y-31208D01*
X52867Y-31152D01*
X52890Y-31061D01*
X52890Y-31462D01*
X52852Y-31424D01*
X52689Y-31356D01*
X52512Y-31356D01*
X52349Y-31423D01*
X52224Y-31548D01*
X52156Y-31711D01*
X52156Y-31888D01*
X52223Y-32051D01*
X52348Y-32176D01*
X52511Y-32244D01*
X52688Y-32244D01*
X52851Y-32177D01*
X52976Y-32052D01*
X53044Y-31889D01*
X53044Y-32630D01*
X52961Y-32610D01*
X52890Y-32681D01*
X52890Y-32539D01*
X52867Y-32448D01*
X52674Y-32381D01*
X52470Y-32392D01*
X52333Y-32448D01*
X52310Y-32539D01*
X52600Y-32829D01*
X52890Y-32539D01*
X52890Y-32681D01*
X52671Y-32900D01*
X52961Y-33190D01*
X53052Y-33167D01*
X53119Y-32974D01*
X53119Y-34174D01*
X53108Y-33970D01*
X53052Y-33833D01*
X52961Y-33810D01*
X52890Y-33881D01*
X52890Y-33739D01*
X52890Y-33261D01*
X52600Y-32971D01*
X52529Y-33042D01*
X52529Y-32900D01*
X52239Y-32610D01*
X52148Y-32633D01*
X52081Y-32826D01*
X52092Y-33030D01*
X52148Y-33167D01*
X52239Y-33190D01*
X52529Y-32900D01*
X52529Y-33042D01*
X52310Y-33261D01*
X52333Y-33352D01*
X52526Y-33419D01*
X52730Y-33408D01*
X52867Y-33352D01*
X52890Y-33261D01*
X52890Y-33739D01*
X52867Y-33648D01*
X52674Y-33581D01*
X52470Y-33592D01*
X52333Y-33648D01*
X52310Y-33739D01*
X52600Y-34029D01*
X52890Y-33739D01*
X52890Y-33881D01*
X52671Y-34100D01*
X52961Y-34390D01*
X53052Y-34367D01*
X53119Y-34174D01*
X53119Y-35677D01*
X53003Y-35397D01*
X52890Y-35283D01*
X52890Y-34461D01*
X52600Y-34171D01*
X52529Y-34242D01*
X52529Y-34100D01*
X52239Y-33810D01*
X52148Y-33833D01*
X52081Y-34026D01*
X52092Y-34230D01*
X52148Y-34367D01*
X52239Y-34390D01*
X52529Y-34100D01*
X52529Y-34242D01*
X52310Y-34461D01*
X52333Y-34552D01*
X52526Y-34619D01*
X52730Y-34608D01*
X52867Y-34552D01*
X52890Y-34461D01*
X52890Y-35283D01*
X52605Y-34998D01*
X52083Y-34781D01*
X51719Y-34781D01*
X51719Y-29274D01*
X51708Y-29070D01*
X51652Y-28933D01*
X51644Y-28930D01*
X51644Y-28289D01*
X51644Y-28112D01*
X51644Y-27289D01*
X51644Y-27112D01*
X51577Y-26949D01*
X51452Y-26824D01*
X51289Y-26756D01*
X51112Y-26756D01*
X50949Y-26823D01*
X50824Y-26948D01*
X50756Y-27111D01*
X50756Y-27288D01*
X50823Y-27451D01*
X50948Y-27576D01*
X51111Y-27644D01*
X51288Y-27644D01*
X51451Y-27577D01*
X51576Y-27452D01*
X51644Y-27289D01*
X51644Y-28112D01*
X51577Y-27949D01*
X51452Y-27824D01*
X51289Y-27756D01*
X51112Y-27756D01*
X50949Y-27823D01*
X50824Y-27948D01*
X50756Y-28111D01*
X50756Y-28288D01*
X50823Y-28451D01*
X50948Y-28576D01*
X51111Y-28644D01*
X51288Y-28644D01*
X51451Y-28577D01*
X51576Y-28452D01*
X51644Y-28289D01*
X51644Y-28930D01*
X51561Y-28910D01*
X51490Y-28981D01*
X51490Y-28839D01*
X51467Y-28748D01*
X51274Y-28681D01*
X51070Y-28692D01*
X50933Y-28748D01*
X50910Y-28839D01*
X51200Y-29129D01*
X51490Y-28839D01*
X51490Y-28981D01*
X51271Y-29200D01*
X51561Y-29490D01*
X51652Y-29467D01*
X51719Y-29274D01*
X51719Y-34781D01*
X51645Y-34781D01*
X51645Y-30509D01*
X51645Y-30441D01*
X51645Y-29891D01*
X51619Y-29829D01*
X51571Y-29781D01*
X51509Y-29755D01*
X51490Y-29755D01*
X51490Y-29561D01*
X51200Y-29271D01*
X51129Y-29342D01*
X51129Y-29200D01*
X50839Y-28910D01*
X50748Y-28933D01*
X50681Y-29126D01*
X50692Y-29330D01*
X50748Y-29467D01*
X50839Y-29490D01*
X51129Y-29200D01*
X51129Y-29342D01*
X50910Y-29561D01*
X50933Y-29652D01*
X51126Y-29719D01*
X51330Y-29708D01*
X51467Y-29652D01*
X51490Y-29561D01*
X51490Y-29755D01*
X51441Y-29755D01*
X50891Y-29755D01*
X50829Y-29781D01*
X50781Y-29829D01*
X50755Y-29891D01*
X50755Y-29959D01*
X50755Y-30509D01*
X50781Y-30571D01*
X50829Y-30619D01*
X50891Y-30645D01*
X50959Y-30645D01*
X51509Y-30645D01*
X51571Y-30619D01*
X51619Y-30571D01*
X51645Y-30509D01*
X51645Y-34781D01*
X51519Y-34781D01*
X50997Y-34997D01*
X50645Y-35348D01*
X50645Y-26151D01*
X50995Y-26502D01*
X51517Y-26719D01*
X52081Y-26719D01*
X52603Y-26503D01*
X53002Y-26105D01*
X53219Y-25583D01*
X53219Y-25019D01*
X53003Y-24497D01*
X52651Y-24145D01*
X59248Y-24145D01*
X58898Y-24495D01*
X58681Y-25017D01*
X58681Y-25581D01*
X58897Y-26103D01*
X59295Y-26502D01*
X59817Y-26719D01*
X60381Y-26719D01*
X60903Y-26503D01*
X61255Y-26151D01*
X61255Y-26805D01*
X61241Y-26805D01*
X60691Y-26805D01*
X60629Y-26831D01*
X60581Y-26879D01*
X60555Y-26941D01*
X60555Y-27009D01*
X60555Y-27559D01*
X60581Y-27621D01*
X60629Y-27669D01*
X60691Y-27695D01*
X60759Y-27695D01*
X61255Y-27695D01*
X61255Y-27805D01*
X61241Y-27805D01*
X60691Y-27805D01*
X60629Y-27831D01*
X60581Y-27879D01*
X60555Y-27941D01*
X60555Y-28009D01*
X60555Y-28559D01*
X60581Y-28621D01*
X60629Y-28669D01*
X60691Y-28695D01*
X60759Y-28695D01*
X61255Y-28695D01*
X61255Y-28805D01*
X61241Y-28805D01*
X60691Y-28805D01*
X60629Y-28831D01*
X60581Y-28879D01*
X60555Y-28941D01*
X60555Y-29009D01*
X60555Y-29559D01*
X60581Y-29621D01*
X60629Y-29669D01*
X60691Y-29695D01*
X60759Y-29695D01*
X61255Y-29695D01*
X61255Y-29805D01*
X61241Y-29805D01*
X60691Y-29805D01*
X60629Y-29831D01*
X60581Y-29879D01*
X60555Y-29941D01*
X60555Y-30009D01*
X60555Y-30559D01*
X60581Y-30621D01*
X60629Y-30669D01*
X60691Y-30695D01*
X60759Y-30695D01*
X61255Y-30695D01*
X61255Y-30805D01*
X61241Y-30805D01*
X60691Y-30805D01*
X60629Y-30831D01*
X60581Y-30879D01*
X60555Y-30941D01*
X60555Y-31009D01*
X60555Y-31559D01*
X60581Y-31621D01*
X60629Y-31669D01*
X60691Y-31695D01*
X60759Y-31695D01*
X61255Y-31695D01*
X61255Y-31805D01*
X61241Y-31805D01*
X60691Y-31805D01*
X60629Y-31831D01*
X60581Y-31879D01*
X60555Y-31941D01*
X60555Y-32009D01*
X60555Y-32559D01*
X60581Y-32621D01*
X60629Y-32669D01*
X60691Y-32695D01*
X60759Y-32695D01*
X61255Y-32695D01*
X61255Y-32805D01*
X61241Y-32805D01*
X60691Y-32805D01*
X60629Y-32831D01*
X60581Y-32879D01*
X60555Y-32941D01*
X60555Y-33009D01*
X60555Y-33559D01*
X60581Y-33621D01*
X60629Y-33669D01*
X60691Y-33695D01*
X60759Y-33695D01*
X61255Y-33695D01*
X61255Y-33805D01*
X61241Y-33805D01*
X60691Y-33805D01*
X60629Y-33831D01*
X60581Y-33879D01*
X60555Y-33941D01*
X60555Y-34009D01*
X60555Y-34559D01*
X60581Y-34621D01*
X60629Y-34669D01*
X60691Y-34695D01*
X60759Y-34695D01*
X61255Y-34695D01*
X61255Y-35248D01*
X61255Y-35248D01*
G37*
G54D16*
X61255Y-35248D02*
X61005Y-34998D01*
X60519Y-34795D01*
X60519Y-34324D01*
X60519Y-33324D01*
X60519Y-32324D01*
X60519Y-31324D01*
X60519Y-30324D01*
X60519Y-29324D01*
X60519Y-28324D01*
X60519Y-27324D01*
X60508Y-27120D01*
X60452Y-26983D01*
X60361Y-26960D01*
X60290Y-27031D01*
X60290Y-26889D01*
X60267Y-26798D01*
X60074Y-26731D01*
X59870Y-26742D01*
X59733Y-26798D01*
X59710Y-26889D01*
X60000Y-27179D01*
X60290Y-26889D01*
X60290Y-27031D01*
X60071Y-27250D01*
X60361Y-27540D01*
X60452Y-27517D01*
X60519Y-27324D01*
X60519Y-28324D01*
X60508Y-28120D01*
X60452Y-27983D01*
X60361Y-27960D01*
X60290Y-28031D01*
X60290Y-27889D01*
X60267Y-27798D01*
X60140Y-27753D01*
X60267Y-27702D01*
X60290Y-27611D01*
X60000Y-27321D01*
X59929Y-27392D01*
X59929Y-27250D01*
X59639Y-26960D01*
X59548Y-26983D01*
X59481Y-27176D01*
X59492Y-27380D01*
X59548Y-27517D01*
X59639Y-27540D01*
X59929Y-27250D01*
X59929Y-27392D01*
X59710Y-27611D01*
X59733Y-27702D01*
X59859Y-27746D01*
X59733Y-27798D01*
X59710Y-27889D01*
X60000Y-28179D01*
X60290Y-27889D01*
X60290Y-28031D01*
X60071Y-28250D01*
X60361Y-28540D01*
X60452Y-28517D01*
X60519Y-28324D01*
X60519Y-29324D01*
X60508Y-29120D01*
X60452Y-28983D01*
X60361Y-28960D01*
X60290Y-29031D01*
X60290Y-28889D01*
X60267Y-28798D01*
X60140Y-28753D01*
X60267Y-28702D01*
X60290Y-28611D01*
X60000Y-28321D01*
X59929Y-28392D01*
X59929Y-28250D01*
X59639Y-27960D01*
X59548Y-27983D01*
X59481Y-28176D01*
X59492Y-28380D01*
X59548Y-28517D01*
X59639Y-28540D01*
X59929Y-28250D01*
X59929Y-28392D01*
X59710Y-28611D01*
X59733Y-28702D01*
X59859Y-28746D01*
X59733Y-28798D01*
X59710Y-28889D01*
X60000Y-29179D01*
X60290Y-28889D01*
X60290Y-29031D01*
X60071Y-29250D01*
X60361Y-29540D01*
X60452Y-29517D01*
X60519Y-29324D01*
X60519Y-30324D01*
X60508Y-30120D01*
X60452Y-29983D01*
X60361Y-29960D01*
X60290Y-30031D01*
X60290Y-29889D01*
X60267Y-29798D01*
X60140Y-29753D01*
X60267Y-29702D01*
X60290Y-29611D01*
X60000Y-29321D01*
X59929Y-29392D01*
X59929Y-29250D01*
X59639Y-28960D01*
X59548Y-28983D01*
X59481Y-29176D01*
X59492Y-29380D01*
X59548Y-29517D01*
X59639Y-29540D01*
X59929Y-29250D01*
X59929Y-29392D01*
X59710Y-29611D01*
X59733Y-29702D01*
X59859Y-29746D01*
X59733Y-29798D01*
X59710Y-29889D01*
X60000Y-30179D01*
X60290Y-29889D01*
X60290Y-30031D01*
X60071Y-30250D01*
X60361Y-30540D01*
X60452Y-30517D01*
X60519Y-30324D01*
X60519Y-31324D01*
X60508Y-31120D01*
X60452Y-30983D01*
X60361Y-30960D01*
X60290Y-31031D01*
X60290Y-30889D01*
X60267Y-30798D01*
X60140Y-30753D01*
X60267Y-30702D01*
X60290Y-30611D01*
X60000Y-30321D01*
X59929Y-30392D01*
X59929Y-30250D01*
X59639Y-29960D01*
X59548Y-29983D01*
X59481Y-30176D01*
X59492Y-30380D01*
X59548Y-30517D01*
X59639Y-30540D01*
X59929Y-30250D01*
X59929Y-30392D01*
X59710Y-30611D01*
X59733Y-30702D01*
X59859Y-30746D01*
X59733Y-30798D01*
X59710Y-30889D01*
X60000Y-31179D01*
X60290Y-30889D01*
X60290Y-31031D01*
X60071Y-31250D01*
X60361Y-31540D01*
X60452Y-31517D01*
X60519Y-31324D01*
X60519Y-32324D01*
X60508Y-32120D01*
X60452Y-31983D01*
X60361Y-31960D01*
X60290Y-32031D01*
X60290Y-31889D01*
X60267Y-31798D01*
X60140Y-31753D01*
X60267Y-31702D01*
X60290Y-31611D01*
X60000Y-31321D01*
X59929Y-31392D01*
X59929Y-31250D01*
X59639Y-30960D01*
X59548Y-30983D01*
X59481Y-31176D01*
X59492Y-31380D01*
X59548Y-31517D01*
X59639Y-31540D01*
X59929Y-31250D01*
X59929Y-31392D01*
X59710Y-31611D01*
X59733Y-31702D01*
X59859Y-31746D01*
X59733Y-31798D01*
X59710Y-31889D01*
X60000Y-32179D01*
X60290Y-31889D01*
X60290Y-32031D01*
X60071Y-32250D01*
X60361Y-32540D01*
X60452Y-32517D01*
X60519Y-32324D01*
X60519Y-33324D01*
X60508Y-33120D01*
X60452Y-32983D01*
X60361Y-32960D01*
X60290Y-33031D01*
X60290Y-32889D01*
X60267Y-32798D01*
X60140Y-32753D01*
X60267Y-32702D01*
X60290Y-32611D01*
X60000Y-32321D01*
X59929Y-32392D01*
X59929Y-32250D01*
X59639Y-31960D01*
X59548Y-31983D01*
X59481Y-32176D01*
X59492Y-32380D01*
X59548Y-32517D01*
X59639Y-32540D01*
X59929Y-32250D01*
X59929Y-32392D01*
X59710Y-32611D01*
X59733Y-32702D01*
X59859Y-32746D01*
X59733Y-32798D01*
X59710Y-32889D01*
X60000Y-33179D01*
X60290Y-32889D01*
X60290Y-33031D01*
X60071Y-33250D01*
X60361Y-33540D01*
X60452Y-33517D01*
X60519Y-33324D01*
X60519Y-34324D01*
X60508Y-34120D01*
X60452Y-33983D01*
X60361Y-33960D01*
X60290Y-34031D01*
X60290Y-33889D01*
X60267Y-33798D01*
X60140Y-33753D01*
X60267Y-33702D01*
X60290Y-33611D01*
X60000Y-33321D01*
X59929Y-33392D01*
X59929Y-33250D01*
X59639Y-32960D01*
X59548Y-32983D01*
X59481Y-33176D01*
X59492Y-33380D01*
X59548Y-33517D01*
X59639Y-33540D01*
X59929Y-33250D01*
X59929Y-33392D01*
X59710Y-33611D01*
X59733Y-33702D01*
X59859Y-33746D01*
X59733Y-33798D01*
X59710Y-33889D01*
X60000Y-34179D01*
X60290Y-33889D01*
X60290Y-34031D01*
X60071Y-34250D01*
X60361Y-34540D01*
X60452Y-34517D01*
X60519Y-34324D01*
X60519Y-34795D01*
X60483Y-34781D01*
X60290Y-34781D01*
X60290Y-34611D01*
X60000Y-34321D01*
X59929Y-34392D01*
X59929Y-34250D01*
X59639Y-33960D01*
X59548Y-33983D01*
X59481Y-34176D01*
X59492Y-34380D01*
X59548Y-34517D01*
X59639Y-34540D01*
X59929Y-34250D01*
X59929Y-34392D01*
X59710Y-34611D01*
X59733Y-34702D01*
X59926Y-34769D01*
X60130Y-34758D01*
X60267Y-34702D01*
X60290Y-34611D01*
X60290Y-34781D01*
X59919Y-34781D01*
X59444Y-34977D01*
X59444Y-34339D01*
X59444Y-34162D01*
X59444Y-33339D01*
X59444Y-33162D01*
X59444Y-32339D01*
X59444Y-32162D01*
X59444Y-31339D01*
X59444Y-31162D01*
X59444Y-30339D01*
X59444Y-30162D01*
X59444Y-29339D01*
X59444Y-29162D01*
X59444Y-28339D01*
X59444Y-28162D01*
X59444Y-27339D01*
X59444Y-27162D01*
X59377Y-26999D01*
X59252Y-26874D01*
X59089Y-26806D01*
X58912Y-26806D01*
X58749Y-26873D01*
X58624Y-26998D01*
X58556Y-27161D01*
X58556Y-27338D01*
X58623Y-27501D01*
X58748Y-27626D01*
X58911Y-27694D01*
X59088Y-27694D01*
X59251Y-27627D01*
X59376Y-27502D01*
X59444Y-27339D01*
X59444Y-28162D01*
X59377Y-27999D01*
X59252Y-27874D01*
X59089Y-27806D01*
X58912Y-27806D01*
X58749Y-27873D01*
X58624Y-27998D01*
X58556Y-28161D01*
X58556Y-28338D01*
X58623Y-28501D01*
X58748Y-28626D01*
X58911Y-28694D01*
X59088Y-28694D01*
X59251Y-28627D01*
X59376Y-28502D01*
X59444Y-28339D01*
X59444Y-29162D01*
X59377Y-28999D01*
X59252Y-28874D01*
X59089Y-28806D01*
X58912Y-28806D01*
X58749Y-28873D01*
X58624Y-28998D01*
X58556Y-29161D01*
X58556Y-29338D01*
X58623Y-29501D01*
X58748Y-29626D01*
X58911Y-29694D01*
X59088Y-29694D01*
X59251Y-29627D01*
X59376Y-29502D01*
X59444Y-29339D01*
X59444Y-30162D01*
X59377Y-29999D01*
X59252Y-29874D01*
X59089Y-29806D01*
X58912Y-29806D01*
X58749Y-29873D01*
X58624Y-29998D01*
X58556Y-30161D01*
X58556Y-30338D01*
X58623Y-30501D01*
X58748Y-30626D01*
X58911Y-30694D01*
X59088Y-30694D01*
X59251Y-30627D01*
X59376Y-30502D01*
X59444Y-30339D01*
X59444Y-31162D01*
X59377Y-30999D01*
X59252Y-30874D01*
X59089Y-30806D01*
X58912Y-30806D01*
X58749Y-30873D01*
X58624Y-30998D01*
X58556Y-31161D01*
X58556Y-31338D01*
X58623Y-31501D01*
X58748Y-31626D01*
X58911Y-31694D01*
X59088Y-31694D01*
X59251Y-31627D01*
X59376Y-31502D01*
X59444Y-31339D01*
X59444Y-32162D01*
X59377Y-31999D01*
X59252Y-31874D01*
X59089Y-31806D01*
X58912Y-31806D01*
X58749Y-31873D01*
X58624Y-31998D01*
X58556Y-32161D01*
X58556Y-32338D01*
X58623Y-32501D01*
X58748Y-32626D01*
X58911Y-32694D01*
X59088Y-32694D01*
X59251Y-32627D01*
X59376Y-32502D01*
X59444Y-32339D01*
X59444Y-33162D01*
X59377Y-32999D01*
X59252Y-32874D01*
X59089Y-32806D01*
X58912Y-32806D01*
X58749Y-32873D01*
X58624Y-32998D01*
X58556Y-33161D01*
X58556Y-33338D01*
X58623Y-33501D01*
X58748Y-33626D01*
X58911Y-33694D01*
X59088Y-33694D01*
X59251Y-33627D01*
X59376Y-33502D01*
X59444Y-33339D01*
X59444Y-34162D01*
X59377Y-33999D01*
X59252Y-33874D01*
X59089Y-33806D01*
X58912Y-33806D01*
X58749Y-33873D01*
X58624Y-33998D01*
X58556Y-34161D01*
X58556Y-34338D01*
X58623Y-34501D01*
X58748Y-34626D01*
X58911Y-34694D01*
X59088Y-34694D01*
X59251Y-34627D01*
X59376Y-34502D01*
X59444Y-34339D01*
X59444Y-34977D01*
X59397Y-34997D01*
X58998Y-35395D01*
X58781Y-35917D01*
X58781Y-36481D01*
X58997Y-37003D01*
X59348Y-37355D01*
X58519Y-37355D01*
X58519Y-24774D01*
X58508Y-24570D01*
X58452Y-24433D01*
X58361Y-24410D01*
X58290Y-24481D01*
X58290Y-24339D01*
X58267Y-24248D01*
X58074Y-24181D01*
X57870Y-24192D01*
X57733Y-24248D01*
X57710Y-24339D01*
X58000Y-24629D01*
X58290Y-24339D01*
X58290Y-24481D01*
X58071Y-24700D01*
X58361Y-24990D01*
X58452Y-24967D01*
X58519Y-24774D01*
X58519Y-37355D01*
X58290Y-37355D01*
X58290Y-25061D01*
X58000Y-24771D01*
X57929Y-24842D01*
X57929Y-24700D01*
X57639Y-24410D01*
X57548Y-24433D01*
X57481Y-24626D01*
X57492Y-24830D01*
X57548Y-24967D01*
X57639Y-24990D01*
X57929Y-24700D01*
X57929Y-24842D01*
X57710Y-25061D01*
X57733Y-25152D01*
X57926Y-25219D01*
X58130Y-25208D01*
X58267Y-25152D01*
X58290Y-25061D01*
X58290Y-37355D01*
X58269Y-37355D01*
X58269Y-26574D01*
X58258Y-26370D01*
X58202Y-26233D01*
X58111Y-26210D01*
X58040Y-26281D01*
X58040Y-26139D01*
X58017Y-26048D01*
X57824Y-25981D01*
X57620Y-25992D01*
X57483Y-26048D01*
X57460Y-26139D01*
X57750Y-26429D01*
X58040Y-26139D01*
X58040Y-26281D01*
X57821Y-26500D01*
X58111Y-26790D01*
X58202Y-26767D01*
X58269Y-26574D01*
X58269Y-37355D01*
X58194Y-37355D01*
X58194Y-34589D01*
X58194Y-34412D01*
X58194Y-33589D01*
X58194Y-33412D01*
X58194Y-32589D01*
X58194Y-32412D01*
X58194Y-31589D01*
X58194Y-31412D01*
X58194Y-30589D01*
X58194Y-30412D01*
X58194Y-29589D01*
X58194Y-29412D01*
X58194Y-28589D01*
X58194Y-28412D01*
X58194Y-27589D01*
X58194Y-27412D01*
X58127Y-27249D01*
X58040Y-27162D01*
X58040Y-26861D01*
X57750Y-26571D01*
X57679Y-26642D01*
X57679Y-26500D01*
X57444Y-26265D01*
X57444Y-24789D01*
X57444Y-24612D01*
X57377Y-24449D01*
X57252Y-24324D01*
X57089Y-24256D01*
X56912Y-24256D01*
X56749Y-24323D01*
X56624Y-24448D01*
X56556Y-24611D01*
X56556Y-24788D01*
X56623Y-24951D01*
X56748Y-25076D01*
X56790Y-25093D01*
X56790Y-26013D01*
X56647Y-26156D01*
X56532Y-26156D01*
X56419Y-26202D01*
X56419Y-24774D01*
X56408Y-24570D01*
X56352Y-24433D01*
X56261Y-24410D01*
X56190Y-24481D01*
X56190Y-24339D01*
X56167Y-24248D01*
X55974Y-24181D01*
X55770Y-24192D01*
X55633Y-24248D01*
X55610Y-24339D01*
X55900Y-24629D01*
X56190Y-24339D01*
X56190Y-24481D01*
X55971Y-24700D01*
X56261Y-24990D01*
X56352Y-24967D01*
X56419Y-24774D01*
X56419Y-26202D01*
X56406Y-26208D01*
X56309Y-26305D01*
X56256Y-26431D01*
X56256Y-26568D01*
X56308Y-26694D01*
X56405Y-26791D01*
X56531Y-26844D01*
X56668Y-26844D01*
X56794Y-26792D01*
X56891Y-26695D01*
X56944Y-26569D01*
X56944Y-26452D01*
X57148Y-26249D01*
X57148Y-26248D01*
X57178Y-26203D01*
X57193Y-26181D01*
X57194Y-26180D01*
X57209Y-26100D01*
X57210Y-26100D01*
X57210Y-25093D01*
X57251Y-25077D01*
X57376Y-24952D01*
X57444Y-24789D01*
X57444Y-26265D01*
X57389Y-26210D01*
X57298Y-26233D01*
X57231Y-26426D01*
X57242Y-26630D01*
X57298Y-26767D01*
X57389Y-26790D01*
X57679Y-26500D01*
X57679Y-26642D01*
X57460Y-26861D01*
X57483Y-26952D01*
X57676Y-27019D01*
X57880Y-27008D01*
X58017Y-26952D01*
X58040Y-26861D01*
X58040Y-27162D01*
X58002Y-27124D01*
X57839Y-27056D01*
X57662Y-27056D01*
X57499Y-27123D01*
X57374Y-27248D01*
X57306Y-27411D01*
X57306Y-27588D01*
X57373Y-27751D01*
X57498Y-27876D01*
X57661Y-27944D01*
X57838Y-27944D01*
X58001Y-27877D01*
X58126Y-27752D01*
X58194Y-27589D01*
X58194Y-28412D01*
X58127Y-28249D01*
X58002Y-28124D01*
X57839Y-28056D01*
X57662Y-28056D01*
X57499Y-28123D01*
X57374Y-28248D01*
X57306Y-28411D01*
X57306Y-28588D01*
X57373Y-28751D01*
X57498Y-28876D01*
X57661Y-28944D01*
X57838Y-28944D01*
X58001Y-28877D01*
X58126Y-28752D01*
X58194Y-28589D01*
X58194Y-29412D01*
X58127Y-29249D01*
X58002Y-29124D01*
X57839Y-29056D01*
X57662Y-29056D01*
X57499Y-29123D01*
X57374Y-29248D01*
X57306Y-29411D01*
X57306Y-29588D01*
X57373Y-29751D01*
X57498Y-29876D01*
X57661Y-29944D01*
X57838Y-29944D01*
X58001Y-29877D01*
X58126Y-29752D01*
X58194Y-29589D01*
X58194Y-30412D01*
X58127Y-30249D01*
X58002Y-30124D01*
X57839Y-30056D01*
X57662Y-30056D01*
X57499Y-30123D01*
X57374Y-30248D01*
X57306Y-30411D01*
X57306Y-30588D01*
X57373Y-30751D01*
X57498Y-30876D01*
X57661Y-30944D01*
X57838Y-30944D01*
X58001Y-30877D01*
X58126Y-30752D01*
X58194Y-30589D01*
X58194Y-31412D01*
X58127Y-31249D01*
X58002Y-31124D01*
X57839Y-31056D01*
X57662Y-31056D01*
X57499Y-31123D01*
X57374Y-31248D01*
X57306Y-31411D01*
X57306Y-31588D01*
X57373Y-31751D01*
X57498Y-31876D01*
X57661Y-31944D01*
X57838Y-31944D01*
X58001Y-31877D01*
X58126Y-31752D01*
X58194Y-31589D01*
X58194Y-32412D01*
X58127Y-32249D01*
X58002Y-32124D01*
X57839Y-32056D01*
X57662Y-32056D01*
X57499Y-32123D01*
X57374Y-32248D01*
X57306Y-32411D01*
X57306Y-32588D01*
X57373Y-32751D01*
X57498Y-32876D01*
X57661Y-32944D01*
X57838Y-32944D01*
X58001Y-32877D01*
X58126Y-32752D01*
X58194Y-32589D01*
X58194Y-33412D01*
X58127Y-33249D01*
X58002Y-33124D01*
X57839Y-33056D01*
X57662Y-33056D01*
X57499Y-33123D01*
X57374Y-33248D01*
X57306Y-33411D01*
X57306Y-33588D01*
X57373Y-33751D01*
X57498Y-33876D01*
X57661Y-33944D01*
X57838Y-33944D01*
X58001Y-33877D01*
X58126Y-33752D01*
X58194Y-33589D01*
X58194Y-34412D01*
X58127Y-34249D01*
X58002Y-34124D01*
X57839Y-34056D01*
X57662Y-34056D01*
X57499Y-34123D01*
X57374Y-34248D01*
X57306Y-34411D01*
X57306Y-34588D01*
X57373Y-34751D01*
X57498Y-34876D01*
X57661Y-34944D01*
X57838Y-34944D01*
X58001Y-34877D01*
X58126Y-34752D01*
X58194Y-34589D01*
X58194Y-37355D01*
X57245Y-37355D01*
X57245Y-36709D01*
X57245Y-36641D01*
X57245Y-36091D01*
X57219Y-36029D01*
X57171Y-35981D01*
X57109Y-35955D01*
X57041Y-35955D01*
X56491Y-35955D01*
X56429Y-35981D01*
X56381Y-36029D01*
X56355Y-36091D01*
X56355Y-36159D01*
X56355Y-36709D01*
X56381Y-36771D01*
X56429Y-36819D01*
X56491Y-36845D01*
X56559Y-36845D01*
X57109Y-36845D01*
X57171Y-36819D01*
X57219Y-36771D01*
X57245Y-36709D01*
X57245Y-37355D01*
X56319Y-37355D01*
X56319Y-36474D01*
X56308Y-36270D01*
X56252Y-36133D01*
X56190Y-36117D01*
X56190Y-25061D01*
X55900Y-24771D01*
X55829Y-24842D01*
X55829Y-24700D01*
X55539Y-24410D01*
X55448Y-24433D01*
X55381Y-24626D01*
X55392Y-24830D01*
X55436Y-24939D01*
X55326Y-24830D01*
X55344Y-24789D01*
X55344Y-24612D01*
X55277Y-24449D01*
X55152Y-24324D01*
X54989Y-24256D01*
X54812Y-24256D01*
X54649Y-24323D01*
X54524Y-24448D01*
X54456Y-24611D01*
X54456Y-24788D01*
X54523Y-24951D01*
X54648Y-25076D01*
X54811Y-25144D01*
X54988Y-25144D01*
X55030Y-25126D01*
X55090Y-25186D01*
X55090Y-26068D01*
X55059Y-26055D01*
X54991Y-26055D01*
X54441Y-26055D01*
X54379Y-26081D01*
X54331Y-26129D01*
X54319Y-26157D01*
X54319Y-25774D01*
X54308Y-25570D01*
X54252Y-25433D01*
X54244Y-25430D01*
X54244Y-24789D01*
X54244Y-24612D01*
X54177Y-24449D01*
X54052Y-24324D01*
X53889Y-24256D01*
X53712Y-24256D01*
X53549Y-24323D01*
X53424Y-24448D01*
X53356Y-24611D01*
X53356Y-24788D01*
X53423Y-24951D01*
X53548Y-25076D01*
X53711Y-25144D01*
X53888Y-25144D01*
X54051Y-25077D01*
X54176Y-24952D01*
X54244Y-24789D01*
X54244Y-25430D01*
X54161Y-25410D01*
X54090Y-25481D01*
X54090Y-25339D01*
X54067Y-25248D01*
X53874Y-25181D01*
X53670Y-25192D01*
X53533Y-25248D01*
X53510Y-25339D01*
X53800Y-25629D01*
X54090Y-25339D01*
X54090Y-25481D01*
X53871Y-25700D01*
X54161Y-25990D01*
X54252Y-25967D01*
X54319Y-25774D01*
X54319Y-26157D01*
X54305Y-26191D01*
X54305Y-26259D01*
X54305Y-26809D01*
X54331Y-26871D01*
X54379Y-26919D01*
X54441Y-26945D01*
X54509Y-26945D01*
X55059Y-26945D01*
X55090Y-26932D01*
X55090Y-27113D01*
X55040Y-27162D01*
X55002Y-27124D01*
X54839Y-27056D01*
X54662Y-27056D01*
X54499Y-27123D01*
X54374Y-27248D01*
X54306Y-27411D01*
X54306Y-27588D01*
X54373Y-27751D01*
X54498Y-27876D01*
X54661Y-27944D01*
X54838Y-27944D01*
X55001Y-27877D01*
X55126Y-27752D01*
X55184Y-27611D01*
X55448Y-27349D01*
X55448Y-27348D01*
X55494Y-27281D01*
X55494Y-27280D01*
X55496Y-27267D01*
X55509Y-27200D01*
X55510Y-27200D01*
X55510Y-25100D01*
X55494Y-25020D01*
X55493Y-25019D01*
X55478Y-24997D01*
X55460Y-24970D01*
X55539Y-24990D01*
X55829Y-24700D01*
X55829Y-24842D01*
X55610Y-25061D01*
X55633Y-25152D01*
X55826Y-25219D01*
X56030Y-25208D01*
X56167Y-25152D01*
X56190Y-25061D01*
X56190Y-36117D01*
X56161Y-36110D01*
X56090Y-36181D01*
X56090Y-36039D01*
X56067Y-35948D01*
X55874Y-35881D01*
X55670Y-35892D01*
X55554Y-35939D01*
X55578Y-35903D01*
X55593Y-35881D01*
X55594Y-35880D01*
X55609Y-35800D01*
X55610Y-35800D01*
X55610Y-33900D01*
X55594Y-33820D01*
X55593Y-33819D01*
X55578Y-33797D01*
X55548Y-33752D01*
X55548Y-33751D01*
X55184Y-33388D01*
X55127Y-33249D01*
X55002Y-33124D01*
X54839Y-33056D01*
X54662Y-33056D01*
X54499Y-33123D01*
X54410Y-33212D01*
X54410Y-32788D01*
X54498Y-32876D01*
X54661Y-32944D01*
X54838Y-32944D01*
X55001Y-32877D01*
X55126Y-32752D01*
X55194Y-32589D01*
X55194Y-32412D01*
X55127Y-32249D01*
X55002Y-32124D01*
X54839Y-32056D01*
X54662Y-32056D01*
X54499Y-32123D01*
X54410Y-32212D01*
X54410Y-32136D01*
X54619Y-31926D01*
X54661Y-31944D01*
X54838Y-31944D01*
X55001Y-31877D01*
X55126Y-31752D01*
X55194Y-31589D01*
X55194Y-31412D01*
X55194Y-30589D01*
X55194Y-30412D01*
X55194Y-29589D01*
X55194Y-29412D01*
X55194Y-28589D01*
X55194Y-28412D01*
X55127Y-28249D01*
X55002Y-28124D01*
X54839Y-28056D01*
X54662Y-28056D01*
X54499Y-28123D01*
X54374Y-28248D01*
X54306Y-28411D01*
X54306Y-28588D01*
X54373Y-28751D01*
X54498Y-28876D01*
X54661Y-28944D01*
X54838Y-28944D01*
X55001Y-28877D01*
X55126Y-28752D01*
X55194Y-28589D01*
X55194Y-29412D01*
X55127Y-29249D01*
X55002Y-29124D01*
X54839Y-29056D01*
X54662Y-29056D01*
X54499Y-29123D01*
X54374Y-29248D01*
X54306Y-29411D01*
X54306Y-29588D01*
X54373Y-29751D01*
X54498Y-29876D01*
X54661Y-29944D01*
X54838Y-29944D01*
X55001Y-29877D01*
X55126Y-29752D01*
X55194Y-29589D01*
X55194Y-30412D01*
X55127Y-30249D01*
X55002Y-30124D01*
X54839Y-30056D01*
X54662Y-30056D01*
X54499Y-30123D01*
X54374Y-30248D01*
X54306Y-30411D01*
X54306Y-30588D01*
X54373Y-30751D01*
X54498Y-30876D01*
X54661Y-30944D01*
X54838Y-30944D01*
X55001Y-30877D01*
X55126Y-30752D01*
X55194Y-30589D01*
X55194Y-31412D01*
X55127Y-31249D01*
X55002Y-31124D01*
X54839Y-31056D01*
X54662Y-31056D01*
X54499Y-31123D01*
X54374Y-31248D01*
X54306Y-31411D01*
X54306Y-31588D01*
X54323Y-31630D01*
X54090Y-31863D01*
X54090Y-26061D01*
X53800Y-25771D01*
X53729Y-25842D01*
X53729Y-25700D01*
X53439Y-25410D01*
X53348Y-25433D01*
X53281Y-25626D01*
X53292Y-25830D01*
X53348Y-25967D01*
X53439Y-25990D01*
X53729Y-25700D01*
X53729Y-25842D01*
X53510Y-26061D01*
X53533Y-26152D01*
X53726Y-26219D01*
X53930Y-26208D01*
X54067Y-26152D01*
X54090Y-26061D01*
X54090Y-31863D01*
X54052Y-31902D01*
X54045Y-31912D01*
X54045Y-31491D01*
X54045Y-29809D01*
X54045Y-29741D01*
X54045Y-29191D01*
X54045Y-28809D01*
X54045Y-28741D01*
X54045Y-28191D01*
X54019Y-28129D01*
X53971Y-28081D01*
X53909Y-28055D01*
X53841Y-28055D01*
X53710Y-28055D01*
X53710Y-27693D01*
X53751Y-27677D01*
X53876Y-27552D01*
X53944Y-27389D01*
X53944Y-27212D01*
X53877Y-27049D01*
X53752Y-26924D01*
X53589Y-26856D01*
X53412Y-26856D01*
X53249Y-26923D01*
X53124Y-27048D01*
X53056Y-27211D01*
X53056Y-27388D01*
X53123Y-27551D01*
X53248Y-27676D01*
X53290Y-27693D01*
X53290Y-28055D01*
X53229Y-28081D01*
X53181Y-28129D01*
X53155Y-28191D01*
X53155Y-28259D01*
X53155Y-28809D01*
X53181Y-28871D01*
X53229Y-28919D01*
X53291Y-28945D01*
X53359Y-28945D01*
X53909Y-28945D01*
X53971Y-28919D01*
X54019Y-28871D01*
X54045Y-28809D01*
X54045Y-29191D01*
X54019Y-29129D01*
X53971Y-29081D01*
X53909Y-29055D01*
X53841Y-29055D01*
X53291Y-29055D01*
X53229Y-29081D01*
X53181Y-29129D01*
X53155Y-29191D01*
X53155Y-29259D01*
X53155Y-29809D01*
X53181Y-29871D01*
X53229Y-29919D01*
X53291Y-29945D01*
X53359Y-29945D01*
X53390Y-29945D01*
X53390Y-30306D01*
X53349Y-30323D01*
X53224Y-30448D01*
X53156Y-30611D01*
X53156Y-30788D01*
X53223Y-30951D01*
X53348Y-31076D01*
X53511Y-31144D01*
X53688Y-31144D01*
X53851Y-31077D01*
X53976Y-30952D01*
X54044Y-30789D01*
X54044Y-30612D01*
X53977Y-30449D01*
X53852Y-30324D01*
X53810Y-30306D01*
X53810Y-29945D01*
X53909Y-29945D01*
X53971Y-29919D01*
X54019Y-29871D01*
X54045Y-29809D01*
X54045Y-31491D01*
X54019Y-31429D01*
X53971Y-31381D01*
X53909Y-31355D01*
X53841Y-31355D01*
X53291Y-31355D01*
X53229Y-31381D01*
X53181Y-31429D01*
X53155Y-31491D01*
X53155Y-31559D01*
X53155Y-32109D01*
X53181Y-32171D01*
X53229Y-32219D01*
X53291Y-32245D01*
X53359Y-32245D01*
X53390Y-32245D01*
X53390Y-32506D01*
X53349Y-32523D01*
X53224Y-32648D01*
X53156Y-32811D01*
X53156Y-32988D01*
X53223Y-33151D01*
X53348Y-33276D01*
X53511Y-33344D01*
X53688Y-33344D01*
X53851Y-33277D01*
X53976Y-33152D01*
X53990Y-33118D01*
X53990Y-33313D01*
X53647Y-33656D01*
X53512Y-33656D01*
X53349Y-33723D01*
X53224Y-33848D01*
X53156Y-34011D01*
X53156Y-34188D01*
X53223Y-34351D01*
X53348Y-34476D01*
X53511Y-34544D01*
X53688Y-34544D01*
X53851Y-34477D01*
X53976Y-34352D01*
X54044Y-34189D01*
X54044Y-34012D01*
X53997Y-33898D01*
X54306Y-33590D01*
X54373Y-33751D01*
X54498Y-33876D01*
X54661Y-33944D01*
X54838Y-33944D01*
X55001Y-33877D01*
X55040Y-33837D01*
X55190Y-33986D01*
X55190Y-34402D01*
X55127Y-34249D01*
X55002Y-34124D01*
X54839Y-34056D01*
X54662Y-34056D01*
X54499Y-34123D01*
X54374Y-34248D01*
X54306Y-34411D01*
X54306Y-34588D01*
X54373Y-34751D01*
X54498Y-34876D01*
X54661Y-34944D01*
X54838Y-34944D01*
X55001Y-34877D01*
X55126Y-34752D01*
X55190Y-34598D01*
X55190Y-35713D01*
X54930Y-35973D01*
X54889Y-35956D01*
X54712Y-35956D01*
X54549Y-36023D01*
X54424Y-36148D01*
X54356Y-36311D01*
X54356Y-36488D01*
X54423Y-36651D01*
X54548Y-36776D01*
X54711Y-36844D01*
X54888Y-36844D01*
X55051Y-36777D01*
X55176Y-36652D01*
X55244Y-36489D01*
X55244Y-36312D01*
X55226Y-36269D01*
X55339Y-36156D01*
X55281Y-36326D01*
X55292Y-36530D01*
X55348Y-36667D01*
X55439Y-36690D01*
X55694Y-36435D01*
X55729Y-36400D01*
X55800Y-36329D01*
X55835Y-36294D01*
X56090Y-36039D01*
X56090Y-36181D01*
X55871Y-36400D01*
X56161Y-36690D01*
X56252Y-36667D01*
X56319Y-36474D01*
X56319Y-37355D01*
X56090Y-37355D01*
X56090Y-36761D01*
X55800Y-36471D01*
X55510Y-36761D01*
X55533Y-36852D01*
X55726Y-36919D01*
X55930Y-36908D01*
X56067Y-36852D01*
X56090Y-36761D01*
X56090Y-37355D01*
X52651Y-37355D01*
X53002Y-37005D01*
X53219Y-36483D01*
X53219Y-35919D01*
X53119Y-35677D01*
X53119Y-34174D01*
X53119Y-32974D01*
X53119Y-30774D01*
X53108Y-30570D01*
X53052Y-30433D01*
X53044Y-30430D01*
X53044Y-29589D01*
X53044Y-29412D01*
X53044Y-28589D01*
X53044Y-28412D01*
X53019Y-28351D01*
X53019Y-27374D01*
X53008Y-27170D01*
X52952Y-27033D01*
X52861Y-27010D01*
X52790Y-27081D01*
X52790Y-26939D01*
X52767Y-26848D01*
X52574Y-26781D01*
X52370Y-26792D01*
X52233Y-26848D01*
X52210Y-26939D01*
X52500Y-27229D01*
X52790Y-26939D01*
X52790Y-27081D01*
X52571Y-27300D01*
X52861Y-27590D01*
X52952Y-27567D01*
X53019Y-27374D01*
X53019Y-28351D01*
X52977Y-28249D01*
X52852Y-28124D01*
X52790Y-28098D01*
X52790Y-27661D01*
X52500Y-27371D01*
X52429Y-27442D01*
X52429Y-27300D01*
X52139Y-27010D01*
X52048Y-27033D01*
X51981Y-27226D01*
X51992Y-27430D01*
X52048Y-27567D01*
X52139Y-27590D01*
X52429Y-27300D01*
X52429Y-27442D01*
X52210Y-27661D01*
X52233Y-27752D01*
X52426Y-27819D01*
X52630Y-27808D01*
X52767Y-27752D01*
X52790Y-27661D01*
X52790Y-28098D01*
X52689Y-28056D01*
X52512Y-28056D01*
X52349Y-28123D01*
X52224Y-28248D01*
X52156Y-28411D01*
X52156Y-28588D01*
X52223Y-28751D01*
X52348Y-28876D01*
X52511Y-28944D01*
X52688Y-28944D01*
X52851Y-28877D01*
X52976Y-28752D01*
X53044Y-28589D01*
X53044Y-29412D01*
X52977Y-29249D01*
X52852Y-29124D01*
X52689Y-29056D01*
X52512Y-29056D01*
X52349Y-29123D01*
X52224Y-29248D01*
X52156Y-29411D01*
X52156Y-29588D01*
X52223Y-29751D01*
X52348Y-29876D01*
X52511Y-29944D01*
X52688Y-29944D01*
X52851Y-29877D01*
X52976Y-29752D01*
X53044Y-29589D01*
X53044Y-30430D01*
X52961Y-30410D01*
X52890Y-30481D01*
X52890Y-30339D01*
X52867Y-30248D01*
X52674Y-30181D01*
X52470Y-30192D01*
X52333Y-30248D01*
X52310Y-30339D01*
X52600Y-30629D01*
X52890Y-30339D01*
X52890Y-30481D01*
X52671Y-30700D01*
X52961Y-30990D01*
X53052Y-30967D01*
X53119Y-30774D01*
X53119Y-32974D01*
X53108Y-32770D01*
X53052Y-32633D01*
X53044Y-32630D01*
X53044Y-31889D01*
X53044Y-31712D01*
X52977Y-31549D01*
X52890Y-31462D01*
X52890Y-31061D01*
X52600Y-30771D01*
X52529Y-30842D01*
X52529Y-30700D01*
X52239Y-30410D01*
X52148Y-30433D01*
X52081Y-30626D01*
X52092Y-30830D01*
X52148Y-30967D01*
X52239Y-30990D01*
X52529Y-30700D01*
X52529Y-30842D01*
X52310Y-31061D01*
X52333Y-31152D01*
X52526Y-31219D01*
X52730Y-31208D01*
X52867Y-31152D01*
X52890Y-31061D01*
X52890Y-31462D01*
X52852Y-31424D01*
X52689Y-31356D01*
X52512Y-31356D01*
X52349Y-31423D01*
X52224Y-31548D01*
X52156Y-31711D01*
X52156Y-31888D01*
X52223Y-32051D01*
X52348Y-32176D01*
X52511Y-32244D01*
X52688Y-32244D01*
X52851Y-32177D01*
X52976Y-32052D01*
X53044Y-31889D01*
X53044Y-32630D01*
X52961Y-32610D01*
X52890Y-32681D01*
X52890Y-32539D01*
X52867Y-32448D01*
X52674Y-32381D01*
X52470Y-32392D01*
X52333Y-32448D01*
X52310Y-32539D01*
X52600Y-32829D01*
X52890Y-32539D01*
X52890Y-32681D01*
X52671Y-32900D01*
X52961Y-33190D01*
X53052Y-33167D01*
X53119Y-32974D01*
X53119Y-34174D01*
X53108Y-33970D01*
X53052Y-33833D01*
X52961Y-33810D01*
X52890Y-33881D01*
X52890Y-33739D01*
X52890Y-33261D01*
X52600Y-32971D01*
X52529Y-33042D01*
X52529Y-32900D01*
X52239Y-32610D01*
X52148Y-32633D01*
X52081Y-32826D01*
X52092Y-33030D01*
X52148Y-33167D01*
X52239Y-33190D01*
X52529Y-32900D01*
X52529Y-33042D01*
X52310Y-33261D01*
X52333Y-33352D01*
X52526Y-33419D01*
X52730Y-33408D01*
X52867Y-33352D01*
X52890Y-33261D01*
X52890Y-33739D01*
X52867Y-33648D01*
X52674Y-33581D01*
X52470Y-33592D01*
X52333Y-33648D01*
X52310Y-33739D01*
X52600Y-34029D01*
X52890Y-33739D01*
X52890Y-33881D01*
X52671Y-34100D01*
X52961Y-34390D01*
X53052Y-34367D01*
X53119Y-34174D01*
X53119Y-35677D01*
X53003Y-35397D01*
X52890Y-35283D01*
X52890Y-34461D01*
X52600Y-34171D01*
X52529Y-34242D01*
X52529Y-34100D01*
X52239Y-33810D01*
X52148Y-33833D01*
X52081Y-34026D01*
X52092Y-34230D01*
X52148Y-34367D01*
X52239Y-34390D01*
X52529Y-34100D01*
X52529Y-34242D01*
X52310Y-34461D01*
X52333Y-34552D01*
X52526Y-34619D01*
X52730Y-34608D01*
X52867Y-34552D01*
X52890Y-34461D01*
X52890Y-35283D01*
X52605Y-34998D01*
X52083Y-34781D01*
X51719Y-34781D01*
X51719Y-29274D01*
X51708Y-29070D01*
X51652Y-28933D01*
X51644Y-28930D01*
X51644Y-28289D01*
X51644Y-28112D01*
X51644Y-27289D01*
X51644Y-27112D01*
X51577Y-26949D01*
X51452Y-26824D01*
X51289Y-26756D01*
X51112Y-26756D01*
X50949Y-26823D01*
X50824Y-26948D01*
X50756Y-27111D01*
X50756Y-27288D01*
X50823Y-27451D01*
X50948Y-27576D01*
X51111Y-27644D01*
X51288Y-27644D01*
X51451Y-27577D01*
X51576Y-27452D01*
X51644Y-27289D01*
X51644Y-28112D01*
X51577Y-27949D01*
X51452Y-27824D01*
X51289Y-27756D01*
X51112Y-27756D01*
X50949Y-27823D01*
X50824Y-27948D01*
X50756Y-28111D01*
X50756Y-28288D01*
X50823Y-28451D01*
X50948Y-28576D01*
X51111Y-28644D01*
X51288Y-28644D01*
X51451Y-28577D01*
X51576Y-28452D01*
X51644Y-28289D01*
X51644Y-28930D01*
X51561Y-28910D01*
X51490Y-28981D01*
X51490Y-28839D01*
X51467Y-28748D01*
X51274Y-28681D01*
X51070Y-28692D01*
X50933Y-28748D01*
X50910Y-28839D01*
X51200Y-29129D01*
X51490Y-28839D01*
X51490Y-28981D01*
X51271Y-29200D01*
X51561Y-29490D01*
X51652Y-29467D01*
X51719Y-29274D01*
X51719Y-34781D01*
X51645Y-34781D01*
X51645Y-30509D01*
X51645Y-30441D01*
X51645Y-29891D01*
X51619Y-29829D01*
X51571Y-29781D01*
X51509Y-29755D01*
X51490Y-29755D01*
X51490Y-29561D01*
X51200Y-29271D01*
X51129Y-29342D01*
X51129Y-29200D01*
X50839Y-28910D01*
X50748Y-28933D01*
X50681Y-29126D01*
X50692Y-29330D01*
X50748Y-29467D01*
X50839Y-29490D01*
X51129Y-29200D01*
X51129Y-29342D01*
X50910Y-29561D01*
X50933Y-29652D01*
X51126Y-29719D01*
X51330Y-29708D01*
X51467Y-29652D01*
X51490Y-29561D01*
X51490Y-29755D01*
X51441Y-29755D01*
X50891Y-29755D01*
X50829Y-29781D01*
X50781Y-29829D01*
X50755Y-29891D01*
X50755Y-29959D01*
X50755Y-30509D01*
X50781Y-30571D01*
X50829Y-30619D01*
X50891Y-30645D01*
X50959Y-30645D01*
X51509Y-30645D01*
X51571Y-30619D01*
X51619Y-30571D01*
X51645Y-30509D01*
X51645Y-34781D01*
X51519Y-34781D01*
X50997Y-34997D01*
X50645Y-35348D01*
X50645Y-26151D01*
X50995Y-26502D01*
X51517Y-26719D01*
X52081Y-26719D01*
X52603Y-26503D01*
X53002Y-26105D01*
X53219Y-25583D01*
X53219Y-25019D01*
X53003Y-24497D01*
X52651Y-24145D01*
X59248Y-24145D01*
X58898Y-24495D01*
X58681Y-25017D01*
X58681Y-25581D01*
X58897Y-26103D01*
X59295Y-26502D01*
X59817Y-26719D01*
X60381Y-26719D01*
X60903Y-26503D01*
X61255Y-26151D01*
X61255Y-26805D01*
X61241Y-26805D01*
X60691Y-26805D01*
X60629Y-26831D01*
X60581Y-26879D01*
X60555Y-26941D01*
X60555Y-27009D01*
X60555Y-27559D01*
X60581Y-27621D01*
X60629Y-27669D01*
X60691Y-27695D01*
X60759Y-27695D01*
X61255Y-27695D01*
X61255Y-27805D01*
X61241Y-27805D01*
X60691Y-27805D01*
X60629Y-27831D01*
X60581Y-27879D01*
X60555Y-27941D01*
X60555Y-28009D01*
X60555Y-28559D01*
X60581Y-28621D01*
X60629Y-28669D01*
X60691Y-28695D01*
X60759Y-28695D01*
X61255Y-28695D01*
X61255Y-28805D01*
X61241Y-28805D01*
X60691Y-28805D01*
X60629Y-28831D01*
X60581Y-28879D01*
X60555Y-28941D01*
X60555Y-29009D01*
X60555Y-29559D01*
X60581Y-29621D01*
X60629Y-29669D01*
X60691Y-29695D01*
X60759Y-29695D01*
X61255Y-29695D01*
X61255Y-29805D01*
X61241Y-29805D01*
X60691Y-29805D01*
X60629Y-29831D01*
X60581Y-29879D01*
X60555Y-29941D01*
X60555Y-30009D01*
X60555Y-30559D01*
X60581Y-30621D01*
X60629Y-30669D01*
X60691Y-30695D01*
X60759Y-30695D01*
X61255Y-30695D01*
X61255Y-30805D01*
X61241Y-30805D01*
X60691Y-30805D01*
X60629Y-30831D01*
X60581Y-30879D01*
X60555Y-30941D01*
X60555Y-31009D01*
X60555Y-31559D01*
X60581Y-31621D01*
X60629Y-31669D01*
X60691Y-31695D01*
X60759Y-31695D01*
X61255Y-31695D01*
X61255Y-31805D01*
X61241Y-31805D01*
X60691Y-31805D01*
X60629Y-31831D01*
X60581Y-31879D01*
X60555Y-31941D01*
X60555Y-32009D01*
X60555Y-32559D01*
X60581Y-32621D01*
X60629Y-32669D01*
X60691Y-32695D01*
X60759Y-32695D01*
X61255Y-32695D01*
X61255Y-32805D01*
X61241Y-32805D01*
X60691Y-32805D01*
X60629Y-32831D01*
X60581Y-32879D01*
X60555Y-32941D01*
X60555Y-33009D01*
X60555Y-33559D01*
X60581Y-33621D01*
X60629Y-33669D01*
X60691Y-33695D01*
X60759Y-33695D01*
X61255Y-33695D01*
X61255Y-33805D01*
X61241Y-33805D01*
X60691Y-33805D01*
X60629Y-33831D01*
X60581Y-33879D01*
X60555Y-33941D01*
X60555Y-34009D01*
X60555Y-34559D01*
X60581Y-34621D01*
X60629Y-34669D01*
X60691Y-34695D01*
X60759Y-34695D01*
X61255Y-34695D01*
X61255Y-35248D01*
M02*
