G04 (created by PCBNEW (2013-07-07 BZR 4022)-stable) date 27/11/2015 23:20:48*
%MOIN*%
G04 Gerber Fmt 3.4, Leading zero omitted, Abs format*
%FSLAX34Y34*%
G01*
G70*
G90*
G04 APERTURE LIST*
%ADD10C,0.00590551*%
%ADD11C,0.019685*%
%ADD12C,0.0472441*%
%ADD13O,0.15748X0.0629921*%
%ADD14C,0.015748*%
%ADD15C,0.00393701*%
G04 APERTURE END LIST*
G54D10*
G54D11*
X62539Y-59232D03*
X62893Y-59232D03*
X62893Y-58562D03*
X62539Y-58562D03*
X56358Y-56082D03*
X56712Y-56082D03*
X56712Y-56437D03*
X56358Y-56437D03*
X56358Y-56751D03*
X56712Y-56751D03*
X56712Y-57066D03*
X56358Y-57066D03*
X70629Y-52381D03*
X70275Y-52381D03*
X69704Y-52381D03*
X71653Y-53838D03*
X71653Y-53484D03*
X70708Y-53838D03*
X70708Y-53484D03*
X71023Y-53484D03*
X71338Y-53484D03*
X71338Y-53838D03*
X71023Y-53838D03*
X69704Y-53307D03*
X69704Y-53779D03*
X70629Y-51771D03*
X70984Y-51771D03*
X71653Y-49606D03*
X72244Y-49606D03*
X70629Y-49606D03*
X70984Y-49606D03*
X70984Y-50000D03*
X70629Y-50000D03*
X70984Y-50728D03*
X70629Y-50728D03*
X70984Y-51062D03*
X70629Y-51062D03*
X83188Y-55393D03*
X83661Y-55393D03*
X83661Y-54606D03*
X42736Y-50551D03*
X42736Y-49940D03*
X46496Y-48188D03*
X45748Y-48188D03*
X44251Y-48188D03*
X45000Y-48188D03*
X52677Y-48818D03*
X52204Y-48818D03*
X48818Y-57362D03*
X48385Y-57362D03*
X79881Y-57440D03*
X76259Y-57007D03*
X75275Y-57007D03*
X74251Y-57007D03*
X69114Y-53779D03*
X69114Y-53307D03*
X67952Y-49271D03*
X68543Y-49271D03*
X67244Y-49271D03*
X66653Y-49271D03*
X80472Y-52952D03*
X80472Y-52519D03*
X76062Y-50118D03*
X74645Y-50354D03*
X84133Y-54606D03*
X84133Y-55393D03*
X84133Y-49291D03*
X84133Y-48503D03*
X76811Y-48149D03*
X80629Y-48996D03*
X80629Y-49566D03*
X80944Y-52952D03*
X80944Y-53346D03*
X81259Y-48996D03*
X80944Y-50708D03*
X80629Y-51496D03*
X81259Y-51496D03*
X80944Y-52519D03*
X81259Y-53779D03*
X80590Y-54251D03*
X81259Y-54251D03*
X79251Y-55157D03*
X79881Y-55157D03*
X76811Y-48464D03*
X75590Y-48464D03*
X74133Y-49094D03*
X74133Y-50354D03*
X74133Y-54448D03*
X43070Y-58346D03*
X43385Y-58346D03*
X43385Y-58661D03*
X43070Y-58661D03*
X43385Y-57322D03*
X43070Y-57322D03*
X43070Y-56614D03*
X43385Y-56614D03*
X43385Y-56968D03*
X43070Y-56968D03*
X43070Y-55590D03*
X43385Y-55590D03*
X43385Y-55275D03*
X43070Y-55275D03*
X81102Y-57440D03*
X82007Y-57440D03*
X82952Y-57440D03*
X83543Y-57440D03*
X82952Y-59448D03*
X81732Y-59448D03*
X79212Y-59448D03*
X80433Y-59448D03*
X72244Y-50000D03*
X71653Y-50000D03*
X70629Y-50393D03*
X70984Y-50393D03*
X80748Y-55157D03*
X81259Y-55157D03*
X74133Y-50984D03*
X74133Y-52224D03*
X74133Y-53110D03*
X74133Y-53740D03*
X77500Y-55157D03*
X77165Y-55157D03*
X76574Y-55157D03*
X75354Y-55157D03*
X75944Y-55157D03*
X74724Y-55157D03*
X54468Y-54448D03*
X54468Y-53976D03*
X54822Y-53976D03*
X54822Y-54448D03*
X54645Y-54212D03*
G54D12*
X43228Y-56082D03*
G54D13*
X43228Y-54665D03*
X43228Y-59271D03*
G54D12*
X43228Y-57854D03*
G54D11*
X74133Y-55157D03*
G54D14*
X67716Y-51181D03*
X66850Y-51181D03*
X68582Y-51181D03*
X70354Y-55196D03*
X70354Y-54960D03*
X57283Y-55570D03*
X57519Y-55570D03*
X53149Y-54212D03*
X55757Y-50679D03*
X55757Y-49891D03*
X55472Y-53503D03*
X55600Y-51387D03*
X57017Y-50679D03*
X53238Y-48789D03*
X54970Y-51387D03*
X54025Y-51387D03*
X57017Y-49891D03*
X55127Y-48789D03*
X56230Y-51387D03*
X55757Y-48789D03*
X56860Y-51387D03*
X57017Y-48789D03*
X57490Y-51387D03*
X57647Y-48789D03*
X56387Y-48789D03*
X59744Y-50472D03*
X51870Y-52047D03*
X59744Y-52440D03*
X59744Y-53228D03*
X50708Y-51200D03*
X59744Y-51259D03*
X65059Y-48799D03*
X62500Y-49685D03*
X63681Y-49685D03*
X60137Y-49685D03*
X61318Y-49685D03*
X59153Y-48799D03*
X75000Y-51397D03*
X76614Y-54015D03*
X55098Y-56358D03*
X55393Y-56633D03*
X51141Y-57598D03*
X51377Y-57598D03*
X63366Y-55649D03*
X65354Y-55216D03*
X51543Y-49692D03*
X52598Y-55629D03*
X51574Y-57598D03*
X60137Y-54015D03*
X62893Y-54409D03*
X63681Y-54015D03*
X59153Y-55295D03*
X64468Y-50472D03*
X53818Y-53622D03*
X45748Y-52657D03*
X64468Y-52440D03*
X61712Y-54409D03*
X49035Y-56200D03*
X49606Y-49409D03*
X49606Y-50492D03*
X64468Y-51259D03*
X64468Y-53228D03*
X76417Y-51633D03*
X75610Y-52559D03*
X61811Y-57559D03*
X70354Y-56830D03*
X56358Y-58385D03*
X56594Y-58385D03*
X56594Y-58188D03*
X56358Y-58188D03*
X71988Y-52303D03*
X83326Y-54173D03*
X71712Y-52165D03*
X72460Y-51122D03*
X72224Y-51122D03*
X70354Y-56614D03*
X70157Y-56614D03*
X70157Y-56830D03*
X64980Y-57637D03*
X51397Y-58149D03*
X65196Y-57637D03*
X75905Y-49055D03*
X76338Y-49055D03*
X51397Y-57933D03*
X64980Y-57421D03*
X64685Y-57283D03*
X51397Y-58366D03*
X44153Y-53031D03*
X44350Y-53248D03*
X46968Y-58307D03*
X44566Y-53248D03*
X46751Y-58307D03*
X46751Y-58070D03*
X56240Y-57637D03*
X56240Y-57834D03*
X64094Y-56830D03*
X64094Y-57066D03*
X48346Y-51889D03*
X44724Y-56653D03*
X44724Y-57283D03*
X48661Y-51889D03*
X58937Y-55511D03*
X49133Y-54783D03*
X50905Y-49311D03*
X50236Y-54094D03*
X72677Y-49251D03*
X51692Y-48503D03*
X50866Y-54409D03*
X73031Y-49251D03*
X51417Y-48346D03*
X50551Y-53779D03*
X73582Y-49251D03*
X51909Y-48169D03*
X51496Y-54409D03*
X60137Y-52047D03*
X57618Y-53307D03*
X60531Y-52047D03*
X57952Y-53307D03*
X60531Y-52440D03*
X58287Y-53307D03*
X49291Y-52204D03*
X45984Y-51673D03*
X45748Y-53877D03*
X44724Y-58464D03*
X45748Y-53622D03*
X44724Y-57834D03*
X75000Y-51751D03*
X75708Y-51279D03*
X76043Y-54271D03*
X81259Y-58976D03*
X81968Y-49370D03*
X61181Y-58307D03*
X61318Y-53622D03*
X61437Y-58307D03*
X82263Y-58582D03*
X82362Y-49370D03*
X61712Y-53622D03*
X75846Y-55669D03*
X62696Y-55295D03*
X76299Y-58051D03*
X62106Y-54409D03*
X60137Y-54803D03*
X67381Y-59055D03*
X69389Y-58877D03*
X60925Y-54015D03*
X69724Y-57244D03*
X60531Y-55295D03*
X70334Y-58700D03*
X60925Y-54803D03*
X71377Y-58700D03*
X61122Y-55295D03*
X61318Y-54803D03*
X72125Y-56830D03*
X61515Y-55295D03*
X72381Y-56830D03*
X74744Y-55669D03*
X62106Y-54803D03*
X79251Y-57322D03*
X62500Y-54015D03*
X80551Y-57637D03*
X61318Y-53228D03*
X81358Y-56948D03*
X62500Y-53622D03*
X81751Y-57637D03*
X62106Y-53622D03*
X62500Y-53228D03*
X82263Y-56535D03*
X83346Y-56102D03*
X62106Y-53228D03*
X61712Y-53228D03*
X82559Y-57637D03*
X78366Y-57834D03*
X62500Y-54803D03*
X62106Y-54015D03*
X79468Y-57637D03*
X62500Y-54409D03*
X77559Y-57362D03*
X77342Y-58051D03*
X61318Y-54015D03*
X74370Y-58779D03*
X61909Y-55295D03*
X73385Y-58858D03*
X61712Y-54803D03*
X69192Y-57637D03*
X60688Y-57677D03*
X61318Y-54409D03*
X75354Y-58779D03*
X62303Y-55295D03*
X64094Y-56574D03*
X63287Y-54409D03*
X66515Y-57440D03*
X63681Y-50866D03*
X60531Y-52834D03*
X63287Y-51259D03*
X63681Y-50472D03*
X60137Y-53622D03*
X54025Y-51072D03*
X61318Y-51259D03*
X54183Y-49891D03*
X62303Y-48799D03*
X63090Y-48799D03*
X54025Y-49498D03*
X53405Y-50679D03*
X60137Y-49291D03*
X59940Y-48799D03*
X53001Y-49340D03*
X61712Y-50866D03*
X54183Y-50679D03*
X53710Y-49498D03*
X61515Y-48799D03*
X53710Y-51072D03*
X64074Y-50078D03*
X53868Y-49891D03*
X61909Y-48799D03*
X53868Y-50679D03*
X61712Y-51259D03*
X59547Y-48799D03*
X53395Y-49498D03*
X59744Y-49685D03*
X53395Y-51072D03*
X61122Y-48799D03*
X53553Y-49891D03*
X63484Y-48799D03*
X54340Y-49498D03*
X64271Y-48799D03*
X54498Y-49891D03*
X64665Y-48799D03*
X54655Y-49498D03*
X54655Y-51072D03*
X60925Y-50472D03*
X61318Y-50472D03*
X54970Y-51072D03*
X55600Y-51072D03*
X62893Y-50472D03*
X62893Y-49291D03*
X55600Y-49498D03*
X56702Y-50679D03*
X62106Y-50078D03*
X56702Y-49891D03*
X60531Y-49291D03*
X56702Y-48789D03*
X60728Y-48799D03*
X61712Y-50078D03*
X56545Y-51387D03*
X60334Y-48799D03*
X57332Y-48789D03*
X62106Y-49685D03*
X57175Y-51387D03*
X63287Y-50078D03*
X55442Y-50679D03*
X55442Y-49891D03*
X62500Y-49291D03*
X63287Y-49291D03*
X55442Y-48789D03*
X62500Y-50866D03*
X55285Y-51387D03*
X56072Y-48789D03*
X64074Y-49291D03*
X62106Y-50866D03*
X55915Y-51387D03*
X60925Y-49291D03*
X56860Y-51072D03*
X61318Y-49291D03*
X56860Y-49498D03*
X56072Y-49891D03*
X64074Y-49685D03*
X62500Y-50472D03*
X56072Y-50679D03*
X62106Y-49291D03*
X54655Y-51387D03*
X57332Y-49891D03*
X62106Y-50472D03*
X62696Y-48799D03*
X57332Y-50679D03*
X60925Y-50866D03*
X54498Y-50679D03*
X61318Y-50866D03*
X54340Y-51072D03*
X61712Y-50472D03*
X54812Y-50679D03*
X61712Y-49291D03*
X54812Y-49891D03*
X66377Y-54409D03*
X63287Y-54015D03*
X65354Y-51062D03*
X67677Y-52047D03*
X66850Y-51889D03*
X64862Y-50866D03*
X66377Y-51574D03*
X64074Y-50866D03*
X67677Y-52677D03*
X65354Y-51850D03*
X65354Y-49881D03*
X68976Y-51574D03*
X65354Y-51456D03*
X66377Y-52204D03*
X67677Y-52362D03*
X63681Y-51259D03*
X67677Y-51732D03*
X63287Y-50866D03*
X68582Y-51732D03*
X64862Y-49685D03*
X65354Y-49488D03*
X68976Y-51889D03*
X62893Y-51259D03*
X66850Y-52519D03*
X64862Y-50078D03*
X68582Y-52047D03*
X66850Y-53779D03*
X64074Y-53622D03*
X68582Y-53937D03*
X63287Y-54803D03*
X64862Y-51653D03*
X66377Y-52834D03*
X64862Y-52440D03*
X67677Y-52992D03*
X67677Y-53937D03*
X64074Y-54015D03*
X65354Y-54803D03*
X68779Y-53779D03*
X64862Y-52834D03*
X66377Y-53464D03*
X67677Y-53622D03*
X63681Y-53228D03*
X67677Y-53307D03*
X65354Y-52992D03*
X64468Y-54409D03*
X68582Y-53622D03*
X65354Y-52440D03*
X66850Y-53149D03*
X65354Y-54409D03*
X68779Y-53464D03*
X63287Y-51653D03*
X68976Y-52519D03*
X64468Y-54015D03*
X68779Y-53149D03*
X68582Y-52362D03*
X64862Y-51259D03*
X68582Y-52992D03*
X64862Y-53622D03*
X59350Y-53228D03*
X77263Y-54251D03*
X54192Y-53307D03*
X59744Y-52047D03*
X79340Y-50364D03*
X63681Y-54803D03*
X79251Y-58011D03*
X49094Y-55374D03*
X64468Y-52047D03*
X52244Y-54566D03*
X64862Y-52047D03*
X64862Y-54803D03*
X67677Y-54881D03*
X63287Y-52047D03*
X49842Y-55374D03*
X50777Y-55393D03*
X64074Y-52834D03*
X63287Y-53622D03*
X68582Y-54881D03*
X78464Y-55433D03*
X78828Y-50364D03*
X66377Y-55039D03*
X63484Y-55295D03*
X79084Y-50364D03*
X78641Y-55610D03*
X66850Y-54724D03*
X62893Y-53622D03*
X49606Y-53464D03*
X53385Y-53307D03*
X51496Y-52204D03*
X59350Y-51259D03*
X51496Y-52519D03*
X59350Y-51653D03*
X51496Y-53149D03*
X58858Y-51850D03*
X60137Y-51653D03*
X51181Y-53149D03*
X50866Y-53149D03*
X59350Y-52440D03*
X51181Y-52519D03*
X60137Y-52834D03*
X50866Y-52519D03*
X59350Y-53622D03*
X50551Y-52519D03*
X58858Y-54606D03*
X50236Y-53149D03*
X59350Y-52834D03*
X51496Y-52834D03*
X59744Y-51653D03*
X53090Y-52421D03*
X60531Y-51653D03*
X50866Y-52204D03*
X50551Y-53149D03*
X58897Y-52637D03*
X50866Y-52834D03*
X58897Y-54212D03*
X49448Y-54783D03*
X49291Y-53779D03*
X51889Y-55590D03*
X50236Y-51574D03*
X58858Y-49881D03*
X50236Y-51889D03*
X58681Y-49724D03*
X51338Y-51200D03*
X60531Y-50472D03*
X51811Y-51574D03*
X59350Y-50866D03*
X60137Y-50866D03*
X51496Y-51574D03*
X51496Y-51889D03*
X60531Y-50866D03*
X51181Y-52204D03*
X58858Y-51456D03*
X50551Y-52204D03*
X60925Y-52440D03*
X49921Y-52834D03*
X58897Y-53031D03*
X60531Y-50078D03*
X50551Y-51574D03*
X50551Y-51889D03*
X60925Y-51259D03*
X60925Y-51653D03*
X50236Y-52204D03*
X59350Y-50078D03*
X50866Y-51574D03*
X60531Y-51259D03*
X50866Y-51889D03*
X58858Y-50275D03*
X51181Y-51574D03*
X51181Y-51889D03*
X58858Y-51062D03*
X64074Y-54803D03*
X51948Y-55177D03*
X63838Y-55295D03*
X51692Y-55177D03*
X50866Y-54094D03*
X63681Y-53622D03*
X57381Y-54232D03*
X58208Y-55866D03*
X64035Y-55649D03*
X51437Y-55177D03*
X62598Y-56771D03*
X49763Y-54783D03*
X49606Y-54409D03*
X49606Y-53779D03*
X51181Y-52834D03*
X58897Y-53818D03*
X50354Y-50098D03*
X63287Y-53228D03*
X50255Y-57736D03*
X50905Y-49035D03*
X49291Y-54094D03*
X62893Y-53228D03*
X48996Y-49704D03*
X48996Y-48641D03*
X49291Y-53149D03*
X49114Y-57263D03*
X49744Y-57736D03*
X49291Y-53464D03*
X49173Y-49901D03*
X49173Y-48838D03*
X62893Y-54803D03*
X49291Y-51574D03*
X49921Y-53779D03*
X50078Y-54783D03*
X49822Y-55629D03*
X49094Y-55629D03*
X48818Y-54783D03*
X48326Y-48582D03*
X48740Y-49606D03*
X48740Y-49409D03*
X51023Y-51200D03*
X50078Y-51200D03*
X48976Y-51574D03*
X46003Y-54763D03*
X51870Y-53307D03*
X51870Y-52677D03*
X50708Y-54783D03*
X49921Y-51889D03*
X48976Y-53779D03*
X62874Y-56771D03*
X62283Y-56771D03*
X61850Y-56771D03*
X67716Y-50393D03*
X66850Y-57224D03*
X67716Y-57224D03*
X67716Y-57440D03*
X68582Y-57440D03*
X68582Y-57224D03*
X66377Y-56614D03*
X68582Y-55590D03*
X68582Y-57657D03*
X67716Y-57657D03*
X66850Y-57657D03*
X66850Y-50078D03*
X67716Y-55590D03*
X68582Y-55275D03*
X67716Y-55275D03*
X68582Y-51417D03*
X67716Y-51417D03*
X66850Y-51417D03*
X67716Y-50708D03*
X67716Y-50944D03*
X68582Y-50944D03*
X66850Y-50944D03*
X68582Y-50629D03*
X66850Y-50708D03*
X68582Y-50078D03*
X67716Y-50078D03*
X66850Y-55275D03*
X68582Y-50393D03*
X66850Y-50393D03*
X66850Y-55590D03*
X62755Y-57559D03*
X62244Y-57559D03*
X63267Y-59645D03*
X63897Y-59645D03*
X55472Y-55649D03*
X56043Y-55610D03*
X56279Y-55610D03*
X57086Y-57342D03*
X58208Y-57874D03*
X57755Y-57066D03*
X55531Y-59035D03*
X56358Y-59035D03*
X54704Y-59035D03*
X72500Y-54724D03*
X71023Y-52480D03*
X70728Y-54212D03*
X70748Y-55019D03*
X69685Y-51889D03*
X72224Y-50688D03*
X71929Y-50433D03*
X70255Y-50137D03*
X59744Y-50866D03*
X66161Y-59645D03*
X66161Y-59173D03*
X47066Y-48602D03*
X75000Y-50846D03*
X75846Y-51968D03*
X76377Y-54625D03*
X60137Y-53228D03*
X75688Y-54271D03*
X80314Y-48031D03*
X74114Y-48425D03*
X64468Y-51653D03*
X66141Y-49271D03*
X66456Y-50078D03*
X66417Y-50393D03*
X56437Y-52736D03*
X63287Y-50472D03*
X59744Y-54803D03*
X59940Y-55334D03*
X61712Y-52834D03*
X57775Y-54232D03*
X58011Y-54409D03*
X58326Y-54409D03*
X49330Y-48070D03*
X49566Y-51200D03*
X49606Y-53149D03*
X64468Y-55275D03*
X76761Y-52923D03*
X77096Y-52923D03*
X76427Y-52923D03*
X76427Y-53139D03*
X77096Y-53139D03*
X76761Y-53139D03*
X76761Y-52470D03*
X77096Y-52470D03*
X76427Y-52470D03*
X76427Y-52706D03*
X77096Y-52706D03*
X76761Y-52706D03*
X83661Y-48503D03*
X82716Y-53818D03*
X83326Y-52874D03*
X83326Y-52381D03*
X83917Y-53188D03*
X76220Y-48070D03*
X82027Y-48070D03*
X81594Y-48070D03*
X78700Y-48366D03*
X74990Y-52135D03*
X74950Y-50580D03*
X76210Y-50580D03*
X75246Y-54124D03*
X76958Y-53750D03*
X75580Y-50103D03*
X75265Y-50103D03*
X76525Y-50103D03*
X76840Y-50103D03*
X76663Y-51053D03*
X75068Y-49064D03*
X77175Y-49064D03*
X76427Y-50895D03*
X77627Y-51643D03*
X77627Y-51151D03*
X77568Y-50462D03*
X77568Y-50816D03*
X77844Y-49675D03*
X78179Y-49675D03*
X79084Y-49576D03*
X79084Y-48946D03*
X79616Y-53198D03*
X79301Y-52903D03*
X79301Y-53474D03*
X79891Y-53356D03*
X80246Y-53789D03*
X79537Y-53789D03*
X79891Y-54202D03*
X80364Y-50462D03*
X80364Y-50816D03*
X62893Y-54015D03*
X43700Y-56968D03*
X51397Y-59192D03*
X63681Y-55649D03*
X70748Y-57244D03*
X69133Y-59055D03*
X68366Y-59055D03*
X69724Y-49311D03*
X43700Y-55787D03*
X44724Y-56968D03*
X73307Y-48385D03*
X48385Y-59448D03*
X47460Y-59645D03*
X49311Y-59645D03*
X54094Y-59448D03*
X53169Y-59645D03*
X55019Y-59645D03*
X59803Y-59429D03*
X58877Y-59645D03*
X60728Y-59645D03*
X64291Y-59645D03*
X65433Y-55688D03*
X65964Y-50964D03*
X66141Y-48070D03*
X64271Y-48070D03*
X60748Y-48070D03*
X58858Y-48070D03*
X55039Y-48070D03*
X53149Y-48070D03*
X47440Y-48070D03*
X42500Y-52834D03*
X42500Y-50944D03*
X42500Y-49488D03*
X43897Y-48070D03*
X64980Y-59271D03*
X70433Y-53543D03*
X70216Y-53543D03*
X69350Y-55590D03*
X64468Y-54803D03*
X63681Y-52440D03*
X65354Y-50511D03*
X60137Y-51259D03*
X59350Y-49685D03*
X64074Y-53228D03*
X62106Y-51653D03*
X61712Y-51653D03*
X62500Y-50078D03*
X50905Y-48641D03*
X73759Y-57244D03*
X80748Y-55669D03*
X80748Y-57244D03*
X44842Y-50098D03*
X44842Y-50531D03*
X44842Y-50314D03*
X44271Y-50098D03*
X44271Y-50531D03*
X44271Y-50314D03*
X44547Y-50098D03*
X44547Y-50531D03*
X44547Y-50314D03*
X45118Y-50098D03*
X45118Y-50531D03*
X45118Y-50314D03*
X43976Y-50314D03*
X43976Y-50531D03*
X43976Y-50098D03*
X53208Y-58444D03*
X49330Y-57401D03*
X49547Y-57618D03*
X48011Y-57657D03*
X48011Y-57460D03*
X48976Y-57795D03*
X48011Y-57263D03*
X47283Y-56023D03*
X47283Y-56830D03*
X47283Y-56417D03*
X47283Y-56220D03*
X47283Y-56633D03*
X46732Y-56023D03*
X46732Y-56830D03*
X46732Y-56417D03*
X46732Y-56220D03*
X46732Y-56633D03*
X47578Y-56633D03*
X47578Y-56220D03*
X47578Y-56417D03*
X47578Y-56830D03*
X47578Y-56023D03*
X47007Y-56023D03*
X47007Y-56830D03*
X47007Y-56417D03*
X47007Y-56220D03*
X47007Y-56633D03*
X46437Y-56633D03*
X46437Y-56220D03*
X46437Y-56417D03*
X46437Y-56830D03*
X46437Y-56023D03*
X77145Y-58779D03*
X77145Y-58425D03*
X78366Y-56456D03*
X83366Y-58425D03*
X60137Y-50472D03*
X61712Y-54015D03*
X63681Y-54409D03*
X83759Y-57657D03*
X50314Y-48641D03*
X58858Y-53425D03*
X62893Y-50866D03*
X64862Y-50472D03*
X55127Y-49891D03*
X56545Y-51072D03*
X55915Y-49498D03*
X56387Y-49891D03*
X46299Y-48602D03*
X51043Y-59133D03*
X50728Y-59133D03*
X52362Y-58779D03*
X53208Y-59035D03*
X53956Y-58838D03*
X53956Y-59035D03*
X53208Y-58838D03*
X53208Y-58641D03*
X58858Y-52244D03*
X51496Y-53464D03*
X50374Y-50708D03*
X51870Y-54566D03*
X46181Y-54251D03*
X46062Y-52795D03*
X64862Y-53228D03*
X64074Y-52440D03*
X55098Y-52696D03*
X56102Y-52736D03*
X53110Y-55393D03*
X53543Y-55629D03*
X53818Y-56102D03*
X51043Y-56338D03*
X50728Y-56338D03*
X59350Y-52047D03*
X65334Y-48562D03*
X61318Y-51653D03*
X64074Y-50472D03*
X46377Y-51555D03*
X47539Y-50728D03*
X46259Y-50944D03*
X58799Y-48789D03*
X55285Y-49498D03*
X56387Y-50679D03*
X55127Y-50679D03*
X55285Y-51072D03*
X55915Y-51072D03*
X57175Y-51072D03*
X57175Y-49498D03*
X57647Y-50679D03*
X57647Y-49891D03*
X53868Y-48789D03*
X56545Y-49498D03*
X53395Y-51387D03*
X59350Y-50472D03*
X60531Y-49685D03*
X63287Y-49685D03*
X63681Y-49291D03*
X60137Y-52440D03*
X60531Y-54015D03*
X60531Y-53228D03*
X62106Y-52834D03*
X62500Y-52047D03*
X62106Y-52047D03*
X61712Y-52047D03*
X61318Y-52047D03*
X49842Y-56220D03*
X48661Y-50944D03*
X47618Y-48700D03*
X51653Y-51200D03*
X51870Y-53937D03*
X51870Y-52992D03*
X49606Y-52519D03*
X48051Y-51102D03*
X47677Y-51673D03*
X45433Y-52933D03*
X48976Y-52204D03*
X47007Y-52677D03*
X48031Y-54822D03*
X47401Y-52677D03*
X48503Y-54783D03*
X48169Y-55098D03*
X48818Y-55393D03*
X50393Y-54783D03*
X51496Y-53937D03*
X52086Y-51397D03*
X52401Y-51397D03*
X49960Y-57618D03*
X47952Y-50866D03*
X48267Y-50866D03*
X46043Y-48602D03*
X45807Y-48897D03*
X43681Y-52716D03*
X43267Y-53248D03*
X43267Y-52185D03*
X45551Y-51535D03*
X45295Y-52086D03*
X47795Y-54330D03*
X48287Y-54566D03*
X45984Y-50866D03*
X46633Y-51259D03*
X47303Y-50413D03*
X46791Y-53444D03*
X45925Y-53444D03*
X50098Y-49468D03*
X50098Y-50452D03*
X50905Y-49704D03*
X53090Y-53307D03*
X48976Y-51889D03*
X48976Y-52519D03*
X49921Y-54094D03*
X51870Y-54251D03*
X50393Y-51200D03*
X64862Y-49291D03*
X43917Y-48602D03*
X49468Y-56062D03*
X49035Y-55866D03*
X48346Y-59055D03*
X49173Y-59055D03*
X64074Y-51259D03*
X61318Y-50078D03*
X69488Y-54724D03*
X61712Y-49685D03*
X69488Y-50039D03*
X69330Y-50236D03*
X69330Y-54566D03*
X64468Y-50866D03*
X69822Y-54409D03*
X69822Y-49724D03*
X60137Y-50078D03*
X70019Y-54251D03*
X70019Y-49547D03*
X59744Y-50078D03*
X78149Y-59173D03*
X59744Y-54409D03*
X66377Y-59055D03*
X76338Y-48543D03*
X77706Y-53001D03*
X49783Y-48169D03*
X49606Y-52204D03*
X77854Y-59350D03*
X59744Y-54015D03*
X65393Y-59173D03*
X75984Y-48543D03*
X77706Y-53277D03*
X50039Y-48169D03*
X49606Y-51889D03*
X62500Y-51653D03*
X82755Y-49370D03*
X65354Y-50275D03*
X68976Y-52204D03*
X64862Y-54409D03*
X68582Y-53307D03*
X48661Y-53779D03*
X46574Y-54251D03*
X49606Y-52834D03*
X53346Y-52755D03*
X53661Y-52755D03*
X48661Y-53464D03*
X52578Y-54980D03*
X48976Y-53464D03*
X50236Y-53464D03*
X52244Y-54251D03*
X73307Y-48661D03*
X49350Y-49035D03*
X51102Y-48838D03*
X49291Y-52519D03*
X46673Y-52578D03*
X72677Y-48385D03*
X73858Y-48661D03*
X51259Y-49685D03*
X49350Y-50098D03*
X53385Y-55393D03*
X59173Y-55688D03*
X52125Y-50137D03*
X47539Y-50019D03*
X43937Y-52401D03*
X53976Y-52755D03*
X48976Y-54094D03*
X48287Y-52677D03*
X48661Y-53149D03*
X48287Y-54251D03*
X47893Y-52362D03*
X48661Y-52834D03*
X82755Y-48503D03*
X82362Y-48543D03*
X81712Y-48740D03*
X53346Y-54015D03*
X53346Y-54409D03*
X43484Y-51535D03*
X44291Y-48858D03*
X45925Y-49842D03*
X46023Y-55551D03*
X47244Y-54803D03*
X46751Y-54803D03*
X48248Y-55866D03*
X46023Y-57263D03*
X46023Y-57657D03*
X46023Y-57460D03*
X50000Y-58188D03*
X45905Y-58700D03*
X52362Y-59035D03*
X52598Y-59035D03*
X46496Y-58700D03*
X45905Y-58897D03*
X46496Y-58897D03*
X83149Y-48503D03*
X75531Y-51633D03*
X65354Y-53425D03*
X46968Y-50984D03*
X48976Y-52834D03*
X48976Y-53149D03*
X46968Y-51299D03*
X67716Y-54468D03*
X64468Y-52834D03*
X74990Y-52490D03*
X68779Y-50787D03*
X59940Y-55688D03*
X59763Y-57677D03*
X69468Y-57637D03*
X69665Y-54094D03*
X78385Y-59527D03*
X77706Y-52746D03*
X50236Y-53779D03*
X50472Y-59448D03*
X83326Y-50885D03*
X83937Y-53562D03*
X64074Y-52047D03*
X81751Y-49881D03*
X50944Y-50098D03*
X50236Y-52834D03*
X83326Y-51889D03*
X83602Y-53562D03*
X63681Y-52047D03*
X81751Y-50885D03*
X49921Y-52519D03*
X64074Y-51653D03*
X83326Y-49881D03*
X81751Y-51870D03*
X49291Y-51889D03*
X83326Y-50374D03*
X63681Y-51653D03*
X81751Y-50374D03*
X49921Y-52204D03*
X48661Y-51200D03*
X81751Y-52381D03*
X68582Y-52677D03*
X63681Y-52834D03*
X63287Y-52834D03*
X68976Y-52834D03*
X74990Y-53513D03*
X68779Y-55039D03*
X65433Y-55433D03*
X60295Y-55295D03*
X65551Y-53543D03*
X58326Y-52244D03*
X57893Y-54980D03*
X62893Y-52440D03*
X62500Y-52440D03*
X62106Y-52440D03*
X61712Y-52440D03*
X61318Y-52440D03*
X62893Y-52047D03*
X62893Y-51653D03*
X46948Y-49566D03*
X46653Y-49566D03*
X46417Y-49566D03*
X46259Y-49311D03*
X43602Y-48720D03*
X63562Y-57342D03*
X66397Y-50708D03*
X60925Y-54409D03*
X57381Y-53956D03*
X62893Y-50078D03*
X60925Y-50078D03*
X54970Y-49498D03*
G54D15*
X50236Y-51200D02*
X50236Y-50925D01*
X50177Y-50629D02*
X50551Y-50255D01*
X50177Y-50866D02*
X50177Y-50629D01*
X50236Y-50925D02*
X50177Y-50866D01*
X50551Y-50255D02*
X50551Y-49665D01*
X50551Y-49665D02*
X50905Y-49311D01*
X50236Y-54094D02*
X50078Y-53937D01*
X50236Y-51348D02*
X50236Y-51200D01*
X50078Y-51505D02*
X50236Y-51348D01*
X50078Y-53937D02*
X50078Y-51505D01*
G54D10*
X51181Y-50688D02*
X51692Y-50177D01*
X51023Y-54251D02*
X51023Y-51515D01*
X51023Y-51515D02*
X51181Y-51358D01*
X51181Y-51358D02*
X51181Y-50688D01*
X50866Y-54409D02*
X51023Y-54251D01*
X51692Y-48503D02*
X51692Y-50177D01*
X51126Y-50457D02*
X51126Y-49906D01*
X51417Y-49232D02*
X51417Y-48346D01*
X51082Y-49566D02*
X51417Y-49232D01*
X51082Y-49862D02*
X51082Y-49566D01*
X51126Y-49906D02*
X51082Y-49862D01*
X50551Y-53779D02*
X50708Y-53622D01*
X50866Y-51318D02*
X50866Y-50718D01*
X50708Y-51476D02*
X50866Y-51318D01*
X50708Y-53622D02*
X50708Y-51476D01*
X50866Y-50718D02*
X51126Y-50457D01*
X51904Y-48174D02*
X51904Y-48548D01*
X51653Y-54251D02*
X51653Y-51466D01*
X51653Y-51466D02*
X51904Y-51215D01*
X51496Y-54409D02*
X51653Y-54251D01*
X51904Y-48602D02*
X51904Y-48548D01*
X51904Y-51215D02*
X51904Y-48602D01*
X51904Y-48174D02*
X51909Y-48169D01*
X51904Y-48174D02*
X51909Y-48169D01*
G54D15*
X61181Y-55708D02*
X61181Y-58307D01*
G54D10*
X81968Y-57027D02*
X81259Y-57736D01*
X81259Y-57736D02*
X81259Y-58976D01*
X81968Y-49370D02*
X81968Y-57027D01*
G54D15*
X61181Y-55708D02*
X61200Y-55688D01*
X61318Y-55236D02*
X61318Y-55570D01*
X61318Y-55570D02*
X61200Y-55688D01*
X61200Y-55688D02*
X61181Y-55708D01*
X61318Y-53622D02*
X61338Y-53622D01*
X61476Y-54980D02*
X61318Y-55137D01*
X61476Y-53759D02*
X61476Y-54980D01*
X61338Y-53622D02*
X61476Y-53759D01*
X61318Y-55137D02*
X61318Y-55236D01*
X61909Y-54645D02*
X61909Y-54960D01*
X61909Y-54960D02*
X61712Y-55157D01*
X61712Y-55157D02*
X61712Y-55885D01*
X61437Y-58307D02*
X61437Y-56161D01*
X61437Y-56161D02*
X61712Y-55885D01*
G54D10*
X82362Y-56141D02*
X82519Y-56299D01*
X82519Y-56299D02*
X82519Y-57362D01*
X82519Y-57362D02*
X82263Y-57618D01*
X82263Y-57618D02*
X82263Y-58582D01*
X82362Y-56141D02*
X82362Y-55551D01*
X82362Y-49370D02*
X82362Y-55551D01*
G54D15*
X61712Y-53622D02*
X61909Y-53818D01*
X61909Y-53818D02*
X61909Y-54645D01*
X60688Y-57500D02*
X60688Y-57677D01*
X61102Y-54625D02*
X61102Y-54881D01*
X61102Y-54881D02*
X60925Y-55059D01*
X60925Y-55059D02*
X60925Y-55629D01*
X60925Y-55629D02*
X60688Y-55866D01*
X60688Y-55866D02*
X60688Y-57500D01*
X61318Y-54409D02*
X61102Y-54625D01*
X63484Y-54606D02*
X63484Y-54921D01*
X63484Y-54921D02*
X63661Y-55098D01*
X63661Y-55098D02*
X63661Y-55354D01*
X63661Y-55354D02*
X63858Y-55551D01*
X63858Y-55551D02*
X63858Y-56338D01*
X63858Y-56338D02*
X64094Y-56574D01*
X63287Y-54409D02*
X63484Y-54606D01*
X54025Y-51171D02*
X54025Y-51072D01*
X53877Y-51318D02*
X54025Y-51171D01*
X53877Y-51515D02*
X53877Y-51318D01*
X54183Y-51820D02*
X53877Y-51515D01*
X58375Y-51820D02*
X54183Y-51820D01*
X58582Y-51614D02*
X58375Y-51820D01*
X58946Y-51614D02*
X58582Y-51614D01*
X59153Y-51407D02*
X58946Y-51614D01*
X61171Y-51407D02*
X59153Y-51407D01*
X61318Y-51259D02*
X61171Y-51407D01*
X54183Y-49891D02*
X54183Y-48907D01*
X54183Y-48907D02*
X54192Y-48897D01*
X62303Y-48799D02*
X62145Y-48641D01*
X54448Y-48641D02*
X54192Y-48897D01*
X62145Y-48641D02*
X54448Y-48641D01*
X62834Y-48543D02*
X63090Y-48799D01*
X62293Y-48543D02*
X62834Y-48543D01*
X62440Y-48543D02*
X62293Y-48543D01*
X62293Y-48543D02*
X54370Y-48543D01*
X54370Y-48543D02*
X54025Y-48887D01*
X54025Y-48887D02*
X54025Y-49498D01*
X61712Y-50866D02*
X61476Y-51102D01*
X61476Y-51102D02*
X59251Y-51102D01*
X59251Y-51102D02*
X59055Y-51299D01*
X59055Y-51299D02*
X58740Y-51299D01*
X58307Y-51732D02*
X54842Y-51732D01*
X58740Y-51299D02*
X58307Y-51732D01*
X54842Y-51732D02*
X54586Y-51732D01*
X54586Y-51732D02*
X54183Y-51328D01*
X54183Y-51328D02*
X54183Y-50679D01*
X53710Y-51072D02*
X53710Y-50521D01*
X63917Y-49921D02*
X64074Y-50078D01*
X59281Y-49921D02*
X63917Y-49921D01*
X59074Y-50127D02*
X59281Y-49921D01*
X54104Y-50127D02*
X59074Y-50127D01*
X53710Y-50521D02*
X54104Y-50127D01*
X61712Y-51259D02*
X61476Y-51496D01*
X53868Y-51161D02*
X53868Y-50679D01*
X53789Y-51240D02*
X53868Y-51161D01*
X53789Y-51564D02*
X53789Y-51240D01*
X54133Y-51909D02*
X53789Y-51564D01*
X58425Y-51909D02*
X54133Y-51909D01*
X58631Y-51702D02*
X58425Y-51909D01*
X58996Y-51702D02*
X58631Y-51702D01*
X59202Y-51496D02*
X58996Y-51702D01*
X61476Y-51496D02*
X59202Y-51496D01*
X59744Y-49685D02*
X59507Y-49448D01*
X59507Y-49448D02*
X58375Y-49448D01*
X58375Y-49448D02*
X57785Y-50039D01*
X53562Y-50905D02*
X53395Y-51072D01*
X53562Y-50511D02*
X53562Y-50905D01*
X54035Y-50039D02*
X53562Y-50511D01*
X57785Y-50039D02*
X54035Y-50039D01*
X63326Y-48956D02*
X63484Y-48799D01*
X62824Y-48956D02*
X63326Y-48956D01*
X62933Y-48956D02*
X62824Y-48956D01*
X62824Y-48956D02*
X54586Y-48956D01*
X54586Y-48956D02*
X54340Y-49202D01*
X54340Y-49202D02*
X54340Y-49498D01*
X64015Y-49055D02*
X64271Y-48799D01*
X63110Y-49055D02*
X64015Y-49055D01*
X63228Y-49055D02*
X63110Y-49055D01*
X63110Y-49055D02*
X54724Y-49055D01*
X54724Y-49055D02*
X54498Y-49281D01*
X54498Y-49281D02*
X54498Y-49891D01*
X64320Y-49143D02*
X64665Y-48799D01*
X63750Y-49143D02*
X64320Y-49143D01*
X63927Y-49143D02*
X63750Y-49143D01*
X63750Y-49143D02*
X54852Y-49143D01*
X54852Y-49143D02*
X54655Y-49340D01*
X54655Y-49340D02*
X54655Y-49498D01*
X62480Y-50314D02*
X62736Y-50314D01*
X62736Y-50314D02*
X62893Y-50472D01*
X56003Y-50521D02*
X55669Y-50521D01*
X55600Y-50590D02*
X55600Y-51072D01*
X55669Y-50521D02*
X55600Y-50590D01*
X59045Y-50521D02*
X56003Y-50521D01*
X56003Y-50521D02*
X55826Y-50521D01*
X59251Y-50314D02*
X59045Y-50521D01*
X62480Y-50314D02*
X59251Y-50314D01*
X55748Y-50433D02*
X58976Y-50433D01*
X63139Y-50226D02*
X63287Y-50078D01*
X59183Y-50226D02*
X63139Y-50226D01*
X58976Y-50433D02*
X59183Y-50226D01*
X55925Y-50433D02*
X55748Y-50433D01*
X55748Y-50433D02*
X55501Y-50433D01*
X55442Y-50492D02*
X55442Y-50679D01*
X55501Y-50433D02*
X55442Y-50492D01*
X55925Y-50433D02*
X55688Y-50433D01*
X64074Y-49685D02*
X63956Y-49566D01*
X56072Y-49655D02*
X56072Y-49891D01*
X56387Y-49340D02*
X56072Y-49655D01*
X59675Y-49340D02*
X56387Y-49340D01*
X59872Y-49537D02*
X59675Y-49340D01*
X63927Y-49537D02*
X59872Y-49537D01*
X63937Y-49547D02*
X63927Y-49537D01*
X63956Y-49566D02*
X63937Y-49547D01*
X62500Y-50472D02*
X62342Y-50629D01*
X62342Y-50629D02*
X58139Y-50629D01*
X58139Y-50629D02*
X57933Y-50836D01*
X57933Y-50836D02*
X56230Y-50836D01*
X56230Y-50836D02*
X56072Y-50679D01*
X61318Y-50866D02*
X61181Y-51003D01*
X58690Y-51210D02*
X58257Y-51643D01*
X58257Y-51643D02*
X54970Y-51643D01*
X58966Y-51210D02*
X58690Y-51210D01*
X59163Y-51013D02*
X58966Y-51210D01*
X61181Y-51003D02*
X61171Y-51013D01*
X61171Y-51013D02*
X59163Y-51013D01*
X54970Y-51643D02*
X54812Y-51643D01*
X54970Y-51643D02*
X54665Y-51643D01*
X54665Y-51643D02*
X54340Y-51318D01*
X54340Y-51318D02*
X54340Y-51072D01*
X61555Y-49448D02*
X61712Y-49291D01*
X61220Y-49448D02*
X61555Y-49448D01*
X61220Y-49448D02*
X59960Y-49448D01*
X59960Y-49448D02*
X59763Y-49251D01*
X59763Y-49251D02*
X54980Y-49251D01*
X54980Y-49251D02*
X54812Y-49419D01*
X54812Y-49419D02*
X54812Y-49891D01*
X79340Y-50364D02*
X79015Y-50688D01*
X79015Y-57775D02*
X79251Y-58011D01*
X79015Y-50688D02*
X79015Y-57775D01*
X78464Y-55433D02*
X78464Y-50728D01*
X78464Y-50728D02*
X78828Y-50364D01*
X78641Y-55610D02*
X78641Y-50807D01*
X78641Y-50807D02*
X79084Y-50364D01*
X50098Y-49842D02*
X50354Y-50098D01*
X50255Y-57736D02*
X50255Y-54980D01*
X49842Y-54251D02*
X49616Y-54025D01*
X50236Y-54645D02*
X49842Y-54251D01*
X50236Y-54960D02*
X50236Y-54645D01*
X50255Y-54980D02*
X50236Y-54960D01*
X49763Y-53877D02*
X49616Y-54025D01*
X49616Y-54025D02*
X49547Y-54094D01*
X49547Y-54094D02*
X49291Y-54094D01*
X49763Y-52913D02*
X49763Y-53877D01*
X49921Y-50019D02*
X50098Y-49842D01*
X50098Y-49842D02*
X50374Y-49566D01*
X49921Y-51574D02*
X49921Y-50019D01*
X49763Y-51732D02*
X49921Y-51574D01*
X49763Y-52913D02*
X49763Y-51732D01*
X50374Y-49566D02*
X50905Y-49035D01*
X48996Y-49704D02*
X48996Y-51200D01*
X48996Y-51200D02*
X48818Y-51377D01*
X49291Y-53149D02*
X49133Y-53307D01*
X49133Y-53307D02*
X48818Y-53307D01*
X48818Y-54212D02*
X48818Y-53307D01*
X48818Y-53307D02*
X48818Y-51377D01*
X48976Y-49724D02*
X48996Y-49704D01*
X48996Y-48641D02*
X48996Y-49704D01*
X48996Y-49035D02*
X48996Y-48641D01*
X48996Y-49035D02*
X48996Y-48956D01*
X49291Y-55019D02*
X49291Y-54685D01*
X49291Y-54685D02*
X48818Y-54212D01*
X49114Y-57047D02*
X49114Y-57263D01*
X49291Y-56870D02*
X49114Y-57047D01*
X49291Y-55019D02*
X49291Y-56870D01*
X49448Y-53149D02*
X49448Y-53051D01*
X49133Y-49940D02*
X49173Y-49901D01*
X49133Y-52736D02*
X49133Y-49940D01*
X49448Y-53051D02*
X49133Y-52736D01*
X49291Y-53464D02*
X49133Y-53622D01*
X49133Y-53622D02*
X49133Y-54212D01*
X49133Y-54212D02*
X49606Y-54685D01*
X49606Y-54685D02*
X49606Y-55826D01*
X49606Y-55826D02*
X49645Y-55866D01*
X49645Y-55866D02*
X49645Y-57224D01*
X49645Y-57224D02*
X49744Y-57322D01*
X49744Y-57322D02*
X49744Y-57736D01*
X49291Y-53464D02*
X49291Y-53385D01*
X49291Y-53385D02*
X49448Y-53228D01*
X49448Y-53228D02*
X49448Y-53149D01*
X49173Y-48838D02*
X49173Y-49901D01*
X69488Y-54724D02*
X69488Y-50039D01*
X69330Y-50236D02*
X69330Y-54566D01*
X69822Y-54409D02*
X69822Y-54114D01*
X69921Y-49822D02*
X69822Y-49724D01*
X69921Y-54015D02*
X69921Y-49822D01*
X69822Y-54114D02*
X69921Y-54015D01*
X70019Y-54251D02*
X70019Y-49547D01*
X78031Y-53326D02*
X78031Y-58799D01*
X77706Y-53001D02*
X78031Y-53326D01*
X78149Y-58917D02*
X78149Y-59173D01*
X78031Y-58799D02*
X78149Y-58917D01*
X77706Y-53001D02*
X77519Y-52814D01*
X77342Y-49547D02*
X76338Y-48543D01*
X77342Y-51791D02*
X77342Y-49547D01*
X77519Y-51968D02*
X77342Y-51791D01*
X77519Y-52814D02*
X77519Y-51968D01*
X49448Y-52047D02*
X49448Y-51417D01*
X49448Y-51417D02*
X49389Y-51358D01*
X49389Y-51358D02*
X49389Y-50393D01*
X49389Y-50393D02*
X49606Y-50177D01*
X49606Y-50177D02*
X49606Y-49704D01*
X49606Y-49704D02*
X49783Y-49527D01*
X49783Y-48169D02*
X49783Y-49527D01*
X49606Y-52204D02*
X49448Y-52047D01*
X77854Y-53425D02*
X77854Y-59350D01*
X77854Y-53425D02*
X77706Y-53277D01*
X77706Y-53277D02*
X77401Y-52972D01*
X76181Y-48740D02*
X75984Y-48543D01*
X76358Y-48740D02*
X76181Y-48740D01*
X77224Y-49606D02*
X76358Y-48740D01*
X77224Y-51870D02*
X77224Y-49606D01*
X77401Y-52047D02*
X77224Y-51870D01*
X77401Y-52972D02*
X77401Y-52047D01*
X49606Y-51574D02*
X49763Y-51417D01*
X49763Y-51417D02*
X49763Y-49744D01*
X49763Y-49744D02*
X49901Y-49606D01*
X49901Y-49606D02*
X49901Y-48307D01*
X49901Y-48307D02*
X50039Y-48169D01*
X49606Y-51889D02*
X49606Y-51574D01*
X52125Y-50137D02*
X52125Y-51043D01*
X53385Y-55000D02*
X53385Y-55393D01*
X52244Y-53858D02*
X53385Y-55000D01*
X52244Y-51161D02*
X52244Y-53858D01*
X52125Y-51043D02*
X52244Y-51161D01*
X59763Y-57677D02*
X59763Y-55866D01*
X59763Y-55866D02*
X59940Y-55688D01*
X69665Y-56909D02*
X69468Y-57106D01*
X69468Y-57106D02*
X69468Y-57637D01*
X69665Y-54094D02*
X69665Y-56909D01*
X78385Y-58248D02*
X78385Y-59527D01*
X78188Y-58051D02*
X78385Y-58248D01*
X78267Y-58129D02*
X78188Y-58051D01*
X78188Y-58051D02*
X78188Y-53228D01*
X78188Y-53228D02*
X77706Y-52746D01*
X50236Y-53779D02*
X50551Y-54094D01*
X50551Y-54094D02*
X50551Y-55748D01*
X50551Y-55748D02*
X50472Y-55826D01*
X50472Y-55826D02*
X50472Y-59448D01*
G54D10*
X83937Y-53562D02*
X83740Y-53366D01*
X83740Y-53366D02*
X83700Y-53326D01*
X83700Y-53326D02*
X83700Y-51259D01*
X83700Y-51259D02*
X83326Y-50885D01*
G54D15*
X50393Y-52677D02*
X50393Y-51417D01*
X50393Y-51417D02*
X50551Y-51259D01*
X50551Y-51259D02*
X50551Y-50492D01*
X50551Y-50492D02*
X50944Y-50098D01*
X50393Y-52677D02*
X50236Y-52834D01*
G54D10*
X83602Y-53562D02*
X83602Y-53425D01*
X83562Y-52125D02*
X83326Y-51889D01*
X83562Y-53385D02*
X83562Y-52125D01*
X83602Y-53425D02*
X83562Y-53385D01*
G54D15*
X65551Y-53543D02*
X65551Y-55314D01*
X65551Y-55314D02*
X65433Y-55433D01*
M02*
