G04 (created by PCBNEW (2013-07-07 BZR 4022)-stable) date 27/11/2015 23:20:48*
%MOIN*%
G04 Gerber Fmt 3.4, Leading zero omitted, Abs format*
%FSLAX34Y34*%
G01*
G70*
G90*
G04 APERTURE LIST*
%ADD10C,0.00590551*%
%ADD11C,0.019685*%
%ADD12C,0.0472441*%
%ADD13O,0.15748X0.0629921*%
%ADD14C,0.015748*%
%ADD15C,0.00393701*%
%ADD16C,0.00787402*%
G04 APERTURE END LIST*
G54D10*
G54D11*
X62539Y-59232D03*
X62893Y-59232D03*
X62893Y-58562D03*
X62539Y-58562D03*
X56358Y-56082D03*
X56712Y-56082D03*
X56712Y-56437D03*
X56358Y-56437D03*
X56358Y-56751D03*
X56712Y-56751D03*
X56712Y-57066D03*
X56358Y-57066D03*
X70629Y-52381D03*
X70275Y-52381D03*
X69704Y-52381D03*
X71653Y-53838D03*
X71653Y-53484D03*
X70708Y-53838D03*
X70708Y-53484D03*
X71023Y-53484D03*
X71338Y-53484D03*
X71338Y-53838D03*
X71023Y-53838D03*
X69704Y-53307D03*
X69704Y-53779D03*
X70629Y-51771D03*
X70984Y-51771D03*
X71653Y-49606D03*
X72244Y-49606D03*
X70629Y-49606D03*
X70984Y-49606D03*
X70984Y-50000D03*
X70629Y-50000D03*
X70984Y-50728D03*
X70629Y-50728D03*
X70984Y-51062D03*
X70629Y-51062D03*
X83188Y-55393D03*
X83661Y-55393D03*
X83661Y-54606D03*
X42736Y-50551D03*
X42736Y-49940D03*
X46496Y-48188D03*
X45748Y-48188D03*
X44251Y-48188D03*
X45000Y-48188D03*
X52677Y-48818D03*
X52204Y-48818D03*
X48818Y-57362D03*
X48385Y-57362D03*
X79881Y-57440D03*
X76259Y-57007D03*
X75275Y-57007D03*
X74251Y-57007D03*
X69114Y-53779D03*
X69114Y-53307D03*
X67952Y-49271D03*
X68543Y-49271D03*
X67244Y-49271D03*
X66653Y-49271D03*
X80472Y-52952D03*
X80472Y-52519D03*
X76062Y-50118D03*
X74645Y-50354D03*
X84133Y-54606D03*
X84133Y-55393D03*
X84133Y-49291D03*
X84133Y-48503D03*
X76811Y-48149D03*
X80629Y-48996D03*
X80629Y-49566D03*
X80944Y-52952D03*
X80944Y-53346D03*
X81259Y-48996D03*
X80944Y-50708D03*
X80629Y-51496D03*
X81259Y-51496D03*
X80944Y-52519D03*
X81259Y-53779D03*
X80590Y-54251D03*
X81259Y-54251D03*
X79251Y-55157D03*
X79881Y-55157D03*
X76811Y-48464D03*
X75590Y-48464D03*
X74133Y-49094D03*
X74133Y-50354D03*
X74133Y-54448D03*
X43070Y-58346D03*
X43385Y-58346D03*
X43385Y-58661D03*
X43070Y-58661D03*
X43385Y-57322D03*
X43070Y-57322D03*
X43070Y-56614D03*
X43385Y-56614D03*
X43385Y-56968D03*
X43070Y-56968D03*
X43070Y-55590D03*
X43385Y-55590D03*
X43385Y-55275D03*
X43070Y-55275D03*
X81102Y-57440D03*
X82007Y-57440D03*
X82952Y-57440D03*
X83543Y-57440D03*
X82952Y-59448D03*
X81732Y-59448D03*
X79212Y-59448D03*
X80433Y-59448D03*
X72244Y-50000D03*
X71653Y-50000D03*
X70629Y-50393D03*
X70984Y-50393D03*
X80748Y-55157D03*
X81259Y-55157D03*
X74133Y-50984D03*
X74133Y-52224D03*
X74133Y-53110D03*
X74133Y-53740D03*
X77500Y-55157D03*
X77165Y-55157D03*
X76574Y-55157D03*
X75354Y-55157D03*
X75944Y-55157D03*
X74724Y-55157D03*
X54468Y-54448D03*
X54468Y-53976D03*
X54822Y-53976D03*
X54822Y-54448D03*
X54645Y-54212D03*
G54D12*
X43228Y-56082D03*
G54D13*
X43228Y-54665D03*
X43228Y-59271D03*
G54D12*
X43228Y-57854D03*
G54D11*
X74133Y-55157D03*
G54D14*
X67716Y-51181D03*
X66850Y-51181D03*
X68582Y-51181D03*
X70354Y-55196D03*
X70354Y-54960D03*
X57283Y-55570D03*
X57519Y-55570D03*
X53149Y-54212D03*
X55757Y-50679D03*
X55757Y-49891D03*
X55472Y-53503D03*
X55600Y-51387D03*
X57017Y-50679D03*
X53238Y-48789D03*
X54970Y-51387D03*
X54025Y-51387D03*
X57017Y-49891D03*
X55127Y-48789D03*
X56230Y-51387D03*
X55757Y-48789D03*
X56860Y-51387D03*
X57017Y-48789D03*
X57490Y-51387D03*
X57647Y-48789D03*
X56387Y-48789D03*
X59744Y-50472D03*
X51870Y-52047D03*
X59744Y-52440D03*
X59744Y-53228D03*
X50708Y-51200D03*
X59744Y-51259D03*
X65059Y-48799D03*
X62500Y-49685D03*
X63681Y-49685D03*
X60137Y-49685D03*
X61318Y-49685D03*
X59153Y-48799D03*
X75000Y-51397D03*
X76614Y-54015D03*
X55098Y-56358D03*
X55393Y-56633D03*
X51141Y-57598D03*
X51377Y-57598D03*
X63366Y-55649D03*
X65354Y-55216D03*
X51543Y-49692D03*
X52598Y-55629D03*
X51574Y-57598D03*
X60137Y-54015D03*
X62893Y-54409D03*
X63681Y-54015D03*
X59153Y-55295D03*
X64468Y-50472D03*
X53818Y-53622D03*
X45748Y-52657D03*
X64468Y-52440D03*
X61712Y-54409D03*
X49035Y-56200D03*
X49606Y-49409D03*
X49606Y-50492D03*
X64468Y-51259D03*
X64468Y-53228D03*
X76417Y-51633D03*
X75610Y-52559D03*
X61811Y-57559D03*
X70354Y-56830D03*
X56358Y-58385D03*
X56594Y-58385D03*
X56594Y-58188D03*
X56358Y-58188D03*
X71988Y-52303D03*
X83326Y-54173D03*
X71712Y-52165D03*
X72460Y-51122D03*
X72224Y-51122D03*
X70354Y-56614D03*
X70157Y-56614D03*
X70157Y-56830D03*
X64980Y-57637D03*
X51397Y-58149D03*
X65196Y-57637D03*
X75905Y-49055D03*
X76338Y-49055D03*
X51397Y-57933D03*
X64980Y-57421D03*
X64685Y-57283D03*
X51397Y-58366D03*
X44153Y-53031D03*
X44350Y-53248D03*
X46968Y-58307D03*
X44566Y-53248D03*
X46751Y-58307D03*
X46751Y-58070D03*
X56240Y-57637D03*
X56240Y-57834D03*
X64094Y-56830D03*
X64094Y-57066D03*
X48346Y-51889D03*
X44724Y-56653D03*
X44724Y-57283D03*
X48661Y-51889D03*
X58937Y-55511D03*
X49133Y-54783D03*
X50905Y-49311D03*
X50236Y-54094D03*
X72677Y-49251D03*
X51692Y-48503D03*
X50866Y-54409D03*
X73031Y-49251D03*
X51417Y-48346D03*
X50551Y-53779D03*
X73582Y-49251D03*
X51909Y-48169D03*
X51496Y-54409D03*
X60137Y-52047D03*
X57618Y-53307D03*
X60531Y-52047D03*
X57952Y-53307D03*
X60531Y-52440D03*
X58287Y-53307D03*
X49291Y-52204D03*
X45984Y-51673D03*
X45748Y-53877D03*
X44724Y-58464D03*
X45748Y-53622D03*
X44724Y-57834D03*
X75000Y-51751D03*
X75708Y-51279D03*
X76043Y-54271D03*
X81259Y-58976D03*
X81968Y-49370D03*
X61181Y-58307D03*
X61318Y-53622D03*
X61437Y-58307D03*
X82263Y-58582D03*
X82362Y-49370D03*
X61712Y-53622D03*
X75846Y-55669D03*
X62696Y-55295D03*
X76299Y-58051D03*
X62106Y-54409D03*
X60137Y-54803D03*
X67381Y-59055D03*
X69389Y-58877D03*
X60925Y-54015D03*
X69724Y-57244D03*
X60531Y-55295D03*
X70334Y-58700D03*
X60925Y-54803D03*
X71377Y-58700D03*
X61122Y-55295D03*
X61318Y-54803D03*
X72125Y-56830D03*
X61515Y-55295D03*
X72381Y-56830D03*
X74744Y-55669D03*
X62106Y-54803D03*
X79251Y-57322D03*
X62500Y-54015D03*
X80551Y-57637D03*
X61318Y-53228D03*
X81358Y-56948D03*
X62500Y-53622D03*
X81751Y-57637D03*
X62106Y-53622D03*
X62500Y-53228D03*
X82263Y-56535D03*
X83346Y-56102D03*
X62106Y-53228D03*
X61712Y-53228D03*
X82559Y-57637D03*
X78366Y-57834D03*
X62500Y-54803D03*
X62106Y-54015D03*
X79468Y-57637D03*
X62500Y-54409D03*
X77559Y-57362D03*
X77342Y-58051D03*
X61318Y-54015D03*
X74370Y-58779D03*
X61909Y-55295D03*
X73385Y-58858D03*
X61712Y-54803D03*
X69192Y-57637D03*
X60688Y-57677D03*
X61318Y-54409D03*
X75354Y-58779D03*
X62303Y-55295D03*
X64094Y-56574D03*
X63287Y-54409D03*
X66515Y-57440D03*
X63681Y-50866D03*
X60531Y-52834D03*
X63287Y-51259D03*
X63681Y-50472D03*
X60137Y-53622D03*
X54025Y-51072D03*
X61318Y-51259D03*
X54183Y-49891D03*
X62303Y-48799D03*
X63090Y-48799D03*
X54025Y-49498D03*
X53405Y-50679D03*
X60137Y-49291D03*
X59940Y-48799D03*
X53001Y-49340D03*
X61712Y-50866D03*
X54183Y-50679D03*
X53710Y-49498D03*
X61515Y-48799D03*
X53710Y-51072D03*
X64074Y-50078D03*
X53868Y-49891D03*
X61909Y-48799D03*
X53868Y-50679D03*
X61712Y-51259D03*
X59547Y-48799D03*
X53395Y-49498D03*
X59744Y-49685D03*
X53395Y-51072D03*
X61122Y-48799D03*
X53553Y-49891D03*
X63484Y-48799D03*
X54340Y-49498D03*
X64271Y-48799D03*
X54498Y-49891D03*
X64665Y-48799D03*
X54655Y-49498D03*
X54655Y-51072D03*
X60925Y-50472D03*
X61318Y-50472D03*
X54970Y-51072D03*
X55600Y-51072D03*
X62893Y-50472D03*
X62893Y-49291D03*
X55600Y-49498D03*
X56702Y-50679D03*
X62106Y-50078D03*
X56702Y-49891D03*
X60531Y-49291D03*
X56702Y-48789D03*
X60728Y-48799D03*
X61712Y-50078D03*
X56545Y-51387D03*
X60334Y-48799D03*
X57332Y-48789D03*
X62106Y-49685D03*
X57175Y-51387D03*
X63287Y-50078D03*
X55442Y-50679D03*
X55442Y-49891D03*
X62500Y-49291D03*
X63287Y-49291D03*
X55442Y-48789D03*
X62500Y-50866D03*
X55285Y-51387D03*
X56072Y-48789D03*
X64074Y-49291D03*
X62106Y-50866D03*
X55915Y-51387D03*
X60925Y-49291D03*
X56860Y-51072D03*
X61318Y-49291D03*
X56860Y-49498D03*
X56072Y-49891D03*
X64074Y-49685D03*
X62500Y-50472D03*
X56072Y-50679D03*
X62106Y-49291D03*
X54655Y-51387D03*
X57332Y-49891D03*
X62106Y-50472D03*
X62696Y-48799D03*
X57332Y-50679D03*
X60925Y-50866D03*
X54498Y-50679D03*
X61318Y-50866D03*
X54340Y-51072D03*
X61712Y-50472D03*
X54812Y-50679D03*
X61712Y-49291D03*
X54812Y-49891D03*
X66377Y-54409D03*
X63287Y-54015D03*
X65354Y-51062D03*
X67677Y-52047D03*
X66850Y-51889D03*
X64862Y-50866D03*
X66377Y-51574D03*
X64074Y-50866D03*
X67677Y-52677D03*
X65354Y-51850D03*
X65354Y-49881D03*
X68976Y-51574D03*
X65354Y-51456D03*
X66377Y-52204D03*
X67677Y-52362D03*
X63681Y-51259D03*
X67677Y-51732D03*
X63287Y-50866D03*
X68582Y-51732D03*
X64862Y-49685D03*
X65354Y-49488D03*
X68976Y-51889D03*
X62893Y-51259D03*
X66850Y-52519D03*
X64862Y-50078D03*
X68582Y-52047D03*
X66850Y-53779D03*
X64074Y-53622D03*
X68582Y-53937D03*
X63287Y-54803D03*
X64862Y-51653D03*
X66377Y-52834D03*
X64862Y-52440D03*
X67677Y-52992D03*
X67677Y-53937D03*
X64074Y-54015D03*
X65354Y-54803D03*
X68779Y-53779D03*
X64862Y-52834D03*
X66377Y-53464D03*
X67677Y-53622D03*
X63681Y-53228D03*
X67677Y-53307D03*
X65354Y-52992D03*
X64468Y-54409D03*
X68582Y-53622D03*
X65354Y-52440D03*
X66850Y-53149D03*
X65354Y-54409D03*
X68779Y-53464D03*
X63287Y-51653D03*
X68976Y-52519D03*
X64468Y-54015D03*
X68779Y-53149D03*
X68582Y-52362D03*
X64862Y-51259D03*
X68582Y-52992D03*
X64862Y-53622D03*
X59350Y-53228D03*
X77263Y-54251D03*
X54192Y-53307D03*
X59744Y-52047D03*
X79340Y-50364D03*
X63681Y-54803D03*
X79251Y-58011D03*
X49094Y-55374D03*
X64468Y-52047D03*
X52244Y-54566D03*
X64862Y-52047D03*
X64862Y-54803D03*
X67677Y-54881D03*
X63287Y-52047D03*
X49842Y-55374D03*
X50777Y-55393D03*
X64074Y-52834D03*
X63287Y-53622D03*
X68582Y-54881D03*
X78464Y-55433D03*
X78828Y-50364D03*
X66377Y-55039D03*
X63484Y-55295D03*
X79084Y-50364D03*
X78641Y-55610D03*
X66850Y-54724D03*
X62893Y-53622D03*
X49606Y-53464D03*
X53385Y-53307D03*
X51496Y-52204D03*
X59350Y-51259D03*
X51496Y-52519D03*
X59350Y-51653D03*
X51496Y-53149D03*
X58858Y-51850D03*
X60137Y-51653D03*
X51181Y-53149D03*
X50866Y-53149D03*
X59350Y-52440D03*
X51181Y-52519D03*
X60137Y-52834D03*
X50866Y-52519D03*
X59350Y-53622D03*
X50551Y-52519D03*
X58858Y-54606D03*
X50236Y-53149D03*
X59350Y-52834D03*
X51496Y-52834D03*
X59744Y-51653D03*
X53090Y-52421D03*
X60531Y-51653D03*
X50866Y-52204D03*
X50551Y-53149D03*
X58897Y-52637D03*
X50866Y-52834D03*
X58897Y-54212D03*
X49448Y-54783D03*
X49291Y-53779D03*
X51889Y-55590D03*
X50236Y-51574D03*
X58858Y-49881D03*
X50236Y-51889D03*
X58681Y-49724D03*
X51338Y-51200D03*
X60531Y-50472D03*
X51811Y-51574D03*
X59350Y-50866D03*
X60137Y-50866D03*
X51496Y-51574D03*
X51496Y-51889D03*
X60531Y-50866D03*
X51181Y-52204D03*
X58858Y-51456D03*
X50551Y-52204D03*
X60925Y-52440D03*
X49921Y-52834D03*
X58897Y-53031D03*
X60531Y-50078D03*
X50551Y-51574D03*
X50551Y-51889D03*
X60925Y-51259D03*
X60925Y-51653D03*
X50236Y-52204D03*
X59350Y-50078D03*
X50866Y-51574D03*
X60531Y-51259D03*
X50866Y-51889D03*
X58858Y-50275D03*
X51181Y-51574D03*
X51181Y-51889D03*
X58858Y-51062D03*
X64074Y-54803D03*
X51948Y-55177D03*
X63838Y-55295D03*
X51692Y-55177D03*
X50866Y-54094D03*
X63681Y-53622D03*
X57381Y-54232D03*
X58208Y-55866D03*
X64035Y-55649D03*
X51437Y-55177D03*
X62598Y-56771D03*
X49763Y-54783D03*
X49606Y-54409D03*
X49606Y-53779D03*
X51181Y-52834D03*
X58897Y-53818D03*
X50354Y-50098D03*
X63287Y-53228D03*
X50255Y-57736D03*
X50905Y-49035D03*
X49291Y-54094D03*
X62893Y-53228D03*
X48996Y-49704D03*
X48996Y-48641D03*
X49291Y-53149D03*
X49114Y-57263D03*
X49744Y-57736D03*
X49291Y-53464D03*
X49173Y-49901D03*
X49173Y-48838D03*
X62893Y-54803D03*
X49291Y-51574D03*
X49921Y-53779D03*
X50078Y-54783D03*
X49822Y-55629D03*
X49094Y-55629D03*
X48818Y-54783D03*
X48326Y-48582D03*
X48740Y-49606D03*
X48740Y-49409D03*
X51023Y-51200D03*
X50078Y-51200D03*
X48976Y-51574D03*
X46003Y-54763D03*
X51870Y-53307D03*
X51870Y-52677D03*
X50708Y-54783D03*
X49921Y-51889D03*
X48976Y-53779D03*
X62874Y-56771D03*
X62283Y-56771D03*
X61850Y-56771D03*
X67716Y-50393D03*
X66850Y-57224D03*
X67716Y-57224D03*
X67716Y-57440D03*
X68582Y-57440D03*
X68582Y-57224D03*
X66377Y-56614D03*
X68582Y-55590D03*
X68582Y-57657D03*
X67716Y-57657D03*
X66850Y-57657D03*
X66850Y-50078D03*
X67716Y-55590D03*
X68582Y-55275D03*
X67716Y-55275D03*
X68582Y-51417D03*
X67716Y-51417D03*
X66850Y-51417D03*
X67716Y-50708D03*
X67716Y-50944D03*
X68582Y-50944D03*
X66850Y-50944D03*
X68582Y-50629D03*
X66850Y-50708D03*
X68582Y-50078D03*
X67716Y-50078D03*
X66850Y-55275D03*
X68582Y-50393D03*
X66850Y-50393D03*
X66850Y-55590D03*
X62755Y-57559D03*
X62244Y-57559D03*
X63267Y-59645D03*
X63897Y-59645D03*
X55472Y-55649D03*
X56043Y-55610D03*
X56279Y-55610D03*
X57086Y-57342D03*
X58208Y-57874D03*
X57755Y-57066D03*
X55531Y-59035D03*
X56358Y-59035D03*
X54704Y-59035D03*
X72500Y-54724D03*
X71023Y-52480D03*
X70728Y-54212D03*
X70748Y-55019D03*
X69685Y-51889D03*
X72224Y-50688D03*
X71929Y-50433D03*
X70255Y-50137D03*
X59744Y-50866D03*
X66161Y-59645D03*
X66161Y-59173D03*
X47066Y-48602D03*
X75000Y-50846D03*
X75846Y-51968D03*
X76377Y-54625D03*
X60137Y-53228D03*
X75688Y-54271D03*
X80314Y-48031D03*
X74114Y-48425D03*
X64468Y-51653D03*
X66141Y-49271D03*
X66456Y-50078D03*
X66417Y-50393D03*
X56437Y-52736D03*
X63287Y-50472D03*
X59744Y-54803D03*
X59940Y-55334D03*
X61712Y-52834D03*
X57775Y-54232D03*
X58011Y-54409D03*
X58326Y-54409D03*
X49330Y-48070D03*
X49566Y-51200D03*
X49606Y-53149D03*
X64468Y-55275D03*
X76761Y-52923D03*
X77096Y-52923D03*
X76427Y-52923D03*
X76427Y-53139D03*
X77096Y-53139D03*
X76761Y-53139D03*
X76761Y-52470D03*
X77096Y-52470D03*
X76427Y-52470D03*
X76427Y-52706D03*
X77096Y-52706D03*
X76761Y-52706D03*
X83661Y-48503D03*
X82716Y-53818D03*
X83326Y-52874D03*
X83326Y-52381D03*
X83917Y-53188D03*
X76220Y-48070D03*
X82027Y-48070D03*
X81594Y-48070D03*
X78700Y-48366D03*
X74990Y-52135D03*
X74950Y-50580D03*
X76210Y-50580D03*
X75246Y-54124D03*
X76958Y-53750D03*
X75580Y-50103D03*
X75265Y-50103D03*
X76525Y-50103D03*
X76840Y-50103D03*
X76663Y-51053D03*
X75068Y-49064D03*
X77175Y-49064D03*
X76427Y-50895D03*
X77627Y-51643D03*
X77627Y-51151D03*
X77568Y-50462D03*
X77568Y-50816D03*
X77844Y-49675D03*
X78179Y-49675D03*
X79084Y-49576D03*
X79084Y-48946D03*
X79616Y-53198D03*
X79301Y-52903D03*
X79301Y-53474D03*
X79891Y-53356D03*
X80246Y-53789D03*
X79537Y-53789D03*
X79891Y-54202D03*
X80364Y-50462D03*
X80364Y-50816D03*
X62893Y-54015D03*
X43700Y-56968D03*
X51397Y-59192D03*
X63681Y-55649D03*
X70748Y-57244D03*
X69133Y-59055D03*
X68366Y-59055D03*
X69724Y-49311D03*
X43700Y-55787D03*
X44724Y-56968D03*
X73307Y-48385D03*
X48385Y-59448D03*
X47460Y-59645D03*
X49311Y-59645D03*
X54094Y-59448D03*
X53169Y-59645D03*
X55019Y-59645D03*
X59803Y-59429D03*
X58877Y-59645D03*
X60728Y-59645D03*
X64291Y-59645D03*
X65433Y-55688D03*
X65964Y-50964D03*
X66141Y-48070D03*
X64271Y-48070D03*
X60748Y-48070D03*
X58858Y-48070D03*
X55039Y-48070D03*
X53149Y-48070D03*
X47440Y-48070D03*
X42500Y-52834D03*
X42500Y-50944D03*
X42500Y-49488D03*
X43897Y-48070D03*
X64980Y-59271D03*
X70433Y-53543D03*
X70216Y-53543D03*
X69350Y-55590D03*
X64468Y-54803D03*
X63681Y-52440D03*
X65354Y-50511D03*
X60137Y-51259D03*
X59350Y-49685D03*
X64074Y-53228D03*
X62106Y-51653D03*
X61712Y-51653D03*
X62500Y-50078D03*
X50905Y-48641D03*
X73759Y-57244D03*
X80748Y-55669D03*
X80748Y-57244D03*
X44842Y-50098D03*
X44842Y-50531D03*
X44842Y-50314D03*
X44271Y-50098D03*
X44271Y-50531D03*
X44271Y-50314D03*
X44547Y-50098D03*
X44547Y-50531D03*
X44547Y-50314D03*
X45118Y-50098D03*
X45118Y-50531D03*
X45118Y-50314D03*
X43976Y-50314D03*
X43976Y-50531D03*
X43976Y-50098D03*
X53208Y-58444D03*
X49330Y-57401D03*
X49547Y-57618D03*
X48011Y-57657D03*
X48011Y-57460D03*
X48976Y-57795D03*
X48011Y-57263D03*
X47283Y-56023D03*
X47283Y-56830D03*
X47283Y-56417D03*
X47283Y-56220D03*
X47283Y-56633D03*
X46732Y-56023D03*
X46732Y-56830D03*
X46732Y-56417D03*
X46732Y-56220D03*
X46732Y-56633D03*
X47578Y-56633D03*
X47578Y-56220D03*
X47578Y-56417D03*
X47578Y-56830D03*
X47578Y-56023D03*
X47007Y-56023D03*
X47007Y-56830D03*
X47007Y-56417D03*
X47007Y-56220D03*
X47007Y-56633D03*
X46437Y-56633D03*
X46437Y-56220D03*
X46437Y-56417D03*
X46437Y-56830D03*
X46437Y-56023D03*
X77145Y-58779D03*
X77145Y-58425D03*
X78366Y-56456D03*
X83366Y-58425D03*
X60137Y-50472D03*
X61712Y-54015D03*
X63681Y-54409D03*
X83759Y-57657D03*
X50314Y-48641D03*
X58858Y-53425D03*
X62893Y-50866D03*
X64862Y-50472D03*
X55127Y-49891D03*
X56545Y-51072D03*
X55915Y-49498D03*
X56387Y-49891D03*
X46299Y-48602D03*
X51043Y-59133D03*
X50728Y-59133D03*
X52362Y-58779D03*
X53208Y-59035D03*
X53956Y-58838D03*
X53956Y-59035D03*
X53208Y-58838D03*
X53208Y-58641D03*
X58858Y-52244D03*
X51496Y-53464D03*
X50374Y-50708D03*
X51870Y-54566D03*
X46181Y-54251D03*
X46062Y-52795D03*
X64862Y-53228D03*
X64074Y-52440D03*
X55098Y-52696D03*
X56102Y-52736D03*
X53110Y-55393D03*
X53543Y-55629D03*
X53818Y-56102D03*
X51043Y-56338D03*
X50728Y-56338D03*
X59350Y-52047D03*
X65334Y-48562D03*
X61318Y-51653D03*
X64074Y-50472D03*
X46377Y-51555D03*
X47539Y-50728D03*
X46259Y-50944D03*
X58799Y-48789D03*
X55285Y-49498D03*
X56387Y-50679D03*
X55127Y-50679D03*
X55285Y-51072D03*
X55915Y-51072D03*
X57175Y-51072D03*
X57175Y-49498D03*
X57647Y-50679D03*
X57647Y-49891D03*
X53868Y-48789D03*
X56545Y-49498D03*
X53395Y-51387D03*
X59350Y-50472D03*
X60531Y-49685D03*
X63287Y-49685D03*
X63681Y-49291D03*
X60137Y-52440D03*
X60531Y-54015D03*
X60531Y-53228D03*
X62106Y-52834D03*
X62500Y-52047D03*
X62106Y-52047D03*
X61712Y-52047D03*
X61318Y-52047D03*
X49842Y-56220D03*
X48661Y-50944D03*
X47618Y-48700D03*
X51653Y-51200D03*
X51870Y-53937D03*
X51870Y-52992D03*
X49606Y-52519D03*
X48051Y-51102D03*
X47677Y-51673D03*
X45433Y-52933D03*
X48976Y-52204D03*
X47007Y-52677D03*
X48031Y-54822D03*
X47401Y-52677D03*
X48503Y-54783D03*
X48169Y-55098D03*
X48818Y-55393D03*
X50393Y-54783D03*
X51496Y-53937D03*
X52086Y-51397D03*
X52401Y-51397D03*
X49960Y-57618D03*
X47952Y-50866D03*
X48267Y-50866D03*
X46043Y-48602D03*
X45807Y-48897D03*
X43681Y-52716D03*
X43267Y-53248D03*
X43267Y-52185D03*
X45551Y-51535D03*
X45295Y-52086D03*
X47795Y-54330D03*
X48287Y-54566D03*
X45984Y-50866D03*
X46633Y-51259D03*
X47303Y-50413D03*
X46791Y-53444D03*
X45925Y-53444D03*
X50098Y-49468D03*
X50098Y-50452D03*
X50905Y-49704D03*
X53090Y-53307D03*
X48976Y-51889D03*
X48976Y-52519D03*
X49921Y-54094D03*
X51870Y-54251D03*
X50393Y-51200D03*
X64862Y-49291D03*
X43917Y-48602D03*
X49468Y-56062D03*
X49035Y-55866D03*
X48346Y-59055D03*
X49173Y-59055D03*
X64074Y-51259D03*
X61318Y-50078D03*
X69488Y-54724D03*
X61712Y-49685D03*
X69488Y-50039D03*
X69330Y-50236D03*
X69330Y-54566D03*
X64468Y-50866D03*
X69822Y-54409D03*
X69822Y-49724D03*
X60137Y-50078D03*
X70019Y-54251D03*
X70019Y-49547D03*
X59744Y-50078D03*
X78149Y-59173D03*
X59744Y-54409D03*
X66377Y-59055D03*
X76338Y-48543D03*
X77706Y-53001D03*
X49783Y-48169D03*
X49606Y-52204D03*
X77854Y-59350D03*
X59744Y-54015D03*
X65393Y-59173D03*
X75984Y-48543D03*
X77706Y-53277D03*
X50039Y-48169D03*
X49606Y-51889D03*
X62500Y-51653D03*
X82755Y-49370D03*
X65354Y-50275D03*
X68976Y-52204D03*
X64862Y-54409D03*
X68582Y-53307D03*
X48661Y-53779D03*
X46574Y-54251D03*
X49606Y-52834D03*
X53346Y-52755D03*
X53661Y-52755D03*
X48661Y-53464D03*
X52578Y-54980D03*
X48976Y-53464D03*
X50236Y-53464D03*
X52244Y-54251D03*
X73307Y-48661D03*
X49350Y-49035D03*
X51102Y-48838D03*
X49291Y-52519D03*
X46673Y-52578D03*
X72677Y-48385D03*
X73858Y-48661D03*
X51259Y-49685D03*
X49350Y-50098D03*
X53385Y-55393D03*
X59173Y-55688D03*
X52125Y-50137D03*
X47539Y-50019D03*
X43937Y-52401D03*
X53976Y-52755D03*
X48976Y-54094D03*
X48287Y-52677D03*
X48661Y-53149D03*
X48287Y-54251D03*
X47893Y-52362D03*
X48661Y-52834D03*
X82755Y-48503D03*
X82362Y-48543D03*
X81712Y-48740D03*
X53346Y-54015D03*
X53346Y-54409D03*
X43484Y-51535D03*
X44291Y-48858D03*
X45925Y-49842D03*
X46023Y-55551D03*
X47244Y-54803D03*
X46751Y-54803D03*
X48248Y-55866D03*
X46023Y-57263D03*
X46023Y-57657D03*
X46023Y-57460D03*
X50000Y-58188D03*
X45905Y-58700D03*
X52362Y-59035D03*
X52598Y-59035D03*
X46496Y-58700D03*
X45905Y-58897D03*
X46496Y-58897D03*
X83149Y-48503D03*
X75531Y-51633D03*
X65354Y-53425D03*
X46968Y-50984D03*
X48976Y-52834D03*
X48976Y-53149D03*
X46968Y-51299D03*
X67716Y-54468D03*
X64468Y-52834D03*
X74990Y-52490D03*
X68779Y-50787D03*
X59940Y-55688D03*
X59763Y-57677D03*
X69468Y-57637D03*
X69665Y-54094D03*
X78385Y-59527D03*
X77706Y-52746D03*
X50236Y-53779D03*
X50472Y-59448D03*
X83326Y-50885D03*
X83937Y-53562D03*
X64074Y-52047D03*
X81751Y-49881D03*
X50944Y-50098D03*
X50236Y-52834D03*
X83326Y-51889D03*
X83602Y-53562D03*
X63681Y-52047D03*
X81751Y-50885D03*
X49921Y-52519D03*
X64074Y-51653D03*
X83326Y-49881D03*
X81751Y-51870D03*
X49291Y-51889D03*
X83326Y-50374D03*
X63681Y-51653D03*
X81751Y-50374D03*
X49921Y-52204D03*
X48661Y-51200D03*
X81751Y-52381D03*
X68582Y-52677D03*
X63681Y-52834D03*
X63287Y-52834D03*
X68976Y-52834D03*
X74990Y-53513D03*
X68779Y-55039D03*
X65433Y-55433D03*
X60295Y-55295D03*
X65551Y-53543D03*
X58326Y-52244D03*
X57893Y-54980D03*
X62893Y-52440D03*
X62500Y-52440D03*
X62106Y-52440D03*
X61712Y-52440D03*
X61318Y-52440D03*
X62893Y-52047D03*
X62893Y-51653D03*
X46948Y-49566D03*
X46653Y-49566D03*
X46417Y-49566D03*
X46259Y-49311D03*
X43602Y-48720D03*
X63562Y-57342D03*
X66397Y-50708D03*
X60925Y-54409D03*
X57381Y-53956D03*
X62893Y-50078D03*
X60925Y-50078D03*
X54970Y-49498D03*
G54D15*
X49133Y-54783D02*
X49133Y-54803D01*
X58641Y-55216D02*
X58937Y-55511D01*
X52322Y-55216D02*
X58641Y-55216D01*
X52106Y-55000D02*
X52322Y-55216D01*
X49330Y-55000D02*
X52106Y-55000D01*
X49133Y-54803D02*
X49330Y-55000D01*
G54D10*
X65570Y-48346D02*
X65629Y-48346D01*
X65216Y-48346D02*
X65570Y-48346D01*
X65059Y-48503D02*
X51692Y-48503D01*
X65216Y-48346D02*
X65059Y-48503D01*
X72165Y-48740D02*
X72677Y-49251D01*
X66023Y-48740D02*
X72165Y-48740D01*
X65629Y-48346D02*
X66023Y-48740D01*
X72125Y-48582D02*
X72362Y-48582D01*
X72362Y-48582D02*
X73031Y-49251D01*
X65137Y-48228D02*
X65748Y-48228D01*
X65019Y-48346D02*
X65137Y-48228D01*
X51417Y-48346D02*
X65019Y-48346D01*
X66102Y-48582D02*
X72125Y-48582D01*
X72125Y-48582D02*
X72204Y-48582D01*
X72204Y-48582D02*
X72322Y-48582D01*
X65748Y-48228D02*
X66102Y-48582D01*
X72125Y-48425D02*
X72440Y-48425D01*
X73346Y-49015D02*
X73582Y-49251D01*
X73031Y-49015D02*
X73346Y-49015D01*
X72440Y-48425D02*
X73031Y-49015D01*
X51968Y-48228D02*
X51909Y-48169D01*
X64960Y-48228D02*
X51968Y-48228D01*
X65078Y-48110D02*
X65826Y-48110D01*
X65078Y-48110D02*
X64960Y-48228D01*
X66141Y-48425D02*
X72125Y-48425D01*
X72125Y-48425D02*
X72401Y-48425D01*
X65826Y-48110D02*
X66141Y-48425D01*
G54D15*
X62362Y-55098D02*
X62500Y-55236D01*
X62539Y-55472D02*
X64114Y-55472D01*
X62500Y-55433D02*
X62539Y-55472D01*
X62500Y-55236D02*
X62500Y-55433D01*
X64251Y-55807D02*
X66496Y-58051D01*
X66496Y-58051D02*
X76299Y-58051D01*
X64251Y-55807D02*
X64251Y-55610D01*
X62106Y-54409D02*
X62244Y-54547D01*
X62244Y-54547D02*
X62253Y-54557D01*
X62253Y-54557D02*
X62253Y-54990D01*
X62253Y-54990D02*
X62362Y-55098D01*
X64114Y-55472D02*
X64251Y-55610D01*
X63986Y-57824D02*
X61328Y-57824D01*
X60137Y-56633D02*
X60137Y-56279D01*
X61328Y-57824D02*
X60137Y-56633D01*
X66417Y-58877D02*
X65039Y-58877D01*
X60137Y-54803D02*
X60137Y-56279D01*
X63986Y-57824D02*
X65039Y-58877D01*
X66555Y-58877D02*
X66732Y-59055D01*
X66732Y-59055D02*
X67381Y-59055D01*
X66417Y-58877D02*
X66555Y-58877D01*
X62480Y-56456D02*
X61850Y-56456D01*
X61850Y-56456D02*
X60728Y-55334D01*
X62480Y-56456D02*
X63011Y-56456D01*
X65314Y-58759D02*
X65649Y-58759D01*
X63011Y-56456D02*
X65314Y-58759D01*
X65649Y-58759D02*
X66614Y-58759D01*
X66614Y-58759D02*
X66732Y-58877D01*
X66732Y-58877D02*
X69389Y-58877D01*
X60925Y-54015D02*
X60728Y-54212D01*
X60728Y-54212D02*
X60728Y-55334D01*
X65688Y-58661D02*
X65374Y-58661D01*
X65374Y-58661D02*
X63051Y-56338D01*
X65688Y-58661D02*
X66673Y-58661D01*
X66673Y-58661D02*
X66712Y-58700D01*
X66712Y-58700D02*
X70334Y-58700D01*
X60925Y-54803D02*
X60925Y-55374D01*
X61889Y-56338D02*
X63051Y-56338D01*
X60925Y-55374D02*
X61889Y-56338D01*
X70787Y-58523D02*
X66318Y-58523D01*
X66318Y-58523D02*
X66122Y-58326D01*
X70787Y-58523D02*
X70964Y-58700D01*
X70964Y-58700D02*
X71377Y-58700D01*
X66122Y-58326D02*
X64015Y-56220D01*
X63740Y-56220D02*
X64015Y-56220D01*
X61122Y-55295D02*
X62047Y-56220D01*
X62047Y-56220D02*
X63740Y-56220D01*
X66456Y-56437D02*
X65964Y-56437D01*
X65964Y-56437D02*
X65177Y-55649D01*
X66496Y-56437D02*
X66456Y-56437D01*
X65177Y-55649D02*
X65177Y-55255D01*
X74694Y-56545D02*
X74586Y-56437D01*
X74694Y-56545D02*
X74842Y-56692D01*
X74842Y-56692D02*
X77244Y-56692D01*
X77244Y-56692D02*
X77618Y-57066D01*
X74586Y-56437D02*
X66496Y-56437D01*
X66496Y-56437D02*
X66279Y-56437D01*
X77598Y-57047D02*
X77618Y-57066D01*
X79251Y-57322D02*
X77874Y-57322D01*
X77874Y-57322D02*
X77814Y-57263D01*
X77618Y-57066D02*
X77814Y-57263D01*
X62647Y-54163D02*
X65019Y-54163D01*
X65019Y-54163D02*
X65177Y-54320D01*
X65177Y-54320D02*
X65177Y-55255D01*
X62500Y-54015D02*
X62647Y-54163D01*
X65177Y-55255D02*
X65177Y-55334D01*
X65590Y-54586D02*
X65590Y-54389D01*
X65590Y-54389D02*
X65068Y-53868D01*
X66368Y-56338D02*
X69025Y-56338D01*
X62224Y-53868D02*
X65068Y-53868D01*
X65590Y-54586D02*
X65590Y-55561D01*
X65590Y-55561D02*
X66368Y-56338D01*
X74685Y-56338D02*
X74921Y-56574D01*
X74921Y-56574D02*
X77303Y-56574D01*
X77303Y-56574D02*
X77874Y-57145D01*
X77874Y-57145D02*
X79271Y-57145D01*
X80059Y-57145D02*
X80551Y-57637D01*
X79271Y-57145D02*
X80059Y-57145D01*
X74675Y-56328D02*
X74685Y-56338D01*
X69035Y-56328D02*
X74675Y-56328D01*
X69025Y-56338D02*
X69035Y-56328D01*
X62224Y-53868D02*
X61643Y-53868D01*
X61515Y-53740D02*
X61515Y-53425D01*
X61643Y-53868D02*
X61515Y-53740D01*
X61318Y-53228D02*
X61515Y-53425D01*
X61958Y-53868D02*
X62224Y-53868D01*
X65787Y-54448D02*
X65787Y-54291D01*
X65787Y-54291D02*
X65137Y-53641D01*
X78562Y-56948D02*
X81358Y-56948D01*
X79311Y-56948D02*
X78562Y-56948D01*
X78562Y-56948D02*
X77992Y-56948D01*
X77992Y-56948D02*
X77421Y-56377D01*
X75452Y-56377D02*
X75019Y-56377D01*
X75452Y-56377D02*
X77421Y-56377D01*
X62500Y-53622D02*
X62657Y-53464D01*
X64960Y-53464D02*
X65137Y-53641D01*
X62657Y-53464D02*
X64960Y-53464D01*
X65787Y-54448D02*
X65787Y-55472D01*
X65787Y-55472D02*
X66456Y-56141D01*
X75019Y-56377D02*
X74783Y-56141D01*
X74783Y-56141D02*
X66456Y-56141D01*
X79311Y-56948D02*
X79940Y-56948D01*
X65688Y-54448D02*
X65688Y-54330D01*
X65688Y-54330D02*
X65137Y-53779D01*
X79566Y-57047D02*
X81161Y-57047D01*
X81161Y-57047D02*
X81751Y-57637D01*
X66397Y-56240D02*
X74724Y-56240D01*
X77933Y-57047D02*
X79566Y-57047D01*
X77362Y-56476D02*
X77933Y-57047D01*
X74960Y-56476D02*
X77362Y-56476D01*
X74724Y-56240D02*
X74960Y-56476D01*
X62106Y-53622D02*
X62263Y-53779D01*
X62263Y-53779D02*
X65137Y-53779D01*
X65688Y-55531D02*
X66397Y-56240D01*
X65688Y-54448D02*
X65688Y-55531D01*
X65826Y-53267D02*
X65118Y-53267D01*
X65118Y-53267D02*
X64921Y-53070D01*
X65984Y-53425D02*
X65826Y-53267D01*
X65984Y-53789D02*
X65984Y-53425D01*
X75472Y-56161D02*
X78444Y-56161D01*
X65984Y-55374D02*
X66555Y-55944D01*
X65984Y-53789D02*
X65984Y-55374D01*
X62657Y-53070D02*
X62500Y-53228D01*
X62657Y-53070D02*
X64921Y-53070D01*
X75098Y-56161D02*
X74881Y-55944D01*
X74881Y-55944D02*
X66555Y-55944D01*
X75472Y-56161D02*
X75098Y-56161D01*
X78976Y-56161D02*
X79350Y-56535D01*
X79350Y-56535D02*
X82263Y-56535D01*
X78444Y-56161D02*
X78976Y-56161D01*
X78444Y-56161D02*
X78759Y-56161D01*
X65354Y-53169D02*
X65177Y-53169D01*
X65177Y-53169D02*
X64990Y-52982D01*
X65866Y-53169D02*
X65354Y-53169D01*
X66082Y-53385D02*
X65866Y-53169D01*
X66082Y-53799D02*
X66082Y-53385D01*
X80295Y-56102D02*
X79094Y-56102D01*
X82165Y-56102D02*
X83346Y-56102D01*
X66614Y-55846D02*
X74921Y-55846D01*
X66082Y-53799D02*
X66082Y-55314D01*
X66082Y-55314D02*
X66614Y-55846D01*
X75137Y-56062D02*
X79055Y-56062D01*
X79055Y-56062D02*
X79094Y-56102D01*
X74921Y-55846D02*
X75137Y-56062D01*
X62106Y-53228D02*
X62352Y-52982D01*
X62352Y-52982D02*
X64990Y-52982D01*
X80295Y-56102D02*
X82165Y-56102D01*
X66082Y-53602D02*
X66082Y-53799D01*
X65895Y-54488D02*
X65895Y-54242D01*
X65895Y-54242D02*
X65226Y-53572D01*
X78287Y-56259D02*
X78897Y-56259D01*
X81574Y-56653D02*
X82559Y-57637D01*
X79291Y-56653D02*
X81574Y-56653D01*
X78897Y-56259D02*
X79291Y-56653D01*
X75452Y-56259D02*
X75039Y-56259D01*
X74822Y-56043D02*
X66515Y-56043D01*
X75039Y-56259D02*
X74822Y-56043D01*
X61712Y-53228D02*
X61860Y-53375D01*
X65895Y-55423D02*
X66515Y-56043D01*
X65895Y-54488D02*
X65895Y-55423D01*
X65029Y-53375D02*
X65226Y-53572D01*
X61860Y-53375D02*
X65029Y-53375D01*
X75452Y-56259D02*
X78287Y-56259D01*
X66062Y-57027D02*
X66732Y-57027D01*
X69566Y-56850D02*
X69744Y-57027D01*
X66909Y-56850D02*
X69566Y-56850D01*
X66732Y-57027D02*
X66909Y-56850D01*
X64803Y-55767D02*
X64803Y-55177D01*
X64803Y-55177D02*
X64616Y-54990D01*
X64547Y-54655D02*
X64163Y-54655D01*
X64616Y-54724D02*
X64547Y-54655D01*
X64616Y-54990D02*
X64616Y-54724D01*
X66062Y-57027D02*
X64803Y-55767D01*
X69744Y-57027D02*
X70354Y-57637D01*
X77814Y-57637D02*
X70354Y-57637D01*
X78011Y-57834D02*
X78366Y-57834D01*
X77814Y-57637D02*
X78011Y-57834D01*
X62647Y-54655D02*
X63877Y-54655D01*
X62500Y-54803D02*
X62637Y-54665D01*
X62637Y-54665D02*
X62647Y-54655D01*
X63877Y-54655D02*
X64163Y-54655D01*
X66161Y-56791D02*
X66614Y-56791D01*
X69645Y-56614D02*
X69862Y-56830D01*
X66791Y-56614D02*
X69645Y-56614D01*
X66614Y-56791D02*
X66791Y-56614D01*
X66161Y-56791D02*
X65059Y-55688D01*
X69862Y-56830D02*
X70472Y-57440D01*
X65059Y-55570D02*
X65059Y-55688D01*
X62342Y-54251D02*
X64960Y-54251D01*
X62106Y-54015D02*
X62342Y-54251D01*
X65059Y-54350D02*
X65059Y-55570D01*
X64960Y-54251D02*
X65059Y-54350D01*
X77342Y-57165D02*
X77578Y-57165D01*
X77066Y-57440D02*
X77342Y-57165D01*
X70472Y-57440D02*
X77066Y-57440D01*
X79468Y-57637D02*
X78051Y-57637D01*
X78051Y-57637D02*
X77736Y-57322D01*
X77578Y-57165D02*
X77736Y-57322D01*
X77736Y-57322D02*
X77775Y-57362D01*
X66122Y-56929D02*
X66653Y-56929D01*
X69606Y-56732D02*
X69803Y-56929D01*
X66850Y-56732D02*
X69606Y-56732D01*
X66653Y-56929D02*
X66850Y-56732D01*
X64921Y-55728D02*
X64921Y-55137D01*
X64921Y-55137D02*
X64704Y-54921D01*
X66122Y-56929D02*
X64921Y-55728D01*
X69803Y-56929D02*
X70413Y-57539D01*
X77381Y-57539D02*
X77559Y-57362D01*
X70413Y-57539D02*
X77381Y-57539D01*
X64212Y-54557D02*
X64616Y-54557D01*
X62500Y-54409D02*
X62647Y-54557D01*
X62647Y-54557D02*
X64212Y-54557D01*
X64616Y-54557D02*
X64704Y-54645D01*
X64704Y-54645D02*
X64704Y-54921D01*
X76437Y-57874D02*
X77165Y-57874D01*
X77165Y-57874D02*
X77342Y-58051D01*
X62342Y-54940D02*
X62480Y-55078D01*
X63917Y-55118D02*
X64232Y-55433D01*
X62519Y-55118D02*
X63917Y-55118D01*
X62480Y-55078D02*
X62519Y-55118D01*
X64370Y-55570D02*
X64370Y-55767D01*
X66476Y-57874D02*
X76437Y-57874D01*
X64370Y-55767D02*
X66476Y-57874D01*
X61318Y-54015D02*
X61555Y-54251D01*
X61555Y-54251D02*
X62185Y-54251D01*
X62185Y-54251D02*
X62342Y-54409D01*
X62342Y-54409D02*
X62342Y-54940D01*
X64232Y-55433D02*
X64370Y-55570D01*
X70885Y-58287D02*
X66417Y-58287D01*
X66417Y-58287D02*
X64114Y-55984D01*
X71023Y-58425D02*
X72066Y-58425D01*
X70885Y-58287D02*
X71023Y-58425D01*
X72834Y-58425D02*
X72066Y-58425D01*
X72066Y-58425D02*
X71988Y-58425D01*
X74015Y-58425D02*
X74370Y-58779D01*
X72539Y-58425D02*
X72834Y-58425D01*
X72834Y-58425D02*
X74015Y-58425D01*
X61909Y-55295D02*
X62598Y-55984D01*
X62598Y-55984D02*
X64114Y-55984D01*
X72539Y-58425D02*
X72775Y-58425D01*
X70846Y-58405D02*
X66358Y-58405D01*
X66358Y-58405D02*
X64055Y-56102D01*
X71909Y-58858D02*
X72362Y-58858D01*
X71574Y-58523D02*
X71909Y-58858D01*
X70964Y-58523D02*
X71574Y-58523D01*
X70846Y-58405D02*
X70964Y-58523D01*
X72362Y-58858D02*
X73385Y-58858D01*
X72224Y-58858D02*
X72362Y-58858D01*
X61712Y-54803D02*
X61712Y-55314D01*
X61712Y-55314D02*
X62500Y-56102D01*
X62500Y-56102D02*
X64055Y-56102D01*
X64173Y-55885D02*
X62696Y-55885D01*
X62303Y-55492D02*
X62303Y-55295D01*
X62696Y-55885D02*
X62303Y-55492D01*
X74744Y-58169D02*
X75354Y-58779D01*
X74271Y-58169D02*
X74744Y-58169D01*
X74665Y-58169D02*
X74271Y-58169D01*
X74271Y-58169D02*
X66456Y-58169D01*
X66456Y-58169D02*
X64173Y-55885D01*
X54133Y-49645D02*
X57440Y-49645D01*
X60000Y-49429D02*
X60137Y-49291D01*
X57657Y-49429D02*
X60000Y-49429D01*
X57440Y-49645D02*
X57657Y-49429D01*
X54035Y-50049D02*
X53405Y-50679D01*
X54035Y-49744D02*
X54035Y-50049D01*
X54133Y-49645D02*
X54035Y-49744D01*
X59783Y-48622D02*
X53129Y-48622D01*
X59940Y-48799D02*
X59940Y-48779D01*
X59940Y-48779D02*
X59783Y-48622D01*
X53129Y-48622D02*
X53001Y-48750D01*
X53001Y-48750D02*
X53001Y-49340D01*
X53710Y-49498D02*
X53710Y-49419D01*
X59704Y-49212D02*
X59862Y-49055D01*
X53917Y-49212D02*
X59704Y-49212D01*
X53710Y-49419D02*
X53917Y-49212D01*
X61515Y-48799D02*
X61259Y-49055D01*
X61259Y-49055D02*
X59862Y-49055D01*
X53868Y-49891D02*
X53868Y-49419D01*
X59783Y-49311D02*
X59950Y-49143D01*
X53976Y-49311D02*
X59783Y-49311D01*
X53868Y-49419D02*
X53976Y-49311D01*
X61909Y-48799D02*
X61564Y-49143D01*
X61564Y-49143D02*
X59950Y-49143D01*
X53395Y-49498D02*
X53395Y-49399D01*
X59330Y-49015D02*
X59547Y-48799D01*
X53779Y-49015D02*
X59330Y-49015D01*
X53395Y-49399D02*
X53779Y-49015D01*
X53553Y-49891D02*
X53553Y-49419D01*
X59606Y-49114D02*
X59763Y-48956D01*
X53858Y-49114D02*
X59606Y-49114D01*
X53553Y-49419D02*
X53858Y-49114D01*
X61122Y-48799D02*
X60984Y-48937D01*
X60964Y-48956D02*
X59763Y-48956D01*
X60984Y-48937D02*
X60964Y-48956D01*
X54911Y-51072D02*
X54970Y-51072D01*
X56860Y-49734D02*
X57529Y-49734D01*
X57529Y-49734D02*
X57736Y-49527D01*
X57736Y-49527D02*
X60295Y-49527D01*
X60295Y-49527D02*
X60531Y-49291D01*
X56860Y-49734D02*
X56702Y-49891D01*
X57696Y-50875D02*
X57913Y-50875D01*
X58297Y-50492D02*
X58907Y-50492D01*
X57913Y-50875D02*
X58297Y-50492D01*
X61328Y-50226D02*
X61564Y-50226D01*
X61564Y-50226D02*
X61712Y-50078D01*
X59173Y-50226D02*
X61328Y-50226D01*
X58907Y-50492D02*
X59173Y-50226D01*
X57116Y-50875D02*
X57696Y-50875D01*
X57017Y-50974D02*
X57116Y-50875D01*
X57017Y-51161D02*
X57017Y-50974D01*
X56545Y-51387D02*
X56702Y-51230D01*
X56948Y-51230D02*
X57017Y-51161D01*
X56702Y-51230D02*
X56948Y-51230D01*
X61929Y-49931D02*
X61929Y-50157D01*
X61929Y-50157D02*
X61771Y-50314D01*
X61929Y-49862D02*
X62106Y-49685D01*
X61929Y-50108D02*
X61929Y-49931D01*
X61929Y-49931D02*
X61929Y-49862D01*
X61771Y-50314D02*
X59232Y-50314D01*
X59232Y-50314D02*
X58956Y-50590D01*
X58336Y-50590D02*
X58956Y-50590D01*
X57952Y-50974D02*
X58336Y-50590D01*
X57726Y-50974D02*
X57952Y-50974D01*
X57588Y-50974D02*
X57175Y-51387D01*
X57726Y-50974D02*
X57588Y-50974D01*
X60703Y-49837D02*
X59119Y-49837D01*
X59119Y-49837D02*
X58917Y-50039D01*
X60925Y-49616D02*
X60925Y-49291D01*
X60703Y-49837D02*
X60925Y-49616D01*
X57253Y-50039D02*
X56860Y-50433D01*
X58917Y-50039D02*
X57253Y-50039D01*
X56860Y-51072D02*
X56860Y-50433D01*
X61417Y-49931D02*
X61702Y-49931D01*
X61929Y-49704D02*
X61929Y-49566D01*
X61702Y-49931D02*
X61929Y-49704D01*
X62322Y-49173D02*
X62696Y-48799D01*
X62322Y-49370D02*
X62322Y-49173D01*
X62204Y-49488D02*
X62322Y-49370D01*
X62007Y-49488D02*
X62204Y-49488D01*
X61929Y-49566D02*
X62007Y-49488D01*
X59183Y-49931D02*
X61417Y-49931D01*
X58986Y-50127D02*
X59183Y-49931D01*
X57509Y-50127D02*
X58986Y-50127D01*
X57332Y-50305D02*
X57509Y-50127D01*
X57332Y-50679D02*
X57332Y-50305D01*
X57342Y-51732D02*
X57637Y-51732D01*
X58159Y-51210D02*
X58966Y-51210D01*
X57637Y-51732D02*
X58159Y-51210D01*
X60639Y-51013D02*
X60777Y-51013D01*
X58966Y-51210D02*
X59163Y-51013D01*
X59163Y-51013D02*
X60639Y-51013D01*
X60777Y-51013D02*
X60925Y-50866D01*
X54744Y-51732D02*
X57342Y-51732D01*
X54498Y-51486D02*
X54744Y-51732D01*
X54498Y-50679D02*
X54498Y-51486D01*
X63877Y-55000D02*
X63937Y-55000D01*
X63681Y-54803D02*
X63877Y-55000D01*
X77874Y-58011D02*
X79251Y-58011D01*
X77618Y-57755D02*
X77874Y-58011D01*
X70314Y-57755D02*
X77618Y-57755D01*
X70000Y-57440D02*
X70314Y-57755D01*
X69271Y-57440D02*
X70000Y-57440D01*
X68818Y-56988D02*
X69271Y-57440D01*
X67460Y-56988D02*
X68818Y-56988D01*
X67007Y-57440D02*
X67460Y-56988D01*
X66791Y-57440D02*
X67007Y-57440D01*
X66614Y-57263D02*
X66791Y-57440D01*
X66043Y-57263D02*
X66614Y-57263D01*
X64488Y-55708D02*
X66043Y-57263D01*
X64488Y-55551D02*
X64488Y-55708D01*
X63937Y-55000D02*
X64488Y-55551D01*
X71653Y-55413D02*
X73838Y-55413D01*
X73858Y-55433D02*
X73858Y-55413D01*
X73838Y-55413D02*
X73858Y-55433D01*
X78641Y-55610D02*
X77913Y-55610D01*
X69625Y-55413D02*
X71653Y-55413D01*
X68937Y-54724D02*
X69625Y-55413D01*
X73858Y-55413D02*
X77716Y-55413D01*
X68937Y-54724D02*
X66850Y-54724D01*
X77913Y-55610D02*
X77716Y-55413D01*
X51456Y-52677D02*
X51574Y-52677D01*
X58612Y-52933D02*
X58750Y-52795D01*
X53129Y-52933D02*
X58612Y-52933D01*
X53031Y-52834D02*
X53129Y-52933D01*
X51732Y-52834D02*
X53031Y-52834D01*
X51574Y-52677D02*
X51732Y-52834D01*
X51181Y-52519D02*
X51269Y-52519D01*
X51427Y-52677D02*
X51456Y-52677D01*
X51269Y-52519D02*
X51427Y-52677D01*
X60137Y-52834D02*
X59862Y-52834D01*
X59862Y-52834D02*
X59704Y-52677D01*
X58750Y-52795D02*
X59055Y-52795D01*
X59055Y-52795D02*
X59173Y-52677D01*
X59173Y-52677D02*
X59704Y-52677D01*
X53681Y-53051D02*
X58562Y-53051D01*
X51131Y-52677D02*
X51269Y-52677D01*
X53582Y-53149D02*
X53681Y-53051D01*
X51742Y-53149D02*
X53582Y-53149D01*
X51584Y-52992D02*
X51742Y-53149D01*
X51417Y-52992D02*
X51584Y-52992D01*
X51338Y-52913D02*
X51417Y-52992D01*
X51338Y-52746D02*
X51338Y-52913D01*
X51269Y-52677D02*
X51338Y-52746D01*
X58740Y-53228D02*
X58956Y-53228D01*
X58562Y-53051D02*
X58740Y-53228D01*
X51023Y-52677D02*
X51131Y-52677D01*
X58956Y-53228D02*
X59350Y-53622D01*
X50866Y-52519D02*
X51023Y-52677D01*
X50708Y-53100D02*
X50708Y-53248D01*
X50708Y-53248D02*
X51220Y-53759D01*
X51220Y-53759D02*
X53622Y-53759D01*
X51082Y-53622D02*
X50708Y-53248D01*
X53622Y-53759D02*
X53641Y-53779D01*
X50551Y-52519D02*
X50551Y-52834D01*
X50551Y-52834D02*
X50708Y-52992D01*
X50708Y-52992D02*
X50708Y-53100D01*
X53641Y-53779D02*
X58031Y-53779D01*
X58031Y-53779D02*
X58858Y-54606D01*
X57480Y-52362D02*
X57667Y-52362D01*
X58021Y-52007D02*
X58523Y-52007D01*
X57667Y-52362D02*
X58021Y-52007D01*
X53090Y-52421D02*
X54901Y-52421D01*
X60383Y-51801D02*
X60531Y-51653D01*
X59202Y-51801D02*
X60383Y-51801D01*
X58996Y-52007D02*
X59202Y-51801D01*
X58523Y-52007D02*
X58996Y-52007D01*
X54960Y-52362D02*
X57480Y-52362D01*
X54901Y-52421D02*
X54960Y-52362D01*
X51023Y-53021D02*
X51023Y-53346D01*
X53444Y-53641D02*
X53622Y-53464D01*
X51318Y-53641D02*
X53444Y-53641D01*
X51023Y-53346D02*
X51318Y-53641D01*
X53750Y-53464D02*
X53622Y-53464D01*
X53799Y-53464D02*
X53917Y-53464D01*
X54133Y-53681D02*
X58326Y-53681D01*
X53917Y-53464D02*
X54133Y-53681D01*
X58326Y-53681D02*
X58799Y-54153D01*
X53750Y-53464D02*
X53799Y-53464D01*
X50866Y-52834D02*
X51023Y-52992D01*
X51023Y-52992D02*
X51023Y-53021D01*
X58897Y-54212D02*
X58858Y-54212D01*
X58858Y-54212D02*
X58799Y-54153D01*
X58799Y-54153D02*
X58858Y-54212D01*
X51318Y-52362D02*
X51633Y-52362D01*
X51633Y-52362D02*
X51791Y-52519D01*
X58641Y-52500D02*
X58740Y-52401D01*
X55000Y-52500D02*
X58641Y-52500D01*
X54901Y-52598D02*
X55000Y-52500D01*
X52066Y-52598D02*
X54901Y-52598D01*
X51988Y-52519D02*
X52066Y-52598D01*
X51791Y-52519D02*
X51988Y-52519D01*
X51633Y-52362D02*
X51653Y-52342D01*
X60925Y-52440D02*
X60767Y-52283D01*
X59074Y-52401D02*
X58740Y-52401D01*
X59192Y-52283D02*
X59074Y-52401D01*
X60767Y-52283D02*
X59192Y-52283D01*
X50708Y-52362D02*
X50551Y-52204D01*
X51318Y-52362D02*
X50708Y-52362D01*
X56929Y-51998D02*
X57529Y-51998D01*
X58228Y-51299D02*
X58700Y-51299D01*
X57529Y-51998D02*
X58228Y-51299D01*
X51633Y-51417D02*
X51889Y-51417D01*
X51889Y-51417D02*
X52470Y-51998D01*
X59055Y-51299D02*
X59251Y-51102D01*
X58700Y-51299D02*
X59055Y-51299D01*
X52470Y-51998D02*
X56929Y-51998D01*
X51889Y-51417D02*
X52116Y-51643D01*
X50703Y-51737D02*
X50703Y-51500D01*
X50787Y-51417D02*
X51633Y-51417D01*
X51633Y-51417D02*
X51889Y-51417D01*
X50703Y-51500D02*
X50787Y-51417D01*
X50708Y-51732D02*
X50703Y-51737D01*
X50703Y-51737D02*
X50551Y-51889D01*
X60925Y-51259D02*
X60767Y-51102D01*
X60767Y-51102D02*
X59251Y-51102D01*
X57509Y-52214D02*
X57647Y-52214D01*
X58169Y-51692D02*
X58769Y-51692D01*
X57647Y-52214D02*
X58169Y-51692D01*
X59084Y-51692D02*
X59281Y-51496D01*
X58769Y-51692D02*
X59084Y-51692D01*
X60767Y-51496D02*
X60925Y-51653D01*
X59281Y-51496D02*
X60767Y-51496D01*
X51358Y-52047D02*
X51584Y-52047D01*
X51584Y-52047D02*
X51751Y-52214D01*
X51751Y-52214D02*
X57509Y-52214D01*
X51230Y-52047D02*
X51358Y-52047D01*
X50393Y-52047D02*
X51230Y-52047D01*
X50236Y-52204D02*
X50393Y-52047D01*
X57293Y-52086D02*
X57618Y-52086D01*
X58100Y-51604D02*
X58730Y-51604D01*
X57618Y-52086D02*
X58100Y-51604D01*
X51240Y-51732D02*
X51850Y-51732D01*
X59015Y-51604D02*
X59212Y-51407D01*
X59212Y-51407D02*
X60383Y-51407D01*
X60383Y-51407D02*
X60531Y-51259D01*
X58730Y-51604D02*
X59015Y-51604D01*
X52204Y-52086D02*
X57293Y-52086D01*
X51850Y-51732D02*
X52204Y-52086D01*
X50866Y-51889D02*
X51023Y-51732D01*
X51023Y-51732D02*
X51240Y-51732D01*
X52677Y-54094D02*
X53228Y-54645D01*
X53228Y-54645D02*
X55472Y-54645D01*
X50866Y-54094D02*
X52677Y-54094D01*
X55472Y-54645D02*
X56653Y-54645D01*
X56968Y-54645D02*
X57381Y-54232D01*
X56653Y-54645D02*
X56968Y-54645D01*
X58208Y-55866D02*
X53346Y-55866D01*
X53248Y-55767D02*
X53346Y-55866D01*
X53248Y-55767D02*
X53307Y-55826D01*
X51437Y-55177D02*
X51692Y-55433D01*
X52913Y-55433D02*
X53248Y-55767D01*
X51692Y-55433D02*
X52913Y-55433D01*
X51338Y-53198D02*
X51338Y-53080D01*
X51181Y-52923D02*
X51181Y-52834D01*
X51338Y-53080D02*
X51181Y-52923D01*
X51338Y-53198D02*
X51338Y-53228D01*
X53425Y-53523D02*
X53799Y-53149D01*
X51801Y-53523D02*
X53425Y-53523D01*
X51584Y-53307D02*
X51801Y-53523D01*
X51417Y-53307D02*
X51584Y-53307D01*
X51338Y-53228D02*
X51417Y-53307D01*
X53799Y-53149D02*
X57874Y-53149D01*
X58681Y-53464D02*
X58681Y-53602D01*
X58681Y-53602D02*
X58897Y-53818D01*
X57874Y-53149D02*
X58385Y-53149D01*
X58681Y-53444D02*
X58681Y-53464D01*
X58385Y-53149D02*
X58681Y-53444D01*
X66692Y-50551D02*
X65885Y-50551D01*
X65885Y-50551D02*
X65748Y-50688D01*
X66830Y-50551D02*
X66692Y-50551D01*
X69232Y-50236D02*
X69330Y-50236D01*
X68464Y-50236D02*
X69232Y-50236D01*
X68149Y-50551D02*
X68464Y-50236D01*
X66830Y-50551D02*
X68149Y-50551D01*
X64468Y-50866D02*
X64645Y-50688D01*
X64645Y-50688D02*
X65748Y-50688D01*
X60925Y-57952D02*
X60551Y-57952D01*
X59763Y-57165D02*
X59763Y-56850D01*
X60551Y-57952D02*
X59763Y-57165D01*
X69606Y-59232D02*
X69665Y-59173D01*
X69665Y-59173D02*
X78149Y-59173D01*
X66496Y-59173D02*
X66555Y-59232D01*
X66496Y-59173D02*
X66377Y-59055D01*
X66555Y-59232D02*
X69606Y-59232D01*
X65000Y-58996D02*
X66318Y-58996D01*
X66318Y-58996D02*
X66377Y-59055D01*
X59940Y-54606D02*
X59940Y-55000D01*
X59744Y-54409D02*
X59940Y-54606D01*
X59763Y-55177D02*
X59763Y-56850D01*
X59940Y-55000D02*
X59763Y-55177D01*
X60925Y-57952D02*
X63956Y-57952D01*
X63956Y-57952D02*
X65000Y-58996D01*
X60826Y-58070D02*
X60472Y-58070D01*
X59547Y-57145D02*
X59547Y-56850D01*
X60472Y-58070D02*
X59547Y-57145D01*
X65393Y-59173D02*
X65531Y-59311D01*
X65570Y-59350D02*
X77854Y-59350D01*
X65531Y-59311D02*
X65570Y-59350D01*
X64940Y-59114D02*
X65334Y-59114D01*
X59744Y-54015D02*
X59547Y-54212D01*
X59547Y-54212D02*
X59547Y-56850D01*
X63897Y-58070D02*
X64940Y-59114D01*
X60826Y-58070D02*
X63897Y-58070D01*
X65334Y-59114D02*
X65393Y-59173D01*
G54D16*
X68907Y-51387D02*
X74261Y-51387D01*
X74261Y-51387D02*
X74606Y-51043D01*
X76023Y-51043D02*
X76161Y-51043D01*
X62500Y-51259D02*
X62696Y-51062D01*
X62696Y-51062D02*
X65019Y-51062D01*
X65019Y-51062D02*
X65216Y-51259D01*
X65216Y-51259D02*
X66358Y-51259D01*
X66358Y-51259D02*
X66673Y-51574D01*
G54D15*
X66673Y-51574D02*
X68720Y-51574D01*
G54D16*
X68720Y-51574D02*
X68907Y-51387D01*
X74606Y-51043D02*
X76023Y-51043D01*
X62500Y-51653D02*
X62500Y-51259D01*
X82755Y-50196D02*
X82755Y-49370D01*
X81850Y-51102D02*
X82755Y-50196D01*
X80177Y-51102D02*
X81850Y-51102D01*
X79940Y-51338D02*
X80177Y-51102D01*
X76456Y-51338D02*
X79940Y-51338D01*
X76161Y-51043D02*
X76456Y-51338D01*
G54D15*
X50275Y-53503D02*
X50236Y-53464D01*
X58838Y-55688D02*
X58543Y-55393D01*
X58543Y-55393D02*
X53385Y-55393D01*
X59173Y-55688D02*
X58838Y-55688D01*
X64960Y-59448D02*
X60255Y-59448D01*
X60255Y-59448D02*
X60059Y-59251D01*
X77559Y-59448D02*
X77637Y-59527D01*
X77637Y-59527D02*
X78385Y-59527D01*
X53661Y-59448D02*
X50472Y-59448D01*
X53661Y-59448D02*
X53858Y-59251D01*
X53858Y-59251D02*
X60059Y-59251D01*
X64960Y-59448D02*
X77559Y-59448D01*
X70236Y-52992D02*
X73464Y-52992D01*
X73464Y-52992D02*
X73976Y-53503D01*
X75826Y-53582D02*
X75413Y-53582D01*
X77283Y-53582D02*
X77716Y-54015D01*
X77716Y-54015D02*
X82992Y-54015D01*
X82992Y-54015D02*
X83110Y-53897D01*
X83110Y-53897D02*
X83602Y-53897D01*
X83602Y-53897D02*
X83937Y-53562D01*
X77283Y-53582D02*
X75826Y-53582D01*
X75413Y-53582D02*
X75275Y-53720D01*
X75275Y-53720D02*
X74527Y-53720D01*
X74527Y-53720D02*
X74311Y-53503D01*
X74311Y-53503D02*
X73976Y-53503D01*
X68858Y-52992D02*
X70236Y-52992D01*
X68996Y-52992D02*
X69212Y-52992D01*
X64232Y-51889D02*
X64960Y-51889D01*
X64074Y-52047D02*
X64232Y-51889D01*
X68858Y-52992D02*
X68996Y-52992D01*
X68996Y-52992D02*
X69153Y-52992D01*
X68700Y-52834D02*
X68858Y-52992D01*
X67440Y-52834D02*
X68700Y-52834D01*
X67283Y-52677D02*
X67440Y-52834D01*
X66456Y-52677D02*
X67283Y-52677D01*
X65944Y-52165D02*
X66456Y-52677D01*
X65236Y-52165D02*
X65944Y-52165D01*
X64960Y-51889D02*
X65236Y-52165D01*
X74153Y-52874D02*
X69350Y-52874D01*
X69350Y-52874D02*
X69153Y-52677D01*
X75433Y-52874D02*
X76023Y-53464D01*
X74153Y-52874D02*
X75433Y-52874D01*
X83602Y-53562D02*
X79488Y-53562D01*
X79488Y-53562D02*
X79153Y-53897D01*
X79153Y-53897D02*
X77795Y-53897D01*
X77795Y-53897D02*
X77362Y-53464D01*
X77362Y-53464D02*
X76023Y-53464D01*
X69153Y-52677D02*
X68858Y-52677D01*
X68858Y-52677D02*
X68996Y-52677D01*
X69173Y-52677D02*
X68996Y-52677D01*
X65049Y-51801D02*
X65314Y-52066D01*
X65314Y-52066D02*
X66003Y-52066D01*
X66003Y-52066D02*
X66299Y-52362D01*
X66299Y-52362D02*
X67303Y-52362D01*
X67303Y-52362D02*
X67460Y-52519D01*
X67460Y-52519D02*
X68700Y-52519D01*
X68700Y-52519D02*
X68858Y-52677D01*
X63681Y-52047D02*
X63927Y-51801D01*
X63927Y-51801D02*
X65049Y-51801D01*
X74291Y-52755D02*
X69606Y-52755D01*
X69606Y-52755D02*
X69212Y-52362D01*
X74291Y-52755D02*
X75807Y-52755D01*
X68858Y-52362D02*
X69212Y-52362D01*
X67381Y-52047D02*
X66456Y-52047D01*
X67539Y-52204D02*
X67381Y-52047D01*
X68700Y-52204D02*
X67539Y-52204D01*
X68858Y-52362D02*
X68700Y-52204D01*
X65009Y-51505D02*
X65206Y-51702D01*
X65206Y-51702D02*
X66112Y-51702D01*
X66112Y-51702D02*
X66456Y-52047D01*
X64074Y-51653D02*
X64212Y-51515D01*
X64222Y-51505D02*
X64665Y-51505D01*
X64212Y-51515D02*
X64222Y-51505D01*
X64665Y-51505D02*
X65009Y-51505D01*
X83543Y-50098D02*
X83326Y-49881D01*
X83543Y-50531D02*
X83543Y-50098D01*
X83385Y-50688D02*
X83543Y-50531D01*
X82696Y-50688D02*
X83385Y-50688D01*
X81279Y-52106D02*
X82696Y-50688D01*
X76456Y-52106D02*
X81279Y-52106D01*
X75807Y-52755D02*
X76456Y-52106D01*
X70177Y-52047D02*
X71062Y-52047D01*
X75354Y-51456D02*
X76141Y-51456D01*
X75236Y-51574D02*
X75354Y-51456D01*
X71535Y-51574D02*
X75236Y-51574D01*
X71062Y-52047D02*
X71535Y-51574D01*
X69173Y-52047D02*
X70177Y-52047D01*
X76141Y-51456D02*
X80019Y-51456D01*
X80019Y-51456D02*
X80236Y-51240D01*
X80236Y-51240D02*
X81909Y-51240D01*
X81909Y-51240D02*
X82775Y-50374D01*
X82775Y-50374D02*
X83326Y-50374D01*
X68858Y-52047D02*
X69173Y-52047D01*
X66279Y-51732D02*
X67342Y-51732D01*
X68700Y-51889D02*
X68858Y-52047D01*
X67500Y-51889D02*
X68700Y-51889D01*
X67342Y-51732D02*
X67500Y-51889D01*
X64990Y-51407D02*
X65068Y-51407D01*
X63681Y-51653D02*
X63927Y-51407D01*
X63927Y-51407D02*
X64744Y-51407D01*
X64744Y-51407D02*
X64990Y-51407D01*
X66161Y-51614D02*
X66279Y-51732D01*
X65275Y-51614D02*
X66161Y-51614D01*
X65068Y-51407D02*
X65275Y-51614D01*
M02*
