G04 start of page 4 for group 2 idx 2 *
G04 Title: (unknown), outline *
G04 Creator: pcb 20110918 *
G04 CreationDate: Wed Aug  7 17:59:57 2013 UTC *
G04 For: mokus *
G04 Format: Gerber/RS-274X *
G04 PCB-Dimensions: 210000 80000 *
G04 PCB-Coordinate-Origin: lower left *
%MOIN*%
%FSLAX25Y25*%
%LNOUTLINE*%
%ADD41C,0.0100*%
G54D41*X0Y5000D02*Y75000D01*
X210000D02*Y5000D01*
X5000Y80000D02*X205000D01*
X5000Y0D02*X205000D01*
X0Y75000D02*G75*G02X5000Y80000I5000J0D01*G01*
X205000D02*G75*G02X210000Y75000I0J-5000D01*G01*
X205000Y0D02*G75*G03X210000Y5000I0J5000D01*G01*
X0D02*G75*G03X5000Y0I5000J0D01*G01*
M02*
