G04 DipTrace 2.3.0.1*
%INbluetooth_modul_bot.gbr*%
%MOIN*%
%ADD13C,0.0197*%
%ADD14C,0.025*%
%ADD15C,0.013*%
%ADD17R,0.0945X0.0945*%
%ADD18R,0.0591X0.0512*%
%ADD19R,0.0591X0.0591*%
%ADD20C,0.0591*%
%ADD21R,0.063X0.0492*%
%ADD22R,0.0689X0.0433*%
%ADD23R,0.0689X0.1378*%
%ADD25R,0.0335X0.0394*%
%ADD26R,0.0394X0.0335*%
%ADD27R,0.0433X0.0394*%
%ADD28R,0.063X0.0709*%
%ADD32C,0.04*%
%FSLAX44Y44*%
G04*
G70*
G90*
G75*
G01*
%LNBottom*%
%LPD*%
X11633Y11881D2*
D13*
Y12637D1*
X11850Y12854D1*
X12480D1*
X10420Y9216D2*
X9613D1*
Y9212D1*
X6082Y12252D2*
X5889Y12058D1*
Y11806D1*
X5775Y11692D1*
Y10334D2*
X5113D1*
X4917Y10531D1*
X9239Y10157D2*
X7731D1*
X7480Y9905D1*
X9239Y10157D2*
X10535D1*
X6535Y9531D2*
X4917D1*
Y11531D2*
Y11354D1*
X5255Y11015D1*
X10535D1*
X10531Y11881D2*
Y11019D1*
X10535Y11015D1*
X11090Y9216D2*
Y12377D1*
X10621Y12846D1*
X6039D1*
X9259Y7224D2*
X9255Y7228D1*
X8208D1*
X5850Y7239D2*
X5861Y7228D1*
X8208D1*
X11857Y7224D2*
Y8082D1*
X11814D1*
Y9980D1*
X11637Y10157D1*
X13294Y8086D2*
X12440Y8082D1*
X11857D1*
X12440Y8444D2*
Y8082D1*
X11637Y11015D2*
X12247D1*
X12507Y11275D1*
Y11661D1*
X12700Y12267D2*
X12779D1*
X12696Y10472D2*
X12763Y10460D1*
X12464Y5361D2*
X12436Y5389D1*
X5719Y5756D2*
X5755Y5720D1*
X12082Y4535D2*
X12161Y4519D1*
X12196D1*
X9259Y8129D2*
X9243Y8113D1*
X6806D1*
X6283D1*
X5357Y9039D1*
X4606D1*
X4259Y9385D1*
Y11873D1*
X4917Y12531D1*
D32*
X12480Y12854D3*
D3*
X6082Y12252D3*
X6039Y12846D3*
X5850Y7239D3*
X12507Y11661D3*
D3*
X12700Y12267D3*
X12696Y10472D3*
X12464Y5361D3*
X5719Y5756D3*
X12082Y4535D3*
X12440Y8444D3*
X6561Y12440D2*
D14*
X9898D1*
X12772D2*
X14312D1*
X6596Y12192D2*
X9898D1*
X12264D2*
X14316D1*
X6491Y11943D2*
X9898D1*
X12936D2*
X14316D1*
X6409Y11694D2*
X9898D1*
X13022D2*
X14316D1*
X6409Y11446D2*
X9898D1*
X12975D2*
X14316D1*
X12917Y11197D2*
X14316D1*
X12757Y10948D2*
X14316D1*
X12503Y10700D2*
X14316D1*
X6409Y10451D2*
X7449D1*
X12268D2*
X14316D1*
X6409Y10202D2*
X6964D1*
X12268D2*
X12703D1*
X13210D2*
X13342D1*
X12268Y9954D2*
X12421D1*
X7995Y9705D2*
X8753D1*
X7995Y9456D2*
X8382D1*
X12229D2*
X12378D1*
X7995Y9208D2*
X8382D1*
X12229D2*
X12558D1*
X6014Y8959D2*
X6964D1*
X7995D2*
X8382D1*
X12229D2*
X14316D1*
X4147Y8710D2*
X4334D1*
X7995D2*
X11398D1*
X14085D2*
X14316D1*
X4147Y8461D2*
X4310D1*
X9921D2*
X11398D1*
X14085D2*
X14316D1*
X4147Y8213D2*
X4398D1*
X5436D2*
X5605D1*
X9921D2*
X11398D1*
X14085D2*
X14316D1*
X4147Y7964D2*
X4734D1*
X5096D2*
X5855D1*
X9921D2*
X11195D1*
X14085D2*
X14316D1*
X4147Y7715D2*
X5699D1*
X9921D2*
X11195D1*
X14085D2*
X14316D1*
X4147Y7467D2*
X5386D1*
X9921D2*
X11195D1*
X14085D2*
X14316D1*
X4147Y7218D2*
X5332D1*
X9921D2*
X11195D1*
X12518D2*
X14316D1*
X4147Y6969D2*
X5414D1*
X9921D2*
X11195D1*
X14085D2*
X14316D1*
X4147Y6721D2*
X6015D1*
X9921D2*
X11195D1*
X14085D2*
X14316D1*
X4147Y6472D2*
X6015D1*
X9921D2*
X11195D1*
X14085D2*
X14316D1*
X4147Y6223D2*
X6015D1*
X9921D2*
X12503D1*
X14085D2*
X14316D1*
X4147Y5975D2*
X6015D1*
X9921D2*
X12503D1*
X14085D2*
X14316D1*
X4147Y5726D2*
X6015D1*
X7596D2*
X12503D1*
X14085D2*
X14316D1*
X4147Y5477D2*
X14316D1*
X4147Y5229D2*
X14316D1*
X4147Y4980D2*
X14316D1*
X4147Y4731D2*
X14316D1*
X4147Y4482D2*
X14316D1*
X4147Y4234D2*
X14316D1*
X6382Y10626D2*
Y9993D1*
X6988Y9991D1*
X6990Y10365D1*
X7385D1*
X7455Y10433D1*
X7556Y10506D1*
X7679Y10543D1*
X7731Y10548D1*
X8782D1*
X8660Y10624D1*
X6382D1*
Y11860D2*
Y11406D1*
X9923D1*
Y12457D1*
X7996Y12455D1*
X6531D1*
X6566Y12345D1*
X6575Y12252D1*
X6559Y12128D1*
X6513Y12012D1*
X6439Y11912D1*
X6381Y11865D1*
X12244Y10628D2*
Y9510D1*
X12201D1*
X12205Y9105D1*
Y8874D1*
X12250Y8898D1*
X12370Y8931D1*
X12494Y8934D1*
X12615Y8904D1*
X12715Y8851D1*
X14059D1*
Y7321D1*
X12530D1*
Y7692D1*
X12494Y7580D1*
Y6242D1*
X11221D1*
Y8205D1*
X11423Y8207D1*
Y8726D1*
X10581Y8730D1*
X10179Y8726D1*
X9948Y8722D1*
X9154Y8726D1*
X9100Y8722D1*
X8406D1*
Y9701D1*
X8780D1*
X8739Y9766D1*
X7970D1*
X7965Y9445D1*
X7969Y9391D1*
Y8697D1*
X7571D1*
Y8507D1*
X8623Y8504D1*
X8622Y8638D1*
X9896D1*
X9892Y7620D1*
X9896Y7358D1*
X9892Y6715D1*
X9896Y6602D1*
Y5809D1*
X8622D1*
X8621Y5931D1*
X7620D1*
Y6839D1*
X7571Y6837D1*
Y5616D1*
X6041D1*
Y6786D1*
X5873Y6747D1*
X5749Y6757D1*
X5631Y6798D1*
X5527Y6867D1*
X5444Y6960D1*
X5387Y7071D1*
X5359Y7192D1*
X5363Y7317D1*
X5398Y7437D1*
X5462Y7544D1*
X5551Y7631D1*
X5659Y7693D1*
X5779Y7727D1*
X5904Y7729D1*
X6042Y7690D1*
X6041Y7805D1*
X5479Y8365D1*
X5452Y8288D1*
X5389Y8181D1*
X5304Y8089D1*
X5202Y8017D1*
X5087Y7968D1*
X4965Y7945D1*
X4840Y7948D1*
X4719Y7977D1*
X4606Y8031D1*
X4508Y8108D1*
X4428Y8204D1*
X4370Y8314D1*
X4337Y8435D1*
X4329Y8559D1*
X4349Y8682D1*
X4364Y8731D1*
X4122Y8969D1*
X4124Y4160D1*
X14343Y4164D1*
X14340Y9074D1*
X13368Y9073D1*
Y9241D1*
X13242Y9147D1*
X13127Y9098D1*
X13004Y9075D1*
X12879Y9078D1*
X12758Y9107D1*
X12646Y9161D1*
X12547Y9238D1*
X12467Y9334D1*
X12409Y9444D1*
X12376Y9565D1*
X12369Y9689D1*
X12388Y9812D1*
X12433Y9929D1*
X12501Y10033D1*
X12590Y10121D1*
X12696Y10188D1*
X12813Y10231D1*
X12936Y10248D1*
X13061Y10239D1*
X13180Y10204D1*
X13290Y10144D1*
X13370Y10076D1*
X13368Y10248D1*
X14341D1*
X14339Y12689D1*
X12944Y12687D1*
X12910Y12614D1*
X12836Y12514D1*
X12739Y12435D1*
X12626Y12383D1*
X12503Y12362D1*
X12379Y12371D1*
X12238Y12427D1*
X12241Y12071D1*
X12316Y12115D1*
X12437Y12148D1*
X12561Y12150D1*
X12682Y12121D1*
X12792Y12062D1*
X12884Y11978D1*
X12952Y11873D1*
X12991Y11754D1*
X13000Y11661D1*
X12984Y11537D1*
X12937Y11421D1*
X12898Y11368D1*
Y11275D1*
X12878Y11152D1*
X12818Y11039D1*
X12784Y10998D1*
X12524Y10739D1*
X12423Y10666D1*
X12300Y10628D1*
X12243Y10624D1*
X12241Y10368D1*
X12555Y7118D2*
X14059D1*
Y5589D1*
X12530D1*
Y7118D1*
X12555D1*
X6069Y8878D2*
X6991D1*
X6990Y9071D1*
X6045D1*
Y9137D1*
X5811Y9138D1*
X6073Y8876D1*
X12940Y12690D2*
X12910Y12614D1*
X12836Y12514D1*
X12739Y12435D1*
X12626Y12383D1*
X12503Y12362D1*
X12379Y12371D1*
X12238Y12427D1*
X12239Y12070D2*
X12316Y12115D1*
X12437Y12148D1*
X12561Y12150D1*
X12682Y12121D1*
X12792Y12062D1*
X12884Y11978D1*
X12952Y11873D1*
X12991Y11754D1*
X13000Y11661D1*
X12984Y11537D1*
X12937Y11421D1*
X12898Y11368D1*
X12890Y11196D1*
X12846Y11080D1*
X8208Y6480D2*
D15*
Y5932D1*
X7621Y6480D2*
X8208D1*
X13294Y7118D2*
Y5589D1*
X12530Y6354D2*
X14059D1*
X6806Y6381D2*
Y5617D1*
X6042Y6381D2*
X7571D1*
X9259Y6318D2*
Y5810D1*
Y6318D2*
X9896D1*
X4917Y8531D2*
X5332Y8115D1*
X4917Y8531D2*
X4501Y8115D1*
X8865Y9701D2*
Y8723D1*
X8406Y9212D2*
X8865D1*
X7480Y9157D2*
Y8697D1*
X6991Y9157D2*
X7968D1*
D17*
X6806Y6381D3*
Y8113D3*
X13294Y6354D3*
Y8086D3*
D18*
X8208Y6480D3*
Y7228D3*
D19*
X4917Y12531D3*
D20*
Y11531D3*
Y10531D3*
Y9531D3*
Y8531D3*
D21*
X5775Y10334D3*
Y11692D3*
D22*
X9259Y6318D3*
Y7224D3*
Y8129D3*
D23*
X11857Y7224D3*
D25*
X9613Y9212D3*
X8865D3*
X9239Y10157D3*
D26*
X7480Y9905D3*
Y9157D3*
X6535Y9531D3*
D28*
X11633Y11881D3*
X10531D3*
X11637Y11015D3*
X10535D3*
X11637Y10157D3*
X10535D3*
D27*
X11090Y9216D3*
X10420D3*
D19*
X13956Y9661D3*
D20*
X12956D3*
M02*
