G04 #@! TF.FileFunction,Copper,L2,Bot,Signal*
%FSLAX46Y46*%
G04 Gerber Fmt 4.6, Leading zero omitted, Abs format (unit mm)*
G04 Created by KiCad (PCBNEW 4.0.1-stable) date 2/14/2016 2:05:54 PM*
%MOMM*%
G01*
G04 APERTURE LIST*
%ADD10C,0.150000*%
%ADD11R,1.250000X1.500000*%
%ADD12C,2.000000*%
%ADD13R,2.032000X1.727200*%
%ADD14O,2.032000X1.727200*%
%ADD15R,0.600000X1.550000*%
%ADD16C,0.889000*%
%ADD17C,0.203200*%
%ADD18C,0.254000*%
G04 APERTURE END LIST*
D10*
D11*
X42672000Y-47010000D03*
X42672000Y-49510000D03*
D12*
X47752000Y-35172000D03*
X50292000Y-35172000D03*
X52832000Y-35172000D03*
X52832000Y-49672000D03*
X47752000Y-49672000D03*
D13*
X58166000Y-37084000D03*
D14*
X58166000Y-39624000D03*
X58166000Y-42164000D03*
X58166000Y-44704000D03*
X58166000Y-47244000D03*
X58166000Y-49784000D03*
D13*
X42672000Y-35560000D03*
D14*
X42672000Y-38100000D03*
X42672000Y-40640000D03*
D15*
X51943000Y-47150000D03*
X50673000Y-47150000D03*
X49403000Y-47150000D03*
X48133000Y-47150000D03*
X48133000Y-41750000D03*
X49403000Y-41750000D03*
X50673000Y-41750000D03*
X51943000Y-41750000D03*
D16*
X54610000Y-37592000D03*
X50546000Y-43434000D03*
X55372000Y-48387000D03*
X44196000Y-44958000D03*
X48260000Y-44704000D03*
X54102000Y-47244000D03*
X51816000Y-43434000D03*
X50546000Y-48514000D03*
X51816000Y-45720000D03*
D17*
X54610000Y-37592000D02*
X48514000Y-37592000D01*
X47752000Y-36830000D02*
X47752000Y-35172000D01*
X48514000Y-37592000D02*
X47752000Y-36830000D01*
X47752000Y-35172000D02*
X47752000Y-35814000D01*
X52832000Y-35172000D02*
X54730000Y-35172000D01*
X56642000Y-37084000D02*
X58166000Y-37084000D01*
X54730000Y-35172000D02*
X56642000Y-37084000D01*
X56007000Y-44450000D02*
X58166000Y-42291000D01*
X58166000Y-42291000D02*
X58166000Y-42164000D01*
X49403000Y-47150000D02*
X49403000Y-44577000D01*
X49403000Y-44577000D02*
X50546000Y-43434000D01*
X56007000Y-44450000D02*
X51562000Y-44450000D01*
X51562000Y-44450000D02*
X50546000Y-43434000D01*
X58166000Y-42164000D02*
X57404000Y-42164000D01*
X42672000Y-47010000D02*
X42672000Y-46482000D01*
X42672000Y-46482000D02*
X44196000Y-44958000D01*
X56515000Y-47244000D02*
X58166000Y-47244000D01*
X55372000Y-48387000D02*
X56515000Y-47244000D01*
X44196000Y-44958000D02*
X44450000Y-44704000D01*
X44450000Y-44704000D02*
X48260000Y-44704000D01*
X50292000Y-35172000D02*
X50299000Y-35172000D01*
X47752000Y-49672000D02*
X47483000Y-49672000D01*
X47483000Y-49672000D02*
X46482000Y-50673000D01*
X47752000Y-49672000D02*
X48021000Y-49672000D01*
X48021000Y-49672000D02*
X49022000Y-50673000D01*
X58166000Y-49784000D02*
X58547000Y-49784000D01*
X58547000Y-49784000D02*
X59563000Y-48768000D01*
X51943000Y-41750000D02*
X51943000Y-43307000D01*
X51943000Y-43307000D02*
X51816000Y-43434000D01*
X50546000Y-48514000D02*
X50673000Y-48387000D01*
X50673000Y-48387000D02*
X50673000Y-47150000D01*
X51816000Y-45720000D02*
X51943000Y-45847000D01*
X51943000Y-45847000D02*
X51943000Y-47150000D01*
X50673000Y-41750000D02*
X50673000Y-40513000D01*
X46228000Y-39116000D02*
X42672000Y-35560000D01*
X49276000Y-39116000D02*
X46228000Y-39116000D01*
X50673000Y-40513000D02*
X49276000Y-39116000D01*
X50673000Y-41750000D02*
X50673000Y-41021000D01*
X49403000Y-41750000D02*
X49403000Y-40767000D01*
X44450000Y-39878000D02*
X42672000Y-38100000D01*
X48514000Y-39878000D02*
X44450000Y-39878000D01*
X49403000Y-40767000D02*
X48514000Y-39878000D01*
X49403000Y-41750000D02*
X49403000Y-41275000D01*
X48133000Y-41750000D02*
X47592000Y-41750000D01*
X46482000Y-40640000D02*
X42672000Y-40640000D01*
X47592000Y-41750000D02*
X46482000Y-40640000D01*
D18*
G36*
X49906540Y-33550144D02*
X49417736Y-33752613D01*
X49319073Y-34019468D01*
X50292000Y-34992395D01*
X51264927Y-34019468D01*
X51166264Y-33752613D01*
X50595859Y-33540700D01*
X59384714Y-33540700D01*
X59524437Y-33568493D01*
X59599411Y-33618589D01*
X59649507Y-33693563D01*
X59677300Y-33833286D01*
X59677300Y-49215296D01*
X59516732Y-48881964D01*
X59080320Y-48492046D01*
X58807757Y-48396704D01*
X58822057Y-48393860D01*
X59225834Y-48124065D01*
X59495629Y-47720288D01*
X59590369Y-47244000D01*
X59495629Y-46767712D01*
X59225834Y-46363935D01*
X58822057Y-46094140D01*
X58345769Y-45999400D01*
X57986231Y-45999400D01*
X57509943Y-46094140D01*
X57106166Y-46363935D01*
X56840589Y-46761400D01*
X56515000Y-46761400D01*
X56330317Y-46798136D01*
X56173750Y-46902750D01*
X55514876Y-47561624D01*
X55208518Y-47561357D01*
X54905002Y-47686767D01*
X54672583Y-47918781D01*
X54546643Y-48222077D01*
X54546357Y-48550482D01*
X54671767Y-48853998D01*
X54903781Y-49086417D01*
X55207077Y-49212357D01*
X55535482Y-49212643D01*
X55838998Y-49087233D01*
X56071417Y-48855219D01*
X56197357Y-48551923D01*
X56197625Y-48243875D01*
X56714900Y-47726600D01*
X56840589Y-47726600D01*
X57106166Y-48124065D01*
X57509943Y-48393860D01*
X57524243Y-48396704D01*
X57251680Y-48492046D01*
X56815268Y-48881964D01*
X56561291Y-49409209D01*
X56558642Y-49424974D01*
X56679783Y-49657000D01*
X58039000Y-49657000D01*
X58039000Y-49637000D01*
X58293000Y-49637000D01*
X58293000Y-49657000D01*
X58313000Y-49657000D01*
X58313000Y-49911000D01*
X58293000Y-49911000D01*
X58293000Y-49931000D01*
X58039000Y-49931000D01*
X58039000Y-49911000D01*
X56679783Y-49911000D01*
X56558642Y-50143026D01*
X56561291Y-50158791D01*
X56815268Y-50686036D01*
X56928607Y-50787300D01*
X53669486Y-50787300D01*
X54002072Y-50455295D01*
X54212759Y-49947903D01*
X54213239Y-49398507D01*
X54003437Y-48890749D01*
X53615295Y-48501928D01*
X53107903Y-48291241D01*
X52558507Y-48290761D01*
X52050749Y-48500563D01*
X51661928Y-48888705D01*
X51451241Y-49396097D01*
X51450761Y-49945493D01*
X51660563Y-50453251D01*
X51994029Y-50787300D01*
X48990720Y-50787300D01*
X49018814Y-50759206D01*
X48904534Y-50644926D01*
X49171387Y-50546264D01*
X49397908Y-49936539D01*
X49373856Y-49286540D01*
X49171387Y-48797736D01*
X48904532Y-48699073D01*
X47931605Y-49672000D01*
X47945748Y-49686143D01*
X47766143Y-49865748D01*
X47752000Y-49851605D01*
X47737858Y-49865748D01*
X47558253Y-49686143D01*
X47572395Y-49672000D01*
X46599468Y-48699073D01*
X46332613Y-48797736D01*
X46106092Y-49407461D01*
X46130144Y-50057460D01*
X46332613Y-50546264D01*
X46599466Y-50644926D01*
X46485186Y-50759206D01*
X46513280Y-50787300D01*
X43667726Y-50787300D01*
X43835327Y-50619698D01*
X43932000Y-50386309D01*
X43932000Y-49795750D01*
X43773250Y-49637000D01*
X42799000Y-49637000D01*
X42799000Y-49657000D01*
X42545000Y-49657000D01*
X42545000Y-49637000D01*
X41570750Y-49637000D01*
X41412000Y-49795750D01*
X41412000Y-50386309D01*
X41508673Y-50619698D01*
X41676274Y-50787300D01*
X41453286Y-50787300D01*
X41313563Y-50759507D01*
X41238589Y-50709411D01*
X41188493Y-50634437D01*
X41160700Y-50494714D01*
X41160700Y-42965297D01*
X43710743Y-42965297D01*
X43935737Y-43509823D01*
X44351985Y-43926799D01*
X44896118Y-44152743D01*
X45485297Y-44153257D01*
X46029823Y-43928263D01*
X46446799Y-43512015D01*
X46672743Y-42967882D01*
X46673257Y-42378703D01*
X46448263Y-41834177D01*
X46032015Y-41417201D01*
X45487882Y-41191257D01*
X44898703Y-41190743D01*
X44354177Y-41415737D01*
X43937201Y-41831985D01*
X43711257Y-42376118D01*
X43710743Y-42965297D01*
X41160700Y-42965297D01*
X41160700Y-38100000D01*
X41247631Y-38100000D01*
X41342371Y-38576288D01*
X41612166Y-38980065D01*
X42015943Y-39249860D01*
X42492231Y-39344600D01*
X42851769Y-39344600D01*
X43170667Y-39281167D01*
X43483511Y-39594011D01*
X43328057Y-39490140D01*
X42851769Y-39395400D01*
X42492231Y-39395400D01*
X42015943Y-39490140D01*
X41612166Y-39759935D01*
X41342371Y-40163712D01*
X41247631Y-40640000D01*
X41342371Y-41116288D01*
X41612166Y-41520065D01*
X42015943Y-41789860D01*
X42492231Y-41884600D01*
X42851769Y-41884600D01*
X43328057Y-41789860D01*
X43731834Y-41520065D01*
X43997411Y-41122600D01*
X46282100Y-41122600D01*
X47250750Y-42091250D01*
X47407317Y-42195864D01*
X47444536Y-42203267D01*
X47444536Y-42525000D01*
X47471103Y-42666190D01*
X47554546Y-42795865D01*
X47681866Y-42882859D01*
X47833000Y-42913464D01*
X48433000Y-42913464D01*
X48574190Y-42886897D01*
X48703865Y-42803454D01*
X48768530Y-42708813D01*
X48824546Y-42795865D01*
X48951866Y-42882859D01*
X49103000Y-42913464D01*
X49703000Y-42913464D01*
X49844190Y-42886897D01*
X49973865Y-42803454D01*
X50038530Y-42708813D01*
X50064136Y-42748607D01*
X49846583Y-42965781D01*
X49720643Y-43269077D01*
X49720375Y-43577125D01*
X49061750Y-44235750D01*
X48998703Y-44330107D01*
X48960233Y-44237002D01*
X48728219Y-44004583D01*
X48424923Y-43878643D01*
X48096518Y-43878357D01*
X47793002Y-44003767D01*
X47574989Y-44221400D01*
X44574673Y-44221400D01*
X44360923Y-44132643D01*
X44032518Y-44132357D01*
X43729002Y-44257767D01*
X43496583Y-44489781D01*
X43370643Y-44793077D01*
X43370375Y-45101126D01*
X42599964Y-45871536D01*
X42047000Y-45871536D01*
X41905810Y-45898103D01*
X41776135Y-45981546D01*
X41689141Y-46108866D01*
X41658536Y-46260000D01*
X41658536Y-47760000D01*
X41685103Y-47901190D01*
X41768546Y-48030865D01*
X41895866Y-48117859D01*
X41931130Y-48125000D01*
X41920690Y-48125000D01*
X41687301Y-48221673D01*
X41508673Y-48400302D01*
X41412000Y-48633691D01*
X41412000Y-49224250D01*
X41570750Y-49383000D01*
X42545000Y-49383000D01*
X42545000Y-49363000D01*
X42799000Y-49363000D01*
X42799000Y-49383000D01*
X43773250Y-49383000D01*
X43932000Y-49224250D01*
X43932000Y-48633691D01*
X43835327Y-48400302D01*
X43656699Y-48221673D01*
X43423310Y-48125000D01*
X43421699Y-48125000D01*
X43438190Y-48121897D01*
X43567865Y-48038454D01*
X43654859Y-47911134D01*
X43685464Y-47760000D01*
X43685464Y-46260000D01*
X43683337Y-46248691D01*
X47198000Y-46248691D01*
X47198000Y-46864250D01*
X47356750Y-47023000D01*
X48006000Y-47023000D01*
X48006000Y-45898750D01*
X47847250Y-45740000D01*
X47706690Y-45740000D01*
X47473301Y-45836673D01*
X47294673Y-46015302D01*
X47198000Y-46248691D01*
X43683337Y-46248691D01*
X43668208Y-46168292D01*
X44053123Y-45783376D01*
X44359482Y-45783643D01*
X44662998Y-45658233D01*
X44895417Y-45426219D01*
X44994916Y-45186600D01*
X47575342Y-45186600D01*
X47791781Y-45403417D01*
X48095077Y-45529357D01*
X48423482Y-45529643D01*
X48726998Y-45404233D01*
X48920400Y-45211168D01*
X48920400Y-45964375D01*
X48792699Y-45836673D01*
X48559310Y-45740000D01*
X48418750Y-45740000D01*
X48260000Y-45898750D01*
X48260000Y-47023000D01*
X48280000Y-47023000D01*
X48280000Y-47277000D01*
X48260000Y-47277000D01*
X48260000Y-47297000D01*
X48006000Y-47297000D01*
X48006000Y-47277000D01*
X47356750Y-47277000D01*
X47198000Y-47435750D01*
X47198000Y-48051309D01*
X47222270Y-48109902D01*
X46877736Y-48252613D01*
X46779073Y-48519468D01*
X47752000Y-49492395D01*
X48724927Y-48519468D01*
X48715927Y-48495127D01*
X48792699Y-48463327D01*
X48969579Y-48286446D01*
X49103000Y-48313464D01*
X49703000Y-48313464D01*
X49738180Y-48306844D01*
X49720643Y-48349077D01*
X49720357Y-48677482D01*
X49845767Y-48980998D01*
X50077781Y-49213417D01*
X50381077Y-49339357D01*
X50709482Y-49339643D01*
X51012998Y-49214233D01*
X51245417Y-48982219D01*
X51371357Y-48678923D01*
X51371643Y-48350518D01*
X51285625Y-48142337D01*
X51308530Y-48108813D01*
X51364546Y-48195865D01*
X51491866Y-48282859D01*
X51643000Y-48313464D01*
X52243000Y-48313464D01*
X52384190Y-48286897D01*
X52513865Y-48203454D01*
X52600859Y-48076134D01*
X52631464Y-47925000D01*
X52631464Y-46375000D01*
X52604897Y-46233810D01*
X52539006Y-46131411D01*
X52641357Y-45884923D01*
X52641643Y-45556518D01*
X52516233Y-45253002D01*
X52284219Y-45020583D01*
X52072333Y-44932600D01*
X56007000Y-44932600D01*
X56191683Y-44895864D01*
X56348250Y-44791250D01*
X56817645Y-44321855D01*
X56741631Y-44704000D01*
X56836371Y-45180288D01*
X57106166Y-45584065D01*
X57509943Y-45853860D01*
X57986231Y-45948600D01*
X58345769Y-45948600D01*
X58822057Y-45853860D01*
X59225834Y-45584065D01*
X59495629Y-45180288D01*
X59590369Y-44704000D01*
X59495629Y-44227712D01*
X59225834Y-43823935D01*
X58822057Y-43554140D01*
X58345769Y-43459400D01*
X57986231Y-43459400D01*
X57604086Y-43535414D01*
X57773262Y-43366238D01*
X57986231Y-43408600D01*
X58345769Y-43408600D01*
X58822057Y-43313860D01*
X59225834Y-43044065D01*
X59495629Y-42640288D01*
X59590369Y-42164000D01*
X59495629Y-41687712D01*
X59225834Y-41283935D01*
X58822057Y-41014140D01*
X58345769Y-40919400D01*
X57986231Y-40919400D01*
X57509943Y-41014140D01*
X57106166Y-41283935D01*
X56836371Y-41687712D01*
X56755576Y-42093894D01*
X56648263Y-41834177D01*
X56232015Y-41417201D01*
X55687882Y-41191257D01*
X55098703Y-41190743D01*
X54554177Y-41415737D01*
X54137201Y-41831985D01*
X53911257Y-42376118D01*
X53910743Y-42965297D01*
X54135737Y-43509823D01*
X54551985Y-43926799D01*
X54649763Y-43967400D01*
X52450122Y-43967400D01*
X52515417Y-43902219D01*
X52641357Y-43598923D01*
X52641643Y-43270518D01*
X52516233Y-42967002D01*
X52425600Y-42876211D01*
X52425600Y-42860251D01*
X52513865Y-42803454D01*
X52600859Y-42676134D01*
X52631464Y-42525000D01*
X52631464Y-40975000D01*
X52604897Y-40833810D01*
X52521454Y-40704135D01*
X52394134Y-40617141D01*
X52243000Y-40586536D01*
X51643000Y-40586536D01*
X51501810Y-40613103D01*
X51372135Y-40696546D01*
X51307470Y-40791187D01*
X51251454Y-40704135D01*
X51155600Y-40638641D01*
X51155600Y-40513000D01*
X51118864Y-40328317D01*
X51014250Y-40171750D01*
X51014247Y-40171748D01*
X50466500Y-39624000D01*
X56741631Y-39624000D01*
X56836371Y-40100288D01*
X57106166Y-40504065D01*
X57509943Y-40773860D01*
X57986231Y-40868600D01*
X58345769Y-40868600D01*
X58822057Y-40773860D01*
X59225834Y-40504065D01*
X59495629Y-40100288D01*
X59590369Y-39624000D01*
X59495629Y-39147712D01*
X59225834Y-38743935D01*
X58822057Y-38474140D01*
X58345769Y-38379400D01*
X57986231Y-38379400D01*
X57509943Y-38474140D01*
X57106166Y-38743935D01*
X56836371Y-39147712D01*
X56741631Y-39624000D01*
X50466500Y-39624000D01*
X49617250Y-38774750D01*
X49460683Y-38670136D01*
X49276000Y-38633400D01*
X46427899Y-38633400D01*
X44076464Y-36281964D01*
X44076464Y-35445493D01*
X46370761Y-35445493D01*
X46580563Y-35953251D01*
X46968705Y-36342072D01*
X47269400Y-36466931D01*
X47269400Y-36830000D01*
X47306136Y-37014683D01*
X47410750Y-37171250D01*
X48172750Y-37933250D01*
X48329317Y-38037864D01*
X48514000Y-38074601D01*
X48514005Y-38074600D01*
X53925342Y-38074600D01*
X54141781Y-38291417D01*
X54445077Y-38417357D01*
X54773482Y-38417643D01*
X55076998Y-38292233D01*
X55309417Y-38060219D01*
X55435357Y-37756923D01*
X55435643Y-37428518D01*
X55310233Y-37125002D01*
X55078219Y-36892583D01*
X54774923Y-36766643D01*
X54446518Y-36766357D01*
X54143002Y-36891767D01*
X53924989Y-37109400D01*
X48713900Y-37109400D01*
X48234600Y-36630100D01*
X48234600Y-36466837D01*
X48533251Y-36343437D01*
X48552189Y-36324532D01*
X49319073Y-36324532D01*
X49417736Y-36591387D01*
X50027461Y-36817908D01*
X50677460Y-36793856D01*
X51166264Y-36591387D01*
X51264927Y-36324532D01*
X50292000Y-35351605D01*
X49319073Y-36324532D01*
X48552189Y-36324532D01*
X48860423Y-36016836D01*
X48872613Y-36046264D01*
X49139468Y-36144927D01*
X50112395Y-35172000D01*
X50471605Y-35172000D01*
X51444532Y-36144927D01*
X51711387Y-36046264D01*
X51722786Y-36015582D01*
X52048705Y-36342072D01*
X52556097Y-36552759D01*
X53105493Y-36553239D01*
X53613251Y-36343437D01*
X54002072Y-35955295D01*
X54126931Y-35654600D01*
X54530100Y-35654600D01*
X56300748Y-37425247D01*
X56300750Y-37425250D01*
X56457317Y-37529864D01*
X56642000Y-37566600D01*
X56761536Y-37566600D01*
X56761536Y-37947600D01*
X56788103Y-38088790D01*
X56871546Y-38218465D01*
X56998866Y-38305459D01*
X57150000Y-38336064D01*
X59182000Y-38336064D01*
X59323190Y-38309497D01*
X59452865Y-38226054D01*
X59539859Y-38098734D01*
X59570464Y-37947600D01*
X59570464Y-36220400D01*
X59543897Y-36079210D01*
X59460454Y-35949535D01*
X59333134Y-35862541D01*
X59182000Y-35831936D01*
X57150000Y-35831936D01*
X57008810Y-35858503D01*
X56879135Y-35941946D01*
X56792141Y-36069266D01*
X56761536Y-36220400D01*
X56761536Y-36521037D01*
X55071250Y-34830750D01*
X54914683Y-34726136D01*
X54730000Y-34689400D01*
X54126837Y-34689400D01*
X54003437Y-34390749D01*
X53615295Y-34001928D01*
X53107903Y-33791241D01*
X52558507Y-33790761D01*
X52050749Y-34000563D01*
X51723577Y-34327164D01*
X51711387Y-34297736D01*
X51444532Y-34199073D01*
X50471605Y-35172000D01*
X50112395Y-35172000D01*
X49139468Y-34199073D01*
X48872613Y-34297736D01*
X48861214Y-34328418D01*
X48535295Y-34001928D01*
X48027903Y-33791241D01*
X47478507Y-33790761D01*
X46970749Y-34000563D01*
X46581928Y-34388705D01*
X46371241Y-34896097D01*
X46370761Y-35445493D01*
X44076464Y-35445493D01*
X44076464Y-34696400D01*
X44049897Y-34555210D01*
X43966454Y-34425535D01*
X43839134Y-34338541D01*
X43688000Y-34307936D01*
X41656000Y-34307936D01*
X41514810Y-34334503D01*
X41385135Y-34417946D01*
X41298141Y-34545266D01*
X41267536Y-34696400D01*
X41267536Y-36423600D01*
X41294103Y-36564790D01*
X41377546Y-36694465D01*
X41504866Y-36781459D01*
X41656000Y-36812064D01*
X43241564Y-36812064D01*
X43483512Y-37054012D01*
X43328057Y-36950140D01*
X42851769Y-36855400D01*
X42492231Y-36855400D01*
X42015943Y-36950140D01*
X41612166Y-37219935D01*
X41342371Y-37623712D01*
X41247631Y-38100000D01*
X41160700Y-38100000D01*
X41160700Y-33833286D01*
X41188493Y-33693563D01*
X41238589Y-33618589D01*
X41313563Y-33568493D01*
X41453286Y-33540700D01*
X50161762Y-33540700D01*
X49906540Y-33550144D01*
X49906540Y-33550144D01*
G37*
X49906540Y-33550144D02*
X49417736Y-33752613D01*
X49319073Y-34019468D01*
X50292000Y-34992395D01*
X51264927Y-34019468D01*
X51166264Y-33752613D01*
X50595859Y-33540700D01*
X59384714Y-33540700D01*
X59524437Y-33568493D01*
X59599411Y-33618589D01*
X59649507Y-33693563D01*
X59677300Y-33833286D01*
X59677300Y-49215296D01*
X59516732Y-48881964D01*
X59080320Y-48492046D01*
X58807757Y-48396704D01*
X58822057Y-48393860D01*
X59225834Y-48124065D01*
X59495629Y-47720288D01*
X59590369Y-47244000D01*
X59495629Y-46767712D01*
X59225834Y-46363935D01*
X58822057Y-46094140D01*
X58345769Y-45999400D01*
X57986231Y-45999400D01*
X57509943Y-46094140D01*
X57106166Y-46363935D01*
X56840589Y-46761400D01*
X56515000Y-46761400D01*
X56330317Y-46798136D01*
X56173750Y-46902750D01*
X55514876Y-47561624D01*
X55208518Y-47561357D01*
X54905002Y-47686767D01*
X54672583Y-47918781D01*
X54546643Y-48222077D01*
X54546357Y-48550482D01*
X54671767Y-48853998D01*
X54903781Y-49086417D01*
X55207077Y-49212357D01*
X55535482Y-49212643D01*
X55838998Y-49087233D01*
X56071417Y-48855219D01*
X56197357Y-48551923D01*
X56197625Y-48243875D01*
X56714900Y-47726600D01*
X56840589Y-47726600D01*
X57106166Y-48124065D01*
X57509943Y-48393860D01*
X57524243Y-48396704D01*
X57251680Y-48492046D01*
X56815268Y-48881964D01*
X56561291Y-49409209D01*
X56558642Y-49424974D01*
X56679783Y-49657000D01*
X58039000Y-49657000D01*
X58039000Y-49637000D01*
X58293000Y-49637000D01*
X58293000Y-49657000D01*
X58313000Y-49657000D01*
X58313000Y-49911000D01*
X58293000Y-49911000D01*
X58293000Y-49931000D01*
X58039000Y-49931000D01*
X58039000Y-49911000D01*
X56679783Y-49911000D01*
X56558642Y-50143026D01*
X56561291Y-50158791D01*
X56815268Y-50686036D01*
X56928607Y-50787300D01*
X53669486Y-50787300D01*
X54002072Y-50455295D01*
X54212759Y-49947903D01*
X54213239Y-49398507D01*
X54003437Y-48890749D01*
X53615295Y-48501928D01*
X53107903Y-48291241D01*
X52558507Y-48290761D01*
X52050749Y-48500563D01*
X51661928Y-48888705D01*
X51451241Y-49396097D01*
X51450761Y-49945493D01*
X51660563Y-50453251D01*
X51994029Y-50787300D01*
X48990720Y-50787300D01*
X49018814Y-50759206D01*
X48904534Y-50644926D01*
X49171387Y-50546264D01*
X49397908Y-49936539D01*
X49373856Y-49286540D01*
X49171387Y-48797736D01*
X48904532Y-48699073D01*
X47931605Y-49672000D01*
X47945748Y-49686143D01*
X47766143Y-49865748D01*
X47752000Y-49851605D01*
X47737858Y-49865748D01*
X47558253Y-49686143D01*
X47572395Y-49672000D01*
X46599468Y-48699073D01*
X46332613Y-48797736D01*
X46106092Y-49407461D01*
X46130144Y-50057460D01*
X46332613Y-50546264D01*
X46599466Y-50644926D01*
X46485186Y-50759206D01*
X46513280Y-50787300D01*
X43667726Y-50787300D01*
X43835327Y-50619698D01*
X43932000Y-50386309D01*
X43932000Y-49795750D01*
X43773250Y-49637000D01*
X42799000Y-49637000D01*
X42799000Y-49657000D01*
X42545000Y-49657000D01*
X42545000Y-49637000D01*
X41570750Y-49637000D01*
X41412000Y-49795750D01*
X41412000Y-50386309D01*
X41508673Y-50619698D01*
X41676274Y-50787300D01*
X41453286Y-50787300D01*
X41313563Y-50759507D01*
X41238589Y-50709411D01*
X41188493Y-50634437D01*
X41160700Y-50494714D01*
X41160700Y-42965297D01*
X43710743Y-42965297D01*
X43935737Y-43509823D01*
X44351985Y-43926799D01*
X44896118Y-44152743D01*
X45485297Y-44153257D01*
X46029823Y-43928263D01*
X46446799Y-43512015D01*
X46672743Y-42967882D01*
X46673257Y-42378703D01*
X46448263Y-41834177D01*
X46032015Y-41417201D01*
X45487882Y-41191257D01*
X44898703Y-41190743D01*
X44354177Y-41415737D01*
X43937201Y-41831985D01*
X43711257Y-42376118D01*
X43710743Y-42965297D01*
X41160700Y-42965297D01*
X41160700Y-38100000D01*
X41247631Y-38100000D01*
X41342371Y-38576288D01*
X41612166Y-38980065D01*
X42015943Y-39249860D01*
X42492231Y-39344600D01*
X42851769Y-39344600D01*
X43170667Y-39281167D01*
X43483511Y-39594011D01*
X43328057Y-39490140D01*
X42851769Y-39395400D01*
X42492231Y-39395400D01*
X42015943Y-39490140D01*
X41612166Y-39759935D01*
X41342371Y-40163712D01*
X41247631Y-40640000D01*
X41342371Y-41116288D01*
X41612166Y-41520065D01*
X42015943Y-41789860D01*
X42492231Y-41884600D01*
X42851769Y-41884600D01*
X43328057Y-41789860D01*
X43731834Y-41520065D01*
X43997411Y-41122600D01*
X46282100Y-41122600D01*
X47250750Y-42091250D01*
X47407317Y-42195864D01*
X47444536Y-42203267D01*
X47444536Y-42525000D01*
X47471103Y-42666190D01*
X47554546Y-42795865D01*
X47681866Y-42882859D01*
X47833000Y-42913464D01*
X48433000Y-42913464D01*
X48574190Y-42886897D01*
X48703865Y-42803454D01*
X48768530Y-42708813D01*
X48824546Y-42795865D01*
X48951866Y-42882859D01*
X49103000Y-42913464D01*
X49703000Y-42913464D01*
X49844190Y-42886897D01*
X49973865Y-42803454D01*
X50038530Y-42708813D01*
X50064136Y-42748607D01*
X49846583Y-42965781D01*
X49720643Y-43269077D01*
X49720375Y-43577125D01*
X49061750Y-44235750D01*
X48998703Y-44330107D01*
X48960233Y-44237002D01*
X48728219Y-44004583D01*
X48424923Y-43878643D01*
X48096518Y-43878357D01*
X47793002Y-44003767D01*
X47574989Y-44221400D01*
X44574673Y-44221400D01*
X44360923Y-44132643D01*
X44032518Y-44132357D01*
X43729002Y-44257767D01*
X43496583Y-44489781D01*
X43370643Y-44793077D01*
X43370375Y-45101126D01*
X42599964Y-45871536D01*
X42047000Y-45871536D01*
X41905810Y-45898103D01*
X41776135Y-45981546D01*
X41689141Y-46108866D01*
X41658536Y-46260000D01*
X41658536Y-47760000D01*
X41685103Y-47901190D01*
X41768546Y-48030865D01*
X41895866Y-48117859D01*
X41931130Y-48125000D01*
X41920690Y-48125000D01*
X41687301Y-48221673D01*
X41508673Y-48400302D01*
X41412000Y-48633691D01*
X41412000Y-49224250D01*
X41570750Y-49383000D01*
X42545000Y-49383000D01*
X42545000Y-49363000D01*
X42799000Y-49363000D01*
X42799000Y-49383000D01*
X43773250Y-49383000D01*
X43932000Y-49224250D01*
X43932000Y-48633691D01*
X43835327Y-48400302D01*
X43656699Y-48221673D01*
X43423310Y-48125000D01*
X43421699Y-48125000D01*
X43438190Y-48121897D01*
X43567865Y-48038454D01*
X43654859Y-47911134D01*
X43685464Y-47760000D01*
X43685464Y-46260000D01*
X43683337Y-46248691D01*
X47198000Y-46248691D01*
X47198000Y-46864250D01*
X47356750Y-47023000D01*
X48006000Y-47023000D01*
X48006000Y-45898750D01*
X47847250Y-45740000D01*
X47706690Y-45740000D01*
X47473301Y-45836673D01*
X47294673Y-46015302D01*
X47198000Y-46248691D01*
X43683337Y-46248691D01*
X43668208Y-46168292D01*
X44053123Y-45783376D01*
X44359482Y-45783643D01*
X44662998Y-45658233D01*
X44895417Y-45426219D01*
X44994916Y-45186600D01*
X47575342Y-45186600D01*
X47791781Y-45403417D01*
X48095077Y-45529357D01*
X48423482Y-45529643D01*
X48726998Y-45404233D01*
X48920400Y-45211168D01*
X48920400Y-45964375D01*
X48792699Y-45836673D01*
X48559310Y-45740000D01*
X48418750Y-45740000D01*
X48260000Y-45898750D01*
X48260000Y-47023000D01*
X48280000Y-47023000D01*
X48280000Y-47277000D01*
X48260000Y-47277000D01*
X48260000Y-47297000D01*
X48006000Y-47297000D01*
X48006000Y-47277000D01*
X47356750Y-47277000D01*
X47198000Y-47435750D01*
X47198000Y-48051309D01*
X47222270Y-48109902D01*
X46877736Y-48252613D01*
X46779073Y-48519468D01*
X47752000Y-49492395D01*
X48724927Y-48519468D01*
X48715927Y-48495127D01*
X48792699Y-48463327D01*
X48969579Y-48286446D01*
X49103000Y-48313464D01*
X49703000Y-48313464D01*
X49738180Y-48306844D01*
X49720643Y-48349077D01*
X49720357Y-48677482D01*
X49845767Y-48980998D01*
X50077781Y-49213417D01*
X50381077Y-49339357D01*
X50709482Y-49339643D01*
X51012998Y-49214233D01*
X51245417Y-48982219D01*
X51371357Y-48678923D01*
X51371643Y-48350518D01*
X51285625Y-48142337D01*
X51308530Y-48108813D01*
X51364546Y-48195865D01*
X51491866Y-48282859D01*
X51643000Y-48313464D01*
X52243000Y-48313464D01*
X52384190Y-48286897D01*
X52513865Y-48203454D01*
X52600859Y-48076134D01*
X52631464Y-47925000D01*
X52631464Y-46375000D01*
X52604897Y-46233810D01*
X52539006Y-46131411D01*
X52641357Y-45884923D01*
X52641643Y-45556518D01*
X52516233Y-45253002D01*
X52284219Y-45020583D01*
X52072333Y-44932600D01*
X56007000Y-44932600D01*
X56191683Y-44895864D01*
X56348250Y-44791250D01*
X56817645Y-44321855D01*
X56741631Y-44704000D01*
X56836371Y-45180288D01*
X57106166Y-45584065D01*
X57509943Y-45853860D01*
X57986231Y-45948600D01*
X58345769Y-45948600D01*
X58822057Y-45853860D01*
X59225834Y-45584065D01*
X59495629Y-45180288D01*
X59590369Y-44704000D01*
X59495629Y-44227712D01*
X59225834Y-43823935D01*
X58822057Y-43554140D01*
X58345769Y-43459400D01*
X57986231Y-43459400D01*
X57604086Y-43535414D01*
X57773262Y-43366238D01*
X57986231Y-43408600D01*
X58345769Y-43408600D01*
X58822057Y-43313860D01*
X59225834Y-43044065D01*
X59495629Y-42640288D01*
X59590369Y-42164000D01*
X59495629Y-41687712D01*
X59225834Y-41283935D01*
X58822057Y-41014140D01*
X58345769Y-40919400D01*
X57986231Y-40919400D01*
X57509943Y-41014140D01*
X57106166Y-41283935D01*
X56836371Y-41687712D01*
X56755576Y-42093894D01*
X56648263Y-41834177D01*
X56232015Y-41417201D01*
X55687882Y-41191257D01*
X55098703Y-41190743D01*
X54554177Y-41415737D01*
X54137201Y-41831985D01*
X53911257Y-42376118D01*
X53910743Y-42965297D01*
X54135737Y-43509823D01*
X54551985Y-43926799D01*
X54649763Y-43967400D01*
X52450122Y-43967400D01*
X52515417Y-43902219D01*
X52641357Y-43598923D01*
X52641643Y-43270518D01*
X52516233Y-42967002D01*
X52425600Y-42876211D01*
X52425600Y-42860251D01*
X52513865Y-42803454D01*
X52600859Y-42676134D01*
X52631464Y-42525000D01*
X52631464Y-40975000D01*
X52604897Y-40833810D01*
X52521454Y-40704135D01*
X52394134Y-40617141D01*
X52243000Y-40586536D01*
X51643000Y-40586536D01*
X51501810Y-40613103D01*
X51372135Y-40696546D01*
X51307470Y-40791187D01*
X51251454Y-40704135D01*
X51155600Y-40638641D01*
X51155600Y-40513000D01*
X51118864Y-40328317D01*
X51014250Y-40171750D01*
X51014247Y-40171748D01*
X50466500Y-39624000D01*
X56741631Y-39624000D01*
X56836371Y-40100288D01*
X57106166Y-40504065D01*
X57509943Y-40773860D01*
X57986231Y-40868600D01*
X58345769Y-40868600D01*
X58822057Y-40773860D01*
X59225834Y-40504065D01*
X59495629Y-40100288D01*
X59590369Y-39624000D01*
X59495629Y-39147712D01*
X59225834Y-38743935D01*
X58822057Y-38474140D01*
X58345769Y-38379400D01*
X57986231Y-38379400D01*
X57509943Y-38474140D01*
X57106166Y-38743935D01*
X56836371Y-39147712D01*
X56741631Y-39624000D01*
X50466500Y-39624000D01*
X49617250Y-38774750D01*
X49460683Y-38670136D01*
X49276000Y-38633400D01*
X46427899Y-38633400D01*
X44076464Y-36281964D01*
X44076464Y-35445493D01*
X46370761Y-35445493D01*
X46580563Y-35953251D01*
X46968705Y-36342072D01*
X47269400Y-36466931D01*
X47269400Y-36830000D01*
X47306136Y-37014683D01*
X47410750Y-37171250D01*
X48172750Y-37933250D01*
X48329317Y-38037864D01*
X48514000Y-38074601D01*
X48514005Y-38074600D01*
X53925342Y-38074600D01*
X54141781Y-38291417D01*
X54445077Y-38417357D01*
X54773482Y-38417643D01*
X55076998Y-38292233D01*
X55309417Y-38060219D01*
X55435357Y-37756923D01*
X55435643Y-37428518D01*
X55310233Y-37125002D01*
X55078219Y-36892583D01*
X54774923Y-36766643D01*
X54446518Y-36766357D01*
X54143002Y-36891767D01*
X53924989Y-37109400D01*
X48713900Y-37109400D01*
X48234600Y-36630100D01*
X48234600Y-36466837D01*
X48533251Y-36343437D01*
X48552189Y-36324532D01*
X49319073Y-36324532D01*
X49417736Y-36591387D01*
X50027461Y-36817908D01*
X50677460Y-36793856D01*
X51166264Y-36591387D01*
X51264927Y-36324532D01*
X50292000Y-35351605D01*
X49319073Y-36324532D01*
X48552189Y-36324532D01*
X48860423Y-36016836D01*
X48872613Y-36046264D01*
X49139468Y-36144927D01*
X50112395Y-35172000D01*
X50471605Y-35172000D01*
X51444532Y-36144927D01*
X51711387Y-36046264D01*
X51722786Y-36015582D01*
X52048705Y-36342072D01*
X52556097Y-36552759D01*
X53105493Y-36553239D01*
X53613251Y-36343437D01*
X54002072Y-35955295D01*
X54126931Y-35654600D01*
X54530100Y-35654600D01*
X56300748Y-37425247D01*
X56300750Y-37425250D01*
X56457317Y-37529864D01*
X56642000Y-37566600D01*
X56761536Y-37566600D01*
X56761536Y-37947600D01*
X56788103Y-38088790D01*
X56871546Y-38218465D01*
X56998866Y-38305459D01*
X57150000Y-38336064D01*
X59182000Y-38336064D01*
X59323190Y-38309497D01*
X59452865Y-38226054D01*
X59539859Y-38098734D01*
X59570464Y-37947600D01*
X59570464Y-36220400D01*
X59543897Y-36079210D01*
X59460454Y-35949535D01*
X59333134Y-35862541D01*
X59182000Y-35831936D01*
X57150000Y-35831936D01*
X57008810Y-35858503D01*
X56879135Y-35941946D01*
X56792141Y-36069266D01*
X56761536Y-36220400D01*
X56761536Y-36521037D01*
X55071250Y-34830750D01*
X54914683Y-34726136D01*
X54730000Y-34689400D01*
X54126837Y-34689400D01*
X54003437Y-34390749D01*
X53615295Y-34001928D01*
X53107903Y-33791241D01*
X52558507Y-33790761D01*
X52050749Y-34000563D01*
X51723577Y-34327164D01*
X51711387Y-34297736D01*
X51444532Y-34199073D01*
X50471605Y-35172000D01*
X50112395Y-35172000D01*
X49139468Y-34199073D01*
X48872613Y-34297736D01*
X48861214Y-34328418D01*
X48535295Y-34001928D01*
X48027903Y-33791241D01*
X47478507Y-33790761D01*
X46970749Y-34000563D01*
X46581928Y-34388705D01*
X46371241Y-34896097D01*
X46370761Y-35445493D01*
X44076464Y-35445493D01*
X44076464Y-34696400D01*
X44049897Y-34555210D01*
X43966454Y-34425535D01*
X43839134Y-34338541D01*
X43688000Y-34307936D01*
X41656000Y-34307936D01*
X41514810Y-34334503D01*
X41385135Y-34417946D01*
X41298141Y-34545266D01*
X41267536Y-34696400D01*
X41267536Y-36423600D01*
X41294103Y-36564790D01*
X41377546Y-36694465D01*
X41504866Y-36781459D01*
X41656000Y-36812064D01*
X43241564Y-36812064D01*
X43483512Y-37054012D01*
X43328057Y-36950140D01*
X42851769Y-36855400D01*
X42492231Y-36855400D01*
X42015943Y-36950140D01*
X41612166Y-37219935D01*
X41342371Y-37623712D01*
X41247631Y-38100000D01*
X41160700Y-38100000D01*
X41160700Y-33833286D01*
X41188493Y-33693563D01*
X41238589Y-33618589D01*
X41313563Y-33568493D01*
X41453286Y-33540700D01*
X50161762Y-33540700D01*
X49906540Y-33550144D01*
M02*
