G04 Layer_Physical_Order=1*
G04 Layer_Color=255*
%FSLAX44Y44*%
%MOMM*%
G71*
G01*
G75*
%ADD10C,0.2540*%
%ADD11C,4.0000*%
%ADD12C,2.8000*%
%ADD13R,2.8000X2.8000*%
%ADD14C,5.0000*%
%ADD15C,1.5748*%
%ADD16C,1.6510*%
G36*
X3441700Y429335D02*
X2736850D01*
Y1041400D01*
X3441700D01*
Y429335D01*
D02*
G37*
%LPC*%
G36*
X2851150Y689954D02*
X2848431Y689596D01*
X2845898Y688547D01*
X2843723Y686877D01*
X2842054Y684702D01*
X2841004Y682169D01*
X2840646Y679450D01*
X2841004Y676731D01*
X2842054Y674198D01*
X2843723Y672023D01*
X2845898Y670353D01*
X2848431Y669304D01*
X2851150Y668946D01*
X2853869Y669304D01*
X2856402Y670353D01*
X2858577Y672023D01*
X2860247Y674198D01*
X2861296Y676731D01*
X2861654Y679450D01*
X2861296Y682169D01*
X2860247Y684702D01*
X2858577Y686877D01*
X2856402Y688547D01*
X2853869Y689596D01*
X2851150Y689954D01*
D02*
G37*
G36*
X2819400D02*
X2816682Y689596D01*
X2814148Y688547D01*
X2811973Y686877D01*
X2810303Y684702D01*
X2809254Y682169D01*
X2808896Y679450D01*
X2809254Y676731D01*
X2810303Y674198D01*
X2811973Y672023D01*
X2814148Y670353D01*
X2816682Y669304D01*
X2819400Y668946D01*
X2822119Y669304D01*
X2824652Y670353D01*
X2826827Y672023D01*
X2828497Y674198D01*
X2829546Y676731D01*
X2829904Y679450D01*
X2829546Y682169D01*
X2828497Y684702D01*
X2826827Y686877D01*
X2824652Y688547D01*
X2822119Y689596D01*
X2819400Y689954D01*
D02*
G37*
G36*
X2977250Y723683D02*
X2972932Y723114D01*
X2968908Y721448D01*
X2965453Y718796D01*
X2962802Y715341D01*
X2961136Y711318D01*
X2960567Y707000D01*
X2961136Y702682D01*
X2962802Y698659D01*
X2965453Y695203D01*
X2968908Y692552D01*
X2972932Y690886D01*
X2977250Y690317D01*
X2981568Y690886D01*
X2985591Y692552D01*
X2989046Y695203D01*
X2991697Y698659D01*
X2993364Y702682D01*
X2993932Y707000D01*
X2993364Y711318D01*
X2991697Y715341D01*
X2989046Y718796D01*
X2985591Y721448D01*
X2981568Y723114D01*
X2977250Y723683D01*
D02*
G37*
G36*
X2935250D02*
X2930932Y723114D01*
X2926909Y721448D01*
X2923453Y718796D01*
X2920802Y715341D01*
X2919136Y711318D01*
X2918567Y707000D01*
X2919136Y702682D01*
X2920802Y698659D01*
X2923453Y695203D01*
X2926909Y692552D01*
X2930932Y690886D01*
X2935250Y690317D01*
X2939568Y690886D01*
X2943591Y692552D01*
X2947047Y695203D01*
X2949698Y698659D01*
X2951364Y702682D01*
X2951933Y707000D01*
X2951364Y711318D01*
X2949698Y715341D01*
X2947047Y718796D01*
X2943591Y721448D01*
X2939568Y723114D01*
X2935250Y723683D01*
D02*
G37*
G36*
X3314700Y623833D02*
X3310382Y623264D01*
X3306359Y621598D01*
X3302903Y618946D01*
X3300252Y615491D01*
X3298586Y611468D01*
X3298017Y607150D01*
X3298586Y602832D01*
X3300252Y598809D01*
X3302903Y595353D01*
X3306359Y592702D01*
X3310382Y591036D01*
X3314700Y590467D01*
X3319018Y591036D01*
X3323041Y592702D01*
X3326497Y595353D01*
X3329148Y598809D01*
X3330814Y602832D01*
X3331383Y607150D01*
X3330814Y611468D01*
X3329148Y615491D01*
X3326497Y618946D01*
X3323041Y621598D01*
X3319018Y623264D01*
X3314700Y623833D01*
D02*
G37*
G36*
X3220900D02*
X3216582Y623264D01*
X3212559Y621598D01*
X3209103Y618946D01*
X3206452Y615491D01*
X3204785Y611468D01*
X3204217Y607150D01*
X3204785Y602832D01*
X3206452Y598809D01*
X3209103Y595353D01*
X3212559Y592702D01*
X3216582Y591036D01*
X3220900Y590467D01*
X3225218Y591036D01*
X3229241Y592702D01*
X3232696Y595353D01*
X3235348Y598809D01*
X3237014Y602832D01*
X3237583Y607150D01*
X3237014Y611468D01*
X3235348Y615491D01*
X3232696Y618946D01*
X3229241Y621598D01*
X3225218Y623264D01*
X3220900Y623833D01*
D02*
G37*
G36*
X3398700D02*
X3394382Y623264D01*
X3390359Y621598D01*
X3386903Y618946D01*
X3384252Y615491D01*
X3382585Y611468D01*
X3382017Y607150D01*
X3382585Y602832D01*
X3384252Y598809D01*
X3386903Y595353D01*
X3390359Y592702D01*
X3394382Y591036D01*
X3398700Y590467D01*
X3403018Y591036D01*
X3407041Y592702D01*
X3410496Y595353D01*
X3413148Y598809D01*
X3414814Y602832D01*
X3415383Y607150D01*
X3414814Y611468D01*
X3413148Y615491D01*
X3410496Y618946D01*
X3407041Y621598D01*
X3403018Y623264D01*
X3398700Y623833D01*
D02*
G37*
G36*
X3356700D02*
X3352382Y623264D01*
X3348358Y621598D01*
X3344903Y618946D01*
X3342252Y615491D01*
X3340586Y611468D01*
X3340017Y607150D01*
X3340586Y602832D01*
X3342252Y598809D01*
X3344903Y595353D01*
X3348358Y592702D01*
X3352382Y591036D01*
X3356700Y590467D01*
X3361018Y591036D01*
X3365041Y592702D01*
X3368496Y595353D01*
X3371147Y598809D01*
X3372814Y602832D01*
X3373383Y607150D01*
X3372814Y611468D01*
X3371147Y615491D01*
X3368496Y618946D01*
X3365041Y621598D01*
X3361018Y623264D01*
X3356700Y623833D01*
D02*
G37*
G36*
X3229250Y723683D02*
X3224932Y723114D01*
X3220909Y721448D01*
X3217453Y718796D01*
X3214802Y715341D01*
X3213136Y711318D01*
X3212567Y707000D01*
X3213136Y702682D01*
X3214802Y698659D01*
X3217453Y695203D01*
X3220909Y692552D01*
X3224932Y690886D01*
X3229250Y690317D01*
X3233568Y690886D01*
X3237591Y692552D01*
X3241046Y695203D01*
X3243698Y698659D01*
X3245364Y702682D01*
X3245933Y707000D01*
X3245364Y711318D01*
X3243698Y715341D01*
X3241046Y718796D01*
X3237591Y721448D01*
X3233568Y723114D01*
X3229250Y723683D01*
D02*
G37*
G36*
X3187250D02*
X3182932Y723114D01*
X3178909Y721448D01*
X3175453Y718796D01*
X3172802Y715341D01*
X3171136Y711318D01*
X3170567Y707000D01*
X3171136Y702682D01*
X3172802Y698659D01*
X3175453Y695203D01*
X3178909Y692552D01*
X3182932Y690886D01*
X3187250Y690317D01*
X3191568Y690886D01*
X3195591Y692552D01*
X3199046Y695203D01*
X3201698Y698659D01*
X3203364Y702682D01*
X3203932Y707000D01*
X3203364Y711318D01*
X3201698Y715341D01*
X3199046Y718796D01*
X3195591Y721448D01*
X3191568Y723114D01*
X3187250Y723683D01*
D02*
G37*
G36*
X3313250D02*
X3308932Y723114D01*
X3304909Y721448D01*
X3301454Y718796D01*
X3298802Y715341D01*
X3297136Y711318D01*
X3296567Y707000D01*
X3297136Y702682D01*
X3298802Y698659D01*
X3301454Y695203D01*
X3304909Y692552D01*
X3308932Y690886D01*
X3313250Y690317D01*
X3317568Y690886D01*
X3321591Y692552D01*
X3325047Y695203D01*
X3327698Y698659D01*
X3329364Y702682D01*
X3329933Y707000D01*
X3329364Y711318D01*
X3327698Y715341D01*
X3325047Y718796D01*
X3321591Y721448D01*
X3317568Y723114D01*
X3313250Y723683D01*
D02*
G37*
G36*
X3271250D02*
X3266932Y723114D01*
X3262908Y721448D01*
X3259453Y718796D01*
X3256802Y715341D01*
X3255135Y711318D01*
X3254567Y707000D01*
X3255135Y702682D01*
X3256802Y698659D01*
X3259453Y695203D01*
X3262908Y692552D01*
X3266932Y690886D01*
X3271250Y690317D01*
X3275568Y690886D01*
X3279591Y692552D01*
X3283046Y695203D01*
X3285697Y698659D01*
X3287364Y702682D01*
X3287932Y707000D01*
X3287364Y711318D01*
X3285697Y715341D01*
X3283046Y718796D01*
X3279591Y721448D01*
X3275568Y723114D01*
X3271250Y723683D01*
D02*
G37*
G36*
X3061250D02*
X3056932Y723114D01*
X3052909Y721448D01*
X3049454Y718796D01*
X3046802Y715341D01*
X3045136Y711318D01*
X3044567Y707000D01*
X3045136Y702682D01*
X3046802Y698659D01*
X3049454Y695203D01*
X3052909Y692552D01*
X3056932Y690886D01*
X3061250Y690317D01*
X3065568Y690886D01*
X3069591Y692552D01*
X3073047Y695203D01*
X3075698Y698659D01*
X3077365Y702682D01*
X3077933Y707000D01*
X3077365Y711318D01*
X3075698Y715341D01*
X3073047Y718796D01*
X3069591Y721448D01*
X3065568Y723114D01*
X3061250Y723683D01*
D02*
G37*
G36*
X3019250D02*
X3014932Y723114D01*
X3010909Y721448D01*
X3007453Y718796D01*
X3004802Y715341D01*
X3003135Y711318D01*
X3002567Y707000D01*
X3003135Y702682D01*
X3004802Y698659D01*
X3007453Y695203D01*
X3010909Y692552D01*
X3014932Y690886D01*
X3019250Y690317D01*
X3023568Y690886D01*
X3027591Y692552D01*
X3031046Y695203D01*
X3033698Y698659D01*
X3035364Y702682D01*
X3035933Y707000D01*
X3035364Y711318D01*
X3033698Y715341D01*
X3031046Y718796D01*
X3027591Y721448D01*
X3023568Y723114D01*
X3019250Y723683D01*
D02*
G37*
G36*
X3145250D02*
X3140932Y723114D01*
X3136909Y721448D01*
X3133453Y718796D01*
X3130802Y715341D01*
X3129136Y711318D01*
X3128567Y707000D01*
X3129136Y702682D01*
X3130802Y698659D01*
X3133453Y695203D01*
X3136909Y692552D01*
X3140932Y690886D01*
X3145250Y690317D01*
X3149568Y690886D01*
X3153591Y692552D01*
X3157047Y695203D01*
X3159698Y698659D01*
X3161364Y702682D01*
X3161933Y707000D01*
X3161364Y711318D01*
X3159698Y715341D01*
X3157047Y718796D01*
X3153591Y721448D01*
X3149568Y723114D01*
X3145250Y723683D01*
D02*
G37*
G36*
X3103250D02*
X3098932Y723114D01*
X3094909Y721448D01*
X3091454Y718796D01*
X3088802Y715341D01*
X3087136Y711318D01*
X3086567Y707000D01*
X3087136Y702682D01*
X3088802Y698659D01*
X3091454Y695203D01*
X3094909Y692552D01*
X3098932Y690886D01*
X3103250Y690317D01*
X3107568Y690886D01*
X3111591Y692552D01*
X3115047Y695203D01*
X3117698Y698659D01*
X3119364Y702682D01*
X3119933Y707000D01*
X3119364Y711318D01*
X3117698Y715341D01*
X3115047Y718796D01*
X3111591Y721448D01*
X3107568Y723114D01*
X3103250Y723683D01*
D02*
G37*
G36*
X3220900Y519823D02*
X3215501Y519291D01*
X3210310Y517717D01*
X3205526Y515159D01*
X3201332Y511718D01*
X3197890Y507524D01*
X3195333Y502740D01*
X3193758Y497549D01*
X3193227Y492150D01*
X3193758Y486751D01*
X3195333Y481560D01*
X3197890Y476775D01*
X3201332Y472582D01*
X3205526Y469140D01*
X3210310Y466583D01*
X3215501Y465008D01*
X3220900Y464477D01*
X3226299Y465008D01*
X3231490Y466583D01*
X3236274Y469140D01*
X3240468Y472582D01*
X3243909Y476775D01*
X3246467Y481560D01*
X3248041Y486751D01*
X3248573Y492150D01*
X3248041Y497549D01*
X3246467Y502740D01*
X3243909Y507524D01*
X3240468Y511718D01*
X3236274Y515159D01*
X3231490Y517717D01*
X3226299Y519291D01*
X3220900Y519823D01*
D02*
G37*
G36*
X3136900D02*
X3131501Y519291D01*
X3126310Y517717D01*
X3121526Y515159D01*
X3117332Y511718D01*
X3113890Y507524D01*
X3111333Y502740D01*
X3109759Y497549D01*
X3109227Y492150D01*
X3109759Y486751D01*
X3111333Y481560D01*
X3113890Y476775D01*
X3117332Y472582D01*
X3121526Y469140D01*
X3126310Y466583D01*
X3131501Y465008D01*
X3136900Y464477D01*
X3142299Y465008D01*
X3147490Y466583D01*
X3152274Y469140D01*
X3156468Y472582D01*
X3159909Y476775D01*
X3162467Y481560D01*
X3164041Y486751D01*
X3164573Y492150D01*
X3164041Y497549D01*
X3162467Y502740D01*
X3159909Y507524D01*
X3156468Y511718D01*
X3152274Y515159D01*
X3147490Y517717D01*
X3142299Y519291D01*
X3136900Y519823D01*
D02*
G37*
G36*
X3398700D02*
X3393301Y519291D01*
X3388110Y517717D01*
X3383326Y515159D01*
X3379132Y511718D01*
X3375690Y507524D01*
X3373133Y502740D01*
X3371558Y497549D01*
X3371027Y492150D01*
X3371558Y486751D01*
X3373133Y481560D01*
X3375690Y476775D01*
X3379132Y472582D01*
X3383326Y469140D01*
X3388110Y466583D01*
X3393301Y465008D01*
X3398700Y464477D01*
X3404099Y465008D01*
X3409290Y466583D01*
X3414074Y469140D01*
X3418268Y472582D01*
X3421709Y476775D01*
X3424267Y481560D01*
X3425841Y486751D01*
X3426373Y492150D01*
X3425841Y497549D01*
X3424267Y502740D01*
X3421709Y507524D01*
X3418268Y511718D01*
X3414074Y515159D01*
X3409290Y517717D01*
X3404099Y519291D01*
X3398700Y519823D01*
D02*
G37*
G36*
X3314700D02*
X3309301Y519291D01*
X3304110Y517717D01*
X3299326Y515159D01*
X3295132Y511718D01*
X3291690Y507524D01*
X3289133Y502740D01*
X3287559Y497549D01*
X3287027Y492150D01*
X3287559Y486751D01*
X3289133Y481560D01*
X3291690Y476775D01*
X3295132Y472582D01*
X3299326Y469140D01*
X3304110Y466583D01*
X3309301Y465008D01*
X3314700Y464477D01*
X3320099Y465008D01*
X3325290Y466583D01*
X3330074Y469140D01*
X3334268Y472582D01*
X3337709Y476775D01*
X3340267Y481560D01*
X3341841Y486751D01*
X3342373Y492150D01*
X3341841Y497549D01*
X3340267Y502740D01*
X3337709Y507524D01*
X3334268Y511718D01*
X3330074Y515159D01*
X3325290Y517717D01*
X3320099Y519291D01*
X3314700Y519823D01*
D02*
G37*
G36*
X2865300D02*
X2859901Y519291D01*
X2854710Y517717D01*
X2849926Y515159D01*
X2845732Y511718D01*
X2842290Y507524D01*
X2839733Y502740D01*
X2838158Y497549D01*
X2837627Y492150D01*
X2838158Y486751D01*
X2839733Y481560D01*
X2842290Y476775D01*
X2845732Y472582D01*
X2849926Y469140D01*
X2854710Y466583D01*
X2859901Y465008D01*
X2865300Y464477D01*
X2870699Y465008D01*
X2875890Y466583D01*
X2880674Y469140D01*
X2884868Y472582D01*
X2888309Y476775D01*
X2890867Y481560D01*
X2892441Y486751D01*
X2892973Y492150D01*
X2892441Y497549D01*
X2890867Y502740D01*
X2888309Y507524D01*
X2884868Y511718D01*
X2880674Y515159D01*
X2875890Y517717D01*
X2870699Y519291D01*
X2865300Y519823D01*
D02*
G37*
G36*
X2781300D02*
X2775901Y519291D01*
X2770710Y517717D01*
X2765926Y515159D01*
X2761732Y511718D01*
X2758290Y507524D01*
X2755733Y502740D01*
X2754159Y497549D01*
X2753627Y492150D01*
X2754159Y486751D01*
X2755733Y481560D01*
X2758290Y476775D01*
X2761732Y472582D01*
X2765926Y469140D01*
X2770710Y466583D01*
X2775901Y465008D01*
X2781300Y464477D01*
X2786699Y465008D01*
X2791890Y466583D01*
X2796674Y469140D01*
X2800868Y472582D01*
X2804309Y476775D01*
X2806867Y481560D01*
X2808441Y486751D01*
X2808973Y492150D01*
X2808441Y497549D01*
X2806867Y502740D01*
X2804309Y507524D01*
X2800868Y511718D01*
X2796674Y515159D01*
X2791890Y517717D01*
X2786699Y519291D01*
X2781300Y519823D01*
D02*
G37*
G36*
X3043100D02*
X3037701Y519291D01*
X3032510Y517717D01*
X3027726Y515159D01*
X3023532Y511718D01*
X3020090Y507524D01*
X3017533Y502740D01*
X3015958Y497549D01*
X3015427Y492150D01*
X3015958Y486751D01*
X3017533Y481560D01*
X3020090Y476775D01*
X3023532Y472582D01*
X3027726Y469140D01*
X3032510Y466583D01*
X3037701Y465008D01*
X3043100Y464477D01*
X3048499Y465008D01*
X3053690Y466583D01*
X3058474Y469140D01*
X3062668Y472582D01*
X3066109Y476775D01*
X3068667Y481560D01*
X3070241Y486751D01*
X3070773Y492150D01*
X3070241Y497549D01*
X3068667Y502740D01*
X3066109Y507524D01*
X3062668Y511718D01*
X3058474Y515159D01*
X3053690Y517717D01*
X3048499Y519291D01*
X3043100Y519823D01*
D02*
G37*
G36*
X2959100D02*
X2953701Y519291D01*
X2948510Y517717D01*
X2943726Y515159D01*
X2939532Y511718D01*
X2936090Y507524D01*
X2933533Y502740D01*
X2931959Y497549D01*
X2931427Y492150D01*
X2931959Y486751D01*
X2933533Y481560D01*
X2936090Y476775D01*
X2939532Y472582D01*
X2943726Y469140D01*
X2948510Y466583D01*
X2953701Y465008D01*
X2959100Y464477D01*
X2964499Y465008D01*
X2969690Y466583D01*
X2974474Y469140D01*
X2978668Y472582D01*
X2982109Y476775D01*
X2984667Y481560D01*
X2986241Y486751D01*
X2986773Y492150D01*
X2986241Y497549D01*
X2984667Y502740D01*
X2982109Y507524D01*
X2978668Y511718D01*
X2974474Y515159D01*
X2969690Y517717D01*
X2964499Y519291D01*
X2959100Y519823D01*
D02*
G37*
G36*
X3043100Y623833D02*
X3038782Y623264D01*
X3034759Y621598D01*
X3031303Y618946D01*
X3028652Y615491D01*
X3026985Y611468D01*
X3026417Y607150D01*
X3026985Y602832D01*
X3028652Y598809D01*
X3031303Y595353D01*
X3034759Y592702D01*
X3038782Y591036D01*
X3043100Y590467D01*
X3047418Y591036D01*
X3051441Y592702D01*
X3054896Y595353D01*
X3057548Y598809D01*
X3059214Y602832D01*
X3059783Y607150D01*
X3059214Y611468D01*
X3057548Y615491D01*
X3054896Y618946D01*
X3051441Y621598D01*
X3047418Y623264D01*
X3043100Y623833D01*
D02*
G37*
G36*
X3001100D02*
X2996782Y623264D01*
X2992758Y621598D01*
X2989303Y618946D01*
X2986652Y615491D01*
X2984986Y611468D01*
X2984417Y607150D01*
X2984986Y602832D01*
X2986652Y598809D01*
X2989303Y595353D01*
X2992758Y592702D01*
X2996782Y591036D01*
X3001100Y590467D01*
X3005418Y591036D01*
X3009441Y592702D01*
X3012896Y595353D01*
X3015547Y598809D01*
X3017214Y602832D01*
X3017783Y607150D01*
X3017214Y611468D01*
X3015547Y615491D01*
X3012896Y618946D01*
X3009441Y621598D01*
X3005418Y623264D01*
X3001100Y623833D01*
D02*
G37*
G36*
X3178900D02*
X3174582Y623264D01*
X3170558Y621598D01*
X3167103Y618946D01*
X3164452Y615491D01*
X3162786Y611468D01*
X3162217Y607150D01*
X3162786Y602832D01*
X3164452Y598809D01*
X3167103Y595353D01*
X3170558Y592702D01*
X3174582Y591036D01*
X3178900Y590467D01*
X3183218Y591036D01*
X3187241Y592702D01*
X3190696Y595353D01*
X3193347Y598809D01*
X3195014Y602832D01*
X3195583Y607150D01*
X3195014Y611468D01*
X3193347Y615491D01*
X3190696Y618946D01*
X3187241Y621598D01*
X3183218Y623264D01*
X3178900Y623833D01*
D02*
G37*
G36*
X3136900D02*
X3132582Y623264D01*
X3128559Y621598D01*
X3125103Y618946D01*
X3122452Y615491D01*
X3120786Y611468D01*
X3120217Y607150D01*
X3120786Y602832D01*
X3122452Y598809D01*
X3125103Y595353D01*
X3128559Y592702D01*
X3132582Y591036D01*
X3136900Y590467D01*
X3141218Y591036D01*
X3145241Y592702D01*
X3148697Y595353D01*
X3151348Y598809D01*
X3153014Y602832D01*
X3153583Y607150D01*
X3153014Y611468D01*
X3151348Y615491D01*
X3148697Y618946D01*
X3145241Y621598D01*
X3141218Y623264D01*
X3136900Y623833D01*
D02*
G37*
G36*
X2823300D02*
X2818982Y623264D01*
X2814958Y621598D01*
X2811503Y618946D01*
X2808852Y615491D01*
X2807186Y611468D01*
X2806617Y607150D01*
X2807186Y602832D01*
X2808852Y598809D01*
X2811503Y595353D01*
X2814958Y592702D01*
X2818982Y591036D01*
X2823300Y590467D01*
X2827618Y591036D01*
X2831641Y592702D01*
X2835096Y595353D01*
X2837747Y598809D01*
X2839414Y602832D01*
X2839983Y607150D01*
X2839414Y611468D01*
X2837747Y615491D01*
X2835096Y618946D01*
X2831641Y621598D01*
X2827618Y623264D01*
X2823300Y623833D01*
D02*
G37*
G36*
X2781300D02*
X2776982Y623264D01*
X2772959Y621598D01*
X2769503Y618946D01*
X2766852Y615491D01*
X2765186Y611468D01*
X2764617Y607150D01*
X2765186Y602832D01*
X2766852Y598809D01*
X2769503Y595353D01*
X2772959Y592702D01*
X2776982Y591036D01*
X2781300Y590467D01*
X2785618Y591036D01*
X2789641Y592702D01*
X2793097Y595353D01*
X2795748Y598809D01*
X2797414Y602832D01*
X2797983Y607150D01*
X2797414Y611468D01*
X2795748Y615491D01*
X2793097Y618946D01*
X2789641Y621598D01*
X2785618Y623264D01*
X2781300Y623833D01*
D02*
G37*
G36*
X2959100D02*
X2954782Y623264D01*
X2950759Y621598D01*
X2947303Y618946D01*
X2944652Y615491D01*
X2942986Y611468D01*
X2942417Y607150D01*
X2942986Y602832D01*
X2944652Y598809D01*
X2947303Y595353D01*
X2950759Y592702D01*
X2954782Y591036D01*
X2959100Y590467D01*
X2963418Y591036D01*
X2967441Y592702D01*
X2970897Y595353D01*
X2973548Y598809D01*
X2975214Y602832D01*
X2975783Y607150D01*
X2975214Y611468D01*
X2973548Y615491D01*
X2970897Y618946D01*
X2967441Y621598D01*
X2963418Y623264D01*
X2959100Y623833D01*
D02*
G37*
G36*
X2865300D02*
X2860982Y623264D01*
X2856959Y621598D01*
X2853503Y618946D01*
X2850852Y615491D01*
X2849185Y611468D01*
X2848617Y607150D01*
X2849185Y602832D01*
X2850852Y598809D01*
X2853503Y595353D01*
X2856959Y592702D01*
X2860982Y591036D01*
X2865300Y590467D01*
X2869618Y591036D01*
X2873641Y592702D01*
X2877096Y595353D01*
X2879748Y598809D01*
X2881414Y602832D01*
X2881983Y607150D01*
X2881414Y611468D01*
X2879748Y615491D01*
X2877096Y618946D01*
X2873641Y621598D01*
X2869618Y623264D01*
X2865300Y623833D01*
D02*
G37*
G36*
X3355250Y723683D02*
X3350932Y723114D01*
X3346909Y721448D01*
X3343454Y718796D01*
X3340802Y715341D01*
X3339136Y711318D01*
X3338568Y707000D01*
X3339136Y702682D01*
X3340802Y698659D01*
X3343454Y695203D01*
X3346909Y692552D01*
X3350932Y690886D01*
X3355250Y690317D01*
X3359568Y690886D01*
X3363591Y692552D01*
X3367047Y695203D01*
X3369698Y698659D01*
X3371364Y702682D01*
X3371933Y707000D01*
X3371364Y711318D01*
X3369698Y715341D01*
X3367047Y718796D01*
X3363591Y721448D01*
X3359568Y723114D01*
X3355250Y723683D01*
D02*
G37*
G36*
X3313250Y876383D02*
X3308932Y875814D01*
X3304909Y874148D01*
X3301454Y871497D01*
X3298802Y868041D01*
X3297136Y864018D01*
X3296567Y859700D01*
X3297136Y855382D01*
X3298802Y851359D01*
X3301454Y847904D01*
X3304909Y845252D01*
X3308932Y843586D01*
X3313250Y843017D01*
X3317568Y843586D01*
X3321591Y845252D01*
X3325047Y847904D01*
X3327698Y851359D01*
X3329364Y855382D01*
X3329933Y859700D01*
X3329364Y864018D01*
X3327698Y868041D01*
X3325047Y871497D01*
X3321591Y874148D01*
X3317568Y875814D01*
X3313250Y876383D01*
D02*
G37*
G36*
X3219450D02*
X3215132Y875814D01*
X3211109Y874148D01*
X3207654Y871497D01*
X3205002Y868041D01*
X3203336Y864018D01*
X3202767Y859700D01*
X3203336Y855382D01*
X3205002Y851359D01*
X3207654Y847904D01*
X3211109Y845252D01*
X3215132Y843586D01*
X3219450Y843017D01*
X3223768Y843586D01*
X3227791Y845252D01*
X3231247Y847904D01*
X3233898Y851359D01*
X3235564Y855382D01*
X3236133Y859700D01*
X3235564Y864018D01*
X3233898Y868041D01*
X3231247Y871497D01*
X3227791Y874148D01*
X3223768Y875814D01*
X3219450Y876383D01*
D02*
G37*
G36*
X3397250D02*
X3392932Y875814D01*
X3388909Y874148D01*
X3385453Y871497D01*
X3382802Y868041D01*
X3381136Y864018D01*
X3380567Y859700D01*
X3381136Y855382D01*
X3382802Y851359D01*
X3385453Y847904D01*
X3388909Y845252D01*
X3392932Y843586D01*
X3397250Y843017D01*
X3401568Y843586D01*
X3405591Y845252D01*
X3409047Y847904D01*
X3411698Y851359D01*
X3413364Y855382D01*
X3413933Y859700D01*
X3413364Y864018D01*
X3411698Y868041D01*
X3409047Y871497D01*
X3405591Y874148D01*
X3401568Y875814D01*
X3397250Y876383D01*
D02*
G37*
G36*
X3355250D02*
X3350932Y875814D01*
X3346909Y874148D01*
X3343454Y871497D01*
X3340802Y868041D01*
X3339136Y864018D01*
X3338568Y859700D01*
X3339136Y855382D01*
X3340802Y851359D01*
X3343454Y847904D01*
X3346909Y845252D01*
X3350932Y843586D01*
X3355250Y843017D01*
X3359568Y843586D01*
X3363591Y845252D01*
X3367047Y847904D01*
X3369698Y851359D01*
X3371364Y855382D01*
X3371933Y859700D01*
X3371364Y864018D01*
X3369698Y868041D01*
X3367047Y871497D01*
X3363591Y874148D01*
X3359568Y875814D01*
X3355250Y876383D01*
D02*
G37*
G36*
X3041650D02*
X3037332Y875814D01*
X3033309Y874148D01*
X3029854Y871497D01*
X3027202Y868041D01*
X3025536Y864018D01*
X3024967Y859700D01*
X3025536Y855382D01*
X3027202Y851359D01*
X3029854Y847904D01*
X3033309Y845252D01*
X3037332Y843586D01*
X3041650Y843017D01*
X3045968Y843586D01*
X3049991Y845252D01*
X3053446Y847904D01*
X3056098Y851359D01*
X3057764Y855382D01*
X3058333Y859700D01*
X3057764Y864018D01*
X3056098Y868041D01*
X3053446Y871497D01*
X3049991Y874148D01*
X3045968Y875814D01*
X3041650Y876383D01*
D02*
G37*
G36*
X2999650D02*
X2995332Y875814D01*
X2991309Y874148D01*
X2987854Y871497D01*
X2985202Y868041D01*
X2983536Y864018D01*
X2982968Y859700D01*
X2983536Y855382D01*
X2985202Y851359D01*
X2987854Y847904D01*
X2991309Y845252D01*
X2995332Y843586D01*
X2999650Y843017D01*
X3003968Y843586D01*
X3007991Y845252D01*
X3011447Y847904D01*
X3014098Y851359D01*
X3015764Y855382D01*
X3016333Y859700D01*
X3015764Y864018D01*
X3014098Y868041D01*
X3011447Y871497D01*
X3007991Y874148D01*
X3003968Y875814D01*
X2999650Y876383D01*
D02*
G37*
G36*
X3177450D02*
X3173132Y875814D01*
X3169109Y874148D01*
X3165654Y871497D01*
X3163002Y868041D01*
X3161336Y864018D01*
X3160768Y859700D01*
X3161336Y855382D01*
X3163002Y851359D01*
X3165654Y847904D01*
X3169109Y845252D01*
X3173132Y843586D01*
X3177450Y843017D01*
X3181768Y843586D01*
X3185791Y845252D01*
X3189247Y847904D01*
X3191898Y851359D01*
X3193564Y855382D01*
X3194133Y859700D01*
X3193564Y864018D01*
X3191898Y868041D01*
X3189247Y871497D01*
X3185791Y874148D01*
X3181768Y875814D01*
X3177450Y876383D01*
D02*
G37*
G36*
X3135450D02*
X3131133Y875814D01*
X3127109Y874148D01*
X3123654Y871497D01*
X3121003Y868041D01*
X3119336Y864018D01*
X3118767Y859700D01*
X3119336Y855382D01*
X3121003Y851359D01*
X3123654Y847904D01*
X3127109Y845252D01*
X3131133Y843586D01*
X3135450Y843017D01*
X3139768Y843586D01*
X3143792Y845252D01*
X3147247Y847904D01*
X3149898Y851359D01*
X3151564Y855382D01*
X3152133Y859700D01*
X3151564Y864018D01*
X3149898Y868041D01*
X3147247Y871497D01*
X3143792Y874148D01*
X3139768Y875814D01*
X3135450Y876383D01*
D02*
G37*
G36*
X3219450Y1002373D02*
X3214051Y1001842D01*
X3208860Y1000267D01*
X3204076Y997710D01*
X3199882Y994268D01*
X3196440Y990075D01*
X3193883Y985290D01*
X3192308Y980099D01*
X3191777Y974700D01*
X3192308Y969301D01*
X3193883Y964110D01*
X3196440Y959326D01*
X3199882Y955132D01*
X3204076Y951691D01*
X3208860Y949133D01*
X3214051Y947559D01*
X3219450Y947027D01*
X3224849Y947559D01*
X3230040Y949133D01*
X3234825Y951691D01*
X3239018Y955132D01*
X3242459Y959326D01*
X3245017Y964110D01*
X3246591Y969301D01*
X3247123Y974700D01*
X3246591Y980099D01*
X3245017Y985290D01*
X3242459Y990075D01*
X3239018Y994268D01*
X3234825Y997710D01*
X3230040Y1000267D01*
X3224849Y1001842D01*
X3219450Y1002373D01*
D02*
G37*
G36*
X3135450D02*
X3130051Y1001842D01*
X3124860Y1000267D01*
X3120076Y997710D01*
X3115882Y994268D01*
X3112441Y990075D01*
X3109883Y985290D01*
X3108309Y980099D01*
X3107777Y974700D01*
X3108309Y969301D01*
X3109883Y964110D01*
X3112441Y959326D01*
X3115882Y955132D01*
X3120076Y951691D01*
X3124860Y949133D01*
X3130051Y947559D01*
X3135450Y947027D01*
X3140849Y947559D01*
X3146040Y949133D01*
X3150825Y951691D01*
X3155018Y955132D01*
X3158459Y959326D01*
X3161017Y964110D01*
X3162592Y969301D01*
X3163123Y974700D01*
X3162592Y980099D01*
X3161017Y985290D01*
X3158459Y990075D01*
X3155018Y994268D01*
X3150825Y997710D01*
X3146040Y1000267D01*
X3140849Y1001842D01*
X3135450Y1002373D01*
D02*
G37*
G36*
X3397250D02*
X3391851Y1001842D01*
X3386660Y1000267D01*
X3381876Y997710D01*
X3377682Y994268D01*
X3374240Y990075D01*
X3371683Y985290D01*
X3370109Y980099D01*
X3369577Y974700D01*
X3370109Y969301D01*
X3371683Y964110D01*
X3374240Y959326D01*
X3377682Y955132D01*
X3381876Y951691D01*
X3386660Y949133D01*
X3391851Y947559D01*
X3397250Y947027D01*
X3402649Y947559D01*
X3407840Y949133D01*
X3412625Y951691D01*
X3416818Y955132D01*
X3420259Y959326D01*
X3422817Y964110D01*
X3424391Y969301D01*
X3424923Y974700D01*
X3424391Y980099D01*
X3422817Y985290D01*
X3420259Y990075D01*
X3416818Y994268D01*
X3412625Y997710D01*
X3407840Y1000267D01*
X3402649Y1001842D01*
X3397250Y1002373D01*
D02*
G37*
G36*
X3313250D02*
X3307851Y1001842D01*
X3302660Y1000267D01*
X3297876Y997710D01*
X3293682Y994268D01*
X3290241Y990075D01*
X3287683Y985290D01*
X3286109Y980099D01*
X3285577Y974700D01*
X3286109Y969301D01*
X3287683Y964110D01*
X3290241Y959326D01*
X3293682Y955132D01*
X3297876Y951691D01*
X3302660Y949133D01*
X3307851Y947559D01*
X3313250Y947027D01*
X3318649Y947559D01*
X3323840Y949133D01*
X3328625Y951691D01*
X3332818Y955132D01*
X3336259Y959326D01*
X3338817Y964110D01*
X3340392Y969301D01*
X3340923Y974700D01*
X3340392Y980099D01*
X3338817Y985290D01*
X3336259Y990075D01*
X3332818Y994268D01*
X3328625Y997710D01*
X3323840Y1000267D01*
X3318649Y1001842D01*
X3313250Y1002373D01*
D02*
G37*
G36*
X2863850D02*
X2858451Y1001842D01*
X2853260Y1000267D01*
X2848476Y997710D01*
X2844282Y994268D01*
X2840840Y990075D01*
X2838283Y985290D01*
X2836708Y980099D01*
X2836177Y974700D01*
X2836708Y969301D01*
X2838283Y964110D01*
X2840840Y959326D01*
X2844282Y955132D01*
X2848476Y951691D01*
X2853260Y949133D01*
X2858451Y947559D01*
X2863850Y947027D01*
X2869249Y947559D01*
X2874440Y949133D01*
X2879225Y951691D01*
X2883418Y955132D01*
X2886859Y959326D01*
X2889417Y964110D01*
X2890992Y969301D01*
X2891523Y974700D01*
X2890992Y980099D01*
X2889417Y985290D01*
X2886859Y990075D01*
X2883418Y994268D01*
X2879225Y997710D01*
X2874440Y1000267D01*
X2869249Y1001842D01*
X2863850Y1002373D01*
D02*
G37*
G36*
X2779850D02*
X2774451Y1001842D01*
X2769260Y1000267D01*
X2764476Y997710D01*
X2760282Y994268D01*
X2756841Y990075D01*
X2754283Y985290D01*
X2752709Y980099D01*
X2752177Y974700D01*
X2752709Y969301D01*
X2754283Y964110D01*
X2756841Y959326D01*
X2760282Y955132D01*
X2764476Y951691D01*
X2769260Y949133D01*
X2774451Y947559D01*
X2779850Y947027D01*
X2785249Y947559D01*
X2790440Y949133D01*
X2795225Y951691D01*
X2799418Y955132D01*
X2802859Y959326D01*
X2805417Y964110D01*
X2806992Y969301D01*
X2807523Y974700D01*
X2806992Y980099D01*
X2805417Y985290D01*
X2802859Y990075D01*
X2799418Y994268D01*
X2795225Y997710D01*
X2790440Y1000267D01*
X2785249Y1001842D01*
X2779850Y1002373D01*
D02*
G37*
G36*
X3041650D02*
X3036251Y1001842D01*
X3031060Y1000267D01*
X3026276Y997710D01*
X3022082Y994268D01*
X3018640Y990075D01*
X3016083Y985290D01*
X3014508Y980099D01*
X3013977Y974700D01*
X3014508Y969301D01*
X3016083Y964110D01*
X3018640Y959326D01*
X3022082Y955132D01*
X3026276Y951691D01*
X3031060Y949133D01*
X3036251Y947559D01*
X3041650Y947027D01*
X3047049Y947559D01*
X3052240Y949133D01*
X3057025Y951691D01*
X3061218Y955132D01*
X3064659Y959326D01*
X3067217Y964110D01*
X3068792Y969301D01*
X3069323Y974700D01*
X3068792Y980099D01*
X3067217Y985290D01*
X3064659Y990075D01*
X3061218Y994268D01*
X3057025Y997710D01*
X3052240Y1000267D01*
X3047049Y1001842D01*
X3041650Y1002373D01*
D02*
G37*
G36*
X2957650D02*
X2952251Y1001842D01*
X2947060Y1000267D01*
X2942276Y997710D01*
X2938082Y994268D01*
X2934641Y990075D01*
X2932083Y985290D01*
X2930509Y980099D01*
X2929977Y974700D01*
X2930509Y969301D01*
X2932083Y964110D01*
X2934641Y959326D01*
X2938082Y955132D01*
X2942276Y951691D01*
X2947060Y949133D01*
X2952251Y947559D01*
X2957650Y947027D01*
X2963049Y947559D01*
X2968240Y949133D01*
X2973025Y951691D01*
X2977218Y955132D01*
X2980659Y959326D01*
X2983217Y964110D01*
X2984792Y969301D01*
X2985323Y974700D01*
X2984792Y980099D01*
X2983217Y985290D01*
X2980659Y990075D01*
X2977218Y994268D01*
X2973025Y997710D01*
X2968240Y1000267D01*
X2963049Y1001842D01*
X2957650Y1002373D01*
D02*
G37*
G36*
Y876383D02*
X2953333Y875814D01*
X2949309Y874148D01*
X2945854Y871497D01*
X2943203Y868041D01*
X2941536Y864018D01*
X2940967Y859700D01*
X2941536Y855382D01*
X2943203Y851359D01*
X2945854Y847904D01*
X2949309Y845252D01*
X2953333Y843586D01*
X2957650Y843017D01*
X2961968Y843586D01*
X2965992Y845252D01*
X2969447Y847904D01*
X2972098Y851359D01*
X2973764Y855382D01*
X2974333Y859700D01*
X2973764Y864018D01*
X2972098Y868041D01*
X2969447Y871497D01*
X2965992Y874148D01*
X2961968Y875814D01*
X2957650Y876383D01*
D02*
G37*
G36*
X3061250Y778683D02*
X3056932Y778114D01*
X3052909Y776448D01*
X3049454Y773796D01*
X3046802Y770341D01*
X3045136Y766318D01*
X3044567Y762000D01*
X3045136Y757682D01*
X3046802Y753659D01*
X3049454Y750203D01*
X3052909Y747552D01*
X3056932Y745886D01*
X3061250Y745317D01*
X3065568Y745886D01*
X3069591Y747552D01*
X3073047Y750203D01*
X3075698Y753659D01*
X3077365Y757682D01*
X3077933Y762000D01*
X3077365Y766318D01*
X3075698Y770341D01*
X3073047Y773796D01*
X3069591Y776448D01*
X3065568Y778114D01*
X3061250Y778683D01*
D02*
G37*
G36*
X3019250D02*
X3014932Y778114D01*
X3010909Y776448D01*
X3007453Y773796D01*
X3004802Y770341D01*
X3003135Y766318D01*
X3002567Y762000D01*
X3003135Y757682D01*
X3004802Y753659D01*
X3007453Y750203D01*
X3010909Y747552D01*
X3014932Y745886D01*
X3019250Y745317D01*
X3023568Y745886D01*
X3027591Y747552D01*
X3031046Y750203D01*
X3033698Y753659D01*
X3035364Y757682D01*
X3035933Y762000D01*
X3035364Y766318D01*
X3033698Y770341D01*
X3031046Y773796D01*
X3027591Y776448D01*
X3023568Y778114D01*
X3019250Y778683D01*
D02*
G37*
G36*
X3145250D02*
X3140932Y778114D01*
X3136909Y776448D01*
X3133453Y773796D01*
X3130802Y770341D01*
X3129136Y766318D01*
X3128567Y762000D01*
X3129136Y757682D01*
X3130802Y753659D01*
X3133453Y750203D01*
X3136909Y747552D01*
X3140932Y745886D01*
X3145250Y745317D01*
X3149568Y745886D01*
X3153591Y747552D01*
X3157047Y750203D01*
X3159698Y753659D01*
X3161364Y757682D01*
X3161933Y762000D01*
X3161364Y766318D01*
X3159698Y770341D01*
X3157047Y773796D01*
X3153591Y776448D01*
X3149568Y778114D01*
X3145250Y778683D01*
D02*
G37*
G36*
X3103250D02*
X3098932Y778114D01*
X3094909Y776448D01*
X3091454Y773796D01*
X3088802Y770341D01*
X3087136Y766318D01*
X3086567Y762000D01*
X3087136Y757682D01*
X3088802Y753659D01*
X3091454Y750203D01*
X3094909Y747552D01*
X3098932Y745886D01*
X3103250Y745317D01*
X3107568Y745886D01*
X3111591Y747552D01*
X3115047Y750203D01*
X3117698Y753659D01*
X3119364Y757682D01*
X3119933Y762000D01*
X3119364Y766318D01*
X3117698Y770341D01*
X3115047Y773796D01*
X3111591Y776448D01*
X3107568Y778114D01*
X3103250Y778683D01*
D02*
G37*
G36*
X2749550Y747488D02*
X2746732Y747117D01*
X2744106Y746029D01*
X2741851Y744299D01*
X2740121Y742044D01*
X2739033Y739418D01*
X2738662Y736600D01*
X2739033Y733782D01*
X2740121Y731156D01*
X2741851Y728901D01*
X2744106Y727171D01*
X2746732Y726083D01*
X2749550Y725712D01*
X2752368Y726083D01*
X2754994Y727171D01*
X2757249Y728901D01*
X2758979Y731156D01*
X2760067Y733782D01*
X2760438Y736600D01*
X2760067Y739418D01*
X2758979Y742044D01*
X2757249Y744299D01*
X2754994Y746029D01*
X2752368Y747117D01*
X2749550Y747488D01*
D02*
G37*
G36*
X3397250Y723683D02*
X3392932Y723114D01*
X3388909Y721448D01*
X3385453Y718796D01*
X3382802Y715341D01*
X3381136Y711318D01*
X3380567Y707000D01*
X3381136Y702682D01*
X3382802Y698659D01*
X3385453Y695203D01*
X3388909Y692552D01*
X3392932Y690886D01*
X3397250Y690317D01*
X3401568Y690886D01*
X3405591Y692552D01*
X3409047Y695203D01*
X3411698Y698659D01*
X3413364Y702682D01*
X3413933Y707000D01*
X3413364Y711318D01*
X3411698Y715341D01*
X3409047Y718796D01*
X3405591Y721448D01*
X3401568Y723114D01*
X3397250Y723683D01*
D02*
G37*
G36*
X2977250Y778683D02*
X2972932Y778114D01*
X2968908Y776448D01*
X2965453Y773796D01*
X2962802Y770341D01*
X2961136Y766318D01*
X2960567Y762000D01*
X2961136Y757682D01*
X2962802Y753659D01*
X2965453Y750203D01*
X2968908Y747552D01*
X2972932Y745886D01*
X2977250Y745317D01*
X2981568Y745886D01*
X2985591Y747552D01*
X2989046Y750203D01*
X2991697Y753659D01*
X2993364Y757682D01*
X2993932Y762000D01*
X2993364Y766318D01*
X2991697Y770341D01*
X2989046Y773796D01*
X2985591Y776448D01*
X2981568Y778114D01*
X2977250Y778683D01*
D02*
G37*
G36*
X2774950Y747488D02*
X2772132Y747117D01*
X2769506Y746029D01*
X2767251Y744299D01*
X2765521Y742044D01*
X2764433Y739418D01*
X2764062Y736600D01*
X2764433Y733782D01*
X2765521Y731156D01*
X2767251Y728901D01*
X2769506Y727171D01*
X2772132Y726083D01*
X2774950Y725712D01*
X2777768Y726083D01*
X2780394Y727171D01*
X2782649Y728901D01*
X2784379Y731156D01*
X2785467Y733782D01*
X2785838Y736600D01*
X2785467Y739418D01*
X2784379Y742044D01*
X2782649Y744299D01*
X2780394Y746029D01*
X2777768Y747117D01*
X2774950Y747488D01*
D02*
G37*
G36*
X2779850Y876383D02*
X2775533Y875814D01*
X2771509Y874148D01*
X2768054Y871497D01*
X2765403Y868041D01*
X2763736Y864018D01*
X2763167Y859700D01*
X2763736Y855382D01*
X2765403Y851359D01*
X2768054Y847904D01*
X2771509Y845252D01*
X2775533Y843586D01*
X2779850Y843017D01*
X2784168Y843586D01*
X2788192Y845252D01*
X2791647Y847904D01*
X2794298Y851359D01*
X2795964Y855382D01*
X2796533Y859700D01*
X2795964Y864018D01*
X2794298Y868041D01*
X2791647Y871497D01*
X2788192Y874148D01*
X2784168Y875814D01*
X2779850Y876383D01*
D02*
G37*
G36*
X2951790Y778540D02*
X2918710D01*
Y745460D01*
X2951790D01*
Y778540D01*
D02*
G37*
G36*
X2863850Y876383D02*
X2859532Y875814D01*
X2855509Y874148D01*
X2852054Y871497D01*
X2849402Y868041D01*
X2847736Y864018D01*
X2847167Y859700D01*
X2847736Y855382D01*
X2849402Y851359D01*
X2852054Y847904D01*
X2855509Y845252D01*
X2859532Y843586D01*
X2863850Y843017D01*
X2868168Y843586D01*
X2872191Y845252D01*
X2875646Y847904D01*
X2878298Y851359D01*
X2879964Y855382D01*
X2880533Y859700D01*
X2879964Y864018D01*
X2878298Y868041D01*
X2875646Y871497D01*
X2872191Y874148D01*
X2868168Y875814D01*
X2863850Y876383D01*
D02*
G37*
G36*
X2821850D02*
X2817532Y875814D01*
X2813509Y874148D01*
X2810054Y871497D01*
X2807402Y868041D01*
X2805736Y864018D01*
X2805168Y859700D01*
X2805736Y855382D01*
X2807402Y851359D01*
X2810054Y847904D01*
X2813509Y845252D01*
X2817532Y843586D01*
X2821850Y843017D01*
X2826168Y843586D01*
X2830191Y845252D01*
X2833647Y847904D01*
X2836298Y851359D01*
X2837964Y855382D01*
X2838533Y859700D01*
X2837964Y864018D01*
X2836298Y868041D01*
X2833647Y871497D01*
X2830191Y874148D01*
X2826168Y875814D01*
X2821850Y876383D01*
D02*
G37*
G36*
X2851150Y791554D02*
X2848431Y791196D01*
X2845898Y790147D01*
X2843723Y788477D01*
X2842054Y786302D01*
X2841004Y783769D01*
X2840646Y781050D01*
X2841004Y778331D01*
X2842054Y775798D01*
X2843723Y773623D01*
X2845898Y771953D01*
X2848431Y770904D01*
X2851150Y770546D01*
X2853869Y770904D01*
X2855236Y771470D01*
X2899203Y727503D01*
X2900463Y726661D01*
X2901950Y726365D01*
X3197500D01*
X3198987Y726661D01*
X3200247Y727503D01*
X3220562Y747818D01*
X3220909Y747552D01*
X3224932Y745886D01*
X3229250Y745317D01*
X3233568Y745886D01*
X3237591Y747552D01*
X3241046Y750203D01*
X3243698Y753659D01*
X3245364Y757682D01*
X3245933Y762000D01*
X3245364Y766318D01*
X3243698Y770341D01*
X3241046Y773796D01*
X3237591Y776448D01*
X3233568Y778114D01*
X3229250Y778683D01*
X3224932Y778114D01*
X3220909Y776448D01*
X3217453Y773796D01*
X3214802Y770341D01*
X3213136Y766318D01*
X3212567Y762000D01*
X3213136Y757682D01*
X3214802Y753659D01*
X3215068Y753312D01*
X3195891Y734135D01*
X2903559D01*
X2860730Y776964D01*
X2861296Y778331D01*
X2861654Y781050D01*
X2861296Y783769D01*
X2860247Y786302D01*
X2858577Y788477D01*
X2856402Y790147D01*
X2853869Y791196D01*
X2851150Y791554D01*
D02*
G37*
G36*
X3187250Y778683D02*
X3182932Y778114D01*
X3178909Y776448D01*
X3175453Y773796D01*
X3172802Y770341D01*
X3171136Y766318D01*
X3170567Y762000D01*
X3171136Y757682D01*
X3172802Y753659D01*
X3175453Y750203D01*
X3178909Y747552D01*
X3182932Y745886D01*
X3187250Y745317D01*
X3191568Y745886D01*
X3195591Y747552D01*
X3199046Y750203D01*
X3201698Y753659D01*
X3203364Y757682D01*
X3203932Y762000D01*
X3203364Y766318D01*
X3201698Y770341D01*
X3199046Y773796D01*
X3195591Y776448D01*
X3191568Y778114D01*
X3187250Y778683D01*
D02*
G37*
G36*
X3397250D02*
X3392932Y778114D01*
X3388909Y776448D01*
X3385453Y773796D01*
X3382802Y770341D01*
X3381136Y766318D01*
X3380567Y762000D01*
X3381136Y757682D01*
X3382802Y753659D01*
X3385453Y750203D01*
X3388909Y747552D01*
X3392932Y745886D01*
X3397250Y745317D01*
X3401568Y745886D01*
X3405591Y747552D01*
X3409047Y750203D01*
X3411698Y753659D01*
X3413364Y757682D01*
X3413933Y762000D01*
X3413364Y766318D01*
X3411698Y770341D01*
X3409047Y773796D01*
X3405591Y776448D01*
X3401568Y778114D01*
X3397250Y778683D01*
D02*
G37*
G36*
X3271250D02*
X3266932Y778114D01*
X3262908Y776448D01*
X3259453Y773796D01*
X3256802Y770341D01*
X3255135Y766318D01*
X3254567Y762000D01*
X3255135Y757682D01*
X3256802Y753659D01*
X3259453Y750203D01*
X3262908Y747552D01*
X3266932Y745886D01*
X3271250Y745317D01*
X3275568Y745886D01*
X3279591Y747552D01*
X3283046Y750203D01*
X3285697Y753659D01*
X3287364Y757682D01*
X3287932Y762000D01*
X3287364Y766318D01*
X3285697Y770341D01*
X3283046Y773796D01*
X3279591Y776448D01*
X3275568Y778114D01*
X3271250Y778683D01*
D02*
G37*
%LPD*%
D10*
X3197500Y730250D02*
X3229250Y762000D01*
X2901950Y730250D02*
X3197500D01*
X2851150Y781050D02*
X2901950Y730250D01*
X2736850Y425450D02*
X3441700D01*
X3295396Y883846D02*
X3313250Y901700D01*
X3295396Y779854D02*
Y883846D01*
Y779854D02*
X3313250Y762000D01*
X2802890Y882740D02*
X2821850Y901700D01*
X2802890Y797560D02*
Y882740D01*
Y797560D02*
X2819400Y781050D01*
X3295396Y744146D02*
X3313250Y762000D01*
X3295396Y584454D02*
Y744146D01*
Y584454D02*
X3314700Y565150D01*
X2781300D02*
X2823300D01*
X2865300D01*
X2959100D01*
X3001100D02*
X3043100D01*
X2959100D02*
X3001100D01*
X3314700D02*
X3356700D01*
X3398700D01*
X3220900D02*
X3314700D01*
X3043100D02*
X3136900D01*
X3178900D02*
X3220900D01*
X3136900D02*
X3178900D01*
X3313250Y762000D02*
X3355250D01*
Y901700D02*
X3397250D01*
X3313250D02*
X3355250D01*
X3219450D02*
X3313250D01*
X3135450D02*
X3177450D01*
X3219450D01*
X2779850D02*
X2821850D01*
X2863850D01*
X2957650D01*
X3041650D02*
X3135450D01*
X2957650D02*
X2999650D01*
X3041650D01*
X2686000Y1046000D02*
X3501971D01*
X3502861Y1046889D01*
Y414610D02*
Y1046889D01*
X3501000Y412750D02*
X3502861Y414610D01*
X2689000Y412750D02*
X3501000D01*
X2686000Y415750D02*
X2689000Y412750D01*
X2686000Y415750D02*
Y1046000D01*
D11*
X3473450Y438150D02*
D03*
Y1022350D02*
D03*
X2711450Y438150D02*
D03*
Y1022350D02*
D03*
D12*
X3397250Y707000D02*
D03*
X3355250D02*
D03*
X3313250D02*
D03*
X3271250D02*
D03*
X3229250D02*
D03*
X3187250D02*
D03*
X3145250D02*
D03*
X3103250D02*
D03*
X3061250D02*
D03*
X3019250D02*
D03*
X2977250D02*
D03*
X2935250D02*
D03*
X3397250Y762000D02*
D03*
X3355250D02*
D03*
X3313250D02*
D03*
X3271250D02*
D03*
X3229250D02*
D03*
X3187250D02*
D03*
X3145250D02*
D03*
X3103250D02*
D03*
X3061250D02*
D03*
X3019250D02*
D03*
X2977250D02*
D03*
X2779850Y859700D02*
D03*
X2821850D02*
D03*
X2863850D02*
D03*
X2779850Y901700D02*
D03*
X2821850D02*
D03*
X2957650Y859700D02*
D03*
X2999650D02*
D03*
X3041650D02*
D03*
X2957650Y901700D02*
D03*
X2999650D02*
D03*
X3135450Y859700D02*
D03*
X3177450D02*
D03*
X3219450D02*
D03*
X3135450Y901700D02*
D03*
X3177450D02*
D03*
X3313250Y859700D02*
D03*
X3355250D02*
D03*
X3397250D02*
D03*
X3313250Y901700D02*
D03*
X3355250D02*
D03*
X2865300Y607150D02*
D03*
X2823300D02*
D03*
X2781300D02*
D03*
X2865300Y565150D02*
D03*
X2823300D02*
D03*
X3043100Y607150D02*
D03*
X3001100D02*
D03*
X2959100D02*
D03*
X3043100Y565150D02*
D03*
X3001100D02*
D03*
X3220900Y607150D02*
D03*
X3178900D02*
D03*
X3136900D02*
D03*
X3220900Y565150D02*
D03*
X3178900D02*
D03*
X3398700Y607150D02*
D03*
X3356700D02*
D03*
X3314700D02*
D03*
X3398700Y565150D02*
D03*
X3356700D02*
D03*
D13*
X2935250Y762000D02*
D03*
X2863850Y901700D02*
D03*
X3041650D02*
D03*
X3219450D02*
D03*
X3397250D02*
D03*
X2781300Y565150D02*
D03*
X2959100D02*
D03*
X3136900D02*
D03*
X3314700D02*
D03*
D14*
X2779850Y974700D02*
D03*
X2863850D02*
D03*
X2957650D02*
D03*
X3041650D02*
D03*
X3135450D02*
D03*
X3219450D02*
D03*
X3313250D02*
D03*
X3397250D02*
D03*
X2865300Y492150D02*
D03*
X2781300D02*
D03*
X3043100D02*
D03*
X2959100D02*
D03*
X3220900D02*
D03*
X3136900D02*
D03*
X3398700D02*
D03*
X3314700D02*
D03*
D15*
X2819400Y781050D02*
D03*
Y679450D02*
D03*
X2851150D02*
D03*
Y781050D02*
D03*
D16*
X2774950Y736600D02*
D03*
X2749550D02*
D03*
M02*
