%FSLAX24Y24*%
%MOIN*%
G70*
G01*
G75*
G04 Layer_Physical_Order=2*
G04 Layer_Color=16711680*
%ADD10C,0.0100*%
%ADD11C,0.0200*%
%ADD12C,0.0600*%
%ADD13R,0.0600X0.0600*%
%ADD14C,0.0700*%
%ADD15C,0.0630*%
%ADD16C,0.0591*%
%ADD17R,0.0591X0.0591*%
%ADD18R,0.0591X0.0591*%
%ADD19C,0.0500*%
D10*
X35250Y14250D02*
X35500Y14000D01*
X35250Y14250D02*
Y16250D01*
X35500Y14000D02*
X36000D01*
X36250Y13750D01*
Y13250D02*
Y13750D01*
X35750Y12750D02*
X36250Y13250D01*
X35250Y12750D02*
X35750D01*
X35250Y12500D02*
Y12750D01*
X35750Y4750D02*
Y8000D01*
X35450Y4450D02*
X35750Y4750D01*
X35450Y4417D02*
Y4450D01*
X34500Y3467D02*
X35450Y4417D01*
X34500Y3250D02*
Y3467D01*
X11167Y3050D02*
X11200D01*
X23500Y4250D02*
Y5500D01*
X19750Y6250D02*
X23000Y3000D01*
X23500D01*
X19500Y6000D02*
X23250Y2250D01*
X25000D01*
Y3250D01*
X25530Y3780D01*
X26323D01*
X11000Y12750D02*
X12000D01*
Y16000D01*
X11000Y13750D02*
Y16000D01*
X21500Y8500D02*
Y9250D01*
X30500Y10750D02*
X31250Y10000D01*
X29349Y10750D02*
X30500D01*
X28899Y10300D02*
X29349Y10750D01*
X27550Y10300D02*
X28899D01*
X27500Y10250D02*
X27550Y10300D01*
X27500Y7033D02*
Y10250D01*
Y7033D02*
X28533Y6000D01*
X30250D01*
X29150Y10900D02*
X29250Y11000D01*
X29150Y10834D02*
Y10900D01*
X28816Y10500D02*
X29150Y10834D01*
X27250Y10500D02*
X28816D01*
X27250Y7000D02*
Y10500D01*
Y7000D02*
X29250Y5000D01*
X8500Y7000D02*
Y11000D01*
X7500Y12000D02*
X8500D01*
X7500Y7000D02*
Y12000D01*
X32250Y13000D02*
X34500D01*
X29250Y11000D02*
X31250D01*
X34500Y4500D02*
Y13000D01*
X30750Y4500D02*
X34500D01*
X30250Y5000D02*
X30750Y4500D01*
X31500Y5000D02*
X34250D01*
Y12000D01*
X32250D02*
X34250D01*
X28500Y4250D02*
Y5000D01*
X28000Y3750D02*
X28500Y4250D01*
X26353Y3750D02*
X28000D01*
X26323Y3780D02*
X26353Y3750D01*
X19500Y6000D02*
Y10500D01*
X20250D01*
X31250Y14750D02*
X34250Y17750D01*
X31250Y14000D02*
Y14750D01*
X31805Y13184D02*
X32066Y13445D01*
X31805Y11816D02*
Y13184D01*
X32434Y11445D02*
X32695Y11184D01*
Y10555D02*
Y11184D01*
X32250Y10109D02*
X32695Y10555D01*
X32325Y13445D02*
X32695Y13816D01*
X32066Y13445D02*
X32325D01*
X31805Y11816D02*
X32175Y11445D01*
X32434D01*
X30000Y13000D02*
X31250D01*
X19750Y6250D02*
Y8500D01*
X20250D01*
X31750Y5750D02*
X32750D01*
X30250Y7250D02*
X31750Y5750D01*
X22250Y7250D02*
Y12500D01*
X20250D02*
X22250D01*
X25500Y5500D02*
Y6750D01*
X35000Y14000D02*
X35500Y13500D01*
X35000Y14000D02*
Y18500D01*
X32750D02*
X35000D01*
X32750Y17500D02*
Y18500D01*
X27000Y11750D02*
X32750Y17500D01*
X27000Y6000D02*
Y11750D01*
X26500Y5500D02*
X27000Y6000D01*
X32250Y17500D02*
Y19000D01*
X26750Y12000D02*
X32250Y17500D01*
X26750Y6750D02*
Y12000D01*
X26000Y6000D02*
X26750Y6750D01*
X26000Y5000D02*
Y6000D01*
Y5000D02*
X26250Y4750D01*
X27500D01*
Y5500D01*
X35250Y4500D02*
Y10000D01*
X34500Y3750D02*
X35250Y4500D01*
X28500Y3750D02*
X34500D01*
X26750Y2000D02*
X28500Y3750D01*
X23000Y2000D02*
X26750D01*
X16750Y8250D02*
X23000Y2000D01*
X15500Y8250D02*
X16750D01*
X28500Y3250D02*
X34500D01*
X27000Y1750D02*
X28500Y3250D01*
X22967Y1750D02*
X27000D01*
X17217Y7500D02*
X22967Y1750D01*
X11000Y7500D02*
X17217D01*
X11000D02*
Y8250D01*
X32695Y13816D02*
X33066D01*
X34250Y15000D01*
Y16750D01*
X32250Y14250D02*
X33250Y15250D01*
X32250Y14000D02*
Y14250D01*
X28500Y14750D02*
Y17750D01*
Y12000D02*
X31250D01*
X30000Y9000D02*
X31250D01*
X28750Y11000D02*
X29250Y11500D01*
X31750D01*
X32250Y11000D01*
X20500Y7500D02*
X21500Y8500D01*
X28750Y18500D02*
X29000Y18250D01*
X22500Y18500D02*
X28750D01*
X21000Y17000D02*
X22500Y18500D01*
X21000Y13000D02*
Y17000D01*
X20945Y12945D02*
X21000Y13000D01*
X20066Y12945D02*
X20945D01*
X19805Y12684D02*
X20066Y12945D01*
X19805Y11316D02*
Y12684D01*
X20434Y10945D02*
X20695Y10684D01*
Y10055D02*
Y10684D01*
X20250Y9609D02*
X20695Y10055D01*
X19805Y11316D02*
X20175Y10945D01*
X20434D01*
X29000Y17000D02*
Y18250D01*
Y17000D02*
X30750D01*
X31500Y17750D01*
X28984Y15234D02*
X29500Y15750D01*
X28984Y14516D02*
Y15234D01*
X27467Y13000D02*
X28984Y14516D01*
X23000Y13000D02*
X27467D01*
X23000Y6500D02*
Y13000D01*
X21500Y6500D02*
X23000D01*
X21500D02*
Y7500D01*
X22000Y8000D01*
Y11500D01*
X20250D02*
X22000D01*
X29250Y17750D02*
X29750D01*
X29200Y17800D02*
X29250Y17750D01*
X29200Y17800D02*
Y18333D01*
X28533Y19000D02*
X29200Y18333D01*
X21250Y19000D02*
X28533D01*
X19250Y17000D02*
X21250Y19000D01*
X19250Y14500D02*
Y17000D01*
Y14500D02*
X20250Y13500D01*
X32250Y19000D02*
X36250D01*
X35250Y12500D02*
X35500Y12250D01*
X36000Y14500D02*
Y15500D01*
X35250Y16250D02*
X36250Y17250D01*
Y19000D01*
X33000Y9000D02*
X33250Y9250D01*
X32250Y9000D02*
X33000D01*
X20250Y14500D02*
Y16000D01*
X24500Y4250D02*
Y5500D01*
D11*
X19000Y2500D02*
Y3500D01*
X11500D02*
X19000D01*
X10000Y5000D02*
X11500Y3500D01*
X10000Y5000D02*
Y11000D01*
X12000D01*
X13750Y12750D01*
X15500D01*
X11750Y2500D02*
X16000D01*
X11200Y3050D02*
X11750Y2500D01*
X9500Y4717D02*
X11167Y3050D01*
X9500Y4717D02*
Y11500D01*
X11500D01*
X13750Y13750D01*
X15500D01*
D12*
X38000Y20000D02*
D03*
X37000D02*
D03*
X38000Y19000D02*
D03*
X37000D02*
D03*
X38000Y18000D02*
D03*
X37000D02*
D03*
X38000Y17000D02*
D03*
X37000D02*
D03*
X38000Y16000D02*
D03*
X37000D02*
D03*
X38000Y15000D02*
D03*
X37000D02*
D03*
X38000Y14000D02*
D03*
X37000D02*
D03*
X38000Y13000D02*
D03*
X37000D02*
D03*
X38000Y12000D02*
D03*
X37000D02*
D03*
Y11000D02*
D03*
X38000D02*
D03*
Y10000D02*
D03*
X37000D02*
D03*
X38000Y9000D02*
D03*
X37000D02*
D03*
X38000Y8000D02*
D03*
X37000D02*
D03*
X38000Y7000D02*
D03*
X37000D02*
D03*
X38000Y6000D02*
D03*
X37000D02*
D03*
X38000Y5000D02*
D03*
X37000D02*
D03*
X38000Y4000D02*
D03*
X37000D02*
D03*
X38000Y3000D02*
D03*
X37000D02*
D03*
X14400Y20000D02*
D03*
X15400D02*
D03*
X9400D02*
D03*
X10400D02*
D03*
X11400D02*
D03*
X12400D02*
D03*
X13400D02*
D03*
X17000Y1000D02*
D03*
X16000D02*
D03*
X15000D02*
D03*
X14000D02*
D03*
X13000D02*
D03*
X23000Y20000D02*
D03*
X24000D02*
D03*
X18000D02*
D03*
X19000D02*
D03*
X20000D02*
D03*
X21000D02*
D03*
X22000D02*
D03*
Y1000D02*
D03*
X21000D02*
D03*
X27000D02*
D03*
X26000D02*
D03*
X25000D02*
D03*
X24000D02*
D03*
X23000D02*
D03*
X32000Y20000D02*
D03*
X33000D02*
D03*
X27000D02*
D03*
X28000D02*
D03*
X29000D02*
D03*
X30000D02*
D03*
X31000D02*
D03*
Y1000D02*
D03*
X30000D02*
D03*
X36000D02*
D03*
X35000D02*
D03*
X34000D02*
D03*
X33000D02*
D03*
X32000D02*
D03*
D13*
X16400Y20000D02*
D03*
X18000Y1000D02*
D03*
X25000Y20000D02*
D03*
X20000Y1000D02*
D03*
X34000Y20000D02*
D03*
X29000Y1000D02*
D03*
D14*
X26055Y9980D02*
D03*
X25055D02*
D03*
X26055Y10980D02*
D03*
X25055D02*
D03*
X26055Y11980D02*
D03*
X25055D02*
D03*
D15*
X35500Y20000D02*
D03*
X38000Y1000D02*
D03*
X26000Y3000D02*
D03*
Y14000D02*
D03*
X5500Y1000D02*
D03*
X6000Y20000D02*
D03*
D16*
X11000Y9250D02*
D03*
X15500D02*
D03*
X24500Y5500D02*
D03*
X25500D02*
D03*
X26500D02*
D03*
X27500D02*
D03*
X15500Y13750D02*
D03*
X11000D02*
D03*
X20250Y14500D02*
D03*
Y13500D02*
D03*
Y12500D02*
D03*
Y11500D02*
D03*
Y10500D02*
D03*
Y9500D02*
D03*
Y8500D02*
D03*
X32250Y8000D02*
D03*
X31250D02*
D03*
X32250Y9000D02*
D03*
X31250D02*
D03*
X32250Y10000D02*
D03*
X31250D02*
D03*
X32250Y11000D02*
D03*
X31250D02*
D03*
X32250Y12000D02*
D03*
X31250D02*
D03*
X32250Y13000D02*
D03*
X31250D02*
D03*
X32250Y14000D02*
D03*
X8500Y12000D02*
D03*
D17*
X11000Y8250D02*
D03*
X15500D02*
D03*
Y12750D02*
D03*
X11000D02*
D03*
X20250Y7500D02*
D03*
X31250Y14000D02*
D03*
X8500Y11000D02*
D03*
D18*
X23500Y5500D02*
D03*
D19*
X16000Y2500D02*
D03*
X19000D02*
D03*
X23500Y4250D02*
D03*
X24500D02*
D03*
X12000Y16000D02*
D03*
X11000D02*
D03*
X8500Y7000D02*
D03*
X7500D02*
D03*
X30250Y5000D02*
D03*
X29250D02*
D03*
X30250Y6000D02*
D03*
X31500Y5000D02*
D03*
X28500D02*
D03*
X34250Y17750D02*
D03*
Y16750D02*
D03*
X30000Y13000D02*
D03*
X33250Y9250D02*
D03*
X23500Y3000D02*
D03*
X32750Y5750D02*
D03*
X30250Y7250D02*
D03*
X22250D02*
D03*
X25500Y6750D02*
D03*
X35500Y13500D02*
D03*
Y12250D02*
D03*
X35250Y10000D02*
D03*
X35750Y8000D02*
D03*
X33250Y15250D02*
D03*
X28500Y17750D02*
D03*
Y14750D02*
D03*
Y12000D02*
D03*
X30000Y9000D02*
D03*
X28750Y11000D02*
D03*
X21500Y9250D02*
D03*
X31500Y17750D02*
D03*
X29500Y15750D02*
D03*
X29750Y17750D02*
D03*
X36000Y14500D02*
D03*
Y15500D02*
D03*
X20250Y16000D02*
D03*
M02*
