%FSTAX23Y23*%
%MOIN*%
%SFA1B1*%

%IPPOS*%
%AMD38*
4,1,8,-0.031000,-0.012900,-0.012900,-0.031000,0.012900,-0.031000,0.031000,-0.012900,0.031000,0.012900,0.012900,0.031000,-0.012900,0.031000,-0.031000,0.012900,-0.031000,-0.012900,0.0*
%
%ADD26C,0.024000*%
%ADD27C,0.012000*%
%ADD28C,0.020000*%
%ADD29C,0.050000*%
%ADD30C,0.051180*%
%ADD31C,0.010000*%
%ADD32C,0.025000*%
%ADD33C,0.106300*%
%ADD34C,0.067870*%
%ADD35C,0.060000*%
%ADD36C,0.110240*%
%ADD37C,0.062990*%
G04~CAMADD=38~4~0.0~0.0~620.0~620.0~0.0~181.6~0~0.0~0.0~0.0~0.0~0~0.0~0.0~0.0~0.0~0~0.0~0.0~0.0~135.0~620.0~620.0*
%ADD38D38*%
%ADD39C,0.066930*%
%ADD40C,0.050000*%
%ADD41C,0.035430*%
%ADD42C,0.025000*%
%ADD43C,0.036000*%
%ADD44C,0.040000*%
%ADD45C,0.070000*%
%LNeurocard_vme_3u_(3.937_x_8.660_inches)-1*%
%LPD*%
G36*
X1266Y06D02*
X04D01*
Y09937*
X1266*
Y06*
G37*
%LNeurocard_vme_3u_(3.937_x_8.660_inches)-2*%
%LPC*%
G36*
X1254Y09783D02*
X12528Y09782D01*
X12516Y09778*
X12505Y09772*
X12496Y09765*
X12489Y09756*
X12483Y09745*
X12479Y09733*
X12478Y09722*
X12479Y0971*
X12483Y09698*
X12489Y09687*
X12496Y09678*
X12505Y09671*
X12516Y09665*
X12528Y09661*
X1254Y0966*
X12551Y09661*
X12563Y09665*
X12574Y09671*
X12583Y09678*
X1259Y09687*
X12596Y09698*
X126Y0971*
X12601Y09722*
X126Y09733*
X12596Y09745*
X1259Y09756*
X12583Y09765*
X12574Y09772*
X12563Y09778*
X12551Y09782*
X1254Y09783*
G37*
G36*
X0414Y09778D02*
X04128Y09777D01*
X04116Y09773*
X04106Y09767*
X04096Y0976*
X04089Y09751*
X04083Y0974*
X04079Y09728*
X04078Y09717*
X04079Y09705*
X04083Y09693*
X04089Y09683*
X04096Y09673*
X04106Y09666*
X04116Y0966*
X04128Y09656*
X0414Y09655*
X04151Y09656*
X04163Y0966*
X04174Y09666*
X04183Y09673*
X0419Y09683*
X04196Y09693*
X042Y09705*
X04201Y09717*
X042Y09728*
X04196Y0974*
X0419Y09751*
X04183Y0976*
X04174Y09767*
X04163Y09773*
X04151Y09777*
X0414Y09778*
G37*
G36*
X1244Y09558D02*
X1243Y09556D01*
X12421Y09553*
X12414Y09547*
X12408Y0954*
X12405Y09531*
X12403Y09522*
X12405Y09512*
X12408Y09503*
X12414Y09496*
X12421Y0949*
X1243Y09487*
X1244Y09485*
X12449Y09487*
X12458Y0949*
X12465Y09496*
X12471Y09503*
X12474Y09512*
X12476Y09522*
X12474Y09531*
X12471Y0954*
X12465Y09547*
X12458Y09553*
X12449Y09556*
X1244Y09558*
G37*
G36*
X1224D02*
X1223Y09556D01*
X12221Y09553*
X12214Y09547*
X12208Y0954*
X12205Y09531*
X12203Y09522*
X12205Y09512*
X12208Y09503*
X12214Y09496*
X12221Y0949*
X1223Y09487*
X1224Y09485*
X12249Y09487*
X12258Y0949*
X12265Y09496*
X12271Y09503*
X12274Y09512*
X12276Y09522*
X12274Y09531*
X12271Y0954*
X12265Y09547*
X12258Y09553*
X12249Y09556*
X1224Y09558*
G37*
G36*
X11693Y09576D02*
X08294D01*
X08285Y09575*
X08278Y09572*
X08271Y09567*
X08266Y0956*
X08263Y09553*
X08262Y09545*
X08263Y09536*
X08266Y09529*
X08271Y09522*
X08278Y09517*
X08285Y09514*
X08294Y09513*
X11679*
X11765Y09427*
Y09382*
X11663*
X11662Y09382*
X11662Y09382*
X1166Y09381*
X11658Y0938*
X11658Y0938*
X11658Y09379*
X11654Y09374*
X11654Y09374*
X11654Y09373*
X11653Y09371*
X11653Y0937*
X09851*
X09846Y09368*
X09844Y09363*
Y09213*
X09839Y09213*
X09838Y0922*
X09834Y0923*
X09828Y09238*
X0982Y09245*
X09815Y09247*
X09814Y09252*
X09818Y09254*
X09823Y09262*
X09825Y09272*
X09823Y09281*
X09818Y09289*
X0981Y09294*
X09801Y09296*
X09791Y09294*
X09783Y09289*
X09778Y09281*
X09776Y09272*
X09778Y09262*
X09783Y09254*
X09786Y09253*
X09785Y09247*
X09779Y09245*
X09771Y09238*
X09765Y0923*
X09761Y0922*
X09759Y0921*
X09761Y092*
X09765Y0919*
X09771Y09181*
X09779Y09175*
X09789Y09171*
X098Y0917*
X0981Y09171*
X0982Y09175*
X09828Y09181*
X09834Y0919*
X09838Y092*
X09839Y09207*
X09844Y09207*
Y08478*
X09846Y08473*
X09851Y08471*
X11658*
X11662Y08473*
X11664Y08478*
Y09131*
X11918*
X11922Y09133*
X12046Y09257*
X12052Y09263*
X12507*
X12511Y09265*
X12513Y0927*
Y09375*
X12512Y09376*
Y09378*
X12512Y09378*
X12511Y0938*
X1251Y0938*
X12509Y09381*
X12508Y09381*
X12507Y09381*
X12506Y09382*
X1245*
X12449Y09387*
X12458Y0939*
X12465Y09396*
X12471Y09403*
X12474Y09412*
X12476Y09422*
X12474Y09431*
X12471Y0944*
X12465Y09447*
X12458Y09453*
X12449Y09456*
X1244Y09458*
X1243Y09456*
X12421Y09453*
X12414Y09447*
X12408Y0944*
X12405Y09431*
X12403Y09422*
X12405Y09412*
X12408Y09403*
X12414Y09396*
X12421Y0939*
X1243Y09387*
X12429Y09382*
X1225*
X12249Y09387*
X12258Y0939*
X12265Y09396*
X12271Y09403*
X12274Y09412*
X12276Y09422*
X12274Y09431*
X12271Y0944*
X12265Y09447*
X12258Y09453*
X12249Y09456*
X1224Y09458*
X1223Y09456*
X12221Y09453*
X12214Y09447*
X12208Y0944*
X12205Y09431*
X12203Y09422*
X12205Y09412*
X12208Y09403*
X12214Y09396*
X12221Y0939*
X1223Y09387*
X12229Y09382*
X11828*
Y09441*
X11827Y09449*
X11824Y09456*
X11819Y09463*
X11715Y09567*
X11708Y09572*
X11701Y09575*
X11693Y09576*
G37*
G36*
X04116Y09409D02*
X04106Y09408D01*
X04097Y09404*
X04089Y09398*
X04083Y0939*
X04079Y09381*
X04078Y09372*
X04079Y09362*
X04083Y09353*
X04089Y09345*
X04097Y09339*
X04106Y09335*
X04116Y09334*
X04125Y09335*
X04134Y09339*
X04142Y09345*
X04148Y09353*
X04152Y09362*
X04153Y09372*
X04152Y09381*
X04148Y0939*
X04142Y09398*
X04134Y09404*
X04125Y09408*
X04116Y09409*
G37*
G36*
X1244Y09158D02*
X1243Y09156D01*
X12421Y09153*
X12414Y09147*
X12409Y0914*
X1227*
X12265Y09147*
X12258Y09153*
X12249Y09156*
X1224Y09158*
X1223Y09156*
X12221Y09153*
X12214Y09147*
X12208Y0914*
X12207Y09138*
X12195*
X12189Y09136*
X12183Y09133*
X12022Y08972*
X12019Y08966*
X12017Y0896*
Y08453*
X11966Y08402*
X09094*
X09088Y084*
X09082Y08397*
X08371Y07686*
X06906*
X06283Y08309*
X06278Y08312*
X06272Y08314*
X06031*
X06024Y08312*
X06019Y08309*
X05967Y08257*
X05967Y08258*
X05957Y08256*
X05949Y08251*
X05944Y08243*
X05942Y08234*
X05944Y08224*
X05949Y08216*
X05957Y08211*
X05967Y08209*
X05976Y08211*
X05984Y08216*
X05989Y08224*
Y08224*
X05994*
X05994Y08222*
X05999Y08214*
X06007Y08209*
X06017Y08207*
X06026Y08209*
X06034Y08214*
X06034Y08215*
X06277*
X0686Y07632*
X06865Y07629*
X06872Y07627*
X08389*
X08395Y07629*
X084Y07632*
X09111Y08343*
X11984*
X1199Y08345*
X11995Y08348*
X12071Y08424*
X12074Y08429*
X12076Y08436*
Y08912*
X12169Y09005*
X12207*
X12208Y09003*
X12214Y08996*
X12221Y0899*
X1223Y08987*
X1224Y08985*
X12249Y08987*
X12258Y0899*
X12265Y08996*
X1227Y09003*
X12409*
X12414Y08996*
X12421Y0899*
X1243Y08987*
X1244Y08985*
X12449Y08987*
X12458Y0899*
X12465Y08996*
X12471Y09003*
X12474Y09012*
X12476Y09022*
X12474Y09031*
X12471Y0904*
X12465Y09047*
X12458Y09053*
X12449Y09056*
X1244Y09058*
X1243Y09056*
X12421Y09053*
X12414Y09047*
X12409Y0904*
X1227*
X12265Y09047*
X12258Y09053*
X12249Y09056*
X1224Y09058*
X1223Y09056*
X12221Y09053*
X12214Y09047*
X12208Y0904*
X12207Y09038*
X12163*
X12156Y09036*
X12151Y09033*
X12054Y08936*
X1205Y08938*
Y08953*
X12202Y09105*
X12207*
X12208Y09103*
X12214Y09096*
X12221Y0909*
X1223Y09087*
X1224Y09085*
X12249Y09087*
X12258Y0909*
X12265Y09096*
X1227Y09103*
X12409*
X12414Y09096*
X12421Y0909*
X1243Y09087*
X1244Y09085*
X12449Y09087*
X12458Y0909*
X12465Y09096*
X12471Y09103*
X12474Y09112*
X12476Y09122*
X12474Y09131*
X12471Y0914*
X12465Y09147*
X12458Y09153*
X12449Y09156*
X1244Y09158*
G37*
G36*
X09705Y09188D02*
X09695Y09186D01*
X09687Y09181*
X09682Y09173*
X0968Y09164*
X09682Y09154*
X09687Y09146*
X09695Y09141*
X09705Y09139*
X09714Y09141*
X09722Y09146*
X09727Y09154*
X09729Y09164*
X09727Y09173*
X09722Y09181*
X09714Y09186*
X09705Y09188*
G37*
G36*
X04116Y09159D02*
X04106Y09158D01*
X04097Y09154*
X04089Y09148*
X04083Y0914*
X04079Y09131*
X04078Y09122*
X04079Y09112*
X04083Y09103*
X04089Y09095*
X04097Y09089*
X04106Y09085*
X04116Y09084*
X04125Y09085*
X04134Y09089*
X04142Y09095*
X04148Y09103*
X04152Y09112*
X04153Y09122*
X04152Y09131*
X04148Y0914*
X04142Y09148*
X04134Y09154*
X04125Y09158*
X04116Y09159*
G37*
G36*
X118Y09113D02*
X11789Y09112D01*
X11779Y09108*
X11771Y09102*
X11765Y09093*
X11761Y09084*
X11759Y09073*
X11761Y09063*
X11765Y09053*
X11771Y09045*
X11779Y09038*
X11789Y09034*
X118Y09033*
X1181Y09034*
X1182Y09038*
X11828Y09045*
X11834Y09053*
X11838Y09063*
X1184Y09073*
X11838Y09084*
X11834Y09093*
X11828Y09102*
X1182Y09108*
X1181Y09112*
X118Y09113*
G37*
G36*
X04116Y09059D02*
X04106Y09058D01*
X04097Y09054*
X04089Y09048*
X04083Y0904*
X04079Y09031*
X04078Y09022*
X04079Y09012*
X04083Y09003*
X04089Y08995*
X04097Y08989*
X04106Y08985*
X04116Y08984*
X04125Y08985*
X04134Y08989*
X04142Y08995*
X04148Y09003*
X04152Y09012*
X04153Y09022*
X04152Y09031*
X04148Y0904*
X04142Y09048*
X04134Y09054*
X04125Y09058*
X04116Y09059*
G37*
G36*
X118Y08963D02*
X11789Y08962D01*
X11779Y08958*
X11771Y08952*
X11765Y08943*
X11761Y08934*
X11759Y08923*
X11761Y08913*
X11765Y08903*
X11771Y08895*
X11779Y08888*
X11789Y08884*
X118Y08883*
X1181Y08884*
X1182Y08888*
X11828Y08895*
X11834Y08903*
X11838Y08913*
X1184Y08923*
X11838Y08934*
X11834Y08943*
X11828Y08952*
X1182Y08958*
X1181Y08962*
X118Y08963*
G37*
G36*
X04116Y08909D02*
X04106Y08908D01*
X04097Y08904*
X04089Y08898*
X04083Y0889*
X04079Y08881*
X04078Y08872*
X04079Y08862*
X04083Y08853*
X04089Y08845*
X04097Y08839*
X04106Y08835*
X04116Y08834*
X04125Y08835*
X04134Y08839*
X04142Y08845*
X04148Y08853*
X04152Y08862*
X04153Y08872*
X04152Y08881*
X04148Y0889*
X04142Y08898*
X04134Y08904*
X04125Y08908*
X04116Y08909*
G37*
G36*
X04464Y08883D02*
X04455Y08882D01*
X04448Y08879*
X04441Y08874*
X04437Y08867*
X04433Y0886*
X04432Y08852*
X04433Y08843*
X04437Y08836*
X04441Y08829*
X04448Y08825*
X04455Y08821*
X04464Y0882*
X04472Y08821*
X04479Y08825*
X04486Y08829*
X04491Y08836*
X04491Y08837*
X04675*
X04677Y08834*
X04681Y08827*
X04688Y08823*
X04695Y08819*
X04704Y08818*
X04712Y08819*
X04719Y08823*
X04726Y08827*
X04731Y08834*
X04734Y08841*
X04735Y0885*
X04734Y08858*
X04731Y08865*
X04726Y08872*
X04719Y08877*
X04712Y0888*
X04704Y08881*
X04695Y0888*
X04688Y08877*
X04681Y08872*
X04677Y08865*
X04675Y08862*
X04493*
X04491Y08867*
X04486Y08874*
X04479Y08879*
X04472Y08882*
X04464Y08883*
G37*
G36*
X1244Y08858D02*
X1243Y08856D01*
X12421Y08853*
X12414Y08847*
X12408Y0884*
X12405Y08831*
X12403Y08822*
X12405Y08812*
X12408Y08803*
X12414Y08796*
X12421Y0879*
X1243Y08787*
X1244Y08785*
X12449Y08787*
X12458Y0879*
X12465Y08796*
X12471Y08803*
X12474Y08812*
X12476Y08822*
X12474Y08831*
X12471Y0884*
X12465Y08847*
X12458Y08853*
X12449Y08856*
X1244Y08858*
G37*
G36*
X04116Y08809D02*
X04106Y08808D01*
X04097Y08804*
X04089Y08798*
X04083Y0879*
X04079Y08781*
X04078Y08772*
X04079Y08762*
X04083Y08753*
X04089Y08745*
X04097Y08739*
X04106Y08735*
X04116Y08734*
X04125Y08735*
X04134Y08739*
X04142Y08745*
X04148Y08753*
X04152Y08762*
X04153Y08772*
X04152Y08781*
X04148Y0879*
X04142Y08798*
X04134Y08804*
X04125Y08808*
X04116Y08809*
G37*
G36*
X118Y08813D02*
X11789Y08812D01*
X11779Y08808*
X11771Y08802*
X11765Y08793*
X11761Y08784*
X11759Y08773*
X11761Y08763*
X11765Y08753*
X11771Y08745*
X11779Y08738*
X11789Y08734*
X118Y08733*
X1181Y08734*
X1182Y08738*
X11828Y08745*
X11834Y08753*
X11838Y08763*
X1184Y08773*
X11838Y08784*
X11834Y08793*
X11828Y08802*
X1182Y08808*
X1181Y08812*
X118Y08813*
G37*
G36*
X1244Y08758D02*
X1243Y08756D01*
X12421Y08753*
X12414Y08747*
X12408Y0874*
X12405Y08731*
X12403Y08722*
X12405Y08712*
X12408Y08703*
X12414Y08696*
X12421Y0869*
X1243Y08687*
X1244Y08685*
X12449Y08687*
X12458Y0869*
X12465Y08696*
X12471Y08703*
X12474Y08712*
X12476Y08722*
X12474Y08731*
X12471Y0874*
X12465Y08747*
X12458Y08753*
X12449Y08756*
X1244Y08758*
G37*
G36*
X1224Y08858D02*
X1223Y08856D01*
X12221Y08853*
X12214Y08847*
X12208Y0884*
X12205Y08831*
X12203Y08822*
X12205Y08812*
X12208Y08803*
X12214Y08796*
X12221Y0879*
X1223Y08787*
X1224Y08785*
X12249Y08787*
X12255Y08789*
X12343Y087*
Y08642*
X12341Y0864*
X12338Y0864*
X12272Y08706*
X12274Y08712*
X12276Y08722*
X12274Y08731*
X12271Y0874*
X12265Y08747*
X12258Y08753*
X12249Y08756*
X1224Y08758*
X1223Y08756*
X12221Y08753*
X12214Y08747*
X12208Y0874*
X12205Y08731*
X12203Y08722*
X12205Y08712*
X12208Y08703*
X12214Y08696*
X12221Y0869*
X1223Y08687*
X1224Y08685*
X12249Y08687*
X12255Y08689*
X12318Y08625*
Y0814*
X12254Y08076*
X12222*
X12218Y08075*
X12214Y08072*
X12143Y08002*
X11226*
X11224Y08006*
X11228Y0801*
X11233*
X11238Y08011*
X11242Y08014*
X11242Y08014*
X11244Y08014*
X11251Y08015*
X11257Y08019*
X11261Y08025*
X11262Y08033*
X11261Y0804*
X11257Y08046*
X11251Y0805*
X11244Y08051*
X11236Y0805*
X1123Y08046*
X11226Y0804*
X11226Y08038*
X11223Y08035*
X11219Y08034*
X11215Y08031*
X11204Y0802*
X11188*
X11185Y08025*
X11186Y08025*
X11187Y08033*
X11186Y0804*
X11182Y08046*
X11181Y08047*
Y08049*
X1118Y08053*
X11177Y08057*
X11154Y0808*
X11154Y0808*
X11155Y08085*
X12056*
X12061Y08086*
X12065Y08089*
X12199Y08223*
X12203Y0822*
X12205Y08212*
X12208Y08203*
X12214Y08196*
X12221Y0819*
X1223Y08187*
X1224Y08185*
X12249Y08187*
X12258Y0819*
X12265Y08196*
X12271Y08203*
X12274Y08212*
X12276Y08222*
X12274Y08231*
X12271Y0824*
X12265Y08247*
X1226Y08251*
X1226Y08251*
X12259Y08257*
X1226Y08257*
X1229Y08288*
X12293Y08292*
X12294Y08296*
Y08439*
X12293Y08444*
X1229Y08447*
X12254Y08483*
X12255Y08489*
X12258Y0849*
X12265Y08496*
X12271Y08503*
X12274Y08512*
X12276Y08522*
X12274Y08531*
X12271Y0854*
X12265Y08547*
X12258Y08553*
X12249Y08556*
X1224Y08558*
X1223Y08556*
X12221Y08553*
X12214Y08547*
X12208Y0854*
X12205Y08531*
X12203Y08522*
X12205Y08512*
X12208Y08503*
X12214Y08496*
X12221Y0849*
X12227Y08488*
Y08481*
X12228Y08476*
X12231Y08472*
X12241Y08462*
X12238Y08458*
X1223Y08456*
X12221Y08453*
X12214Y08447*
X12208Y0844*
X12205Y08431*
X12203Y08422*
X12205Y08412*
X12207Y08406*
X11988Y08188*
X10638*
X10637Y08189*
X10631Y08193*
X10624Y08194*
X10616Y08193*
X1061Y08189*
X10606Y08183*
X10605Y08176*
X10606Y08168*
X1061Y08162*
X10616Y08158*
X10624Y08157*
X10631Y08158*
X10637Y08162*
X10638Y08163*
X11994*
X11998Y08164*
X12002Y08167*
X12224Y08389*
X1223Y08387*
X1224Y08385*
X12249Y08387*
X12258Y0839*
X12264Y08395*
X12269Y08394*
Y08301*
X12243Y08276*
X12222*
X12218Y08275*
X12214Y08272*
X12051Y0811*
X11156*
X11154Y08114*
X11155Y08115*
X11156Y08123*
X11155Y0813*
X11151Y08136*
X11145Y0814*
X11138Y08141*
X1113Y0814*
X11124Y08136*
X11123Y08135*
X10655*
X10652Y0814*
X10646Y08144*
X10639Y08145*
X10631Y08144*
X10625Y0814*
X10621Y08134*
X1062Y08127*
X10621Y08119*
X10624Y08115*
X10622Y0811*
X10579*
X10574Y08109*
X1057Y08106*
X10513Y08049*
X1051Y08045*
X10509Y08041*
Y07949*
X10504Y07947*
X10503Y07948*
X10496Y07949*
X10488Y07948*
X10487Y07947*
X10483Y07949*
Y08105*
X1049Y08106*
X10496Y0811*
X105Y08116*
X10501Y08124*
X105Y08131*
X10496Y08137*
X1049Y08141*
X10483Y08142*
X10475Y08141*
X10469Y08137*
X10467Y08133*
X10462Y08134*
Y08159*
X10467Y08162*
X10471Y08168*
X10472Y08176*
X10471Y08183*
X10467Y08189*
X10461Y08193*
X10454Y08194*
X10446Y08193*
X1044Y08189*
X10436Y08183*
X10435Y08176*
X10436Y08168*
X10437Y08167*
Y0775*
X10432Y07747*
X10427Y07748*
X10419Y07747*
X10413Y07743*
X10409Y07737*
X10408Y0773*
X10409Y07722*
X10413Y07716*
X10413Y07716*
Y0743*
X10412Y07428*
X10411Y07424*
Y07403*
X10412Y07399*
X10413Y07397*
Y07337*
X10414Y07332*
X10417Y07328*
X1047Y07275*
X1047Y07274*
X10471Y07266*
X10475Y0726*
X10481Y07256*
X10489Y07255*
X10496Y07256*
X10502Y0726*
X10505Y07265*
X1051Y07263*
Y07123*
X10505Y07121*
X10504Y07122*
X10497Y07123*
X10494Y07123*
X10491Y07127*
X10491Y07127*
X10492Y07135*
X10491Y07142*
X10487Y07148*
X10486Y07149*
Y07216*
X10485Y0722*
X10482Y07224*
X10388Y07319*
Y07381*
X10387Y07383*
Y074*
X10388Y07402*
Y07763*
X10395Y07764*
X10401Y07768*
X10405Y07774*
X10406Y07782*
X10405Y07789*
X10401Y07795*
X10395Y07799*
X10388Y078*
X1038Y07799*
X10375Y07795*
X10372Y07796*
X1037Y07797*
Y07821*
X10372Y07822*
X10376Y07828*
X10377Y07836*
X10376Y07843*
X10372Y07849*
X10366Y07853*
X10359Y07854*
X10351Y07853*
X10345Y07849*
X10341Y07843*
X1034Y07836*
X10341Y07828*
X10345Y07822*
X10345Y07822*
Y07411*
X10345Y07409*
Y07409*
Y07374*
Y07374*
X10345Y07372*
Y07158*
X1034Y07156*
X10339Y07157*
X10332Y07158*
X10324Y07157*
X10318Y07153*
X10314Y07147*
X10313Y0714*
X10314Y07132*
X10318Y07126*
X10318Y07121*
X10306Y0711*
X06633*
X05928Y07815*
Y08334*
X0594Y08347*
X05942Y08347*
X05949Y08348*
X05955Y08352*
X05959Y08358*
X0596Y08366*
X05959Y08373*
X05955Y08379*
X05949Y08383*
X05944Y08384*
X05919Y08408*
X05915Y08411*
X05911Y08412*
X05698*
X05358Y08752*
X05354Y08755*
X0535Y08756*
X05173*
X05168Y08755*
X05164Y08752*
X04945Y08534*
X04151*
X04148Y0854*
X04142Y08548*
X04134Y08554*
X04125Y08558*
X04116Y08559*
X04106Y08558*
X04097Y08554*
X04089Y08548*
X04083Y0854*
X04079Y08531*
X04078Y08522*
X04079Y08512*
X04083Y08503*
X04089Y08495*
X04097Y08489*
X04106Y08485*
X04116Y08484*
X04125Y08485*
X04134Y08489*
X04142Y08495*
X04148Y08503*
X04151Y08509*
X04951*
X04955Y0851*
X04959Y08513*
X05178Y08731*
X05344*
X05685Y08391*
X05688Y08389*
X05693Y08388*
X05881*
X05884Y08383*
X05883Y08383*
X05882Y08376*
X05882Y08374*
X05866Y08359*
X05708*
X05357Y08709*
X05353Y08712*
X05349Y08713*
X05175*
X0517Y08712*
X05166Y08709*
X0474Y08284*
X04151*
X04148Y0829*
X04142Y08298*
X04134Y08304*
X04125Y08308*
X04116Y08309*
X04106Y08308*
X04097Y08304*
X04089Y08298*
X04083Y0829*
X04079Y08281*
X04078Y08272*
X04079Y08262*
X04083Y08253*
X04089Y08245*
X04097Y08239*
X04106Y08235*
X04116Y08234*
X04125Y08235*
X04134Y08239*
X04142Y08245*
X04148Y08253*
X04151Y08259*
X04746*
X0475Y0826*
X04754Y08263*
X0518Y08688*
X05292*
X05295Y08683*
X05294Y08682*
X05292Y08681*
X04425Y07814*
X04191*
Y0782*
X04173Y07838*
X04136*
X04118Y0782*
Y07783*
X04136Y07765*
X04173*
X04191Y07783*
Y07789*
X0443*
X04435Y0779*
X04439Y07793*
X05281Y08636*
X05286Y08634*
X05286Y08633*
X0529Y08627*
X0529Y08626*
X04357Y07693*
X04354Y07689*
X04353Y07685*
Y0765*
X04217Y07514*
X04191*
Y0752*
X04173Y07538*
X04136*
X04118Y0752*
Y07483*
X04136Y07465*
X04173*
X04191Y07483*
Y07489*
X04223*
X04227Y0749*
X04231Y07493*
X04374Y07636*
X04377Y0764*
X04378Y07645*
Y07679*
X05312Y08614*
X05315Y08618*
X05316Y08623*
Y08626*
X05317Y08627*
X05321Y08633*
X05322Y08641*
X05321Y08648*
X05319Y08651*
X05317Y08654*
X0532Y08657*
X05323Y08659*
X05327Y08665*
X05328Y08673*
X05327Y0868*
X05324Y08683*
X05327Y08688*
X05343*
X05694Y08338*
X05698Y08335*
X05703Y08334*
X05872*
X05876Y08335*
X0588Y08338*
X05881Y08339*
X05885Y08337*
Y07802*
X05886Y07797*
X05889Y07794*
X06612Y07071*
X06616Y07068*
X0662Y07067*
X10255*
X10256Y07062*
X10255Y07062*
X10251Y07056*
X1025Y07049*
X10251Y07041*
X10255Y07035*
X10256Y07034*
Y06989*
X10257Y06984*
X1026Y0698*
X10298Y06941*
Y06503*
X10299Y06498*
X10302Y06494*
X10326Y0647*
X1033Y06467*
X10334Y06466*
X10347*
X10347Y06465*
X10353Y06461*
X10361Y0646*
X10368Y06461*
X10374Y06465*
X10376Y06469*
X10381Y06468*
Y06369*
X10382Y06364*
X10385Y0636*
X1051Y06235*
X10514Y06232*
X10519Y06231*
X11002*
X11006Y06232*
X1101Y06235*
X11091Y06315*
X12435*
X12439Y06316*
X12443Y06319*
X1245Y06325*
X12451Y06326*
X12529Y06405*
X12532Y06409*
X12533Y06413*
Y08241*
X12532Y08245*
X12529Y08249*
X12472Y08306*
X12474Y08312*
X12476Y08322*
X12474Y08331*
X12471Y0834*
X12465Y08347*
X12458Y08353*
X12449Y08356*
X1244Y08358*
X1243Y08356*
X12421Y08353*
X12414Y08347*
X12408Y0834*
X12405Y08331*
X12403Y08322*
X12405Y08312*
X12408Y08303*
X12414Y08296*
X12421Y0829*
X1243Y08287*
X1244Y08285*
X12449Y08287*
X12455Y08289*
X12508Y08235*
Y06418*
X12501Y06411*
X12497Y06413*
Y07136*
X12496Y0714*
X12493Y07144*
X12465Y07172*
X12462Y07175*
X12457Y07176*
X12403*
X12272Y07306*
X12274Y07312*
X12276Y07322*
X12274Y07331*
X12271Y0734*
X12265Y07347*
X12258Y07353*
X12249Y07356*
X1224Y07358*
X1223Y07356*
X12221Y07353*
X12214Y07347*
X12208Y0734*
X12205Y07331*
X12203Y07322*
X12205Y07312*
X12208Y07303*
X12214Y07296*
X12221Y0729*
X1223Y07287*
X1224Y07285*
X12249Y07287*
X12255Y07289*
X12389Y07155*
X12393Y07152*
X12398Y07151*
X12398*
X12412*
X12413Y07146*
X12408Y0714*
X12405Y07131*
X12403Y07122*
X12405Y07112*
X12407Y07106*
X12327Y07026*
X12324Y07022*
X12323Y07018*
Y06833*
X12268Y06778*
X11934*
X11929Y06777*
X11925Y06774*
X11865Y06715*
X11774*
X11773Y0672*
X11773Y0672*
X11866Y06812*
X11947*
X11951Y06813*
X11955Y06816*
X11995Y06855*
X1225*
X12254Y06856*
X12258Y06859*
X12297Y06898*
X123Y06902*
X12301Y06907*
Y06973*
X123Y06977*
X12297Y06981*
X12272Y07006*
X12274Y07012*
X12276Y07022*
X12274Y07031*
X12271Y0704*
X12265Y07047*
X12258Y07053*
X12249Y07056*
X1224Y07058*
X1223Y07056*
X12221Y07053*
X12214Y07047*
X12208Y0704*
X12205Y07031*
X12203Y07022*
X12205Y07012*
X12208Y07003*
X12214Y06996*
X12221Y0699*
X1223Y06987*
X1224Y06985*
X12249Y06987*
X12255Y06989*
X12276Y06967*
Y06939*
X12271Y06938*
X12271Y0694*
X12265Y06947*
X12258Y06953*
X12249Y06956*
X1224Y06958*
X1223Y06956*
X12221Y06953*
X12214Y06947*
X12208Y0694*
X12205Y06931*
X12204Y06926*
X11676*
X11381Y0722*
X11377Y07223*
X11373Y07224*
X11196*
X11193Y07229*
X11193Y07229*
X11194Y07229*
X1129*
X11294Y0723*
X11298Y07233*
X11607Y07542*
X11609Y07542*
X11616Y07543*
X11622Y07547*
X11626Y07553*
X11627Y07561*
X11626Y07568*
X11622Y07574*
X11616Y07578*
X11609Y07579*
X11601Y07578*
X11595Y07574*
X11591Y07568*
X1159Y07561*
X1159Y07559*
X11284Y07254*
X1119*
X11189Y07255*
X11183Y07259*
X11176Y0726*
X11168Y07259*
X11162Y07255*
X11158Y07249*
X11157Y07242*
X11158Y07234*
X11159Y07234*
X11155Y0723*
X1095Y07436*
X11016Y07501*
X1116*
X11163Y07496*
X11163Y07495*
X11159Y0749*
X11158Y07483*
X11158Y07481*
X11068Y07392*
X11061*
X1106Y07393*
X11054Y07397*
X11047Y07398*
X11039Y07397*
X11033Y07393*
X11029Y07387*
X11028Y0738*
X11029Y07372*
X11033Y07366*
X11039Y07362*
X11047Y07361*
X11054Y07362*
X1106Y07366*
X11061Y07367*
X11074*
X11078Y07368*
X11082Y07371*
X11175Y07464*
X11177Y07464*
X11184Y07465*
X1119Y07469*
X11194Y07475*
X11195Y07483*
X11194Y0749*
X1119Y07495*
X1119Y07498*
X1119Y07501*
X11194Y07506*
X11195Y07514*
X11194Y07521*
X11193Y07522*
X11195Y07526*
X11393*
X11397Y07523*
X11397Y07522*
X11398Y07514*
X11402Y07508*
X11408Y07504*
X11416Y07503*
X11423Y07504*
X11429Y07508*
X11433Y07514*
X11434Y07522*
X11433Y07529*
X11429Y07535*
X11423Y07539*
X11416Y0754*
X11414Y0754*
X1141Y07544*
X11412Y07549*
X1152*
X11524Y0755*
X11528Y07553*
X11531Y07556*
X11533Y07556*
X1154Y07557*
X11546Y07561*
X1155Y07567*
X11551Y07575*
X1155Y07582*
X11547Y07585*
X1155Y0759*
X11816*
X1182Y07591*
X11824Y07594*
X12189Y07958*
X12222*
X12223Y07953*
X12221Y07953*
X12214Y07947*
X12208Y0794*
X12205Y07931*
X12203Y07922*
X12205Y07912*
X12208Y07903*
X12214Y07896*
X12221Y0789*
X1223Y07887*
X1224Y07885*
X12249Y07887*
X12258Y0789*
X12265Y07896*
X12271Y07903*
X12274Y07912*
X12276Y07922*
X12274Y07931*
X12271Y0794*
X12265Y07947*
X12258Y07953*
X12254Y07955*
X12253Y07956*
X12253Y0796*
X12256Y07962*
X12364Y0807*
X12367Y08074*
X12368Y08078*
Y08706*
X12367Y0871*
X12364Y08714*
X12272Y08806*
X12274Y08812*
X12276Y08822*
X12274Y08831*
X12271Y0884*
X12265Y08847*
X12258Y08853*
X12249Y08856*
X1224Y08858*
G37*
G36*
X1244Y08658D02*
X1243Y08656D01*
X12421Y08653*
X12414Y08647*
X12408Y0864*
X12405Y08631*
X12403Y08622*
X12405Y08612*
X12408Y08603*
X12414Y08596*
X12421Y0859*
X1243Y08587*
X1244Y08585*
X12449Y08587*
X12458Y0859*
X12465Y08596*
X12471Y08603*
X12474Y08612*
X12476Y08622*
X12474Y08631*
X12471Y0864*
X12465Y08647*
X12458Y08653*
X12449Y08656*
X1244Y08658*
G37*
G36*
X04116Y08659D02*
X04106Y08658D01*
X04097Y08654*
X04089Y08648*
X04083Y0864*
X04079Y08631*
X04078Y08622*
X04079Y08612*
X04083Y08603*
X04089Y08595*
X04097Y08589*
X04106Y08585*
X04116Y08584*
X04125Y08585*
X04134Y08589*
X04142Y08595*
X04148Y08603*
X04152Y08612*
X04153Y08622*
X04152Y08631*
X04148Y0864*
X04142Y08648*
X04134Y08654*
X04125Y08658*
X04116Y08659*
G37*
G36*
X05579Y09015D02*
X05572Y09013D01*
X05566Y09009*
X05562Y09003*
X0556Y08996*
X05562Y08989*
X05566Y08983*
Y08978*
X05565Y08978*
X05561Y08972*
X0556Y08965*
X05561Y08957*
X05565Y08951*
X05571Y08947*
X05579Y08946*
X05586Y08947*
X05592Y08951*
X05593Y08952*
X06023*
X06508Y08468*
X06508Y08467*
X06509Y08459*
X06513Y08453*
X06519Y08449*
X06527Y08448*
X06534Y08449*
X0654Y08453*
X06544Y08459*
X06545Y08467*
X06544Y08474*
X06541Y08478*
X06543Y08483*
X06543Y08483*
X06557*
X06558Y08482*
X06564Y08478*
X06572Y08477*
X06579Y08478*
X06585Y08482*
X06589Y08488*
X0659Y08496*
X06589Y08503*
X06585Y08509*
X06579Y08513*
X06572Y08514*
X06564Y08513*
X06558Y08509*
X06557Y08508*
X06543*
X06046Y09005*
X06042Y09007*
X06037Y09008*
X05593*
X05592Y09009*
X05586Y09013*
X05579Y09015*
G37*
G36*
X04116Y08409D02*
X04106Y08408D01*
X04097Y08404*
X04089Y08398*
X04083Y0839*
X04079Y08381*
X04078Y08372*
X04079Y08362*
X04083Y08353*
X04089Y08345*
X04097Y08339*
X04106Y08335*
X04116Y08334*
X04125Y08335*
X04134Y08339*
X04142Y08345*
X04148Y08353*
X04152Y08362*
X04153Y08372*
X04152Y08381*
X04148Y0839*
X04142Y08398*
X04134Y08404*
X04125Y08408*
X04116Y08409*
G37*
G36*
X07324Y08287D02*
X07315Y08285D01*
X07307Y0828*
X07302Y08273*
X07282*
X07277Y08272*
X07274Y08269*
X07088Y08084*
X06972*
X06969Y0809*
X06961Y08095*
X06952Y08097*
X06942Y08095*
X06934Y0809*
X06929Y08082*
X06927Y08073*
X06929Y08063*
X06934Y08055*
X06942Y0805*
X06952Y08048*
X06961Y0805*
X06969Y08055*
X06972Y08061*
X07093*
X07097Y08062*
X071Y08065*
X07286Y0825*
X07304*
X07307Y08246*
X07315Y08241*
X07324Y08239*
X07333Y08241*
X07341Y08246*
X07346Y08254*
X07348Y08263*
X07346Y08272*
X07341Y0828*
X07333Y08285*
X07324Y08287*
G37*
G36*
X07738Y0916D02*
X07351D01*
X07347Y09158*
X07345Y09154*
Y08757*
X07347Y08752*
X07351Y0875*
X07659*
Y08692*
X07661Y08685*
X07664Y0868*
X0792Y08424*
Y08311*
X07857Y08247*
X07567*
X07567Y08248*
X07559Y08254*
X0755Y08255*
X07545Y08254*
X07543Y08259*
X07598Y08314*
X07605Y08315*
X07613Y0832*
X07618Y08328*
X0762Y08338*
X07618Y08347*
X07613Y08355*
X07605Y0836*
X07596Y08362*
X0759Y0836*
X07588Y08365*
X07589Y08366*
X07595Y08374*
X07596Y08383*
X07595Y08392*
X07589Y084*
X07581Y08406*
X07572Y08407*
X07563Y08406*
X07555Y084*
X0755Y08392*
X07549Y08385*
X07211Y08048*
X07211Y08048*
X07201Y08046*
X07193Y08041*
X07188Y08033*
X07186Y08024*
X07188Y08014*
X07193Y08006*
X07201Y08001*
X07211Y07999*
X0722Y08001*
X07223Y08004*
X07227Y08*
X07225Y07998*
X07223Y07989*
X07225Y07979*
X0723Y07971*
X07238Y07966*
X07248Y07964*
X07257Y07966*
X07265Y07971*
X0727Y07979*
X07271Y07988*
X07522Y08238*
X07527Y08236*
X07526Y08231*
X07527Y08222*
X07533Y08214*
X07541Y08209*
X0755Y08207*
X07559Y08209*
X07567Y08214*
X07567Y08215*
X07863*
X07869Y08216*
X07875Y0822*
X07948Y08293*
X07951Y08298*
X07953Y08305*
Y08431*
X07951Y08437*
X07948Y08442*
X07692Y08698*
Y0875*
X07738*
X07743Y08752*
X07744Y08757*
Y09154*
X07743Y09158*
X07738Y0916*
G37*
G36*
X09866Y08306D02*
X09855Y08304D01*
X09845Y083*
X09836Y08294*
X0983Y08285*
X09826Y08275*
X09824Y08265*
X09826Y08254*
X0983Y08244*
X09836Y08235*
X09845Y08229*
X09855Y08225*
X09866Y08223*
X09876Y08225*
X09886Y08229*
X09892Y08233*
X10673*
X10689Y08216*
X10696Y08212*
X10703Y08208*
X10712Y08207*
X1072Y08208*
X10727Y08212*
X10734Y08216*
X10739Y08223*
X10742Y0823*
X10743Y08239*
X10742Y08247*
X10739Y08254*
X10734Y08261*
X10708Y08287*
X10701Y08292*
X10694Y08295*
X10686Y08296*
X09892*
X09886Y083*
X09876Y08304*
X09866Y08306*
G37*
G36*
X07957Y08253D02*
X07948Y08252D01*
X07941Y08249*
X07934Y08244*
X0793Y08237*
X07926Y0823*
X07925Y08222*
X07926Y08213*
X0793Y08206*
X07934Y08199*
X07941Y08195*
X07948Y08191*
X07957Y0819*
X07965Y08191*
X07972Y08195*
X07979Y08199*
X07981Y08203*
X08126*
X08132Y08199*
X08142Y08197*
X08151Y08199*
X08159Y08204*
X08164Y08212*
X08166Y08222*
X08164Y08231*
X08159Y08239*
X08151Y08244*
X08142Y08246*
X08132Y08244*
X08126Y0824*
X07981*
X07979Y08244*
X07972Y08249*
X07965Y08252*
X07957Y08253*
G37*
G36*
X1244Y08258D02*
X1243Y08256D01*
X12421Y08253*
X12414Y08247*
X12408Y0824*
X12405Y08231*
X12403Y08222*
X12405Y08212*
X12408Y08203*
X12414Y08196*
X12421Y0819*
X1243Y08187*
X1244Y08185*
X12449Y08187*
X12458Y0819*
X12465Y08196*
X12471Y08203*
X12474Y08212*
X12476Y08222*
X12474Y08231*
X12471Y0824*
X12465Y08247*
X12458Y08253*
X12449Y08256*
X1244Y08258*
G37*
G36*
X1224Y08158D02*
X1223Y08156D01*
X12221Y08153*
X12214Y08147*
X12208Y0814*
X12205Y08131*
X12203Y08122*
X12205Y08112*
X12208Y08103*
X12214Y08096*
X12221Y0809*
X1223Y08087*
X1224Y08085*
X12249Y08087*
X12258Y0809*
X12265Y08096*
X12271Y08103*
X12274Y08112*
X12276Y08122*
X12274Y08131*
X12271Y0814*
X12265Y08147*
X12258Y08153*
X12249Y08156*
X1224Y08158*
G37*
G36*
X1244Y08058D02*
X1243Y08056D01*
X12421Y08053*
X12414Y08047*
X12408Y0804*
X12405Y08031*
X12403Y08022*
X12405Y08012*
X12408Y08003*
X12414Y07996*
X12421Y0799*
X1243Y07987*
X1244Y07985*
X12449Y07987*
X12455Y07989*
X1247Y07973*
Y07948*
X12466Y07946*
X12465Y07947*
X12458Y07953*
X12449Y07956*
X1244Y07958*
X1243Y07956*
X12421Y07953*
X12414Y07947*
X12408Y0794*
X12405Y07931*
X12403Y07922*
X12405Y07912*
X12408Y07903*
X12414Y07896*
X12421Y0789*
X1243Y07887*
X1244Y07885*
X12449Y07887*
X12458Y0789*
X12465Y07896*
X12466Y07897*
X1247Y07895*
Y07748*
X12466Y07746*
X12465Y07747*
X12458Y07753*
X12449Y07756*
X1244Y07758*
X1243Y07756*
X12424Y07754*
X124Y07778*
X12396Y07781*
X12392Y07782*
X1225*
X12249Y07787*
X12258Y0779*
X12265Y07796*
X12271Y07803*
X12274Y07812*
X12276Y07822*
X12274Y07831*
X12271Y0784*
X12265Y07847*
X12258Y07853*
X12249Y07856*
X1224Y07858*
X1223Y07856*
X12221Y07853*
X12214Y07847*
X12208Y0784*
X12205Y07831*
X12203Y07822*
X12205Y07812*
X12208Y07803*
X12214Y07796*
X12221Y0779*
X1223Y07787*
X12229Y07782*
X12164*
X12159Y07781*
X12155Y07778*
X11673Y07296*
X1167Y07292*
X11669Y07288*
Y06992*
X11668Y06991*
X11664Y06985*
X11663Y06978*
X11664Y0697*
X11668Y06964*
X11674Y0696*
X11682Y06959*
X11689Y0696*
X11695Y06964*
X11699Y0697*
X117Y06978*
X11699Y06985*
X11695Y06991*
X11694Y06992*
Y07282*
X12169Y07757*
X12386*
X12407Y07737*
X12405Y07731*
X12403Y07722*
X12405Y07712*
X12408Y07703*
X12414Y07696*
X12421Y0769*
X12427Y07688*
X12426Y07683*
X12201*
X12196Y07682*
X12192Y07679*
X11743Y0723*
X1174Y07226*
X11739Y07222*
Y07001*
X11738Y07*
X11734Y06994*
X11733Y06987*
X11734Y06979*
X11738Y06973*
X11744Y06969*
X11752Y06968*
X11759Y06969*
X11765Y06973*
X11769Y06979*
X1177Y06987*
X11769Y06994*
X11765Y07*
X11764Y07001*
Y07216*
X12206Y07658*
X12222*
X12223Y07653*
X12221Y07653*
X12214Y07647*
X12208Y0764*
X12205Y07631*
X12203Y07622*
X12205Y07612*
X12208Y07603*
X12214Y07596*
X12221Y0759*
X1223Y07587*
X1224Y07585*
X12249Y07587*
X12258Y0759*
X12265Y07596*
X12271Y07603*
X12274Y07612*
X12276Y07622*
X12274Y07631*
X12271Y0764*
X12265Y07647*
X12258Y07653*
X12256Y07653*
X12257Y07658*
X12422*
X12423Y07653*
X12421Y07653*
X12414Y07647*
X12408Y0764*
X12405Y07631*
X12403Y07622*
X12405Y07612*
X12408Y07603*
X12414Y07596*
X12421Y0759*
X1243Y07587*
X1244Y07585*
X12449Y07587*
X12458Y0759*
X12465Y07596*
X12471Y07603*
X12474Y07612*
X12476Y07622*
X12474Y07631*
X12471Y0764*
X12465Y07647*
X12458Y07653*
X12454Y07654*
X12454Y07658*
X12455Y0766*
X12458Y07662*
X12491Y07695*
X12494Y07699*
X12495Y07704*
Y07979*
X12494Y07983*
X12491Y07987*
X12472Y08006*
X12474Y08012*
X12476Y08022*
X12474Y08031*
X12471Y0804*
X12465Y08047*
X12458Y08053*
X12449Y08056*
X1244Y08058*
G37*
G36*
X05148Y08628D02*
X0514Y08627D01*
X05134Y08623*
X0513Y08617*
X05129Y0861*
X0513Y08602*
X05134Y08596*
X05135Y08595*
Y08567*
X04482Y07914*
X04191*
Y0792*
X04173Y07938*
X04136*
X04118Y0792*
Y07883*
X04136Y07865*
X04173*
X04191Y07883*
Y07889*
X04488*
X04492Y0789*
X04496Y07893*
X05156Y08553*
X05159Y08557*
X0516Y08562*
Y08595*
X05161Y08596*
X05165Y08602*
X05166Y0861*
X05165Y08617*
X05161Y08623*
X05155Y08627*
X05148Y08628*
G37*
G36*
X10362Y07908D02*
X10354Y07907D01*
X10348Y07903*
X10347Y07902*
X10313*
X10311Y07903*
X10307Y07904*
X10305Y07903*
X10301Y07904*
X10293Y07903*
X10287Y07899*
X10283Y07893*
X10282Y07886*
X10283Y07878*
X10287Y07872*
X10293Y07868*
X10301Y07867*
X10308Y07868*
X10314Y07872*
X10317Y07877*
X10347*
X10348Y07876*
X10354Y07872*
X10362Y07871*
X10369Y07872*
X10375Y07876*
X10379Y07882*
X1038Y0789*
X10379Y07897*
X10375Y07903*
X10369Y07907*
X10362Y07908*
G37*
G36*
X06616Y07822D02*
X06606Y0782D01*
X06598Y07815*
X06593Y07807*
X06591Y07798*
X06593Y07791*
X06384Y07582*
X06378Y07584*
X06368Y07582*
X0636Y07577*
X06355Y07569*
X06353Y0756*
X06355Y0755*
X0636Y07542*
X06368Y07537*
X06378Y07535*
X06387Y07537*
X06395Y07542*
X064Y0755*
X06402Y0756*
X064Y07566*
X06609Y07775*
X06616Y07773*
X06625Y07775*
X06633Y0778*
X06638Y07788*
X0664Y07798*
X06638Y07807*
X06633Y07815*
X06625Y0782*
X06616Y07822*
G37*
G36*
X0474Y07783D02*
X0473Y07781D01*
X04723Y07776*
X04719Y0777*
X04608*
X04604Y07776*
X04597Y07781*
X04587Y07783*
X04578Y07781*
X0457Y07776*
X04565Y07768*
X04563Y07759*
X04565Y07749*
X0457Y07742*
X04578Y07736*
X04587Y07735*
X04597Y07736*
X04604Y07742*
X04608Y07748*
X04719*
X04723Y07742*
X0473Y07736*
X0474Y07735*
X04749Y07736*
X04757Y07742*
X04762Y07749*
X04764Y07759*
X04762Y07768*
X04757Y07776*
X04749Y07781*
X0474Y07783*
G37*
G36*
X04173Y07738D02*
X04136D01*
X04118Y0772*
Y07683*
X04136Y07665*
X04173*
X04191Y07683*
Y0772*
X04173Y07738*
G37*
G36*
Y07638D02*
X04136D01*
X04118Y0762*
Y07583*
X04136Y07565*
X04173*
X04191Y07583*
Y0762*
X04173Y07638*
G37*
G36*
X1224Y07558D02*
X1223Y07556D01*
X12221Y07553*
X12214Y07547*
X12208Y0754*
X12205Y07531*
X12203Y07522*
X12205Y07512*
X12208Y07503*
X12214Y07496*
X12221Y0749*
X1223Y07487*
X1224Y07485*
X12249Y07487*
X12258Y0749*
X12265Y07496*
X12271Y07503*
X12274Y07512*
X12276Y07522*
X12274Y07531*
X12271Y0754*
X12265Y07547*
X12258Y07553*
X12249Y07556*
X1224Y07558*
G37*
G36*
X11307Y07471D02*
X11299Y0747D01*
X11293Y07466*
X11289Y0746*
X11288Y07453*
X11288Y07451*
X11155Y07318*
X1115Y07319*
X11142Y07318*
X11136Y07314*
X11132Y07308*
X11131Y07301*
X11132Y07293*
X11136Y07287*
X11142Y07283*
X1115Y07282*
X11157Y07283*
X11163Y07287*
X11167Y07293*
X11167Y07296*
X11305Y07434*
X11307Y07434*
X11314Y07435*
X1132Y07439*
X11324Y07445*
X11325Y07453*
X11324Y0746*
X1132Y07466*
X11314Y0747*
X11307Y07471*
G37*
G36*
X04073Y07538D02*
X04036D01*
X04018Y0752*
Y07483*
X04036Y07465*
X04038*
Y07453*
X0404Y07446*
X04043Y07441*
X04076Y07408*
X04081Y07405*
X04088Y07403*
X04398*
X04404Y07405*
X04409Y07408*
X04417Y07416*
X04418Y07416*
X04426Y07417*
X04433Y07421*
X0444Y07425*
X04445Y07432*
X04448Y07439*
X04449Y07448*
X04448Y07456*
X04445Y07463*
X0444Y0747*
X04433Y07475*
X04426Y07478*
X04418Y07479*
X04409Y07478*
X04402Y07475*
X04395Y0747*
X04391Y07463*
X04387Y07456*
X04386Y07448*
X04387Y07441*
X04384Y07436*
X04094*
X04071Y07459*
Y07465*
X04073*
X04091Y07483*
Y0752*
X04073Y07538*
G37*
G36*
X1244Y07458D02*
X1243Y07456D01*
X12421Y07453*
X12414Y07447*
X12408Y0744*
X12405Y07431*
X12403Y07422*
X12405Y07412*
X12408Y07403*
X12414Y07396*
X12421Y0739*
X1243Y07387*
X1244Y07385*
X12449Y07387*
X12458Y0739*
X12465Y07396*
X12471Y07403*
X12474Y07412*
X12476Y07422*
X12474Y07431*
X12471Y0744*
X12465Y07447*
X12458Y07453*
X12449Y07456*
X1244Y07458*
G37*
G36*
X1127Y07501D02*
X11262Y075D01*
X11256Y07496*
X11252Y0749*
X11251Y07483*
X11251Y0748*
X11146Y07375*
X11143Y07375*
X11135Y07374*
X11129Y0737*
X11125Y07364*
X11124Y07357*
X11125Y07349*
X11129Y07343*
X11135Y07339*
X11143Y07338*
X1115Y07339*
X11156Y07343*
X1116Y07349*
X11161Y07355*
X1127Y07464*
X11277Y07465*
X11283Y07469*
X11287Y07475*
X11288Y07483*
X11287Y0749*
X11283Y07496*
X11277Y075*
X1127Y07501*
G37*
G36*
X06711Y07604D02*
X06701Y07602D01*
X06693Y07597*
X06688Y07589*
X06687Y07582*
X0651Y07405*
X06503Y07404*
X06495Y07399*
X0649Y07391*
X06488Y07382*
X0649Y07372*
X06495Y07364*
X06503Y07359*
X06513Y07357*
X06522Y07359*
X0653Y07364*
X06535Y07372*
X06536Y07379*
X06713Y07556*
X0672Y07557*
X06728Y07562*
X06733Y0757*
X06735Y0758*
X06733Y07589*
X06728Y07597*
X0672Y07602*
X06711Y07604*
G37*
G36*
X06763Y07547D02*
X06753Y07545D01*
X06745Y0754*
X0674Y07532*
X06739Y07525*
X06555Y07341*
X06548Y0734*
X0654Y07335*
X06535Y07327*
X06533Y07318*
X06535Y07308*
X0654Y073*
X06548Y07295*
X06558Y07293*
X06567Y07295*
X06575Y073*
X0658Y07308*
X06581Y07315*
X06765Y07499*
X06772Y075*
X0678Y07505*
X06785Y07513*
X06787Y07523*
X06785Y07532*
X0678Y0754*
X06772Y07545*
X06763Y07547*
G37*
G36*
X04356Y07365D02*
X04345Y07364D01*
X04336Y0736*
X04327Y07354*
X04321Y07345*
X04317Y07336*
X04316Y07325*
X04317Y07315*
X04321Y07306*
X04327Y07297*
X04336Y07291*
X04345Y07287*
X04356Y07286*
X04366Y07287*
X04375Y07291*
X04384Y07297*
X0439Y07306*
X04394Y07315*
X04395Y07325*
X04394Y07336*
X0439Y07345*
X04384Y07354*
X04375Y0736*
X04366Y07364*
X04356Y07365*
G37*
G36*
X1244Y07358D02*
X1243Y07356D01*
X12421Y07353*
X12414Y07347*
X12408Y0734*
X12405Y07331*
X12403Y07322*
X12405Y07312*
X12408Y07303*
X12414Y07296*
X12421Y0729*
X1243Y07287*
X1244Y07285*
X12449Y07287*
X12458Y0729*
X12465Y07296*
X12471Y07303*
X12474Y07312*
X12476Y07322*
X12474Y07331*
X12471Y0734*
X12465Y07347*
X12458Y07353*
X12449Y07356*
X1244Y07358*
G37*
G36*
X11604Y07446D02*
X11596Y07445D01*
X1159Y07441*
X11586Y07435*
X11585Y07428*
X11586Y0742*
X1159Y07414*
X11591Y07413*
Y07281*
X11498Y07187*
X11497Y07187*
X11489Y07186*
X11483Y07182*
X11479Y07176*
X11478Y07169*
X11479Y07161*
X11483Y07155*
X11489Y07151*
X11497Y0715*
X11504Y07151*
X1151Y07155*
X11514Y07161*
X11515Y07169*
X11515Y0717*
X11612Y07267*
X11615Y07271*
X11616Y07276*
Y07413*
X11617Y07414*
X11621Y0742*
X11622Y07428*
X11621Y07435*
X11617Y07441*
X11611Y07445*
X11604Y07446*
G37*
G36*
X1224Y07258D02*
X1223Y07256D01*
X12221Y07253*
X12214Y07247*
X12208Y0724*
X12205Y07231*
X12203Y07222*
X12205Y07212*
X12208Y07203*
X12214Y07196*
X12221Y0719*
X1223Y07187*
X1224Y07185*
X12249Y07187*
X12258Y0719*
X12265Y07196*
X12271Y07203*
X12274Y07212*
X12276Y07222*
X12274Y07231*
X12271Y0724*
X12265Y07247*
X12258Y07253*
X12249Y07256*
X1224Y07258*
G37*
G36*
X04257Y07135D02*
X04248Y07134D01*
X04239Y0713*
X04232Y07125*
X04226Y07117*
X04223Y07108*
X04221Y07099*
X04223Y0709*
X04226Y07081*
X04232Y07073*
X04239Y07068*
X04248Y07064*
X04257Y07063*
X04267Y07064*
X04276Y07068*
X04283Y07073*
X04289Y07081*
X04292Y0709*
X04294Y07099*
X04292Y07108*
X04289Y07117*
X04283Y07125*
X04276Y0713*
X04267Y07134*
X04257Y07135*
G37*
G36*
X04356Y07089D02*
X04345Y07088D01*
X04336Y07084*
X04327Y07078*
X04321Y07069*
X04317Y0706*
X04316Y0705*
X04317Y07039*
X04321Y0703*
X04327Y07021*
X04336Y07015*
X04345Y07011*
X04356Y0701*
X04366Y07011*
X04375Y07015*
X04384Y07021*
X0439Y0703*
X04394Y07039*
X04395Y0705*
X04394Y0706*
X0439Y07069*
X04384Y07078*
X04375Y07084*
X04366Y07088*
X04356Y07089*
G37*
G36*
X04116Y06924D02*
X04106Y06923D01*
X04097Y06919*
X04089Y06913*
X04083Y06905*
X04079Y06896*
X04078Y06887*
X04079Y06877*
X04083Y06868*
X04089Y0686*
X04097Y06854*
X04106Y0685*
X04116Y06849*
X04125Y0685*
X04134Y06854*
X04142Y0686*
X04148Y06868*
X04152Y06877*
X04153Y06887*
X04152Y06896*
X04148Y06905*
X04142Y06913*
X04134Y06919*
X04125Y06923*
X04116Y06924*
G37*
G36*
Y06824D02*
X04106Y06823D01*
X04097Y06819*
X04089Y06813*
X04083Y06805*
X04079Y06796*
X04078Y06787*
X04079Y06777*
X04083Y06768*
X04089Y0676*
X04097Y06754*
X04106Y0675*
X04116Y06749*
X04125Y0675*
X04134Y06754*
X04142Y0676*
X04148Y06768*
X04152Y06777*
X04153Y06787*
X04152Y06796*
X04148Y06805*
X04142Y06813*
X04134Y06819*
X04125Y06823*
X04116Y06824*
G37*
G36*
X04664Y07242D02*
X04655Y07241D01*
X04648Y07238*
X04641Y07233*
X04637Y07226*
X04633Y07219*
X04632Y07211*
Y07065*
X04452Y06886*
X04448Y06879*
X04444Y06872*
X04443Y06864*
Y06645*
X04444Y06636*
X04448Y06629*
X04452Y06622*
X04459Y06618*
X04466Y06614*
X04475Y06613*
X04483Y06614*
X0449Y06618*
X04497Y06622*
X04502Y06629*
X04505Y06636*
X04506Y06645*
Y06851*
X04686Y0703*
X04691Y07037*
X04694Y07044*
X04695Y07053*
Y07211*
X04694Y07219*
X04691Y07226*
X04686Y07233*
X04679Y07238*
X04672Y07241*
X04664Y07242*
G37*
G36*
X04116Y06674D02*
X04106Y06673D01*
X04097Y06669*
X04089Y06663*
X04083Y06655*
X04079Y06646*
X04078Y06637*
X04079Y06627*
X04083Y06618*
X04089Y0661*
X04097Y06604*
X04106Y066*
X04116Y06599*
X04125Y066*
X04134Y06604*
X04142Y0661*
X04148Y06618*
X04152Y06627*
X04153Y06637*
X04152Y06646*
X04148Y06655*
X04142Y06663*
X04134Y06669*
X04125Y06673*
X04116Y06674*
G37*
G36*
Y06574D02*
X04106Y06573D01*
X04097Y06569*
X04089Y06563*
X04083Y06555*
X04079Y06546*
X04078Y06537*
X04079Y06527*
X04083Y06518*
X04089Y0651*
X04097Y06504*
X04106Y065*
X04116Y06499*
X04125Y065*
X04134Y06504*
X04142Y0651*
X04148Y06518*
X04152Y06527*
X04153Y06537*
X04152Y06546*
X04148Y06555*
X04142Y06563*
X04134Y06569*
X04125Y06573*
X04116Y06574*
G37*
G36*
X1254Y06283D02*
X12528Y06282D01*
X12516Y06278*
X12505Y06272*
X12496Y06265*
X12489Y06256*
X12483Y06245*
X12479Y06233*
X12478Y06222*
X12479Y0621*
X12483Y06198*
X12489Y06187*
X12496Y06178*
X12505Y06171*
X12516Y06165*
X12528Y06161*
X1254Y0616*
X12551Y06161*
X12563Y06165*
X12574Y06171*
X12583Y06178*
X1259Y06187*
X12596Y06198*
X126Y0621*
X12601Y06222*
X126Y06233*
X12596Y06245*
X1259Y06256*
X12583Y06265*
X12574Y06272*
X12563Y06278*
X12551Y06282*
X1254Y06283*
G37*
G36*
X0414Y06278D02*
X04128Y06277D01*
X04116Y06273*
X04106Y06267*
X04096Y0626*
X04089Y06251*
X04083Y0624*
X04079Y06228*
X04078Y06217*
X04079Y06205*
X04083Y06193*
X04089Y06183*
X04096Y06173*
X04106Y06166*
X04116Y0616*
X04128Y06156*
X0414Y06155*
X04151Y06156*
X04163Y0616*
X04174Y06166*
X04183Y06173*
X0419Y06183*
X04196Y06193*
X042Y06205*
X04201Y06217*
X042Y06228*
X04196Y0624*
X0419Y06251*
X04183Y0626*
X04174Y06267*
X04163Y06273*
X04151Y06277*
X0414Y06278*
G37*
%LNeurocard_vme_3u_(3.937_x_8.660_inches)-3*%
%LPD*%
G36*
X12506Y09376D02*
X12507Y09375D01*
Y0927*
X1205*
X12042Y09262*
X11918Y09138*
X11664*
Y09363*
X11662Y09368*
X1166Y09369*
X11659Y09371*
X11663Y09376*
X12506*
G37*
G36*
X06878Y07668D02*
X06876Y07663D01*
X06876Y07662*
X06295Y08243*
X0629Y08246*
X06284Y08248*
X06034*
X06034Y08249*
X06026Y08254*
X06018Y08255*
X06016Y0826*
X06037Y08281*
X06265*
X06878Y07668*
G37*
G36*
X12341Y08125D02*
X12343Y08123D01*
Y08083*
X12243Y07983*
X12184*
X12179Y07982*
X12175Y07979*
X1181Y07615*
X11413*
X11412Y0762*
X11415Y0762*
X11421Y07624*
X11425Y0763*
X11426Y07638*
X11425Y07645*
X11421Y07651*
X11415Y07655*
X11408Y07656*
X11406Y07656*
X11393Y07669*
X11391Y0767*
X11393Y07675*
X11587*
X11591Y07672*
X11592Y07664*
X11596Y07658*
X11602Y07654*
X1161Y07653*
X11617Y07654*
X11623Y07658*
X11627Y07664*
X11628Y07672*
X11627Y07679*
X11623Y07685*
X11617Y07689*
X1161Y0769*
X11608Y0769*
X11602Y07696*
X11598Y07699*
X11594Y077*
X11422*
X1142Y07705*
X11423Y07706*
X11427Y07712*
X11428Y0772*
X11427Y07727*
X11423Y07733*
X11417Y07737*
X1141Y07738*
X11402Y07737*
X11396Y07733*
X11395Y07732*
X11316*
X11074Y07973*
X11076Y07977*
X12148*
X12153Y07978*
X12157Y07981*
X12227Y08051*
X12253*
X12253Y08051*
X12258Y0805*
X12263Y08051*
X12267Y08054*
X12338Y08125*
X12341Y08125*
G37*
G36*
X11155Y08045D02*
X11151Y0804D01*
X1115Y08033*
X11151Y08025*
X11152Y08025*
X11149Y0802*
X1112*
X11097Y08043*
X11093Y08046*
X11089Y08047*
X10854*
X10853Y08048*
X10848Y08051*
X10847Y08055*
X10848Y08057*
X1085Y08058*
X10851Y08059*
X1114*
X11155Y08045*
G37*
G36*
X1082Y0808D02*
X10819Y08079D01*
X10818Y08072*
X10819Y08064*
X10823Y08058*
X10828Y08055*
X10829Y08051*
X10828Y08049*
X10826Y08048*
X10822Y08042*
X10821Y08035*
X10822Y08028*
X10822Y08027*
X1082Y08023*
X10778*
X10773Y08022*
X10769Y08019*
X10614Y07864*
X10612Y07864*
X10606Y0786*
X10602Y07854*
X10601Y07847*
X10602Y07839*
X10606Y07833*
X10612Y07829*
X1062Y07828*
X10627Y07829*
X10633Y07833*
X10637Y07839*
X10638Y07847*
X10637Y07853*
X10698Y07914*
X10704Y07912*
X10704Y07909*
X10708Y07903*
X10709Y07902*
Y07869*
X10639Y07798*
X10632Y07799*
X10624Y07798*
X10618Y07794*
X10614Y07788*
X10613Y07781*
X10614Y07773*
X10618Y07767*
X10624Y07763*
X10632Y07762*
X10639Y07763*
X10645Y07767*
X10649Y07773*
X10649Y07774*
X1073Y07855*
X10733Y07859*
X10734Y07864*
Y07902*
X10735Y07903*
X10739Y07909*
X1074Y07917*
X10739Y07924*
X10735Y0793*
X10729Y07934*
X10726Y07934*
X10724Y0794*
X10754Y0797*
X10759Y07968*
X1076Y0796*
X10764Y07954*
X1077Y0795*
X10778Y07949*
X10785Y0795*
X10791Y07954*
X10795Y0796*
X10796Y07968*
X10796Y07969*
X10807Y07979*
X10861*
X10865Y07974*
X10864Y07972*
X1086Y07969*
X10859Y07969*
X10856Y0797*
X1085Y07971*
X10843Y0797*
X10836Y07967*
X10831Y07963*
X10827Y07958*
X10824Y07951*
X10823Y07945*
X10824Y07938*
X10825Y07937*
X10822Y07934*
X10819Y0793*
X10818Y07926*
Y07904*
X10817Y07903*
X10812Y07899*
X10808Y07894*
X10805Y07887*
X10804Y07881*
X10805Y07875*
X10649Y07719*
X10646Y07715*
X10645Y0771*
Y0771*
Y07646*
X10646Y07641*
X10649Y07637*
X10686Y076*
X1069Y07597*
X10691Y07597*
X1069Y07592*
X10685Y07591*
X10682Y07589*
X10661Y07568*
X10656Y0757*
X10656Y07572*
X10655Y07579*
X10651Y07585*
X10645Y07589*
X10638Y0759*
X1063Y07589*
X10624Y07585*
X10623Y07584*
X10612*
X10571Y07625*
Y07832*
X1064Y07902*
X10643Y07906*
X10644Y07911*
Y08059*
X10645Y0806*
X10649Y08066*
X1065Y08074*
X10649Y0808*
X10649Y08081*
X10651Y08085*
X10818*
X1082Y0808*
G37*
G36*
X10871Y07927D02*
X10875Y07926D01*
X1089Y0791*
Y07811*
X10823Y07743*
X1082Y07739*
X10819Y07735*
Y07718*
X10818Y07717*
X10814Y07711*
X10813Y07704*
X10808Y077*
X10691*
X10686Y07699*
X10683Y07697*
X10682Y07697*
X10674Y07696*
X10674Y07695*
X10669Y07698*
Y07705*
X10821Y07857*
X10824Y07855*
X10831Y07854*
X10837Y07855*
X10844Y07858*
X10849Y07862*
X10853Y07867*
X10856Y07874*
X10857Y07881*
X10856Y07887*
X10853Y07894*
X10849Y07899*
X10844Y07903*
X10843Y07904*
Y07914*
X10848Y07919*
X1085Y07918*
X10856Y07919*
X10863Y07922*
X10868Y07926*
X10869Y07927*
X10871Y07927*
G37*
G36*
X11302Y07711D02*
D01*
X11306Y07708*
X11311Y07707*
X11395*
X11397Y07705*
X11396Y077*
X10855*
X1085Y07704*
X10849Y07711*
X10845Y07717*
X10844Y07718*
Y07729*
X10911Y07797*
X10914Y07801*
X10915Y07806*
Y07916*
X10914Y0792*
X10911Y07924*
X10895Y07941*
Y07955*
X10896Y07956*
X109Y07962*
X10901Y0797*
X109Y07977*
X10899Y07977*
X10902Y07982*
X11031*
X11302Y07711*
G37*
G36*
X10813Y07671D02*
D01*
X10817Y07668*
X10821Y07667*
X10831*
X10834Y07662*
X10833Y07661*
X10832Y07654*
X10833Y07646*
X10837Y0764*
X10843Y07636*
X10851Y07635*
X10854Y07635*
X10857Y07631*
X10849Y07623*
X10848Y07623*
X1084Y07622*
X10834Y07618*
X1083Y07612*
X10829Y07605*
X1083Y07597*
X10834Y07591*
X1084Y07587*
X10848Y07586*
X10855Y07587*
X10861Y07591*
X10865Y07597*
X10866Y07605*
X10866Y07606*
X10877Y07616*
X1094*
X10942Y07612*
X10884Y07554*
X10811*
X10809Y07559*
X1081Y0756*
X10813Y07567*
X10814Y07574*
X10813Y0758*
X1081Y07587*
X10806Y07592*
X10801Y07596*
X10794Y07599*
X10788Y076*
X10781Y07599*
X10775Y07596*
X10754Y07617*
X1075Y0762*
X10746Y07621*
X107*
X10669Y07651*
Y07659*
X10674Y07662*
X10674Y07661*
X10682Y0766*
X10689Y07661*
X10695Y07665*
X10699Y07671*
X107Y07675*
X10808*
X10813Y07671*
G37*
G36*
X11389Y07639D02*
X11389Y07638D01*
X1139Y0763*
X11394Y07624*
X114Y0762*
X11403Y0762*
X11402Y07615*
X1134*
X11335Y0762*
X11331Y07623*
X11326Y07624*
X10998*
X10996Y07628*
X10997Y07629*
X10998Y07637*
X10997Y07644*
X10996Y07644*
X10999Y07649*
X11379*
X11389Y07639*
G37*
G36*
X11326Y07594D02*
D01*
X1133Y07591*
X11335Y0759*
X11515*
X11518Y07585*
X11515Y07582*
X11514Y07575*
X11513Y07574*
X11316*
X11314Y07578*
X11315Y07579*
X11316Y07587*
X11315Y07594*
X11314Y07595*
X11316Y07599*
X11321Y07599*
X11326Y07594*
G37*
G36*
X10693Y07558D02*
X10691Y07555D01*
X1069Y07549*
X10691Y07542*
X10694Y07535*
X10698Y0753*
X10703Y07526*
X1071Y07523*
X10717Y07522*
X10723Y07523*
X10724Y07524*
X10925Y07322*
Y07242*
X10924Y07241*
X10919Y07237*
X10915Y07232*
X10912Y07225*
X10911Y07219*
X10912Y07212*
X10915Y07205*
X10919Y072*
X1092Y072*
X10918Y07195*
X10913*
X1063Y07477*
X10626Y0748*
X10622Y07481*
X10614*
X10613Y07482*
X10607Y07486*
X10602Y07487*
X106Y07492*
X10643Y07535*
X10657*
X10662Y07536*
X10666Y07539*
X10688Y07561*
X10693Y07558*
G37*
G36*
X10615Y08081D02*
X10614Y08081D01*
X10613Y08074*
X10614Y08066*
X10618Y0806*
X10619Y08059*
Y07916*
X1055Y07846*
X10547Y07842*
X10546Y07838*
Y0762*
X10547Y07615*
X1055Y07611*
X10599Y07562*
X10603Y07559*
X10608Y07558*
X10612Y07559*
X10612Y07559*
X10623*
X10624Y07558*
X10626Y07557*
X10626Y07552*
X10539Y07465*
X10535Y07467*
X10534Y07467*
Y07531*
X10534Y07533*
Y08035*
X10584Y08086*
X10612*
X10615Y08081*
G37*
G36*
X10761Y07533D02*
D01*
X10765Y0753*
X1077Y07529*
X10815*
X10817Y07524*
X10816Y07523*
X10815Y07516*
X10816Y07508*
X1082Y07502*
X10826Y07498*
X10834Y07497*
X10836Y07492*
X10836Y0749*
X10837Y07482*
X10841Y07476*
X10847Y07472*
X10855Y07471*
X10862Y07472*
X10868Y07476*
X10869Y07477*
X10908*
X10908Y07478*
X10913Y07474*
X10913Y07473*
X10914Y07466*
X10918Y0746*
X10924Y07456*
X10927Y07456*
X10928Y07451*
X10926Y07448*
X10884*
X10883Y07449*
X10877Y07453*
X1087Y07454*
X10862Y07453*
X10856Y07449*
X10852Y07443*
X10851Y07438*
X10846Y07436*
X10742Y0754*
X10743Y07545*
X10748Y07546*
X10761Y07533*
G37*
G36*
X10581Y07466D02*
X10582Y07461D01*
X10586Y07455*
X10592Y07451*
X106Y0745*
X10607Y07451*
X10613Y07455*
X10618Y07455*
X10736Y07337*
X10734Y07332*
X1063*
X10625Y07331*
X10621Y07328*
X10583Y0729*
X10582Y0729*
X10574Y07289*
X10568Y07285*
X10564Y07279*
X10564Y07276*
X10559Y07277*
Y0745*
X10576Y07468*
X10581Y07466*
G37*
G36*
X10456Y07446D02*
X10456Y07445D01*
X10457Y07444*
X10455Y07442*
X10454Y07435*
X10455Y07427*
X10459Y07421*
X10465Y07417*
X10473Y07416*
X1048Y07417*
X10486Y07421*
X1049Y07427*
X10491Y07435*
X10491Y07436*
X10495Y07441*
X10499Y07442*
X10505Y07446*
X1051Y07445*
Y07284*
X10505Y07282*
X10502Y07287*
X10496Y07291*
X10489Y07292*
X10487Y07292*
X10438Y07342*
Y07401*
X10437Y07406*
X10435Y07408*
Y07419*
X10437Y07421*
X10438Y07426*
Y07457*
X10443Y07459*
X10456Y07446*
G37*
G36*
X10767Y07273D02*
X10766Y07267D01*
X10762Y07267*
X10755Y07264*
X1075Y0726*
X10746Y07255*
X10743Y07248*
X10742Y07242*
X10743Y07235*
X10746Y07228*
X1075Y07223*
X10755Y07219*
X10756Y07218*
Y07064*
X10757Y07059*
X1076Y07055*
X10808Y07007*
X10812Y07004*
X10816Y07003*
X10817Y07003*
X10818Y07001*
X10815Y06996*
X10765*
X10699Y07062*
X10699Y07064*
X10698Y07071*
X10694Y07077*
X10688Y07081*
X10681Y07082*
X10673Y07081*
X10667Y07077*
X10663Y07071*
X10662Y07064*
X10663Y07056*
X10667Y0705*
X10673Y07046*
X10681Y07045*
X10682Y07045*
X10752Y06975*
X10756Y06972*
X1076Y06971*
X10844*
X10844Y06966*
X10841Y06966*
X10835Y06962*
X10831Y06956*
X1083Y06949*
X10831Y06941*
X10835Y06935*
X10841Y06931*
X10849Y0693*
X10856Y06931*
X10862Y06935*
X10863Y06936*
X11393*
X11397Y06937*
X11401Y0694*
X11427Y06965*
X11484*
X11485Y06964*
X11491Y0696*
X11499Y06959*
X11506Y0696*
X11512Y06964*
X11516Y0697*
X11517Y06978*
X11516Y06985*
X11512Y06991*
X11506Y06995*
X11499Y06996*
X11491Y06995*
X11485Y06991*
X11484Y0699*
X11422*
X11417Y06989*
X11413Y06986*
X11387Y06961*
X10863*
X10862Y06962*
X10856Y06966*
X10853Y06966*
X10853Y06971*
X11363*
X11368Y06968*
X11376Y06967*
X11383Y06968*
X11389Y06972*
X11393Y06978*
X11394Y06986*
X11393Y06993*
X11389Y06999*
X11383Y07003*
X11376Y07004*
X11368Y07003*
X11362Y06999*
X1136Y06996*
X10865*
X10863Y07001*
X10864Y07002*
X10867Y07009*
X10868Y07016*
X10867Y07022*
X10864Y07029*
X1086Y07034*
X10855Y07038*
X10848Y07041*
X10842Y07042*
X10835Y07041*
X10828Y07038*
X10823Y07034*
X10822Y07033*
X10817Y07032*
X10781Y07069*
Y07218*
X10782Y07219*
X10787Y07223*
X10791Y07228*
X10794Y07235*
X10794Y07239*
X108Y0724*
X1082Y07219*
Y07196*
X10819Y07195*
X10815Y07189*
X10814Y07182*
X10815Y07174*
X10819Y07168*
X10825Y07164*
X10833Y07163*
X1084Y07164*
X10846Y07168*
X1085Y07174*
X10851Y07182*
X1085Y07189*
X10846Y07195*
X10845Y07196*
Y07221*
X1085Y07223*
X10899Y07174*
X10903Y07171*
X10908Y0717*
X11284*
X11285Y07164*
X11289Y07158*
X11295Y07154*
X11303Y07153*
X1131Y07154*
X11316Y07158*
X1132Y07164*
X11321Y07172*
X1132Y07179*
X11316Y07185*
X1131Y07189*
X11303Y0719*
X11301Y0719*
X113Y07191*
X11296Y07194*
X11293Y07194*
X11293Y07199*
X11367*
X11416Y07151*
X11413Y07146*
X11407Y07145*
X11401Y07141*
X114Y0714*
X10897*
X10895Y07144*
X10889Y07148*
X10882Y07149*
X10874Y07148*
X10868Y07144*
X10864Y07138*
X10863Y07131*
X10864Y07123*
X10868Y07117*
X10874Y07113*
X10882Y07112*
X10889Y07113*
X10893Y07116*
X10975*
X10978Y07111*
X10977Y07111*
X10976Y07104*
X10977Y07096*
X10981Y0709*
X10987Y07086*
X10995Y07085*
X10996Y07085*
X11022Y07059*
X11026Y07056*
X11031Y07055*
X11276*
X11276Y07055*
X11282Y07051*
X1129Y0705*
X11297Y07051*
X11303Y07055*
X11303Y07055*
X11438*
X11439Y07054*
X11445Y0705*
X11453Y07049*
X1146Y0705*
X11466Y07054*
X1147Y0706*
X11471Y07068*
X1147Y07075*
X11466Y07081*
X1146Y07085*
X11453Y07086*
X11445Y07085*
X11439Y07081*
X11438Y0708*
X11304*
X11303Y07082*
X11297Y07086*
X1129Y07087*
X11282Y07086*
X11276Y07082*
X11275Y0708*
X11036*
X11013Y07102*
X11013Y07104*
X11012Y07111*
X11011Y07111*
X11014Y07116*
X114*
X11401Y07115*
X11407Y07111*
X11415Y07109*
X11422Y07111*
X11428Y07115*
X11432Y07121*
X11433Y07127*
X11438Y07129*
X11662Y06905*
X11666Y06902*
X11671Y06901*
X11694*
X11696Y06897*
X11595Y06797*
X11234*
X11221Y0681*
X11221Y06813*
X1122Y0682*
X11216Y06826*
X1121Y0683*
X11203Y06831*
X11195Y0683*
X11189Y06826*
X11185Y0682*
X11184Y06813*
X11185Y06805*
X11189Y06799*
X11195Y06795*
X11202Y06794*
X11218Y06778*
X11216Y06773*
X11169*
X11083Y06859*
X11081Y0686*
X11067Y06874*
X11066Y06876*
X11059Y06882*
X1106Y06887*
X1106Y06887*
X11064Y06893*
X11065Y06901*
X11064Y06908*
X1106Y06914*
X11054Y06918*
X11047Y06919*
X11039Y06918*
X11033Y06914*
X11029Y06908*
X11028Y06901*
X11029Y06893*
X11033Y06887*
X11034Y06886*
Y06878*
X11035Y06873*
X11038Y06869*
X11043Y06864*
X11042Y06859*
X11041Y06859*
X11035Y06855*
X11031Y06849*
X1103Y06842*
X11025Y06839*
X10948Y06916*
X10944Y06919*
X1094Y0692*
X10775*
X10651Y07044*
Y07181*
X1069*
X1069Y0718*
X10696Y07176*
X10704Y07175*
X10711Y07176*
X10717Y0718*
X10721Y07186*
X10722Y07194*
X10721Y07201*
X10717Y07207*
X10711Y07211*
X10704Y07212*
X10696Y07211*
X1069Y07207*
X1069Y07206*
X10656*
X10656Y07206*
X10652Y07212*
X10646Y07216*
X10639Y07217*
X10635Y07217*
X10632Y07221*
X10643Y07231*
X10689*
X1069Y0723*
X10696Y07226*
X10704Y07225*
X10711Y07226*
X10717Y0723*
X10721Y07236*
X10722Y07244*
X10721Y07251*
X10717Y07257*
X10711Y07261*
X10705Y07262*
X10702Y07267*
X10703Y07267*
X10704Y07275*
X10703Y07282*
X10699Y07288*
X10693Y07292*
X10686Y07293*
X10678Y07292*
X10672Y07288*
X10671Y07287*
X10628*
X10623Y07286*
X10619Y07283*
X10608Y07273*
X10603Y07274*
X10603Y07276*
X10635Y07307*
X10732*
X10767Y07273*
G37*
G36*
X11148Y07203D02*
D01*
X11152Y072*
X11155Y072*
X11155Y07195*
X10957*
X10955Y072*
X10956Y072*
X1096Y07205*
X10963Y07212*
X10964Y07219*
X10963Y07225*
X1096Y07232*
X10956Y07237*
X10951Y07241*
X1095Y07242*
Y07328*
X10949Y07332*
X10946Y07336*
X1087Y07412*
X10872Y07417*
X10877Y07418*
X10883Y07422*
X10884Y07423*
X10927*
X11148Y07203*
G37*
G36*
X10461Y0721D02*
Y07149D01*
X1046Y07148*
X10456Y07142*
Y07142*
X10451Y07141*
X10448Y07146*
X10447Y07147*
Y07177*
X10448Y07178*
X10452Y07184*
X10453Y07192*
X10452Y07199*
X10448Y07205*
X10442Y07209*
X10435Y0721*
X10427Y07209*
X10421Y07205*
X10417Y07199*
X10416Y07192*
X10417Y07184*
X10421Y07178*
X10422Y07177*
Y07147*
X10421Y07146*
X10417Y0714*
X10416Y07133*
X10417Y07125*
X10421Y07119*
X10427Y07115*
X10435Y07114*
X10442Y07115*
X10448Y07119*
X10452Y07125*
Y07125*
X10457Y07126*
X1046Y07121*
X10466Y07117*
X10474Y07116*
X10476Y07116*
X10479Y07112*
X10479Y07112*
X10478Y07107*
X10393*
X1037Y07129*
Y07296*
X10374Y07297*
X10461Y0721*
G37*
G36*
X12472Y07097D02*
Y07046D01*
X12467Y07044*
X12465Y07047*
X12458Y07053*
X12449Y07056*
X1244Y07058*
X1243Y07056*
X12421Y07053*
X12414Y07047*
X12408Y0704*
X12405Y07031*
X12403Y07022*
X12405Y07012*
X12408Y07003*
X12414Y06996*
X12421Y0699*
X1243Y06987*
X1244Y06985*
X12449Y06987*
X12458Y0699*
X12465Y06996*
X12467Y06999*
X12472Y06997*
Y06846*
X12467Y06844*
X12465Y06847*
X12458Y06853*
X12449Y06856*
X1244Y06858*
X1243Y06856*
X12421Y06853*
X12414Y06847*
X12408Y0684*
X12405Y06831*
X12403Y06822*
X12405Y06812*
X12408Y06803*
X12414Y06796*
X12421Y0679*
X1243Y06787*
X1244Y06785*
X12449Y06787*
X12458Y0679*
X12465Y06796*
X12467Y06799*
X12472Y06797*
Y06746*
X12467Y06744*
X12465Y06747*
X12458Y06753*
X12449Y06756*
X1244Y06758*
X1243Y06756*
X12421Y06753*
X12414Y06747*
X12408Y0674*
X12405Y06731*
X12403Y06722*
X12405Y06712*
X12408Y06703*
X12414Y06696*
X12421Y0669*
X1243Y06687*
X1244Y06685*
X12449Y06687*
X12458Y0669*
X12465Y06696*
X12467Y06699*
X12472Y06697*
Y06546*
X12467Y06544*
X12465Y06547*
X12458Y06553*
X12449Y06556*
X1244Y06558*
X1243Y06556*
X12421Y06553*
X12414Y06547*
X12408Y0654*
X12405Y06531*
X12403Y06522*
X12405Y06512*
X12408Y06503*
X12414Y06496*
X12421Y0649*
X1243Y06487*
X1244Y06485*
X12449Y06487*
X12458Y0649*
X12465Y06496*
X12467Y06499*
X12472Y06497*
Y06446*
X12467Y06444*
X12465Y06447*
X12458Y06453*
X12449Y06456*
X1244Y06458*
X1243Y06456*
X12424Y06454*
X12398Y06481*
Y06532*
X12397Y06536*
X12394Y0654*
X12293Y06641*
X12293Y06644*
X1229Y06647*
X12254Y06683*
X12254Y06683*
X12255Y06689*
X12258Y0669*
X12265Y06696*
X12271Y06703*
X12274Y06712*
X12276Y06722*
X12274Y06731*
X12271Y0674*
X12265Y06747*
X12263Y06748*
X12265Y06753*
X12274*
X12278Y06754*
X12282Y06757*
X12344Y06819*
X12347Y06823*
X12348Y06828*
Y07012*
X12424Y07089*
X1243Y07087*
X1244Y07085*
X12449Y07087*
X12458Y0709*
X12465Y07096*
X12467Y07099*
X12472Y07097*
G37*
G36*
X10356Y07024D02*
Y06883D01*
X10351Y0688*
X1035Y06881*
Y06983*
X10349Y06987*
X10346Y06991*
X10344Y06994*
X10344Y06998*
X10343Y07005*
X10339Y07011*
X10333Y07015*
X10326Y07016*
X10318Y07015*
X10312Y07011*
X10308Y07005*
X10307Y06998*
X10308Y0699*
X10312Y06984*
X10318Y0698*
X10324Y06979*
X10325Y06977*
Y06955*
X1032Y06953*
X10319Y06955*
X10281Y06994*
Y07034*
X10282Y07035*
X10286Y07041*
X10287Y07049*
X10286Y07056*
X10282Y07062*
X10281Y07062*
X10282Y07067*
X10313*
X10356Y07024*
G37*
G36*
X12214Y06896D02*
X12221Y0689D01*
X1223Y06887*
X12239Y06885*
X1224Y06883*
X12242Y06881*
X12241Y0688*
X1199*
X11985Y06879*
X11981Y06876*
X11954Y06849*
X11949Y06852*
X1195Y06857*
X11949Y06864*
X11945Y0687*
X11939Y06874*
X11932Y06875*
X1193Y06875*
X11908Y06897*
X1191Y06901*
X1221*
X12214Y06896*
G37*
G36*
X11913Y06858D02*
X11913Y06857D01*
X11914Y06849*
X11918Y06843*
X11921Y06842*
X11919Y06837*
X11861*
X11856Y06836*
X11852Y06833*
X1176Y06742*
X11254*
X11253Y06743*
X11256Y06748*
X1162*
X11624Y06749*
X11628Y06752*
X11696Y0682*
X11698Y0682*
X11705Y06821*
X11711Y06825*
X11715Y06831*
X11716Y06839*
X11715Y06846*
X11711Y06852*
X11705Y06856*
X11698Y06857*
X11695Y06862*
X11715Y06882*
X11889*
X11913Y06858*
G37*
G36*
X10564Y07264D02*
X10568Y07258D01*
X10574Y07254*
X10582Y07253*
X10584Y07248*
X10582Y07246*
X10579Y07242*
X10578Y07237*
Y07237*
Y06954*
X10574Y06949*
X10573Y06942*
X10574Y06934*
X10578Y06928*
X10579Y06927*
Y06774*
X1058Y06769*
X10583Y06765*
X10636Y06712*
X10683Y06664*
Y06634*
X10678Y06632*
X10677Y06635*
X10671Y06639*
X10664Y0664*
X10656Y06639*
X1065Y06635*
X10646Y06629*
X10646Y06627*
X1062*
X10619Y06628*
X10613Y06632*
X10606Y06633*
X10598Y06632*
X10592Y06628*
X10588Y06622*
X10587Y06615*
X10588Y06607*
X10592Y06601*
X10598Y06597*
X10606Y06596*
X10613Y06597*
X10619Y06601*
X1062Y06602*
X10657*
X10661Y06603*
X10664Y06603*
X10671Y06604*
X10677Y06608*
X10678Y06611*
X10683Y06609*
Y0649*
X10668Y06474*
X10665Y0647*
X10664Y06466*
Y06445*
X10665Y06441*
X10668Y06437*
X10677Y06428*
Y06423*
X10675Y06421*
X10672Y06417*
X10671Y06413*
X10672Y06408*
X10675Y06404*
X10679Y06401*
X10684Y064*
X10686*
X10687Y06399*
X10693Y06395*
X10701Y06394*
X10708Y06395*
X10714Y06399*
X10718Y06405*
X10719Y06413*
X10718Y0642*
X10714Y06426*
X10708Y0643*
X10706Y06434*
X10708Y06438*
X10714Y06442*
X10718Y06448*
X10719Y06456*
X10719Y06457*
X10731Y06469*
X10734Y06473*
X10735Y06478*
Y06673*
X10739Y06678*
X10742Y06682*
X10743Y06687*
Y06746*
X10742Y0675*
X10739Y06754*
X10727Y06766*
X10723Y06769*
X10719Y0677*
X10711*
X1071Y06771*
X10704Y06775*
X10697Y06776*
X10689Y06775*
X10683Y06771*
X10682Y0677*
X10681*
X10676Y06769*
X10672Y06766*
X10664Y06759*
X10651*
X10628Y06781*
Y0696*
X10632Y06965*
X10633Y06973*
X10633Y06976*
X10637Y06979*
X10642Y06973*
Y0695*
X10641Y06949*
X10637Y06943*
X10636Y06936*
X10637Y06928*
X10641Y06922*
X10647Y06918*
X10655Y06917*
X10662Y06918*
X10668Y06922*
X10672Y06928*
X10673Y06936*
X10672Y06943*
X10668Y06949*
X10667Y0695*
Y06979*
X10666Y06983*
X10663Y06987*
X10628Y07022*
X10629Y07024*
X10634Y07026*
X10761Y06899*
X10765Y06896*
X1077Y06895*
X10934*
X11164Y06666*
X11164Y0666*
X11164Y06659*
X11141*
X10942Y06857*
X10938Y0686*
X10934Y06861*
X10834*
X10833Y06862*
X10827Y06866*
X1082Y06867*
X10812Y06866*
X10806Y06862*
X10802Y06856*
X10801Y06849*
X10802Y06841*
X10806Y06835*
X10812Y06831*
X1082Y0683*
X10827Y06831*
X10833Y06835*
X10834Y06836*
X10928*
X11128Y06637*
X11132Y06634*
X11137Y06633*
X11141Y06634*
X11141Y06634*
X11243*
X11244Y06633*
X1125Y06629*
X11258Y06628*
X11265Y06629*
X11271Y06633*
X11275Y06639*
X11276Y06647*
X11275Y06654*
X11272Y06657*
X11275Y06662*
X12236*
X12237Y06657*
X1223Y06656*
X12221Y06653*
X12214Y06647*
X12208Y0664*
X12205Y06631*
X12203Y06622*
X12205Y06612*
X12208Y06603*
X12214Y06596*
X12221Y0659*
X1223Y06587*
X1224Y06585*
X12249Y06587*
X12258Y0659*
X12265Y06596*
X12271Y06603*
X12274Y06612*
X12275Y06618*
X1228Y06619*
X12373Y06526*
Y06476*
X12374Y06471*
X12377Y06467*
X12407Y06437*
X12405Y06431*
X12403Y06422*
X12405Y06412*
X12408Y06403*
X12414Y06396*
X12421Y0639*
X1243Y06387*
X1244Y06385*
X12444Y06386*
X12446Y06381*
X12429Y06365*
X11271*
X11151Y06484*
X11147Y06487*
X11143Y06488*
X1089*
X10889Y06489*
X10883Y06493*
X10876Y06494*
X10868Y06493*
X10862Y06489*
X1086Y06485*
X10855Y06486*
Y06489*
X10854Y06493*
X10851Y06497*
X10851Y06497*
X10851Y06499*
X1085Y06506*
X10846Y06512*
X1084Y06516*
X10833Y06517*
X10825Y06516*
X10819Y06512*
X10815Y06506*
X10814Y06499*
X10815Y06491*
X10819Y06485*
X10825Y06481*
X1083Y0648*
Y06394*
X10831Y06389*
X10834Y06385*
X1088Y06338*
Y06332*
X10881Y06327*
X10884Y06323*
X10926Y06281*
X10926Y0628*
X10927Y06272*
X10931Y06266*
X10937Y06262*
X10945Y06261*
X10952Y06262*
X10958Y06266*
X10962Y06272*
X10963Y0628*
X10962Y06287*
X10958Y06293*
X10952Y06297*
X10945Y06298*
X10943Y06298*
X10905Y06337*
Y06344*
X10904Y06348*
X10901Y06352*
X10855Y06399*
Y06465*
X1086Y06466*
X10862Y06462*
X10868Y06458*
X10876Y06457*
X10883Y06458*
X10889Y06462*
X1089Y06463*
X11137*
X11256Y06345*
X11256Y06342*
X11254Y0634*
X11086*
X11081Y06339*
X11077Y06336*
X10996Y06256*
X10524*
X10406Y06374*
Y06725*
X10431Y06751*
X10433Y06751*
X1044Y06752*
X10446Y06756*
X1045Y06762*
X10451Y0677*
X1045Y06777*
X10446Y06783*
X1044Y06787*
X10433Y06788*
X10425Y06787*
X10419Y06783*
X10415Y06777*
X10414Y0677*
X10414Y06768*
X10385Y06739*
X10382Y06735*
X10381Y06731*
Y0649*
X10376Y06488*
X10374Y06492*
X10368Y06496*
X10361Y06497*
X10353Y06496*
X10347Y06492*
X10347Y06491*
X10339*
X10323Y06508*
Y06846*
X10328Y06849*
X1033Y06847*
X10338Y06846*
X10345Y06847*
X10351Y06851*
X10351Y06852*
X10356Y06851*
Y0683*
X10355Y06829*
X10351Y06823*
X1035Y06816*
X10351Y06808*
X10355Y06802*
X10361Y06798*
X10369Y06797*
X10376Y06798*
X10382Y06802*
X10386Y06808*
X10387Y06816*
X10386Y06823*
X10382Y06829*
X10381Y0683*
Y0703*
X1038Y07034*
X10377Y07038*
X10327Y07088*
X10327Y07088*
X10326Y07095*
X1034Y07109*
X10341Y0711*
X10341Y0711*
X10344Y07114*
X10344Y07114*
X10348Y07116*
X10349Y07116*
X10379Y07086*
X10383Y07083*
X10388Y07082*
X10489*
X10493Y07083*
X10497Y07086*
X10504Y07087*
X10505Y07088*
X1051Y07086*
Y06757*
X10505Y06756*
X10504Y06761*
X105Y06767*
X10494Y06771*
X10487Y06772*
X10479Y06771*
X10473Y06767*
X10472Y06765*
X1047Y06765*
X10466Y06762*
X10416Y06712*
X10413Y06708*
X10412Y06704*
Y06404*
X10413Y06399*
X10416Y06395*
X10429Y06382*
X10433Y06379*
X10438Y06378*
X10457*
X10461Y06379*
X10465Y06382*
X10479Y06396*
X10481Y06396*
X10488Y06397*
X10494Y06401*
X10498Y06407*
X10499Y06415*
X10498Y06422*
X10494Y06428*
X10488Y06432*
X10481Y06433*
X10477Y06433*
X10473Y06437*
X10473Y06438*
X10472Y06445*
X10468Y06451*
X10467Y06452*
Y06553*
X1053Y06617*
X10533Y06621*
X10534Y06626*
Y06626*
Y0674*
X10535Y0674*
X10539Y06742*
X1057Y06711*
X1057Y06709*
X10574Y06703*
X1058Y06699*
X10588Y06698*
X10595Y06699*
X10601Y06703*
X10605Y06709*
X10606Y06717*
X10605Y06724*
X10601Y0673*
X10595Y06734*
X10588Y06735*
X10581Y06734*
X10559Y06757*
Y07266*
X10564Y07267*
X10564Y07264*
G37*
G36*
X1051Y06751D02*
Y06631D01*
X10446Y06567*
X10443Y06563*
X10442Y06559*
Y06456*
X10442Y06455*
X10442Y06455*
X10437Y06458*
Y06698*
X10476Y06738*
X10479Y06736*
X10487Y06735*
X10494Y06736*
X105Y0674*
X10504Y06746*
X10505Y06751*
X1051Y06751*
G37*
G36*
X12216Y06748D02*
X12214Y06747D01*
X12208Y0674*
X12205Y06731*
X12203Y06722*
X12205Y06712*
X12208Y06703*
X12214Y06696*
X12219Y06692*
X12218Y06687*
X11879*
X11879Y06688*
X11879Y06694*
X11939Y06753*
X12214*
X12216Y06748*
G37*
G36*
X06036Y0898D02*
X06033Y08976D01*
X06029Y08977*
X05597*
X05594Y08982*
X05596Y08984*
X06032*
X06036Y0898*
G37*
G36*
X07738Y08757D02*
X07351D01*
Y09154*
X07738*
Y08757*
G37*
G36*
X07576Y08359D02*
X07577Y08357D01*
X07578Y08354*
X07573Y08347*
X07572Y0834*
X07244Y08012*
X07238Y08011*
X07235Y08008*
X07231Y08012*
X07233Y08014*
X07234Y08019*
X07574Y08359*
X07576Y08359*
G37*
%LNeurocard_vme_3u_(3.937_x_8.660_inches)-4*%
%LPC*%
G36*
X11586Y06935D02*
X11578Y06934D01*
X11572Y0693*
X11571Y06929*
X11475*
X1147Y06928*
X11466Y06925*
X11398Y06857*
X11397Y06857*
X11389Y06856*
X11383Y06852*
X11379Y06846*
X11378Y06839*
X11379Y06831*
X11383Y06825*
X11389Y06821*
X11397Y0682*
X11404Y06821*
X1141Y06825*
X11414Y06831*
X11415Y06839*
X11415Y0684*
X1148Y06904*
X11571*
X11572Y06903*
X11578Y06899*
X11586Y06898*
X11593Y06899*
X11599Y06903*
X11603Y06909*
X11604Y06917*
X11603Y06924*
X11599Y0693*
X11593Y06934*
X11586Y06935*
G37*
G36*
X10468Y07016D02*
X1046Y07015D01*
X10454Y07011*
X1045Y07005*
X10449Y06998*
X10449Y06996*
X10414Y06961*
X10411Y06957*
X1041Y06953*
Y06887*
X10411Y06882*
X10414Y06878*
X10428Y06864*
X10432Y06861*
X10437Y0686*
X10454*
X10455Y06859*
X10461Y06855*
X10469Y06854*
X10476Y06855*
X10482Y06859*
X10486Y06865*
X10487Y06873*
X10486Y0688*
X10482Y06886*
X10476Y0689*
X10469Y06891*
X10461Y0689*
X10455Y06886*
X10454Y06885*
X10442*
X10435Y06892*
Y06947*
X10466Y06979*
X10468Y06979*
X10475Y0698*
X10481Y06984*
X10485Y0699*
X10486Y06998*
X10485Y07005*
X10481Y07011*
X10475Y07015*
X10468Y07016*
G37*
G36*
X10714Y06905D02*
X10707Y06904D01*
X107Y06901*
X10695Y06897*
X10691Y06892*
X10688Y06885*
X10687Y06879*
X10688Y06872*
X10691Y06865*
X10695Y0686*
X107Y06856*
X10707Y06853*
X10714Y06852*
X1072Y06853*
X10727Y06856*
X1073Y06858*
X10741*
X10757Y06842*
Y06604*
X10756Y06603*
X10751Y06599*
X10747Y06594*
X10744Y06587*
X10743Y06581*
X10744Y06574*
X10747Y06567*
X10751Y06562*
X10756Y06558*
X10763Y06555*
X1077Y06554*
X10776Y06555*
X10783Y06558*
X10788Y06562*
X10792Y06567*
X10795Y06574*
X10796Y06581*
X10795Y06587*
X10792Y06594*
X10788Y06599*
X10783Y06603*
X10782Y06604*
Y06848*
X10781Y06852*
X10778Y06856*
X10755Y06879*
X10751Y06882*
X10747Y06883*
X10739*
X10739Y06885*
X10736Y06892*
X10732Y06897*
X10727Y06901*
X1072Y06904*
X10714Y06905*
G37*
G36*
X1224Y06558D02*
X1223Y06556D01*
X12221Y06553*
X12214Y06547*
X12208Y0654*
X12205Y06531*
X12203Y06522*
X12205Y06512*
X12208Y06503*
X12214Y06496*
X12221Y0649*
X1223Y06487*
X1224Y06485*
X12249Y06487*
X12258Y0649*
X12265Y06496*
X12271Y06503*
X12274Y06512*
X12276Y06522*
X12274Y06531*
X12271Y0654*
X12265Y06547*
X12258Y06553*
X12249Y06556*
X1224Y06558*
G37*
G36*
Y06458D02*
X1223Y06456D01*
X12221Y06453*
X12214Y06447*
X12208Y0644*
X12205Y06431*
X12203Y06422*
X12205Y06412*
X12208Y06403*
X12214Y06396*
X12221Y0639*
X1223Y06387*
X1224Y06385*
X12249Y06387*
X12258Y0639*
X12265Y06396*
X12271Y06403*
X12274Y06412*
X12276Y06422*
X12274Y06431*
X12271Y0644*
X12265Y06447*
X12258Y06453*
X12249Y06456*
X1224Y06458*
G37*
%LNeurocard_vme_3u_(3.937_x_8.660_inches)-5*%
%LPD*%
G54D26*
X07957Y08222D02*
X08142D01*
X07244Y07986D02*
X07596Y08338D01*
X07214Y08025D02*
X07572Y08383D01*
X06513Y07382D02*
X06711Y0758D01*
X06558Y07318D02*
X06763Y07523D01*
G54D27*
X10358Y07409D02*
Y07835D01*
X10357Y07409D02*
X10358Y07409D01*
X10357Y07374D02*
Y07409D01*
Y07374D02*
X10358Y07374D01*
Y07124D02*
Y07374D01*
X10376Y07402D02*
Y0777D01*
X10375Y07402D02*
X10376Y07402D01*
X10375Y07381D02*
Y07402D01*
Y07381D02*
X10376Y07381D01*
Y07314D02*
Y07381D01*
X10426Y07426D02*
Y07721D01*
X10423Y07424D02*
X10426Y07426D01*
X10423Y07403D02*
Y07424D01*
Y07403D02*
X10426Y07401D01*
Y07337D02*
Y07401D01*
Y07337D02*
X10489Y07274D01*
X10326Y06995D02*
X10338Y06983D01*
Y06865D02*
Y06983D01*
X10334Y06479D02*
X10361D01*
X10311Y06503D02*
X10334Y06479D01*
X10394Y06369D02*
Y06731D01*
X10475Y06754D02*
X10487D01*
X10425Y06704D02*
X10475Y06754D01*
X10425Y06404D02*
Y06704D01*
Y06404D02*
X10438Y06391D01*
X10457*
X10481Y06415*
X10358Y07124D02*
X10388Y07095D01*
X10358Y07835D02*
X10359Y07836D01*
X10376Y0777D02*
X10388Y07782D01*
X10614Y0722D02*
X10638Y07244D01*
X10614Y07019D02*
X10655Y06979D01*
X10614Y07019D02*
Y0722D01*
X10474Y07135D02*
Y07216D01*
X10376Y07314D02*
X10474Y07216D01*
X10624Y08176D02*
X11994D01*
X10522Y08041D02*
X10579Y08098D01*
X10559Y07838D02*
X10632Y07911D01*
X10579Y08098D02*
X10642D01*
X10642Y08098D02*
X12056D01*
X10642Y08098D02*
X10642Y08098D01*
X10632Y07911D02*
Y08074D01*
X05898Y08373D02*
X05901Y08376D01*
X05872Y08347D02*
X05898Y08373D01*
X05703Y08347D02*
X05872D01*
X05349Y08701D02*
X05703Y08347D01*
X05175Y08701D02*
X05349D01*
X04746Y08272D02*
X05175Y08701D01*
X04116Y08272D02*
X04746D01*
X05942Y08366D02*
Y08369D01*
X05911Y084D02*
X05942Y08369D01*
X05693Y084D02*
X05911D01*
X0535Y08744D02*
X05693Y084D01*
X05173Y08744D02*
X0535D01*
X04951Y08522D02*
X05173Y08744D01*
X04116Y08522D02*
X04951D01*
X04464Y08852D02*
X04466Y0885D01*
X04704*
X05579Y08996D02*
X06037D01*
X06538Y08496D02*
X06572D01*
X06037Y08996D02*
X06538Y08496D01*
X05579Y08965D02*
X06029D01*
X06527Y08467*
X05304Y08623D02*
Y08641D01*
X04366Y07685D02*
X05304Y08623D01*
X04366Y07645D02*
Y07685D01*
X04223Y07502D02*
X04366Y07645D01*
X04155Y07502D02*
X04223D01*
X05148Y08562D02*
Y0861D01*
X04488Y07902D02*
X05148Y08562D01*
X04155Y07902D02*
X04488D01*
X05301Y08673D02*
X0531D01*
X0443Y07802D02*
X05301Y08673D01*
X04155Y07802D02*
X0443D01*
X05916Y0834D02*
X05942Y08366D01*
X05916Y0781D02*
Y0834D01*
X05898Y07802D02*
Y08373D01*
X10592Y06774D02*
Y06942D01*
Y06774D02*
X10645Y06721D01*
X10692*
X10615Y06973D02*
X10616Y06971D01*
Y06776D02*
Y06971D01*
Y06776D02*
X10646Y06747D01*
X1067*
X10681Y06758*
X10697*
X10684Y06413D02*
X10701D01*
X10697Y06758D02*
X10719D01*
X10731Y06746*
Y06687D02*
Y06746D01*
X10423Y06953D02*
X10468Y06998D01*
X10423Y06887D02*
Y06953D01*
Y06887D02*
X10437Y06873D01*
X10469*
X10701Y06456D02*
X10723Y06478D01*
Y06679*
X10731Y06687*
X10684Y06413D02*
X10696Y06425D01*
X10592Y06774D02*
X10696Y0667D01*
X10676Y06445D02*
Y06466D01*
X10696Y06485D02*
Y0667D01*
Y06425D02*
Y06426D01*
X10676Y06445D02*
X10696Y06426D01*
X10676Y06466D02*
X10696Y06485D01*
X10657Y06615D02*
X10664Y06622D01*
X10606Y06615D02*
X10657D01*
X12336Y07018D02*
X1244Y07122D01*
X1224Y07322D02*
X12398Y07163D01*
X12457*
X11143Y06476D02*
X11266Y06353D01*
X10876Y06476D02*
X11143D01*
X10882Y07131D02*
X10883Y07132D01*
X10843Y06394D02*
X10893Y06344D01*
X10843Y06394D02*
Y06489D01*
X10833Y06499D02*
X10843Y06489D01*
X11934Y06766D02*
X12274D01*
X12336Y06828*
X10855Y0749D02*
X10908D01*
X12336Y06828D02*
Y07018D01*
X1225Y06868D02*
X12289Y06907D01*
Y06973*
X1224Y07022D02*
X12289Y06973D01*
X11031Y07068D02*
X11453D01*
X10995Y07104D02*
X11031Y07068D01*
X10883Y07132D02*
X10886Y07128D01*
X11415*
X11422Y06978D02*
X11499D01*
X10834Y07516D02*
X10889D01*
X11682Y06978D02*
Y07288D01*
X12164Y0777*
X12392*
X1244Y07722*
X11752Y07222D02*
X12201Y07671D01*
X11752Y06987D02*
Y07222D01*
X1199Y06868D02*
X1225D01*
X11671Y06914D02*
X12232D01*
X1224Y06922*
X11894Y06894D02*
X11932Y06857D01*
X11861Y06825D02*
X11947D01*
X1199Y06868*
X11073Y06851D02*
Y06852D01*
X11059Y06866D02*
X11073Y06852D01*
X11058Y06866D02*
X11059D01*
X11047Y06878D02*
X11058Y06866D01*
X11047Y06878D02*
Y06901D01*
X11266Y06353D02*
X12435D01*
X1077Y06908D02*
X1094D01*
X12246Y06675D02*
X12281Y06639D01*
Y06636D02*
Y06639D01*
Y06636D02*
X12386Y06532D01*
Y06476D02*
Y06532D01*
Y06476D02*
X1244Y06422D01*
X1082Y06849D02*
X10934D01*
X1094Y06908D02*
X11173Y06675D01*
X12246*
X11393Y06949D02*
X11422Y06978D01*
X10849Y06949D02*
X11393D01*
X11871Y06703D02*
X11934Y06766D01*
X11049Y06842D02*
X11188Y06703D01*
X11765Y06729D02*
X11861Y06825D01*
X11188Y06703D02*
X11871D01*
X11764Y0673D02*
X11765Y06729D01*
X11238Y0673D02*
X11764D01*
X11073Y06851D02*
X11164Y06761D01*
X1162*
X11698Y06839*
X11203Y06811D02*
X11229Y06785D01*
X11601*
X1171Y06894*
X11894*
X10934Y06849D02*
X11137Y06646D01*
X11138Y06647*
X11258*
X11397Y06839D02*
X11475Y06917D01*
X11586*
X10643Y08123D02*
X11138D01*
X05898Y07802D02*
X0662Y0708D01*
X05916Y0781D02*
X06628Y07097D01*
X0662Y0708D02*
X10319D01*
X10369Y0703*
Y06816D02*
Y0703D01*
X10311Y06503D02*
Y06947D01*
X10269Y06989D02*
X10311Y06947D01*
X10269Y06989D02*
Y07049D01*
X12435Y06353D02*
X12485Y06403D01*
Y07136*
X12457Y07163D02*
X12485Y07136D01*
X1244Y08022D02*
X12483Y07979D01*
X12201Y07671D02*
X1245D01*
X12483Y07704*
Y07979*
X1244Y08322D02*
X12521Y08241D01*
Y06413D02*
Y08241D01*
X12442Y06335D02*
X12521Y06413D01*
X12442Y06335D02*
X12442D01*
X12435Y06328D02*
X12442Y06335D01*
X11086Y06328D02*
X12435D01*
X10893Y06332D02*
Y06344D01*
Y06332D02*
X10945Y0628D01*
X11002Y06244D02*
X11086Y06328D01*
X11994Y08176D02*
X1224Y08422D01*
Y08481D02*
Y08522D01*
Y08481D02*
X12281Y08439D01*
Y08296D02*
Y08439D01*
X12248Y08263D02*
X12281Y08296D01*
X12222Y08263D02*
X12248D01*
X10394Y06731D02*
X10433Y0677D01*
X10394Y06369D02*
X10519Y06244D01*
X11002*
X10455Y06438D02*
Y06559D01*
X1224Y08722D02*
X12331Y08631D01*
Y08135D02*
Y08631D01*
X1224Y08822D02*
X12356Y08706D01*
Y08078D02*
Y08706D01*
X10547Y06752D02*
X10582Y06717D01*
X10301Y07886D02*
X10307Y07892D01*
X06628Y07097D02*
X10311D01*
X10307Y07892D02*
X10309Y0789D01*
X10362*
X12056Y08098D02*
X12222Y08263D01*
X10722Y07864D02*
Y07917D01*
X1064Y07782D02*
X10722Y07864D01*
X10621Y07847D02*
Y07854D01*
X10559Y0762D02*
Y07838D01*
X10496Y07526D02*
Y07931D01*
X11816Y07603D02*
X12184Y07971D01*
X12248*
X12356Y08078*
X10837Y08072D02*
X11146D01*
X12222Y08063D02*
X12257D01*
X12258Y08062*
X12331Y08135*
X10637Y07041D02*
X1077Y06908D01*
X1059Y06943D02*
X10592Y06942D01*
X1059Y06943D02*
Y07237D01*
X10628Y07275*
X10686*
X10655Y06936D02*
Y06979D01*
X10638Y07244D02*
X10704D01*
X11335Y07603D02*
X11816D01*
X1087Y07436D02*
X10933D01*
X11146Y08072D02*
X11169Y08049D01*
Y08033D02*
Y08049D01*
X10637Y07041D02*
X10639Y07043D01*
Y07199*
X10644Y07194*
X10704*
X10547Y06752D02*
Y07456D01*
X10638Y07547*
X10559Y0762D02*
X10608Y07571D01*
X10609Y07572*
X10638*
X10832Y07704D02*
Y07735D01*
X11155Y07301D02*
X11307Y07453D01*
X1115Y07301D02*
X11155D01*
X11143Y07357D02*
X11146D01*
X11271Y07482*
X11046Y0738D02*
X11074D01*
X11177Y07483*
X10582Y07272D02*
X1063Y0732D01*
X11292Y07183D02*
X11303Y07172D01*
X10933Y07436D02*
X11157Y07212D01*
X11373*
X11671Y06914*
X11176Y07242D02*
X1129D01*
X11609Y07561*
X10467Y07449D02*
Y07452D01*
Y07449D02*
X10473Y07444D01*
Y07435D02*
Y07444D01*
X10522Y07531D02*
X10522Y07531D01*
X10522Y07531D02*
Y08041D01*
X10522Y06626D02*
Y07531D01*
X10455Y06559D02*
X10522Y06626D01*
X10471Y07474D02*
X10478Y07467D01*
X10471Y07474D02*
Y08112D01*
X10483Y08124*
X1045Y07469D02*
X10467Y07452D01*
X1045Y0818D02*
X10454Y08176D01*
X1045Y07469D02*
Y07718D01*
X10451Y07719*
Y0774*
X1045Y07741D02*
X10451Y0774D01*
X1045Y07741D02*
Y0818D01*
X10332Y0714D02*
X10333Y07119D01*
X10311Y07097D02*
X10332Y07118D01*
Y0714*
X10435Y07133D02*
Y07192D01*
X10388Y07095D02*
X10489D01*
X1063Y0732D02*
X10738D01*
X10833Y07225*
Y07182D02*
Y07225D01*
X10638Y07547D02*
X10657D01*
X1069Y0758*
X10702*
X10703Y07581*
X1073*
X10832Y07735D02*
X10903Y07806D01*
Y07916*
X1077Y06581D02*
Y06848D01*
X10747Y06871D02*
X1077Y06848D01*
X10722Y06871D02*
X10747D01*
X10714Y06879D02*
X10722Y06871D01*
X10769Y07064D02*
Y07242D01*
Y07064D02*
X10817Y07016D01*
X10842*
X1076Y06984D02*
X11374D01*
X10681Y07064D02*
X1076Y06984D01*
X11374D02*
X11376Y06986D01*
X106Y07469D02*
X10622D01*
X10908Y07183*
X11292*
X10717Y07549D02*
X10938Y07328D01*
Y07219D02*
Y07328D01*
X10657Y07646D02*
Y0771D01*
Y07646D02*
X10695Y07609D01*
X10746*
X1078Y07575*
X1077Y07542D02*
X10889D01*
X1073Y07581D02*
X1077Y07542D01*
X11233Y08022D02*
X11244Y08033D01*
X11223Y08022D02*
X11233D01*
X1084Y08035D02*
X11089D01*
X11209Y08008D02*
X11223Y08022D01*
X11115Y08008D02*
X11209D01*
X11089Y08035D02*
X11115Y08008D01*
X12148Y0799D02*
X12222Y08063D01*
X11311Y0772D02*
X1141D01*
X11066Y0799D02*
X12148D01*
X10621Y07854D02*
X10778Y08011D01*
X10829*
X10829Y0801*
X1085*
X10778Y07968D02*
X10802Y07992D01*
X10883Y07936D02*
X10903Y07916D01*
X10883Y07936D02*
Y0797D01*
X10802Y07992D02*
X1087D01*
X10872Y07994*
X10851Y08012D02*
X11044D01*
X10872Y07994D02*
X11036D01*
X11311Y0772*
X1085Y0801D02*
X10851Y08012D01*
X11044D02*
X11066Y0799D01*
X10657Y0771D02*
X10828Y07881D01*
X10831*
Y07926*
X1085Y07945*
X10848Y07605D02*
X10872Y07629D01*
X10933Y07436D02*
X1101Y07513D01*
X1101Y07514D02*
X1101Y07513D01*
X1101Y07514D02*
X11177D01*
X10932Y07474D02*
X10997Y07539D01*
X11399D02*
X11416Y07522D01*
X10908Y0749D02*
X1098Y07562D01*
X10889Y07516D02*
X10954Y07581D01*
X1152Y07562D02*
X11533Y07575D01*
X10997Y07539D02*
X11399D01*
X1098Y07562D02*
X1152D01*
X11292Y07581D02*
X11298Y07587D01*
X10954Y07581D02*
X11292D01*
X11326Y07612D02*
X11335Y07603D01*
X10872Y07629D02*
X10972D01*
X1098Y07637*
X10889Y07542D02*
X10958Y07611D01*
X10979*
X1098Y07612*
X11326*
X10682Y07679D02*
X10691Y07688D01*
X11594D02*
X1161Y07672D01*
X10691Y07688D02*
X10813D01*
X10821Y07679*
X10842*
X1085Y07688*
X11594*
X10851Y07654D02*
X10858Y07661D01*
X11384*
X11408Y07638*
X11604Y07276D02*
Y07428D01*
X11497Y07169D02*
X11604Y07276D01*
G54D28*
X04398Y0742D02*
X0441Y07432D01*
X04088Y0742D02*
X04398D01*
X04055Y07453D02*
X04088Y0742D01*
X04055Y07453D02*
Y07502D01*
X1206Y08919D02*
X12163Y09022D01*
X1224*
X1206Y08436D02*
Y08919D01*
X06017Y08232D02*
X06284D01*
X06872Y07644*
X05967Y08234D02*
X06031Y08298D01*
X06272*
X069Y0767*
X12034Y08446D02*
Y0896D01*
X12195Y09122*
X1224*
X06872Y07644D02*
X08389D01*
X069Y0767D02*
X08378D01*
X11973Y08385D02*
X12034Y08446D01*
X11984Y0836D02*
X1206Y08436D01*
X08378Y0767D02*
X09094Y08385D01*
X08389Y07644D02*
X09105Y0836D01*
X09094Y08385D02*
X11973D01*
X09105Y0836D02*
X11984D01*
X0755Y08231D02*
X07863D01*
X07937Y08305*
Y08431*
X07676Y08692D02*
X07937Y08431D01*
X07676Y08692D02*
Y08796D01*
X04Y06D02*
X1266D01*
X04Y09937D02*
X1266D01*
Y06D02*
Y09937D01*
X04Y06D02*
Y09937D01*
G54D29*
X09866Y08265D02*
X10686D01*
X10712Y08239*
X04664Y07053D02*
Y07211D01*
X04475Y06864D02*
X04664Y07053D01*
X04475Y06645D02*
Y06864D01*
G54D30*
X08294Y09545D02*
X11693D01*
X11797Y09441*
Y09223D02*
Y09441D01*
G54D31*
X04587Y07759D02*
X0474D01*
X06378Y0756D02*
X06616Y07798D01*
X06952Y08073D02*
X07093D01*
X07282Y08262*
X07325*
G54D32*
X1224Y09122D02*
X1244D01*
X1224Y09022D02*
X1244D01*
G54D33*
X118Y09223D03*
Y08623D03*
G54D34*
X118Y09073D03*
Y08923D03*
Y08773D03*
X098Y08923D03*
Y0921D03*
Y08635D03*
G54D35*
X1244Y09522D03*
Y09422D03*
Y09322D03*
Y09222D03*
Y09122D03*
Y09022D03*
Y08922D03*
Y08822D03*
Y08722D03*
Y08622D03*
Y08522D03*
Y08422D03*
Y08322D03*
Y08222D03*
Y08122D03*
Y08022D03*
Y07922D03*
Y07822D03*
Y07722D03*
Y07622D03*
Y07522D03*
Y07422D03*
Y07322D03*
Y07222D03*
Y07122D03*
Y07022D03*
Y06922D03*
Y06822D03*
Y06722D03*
Y06622D03*
Y06522D03*
Y06422D03*
X1224Y09522D03*
Y09422D03*
Y09322D03*
Y09222D03*
Y09122D03*
Y09022D03*
Y08922D03*
Y08822D03*
Y08722D03*
Y08622D03*
Y08522D03*
Y08422D03*
Y08322D03*
Y08222D03*
Y08122D03*
Y08022D03*
Y07922D03*
Y07822D03*
Y07722D03*
Y07622D03*
Y07522D03*
Y07422D03*
Y07322D03*
Y07222D03*
Y07122D03*
Y07022D03*
Y06922D03*
Y06822D03*
Y06722D03*
Y06622D03*
Y06522D03*
Y06422D03*
X04257Y07099D03*
Y07276D03*
G54D36*
X1254Y09722D03*
Y06222D03*
G54D37*
X04116Y08872D03*
Y08772D03*
Y09022D03*
Y09122D03*
Y08272D03*
Y08372D03*
Y06637D03*
Y06537D03*
Y06887D03*
Y06787D03*
Y09372D03*
Y09272D03*
Y08622D03*
Y08522D03*
G54D38*
X04155Y07502D03*
X04055D03*
X04155Y07602D03*
X04055D03*
X04155Y07702D03*
X04055D03*
Y07802D03*
X04155D03*
Y07902D03*
X04055D03*
G54D39*
X04356Y07325D03*
Y0705D03*
G54D40*
X0414Y09717D03*
Y06217D03*
X07957Y08222D03*
X08294Y09545D03*
X04464Y08852D03*
X04704Y0885D03*
X04418Y07448D03*
X04664Y07211D03*
G54D41*
X07707Y08449D03*
X07901Y08321D03*
X08142Y08222D03*
X0755Y08231D03*
X11891Y08542D03*
X11699Y08546D03*
X11714Y0861D03*
X11877Y08606D03*
X11754Y08524D03*
X11835Y08519D03*
X1185Y08564D03*
X11743Y08566D03*
X11796Y08545D03*
X11891Y09307D03*
X11796Y09347D03*
X11704Y09315D03*
X11847Y09317D03*
X11752Y0932D03*
X11732Y09272D03*
X11865D03*
X11797Y09304D03*
X09757Y08576D03*
X09761Y08698D03*
X05967Y08234D03*
X06017Y08232D03*
X09705Y09164D03*
X09801Y09272D03*
X07572Y08383D03*
X07596Y08338D03*
X0474Y07759D03*
X04587D03*
X06378Y0756D03*
X06616Y07798D03*
X06952Y08073D03*
X07324Y08263D03*
X04475Y06864D03*
Y06645D03*
X06513Y07382D03*
X06558Y07318D03*
X06711Y0758D03*
X06763Y07523D03*
X07211Y08024D03*
X07248Y07989D03*
G54D42*
X10515Y06583D03*
X10332Y0634D03*
X104Y07392D03*
X10448Y07414D03*
X1069Y06929D03*
X10326Y06998D03*
X10338Y06865D03*
X10361Y06479D03*
X10487Y06754D03*
X10481Y06415D03*
X10401Y07599D03*
X10392Y08012D03*
X10388Y07782D03*
X10956Y07952D03*
X10482Y07352D03*
X10693Y07476D03*
X10825Y07399D03*
X11035Y07446D03*
X11338Y07944D03*
X11209Y0794D03*
X10599Y07393D03*
X10474Y07135D03*
X108Y06947D03*
X10496Y07042D03*
X10484Y06714D03*
X1049Y06364D03*
X10858Y06596D03*
X10874Y07579D03*
X10964Y07845D03*
X10624Y08176D03*
X10639Y08127D03*
X10632Y08074D03*
X10956Y08229D03*
X05579Y08996D03*
X05579Y08965D03*
X06572Y08496D03*
X06527Y08467D03*
X05304Y08641D03*
X0531Y08673D03*
X05148Y0861D03*
X05942Y08366D03*
X05901Y08376D03*
X10369Y06816D03*
X10435Y07192D03*
X10592Y06942D03*
X10615Y06973D03*
X10697Y06758D03*
X10703Y06727D03*
X10701Y06413D03*
Y06456D03*
X10681Y07064D03*
X10468Y06998D03*
X10469Y06873D03*
X10664Y06622D03*
X10606Y06615D03*
X10995Y07104D03*
X11203Y06813D03*
X10932Y07474D03*
X10876Y06476D03*
X10882Y07131D03*
X11047Y06901D03*
X10833Y06499D03*
X10855Y0749D03*
X1087Y07436D03*
X11453Y07068D03*
X11415Y07128D03*
X11303Y07172D03*
X11682Y06978D03*
X11499D03*
X10849Y06949D03*
X10834Y07516D03*
X11307Y07453D03*
X11533Y07575D03*
X11416Y07522D03*
X11932Y06857D03*
X11698Y06839D03*
X11752Y06987D03*
X11049Y06842D03*
X1082Y06849D03*
X11376Y06986D03*
X11238Y0673D03*
X11258Y06647D03*
X11397Y06839D03*
X11586Y06917D03*
X11138Y08123D03*
X10269Y07049D03*
X10632Y07781D03*
X10945Y0628D03*
X10433Y0677D03*
X10455Y06438D03*
X1062Y07847D03*
X10588Y06717D03*
X10301Y07886D03*
X10362Y0789D03*
X10492Y0746D03*
X10473Y07435D03*
X10722Y07917D03*
X1161Y07672D03*
X1141Y0772D03*
X10496Y07931D03*
X10778Y07968D03*
X10837Y08072D03*
X1084Y08035D03*
X1127Y07483D03*
X10686Y07275D03*
X10655Y06936D03*
X11169Y08033D03*
X11047Y0738D03*
X10704Y07244D03*
X10704Y07194D03*
X10639Y07199D03*
X106Y07469D03*
X10848Y07605D03*
X10638Y07572D03*
X10832Y07704D03*
X1115Y07301D03*
X11143Y07357D03*
X11177Y07483D03*
Y07514D03*
X1129Y07069D03*
X10489Y07274D03*
X10582Y07272D03*
X10833Y07182D03*
X11176Y07242D03*
X11609Y07561D03*
X10498Y07521D03*
X10483Y08124D03*
X10454Y08176D03*
X10427Y0773D03*
X10359Y07836D03*
X10497Y07105D03*
X10332Y0714D03*
X10435Y07133D03*
X10682Y07679D03*
X11244Y08033D03*
X10883Y0797D03*
X10851Y07654D03*
X11298Y07587D03*
X1098Y07637D03*
X11408Y07638D03*
X11604Y07428D03*
X11497Y07169D03*
G54D43*
X07483Y08781D03*
X07531Y08804D03*
X07444Y08814D03*
X07676Y08796D03*
X07414Y08851D03*
X07555Y08845D03*
X07374Y08819D03*
X07491Y08833D03*
X07407Y08776D03*
X07585Y088D03*
G54D44*
X1077Y06581D03*
X10714Y06879D03*
X10769Y07242D03*
X10717Y07549D03*
X10842Y07016D03*
X10938Y07219D03*
X10788Y07574D03*
X1085Y07945D03*
X10831Y07881D03*
X10712Y08239D03*
G54D45*
X09866Y08265D03*
M02*