G04 (created by PCBNEW (2013-07-07 BZR 4022)-stable) date 1/19/2015 10:46:01 PM*
%MOIN*%
G04 Gerber Fmt 3.4, Leading zero omitted, Abs format*
%FSLAX34Y34*%
G01*
G70*
G90*
G04 APERTURE LIST*
%ADD10C,0.00590551*%
%ADD11C,0.0570866*%
%ADD12C,0.0748031*%
%ADD13R,0.06X0.06*%
%ADD14C,0.06*%
%ADD15C,0.0787402*%
%ADD16C,0.0551181*%
%ADD17C,0.035*%
%ADD18C,0.00787402*%
%ADD19C,0.0137795*%
%ADD20C,0.008*%
G04 APERTURE END LIST*
G54D10*
G54D11*
X11692Y-17913D03*
X11692Y-19881D03*
G54D12*
X10629Y-17519D03*
X10629Y-20275D03*
G54D13*
X19791Y-29255D03*
G54D14*
X18791Y-29255D03*
X19791Y-28255D03*
X18791Y-28255D03*
X19791Y-27255D03*
X18791Y-27255D03*
X19791Y-26255D03*
X18791Y-26255D03*
G54D13*
X26590Y-26468D03*
G54D14*
X26590Y-27468D03*
X25590Y-26468D03*
X25590Y-27468D03*
X24590Y-26468D03*
X24590Y-27468D03*
G54D13*
X26712Y-29330D03*
G54D14*
X25712Y-29330D03*
X24712Y-29330D03*
X23712Y-29330D03*
X22712Y-29330D03*
X21712Y-29330D03*
G54D15*
X11177Y-27450D03*
X13933Y-27450D03*
G54D16*
X12362Y-15433D03*
X13858Y-15433D03*
G54D17*
X20000Y-19450D03*
X21400Y-18800D03*
X18600Y-21500D03*
X17150Y-21500D03*
X16250Y-21350D03*
X19150Y-20900D03*
X14250Y-19175D03*
X15900Y-17200D03*
X15900Y-19000D03*
X18150Y-20000D03*
X20250Y-22000D03*
X21000Y-20600D03*
X21500Y-19200D03*
X25700Y-22350D03*
X20950Y-16700D03*
X15450Y-17200D03*
X26800Y-18100D03*
X20600Y-14950D03*
X17200Y-15700D03*
X21000Y-17450D03*
X21050Y-21200D03*
X22550Y-15650D03*
X22850Y-14650D03*
X14600Y-17600D03*
X17550Y-22450D03*
X17100Y-26300D03*
X15300Y-22250D03*
X13000Y-22100D03*
X14700Y-24700D03*
X16800Y-14850D03*
X15800Y-29100D03*
X14400Y-29900D03*
X12850Y-29200D03*
X15600Y-14550D03*
X15950Y-15850D03*
X15300Y-19450D03*
X16000Y-20900D03*
X23600Y-21050D03*
X26350Y-20150D03*
X26900Y-15400D03*
X26900Y-14300D03*
X19250Y-18150D03*
X20550Y-14300D03*
X21350Y-15600D03*
X19300Y-14450D03*
X20650Y-19350D03*
X18200Y-16050D03*
X19700Y-18500D03*
X21100Y-18500D03*
X24350Y-25700D03*
X11500Y-26650D03*
X14300Y-26200D03*
X23800Y-23380D03*
X25760Y-23720D03*
X17750Y-16900D03*
X18300Y-20800D03*
X23450Y-26550D03*
X22600Y-25000D03*
X22450Y-21500D03*
X23200Y-19950D03*
X17350Y-16750D03*
X18550Y-21950D03*
X18150Y-16750D03*
X23700Y-22540D03*
X19550Y-17100D03*
X18450Y-16450D03*
X23400Y-22200D03*
X19650Y-16650D03*
X22850Y-19650D03*
X22050Y-21250D03*
X22150Y-24900D03*
X16900Y-16700D03*
X18450Y-22400D03*
G54D18*
X21100Y-18950D02*
X21250Y-18950D01*
X20000Y-19450D02*
X20500Y-18950D01*
X20500Y-18950D02*
X21100Y-18950D01*
X21250Y-18950D02*
X21400Y-18800D01*
X19150Y-20950D02*
X18600Y-21500D01*
X17150Y-21500D02*
X17000Y-21350D01*
X17000Y-21350D02*
X16250Y-21350D01*
X19150Y-20950D02*
X19150Y-20900D01*
G54D19*
X15900Y-17200D02*
X15900Y-19000D01*
X14425Y-19000D02*
X14250Y-19175D01*
X15900Y-19000D02*
X14425Y-19000D01*
G54D18*
X18150Y-20000D02*
X18800Y-20000D01*
X19500Y-21250D02*
X20250Y-22000D01*
X19500Y-20700D02*
X19500Y-21250D01*
X18800Y-20000D02*
X19500Y-20700D01*
X21000Y-20600D02*
X21250Y-20350D01*
X21250Y-20350D02*
X21250Y-19450D01*
X21250Y-19450D02*
X21500Y-19200D01*
G54D19*
X26800Y-21700D02*
X26350Y-22150D01*
X26800Y-18100D02*
X26800Y-21700D01*
X26150Y-22350D02*
X25700Y-22350D01*
X26350Y-22150D02*
X26150Y-22350D01*
X23700Y-18100D02*
X26800Y-18100D01*
X22300Y-16700D02*
X23700Y-18100D01*
X20950Y-16700D02*
X22300Y-16700D01*
X16950Y-15700D02*
X17200Y-15700D01*
X15450Y-17200D02*
X16950Y-15700D01*
X17200Y-15700D02*
X17500Y-15700D01*
X17500Y-15700D02*
X18200Y-14950D01*
X18200Y-14950D02*
X20600Y-14950D01*
G54D18*
X21050Y-17400D02*
X21400Y-17550D01*
X21000Y-17450D02*
X21050Y-17400D01*
X20700Y-19400D02*
X20650Y-19350D01*
X20700Y-20850D02*
X20700Y-19400D01*
X21050Y-21200D02*
X20700Y-20850D01*
X22850Y-14650D02*
X22550Y-15650D01*
X14600Y-17600D02*
X14550Y-17550D01*
X15800Y-29100D02*
X16300Y-29100D01*
X17450Y-22550D02*
X17300Y-22550D01*
X17550Y-22450D02*
X17450Y-22550D01*
X17500Y-27900D02*
X17100Y-26300D01*
X16300Y-29100D02*
X17500Y-27900D01*
X15100Y-22450D02*
X15100Y-22600D01*
X15300Y-22250D02*
X15100Y-22450D01*
X13000Y-23000D02*
X13000Y-22100D01*
X14700Y-24700D02*
X13000Y-23000D01*
X19250Y-18150D02*
X19350Y-19050D01*
X19350Y-19050D02*
X19550Y-19250D01*
X16800Y-14850D02*
X17100Y-14850D01*
X15800Y-29100D02*
X16100Y-29100D01*
X13550Y-29900D02*
X14400Y-29900D01*
X12850Y-29200D02*
X13550Y-29900D01*
X15600Y-15500D02*
X15600Y-14550D01*
X15950Y-15850D02*
X15600Y-15500D01*
X15200Y-20250D02*
X15300Y-19450D01*
X16000Y-20900D02*
X15200Y-20250D01*
X26350Y-20150D02*
X23600Y-21050D01*
X26900Y-14300D02*
X26900Y-15400D01*
X19200Y-18200D02*
X19150Y-18200D01*
X19250Y-18150D02*
X19200Y-18200D01*
X20550Y-14300D02*
X20850Y-14300D01*
X21350Y-15600D02*
X21050Y-15700D01*
X19300Y-14450D02*
X19500Y-14450D01*
X20650Y-19350D02*
X20550Y-19250D01*
X18200Y-16050D02*
X18300Y-15950D01*
X19700Y-18500D02*
X21100Y-18500D01*
X26590Y-25940D02*
X26590Y-26468D01*
X26350Y-25700D02*
X26590Y-25940D01*
X24350Y-25700D02*
X26350Y-25700D01*
X13850Y-26650D02*
X11500Y-26650D01*
X14300Y-26200D02*
X13850Y-26650D01*
X25420Y-23380D02*
X23800Y-23380D01*
X25760Y-23720D02*
X25420Y-23380D01*
X17750Y-19800D02*
X17750Y-20200D01*
X17750Y-16900D02*
X17750Y-19800D01*
X17750Y-20200D02*
X18300Y-20800D01*
X23531Y-26468D02*
X24590Y-26468D01*
X23450Y-26550D02*
X23531Y-26468D01*
X20594Y-28255D02*
X22550Y-26300D01*
X19791Y-28255D02*
X20594Y-28255D01*
X22550Y-25050D02*
X22600Y-25000D01*
X22550Y-26300D02*
X22550Y-25050D01*
X22450Y-20700D02*
X22450Y-21500D01*
X23200Y-19950D02*
X22450Y-20700D01*
X17550Y-19900D02*
X17550Y-20450D01*
X17350Y-16750D02*
X17350Y-16950D01*
X17350Y-16950D02*
X17550Y-17150D01*
X17550Y-17150D02*
X17550Y-19900D01*
X18250Y-21650D02*
X18550Y-21950D01*
X18250Y-21150D02*
X18250Y-21650D01*
X17550Y-20450D02*
X18250Y-21150D01*
X18150Y-16750D02*
X18600Y-17100D01*
X18600Y-17100D02*
X19550Y-17100D01*
X20600Y-18150D02*
X21250Y-18150D01*
X23700Y-22540D02*
X22140Y-22540D01*
X19550Y-17550D02*
X20150Y-18150D01*
X20150Y-18150D02*
X20600Y-18150D01*
X19550Y-17550D02*
X19550Y-17100D01*
X21840Y-22540D02*
X22140Y-22540D01*
X21450Y-22150D02*
X21840Y-22540D01*
X21450Y-19850D02*
X21450Y-22150D01*
X21850Y-19450D02*
X21450Y-19850D01*
X21850Y-18750D02*
X21850Y-19450D01*
X21250Y-18150D02*
X21850Y-18750D01*
X19650Y-16650D02*
X19550Y-16650D01*
X18450Y-16700D02*
X18450Y-16450D01*
X18650Y-16900D02*
X18450Y-16700D01*
X19300Y-16900D02*
X18650Y-16900D01*
X19550Y-16650D02*
X19300Y-16900D01*
X22100Y-22200D02*
X21850Y-22200D01*
X23400Y-22200D02*
X22100Y-22200D01*
X19900Y-16900D02*
X19650Y-16650D01*
X19900Y-17650D02*
X19900Y-16900D01*
X20200Y-17950D02*
X19900Y-17650D01*
X21300Y-17950D02*
X20200Y-17950D01*
X22050Y-18700D02*
X21300Y-17950D01*
X22050Y-19550D02*
X22050Y-18700D01*
X21650Y-19950D02*
X22050Y-19550D01*
X21650Y-22000D02*
X21650Y-19950D01*
X21850Y-22200D02*
X21650Y-22000D01*
X18791Y-29058D02*
X19300Y-28550D01*
X19300Y-28550D02*
X19300Y-28000D01*
X19300Y-28000D02*
X19550Y-27750D01*
X19550Y-27750D02*
X20500Y-27750D01*
X18791Y-29058D02*
X18791Y-29255D01*
X22850Y-20050D02*
X22850Y-19650D01*
X22250Y-20650D02*
X22850Y-20050D01*
X22250Y-21050D02*
X22250Y-20650D01*
X22050Y-21250D02*
X22250Y-21050D01*
X20800Y-27750D02*
X20500Y-27750D01*
X22350Y-26200D02*
X20800Y-27750D01*
X22350Y-25350D02*
X22350Y-26200D01*
X22150Y-25150D02*
X22350Y-25350D01*
X22150Y-24900D02*
X22150Y-25150D01*
X17050Y-16950D02*
X17350Y-17250D01*
X17350Y-17250D02*
X17350Y-19900D01*
X16900Y-16700D02*
X17050Y-16850D01*
X17050Y-16850D02*
X17050Y-16950D01*
X17350Y-20550D02*
X17350Y-19900D01*
X18050Y-21250D02*
X17350Y-20550D01*
X18050Y-22000D02*
X18050Y-21250D01*
X18450Y-22400D02*
X18050Y-22000D01*
G54D10*
G36*
X27823Y-30185D02*
X27132Y-30185D01*
X27132Y-29606D01*
X27132Y-29054D01*
X27132Y-29006D01*
X27114Y-28962D01*
X27085Y-28933D01*
X27085Y-18043D01*
X27041Y-17938D01*
X26961Y-17858D01*
X26856Y-17815D01*
X26743Y-17814D01*
X26638Y-17858D01*
X26575Y-17921D01*
X23774Y-17921D01*
X22426Y-16573D01*
X22368Y-16534D01*
X22300Y-16521D01*
X21174Y-16521D01*
X21111Y-16458D01*
X21006Y-16415D01*
X20893Y-16414D01*
X20885Y-16418D01*
X20885Y-14893D01*
X20841Y-14788D01*
X20761Y-14708D01*
X20656Y-14665D01*
X20543Y-14664D01*
X20438Y-14708D01*
X20375Y-14771D01*
X18200Y-14771D01*
X18197Y-14771D01*
X18193Y-14770D01*
X18152Y-14780D01*
X18131Y-14784D01*
X18129Y-14785D01*
X18125Y-14786D01*
X18089Y-14812D01*
X18073Y-14823D01*
X18072Y-14825D01*
X18068Y-14827D01*
X17423Y-15520D01*
X17361Y-15458D01*
X17256Y-15415D01*
X17143Y-15414D01*
X17038Y-15458D01*
X16975Y-15521D01*
X16950Y-15521D01*
X16881Y-15534D01*
X16862Y-15547D01*
X16823Y-15573D01*
X15481Y-16915D01*
X15393Y-16914D01*
X15288Y-16958D01*
X15208Y-17038D01*
X15165Y-17143D01*
X15164Y-17256D01*
X15208Y-17361D01*
X15288Y-17441D01*
X15393Y-17484D01*
X15506Y-17485D01*
X15611Y-17441D01*
X15675Y-17378D01*
X15721Y-17424D01*
X15721Y-18775D01*
X15675Y-18821D01*
X14425Y-18821D01*
X14356Y-18834D01*
X14337Y-18847D01*
X14298Y-18873D01*
X14281Y-18890D01*
X14243Y-18889D01*
X14243Y-15356D01*
X14185Y-15214D01*
X14076Y-15106D01*
X13935Y-15047D01*
X13781Y-15047D01*
X13640Y-15105D01*
X13531Y-15214D01*
X13472Y-15356D01*
X13472Y-15509D01*
X13531Y-15651D01*
X13639Y-15759D01*
X13781Y-15818D01*
X13934Y-15818D01*
X14076Y-15760D01*
X14184Y-15651D01*
X14243Y-15510D01*
X14243Y-15356D01*
X14243Y-18889D01*
X14193Y-18889D01*
X14088Y-18933D01*
X14008Y-19013D01*
X13965Y-19118D01*
X13964Y-19231D01*
X14008Y-19336D01*
X14088Y-19416D01*
X14193Y-19459D01*
X14306Y-19460D01*
X14411Y-19416D01*
X14491Y-19336D01*
X14534Y-19231D01*
X14534Y-19178D01*
X15675Y-19178D01*
X15738Y-19241D01*
X15843Y-19284D01*
X15956Y-19285D01*
X16061Y-19241D01*
X16141Y-19161D01*
X16184Y-19056D01*
X16185Y-18943D01*
X16141Y-18838D01*
X16078Y-18775D01*
X16078Y-17424D01*
X16141Y-17361D01*
X16184Y-17256D01*
X16185Y-17143D01*
X16141Y-17038D01*
X16061Y-16958D01*
X15978Y-16924D01*
X16999Y-15903D01*
X17038Y-15941D01*
X17143Y-15984D01*
X17256Y-15985D01*
X17361Y-15941D01*
X17424Y-15878D01*
X17500Y-15878D01*
X17503Y-15878D01*
X17506Y-15878D01*
X17537Y-15871D01*
X17568Y-15865D01*
X17571Y-15863D01*
X17574Y-15862D01*
X17600Y-15844D01*
X17626Y-15826D01*
X17628Y-15823D01*
X17630Y-15822D01*
X18277Y-15128D01*
X20375Y-15128D01*
X20438Y-15191D01*
X20543Y-15234D01*
X20656Y-15235D01*
X20761Y-15191D01*
X20841Y-15111D01*
X20884Y-15006D01*
X20885Y-14893D01*
X20885Y-16418D01*
X20788Y-16458D01*
X20708Y-16538D01*
X20665Y-16643D01*
X20664Y-16756D01*
X20708Y-16861D01*
X20788Y-16941D01*
X20893Y-16984D01*
X21006Y-16985D01*
X21111Y-16941D01*
X21174Y-16878D01*
X22225Y-16878D01*
X23573Y-18226D01*
X23573Y-18226D01*
X23612Y-18252D01*
X23631Y-18265D01*
X23631Y-18265D01*
X23700Y-18278D01*
X26575Y-18278D01*
X26621Y-18324D01*
X26621Y-21625D01*
X26223Y-22023D01*
X26223Y-22023D01*
X26075Y-22171D01*
X25924Y-22171D01*
X25861Y-22108D01*
X25756Y-22065D01*
X25643Y-22064D01*
X25538Y-22108D01*
X25458Y-22188D01*
X25415Y-22293D01*
X25414Y-22406D01*
X25458Y-22511D01*
X25538Y-22591D01*
X25643Y-22634D01*
X25756Y-22635D01*
X25861Y-22591D01*
X25924Y-22528D01*
X26150Y-22528D01*
X26218Y-22515D01*
X26218Y-22515D01*
X26276Y-22476D01*
X26476Y-22276D01*
X26476Y-22276D01*
X26476Y-22276D01*
X26926Y-21826D01*
X26965Y-21768D01*
X26965Y-21768D01*
X26967Y-21757D01*
X26978Y-21700D01*
X26978Y-21700D01*
X26978Y-18324D01*
X27041Y-18261D01*
X27084Y-18156D01*
X27085Y-18043D01*
X27085Y-28933D01*
X27080Y-28928D01*
X27036Y-28910D01*
X27000Y-28910D01*
X27000Y-27387D01*
X27000Y-27387D01*
X27000Y-26746D01*
X27000Y-26146D01*
X26983Y-26106D01*
X26952Y-26075D01*
X26912Y-26058D01*
X26868Y-26058D01*
X26739Y-26058D01*
X26739Y-25940D01*
X26730Y-25892D01*
X26728Y-25883D01*
X26728Y-25883D01*
X26696Y-25834D01*
X26696Y-25834D01*
X26455Y-25594D01*
X26407Y-25562D01*
X26350Y-25550D01*
X26045Y-25550D01*
X26045Y-23663D01*
X26001Y-23558D01*
X25921Y-23478D01*
X25816Y-23435D01*
X25703Y-23434D01*
X25691Y-23440D01*
X25525Y-23274D01*
X25477Y-23242D01*
X25420Y-23230D01*
X24046Y-23230D01*
X24041Y-23218D01*
X23985Y-23161D01*
X23985Y-22483D01*
X23941Y-22378D01*
X23861Y-22298D01*
X23756Y-22255D01*
X23684Y-22254D01*
X23685Y-22143D01*
X23641Y-22038D01*
X23561Y-21958D01*
X23456Y-21915D01*
X23343Y-21914D01*
X23238Y-21958D01*
X23158Y-22038D01*
X23153Y-22050D01*
X22100Y-22050D01*
X21911Y-22050D01*
X21799Y-21938D01*
X21799Y-21389D01*
X21808Y-21411D01*
X21888Y-21491D01*
X21993Y-21534D01*
X22106Y-21535D01*
X22164Y-21510D01*
X22164Y-21556D01*
X22208Y-21661D01*
X22288Y-21741D01*
X22393Y-21784D01*
X22506Y-21785D01*
X22611Y-21741D01*
X22691Y-21661D01*
X22734Y-21556D01*
X22735Y-21443D01*
X22691Y-21338D01*
X22611Y-21258D01*
X22599Y-21253D01*
X22599Y-20761D01*
X23131Y-20230D01*
X23143Y-20234D01*
X23256Y-20235D01*
X23361Y-20191D01*
X23441Y-20111D01*
X23484Y-20006D01*
X23485Y-19893D01*
X23441Y-19788D01*
X23361Y-19708D01*
X23256Y-19665D01*
X23143Y-19664D01*
X23134Y-19668D01*
X23135Y-19593D01*
X23091Y-19488D01*
X23011Y-19408D01*
X22906Y-19365D01*
X22793Y-19364D01*
X22688Y-19408D01*
X22608Y-19488D01*
X22565Y-19593D01*
X22564Y-19706D01*
X22608Y-19811D01*
X22688Y-19891D01*
X22700Y-19896D01*
X22700Y-19988D01*
X22144Y-20544D01*
X22112Y-20592D01*
X22100Y-20650D01*
X22100Y-20965D01*
X21993Y-20964D01*
X21888Y-21008D01*
X21808Y-21088D01*
X21799Y-21110D01*
X21799Y-20011D01*
X22155Y-19655D01*
X22155Y-19655D01*
X22177Y-19623D01*
X22187Y-19607D01*
X22188Y-19607D01*
X22199Y-19550D01*
X22199Y-19550D01*
X22199Y-18700D01*
X22199Y-18699D01*
X22188Y-18642D01*
X22187Y-18642D01*
X22177Y-18626D01*
X22155Y-18594D01*
X22155Y-18594D01*
X21405Y-17844D01*
X21357Y-17812D01*
X21300Y-17800D01*
X20261Y-17800D01*
X20049Y-17588D01*
X20049Y-16900D01*
X20038Y-16842D01*
X20037Y-16842D01*
X20027Y-16826D01*
X20005Y-16794D01*
X20005Y-16794D01*
X19930Y-16718D01*
X19934Y-16706D01*
X19935Y-16593D01*
X19891Y-16488D01*
X19811Y-16408D01*
X19706Y-16365D01*
X19593Y-16364D01*
X19488Y-16408D01*
X19408Y-16488D01*
X19365Y-16593D01*
X19365Y-16623D01*
X19238Y-16750D01*
X18711Y-16750D01*
X18632Y-16670D01*
X18691Y-16611D01*
X18734Y-16506D01*
X18735Y-16393D01*
X18691Y-16288D01*
X18611Y-16208D01*
X18506Y-16165D01*
X18393Y-16164D01*
X18288Y-16208D01*
X18208Y-16288D01*
X18165Y-16393D01*
X18164Y-16465D01*
X18093Y-16464D01*
X17988Y-16508D01*
X17908Y-16588D01*
X17884Y-16647D01*
X17806Y-16615D01*
X17693Y-16614D01*
X17615Y-16647D01*
X17591Y-16588D01*
X17511Y-16508D01*
X17406Y-16465D01*
X17293Y-16464D01*
X17188Y-16508D01*
X17146Y-16550D01*
X17141Y-16538D01*
X17061Y-16458D01*
X16956Y-16415D01*
X16843Y-16414D01*
X16738Y-16458D01*
X16658Y-16538D01*
X16615Y-16643D01*
X16614Y-16756D01*
X16658Y-16861D01*
X16738Y-16941D01*
X16843Y-16984D01*
X16907Y-16985D01*
X16912Y-17007D01*
X16944Y-17055D01*
X17200Y-17311D01*
X17200Y-19900D01*
X17200Y-20550D01*
X17212Y-20607D01*
X17244Y-20655D01*
X17900Y-21311D01*
X17900Y-22000D01*
X17912Y-22057D01*
X17944Y-22105D01*
X18169Y-22331D01*
X18165Y-22343D01*
X18164Y-22456D01*
X18208Y-22561D01*
X18288Y-22641D01*
X18393Y-22684D01*
X18506Y-22685D01*
X18611Y-22641D01*
X18691Y-22561D01*
X18734Y-22456D01*
X18735Y-22343D01*
X18691Y-22238D01*
X18664Y-22211D01*
X18711Y-22191D01*
X18791Y-22111D01*
X18834Y-22006D01*
X18835Y-21893D01*
X18791Y-21788D01*
X18749Y-21746D01*
X18761Y-21741D01*
X18841Y-21661D01*
X18884Y-21556D01*
X18885Y-21443D01*
X18879Y-21431D01*
X19126Y-21184D01*
X19206Y-21185D01*
X19311Y-21141D01*
X19350Y-21102D01*
X19350Y-21250D01*
X19362Y-21307D01*
X19394Y-21355D01*
X19969Y-21931D01*
X19965Y-21943D01*
X19964Y-22056D01*
X20008Y-22161D01*
X20088Y-22241D01*
X20193Y-22284D01*
X20306Y-22285D01*
X20411Y-22241D01*
X20491Y-22161D01*
X20534Y-22056D01*
X20535Y-21943D01*
X20491Y-21838D01*
X20411Y-21758D01*
X20306Y-21715D01*
X20193Y-21714D01*
X20181Y-21720D01*
X19649Y-21188D01*
X19649Y-20700D01*
X19649Y-20699D01*
X19638Y-20642D01*
X19637Y-20642D01*
X19627Y-20626D01*
X19605Y-20594D01*
X19605Y-20594D01*
X18905Y-19894D01*
X18857Y-19862D01*
X18800Y-19850D01*
X18396Y-19850D01*
X18391Y-19838D01*
X18311Y-19758D01*
X18206Y-19715D01*
X18093Y-19714D01*
X17988Y-19758D01*
X17908Y-19838D01*
X17899Y-19860D01*
X17899Y-19800D01*
X17899Y-17146D01*
X17911Y-17141D01*
X17991Y-17061D01*
X18015Y-17002D01*
X18093Y-17034D01*
X18206Y-17035D01*
X18249Y-17017D01*
X18508Y-17218D01*
X18527Y-17227D01*
X18542Y-17238D01*
X18551Y-17239D01*
X18560Y-17244D01*
X18581Y-17245D01*
X18600Y-17249D01*
X19303Y-17249D01*
X19308Y-17261D01*
X19388Y-17341D01*
X19400Y-17346D01*
X19400Y-17550D01*
X19412Y-17607D01*
X19444Y-17655D01*
X20044Y-18255D01*
X20044Y-18255D01*
X20092Y-18288D01*
X20092Y-18288D01*
X20102Y-18289D01*
X20150Y-18299D01*
X20600Y-18299D01*
X20897Y-18299D01*
X20858Y-18338D01*
X20853Y-18350D01*
X19946Y-18350D01*
X19941Y-18338D01*
X19861Y-18258D01*
X19756Y-18215D01*
X19643Y-18214D01*
X19538Y-18258D01*
X19458Y-18338D01*
X19415Y-18443D01*
X19414Y-18556D01*
X19458Y-18661D01*
X19538Y-18741D01*
X19643Y-18784D01*
X19756Y-18785D01*
X19861Y-18741D01*
X19941Y-18661D01*
X19946Y-18649D01*
X20853Y-18649D01*
X20858Y-18661D01*
X20938Y-18741D01*
X21043Y-18784D01*
X21115Y-18785D01*
X21114Y-18800D01*
X21100Y-18800D01*
X20500Y-18800D01*
X20442Y-18812D01*
X20394Y-18844D01*
X20068Y-19169D01*
X20056Y-19165D01*
X19943Y-19164D01*
X19838Y-19208D01*
X19758Y-19288D01*
X19715Y-19393D01*
X19714Y-19506D01*
X19758Y-19611D01*
X19838Y-19691D01*
X19943Y-19734D01*
X20056Y-19735D01*
X20161Y-19691D01*
X20241Y-19611D01*
X20284Y-19506D01*
X20285Y-19393D01*
X20279Y-19381D01*
X20561Y-19099D01*
X21100Y-19099D01*
X21233Y-19099D01*
X21215Y-19143D01*
X21214Y-19256D01*
X21220Y-19268D01*
X21144Y-19344D01*
X21112Y-19392D01*
X21100Y-19450D01*
X21100Y-20288D01*
X21068Y-20319D01*
X21056Y-20315D01*
X20943Y-20314D01*
X20838Y-20358D01*
X20758Y-20438D01*
X20715Y-20543D01*
X20714Y-20656D01*
X20758Y-20761D01*
X20838Y-20841D01*
X20943Y-20884D01*
X21056Y-20885D01*
X21161Y-20841D01*
X21241Y-20761D01*
X21284Y-20656D01*
X21285Y-20543D01*
X21279Y-20531D01*
X21300Y-20510D01*
X21300Y-22150D01*
X21312Y-22207D01*
X21344Y-22255D01*
X21734Y-22645D01*
X21734Y-22645D01*
X21766Y-22667D01*
X21782Y-22677D01*
X21782Y-22678D01*
X21839Y-22689D01*
X21840Y-22689D01*
X22140Y-22689D01*
X23453Y-22689D01*
X23458Y-22701D01*
X23538Y-22781D01*
X23643Y-22824D01*
X23756Y-22825D01*
X23861Y-22781D01*
X23941Y-22701D01*
X23984Y-22596D01*
X23985Y-22483D01*
X23985Y-23161D01*
X23961Y-23138D01*
X23856Y-23095D01*
X23743Y-23094D01*
X23638Y-23138D01*
X23558Y-23218D01*
X23515Y-23323D01*
X23514Y-23436D01*
X23558Y-23541D01*
X23638Y-23621D01*
X23743Y-23664D01*
X23856Y-23665D01*
X23961Y-23621D01*
X24041Y-23541D01*
X24046Y-23529D01*
X25358Y-23529D01*
X25479Y-23651D01*
X25475Y-23663D01*
X25474Y-23776D01*
X25518Y-23881D01*
X25598Y-23961D01*
X25703Y-24004D01*
X25816Y-24005D01*
X25921Y-23961D01*
X26001Y-23881D01*
X26044Y-23776D01*
X26045Y-23663D01*
X26045Y-25550D01*
X24596Y-25550D01*
X24591Y-25538D01*
X24511Y-25458D01*
X24406Y-25415D01*
X24293Y-25414D01*
X24188Y-25458D01*
X24108Y-25538D01*
X24065Y-25643D01*
X24064Y-25756D01*
X24108Y-25861D01*
X24188Y-25941D01*
X24293Y-25984D01*
X24406Y-25985D01*
X24511Y-25941D01*
X24591Y-25861D01*
X24596Y-25849D01*
X26288Y-25849D01*
X26441Y-26002D01*
X26441Y-26058D01*
X26268Y-26058D01*
X26228Y-26075D01*
X26197Y-26106D01*
X26180Y-26146D01*
X26180Y-26190D01*
X26180Y-26790D01*
X26197Y-26830D01*
X26228Y-26861D01*
X26268Y-26878D01*
X26312Y-26878D01*
X26912Y-26878D01*
X26952Y-26861D01*
X26983Y-26830D01*
X27000Y-26790D01*
X27000Y-26746D01*
X27000Y-27387D01*
X26938Y-27236D01*
X26823Y-27121D01*
X26672Y-27058D01*
X26509Y-27058D01*
X26358Y-27120D01*
X26243Y-27235D01*
X26180Y-27386D01*
X26180Y-27549D01*
X26242Y-27700D01*
X26358Y-27815D01*
X26508Y-27878D01*
X26671Y-27878D01*
X26822Y-27816D01*
X26937Y-27701D01*
X27000Y-27550D01*
X27000Y-27387D01*
X27000Y-28910D01*
X26743Y-28910D01*
X26713Y-28940D01*
X26713Y-29330D01*
X27102Y-29330D01*
X27132Y-29300D01*
X27132Y-29054D01*
X27132Y-29606D01*
X27132Y-29361D01*
X27102Y-29331D01*
X26713Y-29331D01*
X26713Y-29720D01*
X26743Y-29750D01*
X27036Y-29750D01*
X27080Y-29732D01*
X27114Y-29698D01*
X27132Y-29654D01*
X27132Y-29606D01*
X27132Y-30185D01*
X26712Y-30185D01*
X26712Y-29720D01*
X26712Y-29331D01*
X26712Y-29330D01*
X26712Y-28940D01*
X26682Y-28910D01*
X26388Y-28910D01*
X26344Y-28928D01*
X26310Y-28962D01*
X26292Y-29006D01*
X26292Y-29054D01*
X26292Y-29300D01*
X26322Y-29330D01*
X26712Y-29330D01*
X26712Y-29331D01*
X26322Y-29331D01*
X26292Y-29361D01*
X26292Y-29606D01*
X26292Y-29654D01*
X26310Y-29698D01*
X26344Y-29732D01*
X26388Y-29750D01*
X26682Y-29750D01*
X26712Y-29720D01*
X26712Y-30185D01*
X26135Y-30185D01*
X26135Y-29263D01*
X26077Y-29106D01*
X26059Y-29079D01*
X26000Y-29052D01*
X26000Y-27387D01*
X26000Y-26387D01*
X25938Y-26236D01*
X25823Y-26121D01*
X25672Y-26058D01*
X25509Y-26058D01*
X25358Y-26120D01*
X25243Y-26235D01*
X25180Y-26386D01*
X25180Y-26549D01*
X25242Y-26700D01*
X25358Y-26815D01*
X25508Y-26878D01*
X25671Y-26878D01*
X25822Y-26816D01*
X25937Y-26701D01*
X26000Y-26550D01*
X26000Y-26387D01*
X26000Y-27387D01*
X25938Y-27236D01*
X25823Y-27121D01*
X25672Y-27058D01*
X25509Y-27058D01*
X25358Y-27120D01*
X25243Y-27235D01*
X25180Y-27386D01*
X25180Y-27549D01*
X25242Y-27700D01*
X25358Y-27815D01*
X25508Y-27878D01*
X25671Y-27878D01*
X25822Y-27816D01*
X25937Y-27701D01*
X26000Y-27550D01*
X26000Y-27387D01*
X26000Y-29052D01*
X25994Y-29049D01*
X25993Y-29050D01*
X25993Y-29048D01*
X25963Y-28983D01*
X25812Y-28914D01*
X25645Y-28907D01*
X25488Y-28965D01*
X25461Y-28983D01*
X25431Y-29048D01*
X25712Y-29330D01*
X25993Y-29048D01*
X25993Y-29050D01*
X25713Y-29330D01*
X25994Y-29611D01*
X26059Y-29582D01*
X26129Y-29430D01*
X26135Y-29263D01*
X26135Y-30185D01*
X25993Y-30185D01*
X25993Y-29612D01*
X25712Y-29331D01*
X25711Y-29332D01*
X25711Y-29330D01*
X25430Y-29049D01*
X25365Y-29079D01*
X25296Y-29231D01*
X25289Y-29398D01*
X25347Y-29554D01*
X25365Y-29582D01*
X25430Y-29611D01*
X25711Y-29330D01*
X25711Y-29332D01*
X25431Y-29612D01*
X25461Y-29677D01*
X25613Y-29747D01*
X25780Y-29753D01*
X25936Y-29695D01*
X25963Y-29677D01*
X25993Y-29612D01*
X25993Y-30185D01*
X25122Y-30185D01*
X25122Y-29249D01*
X25060Y-29098D01*
X25013Y-29051D01*
X25013Y-27401D01*
X25000Y-27366D01*
X25000Y-26387D01*
X24938Y-26236D01*
X24823Y-26121D01*
X24672Y-26058D01*
X24509Y-26058D01*
X24358Y-26120D01*
X24243Y-26235D01*
X24208Y-26319D01*
X23622Y-26319D01*
X23611Y-26308D01*
X23506Y-26265D01*
X23393Y-26264D01*
X23288Y-26308D01*
X23208Y-26388D01*
X23165Y-26493D01*
X23164Y-26606D01*
X23208Y-26711D01*
X23288Y-26791D01*
X23393Y-26834D01*
X23506Y-26835D01*
X23611Y-26791D01*
X23691Y-26711D01*
X23730Y-26617D01*
X24208Y-26617D01*
X24242Y-26700D01*
X24358Y-26815D01*
X24508Y-26878D01*
X24671Y-26878D01*
X24822Y-26816D01*
X24937Y-26701D01*
X25000Y-26550D01*
X25000Y-26387D01*
X25000Y-27366D01*
X24955Y-27244D01*
X24937Y-27217D01*
X24872Y-27187D01*
X24871Y-27187D01*
X24871Y-27186D01*
X24841Y-27121D01*
X24690Y-27051D01*
X24523Y-27045D01*
X24366Y-27103D01*
X24339Y-27121D01*
X24309Y-27186D01*
X24590Y-27467D01*
X24871Y-27186D01*
X24871Y-27187D01*
X24591Y-27468D01*
X24872Y-27749D01*
X24937Y-27719D01*
X25007Y-27567D01*
X25013Y-27401D01*
X25013Y-29051D01*
X24945Y-28983D01*
X24871Y-28952D01*
X24871Y-27750D01*
X24590Y-27469D01*
X24589Y-27469D01*
X24589Y-27468D01*
X24308Y-27187D01*
X24243Y-27217D01*
X24174Y-27369D01*
X24167Y-27535D01*
X24225Y-27692D01*
X24243Y-27719D01*
X24308Y-27749D01*
X24589Y-27468D01*
X24589Y-27469D01*
X24309Y-27750D01*
X24339Y-27815D01*
X24491Y-27885D01*
X24658Y-27891D01*
X24814Y-27833D01*
X24841Y-27815D01*
X24871Y-27750D01*
X24871Y-28952D01*
X24794Y-28920D01*
X24631Y-28920D01*
X24480Y-28982D01*
X24365Y-29098D01*
X24302Y-29248D01*
X24302Y-29411D01*
X24364Y-29562D01*
X24480Y-29678D01*
X24630Y-29740D01*
X24793Y-29740D01*
X24944Y-29678D01*
X25059Y-29563D01*
X25122Y-29412D01*
X25122Y-29249D01*
X25122Y-30185D01*
X24122Y-30185D01*
X24122Y-29249D01*
X24060Y-29098D01*
X23945Y-28983D01*
X23794Y-28920D01*
X23631Y-28920D01*
X23480Y-28982D01*
X23365Y-29098D01*
X23302Y-29248D01*
X23302Y-29411D01*
X23364Y-29562D01*
X23480Y-29678D01*
X23630Y-29740D01*
X23793Y-29740D01*
X23944Y-29678D01*
X24059Y-29563D01*
X24122Y-29412D01*
X24122Y-29249D01*
X24122Y-30185D01*
X23122Y-30185D01*
X23122Y-29249D01*
X23060Y-29098D01*
X22945Y-28983D01*
X22885Y-28958D01*
X22885Y-24943D01*
X22841Y-24838D01*
X22761Y-24758D01*
X22656Y-24715D01*
X22543Y-24714D01*
X22438Y-24758D01*
X22411Y-24785D01*
X22391Y-24738D01*
X22311Y-24658D01*
X22206Y-24615D01*
X22093Y-24614D01*
X21988Y-24658D01*
X21908Y-24738D01*
X21865Y-24843D01*
X21864Y-24956D01*
X21908Y-25061D01*
X21988Y-25141D01*
X22000Y-25146D01*
X22000Y-25150D01*
X22012Y-25207D01*
X22044Y-25255D01*
X22200Y-25411D01*
X22200Y-26138D01*
X20738Y-27600D01*
X20500Y-27600D01*
X20026Y-27600D01*
X20138Y-27488D01*
X20201Y-27337D01*
X20201Y-27174D01*
X20201Y-26174D01*
X20139Y-26023D01*
X20023Y-25908D01*
X19873Y-25845D01*
X19710Y-25845D01*
X19559Y-25908D01*
X19443Y-26023D01*
X19381Y-26173D01*
X19381Y-26337D01*
X19443Y-26487D01*
X19558Y-26603D01*
X19709Y-26665D01*
X19872Y-26665D01*
X20023Y-26603D01*
X20138Y-26488D01*
X20201Y-26337D01*
X20201Y-26174D01*
X20201Y-27174D01*
X20139Y-27023D01*
X20023Y-26908D01*
X19873Y-26845D01*
X19710Y-26845D01*
X19559Y-26908D01*
X19443Y-27023D01*
X19381Y-27173D01*
X19381Y-27337D01*
X19443Y-27487D01*
X19556Y-27600D01*
X19550Y-27600D01*
X19492Y-27612D01*
X19476Y-27622D01*
X19444Y-27644D01*
X19201Y-27887D01*
X19201Y-27174D01*
X19201Y-26174D01*
X19139Y-26023D01*
X19023Y-25908D01*
X18873Y-25845D01*
X18710Y-25845D01*
X18559Y-25908D01*
X18443Y-26023D01*
X18381Y-26173D01*
X18381Y-26337D01*
X18443Y-26487D01*
X18558Y-26603D01*
X18709Y-26665D01*
X18872Y-26665D01*
X19023Y-26603D01*
X19138Y-26488D01*
X19201Y-26337D01*
X19201Y-26174D01*
X19201Y-27174D01*
X19139Y-27023D01*
X19023Y-26908D01*
X18873Y-26845D01*
X18710Y-26845D01*
X18559Y-26908D01*
X18443Y-27023D01*
X18381Y-27173D01*
X18381Y-27337D01*
X18443Y-27487D01*
X18558Y-27603D01*
X18709Y-27665D01*
X18872Y-27665D01*
X19023Y-27603D01*
X19138Y-27488D01*
X19201Y-27337D01*
X19201Y-27174D01*
X19201Y-27887D01*
X19194Y-27894D01*
X19162Y-27942D01*
X19150Y-28000D01*
X19150Y-28051D01*
X19139Y-28023D01*
X19023Y-27908D01*
X18873Y-27845D01*
X18710Y-27845D01*
X18559Y-27908D01*
X18443Y-28023D01*
X18381Y-28173D01*
X18381Y-28337D01*
X18443Y-28487D01*
X18558Y-28603D01*
X18709Y-28665D01*
X18872Y-28665D01*
X19023Y-28603D01*
X19138Y-28488D01*
X19150Y-28459D01*
X19150Y-28488D01*
X18792Y-28845D01*
X18710Y-28845D01*
X18559Y-28908D01*
X18443Y-29023D01*
X18381Y-29173D01*
X18381Y-29337D01*
X18443Y-29487D01*
X18558Y-29603D01*
X18709Y-29665D01*
X18872Y-29665D01*
X19023Y-29603D01*
X19138Y-29488D01*
X19201Y-29337D01*
X19201Y-29174D01*
X19139Y-29023D01*
X19088Y-28972D01*
X19405Y-28655D01*
X19405Y-28655D01*
X19427Y-28623D01*
X19437Y-28607D01*
X19438Y-28607D01*
X19449Y-28550D01*
X19449Y-28550D01*
X19449Y-28493D01*
X19558Y-28603D01*
X19709Y-28665D01*
X19872Y-28665D01*
X20023Y-28603D01*
X20138Y-28488D01*
X20173Y-28405D01*
X20594Y-28405D01*
X20651Y-28393D01*
X20699Y-28361D01*
X22655Y-26405D01*
X22655Y-26405D01*
X22677Y-26373D01*
X22687Y-26357D01*
X22688Y-26357D01*
X22699Y-26300D01*
X22699Y-26300D01*
X22699Y-25267D01*
X22761Y-25241D01*
X22841Y-25161D01*
X22884Y-25056D01*
X22885Y-24943D01*
X22885Y-28958D01*
X22794Y-28920D01*
X22631Y-28920D01*
X22480Y-28982D01*
X22365Y-29098D01*
X22302Y-29248D01*
X22302Y-29411D01*
X22364Y-29562D01*
X22480Y-29678D01*
X22630Y-29740D01*
X22793Y-29740D01*
X22944Y-29678D01*
X23059Y-29563D01*
X23122Y-29412D01*
X23122Y-29249D01*
X23122Y-30185D01*
X22122Y-30185D01*
X22122Y-29249D01*
X22060Y-29098D01*
X21945Y-28983D01*
X21794Y-28920D01*
X21631Y-28920D01*
X21480Y-28982D01*
X21365Y-29098D01*
X21302Y-29248D01*
X21302Y-29411D01*
X21364Y-29562D01*
X21480Y-29678D01*
X21630Y-29740D01*
X21793Y-29740D01*
X21944Y-29678D01*
X22059Y-29563D01*
X22122Y-29412D01*
X22122Y-29249D01*
X22122Y-30185D01*
X20201Y-30185D01*
X20201Y-29534D01*
X20201Y-28934D01*
X20184Y-28893D01*
X20153Y-28862D01*
X20113Y-28845D01*
X20069Y-28845D01*
X19469Y-28845D01*
X19429Y-28862D01*
X19398Y-28893D01*
X19381Y-28933D01*
X19381Y-28977D01*
X19381Y-29577D01*
X19398Y-29618D01*
X19428Y-29649D01*
X19469Y-29665D01*
X19513Y-29665D01*
X20113Y-29665D01*
X20153Y-29649D01*
X20184Y-29618D01*
X20201Y-29577D01*
X20201Y-29534D01*
X20201Y-30185D01*
X17435Y-30185D01*
X17435Y-21443D01*
X17391Y-21338D01*
X17311Y-21258D01*
X17206Y-21215D01*
X17093Y-21214D01*
X17073Y-21223D01*
X17057Y-21212D01*
X17000Y-21200D01*
X16496Y-21200D01*
X16491Y-21188D01*
X16411Y-21108D01*
X16306Y-21065D01*
X16193Y-21064D01*
X16088Y-21108D01*
X16008Y-21188D01*
X15965Y-21293D01*
X15964Y-21406D01*
X16008Y-21511D01*
X16088Y-21591D01*
X16193Y-21634D01*
X16306Y-21635D01*
X16411Y-21591D01*
X16491Y-21511D01*
X16496Y-21499D01*
X16865Y-21499D01*
X16864Y-21556D01*
X16908Y-21661D01*
X16988Y-21741D01*
X17093Y-21784D01*
X17206Y-21785D01*
X17311Y-21741D01*
X17391Y-21661D01*
X17434Y-21556D01*
X17435Y-21443D01*
X17435Y-30185D01*
X14585Y-30185D01*
X14585Y-26143D01*
X14541Y-26038D01*
X14461Y-25958D01*
X14356Y-25915D01*
X14243Y-25914D01*
X14138Y-25958D01*
X14058Y-26038D01*
X14015Y-26143D01*
X14014Y-26256D01*
X14020Y-26268D01*
X13788Y-26500D01*
X12747Y-26500D01*
X12747Y-15356D01*
X12689Y-15214D01*
X12580Y-15106D01*
X12439Y-15047D01*
X12285Y-15047D01*
X12144Y-15105D01*
X12035Y-15214D01*
X11976Y-15356D01*
X11976Y-15509D01*
X12035Y-15651D01*
X12143Y-15759D01*
X12285Y-15818D01*
X12438Y-15818D01*
X12580Y-15760D01*
X12688Y-15651D01*
X12747Y-15510D01*
X12747Y-15356D01*
X12747Y-26500D01*
X12101Y-26500D01*
X12101Y-19816D01*
X12101Y-17848D01*
X12045Y-17696D01*
X12027Y-17670D01*
X11964Y-17642D01*
X11963Y-17643D01*
X11963Y-17641D01*
X11935Y-17578D01*
X11788Y-17511D01*
X11627Y-17505D01*
X11476Y-17561D01*
X11450Y-17578D01*
X11422Y-17641D01*
X11692Y-17912D01*
X11963Y-17641D01*
X11963Y-17643D01*
X11693Y-17913D01*
X11964Y-18184D01*
X12027Y-18155D01*
X12094Y-18009D01*
X12101Y-17848D01*
X12101Y-19816D01*
X12045Y-19665D01*
X12027Y-19639D01*
X11964Y-19611D01*
X11963Y-19611D01*
X11963Y-19610D01*
X11963Y-18184D01*
X11692Y-17914D01*
X11692Y-17914D01*
X11692Y-17913D01*
X11421Y-17642D01*
X11358Y-17670D01*
X11290Y-17817D01*
X11284Y-17978D01*
X11340Y-18129D01*
X11358Y-18155D01*
X11421Y-18184D01*
X11692Y-17913D01*
X11692Y-17914D01*
X11422Y-18184D01*
X11450Y-18248D01*
X11596Y-18315D01*
X11758Y-18321D01*
X11909Y-18265D01*
X11935Y-18248D01*
X11963Y-18184D01*
X11963Y-19610D01*
X11935Y-19547D01*
X11788Y-19479D01*
X11627Y-19473D01*
X11476Y-19529D01*
X11450Y-19547D01*
X11422Y-19610D01*
X11692Y-19881D01*
X11963Y-19610D01*
X11963Y-19611D01*
X11693Y-19881D01*
X11964Y-20152D01*
X12027Y-20124D01*
X12094Y-19977D01*
X12101Y-19816D01*
X12101Y-26500D01*
X11963Y-26500D01*
X11963Y-20153D01*
X11692Y-19882D01*
X11692Y-19883D01*
X11692Y-19881D01*
X11421Y-19611D01*
X11358Y-19639D01*
X11290Y-19785D01*
X11284Y-19947D01*
X11340Y-20098D01*
X11358Y-20124D01*
X11421Y-20152D01*
X11692Y-19881D01*
X11692Y-19883D01*
X11422Y-20153D01*
X11450Y-20216D01*
X11596Y-20283D01*
X11758Y-20290D01*
X11909Y-20234D01*
X11935Y-20216D01*
X11963Y-20153D01*
X11963Y-26500D01*
X11746Y-26500D01*
X11741Y-26488D01*
X11661Y-26408D01*
X11556Y-26365D01*
X11443Y-26364D01*
X11338Y-26408D01*
X11258Y-26488D01*
X11215Y-26593D01*
X11214Y-26706D01*
X11258Y-26811D01*
X11338Y-26891D01*
X11443Y-26934D01*
X11556Y-26935D01*
X11661Y-26891D01*
X11741Y-26811D01*
X11746Y-26799D01*
X13850Y-26799D01*
X13907Y-26788D01*
X13955Y-26755D01*
X14231Y-26480D01*
X14243Y-26484D01*
X14356Y-26485D01*
X14461Y-26441D01*
X14541Y-26361D01*
X14584Y-26256D01*
X14585Y-26143D01*
X14585Y-30185D01*
X14451Y-30185D01*
X14451Y-27367D01*
X14380Y-27175D01*
X14357Y-27142D01*
X14283Y-27101D01*
X14282Y-27101D01*
X14282Y-27100D01*
X14241Y-27025D01*
X14055Y-26940D01*
X13851Y-26932D01*
X13659Y-27003D01*
X13626Y-27025D01*
X13585Y-27100D01*
X13933Y-27449D01*
X14282Y-27100D01*
X14282Y-27101D01*
X13934Y-27450D01*
X14283Y-27798D01*
X14357Y-27757D01*
X14443Y-27571D01*
X14451Y-27367D01*
X14451Y-30185D01*
X14282Y-30185D01*
X14282Y-27799D01*
X13933Y-27450D01*
X13933Y-27451D01*
X13933Y-27450D01*
X13584Y-27101D01*
X13509Y-27142D01*
X13424Y-27328D01*
X13416Y-27532D01*
X13487Y-27724D01*
X13509Y-27757D01*
X13584Y-27798D01*
X13933Y-27450D01*
X13933Y-27451D01*
X13585Y-27799D01*
X13626Y-27874D01*
X13812Y-27959D01*
X14016Y-27967D01*
X14207Y-27896D01*
X14241Y-27874D01*
X14282Y-27799D01*
X14282Y-30185D01*
X11695Y-30185D01*
X11695Y-27367D01*
X11624Y-27175D01*
X11601Y-27142D01*
X11527Y-27101D01*
X11526Y-27101D01*
X11526Y-27100D01*
X11485Y-27025D01*
X11299Y-26940D01*
X11127Y-26933D01*
X11127Y-20196D01*
X11127Y-17440D01*
X11059Y-17256D01*
X11037Y-17224D01*
X10965Y-17185D01*
X10964Y-17185D01*
X10964Y-17184D01*
X10925Y-17111D01*
X10747Y-17029D01*
X10550Y-17022D01*
X10366Y-17090D01*
X10334Y-17111D01*
X10295Y-17184D01*
X10629Y-17518D01*
X10964Y-17184D01*
X10964Y-17185D01*
X10630Y-17519D01*
X10965Y-17854D01*
X11037Y-17815D01*
X11119Y-17636D01*
X11127Y-17440D01*
X11127Y-20196D01*
X11059Y-20011D01*
X11037Y-19979D01*
X10965Y-19940D01*
X10964Y-19941D01*
X10964Y-19940D01*
X10964Y-17854D01*
X10629Y-17520D01*
X10629Y-17521D01*
X10629Y-17519D01*
X10294Y-17185D01*
X10222Y-17224D01*
X10140Y-17402D01*
X10132Y-17598D01*
X10200Y-17783D01*
X10222Y-17815D01*
X10294Y-17854D01*
X10629Y-17519D01*
X10629Y-17521D01*
X10295Y-17854D01*
X10334Y-17927D01*
X10512Y-18009D01*
X10709Y-18017D01*
X10893Y-17948D01*
X10925Y-17927D01*
X10964Y-17854D01*
X10964Y-19940D01*
X10925Y-19867D01*
X10747Y-19785D01*
X10550Y-19778D01*
X10366Y-19846D01*
X10334Y-19867D01*
X10295Y-19940D01*
X10629Y-20274D01*
X10964Y-19940D01*
X10964Y-19941D01*
X10630Y-20275D01*
X10965Y-20610D01*
X11037Y-20571D01*
X11119Y-20392D01*
X11127Y-20196D01*
X11127Y-26933D01*
X11095Y-26932D01*
X10964Y-26981D01*
X10964Y-20610D01*
X10629Y-20276D01*
X10629Y-20277D01*
X10629Y-20275D01*
X10294Y-19940D01*
X10222Y-19979D01*
X10140Y-20158D01*
X10132Y-20354D01*
X10200Y-20539D01*
X10222Y-20571D01*
X10294Y-20610D01*
X10629Y-20275D01*
X10629Y-20277D01*
X10295Y-20610D01*
X10334Y-20683D01*
X10512Y-20765D01*
X10709Y-20773D01*
X10893Y-20704D01*
X10925Y-20683D01*
X10964Y-20610D01*
X10964Y-26981D01*
X10903Y-27003D01*
X10870Y-27025D01*
X10829Y-27100D01*
X11177Y-27449D01*
X11526Y-27100D01*
X11526Y-27101D01*
X11178Y-27450D01*
X11527Y-27798D01*
X11601Y-27757D01*
X11687Y-27571D01*
X11695Y-27367D01*
X11695Y-30185D01*
X11526Y-30185D01*
X11526Y-27799D01*
X11177Y-27450D01*
X11177Y-27451D01*
X11177Y-27450D01*
X10828Y-27101D01*
X10753Y-27142D01*
X10668Y-27328D01*
X10660Y-27532D01*
X10731Y-27724D01*
X10753Y-27757D01*
X10828Y-27798D01*
X11177Y-27450D01*
X11177Y-27451D01*
X10829Y-27799D01*
X10870Y-27874D01*
X11056Y-27959D01*
X11260Y-27967D01*
X11452Y-27896D01*
X11485Y-27874D01*
X11526Y-27799D01*
X11526Y-30185D01*
X9972Y-30185D01*
X9972Y-13909D01*
X23810Y-13909D01*
X23810Y-15540D01*
X25840Y-15540D01*
X25840Y-13909D01*
X27823Y-13909D01*
X27823Y-30185D01*
X27823Y-30185D01*
G37*
G54D20*
X27823Y-30185D02*
X27132Y-30185D01*
X27132Y-29606D01*
X27132Y-29054D01*
X27132Y-29006D01*
X27114Y-28962D01*
X27085Y-28933D01*
X27085Y-18043D01*
X27041Y-17938D01*
X26961Y-17858D01*
X26856Y-17815D01*
X26743Y-17814D01*
X26638Y-17858D01*
X26575Y-17921D01*
X23774Y-17921D01*
X22426Y-16573D01*
X22368Y-16534D01*
X22300Y-16521D01*
X21174Y-16521D01*
X21111Y-16458D01*
X21006Y-16415D01*
X20893Y-16414D01*
X20885Y-16418D01*
X20885Y-14893D01*
X20841Y-14788D01*
X20761Y-14708D01*
X20656Y-14665D01*
X20543Y-14664D01*
X20438Y-14708D01*
X20375Y-14771D01*
X18200Y-14771D01*
X18197Y-14771D01*
X18193Y-14770D01*
X18152Y-14780D01*
X18131Y-14784D01*
X18129Y-14785D01*
X18125Y-14786D01*
X18089Y-14812D01*
X18073Y-14823D01*
X18072Y-14825D01*
X18068Y-14827D01*
X17423Y-15520D01*
X17361Y-15458D01*
X17256Y-15415D01*
X17143Y-15414D01*
X17038Y-15458D01*
X16975Y-15521D01*
X16950Y-15521D01*
X16881Y-15534D01*
X16862Y-15547D01*
X16823Y-15573D01*
X15481Y-16915D01*
X15393Y-16914D01*
X15288Y-16958D01*
X15208Y-17038D01*
X15165Y-17143D01*
X15164Y-17256D01*
X15208Y-17361D01*
X15288Y-17441D01*
X15393Y-17484D01*
X15506Y-17485D01*
X15611Y-17441D01*
X15675Y-17378D01*
X15721Y-17424D01*
X15721Y-18775D01*
X15675Y-18821D01*
X14425Y-18821D01*
X14356Y-18834D01*
X14337Y-18847D01*
X14298Y-18873D01*
X14281Y-18890D01*
X14243Y-18889D01*
X14243Y-15356D01*
X14185Y-15214D01*
X14076Y-15106D01*
X13935Y-15047D01*
X13781Y-15047D01*
X13640Y-15105D01*
X13531Y-15214D01*
X13472Y-15356D01*
X13472Y-15509D01*
X13531Y-15651D01*
X13639Y-15759D01*
X13781Y-15818D01*
X13934Y-15818D01*
X14076Y-15760D01*
X14184Y-15651D01*
X14243Y-15510D01*
X14243Y-15356D01*
X14243Y-18889D01*
X14193Y-18889D01*
X14088Y-18933D01*
X14008Y-19013D01*
X13965Y-19118D01*
X13964Y-19231D01*
X14008Y-19336D01*
X14088Y-19416D01*
X14193Y-19459D01*
X14306Y-19460D01*
X14411Y-19416D01*
X14491Y-19336D01*
X14534Y-19231D01*
X14534Y-19178D01*
X15675Y-19178D01*
X15738Y-19241D01*
X15843Y-19284D01*
X15956Y-19285D01*
X16061Y-19241D01*
X16141Y-19161D01*
X16184Y-19056D01*
X16185Y-18943D01*
X16141Y-18838D01*
X16078Y-18775D01*
X16078Y-17424D01*
X16141Y-17361D01*
X16184Y-17256D01*
X16185Y-17143D01*
X16141Y-17038D01*
X16061Y-16958D01*
X15978Y-16924D01*
X16999Y-15903D01*
X17038Y-15941D01*
X17143Y-15984D01*
X17256Y-15985D01*
X17361Y-15941D01*
X17424Y-15878D01*
X17500Y-15878D01*
X17503Y-15878D01*
X17506Y-15878D01*
X17537Y-15871D01*
X17568Y-15865D01*
X17571Y-15863D01*
X17574Y-15862D01*
X17600Y-15844D01*
X17626Y-15826D01*
X17628Y-15823D01*
X17630Y-15822D01*
X18277Y-15128D01*
X20375Y-15128D01*
X20438Y-15191D01*
X20543Y-15234D01*
X20656Y-15235D01*
X20761Y-15191D01*
X20841Y-15111D01*
X20884Y-15006D01*
X20885Y-14893D01*
X20885Y-16418D01*
X20788Y-16458D01*
X20708Y-16538D01*
X20665Y-16643D01*
X20664Y-16756D01*
X20708Y-16861D01*
X20788Y-16941D01*
X20893Y-16984D01*
X21006Y-16985D01*
X21111Y-16941D01*
X21174Y-16878D01*
X22225Y-16878D01*
X23573Y-18226D01*
X23573Y-18226D01*
X23612Y-18252D01*
X23631Y-18265D01*
X23631Y-18265D01*
X23700Y-18278D01*
X26575Y-18278D01*
X26621Y-18324D01*
X26621Y-21625D01*
X26223Y-22023D01*
X26223Y-22023D01*
X26075Y-22171D01*
X25924Y-22171D01*
X25861Y-22108D01*
X25756Y-22065D01*
X25643Y-22064D01*
X25538Y-22108D01*
X25458Y-22188D01*
X25415Y-22293D01*
X25414Y-22406D01*
X25458Y-22511D01*
X25538Y-22591D01*
X25643Y-22634D01*
X25756Y-22635D01*
X25861Y-22591D01*
X25924Y-22528D01*
X26150Y-22528D01*
X26218Y-22515D01*
X26218Y-22515D01*
X26276Y-22476D01*
X26476Y-22276D01*
X26476Y-22276D01*
X26476Y-22276D01*
X26926Y-21826D01*
X26965Y-21768D01*
X26965Y-21768D01*
X26967Y-21757D01*
X26978Y-21700D01*
X26978Y-21700D01*
X26978Y-18324D01*
X27041Y-18261D01*
X27084Y-18156D01*
X27085Y-18043D01*
X27085Y-28933D01*
X27080Y-28928D01*
X27036Y-28910D01*
X27000Y-28910D01*
X27000Y-27387D01*
X27000Y-27387D01*
X27000Y-26746D01*
X27000Y-26146D01*
X26983Y-26106D01*
X26952Y-26075D01*
X26912Y-26058D01*
X26868Y-26058D01*
X26739Y-26058D01*
X26739Y-25940D01*
X26730Y-25892D01*
X26728Y-25883D01*
X26728Y-25883D01*
X26696Y-25834D01*
X26696Y-25834D01*
X26455Y-25594D01*
X26407Y-25562D01*
X26350Y-25550D01*
X26045Y-25550D01*
X26045Y-23663D01*
X26001Y-23558D01*
X25921Y-23478D01*
X25816Y-23435D01*
X25703Y-23434D01*
X25691Y-23440D01*
X25525Y-23274D01*
X25477Y-23242D01*
X25420Y-23230D01*
X24046Y-23230D01*
X24041Y-23218D01*
X23985Y-23161D01*
X23985Y-22483D01*
X23941Y-22378D01*
X23861Y-22298D01*
X23756Y-22255D01*
X23684Y-22254D01*
X23685Y-22143D01*
X23641Y-22038D01*
X23561Y-21958D01*
X23456Y-21915D01*
X23343Y-21914D01*
X23238Y-21958D01*
X23158Y-22038D01*
X23153Y-22050D01*
X22100Y-22050D01*
X21911Y-22050D01*
X21799Y-21938D01*
X21799Y-21389D01*
X21808Y-21411D01*
X21888Y-21491D01*
X21993Y-21534D01*
X22106Y-21535D01*
X22164Y-21510D01*
X22164Y-21556D01*
X22208Y-21661D01*
X22288Y-21741D01*
X22393Y-21784D01*
X22506Y-21785D01*
X22611Y-21741D01*
X22691Y-21661D01*
X22734Y-21556D01*
X22735Y-21443D01*
X22691Y-21338D01*
X22611Y-21258D01*
X22599Y-21253D01*
X22599Y-20761D01*
X23131Y-20230D01*
X23143Y-20234D01*
X23256Y-20235D01*
X23361Y-20191D01*
X23441Y-20111D01*
X23484Y-20006D01*
X23485Y-19893D01*
X23441Y-19788D01*
X23361Y-19708D01*
X23256Y-19665D01*
X23143Y-19664D01*
X23134Y-19668D01*
X23135Y-19593D01*
X23091Y-19488D01*
X23011Y-19408D01*
X22906Y-19365D01*
X22793Y-19364D01*
X22688Y-19408D01*
X22608Y-19488D01*
X22565Y-19593D01*
X22564Y-19706D01*
X22608Y-19811D01*
X22688Y-19891D01*
X22700Y-19896D01*
X22700Y-19988D01*
X22144Y-20544D01*
X22112Y-20592D01*
X22100Y-20650D01*
X22100Y-20965D01*
X21993Y-20964D01*
X21888Y-21008D01*
X21808Y-21088D01*
X21799Y-21110D01*
X21799Y-20011D01*
X22155Y-19655D01*
X22155Y-19655D01*
X22177Y-19623D01*
X22187Y-19607D01*
X22188Y-19607D01*
X22199Y-19550D01*
X22199Y-19550D01*
X22199Y-18700D01*
X22199Y-18699D01*
X22188Y-18642D01*
X22187Y-18642D01*
X22177Y-18626D01*
X22155Y-18594D01*
X22155Y-18594D01*
X21405Y-17844D01*
X21357Y-17812D01*
X21300Y-17800D01*
X20261Y-17800D01*
X20049Y-17588D01*
X20049Y-16900D01*
X20038Y-16842D01*
X20037Y-16842D01*
X20027Y-16826D01*
X20005Y-16794D01*
X20005Y-16794D01*
X19930Y-16718D01*
X19934Y-16706D01*
X19935Y-16593D01*
X19891Y-16488D01*
X19811Y-16408D01*
X19706Y-16365D01*
X19593Y-16364D01*
X19488Y-16408D01*
X19408Y-16488D01*
X19365Y-16593D01*
X19365Y-16623D01*
X19238Y-16750D01*
X18711Y-16750D01*
X18632Y-16670D01*
X18691Y-16611D01*
X18734Y-16506D01*
X18735Y-16393D01*
X18691Y-16288D01*
X18611Y-16208D01*
X18506Y-16165D01*
X18393Y-16164D01*
X18288Y-16208D01*
X18208Y-16288D01*
X18165Y-16393D01*
X18164Y-16465D01*
X18093Y-16464D01*
X17988Y-16508D01*
X17908Y-16588D01*
X17884Y-16647D01*
X17806Y-16615D01*
X17693Y-16614D01*
X17615Y-16647D01*
X17591Y-16588D01*
X17511Y-16508D01*
X17406Y-16465D01*
X17293Y-16464D01*
X17188Y-16508D01*
X17146Y-16550D01*
X17141Y-16538D01*
X17061Y-16458D01*
X16956Y-16415D01*
X16843Y-16414D01*
X16738Y-16458D01*
X16658Y-16538D01*
X16615Y-16643D01*
X16614Y-16756D01*
X16658Y-16861D01*
X16738Y-16941D01*
X16843Y-16984D01*
X16907Y-16985D01*
X16912Y-17007D01*
X16944Y-17055D01*
X17200Y-17311D01*
X17200Y-19900D01*
X17200Y-20550D01*
X17212Y-20607D01*
X17244Y-20655D01*
X17900Y-21311D01*
X17900Y-22000D01*
X17912Y-22057D01*
X17944Y-22105D01*
X18169Y-22331D01*
X18165Y-22343D01*
X18164Y-22456D01*
X18208Y-22561D01*
X18288Y-22641D01*
X18393Y-22684D01*
X18506Y-22685D01*
X18611Y-22641D01*
X18691Y-22561D01*
X18734Y-22456D01*
X18735Y-22343D01*
X18691Y-22238D01*
X18664Y-22211D01*
X18711Y-22191D01*
X18791Y-22111D01*
X18834Y-22006D01*
X18835Y-21893D01*
X18791Y-21788D01*
X18749Y-21746D01*
X18761Y-21741D01*
X18841Y-21661D01*
X18884Y-21556D01*
X18885Y-21443D01*
X18879Y-21431D01*
X19126Y-21184D01*
X19206Y-21185D01*
X19311Y-21141D01*
X19350Y-21102D01*
X19350Y-21250D01*
X19362Y-21307D01*
X19394Y-21355D01*
X19969Y-21931D01*
X19965Y-21943D01*
X19964Y-22056D01*
X20008Y-22161D01*
X20088Y-22241D01*
X20193Y-22284D01*
X20306Y-22285D01*
X20411Y-22241D01*
X20491Y-22161D01*
X20534Y-22056D01*
X20535Y-21943D01*
X20491Y-21838D01*
X20411Y-21758D01*
X20306Y-21715D01*
X20193Y-21714D01*
X20181Y-21720D01*
X19649Y-21188D01*
X19649Y-20700D01*
X19649Y-20699D01*
X19638Y-20642D01*
X19637Y-20642D01*
X19627Y-20626D01*
X19605Y-20594D01*
X19605Y-20594D01*
X18905Y-19894D01*
X18857Y-19862D01*
X18800Y-19850D01*
X18396Y-19850D01*
X18391Y-19838D01*
X18311Y-19758D01*
X18206Y-19715D01*
X18093Y-19714D01*
X17988Y-19758D01*
X17908Y-19838D01*
X17899Y-19860D01*
X17899Y-19800D01*
X17899Y-17146D01*
X17911Y-17141D01*
X17991Y-17061D01*
X18015Y-17002D01*
X18093Y-17034D01*
X18206Y-17035D01*
X18249Y-17017D01*
X18508Y-17218D01*
X18527Y-17227D01*
X18542Y-17238D01*
X18551Y-17239D01*
X18560Y-17244D01*
X18581Y-17245D01*
X18600Y-17249D01*
X19303Y-17249D01*
X19308Y-17261D01*
X19388Y-17341D01*
X19400Y-17346D01*
X19400Y-17550D01*
X19412Y-17607D01*
X19444Y-17655D01*
X20044Y-18255D01*
X20044Y-18255D01*
X20092Y-18288D01*
X20092Y-18288D01*
X20102Y-18289D01*
X20150Y-18299D01*
X20600Y-18299D01*
X20897Y-18299D01*
X20858Y-18338D01*
X20853Y-18350D01*
X19946Y-18350D01*
X19941Y-18338D01*
X19861Y-18258D01*
X19756Y-18215D01*
X19643Y-18214D01*
X19538Y-18258D01*
X19458Y-18338D01*
X19415Y-18443D01*
X19414Y-18556D01*
X19458Y-18661D01*
X19538Y-18741D01*
X19643Y-18784D01*
X19756Y-18785D01*
X19861Y-18741D01*
X19941Y-18661D01*
X19946Y-18649D01*
X20853Y-18649D01*
X20858Y-18661D01*
X20938Y-18741D01*
X21043Y-18784D01*
X21115Y-18785D01*
X21114Y-18800D01*
X21100Y-18800D01*
X20500Y-18800D01*
X20442Y-18812D01*
X20394Y-18844D01*
X20068Y-19169D01*
X20056Y-19165D01*
X19943Y-19164D01*
X19838Y-19208D01*
X19758Y-19288D01*
X19715Y-19393D01*
X19714Y-19506D01*
X19758Y-19611D01*
X19838Y-19691D01*
X19943Y-19734D01*
X20056Y-19735D01*
X20161Y-19691D01*
X20241Y-19611D01*
X20284Y-19506D01*
X20285Y-19393D01*
X20279Y-19381D01*
X20561Y-19099D01*
X21100Y-19099D01*
X21233Y-19099D01*
X21215Y-19143D01*
X21214Y-19256D01*
X21220Y-19268D01*
X21144Y-19344D01*
X21112Y-19392D01*
X21100Y-19450D01*
X21100Y-20288D01*
X21068Y-20319D01*
X21056Y-20315D01*
X20943Y-20314D01*
X20838Y-20358D01*
X20758Y-20438D01*
X20715Y-20543D01*
X20714Y-20656D01*
X20758Y-20761D01*
X20838Y-20841D01*
X20943Y-20884D01*
X21056Y-20885D01*
X21161Y-20841D01*
X21241Y-20761D01*
X21284Y-20656D01*
X21285Y-20543D01*
X21279Y-20531D01*
X21300Y-20510D01*
X21300Y-22150D01*
X21312Y-22207D01*
X21344Y-22255D01*
X21734Y-22645D01*
X21734Y-22645D01*
X21766Y-22667D01*
X21782Y-22677D01*
X21782Y-22678D01*
X21839Y-22689D01*
X21840Y-22689D01*
X22140Y-22689D01*
X23453Y-22689D01*
X23458Y-22701D01*
X23538Y-22781D01*
X23643Y-22824D01*
X23756Y-22825D01*
X23861Y-22781D01*
X23941Y-22701D01*
X23984Y-22596D01*
X23985Y-22483D01*
X23985Y-23161D01*
X23961Y-23138D01*
X23856Y-23095D01*
X23743Y-23094D01*
X23638Y-23138D01*
X23558Y-23218D01*
X23515Y-23323D01*
X23514Y-23436D01*
X23558Y-23541D01*
X23638Y-23621D01*
X23743Y-23664D01*
X23856Y-23665D01*
X23961Y-23621D01*
X24041Y-23541D01*
X24046Y-23529D01*
X25358Y-23529D01*
X25479Y-23651D01*
X25475Y-23663D01*
X25474Y-23776D01*
X25518Y-23881D01*
X25598Y-23961D01*
X25703Y-24004D01*
X25816Y-24005D01*
X25921Y-23961D01*
X26001Y-23881D01*
X26044Y-23776D01*
X26045Y-23663D01*
X26045Y-25550D01*
X24596Y-25550D01*
X24591Y-25538D01*
X24511Y-25458D01*
X24406Y-25415D01*
X24293Y-25414D01*
X24188Y-25458D01*
X24108Y-25538D01*
X24065Y-25643D01*
X24064Y-25756D01*
X24108Y-25861D01*
X24188Y-25941D01*
X24293Y-25984D01*
X24406Y-25985D01*
X24511Y-25941D01*
X24591Y-25861D01*
X24596Y-25849D01*
X26288Y-25849D01*
X26441Y-26002D01*
X26441Y-26058D01*
X26268Y-26058D01*
X26228Y-26075D01*
X26197Y-26106D01*
X26180Y-26146D01*
X26180Y-26190D01*
X26180Y-26790D01*
X26197Y-26830D01*
X26228Y-26861D01*
X26268Y-26878D01*
X26312Y-26878D01*
X26912Y-26878D01*
X26952Y-26861D01*
X26983Y-26830D01*
X27000Y-26790D01*
X27000Y-26746D01*
X27000Y-27387D01*
X26938Y-27236D01*
X26823Y-27121D01*
X26672Y-27058D01*
X26509Y-27058D01*
X26358Y-27120D01*
X26243Y-27235D01*
X26180Y-27386D01*
X26180Y-27549D01*
X26242Y-27700D01*
X26358Y-27815D01*
X26508Y-27878D01*
X26671Y-27878D01*
X26822Y-27816D01*
X26937Y-27701D01*
X27000Y-27550D01*
X27000Y-27387D01*
X27000Y-28910D01*
X26743Y-28910D01*
X26713Y-28940D01*
X26713Y-29330D01*
X27102Y-29330D01*
X27132Y-29300D01*
X27132Y-29054D01*
X27132Y-29606D01*
X27132Y-29361D01*
X27102Y-29331D01*
X26713Y-29331D01*
X26713Y-29720D01*
X26743Y-29750D01*
X27036Y-29750D01*
X27080Y-29732D01*
X27114Y-29698D01*
X27132Y-29654D01*
X27132Y-29606D01*
X27132Y-30185D01*
X26712Y-30185D01*
X26712Y-29720D01*
X26712Y-29331D01*
X26712Y-29330D01*
X26712Y-28940D01*
X26682Y-28910D01*
X26388Y-28910D01*
X26344Y-28928D01*
X26310Y-28962D01*
X26292Y-29006D01*
X26292Y-29054D01*
X26292Y-29300D01*
X26322Y-29330D01*
X26712Y-29330D01*
X26712Y-29331D01*
X26322Y-29331D01*
X26292Y-29361D01*
X26292Y-29606D01*
X26292Y-29654D01*
X26310Y-29698D01*
X26344Y-29732D01*
X26388Y-29750D01*
X26682Y-29750D01*
X26712Y-29720D01*
X26712Y-30185D01*
X26135Y-30185D01*
X26135Y-29263D01*
X26077Y-29106D01*
X26059Y-29079D01*
X26000Y-29052D01*
X26000Y-27387D01*
X26000Y-26387D01*
X25938Y-26236D01*
X25823Y-26121D01*
X25672Y-26058D01*
X25509Y-26058D01*
X25358Y-26120D01*
X25243Y-26235D01*
X25180Y-26386D01*
X25180Y-26549D01*
X25242Y-26700D01*
X25358Y-26815D01*
X25508Y-26878D01*
X25671Y-26878D01*
X25822Y-26816D01*
X25937Y-26701D01*
X26000Y-26550D01*
X26000Y-26387D01*
X26000Y-27387D01*
X25938Y-27236D01*
X25823Y-27121D01*
X25672Y-27058D01*
X25509Y-27058D01*
X25358Y-27120D01*
X25243Y-27235D01*
X25180Y-27386D01*
X25180Y-27549D01*
X25242Y-27700D01*
X25358Y-27815D01*
X25508Y-27878D01*
X25671Y-27878D01*
X25822Y-27816D01*
X25937Y-27701D01*
X26000Y-27550D01*
X26000Y-27387D01*
X26000Y-29052D01*
X25994Y-29049D01*
X25993Y-29050D01*
X25993Y-29048D01*
X25963Y-28983D01*
X25812Y-28914D01*
X25645Y-28907D01*
X25488Y-28965D01*
X25461Y-28983D01*
X25431Y-29048D01*
X25712Y-29330D01*
X25993Y-29048D01*
X25993Y-29050D01*
X25713Y-29330D01*
X25994Y-29611D01*
X26059Y-29582D01*
X26129Y-29430D01*
X26135Y-29263D01*
X26135Y-30185D01*
X25993Y-30185D01*
X25993Y-29612D01*
X25712Y-29331D01*
X25711Y-29332D01*
X25711Y-29330D01*
X25430Y-29049D01*
X25365Y-29079D01*
X25296Y-29231D01*
X25289Y-29398D01*
X25347Y-29554D01*
X25365Y-29582D01*
X25430Y-29611D01*
X25711Y-29330D01*
X25711Y-29332D01*
X25431Y-29612D01*
X25461Y-29677D01*
X25613Y-29747D01*
X25780Y-29753D01*
X25936Y-29695D01*
X25963Y-29677D01*
X25993Y-29612D01*
X25993Y-30185D01*
X25122Y-30185D01*
X25122Y-29249D01*
X25060Y-29098D01*
X25013Y-29051D01*
X25013Y-27401D01*
X25000Y-27366D01*
X25000Y-26387D01*
X24938Y-26236D01*
X24823Y-26121D01*
X24672Y-26058D01*
X24509Y-26058D01*
X24358Y-26120D01*
X24243Y-26235D01*
X24208Y-26319D01*
X23622Y-26319D01*
X23611Y-26308D01*
X23506Y-26265D01*
X23393Y-26264D01*
X23288Y-26308D01*
X23208Y-26388D01*
X23165Y-26493D01*
X23164Y-26606D01*
X23208Y-26711D01*
X23288Y-26791D01*
X23393Y-26834D01*
X23506Y-26835D01*
X23611Y-26791D01*
X23691Y-26711D01*
X23730Y-26617D01*
X24208Y-26617D01*
X24242Y-26700D01*
X24358Y-26815D01*
X24508Y-26878D01*
X24671Y-26878D01*
X24822Y-26816D01*
X24937Y-26701D01*
X25000Y-26550D01*
X25000Y-26387D01*
X25000Y-27366D01*
X24955Y-27244D01*
X24937Y-27217D01*
X24872Y-27187D01*
X24871Y-27187D01*
X24871Y-27186D01*
X24841Y-27121D01*
X24690Y-27051D01*
X24523Y-27045D01*
X24366Y-27103D01*
X24339Y-27121D01*
X24309Y-27186D01*
X24590Y-27467D01*
X24871Y-27186D01*
X24871Y-27187D01*
X24591Y-27468D01*
X24872Y-27749D01*
X24937Y-27719D01*
X25007Y-27567D01*
X25013Y-27401D01*
X25013Y-29051D01*
X24945Y-28983D01*
X24871Y-28952D01*
X24871Y-27750D01*
X24590Y-27469D01*
X24589Y-27469D01*
X24589Y-27468D01*
X24308Y-27187D01*
X24243Y-27217D01*
X24174Y-27369D01*
X24167Y-27535D01*
X24225Y-27692D01*
X24243Y-27719D01*
X24308Y-27749D01*
X24589Y-27468D01*
X24589Y-27469D01*
X24309Y-27750D01*
X24339Y-27815D01*
X24491Y-27885D01*
X24658Y-27891D01*
X24814Y-27833D01*
X24841Y-27815D01*
X24871Y-27750D01*
X24871Y-28952D01*
X24794Y-28920D01*
X24631Y-28920D01*
X24480Y-28982D01*
X24365Y-29098D01*
X24302Y-29248D01*
X24302Y-29411D01*
X24364Y-29562D01*
X24480Y-29678D01*
X24630Y-29740D01*
X24793Y-29740D01*
X24944Y-29678D01*
X25059Y-29563D01*
X25122Y-29412D01*
X25122Y-29249D01*
X25122Y-30185D01*
X24122Y-30185D01*
X24122Y-29249D01*
X24060Y-29098D01*
X23945Y-28983D01*
X23794Y-28920D01*
X23631Y-28920D01*
X23480Y-28982D01*
X23365Y-29098D01*
X23302Y-29248D01*
X23302Y-29411D01*
X23364Y-29562D01*
X23480Y-29678D01*
X23630Y-29740D01*
X23793Y-29740D01*
X23944Y-29678D01*
X24059Y-29563D01*
X24122Y-29412D01*
X24122Y-29249D01*
X24122Y-30185D01*
X23122Y-30185D01*
X23122Y-29249D01*
X23060Y-29098D01*
X22945Y-28983D01*
X22885Y-28958D01*
X22885Y-24943D01*
X22841Y-24838D01*
X22761Y-24758D01*
X22656Y-24715D01*
X22543Y-24714D01*
X22438Y-24758D01*
X22411Y-24785D01*
X22391Y-24738D01*
X22311Y-24658D01*
X22206Y-24615D01*
X22093Y-24614D01*
X21988Y-24658D01*
X21908Y-24738D01*
X21865Y-24843D01*
X21864Y-24956D01*
X21908Y-25061D01*
X21988Y-25141D01*
X22000Y-25146D01*
X22000Y-25150D01*
X22012Y-25207D01*
X22044Y-25255D01*
X22200Y-25411D01*
X22200Y-26138D01*
X20738Y-27600D01*
X20500Y-27600D01*
X20026Y-27600D01*
X20138Y-27488D01*
X20201Y-27337D01*
X20201Y-27174D01*
X20201Y-26174D01*
X20139Y-26023D01*
X20023Y-25908D01*
X19873Y-25845D01*
X19710Y-25845D01*
X19559Y-25908D01*
X19443Y-26023D01*
X19381Y-26173D01*
X19381Y-26337D01*
X19443Y-26487D01*
X19558Y-26603D01*
X19709Y-26665D01*
X19872Y-26665D01*
X20023Y-26603D01*
X20138Y-26488D01*
X20201Y-26337D01*
X20201Y-26174D01*
X20201Y-27174D01*
X20139Y-27023D01*
X20023Y-26908D01*
X19873Y-26845D01*
X19710Y-26845D01*
X19559Y-26908D01*
X19443Y-27023D01*
X19381Y-27173D01*
X19381Y-27337D01*
X19443Y-27487D01*
X19556Y-27600D01*
X19550Y-27600D01*
X19492Y-27612D01*
X19476Y-27622D01*
X19444Y-27644D01*
X19201Y-27887D01*
X19201Y-27174D01*
X19201Y-26174D01*
X19139Y-26023D01*
X19023Y-25908D01*
X18873Y-25845D01*
X18710Y-25845D01*
X18559Y-25908D01*
X18443Y-26023D01*
X18381Y-26173D01*
X18381Y-26337D01*
X18443Y-26487D01*
X18558Y-26603D01*
X18709Y-26665D01*
X18872Y-26665D01*
X19023Y-26603D01*
X19138Y-26488D01*
X19201Y-26337D01*
X19201Y-26174D01*
X19201Y-27174D01*
X19139Y-27023D01*
X19023Y-26908D01*
X18873Y-26845D01*
X18710Y-26845D01*
X18559Y-26908D01*
X18443Y-27023D01*
X18381Y-27173D01*
X18381Y-27337D01*
X18443Y-27487D01*
X18558Y-27603D01*
X18709Y-27665D01*
X18872Y-27665D01*
X19023Y-27603D01*
X19138Y-27488D01*
X19201Y-27337D01*
X19201Y-27174D01*
X19201Y-27887D01*
X19194Y-27894D01*
X19162Y-27942D01*
X19150Y-28000D01*
X19150Y-28051D01*
X19139Y-28023D01*
X19023Y-27908D01*
X18873Y-27845D01*
X18710Y-27845D01*
X18559Y-27908D01*
X18443Y-28023D01*
X18381Y-28173D01*
X18381Y-28337D01*
X18443Y-28487D01*
X18558Y-28603D01*
X18709Y-28665D01*
X18872Y-28665D01*
X19023Y-28603D01*
X19138Y-28488D01*
X19150Y-28459D01*
X19150Y-28488D01*
X18792Y-28845D01*
X18710Y-28845D01*
X18559Y-28908D01*
X18443Y-29023D01*
X18381Y-29173D01*
X18381Y-29337D01*
X18443Y-29487D01*
X18558Y-29603D01*
X18709Y-29665D01*
X18872Y-29665D01*
X19023Y-29603D01*
X19138Y-29488D01*
X19201Y-29337D01*
X19201Y-29174D01*
X19139Y-29023D01*
X19088Y-28972D01*
X19405Y-28655D01*
X19405Y-28655D01*
X19427Y-28623D01*
X19437Y-28607D01*
X19438Y-28607D01*
X19449Y-28550D01*
X19449Y-28550D01*
X19449Y-28493D01*
X19558Y-28603D01*
X19709Y-28665D01*
X19872Y-28665D01*
X20023Y-28603D01*
X20138Y-28488D01*
X20173Y-28405D01*
X20594Y-28405D01*
X20651Y-28393D01*
X20699Y-28361D01*
X22655Y-26405D01*
X22655Y-26405D01*
X22677Y-26373D01*
X22687Y-26357D01*
X22688Y-26357D01*
X22699Y-26300D01*
X22699Y-26300D01*
X22699Y-25267D01*
X22761Y-25241D01*
X22841Y-25161D01*
X22884Y-25056D01*
X22885Y-24943D01*
X22885Y-28958D01*
X22794Y-28920D01*
X22631Y-28920D01*
X22480Y-28982D01*
X22365Y-29098D01*
X22302Y-29248D01*
X22302Y-29411D01*
X22364Y-29562D01*
X22480Y-29678D01*
X22630Y-29740D01*
X22793Y-29740D01*
X22944Y-29678D01*
X23059Y-29563D01*
X23122Y-29412D01*
X23122Y-29249D01*
X23122Y-30185D01*
X22122Y-30185D01*
X22122Y-29249D01*
X22060Y-29098D01*
X21945Y-28983D01*
X21794Y-28920D01*
X21631Y-28920D01*
X21480Y-28982D01*
X21365Y-29098D01*
X21302Y-29248D01*
X21302Y-29411D01*
X21364Y-29562D01*
X21480Y-29678D01*
X21630Y-29740D01*
X21793Y-29740D01*
X21944Y-29678D01*
X22059Y-29563D01*
X22122Y-29412D01*
X22122Y-29249D01*
X22122Y-30185D01*
X20201Y-30185D01*
X20201Y-29534D01*
X20201Y-28934D01*
X20184Y-28893D01*
X20153Y-28862D01*
X20113Y-28845D01*
X20069Y-28845D01*
X19469Y-28845D01*
X19429Y-28862D01*
X19398Y-28893D01*
X19381Y-28933D01*
X19381Y-28977D01*
X19381Y-29577D01*
X19398Y-29618D01*
X19428Y-29649D01*
X19469Y-29665D01*
X19513Y-29665D01*
X20113Y-29665D01*
X20153Y-29649D01*
X20184Y-29618D01*
X20201Y-29577D01*
X20201Y-29534D01*
X20201Y-30185D01*
X17435Y-30185D01*
X17435Y-21443D01*
X17391Y-21338D01*
X17311Y-21258D01*
X17206Y-21215D01*
X17093Y-21214D01*
X17073Y-21223D01*
X17057Y-21212D01*
X17000Y-21200D01*
X16496Y-21200D01*
X16491Y-21188D01*
X16411Y-21108D01*
X16306Y-21065D01*
X16193Y-21064D01*
X16088Y-21108D01*
X16008Y-21188D01*
X15965Y-21293D01*
X15964Y-21406D01*
X16008Y-21511D01*
X16088Y-21591D01*
X16193Y-21634D01*
X16306Y-21635D01*
X16411Y-21591D01*
X16491Y-21511D01*
X16496Y-21499D01*
X16865Y-21499D01*
X16864Y-21556D01*
X16908Y-21661D01*
X16988Y-21741D01*
X17093Y-21784D01*
X17206Y-21785D01*
X17311Y-21741D01*
X17391Y-21661D01*
X17434Y-21556D01*
X17435Y-21443D01*
X17435Y-30185D01*
X14585Y-30185D01*
X14585Y-26143D01*
X14541Y-26038D01*
X14461Y-25958D01*
X14356Y-25915D01*
X14243Y-25914D01*
X14138Y-25958D01*
X14058Y-26038D01*
X14015Y-26143D01*
X14014Y-26256D01*
X14020Y-26268D01*
X13788Y-26500D01*
X12747Y-26500D01*
X12747Y-15356D01*
X12689Y-15214D01*
X12580Y-15106D01*
X12439Y-15047D01*
X12285Y-15047D01*
X12144Y-15105D01*
X12035Y-15214D01*
X11976Y-15356D01*
X11976Y-15509D01*
X12035Y-15651D01*
X12143Y-15759D01*
X12285Y-15818D01*
X12438Y-15818D01*
X12580Y-15760D01*
X12688Y-15651D01*
X12747Y-15510D01*
X12747Y-15356D01*
X12747Y-26500D01*
X12101Y-26500D01*
X12101Y-19816D01*
X12101Y-17848D01*
X12045Y-17696D01*
X12027Y-17670D01*
X11964Y-17642D01*
X11963Y-17643D01*
X11963Y-17641D01*
X11935Y-17578D01*
X11788Y-17511D01*
X11627Y-17505D01*
X11476Y-17561D01*
X11450Y-17578D01*
X11422Y-17641D01*
X11692Y-17912D01*
X11963Y-17641D01*
X11963Y-17643D01*
X11693Y-17913D01*
X11964Y-18184D01*
X12027Y-18155D01*
X12094Y-18009D01*
X12101Y-17848D01*
X12101Y-19816D01*
X12045Y-19665D01*
X12027Y-19639D01*
X11964Y-19611D01*
X11963Y-19611D01*
X11963Y-19610D01*
X11963Y-18184D01*
X11692Y-17914D01*
X11692Y-17914D01*
X11692Y-17913D01*
X11421Y-17642D01*
X11358Y-17670D01*
X11290Y-17817D01*
X11284Y-17978D01*
X11340Y-18129D01*
X11358Y-18155D01*
X11421Y-18184D01*
X11692Y-17913D01*
X11692Y-17914D01*
X11422Y-18184D01*
X11450Y-18248D01*
X11596Y-18315D01*
X11758Y-18321D01*
X11909Y-18265D01*
X11935Y-18248D01*
X11963Y-18184D01*
X11963Y-19610D01*
X11935Y-19547D01*
X11788Y-19479D01*
X11627Y-19473D01*
X11476Y-19529D01*
X11450Y-19547D01*
X11422Y-19610D01*
X11692Y-19881D01*
X11963Y-19610D01*
X11963Y-19611D01*
X11693Y-19881D01*
X11964Y-20152D01*
X12027Y-20124D01*
X12094Y-19977D01*
X12101Y-19816D01*
X12101Y-26500D01*
X11963Y-26500D01*
X11963Y-20153D01*
X11692Y-19882D01*
X11692Y-19883D01*
X11692Y-19881D01*
X11421Y-19611D01*
X11358Y-19639D01*
X11290Y-19785D01*
X11284Y-19947D01*
X11340Y-20098D01*
X11358Y-20124D01*
X11421Y-20152D01*
X11692Y-19881D01*
X11692Y-19883D01*
X11422Y-20153D01*
X11450Y-20216D01*
X11596Y-20283D01*
X11758Y-20290D01*
X11909Y-20234D01*
X11935Y-20216D01*
X11963Y-20153D01*
X11963Y-26500D01*
X11746Y-26500D01*
X11741Y-26488D01*
X11661Y-26408D01*
X11556Y-26365D01*
X11443Y-26364D01*
X11338Y-26408D01*
X11258Y-26488D01*
X11215Y-26593D01*
X11214Y-26706D01*
X11258Y-26811D01*
X11338Y-26891D01*
X11443Y-26934D01*
X11556Y-26935D01*
X11661Y-26891D01*
X11741Y-26811D01*
X11746Y-26799D01*
X13850Y-26799D01*
X13907Y-26788D01*
X13955Y-26755D01*
X14231Y-26480D01*
X14243Y-26484D01*
X14356Y-26485D01*
X14461Y-26441D01*
X14541Y-26361D01*
X14584Y-26256D01*
X14585Y-26143D01*
X14585Y-30185D01*
X14451Y-30185D01*
X14451Y-27367D01*
X14380Y-27175D01*
X14357Y-27142D01*
X14283Y-27101D01*
X14282Y-27101D01*
X14282Y-27100D01*
X14241Y-27025D01*
X14055Y-26940D01*
X13851Y-26932D01*
X13659Y-27003D01*
X13626Y-27025D01*
X13585Y-27100D01*
X13933Y-27449D01*
X14282Y-27100D01*
X14282Y-27101D01*
X13934Y-27450D01*
X14283Y-27798D01*
X14357Y-27757D01*
X14443Y-27571D01*
X14451Y-27367D01*
X14451Y-30185D01*
X14282Y-30185D01*
X14282Y-27799D01*
X13933Y-27450D01*
X13933Y-27451D01*
X13933Y-27450D01*
X13584Y-27101D01*
X13509Y-27142D01*
X13424Y-27328D01*
X13416Y-27532D01*
X13487Y-27724D01*
X13509Y-27757D01*
X13584Y-27798D01*
X13933Y-27450D01*
X13933Y-27451D01*
X13585Y-27799D01*
X13626Y-27874D01*
X13812Y-27959D01*
X14016Y-27967D01*
X14207Y-27896D01*
X14241Y-27874D01*
X14282Y-27799D01*
X14282Y-30185D01*
X11695Y-30185D01*
X11695Y-27367D01*
X11624Y-27175D01*
X11601Y-27142D01*
X11527Y-27101D01*
X11526Y-27101D01*
X11526Y-27100D01*
X11485Y-27025D01*
X11299Y-26940D01*
X11127Y-26933D01*
X11127Y-20196D01*
X11127Y-17440D01*
X11059Y-17256D01*
X11037Y-17224D01*
X10965Y-17185D01*
X10964Y-17185D01*
X10964Y-17184D01*
X10925Y-17111D01*
X10747Y-17029D01*
X10550Y-17022D01*
X10366Y-17090D01*
X10334Y-17111D01*
X10295Y-17184D01*
X10629Y-17518D01*
X10964Y-17184D01*
X10964Y-17185D01*
X10630Y-17519D01*
X10965Y-17854D01*
X11037Y-17815D01*
X11119Y-17636D01*
X11127Y-17440D01*
X11127Y-20196D01*
X11059Y-20011D01*
X11037Y-19979D01*
X10965Y-19940D01*
X10964Y-19941D01*
X10964Y-19940D01*
X10964Y-17854D01*
X10629Y-17520D01*
X10629Y-17521D01*
X10629Y-17519D01*
X10294Y-17185D01*
X10222Y-17224D01*
X10140Y-17402D01*
X10132Y-17598D01*
X10200Y-17783D01*
X10222Y-17815D01*
X10294Y-17854D01*
X10629Y-17519D01*
X10629Y-17521D01*
X10295Y-17854D01*
X10334Y-17927D01*
X10512Y-18009D01*
X10709Y-18017D01*
X10893Y-17948D01*
X10925Y-17927D01*
X10964Y-17854D01*
X10964Y-19940D01*
X10925Y-19867D01*
X10747Y-19785D01*
X10550Y-19778D01*
X10366Y-19846D01*
X10334Y-19867D01*
X10295Y-19940D01*
X10629Y-20274D01*
X10964Y-19940D01*
X10964Y-19941D01*
X10630Y-20275D01*
X10965Y-20610D01*
X11037Y-20571D01*
X11119Y-20392D01*
X11127Y-20196D01*
X11127Y-26933D01*
X11095Y-26932D01*
X10964Y-26981D01*
X10964Y-20610D01*
X10629Y-20276D01*
X10629Y-20277D01*
X10629Y-20275D01*
X10294Y-19940D01*
X10222Y-19979D01*
X10140Y-20158D01*
X10132Y-20354D01*
X10200Y-20539D01*
X10222Y-20571D01*
X10294Y-20610D01*
X10629Y-20275D01*
X10629Y-20277D01*
X10295Y-20610D01*
X10334Y-20683D01*
X10512Y-20765D01*
X10709Y-20773D01*
X10893Y-20704D01*
X10925Y-20683D01*
X10964Y-20610D01*
X10964Y-26981D01*
X10903Y-27003D01*
X10870Y-27025D01*
X10829Y-27100D01*
X11177Y-27449D01*
X11526Y-27100D01*
X11526Y-27101D01*
X11178Y-27450D01*
X11527Y-27798D01*
X11601Y-27757D01*
X11687Y-27571D01*
X11695Y-27367D01*
X11695Y-30185D01*
X11526Y-30185D01*
X11526Y-27799D01*
X11177Y-27450D01*
X11177Y-27451D01*
X11177Y-27450D01*
X10828Y-27101D01*
X10753Y-27142D01*
X10668Y-27328D01*
X10660Y-27532D01*
X10731Y-27724D01*
X10753Y-27757D01*
X10828Y-27798D01*
X11177Y-27450D01*
X11177Y-27451D01*
X10829Y-27799D01*
X10870Y-27874D01*
X11056Y-27959D01*
X11260Y-27967D01*
X11452Y-27896D01*
X11485Y-27874D01*
X11526Y-27799D01*
X11526Y-30185D01*
X9972Y-30185D01*
X9972Y-13909D01*
X23810Y-13909D01*
X23810Y-15540D01*
X25840Y-15540D01*
X25840Y-13909D01*
X27823Y-13909D01*
X27823Y-30185D01*
M02*
