%FSLAX25Y25*%
%MOIN*%
G70*
G01*
G75*
G04 Layer_Physical_Order=2*
G04 Layer_Color=16711680*
%ADD10C,0.02362*%
%ADD11C,0.01000*%
%ADD12C,0.03937*%
%ADD13C,0.06000*%
%ADD14C,0.05906*%
%ADD15R,0.05906X0.05906*%
%ADD16R,0.05906X0.05906*%
%ADD17R,0.04724X0.04724*%
%ADD18C,0.04724*%
%ADD19R,0.04724X0.04724*%
%ADD20O,0.04724X0.09843*%
%ADD21R,0.04724X0.09843*%
%ADD22C,0.06299*%
%ADD23C,0.05000*%
%ADD24R,0.03150X0.06299*%
%ADD25R,0.03150X0.05118*%
%ADD26O,0.03937X0.01969*%
%ADD27R,0.03937X0.01969*%
%ADD28R,0.03937X0.07874*%
%ADD29R,0.05118X0.03150*%
%ADD30C,0.03150*%
G36*
X484252Y416339D02*
X486221Y414370D01*
Y397638D01*
X496063Y387795D01*
X509842D01*
X517717Y395669D01*
X526773Y395669D01*
X532480Y381890D01*
X492126Y381890D01*
X479331Y394685D01*
Y414370D01*
X481299Y416339D01*
X484252Y416339D01*
D02*
G37*
G36*
X478346Y489173D02*
X481299Y489173D01*
X481299Y457677D01*
X478346Y457677D01*
X476378Y455709D01*
Y449803D01*
X478346Y447835D01*
X487205Y447835D01*
X487205Y430118D01*
X481299Y430118D01*
X462598Y411417D01*
X452756Y421260D01*
Y421479D01*
X452756Y421479D01*
Y423167D01*
X452756Y426181D01*
X452756Y426181D01*
X452756Y489173D01*
X452756Y492126D01*
X469488D01*
X478346Y489173D01*
D02*
G37*
%LPC*%
G36*
X480315Y430118D02*
X480315D01*
X480315Y430118D01*
X480315Y430118D01*
D02*
G37*
%LPD*%
D10*
X466535Y551181D02*
G03*
X466535Y551181I-3937J0D01*
G01*
X624016D02*
G03*
X624016Y551181I-3937J0D01*
G01*
Y393701D02*
G03*
X624016Y393701I-3937J0D01*
G01*
X466535D02*
G03*
X466535Y393701I-3937J0D01*
G01*
D12*
X496063Y471220D02*
X507126D01*
X515748Y462598D02*
X521654D01*
X507126Y471220D02*
X507874Y470472D01*
X515748Y462598D01*
X521654Y490158D02*
X549213Y517717D01*
X570866D01*
X497047Y512402D02*
Y520669D01*
X491535Y506890D02*
X497047Y512402D01*
Y520669D02*
X500984D01*
X507874Y513779D01*
Y490158D02*
Y513779D01*
X511811Y517717D02*
X523622D01*
X507874Y513779D02*
X511811Y517717D01*
X479331Y496654D02*
Y506890D01*
Y496654D02*
X479921Y496063D01*
X482283Y452756D02*
X496063D01*
X500000Y448819D01*
X482283Y423228D02*
X494095D01*
X473425Y414370D02*
X482283Y423228D01*
X500000Y448819D02*
Y459646D01*
X476624Y516978D02*
X480561D01*
X471457Y511811D02*
X476624Y516978D01*
X480561D02*
X491142Y527559D01*
Y534449D01*
X497047Y540354D01*
X482126Y396811D02*
Y410433D01*
Y396811D02*
X494095Y384842D01*
X513779D01*
X520669Y391732D01*
X494095Y423228D02*
X500000Y429134D01*
Y444882D01*
Y448819D01*
Y444882D02*
X502953Y441929D01*
X528543D01*
X539370Y533465D02*
Y538386D01*
X523622Y517717D02*
X539370Y533465D01*
X546260Y391732D02*
X568898D01*
X585630Y408465D01*
X584646Y440945D02*
X594488D01*
X574803Y450787D02*
X584646Y440945D01*
X596457Y487205D02*
X599409Y484252D01*
X596457Y487205D02*
Y508858D01*
X572835D02*
X596457D01*
X562008Y498032D02*
X572835Y508858D01*
X562008Y479331D02*
Y498032D01*
X553150Y470472D02*
X562008Y479331D01*
X540354Y470472D02*
X553150D01*
X595472Y408465D02*
Y419291D01*
X615158Y438976D01*
Y448819D01*
X599409Y464567D02*
X615158Y448819D01*
X594488D02*
X599409D01*
X606299Y441929D01*
X608268D01*
X619095Y471457D02*
X623032Y467520D01*
X619095Y471457D02*
Y477362D01*
X531496Y451772D02*
X540354Y442913D01*
X531496Y451772D02*
Y476772D01*
X537992Y483268D01*
X550197D02*
Y488189D01*
X544291Y494095D02*
X550197Y488189D01*
X528543Y441929D02*
X547244Y423228D01*
X555118D01*
X568898Y409449D01*
X540354Y442913D02*
X552165Y431102D01*
X574803D01*
X518701Y435039D02*
X526181Y427559D01*
X527559D01*
X560039Y466535D02*
X570866D01*
X574803Y470472D01*
X578740Y474409D01*
X588189D01*
X600394D02*
X607874D01*
X610827Y477362D01*
X492126Y400000D02*
Y410433D01*
Y400000D02*
X492520Y399606D01*
X492126Y410433D02*
X500984Y419291D01*
X527559D01*
X607908Y466535D02*
X623859Y450585D01*
X607283Y466535D02*
X607908D01*
X463583Y451772D02*
Y470472D01*
Y451772D02*
X473425Y441929D01*
X481339D01*
X482126Y442717D01*
X471457Y472205D02*
X472441Y471220D01*
X463583Y470472D02*
X471457Y478346D01*
Y472205D02*
Y478346D01*
Y511811D01*
X594488Y435039D02*
Y440945D01*
X581693Y412402D02*
X585630Y408465D01*
X581693Y412402D02*
Y422244D01*
X594488Y435039D01*
D13*
X463583Y508858D02*
D03*
Y518701D02*
D03*
X521654Y490158D02*
D03*
Y462598D02*
D03*
X482283Y452756D02*
D03*
Y531496D02*
D03*
X546260Y391732D02*
D03*
X520669D02*
D03*
X511811Y538386D02*
D03*
X539370D02*
D03*
X560039Y466535D02*
D03*
Y438976D02*
D03*
X540354Y442913D02*
D03*
Y470472D02*
D03*
X473425Y441929D02*
D03*
Y414370D02*
D03*
X463583Y469488D02*
D03*
Y497047D02*
D03*
D14*
X504921Y393701D02*
D03*
X582677Y387795D02*
D03*
X497047Y540354D02*
D03*
X594488Y529528D02*
D03*
X610236Y508858D02*
D03*
X623032Y467520D02*
D03*
X623859Y450585D02*
D03*
X610393Y413589D02*
D03*
X599409Y464567D02*
D03*
Y484252D02*
D03*
X485236Y541339D02*
D03*
X507874Y431102D02*
D03*
Y470472D02*
D03*
Y450787D02*
D03*
X574803Y431102D02*
D03*
Y490158D02*
D03*
Y470472D02*
D03*
Y450787D02*
D03*
X568898Y409449D02*
D03*
X509842D02*
D03*
D15*
X497047Y520669D02*
D03*
X507874Y490158D02*
D03*
D16*
X596457Y508858D02*
D03*
D17*
X594488Y448819D02*
D03*
D18*
Y440945D02*
D03*
X585630Y408465D02*
D03*
D19*
X595472D02*
D03*
D20*
X482126Y442717D02*
D03*
X492126D02*
D03*
X482126Y410433D02*
D03*
D21*
X492126D02*
D03*
D22*
X570866Y517717D02*
D03*
X523622D02*
D03*
D23*
X487205Y486221D02*
D03*
X500000Y459646D02*
D03*
X608268Y441929D02*
D03*
X518701Y435039D02*
D03*
X607283Y466535D02*
D03*
D24*
X479921Y496063D02*
D03*
X492126D02*
D03*
X537992Y483268D02*
D03*
X550197D02*
D03*
X491535Y506890D02*
D03*
X479331D02*
D03*
X588189Y474409D02*
D03*
X600394D02*
D03*
D25*
X484252Y399606D02*
D03*
X492520D02*
D03*
X619095Y477362D02*
D03*
X610827D02*
D03*
X479331Y461614D02*
D03*
X487598D02*
D03*
D26*
X472441Y471220D02*
D03*
Y476221D02*
D03*
Y481220D02*
D03*
Y486221D02*
D03*
X496063Y471220D02*
D03*
Y476221D02*
D03*
Y481220D02*
D03*
D27*
Y486221D02*
D03*
D28*
X562008Y498032D02*
D03*
X544291D02*
D03*
D29*
X527559Y419291D02*
D03*
Y427559D02*
D03*
D30*
X496063Y486221D02*
Y492126D01*
X492126Y496063D02*
X496063Y492126D01*
X487205Y486221D02*
X496063D01*
X491063Y481220D02*
X496063D01*
X487598Y477756D02*
X491063Y481220D01*
X487598Y461614D02*
Y477756D01*
M02*
