G04 start of page 15 for group -3984 idx -3984 *
G04 Title: (unknown), fab *
G04 Creator: pcb 20110918 *
G04 CreationDate: Mon May 14 21:02:36 2012 UTC *
G04 For: mldelibero *
G04 Format: Gerber/RS-274X *
G04 PCB-Dimensions: 2000000 2000000 *
G04 PCB-Coordinate-Origin: lower left *
%MOIN*%
%FSLAX25Y25*%
%LNFAB*%
%ADD116C,0.0075*%
%ADD115C,0.0060*%
%ADD114C,0.0080*%
%ADD113C,0.0100*%
G54D113*X74100Y1553000D02*X720700D01*
Y1936800D01*
X74100D02*X720700D01*
X74100D02*Y1553000D01*
G54D114*X89100Y1921800D02*Y1918600D01*
Y1921800D02*X91873Y1923400D01*
X89100Y1921800D02*X86327Y1923400D01*
X87500Y1921800D02*G75*G03X90700Y1921800I1600J0D01*G01*
G75*G03X87500Y1921800I-1600J0D01*G01*
X89100Y1568100D02*Y1564900D01*
Y1568100D02*X91873Y1569700D01*
X89100Y1568100D02*X86327Y1569700D01*
X87500Y1568100D02*G75*G03X90700Y1568100I1600J0D01*G01*
G75*G03X87500Y1568100I-1600J0D01*G01*
X705600D02*Y1564900D01*
Y1568100D02*X708373Y1569700D01*
X705600Y1568100D02*X702827Y1569700D01*
X704000Y1568100D02*G75*G03X707200Y1568100I1600J0D01*G01*
G75*G03X704000Y1568100I-1600J0D01*G01*
X705600Y1921400D02*Y1918200D01*
Y1921400D02*X708373Y1923000D01*
X705600Y1921400D02*X702827Y1923000D01*
X704000Y1921400D02*G75*G03X707200Y1921400I1600J0D01*G01*
G75*G03X704000Y1921400I-1600J0D01*G01*
X15000Y2011250D02*Y2008050D01*
Y2011250D02*X17773Y2012850D01*
X15000Y2011250D02*X12227Y2012850D01*
X13400Y2011250D02*G75*G03X16600Y2011250I1600J0D01*G01*
G75*G03X13400Y2011250I-1600J0D01*G01*
G54D115*X135000Y2013500D02*X136500Y2010500D01*
X138000Y2013500D01*
X136500Y2010500D02*Y2007500D01*
X139800Y2010800D02*X142050D01*
X139800Y2007500D02*X142800D01*
X139800Y2013500D02*Y2007500D01*
Y2013500D02*X142800D01*
X147600D02*X148350Y2012750D01*
X145350Y2013500D02*X147600D01*
X144600Y2012750D02*X145350Y2013500D01*
X144600Y2012750D02*Y2011250D01*
X145350Y2010500D01*
X147600D01*
X148350Y2009750D01*
Y2008250D01*
X147600Y2007500D02*X148350Y2008250D01*
X145350Y2007500D02*X147600D01*
X144600Y2008250D02*X145350Y2007500D01*
X98000Y2009750D02*X101000Y2013500D01*
X98000Y2009750D02*X101750D01*
X101000Y2013500D02*Y2007500D01*
X45000Y2008250D02*X45750Y2007500D01*
X45000Y2012750D02*Y2008250D01*
Y2012750D02*X45750Y2013500D01*
X47250D01*
X48000Y2012750D01*
Y2008250D01*
X47250Y2007500D02*X48000Y2008250D01*
X45750Y2007500D02*X47250D01*
X45000Y2009000D02*X48000Y2012000D01*
X49800Y2007500D02*X50550D01*
X52350Y2012300D02*X53550Y2013500D01*
Y2007500D01*
X52350D02*X54600D01*
X56400Y2013500D02*X59400D01*
X56400D02*Y2010500D01*
X57150Y2011250D01*
X58650D01*
X59400Y2010500D01*
Y2008250D01*
X58650Y2007500D02*X59400Y2008250D01*
X57150Y2007500D02*X58650D01*
X56400Y2008250D02*X57150Y2007500D01*
X61200Y2008250D02*X61950Y2007500D01*
X61200Y2012750D02*Y2008250D01*
Y2012750D02*X61950Y2013500D01*
X63450D01*
X64200Y2012750D01*
Y2008250D01*
X63450Y2007500D02*X64200Y2008250D01*
X61950Y2007500D02*X63450D01*
X61200Y2009000D02*X64200Y2012000D01*
X256900Y1597300D02*X260100D01*
X256900D02*Y1594100D01*
X260100D01*
Y1597300D02*Y1594100D01*
X266900Y1597300D02*X270100D01*
X266900D02*Y1594100D01*
X270100D01*
Y1597300D02*Y1594100D01*
X276900Y1597300D02*X280100D01*
X276900D02*Y1594100D01*
X280100D01*
Y1597300D02*Y1594100D01*
X286900Y1597300D02*X290100D01*
X286900D02*Y1594100D01*
X290100D01*
Y1597300D02*Y1594100D01*
X296900Y1597300D02*X300100D01*
X296900D02*Y1594100D01*
X300100D01*
Y1597300D02*Y1594100D01*
X306900Y1597300D02*X310100D01*
X306900D02*Y1594100D01*
X310100D01*
Y1597300D02*Y1594100D01*
X316900Y1597300D02*X320100D01*
X316900D02*Y1594100D01*
X320100D01*
Y1597300D02*Y1594100D01*
X326900Y1597300D02*X330100D01*
X326900D02*Y1594100D01*
X330100D01*
Y1597300D02*Y1594100D01*
X523200Y1597300D02*X526400D01*
X523200D02*Y1594100D01*
X526400D01*
Y1597300D02*Y1594100D01*
X533200Y1597300D02*X536400D01*
X533200D02*Y1594100D01*
X536400D01*
Y1597300D02*Y1594100D01*
X543200Y1597300D02*X546400D01*
X543200D02*Y1594100D01*
X546400D01*
Y1597300D02*Y1594100D01*
X553200Y1597300D02*X556400D01*
X553200D02*Y1594100D01*
X556400D01*
Y1597300D02*Y1594100D01*
X563200Y1597300D02*X566400D01*
X563200D02*Y1594100D01*
X566400D01*
Y1597300D02*Y1594100D01*
X573200Y1597300D02*X576400D01*
X573200D02*Y1594100D01*
X576400D01*
Y1597300D02*Y1594100D01*
X583200Y1597300D02*X586400D01*
X583200D02*Y1594100D01*
X586400D01*
Y1597300D02*Y1594100D01*
X593200Y1597300D02*X596400D01*
X593200D02*Y1594100D01*
X596400D01*
Y1597300D02*Y1594100D01*
X13400Y2027850D02*X16600D01*
X13400D02*Y2024650D01*
X16600D01*
Y2027850D02*Y2024650D01*
X135000Y2028500D02*X136500Y2025500D01*
X138000Y2028500D01*
X136500Y2025500D02*Y2022500D01*
X139800Y2025800D02*X142050D01*
X139800Y2022500D02*X142800D01*
X139800Y2028500D02*Y2022500D01*
Y2028500D02*X142800D01*
X147600D02*X148350Y2027750D01*
X145350Y2028500D02*X147600D01*
X144600Y2027750D02*X145350Y2028500D01*
X144600Y2027750D02*Y2026250D01*
X145350Y2025500D01*
X147600D01*
X148350Y2024750D01*
Y2023250D01*
X147600Y2022500D02*X148350Y2023250D01*
X145350Y2022500D02*X147600D01*
X144600Y2023250D02*X145350Y2022500D01*
X98000Y2027300D02*X99200Y2028500D01*
Y2022500D01*
X98000D02*X100250D01*
X104300Y2028500D02*X105050Y2027750D01*
X102800Y2028500D02*X104300D01*
X102050Y2027750D02*X102800Y2028500D01*
X102050Y2027750D02*Y2023250D01*
X102800Y2022500D01*
X104300Y2025800D02*X105050Y2025050D01*
X102050Y2025800D02*X104300D01*
X102800Y2022500D02*X104300D01*
X105050Y2023250D01*
Y2025050D02*Y2023250D01*
X45000D02*X45750Y2022500D01*
X45000Y2027750D02*Y2023250D01*
Y2027750D02*X45750Y2028500D01*
X47250D01*
X48000Y2027750D01*
Y2023250D01*
X47250Y2022500D02*X48000Y2023250D01*
X45750Y2022500D02*X47250D01*
X45000Y2024000D02*X48000Y2027000D01*
X49800Y2022500D02*X50550D01*
X52350Y2023250D02*X53100Y2022500D01*
X52350Y2027750D02*Y2023250D01*
Y2027750D02*X53100Y2028500D01*
X54600D01*
X55350Y2027750D01*
Y2023250D01*
X54600Y2022500D02*X55350Y2023250D01*
X53100Y2022500D02*X54600D01*
X52350Y2024000D02*X55350Y2027000D01*
X57150Y2024750D02*X60150Y2028500D01*
X57150Y2024750D02*X60900D01*
X60150Y2028500D02*Y2022500D01*
X62700Y2028500D02*X65700D01*
X62700D02*Y2025500D01*
X63450Y2026250D01*
X64950D01*
X65700Y2025500D01*
Y2023250D01*
X64950Y2022500D02*X65700Y2023250D01*
X63450Y2022500D02*X64950D01*
X62700Y2023250D02*X63450Y2022500D01*
X148700Y1595700D02*G75*G03X150300Y1595700I800J0D01*G01*
G75*G03X148700Y1595700I-800J0D01*G01*
X138700D02*G75*G03X140300Y1595700I800J0D01*G01*
G75*G03X138700Y1595700I-800J0D01*G01*
X399200Y1922000D02*G75*G03X400800Y1922000I800J0D01*G01*
G75*G03X399200Y1922000I-800J0D01*G01*
X409200D02*G75*G03X410800Y1922000I800J0D01*G01*
G75*G03X409200Y1922000I-800J0D01*G01*
X419200D02*G75*G03X420800Y1922000I800J0D01*G01*
G75*G03X419200Y1922000I-800J0D01*G01*
X429200D02*G75*G03X430800Y1922000I800J0D01*G01*
G75*G03X429200Y1922000I-800J0D01*G01*
Y1952000D02*G75*G03X430800Y1952000I800J0D01*G01*
G75*G03X429200Y1952000I-800J0D01*G01*
X419200D02*G75*G03X420800Y1952000I800J0D01*G01*
G75*G03X419200Y1952000I-800J0D01*G01*
X409200D02*G75*G03X410800Y1952000I800J0D01*G01*
G75*G03X409200Y1952000I-800J0D01*G01*
X399200D02*G75*G03X400800Y1952000I800J0D01*G01*
G75*G03X399200Y1952000I-800J0D01*G01*
X208700Y1698300D02*G75*G03X210300Y1698300I800J0D01*G01*
G75*G03X208700Y1698300I-800J0D01*G01*
Y1708300D02*G75*G03X210300Y1708300I800J0D01*G01*
G75*G03X208700Y1708300I-800J0D01*G01*
Y1718300D02*G75*G03X210300Y1718300I800J0D01*G01*
G75*G03X208700Y1718300I-800J0D01*G01*
X182700Y1698300D02*G75*G03X184300Y1698300I800J0D01*G01*
G75*G03X182700Y1698300I-800J0D01*G01*
Y1708300D02*G75*G03X184300Y1708300I800J0D01*G01*
G75*G03X182700Y1708300I-800J0D01*G01*
Y1718300D02*G75*G03X184300Y1718300I800J0D01*G01*
G75*G03X182700Y1718300I-800J0D01*G01*
X378700Y1698300D02*G75*G03X380300Y1698300I800J0D01*G01*
G75*G03X378700Y1698300I-800J0D01*G01*
Y1708300D02*G75*G03X380300Y1708300I800J0D01*G01*
G75*G03X378700Y1708300I-800J0D01*G01*
Y1718300D02*G75*G03X380300Y1718300I800J0D01*G01*
G75*G03X378700Y1718300I-800J0D01*G01*
X352700Y1698300D02*G75*G03X354300Y1698300I800J0D01*G01*
G75*G03X352700Y1698300I-800J0D01*G01*
Y1708300D02*G75*G03X354300Y1708300I800J0D01*G01*
G75*G03X352700Y1708300I-800J0D01*G01*
Y1718300D02*G75*G03X354300Y1718300I800J0D01*G01*
G75*G03X352700Y1718300I-800J0D01*G01*
X478700Y1698300D02*G75*G03X480300Y1698300I800J0D01*G01*
G75*G03X478700Y1698300I-800J0D01*G01*
Y1708300D02*G75*G03X480300Y1708300I800J0D01*G01*
G75*G03X478700Y1708300I-800J0D01*G01*
Y1718300D02*G75*G03X480300Y1718300I800J0D01*G01*
G75*G03X478700Y1718300I-800J0D01*G01*
X452700Y1698300D02*G75*G03X454300Y1698300I800J0D01*G01*
G75*G03X452700Y1698300I-800J0D01*G01*
Y1708300D02*G75*G03X454300Y1708300I800J0D01*G01*
G75*G03X452700Y1708300I-800J0D01*G01*
Y1718300D02*G75*G03X454300Y1718300I800J0D01*G01*
G75*G03X452700Y1718300I-800J0D01*G01*
X622600Y1694500D02*G75*G03X624200Y1694500I800J0D01*G01*
G75*G03X622600Y1694500I-800J0D01*G01*
Y1704500D02*G75*G03X624200Y1704500I800J0D01*G01*
G75*G03X622600Y1704500I-800J0D01*G01*
Y1714500D02*G75*G03X624200Y1714500I800J0D01*G01*
G75*G03X622600Y1714500I-800J0D01*G01*
X648600Y1694500D02*G75*G03X650200Y1694500I800J0D01*G01*
G75*G03X648600Y1694500I-800J0D01*G01*
Y1704500D02*G75*G03X650200Y1704500I800J0D01*G01*
G75*G03X648600Y1704500I-800J0D01*G01*
Y1714500D02*G75*G03X650200Y1714500I800J0D01*G01*
G75*G03X648600Y1714500I-800J0D01*G01*
X287500Y1927500D02*G75*G03X289100Y1927500I800J0D01*G01*
G75*G03X287500Y1927500I-800J0D01*G01*
X297500D02*G75*G03X299100Y1927500I800J0D01*G01*
G75*G03X297500Y1927500I-800J0D01*G01*
X83900Y1884200D02*G75*G03X85500Y1884200I800J0D01*G01*
G75*G03X83900Y1884200I-800J0D01*G01*
Y1874200D02*G75*G03X85500Y1874200I800J0D01*G01*
G75*G03X83900Y1874200I-800J0D01*G01*
X14200Y2041250D02*G75*G03X15800Y2041250I800J0D01*G01*
G75*G03X14200Y2041250I-800J0D01*G01*
X135000Y2043500D02*X136500Y2040500D01*
X138000Y2043500D01*
X136500Y2040500D02*Y2037500D01*
X139800Y2040800D02*X142050D01*
X139800Y2037500D02*X142800D01*
X139800Y2043500D02*Y2037500D01*
Y2043500D02*X142800D01*
X147600D02*X148350Y2042750D01*
X145350Y2043500D02*X147600D01*
X144600Y2042750D02*X145350Y2043500D01*
X144600Y2042750D02*Y2041250D01*
X145350Y2040500D01*
X147600D01*
X148350Y2039750D01*
Y2038250D01*
X147600Y2037500D02*X148350Y2038250D01*
X145350Y2037500D02*X147600D01*
X144600Y2038250D02*X145350Y2037500D01*
X98000Y2042750D02*X98750Y2043500D01*
X100250D01*
X101000Y2042750D01*
X100250Y2037500D02*X101000Y2038250D01*
X98750Y2037500D02*X100250D01*
X98000Y2038250D02*X98750Y2037500D01*
Y2040800D02*X100250D01*
X101000Y2042750D02*Y2041550D01*
Y2040050D02*Y2038250D01*
Y2040050D02*X100250Y2040800D01*
X101000Y2041550D02*X100250Y2040800D01*
X102800Y2038250D02*X103550Y2037500D01*
X102800Y2039450D02*Y2038250D01*
Y2039450D02*X103850Y2040500D01*
X104750D01*
X105800Y2039450D01*
Y2038250D01*
X105050Y2037500D02*X105800Y2038250D01*
X103550Y2037500D02*X105050D01*
X102800Y2041550D02*X103850Y2040500D01*
X102800Y2042750D02*Y2041550D01*
Y2042750D02*X103550Y2043500D01*
X105050D01*
X105800Y2042750D01*
Y2041550D01*
X104750Y2040500D02*X105800Y2041550D01*
X45000Y2038250D02*X45750Y2037500D01*
X45000Y2042750D02*Y2038250D01*
Y2042750D02*X45750Y2043500D01*
X47250D01*
X48000Y2042750D01*
Y2038250D01*
X47250Y2037500D02*X48000Y2038250D01*
X45750Y2037500D02*X47250D01*
X45000Y2039000D02*X48000Y2042000D01*
X49800Y2037500D02*X50550D01*
X52350Y2038250D02*X53100Y2037500D01*
X52350Y2042750D02*Y2038250D01*
Y2042750D02*X53100Y2043500D01*
X54600D01*
X55350Y2042750D01*
Y2038250D01*
X54600Y2037500D02*X55350Y2038250D01*
X53100Y2037500D02*X54600D01*
X52350Y2039000D02*X55350Y2042000D01*
X57150Y2039750D02*X60150Y2043500D01*
X57150Y2039750D02*X60900D01*
X60150Y2043500D02*Y2037500D01*
X62700Y2038250D02*X63450Y2037500D01*
X62700Y2042750D02*Y2038250D01*
Y2042750D02*X63450Y2043500D01*
X64950D01*
X65700Y2042750D01*
Y2038250D01*
X64950Y2037500D02*X65700Y2038250D01*
X63450Y2037500D02*X64950D01*
X62700Y2039000D02*X65700Y2042000D01*
X195300Y1723800D02*X197700Y1721400D01*
X195300D02*X197700Y1723800D01*
X195300Y1738300D02*X197700Y1735900D01*
X195300D02*X197700Y1738300D01*
X199000Y1845400D02*X201400Y1843000D01*
X199000D02*X201400Y1845400D01*
X368200Y1841200D02*X370600Y1838800D01*
X368200D02*X370600Y1841200D01*
X347900Y1783400D02*X350300Y1781000D01*
X347900D02*X350300Y1783400D01*
X365300Y1741700D02*X367700Y1739300D01*
X365300D02*X367700Y1741700D01*
X365500Y1721500D02*X367900Y1719100D01*
X365500D02*X367900Y1721500D01*
X350700Y1658300D02*X353100Y1655900D01*
X350700D02*X353100Y1658300D01*
X380400Y1685600D02*X382800Y1683200D01*
X380400D02*X382800Y1685600D01*
X288300Y1742500D02*X290700Y1740100D01*
X288300D02*X290700Y1742500D01*
X222800Y1651800D02*X225200Y1649400D01*
X222800D02*X225200Y1651800D01*
X361100Y1651900D02*X363500Y1649500D01*
X361100D02*X363500Y1651900D01*
X291900Y1651800D02*X294300Y1649400D01*
X291900D02*X294300Y1651800D01*
X465800Y1726300D02*X468200Y1723900D01*
X465800D02*X468200Y1726300D01*
X465200Y1741000D02*X467600Y1738600D01*
X465200D02*X467600Y1741000D01*
X558200Y1738700D02*X560600Y1736300D01*
X558200D02*X560600Y1738700D01*
X635700Y1737200D02*X638100Y1734800D01*
X635700D02*X638100Y1737200D01*
X635800Y1724800D02*X638200Y1722400D01*
X635800D02*X638200Y1724800D01*
X469900Y1648500D02*X472300Y1646100D01*
X469900D02*X472300Y1648500D01*
X501300Y1860600D02*X503700Y1858200D01*
X501300D02*X503700Y1860600D01*
X468100Y1835700D02*X470500Y1833300D01*
X468100D02*X470500Y1835700D01*
X673100Y1860200D02*X675500Y1857800D01*
X673100D02*X675500Y1860200D01*
X13800Y2057450D02*X16200Y2055050D01*
X13800D02*X16200Y2057450D01*
X135000Y2058500D02*X136500Y2055500D01*
X138000Y2058500D01*
X136500Y2055500D02*Y2052500D01*
X139800Y2055800D02*X142050D01*
X139800Y2052500D02*X142800D01*
X139800Y2058500D02*Y2052500D01*
Y2058500D02*X142800D01*
X147600D02*X148350Y2057750D01*
X145350Y2058500D02*X147600D01*
X144600Y2057750D02*X145350Y2058500D01*
X144600Y2057750D02*Y2056250D01*
X145350Y2055500D01*
X147600D01*
X148350Y2054750D01*
Y2053250D01*
X147600Y2052500D02*X148350Y2053250D01*
X145350Y2052500D02*X147600D01*
X144600Y2053250D02*X145350Y2052500D01*
X98000Y2057750D02*X98750Y2058500D01*
X101000D01*
X101750Y2057750D01*
Y2056250D01*
X98000Y2052500D02*X101750Y2056250D01*
X98000Y2052500D02*X101750D01*
X103550Y2057750D02*X104300Y2058500D01*
X106550D01*
X107300Y2057750D01*
Y2056250D01*
X103550Y2052500D02*X107300Y2056250D01*
X103550Y2052500D02*X107300D01*
X45000Y2053250D02*X45750Y2052500D01*
X45000Y2057750D02*Y2053250D01*
Y2057750D02*X45750Y2058500D01*
X47250D01*
X48000Y2057750D01*
Y2053250D01*
X47250Y2052500D02*X48000Y2053250D01*
X45750Y2052500D02*X47250D01*
X45000Y2054000D02*X48000Y2057000D01*
X49800Y2052500D02*X50550D01*
X52350Y2053250D02*X53100Y2052500D01*
X52350Y2057750D02*Y2053250D01*
Y2057750D02*X53100Y2058500D01*
X54600D01*
X55350Y2057750D01*
Y2053250D01*
X54600Y2052500D02*X55350Y2053250D01*
X53100Y2052500D02*X54600D01*
X52350Y2054000D02*X55350Y2057000D01*
X57150Y2057750D02*X57900Y2058500D01*
X59400D01*
X60150Y2057750D01*
X59400Y2052500D02*X60150Y2053250D01*
X57900Y2052500D02*X59400D01*
X57150Y2053250D02*X57900Y2052500D01*
Y2055800D02*X59400D01*
X60150Y2057750D02*Y2056550D01*
Y2055050D02*Y2053250D01*
Y2055050D02*X59400Y2055800D01*
X60150Y2056550D02*X59400Y2055800D01*
X61950Y2058500D02*X64950D01*
X61950D02*Y2055500D01*
X62700Y2056250D01*
X64200D01*
X64950Y2055500D01*
Y2053250D01*
X64200Y2052500D02*X64950Y2053250D01*
X62700Y2052500D02*X64200D01*
X61950Y2053250D02*X62700Y2052500D01*
X188500Y1742900D02*Y1739700D01*
X186900Y1741300D02*X190100D01*
X188500Y1762900D02*Y1759700D01*
X186900Y1761300D02*X190100D01*
X178500Y1752900D02*Y1749700D01*
X176900Y1751300D02*X180100D01*
X214500Y1742900D02*Y1739700D01*
X212900Y1741300D02*X216100D01*
X214500Y1762900D02*Y1759700D01*
X212900Y1761300D02*X216100D01*
X204500Y1752900D02*Y1749700D01*
X202900Y1751300D02*X206100D01*
X384500Y1742900D02*Y1739700D01*
X382900Y1741300D02*X386100D01*
X384500Y1762900D02*Y1759700D01*
X382900Y1761300D02*X386100D01*
X374500Y1752900D02*Y1749700D01*
X372900Y1751300D02*X376100D01*
X358500Y1742900D02*Y1739700D01*
X356900Y1741300D02*X360100D01*
X358500Y1762900D02*Y1759700D01*
X356900Y1761300D02*X360100D01*
X348500Y1752900D02*Y1749700D01*
X346900Y1751300D02*X350100D01*
X484500Y1742900D02*Y1739700D01*
X482900Y1741300D02*X486100D01*
X484500Y1762900D02*Y1759700D01*
X482900Y1761300D02*X486100D01*
X474500Y1752900D02*Y1749700D01*
X472900Y1751300D02*X476100D01*
X458500Y1742900D02*Y1739700D01*
X456900Y1741300D02*X460100D01*
X458500Y1762900D02*Y1759700D01*
X456900Y1761300D02*X460100D01*
X448500Y1752900D02*Y1749700D01*
X446900Y1751300D02*X450100D01*
X628400Y1739100D02*Y1735900D01*
X626800Y1737500D02*X630000D01*
X628400Y1759100D02*Y1755900D01*
X626800Y1757500D02*X630000D01*
X618400Y1749100D02*Y1745900D01*
X616800Y1747500D02*X620000D01*
X654400Y1739100D02*Y1735900D01*
X652800Y1737500D02*X656000D01*
X654400Y1759100D02*Y1755900D01*
X652800Y1757500D02*X656000D01*
X644400Y1749100D02*Y1745900D01*
X642800Y1747500D02*X646000D01*
X15000Y2072850D02*Y2069650D01*
X13400Y2071250D02*X16600D01*
X135000Y2073500D02*X136500Y2070500D01*
X138000Y2073500D01*
X136500Y2070500D02*Y2067500D01*
X139800Y2070800D02*X142050D01*
X139800Y2067500D02*X142800D01*
X139800Y2073500D02*Y2067500D01*
Y2073500D02*X142800D01*
X147600D02*X148350Y2072750D01*
X145350Y2073500D02*X147600D01*
X144600Y2072750D02*X145350Y2073500D01*
X144600Y2072750D02*Y2071250D01*
X145350Y2070500D01*
X147600D01*
X148350Y2069750D01*
Y2068250D01*
X147600Y2067500D02*X148350Y2068250D01*
X145350Y2067500D02*X147600D01*
X144600Y2068250D02*X145350Y2067500D01*
X98000Y2072750D02*X98750Y2073500D01*
X101000D01*
X101750Y2072750D01*
Y2071250D01*
X98000Y2067500D02*X101750Y2071250D01*
X98000Y2067500D02*X101750D01*
X103550Y2069750D02*X106550Y2073500D01*
X103550Y2069750D02*X107300D01*
X106550Y2073500D02*Y2067500D01*
X45000Y2068250D02*X45750Y2067500D01*
X45000Y2072750D02*Y2068250D01*
Y2072750D02*X45750Y2073500D01*
X47250D01*
X48000Y2072750D01*
Y2068250D01*
X47250Y2067500D02*X48000Y2068250D01*
X45750Y2067500D02*X47250D01*
X45000Y2069000D02*X48000Y2072000D01*
X49800Y2067500D02*X50550D01*
X52350Y2068250D02*X53100Y2067500D01*
X52350Y2072750D02*Y2068250D01*
Y2072750D02*X53100Y2073500D01*
X54600D01*
X55350Y2072750D01*
Y2068250D01*
X54600Y2067500D02*X55350Y2068250D01*
X53100Y2067500D02*X54600D01*
X52350Y2069000D02*X55350Y2072000D01*
X57150Y2072750D02*X57900Y2073500D01*
X60150D01*
X60900Y2072750D01*
Y2071250D01*
X57150Y2067500D02*X60900Y2071250D01*
X57150Y2067500D02*X60900D01*
X62700Y2072750D02*X63450Y2073500D01*
X64950D01*
X65700Y2072750D01*
X64950Y2067500D02*X65700Y2068250D01*
X63450Y2067500D02*X64950D01*
X62700Y2068250D02*X63450Y2067500D01*
Y2070800D02*X64950D01*
X65700Y2072750D02*Y2071550D01*
Y2070050D02*Y2068250D01*
Y2070050D02*X64950Y2070800D01*
X65700Y2071550D02*X64950Y2070800D01*
X178300Y1673300D02*Y1671700D01*
Y1673300D02*X179687Y1674100D01*
X178300Y1673300D02*X176913Y1674100D01*
X176700Y1781200D02*Y1779600D01*
Y1781200D02*X178087Y1782000D01*
X176700Y1781200D02*X175313Y1782000D01*
X232700Y1805200D02*Y1803600D01*
Y1805200D02*X234087Y1806000D01*
X232700Y1805200D02*X231313Y1806000D01*
X202500Y1666500D02*Y1664900D01*
Y1666500D02*X203887Y1667300D01*
X202500Y1666500D02*X201113Y1667300D01*
X216700Y1678000D02*Y1676400D01*
Y1678000D02*X218087Y1678800D01*
X216700Y1678000D02*X215313Y1678800D01*
X407400Y1809500D02*Y1807900D01*
Y1809500D02*X408787Y1810300D01*
X407400Y1809500D02*X406013Y1810300D01*
X289500Y1664300D02*Y1662700D01*
Y1664300D02*X290887Y1665100D01*
X289500Y1664300D02*X288113Y1665100D01*
X472200Y1805200D02*Y1803600D01*
Y1805200D02*X473587Y1806000D01*
X472200Y1805200D02*X470813Y1806000D01*
X447200Y1782300D02*Y1780700D01*
Y1782300D02*X448587Y1783100D01*
X447200Y1782300D02*X445813Y1783100D01*
X506900Y1805400D02*Y1803800D01*
Y1805400D02*X508287Y1806200D01*
X506900Y1805400D02*X505513Y1806200D01*
X485300Y1678700D02*Y1677100D01*
Y1678700D02*X486687Y1679500D01*
X485300Y1678700D02*X483913Y1679500D01*
X453500Y1657500D02*Y1655900D01*
Y1657500D02*X454887Y1658300D01*
X453500Y1657500D02*X452113Y1658300D01*
X472300Y1666400D02*Y1664800D01*
Y1666400D02*X473687Y1667200D01*
X472300Y1666400D02*X470913Y1667200D01*
X559400Y1660500D02*Y1658900D01*
Y1660500D02*X560787Y1661300D01*
X559400Y1660500D02*X558013Y1661300D01*
X676500Y1796000D02*Y1794400D01*
Y1796000D02*X677887Y1796800D01*
X676500Y1796000D02*X675113Y1796800D01*
X617300Y1778400D02*Y1776800D01*
Y1778400D02*X618687Y1779200D01*
X617300Y1778400D02*X615913Y1779200D01*
X623200Y1653900D02*Y1652300D01*
Y1653900D02*X624587Y1654700D01*
X623200Y1653900D02*X621813Y1654700D01*
X642400Y1665100D02*Y1663500D01*
Y1665100D02*X643787Y1665900D01*
X642400Y1665100D02*X641013Y1665900D01*
X655500Y1674200D02*Y1672600D01*
Y1674200D02*X656887Y1675000D01*
X655500Y1674200D02*X654113Y1675000D01*
X636800Y1648800D02*Y1647200D01*
Y1648800D02*X638187Y1649600D01*
X636800Y1648800D02*X635413Y1649600D01*
X566300Y1653400D02*Y1651800D01*
Y1653400D02*X567687Y1654200D01*
X566300Y1653400D02*X564913Y1654200D01*
X299600Y1828800D02*Y1827200D01*
Y1828800D02*X300987Y1829600D01*
X299600Y1828800D02*X298213Y1829600D01*
X646300Y1821000D02*Y1819400D01*
Y1821000D02*X647687Y1821800D01*
X646300Y1821000D02*X644913Y1821800D01*
X299600Y1874000D02*Y1872400D01*
Y1874000D02*X300987Y1874800D01*
X299600Y1874000D02*X298213Y1874800D01*
X446600Y1904000D02*Y1902400D01*
Y1904000D02*X447987Y1904800D01*
X446600Y1904000D02*X445213Y1904800D01*
X383200Y1904200D02*Y1902600D01*
Y1904200D02*X384587Y1905000D01*
X383200Y1904200D02*X381813Y1905000D01*
X15000Y2086250D02*Y2084650D01*
Y2086250D02*X16387Y2087050D01*
X15000Y2086250D02*X13613Y2087050D01*
X135000Y2088500D02*X136500Y2085500D01*
X138000Y2088500D01*
X136500Y2085500D02*Y2082500D01*
X139800Y2085800D02*X142050D01*
X139800Y2082500D02*X142800D01*
X139800Y2088500D02*Y2082500D01*
Y2088500D02*X142800D01*
X147600D02*X148350Y2087750D01*
X145350Y2088500D02*X147600D01*
X144600Y2087750D02*X145350Y2088500D01*
X144600Y2087750D02*Y2086250D01*
X145350Y2085500D01*
X147600D01*
X148350Y2084750D01*
Y2083250D01*
X147600Y2082500D02*X148350Y2083250D01*
X145350Y2082500D02*X147600D01*
X144600Y2083250D02*X145350Y2082500D01*
X98000Y2087750D02*X98750Y2088500D01*
X101000D01*
X101750Y2087750D01*
Y2086250D01*
X98000Y2082500D02*X101750Y2086250D01*
X98000Y2082500D02*X101750D01*
X105800Y2088500D02*X106550Y2087750D01*
X104300Y2088500D02*X105800D01*
X103550Y2087750D02*X104300Y2088500D01*
X103550Y2087750D02*Y2083250D01*
X104300Y2082500D01*
X105800Y2085800D02*X106550Y2085050D01*
X103550Y2085800D02*X105800D01*
X104300Y2082500D02*X105800D01*
X106550Y2083250D01*
Y2085050D02*Y2083250D01*
X45000D02*X45750Y2082500D01*
X45000Y2087750D02*Y2083250D01*
Y2087750D02*X45750Y2088500D01*
X47250D01*
X48000Y2087750D01*
Y2083250D01*
X47250Y2082500D02*X48000Y2083250D01*
X45750Y2082500D02*X47250D01*
X45000Y2084000D02*X48000Y2087000D01*
X49800Y2082500D02*X50550D01*
X52350Y2083250D02*X53100Y2082500D01*
X52350Y2087750D02*Y2083250D01*
Y2087750D02*X53100Y2088500D01*
X54600D01*
X55350Y2087750D01*
Y2083250D01*
X54600Y2082500D02*X55350Y2083250D01*
X53100Y2082500D02*X54600D01*
X52350Y2084000D02*X55350Y2087000D01*
X57150Y2087750D02*X57900Y2088500D01*
X60150D01*
X60900Y2087750D01*
Y2086250D01*
X57150Y2082500D02*X60900Y2086250D01*
X57150Y2082500D02*X60900D01*
X62700Y2083250D02*X63450Y2082500D01*
X62700Y2087750D02*Y2083250D01*
Y2087750D02*X63450Y2088500D01*
X64950D01*
X65700Y2087750D01*
Y2083250D01*
X64950Y2082500D02*X65700Y2083250D01*
X63450Y2082500D02*X64950D01*
X62700Y2084000D02*X65700Y2087000D01*
X3000Y2103500D02*X3750Y2102750D01*
X750Y2103500D02*X3000D01*
X0Y2102750D02*X750Y2103500D01*
X0Y2102750D02*Y2101250D01*
X750Y2100500D01*
X3000D01*
X3750Y2099750D01*
Y2098250D01*
X3000Y2097500D02*X3750Y2098250D01*
X750Y2097500D02*X3000D01*
X0Y2098250D02*X750Y2097500D01*
X5550Y2100500D02*Y2098250D01*
X6300Y2097500D01*
X8550Y2100500D02*Y2096000D01*
X7800Y2095250D02*X8550Y2096000D01*
X6300Y2095250D02*X7800D01*
X5550Y2096000D02*X6300Y2095250D01*
Y2097500D02*X7800D01*
X8550Y2098250D01*
X11100Y2099750D02*Y2097500D01*
Y2099750D02*X11850Y2100500D01*
X12600D01*
X13350Y2099750D01*
Y2097500D01*
Y2099750D02*X14100Y2100500D01*
X14850D01*
X15600Y2099750D01*
Y2097500D01*
X10350Y2100500D02*X11100Y2099750D01*
X17400Y2103500D02*Y2097500D01*
Y2098250D02*X18150Y2097500D01*
X19650D01*
X20400Y2098250D01*
Y2099750D02*Y2098250D01*
X19650Y2100500D02*X20400Y2099750D01*
X18150Y2100500D02*X19650D01*
X17400Y2099750D02*X18150Y2100500D01*
X22200Y2099750D02*Y2098250D01*
Y2099750D02*X22950Y2100500D01*
X24450D01*
X25200Y2099750D01*
Y2098250D01*
X24450Y2097500D02*X25200Y2098250D01*
X22950Y2097500D02*X24450D01*
X22200Y2098250D02*X22950Y2097500D01*
X27000Y2103500D02*Y2098250D01*
X27750Y2097500D01*
X0Y2094250D02*X29250D01*
X41750Y2103500D02*Y2097500D01*
X43700Y2103500D02*X44750Y2102450D01*
Y2098550D01*
X43700Y2097500D02*X44750Y2098550D01*
X41000Y2097500D02*X43700D01*
X41000Y2103500D02*X43700D01*
G54D116*X46550Y2102000D02*Y2101850D01*
G54D115*Y2099750D02*Y2097500D01*
X50300Y2100500D02*X51050Y2099750D01*
X48800Y2100500D02*X50300D01*
X48050Y2099750D02*X48800Y2100500D01*
X48050Y2099750D02*Y2098250D01*
X48800Y2097500D01*
X51050Y2100500D02*Y2098250D01*
X51800Y2097500D01*
X48800D02*X50300D01*
X51050Y2098250D01*
X54350Y2099750D02*Y2097500D01*
Y2099750D02*X55100Y2100500D01*
X55850D01*
X56600Y2099750D01*
Y2097500D01*
Y2099750D02*X57350Y2100500D01*
X58100D01*
X58850Y2099750D01*
Y2097500D01*
X53600Y2100500D02*X54350Y2099750D01*
X60650Y2097500D02*X61400D01*
X65900Y2098250D02*X66650Y2097500D01*
X65900Y2102750D02*X66650Y2103500D01*
X65900Y2102750D02*Y2098250D01*
X68450Y2103500D02*X69950D01*
X69200D02*Y2097500D01*
X68450D02*X69950D01*
X72500Y2099750D02*Y2097500D01*
Y2099750D02*X73250Y2100500D01*
X74000D01*
X74750Y2099750D01*
Y2097500D01*
X71750Y2100500D02*X72500Y2099750D01*
X77300Y2100500D02*X79550D01*
X76550Y2099750D02*X77300Y2100500D01*
X76550Y2099750D02*Y2098250D01*
X77300Y2097500D01*
X79550D01*
X81350Y2103500D02*Y2097500D01*
Y2099750D02*X82100Y2100500D01*
X83600D01*
X84350Y2099750D01*
Y2097500D01*
X86150Y2103500D02*X86900Y2102750D01*
Y2098250D01*
X86150Y2097500D02*X86900Y2098250D01*
X41000Y2094250D02*X88700D01*
X96050Y2097500D02*X98000D01*
X95000Y2098550D02*X96050Y2097500D01*
X95000Y2102450D02*Y2098550D01*
Y2102450D02*X96050Y2103500D01*
X98000D01*
X99800Y2099750D02*Y2098250D01*
Y2099750D02*X100550Y2100500D01*
X102050D01*
X102800Y2099750D01*
Y2098250D01*
X102050Y2097500D02*X102800Y2098250D01*
X100550Y2097500D02*X102050D01*
X99800Y2098250D02*X100550Y2097500D01*
X104600Y2100500D02*Y2098250D01*
X105350Y2097500D01*
X106850D01*
X107600Y2098250D01*
Y2100500D02*Y2098250D01*
X110150Y2099750D02*Y2097500D01*
Y2099750D02*X110900Y2100500D01*
X111650D01*
X112400Y2099750D01*
Y2097500D01*
X109400Y2100500D02*X110150Y2099750D01*
X114950Y2103500D02*Y2098250D01*
X115700Y2097500D01*
X114200Y2101250D02*X115700D01*
X95000Y2094250D02*X117200D01*
X130750Y2103500D02*Y2097500D01*
X130000Y2103500D02*X133000D01*
X133750Y2102750D01*
Y2101250D01*
X133000Y2100500D02*X133750Y2101250D01*
X130750Y2100500D02*X133000D01*
X135550Y2103500D02*Y2098250D01*
X136300Y2097500D01*
X140050Y2100500D02*X140800Y2099750D01*
X138550Y2100500D02*X140050D01*
X137800Y2099750D02*X138550Y2100500D01*
X137800Y2099750D02*Y2098250D01*
X138550Y2097500D01*
X140800Y2100500D02*Y2098250D01*
X141550Y2097500D01*
X138550D02*X140050D01*
X140800Y2098250D01*
X144100Y2103500D02*Y2098250D01*
X144850Y2097500D01*
X143350Y2101250D02*X144850D01*
X147100Y2097500D02*X149350D01*
X146350Y2098250D02*X147100Y2097500D01*
X146350Y2099750D02*Y2098250D01*
Y2099750D02*X147100Y2100500D01*
X148600D01*
X149350Y2099750D01*
X146350Y2099000D02*X149350D01*
Y2099750D02*Y2099000D01*
X154150Y2103500D02*Y2097500D01*
X153400D02*X154150Y2098250D01*
X151900Y2097500D02*X153400D01*
X151150Y2098250D02*X151900Y2097500D01*
X151150Y2099750D02*Y2098250D01*
Y2099750D02*X151900Y2100500D01*
X153400D01*
X154150Y2099750D01*
X157450Y2100500D02*Y2099750D01*
Y2098250D02*Y2097500D01*
X155950Y2102750D02*Y2102000D01*
Y2102750D02*X156700Y2103500D01*
X158200D01*
X158950Y2102750D01*
Y2102000D01*
X157450Y2100500D02*X158950Y2102000D01*
X130000Y2094250D02*X160750D01*
X0Y2118500D02*X3000D01*
X1500D02*Y2112500D01*
X4800Y2118500D02*Y2112500D01*
Y2114750D02*X5550Y2115500D01*
X7050D01*
X7800Y2114750D01*
Y2112500D01*
X10350D02*X12600D01*
X9600Y2113250D02*X10350Y2112500D01*
X9600Y2114750D02*Y2113250D01*
Y2114750D02*X10350Y2115500D01*
X11850D01*
X12600Y2114750D01*
X9600Y2114000D02*X12600D01*
Y2114750D02*Y2114000D01*
X15150Y2114750D02*Y2112500D01*
Y2114750D02*X15900Y2115500D01*
X17400D01*
X14400D02*X15150Y2114750D01*
X19950Y2112500D02*X22200D01*
X19200Y2113250D02*X19950Y2112500D01*
X19200Y2114750D02*Y2113250D01*
Y2114750D02*X19950Y2115500D01*
X21450D01*
X22200Y2114750D01*
X19200Y2114000D02*X22200D01*
Y2114750D02*Y2114000D01*
X28950Y2115500D02*X29700Y2114750D01*
X27450Y2115500D02*X28950D01*
X26700Y2114750D02*X27450Y2115500D01*
X26700Y2114750D02*Y2113250D01*
X27450Y2112500D01*
X29700Y2115500D02*Y2113250D01*
X30450Y2112500D01*
X27450D02*X28950D01*
X29700Y2113250D01*
X33000Y2114750D02*Y2112500D01*
Y2114750D02*X33750Y2115500D01*
X35250D01*
X32250D02*X33000Y2114750D01*
X37800Y2112500D02*X40050D01*
X37050Y2113250D02*X37800Y2112500D01*
X37050Y2114750D02*Y2113250D01*
Y2114750D02*X37800Y2115500D01*
X39300D01*
X40050Y2114750D01*
X37050Y2114000D02*X40050D01*
Y2114750D02*Y2114000D01*
X46800Y2118500D02*X47550Y2117750D01*
X45300Y2118500D02*X46800D01*
X44550Y2117750D02*X45300Y2118500D01*
X44550Y2117750D02*Y2113250D01*
X45300Y2112500D01*
X46800Y2115800D02*X47550Y2115050D01*
X44550Y2115800D02*X46800D01*
X45300Y2112500D02*X46800D01*
X47550Y2113250D01*
Y2115050D02*Y2113250D01*
X55050Y2118500D02*Y2112500D01*
X54300D02*X55050Y2113250D01*
X52800Y2112500D02*X54300D01*
X52050Y2113250D02*X52800Y2112500D01*
X52050Y2114750D02*Y2113250D01*
Y2114750D02*X52800Y2115500D01*
X54300D01*
X55050Y2114750D01*
G54D116*X56850Y2117000D02*Y2116850D01*
G54D115*Y2114750D02*Y2112500D01*
X59100Y2117750D02*Y2112500D01*
Y2117750D02*X59850Y2118500D01*
X60600D01*
X58350Y2115500D02*X59850D01*
X62850Y2117750D02*Y2112500D01*
Y2117750D02*X63600Y2118500D01*
X64350D01*
X62100Y2115500D02*X63600D01*
X66600Y2112500D02*X68850D01*
X65850Y2113250D02*X66600Y2112500D01*
X65850Y2114750D02*Y2113250D01*
Y2114750D02*X66600Y2115500D01*
X68100D01*
X68850Y2114750D01*
X65850Y2114000D02*X68850D01*
Y2114750D02*Y2114000D01*
X71400Y2114750D02*Y2112500D01*
Y2114750D02*X72150Y2115500D01*
X73650D01*
X70650D02*X71400Y2114750D01*
X76200Y2112500D02*X78450D01*
X75450Y2113250D02*X76200Y2112500D01*
X75450Y2114750D02*Y2113250D01*
Y2114750D02*X76200Y2115500D01*
X77700D01*
X78450Y2114750D01*
X75450Y2114000D02*X78450D01*
Y2114750D02*Y2114000D01*
X81000Y2114750D02*Y2112500D01*
Y2114750D02*X81750Y2115500D01*
X82500D01*
X83250Y2114750D01*
Y2112500D01*
X80250Y2115500D02*X81000Y2114750D01*
X85800Y2118500D02*Y2113250D01*
X86550Y2112500D01*
X85050Y2116250D02*X86550D01*
X93750Y2118500D02*Y2112500D01*
X93000D02*X93750Y2113250D01*
X91500Y2112500D02*X93000D01*
X90750Y2113250D02*X91500Y2112500D01*
X90750Y2114750D02*Y2113250D01*
Y2114750D02*X91500Y2115500D01*
X93000D01*
X93750Y2114750D01*
X96300D02*Y2112500D01*
Y2114750D02*X97050Y2115500D01*
X98550D01*
X95550D02*X96300Y2114750D01*
G54D116*X100350Y2117000D02*Y2116850D01*
G54D115*Y2114750D02*Y2112500D01*
X101850Y2118500D02*Y2113250D01*
X102600Y2112500D01*
X104100Y2118500D02*Y2113250D01*
X104850Y2112500D01*
X109800D02*X112050D01*
X112800Y2113250D01*
X112050Y2114000D02*X112800Y2113250D01*
X109800Y2114000D02*X112050D01*
X109050Y2114750D02*X109800Y2114000D01*
X109050Y2114750D02*X109800Y2115500D01*
X112050D01*
X112800Y2114750D01*
X109050Y2113250D02*X109800Y2112500D01*
G54D116*X114600Y2117000D02*Y2116850D01*
G54D115*Y2114750D02*Y2112500D01*
X116100Y2115500D02*X119100D01*
X116100Y2112500D02*X119100Y2115500D01*
X116100Y2112500D02*X119100D01*
X121650D02*X123900D01*
X120900Y2113250D02*X121650Y2112500D01*
X120900Y2114750D02*Y2113250D01*
Y2114750D02*X121650Y2115500D01*
X123150D01*
X123900Y2114750D01*
X120900Y2114000D02*X123900D01*
Y2114750D02*Y2114000D01*
X126450Y2112500D02*X128700D01*
X129450Y2113250D01*
X128700Y2114000D02*X129450Y2113250D01*
X126450Y2114000D02*X128700D01*
X125700Y2114750D02*X126450Y2114000D01*
X125700Y2114750D02*X126450Y2115500D01*
X128700D01*
X129450Y2114750D01*
X125700Y2113250D02*X126450Y2112500D01*
X133950Y2115500D02*Y2113250D01*
X134700Y2112500D01*
X136200D01*
X136950Y2113250D01*
Y2115500D02*Y2113250D01*
X139500Y2112500D02*X141750D01*
X142500Y2113250D01*
X141750Y2114000D02*X142500Y2113250D01*
X139500Y2114000D02*X141750D01*
X138750Y2114750D02*X139500Y2114000D01*
X138750Y2114750D02*X139500Y2115500D01*
X141750D01*
X142500Y2114750D01*
X138750Y2113250D02*X139500Y2112500D01*
X145050D02*X147300D01*
X144300Y2113250D02*X145050Y2112500D01*
X144300Y2114750D02*Y2113250D01*
Y2114750D02*X145050Y2115500D01*
X146550D01*
X147300Y2114750D01*
X144300Y2114000D02*X147300D01*
Y2114750D02*Y2114000D01*
X152100Y2118500D02*Y2112500D01*
X151350D02*X152100Y2113250D01*
X149850Y2112500D02*X151350D01*
X149100Y2113250D02*X149850Y2112500D01*
X149100Y2114750D02*Y2113250D01*
Y2114750D02*X149850Y2115500D01*
X151350D01*
X152100Y2114750D01*
G54D116*X156600Y2117000D02*Y2116850D01*
G54D115*Y2114750D02*Y2112500D01*
X158850Y2114750D02*Y2112500D01*
Y2114750D02*X159600Y2115500D01*
X160350D01*
X161100Y2114750D01*
Y2112500D01*
X158100Y2115500D02*X158850Y2114750D01*
X166350Y2118500D02*Y2113250D01*
X167100Y2112500D01*
X165600Y2116250D02*X167100D01*
X168600Y2118500D02*Y2112500D01*
Y2114750D02*X169350Y2115500D01*
X170850D01*
X171600Y2114750D01*
Y2112500D01*
G54D116*X173400Y2117000D02*Y2116850D01*
G54D115*Y2114750D02*Y2112500D01*
X175650D02*X177900D01*
X178650Y2113250D01*
X177900Y2114000D02*X178650Y2113250D01*
X175650Y2114000D02*X177900D01*
X174900Y2114750D02*X175650Y2114000D01*
X174900Y2114750D02*X175650Y2115500D01*
X177900D01*
X178650Y2114750D01*
X174900Y2113250D02*X175650Y2112500D01*
X183150Y2118500D02*Y2113250D01*
X183900Y2112500D01*
X187650Y2115500D02*X188400Y2114750D01*
X186150Y2115500D02*X187650D01*
X185400Y2114750D02*X186150Y2115500D01*
X185400Y2114750D02*Y2113250D01*
X186150Y2112500D01*
X188400Y2115500D02*Y2113250D01*
X189150Y2112500D01*
X186150D02*X187650D01*
X188400Y2113250D01*
X190950Y2115500D02*Y2113250D01*
X191700Y2112500D01*
X193950Y2115500D02*Y2111000D01*
X193200Y2110250D02*X193950Y2111000D01*
X191700Y2110250D02*X193200D01*
X190950Y2111000D02*X191700Y2110250D01*
Y2112500D02*X193200D01*
X193950Y2113250D01*
X195750Y2114750D02*Y2113250D01*
Y2114750D02*X196500Y2115500D01*
X198000D01*
X198750Y2114750D01*
Y2113250D01*
X198000Y2112500D02*X198750Y2113250D01*
X196500Y2112500D02*X198000D01*
X195750Y2113250D02*X196500Y2112500D01*
X200550Y2115500D02*Y2113250D01*
X201300Y2112500D01*
X202800D01*
X203550Y2113250D01*
Y2115500D02*Y2113250D01*
X206100Y2118500D02*Y2113250D01*
X206850Y2112500D01*
X205350Y2116250D02*X206850D01*
X208350Y2111000D02*X209850Y2112500D01*
X214350Y2117300D02*X215550Y2118500D01*
Y2112500D01*
X214350D02*X216600D01*
X218400Y2117750D02*X219150Y2118500D01*
X220650D01*
X221400Y2117750D01*
X220650Y2112500D02*X221400Y2113250D01*
X219150Y2112500D02*X220650D01*
X218400Y2113250D02*X219150Y2112500D01*
Y2115800D02*X220650D01*
X221400Y2117750D02*Y2116550D01*
Y2115050D02*Y2113250D01*
Y2115050D02*X220650Y2115800D01*
X221400Y2116550D02*X220650Y2115800D01*
X223200Y2113250D02*X223950Y2112500D01*
X223200Y2117750D02*Y2113250D01*
Y2117750D02*X223950Y2118500D01*
X225450D01*
X226200Y2117750D01*
Y2113250D01*
X225450Y2112500D02*X226200Y2113250D01*
X223950Y2112500D02*X225450D01*
X223200Y2114000D02*X226200Y2117000D01*
X230700Y2118500D02*Y2112500D01*
Y2114750D02*X231450Y2115500D01*
X232950D01*
X233700Y2114750D01*
Y2112500D01*
X235500Y2114750D02*Y2113250D01*
Y2114750D02*X236250Y2115500D01*
X237750D01*
X238500Y2114750D01*
Y2113250D01*
X237750Y2112500D02*X238500Y2113250D01*
X236250Y2112500D02*X237750D01*
X235500Y2113250D02*X236250Y2112500D01*
X240300Y2118500D02*Y2113250D01*
X241050Y2112500D01*
X243300D02*X245550D01*
X242550Y2113250D02*X243300Y2112500D01*
X242550Y2114750D02*Y2113250D01*
Y2114750D02*X243300Y2115500D01*
X244800D01*
X245550Y2114750D01*
X242550Y2114000D02*X245550D01*
Y2114750D02*Y2114000D01*
X248100Y2112500D02*X250350D01*
X251100Y2113250D01*
X250350Y2114000D02*X251100Y2113250D01*
X248100Y2114000D02*X250350D01*
X247350Y2114750D02*X248100Y2114000D01*
X247350Y2114750D02*X248100Y2115500D01*
X250350D01*
X251100Y2114750D01*
X247350Y2113250D02*X248100Y2112500D01*
X256350Y2118500D02*Y2113250D01*
X257100Y2112500D01*
X255600Y2116250D02*X257100D01*
X258600Y2114750D02*Y2113250D01*
Y2114750D02*X259350Y2115500D01*
X260850D01*
X261600Y2114750D01*
Y2113250D01*
X260850Y2112500D02*X261600Y2113250D01*
X259350Y2112500D02*X260850D01*
X258600Y2113250D02*X259350Y2112500D01*
X264150Y2118500D02*Y2113250D01*
X264900Y2112500D01*
X263400Y2116250D02*X264900D01*
X268650Y2115500D02*X269400Y2114750D01*
X267150Y2115500D02*X268650D01*
X266400Y2114750D02*X267150Y2115500D01*
X266400Y2114750D02*Y2113250D01*
X267150Y2112500D01*
X269400Y2115500D02*Y2113250D01*
X270150Y2112500D01*
X267150D02*X268650D01*
X269400Y2113250D01*
X271950Y2118500D02*Y2113250D01*
X272700Y2112500D01*
G54D113*X74100Y1553000D02*X720700D01*
Y1936800D01*
X74100D02*X720700D01*
X74100D02*Y1553000D01*
G54D115*X913675Y-9500D02*X916675D01*
X917425Y-8750D01*
Y-6950D02*Y-8750D01*
X916675Y-6200D02*X917425Y-6950D01*
X914425Y-6200D02*X916675D01*
X914425Y-3500D02*Y-9500D01*
X913675Y-3500D02*X916675D01*
X917425Y-4250D01*
Y-5450D01*
X916675Y-6200D02*X917425Y-5450D01*
X919225Y-7250D02*Y-8750D01*
Y-7250D02*X919975Y-6500D01*
X921475D01*
X922225Y-7250D01*
Y-8750D01*
X921475Y-9500D02*X922225Y-8750D01*
X919975Y-9500D02*X921475D01*
X919225Y-8750D02*X919975Y-9500D01*
X926275Y-6500D02*X927025Y-7250D01*
X924775Y-6500D02*X926275D01*
X924025Y-7250D02*X924775Y-6500D01*
X924025Y-7250D02*Y-8750D01*
X924775Y-9500D01*
X927025Y-6500D02*Y-8750D01*
X927775Y-9500D01*
X924775D02*X926275D01*
X927025Y-8750D01*
X930325Y-7250D02*Y-9500D01*
Y-7250D02*X931075Y-6500D01*
X932575D01*
X929575D02*X930325Y-7250D01*
X937375Y-3500D02*Y-9500D01*
X936625D02*X937375Y-8750D01*
X935125Y-9500D02*X936625D01*
X934375Y-8750D02*X935125Y-9500D01*
X934375Y-7250D02*Y-8750D01*
Y-7250D02*X935125Y-6500D01*
X936625D01*
X937375Y-7250D01*
X941875D02*Y-8750D01*
Y-7250D02*X942625Y-6500D01*
X944125D01*
X944875Y-7250D01*
Y-8750D01*
X944125Y-9500D02*X944875Y-8750D01*
X942625Y-9500D02*X944125D01*
X941875Y-8750D02*X942625Y-9500D01*
X946675Y-6500D02*Y-8750D01*
X947425Y-9500D01*
X948925D01*
X949675Y-8750D01*
Y-6500D02*Y-8750D01*
X952225Y-3500D02*Y-8750D01*
X952975Y-9500D01*
X951475Y-5750D02*X952975D01*
X954475Y-3500D02*Y-8750D01*
X955225Y-9500D01*
G54D116*X956725Y-5000D02*Y-5150D01*
G54D115*Y-7250D02*Y-9500D01*
X958975Y-7250D02*Y-9500D01*
Y-7250D02*X959725Y-6500D01*
X960475D01*
X961225Y-7250D01*
Y-9500D01*
X958225Y-6500D02*X958975Y-7250D01*
X963775Y-9500D02*X966025D01*
X963025Y-8750D02*X963775Y-9500D01*
X963025Y-7250D02*Y-8750D01*
Y-7250D02*X963775Y-6500D01*
X965275D01*
X966025Y-7250D01*
X963025Y-8000D02*X966025D01*
Y-7250D02*Y-8000D01*
G54D116*X970525Y-5000D02*Y-5150D01*
G54D115*Y-7250D02*Y-9500D01*
X972775D02*X975025D01*
X975775Y-8750D01*
X975025Y-8000D02*X975775Y-8750D01*
X972775Y-8000D02*X975025D01*
X972025Y-7250D02*X972775Y-8000D01*
X972025Y-7250D02*X972775Y-6500D01*
X975025D01*
X975775Y-7250D01*
X972025Y-8750D02*X972775Y-9500D01*
X981025Y-3500D02*Y-8750D01*
X981775Y-9500D01*
X980275Y-5750D02*X981775D01*
X983275Y-3500D02*Y-9500D01*
Y-7250D02*X984025Y-6500D01*
X985525D01*
X986275Y-7250D01*
Y-9500D01*
X988825D02*X991075D01*
X988075Y-8750D02*X988825Y-9500D01*
X988075Y-7250D02*Y-8750D01*
Y-7250D02*X988825Y-6500D01*
X990325D01*
X991075Y-7250D01*
X988075Y-8000D02*X991075D01*
Y-7250D02*Y-8000D01*
X996325Y-6500D02*X998575D01*
X995575Y-7250D02*X996325Y-6500D01*
X995575Y-7250D02*Y-8750D01*
X996325Y-9500D01*
X998575D01*
X1001125D02*X1003375D01*
X1000375Y-8750D02*X1001125Y-9500D01*
X1000375Y-7250D02*Y-8750D01*
Y-7250D02*X1001125Y-6500D01*
X1002625D01*
X1003375Y-7250D01*
X1000375Y-8000D02*X1003375D01*
Y-7250D02*Y-8000D01*
X1005925Y-7250D02*Y-9500D01*
Y-7250D02*X1006675Y-6500D01*
X1007425D01*
X1008175Y-7250D01*
Y-9500D01*
X1005175Y-6500D02*X1005925Y-7250D01*
X1010725Y-3500D02*Y-8750D01*
X1011475Y-9500D01*
X1009975Y-5750D02*X1011475D01*
X1013725Y-9500D02*X1015975D01*
X1012975Y-8750D02*X1013725Y-9500D01*
X1012975Y-7250D02*Y-8750D01*
Y-7250D02*X1013725Y-6500D01*
X1015225D01*
X1015975Y-7250D01*
X1012975Y-8000D02*X1015975D01*
Y-7250D02*Y-8000D01*
X1018525Y-7250D02*Y-9500D01*
Y-7250D02*X1019275Y-6500D01*
X1020775D01*
X1017775D02*X1018525Y-7250D01*
X1022575Y-3500D02*Y-8750D01*
X1023325Y-9500D01*
G54D116*X1024825Y-5000D02*Y-5150D01*
G54D115*Y-7250D02*Y-9500D01*
X1027075Y-7250D02*Y-9500D01*
Y-7250D02*X1027825Y-6500D01*
X1028575D01*
X1029325Y-7250D01*
Y-9500D01*
X1026325Y-6500D02*X1027075Y-7250D01*
X1031875Y-9500D02*X1034125D01*
X1031125Y-8750D02*X1031875Y-9500D01*
X1031125Y-7250D02*Y-8750D01*
Y-7250D02*X1031875Y-6500D01*
X1033375D01*
X1034125Y-7250D01*
X1031125Y-8000D02*X1034125D01*
Y-7250D02*Y-8000D01*
X1038625Y-7250D02*Y-8750D01*
Y-7250D02*X1039375Y-6500D01*
X1040875D01*
X1041625Y-7250D01*
Y-8750D01*
X1040875Y-9500D02*X1041625Y-8750D01*
X1039375Y-9500D02*X1040875D01*
X1038625Y-8750D02*X1039375Y-9500D01*
X1044175Y-4250D02*Y-9500D01*
Y-4250D02*X1044925Y-3500D01*
X1045675D01*
X1043425Y-6500D02*X1044925D01*
X1050625Y-3500D02*Y-8750D01*
X1051375Y-9500D01*
X1049875Y-5750D02*X1051375D01*
X1052875Y-3500D02*Y-9500D01*
Y-7250D02*X1053625Y-6500D01*
X1055125D01*
X1055875Y-7250D01*
Y-9500D01*
G54D116*X1057675Y-5000D02*Y-5150D01*
G54D115*Y-7250D02*Y-9500D01*
X1059925D02*X1062175D01*
X1062925Y-8750D01*
X1062175Y-8000D02*X1062925Y-8750D01*
X1059925Y-8000D02*X1062175D01*
X1059175Y-7250D02*X1059925Y-8000D01*
X1059175Y-7250D02*X1059925Y-6500D01*
X1062175D01*
X1062925Y-7250D01*
X1059175Y-8750D02*X1059925Y-9500D01*
X1068175Y-7250D02*Y-11750D01*
X1067425Y-6500D02*X1068175Y-7250D01*
X1068925Y-6500D01*
X1070425D01*
X1071175Y-7250D01*
Y-8750D01*
X1070425Y-9500D02*X1071175Y-8750D01*
X1068925Y-9500D02*X1070425D01*
X1068175Y-8750D02*X1068925Y-9500D01*
X1075225Y-6500D02*X1075975Y-7250D01*
X1073725Y-6500D02*X1075225D01*
X1072975Y-7250D02*X1073725Y-6500D01*
X1072975Y-7250D02*Y-8750D01*
X1073725Y-9500D01*
X1075975Y-6500D02*Y-8750D01*
X1076725Y-9500D01*
X1073725D02*X1075225D01*
X1075975Y-8750D01*
X1079275Y-3500D02*Y-8750D01*
X1080025Y-9500D01*
X1078525Y-5750D02*X1080025D01*
X1081525Y-3500D02*Y-9500D01*
Y-7250D02*X1082275Y-6500D01*
X1083775D01*
X1084525Y-7250D01*
Y-9500D01*
X200750Y2028500D02*Y2022500D01*
X202700Y2028500D02*X203750Y2027450D01*
Y2023550D01*
X202700Y2022500D02*X203750Y2023550D01*
X200000Y2022500D02*X202700D01*
X200000Y2028500D02*X202700D01*
X207800Y2025500D02*X208550Y2024750D01*
X206300Y2025500D02*X207800D01*
X205550Y2024750D02*X206300Y2025500D01*
X205550Y2024750D02*Y2023250D01*
X206300Y2022500D01*
X208550Y2025500D02*Y2023250D01*
X209300Y2022500D01*
X206300D02*X207800D01*
X208550Y2023250D01*
X211850Y2028500D02*Y2023250D01*
X212600Y2022500D01*
X211100Y2026250D02*X212600D01*
X214850Y2022500D02*X217100D01*
X214100Y2023250D02*X214850Y2022500D01*
X214100Y2024750D02*Y2023250D01*
Y2024750D02*X214850Y2025500D01*
X216350D01*
X217100Y2024750D01*
X214100Y2024000D02*X217100D01*
Y2024750D02*Y2024000D01*
X218900Y2026250D02*X219650D01*
X218900Y2024750D02*X219650D01*
X224150Y2028500D02*Y2022500D01*
Y2028500D02*X226400Y2025500D01*
X228650Y2028500D01*
Y2022500D01*
X230450Y2024750D02*Y2023250D01*
Y2024750D02*X231200Y2025500D01*
X232700D01*
X233450Y2024750D01*
Y2023250D01*
X232700Y2022500D02*X233450Y2023250D01*
X231200Y2022500D02*X232700D01*
X230450Y2023250D02*X231200Y2022500D01*
X236000Y2024750D02*Y2022500D01*
Y2024750D02*X236750Y2025500D01*
X237500D01*
X238250Y2024750D01*
Y2022500D01*
X235250Y2025500D02*X236000Y2024750D01*
X242750Y2028500D02*Y2022500D01*
Y2028500D02*X245000Y2025500D01*
X247250Y2028500D01*
Y2022500D01*
X251300Y2025500D02*X252050Y2024750D01*
X249800Y2025500D02*X251300D01*
X249050Y2024750D02*X249800Y2025500D01*
X249050Y2024750D02*Y2023250D01*
X249800Y2022500D01*
X252050Y2025500D02*Y2023250D01*
X252800Y2022500D01*
X249800D02*X251300D01*
X252050Y2023250D01*
X254600Y2025500D02*Y2023250D01*
X255350Y2022500D01*
X257600Y2025500D02*Y2021000D01*
X256850Y2020250D02*X257600Y2021000D01*
X255350Y2020250D02*X256850D01*
X254600Y2021000D02*X255350Y2020250D01*
Y2022500D02*X256850D01*
X257600Y2023250D01*
X262100Y2027300D02*X263300Y2028500D01*
Y2022500D01*
X262100D02*X264350D01*
X266150Y2024750D02*X269150Y2028500D01*
X266150Y2024750D02*X269900D01*
X269150Y2028500D02*Y2022500D01*
X274400Y2027750D02*X275150Y2028500D01*
X277400D01*
X278150Y2027750D01*
Y2026250D01*
X274400Y2022500D02*X278150Y2026250D01*
X274400Y2022500D02*X278150D01*
X279950Y2027300D02*X281150Y2028500D01*
Y2022500D01*
X279950D02*X282200D01*
X284000Y2026250D02*X284750D01*
X284000Y2024750D02*X284750D01*
X286550Y2023250D02*X287300Y2022500D01*
X286550Y2027750D02*Y2023250D01*
Y2027750D02*X287300Y2028500D01*
X288800D01*
X289550Y2027750D01*
Y2023250D01*
X288800Y2022500D02*X289550Y2023250D01*
X287300Y2022500D02*X288800D01*
X286550Y2024000D02*X289550Y2027000D01*
X291350Y2027750D02*X292100Y2028500D01*
X294350D01*
X295100Y2027750D01*
Y2026250D01*
X291350Y2022500D02*X295100Y2026250D01*
X291350Y2022500D02*X295100D01*
X296900Y2026250D02*X297650D01*
X296900Y2024750D02*X297650D01*
X299450Y2027750D02*X300200Y2028500D01*
X301700D01*
X302450Y2027750D01*
X301700Y2022500D02*X302450Y2023250D01*
X300200Y2022500D02*X301700D01*
X299450Y2023250D02*X300200Y2022500D01*
Y2025800D02*X301700D01*
X302450Y2027750D02*Y2026550D01*
Y2025050D02*Y2023250D01*
Y2025050D02*X301700Y2025800D01*
X302450Y2026550D02*X301700Y2025800D01*
X306500Y2028500D02*X307250Y2027750D01*
X305000Y2028500D02*X306500D01*
X304250Y2027750D02*X305000Y2028500D01*
X304250Y2027750D02*Y2023250D01*
X305000Y2022500D01*
X306500Y2025800D02*X307250Y2025050D01*
X304250Y2025800D02*X306500D01*
X305000Y2022500D02*X306500D01*
X307250Y2023250D01*
Y2025050D02*Y2023250D01*
X311750Y2027750D02*X312500Y2028500D01*
X314750D01*
X315500Y2027750D01*
Y2026250D01*
X311750Y2022500D02*X315500Y2026250D01*
X311750Y2022500D02*X315500D01*
X317300Y2023250D02*X318050Y2022500D01*
X317300Y2027750D02*Y2023250D01*
Y2027750D02*X318050Y2028500D01*
X319550D01*
X320300Y2027750D01*
Y2023250D01*
X319550Y2022500D02*X320300Y2023250D01*
X318050Y2022500D02*X319550D01*
X317300Y2024000D02*X320300Y2027000D01*
X322100Y2027300D02*X323300Y2028500D01*
Y2022500D01*
X322100D02*X324350D01*
X326150Y2027750D02*X326900Y2028500D01*
X329150D01*
X329900Y2027750D01*
Y2026250D01*
X326150Y2022500D02*X329900Y2026250D01*
X326150Y2022500D02*X329900D01*
X334400Y2028500D02*Y2023250D01*
X335150Y2022500D01*
X336650D01*
X337400Y2023250D01*
Y2028500D02*Y2023250D01*
X339200Y2028500D02*X342200D01*
X340700D02*Y2022500D01*
X345050D02*X347000D01*
X344000Y2023550D02*X345050Y2022500D01*
X344000Y2027450D02*Y2023550D01*
Y2027450D02*X345050Y2028500D01*
X347000D01*
X200000Y2042000D02*Y2037500D01*
Y2042000D02*X201050Y2043500D01*
X202700D01*
X203750Y2042000D01*
Y2037500D01*
X200000Y2040500D02*X203750D01*
X205550D02*Y2038250D01*
X206300Y2037500D01*
X207800D01*
X208550Y2038250D01*
Y2040500D02*Y2038250D01*
X211100Y2043500D02*Y2038250D01*
X211850Y2037500D01*
X210350Y2041250D02*X211850D01*
X213350Y2043500D02*Y2037500D01*
Y2039750D02*X214100Y2040500D01*
X215600D01*
X216350Y2039750D01*
Y2037500D01*
X218150Y2039750D02*Y2038250D01*
Y2039750D02*X218900Y2040500D01*
X220400D01*
X221150Y2039750D01*
Y2038250D01*
X220400Y2037500D02*X221150Y2038250D01*
X218900Y2037500D02*X220400D01*
X218150Y2038250D02*X218900Y2037500D01*
X223700Y2039750D02*Y2037500D01*
Y2039750D02*X224450Y2040500D01*
X225950D01*
X222950D02*X223700Y2039750D01*
X227750Y2041250D02*X228500D01*
X227750Y2039750D02*X228500D01*
X233000Y2043500D02*Y2037500D01*
Y2043500D02*X235250Y2040500D01*
X237500Y2043500D01*
Y2037500D01*
G54D116*X239300Y2042000D02*Y2041850D01*
G54D115*Y2039750D02*Y2037500D01*
X241550Y2040500D02*X243800D01*
X240800Y2039750D02*X241550Y2040500D01*
X240800Y2039750D02*Y2038250D01*
X241550Y2037500D01*
X243800D01*
X245600Y2043500D02*Y2037500D01*
Y2039750D02*X246350Y2040500D01*
X247850D01*
X248600Y2039750D01*
Y2037500D01*
X252650Y2040500D02*X253400Y2039750D01*
X251150Y2040500D02*X252650D01*
X250400Y2039750D02*X251150Y2040500D01*
X250400Y2039750D02*Y2038250D01*
X251150Y2037500D01*
X253400Y2040500D02*Y2038250D01*
X254150Y2037500D01*
X251150D02*X252650D01*
X253400Y2038250D01*
X256700Y2037500D02*X258950D01*
X255950Y2038250D02*X256700Y2037500D01*
X255950Y2039750D02*Y2038250D01*
Y2039750D02*X256700Y2040500D01*
X258200D01*
X258950Y2039750D01*
X255950Y2039000D02*X258950D01*
Y2039750D02*Y2039000D01*
X260750Y2043500D02*Y2038250D01*
X261500Y2037500D01*
X266450Y2043500D02*Y2037500D01*
X268400Y2043500D02*X269450Y2042450D01*
Y2038550D01*
X268400Y2037500D02*X269450Y2038550D01*
X265700Y2037500D02*X268400D01*
X265700Y2043500D02*X268400D01*
X272000Y2037500D02*X274250D01*
X271250Y2038250D02*X272000Y2037500D01*
X271250Y2039750D02*Y2038250D01*
Y2039750D02*X272000Y2040500D01*
X273500D01*
X274250Y2039750D01*
X271250Y2039000D02*X274250D01*
Y2039750D02*Y2039000D01*
X276050Y2043500D02*Y2037500D01*
X279050D01*
G54D116*X280850Y2042000D02*Y2041850D01*
G54D115*Y2039750D02*Y2037500D01*
X282350Y2043500D02*Y2037500D01*
Y2038250D02*X283100Y2037500D01*
X284600D01*
X285350Y2038250D01*
Y2039750D02*Y2038250D01*
X284600Y2040500D02*X285350Y2039750D01*
X283100Y2040500D02*X284600D01*
X282350Y2039750D02*X283100Y2040500D01*
X287900Y2037500D02*X290150D01*
X287150Y2038250D02*X287900Y2037500D01*
X287150Y2039750D02*Y2038250D01*
Y2039750D02*X287900Y2040500D01*
X289400D01*
X290150Y2039750D01*
X287150Y2039000D02*X290150D01*
Y2039750D02*Y2039000D01*
X292700Y2039750D02*Y2037500D01*
Y2039750D02*X293450Y2040500D01*
X294950D01*
X291950D02*X292700Y2039750D01*
X296750D02*Y2038250D01*
Y2039750D02*X297500Y2040500D01*
X299000D01*
X299750Y2039750D01*
Y2038250D01*
X299000Y2037500D02*X299750Y2038250D01*
X297500Y2037500D02*X299000D01*
X296750Y2038250D02*X297500Y2037500D01*
X200000Y2058500D02*X203000D01*
X201500D02*Y2052500D01*
G54D116*X204800Y2057000D02*Y2056850D01*
G54D115*Y2054750D02*Y2052500D01*
X207050Y2058500D02*Y2053250D01*
X207800Y2052500D01*
X206300Y2056250D02*X207800D01*
X209300Y2058500D02*Y2053250D01*
X210050Y2052500D01*
X212300D02*X214550D01*
X211550Y2053250D02*X212300Y2052500D01*
X211550Y2054750D02*Y2053250D01*
Y2054750D02*X212300Y2055500D01*
X213800D01*
X214550Y2054750D01*
X211550Y2054000D02*X214550D01*
Y2054750D02*Y2054000D01*
X216350Y2056250D02*X217100D01*
X216350Y2054750D02*X217100D01*
X221600Y2053250D02*X222350Y2052500D01*
X221600Y2057750D02*X222350Y2058500D01*
X221600Y2057750D02*Y2053250D01*
X224150Y2055500D02*Y2053250D01*
X224900Y2052500D01*
X226400D01*
X227150Y2053250D01*
Y2055500D02*Y2053250D01*
X229700Y2054750D02*Y2052500D01*
Y2054750D02*X230450Y2055500D01*
X231200D01*
X231950Y2054750D01*
Y2052500D01*
X228950Y2055500D02*X229700Y2054750D01*
X233750Y2058500D02*Y2052500D01*
Y2054750D02*X236000Y2052500D01*
X233750Y2054750D02*X235250Y2056250D01*
X238550Y2054750D02*Y2052500D01*
Y2054750D02*X239300Y2055500D01*
X240050D01*
X240800Y2054750D01*
Y2052500D01*
X237800Y2055500D02*X238550Y2054750D01*
X242600D02*Y2053250D01*
Y2054750D02*X243350Y2055500D01*
X244850D01*
X245600Y2054750D01*
Y2053250D01*
X244850Y2052500D02*X245600Y2053250D01*
X243350Y2052500D02*X244850D01*
X242600Y2053250D02*X243350Y2052500D01*
X247400Y2055500D02*Y2053250D01*
X248150Y2052500D01*
X248900D01*
X249650Y2053250D01*
Y2055500D02*Y2053250D01*
X250400Y2052500D01*
X251150D01*
X251900Y2053250D01*
Y2055500D02*Y2053250D01*
X254450Y2054750D02*Y2052500D01*
Y2054750D02*X255200Y2055500D01*
X255950D01*
X256700Y2054750D01*
Y2052500D01*
X253700Y2055500D02*X254450Y2054750D01*
X258500Y2058500D02*X259250Y2057750D01*
Y2053250D01*
X258500Y2052500D02*X259250Y2053250D01*
X263750Y2055500D02*X266750D01*
X271250Y2058500D02*Y2052500D01*
Y2058500D02*X274250D01*
X271250Y2055800D02*X273500D01*
X278300Y2055500D02*X279050Y2054750D01*
X276800Y2055500D02*X278300D01*
X276050Y2054750D02*X276800Y2055500D01*
X276050Y2054750D02*Y2053250D01*
X276800Y2052500D01*
X279050Y2055500D02*Y2053250D01*
X279800Y2052500D01*
X276800D02*X278300D01*
X279050Y2053250D01*
X281600Y2058500D02*Y2052500D01*
Y2053250D02*X282350Y2052500D01*
X283850D01*
X284600Y2053250D01*
Y2054750D02*Y2053250D01*
X283850Y2055500D02*X284600Y2054750D01*
X282350Y2055500D02*X283850D01*
X281600Y2054750D02*X282350Y2055500D01*
X287150Y2054750D02*Y2052500D01*
Y2054750D02*X287900Y2055500D01*
X289400D01*
X286400D02*X287150Y2054750D01*
G54D116*X291200Y2057000D02*Y2056850D01*
G54D115*Y2054750D02*Y2052500D01*
X293450Y2055500D02*X295700D01*
X292700Y2054750D02*X293450Y2055500D01*
X292700Y2054750D02*Y2053250D01*
X293450Y2052500D01*
X295700D01*
X299750Y2055500D02*X300500Y2054750D01*
X298250Y2055500D02*X299750D01*
X297500Y2054750D02*X298250Y2055500D01*
X297500Y2054750D02*Y2053250D01*
X298250Y2052500D01*
X300500Y2055500D02*Y2053250D01*
X301250Y2052500D01*
X298250D02*X299750D01*
X300500Y2053250D01*
X303800Y2058500D02*Y2053250D01*
X304550Y2052500D01*
X303050Y2056250D02*X304550D01*
G54D116*X306050Y2057000D02*Y2056850D01*
G54D115*Y2054750D02*Y2052500D01*
X307550Y2054750D02*Y2053250D01*
Y2054750D02*X308300Y2055500D01*
X309800D01*
X310550Y2054750D01*
Y2053250D01*
X309800Y2052500D02*X310550Y2053250D01*
X308300Y2052500D02*X309800D01*
X307550Y2053250D02*X308300Y2052500D01*
X313100Y2054750D02*Y2052500D01*
Y2054750D02*X313850Y2055500D01*
X314600D01*
X315350Y2054750D01*
Y2052500D01*
X312350Y2055500D02*X313100Y2054750D01*
X320600Y2058500D02*Y2052500D01*
X322550Y2058500D02*X323600Y2057450D01*
Y2053550D01*
X322550Y2052500D02*X323600Y2053550D01*
X319850Y2052500D02*X322550D01*
X319850Y2058500D02*X322550D01*
X326150Y2054750D02*Y2052500D01*
Y2054750D02*X326900Y2055500D01*
X328400D01*
X325400D02*X326150Y2054750D01*
X332450Y2055500D02*X333200Y2054750D01*
X330950Y2055500D02*X332450D01*
X330200Y2054750D02*X330950Y2055500D01*
X330200Y2054750D02*Y2053250D01*
X330950Y2052500D01*
X333200Y2055500D02*Y2053250D01*
X333950Y2052500D01*
X330950D02*X332450D01*
X333200Y2053250D01*
X335750Y2055500D02*Y2053250D01*
X336500Y2052500D01*
X337250D01*
X338000Y2053250D01*
Y2055500D02*Y2053250D01*
X338750Y2052500D01*
X339500D01*
X340250Y2053250D01*
Y2055500D02*Y2053250D01*
G54D116*X342050Y2057000D02*Y2056850D01*
G54D115*Y2054750D02*Y2052500D01*
X344300Y2054750D02*Y2052500D01*
Y2054750D02*X345050Y2055500D01*
X345800D01*
X346550Y2054750D01*
Y2052500D01*
X343550Y2055500D02*X344300Y2054750D01*
X350600Y2055500D02*X351350Y2054750D01*
X349100Y2055500D02*X350600D01*
X348350Y2054750D02*X349100Y2055500D01*
X348350Y2054750D02*Y2053250D01*
X349100Y2052500D01*
X350600D01*
X351350Y2053250D01*
X348350Y2051000D02*X349100Y2050250D01*
X350600D01*
X351350Y2051000D01*
Y2055500D02*Y2051000D01*
M02*
