%FSAX24Y24*%
%MOIN*%
G70*
G01*
G75*
G04 Layer_Physical_Order=4*
G04 Layer_Color=16711680*
%ADD10O,0.0984X0.0276*%
%ADD11O,0.0689X0.0138*%
%ADD12O,0.0925X0.0138*%
%ADD13O,0.0217X0.0571*%
%ADD14O,0.0571X0.0217*%
%ADD15R,0.0276X0.0354*%
%ADD16R,0.0335X0.0512*%
%ADD17R,0.0433X0.0433*%
%ADD18R,0.0394X0.0354*%
%ADD19R,0.0598X0.0236*%
%ADD20R,0.2480X0.0374*%
%ADD21R,0.1693X0.0335*%
%ADD22R,0.0709X0.0315*%
%ADD23R,0.0157X0.0354*%
%ADD24R,0.0276X0.0335*%
%ADD25R,0.0394X0.0394*%
%ADD26R,0.0236X0.0098*%
%ADD27R,0.0177X0.0157*%
%ADD28R,0.0240X0.0440*%
%ADD29R,0.0551X0.1220*%
%ADD30R,0.0591X0.1339*%
%ADD31R,0.2165X0.0394*%
%ADD32R,0.1181X0.0630*%
%ADD33R,0.0394X0.2165*%
%ADD34R,0.0630X0.1181*%
%ADD35R,0.0276X0.1417*%
%ADD36R,0.0591X0.0906*%
%ADD37R,0.0709X0.0748*%
%ADD38R,0.0748X0.0748*%
%ADD39R,0.0157X0.0532*%
%ADD40R,0.1378X0.0630*%
%ADD41R,0.0532X0.0374*%
%ADD42R,0.0453X0.1063*%
%ADD43R,0.1024X0.0374*%
%ADD44R,0.0571X0.0453*%
%ADD45R,0.0532X0.0610*%
%ADD46R,0.0433X0.0433*%
%ADD47R,0.0354X0.0276*%
%ADD48R,0.0335X0.0276*%
%ADD49R,0.0098X0.0236*%
%ADD50R,0.0157X0.0177*%
%ADD51C,0.0150*%
%ADD52C,0.0126*%
%ADD53C,0.1772*%
%ADD54C,0.0492*%
%ADD55C,0.0098*%
%ADD56C,0.0197*%
%ADD57C,0.0984*%
%ADD58C,0.0394*%
%ADD59C,0.0118*%
%ADD60C,0.0591*%
%ADD61C,0.0295*%
%ADD62C,0.0150*%
%ADD63C,0.1870*%
%ADD64C,0.1181*%
%ADD65C,0.1378*%
%ADD66C,0.0492*%
%ADD67C,0.0630*%
%ADD68O,0.0276X0.0177*%
%ADD69C,0.0846*%
%ADD70C,0.1378*%
%ADD71C,0.0295*%
%ADD72C,0.1260*%
%ADD73C,0.0374*%
%ADD74C,0.0394*%
%ADD75C,0.0500*%
%ADD76C,0.0433*%
%ADD77C,0.0512*%
%ADD78C,0.0480*%
%ADD79C,0.0400*%
G04:AMPARAMS|DCode=80|XSize=84.094mil|YSize=84.094mil|CornerRadius=0mil|HoleSize=0mil|Usage=FLASHONLY|Rotation=0.000|XOffset=0mil|YOffset=0mil|HoleType=Round|Shape=Relief|Width=29.5mil|Gap=8.3mil|Entries=4|*
%AMTHD80*
7,0,0,0.0841,0.0676,0.0295,45*
%
%ADD80THD80*%
%ADD81C,0.0676*%
G04:AMPARAMS|DCode=82|XSize=99.843mil|YSize=99.843mil|CornerRadius=0mil|HoleSize=0mil|Usage=FLASHONLY|Rotation=0.000|XOffset=0mil|YOffset=0mil|HoleType=Round|Shape=Relief|Width=29.5mil|Gap=8.3mil|Entries=4|*
%AMTHD82*
7,0,0,0.0998,0.0833,0.0295,45*
%
%ADD82THD82*%
%ADD83C,0.0833*%
%ADD84C,0.0538*%
%ADD85C,0.0912*%
G04:AMPARAMS|DCode=86|XSize=107.716mil|YSize=107.716mil|CornerRadius=0mil|HoleSize=0mil|Usage=FLASHONLY|Rotation=0.000|XOffset=0mil|YOffset=0mil|HoleType=Round|Shape=Relief|Width=29.5mil|Gap=8.3mil|Entries=4|*
%AMTHD86*
7,0,0,0.1077,0.0912,0.0295,45*
%
%ADD86THD86*%
%ADD87C,0.1109*%
%ADD88C,0.0695*%
%ADD89C,0.1660*%
%ADD90C,0.0597*%
%ADD91C,0.0636*%
%ADD92C,0.0680*%
G04:AMPARAMS|DCode=93|XSize=127.401mil|YSize=127.401mil|CornerRadius=0mil|HoleSize=0mil|Usage=FLASHONLY|Rotation=0.000|XOffset=0mil|YOffset=0mil|HoleType=Round|Shape=Relief|Width=29.5mil|Gap=8.3mil|Entries=4|*
%AMTHD93*
7,0,0,0.1274,0.1109,0.0295,45*
%
%ADD93THD93*%
%ADD94R,0.0354X0.0256*%
%ADD95R,0.0354X0.0236*%
%ADD96R,0.0827X0.1260*%
%ADD97R,0.0827X0.0354*%
%ADD98R,0.0413X0.1280*%
%ADD99R,0.0354X0.0354*%
%ADD100R,0.0354X0.0354*%
%ADD101R,0.0453X0.0571*%
%ADD102C,0.0110*%
G36*
X044409Y060315D02*
X047181D01*
Y057188D01*
X047101Y057160D01*
X046849Y057484D01*
X046803Y057534D01*
X046759Y057586D01*
X046746Y057598D01*
X046733Y057611D01*
X046680Y057653D01*
X046628Y057698D01*
X046613Y057707D01*
X046599Y057718D01*
X046540Y057752D01*
X046482Y057787D01*
X046465Y057794D01*
X046450Y057803D01*
X046386Y057827D01*
X046323Y057853D01*
X046305Y057857D01*
X046289Y057864D01*
X046222Y057878D01*
X046156Y057893D01*
X046138Y057895D01*
X046120Y057898D01*
X046052Y057902D01*
X045984Y057907D01*
X042756D01*
X042584Y057893D01*
X042417Y057853D01*
X042258Y057787D01*
X042112Y057698D01*
X041984Y057589D01*
X041939D01*
Y057537D01*
X041869Y057455D01*
X041779Y057309D01*
X041714Y057150D01*
X041683Y057022D01*
X041457D01*
X041376Y057006D01*
X041308Y056960D01*
X041262Y056892D01*
X041246Y056811D01*
Y056220D01*
X041262Y056140D01*
X041298Y056087D01*
X041339Y056024D01*
X041339D01*
Y055552D01*
X041339Y055472D01*
Y055472D01*
D01*
X041339Y055392D01*
Y054921D01*
X041299Y054882D01*
X041299D01*
Y054508D01*
X041253Y054499D01*
X041180Y054450D01*
X041065Y054336D01*
X040984Y054368D01*
X040984Y054370D01*
X040984Y054370D01*
X040984Y054370D01*
Y054882D01*
X040984D01*
X040945Y054921D01*
Y055392D01*
X040945Y055472D01*
Y055472D01*
X040945Y055552D01*
Y056024D01*
X040932D01*
X040925Y056027D01*
X040872Y056104D01*
X040880Y056142D01*
Y056811D01*
X040864Y056892D01*
X040818Y056960D01*
X040750Y057006D01*
X040669Y057022D01*
X040574D01*
Y058149D01*
X040858Y058433D01*
X040965Y058558D01*
X041051Y058698D01*
X041113Y058850D01*
X041152Y059010D01*
X041165Y059173D01*
X041152Y059337D01*
X041113Y059497D01*
X041051Y059648D01*
X040965Y059788D01*
X040858Y059913D01*
X040733Y060020D01*
X040704Y060038D01*
X040726Y060118D01*
X040945D01*
Y060748D01*
X040894D01*
Y060878D01*
X041102D01*
Y060748D01*
X041232D01*
Y060512D01*
X041249Y060426D01*
X041260Y060410D01*
Y060118D01*
X041782D01*
X041811Y060118D01*
X041811D01*
X041862Y060059D01*
X041862Y060059D01*
Y059918D01*
X041788Y059895D01*
X041653Y059823D01*
X041534Y059726D01*
X041437Y059607D01*
X041365Y059472D01*
X041320Y059326D01*
X041315Y059267D01*
X042859D01*
X042853Y059326D01*
X042808Y059472D01*
X042736Y059607D01*
X042639Y059726D01*
X042521Y059823D01*
X042386Y059895D01*
X042311Y059918D01*
Y060167D01*
X042313D01*
Y060340D01*
X042087D01*
Y060527D01*
X042313D01*
Y060699D01*
X042311D01*
Y060797D01*
X042470D01*
Y061009D01*
X042165D01*
Y061196D01*
X042503D01*
X042508Y061220D01*
Y061663D01*
X042549D01*
Y061836D01*
X042018D01*
Y061663D01*
X042059D01*
Y061464D01*
X042002Y061407D01*
X041891D01*
X041871Y061407D01*
X041811Y061457D01*
X041808D01*
X041801Y061457D01*
X041563D01*
Y061614D01*
X041654D01*
Y062244D01*
X041024D01*
Y061614D01*
X041114D01*
Y061457D01*
X041102D01*
Y061327D01*
X038150D01*
X038064Y061310D01*
X037991Y061261D01*
X037518Y060789D01*
X037469Y060716D01*
X037452Y060630D01*
Y058071D01*
X036772D01*
Y058071D01*
X036722Y058022D01*
X036511D01*
Y057717D01*
X036324D01*
Y058022D01*
X036112D01*
Y057975D01*
X035669D01*
X035602Y057966D01*
X035540Y057940D01*
X035487Y057899D01*
X035446Y057846D01*
X035420Y057783D01*
X035411Y057717D01*
X035420Y057650D01*
X035446Y057587D01*
X035487Y057534D01*
X035540Y057493D01*
X035602Y057467D01*
X035669Y057458D01*
X036112D01*
Y057411D01*
X036193D01*
Y057402D01*
X036210Y057316D01*
X036251Y057254D01*
X036229Y057174D01*
X036058D01*
X035996Y057221D01*
X035914Y057255D01*
X035827Y057267D01*
X035739Y057255D01*
X035658Y057221D01*
X035588Y057168D01*
X035534Y057098D01*
X035501Y057016D01*
X035489Y056929D01*
X035501Y056842D01*
X035534Y056760D01*
X035588Y056690D01*
X035658Y056637D01*
Y056552D01*
X035588Y056499D01*
X035534Y056429D01*
X035501Y056347D01*
X035489Y056260D01*
X035501Y056172D01*
X035534Y056091D01*
X035588Y056021D01*
X035658Y055968D01*
X035739Y055934D01*
X035827Y055922D01*
X035914Y055934D01*
X035996Y055968D01*
X036007Y055976D01*
X036417D01*
Y055935D01*
X037047D01*
Y056366D01*
X037055Y056367D01*
X037127Y056416D01*
X037171Y056459D01*
X037209Y056422D01*
X037279Y056375D01*
X037362Y056358D01*
X037362Y056283D01*
Y055935D01*
X037625D01*
X037649Y055911D01*
Y055000D01*
X037559D01*
Y054910D01*
X037283D01*
X037197Y054893D01*
X037181Y054882D01*
X036772D01*
Y054184D01*
X036772Y054176D01*
Y054173D01*
X036821Y054114D01*
X036821Y054093D01*
Y053912D01*
X037431D01*
Y054093D01*
X037431Y054114D01*
X037480Y054173D01*
Y054176D01*
X037480Y054184D01*
Y054367D01*
X037559Y054370D01*
X037559Y054370D01*
X037559Y054370D01*
X038189D01*
Y054460D01*
X038290D01*
X038346Y054404D01*
Y054096D01*
X038346Y054016D01*
Y054016D01*
D01*
X038346Y053936D01*
Y053486D01*
X038275Y053445D01*
X038230Y053490D01*
X038176Y053531D01*
X038145Y053544D01*
X038140Y053546D01*
Y053647D01*
X037608D01*
Y053565D01*
X037488D01*
X037431Y053622D01*
Y053725D01*
X036821D01*
Y053565D01*
X035731D01*
Y054020D01*
X035760Y054043D01*
X035825Y054127D01*
X035866Y054225D01*
X035867Y054237D01*
X035078D01*
X035079Y054225D01*
X035120Y054127D01*
X035185Y054043D01*
X035214Y054020D01*
Y053738D01*
X035158Y053681D01*
X035090D01*
X035069Y053681D01*
X035010Y053730D01*
D01*
X034995D01*
X034980Y053730D01*
X034764D01*
Y053959D01*
X034809Y053994D01*
X034885Y054092D01*
X034933Y054207D01*
X034949Y054331D01*
X034933Y054454D01*
X034885Y054569D01*
X034809Y054668D01*
X034764Y054703D01*
Y059528D01*
X036732Y061496D01*
Y063086D01*
X044409D01*
Y060315D01*
D02*
G37*
G36*
X042112Y055924D02*
X042258Y055835D01*
X042417Y055769D01*
X042584Y055729D01*
X042756Y055715D01*
X044196D01*
X044225Y055635D01*
X044194Y055609D01*
X044121Y055521D01*
X044067Y055420D01*
X044034Y055311D01*
X044023Y055197D01*
X044034Y055083D01*
X044067Y054974D01*
X044121Y054873D01*
X044194Y054784D01*
X044282Y054712D01*
X044383Y054658D01*
X044492Y054625D01*
X044606Y054613D01*
X044720Y054625D01*
X044830Y054658D01*
X044930Y054712D01*
X045019Y054784D01*
X045084Y054863D01*
X045117Y054861D01*
X045164Y054839D01*
Y054177D01*
X045117Y054155D01*
X045084Y054152D01*
X045019Y054232D01*
X044930Y054304D01*
X044830Y054358D01*
X044720Y054391D01*
X044606Y054402D01*
X044492Y054391D01*
X044383Y054358D01*
X044282Y054304D01*
X044194Y054232D01*
X044121Y054143D01*
X044067Y054042D01*
X044034Y053933D01*
X044023Y053819D01*
X044034Y053705D01*
X044067Y053596D01*
X044121Y053495D01*
X044194Y053406D01*
X044282Y053334D01*
X044383Y053280D01*
X044492Y053247D01*
X044606Y053235D01*
X044720Y053247D01*
X044830Y053280D01*
X044930Y053334D01*
X045019Y053406D01*
X045084Y053486D01*
X045117Y053483D01*
X045164Y053461D01*
Y052799D01*
X045117Y052777D01*
X045084Y052774D01*
X045019Y052854D01*
X044930Y052926D01*
X044830Y052980D01*
X044720Y053013D01*
X044606Y053024D01*
X044492Y053013D01*
X044383Y052980D01*
X044282Y052926D01*
X044194Y052854D01*
X044121Y052765D01*
X044067Y052664D01*
X044034Y052555D01*
X044023Y052441D01*
X044034Y052327D01*
X044067Y052218D01*
X044121Y052117D01*
X044194Y052028D01*
X044282Y051956D01*
X044383Y051902D01*
X044492Y051869D01*
X044606Y051857D01*
X044720Y051869D01*
X044830Y051902D01*
X044930Y051956D01*
X045019Y052028D01*
X045084Y052108D01*
X045117Y052105D01*
X045164Y052083D01*
Y051421D01*
X045117Y051399D01*
X045084Y051396D01*
X045019Y051476D01*
X044930Y051548D01*
X044830Y051602D01*
X044720Y051635D01*
X044606Y051647D01*
X044492Y051635D01*
X044383Y051602D01*
X044282Y051548D01*
X044194Y051476D01*
X044121Y051387D01*
X044067Y051286D01*
X044034Y051177D01*
X044023Y051063D01*
X044034Y050949D01*
X044067Y050840D01*
X044121Y050739D01*
X044194Y050650D01*
X044282Y050578D01*
X044383Y050524D01*
X044492Y050491D01*
X044606Y050479D01*
X044720Y050491D01*
X044830Y050524D01*
X044930Y050578D01*
X045019Y050650D01*
X045084Y050730D01*
X045117Y050727D01*
X045164Y050705D01*
Y050043D01*
X045117Y050021D01*
X045084Y050018D01*
X045019Y050098D01*
X044930Y050170D01*
X044830Y050224D01*
X044720Y050257D01*
X044606Y050269D01*
X044492Y050257D01*
X044383Y050224D01*
X044282Y050170D01*
X044194Y050098D01*
X044121Y050009D01*
X044067Y049908D01*
X044034Y049799D01*
X044023Y049685D01*
X044034Y049571D01*
X044067Y049462D01*
X044121Y049361D01*
X044194Y049272D01*
X044282Y049200D01*
X044383Y049146D01*
X044492Y049113D01*
X044606Y049102D01*
X044720Y049113D01*
X044830Y049146D01*
X044930Y049200D01*
X045019Y049272D01*
X045084Y049352D01*
X045117Y049349D01*
X045164Y049327D01*
Y048507D01*
X045084Y048491D01*
X045053Y048565D01*
X044971Y048672D01*
X044864Y048754D01*
X044740Y048806D01*
X044700Y048811D01*
Y048307D01*
Y047803D01*
X044740Y047808D01*
X044864Y047860D01*
X044971Y047942D01*
X045053Y048049D01*
X045084Y048123D01*
X045164Y048107D01*
Y043562D01*
X045157Y043556D01*
X045073Y043545D01*
X044994Y043512D01*
X044926Y043460D01*
X044874Y043392D01*
X044853Y043343D01*
X044830Y043334D01*
X044720Y043368D01*
X044606Y043379D01*
X044492Y043368D01*
X044383Y043334D01*
X044282Y043280D01*
X044194Y043208D01*
X044121Y043119D01*
X044067Y043019D01*
X044034Y042909D01*
X044023Y042795D01*
X044034Y042681D01*
X044067Y042572D01*
X044121Y042471D01*
X044194Y042383D01*
X044282Y042310D01*
X044383Y042256D01*
X044492Y042223D01*
X044606Y042212D01*
X044720Y042223D01*
X044830Y042256D01*
X044853Y042248D01*
X044874Y042198D01*
X044926Y042131D01*
X044994Y042078D01*
X045073Y042046D01*
X045157Y042035D01*
X045164Y042029D01*
Y041776D01*
X045117Y041753D01*
X045084Y041751D01*
X045019Y041830D01*
X044930Y041902D01*
X044830Y041956D01*
X044720Y041990D01*
X044606Y042001D01*
X044492Y041990D01*
X044383Y041956D01*
X044282Y041902D01*
X044194Y041830D01*
X044121Y041742D01*
X044067Y041641D01*
X044034Y041531D01*
X044023Y041417D01*
X044034Y041303D01*
X044067Y041194D01*
X044121Y041093D01*
X044194Y041005D01*
X044282Y040932D01*
X044383Y040878D01*
X044492Y040845D01*
X044606Y040834D01*
X044720Y040845D01*
X044830Y040878D01*
X044930Y040932D01*
X045019Y041005D01*
X045084Y041084D01*
X045117Y041081D01*
X045164Y041059D01*
Y040398D01*
X045117Y040375D01*
X045084Y040373D01*
X045019Y040452D01*
X044930Y040525D01*
X044830Y040578D01*
X044720Y040612D01*
X044606Y040623D01*
X044492Y040612D01*
X044383Y040578D01*
X044282Y040525D01*
X044194Y040452D01*
X044121Y040364D01*
X044067Y040263D01*
X044034Y040153D01*
X044023Y040039D01*
X044034Y039926D01*
X044067Y039816D01*
X044121Y039715D01*
X044194Y039627D01*
X044282Y039554D01*
X044383Y039500D01*
X044492Y039467D01*
X044606Y039456D01*
X044720Y039467D01*
X044830Y039500D01*
X044930Y039554D01*
X045019Y039627D01*
X045084Y039706D01*
X045117Y039703D01*
X045164Y039681D01*
Y039020D01*
X045117Y038997D01*
X045084Y038995D01*
X045019Y039074D01*
X044930Y039147D01*
X044830Y039201D01*
X044720Y039234D01*
X044606Y039245D01*
X044492Y039234D01*
X044383Y039201D01*
X044282Y039147D01*
X044194Y039074D01*
X044121Y038986D01*
X044067Y038885D01*
X044034Y038775D01*
X044023Y038661D01*
X044034Y038548D01*
X044067Y038438D01*
X044121Y038337D01*
X044194Y038249D01*
X044282Y038176D01*
X044383Y038122D01*
X044492Y038089D01*
X044606Y038078D01*
X044720Y038089D01*
X044830Y038122D01*
X044930Y038176D01*
X045019Y038249D01*
X045084Y038328D01*
X045117Y038325D01*
X045164Y038303D01*
Y037642D01*
X045117Y037620D01*
X045084Y037617D01*
X045019Y037696D01*
X044930Y037769D01*
X044830Y037823D01*
X044720Y037856D01*
X044606Y037867D01*
X044492Y037856D01*
X044383Y037823D01*
X044282Y037769D01*
X044194Y037696D01*
X044121Y037608D01*
X044067Y037507D01*
X044034Y037397D01*
X044023Y037283D01*
X044034Y037170D01*
X044067Y037060D01*
X044121Y036959D01*
X044194Y036871D01*
X044282Y036798D01*
X044374Y036749D01*
X044385Y036716D01*
X044388Y036659D01*
X044375Y036649D01*
X044343Y036607D01*
X044319Y036600D01*
X044189Y036530D01*
X044075Y036437D01*
X043981Y036323D01*
X043912Y036193D01*
X043869Y036052D01*
X043855Y035906D01*
X043869Y035759D01*
X043912Y035618D01*
X043981Y035488D01*
X044075Y035374D01*
X044189Y035281D01*
X044313Y035214D01*
X044323Y035191D01*
X044375Y035123D01*
X044443Y035071D01*
X044522Y035038D01*
X044606Y035027D01*
X044691Y035038D01*
X044770Y035071D01*
X044838Y035123D01*
X044862Y035154D01*
X045027D01*
X045033Y035149D01*
X045112Y035117D01*
X045197Y035105D01*
X045282Y035117D01*
X045361Y035149D01*
X045367Y035154D01*
X045885D01*
X045921Y035139D01*
X046088Y035099D01*
X046260Y035085D01*
X046431Y035099D01*
X046598Y035139D01*
X046757Y035205D01*
X046904Y035294D01*
X047035Y035406D01*
X047101Y035484D01*
X047181Y035454D01*
Y033150D01*
X044409D01*
Y030378D01*
X035157D01*
Y042402D01*
X035748Y042992D01*
Y049094D01*
X034370Y050472D01*
Y052047D01*
X034567Y052244D01*
X034764Y052441D01*
Y052827D01*
X034820Y052884D01*
X034980D01*
X034995Y052884D01*
X035010D01*
X035010D01*
X035069Y052933D01*
X035090Y052933D01*
X035261D01*
Y053307D01*
X035448D01*
Y052933D01*
X035669D01*
Y053049D01*
X037367D01*
X037395Y052969D01*
X037389Y052965D01*
X037325Y052881D01*
X037284Y052783D01*
X037270Y052677D01*
X037284Y052572D01*
X037325Y052474D01*
X037389Y052389D01*
X037474Y052325D01*
X037572Y052284D01*
X037677Y052270D01*
X037783Y052284D01*
X037881Y052325D01*
X037965Y052389D01*
X038030Y052474D01*
X038070Y052572D01*
X038084Y052677D01*
X038070Y052783D01*
X038054Y052822D01*
X038122Y052868D01*
X038344Y052646D01*
X038351Y052590D01*
X038385Y052508D01*
X038438Y052438D01*
X038508Y052385D01*
X038584Y052354D01*
Y052677D01*
X038677D01*
Y052771D01*
X039001D01*
X038969Y052846D01*
X038916Y052916D01*
X038846Y052969D01*
X038765Y053003D01*
X038709Y053011D01*
X038327Y053393D01*
X038368Y053465D01*
X038976D01*
Y053515D01*
X040315D01*
X040401Y053532D01*
X040474Y053581D01*
X040515Y053622D01*
X040984D01*
Y053653D01*
X041043D01*
X041129Y053670D01*
X041202Y053719D01*
X041225Y053742D01*
X041299Y053711D01*
Y053622D01*
X041299Y053622D01*
X041299D01*
X041286Y053543D01*
X041270D01*
X041263Y053543D01*
X041260D01*
X041200Y053494D01*
X041180Y053494D01*
X040999D01*
Y053189D01*
Y052884D01*
X041180D01*
X041200Y052884D01*
X041260Y052835D01*
X041263D01*
X041270Y052835D01*
X041968D01*
Y053211D01*
X042008Y053245D01*
X042095Y053257D01*
X042177Y053290D01*
X042247Y053344D01*
X042300Y053414D01*
X042334Y053495D01*
X042345Y053583D01*
X042334Y053670D01*
X042305Y053739D01*
X042337Y053819D01*
X042638D01*
Y054370D01*
X042638D01*
X042638D01*
Y054370D01*
X042638D01*
X042638Y054370D01*
Y054855D01*
X042647Y054922D01*
X042714Y054931D01*
X042714D01*
X042781D01*
Y055197D01*
Y055463D01*
X042678D01*
X042658Y055463D01*
X042598Y055512D01*
X042596D01*
X042588Y055512D01*
X042049D01*
X042047Y055512D01*
X041968Y055515D01*
X041968Y055552D01*
Y055942D01*
X042049Y055978D01*
X042112Y055924D01*
D02*
G37*
%LPC*%
G36*
X039001Y052584D02*
X038771D01*
Y052354D01*
X038846Y052385D01*
X038916Y052438D01*
X038969Y052508D01*
X039001Y052584D01*
D02*
G37*
G36*
X039677Y053084D02*
X039572Y053070D01*
X039474Y053030D01*
X039389Y052965D01*
X039325Y052881D01*
X039284Y052783D01*
X039270Y052677D01*
X039284Y052572D01*
X039325Y052474D01*
X039389Y052389D01*
X039474Y052325D01*
X039572Y052284D01*
X039677Y052270D01*
X039783Y052284D01*
X039881Y052325D01*
X039965Y052389D01*
X040030Y052474D01*
X040070Y052572D01*
X040084Y052677D01*
X040070Y052783D01*
X040030Y052881D01*
X039965Y052965D01*
X039881Y053030D01*
X039783Y053070D01*
X039677Y053084D01*
D02*
G37*
G36*
X040812Y053095D02*
X040600D01*
Y052884D01*
X040812D01*
Y053095D01*
D02*
G37*
G36*
Y053494D02*
X040600D01*
Y053282D01*
X040812D01*
Y053494D01*
D02*
G37*
G36*
X042244Y046693D02*
X041063D01*
X040472Y046102D01*
Y044921D01*
X041063Y044331D01*
X042244D01*
X042835Y044921D01*
Y046102D01*
X042244Y046693D01*
D02*
G37*
G36*
X036732Y044156D02*
X036645Y044145D01*
X036564Y044111D01*
X036494Y044058D01*
X036440Y043988D01*
X036406Y043906D01*
X036395Y043819D01*
X036406Y043732D01*
X036440Y043650D01*
X036494Y043580D01*
X036564Y043527D01*
X036645Y043493D01*
X036732Y043481D01*
X036820Y043493D01*
X036901Y043527D01*
X036971Y043580D01*
X037025Y043650D01*
X037058Y043732D01*
X037070Y043819D01*
X037058Y043906D01*
X037025Y043988D01*
X036971Y044058D01*
X036901Y044111D01*
X036820Y044145D01*
X036732Y044156D01*
D02*
G37*
G36*
X036496Y046715D02*
X036409Y046704D01*
X036327Y046670D01*
X036257Y046617D01*
X036204Y046547D01*
X036170Y046465D01*
X036159Y046378D01*
X036170Y046291D01*
X036204Y046209D01*
X036257Y046139D01*
X036327Y046086D01*
X036409Y046052D01*
X036496Y046040D01*
X036583Y046052D01*
X036665Y046086D01*
X036735Y046139D01*
X036788Y046209D01*
X036822Y046291D01*
X036834Y046378D01*
X036822Y046465D01*
X036788Y046547D01*
X036735Y046617D01*
X036665Y046670D01*
X036583Y046704D01*
X036496Y046715D01*
D02*
G37*
G36*
X044513Y048811D02*
X044473Y048806D01*
X044348Y048754D01*
X044241Y048672D01*
X044159Y048565D01*
X044108Y048441D01*
X044102Y048401D01*
X044513D01*
Y048811D01*
D02*
G37*
G36*
Y048214D02*
X044102D01*
X044108Y048173D01*
X044159Y048049D01*
X044241Y047942D01*
X044348Y047860D01*
X044473Y047808D01*
X044513Y047803D01*
Y048214D01*
D02*
G37*
G36*
X042859Y059080D02*
X042180D01*
Y058401D01*
X042239Y058407D01*
X042386Y058451D01*
X042521Y058524D01*
X042639Y058621D01*
X042736Y058739D01*
X042808Y058874D01*
X042853Y059021D01*
X042859Y059080D01*
D02*
G37*
G36*
X041993D02*
X041315D01*
X041320Y059021D01*
X041365Y058874D01*
X041437Y058739D01*
X041534Y058621D01*
X041653Y058524D01*
X041788Y058451D01*
X041934Y058407D01*
X041993Y058401D01*
Y059080D01*
D02*
G37*
G36*
X042549Y062195D02*
X042377D01*
Y062023D01*
X042549D01*
Y062195D01*
D02*
G37*
G36*
X042190D02*
X042018D01*
Y062023D01*
X042190D01*
Y062195D01*
D02*
G37*
G36*
X042968Y055463D02*
Y055197D01*
Y054931D01*
X043100D01*
Y054960D01*
X043189D01*
X043189Y054960D01*
X043280Y054978D01*
X043356Y055029D01*
X043408Y055106D01*
X043426Y055197D01*
X043408Y055287D01*
X043356Y055364D01*
X043356Y055364D01*
X043280Y055416D01*
X043189Y055434D01*
X043100D01*
Y055463D01*
X042968D01*
D02*
G37*
G36*
X038140Y054006D02*
X037968D01*
Y053834D01*
X038140D01*
Y054006D01*
D02*
G37*
G36*
X037781D02*
X037608D01*
Y053834D01*
X037781D01*
Y054006D01*
D02*
G37*
G36*
X035566Y054725D02*
Y054424D01*
X035867D01*
X035866Y054436D01*
X035825Y054534D01*
X035760Y054619D01*
X035676Y054683D01*
X035578Y054724D01*
X035566Y054725D01*
D02*
G37*
G36*
X035379D02*
X035367Y054724D01*
X035269Y054683D01*
X035185Y054619D01*
X035120Y054534D01*
X035079Y054436D01*
X035078Y054424D01*
X035379D01*
Y054725D01*
D02*
G37*
%LPD*%
D15*
X040118Y060433D02*
D03*
X040669D02*
D03*
X041535D02*
D03*
X042087D02*
D03*
X042323Y055197D02*
D03*
X042874D02*
D03*
X021378Y049016D02*
D03*
X021929D02*
D03*
X021929Y049803D02*
D03*
X021378D02*
D03*
X021929Y050591D02*
D03*
X021378D02*
D03*
X021929Y051378D02*
D03*
X021378D02*
D03*
D17*
X037126Y053819D02*
D03*
Y054528D02*
D03*
X020669Y049843D02*
D03*
Y050551D02*
D03*
X020630Y056102D02*
D03*
Y056811D02*
D03*
D46*
X040906Y053189D02*
D03*
X041614D02*
D03*
X036417Y057717D02*
D03*
X037126D02*
D03*
X041457Y061102D02*
D03*
X042165D02*
D03*
X028425Y061890D02*
D03*
X027717D02*
D03*
X029449Y033228D02*
D03*
X030157D02*
D03*
D47*
X040630Y055197D02*
D03*
Y055748D02*
D03*
X039370Y054685D02*
D03*
Y054134D02*
D03*
X039961Y054134D02*
D03*
Y054685D02*
D03*
X042323Y054094D02*
D03*
Y054646D02*
D03*
X041654Y055197D02*
D03*
Y055748D02*
D03*
X038661Y054291D02*
D03*
Y053740D02*
D03*
X030197Y033898D02*
D03*
Y034449D02*
D03*
X029409Y034449D02*
D03*
Y033898D02*
D03*
D51*
X043189Y055197D02*
X043189Y055197D01*
X042874Y055197D02*
X043189D01*
X021929Y049803D02*
X023110D01*
X023110Y049803D02*
X023110Y049803D01*
X021929Y050591D02*
X023110D01*
X023110Y050591D02*
X023110Y050591D01*
X021929Y051378D02*
X023071D01*
X023071Y051378D01*
X023110D01*
X031614Y060000D02*
Y061496D01*
X031220Y061890D02*
X031614Y061496D01*
X028425Y061890D02*
X031220D01*
X028425Y061890D02*
X028425Y061890D01*
X020630Y055236D02*
Y056102D01*
Y055236D02*
X020984Y054882D01*
X023150D01*
X022756Y052953D02*
Y053228D01*
Y052953D02*
X022953Y052756D01*
X023583D01*
X023740Y052598D01*
Y047835D02*
Y052598D01*
X023228Y047323D02*
X023740Y047835D01*
X020866Y047323D02*
X023228D01*
X020433Y046890D02*
X020866Y047323D01*
X020433Y037717D02*
Y046890D01*
Y037717D02*
X020669Y037480D01*
X023858D01*
X020945Y037992D02*
X023228D01*
X020787Y038150D02*
X020945Y037992D01*
X020787Y038150D02*
Y046772D01*
X021024Y047008D01*
X023425D01*
X024094Y047677D01*
Y052913D01*
X023780Y053228D02*
X024094Y052913D01*
X023504Y053228D02*
X023780D01*
X026772Y056850D02*
Y057244D01*
X027520Y056850D02*
Y057244D01*
X028268Y054291D02*
Y057244D01*
X029016Y054094D02*
Y057244D01*
X029449Y057913D02*
X029488Y057874D01*
Y054055D02*
Y057874D01*
X030354Y053858D02*
Y057913D01*
X030827Y053819D02*
Y057283D01*
X029921Y053976D02*
Y057283D01*
X029173Y044843D02*
Y045197D01*
X029016Y045354D02*
X029173Y045197D01*
X029449Y045630D02*
Y047323D01*
X027795Y044370D02*
Y045118D01*
X027913Y045236D01*
X029961Y052953D02*
X030827Y053819D01*
X029961Y046024D02*
Y052953D01*
X029449Y047323D02*
X029606Y047480D01*
Y053110D01*
X030354Y053858D01*
X029252Y053307D02*
X029921Y053976D01*
X029252Y047677D02*
Y053307D01*
X029016Y047441D02*
X029252Y047677D01*
X029016Y045354D02*
Y047441D01*
X028701Y044409D02*
Y045157D01*
X028661Y045197D02*
X028701Y045157D01*
X028661Y045197D02*
Y047677D01*
X028898Y047913D01*
Y053465D01*
X029488Y054055D01*
X028543Y053622D02*
X029016Y054094D01*
X028543Y048150D02*
Y053622D01*
X028268Y047874D02*
X028543Y048150D01*
X028268Y044803D02*
Y047874D01*
X027913Y045236D02*
Y048110D01*
X028189Y048386D01*
Y054213D01*
X028268Y054291D01*
X027441Y045472D02*
X027559Y045591D01*
Y048307D01*
X027835Y048583D01*
Y056535D01*
X027520Y056850D02*
X027835Y056535D01*
X027008Y045984D02*
X027205Y046181D01*
Y048543D01*
X027480Y048819D01*
Y056142D01*
X026772Y056850D02*
X027480Y056142D01*
X022283Y039764D02*
Y044803D01*
X024724Y047244D01*
Y054685D01*
X023740Y055669D02*
X024724Y054685D01*
X023150Y055669D02*
X023740D01*
X022677Y039921D02*
Y044646D01*
X025157Y047126D01*
Y055748D01*
X024449Y056457D02*
X025157Y055748D01*
X023150Y056457D02*
X024449D01*
X022283Y039764D02*
X024961Y037087D01*
X026693D01*
X027520Y037913D01*
X022677Y039921D02*
X025157Y037441D01*
X026417D01*
X027323Y038346D01*
X028031D01*
X023248Y036299D02*
X023465D01*
D52*
X037008Y057323D02*
X037087Y057244D01*
Y056693D02*
Y057244D01*
X036969Y056575D02*
X037087Y056693D01*
X029409Y035000D02*
X029409Y034449D01*
X035827Y056929D02*
X035846Y056949D01*
X036732D01*
X035827Y056260D02*
X035886Y056201D01*
X036732D01*
X039370Y054134D02*
X040118D01*
X040236Y054252D01*
X040669D01*
X040453Y053878D02*
X040669D01*
X040315Y053740D02*
X040453Y053878D01*
X038661Y053740D02*
X040315D01*
X038661Y054291D02*
Y054488D01*
X038465Y054685D02*
X038661Y054488D01*
X037874Y054685D02*
X038465D01*
X037283D02*
X037874D01*
X037126Y054528D02*
X037283Y054685D01*
X037126Y053307D02*
Y053819D01*
Y053307D02*
X037126Y053307D01*
X037874D02*
Y053740D01*
Y054685D02*
Y056004D01*
X037677Y056201D02*
X037874Y056004D01*
X036732Y056575D02*
X036969D01*
X036496Y057323D02*
X037008D01*
X036417Y057402D02*
X036496Y057323D01*
X036417Y057402D02*
Y057717D01*
X037677Y056949D02*
Y060630D01*
X038150Y061102D01*
X040669Y060433D02*
Y061102D01*
X038150D02*
X040669D01*
X041457D01*
Y060512D02*
Y061102D01*
Y060512D02*
X041535Y060433D01*
X042283Y061220D02*
Y061929D01*
X042087Y060433D02*
Y061024D01*
Y059173D02*
Y060433D01*
Y061024D02*
X042165Y061102D01*
X042283Y061220D01*
X041339Y061220D02*
Y061929D01*
Y061220D02*
X041457Y061102D01*
X042126Y054094D02*
X042323D01*
X041929Y054291D02*
X042126Y054094D01*
X041339Y054291D02*
X041929D01*
X041181Y054134D02*
X041339Y054291D01*
X041181Y054016D02*
Y054134D01*
X041043Y053878D02*
X041181Y054016D01*
X040669Y053878D02*
X041043D01*
X030197Y034449D02*
X030197Y034449D01*
X030197Y034449D02*
Y035000D01*
X029409Y033898D02*
X030197D01*
X029409Y033268D02*
Y033898D01*
X028780Y033268D02*
X029409D01*
X028622Y033110D02*
X028780Y033268D01*
X028622Y033031D02*
Y033110D01*
X030945Y041693D02*
X031339D01*
X029921Y040669D02*
X030945Y041693D01*
X027913Y040669D02*
X029921D01*
X027205Y039961D02*
X027913Y040669D01*
X027795Y040906D02*
X029764D01*
X027677Y041142D02*
X029567D01*
X027559Y041378D02*
X029409D01*
X030984Y042126D02*
X031693D01*
X029764Y040906D02*
X030984Y042126D01*
X031024Y042598D02*
X031378D01*
X029567Y041142D02*
X031024Y042598D01*
X031102Y043071D02*
X031693D01*
X029409Y041378D02*
X031102Y043071D01*
X030984Y043740D02*
Y045197D01*
X029134Y041890D02*
X030984Y043740D01*
X025866Y039606D02*
X025945D01*
X026220Y039961D02*
X027205D01*
X025354Y040157D02*
Y040276D01*
X024843Y039961D02*
Y040197D01*
X027205Y040315D02*
X027795Y040906D01*
X027087Y040551D02*
X027677Y041142D01*
X025354Y040157D02*
X025512Y040315D01*
X027205D01*
X024843Y040197D02*
X025197Y040551D01*
X027087D01*
X026969Y040787D02*
X027559Y041378D01*
X024921Y040787D02*
X026969D01*
X024449Y040315D02*
X024921Y040787D01*
X027441Y041654D02*
X029252D01*
X027047Y041260D02*
X027441Y041654D01*
X024764Y041260D02*
X027047D01*
X027283Y041890D02*
X029134D01*
X027087Y041693D02*
X027283Y041890D01*
X025433Y041693D02*
X027087D01*
X024882Y041772D02*
X025197Y042087D01*
X024724Y042283D02*
X024803Y042362D01*
X030748Y046142D02*
X031260D01*
X031457Y046614D02*
Y046772D01*
Y046614D02*
X031693Y046378D01*
Y045945D02*
Y046378D01*
X031457Y045709D02*
X031693Y045945D01*
X031063Y045709D02*
X031457D01*
X030709Y045354D02*
X031063Y045709D01*
X030709Y043819D02*
Y045354D01*
X029016Y042126D02*
X030709Y043819D01*
X027126Y042126D02*
X029016D01*
X027087Y042087D02*
X027126Y042126D01*
X025197Y042087D02*
X027087D01*
X030433Y045827D02*
X030748Y046142D01*
X030433Y043898D02*
Y045827D01*
X028898Y042362D02*
X030433Y043898D01*
X024803Y042362D02*
X028898D01*
X021378Y050591D02*
Y051378D01*
Y049016D02*
Y049803D01*
X021378Y049016D02*
X021378Y049016D01*
Y049803D02*
Y050591D01*
X020669Y049843D02*
X021339D01*
X021378Y049803D01*
X021929Y049016D02*
X023110D01*
X023110Y049016D01*
X030197Y035000D02*
Y039331D01*
X029921Y039606D02*
X030197Y039331D01*
X026535Y039606D02*
X029921D01*
X030197Y034449D02*
Y035157D01*
X029409Y035000D02*
Y039094D01*
X029291Y039213D02*
X029409Y039094D01*
X026260Y039213D02*
X029291D01*
X025866Y039606D02*
X026260Y039213D01*
X030669Y034016D02*
Y035433D01*
X030551Y033898D02*
X030669Y034016D01*
X030197Y033898D02*
X030551D01*
X031220Y045433D02*
X031811D01*
X030984Y045197D02*
X031220Y045433D01*
X031417Y043819D02*
Y044921D01*
X029252Y041654D02*
X031417Y043819D01*
X023150Y057244D02*
X024843D01*
X025630Y056457D01*
Y047008D02*
Y056457D01*
X023110Y044488D02*
X025630Y047008D01*
X023110Y040039D02*
Y044488D01*
Y040039D02*
X025118Y038031D01*
X026024D01*
D53*
X039528Y056968D02*
Y058583D01*
X040118Y059173D01*
D55*
X041713Y053878D02*
X042008Y053583D01*
X041614Y053878D02*
X041713D01*
X041457Y056220D02*
Y056811D01*
Y056220D02*
X041654Y056024D01*
Y055748D02*
Y056024D01*
X041457Y056811D02*
X042283D01*
X042756D01*
X040000D02*
X040669D01*
Y056142D02*
Y056811D01*
X040630Y056102D02*
X040669Y056142D01*
X040630Y055748D02*
Y056102D01*
Y055748D02*
X040630Y055748D01*
Y054665D02*
Y055197D01*
X041654Y054665D02*
Y055197D01*
Y054665D02*
X042303D01*
X042323Y054685D02*
Y055197D01*
X041654D02*
X042323D01*
X041654Y055197D02*
X041654Y055197D01*
X042303Y054665D02*
X042323Y054685D01*
X041614Y053189D02*
Y053878D01*
X041614Y053189D02*
X041614Y053189D01*
X039370Y054685D02*
X040610D01*
X040630Y054665D01*
X037362Y056575D02*
X037677D01*
X040118Y059173D02*
Y060433D01*
D56*
X032559Y052559D02*
X033031D01*
X033307Y052835D01*
Y053307D01*
X020709Y035394D02*
X021004D01*
X020591Y035276D02*
X020709Y035394D01*
X033307Y053307D02*
X033472Y053472D01*
Y054331D01*
X032472Y053433D02*
X032598Y053307D01*
X032472Y053433D02*
Y054331D01*
X034472Y053480D02*
X034646Y053307D01*
X034472Y053480D02*
Y054331D01*
X035354Y053307D02*
X035472Y053425D01*
Y054331D01*
X035669Y057717D02*
X036417D01*
X038047Y053307D02*
X038677Y052677D01*
X035354Y053307D02*
X037126D01*
X037874D01*
X038047D01*
X030157Y033228D02*
X030984D01*
X030984Y033228D01*
X020669Y050551D02*
Y051811D01*
X021024Y052165D01*
X023110D01*
X020669Y048543D02*
Y049843D01*
Y048543D02*
X020984Y048228D01*
X023110D01*
X024882Y061890D02*
X027717D01*
X024528Y061535D02*
X024882Y061890D01*
X024528Y060000D02*
Y061535D01*
X020630Y056811D02*
Y057677D01*
X020984Y058032D01*
X023110D01*
D60*
X039528Y056968D02*
X039843D01*
X040000Y056811D01*
D61*
X021004Y035394D02*
X023248D01*
D62*
X024921Y032205D02*
X025079Y032362D01*
X024921Y032205D02*
X025000Y032283D01*
Y032283D01*
X025079Y032362D02*
X025098Y032343D01*
X025886D01*
D63*
X045984Y056811D02*
X046260Y056457D01*
Y036181D02*
Y056457D01*
X042756Y056811D02*
X044252D01*
X045984D01*
D64*
X044606Y035906D02*
X046220D01*
X046339Y036024D01*
Y036181D01*
D66*
X039677Y052677D02*
D03*
X038677D02*
D03*
X037677D02*
D03*
X023110Y052165D02*
D03*
D67*
X032472Y054331D02*
D03*
X033472D02*
D03*
X034472D02*
D03*
X035472D02*
D03*
D68*
X029055Y040315D02*
D03*
Y040030D02*
D03*
D69*
X044606Y048307D02*
D03*
Y049685D02*
D03*
Y051063D02*
D03*
Y052441D02*
D03*
Y053819D02*
D03*
Y055197D02*
D03*
Y035906D02*
D03*
Y037283D02*
D03*
Y038661D02*
D03*
Y040039D02*
D03*
Y041417D02*
D03*
Y042795D02*
D03*
D70*
X042087Y059173D02*
D03*
X040118D02*
D03*
D71*
X026329Y031516D02*
D03*
X024695D02*
D03*
D72*
X021575Y031575D02*
D03*
Y061890D02*
D03*
X045984D02*
D03*
Y031575D02*
D03*
X041654Y045512D02*
D03*
D73*
X045669Y042362D02*
D03*
Y042795D02*
D03*
Y043228D02*
D03*
X045157Y042362D02*
D03*
Y042795D02*
D03*
Y043228D02*
D03*
X025000Y032283D02*
D03*
X025886Y032343D02*
D03*
X029409Y035000D02*
D03*
X030197Y035000D02*
D03*
X028622Y033031D02*
D03*
X030984Y033228D02*
D03*
X026535Y039606D02*
D03*
X025866D02*
D03*
X039331Y059173D02*
D03*
Y058583D02*
D03*
X040118D02*
D03*
X039724D02*
D03*
X039331Y058189D02*
D03*
X039724D02*
D03*
X040118D02*
D03*
X039331Y057795D02*
D03*
X039724D02*
D03*
X038937Y058583D02*
D03*
Y058189D02*
D03*
Y057795D02*
D03*
X043740Y056811D02*
D03*
Y057283D02*
D03*
Y056339D02*
D03*
X044252Y057283D02*
D03*
Y056339D02*
D03*
X044764Y056535D02*
D03*
Y057087D02*
D03*
Y057559D02*
D03*
Y056063D02*
D03*
X045236Y056811D02*
D03*
Y057323D02*
D03*
Y056299D02*
D03*
X045630Y057087D02*
D03*
Y056575D02*
D03*
X045197Y035906D02*
D03*
X044606Y035354D02*
D03*
X046142Y035906D02*
D03*
X044606Y036417D02*
D03*
X045157Y036378D02*
D03*
X045197Y035433D02*
D03*
X045709Y036220D02*
D03*
Y035669D02*
D03*
D74*
X036220Y051654D02*
D03*
X039213Y050827D02*
D03*
X036732Y043819D02*
D03*
X036496Y046378D02*
D03*
X035827Y056929D02*
D03*
Y056260D02*
D03*
X031339Y041693D02*
D03*
X031693Y042126D02*
D03*
X031378Y042598D02*
D03*
X031693Y043071D02*
D03*
X026220Y039961D02*
D03*
X025354Y040157D02*
D03*
X024843Y039961D02*
D03*
X024449Y040315D02*
D03*
X024764Y041260D02*
D03*
X025433Y041693D02*
D03*
X024882Y041772D02*
D03*
X024724Y042283D02*
D03*
X031260Y046142D02*
D03*
X031457Y046772D02*
D03*
X031811Y045433D02*
D03*
X031417Y044921D02*
D03*
X023504Y053228D02*
D03*
X022756D02*
D03*
X023858Y037480D02*
D03*
X023228Y037992D02*
D03*
X026772Y057244D02*
D03*
X027520D02*
D03*
X028268D02*
D03*
X029016D02*
D03*
X029449Y057913D02*
D03*
X030354D02*
D03*
X030827Y057283D02*
D03*
X029921D02*
D03*
X028268Y044803D02*
D03*
X028701Y044409D02*
D03*
X029173Y044843D02*
D03*
X029449Y045630D02*
D03*
X029961Y046024D02*
D03*
X027795Y044370D02*
D03*
X027441Y045472D02*
D03*
X027008Y045984D02*
D03*
X027520Y037913D02*
D03*
X023150Y055669D02*
D03*
X028031Y038346D02*
D03*
X023150Y056457D02*
D03*
X026024Y038031D02*
D03*
X033071Y043780D02*
D03*
X033858Y046260D02*
D03*
X032992Y045394D02*
D03*
X025433Y034528D02*
D03*
X026654Y032047D02*
D03*
X027205Y032087D02*
D03*
X031024Y031732D02*
D03*
X028543Y030591D02*
D03*
X023465Y036299D02*
D03*
X026496Y035984D02*
D03*
X031299Y040354D02*
D03*
X031890Y035945D02*
D03*
X032559Y052559D02*
D03*
X030866Y051890D02*
D03*
X026142Y054921D02*
D03*
X026969Y052165D02*
D03*
X032992Y049409D02*
D03*
X033346Y043150D02*
D03*
X031299Y054843D02*
D03*
Y055984D02*
D03*
X032520Y057795D02*
D03*
X021378Y040945D02*
D03*
X025354Y045709D02*
D03*
X031890Y038858D02*
D03*
X021378Y039882D02*
D03*
X025000Y044724D02*
D03*
X032992Y046457D02*
D03*
X039409Y041535D02*
D03*
Y041024D02*
D03*
Y040512D02*
D03*
Y040000D02*
D03*
X039921Y041024D02*
D03*
Y040512D02*
D03*
Y040000D02*
D03*
Y041535D02*
D03*
Y042087D02*
D03*
X039409D02*
D03*
X038858D02*
D03*
X038307D02*
D03*
X037717D02*
D03*
X039409Y039331D02*
D03*
X039921D02*
D03*
Y038701D02*
D03*
X039409D02*
D03*
Y038189D02*
D03*
X039921D02*
D03*
Y037677D02*
D03*
X039409D02*
D03*
Y037165D02*
D03*
X039921D02*
D03*
X038858Y039331D02*
D03*
X038307D02*
D03*
X037717D02*
D03*
X037126D02*
D03*
Y042087D02*
D03*
X039409Y036575D02*
D03*
X039921D02*
D03*
Y036024D02*
D03*
X039409D02*
D03*
X038858D02*
D03*
Y036575D02*
D03*
Y042677D02*
D03*
X039409D02*
D03*
X039921D02*
D03*
X038858Y035472D02*
D03*
X039409D02*
D03*
X039921D02*
D03*
X040472D02*
D03*
X041024D02*
D03*
X036181Y043583D02*
D03*
X035906Y046378D02*
D03*
X036575Y048386D02*
D03*
X039685Y054134D02*
D03*
X043189Y055197D02*
D03*
X040512Y053189D02*
D03*
X042913Y059173D02*
D03*
Y059724D02*
D03*
Y060276D02*
D03*
X043465D02*
D03*
Y059724D02*
D03*
Y059173D02*
D03*
Y058622D02*
D03*
X042913D02*
D03*
X042362D02*
D03*
Y059724D02*
D03*
Y060276D02*
D03*
X042913Y060827D02*
D03*
X043465D02*
D03*
X042913Y061378D02*
D03*
X043465D02*
D03*
X044016D02*
D03*
Y060827D02*
D03*
Y060276D02*
D03*
Y059724D02*
D03*
Y059173D02*
D03*
Y058622D02*
D03*
X041811Y059724D02*
D03*
Y058622D02*
D03*
X042008Y053583D02*
D03*
X039528Y055866D02*
D03*
D75*
X020591Y035276D02*
D03*
X044252Y056811D02*
D03*
D76*
X023228Y034724D02*
D03*
D77*
X035669Y057717D02*
D03*
X030669Y035433D02*
D03*
X031614Y060000D02*
D03*
X024528D02*
D03*
X023110Y058032D02*
D03*
X023150Y054882D02*
D03*
D78*
X023110Y048228D02*
D03*
Y049016D02*
D03*
X023110Y049803D02*
D03*
Y050591D02*
D03*
X023110Y051378D02*
D03*
X023150Y057244D02*
D03*
D94*
X037677Y056201D02*
D03*
Y056575D02*
D03*
Y056949D02*
D03*
X036732D02*
D03*
Y056575D02*
D03*
Y056201D02*
D03*
D95*
X041614Y053878D02*
D03*
Y054626D02*
D03*
X040669D02*
D03*
Y054252D02*
D03*
Y053878D02*
D03*
D96*
X021004Y035394D02*
D03*
D97*
X023248Y034488D02*
D03*
Y035394D02*
D03*
Y036299D02*
D03*
D98*
X042283Y056811D02*
D03*
X040000D02*
D03*
D99*
X041339Y061929D02*
D03*
X042283D02*
D03*
D100*
X037874Y054685D02*
D03*
Y053740D02*
D03*
D101*
X035354Y053307D02*
D03*
X034646D02*
D03*
X033307D02*
D03*
X032598D02*
D03*
D102*
X037323Y056614D02*
X037362Y056575D01*
X037323Y056614D02*
Y057520D01*
X037126Y057717D02*
X037323Y057520D01*
M02*
