G04 DipTrace 2.4.0.2*
%INUSBBiPowerOTG.gbl*%
%MOMM*%
%ADD13C,0.305*%
%ADD15C,0.203*%
%ADD16C,1.067*%
%ADD20C,0.457*%
%ADD22C,0.66*%
%ADD28C,0.735*%
%ADD29C,0.114*%
%ADD33C,0.787*%
%ADD42R,1.6X1.7*%
%ADD43R,2.0X1.7*%
%ADD49R,1.7X1.6*%
%ADD50R,1.7X2.0*%
%ADD76C,0.711*%
%ADD85R,1.7X2.032*%
%ADD88C,1.092*%
%ADD89C,1.092*%
%ADD91C,0.711*%
%FSLAX53Y53*%
G04*
G71*
G90*
G75*
G01*
%LNBottom*%
%LPD*%
X20296Y16709D2*
D13*
X21597D1*
X23376Y14930D1*
X23944D1*
X25064Y13810D1*
X25348D1*
X26510D1*
X27780D1*
X19707Y23521D2*
D16*
X19855D1*
X20510Y24342D1*
X20568Y27587D1*
X25348Y29050D2*
D28*
X26248D1*
D16*
X26510D1*
X27780D1*
X12433Y13810D2*
D28*
X11532D1*
D16*
X11270D1*
X10000D2*
X11270D1*
X18890Y30428D2*
D29*
Y31590D1*
Y32860D1*
X21430Y30425D2*
Y31590D1*
Y32860D1*
X25348Y26510D2*
D13*
X26510D1*
X27780D1*
X23970Y30428D2*
Y31590D1*
Y32860D1*
X12433Y16350D2*
X11270D1*
X10000D1*
X16350Y30428D2*
D15*
Y31590D1*
Y32860D1*
X19715Y19331D2*
Y17903D1*
X20277Y17341D1*
X24357D1*
X25348Y16350D1*
X26510D1*
X27780D1*
X12433Y26510D2*
X11270D1*
X10000D1*
X14271Y22711D2*
Y20906D1*
X16617Y18559D1*
X19214D1*
X19658Y19004D1*
Y19331D1*
X19715D1*
X25348Y21430D2*
X26510D1*
X27780D1*
X12433D2*
X11270D1*
X10000D1*
X17771Y25236D2*
Y25124D1*
X18234Y25587D1*
X19290D1*
X19681Y25196D1*
Y24524D1*
X19378Y24221D1*
X19323D1*
X18882Y23780D1*
Y23243D1*
X19082Y23043D1*
Y22416D1*
X19386Y22112D1*
X19798D1*
X20056Y22370D1*
X20656D1*
X21002Y22025D1*
X23182D1*
X23715Y22558D1*
X25382D1*
X26510Y21430D1*
X17771Y25236D2*
Y24980D1*
X17077Y24286D1*
X16649D1*
X16547Y24388D1*
X16669D1*
X15977Y25081D1*
X12766D1*
X12705Y25141D1*
X13810Y30428D2*
Y31590D1*
Y32860D1*
X14973Y22716D2*
X15040D1*
Y21522D1*
X17659Y18904D1*
X18996D1*
X19247Y19155D1*
Y19543D1*
X19520Y19816D1*
X19949D1*
X20381Y19384D1*
X20304D1*
X15150Y25724D2*
X16278D1*
X16533Y25470D1*
X12433Y29050D2*
X11270D1*
X10000D1*
X14608Y23192D2*
X15220D1*
X15440Y22972D1*
Y21667D1*
X17173Y19933D1*
X18193D1*
X18407Y20147D1*
X20506D1*
X20930Y19724D1*
Y19392D1*
X20894D1*
X14621Y25992D2*
X14679D1*
X14933Y26246D1*
X15379D1*
X15569Y26055D1*
X16670D1*
X17018Y25708D1*
Y25051D1*
X16892Y24925D1*
X12433Y23970D2*
D16*
X14393Y24124D1*
X15574D1*
X16099Y23600D1*
X16951Y22864D1*
G03X18958Y20948I1857J-64D01*
G01*
X19916Y20930D1*
X23036Y20911D1*
X24118Y19599D1*
X25167Y18878D1*
D28*
X24710Y19527D1*
X25348Y18890D1*
X26248D1*
D16*
X26510D1*
X27780D1*
X12433Y23970D2*
D28*
X11532D1*
D16*
X11270D1*
X10000D1*
X19010Y24844D2*
D22*
X18713Y24716D1*
D16*
X17153Y23208D1*
X16099Y23600D1*
X18531Y17875D2*
D22*
X17807D1*
D33*
X13793D1*
D22*
Y18262D1*
X13488Y18567D1*
X19617Y22623D2*
D15*
Y22758D1*
X20839D1*
X21230Y22367D1*
X23053D1*
X23835Y23148D1*
Y23786D1*
X24186Y24138D1*
X26510Y23970D2*
D33*
X26044D1*
X24973Y25041D1*
X23820D1*
X23133Y25727D1*
X22299D1*
X21892Y26135D1*
Y27901D1*
X21060Y28733D1*
X17527D1*
X13484Y26262D1*
X25348Y23970D2*
D28*
X26109D1*
D33*
X26510D1*
X27780D1*
X12433Y18890D2*
D28*
X11671D1*
D33*
X11270D1*
X10000D1*
D20*
X24186Y24138D3*
X18699Y19636D3*
X19715Y19331D3*
X20304Y19384D3*
X20894Y19392D3*
X22384Y19412D3*
X23376Y14930D3*
X22680Y13192D3*
X20296Y16709D3*
X20174Y21821D3*
X24191Y16492D3*
X24134Y21305D3*
D22*
X19010Y24844D3*
X19707Y23521D3*
D20*
X20270Y18536D3*
X23014Y18493D3*
X23792Y18277D3*
X24540Y15108D3*
X19617Y22623D3*
X14047Y29699D3*
X16533Y25470D3*
X16892Y24925D3*
X17771Y25236D3*
X13410Y21130D3*
D22*
X20568Y27587D3*
X13484Y26262D3*
D91*
X19263Y26178D3*
D20*
X16123Y26575D3*
X16093Y29233D3*
X18713Y27700D3*
X14077Y27792D3*
D22*
X18620Y22035D3*
X18531Y17875D3*
X13488Y18567D3*
D20*
X14271Y22711D3*
X14608Y23192D3*
X14973Y22716D3*
X14621Y25992D3*
X15150Y25724D3*
X12705Y25141D3*
X13139Y27105D3*
X14870Y19208D3*
D42*
X26510Y13810D3*
G36*
X25250Y14660D2*
X25715D1*
Y12960D1*
X25250D1*
X24980Y13485D1*
Y14135D1*
X25250Y14660D1*
G37*
D43*
X27780Y13810D3*
D42*
X11270D3*
G36*
X12530Y12960D2*
X12065D1*
Y14660D1*
X12530D1*
X12800Y14135D1*
Y13485D1*
X12530Y12960D1*
G37*
D43*
X10000Y13810D3*
D42*
X26510Y29050D3*
G36*
X25250Y29900D2*
X25715D1*
Y28200D1*
X25250D1*
X24980Y28725D1*
Y29375D1*
X25250Y29900D1*
G37*
D43*
X27780Y29050D3*
D42*
X26510Y26510D3*
G36*
X25250Y27360D2*
X25715D1*
Y25660D1*
X25250D1*
X24980Y26185D1*
Y26835D1*
X25250Y27360D1*
G37*
D43*
X27780Y26510D3*
D49*
X23970Y31590D3*
G36*
X23120Y30330D2*
Y30795D1*
X24820D1*
Y30330D1*
X24295Y30060D1*
X23645D1*
X23120Y30330D1*
G37*
D50*
X23970Y32860D3*
D42*
X11270Y16350D3*
G36*
X12530Y15500D2*
X12065D1*
Y17200D1*
X12530D1*
X12800Y16675D1*
Y16025D1*
X12530Y15500D1*
G37*
D43*
X10000Y16350D3*
D42*
X11270Y26510D3*
G36*
X12530Y25660D2*
X12065D1*
Y27360D1*
X12530D1*
X12800Y26835D1*
Y26185D1*
X12530Y25660D1*
G37*
D43*
X10000Y26510D3*
D42*
X26510Y16350D3*
G36*
X25250Y17200D2*
X25715D1*
Y15500D1*
X25250D1*
X24980Y16025D1*
Y16675D1*
X25250Y17200D1*
G37*
D43*
X27780Y16350D3*
D42*
X11270Y21430D3*
G36*
X12530Y20580D2*
X12065D1*
Y22280D1*
X12530D1*
X12800Y21755D1*
Y21105D1*
X12530Y20580D1*
G37*
D43*
X10000Y21430D3*
D42*
X26510D3*
G36*
X25250Y22280D2*
X25715D1*
Y20580D1*
X25250D1*
X24980Y21105D1*
Y21755D1*
X25250Y22280D1*
G37*
D43*
X27780Y21430D3*
D49*
X13810Y31590D3*
G36*
X12960Y30330D2*
Y30795D1*
X14660D1*
Y30330D1*
X14135Y30060D1*
X13485D1*
X12960Y30330D1*
G37*
D50*
X13810Y32860D3*
D42*
X11270Y29050D3*
G36*
X12530Y28200D2*
X12065D1*
Y29900D1*
X12530D1*
X12800Y29375D1*
Y28725D1*
X12530Y28200D1*
G37*
D43*
X10000Y29050D3*
D76*
X21565Y24668D3*
X22515D3*
X21565Y22968D3*
X22040Y23818D3*
X22515Y22968D3*
G36*
X19043Y26708D2*
X19014Y26899D1*
X18954Y27046D1*
X18878Y27140D1*
X18802Y27216D1*
X18689Y27280D1*
X18624Y27305D1*
X18529Y27326D1*
X18478Y27336D1*
X18396Y27341D1*
X18331Y27318D1*
X18293Y27280D1*
X18267Y27255D1*
X18203Y27242D1*
X18178Y27247D1*
X18127Y27262D1*
X18100Y27293D1*
X18001Y27211D1*
X18051Y27135D1*
Y27117D1*
X17962Y27081D1*
X17950Y27026D1*
X17940Y26924D1*
X18192Y27031D1*
X18224D1*
X18267Y27023D1*
X18277Y27001D1*
X18257Y26950D1*
X18142Y26886D1*
X17970Y26815D1*
X17996Y26765D1*
X18059Y26710D1*
X18250Y26785D1*
X18243Y26747D1*
Y26708D1*
X19043D1*
G37*
D49*
X21430Y31590D3*
X18890D3*
X16350D3*
G36*
X18040Y30330D2*
Y30795D1*
X19740D1*
Y30330D1*
X19215Y30060D1*
X18565D1*
X18040Y30330D1*
G37*
G36*
X20580D2*
Y30790D1*
X22280D1*
Y30330D1*
X21755Y30060D1*
X21105D1*
X20580Y30330D1*
G37*
D85*
X21430Y32860D3*
G36*
X15500Y30330D2*
Y30795D1*
X17200D1*
Y30330D1*
X16675Y30060D1*
X16025D1*
X15500Y30330D1*
G37*
D85*
X18890Y32860D3*
X16350D3*
D88*
X15219Y14402D3*
D89*
X19669D3*
G36*
X22476Y12024D2*
Y10780D1*
X21829Y10452D1*
X20566D1*
Y12352D1*
X21829D1*
X22476Y12024D1*
G37*
G36*
X12412Y10780D2*
Y12024D1*
X13059Y12352D1*
X14322D1*
Y10452D1*
X13059D1*
X12412Y10780D1*
G37*
D42*
X26510Y18890D3*
G36*
X25250Y19740D2*
X25715D1*
Y18040D1*
X25250D1*
X24980Y18565D1*
Y19215D1*
X25250Y19740D1*
G37*
D43*
X27780Y18890D3*
D42*
X11270Y23970D3*
G36*
X12530Y23120D2*
X12065D1*
Y24820D1*
X12530D1*
X12800Y24295D1*
Y23645D1*
X12530Y23120D1*
G37*
D43*
X10000Y23970D3*
D42*
X26510D3*
G36*
X25250Y24820D2*
X25715D1*
Y23120D1*
X25250D1*
X24980Y23645D1*
Y24295D1*
X25250Y24820D1*
G37*
D43*
X27780Y23970D3*
D42*
X11270Y18890D3*
G36*
X12530Y18040D2*
X12065D1*
Y19740D1*
X12530D1*
X12800Y19215D1*
Y18565D1*
X12530Y18040D1*
G37*
D43*
X10000Y18890D3*
M02*
