G04 (created by PCBNEW-RS274X (2011-05-25)-stable) date Thu 28 Jun 2012 06:58:27 AM EDT*
G01*
G70*
G90*
%MOIN*%
G04 Gerber Fmt 3.4, Leading zero omitted, Abs format*
%FSLAX34Y34*%
G04 APERTURE LIST*
%ADD10C,0.006000*%
%ADD11C,0.055000*%
%ADD12C,0.089000*%
%ADD13C,0.075200*%
%ADD14C,0.246100*%
%ADD15R,0.055000X0.055000*%
%ADD16C,0.008000*%
G04 APERTURE END LIST*
G54D10*
G54D11*
X41850Y-46425D03*
X41850Y-43425D03*
X43180Y-48430D03*
X46180Y-48430D03*
X47600Y-46675D03*
X47600Y-43675D03*
X40600Y-46425D03*
X40600Y-43425D03*
X48850Y-46675D03*
X48850Y-43675D03*
G54D12*
X43600Y-47175D03*
G54D13*
X45057Y-47175D03*
G54D12*
X46159Y-47175D03*
X46159Y-43120D03*
G54D13*
X45057Y-43120D03*
G54D12*
X43600Y-43120D03*
G54D14*
X48175Y-41325D03*
X41325Y-41325D03*
X41325Y-48175D03*
X48175Y-48175D03*
G54D15*
X43700Y-40880D03*
G54D11*
X44700Y-40880D03*
X45700Y-40880D03*
G54D16*
X46159Y-43120D02*
X46159Y-42839D01*
X44102Y-41576D02*
X43700Y-40880D01*
X45000Y-41576D02*
X44102Y-41576D01*
X46159Y-42839D02*
X45000Y-41576D01*
X43600Y-47175D02*
X43600Y-47050D01*
X42975Y-46425D02*
X41850Y-46425D01*
X43600Y-47050D02*
X42975Y-46425D01*
X43180Y-48430D02*
X43600Y-47150D01*
X43600Y-47150D02*
X43600Y-47175D01*
X48850Y-43675D02*
X48850Y-43260D01*
X45290Y-40256D02*
X44700Y-40880D01*
X46120Y-40256D02*
X45290Y-40256D01*
X46390Y-40590D02*
X46120Y-40256D01*
X46390Y-41810D02*
X46390Y-40590D01*
X47460Y-42880D02*
X46390Y-41810D01*
X48470Y-42880D02*
X47460Y-42880D01*
X48850Y-43260D02*
X48470Y-42880D01*
X45700Y-40880D02*
X45606Y-41570D01*
X47192Y-43156D02*
X48016Y-43156D01*
X48256Y-46084D02*
X48150Y-46190D01*
X48256Y-43396D02*
X48256Y-46084D01*
X45606Y-41570D02*
X47192Y-43156D01*
X48016Y-43156D02*
X48256Y-43396D01*
X46150Y-45600D02*
X41100Y-45600D01*
X46159Y-46209D02*
X46150Y-45600D01*
X47300Y-45600D02*
X48150Y-46190D01*
X41100Y-45600D02*
X40600Y-46125D01*
X46150Y-45600D02*
X46850Y-45600D01*
X46159Y-47175D02*
X46150Y-45600D01*
X48150Y-46190D02*
X48850Y-46675D01*
X46159Y-47175D02*
X46159Y-46209D01*
X40600Y-46125D02*
X40600Y-46425D01*
X46800Y-45600D02*
X47300Y-45600D01*
X46850Y-45600D02*
X46800Y-45600D01*
X47200Y-44075D02*
X47600Y-43675D01*
X45057Y-43120D02*
X45057Y-43432D01*
X45700Y-44075D02*
X47200Y-44075D01*
X40600Y-43400D02*
X41136Y-42906D01*
X44374Y-42218D02*
X43128Y-42190D01*
X45062Y-43126D02*
X44374Y-42218D01*
X40600Y-43425D02*
X40600Y-43400D01*
X42234Y-42906D02*
X43128Y-42190D01*
X45057Y-43432D02*
X45700Y-44075D01*
X45057Y-43120D02*
X45062Y-43126D01*
X41136Y-42906D02*
X42234Y-42906D01*
X42934Y-43120D02*
X42640Y-43414D01*
X42640Y-43414D02*
X41861Y-43414D01*
X41861Y-43414D02*
X41850Y-43425D01*
X43600Y-43120D02*
X42934Y-43120D01*
X47600Y-46675D02*
X47529Y-46675D01*
X46948Y-47264D02*
X46587Y-47863D01*
X47529Y-46675D02*
X46948Y-47264D01*
X46180Y-48430D02*
X46180Y-48430D01*
X46180Y-48430D02*
X46180Y-48430D01*
X46587Y-47863D02*
X46180Y-48430D01*
X45057Y-47175D02*
X45057Y-47382D01*
X45057Y-47382D02*
X46180Y-48430D01*
M02*
