%FSLAX42Y42*%
%MOMM*%
G71*
G01*
G75*
G04 Layer_Physical_Order=2*
G04 Layer_Color=16711680*
%ADD10C,0.40*%
%ADD11C,0.30*%
%ADD12C,2.54*%
G04:AMPARAMS|DCode=13|XSize=1.52mm|YSize=1.78mm|CornerRadius=0.19mm|HoleSize=0mm|Usage=FLASHONLY|Rotation=180.000|XOffset=0mm|YOffset=0mm|HoleType=Round|Shape=RoundedRectangle|*
%AMROUNDEDRECTD13*
21,1,1.52,1.40,0,0,180.0*
21,1,1.14,1.78,0,0,180.0*
1,1,0.38,-0.57,0.70*
1,1,0.38,0.57,0.70*
1,1,0.38,0.57,-0.70*
1,1,0.38,-0.57,-0.70*
%
%ADD13ROUNDEDRECTD13*%
%ADD14O,1.52X1.78*%
G04:AMPARAMS|DCode=15|XSize=1.52mm|YSize=1.78mm|CornerRadius=0.19mm|HoleSize=0mm|Usage=FLASHONLY|Rotation=270.000|XOffset=0mm|YOffset=0mm|HoleType=Round|Shape=RoundedRectangle|*
%AMROUNDEDRECTD15*
21,1,1.52,1.40,0,0,270.0*
21,1,1.14,1.78,0,0,270.0*
1,1,0.38,-0.70,-0.57*
1,1,0.38,-0.70,0.57*
1,1,0.38,0.70,0.57*
1,1,0.38,0.70,-0.57*
%
%ADD15ROUNDEDRECTD15*%
%ADD16O,1.78X1.52*%
%ADD17C,2.95*%
%ADD18C,2.65*%
%ADD19C,1.50*%
%ADD20R,1.50X1.50*%
%ADD21R,1.50X1.50*%
%ADD22C,1.50*%
%ADD23C,4.80*%
%ADD24C,1.69*%
%ADD25R,1.69X1.69*%
%ADD26C,2.40*%
G04:AMPARAMS|DCode=27|XSize=2mm|YSize=2mm|CornerRadius=0.25mm|HoleSize=0mm|Usage=FLASHONLY|Rotation=270.000|XOffset=0mm|YOffset=0mm|HoleType=Round|Shape=RoundedRectangle|*
%AMROUNDEDRECTD27*
21,1,2.00,1.50,0,0,270.0*
21,1,1.50,2.00,0,0,270.0*
1,1,0.50,-0.75,-0.75*
1,1,0.50,-0.75,0.75*
1,1,0.50,0.75,0.75*
1,1,0.50,0.75,-0.75*
%
%ADD27ROUNDEDRECTD27*%
%ADD28C,2.00*%
G04:AMPARAMS|DCode=29|XSize=2.54mm|YSize=2.54mm|CornerRadius=0.32mm|HoleSize=0mm|Usage=FLASHONLY|Rotation=180.000|XOffset=0mm|YOffset=0mm|HoleType=Round|Shape=RoundedRectangle|*
%AMROUNDEDRECTD29*
21,1,2.54,1.91,0,0,180.0*
21,1,1.91,2.54,0,0,180.0*
1,1,0.64,-0.95,0.95*
1,1,0.64,0.95,0.95*
1,1,0.64,0.95,-0.95*
1,1,0.64,-0.95,-0.95*
%
%ADD29ROUNDEDRECTD29*%
G36*
X9474Y7914D02*
X9470Y7938D01*
X9460Y7963D01*
X9444Y7984D01*
X9423Y8000D01*
X9399Y8010D01*
X9373Y8013D01*
X9346Y8010D01*
X9322Y8000D01*
X9301Y7984D01*
X9285Y7963D01*
X9275Y7938D01*
X9271Y7912D01*
X9275Y7886D01*
X9277Y7882D01*
X9218Y7823D01*
X9218Y7823D01*
X8673Y7278D01*
X8193D01*
X7725Y7745D01*
X8559D01*
X8539Y7730D01*
X8523Y7709D01*
X8513Y7684D01*
X8509Y7658D01*
X8513Y7632D01*
X8523Y7607D01*
X8539Y7586D01*
X8560Y7570D01*
X8584Y7560D01*
X8611Y7557D01*
X8637Y7560D01*
X8661Y7570D01*
X8682Y7586D01*
X8698Y7607D01*
X8708Y7632D01*
X8712Y7658D01*
X8708Y7684D01*
X8698Y7709D01*
X8682Y7730D01*
X8662Y7745D01*
X8998D01*
X8998Y7745D01*
X9016Y7749D01*
X9031Y7759D01*
X9342Y8070D01*
X9346Y8068D01*
X9373Y8065D01*
X9399Y8068D01*
X9423Y8078D01*
X9444Y8094D01*
X9460Y8115D01*
X9470Y8140D01*
X9474Y8164D01*
Y7914D01*
D02*
G37*
G36*
X4109Y5410D02*
X4109Y5410D01*
X4118Y5404D01*
X4124Y5400D01*
X4142Y5397D01*
X4976D01*
X4970Y5393D01*
X4954Y5372D01*
X4952Y5368D01*
X3778D01*
X3656Y5490D01*
Y5863D01*
X4109Y5410D01*
D02*
G37*
G36*
X7358Y8001D02*
X7358Y8001D01*
X7362Y7983D01*
X7372Y7968D01*
X8141Y7199D01*
X8156Y7189D01*
X8174Y7185D01*
X8174Y7185D01*
X8692D01*
X8692Y7185D01*
X8710Y7189D01*
X8725Y7199D01*
X9204Y7678D01*
Y7247D01*
X9204Y7247D01*
X9208Y7229D01*
X9218Y7214D01*
X9720Y6712D01*
X9714Y6701D01*
X9705Y6672D01*
X9702Y6642D01*
X9705Y6612D01*
X9714Y6583D01*
X9728Y6557D01*
X9747Y6534D01*
X9770Y6515D01*
X9797Y6501D01*
X9825Y6492D01*
X9855Y6489D01*
X9885Y6492D01*
X9914Y6501D01*
X9940Y6515D01*
X9963Y6534D01*
X9983Y6557D01*
X9997Y6583D01*
X10005Y6612D01*
X10008Y6642D01*
X10005Y6672D01*
X9997Y6701D01*
X9983Y6727D01*
X9963Y6750D01*
X9940Y6769D01*
X9914Y6784D01*
X9885Y6792D01*
X9855Y6795D01*
X9825Y6792D01*
X9797Y6784D01*
X9785Y6778D01*
X9297Y7266D01*
Y7338D01*
X9301Y7332D01*
X9322Y7316D01*
X9346Y7306D01*
X9373Y7303D01*
X9399Y7306D01*
X9423Y7316D01*
X9444Y7332D01*
X9460Y7353D01*
X9470Y7378D01*
X9474Y7404D01*
X9470Y7430D01*
X9460Y7455D01*
X9444Y7476D01*
X9423Y7492D01*
X9399Y7502D01*
X9373Y7505D01*
X9346Y7502D01*
X9322Y7492D01*
X9301Y7476D01*
X9297Y7470D01*
Y7592D01*
X9301Y7586D01*
X9322Y7570D01*
X9346Y7560D01*
X9373Y7557D01*
X9399Y7560D01*
X9423Y7570D01*
X9444Y7586D01*
X9460Y7607D01*
X9470Y7632D01*
X9474Y7658D01*
X9470Y7684D01*
X9460Y7709D01*
X9444Y7730D01*
X9423Y7746D01*
X9399Y7756D01*
X9373Y7759D01*
X9346Y7756D01*
X9322Y7746D01*
X9301Y7730D01*
X9297Y7724D01*
Y7771D01*
X9342Y7816D01*
X9346Y7814D01*
X9373Y7811D01*
X9399Y7814D01*
X9423Y7824D01*
X9444Y7840D01*
X9460Y7861D01*
X9470Y7886D01*
X9474Y7910D01*
Y7790D01*
X9474Y7790D01*
X9477Y7772D01*
X9487Y7757D01*
X9619Y7625D01*
X9634Y7615D01*
X9652Y7612D01*
X9652Y7612D01*
X9710D01*
X9714Y7599D01*
X9728Y7573D01*
X9747Y7550D01*
X9770Y7531D01*
X9797Y7517D01*
X9825Y7508D01*
X9855Y7505D01*
X9885Y7508D01*
X9914Y7517D01*
X9940Y7531D01*
X9963Y7550D01*
X9983Y7573D01*
X9997Y7599D01*
X10005Y7628D01*
X10008Y7658D01*
X10005Y7688D01*
X9997Y7717D01*
X9983Y7743D01*
X9963Y7766D01*
X9940Y7785D01*
X9914Y7800D01*
X9885Y7808D01*
X9855Y7811D01*
X9825Y7808D01*
X9797Y7800D01*
X9770Y7785D01*
X9747Y7766D01*
X9728Y7743D01*
X9714Y7717D01*
X9710Y7704D01*
X9671D01*
X9566Y7809D01*
Y7955D01*
X9668Y7854D01*
X9668Y7854D01*
X9683Y7844D01*
X9700Y7840D01*
X9700Y7840D01*
X10001D01*
X10050Y7791D01*
Y6544D01*
X9966Y6460D01*
X9709D01*
X9464Y6705D01*
X9449Y6715D01*
X9431Y6719D01*
X9431Y6719D01*
X8013D01*
X7995Y6715D01*
X7980Y6705D01*
X7980Y6705D01*
X7879Y6605D01*
X7869Y6590D01*
X7866Y6572D01*
X7866Y6572D01*
Y6236D01*
X7866Y6236D01*
X7869Y6218D01*
X7879Y6203D01*
X7938Y6145D01*
X7938Y6145D01*
X7953Y6135D01*
X7964Y6132D01*
Y6077D01*
X8165D01*
Y6278D01*
X7964D01*
Y6249D01*
X7958Y6255D01*
Y6553D01*
X8032Y6626D01*
X8517D01*
X8420Y6529D01*
X8419Y6529D01*
X8395Y6519D01*
X8374Y6503D01*
X8358Y6482D01*
X8348Y6458D01*
X8344Y6432D01*
X8348Y6405D01*
X8358Y6381D01*
X8374Y6360D01*
X8395Y6344D01*
X8419Y6334D01*
X8446Y6330D01*
X8472Y6334D01*
X8496Y6344D01*
X8517Y6360D01*
X8533Y6381D01*
X8543Y6405D01*
X8547Y6432D01*
X8543Y6458D01*
X8533Y6482D01*
X8520Y6499D01*
X8576Y6555D01*
X9331D01*
X9607Y6279D01*
X9607Y6279D01*
X9616Y6273D01*
X9622Y6269D01*
X9639Y6266D01*
X10039D01*
X10039Y6266D01*
X10057Y6269D01*
X10072Y6279D01*
X10231Y6438D01*
X10231Y6438D01*
X10241Y6453D01*
X10244Y6471D01*
X10244Y6471D01*
Y7871D01*
X10241Y7889D01*
X10231Y7904D01*
X10231Y7904D01*
X10114Y8021D01*
X10099Y8031D01*
X10081Y8035D01*
X10081Y8035D01*
X9831D01*
X9719Y8147D01*
Y8192D01*
X9739Y8171D01*
X9739Y8171D01*
X9754Y8161D01*
X9771Y8158D01*
X9777D01*
X9779Y8153D01*
X9795Y8132D01*
X9817Y8115D01*
X9841Y8105D01*
X9868Y8102D01*
X9893D01*
X9920Y8105D01*
X9945Y8115D01*
X9966Y8132D01*
X9982Y8153D01*
X9984Y8158D01*
X9990D01*
X9990Y8158D01*
X9990Y8158D01*
X10141D01*
X10253Y8045D01*
Y6443D01*
X9158Y5347D01*
X7639D01*
X7565Y5422D01*
Y5677D01*
X7565Y5677D01*
X7561Y5695D01*
X7551Y5710D01*
X7239Y6022D01*
X7241Y6025D01*
X7249Y6053D01*
X7252Y6083D01*
X7249Y6113D01*
X7241Y6142D01*
X7227Y6168D01*
X7208Y6192D01*
X7184Y6211D01*
X7158Y6225D01*
X7129Y6233D01*
X7099Y6236D01*
X7069Y6233D01*
X7041Y6225D01*
X7038Y6223D01*
X6764Y6497D01*
X6749Y6507D01*
X6731Y6511D01*
X6713Y6507D01*
X6711Y6505D01*
X6619D01*
X6638Y6520D01*
X6654Y6541D01*
X6664Y6565D01*
X6667Y6591D01*
X6664Y6618D01*
X6654Y6642D01*
X6638Y6663D01*
X6617Y6679D01*
X6592Y6689D01*
X6566Y6693D01*
X6540Y6689D01*
X6515Y6679D01*
X6494Y6663D01*
X6478Y6642D01*
X6468Y6618D01*
X6465Y6591D01*
X6468Y6565D01*
X6478Y6541D01*
X6494Y6520D01*
X6513Y6505D01*
X6463D01*
X5916Y7053D01*
X6058D01*
X6058Y7053D01*
X6076Y7057D01*
X6091Y7067D01*
X6535Y7511D01*
X6540Y7509D01*
X6566Y7506D01*
X6592Y7509D01*
X6617Y7520D01*
X6638Y7536D01*
X6654Y7557D01*
X6664Y7581D01*
X6667Y7607D01*
X6664Y7634D01*
X6654Y7658D01*
X6638Y7679D01*
X6617Y7695D01*
X6592Y7705D01*
X6566Y7709D01*
X6540Y7705D01*
X6515Y7695D01*
X6494Y7679D01*
X6478Y7658D01*
X6468Y7634D01*
X6465Y7607D01*
X6468Y7581D01*
X6470Y7577D01*
X6039Y7146D01*
X5804D01*
X5804Y7146D01*
X5804Y7146D01*
X5131D01*
X5130Y7150D01*
X5114Y7171D01*
X5093Y7187D01*
X5068Y7197D01*
X5042Y7201D01*
X5016Y7197D01*
X4991Y7187D01*
X4970Y7171D01*
X4954Y7150D01*
X4944Y7126D01*
X4941Y7099D01*
X4944Y7073D01*
X4954Y7049D01*
X4970Y7028D01*
X4976Y7024D01*
X4891D01*
X4829Y7085D01*
Y7501D01*
X4946Y7384D01*
X4944Y7380D01*
X4942Y7366D01*
X5029D01*
Y7453D01*
X5016Y7451D01*
X5011Y7449D01*
X4902Y7558D01*
Y8253D01*
X4946Y8210D01*
X4946Y8210D01*
X4961Y8200D01*
X4978Y8196D01*
X4978Y8196D01*
X4982D01*
X4970Y8187D01*
X4954Y8166D01*
X4944Y8142D01*
X4941Y8115D01*
X4944Y8089D01*
X4954Y8065D01*
X4970Y8044D01*
X4991Y8028D01*
X5016Y8017D01*
X5042Y8014D01*
X5068Y8017D01*
X5093Y8028D01*
X5114Y8044D01*
X5130Y8065D01*
X5140Y8089D01*
X5143Y8115D01*
X5140Y8142D01*
X5130Y8166D01*
X5114Y8187D01*
X5102Y8196D01*
X6506D01*
X6494Y8187D01*
X6478Y8166D01*
X6468Y8142D01*
X6465Y8115D01*
X6468Y8089D01*
X6478Y8065D01*
X6494Y8044D01*
X6515Y8028D01*
X6540Y8017D01*
X6566Y8014D01*
X6592Y8017D01*
X6617Y8028D01*
X6638Y8044D01*
X6654Y8065D01*
X6655Y8069D01*
X6714D01*
X6714Y8069D01*
X6732Y8073D01*
X6747Y8083D01*
X7174Y8510D01*
X7201Y8498D01*
X7239Y8493D01*
X7277Y8498D01*
X7312Y8513D01*
X7343Y8536D01*
X7358Y8556D01*
Y8001D01*
D02*
G37*
G36*
X8237Y9139D02*
X8255Y9136D01*
X8255Y9136D01*
X8510D01*
Y9082D01*
X8513D01*
X8456Y9024D01*
X8446Y9009D01*
X8442Y8992D01*
X8442Y8992D01*
Y8839D01*
X8442Y8839D01*
X8446Y8821D01*
X8456Y8806D01*
X8489Y8773D01*
X8489Y8773D01*
X8504Y8763D01*
X8522Y8760D01*
X8522Y8760D01*
X8557D01*
X8547Y8752D01*
X8026D01*
X7920Y8858D01*
Y8896D01*
X7938Y8903D01*
X7959Y8919D01*
X7975Y8940D01*
X7986Y8965D01*
X7989Y8992D01*
X7986Y9018D01*
X7975Y9043D01*
X7959Y9064D01*
X7938Y9080D01*
X7913Y9091D01*
X7900Y9092D01*
X7944D01*
X7961Y9096D01*
X7976Y9106D01*
X7986Y9120D01*
X7989Y9138D01*
Y9149D01*
X8224D01*
X8237Y9139D01*
D02*
G37*
G36*
X7135Y9244D02*
X7112Y9213D01*
X7097Y9178D01*
X7092Y9140D01*
X7097Y9102D01*
X7110Y9072D01*
X7107Y9068D01*
X7103Y9051D01*
X7103Y9051D01*
Y8972D01*
X6596Y8465D01*
X6592Y8467D01*
X6566Y8471D01*
X6540Y8467D01*
X6515Y8457D01*
X6494Y8441D01*
X6478Y8420D01*
X6468Y8396D01*
X6465Y8369D01*
X6468Y8343D01*
X6478Y8319D01*
X6494Y8298D01*
X6506Y8289D01*
X5102D01*
X5114Y8298D01*
X5130Y8319D01*
X5140Y8343D01*
X5143Y8369D01*
X5140Y8396D01*
X5130Y8420D01*
X5114Y8441D01*
X5093Y8457D01*
X5068Y8467D01*
X5042Y8471D01*
X5016Y8467D01*
X4991Y8457D01*
X4970Y8441D01*
X4968Y8438D01*
Y8555D01*
X4970Y8552D01*
X4991Y8536D01*
X5016Y8525D01*
X5042Y8522D01*
X5068Y8525D01*
X5093Y8536D01*
X5114Y8552D01*
X5130Y8573D01*
X5140Y8597D01*
X5143Y8623D01*
X5140Y8650D01*
X5138Y8654D01*
X5188Y8704D01*
X6506D01*
X6494Y8695D01*
X6478Y8674D01*
X6468Y8650D01*
X6465Y8623D01*
X6468Y8597D01*
X6478Y8573D01*
X6494Y8552D01*
X6515Y8536D01*
X6540Y8525D01*
X6566Y8522D01*
X6592Y8525D01*
X6617Y8536D01*
X6638Y8552D01*
X6654Y8573D01*
X6664Y8597D01*
X6667Y8623D01*
X6664Y8650D01*
X6654Y8674D01*
X6638Y8695D01*
X6626Y8704D01*
X6655D01*
X6655Y8704D01*
X6673Y8708D01*
X6688Y8718D01*
X6784Y8814D01*
X6784Y8814D01*
X6790Y8823D01*
X6794Y8829D01*
X6798Y8847D01*
Y8989D01*
X7069Y9260D01*
X7157D01*
X7135Y9244D01*
D02*
G37*
G36*
X5313Y5099D02*
X5206Y4992D01*
X5108D01*
X5114Y4996D01*
X5130Y5017D01*
X5140Y5041D01*
X5143Y5067D01*
X5140Y5094D01*
X5130Y5118D01*
X5114Y5139D01*
X5093Y5155D01*
X5068Y5165D01*
X5042Y5169D01*
X5016Y5165D01*
X4991Y5155D01*
X4970Y5139D01*
X4954Y5118D01*
X4944Y5094D01*
X4941Y5067D01*
X4944Y5041D01*
X4954Y5017D01*
X4970Y4996D01*
X4976Y4992D01*
X3677D01*
X3590Y5079D01*
Y5425D01*
X3726Y5289D01*
X3726Y5289D01*
X3741Y5279D01*
X3759Y5275D01*
X3759Y5275D01*
X4952D01*
X4954Y5271D01*
X4970Y5250D01*
X4991Y5234D01*
X5016Y5223D01*
X5042Y5220D01*
X5068Y5223D01*
X5093Y5234D01*
X5114Y5250D01*
X5130Y5271D01*
X5140Y5295D01*
X5143Y5321D01*
X5140Y5348D01*
X5130Y5372D01*
X5114Y5393D01*
X5108Y5397D01*
X5182D01*
X5182Y5397D01*
X5199Y5400D01*
X5214Y5410D01*
X5313Y5509D01*
Y5099D01*
D02*
G37*
G36*
X3988Y6559D02*
X3988Y6559D01*
X4003Y6549D01*
X4021Y6545D01*
X4021Y6545D01*
X4952D01*
X4954Y6541D01*
X4970Y6520D01*
X4991Y6504D01*
X5016Y6493D01*
X5042Y6490D01*
X5068Y6493D01*
X5093Y6504D01*
X5114Y6520D01*
X5118Y6525D01*
Y6404D01*
X5114Y6409D01*
X5093Y6425D01*
X5068Y6435D01*
X5042Y6439D01*
X5016Y6435D01*
X4991Y6425D01*
X4970Y6409D01*
X4954Y6388D01*
X4952Y6384D01*
X3982D01*
X3887Y6478D01*
Y6660D01*
X3988Y6559D01*
D02*
G37*
G36*
X3930Y6305D02*
X3930Y6305D01*
X3945Y6295D01*
X3962Y6291D01*
X3962Y6291D01*
X4952D01*
X4954Y6287D01*
X4970Y6266D01*
X4991Y6250D01*
X5016Y6239D01*
X5042Y6236D01*
X5068Y6239D01*
X5093Y6250D01*
X5114Y6266D01*
X5118Y6271D01*
Y6150D01*
X5114Y6155D01*
X5093Y6171D01*
X5068Y6181D01*
X5042Y6185D01*
X5016Y6181D01*
X4991Y6171D01*
X4970Y6155D01*
X4954Y6134D01*
X4944Y6110D01*
X4941Y6083D01*
X4944Y6057D01*
X4954Y6033D01*
X4970Y6012D01*
X4991Y5996D01*
X5016Y5985D01*
X5042Y5982D01*
X5068Y5985D01*
X5093Y5996D01*
X5114Y6012D01*
X5118Y6017D01*
Y5896D01*
X5114Y5901D01*
X5093Y5917D01*
X5068Y5927D01*
X5042Y5931D01*
X5016Y5927D01*
X4991Y5917D01*
X4970Y5901D01*
X4954Y5880D01*
X4952Y5876D01*
X3928D01*
X3819Y5984D01*
Y6415D01*
X3930Y6305D01*
D02*
G37*
G36*
X4670Y7630D02*
Y6876D01*
X4670Y6876D01*
X4674Y6858D01*
X4684Y6843D01*
X4844Y6683D01*
X4844Y6683D01*
X4859Y6673D01*
X4877Y6669D01*
X4877Y6669D01*
X4979D01*
X4970Y6663D01*
X4954Y6642D01*
X4952Y6638D01*
X4040D01*
X3953Y6725D01*
Y8070D01*
X3953Y8070D01*
X3949Y8087D01*
X3939Y8102D01*
X3939Y8102D01*
X3792Y8250D01*
X3777Y8260D01*
X3759Y8263D01*
X3759Y8263D01*
X3385D01*
X3395Y8267D01*
X3418Y8285D01*
X3436Y8308D01*
X3440Y8317D01*
X3984D01*
X4670Y7630D01*
D02*
G37*
G36*
X5247Y6651D02*
Y5574D01*
X5162Y5490D01*
X5095D01*
X5114Y5504D01*
X5130Y5525D01*
X5140Y5549D01*
X5143Y5575D01*
X5140Y5602D01*
X5138Y5606D01*
X5197Y5664D01*
X5197Y5664D01*
X5207Y5680D01*
X5210Y5697D01*
X5210Y5697D01*
Y6673D01*
X5207Y6691D01*
X5206Y6692D01*
X5247Y6651D01*
D02*
G37*
G36*
X3740Y5932D02*
X3876Y5797D01*
X3876Y5797D01*
X3891Y5787D01*
X3909Y5783D01*
X3909Y5783D01*
X4952D01*
X4954Y5779D01*
X4970Y5758D01*
X4991Y5742D01*
X5016Y5731D01*
X5042Y5728D01*
X5068Y5731D01*
X5093Y5742D01*
X5114Y5758D01*
X5118Y5763D01*
Y5716D01*
X5072Y5671D01*
X5068Y5673D01*
X5042Y5677D01*
X5016Y5673D01*
X4991Y5663D01*
X4970Y5647D01*
X4954Y5626D01*
X4944Y5602D01*
X4941Y5575D01*
X4944Y5549D01*
X4954Y5525D01*
X4970Y5504D01*
X4989Y5490D01*
X4161D01*
X3731Y5920D01*
Y5946D01*
X3740Y5932D01*
D02*
G37*
G36*
X6494Y8949D02*
X6478Y8928D01*
X6468Y8904D01*
X6465Y8877D01*
X6468Y8851D01*
X6478Y8827D01*
X6494Y8806D01*
X6506Y8797D01*
X5169D01*
X5169Y8797D01*
X5151Y8793D01*
X5136Y8783D01*
X5136Y8783D01*
X5072Y8719D01*
X5068Y8721D01*
X5042Y8725D01*
X5016Y8721D01*
X4991Y8711D01*
X4970Y8695D01*
X4968Y8692D01*
Y8738D01*
X5011Y8781D01*
X5016Y8779D01*
X5042Y8776D01*
X5068Y8779D01*
X5093Y8790D01*
X5114Y8806D01*
X5130Y8827D01*
X5140Y8851D01*
X5143Y8877D01*
X5140Y8904D01*
X5130Y8928D01*
X5114Y8949D01*
X5098Y8961D01*
X6509D01*
X6494Y8949D01*
D02*
G37*
G36*
X9016Y10141D02*
X9020Y10124D01*
X9029Y10109D01*
X9044Y10099D01*
X9061Y10096D01*
X9072D01*
Y9351D01*
X8828Y9106D01*
X8711D01*
Y9282D01*
X8510D01*
Y9228D01*
X8274D01*
X8270Y9231D01*
X8260Y9238D01*
X8242Y9241D01*
X8242Y9241D01*
X7989D01*
Y9252D01*
X7986Y9269D01*
X7976Y9284D01*
X7961Y9294D01*
X7944Y9297D01*
X7804D01*
X7787Y9294D01*
X7772Y9284D01*
X7762Y9269D01*
X7759Y9252D01*
Y9138D01*
X7762Y9120D01*
X7772Y9106D01*
X7787Y9096D01*
X7804Y9092D01*
X7848D01*
X7835Y9091D01*
X7810Y9080D01*
X7789Y9064D01*
X7773Y9043D01*
X7762Y9018D01*
X7759Y8992D01*
X7762Y8965D01*
X7773Y8940D01*
X7789Y8919D01*
X7810Y8903D01*
X7828Y8896D01*
Y8839D01*
X7828Y8839D01*
X7831Y8821D01*
X7841Y8806D01*
X7975Y8673D01*
X7975Y8673D01*
X7990Y8663D01*
X8007Y8660D01*
X8007Y8660D01*
X8511D01*
X8513Y8648D01*
X8523Y8623D01*
X8539Y8602D01*
X8560Y8586D01*
X8584Y8576D01*
X8611Y8573D01*
X8637Y8576D01*
X8661Y8586D01*
X8682Y8602D01*
X8698Y8623D01*
X8708Y8648D01*
X8712Y8674D01*
X8708Y8700D01*
X8698Y8725D01*
X8682Y8746D01*
X8664Y8760D01*
X9126D01*
X9126Y8760D01*
X9144Y8763D01*
X9159Y8773D01*
X9201Y8816D01*
X9263D01*
X9218Y8770D01*
X9208Y8755D01*
X9204Y8738D01*
X9204Y8738D01*
Y8331D01*
X9204Y8331D01*
X9208Y8313D01*
X9218Y8298D01*
X9261Y8255D01*
X9261Y8255D01*
X9276Y8245D01*
X9294Y8242D01*
X9306D01*
X9301Y8238D01*
X9285Y8217D01*
X9275Y8192D01*
X9271Y8166D01*
X9275Y8140D01*
X9277Y8136D01*
X8979Y7838D01*
X8679D01*
X8682Y7840D01*
X8698Y7861D01*
X8708Y7886D01*
X8712Y7912D01*
X8708Y7938D01*
X8698Y7963D01*
X8682Y7984D01*
X8661Y8000D01*
X8637Y8010D01*
X8636Y8010D01*
X8630Y8036D01*
X8629Y8040D01*
X8628Y8044D01*
X8625Y8048D01*
X8623Y8053D01*
X8620Y8056D01*
X8618Y8059D01*
X8614Y8062D01*
X8611Y8065D01*
X8637Y8068D01*
X8661Y8078D01*
X8682Y8094D01*
X8698Y8115D01*
X8708Y8140D01*
X8712Y8166D01*
X8708Y8192D01*
X8698Y8217D01*
X8682Y8238D01*
X8661Y8254D01*
X8637Y8264D01*
X8611Y8267D01*
X8584Y8264D01*
X8560Y8254D01*
X8539Y8238D01*
X8523Y8217D01*
X8521Y8212D01*
X8292D01*
X8267Y8237D01*
X8252Y8247D01*
X8235Y8250D01*
X8235Y8250D01*
X7965D01*
X7963Y8255D01*
X7946Y8277D01*
X7925Y8293D01*
X7901Y8303D01*
X7887Y8305D01*
X7931D01*
X7948Y8308D01*
X7963Y8318D01*
X7973Y8333D01*
X7976Y8350D01*
Y8361D01*
X8235D01*
X8235Y8361D01*
X8252Y8365D01*
X8266Y8374D01*
X8521D01*
X8523Y8369D01*
X8539Y8348D01*
X8560Y8332D01*
X8584Y8322D01*
X8611Y8319D01*
X8637Y8322D01*
X8661Y8332D01*
X8682Y8348D01*
X8698Y8369D01*
X8708Y8394D01*
X8712Y8420D01*
X8708Y8446D01*
X8698Y8471D01*
X8682Y8492D01*
X8661Y8508D01*
X8637Y8518D01*
X8611Y8521D01*
X8584Y8518D01*
X8560Y8508D01*
X8539Y8492D01*
X8523Y8471D01*
X8521Y8466D01*
X8247D01*
X8247Y8466D01*
X8230Y8463D01*
X8216Y8454D01*
X7976D01*
Y8465D01*
X7973Y8482D01*
X7963Y8497D01*
X7948Y8506D01*
X7931Y8510D01*
X7791D01*
X7774Y8506D01*
X7759Y8497D01*
X7750Y8482D01*
X7746Y8465D01*
Y8350D01*
X7750Y8333D01*
X7759Y8318D01*
X7774Y8308D01*
X7791Y8305D01*
X7835D01*
X7822Y8303D01*
X7797Y8293D01*
X7776Y8277D01*
X7760Y8255D01*
X7750Y8231D01*
X7746Y8204D01*
X7750Y8178D01*
X7760Y8153D01*
X7776Y8132D01*
X7797Y8115D01*
X7822Y8105D01*
X7849Y8102D01*
X7874D01*
X7901Y8105D01*
X7925Y8115D01*
X7946Y8132D01*
X7963Y8153D01*
X7965Y8158D01*
X8216D01*
X8240Y8133D01*
X8255Y8123D01*
X8273Y8120D01*
X8273Y8120D01*
X8521D01*
X8523Y8115D01*
X8539Y8094D01*
X8560Y8078D01*
X8574Y8073D01*
X7759D01*
X7684Y8147D01*
Y9244D01*
X8604Y10165D01*
X8819D01*
X8827Y10147D01*
X8843Y10126D01*
X8864Y10109D01*
X8889Y10099D01*
X8915Y10096D01*
X8942Y10099D01*
X8967Y10109D01*
X8988Y10126D01*
X9004Y10147D01*
X9014Y10172D01*
X9016Y10185D01*
Y10141D01*
D02*
G37*
G36*
X6470Y9924D02*
X6468Y9920D01*
X6465Y9893D01*
X6468Y9867D01*
X6478Y9843D01*
X6494Y9822D01*
X6515Y9806D01*
X6540Y9795D01*
X6566Y9792D01*
X6592Y9795D01*
X6617Y9806D01*
X6638Y9822D01*
X6642Y9827D01*
Y9780D01*
X6596Y9735D01*
X6592Y9737D01*
X6566Y9741D01*
X6540Y9737D01*
X6515Y9727D01*
X6494Y9711D01*
X6478Y9690D01*
X6468Y9666D01*
X6465Y9639D01*
X6468Y9613D01*
X6478Y9589D01*
X6494Y9568D01*
X6506Y9559D01*
X5684D01*
X5210Y10033D01*
X6361D01*
X6470Y9924D01*
D02*
G37*
G36*
X9072Y10547D02*
Y10468D01*
X9058Y10470D01*
X9058Y10470D01*
X7941D01*
X7941Y10470D01*
X7923Y10467D01*
X7908Y10457D01*
X6654Y9202D01*
X6646Y9191D01*
X6638Y9203D01*
X6617Y9219D01*
X6592Y9229D01*
X6566Y9233D01*
X6540Y9229D01*
X6515Y9219D01*
X6494Y9203D01*
X6478Y9182D01*
X6468Y9158D01*
X6465Y9131D01*
X6468Y9105D01*
X6478Y9081D01*
X6494Y9060D01*
X6503Y9053D01*
X5105D01*
X5114Y9060D01*
X5130Y9081D01*
X5140Y9105D01*
X5143Y9131D01*
X5140Y9158D01*
X5130Y9182D01*
X5114Y9203D01*
X5093Y9219D01*
X5068Y9229D01*
X5042Y9233D01*
X5016Y9229D01*
X4991Y9219D01*
X4970Y9203D01*
X4954Y9182D01*
X4944Y9158D01*
X4941Y9131D01*
X4944Y9105D01*
X4954Y9081D01*
X4970Y9060D01*
X4980Y9052D01*
X4965Y9050D01*
X4950Y9040D01*
X4950Y9040D01*
X4829Y8918D01*
Y9361D01*
X5011Y9543D01*
X5016Y9541D01*
X5042Y9538D01*
X5068Y9541D01*
X5093Y9552D01*
X5114Y9568D01*
X5130Y9589D01*
X5140Y9613D01*
X5143Y9639D01*
X5140Y9666D01*
X5130Y9690D01*
X5114Y9711D01*
X5093Y9727D01*
X5068Y9737D01*
X5042Y9741D01*
X5016Y9737D01*
X4991Y9727D01*
X4970Y9711D01*
X4954Y9690D01*
X4944Y9666D01*
X4941Y9639D01*
X4944Y9613D01*
X4946Y9609D01*
X4750Y9413D01*
X4740Y9398D01*
X4737Y9380D01*
X4737Y9380D01*
Y7695D01*
X4036Y8396D01*
X4021Y8406D01*
X4003Y8410D01*
X4003Y8410D01*
X3440D01*
X3436Y8419D01*
X3418Y8442D01*
X3411Y8447D01*
X3642D01*
X3642Y8447D01*
X3660Y8451D01*
X3675Y8461D01*
X5011Y9797D01*
X5016Y9795D01*
X5042Y9792D01*
X5068Y9795D01*
X5093Y9806D01*
X5114Y9822D01*
X5130Y9843D01*
X5140Y9867D01*
X5143Y9893D01*
X5140Y9920D01*
X5130Y9944D01*
X5114Y9965D01*
X5110Y9967D01*
X5145D01*
X5632Y9480D01*
X5632Y9480D01*
X5648Y9470D01*
X5665Y9466D01*
X5665Y9466D01*
X6506D01*
X6494Y9457D01*
X6478Y9436D01*
X6468Y9412D01*
X6465Y9385D01*
X6468Y9359D01*
X6478Y9335D01*
X6494Y9314D01*
X6515Y9298D01*
X6540Y9287D01*
X6566Y9284D01*
X6592Y9287D01*
X6617Y9298D01*
X6638Y9314D01*
X6654Y9335D01*
X6664Y9359D01*
X6667Y9385D01*
X6664Y9412D01*
X6654Y9436D01*
X6638Y9457D01*
X6626Y9466D01*
X6853D01*
X6853Y9466D01*
X6871Y9470D01*
X6886Y9480D01*
X6982Y9576D01*
X6982Y9576D01*
X6992Y9591D01*
X6996Y9609D01*
X6996Y9609D01*
Y10363D01*
X6996Y10363D01*
X6992Y10381D01*
X6982Y10396D01*
X6982Y10396D01*
X6740Y10638D01*
X8981D01*
X9072Y10547D01*
D02*
G37*
G36*
Y10344D02*
Y10326D01*
X9061D01*
X9044Y10323D01*
X9029Y10313D01*
X9020Y10298D01*
X9016Y10281D01*
Y10237D01*
X9014Y10250D01*
X9004Y10275D01*
X8988Y10296D01*
X8967Y10312D01*
X8942Y10322D01*
X8915Y10326D01*
X8889Y10322D01*
X8864Y10312D01*
X8843Y10296D01*
X8827Y10275D01*
X8819Y10257D01*
X8585D01*
X8585Y10257D01*
X8567Y10254D01*
X8552Y10244D01*
X8552Y10244D01*
X7605Y9296D01*
X7595Y9281D01*
X7591Y9263D01*
X7591Y9263D01*
Y8128D01*
X7591Y8128D01*
X7595Y8110D01*
X7605Y8095D01*
X7707Y7994D01*
X7707Y7994D01*
X7716Y7988D01*
X7722Y7984D01*
X7739Y7980D01*
X8536D01*
X8523Y7963D01*
X8513Y7938D01*
X8509Y7912D01*
X8513Y7886D01*
X8523Y7861D01*
X8539Y7840D01*
X8542Y7838D01*
X7741D01*
X7516Y8063D01*
Y9241D01*
X7516Y9241D01*
X7513Y9259D01*
X7503Y9274D01*
X7503Y9274D01*
X7437Y9339D01*
X7422Y9349D01*
X7404Y9353D01*
X7404Y9353D01*
X7050D01*
X7050Y9353D01*
X7032Y9349D01*
X7017Y9339D01*
X6733Y9055D01*
Y9150D01*
X7960Y10378D01*
X9038D01*
X9072Y10344D01*
D02*
G37*
G36*
X3466Y9099D02*
X3317D01*
X3319Y9100D01*
X3354Y9121D01*
X3386Y9149D01*
X3413Y9180D01*
X3435Y9216D01*
X3451Y9255D01*
X3461Y9295D01*
X3464Y9337D01*
X3461Y9378D01*
X3451Y9419D01*
X3435Y9458D01*
X3413Y9493D01*
X3386Y9525D01*
X3354Y9552D01*
X3319Y9574D01*
X3280Y9590D01*
X3240Y9600D01*
X3198Y9603D01*
X3156Y9600D01*
X3116Y9590D01*
X3077Y9574D01*
X3041Y9552D01*
X3010Y9525D01*
X2983Y9493D01*
X2961Y9458D01*
X2945Y9419D01*
X2935Y9378D01*
X2932Y9337D01*
X2935Y9295D01*
X2945Y9255D01*
X2961Y9216D01*
X2983Y9180D01*
X3010Y9149D01*
X3041Y9121D01*
X3077Y9100D01*
X3116Y9084D01*
X3156Y9074D01*
X3198Y9071D01*
X3235Y9073D01*
X2695Y8534D01*
X2685Y8519D01*
X2682Y8501D01*
X2682Y8501D01*
Y7169D01*
X2682Y7169D01*
X2685Y7151D01*
X2695Y7136D01*
X2886Y6946D01*
X2886Y6946D01*
X2901Y6936D01*
X2918Y6932D01*
X2918Y6932D01*
X2996D01*
X2978Y6918D01*
X2960Y6895D01*
X2949Y6868D01*
X2945Y6840D01*
X2949Y6811D01*
X2960Y6784D01*
X2978Y6761D01*
X2996Y6748D01*
X2901D01*
X2661Y6988D01*
Y9405D01*
X3354Y10098D01*
X4465D01*
X3466Y9099D01*
D02*
G37*
G36*
X10350Y4547D02*
X2592D01*
Y6927D01*
X2849Y6669D01*
X2849Y6669D01*
X2865Y6659D01*
X2882Y6655D01*
X3230D01*
Y6591D01*
X3450D01*
Y6811D01*
X3230D01*
Y6748D01*
X3116D01*
X3134Y6761D01*
X3152Y6784D01*
X3163Y6811D01*
X3167Y6840D01*
X3163Y6868D01*
X3152Y6895D01*
X3134Y6918D01*
X3116Y6932D01*
X3240D01*
X3244Y6923D01*
X3262Y6900D01*
X3284Y6882D01*
X3311Y6871D01*
X3340Y6867D01*
X3369Y6871D01*
X3395Y6882D01*
X3418Y6900D01*
X3436Y6923D01*
X3447Y6950D01*
X3451Y6978D01*
X3447Y7007D01*
X3436Y7034D01*
X3418Y7057D01*
X3395Y7074D01*
X3369Y7085D01*
X3340Y7089D01*
X3311Y7085D01*
X3284Y7074D01*
X3262Y7057D01*
X3244Y7034D01*
X3240Y7025D01*
X3116D01*
X3134Y7038D01*
X3152Y7061D01*
X3163Y7088D01*
X3167Y7117D01*
X3163Y7145D01*
X3152Y7172D01*
X3134Y7195D01*
X3116Y7209D01*
X3240D01*
X3244Y7200D01*
X3262Y7177D01*
X3284Y7159D01*
X3311Y7148D01*
X3340Y7144D01*
X3369Y7148D01*
X3395Y7159D01*
X3418Y7177D01*
X3436Y7200D01*
X3447Y7227D01*
X3451Y7255D01*
X3447Y7284D01*
X3436Y7311D01*
X3418Y7334D01*
X3395Y7351D01*
X3369Y7362D01*
X3340Y7366D01*
X3311Y7362D01*
X3284Y7351D01*
X3262Y7334D01*
X3244Y7311D01*
X3240Y7302D01*
X3116D01*
X3134Y7315D01*
X3152Y7338D01*
X3163Y7365D01*
X3167Y7394D01*
X3163Y7422D01*
X3152Y7449D01*
X3134Y7472D01*
X3111Y7490D01*
X3105Y7492D01*
X3150D01*
X3150Y7492D01*
X3167Y7496D01*
X3182Y7506D01*
X3232Y7556D01*
X3229Y7532D01*
X3233Y7504D01*
X3244Y7477D01*
X3262Y7454D01*
X3284Y7436D01*
X3311Y7425D01*
X3340Y7421D01*
X3369Y7425D01*
X3378Y7429D01*
X3497Y7310D01*
Y5060D01*
X3497Y5060D01*
X3501Y5042D01*
X3511Y5027D01*
X3625Y4913D01*
X3625Y4913D01*
X3640Y4903D01*
X3658Y4899D01*
X3658Y4899D01*
X5225D01*
X5225Y4899D01*
X5242Y4903D01*
X5258Y4913D01*
X5392Y5047D01*
X5392Y5047D01*
X5402Y5062D01*
X5406Y5080D01*
Y6767D01*
X5402Y6784D01*
X5392Y6799D01*
X5392Y6799D01*
X5181Y7010D01*
X5166Y7020D01*
X5149Y7024D01*
X5149Y7024D01*
X5108D01*
X5114Y7028D01*
X5130Y7049D01*
X5131Y7053D01*
X5785D01*
X6406Y6432D01*
X6421Y6422D01*
X6439Y6418D01*
X6457Y6422D01*
X6459Y6423D01*
X6513D01*
X6494Y6409D01*
X6478Y6388D01*
X6468Y6364D01*
X6465Y6337D01*
X6468Y6311D01*
X6478Y6287D01*
X6494Y6266D01*
X6515Y6250D01*
X6540Y6239D01*
X6566Y6236D01*
X6592Y6239D01*
X6617Y6250D01*
X6638Y6266D01*
X6654Y6287D01*
X6664Y6311D01*
X6667Y6337D01*
X6664Y6364D01*
X6654Y6388D01*
X6638Y6409D01*
X6619Y6423D01*
X6707D01*
X6968Y6162D01*
X6958Y6142D01*
X6949Y6113D01*
X6946Y6083D01*
X6949Y6053D01*
X6958Y6025D01*
X6972Y5998D01*
X6991Y5975D01*
X7014Y5956D01*
X7041Y5942D01*
X7069Y5933D01*
X7099Y5930D01*
X7129Y5933D01*
X7158Y5942D01*
X7178Y5952D01*
X7472Y5658D01*
Y5403D01*
X7472Y5403D01*
X7476Y5385D01*
X7486Y5370D01*
X7587Y5268D01*
X7587Y5268D01*
X7596Y5262D01*
X7602Y5258D01*
X7620Y5255D01*
X9177D01*
X9177Y5255D01*
X9195Y5258D01*
X9210Y5268D01*
X10332Y6391D01*
X10342Y6406D01*
X10346Y6424D01*
X10346Y6424D01*
Y8064D01*
X10342Y8082D01*
X10338Y8088D01*
X10332Y8097D01*
X10332Y8097D01*
X10193Y8237D01*
X10178Y8247D01*
X10160Y8250D01*
X10160Y8250D01*
X10062D01*
Y8684D01*
X10062Y8684D01*
X10058Y8702D01*
X10048Y8717D01*
X10048Y8717D01*
X9888Y8877D01*
X9893Y8876D01*
Y8979D01*
X9919D01*
Y8876D01*
X9945Y8880D01*
X9970Y8890D01*
X9991Y8906D01*
X10007Y8928D01*
X10010Y8933D01*
X10025Y8936D01*
X10040Y8946D01*
X10073Y8979D01*
X10073Y8979D01*
X10083Y8994D01*
X10087Y9012D01*
X10087Y9012D01*
Y10851D01*
X10087Y10851D01*
X10083Y10869D01*
X10073Y10884D01*
X10073Y10884D01*
X9367Y11590D01*
X9352Y11600D01*
X9335Y11603D01*
X9334Y11603D01*
X2896D01*
X2896Y11603D01*
X2878Y11600D01*
X2863Y11590D01*
X2863Y11590D01*
X2622Y11348D01*
X2612Y11333D01*
X2608Y11316D01*
X2608Y11316D01*
Y10757D01*
X2608Y10757D01*
X2612Y10739D01*
X2622Y10724D01*
X2660Y10686D01*
X2675Y10676D01*
X2692Y10673D01*
X2692Y10673D01*
X2763D01*
X2767Y10660D01*
X2781Y10634D01*
X2800Y10611D01*
X2823Y10591D01*
X2850Y10577D01*
X2878Y10569D01*
X2896Y10567D01*
Y10719D01*
Y10871D01*
X2878Y10869D01*
X2850Y10860D01*
X2823Y10846D01*
X2800Y10827D01*
X2781Y10804D01*
X2767Y10777D01*
X2763Y10765D01*
X2712D01*
X2701Y10776D01*
Y11297D01*
X2915Y11511D01*
X9315D01*
X9994Y10832D01*
Y9280D01*
X9993Y9281D01*
X9976Y9285D01*
X9836D01*
X9819Y9281D01*
X9804Y9271D01*
X9794Y9257D01*
X9791Y9239D01*
Y9228D01*
X9517D01*
X9517Y9228D01*
X9517Y9228D01*
X9462D01*
X9460Y9233D01*
X9444Y9254D01*
X9423Y9270D01*
X9419Y9272D01*
Y11074D01*
X9415Y11092D01*
X9411Y11098D01*
X9405Y11107D01*
X9405Y11107D01*
X9295Y11217D01*
X9280Y11227D01*
X9262Y11231D01*
X9262Y11231D01*
X5879D01*
Y11260D01*
X5876Y11279D01*
X5864Y11296D01*
X5848Y11307D01*
X5828Y11311D01*
X5678D01*
X5658Y11307D01*
X5642Y11296D01*
X5631Y11279D01*
X5627Y11260D01*
Y11231D01*
X4953D01*
X4935Y11227D01*
X4920Y11217D01*
X4920Y11217D01*
X4908Y11206D01*
X4266D01*
X4255Y11233D01*
X4231Y11263D01*
X4201Y11286D01*
X4165Y11301D01*
X4128Y11306D01*
X4090Y11301D01*
X4054Y11286D01*
X4024Y11263D01*
X4000Y11233D01*
X3989Y11206D01*
X3577D01*
X3577Y11206D01*
X3560Y11202D01*
X3545Y11192D01*
X3545Y11192D01*
X3499Y11146D01*
X3062D01*
Y11195D01*
X3057Y11217D01*
X3045Y11236D01*
X3026Y11249D01*
X3004Y11253D01*
X2813D01*
X2791Y11249D01*
X2772Y11236D01*
X2759Y11217D01*
X2755Y11195D01*
Y11005D01*
X2759Y10982D01*
X2772Y10963D01*
X2791Y10951D01*
X2813Y10946D01*
X3004D01*
X3026Y10951D01*
X3045Y10963D01*
X3057Y10982D01*
X3062Y11005D01*
Y11054D01*
X3518D01*
X3518Y11054D01*
X3536Y11057D01*
X3551Y11067D01*
X3597Y11113D01*
X3989D01*
X4000Y11086D01*
X4024Y11056D01*
X4054Y11032D01*
X4090Y11018D01*
X4128Y11013D01*
X4165Y11018D01*
X4201Y11032D01*
X4231Y11056D01*
X4255Y11086D01*
X4266Y11113D01*
X4928D01*
X4928Y11113D01*
X4945Y11117D01*
X4960Y11127D01*
X4972Y11138D01*
X5627D01*
Y11110D01*
X5631Y11090D01*
X5642Y11073D01*
X5658Y11062D01*
X5678Y11058D01*
X5828D01*
X5848Y11062D01*
X5864Y11073D01*
X5876Y11090D01*
X5879Y11110D01*
Y11138D01*
X9243D01*
X9326Y11055D01*
Y9272D01*
X9322Y9270D01*
X9301Y9254D01*
X9285Y9233D01*
X9275Y9208D01*
X9271Y9182D01*
X9275Y9156D01*
X9285Y9131D01*
X9301Y9110D01*
X9319Y9096D01*
X9312D01*
X9312Y9096D01*
X9294Y9093D01*
X9279Y9083D01*
X9279Y9083D01*
X9171Y8974D01*
X8700D01*
X8698Y8979D01*
X8682Y9000D01*
X8664Y9014D01*
X8847D01*
X8847Y9014D01*
X8865Y9017D01*
X8880Y9027D01*
X9151Y9299D01*
X9151Y9299D01*
X9161Y9314D01*
X9165Y9332D01*
X9165Y9332D01*
Y10096D01*
X9176D01*
X9193Y10099D01*
X9208Y10109D01*
X9218Y10124D01*
X9221Y10141D01*
Y10198D01*
X9119D01*
Y10224D01*
X9221D01*
Y10281D01*
X9218Y10298D01*
X9208Y10313D01*
X9193Y10323D01*
X9176Y10326D01*
X9165D01*
Y10363D01*
Y10566D01*
X9165Y10566D01*
X9161Y10584D01*
X9151Y10599D01*
X9151Y10599D01*
X9033Y10717D01*
X9018Y10727D01*
X9000Y10731D01*
X9000Y10731D01*
X6628D01*
X6628Y10731D01*
X6628Y10731D01*
X5870D01*
X5863Y10748D01*
X5843Y10774D01*
X5816Y10794D01*
X5786Y10807D01*
X5766Y10810D01*
Y10685D01*
Y10560D01*
X5786Y10563D01*
X5816Y10575D01*
X5843Y10595D01*
X5863Y10621D01*
X5870Y10638D01*
X6609D01*
X6903Y10344D01*
Y9628D01*
X6834Y9559D01*
X6626D01*
X6638Y9568D01*
X6654Y9589D01*
X6664Y9613D01*
X6667Y9639D01*
X6664Y9666D01*
X6662Y9670D01*
X6721Y9728D01*
X6721Y9728D01*
X6731Y9744D01*
X6734Y9761D01*
X6734Y9761D01*
Y9959D01*
X6734Y9959D01*
X6731Y9977D01*
X6721Y9992D01*
X6721Y9992D01*
X6535Y10177D01*
X6520Y10188D01*
X6502Y10191D01*
X6502Y10191D01*
X3335D01*
X3335Y10191D01*
X3317Y10188D01*
X3302Y10177D01*
X3302Y10177D01*
X2592Y9467D01*
Y11950D01*
X10350D01*
Y4547D01*
D02*
G37*
G36*
X7424Y9222D02*
Y8784D01*
X7369Y8839D01*
X7354Y8849D01*
X7336Y8852D01*
X7336Y8852D01*
X7140D01*
X7140Y8852D01*
X7122Y8849D01*
X7107Y8839D01*
X7107Y8839D01*
X7039Y8770D01*
X7029Y8755D01*
X7025Y8738D01*
X7025Y8738D01*
Y8612D01*
X6702Y8289D01*
X6626D01*
X6638Y8298D01*
X6654Y8319D01*
X6664Y8343D01*
X6667Y8369D01*
X6664Y8396D01*
X6662Y8400D01*
X7182Y8920D01*
X7182Y8920D01*
X7192Y8935D01*
X7196Y8953D01*
X7196Y8953D01*
Y9001D01*
X7201Y8998D01*
X7239Y8993D01*
X7277Y8998D01*
X7312Y9013D01*
X7343Y9036D01*
X7366Y9067D01*
X7381Y9102D01*
X7386Y9140D01*
X7381Y9178D01*
X7366Y9213D01*
X7343Y9244D01*
X7321Y9260D01*
X7385D01*
X7424Y9222D01*
D02*
G37*
G36*
X3378Y8744D02*
X3369Y8747D01*
X3353Y8749D01*
Y8653D01*
X3449D01*
X3447Y8669D01*
X3443Y8678D01*
X4732Y9967D01*
X4974D01*
X4970Y9965D01*
X4954Y9944D01*
X4944Y9920D01*
X4941Y9893D01*
X4944Y9867D01*
X4946Y9863D01*
X3623Y8540D01*
X3385D01*
X3395Y8544D01*
X3418Y8562D01*
X3436Y8585D01*
X3447Y8612D01*
X3449Y8628D01*
X3231D01*
X3232Y8614D01*
X3182Y8664D01*
X3167Y8674D01*
X3150Y8678D01*
X3150Y8678D01*
X2991D01*
X2973Y8674D01*
X2958Y8664D01*
X2958Y8664D01*
X2774Y8481D01*
Y8482D01*
X3298Y9006D01*
X3485D01*
X3485Y9006D01*
X3503Y9010D01*
X3518Y9020D01*
X4531Y10033D01*
X4667D01*
X3378Y8744D01*
D02*
G37*
%LPC*%
G36*
X8926Y6165D02*
X8839D01*
Y6078D01*
X8853Y6080D01*
X8877Y6090D01*
X8898Y6106D01*
X8914Y6127D01*
X8924Y6151D01*
X8926Y6165D01*
D02*
G37*
G36*
X6566Y5423D02*
X6540Y5419D01*
X6515Y5409D01*
X6494Y5393D01*
X6478Y5372D01*
X6468Y5348D01*
X6465Y5321D01*
X6468Y5295D01*
X6478Y5271D01*
X6494Y5250D01*
X6515Y5234D01*
X6540Y5223D01*
X6566Y5220D01*
X6592Y5223D01*
X6617Y5234D01*
X6638Y5250D01*
X6654Y5271D01*
X6664Y5295D01*
X6667Y5321D01*
X6664Y5348D01*
X6654Y5372D01*
X6638Y5393D01*
X6617Y5409D01*
X6592Y5419D01*
X6566Y5423D01*
D02*
G37*
G36*
X6665Y7849D02*
X6579D01*
Y7762D01*
X6592Y7763D01*
X6596Y7765D01*
X7025Y7337D01*
Y6805D01*
X7025Y6805D01*
X7029Y6788D01*
X7039Y6773D01*
X7938Y5873D01*
X7938Y5873D01*
X7947Y5867D01*
X7953Y5863D01*
X7971Y5859D01*
X8554D01*
X8554Y5859D01*
X8572Y5863D01*
X8587Y5873D01*
X8796Y6081D01*
X8800Y6080D01*
X8814Y6078D01*
Y6165D01*
X8727D01*
X8729Y6151D01*
X8730Y6147D01*
X8535Y5952D01*
X7990D01*
X7118Y6825D01*
Y7356D01*
X7118Y7356D01*
X7114Y7374D01*
X7104Y7389D01*
X6662Y7831D01*
X6664Y7835D01*
X6665Y7849D01*
D02*
G37*
G36*
X8672Y6165D02*
X8585D01*
Y6078D01*
X8599Y6080D01*
X8623Y6090D01*
X8644Y6106D01*
X8660Y6127D01*
X8670Y6151D01*
X8672Y6165D01*
D02*
G37*
G36*
X7099Y5220D02*
X7069Y5217D01*
X7041Y5209D01*
X7014Y5195D01*
X6991Y5176D01*
X6972Y5152D01*
X6958Y5126D01*
X6954Y5114D01*
X6666D01*
Y5168D01*
X6465D01*
Y4967D01*
X6666D01*
Y5021D01*
X6954D01*
X6958Y5009D01*
X6972Y4982D01*
X6991Y4959D01*
X7014Y4940D01*
X7041Y4926D01*
X7069Y4917D01*
X7099Y4914D01*
X7129Y4917D01*
X7158Y4926D01*
X7184Y4940D01*
X7208Y4959D01*
X7227Y4982D01*
X7241Y5009D01*
X7249Y5037D01*
X7252Y5067D01*
X7249Y5097D01*
X7241Y5126D01*
X7227Y5152D01*
X7208Y5176D01*
X7184Y5195D01*
X7158Y5209D01*
X7129Y5217D01*
X7099Y5220D01*
D02*
G37*
G36*
X8560Y6277D02*
X8546Y6275D01*
X8522Y6265D01*
X8501Y6249D01*
X8485Y6228D01*
X8475Y6204D01*
X8473Y6190D01*
X8560D01*
Y6277D01*
D02*
G37*
G36*
X8585D02*
Y6190D01*
X8672D01*
X8670Y6204D01*
X8660Y6228D01*
X8644Y6249D01*
X8623Y6265D01*
X8599Y6275D01*
X8585Y6277D01*
D02*
G37*
G36*
X8814D02*
X8800Y6275D01*
X8776Y6265D01*
X8755Y6249D01*
X8739Y6228D01*
X8729Y6204D01*
X8727Y6190D01*
X8814D01*
Y6277D01*
D02*
G37*
G36*
X8306D02*
X8292Y6275D01*
X8268Y6265D01*
X8247Y6249D01*
X8231Y6228D01*
X8221Y6204D01*
X8219Y6190D01*
X8306D01*
Y6277D01*
D02*
G37*
G36*
X8331D02*
Y6190D01*
X8418D01*
X8416Y6204D01*
X8406Y6228D01*
X8390Y6249D01*
X8369Y6265D01*
X8345Y6275D01*
X8331Y6277D01*
D02*
G37*
G36*
X8560Y6165D02*
X8473D01*
X8475Y6151D01*
X8485Y6127D01*
X8501Y6106D01*
X8522Y6090D01*
X8546Y6080D01*
X8560Y6078D01*
Y6165D01*
D02*
G37*
G36*
X7724Y6006D02*
X7693Y6003D01*
X7663Y5994D01*
X7636Y5979D01*
X7612Y5959D01*
X7592Y5935D01*
X7578Y5908D01*
X7569Y5878D01*
X7565Y5847D01*
X7569Y5816D01*
X7578Y5787D01*
X7592Y5759D01*
X7612Y5735D01*
X7636Y5715D01*
X7663Y5701D01*
X7693Y5692D01*
X7724Y5689D01*
X7755Y5692D01*
X7785Y5701D01*
X7812Y5715D01*
X7836Y5735D01*
X7856Y5759D01*
X7871Y5787D01*
X7880Y5816D01*
X7883Y5847D01*
X7880Y5878D01*
X7871Y5908D01*
X7856Y5935D01*
X7836Y5959D01*
X7812Y5979D01*
X7785Y5994D01*
X7755Y6003D01*
X7724Y6006D01*
D02*
G37*
G36*
X9294D02*
X9263Y6003D01*
X9233Y5994D01*
X9206Y5979D01*
X9182Y5959D01*
X9162Y5935D01*
X9147Y5908D01*
X9138Y5878D01*
X9135Y5847D01*
X9138Y5816D01*
X9147Y5787D01*
X9162Y5759D01*
X9182Y5735D01*
X9206Y5715D01*
X9233Y5701D01*
X9263Y5692D01*
X9294Y5689D01*
X9325Y5692D01*
X9355Y5701D01*
X9382Y5715D01*
X9406Y5735D01*
X9426Y5759D01*
X9440Y5787D01*
X9449Y5816D01*
X9453Y5847D01*
X9449Y5878D01*
X9440Y5908D01*
X9426Y5935D01*
X9406Y5959D01*
X9382Y5979D01*
X9355Y5994D01*
X9325Y6003D01*
X9294Y6006D01*
D02*
G37*
G36*
X6566Y5677D02*
X6540Y5673D01*
X6515Y5663D01*
X6494Y5647D01*
X6478Y5626D01*
X6468Y5602D01*
X6465Y5575D01*
X6468Y5549D01*
X6478Y5525D01*
X6494Y5504D01*
X6515Y5488D01*
X6540Y5477D01*
X6566Y5474D01*
X6592Y5477D01*
X6617Y5488D01*
X6638Y5504D01*
X6654Y5525D01*
X6664Y5549D01*
X6667Y5575D01*
X6664Y5602D01*
X6654Y5626D01*
X6638Y5647D01*
X6617Y5663D01*
X6592Y5673D01*
X6566Y5677D01*
D02*
G37*
G36*
X9081Y5731D02*
X9044Y5728D01*
X9008Y5717D01*
X8976Y5699D01*
X8947Y5676D01*
X8924Y5647D01*
X8906Y5615D01*
X8895Y5579D01*
X8892Y5543D01*
X8895Y5506D01*
X8906Y5470D01*
X8924Y5438D01*
X8947Y5409D01*
X8976Y5386D01*
X9008Y5368D01*
X9044Y5357D01*
X9081Y5354D01*
X9117Y5357D01*
X9153Y5368D01*
X9185Y5386D01*
X9214Y5409D01*
X9237Y5438D01*
X9255Y5470D01*
X9266Y5506D01*
X9269Y5543D01*
X9266Y5579D01*
X9255Y5615D01*
X9237Y5647D01*
X9214Y5676D01*
X9185Y5699D01*
X9153Y5717D01*
X9117Y5728D01*
X9081Y5731D01*
D02*
G37*
G36*
X7938D02*
X7901Y5728D01*
X7865Y5717D01*
X7833Y5699D01*
X7804Y5676D01*
X7781Y5647D01*
X7763Y5615D01*
X7752Y5579D01*
X7749Y5543D01*
X7752Y5506D01*
X7763Y5470D01*
X7781Y5438D01*
X7804Y5409D01*
X7833Y5386D01*
X7865Y5368D01*
X7901Y5357D01*
X7938Y5354D01*
X7974Y5357D01*
X8010Y5368D01*
X8042Y5386D01*
X8071Y5409D01*
X8094Y5438D01*
X8112Y5470D01*
X8123Y5506D01*
X8126Y5543D01*
X8123Y5579D01*
X8112Y5615D01*
X8094Y5647D01*
X8071Y5676D01*
X8042Y5699D01*
X8010Y5717D01*
X7974Y5728D01*
X7938Y5731D01*
D02*
G37*
G36*
X8306Y6165D02*
X8219D01*
X8221Y6151D01*
X8231Y6127D01*
X8247Y6106D01*
X8268Y6090D01*
X8292Y6080D01*
X8306Y6078D01*
Y6165D01*
D02*
G37*
G36*
X8418D02*
X8331D01*
Y6078D01*
X8345Y6080D01*
X8369Y6090D01*
X8390Y6106D01*
X8406Y6127D01*
X8416Y6151D01*
X8418Y6165D01*
D02*
G37*
G36*
X6566Y6185D02*
X6540Y6181D01*
X6515Y6171D01*
X6494Y6155D01*
X6478Y6134D01*
X6468Y6110D01*
X6465Y6083D01*
X6468Y6057D01*
X6478Y6033D01*
X6494Y6012D01*
X6515Y5996D01*
X6540Y5985D01*
X6566Y5982D01*
X6592Y5985D01*
X6617Y5996D01*
X6638Y6012D01*
X6654Y6033D01*
X6664Y6057D01*
X6667Y6083D01*
X6664Y6110D01*
X6654Y6134D01*
X6638Y6155D01*
X6617Y6171D01*
X6592Y6181D01*
X6566Y6185D01*
D02*
G37*
G36*
Y5931D02*
X6540Y5927D01*
X6515Y5917D01*
X6494Y5901D01*
X6478Y5880D01*
X6468Y5856D01*
X6465Y5829D01*
X6468Y5803D01*
X6478Y5779D01*
X6494Y5758D01*
X6515Y5742D01*
X6540Y5731D01*
X6566Y5728D01*
X6592Y5731D01*
X6617Y5742D01*
X6638Y5758D01*
X6654Y5779D01*
X6664Y5803D01*
X6667Y5829D01*
X6664Y5856D01*
X6654Y5880D01*
X6638Y5901D01*
X6617Y5917D01*
X6592Y5927D01*
X6566Y5931D01*
D02*
G37*
G36*
X3198Y6271D02*
X3156Y6268D01*
X3116Y6258D01*
X3077Y6242D01*
X3041Y6220D01*
X3010Y6193D01*
X2983Y6161D01*
X2961Y6126D01*
X2945Y6087D01*
X2935Y6046D01*
X2932Y6005D01*
X2935Y5963D01*
X2945Y5923D01*
X2961Y5884D01*
X2983Y5848D01*
X3010Y5817D01*
X3041Y5789D01*
X3077Y5768D01*
X3116Y5752D01*
X3156Y5742D01*
X3198Y5739D01*
X3240Y5742D01*
X3280Y5752D01*
X3319Y5768D01*
X3354Y5789D01*
X3386Y5817D01*
X3413Y5848D01*
X3435Y5884D01*
X3451Y5923D01*
X3461Y5963D01*
X3464Y6005D01*
X3461Y6046D01*
X3451Y6087D01*
X3435Y6126D01*
X3413Y6161D01*
X3386Y6193D01*
X3354Y6220D01*
X3319Y6242D01*
X3280Y6258D01*
X3240Y6268D01*
X3198Y6271D01*
D02*
G37*
G36*
X8839Y6277D02*
Y6190D01*
X8926D01*
X8924Y6204D01*
X8914Y6228D01*
X8898Y6249D01*
X8877Y6265D01*
X8853Y6275D01*
X8839Y6277D01*
D02*
G37*
G36*
X8611Y7505D02*
X8584Y7502D01*
X8560Y7492D01*
X8539Y7476D01*
X8523Y7455D01*
X8513Y7430D01*
X8509Y7404D01*
X8513Y7378D01*
X8523Y7353D01*
X8539Y7332D01*
X8560Y7316D01*
X8584Y7306D01*
X8611Y7303D01*
X8637Y7306D01*
X8661Y7316D01*
X8682Y7332D01*
X8698Y7353D01*
X8708Y7378D01*
X8712Y7404D01*
X8708Y7430D01*
X8698Y7455D01*
X8682Y7476D01*
X8661Y7492D01*
X8637Y7502D01*
X8611Y7505D01*
D02*
G37*
G36*
X5042Y7709D02*
X5016Y7705D01*
X4991Y7695D01*
X4970Y7679D01*
X4954Y7658D01*
X4944Y7634D01*
X4941Y7607D01*
X4944Y7581D01*
X4954Y7557D01*
X4970Y7536D01*
X4991Y7520D01*
X5016Y7509D01*
X5042Y7506D01*
X5068Y7509D01*
X5093Y7520D01*
X5114Y7536D01*
X5130Y7557D01*
X5140Y7581D01*
X5143Y7607D01*
X5140Y7634D01*
X5130Y7658D01*
X5114Y7679D01*
X5093Y7695D01*
X5068Y7705D01*
X5042Y7709D01*
D02*
G37*
G36*
Y7963D02*
X5016Y7959D01*
X4991Y7949D01*
X4970Y7933D01*
X4954Y7912D01*
X4944Y7888D01*
X4941Y7861D01*
X4944Y7835D01*
X4954Y7811D01*
X4970Y7790D01*
X4991Y7774D01*
X5016Y7763D01*
X5042Y7760D01*
X5068Y7763D01*
X5093Y7774D01*
X5114Y7790D01*
X5130Y7811D01*
X5140Y7835D01*
X5143Y7861D01*
X5140Y7888D01*
X5130Y7912D01*
X5114Y7933D01*
X5093Y7949D01*
X5068Y7959D01*
X5042Y7963D01*
D02*
G37*
G36*
X6566Y7201D02*
X6540Y7197D01*
X6515Y7187D01*
X6494Y7171D01*
X6478Y7150D01*
X6468Y7126D01*
X6465Y7099D01*
X6468Y7073D01*
X6478Y7049D01*
X6494Y7028D01*
X6515Y7012D01*
X6540Y7001D01*
X6566Y6998D01*
X6592Y7001D01*
X6617Y7012D01*
X6638Y7028D01*
X6654Y7049D01*
X6664Y7073D01*
X6667Y7099D01*
X6664Y7126D01*
X6654Y7150D01*
X6638Y7171D01*
X6617Y7187D01*
X6592Y7197D01*
X6566Y7201D01*
D02*
G37*
G36*
Y7455D02*
X6540Y7451D01*
X6515Y7441D01*
X6494Y7425D01*
X6478Y7404D01*
X6468Y7380D01*
X6465Y7353D01*
X6468Y7327D01*
X6478Y7303D01*
X6494Y7282D01*
X6515Y7266D01*
X6540Y7255D01*
X6566Y7252D01*
X6592Y7255D01*
X6617Y7266D01*
X6638Y7282D01*
X6654Y7303D01*
X6664Y7327D01*
X6667Y7353D01*
X6664Y7380D01*
X6654Y7404D01*
X6638Y7425D01*
X6617Y7441D01*
X6592Y7451D01*
X6566Y7455D01*
D02*
G37*
G36*
X5029Y7341D02*
X4942D01*
X4944Y7327D01*
X4954Y7303D01*
X4970Y7282D01*
X4991Y7266D01*
X5016Y7255D01*
X5029Y7254D01*
Y7341D01*
D02*
G37*
G36*
X6553Y7849D02*
X6466D01*
X6468Y7835D01*
X6470Y7831D01*
X6039Y7400D01*
X5131D01*
X5130Y7404D01*
X5114Y7425D01*
X5093Y7441D01*
X5068Y7451D01*
X5055Y7453D01*
Y7353D01*
Y7254D01*
X5068Y7255D01*
X5093Y7266D01*
X5114Y7282D01*
X5130Y7303D01*
X5131Y7307D01*
X6058D01*
X6058Y7307D01*
X6076Y7311D01*
X6091Y7321D01*
X6535Y7765D01*
X6540Y7763D01*
X6553Y7762D01*
Y7849D01*
D02*
G37*
G36*
X5042Y9487D02*
X5016Y9483D01*
X4991Y9473D01*
X4970Y9457D01*
X4954Y9436D01*
X4944Y9412D01*
X4941Y9385D01*
X4944Y9359D01*
X4954Y9335D01*
X4970Y9314D01*
X4991Y9298D01*
X5016Y9287D01*
X5042Y9284D01*
X5068Y9287D01*
X5093Y9298D01*
X5114Y9314D01*
X5130Y9335D01*
X5140Y9359D01*
X5143Y9385D01*
X5140Y9412D01*
X5130Y9436D01*
X5114Y9457D01*
X5093Y9473D01*
X5068Y9483D01*
X5042Y9487D01*
D02*
G37*
G36*
X2921Y10871D02*
Y10719D01*
Y10567D01*
X2938Y10569D01*
X2967Y10577D01*
X2993Y10591D01*
X3017Y10611D01*
X3036Y10634D01*
X3050Y10660D01*
X3054Y10673D01*
X3499D01*
X3545Y10627D01*
X3545Y10627D01*
X3560Y10617D01*
X3577Y10613D01*
X3577Y10613D01*
X3989D01*
X4000Y10586D01*
X4024Y10556D01*
X4054Y10532D01*
X4090Y10518D01*
X4115Y10514D01*
Y10659D01*
Y10804D01*
X4090Y10801D01*
X4054Y10786D01*
X4024Y10763D01*
X4000Y10733D01*
X3989Y10706D01*
X3597D01*
X3551Y10752D01*
X3536Y10762D01*
X3518Y10765D01*
X3518Y10765D01*
X3054D01*
X3050Y10777D01*
X3036Y10804D01*
X3017Y10827D01*
X2993Y10846D01*
X2967Y10860D01*
X2938Y10869D01*
X2921Y10871D01*
D02*
G37*
G36*
X5740Y10810D02*
X5720Y10807D01*
X5690Y10794D01*
X5664Y10774D01*
X5644Y10748D01*
X5637Y10731D01*
X4953D01*
X4935Y10727D01*
X4920Y10717D01*
X4920Y10717D01*
X4908Y10706D01*
X4266D01*
X4255Y10733D01*
X4231Y10763D01*
X4201Y10786D01*
X4165Y10801D01*
X4140Y10804D01*
Y10659D01*
Y10514D01*
X4165Y10518D01*
X4201Y10532D01*
X4231Y10556D01*
X4255Y10586D01*
X4266Y10613D01*
X4928D01*
X4928Y10613D01*
X4945Y10617D01*
X4960Y10627D01*
X4972Y10638D01*
X5637D01*
X5644Y10621D01*
X5664Y10595D01*
X5690Y10575D01*
X5720Y10563D01*
X5740Y10560D01*
Y10685D01*
Y10810D01*
D02*
G37*
G36*
X6553Y7961D02*
X6540Y7959D01*
X6515Y7949D01*
X6494Y7933D01*
X6478Y7912D01*
X6468Y7888D01*
X6466Y7874D01*
X6553D01*
Y7961D01*
D02*
G37*
G36*
X6579D02*
Y7874D01*
X6665D01*
X6664Y7888D01*
X6654Y7912D01*
X6638Y7933D01*
X6617Y7949D01*
X6592Y7959D01*
X6579Y7961D01*
D02*
G37*
G36*
X3327Y8749D02*
X3311Y8747D01*
X3284Y8736D01*
X3262Y8719D01*
X3244Y8696D01*
X3233Y8669D01*
X3231Y8653D01*
X3327D01*
Y8749D01*
D02*
G37*
G36*
X8799Y6419D02*
X8712D01*
Y6332D01*
X8726Y6334D01*
X8750Y6344D01*
X8771Y6360D01*
X8787Y6381D01*
X8797Y6405D01*
X8799Y6419D01*
D02*
G37*
G36*
X8941D02*
X8854D01*
X8856Y6405D01*
X8866Y6381D01*
X8882Y6360D01*
X8903Y6344D01*
X8927Y6334D01*
X8941Y6332D01*
Y6419D01*
D02*
G37*
G36*
X9053D02*
X8966D01*
Y6332D01*
X8980Y6334D01*
X9004Y6344D01*
X9025Y6360D01*
X9041Y6381D01*
X9051Y6405D01*
X9053Y6419D01*
D02*
G37*
G36*
X8179D02*
X8092D01*
X8094Y6405D01*
X8104Y6381D01*
X8120Y6360D01*
X8141Y6344D01*
X8165Y6334D01*
X8179Y6332D01*
Y6419D01*
D02*
G37*
G36*
X8291D02*
X8204D01*
Y6332D01*
X8218Y6334D01*
X8242Y6344D01*
X8263Y6360D01*
X8279Y6381D01*
X8289Y6405D01*
X8291Y6419D01*
D02*
G37*
G36*
X8687D02*
X8600D01*
X8602Y6405D01*
X8612Y6381D01*
X8628Y6360D01*
X8649Y6344D01*
X8673Y6334D01*
X8687Y6332D01*
Y6419D01*
D02*
G37*
G36*
X8179Y6531D02*
X8165Y6529D01*
X8141Y6519D01*
X8120Y6503D01*
X8104Y6482D01*
X8094Y6458D01*
X8092Y6444D01*
X8179D01*
Y6531D01*
D02*
G37*
G36*
X8941D02*
X8927Y6529D01*
X8903Y6519D01*
X8882Y6503D01*
X8866Y6482D01*
X8856Y6458D01*
X8854Y6444D01*
X8941D01*
Y6531D01*
D02*
G37*
G36*
X8966D02*
Y6444D01*
X9053D01*
X9051Y6458D01*
X9041Y6482D01*
X9025Y6503D01*
X9004Y6519D01*
X8980Y6529D01*
X8966Y6531D01*
D02*
G37*
G36*
X6566Y6947D02*
X6540Y6943D01*
X6515Y6933D01*
X6494Y6917D01*
X6478Y6896D01*
X6468Y6872D01*
X6465Y6845D01*
X6468Y6819D01*
X6478Y6795D01*
X6494Y6774D01*
X6515Y6758D01*
X6540Y6747D01*
X6566Y6744D01*
X6592Y6747D01*
X6617Y6758D01*
X6638Y6774D01*
X6654Y6795D01*
X6664Y6819D01*
X6667Y6845D01*
X6664Y6872D01*
X6654Y6896D01*
X6638Y6917D01*
X6617Y6933D01*
X6592Y6943D01*
X6566Y6947D01*
D02*
G37*
G36*
X8204Y6531D02*
Y6444D01*
X8291D01*
X8289Y6458D01*
X8279Y6482D01*
X8263Y6503D01*
X8242Y6519D01*
X8218Y6529D01*
X8204Y6531D01*
D02*
G37*
G36*
X8687D02*
X8673Y6529D01*
X8649Y6519D01*
X8628Y6503D01*
X8612Y6482D01*
X8602Y6458D01*
X8600Y6444D01*
X8687D01*
Y6531D01*
D02*
G37*
G36*
X8712D02*
Y6444D01*
X8799D01*
X8797Y6458D01*
X8787Y6482D01*
X8771Y6503D01*
X8750Y6519D01*
X8726Y6529D01*
X8712Y6531D01*
D02*
G37*
%LPD*%
D10*
X4128Y11159D02*
X4928D01*
X4953Y11185D01*
X5753D01*
X4128Y10659D02*
X4928D01*
X4953Y10685D01*
X5753D01*
X7874Y8839D02*
Y8992D01*
Y8839D02*
X8007Y8706D01*
X8579D01*
X8611Y8674D01*
X9520Y7790D02*
Y8230D01*
X9461Y8288D02*
X9520Y8230D01*
X9294Y8288D02*
X9461D01*
X9251Y8331D02*
X9294Y8288D01*
X9251Y8331D02*
Y8738D01*
X9309Y8796D01*
X9533D01*
X9746Y8583D01*
Y8230D02*
Y8583D01*
Y8230D02*
X9771Y8204D01*
X9881D01*
X3340Y8086D02*
X3661D01*
X3840Y7906D01*
Y6459D02*
Y7906D01*
Y6459D02*
X3962Y6337D01*
X5042D01*
X2908Y10719D02*
X3518D01*
X3577Y10659D01*
X4128D01*
X7874Y9195D02*
X8242D01*
X8255Y9182D01*
X8611D01*
X7861Y8407D02*
X8235D01*
X8247Y8420D01*
X8611D01*
X7861Y8204D02*
X8235D01*
X8273Y8166D01*
X8611D01*
X2908Y11100D02*
X3518D01*
X3577Y11159D01*
X4128D01*
X2988Y8015D02*
X3056Y7948D01*
X3134Y8357D02*
X3274Y8217D01*
X3759D01*
X3907Y8070D01*
Y6706D02*
Y8070D01*
Y6706D02*
X4021Y6591D01*
X5042D01*
X9517Y9182D02*
X10015Y8684D01*
Y8230D02*
Y8684D01*
X9990Y8204D02*
X10015Y8230D01*
X9881Y8204D02*
X9990D01*
X9881Y8407D02*
Y8692D01*
X9522Y9050D02*
X9881Y8692D01*
X9312Y9050D02*
X9522D01*
X9190Y8928D02*
X9312Y9050D01*
X8611Y8928D02*
X9190D01*
X9307Y8862D02*
X9373Y8928D01*
X9182Y8862D02*
X9307D01*
X9126Y8806D02*
X9182Y8862D01*
X8522Y8806D02*
X9126D01*
X8489Y8839D02*
X8522Y8806D01*
X8489Y8839D02*
Y8992D01*
X8557Y9060D01*
X8847D01*
X9119Y9332D01*
Y10211D01*
X10041Y9012D02*
Y10851D01*
X10008Y8979D02*
X10041Y9012D01*
X9906Y8979D02*
X10008D01*
X9373Y9182D02*
Y11074D01*
X9262Y11185D02*
X9373Y11074D01*
X5753Y11185D02*
X9262D01*
X4856Y7539D02*
X5042Y7353D01*
X4856Y7539D02*
Y8880D01*
X4983Y9007D01*
X6675D01*
X6686Y9018D01*
Y9169D01*
X7941Y10424D01*
X9058D01*
X9119Y10363D01*
X6566Y7861D02*
X7071Y7356D01*
X8174Y7231D02*
X8692D01*
X7404Y8001D02*
X8174Y7231D01*
X7404Y8001D02*
Y8738D01*
X7336Y8806D02*
X7404Y8738D01*
X7140Y8806D02*
X7336D01*
X7071Y8738D02*
X7140Y8806D01*
X7071Y8593D02*
Y8738D01*
X6721Y8242D02*
X7071Y8593D01*
X4978Y8242D02*
X6721D01*
X4921Y8299D02*
X4978Y8242D01*
X4921Y8299D02*
Y8757D01*
X5042Y8877D01*
X6714Y8115D02*
X7239Y8640D01*
X6566Y8115D02*
X6714D01*
X6566Y8369D02*
X7150Y8953D01*
Y9051D01*
X7239Y9140D01*
X9373Y8420D02*
X9505D01*
X9594Y8331D01*
Y7993D02*
Y8331D01*
X9373Y8674D02*
X9672Y8374D01*
Y8128D02*
Y8374D01*
X10160Y8204D02*
X10300Y8064D01*
Y6424D02*
Y8064D01*
X9177Y5301D02*
X10300Y6424D01*
X7620Y5301D02*
X9177D01*
X7518Y5403D02*
X7620Y5301D01*
X7518Y5403D02*
Y5677D01*
X6731Y6464D02*
X7518Y5677D01*
X6058Y7099D02*
X6566Y7607D01*
X5042Y8623D02*
X5169Y8750D01*
X6655D01*
X6752Y8847D01*
Y9008D01*
X7050Y9307D01*
X7404D01*
X7470Y9241D01*
Y8044D02*
Y9241D01*
Y8044D02*
X7722Y7792D01*
X8998D01*
X9373Y8166D01*
X2970Y8502D02*
X3056D01*
X2923Y7613D02*
Y8047D01*
Y7613D02*
X2997Y7539D01*
X3150D01*
X3289Y7678D01*
X3453D01*
X3610Y7521D01*
Y5471D02*
Y7521D01*
Y5471D02*
X3759Y5321D01*
X5042D01*
X3056Y8225D02*
X3195Y8085D01*
Y8011D02*
Y8085D01*
Y8011D02*
X3251Y7955D01*
X3585D01*
X3773Y7767D01*
Y5965D02*
Y7767D01*
Y5965D02*
X3909Y5829D01*
X5042D01*
Y5575D02*
X5164Y5697D01*
Y6673D01*
X5121Y6716D02*
X5164Y6673D01*
X4877Y6716D02*
X5121D01*
X4717Y6876D02*
X4877Y6716D01*
X4717Y6876D02*
Y7650D01*
X4003Y8363D02*
X4717Y7650D01*
X3340Y8363D02*
X4003D01*
X3340Y7809D02*
X3534D01*
X3685Y7659D01*
Y5900D02*
Y7659D01*
Y5900D02*
X4142Y5443D01*
X5182D01*
X5293Y5555D01*
Y6670D01*
X5118Y6845D02*
X5293Y6670D01*
X5042Y6845D02*
X5118D01*
X3340Y7532D02*
X3543Y7329D01*
Y5060D02*
Y7329D01*
Y5060D02*
X3658Y4945D01*
X5225D01*
X5359Y5080D01*
Y6767D01*
X5149Y6977D02*
X5359Y6767D01*
X4872Y6977D02*
X5149D01*
X4783Y7066D02*
X4872Y6977D01*
X4783Y7066D02*
Y9380D01*
X5042Y9639D01*
X3642Y8494D02*
X5042Y9893D01*
X3288Y8494D02*
X3642D01*
X3150Y8632D02*
X3288Y8494D01*
X2991Y8632D02*
X3150D01*
X3011Y7255D02*
X3340D01*
X6380Y10079D02*
X6566Y9893D01*
X4512Y10079D02*
X6380D01*
X3485Y9053D02*
X4512Y10079D01*
X3279Y9053D02*
X3485D01*
X2918Y6978D02*
X3340D01*
X2882Y6701D02*
X3340D01*
X2615Y6969D02*
X2882Y6701D01*
X2615Y6969D02*
Y9424D01*
X3335Y10145D01*
X6502D01*
X6688Y9959D01*
Y9761D02*
Y9959D01*
X6566Y9639D02*
X6688Y9761D01*
X8585Y8026D02*
X8611Y7912D01*
X7739Y8026D02*
X8585D01*
X7638Y8128D02*
X7739Y8026D01*
X7638Y8128D02*
Y9263D01*
X8585Y10211D01*
X8915D01*
X5753Y10685D02*
X6628D01*
X6949Y10363D01*
Y9609D02*
Y10363D01*
X6853Y9512D02*
X6949Y9609D01*
X5665Y9512D02*
X6853D01*
X5164Y10014D02*
X5665Y9512D01*
X4713Y10014D02*
X5164D01*
X3340Y8640D02*
X4713Y10014D01*
X9000Y10685D02*
X9119Y10566D01*
X6058Y7353D02*
X6566Y7861D01*
X5042Y7353D02*
X6058D01*
X5042Y7099D02*
X5804D01*
X6058D01*
X9990Y8204D02*
X10160D01*
X9373Y9182D02*
X9517D01*
X9906D01*
X8692Y7231D02*
X9251Y7790D01*
X9373Y7912D01*
X6628Y10685D02*
X9000D01*
X9119Y10211D02*
Y10363D01*
Y10566D01*
X2728Y8501D02*
X3279Y9053D01*
X2728Y7169D02*
X2918Y6978D01*
X2795Y8436D02*
X2991Y8632D01*
X2795Y7471D02*
X3011Y7255D01*
X2728Y7169D02*
Y8501D01*
X2795Y7471D02*
Y8436D01*
X2984Y8357D02*
X3134D01*
X2926Y8298D02*
X2984Y8357D01*
X2926Y8145D02*
Y8298D01*
Y8145D02*
X2988Y8083D01*
Y8015D02*
Y8083D01*
X2861Y8392D02*
X2970Y8502D01*
X2861Y8109D02*
X2923Y8047D01*
X2861Y8109D02*
Y8392D01*
X2654Y10757D02*
X2692Y10719D01*
X2908D01*
X2654Y10757D02*
Y11316D01*
X2896Y11557D01*
X9335D01*
X10041Y10851D01*
X6566Y5067D02*
X7087D01*
X7099Y5080D01*
X5804Y7099D02*
X6439Y6464D01*
X8013Y6673D02*
X9431D01*
X9251Y7247D02*
X9855Y6642D01*
X9251Y7247D02*
Y7790D01*
X9520D02*
X9652Y7658D01*
X9855D01*
X10096Y6525D02*
Y7811D01*
X9672Y8128D02*
X9812Y7988D01*
X10081D01*
X9594Y7993D02*
X9700Y7887D01*
X10020D01*
X10096Y7811D01*
X10198Y6471D02*
Y7871D01*
X10081Y7988D02*
X10198Y7871D01*
X9431Y6673D02*
X9690Y6414D01*
X9985D01*
X10096Y6525D01*
X10039Y6312D02*
X10198Y6471D01*
X8557Y6601D02*
X9350D01*
X9639Y6312D01*
X10039D01*
X7912Y6572D02*
X8013Y6673D01*
X8554Y5906D02*
X8826Y6178D01*
X7971Y5906D02*
X8554D01*
X7071Y6805D02*
Y7356D01*
Y6805D02*
X7971Y5906D01*
X7912Y6236D02*
Y6572D01*
Y6236D02*
X7970Y6178D01*
X8064D01*
X8446Y6490D02*
X8557Y6601D01*
X8446Y6432D02*
Y6490D01*
D11*
X6439Y6464D02*
X6731D01*
D12*
X7099Y5067D02*
D03*
Y6083D02*
D03*
X9855Y6642D02*
D03*
Y7658D02*
D03*
X2908Y10719D02*
D03*
D13*
X9119Y10211D02*
D03*
D14*
X8915D02*
D03*
D15*
X7861Y8407D02*
D03*
X9906Y9182D02*
D03*
X7874Y9195D02*
D03*
X9881Y8407D02*
D03*
D16*
X7861Y8204D02*
D03*
X9906Y8979D02*
D03*
X7874Y8992D02*
D03*
X9881Y8204D02*
D03*
D17*
X9081Y5543D02*
D03*
X7938D02*
D03*
D18*
X9294Y5847D02*
D03*
X7724D02*
D03*
D19*
X8318Y6178D02*
D03*
X8572D02*
D03*
X8446Y6432D02*
D03*
X8700D02*
D03*
X8826Y6178D02*
D03*
X8192Y6432D02*
D03*
X8954D02*
D03*
D20*
X8064Y6178D02*
D03*
D21*
X6566Y5067D02*
D03*
X8611Y9182D02*
D03*
D22*
X6566Y5321D02*
D03*
Y5575D02*
D03*
Y5829D02*
D03*
Y6083D02*
D03*
Y6337D02*
D03*
Y6591D02*
D03*
Y6845D02*
D03*
Y7099D02*
D03*
Y7353D02*
D03*
Y7607D02*
D03*
Y7861D02*
D03*
Y8115D02*
D03*
Y8369D02*
D03*
Y8623D02*
D03*
Y8877D02*
D03*
Y9131D02*
D03*
Y9385D02*
D03*
Y9639D02*
D03*
Y9893D02*
D03*
X5042Y5067D02*
D03*
Y5321D02*
D03*
Y5575D02*
D03*
Y5829D02*
D03*
Y6083D02*
D03*
Y6337D02*
D03*
Y6591D02*
D03*
Y6845D02*
D03*
Y7099D02*
D03*
Y7353D02*
D03*
Y7607D02*
D03*
Y7861D02*
D03*
Y8115D02*
D03*
Y8369D02*
D03*
Y8623D02*
D03*
Y8877D02*
D03*
Y9131D02*
D03*
Y9385D02*
D03*
Y9639D02*
D03*
Y9893D02*
D03*
X8611Y8928D02*
D03*
Y8674D02*
D03*
Y8420D02*
D03*
Y8166D02*
D03*
Y7912D02*
D03*
Y7658D02*
D03*
Y7404D02*
D03*
X9373Y9182D02*
D03*
Y8928D02*
D03*
Y8674D02*
D03*
Y8420D02*
D03*
Y8166D02*
D03*
Y7912D02*
D03*
Y7658D02*
D03*
Y7404D02*
D03*
D23*
X3198Y9337D02*
D03*
Y6005D02*
D03*
D24*
X3340Y8640D02*
D03*
X3056Y8502D02*
D03*
X3340Y8363D02*
D03*
X3056Y8225D02*
D03*
X3340Y8086D02*
D03*
X3056Y7948D02*
D03*
X3340Y7809D02*
D03*
X3056Y7671D02*
D03*
X3340Y7532D02*
D03*
X3056Y7394D02*
D03*
X3340Y7255D02*
D03*
X3056Y7117D02*
D03*
X3340Y6978D02*
D03*
X3056Y6840D02*
D03*
D25*
X3340Y6701D02*
D03*
D26*
X4128Y10659D02*
D03*
Y11159D02*
D03*
X7239Y8640D02*
D03*
Y9140D02*
D03*
D27*
X5753Y11185D02*
D03*
D28*
Y10685D02*
D03*
D29*
X2908Y11100D02*
D03*
M02*
