G04 (created by PCBNEW-RS274X (2011-11-27 BZR 3249)-stable) date 21/02/2012 2:28:40 p.m.*
G01*
G70*
G90*
%MOIN*%
G04 Gerber Fmt 3.4, Leading zero omitted, Abs format*
%FSLAX34Y34*%
G04 APERTURE LIST*
%ADD10C,0.006000*%
%ADD11C,0.055100*%
%ADD12R,0.200800X0.200800*%
%ADD13C,0.551200*%
%ADD14R,0.315000X0.039400*%
%ADD15O,0.118100X0.059100*%
%ADD16R,0.118100X0.059100*%
%ADD17C,0.035000*%
%ADD18C,0.013800*%
%ADD19C,0.039400*%
%ADD20C,0.021700*%
%ADD21C,0.017700*%
%ADD22C,0.010000*%
G04 APERTURE END LIST*
G54D10*
G54D11*
X40441Y-31583D03*
X40441Y-22134D03*
G54D12*
X39279Y-29299D03*
X29043Y-29299D03*
G54D13*
X34161Y-29299D03*
G54D14*
X34161Y-25362D03*
G54D15*
X25311Y-25895D03*
X25311Y-25108D03*
G54D16*
X25311Y-24320D03*
G54D15*
X25311Y-26682D03*
X25311Y-27470D03*
X25311Y-28257D03*
X25311Y-29044D03*
X25311Y-29831D03*
G54D17*
X26551Y-27697D03*
X26579Y-29933D03*
X32776Y-22803D03*
X36209Y-22819D03*
X26461Y-31043D03*
X39854Y-27197D03*
X32776Y-24571D03*
X27465Y-24783D03*
X24457Y-30969D03*
X42598Y-30004D03*
X30079Y-22110D03*
X31579Y-24630D03*
X30461Y-32685D03*
X31882Y-27697D03*
X25071Y-31606D03*
X35433Y-24728D03*
X26709Y-21969D03*
X26724Y-22780D03*
X27315Y-26776D03*
X34480Y-32764D03*
X28598Y-20984D03*
X26079Y-20996D03*
X38760Y-32685D03*
X31079Y-20972D03*
X41331Y-20957D03*
X27760Y-25646D03*
X29012Y-24370D03*
X31402Y-29425D03*
X27559Y-30626D03*
X26272Y-30465D03*
X26244Y-27063D03*
X24528Y-23283D03*
X42598Y-25772D03*
X36331Y-23555D03*
X38720Y-20984D03*
X24598Y-32697D03*
X27551Y-29386D03*
X42614Y-22665D03*
X35433Y-20988D03*
X27559Y-31465D03*
X30449Y-31433D03*
X32106Y-22642D03*
X40020Y-26220D03*
X31811Y-23965D03*
G54D18*
X26579Y-27725D02*
X26579Y-29933D01*
X26551Y-27697D02*
X26579Y-27725D01*
G54D19*
X39854Y-27197D02*
X40425Y-27197D01*
X32776Y-22803D02*
X32776Y-24571D01*
G54D20*
X26461Y-31043D02*
X26461Y-31059D01*
G54D19*
X40740Y-26882D02*
X40740Y-25515D01*
X40425Y-27197D02*
X40740Y-26882D01*
X38044Y-22819D02*
X36209Y-22819D01*
G54D20*
X26709Y-26985D02*
X27067Y-27343D01*
X26709Y-26894D02*
X26709Y-26985D01*
X26709Y-25214D02*
X26709Y-26894D01*
G54D19*
X40740Y-25515D02*
X38044Y-22819D01*
G54D20*
X27140Y-24783D02*
X26709Y-25214D01*
X27140Y-24783D02*
X27465Y-24783D01*
X27067Y-27343D02*
X27067Y-30488D01*
X26496Y-31059D02*
X26461Y-31059D01*
X27067Y-30488D02*
X26496Y-31059D01*
G54D21*
X42598Y-22681D02*
X42598Y-25772D01*
G54D18*
X36331Y-23555D02*
X38996Y-26220D01*
X24445Y-30980D02*
X24446Y-30980D01*
G54D21*
X28586Y-20996D02*
X28598Y-20984D01*
G54D18*
X24446Y-30980D02*
X24457Y-30969D01*
X25071Y-31606D02*
X24445Y-30980D01*
G54D21*
X34480Y-32764D02*
X34480Y-30401D01*
G54D18*
X28953Y-20984D02*
X28598Y-20984D01*
G54D21*
X31079Y-20972D02*
X35417Y-20972D01*
G54D18*
X30079Y-22110D02*
X28953Y-20984D01*
G54D21*
X30449Y-32673D02*
X30461Y-32685D01*
G54D18*
X26709Y-21969D02*
X26709Y-22765D01*
X31571Y-24626D02*
X31575Y-24626D01*
X31575Y-24626D02*
X31579Y-24630D01*
G54D21*
X26079Y-20996D02*
X28586Y-20996D01*
X35417Y-20972D02*
X35433Y-20988D01*
G54D18*
X27315Y-26776D02*
X27315Y-26091D01*
X27315Y-26091D02*
X27760Y-25646D01*
G54D21*
X41304Y-20984D02*
X41331Y-20957D01*
X38760Y-32220D02*
X38760Y-32685D01*
X34480Y-32764D02*
X34472Y-32756D01*
G54D18*
X26709Y-22765D02*
X26724Y-22780D01*
G54D21*
X42598Y-30548D02*
X42197Y-30949D01*
X40031Y-30949D02*
X38760Y-32220D01*
X38720Y-20984D02*
X41304Y-20984D01*
X24598Y-32079D02*
X25071Y-31606D01*
X32559Y-27697D02*
X31882Y-27697D01*
X24598Y-32697D02*
X24598Y-32079D01*
X30449Y-31433D02*
X30449Y-32673D01*
X27559Y-30626D02*
X27559Y-31465D01*
X34161Y-29299D02*
X34035Y-29425D01*
X34035Y-29425D02*
X31402Y-29425D01*
G54D18*
X27736Y-27729D02*
X27736Y-26999D01*
X27513Y-26776D02*
X27315Y-26776D01*
G54D21*
X34161Y-29299D02*
X32559Y-27697D01*
X34480Y-30401D02*
X33256Y-29177D01*
G54D18*
X38996Y-26220D02*
X40020Y-26220D01*
X32106Y-22642D02*
X32098Y-22642D01*
G54D21*
X42614Y-22665D02*
X42598Y-22681D01*
G54D20*
X35433Y-20988D02*
X35433Y-24728D01*
G54D18*
X27551Y-29386D02*
X27551Y-27914D01*
G54D21*
X42598Y-30004D02*
X42598Y-30548D01*
G54D18*
X29012Y-24370D02*
X29008Y-24370D01*
G54D21*
X42197Y-30949D02*
X40031Y-30949D01*
G54D18*
X27551Y-27914D02*
X27736Y-27729D01*
X27736Y-26999D02*
X27513Y-26776D01*
X34161Y-25362D02*
X37000Y-25362D01*
X30854Y-25275D02*
X30854Y-25358D01*
X31811Y-23965D02*
X30496Y-23965D01*
X28409Y-28665D02*
X29043Y-29299D01*
X30854Y-24610D02*
X30854Y-25275D01*
X37000Y-25362D02*
X38941Y-27303D01*
X29118Y-23965D02*
X28669Y-23965D01*
X34161Y-25362D02*
X30941Y-25362D01*
X30941Y-25362D02*
X30854Y-25275D01*
X28409Y-24225D02*
X28409Y-28665D01*
X30496Y-23965D02*
X30209Y-23965D01*
X38941Y-27303D02*
X38941Y-28961D01*
X38941Y-28961D02*
X39279Y-29299D01*
X30209Y-23965D02*
X30854Y-24610D01*
X28669Y-23965D02*
X28409Y-24225D01*
X30209Y-23965D02*
X29118Y-23965D01*
G54D22*
X24341Y-20876D02*
X42982Y-20876D01*
X24341Y-20956D02*
X42982Y-20956D01*
X24341Y-21036D02*
X42982Y-21036D01*
X24341Y-21116D02*
X42982Y-21116D01*
X24341Y-21196D02*
X42982Y-21196D01*
X24341Y-21276D02*
X42982Y-21276D01*
X24341Y-21356D02*
X42982Y-21356D01*
X24341Y-21436D02*
X42982Y-21436D01*
X24341Y-21516D02*
X42982Y-21516D01*
X24341Y-21596D02*
X42982Y-21596D01*
X24341Y-21676D02*
X40175Y-21676D01*
X40707Y-21676D02*
X42982Y-21676D01*
X24341Y-21756D02*
X40076Y-21756D01*
X40805Y-21756D02*
X42982Y-21756D01*
X24341Y-21836D02*
X39996Y-21836D01*
X40885Y-21836D02*
X42982Y-21836D01*
X24341Y-21916D02*
X39962Y-21916D01*
X40918Y-21916D02*
X42982Y-21916D01*
X24341Y-21996D02*
X39929Y-21996D01*
X40951Y-21996D02*
X42982Y-21996D01*
X24341Y-22076D02*
X39916Y-22076D01*
X40966Y-22076D02*
X42982Y-22076D01*
X24341Y-22156D02*
X39916Y-22156D01*
X40966Y-22156D02*
X42982Y-22156D01*
X24341Y-22236D02*
X39916Y-22236D01*
X40966Y-22236D02*
X42982Y-22236D01*
X24341Y-22316D02*
X39949Y-22316D01*
X40935Y-22316D02*
X40966Y-22316D01*
X40966Y-22316D02*
X42982Y-22316D01*
X24341Y-22396D02*
X32596Y-22396D01*
X32955Y-22396D02*
X36088Y-22396D01*
X38164Y-22396D02*
X39982Y-22396D01*
X40901Y-22396D02*
X40966Y-22396D01*
X40966Y-22396D02*
X42982Y-22396D01*
X24341Y-22476D02*
X32476Y-22476D01*
X33075Y-22476D02*
X35933Y-22476D01*
X38319Y-22476D02*
X40041Y-22476D01*
X40842Y-22476D02*
X40966Y-22476D01*
X40966Y-22476D02*
X42982Y-22476D01*
X24341Y-22556D02*
X32413Y-22556D01*
X33138Y-22556D02*
X35857Y-22556D01*
X38413Y-22556D02*
X40121Y-22556D01*
X40762Y-22556D02*
X40966Y-22556D01*
X40966Y-22556D02*
X42982Y-22556D01*
X24341Y-22636D02*
X32362Y-22636D01*
X33189Y-22636D02*
X35804Y-22636D01*
X38493Y-22636D02*
X40281Y-22636D01*
X40601Y-22636D02*
X40966Y-22636D01*
X40966Y-22636D02*
X42982Y-22636D01*
X24341Y-22716D02*
X32346Y-22716D01*
X33205Y-22716D02*
X35782Y-22716D01*
X38573Y-22716D02*
X40966Y-22716D01*
X40966Y-22716D02*
X42982Y-22716D01*
X24341Y-22796D02*
X32330Y-22796D01*
X33221Y-22796D02*
X35766Y-22796D01*
X38653Y-22796D02*
X40966Y-22796D01*
X40966Y-22796D02*
X42982Y-22796D01*
X24341Y-22876D02*
X32329Y-22876D01*
X33223Y-22876D02*
X35774Y-22876D01*
X38733Y-22876D02*
X40966Y-22876D01*
X40966Y-22876D02*
X42982Y-22876D01*
X24341Y-22956D02*
X32329Y-22956D01*
X33223Y-22956D02*
X35790Y-22956D01*
X38813Y-22956D02*
X40966Y-22956D01*
X40966Y-22956D02*
X42982Y-22956D01*
X24341Y-23036D02*
X32329Y-23036D01*
X33223Y-23036D02*
X35827Y-23036D01*
X38893Y-23036D02*
X40966Y-23036D01*
X40966Y-23036D02*
X42982Y-23036D01*
X24341Y-23116D02*
X32329Y-23116D01*
X33223Y-23116D02*
X35881Y-23116D01*
X38973Y-23116D02*
X40966Y-23116D01*
X40966Y-23116D02*
X42982Y-23116D01*
X24341Y-23196D02*
X32329Y-23196D01*
X33223Y-23196D02*
X35985Y-23196D01*
X39053Y-23196D02*
X40966Y-23196D01*
X40966Y-23196D02*
X42982Y-23196D01*
X24341Y-23276D02*
X32329Y-23276D01*
X33223Y-23276D02*
X37869Y-23276D01*
X39133Y-23276D02*
X40966Y-23276D01*
X40966Y-23276D02*
X42982Y-23276D01*
X24341Y-23356D02*
X32329Y-23356D01*
X33223Y-23356D02*
X37949Y-23356D01*
X39213Y-23356D02*
X40966Y-23356D01*
X40966Y-23356D02*
X42982Y-23356D01*
X24341Y-23436D02*
X32329Y-23436D01*
X33223Y-23436D02*
X38029Y-23436D01*
X39293Y-23436D02*
X40966Y-23436D01*
X40966Y-23436D02*
X42982Y-23436D01*
X24341Y-23516D02*
X32329Y-23516D01*
X33223Y-23516D02*
X38109Y-23516D01*
X39373Y-23516D02*
X40966Y-23516D01*
X40966Y-23516D02*
X42982Y-23516D01*
X24341Y-23596D02*
X31590Y-23596D01*
X32030Y-23596D02*
X32329Y-23596D01*
X33223Y-23596D02*
X38189Y-23596D01*
X39453Y-23596D02*
X40966Y-23596D01*
X40966Y-23596D02*
X42982Y-23596D01*
X24341Y-23676D02*
X28537Y-23676D01*
X32123Y-23676D02*
X32329Y-23676D01*
X33223Y-23676D02*
X38269Y-23676D01*
X39533Y-23676D02*
X40966Y-23676D01*
X40966Y-23676D02*
X42982Y-23676D01*
X24341Y-23756D02*
X28426Y-23756D01*
X32184Y-23756D02*
X32329Y-23756D01*
X33223Y-23756D02*
X38349Y-23756D01*
X39613Y-23756D02*
X40966Y-23756D01*
X40966Y-23756D02*
X42982Y-23756D01*
X24341Y-23836D02*
X24558Y-23836D01*
X25260Y-23836D02*
X25362Y-23836D01*
X26064Y-23836D02*
X28346Y-23836D01*
X32217Y-23836D02*
X32329Y-23836D01*
X33223Y-23836D02*
X38429Y-23836D01*
X39693Y-23836D02*
X40966Y-23836D01*
X40966Y-23836D02*
X42982Y-23836D01*
X24341Y-23916D02*
X24496Y-23916D01*
X25261Y-23916D02*
X25361Y-23916D01*
X26125Y-23916D02*
X28266Y-23916D01*
X32236Y-23916D02*
X32329Y-23916D01*
X33223Y-23916D02*
X38509Y-23916D01*
X39773Y-23916D02*
X40966Y-23916D01*
X40966Y-23916D02*
X42982Y-23916D01*
X24341Y-23996D02*
X24471Y-23996D01*
X25261Y-23996D02*
X25361Y-23996D01*
X26150Y-23996D02*
X28186Y-23996D01*
X32236Y-23996D02*
X32329Y-23996D01*
X33223Y-23996D02*
X38589Y-23996D01*
X39853Y-23996D02*
X40966Y-23996D01*
X40966Y-23996D02*
X42982Y-23996D01*
X24341Y-24076D02*
X24471Y-24076D01*
X25261Y-24076D02*
X25361Y-24076D01*
X26150Y-24076D02*
X28131Y-24076D01*
X32226Y-24076D02*
X32329Y-24076D01*
X33223Y-24076D02*
X38669Y-24076D01*
X39933Y-24076D02*
X40966Y-24076D01*
X40966Y-24076D02*
X42982Y-24076D01*
X24341Y-24156D02*
X24471Y-24156D01*
X25261Y-24156D02*
X25361Y-24156D01*
X26150Y-24156D02*
X28103Y-24156D01*
X32192Y-24156D02*
X32329Y-24156D01*
X33223Y-24156D02*
X38749Y-24156D01*
X40013Y-24156D02*
X40966Y-24156D01*
X40966Y-24156D02*
X42982Y-24156D01*
X24341Y-24236D02*
X24499Y-24236D01*
X25261Y-24236D02*
X25361Y-24236D01*
X26123Y-24236D02*
X26151Y-24236D01*
X26151Y-24236D02*
X28090Y-24236D01*
X32141Y-24236D02*
X32329Y-24236D01*
X33223Y-24236D02*
X38829Y-24236D01*
X40093Y-24236D02*
X40966Y-24236D01*
X40966Y-24236D02*
X42982Y-24236D01*
X24341Y-24316D02*
X25261Y-24316D01*
X25261Y-24316D02*
X26151Y-24316D01*
X26151Y-24316D02*
X28090Y-24316D01*
X28769Y-24316D02*
X30109Y-24316D01*
X31011Y-24316D02*
X31561Y-24316D01*
X32061Y-24316D02*
X32329Y-24316D01*
X33223Y-24316D02*
X38909Y-24316D01*
X40173Y-24316D02*
X40966Y-24316D01*
X40966Y-24316D02*
X42982Y-24316D01*
X24341Y-24396D02*
X24507Y-24396D01*
X26115Y-24396D02*
X26151Y-24396D01*
X26151Y-24396D02*
X27288Y-24396D01*
X27641Y-24396D02*
X28090Y-24396D01*
X28728Y-24396D02*
X30189Y-24396D01*
X31087Y-24396D02*
X32329Y-24396D01*
X33223Y-24396D02*
X38989Y-24396D01*
X40253Y-24396D02*
X40966Y-24396D01*
X40966Y-24396D02*
X42982Y-24396D01*
X24341Y-24476D02*
X24472Y-24476D01*
X26151Y-24476D02*
X26966Y-24476D01*
X27759Y-24476D02*
X28090Y-24476D01*
X28728Y-24476D02*
X30269Y-24476D01*
X31141Y-24476D02*
X32329Y-24476D01*
X33223Y-24476D02*
X39069Y-24476D01*
X40333Y-24476D02*
X40966Y-24476D01*
X40966Y-24476D02*
X42982Y-24476D01*
X24341Y-24556D02*
X24472Y-24556D01*
X26151Y-24556D02*
X26860Y-24556D01*
X27831Y-24556D02*
X28090Y-24556D01*
X28728Y-24556D02*
X30349Y-24556D01*
X31162Y-24556D02*
X32329Y-24556D01*
X33223Y-24556D02*
X39149Y-24556D01*
X40413Y-24556D02*
X40966Y-24556D01*
X40966Y-24556D02*
X42982Y-24556D01*
X24341Y-24636D02*
X24472Y-24636D01*
X26151Y-24636D02*
X26780Y-24636D01*
X27864Y-24636D02*
X28090Y-24636D01*
X28728Y-24636D02*
X30429Y-24636D01*
X31173Y-24636D02*
X32342Y-24636D01*
X33211Y-24636D02*
X39229Y-24636D01*
X40493Y-24636D02*
X40966Y-24636D01*
X40966Y-24636D02*
X42982Y-24636D01*
X24341Y-24716D02*
X24494Y-24716D01*
X26129Y-24716D02*
X26700Y-24716D01*
X27890Y-24716D02*
X28090Y-24716D01*
X28728Y-24716D02*
X30509Y-24716D01*
X31173Y-24716D02*
X32358Y-24716D01*
X33195Y-24716D02*
X39309Y-24716D01*
X40573Y-24716D02*
X40966Y-24716D01*
X40966Y-24716D02*
X42982Y-24716D01*
X24341Y-24796D02*
X24550Y-24796D01*
X26072Y-24796D02*
X26620Y-24796D01*
X27890Y-24796D02*
X28090Y-24796D01*
X28728Y-24796D02*
X30535Y-24796D01*
X31173Y-24796D02*
X32400Y-24796D01*
X33153Y-24796D02*
X39389Y-24796D01*
X40653Y-24796D02*
X40966Y-24796D01*
X40966Y-24796D02*
X42982Y-24796D01*
X24341Y-24876D02*
X24517Y-24876D01*
X26105Y-24876D02*
X26540Y-24876D01*
X27887Y-24876D02*
X27890Y-24876D01*
X27890Y-24876D02*
X28090Y-24876D01*
X28728Y-24876D02*
X30535Y-24876D01*
X31173Y-24876D02*
X32453Y-24876D01*
X33100Y-24876D02*
X39469Y-24876D01*
X40733Y-24876D02*
X40966Y-24876D01*
X40966Y-24876D02*
X42982Y-24876D01*
X24341Y-24956D02*
X24483Y-24956D01*
X26138Y-24956D02*
X26460Y-24956D01*
X27854Y-24956D02*
X27890Y-24956D01*
X27890Y-24956D02*
X28090Y-24956D01*
X28728Y-24956D02*
X30535Y-24956D01*
X31173Y-24956D02*
X32443Y-24956D01*
X35879Y-24956D02*
X39549Y-24956D01*
X40813Y-24956D02*
X40966Y-24956D01*
X40966Y-24956D02*
X42982Y-24956D01*
X24341Y-25036D02*
X24465Y-25036D01*
X26157Y-25036D02*
X26405Y-25036D01*
X27813Y-25036D02*
X27890Y-25036D01*
X27890Y-25036D02*
X28090Y-25036D01*
X28728Y-25036D02*
X30535Y-25036D01*
X31173Y-25036D02*
X32369Y-25036D01*
X35951Y-25036D02*
X39629Y-25036D01*
X40893Y-25036D02*
X40966Y-25036D01*
X40966Y-25036D02*
X42982Y-25036D01*
X24341Y-25116D02*
X24465Y-25116D01*
X26157Y-25116D02*
X26370Y-25116D01*
X27733Y-25116D02*
X27890Y-25116D01*
X27890Y-25116D02*
X28090Y-25116D01*
X28728Y-25116D02*
X30535Y-25116D01*
X37195Y-25116D02*
X39709Y-25116D01*
X40974Y-25116D02*
X42982Y-25116D01*
X24341Y-25196D02*
X24465Y-25196D01*
X26157Y-25196D02*
X26354Y-25196D01*
X27233Y-25196D02*
X27352Y-25196D01*
X27579Y-25196D02*
X27890Y-25196D01*
X27890Y-25196D02*
X28090Y-25196D01*
X28728Y-25196D02*
X30535Y-25196D01*
X37285Y-25196D02*
X39789Y-25196D01*
X41054Y-25196D02*
X42982Y-25196D01*
X24341Y-25276D02*
X24491Y-25276D01*
X26132Y-25276D02*
X26351Y-25276D01*
X27153Y-25276D02*
X27890Y-25276D01*
X27890Y-25276D02*
X28090Y-25276D01*
X28728Y-25276D02*
X30535Y-25276D01*
X37365Y-25276D02*
X39869Y-25276D01*
X41107Y-25276D02*
X42982Y-25276D01*
X24341Y-25356D02*
X24524Y-25356D01*
X26099Y-25356D02*
X26351Y-25356D01*
X27073Y-25356D02*
X27890Y-25356D01*
X27890Y-25356D02*
X28090Y-25356D01*
X28728Y-25356D02*
X30535Y-25356D01*
X37445Y-25356D02*
X39949Y-25356D01*
X41155Y-25356D02*
X42982Y-25356D01*
X24341Y-25436D02*
X24572Y-25436D01*
X26050Y-25436D02*
X26351Y-25436D01*
X27067Y-25436D02*
X27890Y-25436D01*
X27890Y-25436D02*
X28090Y-25436D01*
X28728Y-25436D02*
X30551Y-25436D01*
X37525Y-25436D02*
X40029Y-25436D01*
X41170Y-25436D02*
X42982Y-25436D01*
X24341Y-25516D02*
X24622Y-25516D01*
X25999Y-25516D02*
X26351Y-25516D01*
X27067Y-25516D02*
X27890Y-25516D01*
X27890Y-25516D02*
X28090Y-25516D01*
X28728Y-25516D02*
X30583Y-25516D01*
X37605Y-25516D02*
X40109Y-25516D01*
X41187Y-25516D02*
X42982Y-25516D01*
X24341Y-25596D02*
X24545Y-25596D01*
X26077Y-25596D02*
X26351Y-25596D01*
X27067Y-25596D02*
X27890Y-25596D01*
X27890Y-25596D02*
X28090Y-25596D01*
X28728Y-25596D02*
X30647Y-25596D01*
X37685Y-25596D02*
X40189Y-25596D01*
X41187Y-25596D02*
X42982Y-25596D01*
X24341Y-25676D02*
X24511Y-25676D01*
X26110Y-25676D02*
X26351Y-25676D01*
X27067Y-25676D02*
X27890Y-25676D01*
X27890Y-25676D02*
X28090Y-25676D01*
X28728Y-25676D02*
X30849Y-25676D01*
X30859Y-25676D02*
X30914Y-25676D01*
X37765Y-25676D02*
X40269Y-25676D01*
X41187Y-25676D02*
X42982Y-25676D01*
X24341Y-25756D02*
X24478Y-25756D01*
X26143Y-25756D02*
X26351Y-25756D01*
X27067Y-25756D02*
X27890Y-25756D01*
X27890Y-25756D02*
X28090Y-25756D01*
X28728Y-25756D02*
X32431Y-25756D01*
X35891Y-25756D02*
X36943Y-25756D01*
X37845Y-25756D02*
X40293Y-25756D01*
X41187Y-25756D02*
X42982Y-25756D01*
X24341Y-25836D02*
X24465Y-25836D01*
X26157Y-25836D02*
X26351Y-25836D01*
X27067Y-25836D02*
X27890Y-25836D01*
X27890Y-25836D02*
X28090Y-25836D01*
X28728Y-25836D02*
X37023Y-25836D01*
X37925Y-25836D02*
X40293Y-25836D01*
X41187Y-25836D02*
X42982Y-25836D01*
X24341Y-25916D02*
X24465Y-25916D01*
X26157Y-25916D02*
X26351Y-25916D01*
X27067Y-25916D02*
X27890Y-25916D01*
X27890Y-25916D02*
X28090Y-25916D01*
X28728Y-25916D02*
X37103Y-25916D01*
X38005Y-25916D02*
X40293Y-25916D01*
X41187Y-25916D02*
X42982Y-25916D01*
X24341Y-25996D02*
X24465Y-25996D01*
X26157Y-25996D02*
X26351Y-25996D01*
X27067Y-25996D02*
X27890Y-25996D01*
X27890Y-25996D02*
X28090Y-25996D01*
X28728Y-25996D02*
X37183Y-25996D01*
X38085Y-25996D02*
X40293Y-25996D01*
X41187Y-25996D02*
X42982Y-25996D01*
X24341Y-26076D02*
X24496Y-26076D01*
X26127Y-26076D02*
X26351Y-26076D01*
X27067Y-26076D02*
X27890Y-26076D01*
X27890Y-26076D02*
X28090Y-26076D01*
X28728Y-26076D02*
X37263Y-26076D01*
X38165Y-26076D02*
X40293Y-26076D01*
X41187Y-26076D02*
X42982Y-26076D01*
X24341Y-26156D02*
X24529Y-26156D01*
X26093Y-26156D02*
X26351Y-26156D01*
X27067Y-26156D02*
X27890Y-26156D01*
X27890Y-26156D02*
X28090Y-26156D01*
X28728Y-26156D02*
X37343Y-26156D01*
X38245Y-26156D02*
X40293Y-26156D01*
X41187Y-26156D02*
X42982Y-26156D01*
X24341Y-26236D02*
X24585Y-26236D01*
X26037Y-26236D02*
X26351Y-26236D01*
X27067Y-26236D02*
X27890Y-26236D01*
X27890Y-26236D02*
X28090Y-26236D01*
X28728Y-26236D02*
X37423Y-26236D01*
X38325Y-26236D02*
X40293Y-26236D01*
X41187Y-26236D02*
X42982Y-26236D01*
X24341Y-26316D02*
X24609Y-26316D01*
X26012Y-26316D02*
X26351Y-26316D01*
X27067Y-26316D02*
X27890Y-26316D01*
X27890Y-26316D02*
X28090Y-26316D01*
X28728Y-26316D02*
X37503Y-26316D01*
X38405Y-26316D02*
X40293Y-26316D01*
X41187Y-26316D02*
X42982Y-26316D01*
X24341Y-26396D02*
X24539Y-26396D01*
X26082Y-26396D02*
X26351Y-26396D01*
X27067Y-26396D02*
X27890Y-26396D01*
X27890Y-26396D02*
X28090Y-26396D01*
X28728Y-26396D02*
X33495Y-26396D01*
X34882Y-26396D02*
X37583Y-26396D01*
X38485Y-26396D02*
X40293Y-26396D01*
X41187Y-26396D02*
X42982Y-26396D01*
X24341Y-26476D02*
X24506Y-26476D01*
X26115Y-26476D02*
X26351Y-26476D01*
X27067Y-26476D02*
X27890Y-26476D01*
X27890Y-26476D02*
X28090Y-26476D01*
X28728Y-26476D02*
X33288Y-26476D01*
X35063Y-26476D02*
X37663Y-26476D01*
X38565Y-26476D02*
X40293Y-26476D01*
X41187Y-26476D02*
X42982Y-26476D01*
X24341Y-26556D02*
X24472Y-26556D01*
X26148Y-26556D02*
X26351Y-26556D01*
X27067Y-26556D02*
X27890Y-26556D01*
X27890Y-26556D02*
X28090Y-26556D01*
X28728Y-26556D02*
X33082Y-26556D01*
X35245Y-26556D02*
X37743Y-26556D01*
X38645Y-26556D02*
X40293Y-26556D01*
X41187Y-26556D02*
X42982Y-26556D01*
X24341Y-26636D02*
X24465Y-26636D01*
X26157Y-26636D02*
X26351Y-26636D01*
X27067Y-26636D02*
X27890Y-26636D01*
X27890Y-26636D02*
X28090Y-26636D01*
X28728Y-26636D02*
X32876Y-26636D01*
X35426Y-26636D02*
X37823Y-26636D01*
X38725Y-26636D02*
X40293Y-26636D01*
X41187Y-26636D02*
X42982Y-26636D01*
X24341Y-26716D02*
X24465Y-26716D01*
X26157Y-26716D02*
X26351Y-26716D01*
X27067Y-26716D02*
X27890Y-26716D01*
X27890Y-26716D02*
X28090Y-26716D01*
X28728Y-26716D02*
X32670Y-26716D01*
X35607Y-26716D02*
X37903Y-26716D01*
X38805Y-26716D02*
X40274Y-26716D01*
X41187Y-26716D02*
X42982Y-26716D01*
X24341Y-26796D02*
X24469Y-26796D01*
X26155Y-26796D02*
X26351Y-26796D01*
X27067Y-26796D02*
X27890Y-26796D01*
X27890Y-26796D02*
X28090Y-26796D01*
X28728Y-26796D02*
X32499Y-26796D01*
X35789Y-26796D02*
X37983Y-26796D01*
X38885Y-26796D02*
X39665Y-26796D01*
X41187Y-26796D02*
X42982Y-26796D01*
X24341Y-26876D02*
X24502Y-26876D01*
X26121Y-26876D02*
X26351Y-26876D01*
X27106Y-26876D02*
X27890Y-26876D01*
X27890Y-26876D02*
X28090Y-26876D01*
X28728Y-26876D02*
X32400Y-26876D01*
X35921Y-26876D02*
X38063Y-26876D01*
X38965Y-26876D02*
X39545Y-26876D01*
X41187Y-26876D02*
X42982Y-26876D01*
X24341Y-26956D02*
X24535Y-26956D01*
X26088Y-26956D02*
X26351Y-26956D01*
X27186Y-26956D02*
X27890Y-26956D01*
X27890Y-26956D02*
X28090Y-26956D01*
X28728Y-26956D02*
X32326Y-26956D01*
X35995Y-26956D02*
X38143Y-26956D01*
X39045Y-26956D02*
X39487Y-26956D01*
X41173Y-26956D02*
X41187Y-26956D01*
X41187Y-26956D02*
X42982Y-26956D01*
X24341Y-27036D02*
X24598Y-27036D01*
X26024Y-27036D02*
X26362Y-27036D01*
X27266Y-27036D02*
X27890Y-27036D01*
X27890Y-27036D02*
X28090Y-27036D01*
X28728Y-27036D02*
X32251Y-27036D01*
X36070Y-27036D02*
X38223Y-27036D01*
X39125Y-27036D02*
X39439Y-27036D01*
X41157Y-27036D02*
X41187Y-27036D01*
X41187Y-27036D02*
X42982Y-27036D01*
X24341Y-27116D02*
X24596Y-27116D01*
X26024Y-27116D02*
X26377Y-27116D01*
X27337Y-27116D02*
X27890Y-27116D01*
X27890Y-27116D02*
X28090Y-27116D01*
X28728Y-27116D02*
X32177Y-27116D01*
X36144Y-27116D02*
X38303Y-27116D01*
X39192Y-27116D02*
X39423Y-27116D01*
X41111Y-27116D02*
X41187Y-27116D01*
X41187Y-27116D02*
X42982Y-27116D01*
X24341Y-27196D02*
X24534Y-27196D01*
X26087Y-27196D02*
X26428Y-27196D01*
X27391Y-27196D02*
X27890Y-27196D01*
X27890Y-27196D02*
X28090Y-27196D01*
X28728Y-27196D02*
X32129Y-27196D01*
X36194Y-27196D02*
X36207Y-27196D01*
X36207Y-27196D02*
X38383Y-27196D01*
X39238Y-27196D02*
X39407Y-27196D01*
X41058Y-27196D02*
X41187Y-27196D01*
X41187Y-27196D02*
X42982Y-27196D01*
X24341Y-27276D02*
X24501Y-27276D01*
X26120Y-27276D02*
X26457Y-27276D01*
X27411Y-27276D02*
X27890Y-27276D01*
X27890Y-27276D02*
X28090Y-27276D01*
X28728Y-27276D02*
X32020Y-27276D01*
X32067Y-27276D02*
X32209Y-27276D01*
X36114Y-27276D02*
X36207Y-27276D01*
X36207Y-27276D02*
X36254Y-27276D01*
X36301Y-27276D02*
X38463Y-27276D01*
X39254Y-27276D02*
X39423Y-27276D01*
X40978Y-27276D02*
X41187Y-27276D01*
X41187Y-27276D02*
X42982Y-27276D01*
X24341Y-27356D02*
X24467Y-27356D01*
X26153Y-27356D02*
X26291Y-27356D01*
X27425Y-27356D02*
X27890Y-27356D01*
X27890Y-27356D02*
X28090Y-27356D01*
X28728Y-27356D02*
X31934Y-27356D01*
X32147Y-27356D02*
X32289Y-27356D01*
X36034Y-27356D02*
X36174Y-27356D01*
X36387Y-27356D02*
X38543Y-27356D01*
X39260Y-27356D02*
X39439Y-27356D01*
X40898Y-27356D02*
X41187Y-27356D01*
X41187Y-27356D02*
X42982Y-27356D01*
X24341Y-27436D02*
X24465Y-27436D01*
X26157Y-27436D02*
X26211Y-27436D01*
X27425Y-27436D02*
X27890Y-27436D01*
X27890Y-27436D02*
X28090Y-27436D01*
X28728Y-27436D02*
X31848Y-27436D01*
X32227Y-27436D02*
X32369Y-27436D01*
X35954Y-27436D02*
X36094Y-27436D01*
X36473Y-27436D02*
X38622Y-27436D01*
X39260Y-27436D02*
X39487Y-27436D01*
X40818Y-27436D02*
X41187Y-27436D01*
X41187Y-27436D02*
X42982Y-27436D01*
X24341Y-27516D02*
X24465Y-27516D01*
X26157Y-27516D02*
X26165Y-27516D01*
X27425Y-27516D02*
X27890Y-27516D01*
X27890Y-27516D02*
X28090Y-27516D01*
X28728Y-27516D02*
X31762Y-27516D01*
X32307Y-27516D02*
X32449Y-27516D01*
X35874Y-27516D02*
X36014Y-27516D01*
X36559Y-27516D02*
X38622Y-27516D01*
X39260Y-27516D02*
X39543Y-27516D01*
X40737Y-27516D02*
X41187Y-27516D01*
X41187Y-27516D02*
X42982Y-27516D01*
X24341Y-27596D02*
X24474Y-27596D01*
X27425Y-27596D02*
X27890Y-27596D01*
X27890Y-27596D02*
X28090Y-27596D01*
X28728Y-27596D02*
X31690Y-27596D01*
X32387Y-27596D02*
X32529Y-27596D01*
X35794Y-27596D02*
X35934Y-27596D01*
X36636Y-27596D02*
X38622Y-27596D01*
X39260Y-27596D02*
X39663Y-27596D01*
X40617Y-27596D02*
X41187Y-27596D01*
X41187Y-27596D02*
X42982Y-27596D01*
X24341Y-27676D02*
X24507Y-27676D01*
X27425Y-27676D02*
X27890Y-27676D01*
X27890Y-27676D02*
X28090Y-27676D01*
X28728Y-27676D02*
X31655Y-27676D01*
X32467Y-27676D02*
X32609Y-27676D01*
X35714Y-27676D02*
X35854Y-27676D01*
X36689Y-27676D02*
X38622Y-27676D01*
X39260Y-27676D02*
X41187Y-27676D01*
X41187Y-27676D02*
X42982Y-27676D01*
X24341Y-27756D02*
X24540Y-27756D01*
X27425Y-27756D02*
X27890Y-27756D01*
X27890Y-27756D02*
X28090Y-27756D01*
X28728Y-27756D02*
X31620Y-27756D01*
X32547Y-27756D02*
X32689Y-27756D01*
X35634Y-27756D02*
X35774Y-27756D01*
X36723Y-27756D02*
X38622Y-27756D01*
X39260Y-27756D02*
X41187Y-27756D01*
X41187Y-27756D02*
X42982Y-27756D01*
X24341Y-27836D02*
X24610Y-27836D01*
X27425Y-27836D02*
X27890Y-27836D01*
X27890Y-27836D02*
X28090Y-27836D01*
X28728Y-27836D02*
X31585Y-27836D01*
X32627Y-27836D02*
X32769Y-27836D01*
X35554Y-27836D02*
X35694Y-27836D01*
X36754Y-27836D02*
X38622Y-27836D01*
X39260Y-27836D02*
X41187Y-27836D01*
X41187Y-27836D02*
X42982Y-27836D01*
X24341Y-27916D02*
X24584Y-27916D01*
X27425Y-27916D02*
X27890Y-27916D01*
X27890Y-27916D02*
X28090Y-27916D01*
X28728Y-27916D02*
X31549Y-27916D01*
X32707Y-27916D02*
X32849Y-27916D01*
X35474Y-27916D02*
X35614Y-27916D01*
X36785Y-27916D02*
X38622Y-27916D01*
X39260Y-27916D02*
X41187Y-27916D01*
X41187Y-27916D02*
X42982Y-27916D01*
X24341Y-27996D02*
X24529Y-27996D01*
X27425Y-27996D02*
X27890Y-27996D01*
X27890Y-27996D02*
X28090Y-27996D01*
X28728Y-27996D02*
X31514Y-27996D01*
X32787Y-27996D02*
X32929Y-27996D01*
X35394Y-27996D02*
X35534Y-27996D01*
X36816Y-27996D02*
X38622Y-27996D01*
X39260Y-27996D02*
X41187Y-27996D01*
X41187Y-27996D02*
X42982Y-27996D01*
X24341Y-28076D02*
X24495Y-28076D01*
X27425Y-28076D02*
X27890Y-28076D01*
X27890Y-28076D02*
X27917Y-28076D01*
X30168Y-28076D02*
X31479Y-28076D01*
X32867Y-28076D02*
X33009Y-28076D01*
X35314Y-28076D02*
X35454Y-28076D01*
X36847Y-28076D02*
X38153Y-28076D01*
X40404Y-28076D02*
X41187Y-28076D01*
X41187Y-28076D02*
X42982Y-28076D01*
X24341Y-28156D02*
X24465Y-28156D01*
X27425Y-28156D02*
X27827Y-28156D01*
X30258Y-28156D02*
X31444Y-28156D01*
X32947Y-28156D02*
X33089Y-28156D01*
X35234Y-28156D02*
X35374Y-28156D01*
X36878Y-28156D02*
X38063Y-28156D01*
X40494Y-28156D02*
X41187Y-28156D01*
X41187Y-28156D02*
X42982Y-28156D01*
X24341Y-28236D02*
X24465Y-28236D01*
X27425Y-28236D02*
X27793Y-28236D01*
X30291Y-28236D02*
X31408Y-28236D01*
X33027Y-28236D02*
X33169Y-28236D01*
X35154Y-28236D02*
X35294Y-28236D01*
X36909Y-28236D02*
X38029Y-28236D01*
X40527Y-28236D02*
X41187Y-28236D01*
X41187Y-28236D02*
X42982Y-28236D01*
X24341Y-28316D02*
X24465Y-28316D01*
X27425Y-28316D02*
X27790Y-28316D01*
X30296Y-28316D02*
X31373Y-28316D01*
X33107Y-28316D02*
X33249Y-28316D01*
X35074Y-28316D02*
X35214Y-28316D01*
X36941Y-28316D02*
X38026Y-28316D01*
X40532Y-28316D02*
X41187Y-28316D01*
X41187Y-28316D02*
X42982Y-28316D01*
X24341Y-28396D02*
X24479Y-28396D01*
X27425Y-28396D02*
X27790Y-28396D01*
X30296Y-28396D02*
X31338Y-28396D01*
X33187Y-28396D02*
X33329Y-28396D01*
X34994Y-28396D02*
X35134Y-28396D01*
X36972Y-28396D02*
X38026Y-28396D01*
X40532Y-28396D02*
X41187Y-28396D01*
X41187Y-28396D02*
X42982Y-28396D01*
X24341Y-28476D02*
X24512Y-28476D01*
X27425Y-28476D02*
X27790Y-28476D01*
X30296Y-28476D02*
X31302Y-28476D01*
X33267Y-28476D02*
X33409Y-28476D01*
X34914Y-28476D02*
X35054Y-28476D01*
X37003Y-28476D02*
X38026Y-28476D01*
X40532Y-28476D02*
X41187Y-28476D01*
X41187Y-28476D02*
X42982Y-28476D01*
X24341Y-28556D02*
X24545Y-28556D01*
X27425Y-28556D02*
X27790Y-28556D01*
X30296Y-28556D02*
X31267Y-28556D01*
X33347Y-28556D02*
X33489Y-28556D01*
X34834Y-28556D02*
X34974Y-28556D01*
X37034Y-28556D02*
X38026Y-28556D01*
X40532Y-28556D02*
X41187Y-28556D01*
X41187Y-28556D02*
X42982Y-28556D01*
X24341Y-28636D02*
X24623Y-28636D01*
X27425Y-28636D02*
X27790Y-28636D01*
X30296Y-28636D02*
X31232Y-28636D01*
X33427Y-28636D02*
X33569Y-28636D01*
X34754Y-28636D02*
X34894Y-28636D01*
X37065Y-28636D02*
X38026Y-28636D01*
X40532Y-28636D02*
X41187Y-28636D01*
X41187Y-28636D02*
X42982Y-28636D01*
X24341Y-28716D02*
X24571Y-28716D01*
X27425Y-28716D02*
X27790Y-28716D01*
X30296Y-28716D02*
X31226Y-28716D01*
X33507Y-28716D02*
X33649Y-28716D01*
X34674Y-28716D02*
X34814Y-28716D01*
X37096Y-28716D02*
X38026Y-28716D01*
X40532Y-28716D02*
X41187Y-28716D01*
X41187Y-28716D02*
X42982Y-28716D01*
X24341Y-28796D02*
X24523Y-28796D01*
X27425Y-28796D02*
X27790Y-28796D01*
X30296Y-28796D02*
X31224Y-28796D01*
X33587Y-28796D02*
X33729Y-28796D01*
X34594Y-28796D02*
X34734Y-28796D01*
X37121Y-28796D02*
X37121Y-28796D01*
X37121Y-28796D02*
X38026Y-28796D01*
X40532Y-28796D02*
X41187Y-28796D01*
X41187Y-28796D02*
X42982Y-28796D01*
X24341Y-28876D02*
X24490Y-28876D01*
X27425Y-28876D02*
X27790Y-28876D01*
X30296Y-28876D02*
X31222Y-28876D01*
X33667Y-28876D02*
X33809Y-28876D01*
X34514Y-28876D02*
X34654Y-28876D01*
X37119Y-28876D02*
X37121Y-28876D01*
X37121Y-28876D02*
X38026Y-28876D01*
X40532Y-28876D02*
X41187Y-28876D01*
X41187Y-28876D02*
X42982Y-28876D01*
X24341Y-28956D02*
X24465Y-28956D01*
X27425Y-28956D02*
X27790Y-28956D01*
X30296Y-28956D02*
X31220Y-28956D01*
X33747Y-28956D02*
X33889Y-28956D01*
X34434Y-28956D02*
X34574Y-28956D01*
X37117Y-28956D02*
X37121Y-28956D01*
X37121Y-28956D02*
X38026Y-28956D01*
X40532Y-28956D02*
X41187Y-28956D01*
X41187Y-28956D02*
X42982Y-28956D01*
X24341Y-29036D02*
X24465Y-29036D01*
X27425Y-29036D02*
X27790Y-29036D01*
X30296Y-29036D02*
X31219Y-29036D01*
X33827Y-29036D02*
X33969Y-29036D01*
X34354Y-29036D02*
X34494Y-29036D01*
X37116Y-29036D02*
X37121Y-29036D01*
X37121Y-29036D02*
X38026Y-29036D01*
X40532Y-29036D02*
X41187Y-29036D01*
X41187Y-29036D02*
X42982Y-29036D01*
X24341Y-29116D02*
X24465Y-29116D01*
X27425Y-29116D02*
X27790Y-29116D01*
X30296Y-29116D02*
X31217Y-29116D01*
X33907Y-29116D02*
X34049Y-29116D01*
X34274Y-29116D02*
X34414Y-29116D01*
X37114Y-29116D02*
X37121Y-29116D01*
X37121Y-29116D02*
X38026Y-29116D01*
X40532Y-29116D02*
X41187Y-29116D01*
X41187Y-29116D02*
X42982Y-29116D01*
X24341Y-29196D02*
X24484Y-29196D01*
X27425Y-29196D02*
X27790Y-29196D01*
X30296Y-29196D02*
X31215Y-29196D01*
X33987Y-29196D02*
X34129Y-29196D01*
X34194Y-29196D02*
X34334Y-29196D01*
X37112Y-29196D02*
X37121Y-29196D01*
X37121Y-29196D02*
X38026Y-29196D01*
X40532Y-29196D02*
X41187Y-29196D01*
X41187Y-29196D02*
X42982Y-29196D01*
X24341Y-29276D02*
X24517Y-29276D01*
X27425Y-29276D02*
X27790Y-29276D01*
X30296Y-29276D02*
X31213Y-29276D01*
X34067Y-29276D02*
X34254Y-29276D01*
X37110Y-29276D02*
X37121Y-29276D01*
X37121Y-29276D02*
X38026Y-29276D01*
X40532Y-29276D02*
X41187Y-29276D01*
X41187Y-29276D02*
X42982Y-29276D01*
X24341Y-29356D02*
X24556Y-29356D01*
X27425Y-29356D02*
X27790Y-29356D01*
X30296Y-29356D02*
X31211Y-29356D01*
X34034Y-29356D02*
X34090Y-29356D01*
X34090Y-29356D02*
X34289Y-29356D01*
X37108Y-29356D02*
X37121Y-29356D01*
X37121Y-29356D02*
X38026Y-29356D01*
X40532Y-29356D02*
X41187Y-29356D01*
X41187Y-29356D02*
X42982Y-29356D01*
X24341Y-29436D02*
X24636Y-29436D01*
X27425Y-29436D02*
X27790Y-29436D01*
X30296Y-29436D02*
X31209Y-29436D01*
X33954Y-29436D02*
X34090Y-29436D01*
X34090Y-29436D02*
X34094Y-29436D01*
X34227Y-29436D02*
X34369Y-29436D01*
X37106Y-29436D02*
X37121Y-29436D01*
X37121Y-29436D02*
X38026Y-29436D01*
X40532Y-29436D02*
X41187Y-29436D01*
X41187Y-29436D02*
X42982Y-29436D01*
X24341Y-29516D02*
X24558Y-29516D01*
X27425Y-29516D02*
X27790Y-29516D01*
X30296Y-29516D02*
X31207Y-29516D01*
X33874Y-29516D02*
X34014Y-29516D01*
X34307Y-29516D02*
X34449Y-29516D01*
X37105Y-29516D02*
X37121Y-29516D01*
X37121Y-29516D02*
X38026Y-29516D01*
X40532Y-29516D02*
X41187Y-29516D01*
X41187Y-29516D02*
X42982Y-29516D01*
X24341Y-29596D02*
X24518Y-29596D01*
X27425Y-29596D02*
X27790Y-29596D01*
X30296Y-29596D02*
X31206Y-29596D01*
X33794Y-29596D02*
X33934Y-29596D01*
X34387Y-29596D02*
X34529Y-29596D01*
X37103Y-29596D02*
X37121Y-29596D01*
X37121Y-29596D02*
X38026Y-29596D01*
X40532Y-29596D02*
X41187Y-29596D01*
X41187Y-29596D02*
X42982Y-29596D01*
X24341Y-29676D02*
X24485Y-29676D01*
X27425Y-29676D02*
X27790Y-29676D01*
X30296Y-29676D02*
X31204Y-29676D01*
X33714Y-29676D02*
X33854Y-29676D01*
X34467Y-29676D02*
X34609Y-29676D01*
X37101Y-29676D02*
X37121Y-29676D01*
X37121Y-29676D02*
X38026Y-29676D01*
X40532Y-29676D02*
X41187Y-29676D01*
X41187Y-29676D02*
X42982Y-29676D01*
X24341Y-29756D02*
X24465Y-29756D01*
X27425Y-29756D02*
X27790Y-29756D01*
X30296Y-29756D02*
X31202Y-29756D01*
X33634Y-29756D02*
X33774Y-29756D01*
X34547Y-29756D02*
X34689Y-29756D01*
X37099Y-29756D02*
X37121Y-29756D01*
X37121Y-29756D02*
X38026Y-29756D01*
X40532Y-29756D02*
X41187Y-29756D01*
X41187Y-29756D02*
X42982Y-29756D01*
X24341Y-29836D02*
X24465Y-29836D01*
X27425Y-29836D02*
X27790Y-29836D01*
X30296Y-29836D02*
X31208Y-29836D01*
X33554Y-29836D02*
X33694Y-29836D01*
X34627Y-29836D02*
X34769Y-29836D01*
X37097Y-29836D02*
X37121Y-29836D01*
X37121Y-29836D02*
X38026Y-29836D01*
X40532Y-29836D02*
X41187Y-29836D01*
X41187Y-29836D02*
X42982Y-29836D01*
X24341Y-29916D02*
X24465Y-29916D01*
X27425Y-29916D02*
X27790Y-29916D01*
X30296Y-29916D02*
X31240Y-29916D01*
X33474Y-29916D02*
X33614Y-29916D01*
X34707Y-29916D02*
X34849Y-29916D01*
X37095Y-29916D02*
X37121Y-29916D01*
X37121Y-29916D02*
X38026Y-29916D01*
X40532Y-29916D02*
X41187Y-29916D01*
X41187Y-29916D02*
X42982Y-29916D01*
X24341Y-29996D02*
X24490Y-29996D01*
X26133Y-29996D02*
X26154Y-29996D01*
X27425Y-29996D02*
X27790Y-29996D01*
X30296Y-29996D02*
X31271Y-29996D01*
X33394Y-29996D02*
X33534Y-29996D01*
X34787Y-29996D02*
X34929Y-29996D01*
X37075Y-29996D02*
X37121Y-29996D01*
X37121Y-29996D02*
X38026Y-29996D01*
X40532Y-29996D02*
X41187Y-29996D01*
X41187Y-29996D02*
X42982Y-29996D01*
X24341Y-30076D02*
X24523Y-30076D01*
X26100Y-30076D02*
X26179Y-30076D01*
X27425Y-30076D02*
X27790Y-30076D01*
X30296Y-30076D02*
X31302Y-30076D01*
X33314Y-30076D02*
X33454Y-30076D01*
X34867Y-30076D02*
X35009Y-30076D01*
X37040Y-30076D02*
X37121Y-30076D01*
X37121Y-30076D02*
X38026Y-30076D01*
X40532Y-30076D02*
X41187Y-30076D01*
X41187Y-30076D02*
X42982Y-30076D01*
X24341Y-30156D02*
X24569Y-30156D01*
X26054Y-30156D02*
X26212Y-30156D01*
X27425Y-30156D02*
X27790Y-30156D01*
X30296Y-30156D02*
X31333Y-30156D01*
X33234Y-30156D02*
X33374Y-30156D01*
X34947Y-30156D02*
X35089Y-30156D01*
X37005Y-30156D02*
X37121Y-30156D01*
X37121Y-30156D02*
X38026Y-30156D01*
X40532Y-30156D02*
X41187Y-30156D01*
X41187Y-30156D02*
X42982Y-30156D01*
X24341Y-30236D02*
X24649Y-30236D01*
X25974Y-30236D02*
X26281Y-30236D01*
X27425Y-30236D02*
X27790Y-30236D01*
X30296Y-30236D02*
X31364Y-30236D01*
X33154Y-30236D02*
X33294Y-30236D01*
X35027Y-30236D02*
X35169Y-30236D01*
X36969Y-30236D02*
X37121Y-30236D01*
X37121Y-30236D02*
X38026Y-30236D01*
X40532Y-30236D02*
X41187Y-30236D01*
X41187Y-30236D02*
X42982Y-30236D01*
X24341Y-30316D02*
X24774Y-30316D01*
X25850Y-30316D02*
X26394Y-30316D01*
X27425Y-30316D02*
X27790Y-30316D01*
X30296Y-30316D02*
X31395Y-30316D01*
X33074Y-30316D02*
X33214Y-30316D01*
X35107Y-30316D02*
X35249Y-30316D01*
X36934Y-30316D02*
X37121Y-30316D01*
X37121Y-30316D02*
X38026Y-30316D01*
X40532Y-30316D02*
X41187Y-30316D01*
X41187Y-30316D02*
X42982Y-30316D01*
X24341Y-30396D02*
X26652Y-30396D01*
X27425Y-30396D02*
X27809Y-30396D01*
X30279Y-30396D02*
X31426Y-30396D01*
X32994Y-30396D02*
X33134Y-30396D01*
X35187Y-30396D02*
X35329Y-30396D01*
X36899Y-30396D02*
X37121Y-30396D01*
X37121Y-30396D02*
X38045Y-30396D01*
X40515Y-30396D02*
X40532Y-30396D01*
X40532Y-30396D02*
X41187Y-30396D01*
X41187Y-30396D02*
X42982Y-30396D01*
X24341Y-30476D02*
X26572Y-30476D01*
X27425Y-30476D02*
X27860Y-30476D01*
X30226Y-30476D02*
X31457Y-30476D01*
X32914Y-30476D02*
X33054Y-30476D01*
X35267Y-30476D02*
X35409Y-30476D01*
X36864Y-30476D02*
X37121Y-30476D01*
X37121Y-30476D02*
X38096Y-30476D01*
X40462Y-30476D02*
X40532Y-30476D01*
X40532Y-30476D02*
X41187Y-30476D01*
X41187Y-30476D02*
X42982Y-30476D01*
X24341Y-30556D02*
X26492Y-30556D01*
X27411Y-30556D02*
X31488Y-30556D01*
X32834Y-30556D02*
X32974Y-30556D01*
X35347Y-30556D02*
X35489Y-30556D01*
X36828Y-30556D02*
X37121Y-30556D01*
X37121Y-30556D02*
X40532Y-30556D01*
X40532Y-30556D02*
X41187Y-30556D01*
X41187Y-30556D02*
X42982Y-30556D01*
X24341Y-30636D02*
X26333Y-30636D01*
X27392Y-30636D02*
X31519Y-30636D01*
X32754Y-30636D02*
X32894Y-30636D01*
X35427Y-30636D02*
X35569Y-30636D01*
X36793Y-30636D02*
X37121Y-30636D01*
X37121Y-30636D02*
X40532Y-30636D01*
X40532Y-30636D02*
X41187Y-30636D01*
X41187Y-30636D02*
X42982Y-30636D01*
X24341Y-30716D02*
X26187Y-30716D01*
X27337Y-30716D02*
X31550Y-30716D01*
X32674Y-30716D02*
X32814Y-30716D01*
X35507Y-30716D02*
X35649Y-30716D01*
X36758Y-30716D02*
X37121Y-30716D01*
X37121Y-30716D02*
X40532Y-30716D01*
X40532Y-30716D02*
X41187Y-30716D01*
X41187Y-30716D02*
X42982Y-30716D01*
X24341Y-30796D02*
X26107Y-30796D01*
X27266Y-30796D02*
X31581Y-30796D01*
X32594Y-30796D02*
X32734Y-30796D01*
X35587Y-30796D02*
X35729Y-30796D01*
X36722Y-30796D02*
X37121Y-30796D01*
X37121Y-30796D02*
X40532Y-30796D01*
X40532Y-30796D02*
X41187Y-30796D01*
X41187Y-30796D02*
X42982Y-30796D01*
X24341Y-30876D02*
X26070Y-30876D01*
X27186Y-30876D02*
X31612Y-30876D01*
X32514Y-30876D02*
X32654Y-30876D01*
X35667Y-30876D02*
X35809Y-30876D01*
X36687Y-30876D02*
X37121Y-30876D01*
X37121Y-30876D02*
X40532Y-30876D01*
X40532Y-30876D02*
X41187Y-30876D01*
X41187Y-30876D02*
X42982Y-30876D01*
X24341Y-30956D02*
X26036Y-30956D01*
X27106Y-30956D02*
X31655Y-30956D01*
X32434Y-30956D02*
X32574Y-30956D01*
X35747Y-30956D02*
X35889Y-30956D01*
X36652Y-30956D02*
X37121Y-30956D01*
X37121Y-30956D02*
X40532Y-30956D01*
X40532Y-30956D02*
X41187Y-30956D01*
X41187Y-30956D02*
X42982Y-30956D01*
X24341Y-31036D02*
X26036Y-31036D01*
X27025Y-31036D02*
X31713Y-31036D01*
X32354Y-31036D02*
X32494Y-31036D01*
X35827Y-31036D02*
X35969Y-31036D01*
X36610Y-31036D02*
X37121Y-31036D01*
X37121Y-31036D02*
X40532Y-31036D01*
X40532Y-31036D02*
X41187Y-31036D01*
X41187Y-31036D02*
X42982Y-31036D01*
X24341Y-31116D02*
X26036Y-31116D01*
X26945Y-31116D02*
X31799Y-31116D01*
X32274Y-31116D02*
X32414Y-31116D01*
X35907Y-31116D02*
X36049Y-31116D01*
X36524Y-31116D02*
X37121Y-31116D01*
X37121Y-31116D02*
X40197Y-31116D01*
X40685Y-31116D02*
X41187Y-31116D01*
X41187Y-31116D02*
X42982Y-31116D01*
X24341Y-31196D02*
X26065Y-31196D01*
X26865Y-31196D02*
X31885Y-31196D01*
X32194Y-31196D02*
X32334Y-31196D01*
X35987Y-31196D02*
X36129Y-31196D01*
X36438Y-31196D02*
X37121Y-31196D01*
X37121Y-31196D02*
X40085Y-31196D01*
X40796Y-31196D02*
X41187Y-31196D01*
X41187Y-31196D02*
X42982Y-31196D01*
X24341Y-31276D02*
X26098Y-31276D01*
X26825Y-31276D02*
X31971Y-31276D01*
X32114Y-31276D02*
X32254Y-31276D01*
X36067Y-31276D02*
X36209Y-31276D01*
X36352Y-31276D02*
X37121Y-31276D01*
X37121Y-31276D02*
X40005Y-31276D01*
X40876Y-31276D02*
X41187Y-31276D01*
X41187Y-31276D02*
X42982Y-31276D01*
X24341Y-31356D02*
X26173Y-31356D01*
X26749Y-31356D02*
X32174Y-31356D01*
X36147Y-31356D02*
X37121Y-31356D01*
X37121Y-31356D02*
X39966Y-31356D01*
X40915Y-31356D02*
X41187Y-31356D01*
X41187Y-31356D02*
X42982Y-31356D01*
X24341Y-31436D02*
X26300Y-31436D01*
X26623Y-31436D02*
X32135Y-31436D01*
X36188Y-31436D02*
X36207Y-31436D01*
X36207Y-31436D02*
X37121Y-31436D01*
X37121Y-31436D02*
X39933Y-31436D01*
X40948Y-31436D02*
X41187Y-31436D01*
X41187Y-31436D02*
X42982Y-31436D01*
X24341Y-31516D02*
X32209Y-31516D01*
X36114Y-31516D02*
X36207Y-31516D01*
X36207Y-31516D02*
X37121Y-31516D01*
X37121Y-31516D02*
X39916Y-31516D01*
X40966Y-31516D02*
X41187Y-31516D01*
X41187Y-31516D02*
X42982Y-31516D01*
X24341Y-31596D02*
X32284Y-31596D01*
X36039Y-31596D02*
X36207Y-31596D01*
X36207Y-31596D02*
X37121Y-31596D01*
X37121Y-31596D02*
X39916Y-31596D01*
X40966Y-31596D02*
X41187Y-31596D01*
X41187Y-31596D02*
X42982Y-31596D01*
X24341Y-31676D02*
X32358Y-31676D01*
X35965Y-31676D02*
X36207Y-31676D01*
X36207Y-31676D02*
X37121Y-31676D01*
X37121Y-31676D02*
X39916Y-31676D01*
X40966Y-31676D02*
X41187Y-31676D01*
X41187Y-31676D02*
X42982Y-31676D01*
X24341Y-31756D02*
X32433Y-31756D01*
X35890Y-31756D02*
X36207Y-31756D01*
X36207Y-31756D02*
X37121Y-31756D01*
X37121Y-31756D02*
X39945Y-31756D01*
X40938Y-31756D02*
X40966Y-31756D01*
X40966Y-31756D02*
X41187Y-31756D01*
X41187Y-31756D02*
X42982Y-31756D01*
X24341Y-31836D02*
X32610Y-31836D01*
X35771Y-31836D02*
X36207Y-31836D01*
X36207Y-31836D02*
X37121Y-31836D01*
X37121Y-31836D02*
X39978Y-31836D01*
X40905Y-31836D02*
X40966Y-31836D01*
X40966Y-31836D02*
X41187Y-31836D01*
X41187Y-31836D02*
X42982Y-31836D01*
X24341Y-31916D02*
X32792Y-31916D01*
X35565Y-31916D02*
X36207Y-31916D01*
X36207Y-31916D02*
X37121Y-31916D01*
X37121Y-31916D02*
X40032Y-31916D01*
X40851Y-31916D02*
X40966Y-31916D01*
X40966Y-31916D02*
X41187Y-31916D01*
X41187Y-31916D02*
X42982Y-31916D01*
X24341Y-31996D02*
X32973Y-31996D01*
X35358Y-31996D02*
X36207Y-31996D01*
X36207Y-31996D02*
X37121Y-31996D01*
X37121Y-31996D02*
X40112Y-31996D01*
X40771Y-31996D02*
X40966Y-31996D01*
X40966Y-31996D02*
X41187Y-31996D01*
X41187Y-31996D02*
X42982Y-31996D01*
X24341Y-32076D02*
X33155Y-32076D01*
X35152Y-32076D02*
X36207Y-32076D01*
X36207Y-32076D02*
X37121Y-32076D01*
X37121Y-32076D02*
X40259Y-32076D01*
X40623Y-32076D02*
X40966Y-32076D01*
X40966Y-32076D02*
X41187Y-32076D01*
X41187Y-32076D02*
X42982Y-32076D01*
X24341Y-32156D02*
X33336Y-32156D01*
X34946Y-32156D02*
X36207Y-32156D01*
X36207Y-32156D02*
X37121Y-32156D01*
X37121Y-32156D02*
X40966Y-32156D01*
X40966Y-32156D02*
X41187Y-32156D01*
X41187Y-32156D02*
X42982Y-32156D01*
X24341Y-32236D02*
X33682Y-32236D01*
X34740Y-32236D02*
X36207Y-32236D01*
X36207Y-32236D02*
X37121Y-32236D01*
X37121Y-32236D02*
X40966Y-32236D01*
X40966Y-32236D02*
X41187Y-32236D01*
X41187Y-32236D02*
X42982Y-32236D01*
X24341Y-32316D02*
X36207Y-32316D01*
X36207Y-32316D02*
X37121Y-32316D01*
X37121Y-32316D02*
X40966Y-32316D01*
X40966Y-32316D02*
X41187Y-32316D01*
X41187Y-32316D02*
X42982Y-32316D01*
X24341Y-32396D02*
X36207Y-32396D01*
X36207Y-32396D02*
X37121Y-32396D01*
X37121Y-32396D02*
X40966Y-32396D01*
X40966Y-32396D02*
X41187Y-32396D01*
X41187Y-32396D02*
X42982Y-32396D01*
X24341Y-32476D02*
X36207Y-32476D01*
X36207Y-32476D02*
X37121Y-32476D01*
X37121Y-32476D02*
X40966Y-32476D01*
X40966Y-32476D02*
X41187Y-32476D01*
X41187Y-32476D02*
X42982Y-32476D01*
X24341Y-32556D02*
X36207Y-32556D01*
X36207Y-32556D02*
X37121Y-32556D01*
X37121Y-32556D02*
X40966Y-32556D01*
X40966Y-32556D02*
X41187Y-32556D01*
X41187Y-32556D02*
X42982Y-32556D01*
X24341Y-32636D02*
X36207Y-32636D01*
X36207Y-32636D02*
X37121Y-32636D01*
X37121Y-32636D02*
X40966Y-32636D01*
X40966Y-32636D02*
X41187Y-32636D01*
X41187Y-32636D02*
X42982Y-32636D01*
X24341Y-32716D02*
X36207Y-32716D01*
X36207Y-32716D02*
X37121Y-32716D01*
X37121Y-32716D02*
X40966Y-32716D01*
X40966Y-32716D02*
X41187Y-32716D01*
X41187Y-32716D02*
X42982Y-32716D01*
X24341Y-32796D02*
X36207Y-32796D01*
X36207Y-32796D02*
X37121Y-32796D01*
X37121Y-32796D02*
X40966Y-32796D01*
X40966Y-32796D02*
X41187Y-32796D01*
X41187Y-32796D02*
X42982Y-32796D01*
X42982Y-32825D02*
X41187Y-32825D01*
X41187Y-26882D01*
X41187Y-25515D01*
X41186Y-25514D01*
X41153Y-25344D01*
X41152Y-25343D01*
X41120Y-25295D01*
X41056Y-25199D01*
X41056Y-25198D01*
X40966Y-25108D01*
X40966Y-22239D01*
X40966Y-22030D01*
X40886Y-21837D01*
X40739Y-21689D01*
X40546Y-21609D01*
X40337Y-21609D01*
X40144Y-21689D01*
X39996Y-21836D01*
X39916Y-22029D01*
X39916Y-22238D01*
X39996Y-22431D01*
X40143Y-22579D01*
X40336Y-22659D01*
X40545Y-22659D01*
X40738Y-22579D01*
X40886Y-22432D01*
X40966Y-22239D01*
X40966Y-25108D01*
X38360Y-22503D01*
X38215Y-22406D01*
X38044Y-22372D01*
X36209Y-22372D01*
X36038Y-22406D01*
X35893Y-22503D01*
X35796Y-22648D01*
X35762Y-22819D01*
X35796Y-22990D01*
X35893Y-23135D01*
X36038Y-23232D01*
X36209Y-23266D01*
X37858Y-23266D01*
X40293Y-25700D01*
X40293Y-26697D01*
X40240Y-26750D01*
X39854Y-26750D01*
X39683Y-26784D01*
X39538Y-26881D01*
X39441Y-27026D01*
X39407Y-27197D01*
X39441Y-27368D01*
X39538Y-27513D01*
X39683Y-27610D01*
X39854Y-27644D01*
X40425Y-27644D01*
X40596Y-27610D01*
X40741Y-27513D01*
X41056Y-27198D01*
X41153Y-27053D01*
X41187Y-26882D01*
X41187Y-32825D01*
X40966Y-32825D01*
X40966Y-31688D01*
X40966Y-31479D01*
X40886Y-31286D01*
X40739Y-31138D01*
X40546Y-31058D01*
X40532Y-31058D01*
X40532Y-30353D01*
X40532Y-30254D01*
X40532Y-28246D01*
X40494Y-28154D01*
X40424Y-28084D01*
X40333Y-28046D01*
X40234Y-28046D01*
X39260Y-28046D01*
X39260Y-27303D01*
X39259Y-27302D01*
X39260Y-27302D01*
X39255Y-27278D01*
X39236Y-27181D01*
X39235Y-27180D01*
X39167Y-27077D01*
X39164Y-27075D01*
X37226Y-25136D01*
X37122Y-25067D01*
X37000Y-25042D01*
X36995Y-25043D01*
X35954Y-25043D01*
X35947Y-25024D01*
X35877Y-24954D01*
X35786Y-24916D01*
X35687Y-24916D01*
X33048Y-24916D01*
X33092Y-24887D01*
X33189Y-24742D01*
X33223Y-24571D01*
X33223Y-22803D01*
X33189Y-22632D01*
X33092Y-22487D01*
X32947Y-22390D01*
X32776Y-22356D01*
X32605Y-22390D01*
X32460Y-22487D01*
X32363Y-22632D01*
X32329Y-22803D01*
X32329Y-24571D01*
X32363Y-24742D01*
X32460Y-24887D01*
X32516Y-24924D01*
X32445Y-24954D01*
X32375Y-25024D01*
X32367Y-25043D01*
X31173Y-25043D01*
X31173Y-24610D01*
X31149Y-24488D01*
X31080Y-24384D01*
X31077Y-24382D01*
X30979Y-24284D01*
X31529Y-24284D01*
X31570Y-24325D01*
X31726Y-24390D01*
X31895Y-24390D01*
X32051Y-24326D01*
X32171Y-24206D01*
X32236Y-24050D01*
X32236Y-23881D01*
X32172Y-23725D01*
X32052Y-23605D01*
X31896Y-23540D01*
X31727Y-23540D01*
X31571Y-23604D01*
X31529Y-23646D01*
X30496Y-23646D01*
X30213Y-23646D01*
X30209Y-23645D01*
X30204Y-23646D01*
X29118Y-23646D01*
X28669Y-23646D01*
X28547Y-23670D01*
X28443Y-23739D01*
X28441Y-23741D01*
X28183Y-23999D01*
X28114Y-24103D01*
X28089Y-24225D01*
X28090Y-24229D01*
X28090Y-28046D01*
X27990Y-28046D01*
X27898Y-28084D01*
X27890Y-28092D01*
X27890Y-24868D01*
X27890Y-24699D01*
X27826Y-24543D01*
X27706Y-24423D01*
X27550Y-24358D01*
X27381Y-24358D01*
X27225Y-24422D01*
X27222Y-24425D01*
X27140Y-24425D01*
X27024Y-24447D01*
X27002Y-24452D01*
X26886Y-24530D01*
X26456Y-24961D01*
X26378Y-25077D01*
X26351Y-25214D01*
X26351Y-26894D01*
X26351Y-26985D01*
X26378Y-27122D01*
X26456Y-27238D01*
X26490Y-27272D01*
X26467Y-27272D01*
X26311Y-27336D01*
X26191Y-27456D01*
X26157Y-27537D01*
X26157Y-27364D01*
X26076Y-27167D01*
X25984Y-27076D01*
X26075Y-26985D01*
X26157Y-26789D01*
X26157Y-26576D01*
X26076Y-26379D01*
X25984Y-26288D01*
X26075Y-26198D01*
X26157Y-26002D01*
X26157Y-25789D01*
X26076Y-25592D01*
X25984Y-25501D01*
X26075Y-25411D01*
X26157Y-25215D01*
X26157Y-25002D01*
X26076Y-24805D01*
X26069Y-24798D01*
X26112Y-24756D01*
X26150Y-24664D01*
X26151Y-24432D01*
X26151Y-24208D01*
X26150Y-23976D01*
X26112Y-23884D01*
X26042Y-23814D01*
X25951Y-23776D01*
X25852Y-23776D01*
X25423Y-23775D01*
X25361Y-23837D01*
X25361Y-24270D01*
X26089Y-24270D01*
X26151Y-24208D01*
X26151Y-24432D01*
X26089Y-24370D01*
X25411Y-24370D01*
X25361Y-24370D01*
X25261Y-24370D01*
X25261Y-24270D01*
X25261Y-23837D01*
X25199Y-23775D01*
X24770Y-23776D01*
X24671Y-23776D01*
X24580Y-23814D01*
X24510Y-23884D01*
X24472Y-23976D01*
X24471Y-24208D01*
X24533Y-24270D01*
X25261Y-24270D01*
X25261Y-24370D01*
X25211Y-24370D01*
X24533Y-24370D01*
X24471Y-24432D01*
X24472Y-24664D01*
X24510Y-24756D01*
X24552Y-24798D01*
X24547Y-24805D01*
X24465Y-25001D01*
X24465Y-25214D01*
X24546Y-25411D01*
X24637Y-25501D01*
X24547Y-25592D01*
X24465Y-25788D01*
X24465Y-26001D01*
X24546Y-26198D01*
X24637Y-26288D01*
X24547Y-26379D01*
X24465Y-26575D01*
X24465Y-26788D01*
X24546Y-26985D01*
X24637Y-27075D01*
X24547Y-27167D01*
X24465Y-27363D01*
X24465Y-27576D01*
X24546Y-27773D01*
X24637Y-27863D01*
X24547Y-27954D01*
X24465Y-28150D01*
X24465Y-28363D01*
X24546Y-28560D01*
X24637Y-28650D01*
X24547Y-28741D01*
X24465Y-28937D01*
X24465Y-29150D01*
X24546Y-29347D01*
X24637Y-29437D01*
X24547Y-29528D01*
X24465Y-29724D01*
X24465Y-29937D01*
X24546Y-30134D01*
X24697Y-30284D01*
X24893Y-30366D01*
X25106Y-30366D01*
X25728Y-30366D01*
X25925Y-30285D01*
X26075Y-30134D01*
X26154Y-29945D01*
X26154Y-30017D01*
X26218Y-30173D01*
X26338Y-30293D01*
X26494Y-30358D01*
X26663Y-30358D01*
X26709Y-30339D01*
X26430Y-30618D01*
X26377Y-30618D01*
X26221Y-30682D01*
X26101Y-30802D01*
X26036Y-30958D01*
X26036Y-31127D01*
X26100Y-31283D01*
X26220Y-31403D01*
X26376Y-31468D01*
X26545Y-31468D01*
X26701Y-31404D01*
X26821Y-31284D01*
X26852Y-31208D01*
X27320Y-30742D01*
X27320Y-30741D01*
X27398Y-30626D01*
X27398Y-30625D01*
X27402Y-30603D01*
X27424Y-30488D01*
X27425Y-30488D01*
X27425Y-27343D01*
X27398Y-27206D01*
X27320Y-27090D01*
X27067Y-26837D01*
X27067Y-25362D01*
X27268Y-25161D01*
X27380Y-25208D01*
X27549Y-25208D01*
X27705Y-25144D01*
X27825Y-25024D01*
X27890Y-24868D01*
X27890Y-28092D01*
X27828Y-28154D01*
X27790Y-28245D01*
X27790Y-28344D01*
X27790Y-30352D01*
X27828Y-30444D01*
X27898Y-30514D01*
X27989Y-30552D01*
X28088Y-30552D01*
X30096Y-30552D01*
X30188Y-30514D01*
X30258Y-30444D01*
X30296Y-30353D01*
X30296Y-30254D01*
X30296Y-28246D01*
X30258Y-28154D01*
X30188Y-28084D01*
X30097Y-28046D01*
X29998Y-28046D01*
X28728Y-28046D01*
X28728Y-24357D01*
X28801Y-24284D01*
X29118Y-24284D01*
X30076Y-24284D01*
X30535Y-24742D01*
X30535Y-25270D01*
X30534Y-25275D01*
X30535Y-25279D01*
X30535Y-25358D01*
X30559Y-25480D01*
X30628Y-25584D01*
X30732Y-25653D01*
X30854Y-25677D01*
X30885Y-25670D01*
X30887Y-25670D01*
X30941Y-25682D01*
X30941Y-25681D01*
X30945Y-25681D01*
X32367Y-25681D01*
X32375Y-25700D01*
X32445Y-25770D01*
X32536Y-25808D01*
X32635Y-25808D01*
X35785Y-25808D01*
X35877Y-25770D01*
X35947Y-25700D01*
X35954Y-25681D01*
X36867Y-25681D01*
X38622Y-27435D01*
X38622Y-28046D01*
X38226Y-28046D01*
X38134Y-28084D01*
X38064Y-28154D01*
X38026Y-28245D01*
X38026Y-28344D01*
X38026Y-30352D01*
X38064Y-30444D01*
X38134Y-30514D01*
X38225Y-30552D01*
X38324Y-30552D01*
X40332Y-30552D01*
X40424Y-30514D01*
X40494Y-30444D01*
X40532Y-30353D01*
X40532Y-31058D01*
X40337Y-31058D01*
X40144Y-31138D01*
X39996Y-31285D01*
X39916Y-31478D01*
X39916Y-31687D01*
X39996Y-31880D01*
X40143Y-32028D01*
X40336Y-32108D01*
X40545Y-32108D01*
X40738Y-32028D01*
X40886Y-31881D01*
X40966Y-31688D01*
X40966Y-32825D01*
X37121Y-32825D01*
X37121Y-28780D01*
X36697Y-27687D01*
X36621Y-27573D01*
X36277Y-27253D01*
X36207Y-27323D01*
X36207Y-27183D01*
X35887Y-26839D01*
X34814Y-26366D01*
X33642Y-26339D01*
X32549Y-26763D01*
X32435Y-26839D01*
X32115Y-27183D01*
X34161Y-29228D01*
X36207Y-27183D01*
X36207Y-27323D01*
X34232Y-29299D01*
X36277Y-31345D01*
X36621Y-31025D01*
X37094Y-29952D01*
X37121Y-28780D01*
X37121Y-32825D01*
X36207Y-32825D01*
X36207Y-31415D01*
X34161Y-29370D01*
X34090Y-29440D01*
X34090Y-29299D01*
X32045Y-27253D01*
X31701Y-27573D01*
X31228Y-28646D01*
X31201Y-29818D01*
X31625Y-30911D01*
X31701Y-31025D01*
X32045Y-31345D01*
X34090Y-29299D01*
X34090Y-29440D01*
X32115Y-31415D01*
X32435Y-31759D01*
X33508Y-32232D01*
X34680Y-32259D01*
X35773Y-31835D01*
X35887Y-31759D01*
X36207Y-31415D01*
X36207Y-32825D01*
X24341Y-32825D01*
X24341Y-20876D01*
X42982Y-20876D01*
X42982Y-32825D01*
M02*
