G04 DipTrace Beta 2.3.9.1*
%INBoardOutline.gbr*%
%MOIN*%
%ADD11C,0.0055*%
%FSLAX44Y44*%
G04*
G70*
G90*
G75*
G01*
%LNBoardOutline*%
%LPD*%
X3937Y25937D2*
D11*
Y3937D1*
X27937D1*
Y25937D1*
X3937D1*
M02*
