G04 (created by PCBNEW (2013-07-07 BZR 4022)-stable) date 3/12/2015 5:29:47 AM*
%MOIN*%
G04 Gerber Fmt 3.4, Leading zero omitted, Abs format*
%FSLAX34Y34*%
G01*
G70*
G90*
G04 APERTURE LIST*
%ADD10C,0.00590551*%
%ADD11C,0.0866142*%
G04 APERTURE END LIST*
G54D10*
G54D11*
X7851Y-8306D03*
X7851Y-10306D03*
X7851Y-12306D03*
X7851Y-14306D03*
M02*
