G04 (created by PCBNEW-RS274X (2011-05-25)-stable) date Thu 05 Jul 2012 10:23:43 PM EDT*
G01*
G70*
G90*
%MOIN*%
G04 Gerber Fmt 3.4, Leading zero omitted, Abs format*
%FSLAX34Y34*%
G04 APERTURE LIST*
%ADD10C,0.006000*%
%ADD11C,0.055000*%
%ADD12R,0.060000X0.060000*%
%ADD13C,0.060000*%
%ADD14C,0.246100*%
%ADD15C,0.035000*%
%ADD16C,0.008000*%
%ADD17C,0.010000*%
G04 APERTURE END LIST*
G54D10*
G54D11*
X41750Y-21250D03*
X41750Y-20250D03*
X41500Y-23500D03*
X41500Y-22500D03*
G54D12*
X48500Y-24000D03*
G54D13*
X48500Y-25000D03*
X48500Y-26000D03*
G54D12*
X48500Y-20750D03*
G54D13*
X48500Y-21750D03*
X48500Y-22750D03*
G54D12*
X40400Y-22000D03*
G54D13*
X40400Y-23000D03*
G54D14*
X50250Y-27750D03*
X50250Y-19000D03*
X38500Y-19000D03*
G54D13*
X39250Y-26500D03*
X39250Y-25500D03*
G54D12*
X39250Y-21500D03*
G54D13*
X39250Y-22500D03*
X39250Y-23500D03*
X39250Y-24500D03*
X39250Y-27500D03*
X39250Y-28500D03*
X41100Y-28475D03*
X41100Y-24475D03*
G54D15*
X42400Y-25900D03*
X42400Y-22800D03*
X42400Y-28000D03*
X44750Y-21750D03*
X44750Y-25250D03*
X40300Y-28000D03*
X42000Y-26700D03*
X42000Y-21800D03*
X42500Y-21250D03*
X42750Y-26500D03*
X45200Y-20700D03*
X45750Y-18250D03*
X45200Y-26100D03*
X44250Y-20750D03*
X44250Y-26000D03*
G54D16*
X42400Y-22800D02*
X42400Y-25900D01*
X42400Y-25900D02*
X42400Y-28000D01*
X44750Y-21750D02*
X44750Y-25250D01*
X39900Y-24500D02*
X39250Y-24500D01*
X40200Y-24800D02*
X39900Y-24500D01*
X40200Y-27900D02*
X40200Y-24800D01*
X40300Y-28000D02*
X40200Y-27900D01*
X42000Y-21800D02*
X42000Y-26700D01*
X45750Y-18250D02*
X45200Y-20700D01*
X45200Y-26100D02*
X45200Y-20700D01*
X44250Y-20750D02*
X44250Y-26000D01*
G54D10*
G36*
X51675Y-26200D02*
X49479Y-26200D01*
X49049Y-26630D01*
X49049Y-26109D01*
X49049Y-25891D01*
X48965Y-25689D01*
X48811Y-25535D01*
X48726Y-25500D01*
X48811Y-25465D01*
X48965Y-25311D01*
X49049Y-25109D01*
X49049Y-24891D01*
X48965Y-24689D01*
X48825Y-24549D01*
X48849Y-24549D01*
X48941Y-24511D01*
X49011Y-24441D01*
X49049Y-24350D01*
X49049Y-24251D01*
X49049Y-23651D01*
X49049Y-22859D01*
X49049Y-22641D01*
X48965Y-22439D01*
X48811Y-22285D01*
X48726Y-22250D01*
X48811Y-22215D01*
X48965Y-22061D01*
X49049Y-21859D01*
X49049Y-21641D01*
X48965Y-21439D01*
X48825Y-21299D01*
X48849Y-21299D01*
X48941Y-21261D01*
X49011Y-21191D01*
X49049Y-21100D01*
X49049Y-21001D01*
X49049Y-20401D01*
X49011Y-20309D01*
X48941Y-20239D01*
X48850Y-20201D01*
X48751Y-20201D01*
X48151Y-20201D01*
X48059Y-20239D01*
X47989Y-20309D01*
X47951Y-20400D01*
X47951Y-20499D01*
X47951Y-21099D01*
X47989Y-21191D01*
X48059Y-21261D01*
X48150Y-21299D01*
X48175Y-21299D01*
X48035Y-21439D01*
X47951Y-21641D01*
X47951Y-21859D01*
X48035Y-22061D01*
X48189Y-22215D01*
X48273Y-22250D01*
X48189Y-22285D01*
X48035Y-22439D01*
X47951Y-22641D01*
X47951Y-22859D01*
X48035Y-23061D01*
X48189Y-23215D01*
X48391Y-23299D01*
X48609Y-23299D01*
X48811Y-23215D01*
X48965Y-23061D01*
X49049Y-22859D01*
X49049Y-23651D01*
X49011Y-23559D01*
X48941Y-23489D01*
X48850Y-23451D01*
X48751Y-23451D01*
X48151Y-23451D01*
X48059Y-23489D01*
X47989Y-23559D01*
X47951Y-23650D01*
X47951Y-23749D01*
X47951Y-24349D01*
X47989Y-24441D01*
X48059Y-24511D01*
X48150Y-24549D01*
X48175Y-24549D01*
X48035Y-24689D01*
X47951Y-24891D01*
X47951Y-25109D01*
X48035Y-25311D01*
X48189Y-25465D01*
X48273Y-25500D01*
X48189Y-25535D01*
X48035Y-25689D01*
X47951Y-25891D01*
X47951Y-26109D01*
X48035Y-26311D01*
X48189Y-26465D01*
X48391Y-26549D01*
X48609Y-26549D01*
X48811Y-26465D01*
X48965Y-26311D01*
X49049Y-26109D01*
X49049Y-26630D01*
X48700Y-26979D01*
X48700Y-29175D01*
X42825Y-29175D01*
X42825Y-28085D01*
X42825Y-27916D01*
X42761Y-27760D01*
X42690Y-27689D01*
X42690Y-26211D01*
X42760Y-26141D01*
X42825Y-25985D01*
X42825Y-25816D01*
X42761Y-25660D01*
X42690Y-25589D01*
X42690Y-23111D01*
X42760Y-23041D01*
X42825Y-22885D01*
X42825Y-22716D01*
X42761Y-22560D01*
X42641Y-22440D01*
X42485Y-22375D01*
X42316Y-22375D01*
X42290Y-22385D01*
X42290Y-22111D01*
X42360Y-22041D01*
X42425Y-21885D01*
X42425Y-21716D01*
X42361Y-21560D01*
X42275Y-21474D01*
X42275Y-20355D01*
X42275Y-20146D01*
X42195Y-19953D01*
X42048Y-19805D01*
X41855Y-19725D01*
X41646Y-19725D01*
X41453Y-19805D01*
X41305Y-19952D01*
X41225Y-20145D01*
X41225Y-20354D01*
X41305Y-20547D01*
X41452Y-20695D01*
X41592Y-20753D01*
X41483Y-20798D01*
X41460Y-20889D01*
X41750Y-21179D01*
X42040Y-20889D01*
X42017Y-20798D01*
X41898Y-20756D01*
X42047Y-20695D01*
X42195Y-20548D01*
X42275Y-20355D01*
X42275Y-21474D01*
X42241Y-21440D01*
X42230Y-21435D01*
X42269Y-21324D01*
X42258Y-21120D01*
X42202Y-20983D01*
X42111Y-20960D01*
X41856Y-21215D01*
X41821Y-21250D01*
X41750Y-21321D01*
X41715Y-21356D01*
X41679Y-21392D01*
X41679Y-21250D01*
X41389Y-20960D01*
X41298Y-20983D01*
X41231Y-21176D01*
X41242Y-21380D01*
X41298Y-21517D01*
X41389Y-21540D01*
X41679Y-21250D01*
X41679Y-21392D01*
X41460Y-21611D01*
X41483Y-21702D01*
X41575Y-21733D01*
X41575Y-21884D01*
X41613Y-21978D01*
X41605Y-21975D01*
X41396Y-21975D01*
X41203Y-22055D01*
X41055Y-22202D01*
X40975Y-22395D01*
X40975Y-22604D01*
X41055Y-22797D01*
X41202Y-22945D01*
X41342Y-23003D01*
X41233Y-23048D01*
X41210Y-23139D01*
X41465Y-23394D01*
X41500Y-23429D01*
X41571Y-23500D01*
X41500Y-23571D01*
X41465Y-23606D01*
X41429Y-23642D01*
X41429Y-23500D01*
X41139Y-23210D01*
X41048Y-23233D01*
X40981Y-23426D01*
X40992Y-23630D01*
X41048Y-23767D01*
X41139Y-23790D01*
X41429Y-23500D01*
X41429Y-23642D01*
X41210Y-23861D01*
X41228Y-23934D01*
X41209Y-23926D01*
X40991Y-23926D01*
X40949Y-23943D01*
X40949Y-22350D01*
X40949Y-22251D01*
X40949Y-21651D01*
X40911Y-21559D01*
X40841Y-21489D01*
X40750Y-21451D01*
X40651Y-21451D01*
X40051Y-21451D01*
X39959Y-21489D01*
X39889Y-21559D01*
X39851Y-21650D01*
X39851Y-21749D01*
X39851Y-22349D01*
X39889Y-22441D01*
X39959Y-22511D01*
X40050Y-22549D01*
X40112Y-22549D01*
X40092Y-22622D01*
X40400Y-22929D01*
X40708Y-22622D01*
X40687Y-22549D01*
X40749Y-22549D01*
X40841Y-22511D01*
X40911Y-22441D01*
X40949Y-22350D01*
X40949Y-23943D01*
X40943Y-23945D01*
X40943Y-23079D01*
X40932Y-22866D01*
X40872Y-22719D01*
X40778Y-22692D01*
X40471Y-23000D01*
X40778Y-23308D01*
X40872Y-23281D01*
X40943Y-23079D01*
X40943Y-23945D01*
X40789Y-24010D01*
X40708Y-24091D01*
X40708Y-23378D01*
X40400Y-23071D01*
X40329Y-23141D01*
X40329Y-23000D01*
X40022Y-22692D01*
X39928Y-22719D01*
X39857Y-22921D01*
X39868Y-23134D01*
X39928Y-23281D01*
X40022Y-23308D01*
X40329Y-23000D01*
X40329Y-23141D01*
X40092Y-23378D01*
X40119Y-23472D01*
X40321Y-23543D01*
X40534Y-23532D01*
X40681Y-23472D01*
X40708Y-23378D01*
X40708Y-24091D01*
X40635Y-24164D01*
X40551Y-24366D01*
X40551Y-24584D01*
X40635Y-24786D01*
X40789Y-24940D01*
X40991Y-25024D01*
X41209Y-25024D01*
X41411Y-24940D01*
X41565Y-24786D01*
X41649Y-24584D01*
X41649Y-24366D01*
X41565Y-24164D01*
X41416Y-24015D01*
X41426Y-24019D01*
X41630Y-24008D01*
X41710Y-23975D01*
X41710Y-26389D01*
X41640Y-26459D01*
X41575Y-26615D01*
X41575Y-26784D01*
X41639Y-26940D01*
X41759Y-27060D01*
X41915Y-27125D01*
X42084Y-27125D01*
X42110Y-27114D01*
X42110Y-27689D01*
X42040Y-27759D01*
X41975Y-27915D01*
X41975Y-28084D01*
X42039Y-28240D01*
X42159Y-28360D01*
X42315Y-28425D01*
X42484Y-28425D01*
X42640Y-28361D01*
X42760Y-28241D01*
X42825Y-28085D01*
X42825Y-29175D01*
X41649Y-29175D01*
X41649Y-28584D01*
X41649Y-28366D01*
X41565Y-28164D01*
X41411Y-28010D01*
X41209Y-27926D01*
X40991Y-27926D01*
X40789Y-28010D01*
X40725Y-28074D01*
X40725Y-27916D01*
X40661Y-27760D01*
X40541Y-27640D01*
X40490Y-27618D01*
X40490Y-24800D01*
X40468Y-24689D01*
X40405Y-24595D01*
X40105Y-24295D01*
X40011Y-24232D01*
X39900Y-24210D01*
X39723Y-24210D01*
X39715Y-24189D01*
X39561Y-24035D01*
X39476Y-24000D01*
X39561Y-23965D01*
X39715Y-23811D01*
X39799Y-23609D01*
X39799Y-23391D01*
X39715Y-23189D01*
X39561Y-23035D01*
X39476Y-23000D01*
X39561Y-22965D01*
X39715Y-22811D01*
X39799Y-22609D01*
X39799Y-22391D01*
X39715Y-22189D01*
X39575Y-22049D01*
X39599Y-22049D01*
X39691Y-22011D01*
X39761Y-21941D01*
X39799Y-21850D01*
X39799Y-21751D01*
X39799Y-21151D01*
X39761Y-21059D01*
X39691Y-20989D01*
X39600Y-20951D01*
X39501Y-20951D01*
X38901Y-20951D01*
X38809Y-20989D01*
X38739Y-21059D01*
X38701Y-21150D01*
X38701Y-21249D01*
X38701Y-21849D01*
X38739Y-21941D01*
X38809Y-22011D01*
X38900Y-22049D01*
X38925Y-22049D01*
X38785Y-22189D01*
X38701Y-22391D01*
X38701Y-22609D01*
X38785Y-22811D01*
X38939Y-22965D01*
X39023Y-23000D01*
X38939Y-23035D01*
X38785Y-23189D01*
X38701Y-23391D01*
X38701Y-23609D01*
X38785Y-23811D01*
X38939Y-23965D01*
X39023Y-24000D01*
X38939Y-24035D01*
X38785Y-24189D01*
X38701Y-24391D01*
X38701Y-24609D01*
X38785Y-24811D01*
X38939Y-24965D01*
X39023Y-25000D01*
X38939Y-25035D01*
X38785Y-25189D01*
X38701Y-25391D01*
X38701Y-25609D01*
X38785Y-25811D01*
X38939Y-25965D01*
X39023Y-26000D01*
X38939Y-26035D01*
X38785Y-26189D01*
X38701Y-26391D01*
X38701Y-26609D01*
X38785Y-26811D01*
X38939Y-26965D01*
X39023Y-27000D01*
X38939Y-27035D01*
X38785Y-27189D01*
X38701Y-27391D01*
X38701Y-27609D01*
X38785Y-27811D01*
X38939Y-27965D01*
X39030Y-28002D01*
X38969Y-28028D01*
X38942Y-28122D01*
X39250Y-28429D01*
X39558Y-28122D01*
X39531Y-28028D01*
X39465Y-28004D01*
X39561Y-27965D01*
X39715Y-27811D01*
X39799Y-27609D01*
X39799Y-27391D01*
X39715Y-27189D01*
X39561Y-27035D01*
X39476Y-27000D01*
X39561Y-26965D01*
X39715Y-26811D01*
X39799Y-26609D01*
X39799Y-26391D01*
X39715Y-26189D01*
X39561Y-26035D01*
X39476Y-26000D01*
X39561Y-25965D01*
X39715Y-25811D01*
X39799Y-25609D01*
X39799Y-25391D01*
X39715Y-25189D01*
X39561Y-25035D01*
X39476Y-25000D01*
X39561Y-24965D01*
X39715Y-24811D01*
X39723Y-24790D01*
X39780Y-24790D01*
X39910Y-24920D01*
X39910Y-27831D01*
X39875Y-27915D01*
X39875Y-28084D01*
X39939Y-28240D01*
X40059Y-28360D01*
X40215Y-28425D01*
X40384Y-28425D01*
X40540Y-28361D01*
X40562Y-28338D01*
X40551Y-28366D01*
X40551Y-28584D01*
X40635Y-28786D01*
X40789Y-28940D01*
X40991Y-29024D01*
X41209Y-29024D01*
X41411Y-28940D01*
X41565Y-28786D01*
X41649Y-28584D01*
X41649Y-29175D01*
X39793Y-29175D01*
X39793Y-28579D01*
X39782Y-28366D01*
X39722Y-28219D01*
X39628Y-28192D01*
X39321Y-28500D01*
X39628Y-28808D01*
X39722Y-28781D01*
X39793Y-28579D01*
X39793Y-29175D01*
X39558Y-29175D01*
X39558Y-28878D01*
X39250Y-28571D01*
X39179Y-28641D01*
X39179Y-28500D01*
X38872Y-28192D01*
X38778Y-28219D01*
X38707Y-28421D01*
X38718Y-28634D01*
X38778Y-28781D01*
X38872Y-28808D01*
X39179Y-28500D01*
X39179Y-28641D01*
X38942Y-28878D01*
X38969Y-28972D01*
X39171Y-29043D01*
X39384Y-29032D01*
X39531Y-28972D01*
X39558Y-28878D01*
X39558Y-29175D01*
X37325Y-29175D01*
X37325Y-20550D01*
X39271Y-20550D01*
X40050Y-19771D01*
X40050Y-17825D01*
X45666Y-17825D01*
X45510Y-17889D01*
X45390Y-18009D01*
X45325Y-18165D01*
X45325Y-18334D01*
X45389Y-18490D01*
X45398Y-18499D01*
X44986Y-20328D01*
X44960Y-20339D01*
X44840Y-20459D01*
X44775Y-20615D01*
X44775Y-20784D01*
X44839Y-20940D01*
X44910Y-21011D01*
X44910Y-21356D01*
X44835Y-21325D01*
X44666Y-21325D01*
X44540Y-21376D01*
X44540Y-21061D01*
X44610Y-20991D01*
X44675Y-20835D01*
X44675Y-20666D01*
X44611Y-20510D01*
X44491Y-20390D01*
X44335Y-20325D01*
X44166Y-20325D01*
X44010Y-20389D01*
X43890Y-20509D01*
X43825Y-20665D01*
X43825Y-20834D01*
X43889Y-20990D01*
X43960Y-21061D01*
X43960Y-25689D01*
X43890Y-25759D01*
X43825Y-25915D01*
X43825Y-26084D01*
X43889Y-26240D01*
X44009Y-26360D01*
X44165Y-26425D01*
X44334Y-26425D01*
X44490Y-26361D01*
X44610Y-26241D01*
X44675Y-26085D01*
X44675Y-25916D01*
X44611Y-25760D01*
X44540Y-25689D01*
X44540Y-25622D01*
X44665Y-25675D01*
X44834Y-25675D01*
X44910Y-25643D01*
X44910Y-25789D01*
X44840Y-25859D01*
X44775Y-26015D01*
X44775Y-26184D01*
X44839Y-26340D01*
X44959Y-26460D01*
X45115Y-26525D01*
X45284Y-26525D01*
X45440Y-26461D01*
X45560Y-26341D01*
X45625Y-26185D01*
X45625Y-26016D01*
X45561Y-25860D01*
X45490Y-25789D01*
X45490Y-21011D01*
X45560Y-20941D01*
X45625Y-20785D01*
X45625Y-20616D01*
X45561Y-20460D01*
X45553Y-20452D01*
X45966Y-18620D01*
X45990Y-18611D01*
X46110Y-18491D01*
X46175Y-18335D01*
X46175Y-18166D01*
X46111Y-18010D01*
X45991Y-17890D01*
X45835Y-17825D01*
X48700Y-17825D01*
X48700Y-19521D01*
X48981Y-19802D01*
X48996Y-19837D01*
X49411Y-20253D01*
X49446Y-20267D01*
X49729Y-20550D01*
X51675Y-20550D01*
X51675Y-26200D01*
X51675Y-26200D01*
G37*
G54D17*
X51675Y-26200D02*
X49479Y-26200D01*
X49049Y-26630D01*
X49049Y-26109D01*
X49049Y-25891D01*
X48965Y-25689D01*
X48811Y-25535D01*
X48726Y-25500D01*
X48811Y-25465D01*
X48965Y-25311D01*
X49049Y-25109D01*
X49049Y-24891D01*
X48965Y-24689D01*
X48825Y-24549D01*
X48849Y-24549D01*
X48941Y-24511D01*
X49011Y-24441D01*
X49049Y-24350D01*
X49049Y-24251D01*
X49049Y-23651D01*
X49049Y-22859D01*
X49049Y-22641D01*
X48965Y-22439D01*
X48811Y-22285D01*
X48726Y-22250D01*
X48811Y-22215D01*
X48965Y-22061D01*
X49049Y-21859D01*
X49049Y-21641D01*
X48965Y-21439D01*
X48825Y-21299D01*
X48849Y-21299D01*
X48941Y-21261D01*
X49011Y-21191D01*
X49049Y-21100D01*
X49049Y-21001D01*
X49049Y-20401D01*
X49011Y-20309D01*
X48941Y-20239D01*
X48850Y-20201D01*
X48751Y-20201D01*
X48151Y-20201D01*
X48059Y-20239D01*
X47989Y-20309D01*
X47951Y-20400D01*
X47951Y-20499D01*
X47951Y-21099D01*
X47989Y-21191D01*
X48059Y-21261D01*
X48150Y-21299D01*
X48175Y-21299D01*
X48035Y-21439D01*
X47951Y-21641D01*
X47951Y-21859D01*
X48035Y-22061D01*
X48189Y-22215D01*
X48273Y-22250D01*
X48189Y-22285D01*
X48035Y-22439D01*
X47951Y-22641D01*
X47951Y-22859D01*
X48035Y-23061D01*
X48189Y-23215D01*
X48391Y-23299D01*
X48609Y-23299D01*
X48811Y-23215D01*
X48965Y-23061D01*
X49049Y-22859D01*
X49049Y-23651D01*
X49011Y-23559D01*
X48941Y-23489D01*
X48850Y-23451D01*
X48751Y-23451D01*
X48151Y-23451D01*
X48059Y-23489D01*
X47989Y-23559D01*
X47951Y-23650D01*
X47951Y-23749D01*
X47951Y-24349D01*
X47989Y-24441D01*
X48059Y-24511D01*
X48150Y-24549D01*
X48175Y-24549D01*
X48035Y-24689D01*
X47951Y-24891D01*
X47951Y-25109D01*
X48035Y-25311D01*
X48189Y-25465D01*
X48273Y-25500D01*
X48189Y-25535D01*
X48035Y-25689D01*
X47951Y-25891D01*
X47951Y-26109D01*
X48035Y-26311D01*
X48189Y-26465D01*
X48391Y-26549D01*
X48609Y-26549D01*
X48811Y-26465D01*
X48965Y-26311D01*
X49049Y-26109D01*
X49049Y-26630D01*
X48700Y-26979D01*
X48700Y-29175D01*
X42825Y-29175D01*
X42825Y-28085D01*
X42825Y-27916D01*
X42761Y-27760D01*
X42690Y-27689D01*
X42690Y-26211D01*
X42760Y-26141D01*
X42825Y-25985D01*
X42825Y-25816D01*
X42761Y-25660D01*
X42690Y-25589D01*
X42690Y-23111D01*
X42760Y-23041D01*
X42825Y-22885D01*
X42825Y-22716D01*
X42761Y-22560D01*
X42641Y-22440D01*
X42485Y-22375D01*
X42316Y-22375D01*
X42290Y-22385D01*
X42290Y-22111D01*
X42360Y-22041D01*
X42425Y-21885D01*
X42425Y-21716D01*
X42361Y-21560D01*
X42275Y-21474D01*
X42275Y-20355D01*
X42275Y-20146D01*
X42195Y-19953D01*
X42048Y-19805D01*
X41855Y-19725D01*
X41646Y-19725D01*
X41453Y-19805D01*
X41305Y-19952D01*
X41225Y-20145D01*
X41225Y-20354D01*
X41305Y-20547D01*
X41452Y-20695D01*
X41592Y-20753D01*
X41483Y-20798D01*
X41460Y-20889D01*
X41750Y-21179D01*
X42040Y-20889D01*
X42017Y-20798D01*
X41898Y-20756D01*
X42047Y-20695D01*
X42195Y-20548D01*
X42275Y-20355D01*
X42275Y-21474D01*
X42241Y-21440D01*
X42230Y-21435D01*
X42269Y-21324D01*
X42258Y-21120D01*
X42202Y-20983D01*
X42111Y-20960D01*
X41856Y-21215D01*
X41821Y-21250D01*
X41750Y-21321D01*
X41715Y-21356D01*
X41679Y-21392D01*
X41679Y-21250D01*
X41389Y-20960D01*
X41298Y-20983D01*
X41231Y-21176D01*
X41242Y-21380D01*
X41298Y-21517D01*
X41389Y-21540D01*
X41679Y-21250D01*
X41679Y-21392D01*
X41460Y-21611D01*
X41483Y-21702D01*
X41575Y-21733D01*
X41575Y-21884D01*
X41613Y-21978D01*
X41605Y-21975D01*
X41396Y-21975D01*
X41203Y-22055D01*
X41055Y-22202D01*
X40975Y-22395D01*
X40975Y-22604D01*
X41055Y-22797D01*
X41202Y-22945D01*
X41342Y-23003D01*
X41233Y-23048D01*
X41210Y-23139D01*
X41465Y-23394D01*
X41500Y-23429D01*
X41571Y-23500D01*
X41500Y-23571D01*
X41465Y-23606D01*
X41429Y-23642D01*
X41429Y-23500D01*
X41139Y-23210D01*
X41048Y-23233D01*
X40981Y-23426D01*
X40992Y-23630D01*
X41048Y-23767D01*
X41139Y-23790D01*
X41429Y-23500D01*
X41429Y-23642D01*
X41210Y-23861D01*
X41228Y-23934D01*
X41209Y-23926D01*
X40991Y-23926D01*
X40949Y-23943D01*
X40949Y-22350D01*
X40949Y-22251D01*
X40949Y-21651D01*
X40911Y-21559D01*
X40841Y-21489D01*
X40750Y-21451D01*
X40651Y-21451D01*
X40051Y-21451D01*
X39959Y-21489D01*
X39889Y-21559D01*
X39851Y-21650D01*
X39851Y-21749D01*
X39851Y-22349D01*
X39889Y-22441D01*
X39959Y-22511D01*
X40050Y-22549D01*
X40112Y-22549D01*
X40092Y-22622D01*
X40400Y-22929D01*
X40708Y-22622D01*
X40687Y-22549D01*
X40749Y-22549D01*
X40841Y-22511D01*
X40911Y-22441D01*
X40949Y-22350D01*
X40949Y-23943D01*
X40943Y-23945D01*
X40943Y-23079D01*
X40932Y-22866D01*
X40872Y-22719D01*
X40778Y-22692D01*
X40471Y-23000D01*
X40778Y-23308D01*
X40872Y-23281D01*
X40943Y-23079D01*
X40943Y-23945D01*
X40789Y-24010D01*
X40708Y-24091D01*
X40708Y-23378D01*
X40400Y-23071D01*
X40329Y-23141D01*
X40329Y-23000D01*
X40022Y-22692D01*
X39928Y-22719D01*
X39857Y-22921D01*
X39868Y-23134D01*
X39928Y-23281D01*
X40022Y-23308D01*
X40329Y-23000D01*
X40329Y-23141D01*
X40092Y-23378D01*
X40119Y-23472D01*
X40321Y-23543D01*
X40534Y-23532D01*
X40681Y-23472D01*
X40708Y-23378D01*
X40708Y-24091D01*
X40635Y-24164D01*
X40551Y-24366D01*
X40551Y-24584D01*
X40635Y-24786D01*
X40789Y-24940D01*
X40991Y-25024D01*
X41209Y-25024D01*
X41411Y-24940D01*
X41565Y-24786D01*
X41649Y-24584D01*
X41649Y-24366D01*
X41565Y-24164D01*
X41416Y-24015D01*
X41426Y-24019D01*
X41630Y-24008D01*
X41710Y-23975D01*
X41710Y-26389D01*
X41640Y-26459D01*
X41575Y-26615D01*
X41575Y-26784D01*
X41639Y-26940D01*
X41759Y-27060D01*
X41915Y-27125D01*
X42084Y-27125D01*
X42110Y-27114D01*
X42110Y-27689D01*
X42040Y-27759D01*
X41975Y-27915D01*
X41975Y-28084D01*
X42039Y-28240D01*
X42159Y-28360D01*
X42315Y-28425D01*
X42484Y-28425D01*
X42640Y-28361D01*
X42760Y-28241D01*
X42825Y-28085D01*
X42825Y-29175D01*
X41649Y-29175D01*
X41649Y-28584D01*
X41649Y-28366D01*
X41565Y-28164D01*
X41411Y-28010D01*
X41209Y-27926D01*
X40991Y-27926D01*
X40789Y-28010D01*
X40725Y-28074D01*
X40725Y-27916D01*
X40661Y-27760D01*
X40541Y-27640D01*
X40490Y-27618D01*
X40490Y-24800D01*
X40468Y-24689D01*
X40405Y-24595D01*
X40105Y-24295D01*
X40011Y-24232D01*
X39900Y-24210D01*
X39723Y-24210D01*
X39715Y-24189D01*
X39561Y-24035D01*
X39476Y-24000D01*
X39561Y-23965D01*
X39715Y-23811D01*
X39799Y-23609D01*
X39799Y-23391D01*
X39715Y-23189D01*
X39561Y-23035D01*
X39476Y-23000D01*
X39561Y-22965D01*
X39715Y-22811D01*
X39799Y-22609D01*
X39799Y-22391D01*
X39715Y-22189D01*
X39575Y-22049D01*
X39599Y-22049D01*
X39691Y-22011D01*
X39761Y-21941D01*
X39799Y-21850D01*
X39799Y-21751D01*
X39799Y-21151D01*
X39761Y-21059D01*
X39691Y-20989D01*
X39600Y-20951D01*
X39501Y-20951D01*
X38901Y-20951D01*
X38809Y-20989D01*
X38739Y-21059D01*
X38701Y-21150D01*
X38701Y-21249D01*
X38701Y-21849D01*
X38739Y-21941D01*
X38809Y-22011D01*
X38900Y-22049D01*
X38925Y-22049D01*
X38785Y-22189D01*
X38701Y-22391D01*
X38701Y-22609D01*
X38785Y-22811D01*
X38939Y-22965D01*
X39023Y-23000D01*
X38939Y-23035D01*
X38785Y-23189D01*
X38701Y-23391D01*
X38701Y-23609D01*
X38785Y-23811D01*
X38939Y-23965D01*
X39023Y-24000D01*
X38939Y-24035D01*
X38785Y-24189D01*
X38701Y-24391D01*
X38701Y-24609D01*
X38785Y-24811D01*
X38939Y-24965D01*
X39023Y-25000D01*
X38939Y-25035D01*
X38785Y-25189D01*
X38701Y-25391D01*
X38701Y-25609D01*
X38785Y-25811D01*
X38939Y-25965D01*
X39023Y-26000D01*
X38939Y-26035D01*
X38785Y-26189D01*
X38701Y-26391D01*
X38701Y-26609D01*
X38785Y-26811D01*
X38939Y-26965D01*
X39023Y-27000D01*
X38939Y-27035D01*
X38785Y-27189D01*
X38701Y-27391D01*
X38701Y-27609D01*
X38785Y-27811D01*
X38939Y-27965D01*
X39030Y-28002D01*
X38969Y-28028D01*
X38942Y-28122D01*
X39250Y-28429D01*
X39558Y-28122D01*
X39531Y-28028D01*
X39465Y-28004D01*
X39561Y-27965D01*
X39715Y-27811D01*
X39799Y-27609D01*
X39799Y-27391D01*
X39715Y-27189D01*
X39561Y-27035D01*
X39476Y-27000D01*
X39561Y-26965D01*
X39715Y-26811D01*
X39799Y-26609D01*
X39799Y-26391D01*
X39715Y-26189D01*
X39561Y-26035D01*
X39476Y-26000D01*
X39561Y-25965D01*
X39715Y-25811D01*
X39799Y-25609D01*
X39799Y-25391D01*
X39715Y-25189D01*
X39561Y-25035D01*
X39476Y-25000D01*
X39561Y-24965D01*
X39715Y-24811D01*
X39723Y-24790D01*
X39780Y-24790D01*
X39910Y-24920D01*
X39910Y-27831D01*
X39875Y-27915D01*
X39875Y-28084D01*
X39939Y-28240D01*
X40059Y-28360D01*
X40215Y-28425D01*
X40384Y-28425D01*
X40540Y-28361D01*
X40562Y-28338D01*
X40551Y-28366D01*
X40551Y-28584D01*
X40635Y-28786D01*
X40789Y-28940D01*
X40991Y-29024D01*
X41209Y-29024D01*
X41411Y-28940D01*
X41565Y-28786D01*
X41649Y-28584D01*
X41649Y-29175D01*
X39793Y-29175D01*
X39793Y-28579D01*
X39782Y-28366D01*
X39722Y-28219D01*
X39628Y-28192D01*
X39321Y-28500D01*
X39628Y-28808D01*
X39722Y-28781D01*
X39793Y-28579D01*
X39793Y-29175D01*
X39558Y-29175D01*
X39558Y-28878D01*
X39250Y-28571D01*
X39179Y-28641D01*
X39179Y-28500D01*
X38872Y-28192D01*
X38778Y-28219D01*
X38707Y-28421D01*
X38718Y-28634D01*
X38778Y-28781D01*
X38872Y-28808D01*
X39179Y-28500D01*
X39179Y-28641D01*
X38942Y-28878D01*
X38969Y-28972D01*
X39171Y-29043D01*
X39384Y-29032D01*
X39531Y-28972D01*
X39558Y-28878D01*
X39558Y-29175D01*
X37325Y-29175D01*
X37325Y-20550D01*
X39271Y-20550D01*
X40050Y-19771D01*
X40050Y-17825D01*
X45666Y-17825D01*
X45510Y-17889D01*
X45390Y-18009D01*
X45325Y-18165D01*
X45325Y-18334D01*
X45389Y-18490D01*
X45398Y-18499D01*
X44986Y-20328D01*
X44960Y-20339D01*
X44840Y-20459D01*
X44775Y-20615D01*
X44775Y-20784D01*
X44839Y-20940D01*
X44910Y-21011D01*
X44910Y-21356D01*
X44835Y-21325D01*
X44666Y-21325D01*
X44540Y-21376D01*
X44540Y-21061D01*
X44610Y-20991D01*
X44675Y-20835D01*
X44675Y-20666D01*
X44611Y-20510D01*
X44491Y-20390D01*
X44335Y-20325D01*
X44166Y-20325D01*
X44010Y-20389D01*
X43890Y-20509D01*
X43825Y-20665D01*
X43825Y-20834D01*
X43889Y-20990D01*
X43960Y-21061D01*
X43960Y-25689D01*
X43890Y-25759D01*
X43825Y-25915D01*
X43825Y-26084D01*
X43889Y-26240D01*
X44009Y-26360D01*
X44165Y-26425D01*
X44334Y-26425D01*
X44490Y-26361D01*
X44610Y-26241D01*
X44675Y-26085D01*
X44675Y-25916D01*
X44611Y-25760D01*
X44540Y-25689D01*
X44540Y-25622D01*
X44665Y-25675D01*
X44834Y-25675D01*
X44910Y-25643D01*
X44910Y-25789D01*
X44840Y-25859D01*
X44775Y-26015D01*
X44775Y-26184D01*
X44839Y-26340D01*
X44959Y-26460D01*
X45115Y-26525D01*
X45284Y-26525D01*
X45440Y-26461D01*
X45560Y-26341D01*
X45625Y-26185D01*
X45625Y-26016D01*
X45561Y-25860D01*
X45490Y-25789D01*
X45490Y-21011D01*
X45560Y-20941D01*
X45625Y-20785D01*
X45625Y-20616D01*
X45561Y-20460D01*
X45553Y-20452D01*
X45966Y-18620D01*
X45990Y-18611D01*
X46110Y-18491D01*
X46175Y-18335D01*
X46175Y-18166D01*
X46111Y-18010D01*
X45991Y-17890D01*
X45835Y-17825D01*
X48700Y-17825D01*
X48700Y-19521D01*
X48981Y-19802D01*
X48996Y-19837D01*
X49411Y-20253D01*
X49446Y-20267D01*
X49729Y-20550D01*
X51675Y-20550D01*
X51675Y-26200D01*
M02*
