%FSLAX24Y24*%
%MOIN*%
G70*
G01*
G75*
G04 Layer_Physical_Order=2*
G04 Layer_Color=16711680*
%ADD10R,0.0500X0.0299*%
%ADD11R,0.0551X0.0236*%
%ADD12R,0.0709X0.0236*%
%ADD13R,0.0315X0.0354*%
%ADD14R,0.0500X0.1000*%
%ADD15R,0.0512X0.0217*%
%ADD16R,0.0354X0.0315*%
%ADD17R,0.0472X0.0551*%
%ADD18R,0.0354X0.0276*%
%ADD19R,0.0217X0.0394*%
%ADD20R,0.0276X0.0354*%
%ADD21R,0.0217X0.0512*%
%ADD22R,0.0512X0.0236*%
%ADD23R,0.1500X0.1000*%
G04:AMPARAMS|DCode=24|XSize=60mil|YSize=40mil|CornerRadius=0mil|HoleSize=0mil|Usage=FLASHONLY|Rotation=45.000|XOffset=0mil|YOffset=0mil|HoleType=Round|Shape=Rectangle|*
%AMROTATEDRECTD24*
4,1,4,-0.0071,-0.0354,-0.0354,-0.0071,0.0071,0.0354,0.0354,0.0071,-0.0071,-0.0354,0.0*
%
%ADD24ROTATEDRECTD24*%

%ADD25O,0.1181X0.3150*%
%ADD26R,0.8661X0.8661*%
%ADD27C,0.0120*%
%ADD28C,0.0200*%
%ADD29C,0.0150*%
%ADD30C,0.0300*%
%ADD31O,0.0669X0.1102*%
%ADD32C,0.1100*%
%ADD33C,0.0400*%
G36*
X4350Y-4350D02*
X-4350D01*
Y4350D01*
X4350D01*
Y-4350D01*
D02*
G37*
%LPC*%
G36*
X727Y-847D02*
X493D01*
X495Y-866D01*
X525Y-939D01*
X573Y-1001D01*
X636Y-1049D01*
X709Y-1080D01*
X727Y-1082D01*
Y-847D01*
D02*
G37*
G36*
X1082D02*
X847D01*
Y-1082D01*
X866Y-1080D01*
X939Y-1049D01*
X1001Y-1001D01*
X1049Y-939D01*
X1080Y-866D01*
X1082Y-847D01*
D02*
G37*
G36*
X1515D02*
X1280D01*
X1283Y-866D01*
X1313Y-939D01*
X1361Y-1001D01*
X1424Y-1049D01*
X1496Y-1080D01*
X1515Y-1082D01*
Y-847D01*
D02*
G37*
G36*
X-493D02*
X-727D01*
Y-1082D01*
X-709Y-1080D01*
X-636Y-1049D01*
X-573Y-1001D01*
X-525Y-939D01*
X-495Y-866D01*
X-493Y-847D01*
D02*
G37*
G36*
X-60D02*
X-295D01*
X-292Y-866D01*
X-262Y-939D01*
X-214Y-1001D01*
X-151Y-1049D01*
X-78Y-1080D01*
X-60Y-1082D01*
Y-847D01*
D02*
G37*
G36*
X295D02*
X60D01*
Y-1082D01*
X78Y-1080D01*
X151Y-1049D01*
X214Y-1001D01*
X262Y-939D01*
X292Y-866D01*
X295Y-847D01*
D02*
G37*
G36*
X-2422Y-493D02*
X-2441Y-495D01*
X-2513Y-525D01*
X-2576Y-573D01*
X-2624Y-636D01*
X-2654Y-709D01*
X-2657Y-727D01*
X-2422D01*
Y-493D01*
D02*
G37*
G36*
X-2302D02*
Y-727D01*
X-2068D01*
X-2070Y-709D01*
X-2100Y-636D01*
X-2148Y-573D01*
X-2211Y-525D01*
X-2284Y-495D01*
X-2302Y-493D01*
D02*
G37*
G36*
X-1635D02*
X-1653Y-495D01*
X-1726Y-525D01*
X-1789Y-573D01*
X-1837Y-636D01*
X-1867Y-709D01*
X-1869Y-727D01*
X-1635D01*
Y-493D01*
D02*
G37*
G36*
X1869Y-847D02*
X1635D01*
Y-1082D01*
X1653Y-1080D01*
X1726Y-1049D01*
X1789Y-1001D01*
X1837Y-939D01*
X1867Y-866D01*
X1869Y-847D01*
D02*
G37*
G36*
X2302D02*
X2068D01*
X2070Y-866D01*
X2100Y-939D01*
X2148Y-1001D01*
X2211Y-1049D01*
X2284Y-1080D01*
X2302Y-1082D01*
Y-847D01*
D02*
G37*
G36*
X2657D02*
X2422D01*
Y-1082D01*
X2441Y-1080D01*
X2513Y-1049D01*
X2576Y-1001D01*
X2624Y-939D01*
X2654Y-866D01*
X2657Y-847D01*
D02*
G37*
G36*
X1515Y-1280D02*
X1496Y-1283D01*
X1424Y-1313D01*
X1361Y-1361D01*
X1313Y-1424D01*
X1283Y-1496D01*
X1280Y-1515D01*
X1515D01*
Y-1280D01*
D02*
G37*
G36*
X1635D02*
Y-1515D01*
X1869D01*
X1867Y-1496D01*
X1837Y-1424D01*
X1789Y-1361D01*
X1726Y-1313D01*
X1653Y-1283D01*
X1635Y-1280D01*
D02*
G37*
G36*
X2302D02*
X2284Y-1283D01*
X2211Y-1313D01*
X2148Y-1361D01*
X2100Y-1424D01*
X2070Y-1496D01*
X2068Y-1515D01*
X2302D01*
Y-1280D01*
D02*
G37*
G36*
X60D02*
Y-1515D01*
X295D01*
X292Y-1496D01*
X262Y-1424D01*
X214Y-1361D01*
X151Y-1313D01*
X78Y-1283D01*
X60Y-1280D01*
D02*
G37*
G36*
X727D02*
X709Y-1283D01*
X636Y-1313D01*
X573Y-1361D01*
X525Y-1424D01*
X495Y-1496D01*
X493Y-1515D01*
X727D01*
Y-1280D01*
D02*
G37*
G36*
X847D02*
Y-1515D01*
X1082D01*
X1080Y-1496D01*
X1049Y-1424D01*
X1001Y-1361D01*
X939Y-1313D01*
X866Y-1283D01*
X847Y-1280D01*
D02*
G37*
G36*
X-1635Y-847D02*
X-1869D01*
X-1867Y-866D01*
X-1837Y-939D01*
X-1789Y-1001D01*
X-1726Y-1049D01*
X-1653Y-1080D01*
X-1635Y-1082D01*
Y-847D01*
D02*
G37*
G36*
X-1280D02*
X-1515D01*
Y-1082D01*
X-1496Y-1080D01*
X-1424Y-1049D01*
X-1361Y-1001D01*
X-1313Y-939D01*
X-1283Y-866D01*
X-1280Y-847D01*
D02*
G37*
G36*
X-847D02*
X-1082D01*
X-1080Y-866D01*
X-1049Y-939D01*
X-1001Y-1001D01*
X-939Y-1049D01*
X-866Y-1080D01*
X-847Y-1082D01*
Y-847D01*
D02*
G37*
G36*
X2422Y-1280D02*
Y-1515D01*
X2657D01*
X2654Y-1496D01*
X2624Y-1424D01*
X2576Y-1361D01*
X2513Y-1313D01*
X2441Y-1283D01*
X2422Y-1280D01*
D02*
G37*
G36*
X-2422Y-847D02*
X-2657D01*
X-2654Y-866D01*
X-2624Y-939D01*
X-2576Y-1001D01*
X-2513Y-1049D01*
X-2441Y-1080D01*
X-2422Y-1082D01*
Y-847D01*
D02*
G37*
G36*
X-2068D02*
X-2302D01*
Y-1082D01*
X-2284Y-1080D01*
X-2211Y-1049D01*
X-2148Y-1001D01*
X-2100Y-939D01*
X-2070Y-866D01*
X-2068Y-847D01*
D02*
G37*
G36*
X-847Y-60D02*
X-1082D01*
X-1080Y-78D01*
X-1049Y-151D01*
X-1001Y-214D01*
X-939Y-262D01*
X-866Y-292D01*
X-847Y-295D01*
Y-60D01*
D02*
G37*
G36*
X-493D02*
X-727D01*
Y-295D01*
X-709Y-292D01*
X-636Y-262D01*
X-573Y-214D01*
X-525Y-151D01*
X-495Y-78D01*
X-493Y-60D01*
D02*
G37*
G36*
X-60D02*
X-295D01*
X-292Y-78D01*
X-262Y-151D01*
X-214Y-214D01*
X-151Y-262D01*
X-78Y-292D01*
X-60Y-295D01*
Y-60D01*
D02*
G37*
G36*
X-2068D02*
X-2302D01*
Y-295D01*
X-2284Y-292D01*
X-2211Y-262D01*
X-2148Y-214D01*
X-2100Y-151D01*
X-2070Y-78D01*
X-2068Y-60D01*
D02*
G37*
G36*
X-1635D02*
X-1869D01*
X-1867Y-78D01*
X-1837Y-151D01*
X-1789Y-214D01*
X-1726Y-262D01*
X-1653Y-292D01*
X-1635Y-295D01*
Y-60D01*
D02*
G37*
G36*
X-1280D02*
X-1515D01*
Y-295D01*
X-1496Y-292D01*
X-1424Y-262D01*
X-1361Y-214D01*
X-1313Y-151D01*
X-1283Y-78D01*
X-1280Y-60D01*
D02*
G37*
G36*
X1515D02*
X1280D01*
X1283Y-78D01*
X1313Y-151D01*
X1361Y-214D01*
X1424Y-262D01*
X1496Y-292D01*
X1515Y-295D01*
Y-60D01*
D02*
G37*
G36*
X1869D02*
X1635D01*
Y-295D01*
X1653Y-292D01*
X1726Y-262D01*
X1789Y-214D01*
X1837Y-151D01*
X1867Y-78D01*
X1869Y-60D01*
D02*
G37*
G36*
X2302D02*
X2068D01*
X2070Y-78D01*
X2100Y-151D01*
X2148Y-214D01*
X2211Y-262D01*
X2284Y-292D01*
X2302Y-295D01*
Y-60D01*
D02*
G37*
G36*
X295D02*
X60D01*
Y-295D01*
X78Y-292D01*
X151Y-262D01*
X214Y-214D01*
X262Y-151D01*
X292Y-78D01*
X295Y-60D01*
D02*
G37*
G36*
X727D02*
X493D01*
X495Y-78D01*
X525Y-151D01*
X573Y-214D01*
X636Y-262D01*
X709Y-292D01*
X727Y-295D01*
Y-60D01*
D02*
G37*
G36*
X1082D02*
X847D01*
Y-295D01*
X866Y-292D01*
X939Y-262D01*
X1001Y-214D01*
X1049Y-151D01*
X1080Y-78D01*
X1082Y-60D01*
D02*
G37*
G36*
X-60Y-493D02*
X-78Y-495D01*
X-151Y-525D01*
X-214Y-573D01*
X-262Y-636D01*
X-292Y-709D01*
X-295Y-727D01*
X-60D01*
Y-493D01*
D02*
G37*
G36*
X60D02*
Y-727D01*
X295D01*
X292Y-709D01*
X262Y-636D01*
X214Y-573D01*
X151Y-525D01*
X78Y-495D01*
X60Y-493D01*
D02*
G37*
G36*
X727D02*
X709Y-495D01*
X636Y-525D01*
X573Y-573D01*
X525Y-636D01*
X495Y-709D01*
X493Y-727D01*
X727D01*
Y-493D01*
D02*
G37*
G36*
X-1515D02*
Y-727D01*
X-1280D01*
X-1283Y-709D01*
X-1313Y-636D01*
X-1361Y-573D01*
X-1424Y-525D01*
X-1496Y-495D01*
X-1515Y-493D01*
D02*
G37*
G36*
X-847D02*
X-866Y-495D01*
X-939Y-525D01*
X-1001Y-573D01*
X-1049Y-636D01*
X-1080Y-709D01*
X-1082Y-727D01*
X-847D01*
Y-493D01*
D02*
G37*
G36*
X-727D02*
Y-727D01*
X-493D01*
X-495Y-709D01*
X-525Y-636D01*
X-573Y-573D01*
X-636Y-525D01*
X-709Y-495D01*
X-727Y-493D01*
D02*
G37*
G36*
X2302D02*
X2284Y-495D01*
X2211Y-525D01*
X2148Y-573D01*
X2100Y-636D01*
X2070Y-709D01*
X2068Y-727D01*
X2302D01*
Y-493D01*
D02*
G37*
G36*
X2422D02*
Y-727D01*
X2657D01*
X2654Y-709D01*
X2624Y-636D01*
X2576Y-573D01*
X2513Y-525D01*
X2441Y-495D01*
X2422Y-493D01*
D02*
G37*
G36*
X-2422Y-60D02*
X-2657D01*
X-2654Y-78D01*
X-2624Y-151D01*
X-2576Y-214D01*
X-2513Y-262D01*
X-2441Y-292D01*
X-2422Y-295D01*
Y-60D01*
D02*
G37*
G36*
X847Y-493D02*
Y-727D01*
X1082D01*
X1080Y-709D01*
X1049Y-636D01*
X1001Y-573D01*
X939Y-525D01*
X866Y-495D01*
X847Y-493D01*
D02*
G37*
G36*
X1515D02*
X1496Y-495D01*
X1424Y-525D01*
X1361Y-573D01*
X1313Y-636D01*
X1283Y-709D01*
X1280Y-727D01*
X1515D01*
Y-493D01*
D02*
G37*
G36*
X1635D02*
Y-727D01*
X1869D01*
X1867Y-709D01*
X1837Y-636D01*
X1789Y-573D01*
X1726Y-525D01*
X1653Y-495D01*
X1635Y-493D01*
D02*
G37*
G36*
X-60Y-1280D02*
X-78Y-1283D01*
X-151Y-1313D01*
X-214Y-1361D01*
X-262Y-1424D01*
X-292Y-1496D01*
X-295Y-1515D01*
X-60D01*
Y-1280D01*
D02*
G37*
G36*
X-2302Y-2068D02*
Y-2302D01*
X-2068D01*
X-2070Y-2284D01*
X-2100Y-2211D01*
X-2148Y-2148D01*
X-2211Y-2100D01*
X-2284Y-2070D01*
X-2302Y-2068D01*
D02*
G37*
G36*
X-1635D02*
X-1653Y-2070D01*
X-1726Y-2100D01*
X-1789Y-2148D01*
X-1837Y-2211D01*
X-1867Y-2284D01*
X-1869Y-2302D01*
X-1635D01*
Y-2068D01*
D02*
G37*
G36*
X-1515D02*
Y-2302D01*
X-1280D01*
X-1283Y-2284D01*
X-1313Y-2211D01*
X-1361Y-2148D01*
X-1424Y-2100D01*
X-1496Y-2070D01*
X-1515Y-2068D01*
D02*
G37*
G36*
X2302Y-2422D02*
X2068D01*
X2070Y-2441D01*
X2100Y-2513D01*
X2148Y-2576D01*
X2211Y-2624D01*
X2284Y-2654D01*
X2302Y-2657D01*
Y-2422D01*
D02*
G37*
G36*
X2657D02*
X2422D01*
Y-2657D01*
X2441Y-2654D01*
X2513Y-2624D01*
X2576Y-2576D01*
X2624Y-2513D01*
X2654Y-2441D01*
X2657Y-2422D01*
D02*
G37*
G36*
X-2422Y-2068D02*
X-2441Y-2070D01*
X-2513Y-2100D01*
X-2576Y-2148D01*
X-2624Y-2211D01*
X-2654Y-2284D01*
X-2657Y-2302D01*
X-2422D01*
Y-2068D01*
D02*
G37*
G36*
X60D02*
Y-2302D01*
X295D01*
X292Y-2284D01*
X262Y-2211D01*
X214Y-2148D01*
X151Y-2100D01*
X78Y-2070D01*
X60Y-2068D01*
D02*
G37*
G36*
X727D02*
X709Y-2070D01*
X636Y-2100D01*
X573Y-2148D01*
X525Y-2211D01*
X495Y-2284D01*
X493Y-2302D01*
X727D01*
Y-2068D01*
D02*
G37*
G36*
X847D02*
Y-2302D01*
X1082D01*
X1080Y-2284D01*
X1049Y-2211D01*
X1001Y-2148D01*
X939Y-2100D01*
X866Y-2070D01*
X847Y-2068D01*
D02*
G37*
G36*
X-847D02*
X-866Y-2070D01*
X-939Y-2100D01*
X-1001Y-2148D01*
X-1049Y-2211D01*
X-1080Y-2284D01*
X-1082Y-2302D01*
X-847D01*
Y-2068D01*
D02*
G37*
G36*
X-727D02*
Y-2302D01*
X-493D01*
X-495Y-2284D01*
X-525Y-2211D01*
X-573Y-2148D01*
X-636Y-2100D01*
X-709Y-2070D01*
X-727Y-2068D01*
D02*
G37*
G36*
X-60D02*
X-78Y-2070D01*
X-151Y-2100D01*
X-214Y-2148D01*
X-262Y-2211D01*
X-292Y-2284D01*
X-295Y-2302D01*
X-60D01*
Y-2068D01*
D02*
G37*
G36*
X-1280Y-2422D02*
X-1515D01*
Y-2657D01*
X-1496Y-2654D01*
X-1424Y-2624D01*
X-1361Y-2576D01*
X-1313Y-2513D01*
X-1283Y-2441D01*
X-1280Y-2422D01*
D02*
G37*
G36*
X-847D02*
X-1082D01*
X-1080Y-2441D01*
X-1049Y-2513D01*
X-1001Y-2576D01*
X-939Y-2624D01*
X-866Y-2654D01*
X-847Y-2657D01*
Y-2422D01*
D02*
G37*
G36*
X-493D02*
X-727D01*
Y-2657D01*
X-709Y-2654D01*
X-636Y-2624D01*
X-573Y-2576D01*
X-525Y-2513D01*
X-495Y-2441D01*
X-493Y-2422D01*
D02*
G37*
G36*
X-2422D02*
X-2657D01*
X-2654Y-2441D01*
X-2624Y-2513D01*
X-2576Y-2576D01*
X-2513Y-2624D01*
X-2441Y-2654D01*
X-2422Y-2657D01*
Y-2422D01*
D02*
G37*
G36*
X-2068D02*
X-2302D01*
Y-2657D01*
X-2284Y-2654D01*
X-2211Y-2624D01*
X-2148Y-2576D01*
X-2100Y-2513D01*
X-2070Y-2441D01*
X-2068Y-2422D01*
D02*
G37*
G36*
X-1635D02*
X-1869D01*
X-1867Y-2441D01*
X-1837Y-2513D01*
X-1789Y-2576D01*
X-1726Y-2624D01*
X-1653Y-2654D01*
X-1635Y-2657D01*
Y-2422D01*
D02*
G37*
G36*
X1082D02*
X847D01*
Y-2657D01*
X866Y-2654D01*
X939Y-2624D01*
X1001Y-2576D01*
X1049Y-2513D01*
X1080Y-2441D01*
X1082Y-2422D01*
D02*
G37*
G36*
X1515D02*
X1280D01*
X1283Y-2441D01*
X1313Y-2513D01*
X1361Y-2576D01*
X1424Y-2624D01*
X1496Y-2654D01*
X1515Y-2657D01*
Y-2422D01*
D02*
G37*
G36*
X1869D02*
X1635D01*
Y-2657D01*
X1653Y-2654D01*
X1726Y-2624D01*
X1789Y-2576D01*
X1837Y-2513D01*
X1867Y-2441D01*
X1869Y-2422D01*
D02*
G37*
G36*
X-60D02*
X-295D01*
X-292Y-2441D01*
X-262Y-2513D01*
X-214Y-2576D01*
X-151Y-2624D01*
X-78Y-2654D01*
X-60Y-2657D01*
Y-2422D01*
D02*
G37*
G36*
X295D02*
X60D01*
Y-2657D01*
X78Y-2654D01*
X151Y-2624D01*
X214Y-2576D01*
X262Y-2513D01*
X292Y-2441D01*
X295Y-2422D01*
D02*
G37*
G36*
X727D02*
X493D01*
X495Y-2441D01*
X525Y-2513D01*
X573Y-2576D01*
X636Y-2624D01*
X709Y-2654D01*
X727Y-2657D01*
Y-2422D01*
D02*
G37*
G36*
X1869Y-1635D02*
X1635D01*
Y-1869D01*
X1653Y-1867D01*
X1726Y-1837D01*
X1789Y-1789D01*
X1837Y-1726D01*
X1867Y-1653D01*
X1869Y-1635D01*
D02*
G37*
G36*
X2302D02*
X2068D01*
X2070Y-1653D01*
X2100Y-1726D01*
X2148Y-1789D01*
X2211Y-1837D01*
X2284Y-1867D01*
X2302Y-1869D01*
Y-1635D01*
D02*
G37*
G36*
X2657D02*
X2422D01*
Y-1869D01*
X2441Y-1867D01*
X2513Y-1837D01*
X2576Y-1789D01*
X2624Y-1726D01*
X2654Y-1653D01*
X2657Y-1635D01*
D02*
G37*
G36*
X727D02*
X493D01*
X495Y-1653D01*
X525Y-1726D01*
X573Y-1789D01*
X636Y-1837D01*
X709Y-1867D01*
X727Y-1869D01*
Y-1635D01*
D02*
G37*
G36*
X1082D02*
X847D01*
Y-1869D01*
X866Y-1867D01*
X939Y-1837D01*
X1001Y-1789D01*
X1049Y-1726D01*
X1080Y-1653D01*
X1082Y-1635D01*
D02*
G37*
G36*
X1515D02*
X1280D01*
X1283Y-1653D01*
X1313Y-1726D01*
X1361Y-1789D01*
X1424Y-1837D01*
X1496Y-1867D01*
X1515Y-1869D01*
Y-1635D01*
D02*
G37*
G36*
X-1515Y-1280D02*
Y-1515D01*
X-1280D01*
X-1283Y-1496D01*
X-1313Y-1424D01*
X-1361Y-1361D01*
X-1424Y-1313D01*
X-1496Y-1283D01*
X-1515Y-1280D01*
D02*
G37*
G36*
X-847D02*
X-866Y-1283D01*
X-939Y-1313D01*
X-1001Y-1361D01*
X-1049Y-1424D01*
X-1080Y-1496D01*
X-1082Y-1515D01*
X-847D01*
Y-1280D01*
D02*
G37*
G36*
X-727D02*
Y-1515D01*
X-493D01*
X-495Y-1496D01*
X-525Y-1424D01*
X-573Y-1361D01*
X-636Y-1313D01*
X-709Y-1283D01*
X-727Y-1280D01*
D02*
G37*
G36*
X-2422D02*
X-2441Y-1283D01*
X-2513Y-1313D01*
X-2576Y-1361D01*
X-2624Y-1424D01*
X-2654Y-1496D01*
X-2657Y-1515D01*
X-2422D01*
Y-1280D01*
D02*
G37*
G36*
X-2302D02*
Y-1515D01*
X-2068D01*
X-2070Y-1496D01*
X-2100Y-1424D01*
X-2148Y-1361D01*
X-2211Y-1313D01*
X-2284Y-1283D01*
X-2302Y-1280D01*
D02*
G37*
G36*
X-1635D02*
X-1653Y-1283D01*
X-1726Y-1313D01*
X-1789Y-1361D01*
X-1837Y-1424D01*
X-1867Y-1496D01*
X-1869Y-1515D01*
X-1635D01*
Y-1280D01*
D02*
G37*
G36*
X2422Y-2068D02*
Y-2302D01*
X2657D01*
X2654Y-2284D01*
X2624Y-2211D01*
X2576Y-2148D01*
X2513Y-2100D01*
X2441Y-2070D01*
X2422Y-2068D01*
D02*
G37*
G36*
X-2422Y-1635D02*
X-2657D01*
X-2654Y-1653D01*
X-2624Y-1726D01*
X-2576Y-1789D01*
X-2513Y-1837D01*
X-2441Y-1867D01*
X-2422Y-1869D01*
Y-1635D01*
D02*
G37*
G36*
X-2068D02*
X-2302D01*
Y-1869D01*
X-2284Y-1867D01*
X-2211Y-1837D01*
X-2148Y-1789D01*
X-2100Y-1726D01*
X-2070Y-1653D01*
X-2068Y-1635D01*
D02*
G37*
G36*
X1515Y-2068D02*
X1496Y-2070D01*
X1424Y-2100D01*
X1361Y-2148D01*
X1313Y-2211D01*
X1283Y-2284D01*
X1280Y-2302D01*
X1515D01*
Y-2068D01*
D02*
G37*
G36*
X1635D02*
Y-2302D01*
X1869D01*
X1867Y-2284D01*
X1837Y-2211D01*
X1789Y-2148D01*
X1726Y-2100D01*
X1653Y-2070D01*
X1635Y-2068D01*
D02*
G37*
G36*
X2302D02*
X2284Y-2070D01*
X2211Y-2100D01*
X2148Y-2148D01*
X2100Y-2211D01*
X2070Y-2284D01*
X2068Y-2302D01*
X2302D01*
Y-2068D01*
D02*
G37*
G36*
X-493Y-1635D02*
X-727D01*
Y-1869D01*
X-709Y-1867D01*
X-636Y-1837D01*
X-573Y-1789D01*
X-525Y-1726D01*
X-495Y-1653D01*
X-493Y-1635D01*
D02*
G37*
G36*
X-60D02*
X-295D01*
X-292Y-1653D01*
X-262Y-1726D01*
X-214Y-1789D01*
X-151Y-1837D01*
X-78Y-1867D01*
X-60Y-1869D01*
Y-1635D01*
D02*
G37*
G36*
X295D02*
X60D01*
Y-1869D01*
X78Y-1867D01*
X151Y-1837D01*
X214Y-1789D01*
X262Y-1726D01*
X292Y-1653D01*
X295Y-1635D01*
D02*
G37*
G36*
X-1635D02*
X-1869D01*
X-1867Y-1653D01*
X-1837Y-1726D01*
X-1789Y-1789D01*
X-1726Y-1837D01*
X-1653Y-1867D01*
X-1635Y-1869D01*
Y-1635D01*
D02*
G37*
G36*
X-1280D02*
X-1515D01*
Y-1869D01*
X-1496Y-1867D01*
X-1424Y-1837D01*
X-1361Y-1789D01*
X-1313Y-1726D01*
X-1283Y-1653D01*
X-1280Y-1635D01*
D02*
G37*
G36*
X-847D02*
X-1082D01*
X-1080Y-1653D01*
X-1049Y-1726D01*
X-1001Y-1789D01*
X-939Y-1837D01*
X-866Y-1867D01*
X-847Y-1869D01*
Y-1635D01*
D02*
G37*
G36*
X2657Y-60D02*
X2422D01*
Y-295D01*
X2441Y-292D01*
X2513Y-262D01*
X2576Y-214D01*
X2624Y-151D01*
X2654Y-78D01*
X2657Y-60D01*
D02*
G37*
G36*
X727Y1869D02*
X709Y1867D01*
X636Y1837D01*
X573Y1789D01*
X525Y1726D01*
X495Y1653D01*
X493Y1635D01*
X727D01*
Y1869D01*
D02*
G37*
G36*
X847D02*
Y1635D01*
X1082D01*
X1080Y1653D01*
X1049Y1726D01*
X1001Y1789D01*
X939Y1837D01*
X866Y1867D01*
X847Y1869D01*
D02*
G37*
G36*
X1515D02*
X1496Y1867D01*
X1424Y1837D01*
X1361Y1789D01*
X1313Y1726D01*
X1283Y1653D01*
X1280Y1635D01*
X1515D01*
Y1869D01*
D02*
G37*
G36*
X-727D02*
Y1635D01*
X-493D01*
X-495Y1653D01*
X-525Y1726D01*
X-573Y1789D01*
X-636Y1837D01*
X-709Y1867D01*
X-727Y1869D01*
D02*
G37*
G36*
X-60D02*
X-78Y1867D01*
X-151Y1837D01*
X-214Y1789D01*
X-262Y1726D01*
X-292Y1653D01*
X-295Y1635D01*
X-60D01*
Y1869D01*
D02*
G37*
G36*
X60D02*
Y1635D01*
X295D01*
X292Y1653D01*
X262Y1726D01*
X214Y1789D01*
X151Y1837D01*
X78Y1867D01*
X60Y1869D01*
D02*
G37*
G36*
X-2422Y2302D02*
X-2657D01*
X-2654Y2284D01*
X-2624Y2211D01*
X-2576Y2148D01*
X-2513Y2100D01*
X-2441Y2070D01*
X-2422Y2068D01*
Y2302D01*
D02*
G37*
G36*
X-2068D02*
X-2302D01*
Y2068D01*
X-2284Y2070D01*
X-2211Y2100D01*
X-2148Y2148D01*
X-2100Y2211D01*
X-2070Y2284D01*
X-2068Y2302D01*
D02*
G37*
G36*
X-1635D02*
X-1869D01*
X-1867Y2284D01*
X-1837Y2211D01*
X-1789Y2148D01*
X-1726Y2100D01*
X-1653Y2070D01*
X-1635Y2068D01*
Y2302D01*
D02*
G37*
G36*
X1635Y1869D02*
Y1635D01*
X1869D01*
X1867Y1653D01*
X1837Y1726D01*
X1789Y1789D01*
X1726Y1837D01*
X1653Y1867D01*
X1635Y1869D01*
D02*
G37*
G36*
X2302D02*
X2284Y1867D01*
X2211Y1837D01*
X2148Y1789D01*
X2100Y1726D01*
X2070Y1653D01*
X2068Y1635D01*
X2302D01*
Y1869D01*
D02*
G37*
G36*
X2422D02*
Y1635D01*
X2657D01*
X2654Y1653D01*
X2624Y1726D01*
X2576Y1789D01*
X2513Y1837D01*
X2441Y1867D01*
X2422Y1869D01*
D02*
G37*
G36*
X1515Y1515D02*
X1280D01*
X1283Y1496D01*
X1313Y1424D01*
X1361Y1361D01*
X1424Y1313D01*
X1496Y1283D01*
X1515Y1280D01*
Y1515D01*
D02*
G37*
G36*
X1869D02*
X1635D01*
Y1280D01*
X1653Y1283D01*
X1726Y1313D01*
X1789Y1361D01*
X1837Y1424D01*
X1867Y1496D01*
X1869Y1515D01*
D02*
G37*
G36*
X2302D02*
X2068D01*
X2070Y1496D01*
X2100Y1424D01*
X2148Y1361D01*
X2211Y1313D01*
X2284Y1283D01*
X2302Y1280D01*
Y1515D01*
D02*
G37*
G36*
X295D02*
X60D01*
Y1280D01*
X78Y1283D01*
X151Y1313D01*
X214Y1361D01*
X262Y1424D01*
X292Y1496D01*
X295Y1515D01*
D02*
G37*
G36*
X727D02*
X493D01*
X495Y1496D01*
X525Y1424D01*
X573Y1361D01*
X636Y1313D01*
X709Y1283D01*
X727Y1280D01*
Y1515D01*
D02*
G37*
G36*
X1082D02*
X847D01*
Y1280D01*
X866Y1283D01*
X939Y1313D01*
X1001Y1361D01*
X1049Y1424D01*
X1080Y1496D01*
X1082Y1515D01*
D02*
G37*
G36*
X-1635Y1869D02*
X-1653Y1867D01*
X-1726Y1837D01*
X-1789Y1789D01*
X-1837Y1726D01*
X-1867Y1653D01*
X-1869Y1635D01*
X-1635D01*
Y1869D01*
D02*
G37*
G36*
X-1515D02*
Y1635D01*
X-1280D01*
X-1283Y1653D01*
X-1313Y1726D01*
X-1361Y1789D01*
X-1424Y1837D01*
X-1496Y1867D01*
X-1515Y1869D01*
D02*
G37*
G36*
X-847D02*
X-866Y1867D01*
X-939Y1837D01*
X-1001Y1789D01*
X-1049Y1726D01*
X-1080Y1653D01*
X-1082Y1635D01*
X-847D01*
Y1869D01*
D02*
G37*
G36*
X2657Y1515D02*
X2422D01*
Y1280D01*
X2441Y1283D01*
X2513Y1313D01*
X2576Y1361D01*
X2624Y1424D01*
X2654Y1496D01*
X2657Y1515D01*
D02*
G37*
G36*
X-2422Y1869D02*
X-2441Y1867D01*
X-2513Y1837D01*
X-2576Y1789D01*
X-2624Y1726D01*
X-2654Y1653D01*
X-2657Y1635D01*
X-2422D01*
Y1869D01*
D02*
G37*
G36*
X-2302D02*
Y1635D01*
X-2068D01*
X-2070Y1653D01*
X-2100Y1726D01*
X-2148Y1789D01*
X-2211Y1837D01*
X-2284Y1867D01*
X-2302Y1869D01*
D02*
G37*
G36*
X-1280Y2302D02*
X-1515D01*
Y2068D01*
X-1496Y2070D01*
X-1424Y2100D01*
X-1361Y2148D01*
X-1313Y2211D01*
X-1283Y2284D01*
X-1280Y2302D01*
D02*
G37*
G36*
X-727Y2657D02*
Y2422D01*
X-493D01*
X-495Y2441D01*
X-525Y2513D01*
X-573Y2576D01*
X-636Y2624D01*
X-709Y2654D01*
X-727Y2657D01*
D02*
G37*
G36*
X-60D02*
X-78Y2654D01*
X-151Y2624D01*
X-214Y2576D01*
X-262Y2513D01*
X-292Y2441D01*
X-295Y2422D01*
X-60D01*
Y2657D01*
D02*
G37*
G36*
X60D02*
Y2422D01*
X295D01*
X292Y2441D01*
X262Y2513D01*
X214Y2576D01*
X151Y2624D01*
X78Y2654D01*
X60Y2657D01*
D02*
G37*
G36*
X-1635D02*
X-1653Y2654D01*
X-1726Y2624D01*
X-1789Y2576D01*
X-1837Y2513D01*
X-1867Y2441D01*
X-1869Y2422D01*
X-1635D01*
Y2657D01*
D02*
G37*
G36*
X-1515D02*
Y2422D01*
X-1280D01*
X-1283Y2441D01*
X-1313Y2513D01*
X-1361Y2576D01*
X-1424Y2624D01*
X-1496Y2654D01*
X-1515Y2657D01*
D02*
G37*
G36*
X-847D02*
X-866Y2654D01*
X-939Y2624D01*
X-1001Y2576D01*
X-1049Y2513D01*
X-1080Y2441D01*
X-1082Y2422D01*
X-847D01*
Y2657D01*
D02*
G37*
G36*
X1635D02*
Y2422D01*
X1869D01*
X1867Y2441D01*
X1837Y2513D01*
X1789Y2576D01*
X1726Y2624D01*
X1653Y2654D01*
X1635Y2657D01*
D02*
G37*
G36*
X2302D02*
X2284Y2654D01*
X2211Y2624D01*
X2148Y2576D01*
X2100Y2513D01*
X2070Y2441D01*
X2068Y2422D01*
X2302D01*
Y2657D01*
D02*
G37*
G36*
X2422D02*
Y2422D01*
X2657D01*
X2654Y2441D01*
X2624Y2513D01*
X2576Y2576D01*
X2513Y2624D01*
X2441Y2654D01*
X2422Y2657D01*
D02*
G37*
G36*
X727D02*
X709Y2654D01*
X636Y2624D01*
X573Y2576D01*
X525Y2513D01*
X495Y2441D01*
X493Y2422D01*
X727D01*
Y2657D01*
D02*
G37*
G36*
X847D02*
Y2422D01*
X1082D01*
X1080Y2441D01*
X1049Y2513D01*
X1001Y2576D01*
X939Y2624D01*
X866Y2654D01*
X847Y2657D01*
D02*
G37*
G36*
X1515D02*
X1496Y2654D01*
X1424Y2624D01*
X1361Y2576D01*
X1313Y2513D01*
X1283Y2441D01*
X1280Y2422D01*
X1515D01*
Y2657D01*
D02*
G37*
G36*
X295Y2302D02*
X60D01*
Y2068D01*
X78Y2070D01*
X151Y2100D01*
X214Y2148D01*
X262Y2211D01*
X292Y2284D01*
X295Y2302D01*
D02*
G37*
G36*
X727D02*
X493D01*
X495Y2284D01*
X525Y2211D01*
X573Y2148D01*
X636Y2100D01*
X709Y2070D01*
X727Y2068D01*
Y2302D01*
D02*
G37*
G36*
X1082D02*
X847D01*
Y2068D01*
X866Y2070D01*
X939Y2100D01*
X1001Y2148D01*
X1049Y2211D01*
X1080Y2284D01*
X1082Y2302D01*
D02*
G37*
G36*
X-847D02*
X-1082D01*
X-1080Y2284D01*
X-1049Y2211D01*
X-1001Y2148D01*
X-939Y2100D01*
X-866Y2070D01*
X-847Y2068D01*
Y2302D01*
D02*
G37*
G36*
X-493D02*
X-727D01*
Y2068D01*
X-709Y2070D01*
X-636Y2100D01*
X-573Y2148D01*
X-525Y2211D01*
X-495Y2284D01*
X-493Y2302D01*
D02*
G37*
G36*
X-60D02*
X-295D01*
X-292Y2284D01*
X-262Y2211D01*
X-214Y2148D01*
X-151Y2100D01*
X-78Y2070D01*
X-60Y2068D01*
Y2302D01*
D02*
G37*
G36*
X2657D02*
X2422D01*
Y2068D01*
X2441Y2070D01*
X2513Y2100D01*
X2576Y2148D01*
X2624Y2211D01*
X2654Y2284D01*
X2657Y2302D01*
D02*
G37*
G36*
X-2422Y2657D02*
X-2441Y2654D01*
X-2513Y2624D01*
X-2576Y2576D01*
X-2624Y2513D01*
X-2654Y2441D01*
X-2657Y2422D01*
X-2422D01*
Y2657D01*
D02*
G37*
G36*
X-2302D02*
Y2422D01*
X-2068D01*
X-2070Y2441D01*
X-2100Y2513D01*
X-2148Y2576D01*
X-2211Y2624D01*
X-2284Y2654D01*
X-2302Y2657D01*
D02*
G37*
G36*
X1515Y2302D02*
X1280D01*
X1283Y2284D01*
X1313Y2211D01*
X1361Y2148D01*
X1424Y2100D01*
X1496Y2070D01*
X1515Y2068D01*
Y2302D01*
D02*
G37*
G36*
X1869D02*
X1635D01*
Y2068D01*
X1653Y2070D01*
X1726Y2100D01*
X1789Y2148D01*
X1837Y2211D01*
X1867Y2284D01*
X1869Y2302D01*
D02*
G37*
G36*
X2302D02*
X2068D01*
X2070Y2284D01*
X2100Y2211D01*
X2148Y2148D01*
X2211Y2100D01*
X2284Y2070D01*
X2302Y2068D01*
Y2302D01*
D02*
G37*
G36*
X-2068Y727D02*
X-2302D01*
Y493D01*
X-2284Y495D01*
X-2211Y525D01*
X-2148Y573D01*
X-2100Y636D01*
X-2070Y709D01*
X-2068Y727D01*
D02*
G37*
G36*
X-1635D02*
X-1869D01*
X-1867Y709D01*
X-1837Y636D01*
X-1789Y573D01*
X-1726Y525D01*
X-1653Y495D01*
X-1635Y493D01*
Y727D01*
D02*
G37*
G36*
X-1280D02*
X-1515D01*
Y493D01*
X-1496Y495D01*
X-1424Y525D01*
X-1361Y573D01*
X-1313Y636D01*
X-1283Y709D01*
X-1280Y727D01*
D02*
G37*
G36*
X2302Y295D02*
X2284Y292D01*
X2211Y262D01*
X2148Y214D01*
X2100Y151D01*
X2070Y78D01*
X2068Y60D01*
X2302D01*
Y295D01*
D02*
G37*
G36*
X2422D02*
Y60D01*
X2657D01*
X2654Y78D01*
X2624Y151D01*
X2576Y214D01*
X2513Y262D01*
X2441Y292D01*
X2422Y295D01*
D02*
G37*
G36*
X-2422Y727D02*
X-2657D01*
X-2654Y709D01*
X-2624Y636D01*
X-2576Y573D01*
X-2513Y525D01*
X-2441Y495D01*
X-2422Y493D01*
Y727D01*
D02*
G37*
G36*
X295D02*
X60D01*
Y493D01*
X78Y495D01*
X151Y525D01*
X214Y573D01*
X262Y636D01*
X292Y709D01*
X295Y727D01*
D02*
G37*
G36*
X727D02*
X493D01*
X495Y709D01*
X525Y636D01*
X573Y573D01*
X636Y525D01*
X709Y495D01*
X727Y493D01*
Y727D01*
D02*
G37*
G36*
X1082D02*
X847D01*
Y493D01*
X866Y495D01*
X939Y525D01*
X1001Y573D01*
X1049Y636D01*
X1080Y709D01*
X1082Y727D01*
D02*
G37*
G36*
X-847D02*
X-1082D01*
X-1080Y709D01*
X-1049Y636D01*
X-1001Y573D01*
X-939Y525D01*
X-866Y495D01*
X-847Y493D01*
Y727D01*
D02*
G37*
G36*
X-493D02*
X-727D01*
Y493D01*
X-709Y495D01*
X-636Y525D01*
X-573Y573D01*
X-525Y636D01*
X-495Y709D01*
X-493Y727D01*
D02*
G37*
G36*
X-60D02*
X-295D01*
X-292Y709D01*
X-262Y636D01*
X-214Y573D01*
X-151Y525D01*
X-78Y495D01*
X-60Y493D01*
Y727D01*
D02*
G37*
G36*
X-1515Y295D02*
Y60D01*
X-1280D01*
X-1283Y78D01*
X-1313Y151D01*
X-1361Y214D01*
X-1424Y262D01*
X-1496Y292D01*
X-1515Y295D01*
D02*
G37*
G36*
X-847D02*
X-866Y292D01*
X-939Y262D01*
X-1001Y214D01*
X-1049Y151D01*
X-1080Y78D01*
X-1082Y60D01*
X-847D01*
Y295D01*
D02*
G37*
G36*
X-727D02*
Y60D01*
X-493D01*
X-495Y78D01*
X-525Y151D01*
X-573Y214D01*
X-636Y262D01*
X-709Y292D01*
X-727Y295D01*
D02*
G37*
G36*
X-2422D02*
X-2441Y292D01*
X-2513Y262D01*
X-2576Y214D01*
X-2624Y151D01*
X-2654Y78D01*
X-2657Y60D01*
X-2422D01*
Y295D01*
D02*
G37*
G36*
X-2302D02*
Y60D01*
X-2068D01*
X-2070Y78D01*
X-2100Y151D01*
X-2148Y214D01*
X-2211Y262D01*
X-2284Y292D01*
X-2302Y295D01*
D02*
G37*
G36*
X-1635D02*
X-1653Y292D01*
X-1726Y262D01*
X-1789Y214D01*
X-1837Y151D01*
X-1867Y78D01*
X-1869Y60D01*
X-1635D01*
Y295D01*
D02*
G37*
G36*
X847D02*
Y60D01*
X1082D01*
X1080Y78D01*
X1049Y151D01*
X1001Y214D01*
X939Y262D01*
X866Y292D01*
X847Y295D01*
D02*
G37*
G36*
X1515D02*
X1496Y292D01*
X1424Y262D01*
X1361Y214D01*
X1313Y151D01*
X1283Y78D01*
X1280Y60D01*
X1515D01*
Y295D01*
D02*
G37*
G36*
X1635D02*
Y60D01*
X1869D01*
X1867Y78D01*
X1837Y151D01*
X1789Y214D01*
X1726Y262D01*
X1653Y292D01*
X1635Y295D01*
D02*
G37*
G36*
X-60D02*
X-78Y292D01*
X-151Y262D01*
X-214Y214D01*
X-262Y151D01*
X-292Y78D01*
X-295Y60D01*
X-60D01*
Y295D01*
D02*
G37*
G36*
X60D02*
Y60D01*
X295D01*
X292Y78D01*
X262Y151D01*
X214Y214D01*
X151Y262D01*
X78Y292D01*
X60Y295D01*
D02*
G37*
G36*
X727D02*
X709Y292D01*
X636Y262D01*
X573Y214D01*
X525Y151D01*
X495Y78D01*
X493Y60D01*
X727D01*
Y295D01*
D02*
G37*
G36*
X1515Y727D02*
X1280D01*
X1283Y709D01*
X1313Y636D01*
X1361Y573D01*
X1424Y525D01*
X1496Y495D01*
X1515Y493D01*
Y727D01*
D02*
G37*
G36*
X2302Y1082D02*
X2284Y1080D01*
X2211Y1049D01*
X2148Y1001D01*
X2100Y939D01*
X2070Y866D01*
X2068Y847D01*
X2302D01*
Y1082D01*
D02*
G37*
G36*
X2422D02*
Y847D01*
X2657D01*
X2654Y866D01*
X2624Y939D01*
X2576Y1001D01*
X2513Y1049D01*
X2441Y1080D01*
X2422Y1082D01*
D02*
G37*
G36*
X-2422Y1515D02*
X-2657D01*
X-2654Y1496D01*
X-2624Y1424D01*
X-2576Y1361D01*
X-2513Y1313D01*
X-2441Y1283D01*
X-2422Y1280D01*
Y1515D01*
D02*
G37*
G36*
X847Y1082D02*
Y847D01*
X1082D01*
X1080Y866D01*
X1049Y939D01*
X1001Y1001D01*
X939Y1049D01*
X866Y1080D01*
X847Y1082D01*
D02*
G37*
G36*
X1515D02*
X1496Y1080D01*
X1424Y1049D01*
X1361Y1001D01*
X1313Y939D01*
X1283Y866D01*
X1280Y847D01*
X1515D01*
Y1082D01*
D02*
G37*
G36*
X1635D02*
Y847D01*
X1869D01*
X1867Y866D01*
X1837Y939D01*
X1789Y1001D01*
X1726Y1049D01*
X1653Y1080D01*
X1635Y1082D01*
D02*
G37*
G36*
X-847Y1515D02*
X-1082D01*
X-1080Y1496D01*
X-1049Y1424D01*
X-1001Y1361D01*
X-939Y1313D01*
X-866Y1283D01*
X-847Y1280D01*
Y1515D01*
D02*
G37*
G36*
X-493D02*
X-727D01*
Y1280D01*
X-709Y1283D01*
X-636Y1313D01*
X-573Y1361D01*
X-525Y1424D01*
X-495Y1496D01*
X-493Y1515D01*
D02*
G37*
G36*
X-60D02*
X-295D01*
X-292Y1496D01*
X-262Y1424D01*
X-214Y1361D01*
X-151Y1313D01*
X-78Y1283D01*
X-60Y1280D01*
Y1515D01*
D02*
G37*
G36*
X-2068D02*
X-2302D01*
Y1280D01*
X-2284Y1283D01*
X-2211Y1313D01*
X-2148Y1361D01*
X-2100Y1424D01*
X-2070Y1496D01*
X-2068Y1515D01*
D02*
G37*
G36*
X-1635D02*
X-1869D01*
X-1867Y1496D01*
X-1837Y1424D01*
X-1789Y1361D01*
X-1726Y1313D01*
X-1653Y1283D01*
X-1635Y1280D01*
Y1515D01*
D02*
G37*
G36*
X-1280D02*
X-1515D01*
Y1280D01*
X-1496Y1283D01*
X-1424Y1313D01*
X-1361Y1361D01*
X-1313Y1424D01*
X-1283Y1496D01*
X-1280Y1515D01*
D02*
G37*
G36*
X-2422Y1082D02*
X-2441Y1080D01*
X-2513Y1049D01*
X-2576Y1001D01*
X-2624Y939D01*
X-2654Y866D01*
X-2657Y847D01*
X-2422D01*
Y1082D01*
D02*
G37*
G36*
X-2302D02*
Y847D01*
X-2068D01*
X-2070Y866D01*
X-2100Y939D01*
X-2148Y1001D01*
X-2211Y1049D01*
X-2284Y1080D01*
X-2302Y1082D01*
D02*
G37*
G36*
X-1635D02*
X-1653Y1080D01*
X-1726Y1049D01*
X-1789Y1001D01*
X-1837Y939D01*
X-1867Y866D01*
X-1869Y847D01*
X-1635D01*
Y1082D01*
D02*
G37*
G36*
X1869Y727D02*
X1635D01*
Y493D01*
X1653Y495D01*
X1726Y525D01*
X1789Y573D01*
X1837Y636D01*
X1867Y709D01*
X1869Y727D01*
D02*
G37*
G36*
X2302D02*
X2068D01*
X2070Y709D01*
X2100Y636D01*
X2148Y573D01*
X2211Y525D01*
X2284Y495D01*
X2302Y493D01*
Y727D01*
D02*
G37*
G36*
X2657D02*
X2422D01*
Y493D01*
X2441Y495D01*
X2513Y525D01*
X2576Y573D01*
X2624Y636D01*
X2654Y709D01*
X2657Y727D01*
D02*
G37*
G36*
X-60Y1082D02*
X-78Y1080D01*
X-151Y1049D01*
X-214Y1001D01*
X-262Y939D01*
X-292Y866D01*
X-295Y847D01*
X-60D01*
Y1082D01*
D02*
G37*
G36*
X60D02*
Y847D01*
X295D01*
X292Y866D01*
X262Y939D01*
X214Y1001D01*
X151Y1049D01*
X78Y1080D01*
X60Y1082D01*
D02*
G37*
G36*
X727D02*
X709Y1080D01*
X636Y1049D01*
X573Y1001D01*
X525Y939D01*
X495Y866D01*
X493Y847D01*
X727D01*
Y1082D01*
D02*
G37*
G36*
X-1515D02*
Y847D01*
X-1280D01*
X-1283Y866D01*
X-1313Y939D01*
X-1361Y1001D01*
X-1424Y1049D01*
X-1496Y1080D01*
X-1515Y1082D01*
D02*
G37*
G36*
X-847D02*
X-866Y1080D01*
X-939Y1049D01*
X-1001Y1001D01*
X-1049Y939D01*
X-1080Y866D01*
X-1082Y847D01*
X-847D01*
Y1082D01*
D02*
G37*
G36*
X-727D02*
Y847D01*
X-493D01*
X-495Y866D01*
X-525Y939D01*
X-573Y1001D01*
X-636Y1049D01*
X-709Y1080D01*
X-727Y1082D01*
D02*
G37*
%LPD*%
D31*
X-5358Y-4937D02*
D03*
X5358Y4937D02*
D03*
D32*
X6130Y-6660D02*
D03*
X-6130Y6660D02*
D03*
D33*
X0Y0D02*
D03*
X787D02*
D03*
X1575D02*
D03*
X2362D02*
D03*
X-787D02*
D03*
X-1575D02*
D03*
X-2362D02*
D03*
Y787D02*
D03*
X-1575D02*
D03*
X-787D02*
D03*
X2362D02*
D03*
X1575D02*
D03*
X787D02*
D03*
X0D02*
D03*
X-2362Y1575D02*
D03*
X-1575D02*
D03*
X-787D02*
D03*
X2362D02*
D03*
X1575D02*
D03*
X787D02*
D03*
X0D02*
D03*
X-2362Y-787D02*
D03*
X-1575D02*
D03*
X-787D02*
D03*
X2362D02*
D03*
X1575D02*
D03*
X787D02*
D03*
X0D02*
D03*
X-2362Y-1575D02*
D03*
X-1575D02*
D03*
X-787D02*
D03*
X2362D02*
D03*
X1575D02*
D03*
X787D02*
D03*
X0D02*
D03*
X-2362Y-2362D02*
D03*
X-1575D02*
D03*
X-787D02*
D03*
X2362D02*
D03*
X1575D02*
D03*
X787D02*
D03*
X0D02*
D03*
X-2362Y2362D02*
D03*
X-1575D02*
D03*
X-787D02*
D03*
X2362D02*
D03*
X1575D02*
D03*
X787D02*
D03*
X0D02*
D03*
M02*
