G04 (created by PCBNEW (2013-04-19 BZR 4011)-stable) date 5/10/2013 9:41:03 PM*
%MOIN*%
G04 Gerber Fmt 3.4, Leading zero omitted, Abs format*
%FSLAX34Y34*%
G01*
G70*
G90*
G04 APERTURE LIST*
%ADD10C,0.006*%
%ADD11C,0.00393701*%
G04 APERTURE END LIST*
G54D10*
G54D11*
X88500Y-38000D02*
X71000Y-38000D01*
X88500Y-49500D02*
X88500Y-38000D01*
X71000Y-49500D02*
X88500Y-49500D01*
X71000Y-38000D02*
X71000Y-49500D01*
M02*
