G04 (created by PCBNEW-RS274X (2012-01-19 BZR 3256)-stable) date 13/04/2012 18:31:07*
G01*
G70*
G90*
%MOIN*%
G04 Gerber Fmt 3.4, Leading zero omitted, Abs format*
%FSLAX34Y34*%
G04 APERTURE LIST*
%ADD10C,0.006000*%
%ADD11R,0.047200X0.027600*%
%ADD12R,0.078700X0.027600*%
%ADD13R,0.110300X0.086600*%
%ADD14R,0.020000X0.045000*%
%ADD15R,0.031500X0.025000*%
%ADD16R,0.025000X0.031500*%
%ADD17R,0.062000X0.090000*%
%ADD18O,0.062000X0.090000*%
%ADD19R,0.017700X0.078700*%
%ADD20R,0.078700X0.017700*%
%ADD21R,0.060000X0.080000*%
%ADD22R,0.074800X0.066900*%
%ADD23O,0.078700X0.066900*%
%ADD24R,0.066900X0.074800*%
%ADD25O,0.066900X0.078700*%
%ADD26O,0.060000X0.078700*%
%ADD27R,0.060000X0.078700*%
%ADD28R,0.080000X0.060000*%
%ADD29R,0.074800X0.063000*%
%ADD30O,0.078700X0.063000*%
%ADD31C,0.088600*%
%ADD32R,0.059100X0.078700*%
%ADD33C,0.078700*%
%ADD34O,0.104000X0.052000*%
%ADD35C,0.066000*%
%ADD36C,0.035400*%
%ADD37C,0.039400*%
%ADD38C,0.013800*%
%ADD39C,0.009800*%
%ADD40C,0.008300*%
%ADD41C,0.017700*%
%ADD42C,0.031500*%
%ADD43C,0.010000*%
G04 APERTURE END LIST*
G54D10*
G54D11*
X18862Y-27717D03*
G54D12*
X18705Y-27126D03*
G54D11*
X18862Y-26535D03*
G54D13*
X17760Y-27126D03*
G54D14*
X24253Y-17671D03*
X23753Y-17671D03*
X23253Y-17671D03*
X22753Y-17671D03*
X22253Y-17671D03*
X21753Y-17671D03*
X21253Y-17671D03*
X20753Y-17671D03*
X20753Y-19671D03*
X21253Y-19671D03*
X21753Y-19671D03*
X22253Y-19671D03*
X22753Y-19671D03*
X23253Y-19671D03*
X23753Y-19671D03*
X24253Y-19671D03*
G54D15*
X26819Y-19913D03*
X26819Y-20513D03*
G54D16*
X26180Y-26646D03*
X26780Y-26646D03*
X27379Y-27276D03*
X26779Y-27276D03*
G54D15*
X25079Y-18883D03*
X25079Y-18283D03*
G54D17*
X26665Y-17969D03*
G54D18*
X27665Y-17969D03*
X28665Y-17969D03*
X29665Y-17969D03*
X30665Y-17969D03*
X31665Y-17969D03*
X32665Y-17969D03*
X33665Y-17969D03*
X34665Y-17969D03*
X34665Y-14969D03*
X33665Y-14969D03*
X32665Y-14969D03*
X31665Y-14969D03*
X30665Y-14969D03*
X29665Y-14969D03*
X28665Y-14969D03*
X27665Y-14969D03*
X26665Y-14969D03*
G54D19*
X25876Y-21443D03*
X26191Y-21443D03*
X26506Y-21443D03*
X26821Y-21443D03*
X27136Y-21443D03*
X27451Y-21443D03*
X27766Y-21443D03*
X28081Y-21443D03*
X28079Y-25209D03*
X25869Y-25209D03*
X26189Y-25209D03*
X26509Y-25209D03*
X26819Y-25209D03*
X27139Y-25209D03*
X27449Y-25209D03*
X27769Y-25209D03*
G54D20*
X28869Y-22227D03*
X28869Y-22541D03*
X28869Y-22857D03*
X28869Y-23171D03*
X28869Y-23487D03*
X28869Y-23801D03*
X28869Y-24117D03*
X28869Y-24431D03*
X25089Y-22229D03*
X25089Y-22539D03*
X25089Y-22859D03*
X25089Y-23169D03*
X25089Y-23479D03*
X25089Y-23799D03*
X25089Y-24119D03*
X25089Y-24439D03*
G54D21*
X17244Y-23610D03*
X18544Y-23610D03*
X17137Y-28728D03*
X18437Y-28728D03*
G54D15*
X20429Y-25102D03*
X20429Y-25702D03*
X19315Y-28503D03*
X19315Y-29103D03*
X24201Y-16287D03*
X24201Y-16887D03*
X23630Y-16275D03*
X23630Y-16875D03*
X22850Y-16275D03*
X22850Y-16875D03*
X22299Y-16287D03*
X22299Y-16887D03*
X21752Y-16287D03*
X21752Y-16887D03*
X21196Y-16292D03*
X21196Y-16892D03*
X20461Y-16082D03*
X20461Y-16682D03*
X19839Y-16074D03*
X19839Y-16674D03*
X30728Y-24887D03*
X30728Y-24287D03*
X23882Y-25023D03*
X23882Y-25623D03*
X31591Y-24302D03*
X31591Y-24902D03*
G54D22*
X34488Y-26756D03*
G54D23*
X33488Y-26756D03*
X34488Y-25756D03*
X33488Y-25756D03*
X34488Y-24756D03*
X33488Y-24756D03*
G54D24*
X33272Y-30055D03*
G54D25*
X34272Y-30055D03*
X35272Y-30055D03*
G54D24*
X17303Y-30055D03*
G54D25*
X18303Y-30055D03*
X19303Y-30055D03*
G54D24*
X25500Y-30091D03*
G54D25*
X26500Y-30091D03*
X27500Y-30091D03*
G54D26*
X25130Y-14161D03*
X24130Y-14161D03*
X23130Y-14161D03*
X22130Y-14161D03*
X21130Y-14161D03*
X20130Y-14161D03*
X19130Y-14161D03*
G54D27*
X18130Y-14161D03*
G54D26*
X18130Y-13161D03*
X18130Y-12161D03*
X19130Y-13161D03*
X19130Y-12161D03*
X20130Y-13161D03*
X20130Y-12161D03*
X21130Y-13161D03*
X21130Y-12161D03*
X22130Y-13161D03*
X22130Y-12161D03*
X23130Y-13161D03*
X23130Y-12161D03*
X24130Y-13161D03*
X24130Y-12161D03*
X25130Y-13161D03*
X25130Y-12161D03*
G54D27*
X27220Y-13181D03*
G54D26*
X27220Y-12181D03*
X28220Y-13181D03*
X28220Y-12181D03*
X29220Y-13181D03*
X29220Y-12181D03*
X30220Y-13181D03*
X30220Y-12181D03*
X31220Y-13181D03*
X31220Y-12181D03*
X32220Y-13181D03*
X32220Y-12181D03*
X33220Y-13181D03*
X33220Y-12181D03*
X34220Y-13181D03*
X34220Y-12181D03*
G54D28*
X17232Y-16989D03*
X17232Y-15689D03*
X35340Y-12730D03*
X35340Y-14030D03*
G54D29*
X34490Y-20070D03*
G54D30*
X34490Y-21070D03*
X34490Y-22070D03*
X34490Y-23070D03*
G54D31*
X29040Y-25620D03*
X30050Y-26150D03*
G54D16*
X32011Y-19854D03*
X32611Y-19854D03*
G54D32*
X30440Y-28070D03*
X31440Y-28070D03*
X29440Y-28070D03*
G54D33*
X29440Y-30070D03*
X31440Y-30070D03*
G54D32*
X22170Y-28070D03*
X23170Y-28070D03*
X21170Y-28070D03*
G54D33*
X21170Y-30070D03*
X23170Y-30070D03*
G54D15*
X21709Y-24135D03*
X21709Y-23535D03*
G54D11*
X19500Y-25741D03*
G54D12*
X19343Y-25150D03*
G54D11*
X19500Y-24559D03*
G54D13*
X18398Y-25150D03*
G54D34*
X17689Y-21039D03*
X17689Y-22039D03*
X20689Y-22039D03*
X20689Y-21039D03*
G54D35*
X22531Y-24661D03*
X22531Y-25661D03*
G54D36*
X28047Y-23508D03*
X21547Y-23028D03*
X27638Y-23925D03*
X27512Y-24382D03*
X22350Y-23713D03*
X23689Y-22280D03*
X22350Y-22051D03*
X32760Y-23850D03*
X32598Y-22626D03*
X31441Y-21689D03*
X25094Y-26520D03*
X29200Y-27270D03*
X31563Y-20311D03*
X31988Y-22713D03*
X22858Y-21709D03*
X31720Y-26590D03*
X25689Y-26055D03*
X31177Y-21248D03*
X17980Y-17752D03*
X19059Y-17059D03*
X18339Y-19051D03*
X19701Y-18469D03*
X17902Y-19311D03*
X17189Y-19520D03*
X19720Y-19909D03*
X18161Y-15811D03*
X28610Y-27800D03*
X31087Y-16386D03*
X17169Y-27831D03*
X19819Y-26228D03*
X31472Y-26102D03*
X20236Y-28547D03*
X34343Y-27811D03*
X22319Y-20795D03*
X33290Y-27890D03*
X28118Y-28898D03*
X30646Y-19091D03*
X26780Y-28717D03*
X34516Y-16386D03*
X33240Y-23335D03*
X35256Y-29228D03*
X28693Y-20980D03*
X27180Y-22580D03*
X29146Y-16386D03*
X28177Y-16386D03*
X32035Y-25425D03*
X28287Y-26043D03*
X30157Y-16386D03*
X26228Y-12181D03*
X21965Y-21665D03*
X24465Y-30091D03*
X24787Y-28665D03*
X32240Y-28340D03*
X21976Y-18614D03*
X30750Y-22900D03*
X25272Y-17051D03*
X35484Y-28583D03*
X31571Y-22244D03*
X34299Y-19114D03*
X24358Y-26748D03*
X35260Y-16122D03*
X26043Y-20681D03*
X22827Y-20484D03*
X21043Y-18906D03*
X19874Y-17291D03*
X29650Y-21400D03*
X25969Y-22276D03*
X27642Y-26327D03*
X26614Y-26094D03*
X23929Y-21138D03*
X25421Y-21177D03*
X17000Y-13539D03*
X24087Y-20370D03*
X19886Y-23949D03*
X20189Y-27902D03*
X23780Y-27181D03*
X30728Y-25606D03*
X26500Y-23051D03*
X27772Y-19965D03*
G54D37*
X20381Y-25150D02*
X20429Y-25102D01*
X24252Y-28079D02*
X26044Y-28079D01*
X18398Y-25150D02*
X19343Y-25150D01*
X19343Y-25150D02*
X20381Y-25150D01*
X24071Y-28260D02*
X24252Y-28079D01*
X28207Y-28157D02*
X27343Y-28157D01*
X31440Y-28070D02*
X31440Y-28660D01*
X21051Y-27951D02*
X21170Y-28070D01*
X21170Y-28070D02*
X21160Y-28070D01*
X24071Y-28701D02*
X24071Y-28260D01*
X18398Y-26052D02*
X18398Y-25150D01*
X20902Y-25102D02*
X21051Y-25251D01*
X21051Y-25251D02*
X21051Y-27951D01*
X21170Y-28070D02*
X21170Y-28750D01*
X29100Y-29050D02*
X28207Y-28157D01*
X20429Y-25102D02*
X20902Y-25102D01*
X27343Y-28157D02*
X26122Y-28157D01*
X26500Y-30091D02*
X26500Y-29382D01*
X18862Y-26535D02*
X18862Y-26516D01*
X21170Y-28750D02*
X21424Y-29004D01*
X26122Y-28157D02*
X26122Y-29004D01*
X26044Y-28079D02*
X26122Y-28157D01*
X23768Y-29004D02*
X24071Y-28701D01*
X18398Y-23756D02*
X18544Y-23610D01*
X26500Y-29382D02*
X26122Y-29004D01*
X21424Y-29004D02*
X23768Y-29004D01*
X18398Y-25150D02*
X18398Y-23756D01*
X31050Y-29050D02*
X29100Y-29050D01*
X31440Y-28660D02*
X31050Y-29050D01*
X18862Y-26516D02*
X18398Y-26052D01*
G54D38*
X28047Y-23905D02*
X28047Y-23508D01*
X28259Y-24117D02*
X28047Y-23905D01*
X28869Y-24117D02*
X28259Y-24117D01*
X21071Y-23028D02*
X20897Y-22854D01*
X28144Y-24431D02*
X27638Y-23925D01*
X19764Y-21516D02*
X19764Y-21374D01*
X20897Y-22854D02*
X20149Y-22854D01*
X20149Y-22854D02*
X19764Y-22469D01*
X28869Y-24431D02*
X28144Y-24431D01*
X19764Y-22469D02*
X19764Y-21516D01*
X20099Y-21039D02*
X20689Y-21039D01*
X19764Y-21374D02*
X20099Y-21039D01*
X21547Y-23028D02*
X21071Y-23028D01*
X27769Y-25209D02*
X27769Y-24549D01*
X27602Y-24382D02*
X27512Y-24382D01*
X22172Y-23535D02*
X21709Y-23535D01*
X27769Y-24549D02*
X27602Y-24382D01*
X22350Y-23713D02*
X22338Y-23701D01*
X22350Y-23713D02*
X22172Y-23535D01*
G54D39*
X22350Y-22051D02*
X22350Y-23031D01*
G54D40*
X23881Y-25023D02*
X23882Y-25023D01*
G54D39*
X23882Y-24563D02*
X23882Y-25023D01*
X25089Y-23169D02*
X24122Y-23169D01*
X24122Y-23169D02*
X23689Y-22736D01*
X23689Y-22736D02*
X23689Y-22280D01*
X22350Y-23031D02*
X23882Y-24563D01*
G54D38*
X31591Y-24302D02*
X31730Y-24302D01*
X33665Y-18520D02*
X32611Y-19574D01*
X32073Y-23959D02*
X32182Y-23850D01*
X30728Y-24287D02*
X30743Y-24302D01*
X32760Y-23850D02*
X34275Y-23850D01*
X32611Y-19854D02*
X32630Y-19873D01*
X30191Y-23171D02*
X30728Y-23708D01*
X32611Y-22613D02*
X32611Y-19854D01*
X30728Y-23708D02*
X30728Y-24287D01*
X28869Y-23171D02*
X30191Y-23171D01*
X32598Y-22626D02*
X32611Y-22613D01*
X30743Y-24302D02*
X31591Y-24302D01*
X34275Y-23850D02*
X34488Y-24063D01*
X31730Y-24302D02*
X32073Y-23959D01*
X32182Y-23850D02*
X32760Y-23850D01*
X32611Y-19574D02*
X32611Y-19854D01*
X33665Y-17969D02*
X33665Y-18520D01*
X34488Y-24063D02*
X34488Y-24756D01*
X31341Y-21689D02*
X31060Y-21970D01*
X30173Y-22857D02*
X31060Y-21970D01*
X30173Y-22857D02*
X28869Y-22857D01*
X31441Y-21689D02*
X31341Y-21689D01*
G54D39*
X34488Y-27002D02*
X33940Y-27550D01*
G54D41*
X25089Y-24439D02*
X25089Y-26515D01*
G54D39*
X33940Y-27550D02*
X32930Y-27550D01*
X32930Y-27550D02*
X32650Y-27270D01*
X34488Y-27002D02*
X34488Y-26756D01*
X32650Y-27270D02*
X29200Y-27270D01*
G54D41*
X25089Y-26515D02*
X25094Y-26520D01*
G54D38*
X31988Y-22713D02*
X32011Y-22690D01*
X25089Y-24119D02*
X24040Y-24119D01*
X32011Y-22690D02*
X32011Y-19854D01*
X32011Y-19953D02*
X32011Y-19854D01*
X32011Y-19854D02*
X32011Y-19863D01*
X22858Y-22339D02*
X22858Y-21709D01*
X22858Y-22937D02*
X22858Y-22339D01*
X24040Y-24119D02*
X22858Y-22937D01*
X31563Y-20311D02*
X32011Y-19863D01*
X32054Y-26256D02*
X32770Y-26256D01*
G54D40*
X33988Y-26256D02*
X32770Y-26256D01*
X32770Y-26256D02*
X32764Y-26256D01*
G54D38*
X31720Y-26590D02*
X32054Y-26256D01*
X25689Y-26055D02*
X25689Y-25389D01*
X25689Y-25389D02*
X25869Y-25209D01*
X34488Y-25756D02*
X33988Y-26256D01*
X29629Y-22541D02*
X28869Y-22541D01*
X29629Y-22541D02*
X30790Y-21380D01*
X31177Y-21248D02*
X30922Y-21248D01*
X30922Y-21248D02*
X30790Y-21380D01*
G54D42*
X17244Y-22484D02*
X17689Y-22039D01*
G54D38*
X19720Y-19909D02*
X19701Y-19890D01*
X18673Y-17059D02*
X19059Y-17059D01*
G54D42*
X17244Y-22685D02*
X17244Y-22484D01*
G54D38*
X17980Y-17752D02*
X18673Y-17059D01*
G54D42*
X17689Y-21039D02*
X17689Y-20098D01*
G54D38*
X19701Y-19890D02*
X19701Y-18469D01*
X18162Y-19051D02*
X18339Y-19051D01*
G54D42*
X17689Y-20098D02*
X17728Y-20059D01*
G54D37*
X23191Y-30091D02*
X23170Y-30070D01*
G54D38*
X17902Y-19311D02*
X18162Y-19051D01*
X17728Y-20059D02*
X17189Y-19520D01*
G54D37*
X19819Y-26783D02*
X19819Y-26228D01*
G54D38*
X31591Y-24981D02*
X32035Y-25425D01*
G54D42*
X33240Y-23335D02*
X31185Y-23335D01*
G54D38*
X30915Y-22900D02*
X31571Y-22244D01*
X32582Y-24756D02*
X32436Y-24902D01*
X27139Y-25209D02*
X27139Y-26287D01*
G54D37*
X17169Y-27842D02*
X17137Y-27874D01*
X28410Y-29910D02*
X28580Y-30080D01*
X19315Y-29103D02*
X19330Y-29118D01*
X24465Y-30091D02*
X25500Y-30091D01*
G54D38*
X28610Y-27210D02*
X28610Y-27800D01*
G54D37*
X19476Y-27126D02*
X19819Y-26783D01*
X20390Y-25741D02*
X20429Y-25702D01*
X20218Y-29118D02*
X21170Y-30070D01*
X20236Y-29100D02*
X20236Y-28547D01*
X19330Y-29118D02*
X20218Y-29118D01*
G54D38*
X31335Y-26239D02*
X31472Y-26102D01*
G54D37*
X31440Y-30070D02*
X33257Y-30070D01*
G54D42*
X31087Y-16386D02*
X30157Y-16386D01*
G54D37*
X34665Y-17969D02*
X34665Y-18395D01*
X29440Y-30070D02*
X31440Y-30070D01*
X34087Y-18973D02*
X33240Y-19820D01*
X28580Y-30080D02*
X29430Y-30080D01*
X26961Y-28898D02*
X26780Y-28717D01*
G54D42*
X30157Y-16386D02*
X29146Y-16386D01*
G54D37*
X17137Y-29500D02*
X17137Y-28728D01*
G54D38*
X26821Y-21443D02*
X26821Y-22277D01*
G54D37*
X34665Y-18395D02*
X34087Y-18973D01*
G54D41*
X27161Y-23330D02*
X26823Y-23668D01*
G54D38*
X27019Y-27720D02*
X27879Y-27720D01*
X27984Y-27615D02*
X27984Y-26614D01*
G54D42*
X21984Y-18374D02*
X24988Y-18374D01*
G54D40*
X21984Y-18606D02*
X21976Y-18614D01*
G54D38*
X31335Y-26909D02*
X31335Y-26239D01*
G54D42*
X27180Y-22580D02*
X27161Y-22580D01*
X25272Y-17051D02*
X26201Y-16122D01*
G54D38*
X28287Y-26311D02*
X28287Y-26043D01*
X31591Y-24902D02*
X31591Y-24981D01*
G54D39*
X32240Y-28340D02*
X32690Y-27890D01*
G54D38*
X30646Y-19091D02*
X28757Y-20980D01*
G54D42*
X26000Y-15921D02*
X25665Y-15586D01*
G54D38*
X26819Y-21441D02*
X26821Y-21443D01*
X30750Y-22900D02*
X30915Y-22900D01*
G54D39*
X31440Y-30070D02*
X31610Y-30070D01*
G54D37*
X29430Y-30080D02*
X29440Y-30070D01*
G54D39*
X24465Y-30091D02*
X24465Y-29307D01*
G54D42*
X34516Y-16386D02*
X31087Y-16386D01*
G54D37*
X24465Y-30091D02*
X23191Y-30091D01*
G54D39*
X32690Y-27890D02*
X33290Y-27890D01*
G54D42*
X17689Y-22039D02*
X17689Y-21039D01*
G54D37*
X17244Y-23610D02*
X17244Y-22685D01*
G54D38*
X26779Y-27276D02*
X26779Y-27480D01*
X33272Y-29448D02*
X33492Y-29228D01*
X28757Y-20980D02*
X28693Y-20980D01*
X33240Y-23335D02*
X33232Y-23327D01*
X26819Y-20513D02*
X26819Y-21441D01*
G54D37*
X28118Y-28898D02*
X28410Y-29190D01*
X17169Y-27831D02*
X17169Y-27842D01*
G54D38*
X34712Y-27811D02*
X34343Y-27811D01*
X33492Y-29228D02*
X35256Y-29228D01*
G54D37*
X19500Y-25741D02*
X20390Y-25741D01*
X20218Y-29118D02*
X20236Y-29100D01*
X18705Y-27126D02*
X19476Y-27126D01*
X19721Y-25741D02*
X19500Y-25741D01*
X19819Y-25839D02*
X19721Y-25741D01*
G54D40*
X21984Y-18374D02*
X21984Y-18606D01*
G54D38*
X35484Y-28583D02*
X34712Y-27811D01*
G54D42*
X25079Y-17244D02*
X25272Y-17051D01*
G54D38*
X26821Y-22277D02*
X26918Y-22374D01*
G54D42*
X29146Y-16386D02*
X28177Y-16386D01*
X25665Y-14535D02*
X25291Y-14161D01*
G54D37*
X17137Y-23717D02*
X17244Y-23610D01*
G54D42*
X25291Y-14161D02*
X25130Y-14161D01*
G54D38*
X31335Y-26909D02*
X28911Y-26909D01*
G54D39*
X24465Y-29307D02*
X24787Y-28985D01*
G54D37*
X19819Y-26228D02*
X19819Y-25839D01*
G54D38*
X20753Y-18179D02*
X20948Y-18374D01*
X34087Y-18973D02*
X34158Y-18973D01*
G54D37*
X33257Y-30070D02*
X33272Y-30055D01*
G54D38*
X20753Y-17671D02*
X20753Y-18179D01*
G54D41*
X26823Y-23668D02*
X26823Y-24260D01*
G54D38*
X26780Y-27275D02*
X26779Y-27276D01*
X26779Y-27480D02*
X27019Y-27720D01*
X33232Y-23327D02*
X33232Y-23311D01*
X27879Y-27720D02*
X27984Y-27615D01*
G54D41*
X26823Y-24260D02*
X27139Y-24576D01*
G54D38*
X24988Y-18374D02*
X25079Y-18283D01*
G54D42*
X20948Y-18374D02*
X21984Y-18374D01*
X26228Y-12181D02*
X26220Y-12181D01*
G54D37*
X17137Y-27284D02*
X17137Y-23717D01*
G54D41*
X27139Y-24576D02*
X27139Y-25209D01*
G54D37*
X17303Y-29666D02*
X17137Y-29500D01*
X17137Y-27874D02*
X17137Y-27284D01*
X17295Y-27126D02*
X17760Y-27126D01*
X17137Y-27284D02*
X17295Y-27126D01*
X23170Y-30070D02*
X21170Y-30070D01*
G54D42*
X34665Y-17969D02*
X34665Y-16535D01*
X26201Y-16122D02*
X26000Y-15921D01*
G54D39*
X31610Y-30070D02*
X32240Y-29440D01*
G54D37*
X34490Y-23070D02*
X33505Y-23070D01*
G54D38*
X28911Y-26909D02*
X28610Y-27210D01*
X27161Y-22580D02*
X27161Y-23343D01*
G54D37*
X17137Y-28728D02*
X17137Y-27874D01*
G54D38*
X27161Y-22374D02*
X27161Y-22580D01*
G54D37*
X33505Y-23070D02*
X33240Y-23335D01*
G54D38*
X27139Y-26287D02*
X26780Y-26646D01*
X34158Y-18973D02*
X34299Y-19114D01*
X31335Y-26913D02*
X31335Y-26909D01*
X26918Y-22374D02*
X27161Y-22374D01*
G54D37*
X17303Y-30055D02*
X17303Y-29666D01*
G54D38*
X27291Y-22374D02*
X27451Y-22214D01*
X27984Y-26614D02*
X28287Y-26311D01*
X26780Y-26646D02*
X26780Y-27275D01*
G54D42*
X31185Y-23335D02*
X30750Y-22900D01*
X25079Y-18283D02*
X25079Y-17244D01*
X28177Y-16386D02*
X26465Y-16386D01*
G54D39*
X32240Y-29440D02*
X32240Y-28340D01*
G54D37*
X28410Y-29190D02*
X28410Y-29910D01*
G54D42*
X26465Y-16386D02*
X26201Y-16122D01*
G54D38*
X33272Y-30055D02*
X33272Y-29448D01*
G54D39*
X24787Y-28985D02*
X24787Y-28665D01*
G54D37*
X28118Y-28898D02*
X26961Y-28898D01*
G54D38*
X27451Y-22214D02*
X27451Y-21443D01*
X32436Y-24902D02*
X31591Y-24902D01*
X33488Y-24756D02*
X32582Y-24756D01*
G54D42*
X34665Y-16535D02*
X34516Y-16386D01*
G54D38*
X27161Y-22374D02*
X27291Y-22374D01*
G54D37*
X33240Y-19820D02*
X33240Y-23335D01*
G54D42*
X25665Y-15586D02*
X25665Y-14535D01*
G54D37*
X29220Y-13910D02*
X29220Y-13181D01*
X28665Y-14969D02*
X28665Y-14465D01*
X28665Y-14465D02*
X29220Y-13910D01*
X27220Y-13898D02*
X27220Y-13181D01*
X26665Y-14969D02*
X26665Y-14453D01*
X26665Y-14453D02*
X27220Y-13898D01*
G54D38*
X23882Y-25623D02*
X23882Y-26272D01*
X24358Y-26748D02*
X23882Y-26272D01*
G54D37*
X21693Y-25110D02*
X21043Y-24460D01*
X21043Y-23780D02*
X20613Y-23350D01*
X18700Y-18358D02*
X17547Y-18358D01*
X21693Y-26615D02*
X21693Y-25110D01*
X17232Y-18043D02*
X17232Y-16989D01*
X18988Y-18646D02*
X18700Y-18358D01*
X17547Y-18358D02*
X17232Y-18043D01*
X21043Y-24460D02*
X21043Y-23780D01*
X20613Y-23350D02*
X19976Y-23350D01*
X19976Y-23350D02*
X18988Y-22362D01*
X22170Y-27092D02*
X21693Y-26615D01*
X22170Y-27229D02*
X22170Y-27092D01*
X22170Y-28070D02*
X22170Y-27229D01*
X18988Y-22362D02*
X18988Y-18646D01*
X35504Y-15878D02*
X35504Y-14194D01*
X35260Y-16122D02*
X35504Y-15878D01*
X35504Y-14194D02*
X35340Y-14030D01*
G54D38*
X22753Y-17212D02*
X22753Y-17671D01*
X22850Y-16875D02*
X22850Y-17115D01*
X22850Y-17115D02*
X22753Y-17212D01*
G54D40*
X22827Y-20484D02*
X22753Y-20410D01*
G54D38*
X26191Y-20829D02*
X26043Y-20681D01*
X26191Y-21443D02*
X26191Y-20829D01*
X22753Y-20410D02*
X22753Y-19671D01*
G54D40*
X19874Y-17291D02*
X19839Y-17256D01*
G54D38*
X19839Y-17256D02*
X19839Y-16674D01*
X21253Y-19671D02*
X21253Y-19116D01*
X21253Y-19116D02*
X21043Y-18906D01*
X20319Y-18886D02*
X20753Y-19320D01*
X20461Y-16682D02*
X20461Y-17082D01*
X20319Y-17224D02*
X20319Y-18886D01*
X20753Y-19320D02*
X20753Y-19671D01*
X20461Y-17082D02*
X20319Y-17224D01*
X21752Y-17150D02*
X21753Y-17151D01*
X21752Y-16887D02*
X21752Y-17150D01*
X21753Y-17151D02*
X21753Y-17671D01*
G54D37*
X30665Y-14969D02*
X30665Y-14457D01*
X31220Y-13902D02*
X31220Y-13181D01*
X30665Y-14457D02*
X31220Y-13902D01*
X27665Y-14504D02*
X28220Y-13949D01*
X28220Y-13949D02*
X28220Y-13181D01*
X27665Y-14969D02*
X27665Y-14504D01*
X29665Y-14453D02*
X30220Y-13898D01*
X30220Y-13898D02*
X30220Y-13181D01*
X29665Y-14969D02*
X29665Y-14453D01*
X32665Y-14969D02*
X32665Y-14386D01*
X32665Y-14386D02*
X33220Y-13831D01*
X33220Y-13831D02*
X33220Y-13181D01*
G54D39*
X25744Y-23799D02*
X25089Y-23799D01*
X25969Y-23574D02*
X25969Y-22276D01*
G54D38*
X32665Y-17969D02*
X32665Y-18515D01*
G54D39*
X25744Y-23799D02*
X25969Y-23574D01*
X29650Y-21400D02*
X29780Y-21400D01*
G54D38*
X29780Y-21400D02*
X32665Y-18515D01*
G54D40*
X28081Y-21443D02*
X28081Y-21033D01*
G54D38*
X28081Y-21033D02*
X30665Y-18449D01*
X30665Y-18449D02*
X30665Y-17969D01*
X30130Y-23700D02*
X30130Y-26070D01*
X30130Y-26070D02*
X30050Y-26150D01*
X28869Y-23487D02*
X29917Y-23487D01*
X29917Y-23487D02*
X30130Y-23700D01*
X29040Y-25620D02*
X29660Y-25000D01*
X29561Y-23801D02*
X28869Y-23801D01*
X29561Y-23801D02*
X29660Y-23900D01*
X29660Y-25000D02*
X29660Y-23900D01*
X23253Y-19671D02*
X23253Y-22804D01*
X23253Y-22804D02*
X23928Y-23479D01*
X23928Y-23479D02*
X25089Y-23479D01*
X29480Y-20996D02*
X29292Y-20996D01*
X29292Y-20996D02*
X28869Y-21419D01*
X31665Y-17969D02*
X31665Y-18811D01*
X31665Y-18811D02*
X29480Y-20996D01*
X28869Y-21419D02*
X28869Y-22227D01*
X25089Y-22859D02*
X24256Y-22859D01*
G54D39*
X24476Y-20410D02*
X25992Y-18894D01*
G54D38*
X25992Y-18894D02*
X26441Y-18894D01*
X26441Y-18894D02*
X26665Y-18670D01*
G54D39*
X24063Y-22666D02*
X24063Y-21823D01*
X24256Y-22859D02*
X24063Y-22666D01*
G54D38*
X26665Y-18670D02*
X26665Y-17969D01*
G54D39*
X24476Y-21410D02*
X24476Y-20410D01*
X24063Y-21823D02*
X24476Y-21410D01*
X26819Y-25209D02*
X26819Y-25889D01*
X26819Y-25889D02*
X26614Y-26094D01*
G54D38*
X27379Y-26590D02*
X27642Y-26327D01*
X27379Y-26590D02*
X27379Y-27276D01*
X25089Y-22539D02*
X24464Y-22539D01*
X27665Y-18839D02*
X27665Y-17969D01*
G54D39*
X24811Y-21535D02*
X24811Y-20473D01*
X24811Y-20473D02*
X26048Y-19236D01*
X26048Y-19236D02*
X27268Y-19236D01*
X24358Y-22433D02*
X24358Y-21988D01*
X24358Y-21988D02*
X24811Y-21535D01*
X24464Y-22539D02*
X24358Y-22433D01*
G54D38*
X27268Y-19236D02*
X27665Y-18839D01*
X28319Y-19484D02*
X28665Y-19138D01*
G54D39*
X25089Y-20564D02*
X26169Y-19484D01*
G54D38*
X28665Y-19138D02*
X28665Y-17969D01*
G54D39*
X26169Y-19484D02*
X28319Y-19484D01*
X25089Y-22229D02*
X25089Y-20564D01*
G54D38*
X25876Y-21443D02*
X25687Y-21443D01*
X23610Y-20819D02*
X23610Y-20291D01*
X23753Y-20148D02*
X23753Y-19671D01*
X23929Y-21138D02*
X23610Y-20819D01*
X25687Y-21443D02*
X25421Y-21177D01*
X23610Y-20291D02*
X23753Y-20148D01*
G54D40*
X27766Y-20742D02*
X27766Y-21443D01*
G54D38*
X29665Y-18843D02*
X27766Y-20742D01*
X29665Y-17969D02*
X29665Y-18843D01*
G54D39*
X23630Y-16275D02*
X23630Y-12661D01*
X23630Y-12661D02*
X24130Y-12161D01*
X22630Y-12661D02*
X23130Y-12161D01*
X22630Y-15019D02*
X22630Y-12661D01*
X22850Y-15239D02*
X22630Y-15019D01*
X22850Y-16275D02*
X22850Y-15239D01*
X22299Y-15413D02*
X21630Y-14744D01*
X22299Y-16287D02*
X22299Y-15413D01*
X21630Y-14744D02*
X21630Y-12661D01*
X21630Y-12661D02*
X22130Y-12161D01*
X21752Y-15705D02*
X20917Y-14870D01*
X20917Y-14870D02*
X20830Y-14870D01*
X20630Y-14670D02*
X20630Y-12661D01*
X21752Y-16287D02*
X21752Y-15705D01*
X20630Y-12661D02*
X21130Y-12161D01*
X20830Y-14870D02*
X20630Y-14670D01*
X24201Y-16287D02*
X24201Y-15322D01*
X24626Y-12665D02*
X25130Y-12161D01*
X24201Y-15322D02*
X24626Y-14897D01*
X24626Y-14897D02*
X24626Y-12665D01*
G54D37*
X29220Y-12181D02*
X30220Y-12181D01*
X30220Y-12181D02*
X31220Y-12181D01*
X28220Y-12181D02*
X29220Y-12181D01*
X32220Y-12181D02*
X33220Y-12181D01*
X34791Y-12181D02*
X35340Y-12730D01*
X33220Y-12181D02*
X34220Y-12181D01*
X34220Y-12181D02*
X34791Y-12181D01*
X31220Y-12181D02*
X32220Y-12181D01*
X27220Y-12181D02*
X28220Y-12181D01*
X33665Y-14453D02*
X34220Y-13898D01*
X33665Y-14969D02*
X33665Y-14453D01*
X34220Y-13898D02*
X34220Y-13181D01*
G54D39*
X19839Y-14992D02*
X19630Y-14783D01*
X19630Y-12661D02*
X20130Y-12161D01*
X21196Y-16292D02*
X21196Y-15756D01*
X19630Y-14783D02*
X19630Y-12661D01*
X20432Y-14992D02*
X19839Y-14992D01*
X21196Y-15756D02*
X20432Y-14992D01*
X19147Y-15280D02*
X18630Y-14763D01*
X20130Y-15280D02*
X19147Y-15280D01*
X20461Y-15611D02*
X20130Y-15280D01*
X18630Y-14763D02*
X18630Y-12661D01*
X20461Y-16082D02*
X20461Y-15611D01*
X18630Y-12661D02*
X19130Y-12161D01*
X17484Y-14685D02*
X17484Y-12807D01*
X17610Y-14811D02*
X17484Y-14685D01*
X18897Y-15610D02*
X18098Y-14811D01*
X18098Y-14811D02*
X17610Y-14811D01*
X19839Y-16074D02*
X19839Y-15934D01*
X19515Y-15610D02*
X18897Y-15610D01*
X17484Y-12807D02*
X18130Y-12161D01*
X19839Y-15934D02*
X19515Y-15610D01*
G54D37*
X17000Y-15284D02*
X17000Y-13539D01*
X17232Y-15516D02*
X17000Y-15284D01*
X17232Y-15689D02*
X17232Y-15516D01*
G54D38*
X21253Y-17186D02*
X21253Y-17671D01*
X21196Y-17129D02*
X21253Y-17186D01*
X21196Y-16892D02*
X21196Y-17129D01*
X23630Y-16875D02*
X23630Y-17067D01*
X23753Y-17190D02*
X23753Y-17671D01*
X23630Y-17067D02*
X23753Y-17190D01*
X24201Y-16887D02*
X24201Y-17114D01*
X24253Y-17166D02*
X24253Y-17671D01*
X24201Y-17114D02*
X24253Y-17166D01*
X22299Y-17158D02*
X22253Y-17204D01*
X22253Y-17204D02*
X22253Y-17671D01*
X22299Y-16887D02*
X22299Y-17158D01*
X21709Y-24135D02*
X22235Y-24661D01*
X22235Y-24661D02*
X22531Y-24661D01*
G54D37*
X31665Y-14969D02*
X31665Y-14417D01*
X32220Y-13862D02*
X32220Y-13181D01*
X31665Y-14417D02*
X32220Y-13862D01*
X19886Y-23949D02*
X19500Y-24335D01*
G54D38*
X24253Y-19671D02*
X24291Y-19671D01*
G54D42*
X23780Y-27181D02*
X24119Y-27520D01*
G54D38*
X30728Y-24887D02*
X30728Y-25606D01*
G54D37*
X19143Y-27998D02*
X18862Y-27717D01*
G54D38*
X24087Y-20180D02*
X24253Y-20014D01*
X27232Y-19913D02*
X26819Y-19913D01*
G54D41*
X25819Y-27520D02*
X26180Y-27159D01*
G54D37*
X19143Y-28331D02*
X19315Y-28503D01*
X19916Y-27902D02*
X19315Y-28503D01*
X20189Y-27902D02*
X19916Y-27902D01*
X19143Y-28331D02*
X19143Y-27998D01*
G54D38*
X26506Y-20927D02*
X26506Y-21443D01*
G54D37*
X18437Y-28728D02*
X18481Y-28728D01*
G54D42*
X24119Y-27520D02*
X25819Y-27520D01*
G54D38*
X26500Y-21449D02*
X26506Y-21443D01*
G54D37*
X18481Y-28728D02*
X18878Y-28331D01*
G54D38*
X26500Y-23051D02*
X26500Y-21449D01*
G54D37*
X18878Y-28331D02*
X19143Y-28331D01*
X19500Y-24335D02*
X19500Y-24559D01*
G54D38*
X33488Y-26756D02*
X33468Y-26776D01*
X27136Y-21443D02*
X27136Y-20900D01*
G54D42*
X27461Y-20276D02*
X27772Y-19965D01*
G54D38*
X26441Y-20862D02*
X26506Y-20927D01*
X24291Y-19671D02*
X25079Y-18883D01*
X27311Y-19992D02*
X27232Y-19913D01*
X26189Y-23860D02*
X26500Y-23549D01*
X27311Y-20276D02*
X27311Y-19992D01*
X26303Y-20150D02*
X26303Y-20377D01*
X26819Y-19913D02*
X26394Y-19913D01*
X26189Y-25988D02*
X26189Y-25209D01*
X27311Y-20725D02*
X27311Y-20276D01*
X26394Y-19913D02*
X26303Y-20004D01*
X27136Y-20900D02*
X27311Y-20725D01*
X26441Y-20515D02*
X26441Y-20862D01*
X26303Y-20377D02*
X26441Y-20515D01*
X26303Y-20004D02*
X26303Y-20150D01*
G54D42*
X27311Y-20276D02*
X27461Y-20276D01*
G54D38*
X26500Y-23496D02*
X26500Y-23051D01*
G54D41*
X26180Y-26646D02*
X26180Y-27159D01*
G54D38*
X26500Y-23549D02*
X26500Y-23496D01*
X26180Y-25997D02*
X26189Y-25988D01*
X24087Y-20370D02*
X24087Y-20180D01*
X26180Y-26646D02*
X26180Y-25997D01*
X24253Y-20014D02*
X24253Y-19671D01*
X26189Y-25209D02*
X26189Y-23860D01*
G54D10*
G36*
X18180Y-14211D02*
X18080Y-14211D01*
X18080Y-14111D01*
X18180Y-14111D01*
X18180Y-14211D01*
X18180Y-14211D01*
G37*
G54D43*
X18180Y-14211D02*
X18080Y-14211D01*
X18080Y-14111D01*
X18180Y-14111D01*
X18180Y-14211D01*
G54D10*
G36*
X19410Y-14981D02*
X19270Y-14981D01*
X19046Y-14757D01*
X19080Y-14739D01*
X19080Y-14261D01*
X19080Y-14211D01*
X19080Y-14111D01*
X19180Y-14111D01*
X19180Y-14211D01*
X19180Y-14261D01*
X19180Y-14739D01*
X19265Y-14786D01*
X19299Y-14772D01*
X19331Y-14754D01*
X19331Y-14783D01*
X19350Y-14878D01*
X19354Y-14898D01*
X19410Y-14981D01*
X19410Y-14981D01*
G37*
G54D43*
X19410Y-14981D02*
X19270Y-14981D01*
X19046Y-14757D01*
X19080Y-14739D01*
X19080Y-14261D01*
X19080Y-14211D01*
X19080Y-14111D01*
X19180Y-14111D01*
X19180Y-14211D01*
X19180Y-14261D01*
X19180Y-14739D01*
X19265Y-14786D01*
X19299Y-14772D01*
X19331Y-14754D01*
X19331Y-14783D01*
X19350Y-14878D01*
X19354Y-14898D01*
X19410Y-14981D01*
G54D10*
G36*
X20180Y-14211D02*
X20080Y-14211D01*
X20080Y-14111D01*
X20180Y-14111D01*
X20180Y-14211D01*
X20180Y-14211D01*
G37*
G54D43*
X20180Y-14211D02*
X20080Y-14211D01*
X20080Y-14111D01*
X20180Y-14111D01*
X20180Y-14211D01*
G54D10*
G36*
X20604Y-27741D02*
X20602Y-27731D01*
X20505Y-27586D01*
X20379Y-27501D01*
X20379Y-26015D01*
X20379Y-25752D01*
X20084Y-25752D01*
X20022Y-25814D01*
X20023Y-25876D01*
X20061Y-25968D01*
X20131Y-26038D01*
X20222Y-26076D01*
X20318Y-26076D01*
X20379Y-26015D01*
X20379Y-27501D01*
X20360Y-27489D01*
X20189Y-27455D01*
X19986Y-27455D01*
X19986Y-25853D01*
X19924Y-25791D01*
X19550Y-25791D01*
X19550Y-26067D01*
X19612Y-26129D01*
X19687Y-26128D01*
X19786Y-26128D01*
X19877Y-26090D01*
X19947Y-26020D01*
X19985Y-25928D01*
X19986Y-25853D01*
X19986Y-27455D01*
X19916Y-27455D01*
X19745Y-27489D01*
X19600Y-27586D01*
X19599Y-27586D01*
X19599Y-27587D01*
X19477Y-27708D01*
X19459Y-27682D01*
X19347Y-27570D01*
X19347Y-27530D01*
X19309Y-27438D01*
X19292Y-27421D01*
X19309Y-27405D01*
X19347Y-27313D01*
X19348Y-27238D01*
X19286Y-27176D01*
X18805Y-27176D01*
X18755Y-27176D01*
X18655Y-27176D01*
X18605Y-27176D01*
X18499Y-27176D01*
X18124Y-27176D01*
X17810Y-27176D01*
X17810Y-27747D01*
X17872Y-27809D01*
X18262Y-27808D01*
X18361Y-27808D01*
X18377Y-27801D01*
X18377Y-27904D01*
X18415Y-27996D01*
X18485Y-28066D01*
X18503Y-28073D01*
X18498Y-28079D01*
X18088Y-28079D01*
X17996Y-28117D01*
X17926Y-28187D01*
X17888Y-28278D01*
X17888Y-28377D01*
X17888Y-29177D01*
X17926Y-29269D01*
X17996Y-29339D01*
X18087Y-29377D01*
X18186Y-29377D01*
X18786Y-29377D01*
X18878Y-29339D01*
X18918Y-29298D01*
X18947Y-29369D01*
X19017Y-29439D01*
X19069Y-29460D01*
X18979Y-29498D01*
X18818Y-29659D01*
X18803Y-29694D01*
X18789Y-29660D01*
X18628Y-29499D01*
X18418Y-29411D01*
X18190Y-29411D01*
X17979Y-29498D01*
X17874Y-29602D01*
X17848Y-29540D01*
X17778Y-29470D01*
X17710Y-29441D01*
X17710Y-27747D01*
X17710Y-27176D01*
X17710Y-27076D01*
X17710Y-26505D01*
X17648Y-26443D01*
X17258Y-26444D01*
X17159Y-26444D01*
X17068Y-26482D01*
X16998Y-26552D01*
X16960Y-26644D01*
X16959Y-27014D01*
X17021Y-27076D01*
X17710Y-27076D01*
X17710Y-27176D01*
X17021Y-27176D01*
X16959Y-27238D01*
X16960Y-27608D01*
X16998Y-27700D01*
X17068Y-27770D01*
X17159Y-27808D01*
X17258Y-27808D01*
X17648Y-27809D01*
X17710Y-27747D01*
X17710Y-29441D01*
X17687Y-29432D01*
X17687Y-28840D01*
X17687Y-28616D01*
X17686Y-28377D01*
X17686Y-28278D01*
X17648Y-28187D01*
X17578Y-28117D01*
X17486Y-28079D01*
X17249Y-28078D01*
X17187Y-28140D01*
X17187Y-28678D01*
X17625Y-28678D01*
X17687Y-28616D01*
X17687Y-28840D01*
X17625Y-28778D01*
X17187Y-28778D01*
X17187Y-29316D01*
X17249Y-29378D01*
X17486Y-29377D01*
X17578Y-29339D01*
X17648Y-29269D01*
X17686Y-29178D01*
X17686Y-29079D01*
X17687Y-28840D01*
X17687Y-29432D01*
X17686Y-29432D01*
X17415Y-29431D01*
X17353Y-29493D01*
X17353Y-29955D01*
X17353Y-30005D01*
X17353Y-30105D01*
X17253Y-30105D01*
X17253Y-30005D01*
X17253Y-29955D01*
X17253Y-29493D01*
X17191Y-29431D01*
X16920Y-29432D01*
X16915Y-29434D01*
X16915Y-29377D01*
X17025Y-29378D01*
X17087Y-29316D01*
X17087Y-28828D01*
X17087Y-28778D01*
X17087Y-28678D01*
X17087Y-28628D01*
X17087Y-28140D01*
X17025Y-28078D01*
X16915Y-28078D01*
X16915Y-24259D01*
X17132Y-24260D01*
X17194Y-24198D01*
X17194Y-23710D01*
X17194Y-23660D01*
X17194Y-23560D01*
X17194Y-23510D01*
X17194Y-23022D01*
X17132Y-22960D01*
X16915Y-22960D01*
X16915Y-18357D01*
X16916Y-18359D01*
X17231Y-18674D01*
X17376Y-18771D01*
X17547Y-18805D01*
X18515Y-18805D01*
X18541Y-18831D01*
X18541Y-22362D01*
X18575Y-22533D01*
X18672Y-22678D01*
X19604Y-23610D01*
X19569Y-23634D01*
X19184Y-24019D01*
X19087Y-24164D01*
X19066Y-24266D01*
X19053Y-24280D01*
X19015Y-24371D01*
X19015Y-24470D01*
X19015Y-24474D01*
X18999Y-24468D01*
X18900Y-24468D01*
X18845Y-24468D01*
X18845Y-24259D01*
X18893Y-24259D01*
X18985Y-24221D01*
X19055Y-24151D01*
X19093Y-24060D01*
X19093Y-23961D01*
X19093Y-23161D01*
X19055Y-23069D01*
X18985Y-22999D01*
X18894Y-22961D01*
X18795Y-22961D01*
X18442Y-22961D01*
X18442Y-22168D01*
X18442Y-21910D01*
X18366Y-21735D01*
X18218Y-21598D01*
X18056Y-21539D01*
X18218Y-21480D01*
X18366Y-21343D01*
X18442Y-21168D01*
X18442Y-20910D01*
X18366Y-20735D01*
X18218Y-20598D01*
X18029Y-20529D01*
X17739Y-20529D01*
X17739Y-20989D01*
X18394Y-20989D01*
X18442Y-20910D01*
X18442Y-21168D01*
X18394Y-21089D01*
X17739Y-21089D01*
X17739Y-21529D01*
X17739Y-21549D01*
X17739Y-21989D01*
X18394Y-21989D01*
X18442Y-21910D01*
X18442Y-22168D01*
X18394Y-22089D01*
X17739Y-22089D01*
X17739Y-22549D01*
X18029Y-22549D01*
X18218Y-22480D01*
X18366Y-22343D01*
X18442Y-22168D01*
X18442Y-22961D01*
X18195Y-22961D01*
X18103Y-22999D01*
X18033Y-23069D01*
X17995Y-23160D01*
X17995Y-23259D01*
X17995Y-23570D01*
X17985Y-23585D01*
X17951Y-23756D01*
X17951Y-24468D01*
X17798Y-24468D01*
X17794Y-24469D01*
X17794Y-23722D01*
X17794Y-23498D01*
X17793Y-23259D01*
X17793Y-23160D01*
X17755Y-23069D01*
X17685Y-22999D01*
X17639Y-22980D01*
X17639Y-22549D01*
X17639Y-22089D01*
X17639Y-21989D01*
X17639Y-21549D01*
X17639Y-21529D01*
X17639Y-21089D01*
X17639Y-20989D01*
X17639Y-20529D01*
X17349Y-20529D01*
X17160Y-20598D01*
X17012Y-20735D01*
X16936Y-20910D01*
X16984Y-20989D01*
X17639Y-20989D01*
X17639Y-21089D01*
X16984Y-21089D01*
X16936Y-21168D01*
X17012Y-21343D01*
X17160Y-21480D01*
X17321Y-21539D01*
X17160Y-21598D01*
X17012Y-21735D01*
X16936Y-21910D01*
X16984Y-21989D01*
X17639Y-21989D01*
X17639Y-22089D01*
X16984Y-22089D01*
X16936Y-22168D01*
X17012Y-22343D01*
X17160Y-22480D01*
X17349Y-22549D01*
X17639Y-22549D01*
X17639Y-22980D01*
X17593Y-22961D01*
X17356Y-22960D01*
X17294Y-23022D01*
X17294Y-23560D01*
X17732Y-23560D01*
X17794Y-23498D01*
X17794Y-23722D01*
X17732Y-23660D01*
X17294Y-23660D01*
X17294Y-24198D01*
X17356Y-24260D01*
X17593Y-24259D01*
X17685Y-24221D01*
X17755Y-24151D01*
X17793Y-24060D01*
X17793Y-23961D01*
X17794Y-23722D01*
X17794Y-24469D01*
X17706Y-24506D01*
X17636Y-24576D01*
X17598Y-24667D01*
X17598Y-24766D01*
X17598Y-25632D01*
X17636Y-25724D01*
X17706Y-25794D01*
X17797Y-25832D01*
X17896Y-25832D01*
X17951Y-25832D01*
X17951Y-26052D01*
X17985Y-26223D01*
X18082Y-26368D01*
X18157Y-26443D01*
X17872Y-26443D01*
X17810Y-26505D01*
X17810Y-27076D01*
X18124Y-27076D01*
X18499Y-27076D01*
X18605Y-27076D01*
X18655Y-27076D01*
X18755Y-27076D01*
X18805Y-27076D01*
X19286Y-27076D01*
X19348Y-27014D01*
X19347Y-26939D01*
X19309Y-26847D01*
X19292Y-26830D01*
X19309Y-26814D01*
X19347Y-26723D01*
X19347Y-26624D01*
X19347Y-26348D01*
X19309Y-26256D01*
X19239Y-26186D01*
X19148Y-26148D01*
X19126Y-26148D01*
X18845Y-25867D01*
X18845Y-25832D01*
X18998Y-25832D01*
X19014Y-25825D01*
X19014Y-25841D01*
X19025Y-25841D01*
X19014Y-25853D01*
X19015Y-25928D01*
X19053Y-26020D01*
X19123Y-26090D01*
X19214Y-26128D01*
X19313Y-26128D01*
X19388Y-26129D01*
X19450Y-26067D01*
X19450Y-25841D01*
X19450Y-25791D01*
X19450Y-25691D01*
X19550Y-25691D01*
X19600Y-25691D01*
X19924Y-25691D01*
X19986Y-25629D01*
X19985Y-25597D01*
X20029Y-25597D01*
X20084Y-25652D01*
X20329Y-25652D01*
X20379Y-25652D01*
X20479Y-25652D01*
X20479Y-25752D01*
X20479Y-25802D01*
X20479Y-26015D01*
X20540Y-26076D01*
X20604Y-26076D01*
X20604Y-27741D01*
X20604Y-27741D01*
G37*
G54D43*
X20604Y-27741D02*
X20602Y-27731D01*
X20505Y-27586D01*
X20379Y-27501D01*
X20379Y-26015D01*
X20379Y-25752D01*
X20084Y-25752D01*
X20022Y-25814D01*
X20023Y-25876D01*
X20061Y-25968D01*
X20131Y-26038D01*
X20222Y-26076D01*
X20318Y-26076D01*
X20379Y-26015D01*
X20379Y-27501D01*
X20360Y-27489D01*
X20189Y-27455D01*
X19986Y-27455D01*
X19986Y-25853D01*
X19924Y-25791D01*
X19550Y-25791D01*
X19550Y-26067D01*
X19612Y-26129D01*
X19687Y-26128D01*
X19786Y-26128D01*
X19877Y-26090D01*
X19947Y-26020D01*
X19985Y-25928D01*
X19986Y-25853D01*
X19986Y-27455D01*
X19916Y-27455D01*
X19745Y-27489D01*
X19600Y-27586D01*
X19599Y-27586D01*
X19599Y-27587D01*
X19477Y-27708D01*
X19459Y-27682D01*
X19347Y-27570D01*
X19347Y-27530D01*
X19309Y-27438D01*
X19292Y-27421D01*
X19309Y-27405D01*
X19347Y-27313D01*
X19348Y-27238D01*
X19286Y-27176D01*
X18805Y-27176D01*
X18755Y-27176D01*
X18655Y-27176D01*
X18605Y-27176D01*
X18499Y-27176D01*
X18124Y-27176D01*
X17810Y-27176D01*
X17810Y-27747D01*
X17872Y-27809D01*
X18262Y-27808D01*
X18361Y-27808D01*
X18377Y-27801D01*
X18377Y-27904D01*
X18415Y-27996D01*
X18485Y-28066D01*
X18503Y-28073D01*
X18498Y-28079D01*
X18088Y-28079D01*
X17996Y-28117D01*
X17926Y-28187D01*
X17888Y-28278D01*
X17888Y-28377D01*
X17888Y-29177D01*
X17926Y-29269D01*
X17996Y-29339D01*
X18087Y-29377D01*
X18186Y-29377D01*
X18786Y-29377D01*
X18878Y-29339D01*
X18918Y-29298D01*
X18947Y-29369D01*
X19017Y-29439D01*
X19069Y-29460D01*
X18979Y-29498D01*
X18818Y-29659D01*
X18803Y-29694D01*
X18789Y-29660D01*
X18628Y-29499D01*
X18418Y-29411D01*
X18190Y-29411D01*
X17979Y-29498D01*
X17874Y-29602D01*
X17848Y-29540D01*
X17778Y-29470D01*
X17710Y-29441D01*
X17710Y-27747D01*
X17710Y-27176D01*
X17710Y-27076D01*
X17710Y-26505D01*
X17648Y-26443D01*
X17258Y-26444D01*
X17159Y-26444D01*
X17068Y-26482D01*
X16998Y-26552D01*
X16960Y-26644D01*
X16959Y-27014D01*
X17021Y-27076D01*
X17710Y-27076D01*
X17710Y-27176D01*
X17021Y-27176D01*
X16959Y-27238D01*
X16960Y-27608D01*
X16998Y-27700D01*
X17068Y-27770D01*
X17159Y-27808D01*
X17258Y-27808D01*
X17648Y-27809D01*
X17710Y-27747D01*
X17710Y-29441D01*
X17687Y-29432D01*
X17687Y-28840D01*
X17687Y-28616D01*
X17686Y-28377D01*
X17686Y-28278D01*
X17648Y-28187D01*
X17578Y-28117D01*
X17486Y-28079D01*
X17249Y-28078D01*
X17187Y-28140D01*
X17187Y-28678D01*
X17625Y-28678D01*
X17687Y-28616D01*
X17687Y-28840D01*
X17625Y-28778D01*
X17187Y-28778D01*
X17187Y-29316D01*
X17249Y-29378D01*
X17486Y-29377D01*
X17578Y-29339D01*
X17648Y-29269D01*
X17686Y-29178D01*
X17686Y-29079D01*
X17687Y-28840D01*
X17687Y-29432D01*
X17686Y-29432D01*
X17415Y-29431D01*
X17353Y-29493D01*
X17353Y-29955D01*
X17353Y-30005D01*
X17353Y-30105D01*
X17253Y-30105D01*
X17253Y-30005D01*
X17253Y-29955D01*
X17253Y-29493D01*
X17191Y-29431D01*
X16920Y-29432D01*
X16915Y-29434D01*
X16915Y-29377D01*
X17025Y-29378D01*
X17087Y-29316D01*
X17087Y-28828D01*
X17087Y-28778D01*
X17087Y-28678D01*
X17087Y-28628D01*
X17087Y-28140D01*
X17025Y-28078D01*
X16915Y-28078D01*
X16915Y-24259D01*
X17132Y-24260D01*
X17194Y-24198D01*
X17194Y-23710D01*
X17194Y-23660D01*
X17194Y-23560D01*
X17194Y-23510D01*
X17194Y-23022D01*
X17132Y-22960D01*
X16915Y-22960D01*
X16915Y-18357D01*
X16916Y-18359D01*
X17231Y-18674D01*
X17376Y-18771D01*
X17547Y-18805D01*
X18515Y-18805D01*
X18541Y-18831D01*
X18541Y-22362D01*
X18575Y-22533D01*
X18672Y-22678D01*
X19604Y-23610D01*
X19569Y-23634D01*
X19184Y-24019D01*
X19087Y-24164D01*
X19066Y-24266D01*
X19053Y-24280D01*
X19015Y-24371D01*
X19015Y-24470D01*
X19015Y-24474D01*
X18999Y-24468D01*
X18900Y-24468D01*
X18845Y-24468D01*
X18845Y-24259D01*
X18893Y-24259D01*
X18985Y-24221D01*
X19055Y-24151D01*
X19093Y-24060D01*
X19093Y-23961D01*
X19093Y-23161D01*
X19055Y-23069D01*
X18985Y-22999D01*
X18894Y-22961D01*
X18795Y-22961D01*
X18442Y-22961D01*
X18442Y-22168D01*
X18442Y-21910D01*
X18366Y-21735D01*
X18218Y-21598D01*
X18056Y-21539D01*
X18218Y-21480D01*
X18366Y-21343D01*
X18442Y-21168D01*
X18442Y-20910D01*
X18366Y-20735D01*
X18218Y-20598D01*
X18029Y-20529D01*
X17739Y-20529D01*
X17739Y-20989D01*
X18394Y-20989D01*
X18442Y-20910D01*
X18442Y-21168D01*
X18394Y-21089D01*
X17739Y-21089D01*
X17739Y-21529D01*
X17739Y-21549D01*
X17739Y-21989D01*
X18394Y-21989D01*
X18442Y-21910D01*
X18442Y-22168D01*
X18394Y-22089D01*
X17739Y-22089D01*
X17739Y-22549D01*
X18029Y-22549D01*
X18218Y-22480D01*
X18366Y-22343D01*
X18442Y-22168D01*
X18442Y-22961D01*
X18195Y-22961D01*
X18103Y-22999D01*
X18033Y-23069D01*
X17995Y-23160D01*
X17995Y-23259D01*
X17995Y-23570D01*
X17985Y-23585D01*
X17951Y-23756D01*
X17951Y-24468D01*
X17798Y-24468D01*
X17794Y-24469D01*
X17794Y-23722D01*
X17794Y-23498D01*
X17793Y-23259D01*
X17793Y-23160D01*
X17755Y-23069D01*
X17685Y-22999D01*
X17639Y-22980D01*
X17639Y-22549D01*
X17639Y-22089D01*
X17639Y-21989D01*
X17639Y-21549D01*
X17639Y-21529D01*
X17639Y-21089D01*
X17639Y-20989D01*
X17639Y-20529D01*
X17349Y-20529D01*
X17160Y-20598D01*
X17012Y-20735D01*
X16936Y-20910D01*
X16984Y-20989D01*
X17639Y-20989D01*
X17639Y-21089D01*
X16984Y-21089D01*
X16936Y-21168D01*
X17012Y-21343D01*
X17160Y-21480D01*
X17321Y-21539D01*
X17160Y-21598D01*
X17012Y-21735D01*
X16936Y-21910D01*
X16984Y-21989D01*
X17639Y-21989D01*
X17639Y-22089D01*
X16984Y-22089D01*
X16936Y-22168D01*
X17012Y-22343D01*
X17160Y-22480D01*
X17349Y-22549D01*
X17639Y-22549D01*
X17639Y-22980D01*
X17593Y-22961D01*
X17356Y-22960D01*
X17294Y-23022D01*
X17294Y-23560D01*
X17732Y-23560D01*
X17794Y-23498D01*
X17794Y-23722D01*
X17732Y-23660D01*
X17294Y-23660D01*
X17294Y-24198D01*
X17356Y-24260D01*
X17593Y-24259D01*
X17685Y-24221D01*
X17755Y-24151D01*
X17793Y-24060D01*
X17793Y-23961D01*
X17794Y-23722D01*
X17794Y-24469D01*
X17706Y-24506D01*
X17636Y-24576D01*
X17598Y-24667D01*
X17598Y-24766D01*
X17598Y-25632D01*
X17636Y-25724D01*
X17706Y-25794D01*
X17797Y-25832D01*
X17896Y-25832D01*
X17951Y-25832D01*
X17951Y-26052D01*
X17985Y-26223D01*
X18082Y-26368D01*
X18157Y-26443D01*
X17872Y-26443D01*
X17810Y-26505D01*
X17810Y-27076D01*
X18124Y-27076D01*
X18499Y-27076D01*
X18605Y-27076D01*
X18655Y-27076D01*
X18755Y-27076D01*
X18805Y-27076D01*
X19286Y-27076D01*
X19348Y-27014D01*
X19347Y-26939D01*
X19309Y-26847D01*
X19292Y-26830D01*
X19309Y-26814D01*
X19347Y-26723D01*
X19347Y-26624D01*
X19347Y-26348D01*
X19309Y-26256D01*
X19239Y-26186D01*
X19148Y-26148D01*
X19126Y-26148D01*
X18845Y-25867D01*
X18845Y-25832D01*
X18998Y-25832D01*
X19014Y-25825D01*
X19014Y-25841D01*
X19025Y-25841D01*
X19014Y-25853D01*
X19015Y-25928D01*
X19053Y-26020D01*
X19123Y-26090D01*
X19214Y-26128D01*
X19313Y-26128D01*
X19388Y-26129D01*
X19450Y-26067D01*
X19450Y-25841D01*
X19450Y-25791D01*
X19450Y-25691D01*
X19550Y-25691D01*
X19600Y-25691D01*
X19924Y-25691D01*
X19986Y-25629D01*
X19985Y-25597D01*
X20029Y-25597D01*
X20084Y-25652D01*
X20329Y-25652D01*
X20379Y-25652D01*
X20479Y-25652D01*
X20479Y-25752D01*
X20479Y-25802D01*
X20479Y-26015D01*
X20540Y-26076D01*
X20604Y-26076D01*
X20604Y-27741D01*
G54D10*
G36*
X21180Y-14211D02*
X21080Y-14211D01*
X21080Y-14111D01*
X21180Y-14111D01*
X21180Y-14211D01*
X21180Y-14211D01*
G37*
G54D43*
X21180Y-14211D02*
X21080Y-14211D01*
X21080Y-14111D01*
X21180Y-14111D01*
X21180Y-14211D01*
G54D10*
G36*
X22331Y-15023D02*
X22058Y-14750D01*
X22080Y-14739D01*
X22080Y-14261D01*
X22080Y-14211D01*
X22080Y-14111D01*
X22180Y-14111D01*
X22180Y-14211D01*
X22180Y-14261D01*
X22180Y-14739D01*
X22265Y-14786D01*
X22299Y-14772D01*
X22331Y-14754D01*
X22331Y-15019D01*
X22331Y-15023D01*
X22331Y-15023D01*
G37*
G54D43*
X22331Y-15023D02*
X22058Y-14750D01*
X22080Y-14739D01*
X22080Y-14261D01*
X22080Y-14211D01*
X22080Y-14111D01*
X22180Y-14111D01*
X22180Y-14211D01*
X22180Y-14261D01*
X22180Y-14739D01*
X22265Y-14786D01*
X22299Y-14772D01*
X22331Y-14754D01*
X22331Y-15019D01*
X22331Y-15023D01*
G54D10*
G36*
X22934Y-21282D02*
X22774Y-21282D01*
X22617Y-21347D01*
X22497Y-21466D01*
X22431Y-21623D01*
X22431Y-21624D01*
X22266Y-21624D01*
X22109Y-21689D01*
X21989Y-21808D01*
X21923Y-21965D01*
X21923Y-22135D01*
X21988Y-22292D01*
X22051Y-22355D01*
X22051Y-23031D01*
X22070Y-23126D01*
X22074Y-23146D01*
X22121Y-23216D01*
X22024Y-23216D01*
X22007Y-23199D01*
X21948Y-23174D01*
X21974Y-23114D01*
X21974Y-22944D01*
X21909Y-22787D01*
X21790Y-22667D01*
X21633Y-22601D01*
X21463Y-22601D01*
X21306Y-22666D01*
X21262Y-22709D01*
X21204Y-22709D01*
X21123Y-22628D01*
X21019Y-22559D01*
X20921Y-22539D01*
X21063Y-22539D01*
X21247Y-22463D01*
X21388Y-22323D01*
X21464Y-22139D01*
X21464Y-21940D01*
X21388Y-21756D01*
X21248Y-21615D01*
X21064Y-21539D01*
X21063Y-21539D01*
X21247Y-21463D01*
X21388Y-21323D01*
X21464Y-21139D01*
X21464Y-20940D01*
X21388Y-20756D01*
X21248Y-20615D01*
X21064Y-20539D01*
X20865Y-20539D01*
X20315Y-20539D01*
X20131Y-20615D01*
X20007Y-20738D01*
X20006Y-20738D01*
X19977Y-20744D01*
X19873Y-20813D01*
X19871Y-20815D01*
X19538Y-21148D01*
X19469Y-21252D01*
X19444Y-21374D01*
X19445Y-21378D01*
X19445Y-21516D01*
X19445Y-22187D01*
X19435Y-22177D01*
X19435Y-18646D01*
X19401Y-18475D01*
X19304Y-18330D01*
X19016Y-18042D01*
X18871Y-17945D01*
X18700Y-17911D01*
X17732Y-17911D01*
X17679Y-17858D01*
X17679Y-17538D01*
X17681Y-17538D01*
X17773Y-17500D01*
X17843Y-17430D01*
X17881Y-17339D01*
X17881Y-17240D01*
X17881Y-16640D01*
X17843Y-16548D01*
X17773Y-16478D01*
X17682Y-16440D01*
X17583Y-16440D01*
X16915Y-16440D01*
X16915Y-16238D01*
X17681Y-16238D01*
X17773Y-16200D01*
X17843Y-16130D01*
X17881Y-16039D01*
X17881Y-15940D01*
X17881Y-15340D01*
X17843Y-15248D01*
X17773Y-15178D01*
X17682Y-15140D01*
X17583Y-15140D01*
X17488Y-15140D01*
X17447Y-15099D01*
X17447Y-15054D01*
X17495Y-15087D01*
X17496Y-15087D01*
X17514Y-15090D01*
X17610Y-15110D01*
X17974Y-15110D01*
X18685Y-15821D01*
X18686Y-15821D01*
X18750Y-15863D01*
X18782Y-15885D01*
X18783Y-15886D01*
X18896Y-15908D01*
X18897Y-15909D01*
X19391Y-15909D01*
X19433Y-15950D01*
X19433Y-15998D01*
X19433Y-16248D01*
X19471Y-16340D01*
X19505Y-16374D01*
X19471Y-16408D01*
X19433Y-16499D01*
X19433Y-16598D01*
X19433Y-16848D01*
X19471Y-16940D01*
X19520Y-16989D01*
X19520Y-17041D01*
X19513Y-17048D01*
X19447Y-17205D01*
X19447Y-17375D01*
X19512Y-17532D01*
X19631Y-17652D01*
X19788Y-17718D01*
X19958Y-17718D01*
X20000Y-17700D01*
X20000Y-18881D01*
X19999Y-18886D01*
X20024Y-19008D01*
X20093Y-19112D01*
X20404Y-19422D01*
X20404Y-19495D01*
X20404Y-19945D01*
X20442Y-20037D01*
X20512Y-20107D01*
X20603Y-20145D01*
X20702Y-20145D01*
X20902Y-20145D01*
X20994Y-20107D01*
X21003Y-20098D01*
X21012Y-20107D01*
X21103Y-20145D01*
X21202Y-20145D01*
X21402Y-20145D01*
X21494Y-20107D01*
X21503Y-20098D01*
X21512Y-20107D01*
X21603Y-20145D01*
X21702Y-20145D01*
X21902Y-20145D01*
X21994Y-20107D01*
X22003Y-20098D01*
X22012Y-20107D01*
X22103Y-20145D01*
X22202Y-20145D01*
X22402Y-20145D01*
X22434Y-20131D01*
X22434Y-20317D01*
X22400Y-20398D01*
X22400Y-20568D01*
X22465Y-20725D01*
X22584Y-20845D01*
X22741Y-20911D01*
X22911Y-20911D01*
X22934Y-20901D01*
X22934Y-21282D01*
X22934Y-21282D01*
G37*
G54D43*
X22934Y-21282D02*
X22774Y-21282D01*
X22617Y-21347D01*
X22497Y-21466D01*
X22431Y-21623D01*
X22431Y-21624D01*
X22266Y-21624D01*
X22109Y-21689D01*
X21989Y-21808D01*
X21923Y-21965D01*
X21923Y-22135D01*
X21988Y-22292D01*
X22051Y-22355D01*
X22051Y-23031D01*
X22070Y-23126D01*
X22074Y-23146D01*
X22121Y-23216D01*
X22024Y-23216D01*
X22007Y-23199D01*
X21948Y-23174D01*
X21974Y-23114D01*
X21974Y-22944D01*
X21909Y-22787D01*
X21790Y-22667D01*
X21633Y-22601D01*
X21463Y-22601D01*
X21306Y-22666D01*
X21262Y-22709D01*
X21204Y-22709D01*
X21123Y-22628D01*
X21019Y-22559D01*
X20921Y-22539D01*
X21063Y-22539D01*
X21247Y-22463D01*
X21388Y-22323D01*
X21464Y-22139D01*
X21464Y-21940D01*
X21388Y-21756D01*
X21248Y-21615D01*
X21064Y-21539D01*
X21063Y-21539D01*
X21247Y-21463D01*
X21388Y-21323D01*
X21464Y-21139D01*
X21464Y-20940D01*
X21388Y-20756D01*
X21248Y-20615D01*
X21064Y-20539D01*
X20865Y-20539D01*
X20315Y-20539D01*
X20131Y-20615D01*
X20007Y-20738D01*
X20006Y-20738D01*
X19977Y-20744D01*
X19873Y-20813D01*
X19871Y-20815D01*
X19538Y-21148D01*
X19469Y-21252D01*
X19444Y-21374D01*
X19445Y-21378D01*
X19445Y-21516D01*
X19445Y-22187D01*
X19435Y-22177D01*
X19435Y-18646D01*
X19401Y-18475D01*
X19304Y-18330D01*
X19016Y-18042D01*
X18871Y-17945D01*
X18700Y-17911D01*
X17732Y-17911D01*
X17679Y-17858D01*
X17679Y-17538D01*
X17681Y-17538D01*
X17773Y-17500D01*
X17843Y-17430D01*
X17881Y-17339D01*
X17881Y-17240D01*
X17881Y-16640D01*
X17843Y-16548D01*
X17773Y-16478D01*
X17682Y-16440D01*
X17583Y-16440D01*
X16915Y-16440D01*
X16915Y-16238D01*
X17681Y-16238D01*
X17773Y-16200D01*
X17843Y-16130D01*
X17881Y-16039D01*
X17881Y-15940D01*
X17881Y-15340D01*
X17843Y-15248D01*
X17773Y-15178D01*
X17682Y-15140D01*
X17583Y-15140D01*
X17488Y-15140D01*
X17447Y-15099D01*
X17447Y-15054D01*
X17495Y-15087D01*
X17496Y-15087D01*
X17514Y-15090D01*
X17610Y-15110D01*
X17974Y-15110D01*
X18685Y-15821D01*
X18686Y-15821D01*
X18750Y-15863D01*
X18782Y-15885D01*
X18783Y-15886D01*
X18896Y-15908D01*
X18897Y-15909D01*
X19391Y-15909D01*
X19433Y-15950D01*
X19433Y-15998D01*
X19433Y-16248D01*
X19471Y-16340D01*
X19505Y-16374D01*
X19471Y-16408D01*
X19433Y-16499D01*
X19433Y-16598D01*
X19433Y-16848D01*
X19471Y-16940D01*
X19520Y-16989D01*
X19520Y-17041D01*
X19513Y-17048D01*
X19447Y-17205D01*
X19447Y-17375D01*
X19512Y-17532D01*
X19631Y-17652D01*
X19788Y-17718D01*
X19958Y-17718D01*
X20000Y-17700D01*
X20000Y-18881D01*
X19999Y-18886D01*
X20024Y-19008D01*
X20093Y-19112D01*
X20404Y-19422D01*
X20404Y-19495D01*
X20404Y-19945D01*
X20442Y-20037D01*
X20512Y-20107D01*
X20603Y-20145D01*
X20702Y-20145D01*
X20902Y-20145D01*
X20994Y-20107D01*
X21003Y-20098D01*
X21012Y-20107D01*
X21103Y-20145D01*
X21202Y-20145D01*
X21402Y-20145D01*
X21494Y-20107D01*
X21503Y-20098D01*
X21512Y-20107D01*
X21603Y-20145D01*
X21702Y-20145D01*
X21902Y-20145D01*
X21994Y-20107D01*
X22003Y-20098D01*
X22012Y-20107D01*
X22103Y-20145D01*
X22202Y-20145D01*
X22402Y-20145D01*
X22434Y-20131D01*
X22434Y-20317D01*
X22400Y-20398D01*
X22400Y-20568D01*
X22465Y-20725D01*
X22584Y-20845D01*
X22741Y-20911D01*
X22911Y-20911D01*
X22934Y-20901D01*
X22934Y-21282D01*
G54D10*
G36*
X23331Y-15940D02*
X23262Y-16009D01*
X23239Y-16061D01*
X23218Y-16009D01*
X23149Y-15940D01*
X23149Y-15239D01*
X23129Y-15143D01*
X23126Y-15125D01*
X23126Y-15124D01*
X23061Y-15028D01*
X23061Y-15027D01*
X22929Y-14895D01*
X22929Y-14754D01*
X22961Y-14772D01*
X22995Y-14786D01*
X23080Y-14739D01*
X23080Y-14261D01*
X23080Y-14211D01*
X23080Y-14111D01*
X23180Y-14111D01*
X23180Y-14211D01*
X23180Y-14261D01*
X23180Y-14739D01*
X23265Y-14786D01*
X23299Y-14772D01*
X23331Y-14754D01*
X23331Y-15940D01*
X23331Y-15940D01*
G37*
G54D43*
X23331Y-15940D02*
X23262Y-16009D01*
X23239Y-16061D01*
X23218Y-16009D01*
X23149Y-15940D01*
X23149Y-15239D01*
X23129Y-15143D01*
X23126Y-15125D01*
X23126Y-15124D01*
X23061Y-15028D01*
X23061Y-15027D01*
X22929Y-14895D01*
X22929Y-14754D01*
X22961Y-14772D01*
X22995Y-14786D01*
X23080Y-14739D01*
X23080Y-14261D01*
X23080Y-14211D01*
X23080Y-14111D01*
X23180Y-14111D01*
X23180Y-14211D01*
X23180Y-14261D01*
X23180Y-14739D01*
X23265Y-14786D01*
X23299Y-14772D01*
X23331Y-14754D01*
X23331Y-15940D01*
G54D10*
G36*
X23931Y-26781D02*
X23866Y-26754D01*
X23696Y-26754D01*
X23539Y-26819D01*
X23419Y-26938D01*
X23353Y-27095D01*
X23353Y-27265D01*
X23418Y-27422D01*
X23423Y-27428D01*
X23416Y-27428D01*
X23104Y-27428D01*
X23104Y-25747D01*
X23093Y-25522D01*
X23027Y-25363D01*
X22931Y-25332D01*
X22602Y-25661D01*
X22931Y-25990D01*
X23027Y-25959D01*
X23104Y-25747D01*
X23104Y-27428D01*
X22860Y-27428D01*
X22826Y-27428D01*
X22734Y-27466D01*
X22670Y-27530D01*
X22617Y-27477D01*
X22617Y-27229D01*
X22617Y-27092D01*
X22588Y-26948D01*
X22583Y-26921D01*
X22583Y-26920D01*
X22486Y-26776D01*
X22140Y-26430D01*
X22140Y-26104D01*
X22185Y-26149D01*
X22219Y-26114D01*
X22233Y-26157D01*
X22445Y-26234D01*
X22670Y-26223D01*
X22829Y-26157D01*
X22860Y-26061D01*
X22566Y-25767D01*
X22531Y-25732D01*
X22460Y-25661D01*
X22531Y-25590D01*
X22566Y-25555D01*
X22860Y-25261D01*
X22829Y-25165D01*
X22859Y-25153D01*
X23022Y-24990D01*
X23111Y-24777D01*
X23111Y-24546D01*
X23023Y-24333D01*
X22860Y-24170D01*
X22647Y-24081D01*
X22576Y-24081D01*
X22591Y-24075D01*
X22711Y-23956D01*
X22752Y-23856D01*
X23583Y-24686D01*
X23583Y-24687D01*
X23583Y-24688D01*
X23514Y-24757D01*
X23476Y-24848D01*
X23476Y-24947D01*
X23476Y-25197D01*
X23514Y-25289D01*
X23548Y-25323D01*
X23514Y-25357D01*
X23476Y-25448D01*
X23476Y-25547D01*
X23476Y-25797D01*
X23514Y-25889D01*
X23563Y-25938D01*
X23563Y-26267D01*
X23562Y-26272D01*
X23587Y-26394D01*
X23656Y-26498D01*
X23931Y-26772D01*
X23931Y-26781D01*
X23931Y-26781D01*
G37*
G54D43*
X23931Y-26781D02*
X23866Y-26754D01*
X23696Y-26754D01*
X23539Y-26819D01*
X23419Y-26938D01*
X23353Y-27095D01*
X23353Y-27265D01*
X23418Y-27422D01*
X23423Y-27428D01*
X23416Y-27428D01*
X23104Y-27428D01*
X23104Y-25747D01*
X23093Y-25522D01*
X23027Y-25363D01*
X22931Y-25332D01*
X22602Y-25661D01*
X22931Y-25990D01*
X23027Y-25959D01*
X23104Y-25747D01*
X23104Y-27428D01*
X22860Y-27428D01*
X22826Y-27428D01*
X22734Y-27466D01*
X22670Y-27530D01*
X22617Y-27477D01*
X22617Y-27229D01*
X22617Y-27092D01*
X22588Y-26948D01*
X22583Y-26921D01*
X22583Y-26920D01*
X22486Y-26776D01*
X22140Y-26430D01*
X22140Y-26104D01*
X22185Y-26149D01*
X22219Y-26114D01*
X22233Y-26157D01*
X22445Y-26234D01*
X22670Y-26223D01*
X22829Y-26157D01*
X22860Y-26061D01*
X22566Y-25767D01*
X22531Y-25732D01*
X22460Y-25661D01*
X22531Y-25590D01*
X22566Y-25555D01*
X22860Y-25261D01*
X22829Y-25165D01*
X22859Y-25153D01*
X23022Y-24990D01*
X23111Y-24777D01*
X23111Y-24546D01*
X23023Y-24333D01*
X22860Y-24170D01*
X22647Y-24081D01*
X22576Y-24081D01*
X22591Y-24075D01*
X22711Y-23956D01*
X22752Y-23856D01*
X23583Y-24686D01*
X23583Y-24687D01*
X23583Y-24688D01*
X23514Y-24757D01*
X23476Y-24848D01*
X23476Y-24947D01*
X23476Y-25197D01*
X23514Y-25289D01*
X23548Y-25323D01*
X23514Y-25357D01*
X23476Y-25448D01*
X23476Y-25547D01*
X23476Y-25797D01*
X23514Y-25889D01*
X23563Y-25938D01*
X23563Y-26267D01*
X23562Y-26272D01*
X23587Y-26394D01*
X23656Y-26498D01*
X23931Y-26772D01*
X23931Y-26781D01*
G54D10*
G36*
X24327Y-14774D02*
X23990Y-15111D01*
X23929Y-15201D01*
X23929Y-14754D01*
X23961Y-14772D01*
X23995Y-14786D01*
X24080Y-14739D01*
X24080Y-14261D01*
X24080Y-14211D01*
X24080Y-14111D01*
X24180Y-14111D01*
X24180Y-14211D01*
X24180Y-14261D01*
X24180Y-14739D01*
X24265Y-14786D01*
X24299Y-14772D01*
X24327Y-14756D01*
X24327Y-14774D01*
X24327Y-14774D01*
G37*
G54D43*
X24327Y-14774D02*
X23990Y-15111D01*
X23929Y-15201D01*
X23929Y-14754D01*
X23961Y-14772D01*
X23995Y-14786D01*
X24080Y-14739D01*
X24080Y-14261D01*
X24080Y-14211D01*
X24080Y-14111D01*
X24180Y-14111D01*
X24180Y-14211D01*
X24180Y-14261D01*
X24180Y-14739D01*
X24265Y-14786D01*
X24299Y-14772D01*
X24327Y-14756D01*
X24327Y-14774D01*
G54D10*
G36*
X26053Y-29595D02*
X26045Y-29576D01*
X25975Y-29506D01*
X25883Y-29468D01*
X25612Y-29467D01*
X25550Y-29529D01*
X25550Y-29991D01*
X25550Y-30041D01*
X25550Y-30141D01*
X25450Y-30141D01*
X25450Y-30041D01*
X25450Y-29529D01*
X25388Y-29467D01*
X25117Y-29468D01*
X25025Y-29506D01*
X24955Y-29576D01*
X24917Y-29667D01*
X24917Y-29766D01*
X24916Y-29979D01*
X24978Y-30041D01*
X25450Y-30041D01*
X25450Y-30141D01*
X25400Y-30141D01*
X24978Y-30141D01*
X24916Y-30203D01*
X24917Y-30416D01*
X24917Y-30467D01*
X23805Y-30467D01*
X23698Y-30467D01*
X23703Y-30462D01*
X23665Y-30424D01*
X23718Y-30406D01*
X23805Y-30170D01*
X23795Y-29920D01*
X23718Y-29734D01*
X23614Y-29697D01*
X23276Y-30035D01*
X23241Y-30070D01*
X23170Y-30141D01*
X23099Y-30070D01*
X23064Y-30035D01*
X22726Y-29697D01*
X22622Y-29734D01*
X22535Y-29970D01*
X22545Y-30220D01*
X22622Y-30406D01*
X22674Y-30424D01*
X22637Y-30462D01*
X22642Y-30467D01*
X21805Y-30467D01*
X21698Y-30467D01*
X21703Y-30462D01*
X21665Y-30424D01*
X21718Y-30406D01*
X21805Y-30170D01*
X21795Y-29920D01*
X21718Y-29734D01*
X21614Y-29697D01*
X21543Y-29768D01*
X21543Y-29626D01*
X21506Y-29522D01*
X21270Y-29435D01*
X21020Y-29445D01*
X20834Y-29522D01*
X20797Y-29626D01*
X21170Y-29999D01*
X21543Y-29626D01*
X21543Y-29768D01*
X21276Y-30035D01*
X21241Y-30070D01*
X21170Y-30141D01*
X21099Y-30070D01*
X21064Y-30035D01*
X20726Y-29697D01*
X20622Y-29734D01*
X20535Y-29970D01*
X20545Y-30220D01*
X20622Y-30406D01*
X20674Y-30424D01*
X20637Y-30462D01*
X20642Y-30467D01*
X19772Y-30467D01*
X19788Y-30451D01*
X19876Y-30241D01*
X19876Y-30013D01*
X19876Y-29871D01*
X19789Y-29660D01*
X19628Y-29499D01*
X19548Y-29465D01*
X19613Y-29439D01*
X19683Y-29369D01*
X19721Y-29277D01*
X19722Y-29215D01*
X19660Y-29153D01*
X19415Y-29153D01*
X19365Y-29153D01*
X19265Y-29153D01*
X19265Y-29053D01*
X19365Y-29053D01*
X19415Y-29053D01*
X19660Y-29053D01*
X19722Y-28991D01*
X19721Y-28929D01*
X19683Y-28837D01*
X19649Y-28803D01*
X19683Y-28769D01*
X19684Y-28765D01*
X20101Y-28349D01*
X20189Y-28349D01*
X20360Y-28315D01*
X20505Y-28218D01*
X20602Y-28073D01*
X20615Y-28006D01*
X20626Y-28061D01*
X20626Y-28512D01*
X20664Y-28604D01*
X20723Y-28663D01*
X20723Y-28750D01*
X20757Y-28921D01*
X20854Y-29066D01*
X21108Y-29320D01*
X21253Y-29417D01*
X21424Y-29451D01*
X23005Y-29451D01*
X22834Y-29522D01*
X22797Y-29626D01*
X23170Y-29999D01*
X23543Y-29626D01*
X23506Y-29522D01*
X23313Y-29451D01*
X23768Y-29451D01*
X23939Y-29417D01*
X24084Y-29320D01*
X24387Y-29017D01*
X24484Y-28872D01*
X24518Y-28701D01*
X24518Y-28526D01*
X25675Y-28526D01*
X25675Y-29004D01*
X25709Y-29175D01*
X25806Y-29320D01*
X26053Y-29567D01*
X26053Y-29595D01*
X26053Y-29595D01*
G37*
G54D43*
X26053Y-29595D02*
X26045Y-29576D01*
X25975Y-29506D01*
X25883Y-29468D01*
X25612Y-29467D01*
X25550Y-29529D01*
X25550Y-29991D01*
X25550Y-30041D01*
X25550Y-30141D01*
X25450Y-30141D01*
X25450Y-30041D01*
X25450Y-29529D01*
X25388Y-29467D01*
X25117Y-29468D01*
X25025Y-29506D01*
X24955Y-29576D01*
X24917Y-29667D01*
X24917Y-29766D01*
X24916Y-29979D01*
X24978Y-30041D01*
X25450Y-30041D01*
X25450Y-30141D01*
X25400Y-30141D01*
X24978Y-30141D01*
X24916Y-30203D01*
X24917Y-30416D01*
X24917Y-30467D01*
X23805Y-30467D01*
X23698Y-30467D01*
X23703Y-30462D01*
X23665Y-30424D01*
X23718Y-30406D01*
X23805Y-30170D01*
X23795Y-29920D01*
X23718Y-29734D01*
X23614Y-29697D01*
X23276Y-30035D01*
X23241Y-30070D01*
X23170Y-30141D01*
X23099Y-30070D01*
X23064Y-30035D01*
X22726Y-29697D01*
X22622Y-29734D01*
X22535Y-29970D01*
X22545Y-30220D01*
X22622Y-30406D01*
X22674Y-30424D01*
X22637Y-30462D01*
X22642Y-30467D01*
X21805Y-30467D01*
X21698Y-30467D01*
X21703Y-30462D01*
X21665Y-30424D01*
X21718Y-30406D01*
X21805Y-30170D01*
X21795Y-29920D01*
X21718Y-29734D01*
X21614Y-29697D01*
X21543Y-29768D01*
X21543Y-29626D01*
X21506Y-29522D01*
X21270Y-29435D01*
X21020Y-29445D01*
X20834Y-29522D01*
X20797Y-29626D01*
X21170Y-29999D01*
X21543Y-29626D01*
X21543Y-29768D01*
X21276Y-30035D01*
X21241Y-30070D01*
X21170Y-30141D01*
X21099Y-30070D01*
X21064Y-30035D01*
X20726Y-29697D01*
X20622Y-29734D01*
X20535Y-29970D01*
X20545Y-30220D01*
X20622Y-30406D01*
X20674Y-30424D01*
X20637Y-30462D01*
X20642Y-30467D01*
X19772Y-30467D01*
X19788Y-30451D01*
X19876Y-30241D01*
X19876Y-30013D01*
X19876Y-29871D01*
X19789Y-29660D01*
X19628Y-29499D01*
X19548Y-29465D01*
X19613Y-29439D01*
X19683Y-29369D01*
X19721Y-29277D01*
X19722Y-29215D01*
X19660Y-29153D01*
X19415Y-29153D01*
X19365Y-29153D01*
X19265Y-29153D01*
X19265Y-29053D01*
X19365Y-29053D01*
X19415Y-29053D01*
X19660Y-29053D01*
X19722Y-28991D01*
X19721Y-28929D01*
X19683Y-28837D01*
X19649Y-28803D01*
X19683Y-28769D01*
X19684Y-28765D01*
X20101Y-28349D01*
X20189Y-28349D01*
X20360Y-28315D01*
X20505Y-28218D01*
X20602Y-28073D01*
X20615Y-28006D01*
X20626Y-28061D01*
X20626Y-28512D01*
X20664Y-28604D01*
X20723Y-28663D01*
X20723Y-28750D01*
X20757Y-28921D01*
X20854Y-29066D01*
X21108Y-29320D01*
X21253Y-29417D01*
X21424Y-29451D01*
X23005Y-29451D01*
X22834Y-29522D01*
X22797Y-29626D01*
X23170Y-29999D01*
X23543Y-29626D01*
X23506Y-29522D01*
X23313Y-29451D01*
X23768Y-29451D01*
X23939Y-29417D01*
X24084Y-29320D01*
X24387Y-29017D01*
X24484Y-28872D01*
X24518Y-28701D01*
X24518Y-28526D01*
X25675Y-28526D01*
X25675Y-29004D01*
X25709Y-29175D01*
X25806Y-29320D01*
X26053Y-29567D01*
X26053Y-29595D01*
G54D10*
G36*
X26869Y-20563D02*
X26769Y-20563D01*
X26769Y-20463D01*
X26869Y-20463D01*
X26869Y-20563D01*
X26869Y-20563D01*
G37*
G54D43*
X26869Y-20563D02*
X26769Y-20563D01*
X26769Y-20463D01*
X26869Y-20463D01*
X26869Y-20563D01*
G54D10*
G36*
X28235Y-23013D02*
X28227Y-23033D01*
X28227Y-23120D01*
X28133Y-23081D01*
X27963Y-23081D01*
X27806Y-23146D01*
X27686Y-23265D01*
X27620Y-23422D01*
X27620Y-23498D01*
X27554Y-23498D01*
X27397Y-23563D01*
X27277Y-23682D01*
X27211Y-23839D01*
X27211Y-24009D01*
X27231Y-24058D01*
X27151Y-24139D01*
X27085Y-24296D01*
X27085Y-24466D01*
X27126Y-24566D01*
X27039Y-24566D01*
X27039Y-24572D01*
X27034Y-24567D01*
X27001Y-24567D01*
X26979Y-24576D01*
X26957Y-24567D01*
X26858Y-24567D01*
X26682Y-24567D01*
X26664Y-24574D01*
X26647Y-24567D01*
X26548Y-24567D01*
X26508Y-24567D01*
X26508Y-23992D01*
X26723Y-23776D01*
X26725Y-23775D01*
X26726Y-23775D01*
X26794Y-23672D01*
X26795Y-23671D01*
X26814Y-23574D01*
X26819Y-23550D01*
X26818Y-23549D01*
X26819Y-23549D01*
X26819Y-23496D01*
X26819Y-23335D01*
X26861Y-23294D01*
X26927Y-23137D01*
X26927Y-22967D01*
X26862Y-22810D01*
X26819Y-22766D01*
X26819Y-21943D01*
X26821Y-21938D01*
X26837Y-21977D01*
X26865Y-22005D01*
X26865Y-22024D01*
X26926Y-22085D01*
X26959Y-22085D01*
X26978Y-22076D01*
X26998Y-22085D01*
X27097Y-22085D01*
X27273Y-22085D01*
X27293Y-22076D01*
X27313Y-22085D01*
X27346Y-22085D01*
X27407Y-22024D01*
X27407Y-22005D01*
X27435Y-21977D01*
X27451Y-21938D01*
X27467Y-21977D01*
X27495Y-22005D01*
X27495Y-22024D01*
X27556Y-22085D01*
X27589Y-22085D01*
X27608Y-22076D01*
X27628Y-22085D01*
X27727Y-22085D01*
X27903Y-22085D01*
X27923Y-22076D01*
X27943Y-22085D01*
X28042Y-22085D01*
X28218Y-22085D01*
X28230Y-22079D01*
X28227Y-22089D01*
X28227Y-22188D01*
X28227Y-22364D01*
X28235Y-22383D01*
X28227Y-22403D01*
X28227Y-22502D01*
X28227Y-22678D01*
X28235Y-22698D01*
X28227Y-22719D01*
X28227Y-22818D01*
X28227Y-22994D01*
X28235Y-23013D01*
X28235Y-23013D01*
G37*
G54D43*
X28235Y-23013D02*
X28227Y-23033D01*
X28227Y-23120D01*
X28133Y-23081D01*
X27963Y-23081D01*
X27806Y-23146D01*
X27686Y-23265D01*
X27620Y-23422D01*
X27620Y-23498D01*
X27554Y-23498D01*
X27397Y-23563D01*
X27277Y-23682D01*
X27211Y-23839D01*
X27211Y-24009D01*
X27231Y-24058D01*
X27151Y-24139D01*
X27085Y-24296D01*
X27085Y-24466D01*
X27126Y-24566D01*
X27039Y-24566D01*
X27039Y-24572D01*
X27034Y-24567D01*
X27001Y-24567D01*
X26979Y-24576D01*
X26957Y-24567D01*
X26858Y-24567D01*
X26682Y-24567D01*
X26664Y-24574D01*
X26647Y-24567D01*
X26548Y-24567D01*
X26508Y-24567D01*
X26508Y-23992D01*
X26723Y-23776D01*
X26725Y-23775D01*
X26726Y-23775D01*
X26794Y-23672D01*
X26795Y-23671D01*
X26814Y-23574D01*
X26819Y-23550D01*
X26818Y-23549D01*
X26819Y-23549D01*
X26819Y-23496D01*
X26819Y-23335D01*
X26861Y-23294D01*
X26927Y-23137D01*
X26927Y-22967D01*
X26862Y-22810D01*
X26819Y-22766D01*
X26819Y-21943D01*
X26821Y-21938D01*
X26837Y-21977D01*
X26865Y-22005D01*
X26865Y-22024D01*
X26926Y-22085D01*
X26959Y-22085D01*
X26978Y-22076D01*
X26998Y-22085D01*
X27097Y-22085D01*
X27273Y-22085D01*
X27293Y-22076D01*
X27313Y-22085D01*
X27346Y-22085D01*
X27407Y-22024D01*
X27407Y-22005D01*
X27435Y-21977D01*
X27451Y-21938D01*
X27467Y-21977D01*
X27495Y-22005D01*
X27495Y-22024D01*
X27556Y-22085D01*
X27589Y-22085D01*
X27608Y-22076D01*
X27628Y-22085D01*
X27727Y-22085D01*
X27903Y-22085D01*
X27923Y-22076D01*
X27943Y-22085D01*
X28042Y-22085D01*
X28218Y-22085D01*
X28230Y-22079D01*
X28227Y-22089D01*
X28227Y-22188D01*
X28227Y-22364D01*
X28235Y-22383D01*
X28227Y-22403D01*
X28227Y-22502D01*
X28227Y-22678D01*
X28235Y-22698D01*
X28227Y-22719D01*
X28227Y-22818D01*
X28227Y-22994D01*
X28235Y-23013D01*
G54D10*
G36*
X31346Y-18678D02*
X29347Y-20677D01*
X29292Y-20677D01*
X29170Y-20701D01*
X29066Y-20770D01*
X29064Y-20772D01*
X28643Y-21193D01*
X28574Y-21297D01*
X28549Y-21419D01*
X28550Y-21423D01*
X28550Y-21890D01*
X28427Y-21890D01*
X28414Y-21895D01*
X28418Y-21886D01*
X28418Y-21787D01*
X28418Y-21147D01*
X30888Y-18676D01*
X30890Y-18675D01*
X30891Y-18675D01*
X30932Y-18613D01*
X30939Y-18602D01*
X30976Y-18587D01*
X31130Y-18433D01*
X31165Y-18348D01*
X31200Y-18433D01*
X31346Y-18579D01*
X31346Y-18678D01*
X31346Y-18678D01*
G37*
G54D43*
X31346Y-18678D02*
X29347Y-20677D01*
X29292Y-20677D01*
X29170Y-20701D01*
X29066Y-20770D01*
X29064Y-20772D01*
X28643Y-21193D01*
X28574Y-21297D01*
X28549Y-21419D01*
X28550Y-21423D01*
X28550Y-21890D01*
X28427Y-21890D01*
X28414Y-21895D01*
X28418Y-21886D01*
X28418Y-21787D01*
X28418Y-21147D01*
X30888Y-18676D01*
X30890Y-18675D01*
X30891Y-18675D01*
X30932Y-18613D01*
X30939Y-18602D01*
X30976Y-18587D01*
X31130Y-18433D01*
X31165Y-18348D01*
X31200Y-18433D01*
X31346Y-18579D01*
X31346Y-18678D01*
G54D10*
G36*
X34169Y-24238D02*
X34093Y-24270D01*
X33982Y-24380D01*
X33843Y-24255D01*
X33629Y-24180D01*
X33538Y-24236D01*
X33538Y-24656D01*
X33538Y-24706D01*
X33538Y-24806D01*
X33438Y-24806D01*
X33438Y-24706D01*
X33438Y-24236D01*
X33347Y-24180D01*
X33133Y-24255D01*
X32964Y-24406D01*
X32865Y-24611D01*
X32863Y-24616D01*
X32910Y-24706D01*
X33438Y-24706D01*
X33438Y-24806D01*
X33388Y-24806D01*
X32910Y-24806D01*
X32863Y-24896D01*
X32865Y-24901D01*
X32964Y-25106D01*
X33130Y-25254D01*
X33093Y-25270D01*
X32932Y-25431D01*
X32844Y-25641D01*
X32844Y-25869D01*
X32881Y-25958D01*
X32770Y-25937D01*
X32054Y-25937D01*
X31998Y-25947D01*
X31998Y-25014D01*
X31936Y-24952D01*
X31641Y-24952D01*
X31641Y-25215D01*
X31702Y-25276D01*
X31798Y-25276D01*
X31889Y-25238D01*
X31959Y-25168D01*
X31997Y-25076D01*
X31998Y-25014D01*
X31998Y-25947D01*
X31931Y-25961D01*
X31889Y-25988D01*
X31828Y-26030D01*
X31826Y-26032D01*
X31695Y-26163D01*
X31636Y-26163D01*
X31541Y-26202D01*
X31541Y-25215D01*
X31541Y-24952D01*
X31246Y-24952D01*
X31184Y-25014D01*
X31185Y-25076D01*
X31223Y-25168D01*
X31293Y-25238D01*
X31384Y-25276D01*
X31480Y-25276D01*
X31541Y-25215D01*
X31541Y-26202D01*
X31479Y-26228D01*
X31359Y-26347D01*
X31293Y-26504D01*
X31293Y-26674D01*
X31358Y-26831D01*
X31477Y-26951D01*
X31524Y-26971D01*
X29504Y-26971D01*
X29443Y-26909D01*
X29286Y-26843D01*
X29116Y-26843D01*
X28959Y-26908D01*
X28839Y-27027D01*
X28773Y-27184D01*
X28773Y-27354D01*
X28838Y-27511D01*
X28912Y-27586D01*
X28896Y-27627D01*
X28896Y-27726D01*
X28896Y-28214D01*
X28523Y-27841D01*
X28378Y-27744D01*
X28207Y-27710D01*
X27343Y-27710D01*
X26280Y-27710D01*
X26215Y-27666D01*
X26197Y-27662D01*
X26208Y-27608D01*
X26405Y-27412D01*
X26405Y-27483D01*
X26443Y-27574D01*
X26513Y-27644D01*
X26605Y-27682D01*
X26667Y-27683D01*
X26729Y-27621D01*
X26729Y-27376D01*
X26729Y-27326D01*
X26729Y-27226D01*
X26729Y-27176D01*
X26729Y-26992D01*
X26730Y-26991D01*
X26730Y-26746D01*
X26730Y-26696D01*
X26730Y-26596D01*
X26830Y-26596D01*
X26830Y-26696D01*
X26830Y-26746D01*
X26830Y-26930D01*
X26829Y-26931D01*
X26829Y-27176D01*
X26829Y-27226D01*
X26829Y-27326D01*
X26829Y-27376D01*
X26829Y-27621D01*
X26891Y-27683D01*
X26953Y-27682D01*
X27045Y-27644D01*
X27079Y-27610D01*
X27113Y-27644D01*
X27204Y-27682D01*
X27303Y-27682D01*
X27553Y-27682D01*
X27645Y-27644D01*
X27715Y-27574D01*
X27753Y-27483D01*
X27753Y-27384D01*
X27753Y-27070D01*
X27715Y-26978D01*
X27698Y-26961D01*
X27698Y-26754D01*
X27726Y-26754D01*
X27883Y-26689D01*
X28003Y-26570D01*
X28069Y-26413D01*
X28069Y-26243D01*
X28004Y-26086D01*
X27885Y-25966D01*
X27728Y-25900D01*
X27558Y-25900D01*
X27401Y-25965D01*
X27281Y-26084D01*
X27215Y-26241D01*
X27215Y-26302D01*
X27153Y-26364D01*
X27134Y-26392D01*
X27116Y-26348D01*
X27046Y-26278D01*
X27006Y-26261D01*
X27041Y-26180D01*
X27041Y-26084D01*
X27041Y-26083D01*
X27072Y-26036D01*
X27094Y-26004D01*
X27095Y-26003D01*
X27117Y-25890D01*
X27118Y-25889D01*
X27118Y-25743D01*
X27134Y-25704D01*
X27150Y-25743D01*
X27183Y-25776D01*
X27183Y-25790D01*
X27244Y-25851D01*
X27277Y-25851D01*
X27294Y-25843D01*
X27311Y-25851D01*
X27410Y-25851D01*
X27586Y-25851D01*
X27608Y-25841D01*
X27631Y-25851D01*
X27730Y-25851D01*
X27906Y-25851D01*
X27923Y-25843D01*
X27941Y-25851D01*
X28040Y-25851D01*
X28216Y-25851D01*
X28308Y-25813D01*
X28351Y-25769D01*
X28452Y-26012D01*
X28647Y-26207D01*
X28901Y-26313D01*
X29177Y-26313D01*
X29357Y-26238D01*
X29357Y-26287D01*
X29462Y-26542D01*
X29657Y-26737D01*
X29911Y-26843D01*
X30187Y-26843D01*
X30442Y-26738D01*
X30637Y-26543D01*
X30743Y-26289D01*
X30743Y-26033D01*
X30812Y-26033D01*
X30969Y-25968D01*
X31089Y-25849D01*
X31155Y-25692D01*
X31155Y-25522D01*
X31090Y-25365D01*
X31047Y-25321D01*
X31047Y-25202D01*
X31096Y-25153D01*
X31134Y-25062D01*
X31134Y-24963D01*
X31134Y-24713D01*
X31096Y-24621D01*
X31238Y-24621D01*
X31223Y-24636D01*
X31185Y-24728D01*
X31184Y-24790D01*
X31246Y-24852D01*
X31491Y-24852D01*
X31541Y-24852D01*
X31641Y-24852D01*
X31691Y-24852D01*
X31936Y-24852D01*
X31998Y-24790D01*
X31997Y-24728D01*
X31959Y-24636D01*
X31925Y-24602D01*
X31959Y-24568D01*
X31989Y-24494D01*
X32299Y-24185D01*
X32314Y-24169D01*
X32475Y-24169D01*
X32517Y-24211D01*
X32674Y-24277D01*
X32844Y-24277D01*
X33001Y-24212D01*
X33044Y-24169D01*
X34142Y-24169D01*
X34169Y-24195D01*
X34169Y-24238D01*
X34169Y-24238D01*
G37*
G54D43*
X34169Y-24238D02*
X34093Y-24270D01*
X33982Y-24380D01*
X33843Y-24255D01*
X33629Y-24180D01*
X33538Y-24236D01*
X33538Y-24656D01*
X33538Y-24706D01*
X33538Y-24806D01*
X33438Y-24806D01*
X33438Y-24706D01*
X33438Y-24236D01*
X33347Y-24180D01*
X33133Y-24255D01*
X32964Y-24406D01*
X32865Y-24611D01*
X32863Y-24616D01*
X32910Y-24706D01*
X33438Y-24706D01*
X33438Y-24806D01*
X33388Y-24806D01*
X32910Y-24806D01*
X32863Y-24896D01*
X32865Y-24901D01*
X32964Y-25106D01*
X33130Y-25254D01*
X33093Y-25270D01*
X32932Y-25431D01*
X32844Y-25641D01*
X32844Y-25869D01*
X32881Y-25958D01*
X32770Y-25937D01*
X32054Y-25937D01*
X31998Y-25947D01*
X31998Y-25014D01*
X31936Y-24952D01*
X31641Y-24952D01*
X31641Y-25215D01*
X31702Y-25276D01*
X31798Y-25276D01*
X31889Y-25238D01*
X31959Y-25168D01*
X31997Y-25076D01*
X31998Y-25014D01*
X31998Y-25947D01*
X31931Y-25961D01*
X31889Y-25988D01*
X31828Y-26030D01*
X31826Y-26032D01*
X31695Y-26163D01*
X31636Y-26163D01*
X31541Y-26202D01*
X31541Y-25215D01*
X31541Y-24952D01*
X31246Y-24952D01*
X31184Y-25014D01*
X31185Y-25076D01*
X31223Y-25168D01*
X31293Y-25238D01*
X31384Y-25276D01*
X31480Y-25276D01*
X31541Y-25215D01*
X31541Y-26202D01*
X31479Y-26228D01*
X31359Y-26347D01*
X31293Y-26504D01*
X31293Y-26674D01*
X31358Y-26831D01*
X31477Y-26951D01*
X31524Y-26971D01*
X29504Y-26971D01*
X29443Y-26909D01*
X29286Y-26843D01*
X29116Y-26843D01*
X28959Y-26908D01*
X28839Y-27027D01*
X28773Y-27184D01*
X28773Y-27354D01*
X28838Y-27511D01*
X28912Y-27586D01*
X28896Y-27627D01*
X28896Y-27726D01*
X28896Y-28214D01*
X28523Y-27841D01*
X28378Y-27744D01*
X28207Y-27710D01*
X27343Y-27710D01*
X26280Y-27710D01*
X26215Y-27666D01*
X26197Y-27662D01*
X26208Y-27608D01*
X26405Y-27412D01*
X26405Y-27483D01*
X26443Y-27574D01*
X26513Y-27644D01*
X26605Y-27682D01*
X26667Y-27683D01*
X26729Y-27621D01*
X26729Y-27376D01*
X26729Y-27326D01*
X26729Y-27226D01*
X26729Y-27176D01*
X26729Y-26992D01*
X26730Y-26991D01*
X26730Y-26746D01*
X26730Y-26696D01*
X26730Y-26596D01*
X26830Y-26596D01*
X26830Y-26696D01*
X26830Y-26746D01*
X26830Y-26930D01*
X26829Y-26931D01*
X26829Y-27176D01*
X26829Y-27226D01*
X26829Y-27326D01*
X26829Y-27376D01*
X26829Y-27621D01*
X26891Y-27683D01*
X26953Y-27682D01*
X27045Y-27644D01*
X27079Y-27610D01*
X27113Y-27644D01*
X27204Y-27682D01*
X27303Y-27682D01*
X27553Y-27682D01*
X27645Y-27644D01*
X27715Y-27574D01*
X27753Y-27483D01*
X27753Y-27384D01*
X27753Y-27070D01*
X27715Y-26978D01*
X27698Y-26961D01*
X27698Y-26754D01*
X27726Y-26754D01*
X27883Y-26689D01*
X28003Y-26570D01*
X28069Y-26413D01*
X28069Y-26243D01*
X28004Y-26086D01*
X27885Y-25966D01*
X27728Y-25900D01*
X27558Y-25900D01*
X27401Y-25965D01*
X27281Y-26084D01*
X27215Y-26241D01*
X27215Y-26302D01*
X27153Y-26364D01*
X27134Y-26392D01*
X27116Y-26348D01*
X27046Y-26278D01*
X27006Y-26261D01*
X27041Y-26180D01*
X27041Y-26084D01*
X27041Y-26083D01*
X27072Y-26036D01*
X27094Y-26004D01*
X27095Y-26003D01*
X27117Y-25890D01*
X27118Y-25889D01*
X27118Y-25743D01*
X27134Y-25704D01*
X27150Y-25743D01*
X27183Y-25776D01*
X27183Y-25790D01*
X27244Y-25851D01*
X27277Y-25851D01*
X27294Y-25843D01*
X27311Y-25851D01*
X27410Y-25851D01*
X27586Y-25851D01*
X27608Y-25841D01*
X27631Y-25851D01*
X27730Y-25851D01*
X27906Y-25851D01*
X27923Y-25843D01*
X27941Y-25851D01*
X28040Y-25851D01*
X28216Y-25851D01*
X28308Y-25813D01*
X28351Y-25769D01*
X28452Y-26012D01*
X28647Y-26207D01*
X28901Y-26313D01*
X29177Y-26313D01*
X29357Y-26238D01*
X29357Y-26287D01*
X29462Y-26542D01*
X29657Y-26737D01*
X29911Y-26843D01*
X30187Y-26843D01*
X30442Y-26738D01*
X30637Y-26543D01*
X30743Y-26289D01*
X30743Y-26033D01*
X30812Y-26033D01*
X30969Y-25968D01*
X31089Y-25849D01*
X31155Y-25692D01*
X31155Y-25522D01*
X31090Y-25365D01*
X31047Y-25321D01*
X31047Y-25202D01*
X31096Y-25153D01*
X31134Y-25062D01*
X31134Y-24963D01*
X31134Y-24713D01*
X31096Y-24621D01*
X31238Y-24621D01*
X31223Y-24636D01*
X31185Y-24728D01*
X31184Y-24790D01*
X31246Y-24852D01*
X31491Y-24852D01*
X31541Y-24852D01*
X31641Y-24852D01*
X31691Y-24852D01*
X31936Y-24852D01*
X31998Y-24790D01*
X31997Y-24728D01*
X31959Y-24636D01*
X31925Y-24602D01*
X31959Y-24568D01*
X31989Y-24494D01*
X32299Y-24185D01*
X32314Y-24169D01*
X32475Y-24169D01*
X32517Y-24211D01*
X32674Y-24277D01*
X32844Y-24277D01*
X33001Y-24212D01*
X33044Y-24169D01*
X34142Y-24169D01*
X34169Y-24195D01*
X34169Y-24238D01*
G54D10*
G36*
X35620Y-29522D02*
X35597Y-29499D01*
X35387Y-29411D01*
X35225Y-29411D01*
X35225Y-18129D01*
X35225Y-18019D01*
X35225Y-17919D01*
X35225Y-17809D01*
X35175Y-17596D01*
X35047Y-17419D01*
X34861Y-17304D01*
X34802Y-17287D01*
X34715Y-17334D01*
X34715Y-17919D01*
X35225Y-17919D01*
X35225Y-18019D01*
X34715Y-18019D01*
X34715Y-18604D01*
X34802Y-18651D01*
X34861Y-18634D01*
X35047Y-18519D01*
X35175Y-18342D01*
X35225Y-18129D01*
X35225Y-29411D01*
X35159Y-29411D01*
X35134Y-29421D01*
X35134Y-22180D01*
X35134Y-21960D01*
X35050Y-21756D01*
X34894Y-21600D01*
X34821Y-21570D01*
X34894Y-21540D01*
X35050Y-21384D01*
X35134Y-21180D01*
X35134Y-20960D01*
X35050Y-20756D01*
X34923Y-20629D01*
X35005Y-20596D01*
X35075Y-20526D01*
X35113Y-20435D01*
X35113Y-20336D01*
X35113Y-19706D01*
X35075Y-19614D01*
X35005Y-19544D01*
X34914Y-19506D01*
X34815Y-19506D01*
X34067Y-19506D01*
X33975Y-19544D01*
X33905Y-19614D01*
X33867Y-19705D01*
X33867Y-19804D01*
X33867Y-20434D01*
X33905Y-20526D01*
X33975Y-20596D01*
X34056Y-20629D01*
X33930Y-20756D01*
X33846Y-20960D01*
X33846Y-21180D01*
X33930Y-21384D01*
X34086Y-21540D01*
X34158Y-21570D01*
X34086Y-21600D01*
X33930Y-21756D01*
X33846Y-21960D01*
X33846Y-22180D01*
X33930Y-22384D01*
X34086Y-22540D01*
X34163Y-22571D01*
X34143Y-22578D01*
X33975Y-22718D01*
X33874Y-22912D01*
X33865Y-22933D01*
X33912Y-23020D01*
X34390Y-23020D01*
X34440Y-23020D01*
X34540Y-23020D01*
X34590Y-23020D01*
X35068Y-23020D01*
X35115Y-22933D01*
X35106Y-22912D01*
X35005Y-22718D01*
X34837Y-22578D01*
X34816Y-22571D01*
X34894Y-22540D01*
X35050Y-22384D01*
X35134Y-22180D01*
X35134Y-29421D01*
X34948Y-29498D01*
X34787Y-29659D01*
X34772Y-29694D01*
X34758Y-29660D01*
X34597Y-29499D01*
X34387Y-29411D01*
X34159Y-29411D01*
X33948Y-29498D01*
X33843Y-29602D01*
X33817Y-29540D01*
X33747Y-29470D01*
X33655Y-29432D01*
X33384Y-29431D01*
X33322Y-29493D01*
X33322Y-29955D01*
X33322Y-30005D01*
X33322Y-30105D01*
X33222Y-30105D01*
X33222Y-30005D01*
X33222Y-29493D01*
X33160Y-29431D01*
X32889Y-29432D01*
X32797Y-29470D01*
X32727Y-29540D01*
X32689Y-29631D01*
X32689Y-29730D01*
X32688Y-29943D01*
X32750Y-30005D01*
X33222Y-30005D01*
X33222Y-30105D01*
X33172Y-30105D01*
X32750Y-30105D01*
X32688Y-30167D01*
X32689Y-30380D01*
X32689Y-30467D01*
X32075Y-30467D01*
X31968Y-30467D01*
X31973Y-30462D01*
X31935Y-30424D01*
X31988Y-30406D01*
X32075Y-30170D01*
X32065Y-29920D01*
X31988Y-29734D01*
X31884Y-29697D01*
X31813Y-29768D01*
X31813Y-29626D01*
X31776Y-29522D01*
X31540Y-29435D01*
X31290Y-29445D01*
X31104Y-29522D01*
X31067Y-29626D01*
X31440Y-29999D01*
X31813Y-29626D01*
X31813Y-29768D01*
X31546Y-30035D01*
X31511Y-30070D01*
X31440Y-30141D01*
X31369Y-30070D01*
X31334Y-30035D01*
X30996Y-29697D01*
X30892Y-29734D01*
X30805Y-29970D01*
X30815Y-30220D01*
X30892Y-30406D01*
X30944Y-30424D01*
X30907Y-30462D01*
X30912Y-30467D01*
X30075Y-30467D01*
X29968Y-30467D01*
X29973Y-30462D01*
X29935Y-30424D01*
X29988Y-30406D01*
X30075Y-30170D01*
X30065Y-29920D01*
X29988Y-29734D01*
X29884Y-29697D01*
X29546Y-30035D01*
X29511Y-30070D01*
X29440Y-30141D01*
X29369Y-30070D01*
X29334Y-30035D01*
X28996Y-29697D01*
X28892Y-29734D01*
X28805Y-29970D01*
X28815Y-30220D01*
X28892Y-30406D01*
X28944Y-30424D01*
X28907Y-30462D01*
X28912Y-30467D01*
X27993Y-30467D01*
X28073Y-30277D01*
X28073Y-30049D01*
X28073Y-29907D01*
X27986Y-29696D01*
X27825Y-29535D01*
X27615Y-29447D01*
X27387Y-29447D01*
X27176Y-29534D01*
X27015Y-29695D01*
X27000Y-29730D01*
X26986Y-29696D01*
X26947Y-29657D01*
X26947Y-29382D01*
X26918Y-29238D01*
X26913Y-29211D01*
X26913Y-29210D01*
X26816Y-29066D01*
X26569Y-28819D01*
X26569Y-28604D01*
X27343Y-28604D01*
X28022Y-28604D01*
X28783Y-29365D01*
X28784Y-29366D01*
X28928Y-29462D01*
X28929Y-29463D01*
X29099Y-29496D01*
X29100Y-29497D01*
X29164Y-29497D01*
X29104Y-29522D01*
X29067Y-29626D01*
X29440Y-29999D01*
X29813Y-29626D01*
X29776Y-29522D01*
X29708Y-29497D01*
X31050Y-29497D01*
X31221Y-29463D01*
X31366Y-29366D01*
X31756Y-28976D01*
X31853Y-28832D01*
X31853Y-28831D01*
X31886Y-28663D01*
X31946Y-28604D01*
X31984Y-28513D01*
X31984Y-28414D01*
X31984Y-27628D01*
X31959Y-27569D01*
X32526Y-27569D01*
X32718Y-27761D01*
X32719Y-27761D01*
X32783Y-27803D01*
X32815Y-27825D01*
X32816Y-27826D01*
X32929Y-27848D01*
X32930Y-27849D01*
X33940Y-27849D01*
X33940Y-27848D01*
X34035Y-27829D01*
X34054Y-27826D01*
X34055Y-27826D01*
X34151Y-27761D01*
X34573Y-27339D01*
X34911Y-27339D01*
X35003Y-27301D01*
X35073Y-27231D01*
X35111Y-27140D01*
X35111Y-27041D01*
X35111Y-26373D01*
X35073Y-26281D01*
X35003Y-26211D01*
X34940Y-26184D01*
X35044Y-26081D01*
X35132Y-25871D01*
X35132Y-25643D01*
X35045Y-25432D01*
X34884Y-25271D01*
X34848Y-25256D01*
X34883Y-25242D01*
X35044Y-25081D01*
X35132Y-24871D01*
X35132Y-24643D01*
X35115Y-24601D01*
X35045Y-24432D01*
X34884Y-24271D01*
X34807Y-24238D01*
X34807Y-24063D01*
X34783Y-23941D01*
X34714Y-23837D01*
X34711Y-23835D01*
X34511Y-23635D01*
X34590Y-23635D01*
X34590Y-23601D01*
X34628Y-23627D01*
X34837Y-23562D01*
X35005Y-23422D01*
X35106Y-23228D01*
X35115Y-23207D01*
X35068Y-23120D01*
X34590Y-23120D01*
X34540Y-23120D01*
X34440Y-23120D01*
X34390Y-23120D01*
X33912Y-23120D01*
X33865Y-23207D01*
X33874Y-23228D01*
X33975Y-23422D01*
X34105Y-23531D01*
X33044Y-23531D01*
X33003Y-23489D01*
X32846Y-23423D01*
X32676Y-23423D01*
X32519Y-23488D01*
X32475Y-23531D01*
X32186Y-23531D01*
X32182Y-23530D01*
X32060Y-23555D01*
X31956Y-23624D01*
X31954Y-23626D01*
X31847Y-23733D01*
X31652Y-23928D01*
X31385Y-23928D01*
X31293Y-23966D01*
X31276Y-23983D01*
X31058Y-23983D01*
X31047Y-23972D01*
X31047Y-23708D01*
X31023Y-23586D01*
X31023Y-23585D01*
X30995Y-23543D01*
X30954Y-23482D01*
X30951Y-23480D01*
X30476Y-23005D01*
X31283Y-22197D01*
X31285Y-22196D01*
X31286Y-22196D01*
X31365Y-22116D01*
X31525Y-22116D01*
X31682Y-22051D01*
X31692Y-22041D01*
X31692Y-22405D01*
X31627Y-22470D01*
X31561Y-22627D01*
X31561Y-22797D01*
X31626Y-22954D01*
X31745Y-23074D01*
X31902Y-23140D01*
X32072Y-23140D01*
X32229Y-23075D01*
X32336Y-22968D01*
X32355Y-22987D01*
X32512Y-23053D01*
X32682Y-23053D01*
X32839Y-22988D01*
X32959Y-22869D01*
X33025Y-22712D01*
X33025Y-22542D01*
X32960Y-22385D01*
X32930Y-22354D01*
X32930Y-20169D01*
X32947Y-20152D01*
X32985Y-20061D01*
X32985Y-19962D01*
X32985Y-19651D01*
X33888Y-18747D01*
X33890Y-18746D01*
X33891Y-18746D01*
X33959Y-18643D01*
X33960Y-18642D01*
X33970Y-18589D01*
X33976Y-18587D01*
X34130Y-18433D01*
X34163Y-18353D01*
X34283Y-18519D01*
X34469Y-18634D01*
X34528Y-18651D01*
X34615Y-18604D01*
X34615Y-18069D01*
X34615Y-18019D01*
X34615Y-17919D01*
X34615Y-17869D01*
X34615Y-17334D01*
X34528Y-17287D01*
X34469Y-17304D01*
X34283Y-17419D01*
X34163Y-17584D01*
X34130Y-17505D01*
X33976Y-17351D01*
X33774Y-17267D01*
X33556Y-17267D01*
X33354Y-17351D01*
X33200Y-17505D01*
X33165Y-17589D01*
X33130Y-17505D01*
X32976Y-17351D01*
X32774Y-17267D01*
X32556Y-17267D01*
X32354Y-17351D01*
X32200Y-17505D01*
X32165Y-17589D01*
X32130Y-17505D01*
X31976Y-17351D01*
X31774Y-17267D01*
X31556Y-17267D01*
X31354Y-17351D01*
X31200Y-17505D01*
X31165Y-17589D01*
X31130Y-17505D01*
X30976Y-17351D01*
X30774Y-17267D01*
X30556Y-17267D01*
X30354Y-17351D01*
X30200Y-17505D01*
X30165Y-17589D01*
X30130Y-17505D01*
X29976Y-17351D01*
X29774Y-17267D01*
X29556Y-17267D01*
X29354Y-17351D01*
X29200Y-17505D01*
X29165Y-17589D01*
X29130Y-17505D01*
X28976Y-17351D01*
X28774Y-17267D01*
X28556Y-17267D01*
X28354Y-17351D01*
X28200Y-17505D01*
X28165Y-17589D01*
X28130Y-17505D01*
X27976Y-17351D01*
X27774Y-17267D01*
X27556Y-17267D01*
X27354Y-17351D01*
X27224Y-17481D01*
X27224Y-17470D01*
X27186Y-17378D01*
X27116Y-17308D01*
X27025Y-17270D01*
X26926Y-17270D01*
X26306Y-17270D01*
X26214Y-17308D01*
X26144Y-17378D01*
X26106Y-17469D01*
X26106Y-17568D01*
X26106Y-18468D01*
X26144Y-18560D01*
X26159Y-18575D01*
X25992Y-18575D01*
X25870Y-18599D01*
X25766Y-18668D01*
X25708Y-18754D01*
X25673Y-18789D01*
X25673Y-14296D01*
X25611Y-14211D01*
X25180Y-14211D01*
X25180Y-14739D01*
X25265Y-14786D01*
X25299Y-14772D01*
X25484Y-14668D01*
X25616Y-14501D01*
X25673Y-14296D01*
X25673Y-18789D01*
X25485Y-18978D01*
X25485Y-18959D01*
X25485Y-18709D01*
X25447Y-18617D01*
X25413Y-18583D01*
X25447Y-18549D01*
X25485Y-18457D01*
X25486Y-18395D01*
X25486Y-18171D01*
X25485Y-18109D01*
X25447Y-18017D01*
X25377Y-17947D01*
X25286Y-17909D01*
X25190Y-17909D01*
X25129Y-17970D01*
X25129Y-18233D01*
X25424Y-18233D01*
X25486Y-18171D01*
X25486Y-18395D01*
X25424Y-18333D01*
X25179Y-18333D01*
X25129Y-18333D01*
X25029Y-18333D01*
X25029Y-18233D01*
X25029Y-17970D01*
X24968Y-17909D01*
X24872Y-17909D01*
X24781Y-17947D01*
X24711Y-18017D01*
X24673Y-18109D01*
X24672Y-18171D01*
X24734Y-18233D01*
X25029Y-18233D01*
X25029Y-18333D01*
X24979Y-18333D01*
X24734Y-18333D01*
X24672Y-18395D01*
X24673Y-18457D01*
X24711Y-18549D01*
X24745Y-18583D01*
X24711Y-18617D01*
X24673Y-18708D01*
X24673Y-18807D01*
X24673Y-18837D01*
X24313Y-19197D01*
X24304Y-19197D01*
X24104Y-19197D01*
X24012Y-19235D01*
X24003Y-19244D01*
X23994Y-19235D01*
X23903Y-19197D01*
X23804Y-19197D01*
X23604Y-19197D01*
X23512Y-19235D01*
X23503Y-19244D01*
X23494Y-19235D01*
X23403Y-19197D01*
X23304Y-19197D01*
X23104Y-19197D01*
X23012Y-19235D01*
X23003Y-19244D01*
X22994Y-19235D01*
X22903Y-19197D01*
X22804Y-19197D01*
X22604Y-19197D01*
X22512Y-19235D01*
X22503Y-19244D01*
X22494Y-19235D01*
X22403Y-19197D01*
X22304Y-19197D01*
X22104Y-19197D01*
X22012Y-19235D01*
X22003Y-19244D01*
X21994Y-19235D01*
X21903Y-19197D01*
X21804Y-19197D01*
X21604Y-19197D01*
X21572Y-19210D01*
X21572Y-19116D01*
X21571Y-19115D01*
X21572Y-19115D01*
X21567Y-19091D01*
X21548Y-18994D01*
X21547Y-18993D01*
X21479Y-18890D01*
X21476Y-18888D01*
X21470Y-18881D01*
X21470Y-18822D01*
X21405Y-18665D01*
X21286Y-18545D01*
X21129Y-18479D01*
X20959Y-18479D01*
X20802Y-18544D01*
X20682Y-18663D01*
X20642Y-18757D01*
X20638Y-18753D01*
X20638Y-18145D01*
X20641Y-18146D01*
X20703Y-18084D01*
X20703Y-17771D01*
X20703Y-17721D01*
X20703Y-17621D01*
X20803Y-17621D01*
X20803Y-17721D01*
X20803Y-17771D01*
X20803Y-18084D01*
X20865Y-18146D01*
X20902Y-18145D01*
X20994Y-18107D01*
X21003Y-18098D01*
X21012Y-18107D01*
X21103Y-18145D01*
X21202Y-18145D01*
X21402Y-18145D01*
X21494Y-18107D01*
X21503Y-18098D01*
X21512Y-18107D01*
X21603Y-18145D01*
X21702Y-18145D01*
X21902Y-18145D01*
X21994Y-18107D01*
X22003Y-18098D01*
X22012Y-18107D01*
X22103Y-18145D01*
X22202Y-18145D01*
X22402Y-18145D01*
X22494Y-18107D01*
X22503Y-18098D01*
X22512Y-18107D01*
X22603Y-18145D01*
X22702Y-18145D01*
X22902Y-18145D01*
X22994Y-18107D01*
X23003Y-18098D01*
X23012Y-18107D01*
X23103Y-18145D01*
X23202Y-18145D01*
X23402Y-18145D01*
X23494Y-18107D01*
X23503Y-18098D01*
X23512Y-18107D01*
X23603Y-18145D01*
X23702Y-18145D01*
X23902Y-18145D01*
X23994Y-18107D01*
X24003Y-18098D01*
X24012Y-18107D01*
X24103Y-18145D01*
X24202Y-18145D01*
X24402Y-18145D01*
X24494Y-18107D01*
X24564Y-18037D01*
X24602Y-17946D01*
X24602Y-17847D01*
X24602Y-17397D01*
X24572Y-17324D01*
X24572Y-17166D01*
X24569Y-17153D01*
X24569Y-17152D01*
X24607Y-17062D01*
X24607Y-16963D01*
X24607Y-16713D01*
X24569Y-16621D01*
X24535Y-16587D01*
X24569Y-16553D01*
X24607Y-16462D01*
X24607Y-16363D01*
X24607Y-16113D01*
X24569Y-16021D01*
X24500Y-15952D01*
X24500Y-15445D01*
X24837Y-15108D01*
X24902Y-15012D01*
X24902Y-15011D01*
X24905Y-14992D01*
X24924Y-14897D01*
X24925Y-14897D01*
X24925Y-14751D01*
X24961Y-14772D01*
X24995Y-14786D01*
X25080Y-14739D01*
X25080Y-14261D01*
X25080Y-14211D01*
X25080Y-14111D01*
X25180Y-14111D01*
X25230Y-14111D01*
X25611Y-14111D01*
X25673Y-14026D01*
X25616Y-13821D01*
X25493Y-13666D01*
X25587Y-13572D01*
X25670Y-13374D01*
X25670Y-13159D01*
X25670Y-12949D01*
X25588Y-12750D01*
X25498Y-12661D01*
X25587Y-12572D01*
X25670Y-12374D01*
X25670Y-12159D01*
X25670Y-11949D01*
X25633Y-11860D01*
X26725Y-11860D01*
X26680Y-11968D01*
X26680Y-12183D01*
X26680Y-12393D01*
X26762Y-12592D01*
X26709Y-12647D01*
X26671Y-12738D01*
X26671Y-12837D01*
X26671Y-13623D01*
X26709Y-13715D01*
X26740Y-13746D01*
X26349Y-14137D01*
X26252Y-14282D01*
X26218Y-14453D01*
X26218Y-14487D01*
X26200Y-14505D01*
X26116Y-14707D01*
X26116Y-14925D01*
X26116Y-15231D01*
X26200Y-15433D01*
X26354Y-15587D01*
X26556Y-15671D01*
X26774Y-15671D01*
X26976Y-15587D01*
X27130Y-15433D01*
X27165Y-15348D01*
X27200Y-15433D01*
X27354Y-15587D01*
X27556Y-15671D01*
X27774Y-15671D01*
X27976Y-15587D01*
X28130Y-15433D01*
X28165Y-15348D01*
X28200Y-15433D01*
X28354Y-15587D01*
X28556Y-15671D01*
X28774Y-15671D01*
X28976Y-15587D01*
X29130Y-15433D01*
X29165Y-15348D01*
X29200Y-15433D01*
X29354Y-15587D01*
X29556Y-15671D01*
X29774Y-15671D01*
X29976Y-15587D01*
X30130Y-15433D01*
X30165Y-15348D01*
X30200Y-15433D01*
X30354Y-15587D01*
X30556Y-15671D01*
X30774Y-15671D01*
X30976Y-15587D01*
X31130Y-15433D01*
X31165Y-15348D01*
X31200Y-15433D01*
X31354Y-15587D01*
X31556Y-15671D01*
X31774Y-15671D01*
X31976Y-15587D01*
X32130Y-15433D01*
X32165Y-15348D01*
X32200Y-15433D01*
X32354Y-15587D01*
X32556Y-15671D01*
X32774Y-15671D01*
X32976Y-15587D01*
X33130Y-15433D01*
X33165Y-15348D01*
X33200Y-15433D01*
X33354Y-15587D01*
X33556Y-15671D01*
X33774Y-15671D01*
X33976Y-15587D01*
X34130Y-15433D01*
X34165Y-15348D01*
X34200Y-15433D01*
X34354Y-15587D01*
X34556Y-15671D01*
X34774Y-15671D01*
X34976Y-15587D01*
X35057Y-15506D01*
X35057Y-15693D01*
X34944Y-15806D01*
X34847Y-15951D01*
X34813Y-16122D01*
X34847Y-16293D01*
X34944Y-16438D01*
X35089Y-16535D01*
X35260Y-16569D01*
X35431Y-16535D01*
X35576Y-16438D01*
X35620Y-16394D01*
X35620Y-29522D01*
X35620Y-29522D01*
G37*
G54D43*
X35620Y-29522D02*
X35597Y-29499D01*
X35387Y-29411D01*
X35225Y-29411D01*
X35225Y-18129D01*
X35225Y-18019D01*
X35225Y-17919D01*
X35225Y-17809D01*
X35175Y-17596D01*
X35047Y-17419D01*
X34861Y-17304D01*
X34802Y-17287D01*
X34715Y-17334D01*
X34715Y-17919D01*
X35225Y-17919D01*
X35225Y-18019D01*
X34715Y-18019D01*
X34715Y-18604D01*
X34802Y-18651D01*
X34861Y-18634D01*
X35047Y-18519D01*
X35175Y-18342D01*
X35225Y-18129D01*
X35225Y-29411D01*
X35159Y-29411D01*
X35134Y-29421D01*
X35134Y-22180D01*
X35134Y-21960D01*
X35050Y-21756D01*
X34894Y-21600D01*
X34821Y-21570D01*
X34894Y-21540D01*
X35050Y-21384D01*
X35134Y-21180D01*
X35134Y-20960D01*
X35050Y-20756D01*
X34923Y-20629D01*
X35005Y-20596D01*
X35075Y-20526D01*
X35113Y-20435D01*
X35113Y-20336D01*
X35113Y-19706D01*
X35075Y-19614D01*
X35005Y-19544D01*
X34914Y-19506D01*
X34815Y-19506D01*
X34067Y-19506D01*
X33975Y-19544D01*
X33905Y-19614D01*
X33867Y-19705D01*
X33867Y-19804D01*
X33867Y-20434D01*
X33905Y-20526D01*
X33975Y-20596D01*
X34056Y-20629D01*
X33930Y-20756D01*
X33846Y-20960D01*
X33846Y-21180D01*
X33930Y-21384D01*
X34086Y-21540D01*
X34158Y-21570D01*
X34086Y-21600D01*
X33930Y-21756D01*
X33846Y-21960D01*
X33846Y-22180D01*
X33930Y-22384D01*
X34086Y-22540D01*
X34163Y-22571D01*
X34143Y-22578D01*
X33975Y-22718D01*
X33874Y-22912D01*
X33865Y-22933D01*
X33912Y-23020D01*
X34390Y-23020D01*
X34440Y-23020D01*
X34540Y-23020D01*
X34590Y-23020D01*
X35068Y-23020D01*
X35115Y-22933D01*
X35106Y-22912D01*
X35005Y-22718D01*
X34837Y-22578D01*
X34816Y-22571D01*
X34894Y-22540D01*
X35050Y-22384D01*
X35134Y-22180D01*
X35134Y-29421D01*
X34948Y-29498D01*
X34787Y-29659D01*
X34772Y-29694D01*
X34758Y-29660D01*
X34597Y-29499D01*
X34387Y-29411D01*
X34159Y-29411D01*
X33948Y-29498D01*
X33843Y-29602D01*
X33817Y-29540D01*
X33747Y-29470D01*
X33655Y-29432D01*
X33384Y-29431D01*
X33322Y-29493D01*
X33322Y-29955D01*
X33322Y-30005D01*
X33322Y-30105D01*
X33222Y-30105D01*
X33222Y-30005D01*
X33222Y-29493D01*
X33160Y-29431D01*
X32889Y-29432D01*
X32797Y-29470D01*
X32727Y-29540D01*
X32689Y-29631D01*
X32689Y-29730D01*
X32688Y-29943D01*
X32750Y-30005D01*
X33222Y-30005D01*
X33222Y-30105D01*
X33172Y-30105D01*
X32750Y-30105D01*
X32688Y-30167D01*
X32689Y-30380D01*
X32689Y-30467D01*
X32075Y-30467D01*
X31968Y-30467D01*
X31973Y-30462D01*
X31935Y-30424D01*
X31988Y-30406D01*
X32075Y-30170D01*
X32065Y-29920D01*
X31988Y-29734D01*
X31884Y-29697D01*
X31813Y-29768D01*
X31813Y-29626D01*
X31776Y-29522D01*
X31540Y-29435D01*
X31290Y-29445D01*
X31104Y-29522D01*
X31067Y-29626D01*
X31440Y-29999D01*
X31813Y-29626D01*
X31813Y-29768D01*
X31546Y-30035D01*
X31511Y-30070D01*
X31440Y-30141D01*
X31369Y-30070D01*
X31334Y-30035D01*
X30996Y-29697D01*
X30892Y-29734D01*
X30805Y-29970D01*
X30815Y-30220D01*
X30892Y-30406D01*
X30944Y-30424D01*
X30907Y-30462D01*
X30912Y-30467D01*
X30075Y-30467D01*
X29968Y-30467D01*
X29973Y-30462D01*
X29935Y-30424D01*
X29988Y-30406D01*
X30075Y-30170D01*
X30065Y-29920D01*
X29988Y-29734D01*
X29884Y-29697D01*
X29546Y-30035D01*
X29511Y-30070D01*
X29440Y-30141D01*
X29369Y-30070D01*
X29334Y-30035D01*
X28996Y-29697D01*
X28892Y-29734D01*
X28805Y-29970D01*
X28815Y-30220D01*
X28892Y-30406D01*
X28944Y-30424D01*
X28907Y-30462D01*
X28912Y-30467D01*
X27993Y-30467D01*
X28073Y-30277D01*
X28073Y-30049D01*
X28073Y-29907D01*
X27986Y-29696D01*
X27825Y-29535D01*
X27615Y-29447D01*
X27387Y-29447D01*
X27176Y-29534D01*
X27015Y-29695D01*
X27000Y-29730D01*
X26986Y-29696D01*
X26947Y-29657D01*
X26947Y-29382D01*
X26918Y-29238D01*
X26913Y-29211D01*
X26913Y-29210D01*
X26816Y-29066D01*
X26569Y-28819D01*
X26569Y-28604D01*
X27343Y-28604D01*
X28022Y-28604D01*
X28783Y-29365D01*
X28784Y-29366D01*
X28928Y-29462D01*
X28929Y-29463D01*
X29099Y-29496D01*
X29100Y-29497D01*
X29164Y-29497D01*
X29104Y-29522D01*
X29067Y-29626D01*
X29440Y-29999D01*
X29813Y-29626D01*
X29776Y-29522D01*
X29708Y-29497D01*
X31050Y-29497D01*
X31221Y-29463D01*
X31366Y-29366D01*
X31756Y-28976D01*
X31853Y-28832D01*
X31853Y-28831D01*
X31886Y-28663D01*
X31946Y-28604D01*
X31984Y-28513D01*
X31984Y-28414D01*
X31984Y-27628D01*
X31959Y-27569D01*
X32526Y-27569D01*
X32718Y-27761D01*
X32719Y-27761D01*
X32783Y-27803D01*
X32815Y-27825D01*
X32816Y-27826D01*
X32929Y-27848D01*
X32930Y-27849D01*
X33940Y-27849D01*
X33940Y-27848D01*
X34035Y-27829D01*
X34054Y-27826D01*
X34055Y-27826D01*
X34151Y-27761D01*
X34573Y-27339D01*
X34911Y-27339D01*
X35003Y-27301D01*
X35073Y-27231D01*
X35111Y-27140D01*
X35111Y-27041D01*
X35111Y-26373D01*
X35073Y-26281D01*
X35003Y-26211D01*
X34940Y-26184D01*
X35044Y-26081D01*
X35132Y-25871D01*
X35132Y-25643D01*
X35045Y-25432D01*
X34884Y-25271D01*
X34848Y-25256D01*
X34883Y-25242D01*
X35044Y-25081D01*
X35132Y-24871D01*
X35132Y-24643D01*
X35115Y-24601D01*
X35045Y-24432D01*
X34884Y-24271D01*
X34807Y-24238D01*
X34807Y-24063D01*
X34783Y-23941D01*
X34714Y-23837D01*
X34711Y-23835D01*
X34511Y-23635D01*
X34590Y-23635D01*
X34590Y-23601D01*
X34628Y-23627D01*
X34837Y-23562D01*
X35005Y-23422D01*
X35106Y-23228D01*
X35115Y-23207D01*
X35068Y-23120D01*
X34590Y-23120D01*
X34540Y-23120D01*
X34440Y-23120D01*
X34390Y-23120D01*
X33912Y-23120D01*
X33865Y-23207D01*
X33874Y-23228D01*
X33975Y-23422D01*
X34105Y-23531D01*
X33044Y-23531D01*
X33003Y-23489D01*
X32846Y-23423D01*
X32676Y-23423D01*
X32519Y-23488D01*
X32475Y-23531D01*
X32186Y-23531D01*
X32182Y-23530D01*
X32060Y-23555D01*
X31956Y-23624D01*
X31954Y-23626D01*
X31847Y-23733D01*
X31652Y-23928D01*
X31385Y-23928D01*
X31293Y-23966D01*
X31276Y-23983D01*
X31058Y-23983D01*
X31047Y-23972D01*
X31047Y-23708D01*
X31023Y-23586D01*
X31023Y-23585D01*
X30995Y-23543D01*
X30954Y-23482D01*
X30951Y-23480D01*
X30476Y-23005D01*
X31283Y-22197D01*
X31285Y-22196D01*
X31286Y-22196D01*
X31365Y-22116D01*
X31525Y-22116D01*
X31682Y-22051D01*
X31692Y-22041D01*
X31692Y-22405D01*
X31627Y-22470D01*
X31561Y-22627D01*
X31561Y-22797D01*
X31626Y-22954D01*
X31745Y-23074D01*
X31902Y-23140D01*
X32072Y-23140D01*
X32229Y-23075D01*
X32336Y-22968D01*
X32355Y-22987D01*
X32512Y-23053D01*
X32682Y-23053D01*
X32839Y-22988D01*
X32959Y-22869D01*
X33025Y-22712D01*
X33025Y-22542D01*
X32960Y-22385D01*
X32930Y-22354D01*
X32930Y-20169D01*
X32947Y-20152D01*
X32985Y-20061D01*
X32985Y-19962D01*
X32985Y-19651D01*
X33888Y-18747D01*
X33890Y-18746D01*
X33891Y-18746D01*
X33959Y-18643D01*
X33960Y-18642D01*
X33970Y-18589D01*
X33976Y-18587D01*
X34130Y-18433D01*
X34163Y-18353D01*
X34283Y-18519D01*
X34469Y-18634D01*
X34528Y-18651D01*
X34615Y-18604D01*
X34615Y-18069D01*
X34615Y-18019D01*
X34615Y-17919D01*
X34615Y-17869D01*
X34615Y-17334D01*
X34528Y-17287D01*
X34469Y-17304D01*
X34283Y-17419D01*
X34163Y-17584D01*
X34130Y-17505D01*
X33976Y-17351D01*
X33774Y-17267D01*
X33556Y-17267D01*
X33354Y-17351D01*
X33200Y-17505D01*
X33165Y-17589D01*
X33130Y-17505D01*
X32976Y-17351D01*
X32774Y-17267D01*
X32556Y-17267D01*
X32354Y-17351D01*
X32200Y-17505D01*
X32165Y-17589D01*
X32130Y-17505D01*
X31976Y-17351D01*
X31774Y-17267D01*
X31556Y-17267D01*
X31354Y-17351D01*
X31200Y-17505D01*
X31165Y-17589D01*
X31130Y-17505D01*
X30976Y-17351D01*
X30774Y-17267D01*
X30556Y-17267D01*
X30354Y-17351D01*
X30200Y-17505D01*
X30165Y-17589D01*
X30130Y-17505D01*
X29976Y-17351D01*
X29774Y-17267D01*
X29556Y-17267D01*
X29354Y-17351D01*
X29200Y-17505D01*
X29165Y-17589D01*
X29130Y-17505D01*
X28976Y-17351D01*
X28774Y-17267D01*
X28556Y-17267D01*
X28354Y-17351D01*
X28200Y-17505D01*
X28165Y-17589D01*
X28130Y-17505D01*
X27976Y-17351D01*
X27774Y-17267D01*
X27556Y-17267D01*
X27354Y-17351D01*
X27224Y-17481D01*
X27224Y-17470D01*
X27186Y-17378D01*
X27116Y-17308D01*
X27025Y-17270D01*
X26926Y-17270D01*
X26306Y-17270D01*
X26214Y-17308D01*
X26144Y-17378D01*
X26106Y-17469D01*
X26106Y-17568D01*
X26106Y-18468D01*
X26144Y-18560D01*
X26159Y-18575D01*
X25992Y-18575D01*
X25870Y-18599D01*
X25766Y-18668D01*
X25708Y-18754D01*
X25673Y-18789D01*
X25673Y-14296D01*
X25611Y-14211D01*
X25180Y-14211D01*
X25180Y-14739D01*
X25265Y-14786D01*
X25299Y-14772D01*
X25484Y-14668D01*
X25616Y-14501D01*
X25673Y-14296D01*
X25673Y-18789D01*
X25485Y-18978D01*
X25485Y-18959D01*
X25485Y-18709D01*
X25447Y-18617D01*
X25413Y-18583D01*
X25447Y-18549D01*
X25485Y-18457D01*
X25486Y-18395D01*
X25486Y-18171D01*
X25485Y-18109D01*
X25447Y-18017D01*
X25377Y-17947D01*
X25286Y-17909D01*
X25190Y-17909D01*
X25129Y-17970D01*
X25129Y-18233D01*
X25424Y-18233D01*
X25486Y-18171D01*
X25486Y-18395D01*
X25424Y-18333D01*
X25179Y-18333D01*
X25129Y-18333D01*
X25029Y-18333D01*
X25029Y-18233D01*
X25029Y-17970D01*
X24968Y-17909D01*
X24872Y-17909D01*
X24781Y-17947D01*
X24711Y-18017D01*
X24673Y-18109D01*
X24672Y-18171D01*
X24734Y-18233D01*
X25029Y-18233D01*
X25029Y-18333D01*
X24979Y-18333D01*
X24734Y-18333D01*
X24672Y-18395D01*
X24673Y-18457D01*
X24711Y-18549D01*
X24745Y-18583D01*
X24711Y-18617D01*
X24673Y-18708D01*
X24673Y-18807D01*
X24673Y-18837D01*
X24313Y-19197D01*
X24304Y-19197D01*
X24104Y-19197D01*
X24012Y-19235D01*
X24003Y-19244D01*
X23994Y-19235D01*
X23903Y-19197D01*
X23804Y-19197D01*
X23604Y-19197D01*
X23512Y-19235D01*
X23503Y-19244D01*
X23494Y-19235D01*
X23403Y-19197D01*
X23304Y-19197D01*
X23104Y-19197D01*
X23012Y-19235D01*
X23003Y-19244D01*
X22994Y-19235D01*
X22903Y-19197D01*
X22804Y-19197D01*
X22604Y-19197D01*
X22512Y-19235D01*
X22503Y-19244D01*
X22494Y-19235D01*
X22403Y-19197D01*
X22304Y-19197D01*
X22104Y-19197D01*
X22012Y-19235D01*
X22003Y-19244D01*
X21994Y-19235D01*
X21903Y-19197D01*
X21804Y-19197D01*
X21604Y-19197D01*
X21572Y-19210D01*
X21572Y-19116D01*
X21571Y-19115D01*
X21572Y-19115D01*
X21567Y-19091D01*
X21548Y-18994D01*
X21547Y-18993D01*
X21479Y-18890D01*
X21476Y-18888D01*
X21470Y-18881D01*
X21470Y-18822D01*
X21405Y-18665D01*
X21286Y-18545D01*
X21129Y-18479D01*
X20959Y-18479D01*
X20802Y-18544D01*
X20682Y-18663D01*
X20642Y-18757D01*
X20638Y-18753D01*
X20638Y-18145D01*
X20641Y-18146D01*
X20703Y-18084D01*
X20703Y-17771D01*
X20703Y-17721D01*
X20703Y-17621D01*
X20803Y-17621D01*
X20803Y-17721D01*
X20803Y-17771D01*
X20803Y-18084D01*
X20865Y-18146D01*
X20902Y-18145D01*
X20994Y-18107D01*
X21003Y-18098D01*
X21012Y-18107D01*
X21103Y-18145D01*
X21202Y-18145D01*
X21402Y-18145D01*
X21494Y-18107D01*
X21503Y-18098D01*
X21512Y-18107D01*
X21603Y-18145D01*
X21702Y-18145D01*
X21902Y-18145D01*
X21994Y-18107D01*
X22003Y-18098D01*
X22012Y-18107D01*
X22103Y-18145D01*
X22202Y-18145D01*
X22402Y-18145D01*
X22494Y-18107D01*
X22503Y-18098D01*
X22512Y-18107D01*
X22603Y-18145D01*
X22702Y-18145D01*
X22902Y-18145D01*
X22994Y-18107D01*
X23003Y-18098D01*
X23012Y-18107D01*
X23103Y-18145D01*
X23202Y-18145D01*
X23402Y-18145D01*
X23494Y-18107D01*
X23503Y-18098D01*
X23512Y-18107D01*
X23603Y-18145D01*
X23702Y-18145D01*
X23902Y-18145D01*
X23994Y-18107D01*
X24003Y-18098D01*
X24012Y-18107D01*
X24103Y-18145D01*
X24202Y-18145D01*
X24402Y-18145D01*
X24494Y-18107D01*
X24564Y-18037D01*
X24602Y-17946D01*
X24602Y-17847D01*
X24602Y-17397D01*
X24572Y-17324D01*
X24572Y-17166D01*
X24569Y-17153D01*
X24569Y-17152D01*
X24607Y-17062D01*
X24607Y-16963D01*
X24607Y-16713D01*
X24569Y-16621D01*
X24535Y-16587D01*
X24569Y-16553D01*
X24607Y-16462D01*
X24607Y-16363D01*
X24607Y-16113D01*
X24569Y-16021D01*
X24500Y-15952D01*
X24500Y-15445D01*
X24837Y-15108D01*
X24902Y-15012D01*
X24902Y-15011D01*
X24905Y-14992D01*
X24924Y-14897D01*
X24925Y-14897D01*
X24925Y-14751D01*
X24961Y-14772D01*
X24995Y-14786D01*
X25080Y-14739D01*
X25080Y-14261D01*
X25080Y-14211D01*
X25080Y-14111D01*
X25180Y-14111D01*
X25230Y-14111D01*
X25611Y-14111D01*
X25673Y-14026D01*
X25616Y-13821D01*
X25493Y-13666D01*
X25587Y-13572D01*
X25670Y-13374D01*
X25670Y-13159D01*
X25670Y-12949D01*
X25588Y-12750D01*
X25498Y-12661D01*
X25587Y-12572D01*
X25670Y-12374D01*
X25670Y-12159D01*
X25670Y-11949D01*
X25633Y-11860D01*
X26725Y-11860D01*
X26680Y-11968D01*
X26680Y-12183D01*
X26680Y-12393D01*
X26762Y-12592D01*
X26709Y-12647D01*
X26671Y-12738D01*
X26671Y-12837D01*
X26671Y-13623D01*
X26709Y-13715D01*
X26740Y-13746D01*
X26349Y-14137D01*
X26252Y-14282D01*
X26218Y-14453D01*
X26218Y-14487D01*
X26200Y-14505D01*
X26116Y-14707D01*
X26116Y-14925D01*
X26116Y-15231D01*
X26200Y-15433D01*
X26354Y-15587D01*
X26556Y-15671D01*
X26774Y-15671D01*
X26976Y-15587D01*
X27130Y-15433D01*
X27165Y-15348D01*
X27200Y-15433D01*
X27354Y-15587D01*
X27556Y-15671D01*
X27774Y-15671D01*
X27976Y-15587D01*
X28130Y-15433D01*
X28165Y-15348D01*
X28200Y-15433D01*
X28354Y-15587D01*
X28556Y-15671D01*
X28774Y-15671D01*
X28976Y-15587D01*
X29130Y-15433D01*
X29165Y-15348D01*
X29200Y-15433D01*
X29354Y-15587D01*
X29556Y-15671D01*
X29774Y-15671D01*
X29976Y-15587D01*
X30130Y-15433D01*
X30165Y-15348D01*
X30200Y-15433D01*
X30354Y-15587D01*
X30556Y-15671D01*
X30774Y-15671D01*
X30976Y-15587D01*
X31130Y-15433D01*
X31165Y-15348D01*
X31200Y-15433D01*
X31354Y-15587D01*
X31556Y-15671D01*
X31774Y-15671D01*
X31976Y-15587D01*
X32130Y-15433D01*
X32165Y-15348D01*
X32200Y-15433D01*
X32354Y-15587D01*
X32556Y-15671D01*
X32774Y-15671D01*
X32976Y-15587D01*
X33130Y-15433D01*
X33165Y-15348D01*
X33200Y-15433D01*
X33354Y-15587D01*
X33556Y-15671D01*
X33774Y-15671D01*
X33976Y-15587D01*
X34130Y-15433D01*
X34165Y-15348D01*
X34200Y-15433D01*
X34354Y-15587D01*
X34556Y-15671D01*
X34774Y-15671D01*
X34976Y-15587D01*
X35057Y-15506D01*
X35057Y-15693D01*
X34944Y-15806D01*
X34847Y-15951D01*
X34813Y-16122D01*
X34847Y-16293D01*
X34944Y-16438D01*
X35089Y-16535D01*
X35260Y-16569D01*
X35431Y-16535D01*
X35576Y-16438D01*
X35620Y-16394D01*
X35620Y-29522D01*
M02*
