%FSLAX25Y25*%
%MOIN*%
G70*
G01*
G75*
G04 Layer_Physical_Order=2*
G04 Layer_Color=16711680*
%ADD10R,0.03740X0.03150*%
%ADD11C,0.02500*%
%ADD12R,0.03150X0.03740*%
%ADD13R,0.18000X0.12598*%
%ADD14R,0.05118X0.02756*%
%ADD15R,0.02559X0.04724*%
%ADD16O,0.09449X0.02362*%
%ADD17R,0.09449X0.02362*%
%ADD18R,0.28740X0.10433*%
%ADD19R,0.04921X0.06299*%
%ADD20R,0.05500X0.07600*%
%ADD21R,0.05118X0.10630*%
%ADD22R,0.06299X0.06299*%
%ADD23R,0.04724X0.02559*%
%ADD24R,0.15748X0.21654*%
%ADD25R,0.06299X0.04921*%
%ADD26R,0.10000X0.07000*%
%ADD27R,0.06299X0.06299*%
%ADD28R,0.05906X0.01300*%
%ADD29R,0.01300X0.05906*%
%ADD30R,0.10039X0.12992*%
%ADD31R,0.10039X0.03740*%
%ADD32R,0.09000X0.22000*%
%ADD33O,0.02362X0.08661*%
%ADD34R,0.02362X0.08661*%
%ADD35C,0.01000*%
%ADD36C,0.02000*%
%ADD37C,0.03000*%
%ADD38C,0.06000*%
%ADD39C,0.05906*%
%ADD40R,0.05906X0.05906*%
%ADD41C,0.09843*%
%ADD42R,0.08400X0.08400*%
%ADD43R,0.05906X0.05906*%
%ADD44C,0.21654*%
%ADD45C,0.05000*%
%ADD46R,0.07500X0.05000*%
%ADD47R,0.04724X0.02165*%
D10*
X-94500Y698543D02*
D03*
Y691457D02*
D03*
Y677957D02*
D03*
Y685043D02*
D03*
X-65500Y699543D02*
D03*
Y692457D02*
D03*
X-134000Y520476D02*
D03*
Y527563D02*
D03*
Y507476D02*
D03*
Y514563D02*
D03*
X-127000Y520476D02*
D03*
Y527563D02*
D03*
Y507476D02*
D03*
Y514563D02*
D03*
X-120000Y507476D02*
D03*
Y514563D02*
D03*
Y520476D02*
D03*
Y527563D02*
D03*
X-38110Y520563D02*
D03*
Y527650D02*
D03*
X-52110Y520563D02*
D03*
Y527650D02*
D03*
X-38110Y507563D02*
D03*
Y514650D02*
D03*
X-45110Y520563D02*
D03*
Y527650D02*
D03*
Y507563D02*
D03*
Y514650D02*
D03*
X-52110Y507563D02*
D03*
Y514650D02*
D03*
X-77110Y520563D02*
D03*
Y527650D02*
D03*
Y507563D02*
D03*
Y514650D02*
D03*
X-91110Y520563D02*
D03*
Y527650D02*
D03*
X-84110Y520563D02*
D03*
Y527650D02*
D03*
X-91110Y507563D02*
D03*
Y514650D02*
D03*
X-84110Y507563D02*
D03*
Y514650D02*
D03*
X-49110Y737650D02*
D03*
Y730563D02*
D03*
X-42110Y737650D02*
D03*
Y730563D02*
D03*
X-35110Y750650D02*
D03*
Y743563D02*
D03*
X-49110Y750650D02*
D03*
Y743563D02*
D03*
X-42110Y750650D02*
D03*
Y743563D02*
D03*
X-35110Y737650D02*
D03*
Y730563D02*
D03*
X-121000Y742563D02*
D03*
Y735476D02*
D03*
X-128000Y742563D02*
D03*
Y735476D02*
D03*
X-114000Y755563D02*
D03*
Y748476D02*
D03*
X-121000Y755563D02*
D03*
Y748476D02*
D03*
X-128000Y755563D02*
D03*
Y748476D02*
D03*
X-114000Y742563D02*
D03*
Y735476D02*
D03*
X-81000Y751563D02*
D03*
Y744476D02*
D03*
X-88000Y751563D02*
D03*
Y744476D02*
D03*
X-74000Y738563D02*
D03*
Y731476D02*
D03*
X-81000Y738563D02*
D03*
Y731476D02*
D03*
X-88000Y738563D02*
D03*
Y731476D02*
D03*
X-74000Y751563D02*
D03*
Y744476D02*
D03*
D12*
X-95043Y594500D02*
D03*
X-87957D02*
D03*
X-116043Y592000D02*
D03*
X-108957D02*
D03*
X-168457Y605500D02*
D03*
X-175543D02*
D03*
X-168457Y596500D02*
D03*
X-175543D02*
D03*
X-2043Y606000D02*
D03*
X5043D02*
D03*
X-2087Y566000D02*
D03*
X5000D02*
D03*
X-2087Y576000D02*
D03*
X5000D02*
D03*
X-2087Y586000D02*
D03*
X5000D02*
D03*
X-2087Y596000D02*
D03*
X5000D02*
D03*
X-2087Y556000D02*
D03*
X5000D02*
D03*
X-243457Y519000D02*
D03*
X-250543D02*
D03*
X-250543Y526500D02*
D03*
X-243457D02*
D03*
X-276957Y506000D02*
D03*
X-284043D02*
D03*
X-308457Y655000D02*
D03*
X-315543D02*
D03*
X-100457Y535020D02*
D03*
X-107543D02*
D03*
X-112543Y513020D02*
D03*
X-105457D02*
D03*
X-17457Y535020D02*
D03*
X-24543D02*
D03*
X-21457Y513020D02*
D03*
X-28543D02*
D03*
X-69543D02*
D03*
X-62457D02*
D03*
X-58457Y535020D02*
D03*
X-65543D02*
D03*
X-16067Y750606D02*
D03*
X-23154D02*
D03*
X-27154Y728606D02*
D03*
X-20067D02*
D03*
X-96457Y750020D02*
D03*
X-103543D02*
D03*
X-107543Y730020D02*
D03*
X-100457D02*
D03*
X-55957Y750020D02*
D03*
X-63043D02*
D03*
X-65543Y731020D02*
D03*
X-58457D02*
D03*
D15*
X-284240Y513276D02*
D03*
X-276760D02*
D03*
X-280500Y523724D02*
D03*
D20*
X-292975Y534500D02*
D03*
X-280025D02*
D03*
D21*
X-293291Y606000D02*
D03*
X-304709D02*
D03*
X-293291Y619500D02*
D03*
X-304709D02*
D03*
X-293291Y577500D02*
D03*
X-304709D02*
D03*
X-293291Y564000D02*
D03*
X-304709D02*
D03*
X-229213Y689405D02*
D03*
X-240630D02*
D03*
D35*
X-160500Y576500D02*
X-152800Y568800D01*
Y550300D02*
Y568800D01*
X-160520Y542580D02*
X-152800Y550300D01*
X-160520Y538020D02*
Y542580D01*
X-139500Y586172D02*
Y663000D01*
Y586172D02*
X-123500Y570172D01*
X-272500Y634000D02*
X-204300D01*
X-190400Y647900D01*
Y670900D01*
X-183900Y677400D01*
X-167700D01*
X-163900Y673600D01*
X-163700D01*
Y662600D02*
Y673600D01*
Y662600D02*
X-154700Y653600D01*
Y639100D02*
Y653600D01*
X-206000Y540600D02*
Y609500D01*
X-234000Y512600D02*
X-206000Y540600D01*
X-234000Y470000D02*
Y512600D01*
X-180000Y562900D02*
X-158000D01*
X-180000D02*
Y563100D01*
Y554400D02*
X-179200Y555200D01*
X-158100D01*
X-135000Y611500D02*
Y674500D01*
Y611500D02*
X-125000Y601500D01*
Y588000D02*
Y601500D01*
Y588000D02*
X-116500Y579500D01*
X-206000Y609500D02*
X-186500Y629000D01*
Y666500D01*
X-183000Y670000D01*
X-168000D01*
X-2500Y679500D02*
X4500Y686500D01*
Y690500D01*
X500Y694500D02*
X4500Y690500D01*
X-8000Y694500D02*
X500D01*
X-9000Y695500D02*
X-8000Y694500D01*
X-9000Y695500D02*
Y702000D01*
X1500Y712500D01*
Y719000D01*
X-1000Y721500D02*
X1500Y719000D01*
X-14000Y721500D02*
X-1000D01*
X-1500Y759500D02*
X8000Y750000D01*
Y710000D02*
Y750000D01*
X-2500Y699500D02*
X8000Y710000D01*
X-14000Y762000D02*
X-1500Y749500D01*
X-14000Y762000D02*
Y795000D01*
X-17500Y798500D02*
X-14000Y795000D01*
X-130000Y798500D02*
X-17500D01*
X-135000Y793500D02*
X-130000Y798500D01*
X-135000Y764000D02*
Y793500D01*
X-117000Y716715D02*
X-116000Y715715D01*
X-118500Y667500D02*
X-65500D01*
X-51500Y681500D01*
Y696500D01*
X-44500Y703500D01*
X-130500Y655500D02*
X-118500Y667500D01*
X-130500Y614000D02*
Y655500D01*
X-27500Y592000D02*
X-21500Y586000D01*
X-27500Y592000D02*
Y595000D01*
X-31000Y598500D02*
X-27500Y595000D01*
X-35500Y598500D02*
X-31000D01*
X-39000Y602000D02*
X-35500Y598500D01*
X-48000Y602000D02*
X-39000D01*
X-26500Y581000D02*
X-21500Y576000D01*
X-26500Y581000D02*
Y586500D01*
X-28500Y588500D02*
X-26500Y586500D01*
X-38000Y588500D02*
X-28500D01*
X-41425Y591925D02*
X-38000Y588500D01*
X-41425Y591925D02*
Y597925D01*
X-25500Y566000D02*
X-21500D01*
X-47500Y588000D02*
X-25500Y566000D01*
X-47500Y588000D02*
Y593000D01*
X-47000Y549020D02*
X4520D01*
X5043Y549543D01*
X-21500Y606000D02*
X-15500Y612000D01*
X-9000D01*
X-3000Y606000D01*
X-2043D01*
X-21500Y596000D02*
X-16500Y601000D01*
X-7087D01*
X-2087Y596000D01*
X-21500Y586000D02*
X-16500Y591000D01*
X-8000D01*
X-3000Y586000D01*
X-2087D01*
X-21500Y576000D02*
X-16500Y581000D01*
X-9000D01*
X-4000Y576000D01*
X-2087D01*
X-21500Y566000D02*
X-16500Y571000D01*
X-8500D01*
X-3500Y566000D01*
X-2087D01*
X-21500Y556000D02*
X-16500Y561000D01*
X-7500D01*
X-2500Y556000D01*
X-2087D01*
X-144000Y550000D02*
X-143500Y550500D01*
X-88445Y550555D02*
X-85055D01*
X-29118Y520280D02*
X-24543Y524854D01*
X-38110Y520563D02*
X-29401D01*
X-8000Y522000D02*
Y526020D01*
X-11000Y519000D02*
X-8000Y522000D01*
X-92500Y467000D02*
Y501000D01*
Y467000D02*
X-16500D01*
X-231000D02*
X-92500D01*
X-94000Y502500D02*
X-92500Y501000D01*
X-99000Y502500D02*
X-94000D01*
X-234000Y470000D02*
X-231000Y467000D01*
X-16500D02*
X-12327Y471173D01*
Y509173D01*
X-12000Y509500D01*
X-47000Y562020D02*
X-41000Y568020D01*
Y575500D01*
X-168457Y596500D02*
X-160500D01*
X-168457Y605500D02*
X-161500D01*
X-95043Y562563D02*
Y594500D01*
X-109500Y562020D02*
Y578500D01*
X-116043Y585043D02*
X-109500Y578500D01*
X-116043Y585043D02*
Y592000D01*
X-87957Y594500D02*
X-83000D01*
X-97000D02*
X-95043D01*
X-99000Y596500D02*
X-97000Y594500D01*
X-120500Y592000D02*
X-116043D01*
X-108957D02*
X-108457Y591500D01*
X-104500D01*
X-142217Y665717D02*
X-139500Y663000D01*
X-123000Y568500D02*
Y569000D01*
X-123500D02*
Y570172D01*
X-139000Y678500D02*
X-135000Y674500D01*
X-116500Y569500D02*
Y579500D01*
X-13594Y639406D02*
X-2910D01*
X-19000Y634000D02*
X-13594Y639406D01*
X-53500Y634000D02*
X-19000D01*
X-69500Y618000D02*
X-53500Y634000D01*
X-48094Y629406D02*
X-2910D01*
X-69000Y608500D02*
X-48094Y629406D01*
X-158000Y665000D02*
X-151500D01*
X-159000D02*
X-158000D01*
X-47000Y555520D02*
X-45976Y556543D01*
X-156500Y618000D02*
X-147110D01*
X-148110Y586500D02*
X-147110Y587500D01*
X-160500Y586500D02*
X-148110D01*
X-157000Y632500D02*
X-147610D01*
X-115500Y570500D02*
Y571000D01*
X-116500Y569500D02*
X-115500Y570500D01*
X-10000Y682000D02*
X-2500Y689500D01*
X-10000Y668000D02*
Y682000D01*
X-243457Y526500D02*
X-241500D01*
X-236000Y532000D01*
X-72750Y707000D02*
Y712660D01*
X-13500Y706000D02*
X-6000Y713500D01*
X-13500Y673500D02*
Y706000D01*
X-39000Y648000D02*
X-13500Y673500D01*
X-113500Y648000D02*
X-39000D01*
X-65043Y730020D02*
Y736598D01*
X-21000Y680500D02*
Y715000D01*
X-49000Y652500D02*
X-21000Y680500D01*
X-109000Y652500D02*
X-49000D01*
X-28500Y680500D02*
Y721000D01*
X-51000Y658000D02*
X-28500Y680500D01*
X-101500Y658000D02*
X-51000D01*
X-131000Y680000D02*
X-130000D01*
X-107500Y702500D01*
X-121000Y677500D02*
X-120500D01*
X-102500Y695500D01*
X-26835Y728925D02*
Y735866D01*
X-27154Y722346D02*
Y728606D01*
X-28500Y721000D02*
X-27154Y722346D01*
X-14000Y721500D02*
Y733374D01*
X-16492Y735866D02*
X-14000Y733374D01*
X-55382Y737280D02*
X-54000Y735898D01*
Y725000D02*
Y735898D01*
X-94500Y726000D02*
Y734898D01*
X-95882Y736279D02*
X-94500Y734898D01*
X-69500Y725563D02*
X-65043Y730020D01*
X-72750Y685000D02*
X-65500Y692250D01*
Y692457D01*
X-94500Y685043D02*
Y691457D01*
Y685043D02*
X-94457Y685000D01*
X-85250D01*
X-73000Y707250D02*
X-72750Y707000D01*
X-65500Y699750D01*
Y699543D02*
Y699750D01*
X-250543Y519000D02*
X-249543D01*
X-265500D02*
X-250543D01*
X-85250Y707000D02*
Y712660D01*
X-93707Y698543D02*
X-85250Y707000D01*
X-94500Y698543D02*
X-93707D01*
X-94500Y677957D02*
X-94043Y677500D01*
X-86000D01*
X-72750Y681250D02*
Y685000D01*
X-77500Y676500D02*
X-72750Y681250D01*
X-243457Y519000D02*
Y526500D01*
X-280500Y534025D02*
X-258068D01*
X-250543Y526500D01*
X-272000Y525500D02*
X-265500Y519000D01*
X-16492Y743346D02*
Y750181D01*
X-21000Y729539D02*
Y738500D01*
X-16492Y743008D01*
Y743346D01*
X-22972Y741528D02*
Y750425D01*
X-24894Y739606D02*
X-22972Y741528D01*
X-26835Y739606D02*
X-24894D01*
X-34894Y737866D02*
Y743346D01*
X-26835D01*
X-35110Y730563D02*
X-31000Y734673D01*
Y739000D01*
X-30394Y739606D01*
X-26835D01*
X-59500Y740642D02*
X-55382Y744760D01*
X-55957Y745335D02*
Y750020D01*
X-73716Y744760D02*
X-65724D01*
X-74000Y738563D02*
Y744476D01*
Y731476D02*
X-70000Y735476D01*
Y740000D01*
X-68980Y741020D01*
X-65724D01*
X-59500Y731563D02*
X-57957Y730020D01*
X-59500Y731563D02*
Y740642D01*
X-63043Y750020D02*
X-61862Y748839D01*
X-63898Y741020D02*
X-61862Y743056D01*
X-65724Y741020D02*
X-63898D01*
X-61862Y743056D02*
Y748839D01*
X-95882Y743760D02*
Y749445D01*
X-96457Y750020D02*
X-95882Y749445D01*
X-103543Y750020D02*
X-101000Y747476D01*
Y742500D02*
Y747476D01*
X-103480Y740020D02*
X-101000Y742500D01*
X-106224Y740020D02*
X-103480D01*
X-95882Y742118D02*
Y743760D01*
X-99744Y738256D02*
X-95882Y742118D01*
X-99744Y730307D02*
Y738256D01*
Y730307D02*
X-99457Y730020D01*
X-285000Y618000D02*
Y641600D01*
X-257000Y621500D02*
X-241500Y606000D01*
Y554000D02*
Y606000D01*
X-244000Y551500D02*
X-241500Y554000D01*
X-251000Y551500D02*
X-244000D01*
X-120000Y514563D02*
X-117543D01*
X-116000Y513020D01*
X-112543D01*
Y510563D02*
Y513020D01*
Y510563D02*
X-110000Y508020D01*
X-103000D01*
X-102382Y508638D01*
Y519886D01*
X-119803Y520280D02*
X-113118D01*
Y521902D01*
X-107543Y527476D01*
Y535020D01*
X-106000Y524020D02*
X-102776D01*
X-108000Y522020D02*
X-106000Y524020D01*
X-108000Y515563D02*
Y522020D01*
Y515563D02*
X-105457Y513020D01*
X-100457Y535020D02*
Y541476D01*
X-102776Y527760D02*
Y532701D01*
X-100457Y535020D01*
X-102776Y524020D02*
X-100000D01*
X-96000Y528020D01*
X-91480D01*
X-91110Y527650D01*
X-113118Y527760D02*
Y535138D01*
X-116000Y538020D02*
X-113118Y535138D01*
X-62000Y524020D02*
X-59776D01*
X-65000Y521020D02*
X-62000Y524020D01*
X-65000Y515563D02*
Y521020D01*
Y515563D02*
X-62457Y513020D01*
X-70118Y520280D02*
Y520902D01*
X-65543Y525476D01*
Y535020D01*
X-76827Y520280D02*
X-70118D01*
X-58457Y529079D02*
Y535020D01*
X-59776Y524020D02*
X-55740D01*
X-52110Y527650D01*
X-75480Y513020D02*
X-69543D01*
X-77110Y514650D02*
X-75480Y513020D01*
X-59776Y520280D02*
X-59382Y519886D01*
Y509638D02*
Y519886D01*
X-66161Y509638D02*
X-59382D01*
X-69543Y513020D02*
X-66161Y509638D01*
X-24543Y524854D02*
Y535020D01*
X-21000Y524020D02*
X-18776D01*
X-25256Y519764D02*
X-21000Y524020D01*
X-25256Y517697D02*
Y519764D01*
X-28543Y514409D02*
X-25256Y517697D01*
X-28543Y513020D02*
Y514409D01*
X-18776Y515701D02*
Y520280D01*
X-21457Y513020D02*
X-18776Y515701D01*
X-38110Y514650D02*
X-37630D01*
X-38110D02*
X-31480Y508020D01*
X-26457D01*
X-21457Y513020D01*
X-18776Y527760D02*
Y533701D01*
X-17000Y535476D02*
Y544020D01*
X-18776Y533701D02*
X-17457Y535020D01*
X-17000Y535476D01*
X-29118Y527760D02*
Y531138D01*
X-34000Y536020D02*
X-29118Y531138D01*
X-18776Y524020D02*
X-10000D01*
X-8000Y526020D01*
Y548500D01*
X-58457Y535020D02*
Y536563D01*
X-54000Y541020D01*
X-70118Y527760D02*
Y532138D01*
X-75000Y537020D02*
X-70118Y532138D01*
X-154400Y699600D02*
X-148709Y693910D01*
X-123500Y640500D02*
X-121100Y642900D01*
X-35100D01*
X-10000Y668000D01*
X-7994Y659406D02*
X-2910D01*
X-29400Y638000D02*
X-7994Y659406D01*
X-64300Y638000D02*
X-29400D01*
X-77300Y625000D02*
X-64300Y638000D01*
X-71000Y589500D02*
Y594800D01*
X-52300Y613500D01*
X-33500D01*
X-38700Y608700D02*
X-33500Y603500D01*
X-52000Y608700D02*
X-38700D01*
X-57600Y603100D02*
X-52000Y608700D01*
X-57600Y592100D02*
Y603100D01*
Y592100D02*
X-41000Y575500D01*
X5043Y549543D02*
Y606000D01*
X-96600Y625000D02*
X-77300D01*
D36*
X-43000Y674500D02*
X-36500Y681000D01*
Y710500D01*
X-106543Y722543D02*
Y730020D01*
X-106224Y730339D02*
Y736279D01*
X-106543Y722543D02*
X-106500Y722500D01*
X-112803Y743760D02*
X-106224D01*
X-114000Y735476D02*
X-109457Y740020D01*
X-106224D01*
X-243421Y667363D02*
Y679906D01*
Y667363D02*
X-226921Y650863D01*
X-240630Y682697D02*
Y689405D01*
X-243421Y679906D02*
X-240630Y682697D01*
X-210964Y718405D02*
X-196964Y704405D01*
X-240921Y718405D02*
X-210964D01*
X-196964Y661905D02*
X-195964Y660906D01*
X-229213Y689405D02*
X-217421D01*
X-39390Y713390D02*
X-36500Y710500D01*
X-44110Y713390D02*
X-39390D01*
D37*
X-175500Y591500D02*
X-160500Y576500D01*
X-175500Y609000D02*
X-166000Y618500D01*
X-47000Y555520D02*
Y562020D01*
Y549020D02*
Y555520D01*
X-44110Y713390D02*
Y730000D01*
X-114000Y742563D02*
Y748476D01*
X-81000Y738563D02*
Y744476D01*
X-88000Y738563D02*
Y744476D01*
X-42110Y730563D02*
X-35110D01*
X-49110D02*
X-42110D01*
Y737650D02*
Y743563D01*
X-49110Y737650D02*
Y743563D01*
X-42110Y750650D02*
X-35110D01*
X-49110D02*
X-42110D01*
X-81000Y751563D02*
X-74000D01*
X-88000D02*
X-81000D01*
Y731476D02*
X-74000D01*
X-88000D02*
X-81000D01*
X-121000Y742563D02*
Y748476D01*
X-128000Y742563D02*
Y748476D01*
X-121000Y735476D02*
X-114000D01*
X-128000D02*
X-121000D01*
Y755563D02*
X-114000D01*
X-128000D02*
X-121000D01*
X-276957Y506000D02*
X-271500D01*
X-276957D02*
Y513079D01*
X-284043Y506000D02*
Y513079D01*
X-299221Y655000D02*
X-298421Y655800D01*
X-308457Y655000D02*
X-299221D01*
X-293291Y619500D02*
Y628291D01*
Y606000D02*
Y619500D01*
X-307500Y516157D02*
X-304618Y513276D01*
X-284240D01*
X-280500Y523724D02*
Y534025D01*
X-293291Y564000D02*
Y577500D01*
X-292791Y571000D02*
X-289000D01*
X-293291Y534500D02*
Y564000D01*
X-304709Y577500D02*
Y597000D01*
Y606000D01*
X-293291Y597791D02*
Y606000D01*
X-257000Y571000D02*
X-245500Y559500D01*
X-289000Y571000D02*
X-257000D01*
X-304709Y606000D02*
Y619500D01*
Y564000D02*
Y577500D01*
Y555209D02*
Y564000D01*
X-124423Y474319D02*
X-118425D01*
X-130710Y480606D02*
X-124423Y474319D01*
X-130710Y480606D02*
Y505706D01*
X-118425Y474319D02*
X-108425D01*
X-98425D01*
X-86423D02*
X-79055D01*
X-88510Y476406D02*
X-86423Y474319D01*
X-88510Y476406D02*
Y506406D01*
X-79055Y474319D02*
X-69055D01*
X-59055D01*
X-49810Y478206D02*
X-45923Y474319D01*
X-49810Y478206D02*
Y507020D01*
X-45923Y474319D02*
X-39685D01*
X-29685D01*
X-19685D01*
X-44110Y792106D02*
X-39370D01*
X-49110Y787106D02*
X-44110Y792106D01*
X-49110Y750650D02*
Y787106D01*
X-39370Y792106D02*
X-29370D01*
X-19370D01*
X-88110Y791106D02*
X-87110Y792106D01*
X-88110Y754106D02*
Y791106D01*
X-87110Y792106D02*
X-78740D01*
X-68740D01*
X-58740D01*
X-128110Y788106D02*
X-124110Y792106D01*
X-128110Y757106D02*
Y788106D01*
X-124110Y792106D02*
X-118110D01*
X-108110D01*
X-98110D01*
X-130000Y529020D02*
Y562020D01*
X-85000Y712910D02*
Y731000D01*
X-125000Y712910D02*
Y734500D01*
X-134000Y527563D02*
X-127000D01*
X-120000D01*
X-134000Y507476D02*
X-127000D01*
X-120000D01*
X-134000Y514563D02*
Y520476D01*
X-127000Y514563D02*
Y520476D01*
X-52110Y527650D02*
X-45110D01*
X-38110D01*
X-52110Y507563D02*
X-45110D01*
X-38110D01*
X-45110Y514650D02*
Y520563D01*
X-52110Y514650D02*
Y520563D01*
X-84110Y514650D02*
Y520563D01*
X-91110Y514650D02*
Y520563D01*
Y507563D02*
X-84110D01*
X-77110D01*
X-91110Y527650D02*
X-84110D01*
X-77110D01*
X-47000Y529020D02*
Y549020D01*
X-85000Y529020D02*
Y562020D01*
X-175500Y591500D02*
Y609000D01*
X-166000Y618500D02*
Y658000D01*
D38*
X-109500Y562020D02*
X-85000D01*
X-130000D02*
X-109500D01*
X-176279Y623221D02*
Y660906D01*
X-187010Y612490D02*
X-176279Y623221D01*
X-187010Y485806D02*
Y612490D01*
X-158000Y665000D02*
Y683106D01*
Y664500D02*
Y665000D01*
X-147197Y693910D02*
X-147110D01*
X-196964Y683106D02*
X-158000D01*
X-147110Y618000D02*
Y653610D01*
Y587500D02*
Y618000D01*
Y562020D02*
Y587500D01*
X-85000Y712910D02*
X-44591D01*
X-44110Y713390D01*
X-320000Y528657D02*
Y670020D01*
Y528657D02*
X-307500Y516157D01*
X-276784Y642500D02*
X-268421Y650863D01*
X-296500Y642500D02*
X-276784D01*
X-307500Y631500D02*
X-296500Y642500D01*
X-320480Y753000D02*
X-309875Y763605D01*
X-298421D01*
X-320480Y696000D02*
Y753000D01*
Y696000D02*
X-312480Y688000D01*
X-291480D01*
X-286480Y683000D01*
Y667500D02*
Y683000D01*
X-269843Y650863D02*
X-268421D01*
X-286480Y667500D02*
X-269843Y650863D01*
X-304621Y743205D02*
X-298421D01*
X-310921Y736905D02*
X-304621Y743205D01*
X-306921Y709905D02*
X-297921D01*
X-310921Y713905D02*
X-306921Y709905D01*
X-310921Y713905D02*
Y736905D01*
X-226921Y650863D02*
X-208006D01*
X-268421D02*
X-226921D01*
X-216850Y484319D02*
X-206850D01*
X-196850D01*
X-177480D01*
X-167480D01*
X-157480D01*
Y474319D02*
X-149898D01*
X-147110Y477106D01*
X-216850Y474319D02*
X-206850D01*
X-196850D01*
X-177480D01*
X-167480D01*
X-157480D01*
X-196964Y661905D02*
Y683106D01*
Y704405D01*
X-85000Y562020D02*
X-47000D01*
X-147110D02*
X-130000D01*
X-128110Y712910D02*
X-125000D01*
X-147110Y693910D02*
X-128110Y712910D01*
X-313820Y676200D02*
X-298421D01*
X-320000Y670020D02*
X-313820Y676200D01*
X-158000Y683106D02*
X-147197Y693910D01*
X-307500Y535843D02*
Y631500D01*
X-147110Y477106D02*
Y562020D01*
X-208006Y650863D02*
X-196964Y661905D01*
X-158000Y664500D02*
X-147110Y653610D01*
X-125000Y712910D02*
X-85000D01*
D39*
X-160500Y576500D02*
D03*
Y586500D02*
D03*
Y596500D02*
D03*
X-2500Y689500D02*
D03*
Y699500D02*
D03*
X-11500Y566000D02*
D03*
Y576000D02*
D03*
Y586000D02*
D03*
Y596000D02*
D03*
Y606000D02*
D03*
X-21500Y556000D02*
D03*
Y566000D02*
D03*
Y576000D02*
D03*
Y586000D02*
D03*
Y596000D02*
D03*
Y606000D02*
D03*
X-195964Y660906D02*
D03*
X-226921Y650863D02*
D03*
X-268421D02*
D03*
X-196964Y704405D02*
D03*
X-58740Y772106D02*
D03*
X-68740D02*
D03*
X-98110D02*
D03*
X-108110D02*
D03*
X-39685Y494319D02*
D03*
X-29685D02*
D03*
X-216850D02*
D03*
X-206850D02*
D03*
X-177480D02*
D03*
X-167480D02*
D03*
X-118425D02*
D03*
X-108425D02*
D03*
X-79055D02*
D03*
X-69055D02*
D03*
X-118425Y474319D02*
D03*
X-108425D02*
D03*
X-98425D02*
D03*
X-118425Y484319D02*
D03*
X-108425D02*
D03*
X-79055Y474319D02*
D03*
X-69055D02*
D03*
X-59055D02*
D03*
X-79055Y484319D02*
D03*
X-69055D02*
D03*
X-39685Y474319D02*
D03*
X-29685D02*
D03*
X-19685D02*
D03*
X-39685Y484319D02*
D03*
X-29685D02*
D03*
X-19370Y792106D02*
D03*
X-29370D02*
D03*
X-39370D02*
D03*
X-19370Y782106D02*
D03*
X-29370D02*
D03*
X-58740Y792106D02*
D03*
X-68740D02*
D03*
X-78740D02*
D03*
X-58740Y782106D02*
D03*
X-68740D02*
D03*
X-98110Y792106D02*
D03*
X-108110D02*
D03*
X-118110D02*
D03*
X-98110Y782106D02*
D03*
X-108110D02*
D03*
X-216850Y474319D02*
D03*
X-206850D02*
D03*
X-196850D02*
D03*
X-216850Y484319D02*
D03*
X-206850D02*
D03*
X-177480Y474319D02*
D03*
X-167480D02*
D03*
X-157480D02*
D03*
X-177480Y484319D02*
D03*
X-167480D02*
D03*
X-19370Y772106D02*
D03*
X-29370D02*
D03*
X-2910Y639406D02*
D03*
Y649406D02*
D03*
Y659406D02*
D03*
X-1500Y759500D02*
D03*
Y749500D02*
D03*
X-33500Y593500D02*
D03*
Y603500D02*
D03*
Y613500D02*
D03*
Y623500D02*
D03*
D40*
X-160500Y606500D02*
D03*
X-2500Y679500D02*
D03*
X-11500Y556000D02*
D03*
X-226921Y670548D02*
D03*
X-268421D02*
D03*
X-2910Y629406D02*
D03*
X-1500Y739500D02*
D03*
X-33500Y583500D02*
D03*
D41*
X-307500Y535843D02*
D03*
Y516157D02*
D03*
D42*
X-298421Y700206D02*
D03*
Y720606D02*
D03*
Y710405D02*
D03*
X-298421Y763605D02*
D03*
Y743205D02*
D03*
X-298421Y666000D02*
D03*
Y676200D02*
D03*
Y655800D02*
D03*
D43*
X-176279Y660906D02*
D03*
X-177279Y704405D02*
D03*
X-78740Y772106D02*
D03*
X-118110D02*
D03*
X-19685Y494319D02*
D03*
X-196850D02*
D03*
X-157480D02*
D03*
X-98425D02*
D03*
X-59055D02*
D03*
X-98425Y484319D02*
D03*
X-59055D02*
D03*
X-19685D02*
D03*
X-39370Y782106D02*
D03*
X-78740D02*
D03*
X-118110D02*
D03*
X-196850Y484319D02*
D03*
X-157480D02*
D03*
X-39370Y772106D02*
D03*
D44*
X0Y475020D02*
D03*
X-314961D02*
D03*
Y789980D02*
D03*
X0D02*
D03*
D45*
X-160520Y538020D02*
D03*
X-154700Y639100D02*
D03*
X-180000Y563100D02*
D03*
X-158000Y562900D02*
D03*
X-180000Y554400D02*
D03*
X-158100Y555200D02*
D03*
X-206000Y609500D02*
D03*
X-168000Y670000D02*
D03*
X-40000Y711500D02*
D03*
X-43000Y674500D02*
D03*
X-117000Y716715D02*
D03*
X-135000Y764000D02*
D03*
X-44500Y703500D02*
D03*
X-130500Y614000D02*
D03*
X-41425Y597925D02*
D03*
X-48000Y602000D02*
D03*
X-47500Y593000D02*
D03*
X-143500Y550500D02*
D03*
X-88445Y550555D02*
D03*
X-11000Y519000D02*
D03*
X-99000Y502500D02*
D03*
X-12000Y509500D02*
D03*
X-41000Y575500D02*
D03*
X-83000Y594500D02*
D03*
X-99000Y596500D02*
D03*
X-120500Y592000D02*
D03*
X-104500Y591500D02*
D03*
X-69500Y618000D02*
D03*
X-69000Y608500D02*
D03*
X-166000Y658000D02*
D03*
X-139000Y678500D02*
D03*
X-142217Y665717D02*
D03*
X-71000Y589500D02*
D03*
X-151500Y665000D02*
D03*
X-156500Y618000D02*
D03*
X-157000Y632500D02*
D03*
X-122000Y569000D02*
D03*
X-115000Y569500D02*
D03*
X-123500Y640500D02*
D03*
X-236000Y532000D02*
D03*
X-101500Y658000D02*
D03*
X-109000Y652500D02*
D03*
X-113500Y648000D02*
D03*
X-122500Y652500D02*
D03*
X-131000Y680000D02*
D03*
X-107500Y702500D02*
D03*
X-121000Y677500D02*
D03*
X-102500Y695500D02*
D03*
X-6000Y713500D02*
D03*
X-21000Y715000D02*
D03*
X-14000Y721500D02*
D03*
X-54000Y725000D02*
D03*
X-86000Y677500D02*
D03*
X-77500Y676500D02*
D03*
X-94500Y726000D02*
D03*
X-28500Y721000D02*
D03*
X-69500Y725563D02*
D03*
X-106500Y722500D02*
D03*
X-272000Y525500D02*
D03*
X-271500Y506000D02*
D03*
X-272500Y634000D02*
D03*
X-285000Y618000D02*
D03*
X-293291Y628291D02*
D03*
X-304709Y597000D02*
D03*
X-293291Y597791D02*
D03*
X-257000Y621500D02*
D03*
X-251000Y551500D02*
D03*
X-245500Y559500D02*
D03*
X-304709Y555209D02*
D03*
X-289000Y571000D02*
D03*
X-243421Y679906D02*
D03*
X-240921Y718405D02*
D03*
X-217421Y689405D02*
D03*
X-100457Y541476D02*
D03*
X-116000Y538020D02*
D03*
X-17000Y544020D02*
D03*
X-34000Y536020D02*
D03*
X-54000Y541020D02*
D03*
X-75000Y537020D02*
D03*
X-154400Y699600D02*
D03*
X-163900Y623600D02*
D03*
X-96600Y625000D02*
D03*
D46*
X-85250Y707000D02*
D03*
Y685000D02*
D03*
X-72750Y707000D02*
D03*
Y685000D02*
D03*
D47*
X-102776Y520280D02*
D03*
Y524020D02*
D03*
Y527760D02*
D03*
X-113118Y520280D02*
D03*
Y527760D02*
D03*
X-18776Y520280D02*
D03*
Y524020D02*
D03*
Y527760D02*
D03*
X-29118Y520280D02*
D03*
Y527760D02*
D03*
X-59776Y520280D02*
D03*
Y524020D02*
D03*
Y527760D02*
D03*
X-70118Y520280D02*
D03*
Y527760D02*
D03*
X-26835Y743346D02*
D03*
Y739606D02*
D03*
Y735866D02*
D03*
X-16492Y743346D02*
D03*
Y735866D02*
D03*
X-106224Y743760D02*
D03*
Y740020D02*
D03*
Y736279D02*
D03*
X-95882Y743760D02*
D03*
Y736279D02*
D03*
X-65724Y744760D02*
D03*
Y741020D02*
D03*
Y737280D02*
D03*
X-55382Y744760D02*
D03*
Y737280D02*
D03*
M02*
