G04 start of page 8 for group -4079 idx -4079 *
G04 Title: combined, topsilk *
G04 Creator: pcb 20110918 *
G04 CreationDate: Tue 12 Jun 2012 05:40:10 PM GMT UTC *
G04 For: ed *
G04 Format: Gerber/RS-274X *
G04 PCB-Dimensions: 650000 650000 *
G04 PCB-Coordinate-Origin: lower left *
%MOIN*%
%FSLAX25Y25*%
%LNTOPSILK*%
%ADD118C,0.0050*%
%ADD117C,0.0150*%
%ADD116C,0.0300*%
%ADD115C,0.0200*%
%ADD114C,0.0100*%
%ADD113C,0.0250*%
G54D113*X262000Y248000D02*X2000D01*
X1000Y237000D02*Y1000D01*
X284000D01*
Y237000D02*Y1000D01*
X1000Y237000D02*X284000D01*
X2000Y248000D02*Y648000D01*
X260000D02*X262000Y646000D01*
Y248000D01*
X2000Y648000D02*X260000D01*
G54D114*X396000Y603000D02*X398000D01*
X397000Y604000D02*Y602000D01*
X394800Y601800D02*X394000Y601000D01*
Y605000D02*Y601000D01*
X393300Y605000D02*X394800D01*
X392100Y601500D02*X391600Y601000D01*
X390100D02*X391600D01*
X390100D02*X389600Y601500D01*
Y602500D02*Y601500D01*
X392100Y605000D02*X389600Y602500D01*
Y605000D02*X392100D01*
X384000D02*Y601000D01*
X382500Y603000D01*
X381000Y601000D01*
Y605000D02*Y601000D01*
X379800Y604500D02*Y603500D01*
X379300Y603000D01*
X378300D02*X379300D01*
X378300D02*X377800Y603500D01*
Y604500D02*Y603500D01*
X378300Y605000D02*X377800Y604500D01*
X378300Y605000D02*X379300D01*
X379800Y604500D02*X379300Y605000D01*
X376100Y604500D02*Y601000D01*
Y604500D02*X375600Y605000D01*
Y602500D02*X376600D01*
X374600Y604500D02*Y603500D01*
X374100Y603000D01*
X373100D02*X374100D01*
X373100D02*X372600Y603500D01*
Y604500D02*Y603500D01*
X373100Y605000D02*X372600Y604500D01*
X373100Y605000D02*X374100D01*
X374600Y604500D02*X374100Y605000D01*
X370900D02*Y603500D01*
X370400Y603000D01*
X369400D02*X370400D01*
X371400D02*X370900Y603500D01*
X366200Y605000D02*X367700D01*
X366200D02*X365700Y604500D01*
X366200Y604000D02*X365700Y604500D01*
X366200Y604000D02*X367700D01*
X368200Y603500D02*X367700Y604000D01*
X368200Y603500D02*X367700Y603000D01*
X366200D02*X367700D01*
X366200D02*X365700Y603500D01*
X368200Y604500D02*X367700Y605000D01*
X437000Y601000D02*X436500Y601500D01*
X437000Y601000D02*X438500D01*
X439000Y601500D02*X438500Y601000D01*
X439000Y604500D02*Y601500D01*
Y604500D02*X438500Y605000D01*
X437000D02*X438500D01*
X437000D02*X436500Y604500D01*
Y603500D01*
X437000Y603000D02*X436500Y603500D01*
X437000Y603000D02*X438000D01*
X435300Y605000D02*Y601000D01*
X432800Y605000D01*
Y601000D01*
X431100Y605000D02*Y601000D01*
X429800D02*X429100Y601700D01*
Y604300D02*Y601700D01*
X429800Y605000D02*X429100Y604300D01*
X429800Y605000D02*X431600D01*
X429800Y601000D02*X431600D01*
X417000D02*X416500Y601500D01*
X417000Y601000D02*X418500D01*
X419000Y601500D02*X418500Y601000D01*
X419000Y604500D02*Y601500D01*
Y604500D02*X418500Y605000D01*
X417000D02*X418500D01*
X417000D02*X416500Y604500D01*
Y603500D01*
X417000Y603000D02*X416500Y603500D01*
X417000Y603000D02*X418000D01*
X415300Y605000D02*Y601000D01*
X412800Y605000D01*
Y601000D01*
X411100Y605000D02*Y601000D01*
X409800D02*X409100Y601700D01*
Y604300D02*Y601700D01*
X409800Y605000D02*X409100Y604300D01*
X409800Y605000D02*X411600D01*
X409800Y601000D02*X411600D01*
X338000Y602000D02*X340000D01*
X339000Y603000D02*Y601000D01*
X336800Y600500D02*X336300Y600000D01*
X334800D02*X336300D01*
X334800D02*X334300Y600500D01*
Y601500D02*Y600500D01*
X336800Y604000D02*X334300Y601500D01*
Y604000D02*X336800D01*
X333100Y602500D02*X331100Y600000D01*
X330600Y602500D02*X333100D01*
X331100Y604000D02*Y600000D01*
X358000Y603000D02*X359500D01*
X360000Y603500D02*X359500Y603000D01*
X360000Y604500D02*Y603500D01*
Y604500D02*X359500Y605000D01*
X358000D02*X359500D01*
X354800Y601000D02*X356800D01*
X354800D02*X354300Y601500D01*
Y602500D02*Y601500D01*
X354800Y603000D02*X354300Y602500D01*
X354800Y603000D02*X356300D01*
Y605000D02*Y601000D01*
X355500Y603000D02*X354300Y605000D01*
X352100Y601000D02*X353100D01*
X352600Y605000D02*Y601000D01*
X352100Y605000D02*X353100D01*
X350900Y604500D02*Y601500D01*
X350400Y601000D01*
X349400D02*X350400D01*
X349400D02*X348900Y601500D01*
Y604500D02*Y601500D01*
X349400Y605000D02*X348900Y604500D01*
X349400Y605000D02*X350400D01*
X350900Y604500D02*X350400Y605000D01*
X443830Y203900D02*Y200900D01*
Y203900D02*X565030D01*
Y200900D01*
X443830D02*X565030D01*
X449830Y203900D02*Y200900D01*
X461830Y203900D02*Y200900D01*
X559030Y203900D02*Y200900D01*
X547030Y203900D02*Y200900D01*
G54D115*X466830Y214400D02*Y203900D01*
Y214400D02*X542030D01*
Y203900D01*
G54D114*X466830D02*X542030D01*
G54D115*X526030Y239000D02*Y214400D01*
X515230Y239000D02*Y214400D01*
X504430Y239000D02*Y214400D01*
X493630Y239000D02*Y214400D01*
X482830Y239000D02*Y214400D01*
X520630Y227800D02*Y214400D01*
X509830Y227800D02*Y214400D01*
X499030Y227800D02*Y214400D01*
X488230Y227800D02*Y214400D01*
G54D114*X582000Y122490D02*Y22490D01*
X622000D01*
Y122490D01*
X582000D02*X597000D01*
X607000D02*X622000D01*
X597000D02*G75*G03X607000Y122490I5000J0D01*G01*
X480000D02*Y22490D01*
X520000D01*
Y122490D01*
X480000D02*X495000D01*
X505000D02*X520000D01*
X495000D02*G75*G03X505000Y122490I5000J0D01*G01*
X308510Y128000D02*X408510D01*
Y168000D02*Y128000D01*
X308510Y168000D02*X408510D01*
X308510Y143000D02*Y128000D01*
Y168000D02*Y153000D01*
Y143000D02*G75*G03X308510Y153000I0J5000D01*G01*
Y34000D02*X408510D01*
Y74000D02*Y34000D01*
X308510Y74000D02*X408510D01*
X308510Y49000D02*Y34000D01*
Y74000D02*Y59000D01*
Y49000D02*G75*G03X308510Y59000I0J5000D01*G01*
X640000Y392300D02*Y328500D01*
X578000Y392500D02*X649000D01*
X578000D02*Y328500D01*
X649000D01*
Y392500D02*Y328500D01*
G54D116*X462000Y382000D02*Y364000D01*
X452000Y382000D02*Y364000D01*
X442000Y382000D02*Y364000D01*
G54D115*X432000D02*X472000D01*
X432000D02*Y326500D01*
X472000D01*
Y364000D02*Y326500D01*
X432000D02*X472000D01*
X432000D02*Y314000D01*
X433500D01*
Y307000D01*
X432000D02*X433500D01*
X432000D02*Y303000D01*
X472000D01*
Y307000D02*Y303000D01*
X470500Y307000D02*X472000D01*
X470500Y314000D02*Y307000D01*
Y314000D02*X472000D01*
Y326500D02*Y314000D01*
G54D117*X398430Y395400D02*X403430D01*
X400930Y397900D02*Y392900D01*
Y410400D02*X415930D01*
X408430Y405400D02*Y397900D01*
Y417900D02*Y410400D01*
X400930Y407900D02*X415930D01*
Y405400D01*
X400930D02*X415930D01*
X400930Y407900D02*Y405400D01*
X388430Y407900D02*G75*G03X408430Y387900I20000J0D01*G01*
Y427900D02*G75*G03X388430Y407900I0J-20000D01*G01*
X428430D02*G75*G03X408430Y427900I-20000J0D01*G01*
Y387900D02*G75*G03X428430Y407900I0J20000D01*G01*
X482000Y393500D02*X487000D01*
X484500Y396000D02*Y391000D01*
Y408500D02*X499500D01*
X492000Y403500D02*Y396000D01*
Y416000D02*Y408500D01*
X484500Y406000D02*X499500D01*
Y403500D01*
X484500D02*X499500D01*
X484500Y406000D02*Y403500D01*
X472000Y406000D02*G75*G03X492000Y386000I20000J0D01*G01*
Y426000D02*G75*G03X472000Y406000I0J-20000D01*G01*
X512000D02*G75*G03X492000Y426000I-20000J0D01*G01*
Y386000D02*G75*G03X512000Y406000I0J20000D01*G01*
G54D114*X475430Y636900D02*X505430D01*
X475430D02*Y626900D01*
X505430D01*
Y636900D02*Y626900D01*
X495430Y636900D02*Y626900D01*
X505430D01*
G54D117*X325587Y608652D02*X443699D01*
X325587Y636211D02*X443699D01*
X325587Y614557D02*X443699D01*
X325587Y636211D02*Y608652D01*
X443699Y636211D02*Y608652D01*
X325587Y632274D02*X443699D01*
X363973Y610620D02*X362989Y609636D01*
Y611604D02*Y609636D01*
Y611604D02*X363973Y610620D01*
G54D118*X335430Y611605D02*G75*G03X335430Y611605I0J984D01*G01*
X355115D02*G75*G03X355115Y611605I0J984D01*G01*
X374800D02*G75*G03X374800Y611605I0J984D01*G01*
X394485D02*G75*G03X394485Y611605I0J984D01*G01*
X414171D02*G75*G03X414171Y611605I0J984D01*G01*
X433856D02*G75*G03X433856Y611605I0J984D01*G01*
G54D117*X335430Y616525D02*G75*G03X335430Y616525I0J6890D01*G01*
X355115D02*G75*G03X355115Y616525I0J6890D01*G01*
X374800D02*G75*G03X374800Y616525I0J6890D01*G01*
X394485D02*G75*G03X394485Y616525I0J6890D01*G01*
X414171D02*G75*G03X414171Y616525I0J6890D01*G01*
X433856D02*G75*G03X433856Y616525I0J6890D01*G01*
G54D114*X475430Y626900D02*X505430D01*
X475430D02*Y616900D01*
X505430D01*
Y626900D02*Y616900D01*
X495430Y626900D02*Y616900D01*
X505430D01*
X445430Y626900D02*X475430D01*
X445430D02*Y616900D01*
X475430D01*
Y626900D02*Y616900D01*
X465430Y626900D02*Y616900D01*
X475430D01*
X445430Y636900D02*X475430D01*
X445430D02*Y626900D01*
X475430D01*
Y636900D02*Y626900D01*
X465430Y636900D02*Y626900D01*
X475430D01*
X540430Y636900D02*X580430D01*
X540430D02*Y616900D01*
X580430D01*
Y636900D02*Y616900D01*
X570430Y636900D02*Y626900D01*
X580430D01*
Y636900D02*X620430D01*
X580430D02*Y616900D01*
X620430D01*
Y636900D02*Y616900D01*
X610430Y636900D02*Y626900D01*
X620430D01*
X505430Y636900D02*X515430D01*
X505430D02*Y616900D01*
X515430D01*
Y636900D02*Y616900D01*
X505430Y636900D02*Y626900D01*
X515430D01*
X620430Y636900D02*X630430D01*
X620430D02*Y616900D01*
X630430D01*
Y636900D02*Y616900D01*
X620430Y636900D02*Y626900D01*
X630430D01*
X189000Y387000D02*Y373000D01*
X189071Y387071D02*G75*G03X189071Y372929I-7071J-7071D01*G01*
X191000Y340000D02*G75*G03X191000Y340000I10000J0D01*G01*
X251000Y330000D02*G75*G03X251000Y330000I-10000J0D01*G01*
G54D117*X152472Y273748D02*X191842D01*
X152472Y246189D02*X191842D01*
X152472Y267843D02*X191842D01*
Y273748D02*Y246189D01*
X152472Y273748D02*Y246189D01*
Y250126D02*X191842D01*
X187905Y256032D02*X179047Y264890D01*
X184952Y253079D02*X184953D01*
X184952D02*X176094Y261937D01*
X168220Y256032D02*X159362Y264890D01*
X165267Y253079D02*X165268D01*
X165267D02*X156409Y261937D01*
X192827Y271780D02*X193811Y272764D01*
Y270796D01*
X192827Y271780D01*
G54D118*X182000Y270795D02*G75*G03X182000Y270795I0J-984D01*G01*
X162315D02*G75*G03X162315Y270795I0J-984D01*G01*
G54D117*X182000Y265875D02*G75*G03X182000Y265875I0J-6890D01*G01*
X162315D02*G75*G03X162315Y265875I0J-6890D01*G01*
G54D116*X222000Y351000D02*Y369000D01*
X232000Y351000D02*Y369000D01*
X242000Y351000D02*Y369000D01*
G54D115*X212000D02*X252000D01*
Y406500D01*
X212000D01*
Y369000D01*
Y406500D02*X252000D01*
Y419000D01*
X250500D01*
Y426000D01*
X252000D01*
Y430000D01*
X212000D01*
Y426000D01*
X213500D01*
Y419000D01*
X212000D01*
Y406500D01*
G54D114*X196000Y311000D02*X212600D01*
X229400D02*X246000D01*
X212600D02*X229400Y319300D01*
Y302700D01*
X212600Y311000D01*
Y319300D02*Y302700D01*
G54D117*X192472Y273748D02*X231842D01*
X192472Y246189D02*X231842D01*
X192472Y267843D02*X231842D01*
Y273748D02*Y246189D01*
X192472Y273748D02*Y246189D01*
Y250126D02*X231842D01*
X227905Y256032D02*X219047Y264890D01*
X224952Y253079D02*X224953D01*
X224952D02*X216094Y261937D01*
X208220Y256032D02*X199362Y264890D01*
X205267Y253079D02*X205268D01*
X205267D02*X196409Y261937D01*
X232827Y271780D02*X233811Y272764D01*
Y270796D01*
X232827Y271780D01*
G54D118*X222000Y270795D02*G75*G03X222000Y270795I0J-984D01*G01*
X202315D02*G75*G03X202315Y270795I0J-984D01*G01*
G54D117*X222000Y265875D02*G75*G03X222000Y265875I0J-6890D01*G01*
X202315D02*G75*G03X202315Y265875I0J-6890D01*G01*
G54D114*X156000Y338000D02*X186000D01*
X156000D02*Y298000D01*
X186000D01*
Y338000D02*Y323000D01*
Y313000D02*Y298000D01*
Y323000D02*G75*G03X186000Y313000I0J-5000D01*G01*
G54D117*X72157Y273748D02*X111527D01*
X72157Y246189D02*X111527D01*
X72157Y267843D02*X111527D01*
Y273748D02*Y246189D01*
X72157Y273748D02*Y246189D01*
Y250126D02*X111527D01*
X107590Y256032D02*X98732Y264890D01*
X104637Y253079D02*X104638D01*
X104637D02*X95779Y261937D01*
X87905Y256032D02*X79047Y264890D01*
X84952Y253079D02*X84953D01*
X84952D02*X76094Y261937D01*
X112512Y271780D02*X113496Y272764D01*
Y270796D01*
X112512Y271780D01*
G54D118*X101685Y270795D02*G75*G03X101685Y270795I0J-984D01*G01*
X82000D02*G75*G03X82000Y270795I0J-984D01*G01*
G54D117*X101685Y265875D02*G75*G03X101685Y265875I0J-6890D01*G01*
X82000D02*G75*G03X82000Y265875I0J-6890D01*G01*
G54D114*X12000Y273000D02*Y253000D01*
X22000D01*
Y273000D01*
X12000D01*
Y263000D02*X22000D01*
Y273000D01*
G54D117*X32472Y273748D02*X71842D01*
X32472Y246189D02*X71842D01*
X32472Y267843D02*X71842D01*
Y273748D02*Y246189D01*
X32472Y273748D02*Y246189D01*
Y250126D02*X71842D01*
X67905Y256032D02*X59047Y264890D01*
X64952Y253079D02*X64953D01*
X64952D02*X56094Y261937D01*
X48220Y256032D02*X39362Y264890D01*
X45267Y253079D02*X45268D01*
X45267D02*X36409Y261937D01*
X72827Y271780D02*X73811Y272764D01*
Y270796D01*
X72827Y271780D01*
G54D118*X62000Y270795D02*G75*G03X62000Y270795I0J-984D01*G01*
X42315D02*G75*G03X42315Y270795I0J-984D01*G01*
G54D117*X62000Y265875D02*G75*G03X62000Y265875I0J-6890D01*G01*
X42315D02*G75*G03X42315Y265875I0J-6890D01*G01*
G54D114*X155900Y231700D02*X181600Y201800D01*
Y165600D01*
X155900Y135700D01*
X51900D02*X155900D01*
X51900Y231700D02*Y135700D01*
Y231700D02*X155900D01*
X5000Y206000D02*Y176000D01*
X15000D01*
Y206000D02*Y176000D01*
X5000Y206000D02*X15000D01*
X5000Y196000D02*X15000D01*
Y206000D02*Y196000D01*
G54D117*X112472Y273748D02*X151842D01*
X112472Y246189D02*X151842D01*
X112472Y267843D02*X151842D01*
Y273748D02*Y246189D01*
X112472Y273748D02*Y246189D01*
Y250126D02*X151842D01*
X147905Y256032D02*X139047Y264890D01*
X144952Y253079D02*X144953D01*
X144952D02*X136094Y261937D01*
X128220Y256032D02*X119362Y264890D01*
X125267Y253079D02*X125268D01*
X125267D02*X116409Y261937D01*
X152827Y271780D02*X153811Y272764D01*
Y270796D01*
X152827Y271780D01*
G54D118*X142000Y270795D02*G75*G03X142000Y270795I0J-984D01*G01*
X122315D02*G75*G03X122315Y270795I0J-984D01*G01*
G54D117*X142000Y265875D02*G75*G03X142000Y265875I0J-6890D01*G01*
X122315D02*G75*G03X122315Y265875I0J-6890D01*G01*
G54D114*X77000Y293000D02*X107000D01*
Y333000D02*Y293000D01*
X77000Y333000D02*X107000D01*
X77000Y308000D02*Y293000D01*
Y333000D02*Y318000D01*
Y308000D02*G75*G03X77000Y318000I0J5000D01*G01*
X149000Y353000D02*Y340500D01*
Y315500D02*Y303000D01*
X153100Y340500D02*Y315500D01*
X144900D02*X153100D01*
X144900Y340500D02*Y315500D01*
Y340500D02*X153100D01*
G54D116*X114000Y347000D02*Y329000D01*
X124000Y347000D02*Y329000D01*
X134000Y347000D02*Y329000D01*
G54D115*X104000Y347000D02*X144000D01*
Y384500D02*Y347000D01*
X104000Y384500D02*X144000D01*
X104000D02*Y347000D01*
Y384500D02*X144000D01*
Y397000D02*Y384500D01*
X142500Y397000D02*X144000D01*
X142500Y404000D02*Y397000D01*
Y404000D02*X144000D01*
Y408000D02*Y404000D01*
X104000Y408000D02*X144000D01*
X104000D02*Y404000D01*
X105500D01*
Y397000D01*
X104000D02*X105500D01*
X104000D02*Y384500D01*
X81000Y281000D02*X101000D01*
X81000Y291000D02*Y281000D01*
Y291000D02*X101000D01*
Y281000D01*
Y286000D02*X111000D01*
X71000D02*X81000D01*
G54D114*X67000Y323000D02*Y310500D01*
Y360500D02*Y348000D01*
X62900D02*Y323000D01*
Y348000D02*X71100D01*
Y323000D01*
X62900D02*X71100D01*
X107000Y493000D02*Y423000D01*
X147000D01*
Y493000D01*
X107000D02*X122000D01*
X132000D02*X147000D01*
X122000D02*G75*G03X132000Y493000I5000J0D01*G01*
X87300Y624100D02*X117200Y649800D01*
X153400D01*
X183300Y624100D01*
Y520100D01*
X87300D01*
Y624100D01*
X25500Y150000D02*Y142500D01*
Y172500D02*Y165000D01*
X23000D02*Y150000D01*
Y165000D02*X28000D01*
Y150000D01*
X23000D02*X28000D01*
X5500Y172000D02*Y152000D01*
X15500D01*
Y172000D02*Y152000D01*
X5500Y172000D02*X15500D01*
X5500Y162000D02*X15500D01*
Y172000D02*Y162000D01*
X199000Y132000D02*Y112000D01*
X189000Y132000D02*X199000D01*
X189000D02*Y112000D01*
X199000D01*
X189000Y122000D02*X199000D01*
X189000D02*Y112000D01*
X111000Y84000D02*Y70000D01*
X111071Y84071D02*G75*G03X111071Y69929I-7071J-7071D01*G01*
G54D117*X139000Y92000D02*Y12000D01*
X179000D01*
Y92000D02*Y12000D01*
X139000Y92000D02*X154000D01*
X164000D02*X179000D01*
X154000D02*G75*G03X164000Y92000I5000J0D01*G01*
G54D114*X21000Y84000D02*Y70000D01*
X21071Y84071D02*G75*G03X21071Y69929I-7071J-7071D01*G01*
X51000Y84000D02*Y70000D01*
X51071Y84071D02*G75*G03X51071Y69929I-7071J-7071D01*G01*
X10500Y124300D02*Y109800D01*
X11500Y108900D02*X10500Y109900D01*
X11500Y125300D02*X10600Y124400D01*
X11498Y108898D02*G75*G03X11498Y125302I8202J8202D01*G01*
X40500Y124300D02*Y109800D01*
X41500Y108900D02*X40500Y109900D01*
X41500Y125300D02*X40600Y124400D01*
X41498Y108898D02*G75*G03X41498Y125302I8202J8202D01*G01*
X100500Y124300D02*Y109800D01*
X101500Y108900D02*X100500Y109900D01*
X101500Y125300D02*X100600Y124400D01*
X101498Y108898D02*G75*G03X101498Y125302I8202J8202D01*G01*
X70500Y124300D02*Y109800D01*
X71500Y108900D02*X70500Y109900D01*
X71500Y125300D02*X70600Y124400D01*
X71498Y108898D02*G75*G03X71498Y125302I8202J8202D01*G01*
X81000Y84000D02*Y70000D01*
X81071Y84071D02*G75*G03X81071Y69929I-7071J-7071D01*G01*
X105189Y279798D02*Y275798D01*
Y277798D02*X107189Y279798D01*
X105189Y277798D02*X107189Y275798D01*
X108389Y279298D02*X108889Y279798D01*
X110389D01*
X110889Y279298D01*
Y278298D01*
X108389Y275798D02*X110889Y278298D01*
X108389Y275798D02*X110889D01*
X23000Y272300D02*Y271000D01*
X23700Y273000D02*X23000Y272300D01*
X23700Y273000D02*X26300D01*
X27000Y272300D01*
Y271000D01*
X23500Y269800D02*X26500D01*
X27000Y269300D01*
Y268300D01*
X26500Y267800D01*
X23500D02*X26500D01*
X23000Y268300D02*X23500Y267800D01*
X23000Y269300D02*Y268300D01*
X23500Y269800D02*X23000Y269300D01*
Y266600D02*X27000D01*
X23000Y264100D01*
X27000D01*
X23000Y262900D02*X27000D01*
X23000Y260400D01*
X27000D01*
X26200Y259200D02*X27000Y258400D01*
X23000D02*X27000D01*
X23000Y259200D02*Y257700D01*
X89000Y275000D02*X91000D01*
X91500Y274500D01*
Y273500D01*
X91000Y273000D02*X91500Y273500D01*
X89500Y273000D02*X91000D01*
X89500Y275000D02*Y271000D01*
X90300Y273000D02*X91500Y271000D01*
X92700Y274200D02*X93500Y275000D01*
Y271000D01*
X92700D02*X94200D01*
X95900D02*X97400Y273000D01*
Y274500D02*Y273000D01*
X96900Y275000D02*X97400Y274500D01*
X95900Y275000D02*X96900D01*
X95400Y274500D02*X95900Y275000D01*
X95400Y274500D02*Y273500D01*
X95900Y273000D01*
X97400D01*
X128874Y279298D02*Y275298D01*
Y277298D02*X130874Y279298D01*
X128874Y277298D02*X130874Y275298D01*
X132074Y279298D02*X134074D01*
X132074D02*Y277298D01*
X132574Y277798D01*
X133574D01*
X134074Y277298D01*
Y275798D01*
X133574Y275298D02*X134074Y275798D01*
X132574Y275298D02*X133574D01*
X132074Y275798D02*X132574Y275298D01*
X112000Y302000D02*Y298500D01*
X112500Y298000D01*
X113500D01*
X114000Y298500D01*
Y302000D02*Y298500D01*
X115200Y301500D02*X115700Y302000D01*
X117200D01*
X117700Y301500D01*
Y300500D01*
X115200Y298000D02*X117700Y300500D01*
X115200Y298000D02*X117700D01*
X139200Y309900D02*X140500D01*
X138500Y310600D02*X139200Y309900D01*
X138500Y313200D02*Y310600D01*
Y313200D02*X139200Y313900D01*
X140500D01*
X143200D02*X143700Y313400D01*
X142200Y313900D02*X143200D01*
X141700Y313400D02*X142200Y313900D01*
X141700Y313400D02*Y310400D01*
X142200Y309900D01*
X143200Y312100D02*X143700Y311600D01*
X141700Y312100D02*X143200D01*
X142200Y309900D02*X143200D01*
X143700Y310400D01*
Y311600D02*Y310400D01*
X110500Y352000D02*X113500D01*
X110500D02*X110000Y352500D01*
Y353500D02*Y352500D01*
Y353500D02*X110500Y354000D01*
X113000D01*
X114000Y353000D02*X113000Y354000D01*
X114000Y353000D02*Y352500D01*
X113500Y352000D02*X114000Y352500D01*
X112500Y353000D02*X114000Y354000D01*
X110500Y355200D02*X110000Y355700D01*
Y357200D02*Y355700D01*
Y357200D02*X110500Y357700D01*
X111500D01*
X114000Y355200D02*X111500Y357700D01*
X114000D02*Y355200D01*
X49874Y280298D02*Y276298D01*
Y278298D02*X51874Y280298D01*
X49874Y278298D02*X51874Y276298D01*
X53074Y279498D02*X53874Y280298D01*
Y276298D01*
X53074D02*X54574D01*
X77700Y346900D02*X79000D01*
X77000Y347600D02*X77700Y346900D01*
X77000Y350200D02*Y347600D01*
Y350200D02*X77700Y350900D01*
X79000D01*
X80200D02*X82200D01*
X80200D02*Y348900D01*
X80700Y349400D01*
X81700D01*
X82200Y348900D01*
Y347400D01*
X81700Y346900D02*X82200Y347400D01*
X80700Y346900D02*X81700D01*
X80200Y347400D02*X80700Y346900D01*
X83291Y395032D02*X85291D01*
X85791Y394532D01*
Y393532D01*
X85291Y393032D02*X85791Y393532D01*
X83791Y393032D02*X85291D01*
X83791Y395032D02*Y391032D01*
X84591Y393032D02*X85791Y391032D01*
X86991Y394232D02*X87791Y395032D01*
Y391032D01*
X86991D02*X88491D01*
X89691Y395032D02*X91691D01*
X89691D02*Y393032D01*
X90191Y393532D01*
X91191D01*
X91691Y393032D01*
Y391532D01*
X91191Y391032D02*X91691Y391532D01*
X90191Y391032D02*X91191D01*
X89691Y391532D02*X90191Y391032D01*
X187000Y397500D02*Y394500D01*
Y397500D02*X187500Y398000D01*
X188500D01*
X189000Y397500D01*
Y395000D01*
X188000Y394000D02*X189000Y395000D01*
X187500Y394000D02*X188000D01*
X187000Y394500D02*X187500Y394000D01*
X188000Y395500D02*X189000Y394000D01*
X190200Y397200D02*X191000Y398000D01*
Y394000D01*
X190200D02*X191700D01*
X248000Y361000D02*Y357500D01*
X248500Y357000D01*
X249500D01*
X250000Y357500D01*
Y361000D02*Y357500D01*
X251200Y358500D02*X253200Y361000D01*
X251200Y358500D02*X253700D01*
X253200Y361000D02*Y357000D01*
X191614Y369150D02*X193614D01*
X194114Y368650D01*
Y367650D01*
X193614Y367150D02*X194114Y367650D01*
X192114Y367150D02*X193614D01*
X192114Y369150D02*Y365150D01*
X192914Y367150D02*X194114Y365150D01*
X195314Y368350D02*X196114Y369150D01*
Y365150D01*
X195314D02*X196814D01*
X198514D02*X200514Y369150D01*
X198014D02*X200514D01*
X171874Y280298D02*Y276298D01*
Y278298D02*X173874Y280298D01*
X171874Y278298D02*X173874Y276298D01*
X175074Y277798D02*X177074Y280298D01*
X175074Y277798D02*X177574D01*
X177074Y280298D02*Y276298D01*
X170173Y359591D02*X172173D01*
X172673Y359091D01*
Y358091D01*
X172173Y357591D02*X172673Y358091D01*
X170673Y357591D02*X172173D01*
X170673Y359591D02*Y355591D01*
X171473Y357591D02*X172673Y355591D01*
X173873Y358791D02*X174673Y359591D01*
Y355591D01*
X173873D02*X175373D01*
X176573Y359091D02*X177073Y359591D01*
X178573D01*
X179073Y359091D01*
Y358091D01*
X176573Y355591D02*X179073Y358091D01*
X176573Y355591D02*X179073D01*
X169000Y346000D02*Y342500D01*
X169500Y342000D01*
X170500D01*
X171000Y342500D01*
Y346000D02*Y342500D01*
X172200Y346000D02*X174200D01*
X172200D02*Y344000D01*
X172700Y344500D01*
X173700D01*
X174200Y344000D01*
Y342500D01*
X173700Y342000D02*X174200Y342500D01*
X172700Y342000D02*X173700D01*
X172200Y342500D02*X172700Y342000D01*
X174291Y420914D02*X176291D01*
X176791Y420414D01*
Y419414D01*
X176291Y418914D02*X176791Y419414D01*
X174791Y418914D02*X176291D01*
X174791Y420914D02*Y416914D01*
X175591Y418914D02*X176791Y416914D01*
X177991Y420114D02*X178791Y420914D01*
Y416914D01*
X177991D02*X179491D01*
X182191Y420914D02*X182691Y420414D01*
X181191Y420914D02*X182191D01*
X180691Y420414D02*X181191Y420914D01*
X180691Y420414D02*Y417414D01*
X181191Y416914D01*
X182191Y419114D02*X182691Y418614D01*
X180691Y419114D02*X182191D01*
X181191Y416914D02*X182191D01*
X182691Y417414D01*
Y418614D02*Y417414D01*
X235900Y303300D02*Y299300D01*
X237200Y303300D02*X237900Y302600D01*
Y300000D01*
X237200Y299300D02*X237900Y300000D01*
X235400Y299300D02*X237200D01*
X235400Y303300D02*X237200D01*
X239100Y302500D02*X239900Y303300D01*
Y299300D01*
X239100D02*X240600D01*
X213700Y331000D02*X215000D01*
X213000Y331700D02*X213700Y331000D01*
X213000Y334300D02*Y331700D01*
Y334300D02*X213700Y335000D01*
X215000D01*
X216200Y334500D02*X216700Y335000D01*
X217700D01*
X218200Y334500D01*
X217700Y331000D02*X218200Y331500D01*
X216700Y331000D02*X217700D01*
X216200Y331500D02*X216700Y331000D01*
Y333200D02*X217700D01*
X218200Y334500D02*Y333700D01*
Y332700D02*Y331500D01*
Y332700D02*X217700Y333200D01*
X218200Y333700D02*X217700Y333200D01*
X255700Y321000D02*X257000D01*
X255000Y321700D02*X255700Y321000D01*
X255000Y324300D02*Y321700D01*
Y324300D02*X255700Y325000D01*
X257000D01*
X258200Y322500D02*X260200Y325000D01*
X258200Y322500D02*X260700D01*
X260200Y325000D02*Y321000D01*
X204874Y281298D02*Y277298D01*
Y279298D02*X206874Y281298D01*
X204874Y279298D02*X206874Y277298D01*
X208074Y280798D02*X208574Y281298D01*
X209574D01*
X210074Y280798D01*
X209574Y277298D02*X210074Y277798D01*
X208574Y277298D02*X209574D01*
X208074Y277798D02*X208574Y277298D01*
Y279498D02*X209574D01*
X210074Y280798D02*Y279998D01*
Y278998D02*Y277798D01*
Y278998D02*X209574Y279498D01*
X210074Y279998D02*X209574Y279498D01*
X192291Y360150D02*X194291D01*
X194791Y359650D01*
Y358650D01*
X194291Y358150D02*X194791Y358650D01*
X192791Y358150D02*X194291D01*
X192791Y360150D02*Y356150D01*
X193591Y358150D02*X194791Y356150D01*
X195991Y359350D02*X196791Y360150D01*
Y356150D01*
X195991D02*X197491D01*
X198691Y356650D02*X199191Y356150D01*
X198691Y357450D02*Y356650D01*
Y357450D02*X199391Y358150D01*
X199991D01*
X200691Y357450D01*
Y356650D01*
X200191Y356150D02*X200691Y356650D01*
X199191Y356150D02*X200191D01*
X198691Y358850D02*X199391Y358150D01*
X198691Y359650D02*Y358850D01*
Y359650D02*X199191Y360150D01*
X200191D01*
X200691Y359650D01*
Y358850D01*
X199991Y358150D02*X200691Y358850D01*
X176800Y220600D02*X180300D01*
X176800D02*X176300Y220100D01*
Y219100D01*
X176800Y218600D01*
X180300D01*
X176300Y216900D02*X180300Y214900D01*
Y217400D02*Y214900D01*
X35000Y169000D02*Y167700D01*
X34300Y167000D02*X35000Y167700D01*
X31700Y167000D02*X34300D01*
X31700D02*X31000Y167700D01*
Y169000D02*Y167700D01*
X35000Y170700D02*X31000Y172700D01*
Y170200D01*
X16500Y172000D02*Y170000D01*
X17000Y169500D01*
X18200D01*
X18700Y170000D02*X18200Y169500D01*
X18700Y171500D02*Y170000D01*
X16500Y171500D02*X20500D01*
Y172000D02*Y170000D01*
X20000Y169500D01*
X19200D02*X20000D01*
X18700Y170000D02*X19200Y169500D01*
X16500Y168300D02*X19500D01*
X20500Y167600D01*
Y166500D01*
X19500Y165800D01*
X16500D02*X19500D01*
X18500Y168300D02*Y165800D01*
X20500Y164600D02*Y162600D01*
X16500Y163600D02*X20500D01*
X20000Y204000D02*X19500Y203500D01*
X20000Y205500D02*Y204000D01*
X19500Y206000D02*X20000Y205500D01*
X18500Y206000D02*X19500D01*
X18500D02*X18000Y205500D01*
Y204000D01*
X17500Y203500D01*
X16500D02*X17500D01*
X16000Y204000D02*X16500Y203500D01*
X16000Y205500D02*Y204000D01*
X16500Y206000D02*X16000Y205500D01*
X19200Y202300D02*X20000Y201500D01*
X16000D02*X20000D01*
X16000Y202300D02*Y200800D01*
X42150Y122591D02*Y120591D01*
X41650Y120091D01*
X40650D02*X41650D01*
X40150Y120591D02*X40650Y120091D01*
X40150Y122091D02*Y120591D01*
X38150Y122091D02*X42150D01*
X40150Y121291D02*X38150Y120091D01*
X41650Y118891D02*X42150Y118391D01*
Y116891D01*
X41650Y116391D01*
X40650D02*X41650D01*
X38150Y118891D02*X40650Y116391D01*
X38150Y118891D02*Y116391D01*
X41350Y115191D02*X42150Y114391D01*
X38150D02*X42150D01*
X38150Y115191D02*Y113691D01*
X22500Y86000D02*X25500D01*
X26000Y85500D01*
Y84500D01*
X25500Y84000D01*
X23000D02*X25500D01*
X22000Y85000D02*X23000Y84000D01*
X22000Y85500D02*Y85000D01*
X22500Y86000D02*X22000Y85500D01*
X23500Y85000D02*X22000Y84000D01*
X25500Y82800D02*X26000Y82300D01*
Y81300D01*
X25500Y80800D01*
X22000Y81300D02*X22500Y80800D01*
X22000Y82300D02*Y81300D01*
X22500Y82800D02*X22000Y82300D01*
X24200D02*Y81300D01*
X24700Y80800D02*X25500D01*
X22500D02*X23700D01*
X24200Y81300D01*
X24700Y80800D02*X24200Y81300D01*
X73650Y120032D02*Y118032D01*
X73150Y117532D01*
X72150D02*X73150D01*
X71650Y118032D02*X72150Y117532D01*
X71650Y119532D02*Y118032D01*
X69650Y119532D02*X73650D01*
X71650Y118732D02*X69650Y117532D01*
X73150Y116332D02*X73650Y115832D01*
Y114332D01*
X73150Y113832D01*
X72150D02*X73150D01*
X69650Y116332D02*X72150Y113832D01*
X69650Y116332D02*Y113832D01*
X73650Y112632D02*Y110632D01*
X71650Y112632D02*X73650D01*
X71650D02*X72150Y112132D01*
Y111132D01*
X71650Y110632D01*
X70150D02*X71650D01*
X69650Y111132D02*X70150Y110632D01*
X69650Y112132D02*Y111132D01*
X70150Y112632D02*X69650Y112132D01*
X52500Y86000D02*X55500D01*
X56000Y85500D01*
Y84500D01*
X55500Y84000D01*
X53000D02*X55500D01*
X52000Y85000D02*X53000Y84000D01*
X52000Y85500D02*Y85000D01*
X52500Y86000D02*X52000Y85500D01*
X53500Y85000D02*X52000Y84000D01*
X56000Y82800D02*Y80800D01*
X54000Y82800D02*X56000D01*
X54000D02*X54500Y82300D01*
Y81300D01*
X54000Y80800D01*
X52500D02*X54000D01*
X52000Y81300D02*X52500Y80800D01*
X52000Y82300D02*Y81300D01*
X52500Y82800D02*X52000Y82300D01*
X34400Y109000D02*X33900Y108500D01*
X34400Y110500D02*Y109000D01*
X33900Y111000D02*X34400Y110500D01*
X32900Y111000D02*X33900D01*
X32900D02*X32400Y110500D01*
Y109000D01*
X31900Y108500D01*
X30900D02*X31900D01*
X30400Y109000D02*X30900Y108500D01*
X30400Y110500D02*Y109000D01*
X30900Y111000D02*X30400Y110500D01*
X30900Y107300D02*X33900D01*
X34400Y106800D01*
Y105800D01*
X33900Y105300D01*
X30900D02*X33900D01*
X30400Y105800D02*X30900Y105300D01*
X30400Y106800D02*Y105800D01*
X30900Y107300D02*X30400Y106800D01*
Y104100D02*X34400D01*
Y102100D01*
X32600Y104100D02*Y102600D01*
X34400Y100900D02*Y98900D01*
X30400Y99900D02*X34400D01*
X30400Y97700D02*Y95700D01*
Y94500D02*X34400D01*
X30400D02*Y92500D01*
X32600Y91300D02*Y89800D01*
X30400Y91300D02*Y89300D01*
Y91300D02*X34400D01*
Y89300D01*
X30400Y87600D02*X34400D01*
Y86300D02*X33700Y85600D01*
X31100D02*X33700D01*
X30400Y86300D02*X31100Y85600D01*
X30400Y88100D02*Y86300D01*
X34400Y88100D02*Y86300D01*
X64400Y111000D02*Y110000D01*
X60400Y110500D02*X64400D01*
X60400Y111000D02*Y110000D01*
X64400Y108800D02*Y106800D01*
X63900Y106300D01*
X62900D02*X63900D01*
X62400Y106800D02*X62900Y106300D01*
X62400Y108300D02*Y106800D01*
X60400Y108300D02*X64400D01*
X62400Y107500D02*X60400Y106300D01*
Y104400D02*Y103100D01*
X61100Y105100D02*X60400Y104400D01*
X61100Y105100D02*X63700D01*
X64400Y104400D01*
Y103100D01*
Y101900D02*Y99900D01*
X62400Y101900D02*X64400D01*
X62400D02*X62900Y101400D01*
Y100400D01*
X62400Y99900D01*
X60900D02*X62400D01*
X60400Y100400D02*X60900Y99900D01*
X60400Y101400D02*Y100400D01*
X60900Y101900D02*X60400Y101400D01*
Y98700D02*Y96700D01*
Y95500D02*X64400D01*
X60400D02*Y93500D01*
X62600Y92300D02*Y90800D01*
X60400Y92300D02*Y90300D01*
Y92300D02*X64400D01*
Y90300D01*
X60400Y88600D02*X64400D01*
Y87300D02*X63700Y86600D01*
X61100D02*X63700D01*
X60400Y87300D02*X61100Y86600D01*
X60400Y89100D02*Y87300D01*
X64400Y89100D02*Y87300D01*
X145650Y130532D02*Y128532D01*
X145150Y128032D01*
X144150D02*X145150D01*
X143650Y128532D02*X144150Y128032D01*
X143650Y130032D02*Y128532D01*
X141650Y130032D02*X145650D01*
X143650Y129232D02*X141650Y128032D01*
X145150Y126832D02*X145650Y126332D01*
Y124832D01*
X145150Y124332D01*
X144150D02*X145150D01*
X141650Y126832D02*X144150Y124332D01*
X141650Y126832D02*Y124332D01*
X145150Y123132D02*X145650Y122632D01*
Y121132D01*
X145150Y120632D01*
X144150D02*X145150D01*
X141650Y123132D02*X144150Y120632D01*
X141650Y123132D02*Y120632D01*
X158650Y128209D02*Y126209D01*
X158150Y125709D01*
X157150D02*X158150D01*
X156650Y126209D02*X157150Y125709D01*
X156650Y127709D02*Y126209D01*
X154650Y127709D02*X158650D01*
X156650Y126909D02*X154650Y125709D01*
X158150Y124509D02*X158650Y124009D01*
Y122509D01*
X158150Y122009D01*
X157150D02*X158150D01*
X154650Y124509D02*X157150Y122009D01*
X154650Y124509D02*Y122009D01*
X156150Y120809D02*X158650Y118809D01*
X156150Y120809D02*Y118309D01*
X154650Y118809D02*X158650D01*
X135650Y115150D02*Y113150D01*
X135150Y112650D01*
X134150D02*X135150D01*
X133650Y113150D02*X134150Y112650D01*
X133650Y114650D02*Y113150D01*
X131650Y114650D02*X135650D01*
X133650Y113850D02*X131650Y112650D01*
X135150Y111450D02*X135650Y110950D01*
Y109450D01*
X135150Y108950D01*
X134150D02*X135150D01*
X131650Y111450D02*X134150Y108950D01*
X131650Y111450D02*Y108950D01*
X132150Y107750D02*X131650Y107250D01*
X132150Y107750D02*X132950D01*
X133650Y107050D01*
Y106450D01*
X132950Y105750D01*
X132150D02*X132950D01*
X131650Y106250D02*X132150Y105750D01*
X131650Y107250D02*Y106250D01*
X134350Y107750D02*X133650Y107050D01*
X134350Y107750D02*X135150D01*
X135650Y107250D01*
Y106250D01*
X135150Y105750D01*
X134350D02*X135150D01*
X133650Y106450D02*X134350Y105750D01*
X61973Y54709D02*Y52709D01*
X61473Y52209D01*
X60473D02*X61473D01*
X59973Y52709D02*X60473Y52209D01*
X59973Y54209D02*Y52709D01*
X57973Y54209D02*X61973D01*
X59973Y53409D02*X57973Y52209D01*
X61473Y51009D02*X61973Y50509D01*
Y49009D01*
X61473Y48509D01*
X60473D02*X61473D01*
X57973Y51009D02*X60473Y48509D01*
X57973Y51009D02*Y48509D01*
X61973Y45809D02*X61473Y45309D01*
X61973Y46809D02*Y45809D01*
X61473Y47309D02*X61973Y46809D01*
X58473Y47309D02*X61473D01*
X58473D02*X57973Y46809D01*
X60173Y45809D02*X59673Y45309D01*
X60173Y47309D02*Y45809D01*
X57973Y46809D02*Y45809D01*
X58473Y45309D01*
X59673D01*
X213000Y117000D02*X212500Y116500D01*
X213000Y118500D02*Y117000D01*
X212500Y119000D02*X213000Y118500D01*
X211500Y119000D02*X212500D01*
X211500D02*X211000Y118500D01*
Y117000D01*
X210500Y116500D01*
X209500D02*X210500D01*
X209000Y117000D02*X209500Y116500D01*
X209000Y118500D02*Y117000D01*
X209500Y119000D02*X209000Y118500D01*
X212500Y115300D02*X213000Y114800D01*
Y113300D01*
X212500Y112800D01*
X211500D02*X212500D01*
X209000Y115300D02*X211500Y112800D01*
X209000Y115300D02*Y112800D01*
X201150Y47709D02*Y45709D01*
X200650Y45209D01*
X199650D02*X200650D01*
X199150Y45709D02*X199650Y45209D01*
X199150Y47209D02*Y45709D01*
X197150Y47209D02*X201150D01*
X199150Y46409D02*X197150Y45209D01*
X200650Y44009D02*X201150Y43509D01*
Y42009D01*
X200650Y41509D01*
X199650D02*X200650D01*
X197150Y44009D02*X199650Y41509D01*
X197150Y44009D02*Y41509D01*
Y39809D02*X199150Y38309D01*
X200650D01*
X201150Y38809D02*X200650Y38309D01*
X201150Y39809D02*Y38809D01*
X200650Y40309D02*X201150Y39809D01*
X199650Y40309D02*X200650D01*
X199650D02*X199150Y39809D01*
Y38309D01*
X128650Y68827D02*Y66827D01*
X128150Y66327D01*
X127150D02*X128150D01*
X126650Y66827D02*X127150Y66327D01*
X126650Y68327D02*Y66827D01*
X124650Y68327D02*X128650D01*
X126650Y67527D02*X124650Y66327D01*
X128150Y65127D02*X128650Y64627D01*
Y63127D01*
X128150Y62627D01*
X127150D02*X128150D01*
X124650Y65127D02*X127150Y62627D01*
X124650Y65127D02*Y62627D01*
Y60927D02*X128650Y58927D01*
Y61427D02*Y58927D01*
X130500Y15000D02*X134000D01*
X130500D02*X130000Y14500D01*
Y13500D01*
X130500Y13000D01*
X134000D01*
X130500Y11800D02*X130000Y11300D01*
X130500Y11800D02*X131300D01*
X132000Y11100D01*
Y10500D01*
X131300Y9800D01*
X130500D02*X131300D01*
X130000Y10300D02*X130500Y9800D01*
X130000Y11300D02*Y10300D01*
X132700Y11800D02*X132000Y11100D01*
X132700Y11800D02*X133500D01*
X134000Y11300D01*
Y10300D01*
X133500Y9800D01*
X132700D02*X133500D01*
X132000Y10500D02*X132700Y9800D01*
X112500Y86000D02*X115500D01*
X116000Y85500D01*
Y84500D01*
X115500Y84000D01*
X113000D02*X115500D01*
X112000Y85000D02*X113000Y84000D01*
X112000Y85500D02*Y85000D01*
X112500Y86000D02*X112000Y85500D01*
X113500Y85000D02*X112000Y84000D01*
X113500Y82800D02*X116000Y80800D01*
X113500Y82800D02*Y80300D01*
X112000Y80800D02*X116000D01*
X100650Y124650D02*Y122650D01*
X100150Y122150D01*
X99150D02*X100150D01*
X98650Y122650D02*X99150Y122150D01*
X98650Y124150D02*Y122650D01*
X96650Y124150D02*X100650D01*
X98650Y123350D02*X96650Y122150D01*
X100150Y120950D02*X100650Y120450D01*
Y118950D01*
X100150Y118450D01*
X99150D02*X100150D01*
X96650Y120950D02*X99150Y118450D01*
X96650Y120950D02*Y118450D01*
X100150Y117250D02*X100650Y116750D01*
Y115750D01*
X100150Y115250D01*
X96650Y115750D02*X97150Y115250D01*
X96650Y116750D02*Y115750D01*
X97150Y117250D02*X96650Y116750D01*
X98850D02*Y115750D01*
X99350Y115250D02*X100150D01*
X97150D02*X98350D01*
X98850Y115750D01*
X99350Y115250D02*X98850Y115750D01*
X124400Y111000D02*Y109000D01*
X123900Y108500D01*
X122900D02*X123900D01*
X122400Y109000D02*X122900Y108500D01*
X122400Y110500D02*Y109000D01*
X120400Y110500D02*X124400D01*
X122400Y109700D02*X120400Y108500D01*
X122600Y107300D02*Y105800D01*
X120400Y107300D02*Y105300D01*
Y107300D02*X124400D01*
Y105300D01*
X120400Y104100D02*X124400D01*
X122400Y102600D01*
X124400Y101100D01*
X120400D02*X124400D01*
X120400Y99900D02*Y97900D01*
Y96700D02*X124400D01*
X120400D02*Y94700D01*
X122600Y93500D02*Y92000D01*
X120400Y93500D02*Y91500D01*
Y93500D02*X124400D01*
Y91500D01*
X120400Y89800D02*X124400D01*
Y88500D02*X123700Y87800D01*
X121100D02*X123700D01*
X120400Y88500D02*X121100Y87800D01*
X120400Y90300D02*Y88500D01*
X124400Y90300D02*Y88500D01*
X90400Y111000D02*Y109000D01*
X90900Y108500D01*
X92100D01*
X92600Y109000D02*X92100Y108500D01*
X92600Y110500D02*Y109000D01*
X90400Y110500D02*X94400D01*
Y111000D02*Y109000D01*
X93900Y108500D01*
X93100D02*X93900D01*
X92600Y109000D02*X93100Y108500D01*
X90900Y107300D02*X94400D01*
X90900D02*X90400Y106800D01*
Y105800D01*
X90900Y105300D01*
X94400D01*
Y104100D02*Y102100D01*
X90400Y103100D02*X94400D01*
X90400Y100900D02*Y98900D01*
Y97700D02*X94400D01*
X90400D02*Y95700D01*
X92600Y94500D02*Y93000D01*
X90400Y94500D02*Y92500D01*
Y94500D02*X94400D01*
Y92500D01*
X90400Y90800D02*X94400D01*
Y89500D02*X93700Y88800D01*
X91100D02*X93700D01*
X90400Y89500D02*X91100Y88800D01*
X90400Y91300D02*Y89500D01*
X94400Y91300D02*Y89500D01*
X82500Y86000D02*X85500D01*
X86000Y85500D01*
Y84500D01*
X85500Y84000D01*
X83000D02*X85500D01*
X82000Y85000D02*X83000Y84000D01*
X82000Y85500D02*Y85000D01*
X82500Y86000D02*X82000Y85500D01*
X83500Y85000D02*X82000Y84000D01*
X86000Y81300D02*X85500Y80800D01*
X86000Y82300D02*Y81300D01*
X85500Y82800D02*X86000Y82300D01*
X82500Y82800D02*X85500D01*
X82500D02*X82000Y82300D01*
X84200Y81300D02*X83700Y80800D01*
X84200Y82800D02*Y81300D01*
X82000Y82300D02*Y81300D01*
X82500Y80800D01*
X83700D01*
X79409Y499150D02*X81409D01*
X81909Y498650D01*
Y497650D01*
X81409Y497150D02*X81909Y497650D01*
X79909Y497150D02*X81409D01*
X79909Y499150D02*Y495150D01*
X80709Y497150D02*X81909Y495150D01*
X83109Y498350D02*X83909Y499150D01*
Y495150D01*
X83109D02*X84609D01*
X85809Y498650D02*X86309Y499150D01*
X87309D01*
X87809Y498650D01*
X87309Y495150D02*X87809Y495650D01*
X86309Y495150D02*X87309D01*
X85809Y495650D02*X86309Y495150D01*
Y497350D02*X87309D01*
X87809Y498650D02*Y497850D01*
Y496850D02*Y495650D01*
Y496850D02*X87309Y497350D01*
X87809Y497850D02*X87309Y497350D01*
X81409Y508150D02*X83409D01*
X83909Y507650D01*
Y506650D01*
X83409Y506150D02*X83909Y506650D01*
X81909Y506150D02*X83409D01*
X81909Y508150D02*Y504150D01*
X82709Y506150D02*X83909Y504150D01*
X85109Y507350D02*X85909Y508150D01*
Y504150D01*
X85109D02*X86609D01*
X87809Y505650D02*X89809Y508150D01*
X87809Y505650D02*X90309D01*
X89809Y508150D02*Y504150D01*
X97000Y489000D02*Y485500D01*
X97500Y485000D01*
X98500D01*
X99000Y485500D01*
Y489000D02*Y485500D01*
X100200Y488500D02*X100700Y489000D01*
X101700D01*
X102200Y488500D01*
X101700Y485000D02*X102200Y485500D01*
X100700Y485000D02*X101700D01*
X100200Y485500D02*X100700Y485000D01*
Y487200D02*X101700D01*
X102200Y488500D02*Y487700D01*
Y486700D02*Y485500D01*
Y486700D02*X101700Y487200D01*
X102200Y487700D02*X101700Y487200D01*
X75200Y634300D02*Y630800D01*
X75700Y630300D01*
X76700D01*
X77200Y630800D01*
Y634300D02*Y630800D01*
X79900Y634300D02*X80400Y633800D01*
X78900Y634300D02*X79900D01*
X78400Y633800D02*X78900Y634300D01*
X78400Y633800D02*Y630800D01*
X78900Y630300D01*
X79900Y632500D02*X80400Y632000D01*
X78400Y632500D02*X79900D01*
X78900Y630300D02*X79900D01*
X80400Y630800D01*
Y632000D02*Y630800D01*
X522180Y635438D02*Y633438D01*
Y635438D02*X522680Y635938D01*
X523680D01*
X524180Y635438D02*X523680Y635938D01*
X524180Y635438D02*Y633938D01*
X522180D02*X526180D01*
X524180Y634738D02*X526180Y635938D01*
X522980Y637138D02*X522180Y637938D01*
X526180D01*
Y638638D02*Y637138D01*
X380302Y641174D02*Y640374D01*
Y641174D02*X383802D01*
X384302Y640674D02*X383802Y641174D01*
X384302Y640674D02*Y640174D01*
X383802Y639674D02*X384302Y640174D01*
X383302Y639674D02*X383802D01*
X381102Y642374D02*X380302Y643174D01*
X384302D01*
Y643874D02*Y642374D01*
X566430Y609900D02*X568430D01*
X566430D02*X565930Y610400D01*
Y611400D02*Y610400D01*
X566430Y611900D02*X565930Y611400D01*
X566430Y611900D02*X567930D01*
Y613900D02*Y609900D01*
X567130Y611900D02*X565930Y613900D01*
X562730D02*X564730D01*
X560030Y611700D02*X561530D01*
X559530Y613900D02*X561530D01*
Y609900D01*
X559530D02*X561530D01*
X558330Y613900D02*Y609900D01*
X555830Y613900D01*
Y609900D01*
X552630Y613900D02*X553930D01*
X554630Y613200D02*X553930Y613900D01*
X554630Y613200D02*Y610600D01*
X553930Y609900D01*
X552630D02*X553930D01*
X494860Y608800D02*X496860D01*
X494860D02*X494360Y609300D01*
Y610300D02*Y609300D01*
X494860Y610800D02*X494360Y610300D01*
X494860Y610800D02*X496360D01*
Y612800D02*Y608800D01*
X495560Y610800D02*X494360Y612800D01*
X491160D02*X492460D01*
X493160Y612100D02*X492460Y612800D01*
X493160Y612100D02*Y609500D01*
X492460Y608800D01*
X491160D02*X492460D01*
X489960Y609600D02*X489160Y608800D01*
Y612800D02*Y608800D01*
X488460Y612800D02*X489960D01*
X514430Y611900D02*X513930Y612400D01*
X514430Y611900D02*X515930D01*
X516430Y612400D02*X515930Y611900D01*
X516430Y613400D02*Y612400D01*
Y613400D02*X515930Y613900D01*
X514430D02*X515930D01*
X514430D02*X513930Y614400D01*
Y615400D02*Y614400D01*
X514430Y615900D02*X513930Y615400D01*
X514430Y615900D02*X515930D01*
X516430Y615400D02*X515930Y615900D01*
X512730Y613900D02*Y611900D01*
Y613900D02*X512230Y615900D01*
X511230Y613900D01*
X510230Y615900D01*
X509730Y613900D01*
Y611900D01*
X508530Y612700D02*X507730Y611900D01*
Y615900D02*Y611900D01*
X507030Y615900D02*X508530D01*
X495430Y605900D02*Y601900D01*
X493930Y603900D01*
X492430Y601900D01*
Y605900D02*Y601900D01*
X489230Y605900D02*X490530D01*
X491230Y605200D02*X490530Y605900D01*
X491230Y605200D02*Y602600D01*
X490530Y601900D01*
X489230D02*X490530D01*
X470430Y602900D02*X472430D01*
X470430D02*X469930Y603400D01*
Y604400D02*Y603400D01*
X470430Y604900D02*X469930Y604400D01*
X470430Y604900D02*X471930D01*
Y606900D02*Y602900D01*
X471130Y604900D02*X469930Y606900D01*
X466730D02*X468030D01*
X468730Y606200D02*X468030Y606900D01*
X468730Y606200D02*Y603600D01*
X468030Y602900D01*
X466730D02*X468030D01*
X465530Y603400D02*X465030Y602900D01*
X463530D02*X465030D01*
X463530D02*X463030Y603400D01*
Y604400D02*Y603400D01*
X465530Y606900D02*X463030Y604400D01*
Y606900D02*X465530D01*
X470430Y609900D02*X472430D01*
X470430D02*X469930Y610400D01*
Y611400D02*Y610400D01*
X470430Y611900D02*X469930Y611400D01*
X470430Y611900D02*X471930D01*
Y613900D02*Y609900D01*
X471130Y611900D02*X469930Y613900D01*
X466730D02*X468030D01*
X468730Y613200D02*X468030Y613900D01*
X468730Y613200D02*Y610600D01*
X468030Y609900D01*
X466730D02*X468030D01*
X465530Y610400D02*X465030Y609900D01*
X464030D02*X465030D01*
X464030D02*X463530Y610400D01*
X464030Y613900D02*X463530Y613400D01*
X464030Y613900D02*X465030D01*
X465530Y613400D02*X465030Y613900D01*
X464030Y611700D02*X465030D01*
X463530Y611200D02*Y610400D01*
Y613400D02*Y612200D01*
X464030Y611700D01*
X463530Y611200D02*X464030Y611700D01*
X609430Y614900D02*Y610900D01*
X607430Y614900D02*X609430D01*
X604230D02*X606230D01*
X601530Y612700D02*X603030D01*
X601030Y614900D02*X603030D01*
Y610900D01*
X601030D02*X603030D01*
X599830Y614900D02*Y610900D01*
X597330Y614900D01*
Y610900D01*
X594130Y614900D02*X595430D01*
X596130Y614200D02*X595430Y614900D01*
X596130Y614200D02*Y611600D01*
X595430Y610900D01*
X594130D02*X595430D01*
X636930Y612700D02*X638430D01*
X636430Y614900D02*X638430D01*
Y610900D01*
X636430D02*X638430D01*
X633230D02*X632730Y611400D01*
X633230Y610900D02*X634730D01*
X635230Y611400D02*X634730Y610900D01*
X635230Y612400D02*Y611400D01*
Y612400D02*X634730Y612900D01*
X633230D02*X634730D01*
X633230D02*X632730Y613400D01*
Y614400D02*Y613400D01*
X633230Y614900D02*X632730Y614400D01*
X633230Y614900D02*X634730D01*
X635230Y614400D02*X634730Y614900D01*
X629530Y610900D02*X631530D01*
X630530Y614900D02*Y610900D01*
X628330Y614400D02*Y611400D01*
X627830Y610900D01*
X626830D02*X627830D01*
X626830D02*X626330Y611400D01*
Y614400D02*Y611400D01*
X626830Y614900D02*X626330Y614400D01*
X626830Y614900D02*X627830D01*
X628330Y614400D02*X627830Y614900D01*
X624630D02*Y610900D01*
X623130D02*X625130D01*
X623130D02*X622630Y611400D01*
Y612400D02*Y611400D01*
X623130Y612900D02*X622630Y612400D01*
X623130Y612900D02*X624630D01*
X589620Y277873D02*Y275773D01*
Y277873D02*X590145Y278398D01*
X591195D01*
X591720Y277873D02*X591195Y278398D01*
X591720Y277873D02*Y276298D01*
X589620D02*X593820D01*
X591720Y277138D02*X593820Y278398D01*
X590145Y279658D02*X589620Y280183D01*
Y281233D02*Y280183D01*
Y281233D02*X590145Y281758D01*
X593820Y281233D02*X593295Y281758D01*
X593820Y281233D02*Y280183D01*
X593295Y279658D02*X593820Y280183D01*
X591510Y281233D02*Y280183D01*
X590145Y281758D02*X590985D01*
X592035D02*X593295D01*
X592035D02*X591510Y281233D01*
X590985Y281758D02*X591510Y281233D01*
X570710Y278209D02*Y276209D01*
Y278209D02*X571210Y278709D01*
X572210D01*
X572710Y278209D02*X572210Y278709D01*
X572710Y278209D02*Y276709D01*
X570710D02*X574710D01*
X572710Y277509D02*X574710Y278709D01*
X571210Y279909D02*X570710Y280409D01*
Y281909D02*Y280409D01*
Y281909D02*X571210Y282409D01*
X572210D01*
X574710Y279909D02*X572210Y282409D01*
X574710D02*Y279909D01*
X539280Y277750D02*Y275750D01*
Y277750D02*X539780Y278250D01*
X540780D01*
X541280Y277750D02*X540780Y278250D01*
X541280Y277750D02*Y276250D01*
X539280D02*X543280D01*
X541280Y277050D02*X543280Y278250D01*
X541780Y279450D02*X539280Y281450D01*
X541780Y281950D02*Y279450D01*
X539280Y281450D02*X543280D01*
X560570Y277891D02*Y275891D01*
Y277891D02*X561070Y278391D01*
X562070D01*
X562570Y277891D02*X562070Y278391D01*
X562570Y277891D02*Y276391D01*
X560570D02*X564570D01*
X562570Y277191D02*X564570Y278391D01*
X560570Y281591D02*Y279591D01*
X562570D01*
X562070Y280091D01*
Y281091D02*Y280091D01*
Y281091D02*X562570Y281591D01*
X564070D01*
X564570Y281091D02*X564070Y281591D01*
X564570Y281091D02*Y280091D01*
X564070Y279591D02*X564570Y280091D01*
X574400Y215970D02*X578900D01*
X574400D02*X572900Y217020D01*
Y218670D02*Y217020D01*
Y218670D02*X574400Y219720D01*
X578900D01*
X575900D02*Y215970D01*
X572900Y221520D02*X578900D01*
X572900D02*X578900Y225270D01*
X572900D02*X578900D01*
X574400Y227070D02*X578900D01*
X574400D02*X572900Y228120D01*
Y229770D02*Y228120D01*
Y229770D02*X574400Y230820D01*
X578900D01*
X575900D02*Y227070D01*
X572900Y232620D02*X578900D01*
Y235620D02*Y232620D01*
X573650Y237420D02*X578150D01*
X573650D02*X572900Y238170D01*
Y239670D02*Y238170D01*
Y239670D02*X573650Y240420D01*
X578150D01*
X578900Y239670D02*X578150Y240420D01*
X578900Y239670D02*Y238170D01*
X578150Y237420D02*X578900Y238170D01*
X572900Y245220D02*X573650Y245970D01*
X572900Y245220D02*Y242970D01*
X573650Y242220D02*X572900Y242970D01*
X573650Y242220D02*X578150D01*
X578900Y242970D01*
Y245220D02*Y242970D01*
Y245220D02*X578150Y245970D01*
X576650D02*X578150D01*
X575900Y245220D02*X576650Y245970D01*
X575900Y245220D02*Y243720D01*
X520244Y277728D02*Y275728D01*
Y277728D02*X520744Y278228D01*
X521744D01*
X522244Y277728D02*X521744Y278228D01*
X522244Y277728D02*Y276228D01*
X520244D02*X524244D01*
X522244Y277028D02*X524244Y278228D01*
Y279928D02*X520244Y281928D01*
Y279428D01*
X493710Y278209D02*Y276209D01*
Y278209D02*X494210Y278709D01*
X495210D01*
X495710Y278209D02*X495210Y278709D01*
X495710Y278209D02*Y276709D01*
X493710D02*X497710D01*
X495710Y277509D02*X497710Y278709D01*
X497210Y279909D02*X497710Y280409D01*
X496410Y279909D02*X497210D01*
X496410D02*X495710Y280609D01*
Y281209D02*Y280609D01*
Y281209D02*X496410Y281909D01*
X497210D01*
X497710Y281409D02*X497210Y281909D01*
X497710Y281409D02*Y280409D01*
X495010Y279909D02*X495710Y280609D01*
X494210Y279909D02*X495010D01*
X494210D02*X493710Y280409D01*
Y281409D02*Y280409D01*
Y281409D02*X494210Y281909D01*
X495010D01*
X495710Y281209D02*X495010Y281909D01*
X502474Y277886D02*Y275886D01*
Y277886D02*X502974Y278386D01*
X503974D01*
X504474Y277886D02*X503974Y278386D01*
X504474Y277886D02*Y276386D01*
X502474D02*X506474D01*
X504474Y277186D02*X506474Y278386D01*
Y280086D02*X504474Y281586D01*
X502974D02*X504474D01*
X502474Y281086D02*X502974Y281586D01*
X502474Y281086D02*Y280086D01*
X502974Y279586D02*X502474Y280086D01*
X502974Y279586D02*X503974D01*
X504474Y280086D01*
Y281586D02*Y280086D01*
X511710Y278327D02*Y276327D01*
Y278327D02*X512210Y278827D01*
X513210D01*
X513710Y278327D02*X513210Y278827D01*
X513710Y278327D02*Y276827D01*
X511710D02*X515710D01*
X513710Y277627D02*X515710Y278827D01*
X511710Y281527D02*X512210Y282027D01*
X511710Y281527D02*Y280527D01*
X512210Y280027D02*X511710Y280527D01*
X512210Y280027D02*X515210D01*
X515710Y280527D01*
X513510Y281527D02*X514010Y282027D01*
X513510Y281527D02*Y280027D01*
X515710Y281527D02*Y280527D01*
Y281527D02*X515210Y282027D01*
X514010D02*X515210D01*
X640000Y401500D02*X640500Y402000D01*
X640000Y401500D02*Y400000D01*
X640500Y399500D02*X640000Y400000D01*
X640500Y399500D02*X643500D01*
X644000Y400000D01*
Y401500D02*Y400000D01*
Y401500D02*X643500Y402000D01*
X642500D02*X643500D01*
X642000Y401500D02*X642500Y402000D01*
X642000Y401500D02*Y400500D01*
X640000Y403200D02*X642000Y404200D01*
X640000Y405200D01*
X642000Y404200D02*X644000D01*
X640000Y408400D02*Y406400D01*
Y408400D02*X640500Y408900D01*
X641500D01*
X642000Y408400D02*X641500Y408900D01*
X642000Y408400D02*Y406900D01*
X640000D02*X644000D01*
X642000Y407700D02*X644000Y408900D01*
X640500Y410100D02*X643500D01*
X640500D02*X640000Y410600D01*
Y411600D02*Y410600D01*
Y411600D02*X640500Y412100D01*
X643500D01*
X644000Y411600D02*X643500Y412100D01*
X644000Y411600D02*Y410600D01*
X643500Y410100D02*X644000Y410600D01*
X470280Y276309D02*Y274309D01*
Y276309D02*X470780Y276809D01*
X471780D01*
X472280Y276309D02*X471780Y276809D01*
X472280Y276309D02*Y274809D01*
X470280D02*X474280D01*
X472280Y275609D02*X474280Y276809D01*
X471080Y278009D02*X470280Y278809D01*
X474280D01*
Y279509D02*Y278009D01*
X473780Y280709D02*X474280Y281209D01*
X470780Y280709D02*X473780D01*
X470780D02*X470280Y281209D01*
Y282209D02*Y281209D01*
Y282209D02*X470780Y282709D01*
X473780D01*
X474280Y282209D02*X473780Y282709D01*
X474280Y282209D02*Y281209D01*
X473280Y280709D02*X471280Y282709D01*
X478710Y277327D02*Y275327D01*
Y277327D02*X479210Y277827D01*
X480210D01*
X480710Y277327D02*X480210Y277827D01*
X480710Y277327D02*Y275827D01*
X478710D02*X482710D01*
X480710Y276627D02*X482710Y277827D01*
X479510Y279027D02*X478710Y279827D01*
X482710D01*
Y280527D02*Y279027D01*
X479510Y281727D02*X478710Y282527D01*
X482710D01*
Y283227D02*Y281727D01*
X476000Y307000D02*X479500D01*
X480000Y307500D01*
Y308500D02*Y307500D01*
Y308500D02*X479500Y309000D01*
X476000D02*X479500D01*
X476800Y310200D02*X476000Y311000D01*
X480000D01*
Y311700D02*Y310200D01*
X393430Y427400D02*Y426100D01*
X392730Y425400D02*X393430Y426100D01*
X390130Y425400D02*X392730D01*
X390130D02*X389430Y426100D01*
Y427400D02*Y426100D01*
X389930Y428600D02*X389430Y429100D01*
Y430600D02*Y429100D01*
Y430600D02*X389930Y431100D01*
X390930D01*
X393430Y428600D02*X390930Y431100D01*
X393430D02*Y428600D01*
X477000Y425500D02*Y424200D01*
X476300Y423500D02*X477000Y424200D01*
X473700Y423500D02*X476300D01*
X473700D02*X473000Y424200D01*
Y425500D02*Y424200D01*
X473800Y426700D02*X473000Y427500D01*
X477000D01*
Y428200D02*Y426700D01*
M02*
