G04 start of page 8 for group -4079 idx -4079 *
G04 Title: (unknown), topsilk *
G04 Creator: pcb 20110918 *
G04 CreationDate: Mon Aug 12 01:14:05 2013 UTC *
G04 For: mokus *
G04 Format: Gerber/RS-274X *
G04 PCB-Dimensions: 40000 30000 *
G04 PCB-Coordinate-Origin: lower left *
%MOIN*%
%FSLAX25Y25*%
%LNTOPSILK*%
%ADD24C,0.0100*%
G54D24*X10000Y30000D02*Y0D01*
X30000D01*
Y30000D02*Y0D01*
X10000Y30000D02*X30000D01*
X10000Y20000D02*X20000D01*
Y30000D02*Y20000D01*
M02*
