G04 (created by PCBNEW (2013-07-07 BZR 4022)-stable) date 11/26/2014 4:39:15 PM*
%MOIN*%
G04 Gerber Fmt 3.4, Leading zero omitted, Abs format*
%FSLAX34Y34*%
G01*
G70*
G90*
G04 APERTURE LIST*
%ADD10C,0.00590551*%
%ADD11R,0.06X0.13*%
%ADD12O,0.06X0.13*%
%ADD13C,0.035*%
%ADD14C,0.01*%
%ADD15C,0.019685*%
G04 APERTURE END LIST*
G54D10*
G54D11*
X83567Y-39885D03*
G54D12*
X85567Y-39885D03*
G54D13*
X78240Y-46240D03*
X77025Y-45800D03*
X75950Y-47425D03*
X78075Y-47425D03*
X76420Y-45040D03*
X77350Y-43200D03*
X80000Y-48650D03*
X80400Y-48900D03*
X79500Y-41750D03*
X78250Y-43150D03*
X76078Y-37040D03*
X75804Y-36748D03*
X76202Y-35906D03*
X75784Y-35902D03*
X83282Y-35032D03*
X83684Y-35094D03*
X82178Y-35770D03*
X82150Y-35322D03*
X82590Y-35326D03*
X82594Y-35790D03*
X75520Y-41310D03*
X76740Y-37980D03*
X74990Y-40610D03*
X75060Y-44880D03*
X81872Y-36980D03*
X82236Y-37132D03*
X81850Y-36478D03*
X82228Y-36298D03*
X82750Y-39165D03*
X82344Y-38862D03*
X82226Y-38390D03*
X81868Y-37642D03*
X82244Y-37782D03*
X84442Y-35110D03*
X84148Y-34866D03*
X77650Y-36460D03*
X77360Y-39130D03*
X85046Y-35102D03*
X85510Y-35616D03*
X77570Y-34700D03*
X75680Y-39620D03*
X84280Y-44122D03*
X83258Y-44433D03*
X83745Y-43197D03*
X85525Y-40972D03*
X82327Y-43463D03*
X85220Y-44592D03*
X84725Y-42957D03*
X83392Y-47608D03*
X82348Y-47090D03*
X81650Y-40250D03*
X84340Y-46990D03*
X81660Y-48790D03*
X84800Y-44597D03*
X81627Y-43543D03*
X85707Y-41638D03*
X82897Y-43663D03*
X82900Y-41697D03*
X74340Y-34780D03*
X79452Y-51408D03*
X75522Y-44442D03*
X74178Y-42951D03*
X74260Y-45256D03*
X74230Y-47540D03*
X75280Y-48360D03*
X75890Y-46790D03*
X79580Y-48210D03*
X79140Y-47150D03*
X77450Y-39660D03*
X75840Y-45800D03*
X77020Y-36170D03*
X75710Y-42840D03*
X76320Y-41600D03*
X76700Y-42700D03*
X76820Y-39300D03*
X78435Y-48670D03*
X80730Y-48310D03*
X80830Y-47395D03*
X79035Y-50930D03*
X74716Y-39271D03*
X77930Y-45175D03*
X74409Y-42161D03*
X74602Y-40820D03*
G54D14*
X78075Y-46405D02*
X78075Y-47425D01*
X78240Y-46240D02*
X78075Y-46405D01*
X76920Y-45800D02*
X76420Y-45300D01*
X77025Y-45800D02*
X76920Y-45800D01*
X78075Y-47425D02*
X75950Y-47425D01*
X76420Y-45300D02*
X76420Y-45040D01*
X77350Y-43750D02*
X77350Y-43200D01*
X80000Y-46400D02*
X77350Y-43750D01*
X80000Y-48650D02*
X80000Y-46400D01*
X78250Y-43150D02*
X78250Y-44400D01*
X80400Y-46550D02*
X80400Y-48900D01*
X78250Y-44400D02*
X80400Y-46550D01*
X79500Y-41900D02*
X79500Y-41750D01*
X78250Y-43150D02*
X79500Y-41900D01*
X76078Y-37022D02*
X76078Y-37040D01*
X75804Y-36748D02*
X76078Y-37022D01*
X76198Y-35902D02*
X75784Y-35902D01*
X76202Y-35906D02*
X76198Y-35902D01*
X83622Y-35032D02*
X83282Y-35032D01*
X83684Y-35094D02*
X83622Y-35032D01*
X82178Y-35770D02*
X82178Y-35350D01*
X82178Y-35350D02*
X82150Y-35322D01*
X82590Y-35786D02*
X82590Y-35326D01*
X82594Y-35790D02*
X82590Y-35786D01*
X75510Y-41320D02*
X75210Y-41320D01*
X75520Y-41310D02*
X75510Y-41320D01*
X76035Y-39235D02*
X76040Y-39240D01*
X76035Y-39235D02*
X76740Y-38530D01*
X76740Y-38530D02*
X76740Y-37980D01*
X75450Y-40610D02*
X74990Y-40610D01*
X76040Y-40020D02*
X75450Y-40610D01*
X76040Y-39240D02*
X76040Y-40020D01*
X74990Y-40610D02*
X75210Y-40830D01*
X75210Y-40830D02*
X75210Y-41320D01*
X75210Y-41320D02*
X75210Y-44730D01*
X75210Y-44730D02*
X75060Y-44880D01*
X82084Y-36980D02*
X81872Y-36980D01*
X82236Y-37132D02*
X82084Y-36980D01*
X82048Y-36478D02*
X81850Y-36478D01*
X82228Y-36298D02*
X82048Y-36478D01*
X82750Y-39165D02*
X82716Y-39199D01*
X82716Y-39199D02*
X82344Y-38862D01*
X82226Y-38390D02*
X82168Y-38332D01*
X82168Y-38332D02*
X78810Y-38332D01*
X81868Y-37642D02*
X82008Y-37782D01*
X82008Y-37782D02*
X82244Y-37782D01*
X84442Y-35110D02*
X84198Y-34866D01*
X84198Y-34866D02*
X84148Y-34866D01*
X77650Y-36460D02*
X77360Y-36750D01*
X77360Y-36750D02*
X77360Y-38890D01*
X77360Y-39130D02*
X77360Y-38890D01*
X85046Y-35152D02*
X85046Y-35102D01*
X85510Y-35616D02*
X85046Y-35152D01*
X76420Y-38410D02*
X76420Y-36290D01*
X76420Y-36290D02*
X77570Y-35140D01*
X77570Y-35140D02*
X77570Y-34700D01*
X75680Y-39150D02*
X76420Y-38410D01*
X75680Y-39620D02*
X75680Y-39150D01*
X84265Y-44137D02*
X84240Y-44137D01*
X84280Y-44122D02*
X84265Y-44137D01*
X83800Y-43892D02*
X83258Y-44433D01*
X83800Y-43252D02*
X83800Y-43892D01*
X83745Y-43197D02*
X83800Y-43252D01*
X83567Y-39885D02*
X83567Y-40704D01*
X85225Y-40672D02*
X85525Y-40972D01*
X83599Y-40672D02*
X85225Y-40672D01*
X83567Y-40704D02*
X83599Y-40672D01*
X84725Y-44097D02*
X85220Y-44592D01*
X84725Y-42957D02*
X84725Y-44097D01*
X82866Y-47608D02*
X83392Y-47608D01*
X82348Y-47090D02*
X82346Y-47088D01*
X82346Y-47088D02*
X82866Y-47608D01*
X82480Y-40630D02*
X82030Y-40630D01*
X82030Y-40630D02*
X81650Y-40250D01*
X84340Y-47700D02*
X84340Y-46990D01*
X83640Y-48400D02*
X84340Y-47700D01*
X82050Y-48400D02*
X83640Y-48400D01*
X81660Y-48790D02*
X82050Y-48400D01*
X82900Y-40630D02*
X82480Y-40630D01*
X82910Y-40640D02*
X82900Y-40630D01*
X82827Y-44433D02*
X84377Y-44433D01*
X82327Y-43933D02*
X82827Y-44433D01*
X82327Y-43463D02*
X82327Y-43933D01*
X84660Y-44597D02*
X84800Y-44597D01*
X84377Y-44433D02*
X84660Y-44597D01*
X81627Y-43543D02*
X81707Y-43463D01*
X81707Y-43463D02*
X82327Y-43463D01*
X85707Y-41638D02*
X82958Y-41638D01*
X82958Y-41638D02*
X82900Y-41697D01*
X82897Y-43663D02*
X82909Y-43651D01*
X82909Y-43651D02*
X82900Y-41697D01*
X74340Y-34780D02*
X74150Y-34780D01*
X74150Y-34780D02*
X74074Y-34856D01*
X79392Y-51468D02*
X78954Y-51468D01*
X79452Y-51408D02*
X79392Y-51468D01*
X75673Y-44291D02*
X75710Y-44291D01*
X75522Y-44442D02*
X75673Y-44291D01*
X74525Y-44774D02*
X74525Y-44794D01*
X74076Y-44325D02*
X74525Y-44774D01*
X74076Y-43053D02*
X74076Y-44325D01*
X74178Y-42951D02*
X74076Y-43053D01*
X74260Y-45256D02*
X74048Y-45468D01*
X74048Y-45468D02*
X74048Y-47358D01*
X74048Y-47358D02*
X74230Y-47540D01*
X75280Y-47400D02*
X75280Y-48360D01*
X75890Y-46790D02*
X75280Y-47400D01*
X79580Y-47590D02*
X79580Y-48210D01*
X79140Y-47150D02*
X79580Y-47590D01*
X77040Y-36160D02*
X77310Y-35890D01*
X77630Y-39660D02*
X77450Y-39660D01*
X77730Y-39560D02*
X77630Y-39660D01*
X77730Y-37550D02*
X77730Y-39560D01*
X78030Y-37250D02*
X77730Y-37550D01*
X78030Y-36130D02*
X78030Y-37250D01*
X77790Y-35890D02*
X78030Y-36130D01*
X77310Y-35890D02*
X77790Y-35890D01*
X74456Y-43791D02*
X74456Y-43748D01*
X74074Y-37638D02*
X74074Y-34856D01*
X75202Y-38766D02*
X74074Y-37638D01*
X75202Y-39410D02*
X75202Y-38766D01*
X74080Y-40532D02*
X75202Y-39410D01*
X74080Y-43372D02*
X74080Y-40532D01*
X74456Y-43748D02*
X74080Y-43372D01*
X74456Y-43791D02*
X74456Y-44726D01*
X74456Y-44726D02*
X74525Y-44794D01*
X75710Y-45670D02*
X75710Y-45060D01*
X75840Y-45800D02*
X75710Y-45670D01*
X74525Y-44794D02*
X75060Y-45330D01*
X75440Y-45330D02*
X75710Y-45060D01*
X75060Y-45330D02*
X75440Y-45330D01*
X75710Y-45060D02*
X75710Y-44291D01*
X75710Y-44291D02*
X75710Y-42840D01*
X77040Y-36190D02*
X77040Y-36160D01*
X77040Y-36160D02*
X77040Y-37630D01*
X77020Y-36170D02*
X77040Y-36190D01*
X76320Y-42230D02*
X76320Y-41600D01*
X75710Y-42840D02*
X76320Y-42230D01*
X77040Y-37630D02*
X77040Y-38620D01*
X77040Y-38620D02*
X76320Y-39340D01*
X76320Y-39340D02*
X76320Y-41600D01*
G54D15*
X76820Y-42580D02*
X76820Y-39300D01*
G54D14*
X76700Y-42700D02*
X76820Y-42580D01*
G54D15*
X76820Y-39300D02*
X76820Y-39680D01*
G54D14*
X78435Y-49290D02*
X78435Y-48670D01*
X78630Y-49485D02*
X78435Y-49290D01*
X80595Y-49485D02*
X78630Y-49485D01*
X80725Y-49355D02*
X80595Y-49485D01*
X80725Y-48315D02*
X80725Y-49355D01*
X80730Y-48310D02*
X80725Y-48315D01*
X81030Y-47595D02*
X80830Y-47395D01*
X81030Y-50400D02*
X81030Y-47595D01*
X80500Y-50930D02*
X81030Y-50400D01*
X79035Y-50930D02*
X80500Y-50930D01*
X74716Y-39271D02*
X73888Y-40100D01*
X73888Y-40100D02*
X73888Y-44388D01*
X75700Y-46200D02*
X73888Y-44388D01*
X77249Y-46200D02*
X75700Y-46200D01*
X77930Y-45520D02*
X77249Y-46200D01*
X77930Y-45175D02*
X77930Y-45520D01*
X74602Y-41968D02*
X74409Y-42161D01*
X74602Y-40820D02*
X74602Y-41968D01*
G54D10*
G36*
X75011Y-44559D02*
X74968Y-44568D01*
X74909Y-44591D01*
X74856Y-44626D01*
X74811Y-44671D01*
X74775Y-44723D01*
X74750Y-44781D01*
X74737Y-44843D01*
X74736Y-44907D01*
X74747Y-44966D01*
X74086Y-44305D01*
X74086Y-42193D01*
X74097Y-42250D01*
X74120Y-42309D01*
X74154Y-42363D01*
X74198Y-42408D01*
X74250Y-42445D01*
X74309Y-42470D01*
X74370Y-42484D01*
X74434Y-42485D01*
X74496Y-42474D01*
X74555Y-42451D01*
X74609Y-42417D01*
X74655Y-42373D01*
X74692Y-42321D01*
X74717Y-42264D01*
X74731Y-42202D01*
X74732Y-42129D01*
X74731Y-42120D01*
X74742Y-42108D01*
X74754Y-42094D01*
X74766Y-42080D01*
X74766Y-42079D01*
X74767Y-42078D01*
X74775Y-42062D01*
X74784Y-42046D01*
X74785Y-42045D01*
X74785Y-42044D01*
X74790Y-42027D01*
X74796Y-42009D01*
X74796Y-42008D01*
X74796Y-42007D01*
X74798Y-41989D01*
X74800Y-41971D01*
X74800Y-41969D01*
X74800Y-41969D01*
X74800Y-41969D01*
X74800Y-41968D01*
X74800Y-41077D01*
X74802Y-41076D01*
X74848Y-41032D01*
X74884Y-40980D01*
X74910Y-40923D01*
X74951Y-40932D01*
X75011Y-40933D01*
X75011Y-41320D01*
X75011Y-44559D01*
X75011Y-44559D01*
G37*
G54D14*
X75011Y-44559D02*
X74968Y-44568D01*
X74909Y-44591D01*
X74856Y-44626D01*
X74811Y-44671D01*
X74775Y-44723D01*
X74750Y-44781D01*
X74737Y-44843D01*
X74736Y-44907D01*
X74747Y-44966D01*
X74086Y-44305D01*
X74086Y-42193D01*
X74097Y-42250D01*
X74120Y-42309D01*
X74154Y-42363D01*
X74198Y-42408D01*
X74250Y-42445D01*
X74309Y-42470D01*
X74370Y-42484D01*
X74434Y-42485D01*
X74496Y-42474D01*
X74555Y-42451D01*
X74609Y-42417D01*
X74655Y-42373D01*
X74692Y-42321D01*
X74717Y-42264D01*
X74731Y-42202D01*
X74732Y-42129D01*
X74731Y-42120D01*
X74742Y-42108D01*
X74754Y-42094D01*
X74766Y-42080D01*
X74766Y-42079D01*
X74767Y-42078D01*
X74775Y-42062D01*
X74784Y-42046D01*
X74785Y-42045D01*
X74785Y-42044D01*
X74790Y-42027D01*
X74796Y-42009D01*
X74796Y-42008D01*
X74796Y-42007D01*
X74798Y-41989D01*
X74800Y-41971D01*
X74800Y-41969D01*
X74800Y-41969D01*
X74800Y-41969D01*
X74800Y-41968D01*
X74800Y-41077D01*
X74802Y-41076D01*
X74848Y-41032D01*
X74884Y-40980D01*
X74910Y-40923D01*
X74951Y-40932D01*
X75011Y-40933D01*
X75011Y-41320D01*
X75011Y-44559D01*
G54D10*
G36*
X77371Y-35057D02*
X76666Y-35762D01*
X76666Y-35686D01*
X76286Y-34821D01*
X74161Y-34821D01*
X74155Y-37417D01*
X76221Y-37427D01*
X76221Y-38327D01*
X75539Y-39009D01*
X75528Y-39023D01*
X75516Y-39037D01*
X75515Y-39038D01*
X75515Y-39039D01*
X75506Y-39055D01*
X75497Y-39071D01*
X75497Y-39072D01*
X75496Y-39073D01*
X75491Y-39091D01*
X75485Y-39108D01*
X75485Y-39109D01*
X75485Y-39110D01*
X75483Y-39129D01*
X75481Y-39147D01*
X75481Y-39149D01*
X75481Y-39149D01*
X75481Y-39149D01*
X75481Y-39150D01*
X75481Y-39363D01*
X75476Y-39366D01*
X75431Y-39411D01*
X75395Y-39463D01*
X75370Y-39521D01*
X75357Y-39583D01*
X75356Y-39647D01*
X75367Y-39709D01*
X75390Y-39768D01*
X75425Y-39821D01*
X75469Y-39867D01*
X75521Y-39903D01*
X75579Y-39929D01*
X75641Y-39942D01*
X75704Y-39944D01*
X75767Y-39933D01*
X75826Y-39910D01*
X75841Y-39900D01*
X75841Y-39937D01*
X75367Y-40411D01*
X75246Y-40411D01*
X75241Y-40404D01*
X75197Y-40359D01*
X75144Y-40324D01*
X75086Y-40299D01*
X75023Y-40286D01*
X74960Y-40286D01*
X74898Y-40298D01*
X74839Y-40321D01*
X74786Y-40356D01*
X74741Y-40401D01*
X74705Y-40453D01*
X74682Y-40506D01*
X74636Y-40496D01*
X74572Y-40496D01*
X74510Y-40508D01*
X74451Y-40531D01*
X74398Y-40566D01*
X74353Y-40611D01*
X74317Y-40663D01*
X74292Y-40721D01*
X74279Y-40783D01*
X74278Y-40847D01*
X74289Y-40909D01*
X74313Y-40968D01*
X74347Y-41021D01*
X74391Y-41067D01*
X74403Y-41075D01*
X74403Y-41837D01*
X74379Y-41837D01*
X74317Y-41849D01*
X74258Y-41873D01*
X74205Y-41908D01*
X74160Y-41952D01*
X74124Y-42004D01*
X74099Y-42063D01*
X74086Y-42125D01*
X74086Y-42129D01*
X74086Y-40182D01*
X74675Y-39593D01*
X74678Y-39594D01*
X74741Y-39595D01*
X74803Y-39584D01*
X74863Y-39561D01*
X74916Y-39527D01*
X74962Y-39484D01*
X74999Y-39432D01*
X75024Y-39374D01*
X75038Y-39312D01*
X75039Y-39239D01*
X75027Y-39177D01*
X75003Y-39119D01*
X74968Y-39066D01*
X74923Y-39021D01*
X74871Y-38985D01*
X74812Y-38961D01*
X74750Y-38948D01*
X74687Y-38948D01*
X74624Y-38959D01*
X74565Y-38983D01*
X74512Y-39018D01*
X74467Y-39062D01*
X74431Y-39115D01*
X74406Y-39173D01*
X74393Y-39235D01*
X74392Y-39298D01*
X74395Y-39312D01*
X73977Y-39730D01*
X73977Y-34599D01*
X77261Y-34599D01*
X77260Y-34601D01*
X77247Y-34663D01*
X77246Y-34727D01*
X77257Y-34789D01*
X77280Y-34848D01*
X77315Y-34901D01*
X77359Y-34947D01*
X77371Y-34955D01*
X77371Y-35057D01*
X77371Y-35057D01*
G37*
G54D14*
X77371Y-35057D02*
X76666Y-35762D01*
X76666Y-35686D01*
X76286Y-34821D01*
X74161Y-34821D01*
X74155Y-37417D01*
X76221Y-37427D01*
X76221Y-38327D01*
X75539Y-39009D01*
X75528Y-39023D01*
X75516Y-39037D01*
X75515Y-39038D01*
X75515Y-39039D01*
X75506Y-39055D01*
X75497Y-39071D01*
X75497Y-39072D01*
X75496Y-39073D01*
X75491Y-39091D01*
X75485Y-39108D01*
X75485Y-39109D01*
X75485Y-39110D01*
X75483Y-39129D01*
X75481Y-39147D01*
X75481Y-39149D01*
X75481Y-39149D01*
X75481Y-39149D01*
X75481Y-39150D01*
X75481Y-39363D01*
X75476Y-39366D01*
X75431Y-39411D01*
X75395Y-39463D01*
X75370Y-39521D01*
X75357Y-39583D01*
X75356Y-39647D01*
X75367Y-39709D01*
X75390Y-39768D01*
X75425Y-39821D01*
X75469Y-39867D01*
X75521Y-39903D01*
X75579Y-39929D01*
X75641Y-39942D01*
X75704Y-39944D01*
X75767Y-39933D01*
X75826Y-39910D01*
X75841Y-39900D01*
X75841Y-39937D01*
X75367Y-40411D01*
X75246Y-40411D01*
X75241Y-40404D01*
X75197Y-40359D01*
X75144Y-40324D01*
X75086Y-40299D01*
X75023Y-40286D01*
X74960Y-40286D01*
X74898Y-40298D01*
X74839Y-40321D01*
X74786Y-40356D01*
X74741Y-40401D01*
X74705Y-40453D01*
X74682Y-40506D01*
X74636Y-40496D01*
X74572Y-40496D01*
X74510Y-40508D01*
X74451Y-40531D01*
X74398Y-40566D01*
X74353Y-40611D01*
X74317Y-40663D01*
X74292Y-40721D01*
X74279Y-40783D01*
X74278Y-40847D01*
X74289Y-40909D01*
X74313Y-40968D01*
X74347Y-41021D01*
X74391Y-41067D01*
X74403Y-41075D01*
X74403Y-41837D01*
X74379Y-41837D01*
X74317Y-41849D01*
X74258Y-41873D01*
X74205Y-41908D01*
X74160Y-41952D01*
X74124Y-42004D01*
X74099Y-42063D01*
X74086Y-42125D01*
X74086Y-42129D01*
X74086Y-40182D01*
X74675Y-39593D01*
X74678Y-39594D01*
X74741Y-39595D01*
X74803Y-39584D01*
X74863Y-39561D01*
X74916Y-39527D01*
X74962Y-39484D01*
X74999Y-39432D01*
X75024Y-39374D01*
X75038Y-39312D01*
X75039Y-39239D01*
X75027Y-39177D01*
X75003Y-39119D01*
X74968Y-39066D01*
X74923Y-39021D01*
X74871Y-38985D01*
X74812Y-38961D01*
X74750Y-38948D01*
X74687Y-38948D01*
X74624Y-38959D01*
X74565Y-38983D01*
X74512Y-39018D01*
X74467Y-39062D01*
X74431Y-39115D01*
X74406Y-39173D01*
X74393Y-39235D01*
X74392Y-39298D01*
X74395Y-39312D01*
X73977Y-39730D01*
X73977Y-34599D01*
X77261Y-34599D01*
X77260Y-34601D01*
X77247Y-34663D01*
X77246Y-34727D01*
X77257Y-34789D01*
X77280Y-34848D01*
X77315Y-34901D01*
X77359Y-34947D01*
X77371Y-34955D01*
X77371Y-35057D01*
G54D10*
G36*
X83561Y-51967D02*
X81228Y-51967D01*
X81228Y-50400D01*
X81228Y-47595D01*
X81226Y-47576D01*
X81225Y-47558D01*
X81224Y-47557D01*
X81224Y-47556D01*
X81219Y-47538D01*
X81214Y-47521D01*
X81213Y-47520D01*
X81213Y-47519D01*
X81204Y-47503D01*
X81196Y-47486D01*
X81195Y-47486D01*
X81195Y-47485D01*
X81183Y-47470D01*
X81172Y-47456D01*
X81170Y-47455D01*
X81170Y-47455D01*
X81170Y-47455D01*
X81170Y-47454D01*
X81152Y-47436D01*
X81152Y-47435D01*
X81153Y-47363D01*
X81141Y-47301D01*
X81116Y-47242D01*
X81081Y-47189D01*
X81037Y-47144D01*
X80984Y-47109D01*
X80926Y-47084D01*
X80863Y-47071D01*
X80800Y-47071D01*
X80738Y-47083D01*
X80679Y-47106D01*
X80626Y-47141D01*
X80598Y-47169D01*
X80598Y-46550D01*
X80596Y-46531D01*
X80595Y-46513D01*
X80594Y-46512D01*
X80594Y-46511D01*
X80589Y-46493D01*
X80584Y-46476D01*
X80583Y-46475D01*
X80583Y-46474D01*
X80574Y-46458D01*
X80566Y-46441D01*
X80565Y-46441D01*
X80565Y-46440D01*
X80553Y-46425D01*
X80542Y-46411D01*
X80540Y-46410D01*
X80540Y-46410D01*
X80540Y-46410D01*
X80540Y-46409D01*
X78448Y-44317D01*
X78448Y-43407D01*
X78450Y-43406D01*
X78496Y-43362D01*
X78532Y-43310D01*
X78558Y-43252D01*
X78572Y-43190D01*
X78573Y-43118D01*
X78571Y-43109D01*
X79636Y-42043D01*
X79646Y-42040D01*
X79700Y-42006D01*
X79746Y-41962D01*
X79782Y-41910D01*
X79808Y-41852D01*
X79822Y-41790D01*
X79823Y-41718D01*
X79811Y-41656D01*
X79786Y-41597D01*
X79751Y-41544D01*
X79707Y-41499D01*
X79654Y-41464D01*
X79596Y-41439D01*
X79533Y-41426D01*
X79470Y-41426D01*
X79408Y-41438D01*
X79349Y-41461D01*
X79296Y-41496D01*
X79251Y-41541D01*
X79215Y-41593D01*
X79190Y-41651D01*
X79177Y-41713D01*
X79176Y-41777D01*
X79187Y-41839D01*
X79210Y-41898D01*
X79214Y-41904D01*
X78291Y-42828D01*
X78283Y-42826D01*
X78220Y-42826D01*
X78158Y-42838D01*
X78099Y-42861D01*
X78046Y-42896D01*
X78001Y-42941D01*
X77965Y-42993D01*
X77940Y-43051D01*
X77927Y-43113D01*
X77926Y-43177D01*
X77937Y-43239D01*
X77960Y-43298D01*
X77995Y-43351D01*
X78039Y-43397D01*
X78051Y-43405D01*
X78051Y-44170D01*
X77548Y-43667D01*
X77548Y-43457D01*
X77550Y-43456D01*
X77596Y-43412D01*
X77632Y-43360D01*
X77658Y-43302D01*
X77672Y-43240D01*
X77673Y-43168D01*
X77661Y-43106D01*
X77636Y-43047D01*
X77601Y-42994D01*
X77557Y-42949D01*
X77504Y-42914D01*
X77446Y-42889D01*
X77383Y-42876D01*
X77320Y-42876D01*
X77258Y-42888D01*
X77199Y-42911D01*
X77146Y-42946D01*
X77101Y-42991D01*
X77065Y-43043D01*
X77040Y-43101D01*
X77027Y-43163D01*
X77026Y-43227D01*
X77037Y-43289D01*
X77060Y-43348D01*
X77095Y-43401D01*
X77139Y-43447D01*
X77151Y-43455D01*
X77151Y-43750D01*
X77153Y-43768D01*
X77154Y-43786D01*
X77155Y-43787D01*
X77155Y-43788D01*
X77160Y-43806D01*
X77165Y-43823D01*
X77166Y-43824D01*
X77166Y-43825D01*
X77175Y-43841D01*
X77183Y-43858D01*
X77184Y-43858D01*
X77184Y-43859D01*
X77196Y-43874D01*
X77207Y-43888D01*
X77209Y-43889D01*
X77209Y-43889D01*
X77209Y-43889D01*
X77209Y-43890D01*
X79801Y-46482D01*
X79801Y-48393D01*
X79796Y-48396D01*
X79751Y-48441D01*
X79715Y-48493D01*
X79690Y-48551D01*
X79677Y-48613D01*
X79676Y-48677D01*
X79687Y-48739D01*
X79710Y-48798D01*
X79745Y-48851D01*
X79789Y-48897D01*
X79841Y-48933D01*
X79899Y-48959D01*
X79961Y-48972D01*
X80024Y-48974D01*
X80082Y-48963D01*
X80087Y-48989D01*
X80110Y-49048D01*
X80145Y-49101D01*
X80189Y-49147D01*
X80241Y-49183D01*
X80299Y-49209D01*
X80361Y-49222D01*
X80424Y-49224D01*
X80487Y-49213D01*
X80526Y-49197D01*
X80526Y-49272D01*
X80512Y-49286D01*
X78712Y-49286D01*
X78633Y-49207D01*
X78633Y-48927D01*
X78635Y-48926D01*
X78681Y-48882D01*
X78717Y-48830D01*
X78743Y-48772D01*
X78757Y-48710D01*
X78758Y-48638D01*
X78746Y-48576D01*
X78721Y-48517D01*
X78686Y-48464D01*
X78642Y-48419D01*
X78589Y-48384D01*
X78563Y-48373D01*
X78563Y-46208D01*
X78551Y-46146D01*
X78526Y-46087D01*
X78491Y-46034D01*
X78447Y-45989D01*
X78394Y-45954D01*
X78336Y-45929D01*
X78273Y-45916D01*
X78210Y-45916D01*
X78148Y-45928D01*
X78089Y-45951D01*
X78036Y-45986D01*
X77991Y-46031D01*
X77955Y-46083D01*
X77930Y-46141D01*
X77917Y-46203D01*
X77916Y-46267D01*
X77919Y-46283D01*
X77911Y-46292D01*
X77910Y-46293D01*
X77910Y-46294D01*
X77901Y-46310D01*
X77892Y-46326D01*
X77892Y-46327D01*
X77891Y-46328D01*
X77886Y-46346D01*
X77880Y-46363D01*
X77880Y-46364D01*
X77880Y-46365D01*
X77878Y-46384D01*
X77876Y-46402D01*
X77876Y-46404D01*
X77876Y-46404D01*
X77876Y-46404D01*
X77876Y-46405D01*
X77876Y-47168D01*
X77871Y-47171D01*
X77826Y-47216D01*
X77818Y-47226D01*
X76206Y-47226D01*
X76201Y-47219D01*
X76157Y-47174D01*
X76104Y-47139D01*
X76046Y-47114D01*
X75983Y-47101D01*
X75920Y-47101D01*
X75858Y-47113D01*
X75799Y-47136D01*
X75746Y-47171D01*
X75701Y-47216D01*
X75665Y-47268D01*
X75640Y-47326D01*
X75627Y-47388D01*
X75626Y-47452D01*
X75637Y-47514D01*
X75660Y-47573D01*
X75695Y-47626D01*
X75739Y-47672D01*
X75791Y-47708D01*
X75849Y-47734D01*
X75911Y-47747D01*
X75974Y-47749D01*
X76037Y-47738D01*
X76096Y-47715D01*
X76150Y-47681D01*
X76196Y-47637D01*
X76205Y-47623D01*
X77818Y-47623D01*
X77820Y-47626D01*
X77864Y-47672D01*
X77916Y-47708D01*
X77974Y-47734D01*
X78036Y-47747D01*
X78099Y-47749D01*
X78162Y-47738D01*
X78221Y-47715D01*
X78275Y-47681D01*
X78321Y-47637D01*
X78357Y-47585D01*
X78383Y-47527D01*
X78397Y-47465D01*
X78398Y-47393D01*
X78386Y-47331D01*
X78361Y-47272D01*
X78326Y-47219D01*
X78282Y-47174D01*
X78273Y-47168D01*
X78273Y-46562D01*
X78327Y-46553D01*
X78386Y-46530D01*
X78440Y-46496D01*
X78486Y-46452D01*
X78522Y-46400D01*
X78548Y-46342D01*
X78562Y-46280D01*
X78563Y-46208D01*
X78563Y-48373D01*
X78531Y-48359D01*
X78468Y-48346D01*
X78405Y-48346D01*
X78343Y-48358D01*
X78284Y-48381D01*
X78231Y-48416D01*
X78186Y-48461D01*
X78150Y-48513D01*
X78125Y-48571D01*
X78112Y-48633D01*
X78111Y-48697D01*
X78122Y-48759D01*
X78145Y-48818D01*
X78180Y-48871D01*
X78224Y-48917D01*
X78236Y-48925D01*
X78236Y-49290D01*
X78238Y-49308D01*
X78239Y-49326D01*
X78240Y-49327D01*
X78240Y-49328D01*
X78245Y-49346D01*
X78250Y-49363D01*
X78251Y-49364D01*
X78251Y-49365D01*
X78260Y-49381D01*
X78268Y-49398D01*
X78269Y-49398D01*
X78269Y-49399D01*
X78281Y-49414D01*
X78292Y-49428D01*
X78294Y-49429D01*
X78294Y-49429D01*
X78294Y-49429D01*
X78294Y-49430D01*
X78489Y-49625D01*
X78503Y-49636D01*
X78517Y-49648D01*
X78518Y-49649D01*
X78519Y-49649D01*
X78535Y-49658D01*
X78551Y-49667D01*
X78552Y-49667D01*
X78553Y-49668D01*
X78571Y-49673D01*
X78588Y-49679D01*
X78589Y-49679D01*
X78590Y-49679D01*
X78609Y-49681D01*
X78627Y-49683D01*
X78629Y-49683D01*
X78629Y-49683D01*
X78629Y-49683D01*
X78630Y-49683D01*
X80595Y-49683D01*
X80613Y-49681D01*
X80631Y-49680D01*
X80632Y-49679D01*
X80633Y-49679D01*
X80651Y-49674D01*
X80668Y-49669D01*
X80669Y-49668D01*
X80670Y-49668D01*
X80686Y-49659D01*
X80703Y-49651D01*
X80703Y-49650D01*
X80704Y-49650D01*
X80719Y-49638D01*
X80733Y-49627D01*
X80734Y-49625D01*
X80734Y-49625D01*
X80734Y-49625D01*
X80735Y-49625D01*
X80831Y-49529D01*
X80831Y-50317D01*
X80417Y-50731D01*
X79291Y-50731D01*
X79286Y-50724D01*
X79242Y-50679D01*
X79189Y-50644D01*
X79131Y-50619D01*
X79068Y-50606D01*
X79005Y-50606D01*
X78943Y-50618D01*
X78884Y-50641D01*
X78831Y-50676D01*
X78786Y-50721D01*
X78750Y-50773D01*
X78725Y-50831D01*
X78712Y-50893D01*
X78711Y-50957D01*
X78722Y-51019D01*
X78745Y-51078D01*
X78780Y-51131D01*
X78824Y-51177D01*
X78876Y-51213D01*
X78934Y-51239D01*
X78996Y-51252D01*
X79059Y-51254D01*
X79122Y-51243D01*
X79181Y-51220D01*
X79235Y-51186D01*
X79281Y-51142D01*
X79290Y-51128D01*
X80500Y-51128D01*
X80518Y-51126D01*
X80536Y-51125D01*
X80537Y-51124D01*
X80538Y-51124D01*
X80556Y-51119D01*
X80573Y-51114D01*
X80574Y-51113D01*
X80575Y-51113D01*
X80591Y-51104D01*
X80608Y-51096D01*
X80608Y-51095D01*
X80609Y-51095D01*
X80624Y-51083D01*
X80638Y-51072D01*
X80639Y-51070D01*
X80639Y-51070D01*
X80639Y-51070D01*
X80640Y-51070D01*
X81170Y-50540D01*
X81181Y-50526D01*
X81193Y-50512D01*
X81194Y-50511D01*
X81194Y-50510D01*
X81203Y-50494D01*
X81212Y-50478D01*
X81212Y-50477D01*
X81213Y-50476D01*
X81218Y-50458D01*
X81224Y-50441D01*
X81224Y-50440D01*
X81224Y-50439D01*
X81226Y-50420D01*
X81228Y-50402D01*
X81228Y-50400D01*
X81228Y-50400D01*
X81228Y-50400D01*
X81228Y-50400D01*
X81228Y-51967D01*
X73977Y-51967D01*
X73977Y-44757D01*
X75560Y-46341D01*
X75574Y-46352D01*
X75588Y-46364D01*
X75589Y-46365D01*
X75590Y-46365D01*
X75606Y-46374D01*
X75622Y-46383D01*
X75623Y-46383D01*
X75624Y-46383D01*
X75642Y-46389D01*
X75659Y-46394D01*
X75660Y-46394D01*
X75661Y-46395D01*
X75679Y-46397D01*
X75698Y-46399D01*
X75700Y-46399D01*
X75700Y-46399D01*
X75700Y-46399D01*
X75700Y-46399D01*
X77249Y-46399D01*
X77267Y-46397D01*
X77285Y-46395D01*
X77286Y-46395D01*
X77287Y-46395D01*
X77305Y-46390D01*
X77322Y-46385D01*
X77323Y-46384D01*
X77324Y-46384D01*
X77341Y-46375D01*
X77357Y-46367D01*
X77358Y-46366D01*
X77359Y-46366D01*
X77373Y-46354D01*
X77387Y-46343D01*
X77388Y-46341D01*
X77389Y-46341D01*
X77389Y-46341D01*
X77389Y-46341D01*
X78070Y-45660D01*
X78081Y-45646D01*
X78093Y-45632D01*
X78094Y-45631D01*
X78094Y-45630D01*
X78103Y-45614D01*
X78112Y-45598D01*
X78112Y-45597D01*
X78113Y-45596D01*
X78118Y-45578D01*
X78124Y-45561D01*
X78124Y-45560D01*
X78124Y-45559D01*
X78126Y-45540D01*
X78128Y-45522D01*
X78128Y-45520D01*
X78128Y-45520D01*
X78128Y-45520D01*
X78128Y-45520D01*
X78128Y-45432D01*
X78130Y-45431D01*
X78176Y-45387D01*
X78212Y-45335D01*
X78238Y-45277D01*
X78252Y-45215D01*
X78253Y-45143D01*
X78241Y-45081D01*
X78216Y-45022D01*
X78181Y-44969D01*
X78137Y-44924D01*
X78084Y-44889D01*
X78026Y-44864D01*
X77963Y-44851D01*
X77900Y-44851D01*
X77838Y-44863D01*
X77779Y-44886D01*
X77726Y-44921D01*
X77681Y-44966D01*
X77645Y-45018D01*
X77620Y-45076D01*
X77607Y-45138D01*
X77606Y-45202D01*
X77617Y-45264D01*
X77640Y-45323D01*
X77675Y-45376D01*
X77719Y-45422D01*
X77731Y-45430D01*
X77731Y-45437D01*
X77347Y-45821D01*
X77348Y-45768D01*
X77336Y-45706D01*
X77311Y-45647D01*
X77276Y-45594D01*
X77232Y-45549D01*
X77179Y-45514D01*
X77121Y-45489D01*
X77058Y-45476D01*
X76995Y-45476D01*
X76933Y-45488D01*
X76901Y-45501D01*
X76659Y-45258D01*
X76666Y-45252D01*
X76702Y-45200D01*
X76728Y-45142D01*
X76742Y-45080D01*
X76743Y-45008D01*
X76731Y-44946D01*
X76706Y-44887D01*
X76671Y-44834D01*
X76627Y-44789D01*
X76574Y-44754D01*
X76516Y-44729D01*
X76453Y-44716D01*
X76390Y-44716D01*
X76328Y-44728D01*
X76269Y-44751D01*
X76216Y-44786D01*
X76171Y-44831D01*
X76135Y-44883D01*
X76110Y-44941D01*
X76097Y-45003D01*
X76096Y-45067D01*
X76107Y-45129D01*
X76130Y-45188D01*
X76165Y-45241D01*
X76209Y-45287D01*
X76221Y-45295D01*
X76221Y-45300D01*
X76223Y-45318D01*
X76224Y-45336D01*
X76225Y-45337D01*
X76225Y-45338D01*
X76230Y-45356D01*
X76235Y-45373D01*
X76236Y-45374D01*
X76236Y-45375D01*
X76245Y-45391D01*
X76253Y-45408D01*
X76254Y-45408D01*
X76254Y-45409D01*
X76266Y-45424D01*
X76277Y-45438D01*
X76279Y-45439D01*
X76279Y-45439D01*
X76279Y-45439D01*
X76279Y-45440D01*
X76708Y-45869D01*
X76712Y-45889D01*
X76735Y-45948D01*
X76770Y-46001D01*
X76770Y-46002D01*
X75782Y-46002D01*
X74972Y-45191D01*
X75021Y-45202D01*
X75084Y-45204D01*
X75147Y-45193D01*
X75206Y-45170D01*
X75260Y-45136D01*
X75306Y-45092D01*
X75342Y-45040D01*
X75368Y-44982D01*
X75382Y-44920D01*
X75383Y-44848D01*
X75379Y-44830D01*
X75383Y-44824D01*
X75392Y-44808D01*
X75392Y-44807D01*
X75393Y-44806D01*
X75398Y-44788D01*
X75404Y-44771D01*
X75404Y-44770D01*
X75404Y-44769D01*
X75406Y-44750D01*
X75408Y-44732D01*
X75408Y-44730D01*
X75408Y-44730D01*
X75408Y-44730D01*
X75408Y-44730D01*
X75408Y-41614D01*
X75419Y-41619D01*
X75481Y-41632D01*
X75544Y-41634D01*
X75607Y-41623D01*
X75666Y-41600D01*
X75720Y-41566D01*
X75766Y-41522D01*
X75802Y-41470D01*
X75828Y-41412D01*
X75842Y-41350D01*
X75843Y-41278D01*
X75831Y-41216D01*
X75806Y-41157D01*
X75771Y-41104D01*
X75727Y-41059D01*
X75674Y-41024D01*
X75616Y-40999D01*
X75553Y-40986D01*
X75490Y-40986D01*
X75428Y-40998D01*
X75408Y-41006D01*
X75408Y-40830D01*
X75406Y-40811D01*
X75406Y-40808D01*
X75450Y-40808D01*
X75468Y-40806D01*
X75486Y-40805D01*
X75487Y-40804D01*
X75488Y-40804D01*
X75506Y-40799D01*
X75523Y-40794D01*
X75524Y-40793D01*
X75525Y-40793D01*
X75541Y-40784D01*
X75558Y-40776D01*
X75558Y-40775D01*
X75559Y-40775D01*
X75574Y-40763D01*
X75588Y-40752D01*
X75589Y-40750D01*
X75589Y-40750D01*
X75589Y-40750D01*
X75590Y-40750D01*
X76180Y-40160D01*
X76191Y-40146D01*
X76203Y-40132D01*
X76204Y-40131D01*
X76204Y-40130D01*
X76213Y-40114D01*
X76222Y-40098D01*
X76222Y-40097D01*
X76223Y-40096D01*
X76228Y-40078D01*
X76234Y-40061D01*
X76234Y-40060D01*
X76234Y-40059D01*
X76236Y-40040D01*
X76238Y-40022D01*
X76238Y-40020D01*
X76238Y-40020D01*
X76238Y-40020D01*
X76238Y-40020D01*
X76238Y-39312D01*
X76880Y-38670D01*
X76891Y-38656D01*
X76903Y-38642D01*
X76904Y-38641D01*
X76904Y-38640D01*
X76913Y-38624D01*
X76922Y-38608D01*
X76922Y-38607D01*
X76923Y-38606D01*
X76928Y-38588D01*
X76934Y-38571D01*
X76934Y-38570D01*
X76934Y-38569D01*
X76936Y-38550D01*
X76938Y-38532D01*
X76938Y-38530D01*
X76938Y-38530D01*
X76938Y-38530D01*
X76938Y-38530D01*
X76938Y-38237D01*
X76940Y-38236D01*
X76986Y-38192D01*
X77022Y-38140D01*
X77048Y-38082D01*
X77062Y-38020D01*
X77063Y-37948D01*
X77051Y-37886D01*
X77026Y-37827D01*
X76991Y-37774D01*
X76947Y-37729D01*
X76894Y-37694D01*
X76836Y-37669D01*
X76773Y-37656D01*
X76710Y-37656D01*
X76648Y-37668D01*
X76618Y-37680D01*
X76618Y-36372D01*
X77710Y-35280D01*
X77721Y-35266D01*
X77733Y-35252D01*
X77734Y-35251D01*
X77734Y-35250D01*
X77743Y-35234D01*
X77752Y-35218D01*
X77752Y-35217D01*
X77753Y-35216D01*
X77758Y-35198D01*
X77764Y-35181D01*
X77764Y-35180D01*
X77764Y-35179D01*
X77766Y-35160D01*
X77768Y-35142D01*
X77768Y-35140D01*
X77768Y-35140D01*
X77768Y-35140D01*
X77768Y-35140D01*
X77768Y-34957D01*
X77770Y-34956D01*
X77816Y-34912D01*
X77852Y-34860D01*
X77878Y-34802D01*
X77892Y-34740D01*
X77893Y-34668D01*
X77881Y-34606D01*
X77878Y-34599D01*
X78431Y-34599D01*
X78431Y-34953D01*
X78427Y-35965D01*
X78091Y-35965D01*
X78091Y-36745D01*
X78090Y-37234D01*
X78089Y-37234D01*
X78089Y-37373D01*
X78089Y-37522D01*
X78089Y-37522D01*
X78089Y-37917D01*
X77973Y-37917D01*
X77973Y-36428D01*
X77961Y-36366D01*
X77936Y-36307D01*
X77901Y-36254D01*
X77857Y-36209D01*
X77804Y-36174D01*
X77746Y-36149D01*
X77683Y-36136D01*
X77620Y-36136D01*
X77558Y-36148D01*
X77499Y-36171D01*
X77446Y-36206D01*
X77401Y-36251D01*
X77365Y-36303D01*
X77340Y-36361D01*
X77327Y-36423D01*
X77326Y-36487D01*
X77328Y-36500D01*
X77219Y-36609D01*
X77208Y-36623D01*
X77196Y-36637D01*
X77195Y-36638D01*
X77195Y-36639D01*
X77186Y-36655D01*
X77177Y-36671D01*
X77177Y-36672D01*
X77176Y-36673D01*
X77171Y-36691D01*
X77165Y-36708D01*
X77165Y-36709D01*
X77165Y-36710D01*
X77163Y-36729D01*
X77161Y-36747D01*
X77161Y-36749D01*
X77161Y-36749D01*
X77161Y-36749D01*
X77161Y-36750D01*
X77161Y-38873D01*
X77156Y-38876D01*
X77111Y-38921D01*
X77075Y-38973D01*
X77050Y-39031D01*
X77043Y-39065D01*
X77027Y-39049D01*
X76974Y-39014D01*
X76916Y-38989D01*
X76853Y-38976D01*
X76790Y-38976D01*
X76728Y-38988D01*
X76669Y-39011D01*
X76616Y-39046D01*
X76571Y-39091D01*
X76535Y-39143D01*
X76510Y-39201D01*
X76497Y-39263D01*
X76496Y-39327D01*
X76507Y-39389D01*
X76530Y-39448D01*
X76565Y-39501D01*
X76573Y-39509D01*
X76573Y-39680D01*
X76573Y-42402D01*
X76549Y-42411D01*
X76496Y-42446D01*
X76451Y-42491D01*
X76415Y-42543D01*
X76390Y-42601D01*
X76377Y-42663D01*
X76376Y-42727D01*
X76387Y-42789D01*
X76410Y-42848D01*
X76445Y-42901D01*
X76489Y-42947D01*
X76541Y-42983D01*
X76599Y-43009D01*
X76661Y-43022D01*
X76724Y-43024D01*
X76787Y-43013D01*
X76846Y-42990D01*
X76900Y-42956D01*
X76946Y-42912D01*
X76982Y-42860D01*
X77008Y-42802D01*
X77022Y-42740D01*
X77022Y-42720D01*
X77023Y-42719D01*
X77046Y-42677D01*
X77061Y-42631D01*
X77066Y-42583D01*
X77066Y-42580D01*
X77066Y-39680D01*
X77066Y-39511D01*
X77102Y-39460D01*
X77128Y-39402D01*
X77136Y-39364D01*
X77149Y-39377D01*
X77201Y-39413D01*
X77259Y-39439D01*
X77321Y-39452D01*
X77384Y-39454D01*
X77447Y-39443D01*
X77506Y-39420D01*
X77560Y-39386D01*
X77606Y-39342D01*
X77642Y-39290D01*
X77668Y-39232D01*
X77682Y-39170D01*
X77683Y-39098D01*
X77671Y-39036D01*
X77646Y-38977D01*
X77611Y-38924D01*
X77567Y-38879D01*
X77558Y-38873D01*
X77558Y-36832D01*
X77608Y-36782D01*
X77611Y-36782D01*
X77674Y-36784D01*
X77737Y-36773D01*
X77796Y-36750D01*
X77850Y-36716D01*
X77896Y-36672D01*
X77932Y-36620D01*
X77958Y-36562D01*
X77972Y-36500D01*
X77973Y-36428D01*
X77973Y-37917D01*
X77788Y-37917D01*
X77795Y-39455D01*
X77786Y-40990D01*
X80333Y-40990D01*
X80335Y-43575D01*
X81257Y-44283D01*
X81255Y-47352D01*
X81257Y-49982D01*
X83487Y-49988D01*
X83561Y-51967D01*
X83561Y-51967D01*
G37*
G54D14*
X83561Y-51967D02*
X81228Y-51967D01*
X81228Y-50400D01*
X81228Y-47595D01*
X81226Y-47576D01*
X81225Y-47558D01*
X81224Y-47557D01*
X81224Y-47556D01*
X81219Y-47538D01*
X81214Y-47521D01*
X81213Y-47520D01*
X81213Y-47519D01*
X81204Y-47503D01*
X81196Y-47486D01*
X81195Y-47486D01*
X81195Y-47485D01*
X81183Y-47470D01*
X81172Y-47456D01*
X81170Y-47455D01*
X81170Y-47455D01*
X81170Y-47455D01*
X81170Y-47454D01*
X81152Y-47436D01*
X81152Y-47435D01*
X81153Y-47363D01*
X81141Y-47301D01*
X81116Y-47242D01*
X81081Y-47189D01*
X81037Y-47144D01*
X80984Y-47109D01*
X80926Y-47084D01*
X80863Y-47071D01*
X80800Y-47071D01*
X80738Y-47083D01*
X80679Y-47106D01*
X80626Y-47141D01*
X80598Y-47169D01*
X80598Y-46550D01*
X80596Y-46531D01*
X80595Y-46513D01*
X80594Y-46512D01*
X80594Y-46511D01*
X80589Y-46493D01*
X80584Y-46476D01*
X80583Y-46475D01*
X80583Y-46474D01*
X80574Y-46458D01*
X80566Y-46441D01*
X80565Y-46441D01*
X80565Y-46440D01*
X80553Y-46425D01*
X80542Y-46411D01*
X80540Y-46410D01*
X80540Y-46410D01*
X80540Y-46410D01*
X80540Y-46409D01*
X78448Y-44317D01*
X78448Y-43407D01*
X78450Y-43406D01*
X78496Y-43362D01*
X78532Y-43310D01*
X78558Y-43252D01*
X78572Y-43190D01*
X78573Y-43118D01*
X78571Y-43109D01*
X79636Y-42043D01*
X79646Y-42040D01*
X79700Y-42006D01*
X79746Y-41962D01*
X79782Y-41910D01*
X79808Y-41852D01*
X79822Y-41790D01*
X79823Y-41718D01*
X79811Y-41656D01*
X79786Y-41597D01*
X79751Y-41544D01*
X79707Y-41499D01*
X79654Y-41464D01*
X79596Y-41439D01*
X79533Y-41426D01*
X79470Y-41426D01*
X79408Y-41438D01*
X79349Y-41461D01*
X79296Y-41496D01*
X79251Y-41541D01*
X79215Y-41593D01*
X79190Y-41651D01*
X79177Y-41713D01*
X79176Y-41777D01*
X79187Y-41839D01*
X79210Y-41898D01*
X79214Y-41904D01*
X78291Y-42828D01*
X78283Y-42826D01*
X78220Y-42826D01*
X78158Y-42838D01*
X78099Y-42861D01*
X78046Y-42896D01*
X78001Y-42941D01*
X77965Y-42993D01*
X77940Y-43051D01*
X77927Y-43113D01*
X77926Y-43177D01*
X77937Y-43239D01*
X77960Y-43298D01*
X77995Y-43351D01*
X78039Y-43397D01*
X78051Y-43405D01*
X78051Y-44170D01*
X77548Y-43667D01*
X77548Y-43457D01*
X77550Y-43456D01*
X77596Y-43412D01*
X77632Y-43360D01*
X77658Y-43302D01*
X77672Y-43240D01*
X77673Y-43168D01*
X77661Y-43106D01*
X77636Y-43047D01*
X77601Y-42994D01*
X77557Y-42949D01*
X77504Y-42914D01*
X77446Y-42889D01*
X77383Y-42876D01*
X77320Y-42876D01*
X77258Y-42888D01*
X77199Y-42911D01*
X77146Y-42946D01*
X77101Y-42991D01*
X77065Y-43043D01*
X77040Y-43101D01*
X77027Y-43163D01*
X77026Y-43227D01*
X77037Y-43289D01*
X77060Y-43348D01*
X77095Y-43401D01*
X77139Y-43447D01*
X77151Y-43455D01*
X77151Y-43750D01*
X77153Y-43768D01*
X77154Y-43786D01*
X77155Y-43787D01*
X77155Y-43788D01*
X77160Y-43806D01*
X77165Y-43823D01*
X77166Y-43824D01*
X77166Y-43825D01*
X77175Y-43841D01*
X77183Y-43858D01*
X77184Y-43858D01*
X77184Y-43859D01*
X77196Y-43874D01*
X77207Y-43888D01*
X77209Y-43889D01*
X77209Y-43889D01*
X77209Y-43889D01*
X77209Y-43890D01*
X79801Y-46482D01*
X79801Y-48393D01*
X79796Y-48396D01*
X79751Y-48441D01*
X79715Y-48493D01*
X79690Y-48551D01*
X79677Y-48613D01*
X79676Y-48677D01*
X79687Y-48739D01*
X79710Y-48798D01*
X79745Y-48851D01*
X79789Y-48897D01*
X79841Y-48933D01*
X79899Y-48959D01*
X79961Y-48972D01*
X80024Y-48974D01*
X80082Y-48963D01*
X80087Y-48989D01*
X80110Y-49048D01*
X80145Y-49101D01*
X80189Y-49147D01*
X80241Y-49183D01*
X80299Y-49209D01*
X80361Y-49222D01*
X80424Y-49224D01*
X80487Y-49213D01*
X80526Y-49197D01*
X80526Y-49272D01*
X80512Y-49286D01*
X78712Y-49286D01*
X78633Y-49207D01*
X78633Y-48927D01*
X78635Y-48926D01*
X78681Y-48882D01*
X78717Y-48830D01*
X78743Y-48772D01*
X78757Y-48710D01*
X78758Y-48638D01*
X78746Y-48576D01*
X78721Y-48517D01*
X78686Y-48464D01*
X78642Y-48419D01*
X78589Y-48384D01*
X78563Y-48373D01*
X78563Y-46208D01*
X78551Y-46146D01*
X78526Y-46087D01*
X78491Y-46034D01*
X78447Y-45989D01*
X78394Y-45954D01*
X78336Y-45929D01*
X78273Y-45916D01*
X78210Y-45916D01*
X78148Y-45928D01*
X78089Y-45951D01*
X78036Y-45986D01*
X77991Y-46031D01*
X77955Y-46083D01*
X77930Y-46141D01*
X77917Y-46203D01*
X77916Y-46267D01*
X77919Y-46283D01*
X77911Y-46292D01*
X77910Y-46293D01*
X77910Y-46294D01*
X77901Y-46310D01*
X77892Y-46326D01*
X77892Y-46327D01*
X77891Y-46328D01*
X77886Y-46346D01*
X77880Y-46363D01*
X77880Y-46364D01*
X77880Y-46365D01*
X77878Y-46384D01*
X77876Y-46402D01*
X77876Y-46404D01*
X77876Y-46404D01*
X77876Y-46404D01*
X77876Y-46405D01*
X77876Y-47168D01*
X77871Y-47171D01*
X77826Y-47216D01*
X77818Y-47226D01*
X76206Y-47226D01*
X76201Y-47219D01*
X76157Y-47174D01*
X76104Y-47139D01*
X76046Y-47114D01*
X75983Y-47101D01*
X75920Y-47101D01*
X75858Y-47113D01*
X75799Y-47136D01*
X75746Y-47171D01*
X75701Y-47216D01*
X75665Y-47268D01*
X75640Y-47326D01*
X75627Y-47388D01*
X75626Y-47452D01*
X75637Y-47514D01*
X75660Y-47573D01*
X75695Y-47626D01*
X75739Y-47672D01*
X75791Y-47708D01*
X75849Y-47734D01*
X75911Y-47747D01*
X75974Y-47749D01*
X76037Y-47738D01*
X76096Y-47715D01*
X76150Y-47681D01*
X76196Y-47637D01*
X76205Y-47623D01*
X77818Y-47623D01*
X77820Y-47626D01*
X77864Y-47672D01*
X77916Y-47708D01*
X77974Y-47734D01*
X78036Y-47747D01*
X78099Y-47749D01*
X78162Y-47738D01*
X78221Y-47715D01*
X78275Y-47681D01*
X78321Y-47637D01*
X78357Y-47585D01*
X78383Y-47527D01*
X78397Y-47465D01*
X78398Y-47393D01*
X78386Y-47331D01*
X78361Y-47272D01*
X78326Y-47219D01*
X78282Y-47174D01*
X78273Y-47168D01*
X78273Y-46562D01*
X78327Y-46553D01*
X78386Y-46530D01*
X78440Y-46496D01*
X78486Y-46452D01*
X78522Y-46400D01*
X78548Y-46342D01*
X78562Y-46280D01*
X78563Y-46208D01*
X78563Y-48373D01*
X78531Y-48359D01*
X78468Y-48346D01*
X78405Y-48346D01*
X78343Y-48358D01*
X78284Y-48381D01*
X78231Y-48416D01*
X78186Y-48461D01*
X78150Y-48513D01*
X78125Y-48571D01*
X78112Y-48633D01*
X78111Y-48697D01*
X78122Y-48759D01*
X78145Y-48818D01*
X78180Y-48871D01*
X78224Y-48917D01*
X78236Y-48925D01*
X78236Y-49290D01*
X78238Y-49308D01*
X78239Y-49326D01*
X78240Y-49327D01*
X78240Y-49328D01*
X78245Y-49346D01*
X78250Y-49363D01*
X78251Y-49364D01*
X78251Y-49365D01*
X78260Y-49381D01*
X78268Y-49398D01*
X78269Y-49398D01*
X78269Y-49399D01*
X78281Y-49414D01*
X78292Y-49428D01*
X78294Y-49429D01*
X78294Y-49429D01*
X78294Y-49429D01*
X78294Y-49430D01*
X78489Y-49625D01*
X78503Y-49636D01*
X78517Y-49648D01*
X78518Y-49649D01*
X78519Y-49649D01*
X78535Y-49658D01*
X78551Y-49667D01*
X78552Y-49667D01*
X78553Y-49668D01*
X78571Y-49673D01*
X78588Y-49679D01*
X78589Y-49679D01*
X78590Y-49679D01*
X78609Y-49681D01*
X78627Y-49683D01*
X78629Y-49683D01*
X78629Y-49683D01*
X78629Y-49683D01*
X78630Y-49683D01*
X80595Y-49683D01*
X80613Y-49681D01*
X80631Y-49680D01*
X80632Y-49679D01*
X80633Y-49679D01*
X80651Y-49674D01*
X80668Y-49669D01*
X80669Y-49668D01*
X80670Y-49668D01*
X80686Y-49659D01*
X80703Y-49651D01*
X80703Y-49650D01*
X80704Y-49650D01*
X80719Y-49638D01*
X80733Y-49627D01*
X80734Y-49625D01*
X80734Y-49625D01*
X80734Y-49625D01*
X80735Y-49625D01*
X80831Y-49529D01*
X80831Y-50317D01*
X80417Y-50731D01*
X79291Y-50731D01*
X79286Y-50724D01*
X79242Y-50679D01*
X79189Y-50644D01*
X79131Y-50619D01*
X79068Y-50606D01*
X79005Y-50606D01*
X78943Y-50618D01*
X78884Y-50641D01*
X78831Y-50676D01*
X78786Y-50721D01*
X78750Y-50773D01*
X78725Y-50831D01*
X78712Y-50893D01*
X78711Y-50957D01*
X78722Y-51019D01*
X78745Y-51078D01*
X78780Y-51131D01*
X78824Y-51177D01*
X78876Y-51213D01*
X78934Y-51239D01*
X78996Y-51252D01*
X79059Y-51254D01*
X79122Y-51243D01*
X79181Y-51220D01*
X79235Y-51186D01*
X79281Y-51142D01*
X79290Y-51128D01*
X80500Y-51128D01*
X80518Y-51126D01*
X80536Y-51125D01*
X80537Y-51124D01*
X80538Y-51124D01*
X80556Y-51119D01*
X80573Y-51114D01*
X80574Y-51113D01*
X80575Y-51113D01*
X80591Y-51104D01*
X80608Y-51096D01*
X80608Y-51095D01*
X80609Y-51095D01*
X80624Y-51083D01*
X80638Y-51072D01*
X80639Y-51070D01*
X80639Y-51070D01*
X80639Y-51070D01*
X80640Y-51070D01*
X81170Y-50540D01*
X81181Y-50526D01*
X81193Y-50512D01*
X81194Y-50511D01*
X81194Y-50510D01*
X81203Y-50494D01*
X81212Y-50478D01*
X81212Y-50477D01*
X81213Y-50476D01*
X81218Y-50458D01*
X81224Y-50441D01*
X81224Y-50440D01*
X81224Y-50439D01*
X81226Y-50420D01*
X81228Y-50402D01*
X81228Y-50400D01*
X81228Y-50400D01*
X81228Y-50400D01*
X81228Y-50400D01*
X81228Y-51967D01*
X73977Y-51967D01*
X73977Y-44757D01*
X75560Y-46341D01*
X75574Y-46352D01*
X75588Y-46364D01*
X75589Y-46365D01*
X75590Y-46365D01*
X75606Y-46374D01*
X75622Y-46383D01*
X75623Y-46383D01*
X75624Y-46383D01*
X75642Y-46389D01*
X75659Y-46394D01*
X75660Y-46394D01*
X75661Y-46395D01*
X75679Y-46397D01*
X75698Y-46399D01*
X75700Y-46399D01*
X75700Y-46399D01*
X75700Y-46399D01*
X75700Y-46399D01*
X77249Y-46399D01*
X77267Y-46397D01*
X77285Y-46395D01*
X77286Y-46395D01*
X77287Y-46395D01*
X77305Y-46390D01*
X77322Y-46385D01*
X77323Y-46384D01*
X77324Y-46384D01*
X77341Y-46375D01*
X77357Y-46367D01*
X77358Y-46366D01*
X77359Y-46366D01*
X77373Y-46354D01*
X77387Y-46343D01*
X77388Y-46341D01*
X77389Y-46341D01*
X77389Y-46341D01*
X77389Y-46341D01*
X78070Y-45660D01*
X78081Y-45646D01*
X78093Y-45632D01*
X78094Y-45631D01*
X78094Y-45630D01*
X78103Y-45614D01*
X78112Y-45598D01*
X78112Y-45597D01*
X78113Y-45596D01*
X78118Y-45578D01*
X78124Y-45561D01*
X78124Y-45560D01*
X78124Y-45559D01*
X78126Y-45540D01*
X78128Y-45522D01*
X78128Y-45520D01*
X78128Y-45520D01*
X78128Y-45520D01*
X78128Y-45520D01*
X78128Y-45432D01*
X78130Y-45431D01*
X78176Y-45387D01*
X78212Y-45335D01*
X78238Y-45277D01*
X78252Y-45215D01*
X78253Y-45143D01*
X78241Y-45081D01*
X78216Y-45022D01*
X78181Y-44969D01*
X78137Y-44924D01*
X78084Y-44889D01*
X78026Y-44864D01*
X77963Y-44851D01*
X77900Y-44851D01*
X77838Y-44863D01*
X77779Y-44886D01*
X77726Y-44921D01*
X77681Y-44966D01*
X77645Y-45018D01*
X77620Y-45076D01*
X77607Y-45138D01*
X77606Y-45202D01*
X77617Y-45264D01*
X77640Y-45323D01*
X77675Y-45376D01*
X77719Y-45422D01*
X77731Y-45430D01*
X77731Y-45437D01*
X77347Y-45821D01*
X77348Y-45768D01*
X77336Y-45706D01*
X77311Y-45647D01*
X77276Y-45594D01*
X77232Y-45549D01*
X77179Y-45514D01*
X77121Y-45489D01*
X77058Y-45476D01*
X76995Y-45476D01*
X76933Y-45488D01*
X76901Y-45501D01*
X76659Y-45258D01*
X76666Y-45252D01*
X76702Y-45200D01*
X76728Y-45142D01*
X76742Y-45080D01*
X76743Y-45008D01*
X76731Y-44946D01*
X76706Y-44887D01*
X76671Y-44834D01*
X76627Y-44789D01*
X76574Y-44754D01*
X76516Y-44729D01*
X76453Y-44716D01*
X76390Y-44716D01*
X76328Y-44728D01*
X76269Y-44751D01*
X76216Y-44786D01*
X76171Y-44831D01*
X76135Y-44883D01*
X76110Y-44941D01*
X76097Y-45003D01*
X76096Y-45067D01*
X76107Y-45129D01*
X76130Y-45188D01*
X76165Y-45241D01*
X76209Y-45287D01*
X76221Y-45295D01*
X76221Y-45300D01*
X76223Y-45318D01*
X76224Y-45336D01*
X76225Y-45337D01*
X76225Y-45338D01*
X76230Y-45356D01*
X76235Y-45373D01*
X76236Y-45374D01*
X76236Y-45375D01*
X76245Y-45391D01*
X76253Y-45408D01*
X76254Y-45408D01*
X76254Y-45409D01*
X76266Y-45424D01*
X76277Y-45438D01*
X76279Y-45439D01*
X76279Y-45439D01*
X76279Y-45439D01*
X76279Y-45440D01*
X76708Y-45869D01*
X76712Y-45889D01*
X76735Y-45948D01*
X76770Y-46001D01*
X76770Y-46002D01*
X75782Y-46002D01*
X74972Y-45191D01*
X75021Y-45202D01*
X75084Y-45204D01*
X75147Y-45193D01*
X75206Y-45170D01*
X75260Y-45136D01*
X75306Y-45092D01*
X75342Y-45040D01*
X75368Y-44982D01*
X75382Y-44920D01*
X75383Y-44848D01*
X75379Y-44830D01*
X75383Y-44824D01*
X75392Y-44808D01*
X75392Y-44807D01*
X75393Y-44806D01*
X75398Y-44788D01*
X75404Y-44771D01*
X75404Y-44770D01*
X75404Y-44769D01*
X75406Y-44750D01*
X75408Y-44732D01*
X75408Y-44730D01*
X75408Y-44730D01*
X75408Y-44730D01*
X75408Y-44730D01*
X75408Y-41614D01*
X75419Y-41619D01*
X75481Y-41632D01*
X75544Y-41634D01*
X75607Y-41623D01*
X75666Y-41600D01*
X75720Y-41566D01*
X75766Y-41522D01*
X75802Y-41470D01*
X75828Y-41412D01*
X75842Y-41350D01*
X75843Y-41278D01*
X75831Y-41216D01*
X75806Y-41157D01*
X75771Y-41104D01*
X75727Y-41059D01*
X75674Y-41024D01*
X75616Y-40999D01*
X75553Y-40986D01*
X75490Y-40986D01*
X75428Y-40998D01*
X75408Y-41006D01*
X75408Y-40830D01*
X75406Y-40811D01*
X75406Y-40808D01*
X75450Y-40808D01*
X75468Y-40806D01*
X75486Y-40805D01*
X75487Y-40804D01*
X75488Y-40804D01*
X75506Y-40799D01*
X75523Y-40794D01*
X75524Y-40793D01*
X75525Y-40793D01*
X75541Y-40784D01*
X75558Y-40776D01*
X75558Y-40775D01*
X75559Y-40775D01*
X75574Y-40763D01*
X75588Y-40752D01*
X75589Y-40750D01*
X75589Y-40750D01*
X75589Y-40750D01*
X75590Y-40750D01*
X76180Y-40160D01*
X76191Y-40146D01*
X76203Y-40132D01*
X76204Y-40131D01*
X76204Y-40130D01*
X76213Y-40114D01*
X76222Y-40098D01*
X76222Y-40097D01*
X76223Y-40096D01*
X76228Y-40078D01*
X76234Y-40061D01*
X76234Y-40060D01*
X76234Y-40059D01*
X76236Y-40040D01*
X76238Y-40022D01*
X76238Y-40020D01*
X76238Y-40020D01*
X76238Y-40020D01*
X76238Y-40020D01*
X76238Y-39312D01*
X76880Y-38670D01*
X76891Y-38656D01*
X76903Y-38642D01*
X76904Y-38641D01*
X76904Y-38640D01*
X76913Y-38624D01*
X76922Y-38608D01*
X76922Y-38607D01*
X76923Y-38606D01*
X76928Y-38588D01*
X76934Y-38571D01*
X76934Y-38570D01*
X76934Y-38569D01*
X76936Y-38550D01*
X76938Y-38532D01*
X76938Y-38530D01*
X76938Y-38530D01*
X76938Y-38530D01*
X76938Y-38530D01*
X76938Y-38237D01*
X76940Y-38236D01*
X76986Y-38192D01*
X77022Y-38140D01*
X77048Y-38082D01*
X77062Y-38020D01*
X77063Y-37948D01*
X77051Y-37886D01*
X77026Y-37827D01*
X76991Y-37774D01*
X76947Y-37729D01*
X76894Y-37694D01*
X76836Y-37669D01*
X76773Y-37656D01*
X76710Y-37656D01*
X76648Y-37668D01*
X76618Y-37680D01*
X76618Y-36372D01*
X77710Y-35280D01*
X77721Y-35266D01*
X77733Y-35252D01*
X77734Y-35251D01*
X77734Y-35250D01*
X77743Y-35234D01*
X77752Y-35218D01*
X77752Y-35217D01*
X77753Y-35216D01*
X77758Y-35198D01*
X77764Y-35181D01*
X77764Y-35180D01*
X77764Y-35179D01*
X77766Y-35160D01*
X77768Y-35142D01*
X77768Y-35140D01*
X77768Y-35140D01*
X77768Y-35140D01*
X77768Y-35140D01*
X77768Y-34957D01*
X77770Y-34956D01*
X77816Y-34912D01*
X77852Y-34860D01*
X77878Y-34802D01*
X77892Y-34740D01*
X77893Y-34668D01*
X77881Y-34606D01*
X77878Y-34599D01*
X78431Y-34599D01*
X78431Y-34953D01*
X78427Y-35965D01*
X78091Y-35965D01*
X78091Y-36745D01*
X78090Y-37234D01*
X78089Y-37234D01*
X78089Y-37373D01*
X78089Y-37522D01*
X78089Y-37522D01*
X78089Y-37917D01*
X77973Y-37917D01*
X77973Y-36428D01*
X77961Y-36366D01*
X77936Y-36307D01*
X77901Y-36254D01*
X77857Y-36209D01*
X77804Y-36174D01*
X77746Y-36149D01*
X77683Y-36136D01*
X77620Y-36136D01*
X77558Y-36148D01*
X77499Y-36171D01*
X77446Y-36206D01*
X77401Y-36251D01*
X77365Y-36303D01*
X77340Y-36361D01*
X77327Y-36423D01*
X77326Y-36487D01*
X77328Y-36500D01*
X77219Y-36609D01*
X77208Y-36623D01*
X77196Y-36637D01*
X77195Y-36638D01*
X77195Y-36639D01*
X77186Y-36655D01*
X77177Y-36671D01*
X77177Y-36672D01*
X77176Y-36673D01*
X77171Y-36691D01*
X77165Y-36708D01*
X77165Y-36709D01*
X77165Y-36710D01*
X77163Y-36729D01*
X77161Y-36747D01*
X77161Y-36749D01*
X77161Y-36749D01*
X77161Y-36749D01*
X77161Y-36750D01*
X77161Y-38873D01*
X77156Y-38876D01*
X77111Y-38921D01*
X77075Y-38973D01*
X77050Y-39031D01*
X77043Y-39065D01*
X77027Y-39049D01*
X76974Y-39014D01*
X76916Y-38989D01*
X76853Y-38976D01*
X76790Y-38976D01*
X76728Y-38988D01*
X76669Y-39011D01*
X76616Y-39046D01*
X76571Y-39091D01*
X76535Y-39143D01*
X76510Y-39201D01*
X76497Y-39263D01*
X76496Y-39327D01*
X76507Y-39389D01*
X76530Y-39448D01*
X76565Y-39501D01*
X76573Y-39509D01*
X76573Y-39680D01*
X76573Y-42402D01*
X76549Y-42411D01*
X76496Y-42446D01*
X76451Y-42491D01*
X76415Y-42543D01*
X76390Y-42601D01*
X76377Y-42663D01*
X76376Y-42727D01*
X76387Y-42789D01*
X76410Y-42848D01*
X76445Y-42901D01*
X76489Y-42947D01*
X76541Y-42983D01*
X76599Y-43009D01*
X76661Y-43022D01*
X76724Y-43024D01*
X76787Y-43013D01*
X76846Y-42990D01*
X76900Y-42956D01*
X76946Y-42912D01*
X76982Y-42860D01*
X77008Y-42802D01*
X77022Y-42740D01*
X77022Y-42720D01*
X77023Y-42719D01*
X77046Y-42677D01*
X77061Y-42631D01*
X77066Y-42583D01*
X77066Y-42580D01*
X77066Y-39680D01*
X77066Y-39511D01*
X77102Y-39460D01*
X77128Y-39402D01*
X77136Y-39364D01*
X77149Y-39377D01*
X77201Y-39413D01*
X77259Y-39439D01*
X77321Y-39452D01*
X77384Y-39454D01*
X77447Y-39443D01*
X77506Y-39420D01*
X77560Y-39386D01*
X77606Y-39342D01*
X77642Y-39290D01*
X77668Y-39232D01*
X77682Y-39170D01*
X77683Y-39098D01*
X77671Y-39036D01*
X77646Y-38977D01*
X77611Y-38924D01*
X77567Y-38879D01*
X77558Y-38873D01*
X77558Y-36832D01*
X77608Y-36782D01*
X77611Y-36782D01*
X77674Y-36784D01*
X77737Y-36773D01*
X77796Y-36750D01*
X77850Y-36716D01*
X77896Y-36672D01*
X77932Y-36620D01*
X77958Y-36562D01*
X77972Y-36500D01*
X77973Y-36428D01*
X77973Y-37917D01*
X77788Y-37917D01*
X77795Y-39455D01*
X77786Y-40990D01*
X80333Y-40990D01*
X80335Y-43575D01*
X81257Y-44283D01*
X81255Y-47352D01*
X81257Y-49982D01*
X83487Y-49988D01*
X83561Y-51967D01*
G54D10*
G36*
X85825Y-35837D02*
X84824Y-35837D01*
X84826Y-34599D01*
X85825Y-34599D01*
X85825Y-35837D01*
X85825Y-35837D01*
G37*
G54D14*
X85825Y-35837D02*
X84824Y-35837D01*
X84826Y-34599D01*
X85825Y-34599D01*
X85825Y-35837D01*
G54D10*
G36*
X84627Y-34599D02*
X84626Y-35837D01*
X84158Y-35837D01*
X84158Y-34599D01*
X84627Y-34599D01*
X84627Y-34599D01*
G37*
G54D14*
X84627Y-34599D02*
X84626Y-35837D01*
X84158Y-35837D01*
X84158Y-34599D01*
X84627Y-34599D01*
G54D10*
G36*
X83960Y-35837D02*
X83500Y-35837D01*
X83487Y-35253D01*
X83389Y-35155D01*
X83390Y-35052D01*
X83093Y-34808D01*
X83044Y-34807D01*
X83025Y-34789D01*
X78926Y-34804D01*
X78630Y-34804D01*
X78630Y-34599D01*
X83960Y-34599D01*
X83960Y-34602D01*
X83944Y-34612D01*
X83899Y-34657D01*
X83863Y-34709D01*
X83838Y-34767D01*
X83825Y-34829D01*
X83824Y-34893D01*
X83835Y-34955D01*
X83858Y-35014D01*
X83893Y-35067D01*
X83937Y-35113D01*
X83960Y-35129D01*
X83960Y-35837D01*
X83960Y-35837D01*
G37*
G54D14*
X83960Y-35837D02*
X83500Y-35837D01*
X83487Y-35253D01*
X83389Y-35155D01*
X83390Y-35052D01*
X83093Y-34808D01*
X83044Y-34807D01*
X83025Y-34789D01*
X78926Y-34804D01*
X78630Y-34804D01*
X78630Y-34599D01*
X83960Y-34599D01*
X83960Y-34602D01*
X83944Y-34612D01*
X83899Y-34657D01*
X83863Y-34709D01*
X83838Y-34767D01*
X83825Y-34829D01*
X83824Y-34893D01*
X83835Y-34955D01*
X83858Y-35014D01*
X83893Y-35067D01*
X83937Y-35113D01*
X83960Y-35129D01*
X83960Y-35837D01*
G54D10*
G36*
X83301Y-35837D02*
X83153Y-35837D01*
X83136Y-35839D01*
X83120Y-35840D01*
X83119Y-35841D01*
X83118Y-35841D01*
X83102Y-35846D01*
X83086Y-35850D01*
X83086Y-35851D01*
X83085Y-35851D01*
X83070Y-35859D01*
X83056Y-35866D01*
X83055Y-35867D01*
X83055Y-35867D01*
X83042Y-35878D01*
X83029Y-35888D01*
X83028Y-35889D01*
X83028Y-35889D01*
X83017Y-35902D01*
X83006Y-35915D01*
X83006Y-35915D01*
X83006Y-35916D01*
X82998Y-35930D01*
X82989Y-35945D01*
X82989Y-35946D01*
X82989Y-35946D01*
X82984Y-35962D01*
X82981Y-35971D01*
X78626Y-35966D01*
X78629Y-35003D01*
X82943Y-34988D01*
X82958Y-35003D01*
X82958Y-35059D01*
X82969Y-35121D01*
X82992Y-35180D01*
X83027Y-35233D01*
X83071Y-35279D01*
X83123Y-35315D01*
X83181Y-35341D01*
X83243Y-35354D01*
X83290Y-35355D01*
X83301Y-35837D01*
X83301Y-35837D01*
G37*
G54D14*
X83301Y-35837D02*
X83153Y-35837D01*
X83136Y-35839D01*
X83120Y-35840D01*
X83119Y-35841D01*
X83118Y-35841D01*
X83102Y-35846D01*
X83086Y-35850D01*
X83086Y-35851D01*
X83085Y-35851D01*
X83070Y-35859D01*
X83056Y-35866D01*
X83055Y-35867D01*
X83055Y-35867D01*
X83042Y-35878D01*
X83029Y-35888D01*
X83028Y-35889D01*
X83028Y-35889D01*
X83017Y-35902D01*
X83006Y-35915D01*
X83006Y-35915D01*
X83006Y-35916D01*
X82998Y-35930D01*
X82989Y-35945D01*
X82989Y-35946D01*
X82989Y-35946D01*
X82984Y-35962D01*
X82981Y-35971D01*
X78626Y-35966D01*
X78629Y-35003D01*
X82943Y-34988D01*
X82958Y-35003D01*
X82958Y-35059D01*
X82969Y-35121D01*
X82992Y-35180D01*
X83027Y-35233D01*
X83071Y-35279D01*
X83123Y-35315D01*
X83181Y-35341D01*
X83243Y-35354D01*
X83290Y-35355D01*
X83301Y-35837D01*
G54D10*
G36*
X82975Y-36593D02*
X78290Y-36597D01*
X78290Y-36164D01*
X82975Y-36169D01*
X82975Y-36593D01*
X82975Y-36593D01*
G37*
G54D14*
X82975Y-36593D02*
X78290Y-36597D01*
X78290Y-36164D01*
X82975Y-36169D01*
X82975Y-36593D01*
G54D10*
G36*
X82975Y-37324D02*
X81927Y-37324D01*
X81901Y-37318D01*
X81838Y-37318D01*
X81808Y-37324D01*
X78288Y-37324D01*
X78289Y-36795D01*
X81777Y-36793D01*
X81811Y-36800D01*
X81874Y-36802D01*
X81926Y-36792D01*
X82975Y-36792D01*
X82975Y-37324D01*
X82975Y-37324D01*
G37*
G54D14*
X82975Y-37324D02*
X81927Y-37324D01*
X81901Y-37318D01*
X81838Y-37318D01*
X81808Y-37324D01*
X78288Y-37324D01*
X78289Y-36795D01*
X81777Y-36793D01*
X81811Y-36800D01*
X81874Y-36802D01*
X81926Y-36792D01*
X82975Y-36792D01*
X82975Y-37324D01*
G54D10*
G36*
X82975Y-37966D02*
X78288Y-37979D01*
X78288Y-37522D01*
X82975Y-37522D01*
X82975Y-37966D01*
X82975Y-37966D01*
G37*
G54D14*
X82975Y-37966D02*
X78288Y-37979D01*
X78288Y-37522D01*
X82975Y-37522D01*
X82975Y-37966D01*
G54D10*
G36*
X85825Y-51967D02*
X83759Y-51967D01*
X83678Y-49790D01*
X81455Y-49784D01*
X81454Y-47351D01*
X81456Y-44185D01*
X80533Y-43477D01*
X80532Y-40362D01*
X80719Y-40250D01*
X81785Y-39618D01*
X82780Y-39620D01*
X82991Y-39615D01*
X82996Y-39625D01*
X83004Y-39640D01*
X83005Y-39641D01*
X83005Y-39641D01*
X83015Y-39654D01*
X83026Y-39667D01*
X83026Y-39668D01*
X83027Y-39668D01*
X83040Y-39679D01*
X83053Y-39690D01*
X83053Y-39690D01*
X83054Y-39690D01*
X83068Y-39698D01*
X83083Y-39706D01*
X83084Y-39707D01*
X83084Y-39707D01*
X83100Y-39712D01*
X83116Y-39717D01*
X83117Y-39717D01*
X83117Y-39717D01*
X83134Y-39719D01*
X83151Y-39721D01*
X83152Y-39721D01*
X83152Y-39721D01*
X83152Y-39721D01*
X83153Y-39721D01*
X85118Y-39721D01*
X85118Y-40238D01*
X85127Y-40325D01*
X85152Y-40409D01*
X85193Y-40487D01*
X85248Y-40554D01*
X85316Y-40610D01*
X85393Y-40652D01*
X85476Y-40678D01*
X85563Y-40687D01*
X85651Y-40679D01*
X85734Y-40654D01*
X85812Y-40614D01*
X85825Y-40603D01*
X85825Y-41337D01*
X85803Y-41328D01*
X85741Y-41315D01*
X85678Y-41315D01*
X85616Y-41327D01*
X85557Y-41350D01*
X85504Y-41385D01*
X85458Y-41429D01*
X85451Y-41440D01*
X83097Y-41440D01*
X83054Y-41411D01*
X82996Y-41386D01*
X82933Y-41373D01*
X82870Y-41373D01*
X82808Y-41385D01*
X82749Y-41408D01*
X82696Y-41443D01*
X82651Y-41488D01*
X82615Y-41540D01*
X82590Y-41598D01*
X82577Y-41660D01*
X82576Y-41724D01*
X82587Y-41786D01*
X82610Y-41845D01*
X82645Y-41898D01*
X82689Y-41944D01*
X82702Y-41953D01*
X82710Y-43399D01*
X82694Y-43410D01*
X82648Y-43454D01*
X82613Y-43507D01*
X82588Y-43565D01*
X82574Y-43627D01*
X82574Y-43690D01*
X82585Y-43753D01*
X82608Y-43812D01*
X82643Y-43865D01*
X82687Y-43911D01*
X82739Y-43947D01*
X82797Y-43972D01*
X82859Y-43986D01*
X82922Y-43987D01*
X82985Y-43976D01*
X83044Y-43953D01*
X83097Y-43919D01*
X83143Y-43876D01*
X83180Y-43824D01*
X83206Y-43766D01*
X83220Y-43704D01*
X83221Y-43632D01*
X83208Y-43569D01*
X83184Y-43511D01*
X83149Y-43458D01*
X83107Y-43415D01*
X83099Y-41953D01*
X83100Y-41953D01*
X83146Y-41909D01*
X83182Y-41857D01*
X83191Y-41837D01*
X85450Y-41837D01*
X85453Y-41840D01*
X85497Y-41886D01*
X85549Y-41922D01*
X85607Y-41947D01*
X85669Y-41961D01*
X85732Y-41962D01*
X85795Y-41951D01*
X85825Y-41939D01*
X85825Y-51967D01*
X85825Y-51967D01*
G37*
G54D14*
X85825Y-51967D02*
X83759Y-51967D01*
X83678Y-49790D01*
X81455Y-49784D01*
X81454Y-47351D01*
X81456Y-44185D01*
X80533Y-43477D01*
X80532Y-40362D01*
X80719Y-40250D01*
X81785Y-39618D01*
X82780Y-39620D01*
X82991Y-39615D01*
X82996Y-39625D01*
X83004Y-39640D01*
X83005Y-39641D01*
X83005Y-39641D01*
X83015Y-39654D01*
X83026Y-39667D01*
X83026Y-39668D01*
X83027Y-39668D01*
X83040Y-39679D01*
X83053Y-39690D01*
X83053Y-39690D01*
X83054Y-39690D01*
X83068Y-39698D01*
X83083Y-39706D01*
X83084Y-39707D01*
X83084Y-39707D01*
X83100Y-39712D01*
X83116Y-39717D01*
X83117Y-39717D01*
X83117Y-39717D01*
X83134Y-39719D01*
X83151Y-39721D01*
X83152Y-39721D01*
X83152Y-39721D01*
X83152Y-39721D01*
X83153Y-39721D01*
X85118Y-39721D01*
X85118Y-40238D01*
X85127Y-40325D01*
X85152Y-40409D01*
X85193Y-40487D01*
X85248Y-40554D01*
X85316Y-40610D01*
X85393Y-40652D01*
X85476Y-40678D01*
X85563Y-40687D01*
X85651Y-40679D01*
X85734Y-40654D01*
X85812Y-40614D01*
X85825Y-40603D01*
X85825Y-41337D01*
X85803Y-41328D01*
X85741Y-41315D01*
X85678Y-41315D01*
X85616Y-41327D01*
X85557Y-41350D01*
X85504Y-41385D01*
X85458Y-41429D01*
X85451Y-41440D01*
X83097Y-41440D01*
X83054Y-41411D01*
X82996Y-41386D01*
X82933Y-41373D01*
X82870Y-41373D01*
X82808Y-41385D01*
X82749Y-41408D01*
X82696Y-41443D01*
X82651Y-41488D01*
X82615Y-41540D01*
X82590Y-41598D01*
X82577Y-41660D01*
X82576Y-41724D01*
X82587Y-41786D01*
X82610Y-41845D01*
X82645Y-41898D01*
X82689Y-41944D01*
X82702Y-41953D01*
X82710Y-43399D01*
X82694Y-43410D01*
X82648Y-43454D01*
X82613Y-43507D01*
X82588Y-43565D01*
X82574Y-43627D01*
X82574Y-43690D01*
X82585Y-43753D01*
X82608Y-43812D01*
X82643Y-43865D01*
X82687Y-43911D01*
X82739Y-43947D01*
X82797Y-43972D01*
X82859Y-43986D01*
X82922Y-43987D01*
X82985Y-43976D01*
X83044Y-43953D01*
X83097Y-43919D01*
X83143Y-43876D01*
X83180Y-43824D01*
X83206Y-43766D01*
X83220Y-43704D01*
X83221Y-43632D01*
X83208Y-43569D01*
X83184Y-43511D01*
X83149Y-43458D01*
X83107Y-43415D01*
X83099Y-41953D01*
X83100Y-41953D01*
X83146Y-41909D01*
X83182Y-41857D01*
X83191Y-41837D01*
X85450Y-41837D01*
X85453Y-41840D01*
X85497Y-41886D01*
X85549Y-41922D01*
X85607Y-41947D01*
X85669Y-41961D01*
X85732Y-41962D01*
X85795Y-41951D01*
X85825Y-41939D01*
X85825Y-51967D01*
G54D10*
G36*
X82975Y-39400D02*
X81580Y-39406D01*
X80137Y-40271D01*
X80143Y-40792D01*
X77986Y-40792D01*
X77994Y-39456D01*
X77988Y-38116D01*
X78089Y-38116D01*
X78089Y-38178D01*
X82975Y-38164D01*
X82975Y-39400D01*
X82975Y-39400D01*
G37*
G54D14*
X82975Y-39400D02*
X81580Y-39406D01*
X80137Y-40271D01*
X80143Y-40792D01*
X77986Y-40792D01*
X77994Y-39456D01*
X77988Y-38116D01*
X78089Y-38116D01*
X78089Y-38178D01*
X82975Y-38164D01*
X82975Y-39400D01*
G54D10*
G36*
X76469Y-35960D02*
X76279Y-36149D01*
X76268Y-36163D01*
X76256Y-36177D01*
X76255Y-36178D01*
X76255Y-36179D01*
X76246Y-36195D01*
X76237Y-36211D01*
X76237Y-36212D01*
X76236Y-36213D01*
X76231Y-36231D01*
X76225Y-36248D01*
X76225Y-36249D01*
X76225Y-36250D01*
X76223Y-36269D01*
X76221Y-36287D01*
X76221Y-36289D01*
X76221Y-36289D01*
X76221Y-36289D01*
X76221Y-36290D01*
X76221Y-37229D01*
X74354Y-37220D01*
X74359Y-35103D01*
X74364Y-35104D01*
X74427Y-35093D01*
X74486Y-35070D01*
X74540Y-35036D01*
X74556Y-35020D01*
X76157Y-35020D01*
X76468Y-35728D01*
X76469Y-35960D01*
X76469Y-35960D01*
G37*
G54D14*
X76469Y-35960D02*
X76279Y-36149D01*
X76268Y-36163D01*
X76256Y-36177D01*
X76255Y-36178D01*
X76255Y-36179D01*
X76246Y-36195D01*
X76237Y-36211D01*
X76237Y-36212D01*
X76236Y-36213D01*
X76231Y-36231D01*
X76225Y-36248D01*
X76225Y-36249D01*
X76225Y-36250D01*
X76223Y-36269D01*
X76221Y-36287D01*
X76221Y-36289D01*
X76221Y-36289D01*
X76221Y-36289D01*
X76221Y-36290D01*
X76221Y-37229D01*
X74354Y-37220D01*
X74359Y-35103D01*
X74364Y-35104D01*
X74427Y-35093D01*
X74486Y-35070D01*
X74540Y-35036D01*
X74556Y-35020D01*
X76157Y-35020D01*
X76468Y-35728D01*
X76469Y-35960D01*
M02*
