%FSLAX33Y33*%
%MOMM*%
%AMRect-W1762000-H1762000-RO1.000*
21,1,1.762,1.762,0.,0.,180*%
%AMRect-W4762000-H4762000-RO1.000*
21,1,4.762,4.762,0.,0.,180*%
%AMRect-W2794000-H2794000-RO0.250*
21,1,2.794,2.794,0.,0.,315*%
%AMRect-W1762000-H1762000-RO0.500*
21,1,1.762,1.762,0.,0.,270*%
%AMRect-W2794000-H2794000-RO1.000*
21,1,2.794,2.794,0.,0.,180*%
%AMRect-W5762000-H5762000-RO0.000*
21,1,5.762,5.762,0.,0.,359*%
%AMRect-W2112000-H2112000-RO0.750*
21,1,2.112,2.112,0.,0.,225*%
%AMRect-W400000-H1371500-RO1.000*
21,1,0.4,1.3715,0.,0.,180*%
%AMRect-W1371500-H400000-RO1.000*
21,1,1.3715,0.4,0.,0.,180*%
%AMRect-W381000-H1471500-RO1.000*
21,1,0.381,1.4715,0.,0.,180*%
%AMRect-W1471500-H381000-RO1.000*
21,1,1.4715,0.381,0.,0.,180*%
%AMRect-W381000-H1587500-RO0.250*
21,1,0.381,1.5875,0.,0.,315*%
%AMRect-W1587500-H381000-RO0.250*
21,1,1.5875,0.381,0.,0.,315*%
%AMRect-W381000-H1104900-RO0.500*
21,1,0.381,1.1049,0.,0.,270*%
%AMRect-W1104900-H381000-RO0.500*
21,1,1.1049,0.381,0.,0.,270*%
%AMRect-W400000-H1371500-RO1.500*
21,1,0.4,1.3715,0.,0.,90*%
%AMRect-W1371500-H400000-RO1.500*
21,1,1.3715,0.4,0.,0.,90*%
%AMRect-W381000-H1587500-RO1.000*
21,1,0.381,1.5875,0.,0.,180*%
%AMRect-W1587500-H381000-RO1.000*
21,1,1.5875,0.381,0.,0.,180*%
%AMRect-W400000-H1296500-RO1.500*
21,1,0.4,1.2965,0.,0.,90*%
%AMRect-W1296500-H400000-RO1.500*
21,1,1.2965,0.4,0.,0.,90*%
%AMRect-W400000-H1246500-RO0.750*
21,1,0.4,1.2465,0.,0.,225*%
%AMRect-W1246500-H400000-RO0.750*
21,1,1.2465,0.4,0.,0.,225*%
%AMRect-W4000000-H4000000-RO1.000*
21,1,4.,4.,0.,0.,180*%
%AMRect-W1350000-H1350000-RO0.750*
21,1,1.35,1.35,0.,0.,225*%
%AMRect-W1000000-H1000000-RO1.000*
21,1,1.,1.,0.,0.,180*%
%AMRect-W2032000-H2032000-RO0.250*
21,1,2.032,2.032,0.,0.,315*%
%AMRect-W5000000-H5000000-RO1.000*
21,1,5.,5.,0.,0.,179*%
%AMRect-W2032000-H2032000-RO1.000*
21,1,2.032,2.032,0.,0.,180*%
%AMRect-W1000000-H1000000-RO0.500*
21,1,1.,1.,0.,0.,270*%
%ADD10C,1.27*%
%ADD11C,1.524*%
%ADD12C,2.362*%
%ADD13C,1.8288*%
%ADD14C,1.962*%
%ADD15C,2.562*%
%ADD16C,3.048*%
%ADD17C,3.762*%
%ADD18C,2.112*%
%ADD19C,2.262*%
%ADD20C,2.162*%
%ADD21C,2.212*%
%ADD22C,1.812*%
%ADD23C,1.397*%
%ADD24C,1.562*%
%ADD25C,1.462*%
%ADD26C,1.762*%
%ADD27C,1.712*%
%ADD28C,2.2606*%
%ADD29C,1.612*%
%ADD30C,3.562*%
%ADD31C,1.662*%
%ADD32Rect-W1762000-H1762000-RO1.000*%
%ADD33Rect-W4762000-H4762000-RO1.000*%
%ADD34Rect-W2794000-H2794000-RO0.250*%
%ADD35Rect-W1762000-H1762000-RO0.500*%
%ADD36Rect-W2794000-H2794000-RO1.000*%
%ADD37Rect-W5762000-H5762000-RO0.000*%
%ADD38Rect-W2112000-H2112000-RO0.750*%
%ADD39R,0.381X1.3215*%
%ADD40R,1.3215X0.381*%
%ADD41R,0.4X1.3715*%
%ADD42R,1.3715X0.4*%
%ADD43R,0.4X1.2715*%
%ADD44R,1.2715X0.4*%
%ADD45R,0.4X1.2965*%
%ADD46R,1.2965X0.4*%
%ADD47Rect-W400000-H1371500-RO1.000*%
%ADD48Rect-W1371500-H400000-RO1.000*%
%ADD49Rect-W381000-H1471500-RO1.000*%
%ADD50Rect-W1471500-H381000-RO1.000*%
%ADD51Rect-W381000-H1587500-RO0.250*%
%ADD52Rect-W1587500-H381000-RO0.250*%
%ADD53Rect-W381000-H1104900-RO0.500*%
%ADD54Rect-W1104900-H381000-RO0.500*%
%ADD55Rect-W400000-H1371500-RO1.500*%
%ADD56Rect-W1371500-H400000-RO1.500*%
%ADD57Rect-W381000-H1587500-RO1.000*%
%ADD58Rect-W1587500-H381000-RO1.000*%
%ADD59Rect-W400000-H1296500-RO1.500*%
%ADD60Rect-W1296500-H400000-RO1.500*%
%ADD61Rect-W400000-H1246500-RO0.750*%
%ADD62Rect-W1246500-H400000-RO0.750*%
%ADD63C,0.508*%
%ADD64C,0.762*%
%ADD65C,3.*%
%ADD66C,1.0668*%
%ADD67C,1.8*%
%ADD68Rect-W4000000-H4000000-RO1.000*%
%ADD69C,1.6*%
%ADD70C,1.35*%
%ADD71Rect-W1350000-H1350000-RO0.750*%
%ADD72C,1.6*%
%ADD73C,1.6*%
%ADD74C,1.2*%
%ADD75Rect-W1000000-H1000000-RO1.000*%
%ADD76C,2.286*%
%ADD77Rect-W2032000-H2032000-RO0.250*%
%ADD78C,1.5*%
%ADD79C,1.4*%
%ADD80C,1.45*%
%ADD81Rect-W5000000-H5000000-RO1.000*%
%ADD82C,1.6*%
%ADD83C,1.0668*%
%ADD84C,1.45*%
%ADD85C,2.286*%
%ADD86Rect-W2032000-H2032000-RO1.000*%
%ADD87C,1.2*%
%ADD88Rect-W1000000-H1000000-RO0.500*%
D10*
%LNpour fill*%
G36*
G01*
X0Y1270D02*
X0Y52070D01*
X20320Y72390D01*
X72390Y72390D01*
X99060Y99060D01*
X143510Y99060D01*
X149860Y92710D01*
X149860Y2540D01*
X147320Y0D01*
X1270Y0D01*
X0Y1270D01*
X0Y1270D01*
G37*
%LNpour subtractive shapes*%
%LPC*%
X85090Y53340D02*
X83820Y52070D01*
X97790Y54610D02*
X83820Y54610D01*
X85090Y53340D02*
X99695Y53340D01*
X86360Y52070D02*
X100965Y52070D01*
X85090Y50800D02*
X71755Y50800D01*
X86360Y49530D02*
X73025Y49530D01*
X87630Y48260D02*
X74295Y48260D01*
X86360Y52070D02*
X85090Y50800D01*
X87630Y50800D02*
X86360Y49530D01*
X88900Y49530D02*
X87630Y48260D01*
X87630Y50800D02*
X102235Y50800D01*
X88900Y49530D02*
X103505Y49530D01*
X90805Y48260D02*
X104775Y48260D01*
X59690Y45720D02*
X74295Y45720D01*
X74295Y48260D02*
X73025Y46990D01*
X75565Y46990D02*
X74295Y45720D01*
X89535Y46990D02*
X75565Y46990D01*
X90805Y45720D02*
X76200Y45720D01*
X90805Y48260D02*
X89535Y46990D01*
X92075Y46990D02*
X90805Y45720D01*
X106045Y46990D02*
X92075Y46990D01*
X92710Y45720D02*
X107315Y45720D01*
X67945Y52070D02*
X53975Y52070D01*
X67310Y55880D02*
X66040Y54610D01*
X67945Y54610D02*
X66675Y53340D01*
X69215Y53340D02*
X67945Y52070D01*
X81280Y54610D02*
X67945Y54610D01*
X82550Y53340D02*
X69215Y53340D01*
X83820Y52070D02*
X70485Y52070D01*
X82550Y55880D02*
X81280Y54610D01*
X83820Y54610D02*
X82550Y53340D01*
X91440Y62865D02*
X91440Y71755D01*
X93345Y73660D02*
X91440Y71755D01*
X92710Y67945D02*
X94615Y66040D01*
X85090Y68580D02*
X83820Y67310D01*
X60960Y55880D02*
X59690Y57150D01*
X59690Y69850*
X65405Y55880D02*
X60960Y55880D01*
X66675Y57150D02*
X65405Y55880D01*
X78740Y57150D02*
X66675Y57150D01*
X85090Y68580D02*
X85090Y75565D01*
X88265Y59690D02*
X91440Y62865D01*
X86995Y77470D02*
X85090Y75565D01*
X86995Y77470D02*
X92075Y77470D01*
X89535Y77470D02*
X92075Y77470D01*
X80010Y55880D02*
X67310Y55880D01*
X78740Y57150D02*
X81280Y59690D01*
X81280Y57150D02*
X80010Y55880D01*
X96520Y55880D02*
X82550Y55880D01*
X83820Y67310D02*
X83820Y57150D01*
X92075Y77470D02*
X91440Y77470D01*
X92075Y77470D02*
X93980Y79375D01*
X92710Y78105*
X38735Y50800D02*
X37465Y49530D01*
X52705Y50800D02*
X38735Y50800D01*
X53975Y49530D02*
X40005Y49530D01*
X55245Y48260D02*
X41275Y48260D01*
X53975Y52070D02*
X52705Y50800D01*
X55245Y50800D02*
X53975Y49530D01*
X56515Y49530D02*
X55245Y48260D01*
X69215Y50800D02*
X55245Y50800D01*
X70485Y49530D02*
X56515Y49530D01*
X71755Y48260D02*
X57785Y48260D01*
X70485Y52070D02*
X69215Y50800D01*
X71755Y50800D02*
X70485Y49530D01*
X73025Y49530D02*
X71755Y48260D01*
X31750Y53340D02*
X31750Y69850D01*
X36830Y53340D02*
X35560Y52070D01*
X50800Y53340D02*
X36830Y53340D01*
X37465Y52070D02*
X51435Y52070D01*
X52070Y54610D02*
X50800Y53340D01*
X52705Y53340D02*
X51435Y52070D01*
X66040Y54610D02*
X52070Y54610D01*
X66675Y53340D02*
X52705Y53340D01*
X41275Y45720D02*
X26670Y45720D01*
X40005Y49530D02*
X38735Y48260D01*
X41275Y48260D02*
X40005Y46990D01*
X42545Y46990D02*
X41275Y45720D01*
X56515Y46990D02*
X42545Y46990D01*
X57785Y45720D02*
X43180Y45720D01*
X57785Y48260D02*
X56515Y46990D01*
X59055Y46990D02*
X57785Y45720D01*
X59055Y46990D02*
X73025Y46990D01*
X24765Y48260D02*
X23495Y46990D01*
X26035Y46990D02*
X24765Y45720D01*
X24765Y48260D02*
X38735Y48260D01*
X26035Y46990D02*
X40005Y46990D01*
X3810Y50800D02*
X36195Y50800D01*
X15240Y49530D02*
X37465Y49530D01*
X33020Y52070D02*
X31750Y53340D01*
X35560Y52070D02*
X33020Y52070D01*
X37465Y52070D02*
X36195Y50800D01*
X3810Y50800D02*
X1270Y48260D01*
X7620Y46990D02*
X6985Y46355D01*
X23495Y46990D02*
X7620Y46990D01*
X13970Y48260D02*
X15240Y49530D01*
X15240Y44450D02*
X147320Y44450D01*
X12065Y38100D02*
X13335Y39370D01*
X13335Y45085*
X10160Y8890D02*
X10160Y7620D01*
X10160Y31750D02*
X10160Y25400D01*
X6985Y46355D02*
X6985Y41910D01*
X11430Y41910D02*
X9525Y41910D01*
X13970Y45720D02*
X13335Y45085D01*
X13970Y45720D02*
X24765Y45720D01*
X7620Y11430D02*
X10160Y8890D01*
X8890Y33020D02*
X10160Y31750D01*
X3175Y34290D02*
X3175Y38100D01*
X6985Y41910*
X6350Y38735D02*
X6350Y38100D01*
X9525Y41910D02*
X6350Y38735D01*
X8890Y38100D02*
X12065Y38100D01*
X1270Y13970D02*
X3810Y11430D01*
X1270Y48260D02*
X1270Y13970D01*
X3175Y34290D02*
X4445Y33020D01*
X3810Y11430D02*
X7620Y11430D01*
X4445Y33020D02*
X8890Y33020D01*
X146050Y50800D02*
X142240Y46990D01*
X146050Y50800D02*
X146050Y62865D01*
X128270Y53975D02*
X128270Y73660D01*
X129540Y53340D02*
X129540Y74930D01*
X133985Y55245D02*
X133985Y74295D01*
X125730Y55245D02*
X123825Y53340D01*
X127000Y54610D02*
X124460Y52070D01*
X125730Y55245D02*
X125730Y71120D01*
X127000Y54610D02*
X127000Y72390D01*
X127000Y48260D02*
X121920Y48260D01*
X128270Y53975D02*
X125095Y50800D01*
X127000Y45720D02*
X125730Y45720D01*
X125730Y49530D02*
X129540Y53340D01*
X137795Y57150D02*
X127000Y45720D01*
X127000Y48260D02*
X133985Y55245D01*
X143510Y65405D02*
X143510Y73025D01*
X143510Y65405D02*
X143510Y73025D01*
X137795Y57150D02*
X137795Y74930D01*
X143510Y65405D02*
X146050Y62865D01*
X139700Y76835D02*
X143510Y73025D01*
X143510Y71755*
X123190Y71120D02*
X124460Y69850D01*
X123190Y73660D02*
X125730Y71120D01*
X123190Y76200D02*
X127000Y72390D01*
X123190Y78740D02*
X128270Y73660D01*
X123190Y56515D02*
X122555Y55880D01*
X123190Y56515D02*
X123190Y63500D01*
X124460Y55880D02*
X124460Y69850D01*
X106045Y49530D02*
X104775Y48260D01*
X114300Y50800D02*
X104775Y50800D01*
X107315Y48260D02*
X106045Y46990D01*
X115570Y49530D02*
X106045Y49530D01*
X107315Y48260D02*
X116840Y48260D01*
X122555Y55880D02*
X114300Y55880D01*
X123190Y54610D02*
X115570Y54610D01*
X123825Y53340D02*
X116840Y53340D01*
X124460Y52070D02*
X118110Y52070D01*
X124460Y55880D02*
X123190Y54610D01*
X118110Y46990D02*
X108585Y46990D01*
X119380Y45720D02*
X109220Y45720D01*
X116840Y53340D02*
X114300Y50800D01*
X118110Y52070D02*
X115570Y49530D01*
X119380Y50800D02*
X116840Y48260D01*
X120650Y49530D02*
X118110Y46990D01*
X121920Y48260D02*
X119380Y45720D01*
X125095Y50800D02*
X119380Y50800D01*
X125730Y49530D02*
X120650Y49530D01*
X102235Y53340D02*
X100965Y52070D01*
X103505Y52070D02*
X102235Y50800D01*
X104775Y50800D02*
X103505Y49530D01*
X113030Y52070D02*
X103505Y52070D01*
X99060Y55880D02*
X97790Y54610D01*
X105410Y55880D02*
X99060Y55880D01*
X100965Y54610D02*
X99695Y53340D01*
X106680Y54610D02*
X100965Y54610D01*
X102235Y53340D02*
X111760Y53340D01*
X105410Y55880D02*
X107950Y58420D01*
X106680Y54610D02*
X111760Y59690D01*
X114300Y55880D02*
X111760Y53340D01*
X115570Y54610D02*
X113030Y52070D01*
X108585Y46990D02*
X107315Y45720D01*
X123190Y88900D02*
X125095Y88900D01*
X123190Y88900D02*
X127000Y88900D01*
D11*
X139700Y93980D02*
X139700Y90170D01*
D10*
X109220Y93980D02*
X110490Y92710D01*
D11*
X123190Y91440D02*
X119380Y91440D01*
D10*
X107950Y91440D02*
X102235Y91440D01*
X107950Y93980D02*
X109220Y93980D01*
X136525Y79375D02*
X138430Y79375D01*
D11*
X139700Y90170D02*
X146050Y83820D01*
X146050Y81280*
D10*
X123190Y86360D02*
X130175Y79375D01*
X127000Y88900D02*
X136525Y79375D01*
X130175Y79375D02*
X132080Y79375D01*
X105410Y81280D02*
X107950Y81280D01*
X105410Y83820D02*
X107950Y83820D01*
X105410Y86360D02*
X107950Y86360D01*
D11*
X119380Y91440D02*
X115570Y87630D01*
D10*
X135890Y75565D02*
X136525Y75565D01*
X135890Y75565D02*
X137160Y75565D01*
X137795Y74930*
X138430Y79375D02*
X139700Y78105D01*
X139700Y76835*
D11*
X146050Y81280D02*
X142240Y77470D01*
D10*
X123190Y81280D02*
X129540Y74930D01*
X123190Y83820D02*
X131445Y75565D01*
X123190Y83820D02*
X130175Y76835D01*
X131445Y75565D02*
X132715Y75565D01*
X132080Y79375D02*
X135890Y75565D01*
X132715Y75565D02*
X133985Y74295D01*
X98425Y79375D02*
X97155Y79375D01*
X98425Y79375D02*
X105410Y86360D01*
X99060Y77470D02*
X105410Y83820D01*
X105410Y76200D02*
X107950Y76200D01*
X105410Y78740D02*
X107950Y78740D01*
X105410Y66040D02*
X104775Y65405D01*
X107950Y66040D02*
X105410Y66040D01*
X105410Y68580D02*
X107950Y68580D01*
D11*
X115570Y68580D02*
X113030Y66040D01*
D10*
X110490Y92710D02*
X110490Y66040D01*
D11*
X115570Y68580D02*
X115570Y87630D01*
X113030Y66040D02*
X113030Y63500D01*
D10*
X104775Y57785D02*
X104140Y57150D01*
X104775Y57785D02*
X104775Y65405D01*
X104775Y57785D02*
X104775Y65405D01*
X104775Y61595*
X107950Y58420D02*
X107950Y63500D01*
X111760Y72390D02*
X111760Y59690D01*
X102235Y60960D02*
X102235Y67945D01*
X103505Y62230D02*
X103505Y66675D01*
X104140Y57150D02*
X97790Y57150D01*
X99695Y58420D02*
X99695Y70485D01*
X100965Y59690D02*
X100965Y69215D01*
X98425Y71755D02*
X98425Y69850D01*
X100965Y69215D02*
X105410Y73660D01*
X102235Y67945D02*
X105410Y71120D01*
X103505Y66675D02*
X105410Y68580D01*
X96520Y72390D02*
X105410Y81280D01*
X98425Y71755D02*
X105410Y78740D01*
X99695Y70485D02*
X105410Y76200D01*
X105410Y71120D02*
X107950Y71120D01*
X105410Y73660D02*
X107950Y73660D01*
X94615Y59055D02*
X94615Y66040D01*
X95885Y57785D02*
X95885Y67310D01*
X97790Y57150D02*
X96520Y55880D01*
X94615Y66040D02*
X94615Y59690D01*
X95885Y60325D02*
X95885Y67310D01*
X95885Y64135*
X98425Y69850D02*
X95885Y67310D01*
X96520Y72390D02*
X94615Y72390D01*
X94615Y77470D02*
X99060Y77470D01*
X95885Y77470*
X93345Y73660D02*
X93345Y76200D01*
X93345Y74930*
X94615Y77470D02*
X93345Y76200D01*
X93980Y79375D02*
X98425Y79375D01*
X92710Y67945D02*
X93345Y67310D01*
X92710Y67945D02*
X92710Y70485D01*
X92710Y69215*
X94615Y72390D02*
X92710Y70485D01*
X86354Y58426D02*
X86360Y58420D01*
X86354Y63500D02*
X86354Y58426D01*
X88265Y59690D02*
X88265Y57150D01*
D12*
X59690Y41910D03*
D13*
X59690Y45720D03*
X64770Y44450D03*
D12*
X68580Y41910D03*
X76200Y41910D03*
D13*
X76200Y45720D03*
X81280Y44450D03*
D12*
X85090Y41910D03*
X92710Y41910D03*
D13*
X92710Y45720D03*
D12*
X52070Y38100D03*
X59690Y38100D03*
X68580Y38100D03*
X76200Y38100D03*
X85090Y38100D03*
X92710Y38100D03*
D13*
X43180Y45720D03*
X48260Y44450D03*
D12*
X52070Y41910D03*
D14*
X38100Y34290D03*
X54610Y34290D03*
X71120Y34290D03*
X87630Y34290D03*
D12*
X92556Y60806D03*
D15*
X55940Y69850D03*
X59690Y69850D03*
D13*
X59690Y69850D03*
D15*
X63440Y69850D03*
D16*
X81032Y70785D03*
D17*
X73300Y68200D03*
D16*
X86354Y66218D03*
D13*
X86354Y63500D03*
D18*
X89381Y63981D03*
D16*
X87742Y74384D03*
X89922Y79675D03*
D13*
X81280Y57150D03*
X81280Y59690D03*
X83820Y57150D03*
X86360Y58420D03*
D16*
X90508Y75174D03*
D15*
X28000Y69850D03*
X31750Y69850D03*
X35500Y69850D03*
D17*
X13275Y53725D03*
D13*
X13970Y48260D03*
X26670Y45720D03*
X31750Y44450D03*
D12*
X43180Y41910D03*
X35560Y38100D03*
X35560Y41910D03*
X43180Y38100D03*
X19050Y38100D03*
X19050Y41910D03*
X26670Y38100D03*
X26670Y41910D03*
D14*
X21590Y34290D03*
D13*
X15240Y44450D03*
D19*
X5120Y7620D03*
X5120Y16510D03*
X5120Y25400D03*
X10120Y7620D03*
X10120Y16510D03*
X10120Y25400D03*
D13*
X10160Y16510D03*
D12*
X3810Y41910D03*
D14*
X6350Y38100D03*
D12*
X11430Y41910D03*
D13*
X142240Y46990D03*
D12*
X134620Y38100D03*
X134620Y41910D03*
D14*
X137160Y34290D03*
D12*
X142240Y38100D03*
X142240Y41910D03*
D13*
X147320Y44450D03*
X143510Y55880D03*
D20*
X147320Y66040D03*
X147320Y68580D03*
D12*
X132080Y73660D03*
X135890Y73660D03*
D20*
X139700Y71120D03*
X139700Y73660D03*
D13*
X143510Y58420D03*
X143510Y60960D03*
D20*
X147320Y71120D03*
X147320Y73660D03*
D21*
X123190Y73660D03*
X123190Y68580D03*
D12*
X132080Y66040D03*
X135890Y66040D03*
D20*
X139700Y66040D03*
X139700Y68580D03*
D21*
X115570Y63500D03*
X118110Y63500D03*
D13*
X114300Y44450D03*
D12*
X118110Y38100D03*
X118110Y41910D03*
D14*
X120650Y34290D03*
D12*
X125730Y38100D03*
X125730Y41910D03*
D13*
X125730Y45720D03*
X130810Y44450D03*
X97790Y44450D03*
D12*
X101600Y38100D03*
X101600Y41910D03*
D14*
X104140Y34290D03*
D12*
X109220Y38100D03*
X109220Y41910D03*
D13*
X109220Y45720D03*
D16*
X136520Y90729D03*
D13*
X139700Y93980D03*
D16*
X143513Y91262D03*
D17*
X130900Y93000D03*
D21*
X120650Y88900D03*
X120650Y93980D03*
X123190Y88900D03*
X123190Y91440D03*
X123190Y93980D03*
X123190Y96520D03*
D13*
X102235Y91440D03*
D21*
X107950Y88900D03*
X107950Y91440D03*
X107950Y93980D03*
X107950Y96520D03*
D17*
X99000Y94250D03*
D16*
X139915Y81458D03*
X141312Y83972D03*
D21*
X120650Y83820D03*
X120650Y86360D03*
X123190Y81280D03*
X123190Y83820D03*
X123190Y86360D03*
D16*
X99398Y84064D03*
D21*
X107950Y81280D03*
X107950Y83820D03*
X107950Y86360D03*
X137200Y77470D03*
X142200Y77470D03*
X123190Y78740D03*
D14*
X131445Y78125D03*
D21*
X107950Y76200D03*
X107950Y78740D03*
X123190Y76200D03*
X107950Y66040D03*
X107950Y71120D03*
X107950Y73660D03*
D13*
X111760Y72390D03*
D21*
X123190Y71120D03*
D13*
X110490Y66040D03*
D21*
X107950Y68580D03*
X120650Y63500D03*
X123190Y63500D03*
X123190Y66040D03*
X107950Y63500D03*
X110490Y63500D03*
X113030Y63500D03*
D13*
X102235Y60960D03*
X103505Y62230D03*
X99695Y58420D03*
X100965Y59690D03*
D12*
X97944Y66194D03*
D13*
X94615Y59055D03*
X95885Y57785D03*
D16*
X96632Y83274D03*
X95244Y75108D03*
D13*
X88265Y57150D03*
D22*
X101600Y41910D03*
X109220Y41910D03*
D23*
X114300Y44450D03*
D22*
X118110Y41910D03*
X68580Y41910D03*
X76200Y41910D03*
D23*
X76200Y45720D03*
X81280Y44450D03*
D22*
X85090Y41910D03*
X92710Y41910D03*
D23*
X97790Y44450D03*
X15240Y44450D03*
X26670Y45720D03*
X31750Y44450D03*
X43180Y45720D03*
X48260Y44450D03*
X59690Y45720D03*
X64770Y44450D03*
D22*
X68580Y38100D03*
X76200Y38100D03*
X85090Y38100D03*
X92710Y38100D03*
X101600Y38100D03*
X109220Y38100D03*
X118110Y38100D03*
X35560Y41910D03*
X43180Y38100D03*
X43180Y41910D03*
X52070Y38100D03*
X52070Y41910D03*
X59690Y38100D03*
X59690Y41910D03*
X3810Y41910D03*
D24*
X6350Y38100D03*
D25*
X8890Y38100D03*
D22*
X11430Y41910D03*
X19050Y41910D03*
X26670Y41910D03*
X35560Y38100D03*
D25*
X57150Y34290D03*
D24*
X71120Y34290D03*
D25*
X73660Y34290D03*
D24*
X87630Y34290D03*
D25*
X90170Y34290D03*
D24*
X104140Y34290D03*
D25*
X106680Y34290D03*
D22*
X19050Y38100D03*
D24*
X21590Y34290D03*
D25*
X24130Y34290D03*
D22*
X26670Y38100D03*
D24*
X38100Y34290D03*
D25*
X40640Y34290D03*
D24*
X54610Y34290D03*
D26*
X5120Y7620D03*
X5120Y16510D03*
X5120Y25400D03*
X10120Y7620D03*
X10120Y16510D03*
X10120Y25400D03*
D23*
X10160Y16510D03*
D27*
X107950Y88900D03*
X107950Y91440D03*
X107950Y93980D03*
X107950Y96520D03*
D28*
X99398Y84064D03*
D23*
X102235Y91440D03*
D27*
X107950Y76200D03*
X107950Y78740D03*
X107950Y81280D03*
X107950Y83820D03*
X107950Y86360D03*
D17*
X99000Y94250D03*
D28*
X81349Y77114D03*
X87742Y74384D03*
X89922Y79675D03*
X90239Y86004D03*
X90508Y75174D03*
X95244Y75108D03*
X96632Y83274D03*
D27*
X107950Y68580D03*
X107950Y71120D03*
X107950Y73660D03*
D23*
X110490Y66040D03*
X111760Y72390D03*
D27*
X113030Y63500D03*
X115570Y63500D03*
D28*
X81032Y70785D03*
X86354Y66218D03*
D23*
X86354Y63500D03*
D29*
X89381Y63981D03*
X94769Y69369D03*
D22*
X97944Y66194D03*
D27*
X107950Y66040D03*
D17*
X73300Y68200D03*
D26*
X28000Y69850D03*
X31750Y69850D03*
X35500Y69850D03*
X55940Y69850D03*
X59690Y69850D03*
D23*
X59690Y69850D03*
D26*
X63440Y69850D03*
D23*
X99695Y58420D03*
X100965Y59690D03*
X102235Y60960D03*
X103505Y62230D03*
D27*
X107950Y63500D03*
D23*
X109220Y45720D03*
D27*
X110490Y63500D03*
D23*
X83820Y57150D03*
X86360Y58420D03*
X88265Y57150D03*
D22*
X92556Y60806D03*
D23*
X92710Y45720D03*
X94615Y59055D03*
X95885Y57785D03*
X13970Y48260D03*
D30*
X26550Y59850D03*
X36950Y59850D03*
X54490Y59850D03*
X64890Y59850D03*
D23*
X81280Y57150D03*
X81280Y59690D03*
D17*
X13275Y53725D03*
D28*
X141312Y83972D03*
X143513Y91262D03*
X147764Y86563D03*
D27*
X123190Y88900D03*
X123190Y91440D03*
X123190Y93980D03*
X123190Y96520D03*
D28*
X136520Y90729D03*
X139915Y81458D03*
D23*
X139700Y93980D03*
D17*
X130900Y93000D03*
D27*
X120650Y83820D03*
X120650Y86360D03*
X120650Y88900D03*
X120650Y93980D03*
X123190Y81280D03*
X123190Y83820D03*
X123190Y86360D03*
D31*
X139700Y71120D03*
X139700Y73660D03*
D27*
X142200Y77470D03*
D31*
X147320Y66040D03*
X147320Y68580D03*
X147320Y71120D03*
X147320Y73660D03*
D24*
X131445Y80625D03*
D22*
X132080Y73660D03*
X135890Y66040D03*
X135890Y73660D03*
D27*
X137200Y77470D03*
D31*
X139700Y66040D03*
X139700Y68580D03*
D27*
X123190Y66040D03*
X123190Y68580D03*
X123190Y71120D03*
X123190Y73660D03*
X123190Y76200D03*
X123190Y78740D03*
D24*
X131445Y78125D03*
D22*
X142240Y38100D03*
X142240Y41910D03*
D23*
X142240Y46990D03*
X143510Y55880D03*
X143510Y58420D03*
X143510Y60960D03*
X147320Y44450D03*
X125730Y45720D03*
X130810Y44450D03*
D22*
X132080Y66040D03*
X134620Y38100D03*
X134620Y41910D03*
D24*
X137160Y34290D03*
D25*
X139700Y34290D03*
D27*
X118110Y63500D03*
X120650Y63500D03*
D24*
X120650Y34290D03*
D27*
X123190Y63500D03*
D25*
X123190Y34290D03*
D22*
X125730Y38100D03*
X125730Y41910D03*
D32*
X57150Y34290D03*
X73660Y34290D03*
X90170Y34290D03*
X40640Y34290D03*
D33*
X64890Y59850D03*
D34*
X81349Y77114D03*
X90239Y86004D03*
D33*
X26550Y59850D03*
X36950Y59850D03*
X54490Y59850D03*
D32*
X24130Y34290D03*
X8890Y38100D03*
X139700Y34290D03*
X123190Y34290D03*
X106680Y34290D03*
D35*
X131445Y80625D03*
D36*
X147764Y86563D03*
D37*
X96012Y89154D03*
D38*
X94769Y69369D03*
%LNpour readded shapes*%
%LPD*%
D39*
X5120Y8185D03*
X5120Y7054D03*
D40*
X4554Y7620D03*
X5686Y7620D03*
D39*
X5120Y17076D03*
X5120Y15944D03*
D40*
X4554Y16510D03*
X5686Y16510D03*
D39*
X5120Y25965D03*
X5120Y24834D03*
D40*
X4554Y25400D03*
X5686Y25400D03*
D41*
X3810Y42501D03*
X3810Y41319D03*
D42*
X3220Y41910D03*
X4401Y41910D03*
D43*
X139700Y66581D03*
X139700Y65499D03*
D44*
X139160Y66040D03*
X140240Y66040D03*
D45*
X115570Y64053D03*
X115570Y62947D03*
D46*
X115017Y63500D03*
X116123Y63500D03*
D45*
X107950Y97073D03*
X107950Y95967D03*
D46*
X107397Y96520D03*
X108503Y96520D03*
D41*
X3810Y42501D03*
X3810Y41319D03*
D42*
X3220Y41910D03*
X4401Y41910D03*
D39*
X5120Y8185D03*
X5120Y7054D03*
D40*
X4554Y7620D03*
X5686Y7620D03*
D39*
X5120Y17076D03*
X5120Y15944D03*
D40*
X4554Y16510D03*
X5686Y16510D03*
D39*
X5120Y25965D03*
X5120Y24834D03*
D40*
X4554Y25400D03*
X5686Y25400D03*
D45*
X107950Y97073D03*
X107950Y95967D03*
D46*
X107397Y96520D03*
X108503Y96520D03*
D45*
X115570Y64053D03*
X115570Y62947D03*
D46*
X115017Y63500D03*
X116123Y63500D03*
D43*
X139700Y66581D03*
X139700Y65499D03*
D44*
X139160Y66040D03*
X140240Y66040D03*
D47*
X68580Y41319D03*
X68580Y42501D03*
D48*
X69171Y41910D03*
X67990Y41910D03*
D47*
X85090Y41319D03*
X85090Y42501D03*
D48*
X85680Y41910D03*
X84499Y41910D03*
D47*
X59690Y37510D03*
X59690Y38691D03*
D48*
X60281Y38100D03*
X59099Y38100D03*
D47*
X76200Y37510D03*
X76200Y38691D03*
D48*
X76790Y38100D03*
X75609Y38100D03*
D47*
X92710Y37510D03*
X92710Y38691D03*
D48*
X93300Y38100D03*
X92120Y38100D03*
D47*
X52070Y41319D03*
X52070Y42501D03*
D48*
X52660Y41910D03*
X51480Y41910D03*
D49*
X63440Y69210D03*
X63440Y70490D03*
D50*
X64081Y69850D03*
X62800Y69850D03*
D51*
X90732Y86498D03*
X89745Y85510D03*
D52*
X89745Y86498D03*
X90732Y85510D03*
D49*
X35500Y69210D03*
X35500Y70490D03*
D50*
X36141Y69850D03*
X34859Y69850D03*
D47*
X35560Y41319D03*
X35560Y42501D03*
D48*
X36151Y41910D03*
X34969Y41910D03*
D47*
X43180Y37510D03*
X43180Y38691D03*
D48*
X43770Y38100D03*
X42590Y38100D03*
D47*
X19050Y41319D03*
X19050Y42501D03*
D48*
X19640Y41910D03*
X18459Y41910D03*
D47*
X26670Y37510D03*
X26670Y38691D03*
D48*
X27261Y38100D03*
X26079Y38100D03*
D47*
X134620Y41319D03*
X134620Y42501D03*
D48*
X135210Y41910D03*
X134030Y41910D03*
D47*
X142240Y37510D03*
X142240Y38691D03*
D48*
X142831Y38100D03*
X141649Y38100D03*
D53*
X143967Y55880D03*
X143053Y55880D03*
D54*
X143510Y56337D03*
X143510Y55423D03*
D55*
X131489Y73660D03*
X132671Y73660D03*
D56*
X132080Y73070D03*
D47*
X118110Y41319D03*
X118110Y42501D03*
D48*
X118701Y41910D03*
X117519Y41910D03*
D47*
X125730Y37510D03*
X125730Y38691D03*
D48*
X126320Y38100D03*
X125139Y38100D03*
D47*
X101600Y41319D03*
X101600Y42501D03*
D48*
X102191Y41910D03*
X101010Y41910D03*
D47*
X109220Y37510D03*
X109220Y38691D03*
D48*
X109811Y38100D03*
X108629Y38100D03*
D57*
X147764Y85865D03*
X147764Y87262D03*
D58*
X148462Y86563D03*
X147065Y86563D03*
D59*
X136647Y77470D03*
X137753Y77470D03*
D60*
X137200Y76917D03*
X137200Y78023D03*
D61*
X95142Y68996D03*
X94396Y69742D03*
D62*
X95142Y69742D03*
X94396Y68996D03*
D47*
X101600Y41319D03*
X101600Y42501D03*
D48*
X102191Y41910D03*
X101010Y41910D03*
D47*
X118110Y41319D03*
X118110Y42501D03*
D48*
X118701Y41910D03*
X117519Y41910D03*
D47*
X68580Y41319D03*
X68580Y42501D03*
D48*
X69171Y41910D03*
X67990Y41910D03*
D47*
X85090Y41319D03*
X85090Y42501D03*
D48*
X85680Y41910D03*
X84499Y41910D03*
D47*
X76200Y37510D03*
X76200Y38691D03*
D48*
X76790Y38100D03*
X75609Y38100D03*
D47*
X92710Y37510D03*
X92710Y38691D03*
D48*
X93300Y38100D03*
X92120Y38100D03*
D47*
X109220Y37510D03*
X109220Y38691D03*
D48*
X109811Y38100D03*
X108629Y38100D03*
D47*
X35560Y41319D03*
X35560Y42501D03*
D48*
X36151Y41910D03*
X34969Y41910D03*
D47*
X43180Y37510D03*
X43180Y38691D03*
D48*
X43770Y38100D03*
X42590Y38100D03*
D47*
X52070Y41319D03*
X52070Y42501D03*
D48*
X52660Y41910D03*
X51480Y41910D03*
D47*
X59690Y37510D03*
X59690Y38691D03*
D48*
X60281Y38100D03*
X59099Y38100D03*
D47*
X19050Y41319D03*
X19050Y42501D03*
D48*
X19640Y41910D03*
X18459Y41910D03*
D47*
X26670Y37510D03*
X26670Y38691D03*
D48*
X27261Y38100D03*
X26079Y38100D03*
D51*
X90732Y86498D03*
X89745Y85510D03*
D52*
X89745Y86498D03*
X90732Y85510D03*
D61*
X95142Y68996D03*
X94396Y69742D03*
D62*
X95142Y69742D03*
X94396Y68996D03*
D49*
X35500Y69210D03*
X35500Y70490D03*
D50*
X36141Y69850D03*
X34859Y69850D03*
D49*
X63440Y69210D03*
X63440Y70490D03*
D50*
X64081Y69850D03*
X62800Y69850D03*
D57*
X147764Y85865D03*
X147764Y87262D03*
D58*
X148462Y86563D03*
X147065Y86563D03*
D55*
X131489Y73660D03*
X132671Y73660D03*
D56*
X132080Y73070D03*
D59*
X136647Y77470D03*
X137753Y77470D03*
D60*
X137200Y76917D03*
X137200Y78023D03*
D47*
X142240Y37510D03*
X142240Y38691D03*
D48*
X142831Y38100D03*
X141649Y38100D03*
D53*
X143967Y55880D03*
X143053Y55880D03*
D54*
X143510Y56337D03*
X143510Y55423D03*
D47*
X134620Y41319D03*
X134620Y42501D03*
D48*
X135210Y41910D03*
X134030Y41910D03*
D47*
X125730Y37510D03*
X125730Y38691D03*
D48*
X126320Y38100D03*
X125139Y38100D03*
%LNbottom copper_traces*%
D63*
X55245Y48260D02*
X41275Y48260D01*
X66040Y54610D02*
X52070Y54610D01*
X133985Y55245D02*
X133985Y74295D01*
X83820Y67310D02*
X83820Y57150D01*
X86995Y77470D02*
X85090Y75565D01*
X127000Y48260D02*
X133985Y55245D01*
X96520Y72390D02*
X105410Y81280D01*
X92075Y46990D02*
X90805Y45720D01*
D64*
X113030Y66040D02*
X113030Y63500D01*
D63*
X85090Y68580D02*
X83820Y67310D01*
X88265Y59690D02*
X91440Y62865D01*
X104775Y65405D02*
X104775Y61595D01*
X33020Y52070D02*
X31750Y53340D01*
X100965Y69215D02*
X105410Y73660D01*
X67945Y54610D02*
X66675Y53340D01*
X78740Y57150D02*
X81280Y59690D01*
X89535Y77470D02*
X92075Y77470D01*
X95885Y60325D02*
X95885Y67310D01*
X93980Y79375D02*
X98425Y79375D01*
X38735Y50800D02*
X37465Y49530D01*
X146050Y50800D02*
X142240Y46990D01*
X143510Y65405D02*
X146050Y62865D01*
X123825Y53340D02*
X116840Y53340D01*
X128270Y53975D02*
X125095Y50800D01*
X104775Y50800D02*
X103505Y49530D01*
X53975Y49530D02*
X40005Y49530D01*
X6350Y38735D02*
X6350Y38100D01*
X106045Y49530D02*
X104775Y48260D01*
X96520Y55880D02*
X82550Y55880D01*
X15240Y44450D02*
X147320Y44450D01*
X143510Y65405D02*
X143510Y73025D01*
D64*
X123190Y91440D02*
X119380Y91440D01*
D63*
X85090Y68580D02*
X85090Y75565D01*
X86360Y52070D02*
X85090Y50800D01*
X116840Y53340D02*
X114300Y50800D01*
X100965Y54610D02*
X99695Y53340D01*
X36830Y53340D02*
X35560Y52070D01*
X110490Y92710D02*
X110490Y66040D01*
X60960Y55880D02*
X59690Y57150D01*
X86354Y58426D02*
X86360Y58420D01*
X103505Y66675D02*
X105410Y68580D01*
X99695Y58420D02*
X99695Y70485D01*
X82550Y55880D02*
X81280Y54610D01*
X3175Y34290D02*
X3175Y38100D01*
X123190Y71120D02*
X124460Y69850D01*
X59690Y57150D02*
X59690Y69850D01*
X90805Y48260D02*
X89535Y46990D01*
X70485Y52070D02*
X69215Y50800D01*
X129540Y53340D02*
X129540Y74930D01*
X115570Y54610D02*
X113030Y52070D01*
X92710Y70485D02*
X92710Y69215D01*
X111760Y72390D02*
X111760Y59690D01*
X124460Y52070D02*
X118110Y52070D01*
X103505Y52070D02*
X102235Y50800D01*
X104775Y57785D02*
X104775Y65405D01*
X69215Y53340D02*
X67945Y52070D01*
X123190Y54610D02*
X115570Y54610D01*
X86354Y63500D02*
X86354Y58426D01*
X15240Y49530D02*
X37465Y49530D01*
X94615Y77470D02*
X99060Y77470D01*
X11430Y41910D02*
X9525Y41910D01*
X138430Y79375D02*
X139700Y78105D01*
X71755Y50800D02*
X70485Y49530D01*
X3175Y34290D02*
X4445Y33020D01*
X123190Y78740D02*
X128270Y73660D01*
D64*
X146050Y81280D02*
X142240Y77470D01*
D63*
X127000Y48260D02*
X121920Y48260D01*
X102235Y60960D02*
X102235Y67945D01*
X97790Y54610D02*
X83820Y54610D01*
X139700Y78105D02*
X139700Y76835D01*
X119380Y45720D02*
X109220Y45720D01*
X105410Y83820D02*
X107950Y83820D01*
X127000Y54610D02*
X124460Y52070D01*
X94615Y66040D02*
X94615Y59690D01*
X100965Y59690D02*
X100965Y69215D01*
X108585Y46990D02*
X107315Y45720D01*
X74295Y48260D02*
X73025Y46990D01*
X98425Y79375D02*
X105410Y86360D01*
X83820Y54610D02*
X82550Y53340D01*
X80010Y55880D02*
X67310Y55880D01*
X55245Y50800D02*
X53975Y49530D01*
X82550Y53340D02*
X69215Y53340D01*
X40005Y49530D02*
X38735Y48260D01*
X105410Y71120D02*
X107950Y71120D01*
X124460Y55880D02*
X123190Y54610D01*
X90805Y45720D02*
X76200Y45720D01*
X4445Y33020D02*
X8890Y33020D01*
X52705Y53340D02*
X51435Y52070D01*
X99695Y70485D02*
X105410Y76200D01*
X87630Y50800D02*
X86360Y49530D01*
X92075Y77470D02*
X91440Y77470D01*
X106045Y46990D02*
X92075Y46990D01*
X57785Y48260D02*
X56515Y46990D01*
X24765Y48260D02*
X38735Y48260D01*
X122555Y55880D02*
X114300Y55880D01*
X81280Y54610D02*
X67945Y54610D01*
X123190Y73660D02*
X125730Y71120D01*
X13970Y45720D02*
X24765Y45720D01*
X125095Y50800D02*
X119380Y50800D01*
X98425Y71755D02*
X105410Y78740D01*
X105410Y68580D02*
X107950Y68580D01*
D64*
X139700Y90170D02*
X146050Y83820D01*
D63*
X88900Y49530D02*
X103505Y49530D01*
X59690Y45720D02*
X74295Y45720D01*
X98425Y71755D02*
X98425Y69850D01*
X83820Y52070D02*
X70485Y52070D01*
X107315Y48260D02*
X106045Y46990D01*
X132715Y75565D02*
X133985Y74295D01*
X97790Y57150D02*
X96520Y55880D01*
X123190Y56515D02*
X122555Y55880D01*
X41275Y45720D02*
X26670Y45720D01*
X81280Y57150D02*
X80010Y55880D01*
X92710Y67945D02*
X93345Y67310D01*
X90805Y48260D02*
X104775Y48260D01*
X87630Y50800D02*
X102235Y50800D01*
X107950Y93980D02*
X109220Y93980D01*
X99060Y77470D02*
X105410Y83820D01*
X131445Y75565D02*
X132715Y75565D01*
X113030Y52070D02*
X103505Y52070D01*
X70485Y49530D02*
X56515Y49530D01*
X26035Y46990D02*
X40005Y46990D01*
X86360Y52070D02*
X100965Y52070D01*
X114300Y55880D02*
X111760Y53340D01*
X102235Y53340D02*
X100965Y52070D01*
X9525Y41910D02*
X6350Y38735D01*
X37465Y52070D02*
X51435Y52070D01*
X94615Y77470D02*
X93345Y76200D01*
X96520Y72390D02*
X94615Y72390D01*
X7620Y11430D02*
X10160Y8890D01*
X125730Y55245D02*
X125730Y71120D01*
X143510Y65405D02*
X143510Y73025D01*
X107950Y58420D02*
X107950Y63500D01*
X123190Y83820D02*
X130175Y76835D01*
X1270Y48260D02*
X1270Y13970D01*
X99060Y55880D02*
X97790Y54610D01*
X107950Y91440D02*
X102235Y91440D01*
X67310Y55880D02*
X66040Y54610D01*
X123190Y56515D02*
X123190Y63500D01*
X3810Y11430D02*
X7620Y11430D01*
X137795Y57150D02*
X137795Y74930D01*
X69215Y50800D02*
X55245Y50800D01*
X8890Y33020D02*
X10160Y31750D01*
X127000Y88900D02*
X136525Y79375D01*
X98425Y69850D02*
X95885Y67310D01*
X10160Y31750D02*
X10160Y25400D01*
X10160Y8890D02*
X10160Y7620D01*
X132080Y79375D02*
X135890Y75565D01*
X37465Y52070D02*
X36195Y50800D01*
X59055Y46990D02*
X57785Y45720D01*
X146050Y50800D02*
X146050Y62865D01*
X86995Y77470D02*
X92075Y77470D01*
X105410Y86360D02*
X107950Y86360D01*
X13335Y39370D02*
X13335Y45085D01*
X114300Y50800D02*
X104775Y50800D01*
X6985Y46355D02*
X6985Y41910D01*
X7620Y46990D02*
X6985Y46355D01*
X66675Y57150D02*
X65405Y55880D01*
X98425Y79375D02*
X97155Y79375D01*
X12065Y38100D02*
X13335Y39370D01*
X105410Y73660D02*
X107950Y73660D01*
X120650Y49530D02*
X118110Y46990D01*
D64*
X146050Y83820D02*
X146050Y81280D01*
D63*
X59055Y46990D02*
X73025Y46990D01*
X137160Y75565D02*
X137795Y74930D01*
X107950Y66040D02*
X105410Y66040D01*
X3810Y50800D02*
X36195Y50800D01*
X130175Y79375D02*
X132080Y79375D01*
X3175Y38100D02*
X6985Y41910D01*
X94615Y59055D02*
X94615Y66040D01*
X102235Y53340D02*
X111760Y53340D01*
X88265Y59690D02*
X88265Y57150D01*
X128270Y53975D02*
X128270Y73660D01*
X85090Y50800D02*
X71755Y50800D01*
D64*
X139700Y93980D02*
X139700Y90170D01*
D63*
X89535Y46990D02*
X75565Y46990D01*
X8890Y38100D02*
X12065Y38100D01*
X115570Y49530D02*
X106045Y49530D01*
X41275Y48260D02*
X40005Y46990D01*
X71755Y48260D02*
X57785Y48260D01*
X123190Y86360D02*
X130175Y79375D01*
X105410Y55880D02*
X99060Y55880D01*
X85090Y53340D02*
X99695Y53340D01*
X42545Y46990D02*
X41275Y45720D01*
X92710Y45720D02*
X107315Y45720D01*
X105410Y76200D02*
X107950Y76200D01*
X105410Y55880D02*
X107950Y58420D01*
X143510Y73025D02*
X143510Y71755D01*
X121920Y48260D02*
X119380Y45720D01*
X65405Y55880D02*
X60960Y55880D01*
X13970Y48260D02*
X15240Y49530D01*
X95885Y57785D02*
X95885Y67310D01*
X75565Y46990D02*
X74295Y45720D01*
X67945Y52070D02*
X53975Y52070D01*
X93345Y73660D02*
X93345Y76200D01*
X103505Y62230D02*
X103505Y66675D01*
X99060Y77470D02*
X95885Y77470D01*
X85090Y53340D02*
X83820Y52070D01*
X50800Y53340D02*
X36830Y53340D01*
X104775Y57785D02*
X104775Y65405D01*
X66675Y53340D02*
X52705Y53340D01*
X26035Y46990D02*
X24765Y45720D01*
X56515Y49530D02*
X55245Y48260D01*
D64*
X119380Y91440D02*
X115570Y87630D01*
D63*
X35560Y52070D02*
X33020Y52070D01*
X136525Y79375D02*
X138430Y79375D01*
X139700Y76835D02*
X143510Y73025D01*
X53975Y52070D02*
X52705Y50800D01*
X127000Y45720D02*
X125730Y45720D01*
X123190Y81280D02*
X129540Y74930D01*
X106680Y54610D02*
X111760Y59690D01*
X127000Y54610D02*
X127000Y72390D01*
X78740Y57150D02*
X66675Y57150D01*
X92075Y77470D02*
X93980Y79375D01*
X56515Y46990D02*
X42545Y46990D01*
X123190Y83820D02*
X131445Y75565D01*
X107315Y48260D02*
X116840Y48260D01*
X105410Y66040D02*
X104775Y65405D01*
X1270Y13970D02*
X3810Y11430D01*
X92710Y67945D02*
X92710Y70485D01*
X92710Y67945D02*
X94615Y66040D01*
X3810Y50800D02*
X1270Y48260D01*
X118110Y46990D02*
X108585Y46990D01*
X105410Y81280D02*
X107950Y81280D01*
X94615Y72390D02*
X92710Y70485D01*
X104775Y57785D02*
X104140Y57150D01*
X91440Y62865D02*
X91440Y71755D01*
X124460Y55880D02*
X124460Y69850D01*
X123190Y88900D02*
X127000Y88900D01*
X135890Y75565D02*
X137160Y75565D01*
X109220Y93980D02*
X110490Y92710D01*
X31750Y53340D02*
X31750Y69850D01*
X125730Y49530D02*
X129540Y53340D01*
X95885Y67310D02*
X95885Y64135D01*
D64*
X115570Y68580D02*
X113030Y66040D01*
D63*
X93345Y73660D02*
X91440Y71755D01*
D64*
X115570Y68580D02*
X115570Y87630D01*
D63*
X125730Y55245D02*
X123825Y53340D01*
X105410Y78740D02*
X107950Y78740D01*
X93980Y79375D02*
X92710Y78105D01*
X23495Y46990D02*
X7620Y46990D01*
X102235Y67945D02*
X105410Y71120D01*
X13970Y45720D02*
X13335Y45085D01*
X93345Y76200D02*
X93345Y74930D01*
X52070Y54610D02*
X50800Y53340D01*
X57785Y45720D02*
X43180Y45720D01*
X86360Y49530D02*
X73025Y49530D01*
X87630Y48260D02*
X74295Y48260D01*
X135890Y75565D02*
X136525Y75565D01*
X118110Y52070D02*
X115570Y49530D01*
X106680Y54610D02*
X100965Y54610D01*
X73025Y49530D02*
X71755Y48260D01*
X125730Y49530D02*
X120650Y49530D01*
X123190Y76200D02*
X127000Y72390D01*
X52705Y50800D02*
X38735Y50800D01*
X119380Y50800D02*
X116840Y48260D01*
X88900Y49530D02*
X87630Y48260D01*
X104140Y57150D02*
X97790Y57150D01*
X24765Y48260D02*
X23495Y46990D01*
X123190Y88900D02*
X125095Y88900D01*
X137795Y57150D02*
X127000Y45720D01*
D65*
X130900Y93000D03*
D66*
X99695Y58420D03*
X59690Y69850D03*
X102235Y60960D03*
X111760Y72390D03*
X142240Y46990D03*
X48260Y44450D03*
X102235Y91440D03*
X81280Y59690D03*
X26670Y45720D03*
X103505Y62230D03*
X130810Y44450D03*
X64770Y44450D03*
X95885Y57785D03*
X92710Y45720D03*
X31750Y44450D03*
X15240Y44450D03*
X125730Y45720D03*
X81280Y44450D03*
X147320Y44450D03*
X59690Y45720D03*
X100965Y59690D03*
D65*
X13275Y53725D03*
D66*
X13970Y48260D03*
X43180Y45720D03*
D65*
X73300Y68200D03*
D66*
X83820Y57150D03*
X114300Y44450D03*
X139700Y93980D03*
X110490Y66040D03*
X88265Y57150D03*
X76200Y45720D03*
X94615Y59055D03*
X97790Y44450D03*
X10160Y16510D03*
X81280Y57150D03*
X86354Y63500D03*
D65*
X99000Y94250D03*
D66*
X86360Y58420D03*
X109220Y45720D03*
%LNbottom copper component fb107dcccfdb0926*%
D67*
X35500Y69850D03*
X28000Y69850D03*
X31750Y69850D03*
D68*
X26550Y59850D03*
X36950Y59850D03*
%LNbottom copper component 1f20f5d5898abb2f*%
D69*
X92710Y38100D03*
X85090Y38100D03*
%LNbottom copper component 4b1e3c7fd09ccb6e*%
D70*
X89381Y63981D03*
D71*
X94769Y69369D03*
%LNbottom copper component 27b49cb97a04ef49*%
D69*
X76200Y38100D03*
X68580Y38100D03*
%LNbottom copper component a620bbc60874f67c*%
D72*
X132080Y66040D03*
X132080Y73660D03*
%LNbottom copper component ea2c1d543afd550c*%
D73*
X3810Y41910D03*
X11430Y41910D03*
%LNbottom copper component b43df3c15a639c76*%
D69*
X26670Y41910D03*
X19050Y41910D03*
%LNbottom copper component de895496bb2fd0e6*%
X109220Y38100D03*
X101600Y38100D03*
%LNbottom copper component 82f976b0e811269b*%
D72*
X135890Y66040D03*
X135890Y73660D03*
%LNbottom copper component 34e823c397d52473*%
D74*
X120650Y34290D03*
D75*
X123190Y34290D03*
%LNbottom copper component 9af73c40574899a7*%
D69*
X59690Y38100D03*
X52070Y38100D03*
%LNbottom copper component f836791b44df51a1*%
D74*
X54610Y34290D03*
D75*
X57150Y34290D03*
%LNbottom copper component b4f3b804e5a01ba0*%
D76*
X81032Y70785D03*
X86354Y66218D03*
X87742Y74384D03*
X90508Y75174D03*
D77*
X81349Y77114D03*
%LNbottom copper component 02b106f82a4a95db*%
D74*
X137160Y34290D03*
D75*
X139700Y34290D03*
%LNbottom copper component c91da9575c6a0be3*%
D78*
X10120Y16510D03*
X5120Y16510D03*
%LNbottom copper component 9f6d21584f488dcd*%
D69*
X142240Y38100D03*
X134620Y38100D03*
%LNbottom copper component d521cece24698383*%
D79*
X147320Y71120D03*
X139700Y66040D03*
X147320Y68580D03*
X139700Y68580D03*
X147320Y66040D03*
X139700Y71120D03*
X139700Y73660D03*
X147320Y73660D03*
%LNbottom copper component 97a26aaf76f6e1cc*%
D80*
X120650Y93980D03*
X120650Y88900D03*
X120650Y86360D03*
X120650Y83820D03*
X120650Y63500D03*
X118110Y63500D03*
X115570Y63500D03*
X113030Y63500D03*
X110490Y63500D03*
X107950Y96520D03*
X107950Y93980D03*
X107950Y91440D03*
X107950Y88900D03*
X107950Y86360D03*
X107950Y83820D03*
X107950Y81280D03*
X107950Y78740D03*
X107950Y76200D03*
X107950Y73660D03*
X107950Y71120D03*
X107950Y68580D03*
X107950Y66040D03*
X107950Y63500D03*
X123190Y63500D03*
X123190Y66040D03*
X123190Y68580D03*
X123190Y71120D03*
X123190Y73660D03*
X123190Y76200D03*
X123190Y78740D03*
X123190Y81280D03*
X123190Y83820D03*
X123190Y86360D03*
X123190Y88900D03*
X123190Y91440D03*
X123190Y93980D03*
X123190Y96520D03*
%LNbottom copper component 106714d2bc1b7527*%
D69*
X43180Y41910D03*
X35560Y41910D03*
%LNbottom copper component 34c941316c1a9527*%
D74*
X104140Y34290D03*
D75*
X106680Y34290D03*
%LNbottom copper component cf9d0f0b436303b1*%
D69*
X125730Y38100D03*
X118110Y38100D03*
%LNbottom copper component 58c9e35b802cae0f*%
X76200Y41910D03*
X68580Y41910D03*
%LNbottom copper component 36da97aa6b26bacf*%
D74*
X21590Y34290D03*
D75*
X24130Y34290D03*
%LNbottom copper component 62e86ca77f7b5a9a*%
D69*
X142240Y41910D03*
X134620Y41910D03*
%LNbottom copper component 497d46b69fa9bdd2*%
X43180Y38100D03*
X35560Y38100D03*
%LNbottom copper component 718ced2e03940ba8*%
D67*
X63440Y69850D03*
X55940Y69850D03*
X59690Y69850D03*
D68*
X54490Y59850D03*
X64890Y59850D03*
%LNbottom copper component c4b1df07a66167ef*%
D69*
X59690Y41910D03*
X52070Y41910D03*
%LNbottom copper component c566558ad0bcfb55*%
D74*
X71120Y34290D03*
D75*
X73660Y34290D03*
%LNbottom copper component 4820d467dc877488*%
D74*
X87630Y34290D03*
D75*
X90170Y34290D03*
%LNbottom copper component 4c04787e1f5174be*%
D81*
X96012Y89154D03*
%LNbottom copper component da1d1d7cd5a7c606*%
D82*
X92556Y60806D03*
X97944Y66194D03*
%LNbottom copper component 60ae0478fb4407c3*%
D83*
X143510Y55880D03*
X143510Y60960D03*
X143510Y58420D03*
%LNbottom copper component a8833ba25e49bac5*%
D76*
X89922Y79675D03*
X95244Y75108D03*
X96632Y83274D03*
X99398Y84064D03*
D77*
X90239Y86004D03*
%LNbottom copper component 920632581e92b0fd*%
D74*
X38100Y34290D03*
D75*
X40640Y34290D03*
%LNbottom copper component 3612e22fcedd26d8*%
D69*
X125730Y41910D03*
X118110Y41910D03*
%LNbottom copper component 3919fc649fdcade3*%
D84*
X137200Y77470D03*
X142200Y77470D03*
%LNbottom copper component 6889c37fa128180d*%
D85*
X143513Y91262D03*
X136520Y90729D03*
X141312Y83972D03*
X139915Y81458D03*
D86*
X147764Y86563D03*
%LNbottom copper component 42f967a1b082bbaa*%
D74*
X6350Y38100D03*
D75*
X8890Y38100D03*
%LNbottom copper component 843ae13b30258408*%
D69*
X26670Y38100D03*
X19050Y38100D03*
%LNbottom copper component abea25ac2a452092*%
D78*
X10120Y7620D03*
X5120Y7620D03*
%LNbottom copper component 71f6df73bb3e5241*%
D69*
X109220Y41910D03*
X101600Y41910D03*
%LNbottom copper component 3cea8e4304858dd9*%
D87*
X131445Y78125D03*
D88*
X131445Y80625D03*
%LNbottom copper component c985985d9b0f206f*%
D69*
X92710Y41910D03*
X85090Y41910D03*
%LNbottom copper component 6f85b1a43342d1af*%
D78*
X10120Y25400D03*
X5120Y25400D03*
M02*