G04 (created by PCBNEW (2013-07-07 BZR 4022)-stable) date 07/06/2014 15:45:15*
%MOIN*%
G04 Gerber Fmt 3.4, Leading zero omitted, Abs format*
%FSLAX34Y34*%
G01*
G70*
G90*
G04 APERTURE LIST*
%ADD10C,0.00590551*%
%ADD11C,0.0079*%
G04 APERTURE END LIST*
G54D10*
G54D11*
X14567Y7087D02*
X14173Y6694D01*
X16948Y7068D02*
X17322Y6694D01*
X14173Y6694D02*
X17322Y6694D01*
X14567Y7087D02*
X16929Y7087D01*
X16535Y8662D02*
X16535Y8268D01*
X14960Y8662D02*
X14960Y8268D01*
X14960Y8268D02*
X16535Y8268D01*
X14960Y8662D02*
X16535Y8662D01*
X16535Y10237D02*
X16535Y9843D01*
X14960Y10237D02*
X14960Y9843D01*
X14960Y9843D02*
X16535Y9843D01*
X16535Y10237D02*
X14960Y10237D01*
X15748Y10237D02*
X16535Y10237D01*
X16535Y11812D02*
X16535Y11418D01*
X14960Y11418D02*
X14960Y11812D01*
X16535Y11418D02*
X14960Y11418D01*
X15748Y11418D02*
X16535Y11418D01*
X16535Y11812D02*
X14960Y11812D01*
X15748Y11812D02*
X16535Y11812D01*
X16535Y13387D02*
X16535Y12993D01*
X14960Y13387D02*
X14960Y12993D01*
X16535Y12993D02*
X14960Y12993D01*
X15748Y12993D02*
X16535Y12993D01*
X16535Y13387D02*
X14960Y13387D01*
X15748Y13387D02*
X16535Y13387D01*
X14567Y-7085D02*
X14173Y-6691D01*
X16929Y-7085D02*
X17322Y-6691D01*
X14173Y-6691D02*
X17322Y-6691D01*
X14567Y-7085D02*
X16929Y-7085D01*
X16535Y-8266D02*
X16535Y-8660D01*
X14960Y-8266D02*
X14960Y-8660D01*
X14960Y-8266D02*
X16535Y-8266D01*
X14960Y-8660D02*
X16535Y-8660D01*
X16535Y-9841D02*
X16535Y-10235D01*
X14960Y-9841D02*
X16535Y-9841D01*
X14960Y-10235D02*
X14960Y-9841D01*
X15019Y-9841D02*
X16535Y-9841D01*
X16535Y-10235D02*
X14960Y-10235D01*
X15748Y-10235D02*
X16535Y-10235D01*
X16535Y-11416D02*
X16535Y-11809D01*
X14960Y-11809D02*
X14960Y-11416D01*
X16535Y-11809D02*
X14960Y-11809D01*
X15748Y-11809D02*
X16535Y-11809D01*
X16535Y-12990D02*
X16535Y-13384D01*
X14960Y-13364D02*
X14960Y-12990D01*
X16535Y-13384D02*
X14960Y-13384D01*
X15748Y-13384D02*
X16535Y-13384D01*
X16535Y-11416D02*
X14960Y-11416D01*
X15748Y-11416D02*
X16535Y-11416D01*
X16535Y-12990D02*
X14960Y-12990D01*
X15767Y-12990D02*
X16535Y-12990D01*
X22441Y-1573D02*
X22834Y-1179D01*
X22834Y1182D02*
X22441Y1576D01*
X22441Y1576D02*
X22441Y-1573D01*
X22834Y-1179D02*
X22834Y1182D01*
X24015Y-786D02*
X24409Y-786D01*
X24015Y788D02*
X24409Y788D01*
X24015Y788D02*
X24015Y-786D01*
X24409Y-786D02*
X24409Y788D01*
X25590Y-786D02*
X25984Y-786D01*
X25590Y788D02*
X25984Y788D01*
X25590Y-786D02*
X25590Y788D01*
X25984Y1D02*
X25984Y-786D01*
X25984Y1D02*
X25984Y788D01*
X27165Y788D02*
X27559Y788D01*
X27559Y-786D02*
X27165Y-786D01*
X27165Y1D02*
X27165Y-786D01*
X27165Y1D02*
X27165Y788D01*
X27559Y788D02*
X27559Y-786D01*
X27559Y1D02*
X27559Y788D01*
X28740Y-786D02*
X29133Y-786D01*
X28740Y788D02*
X29133Y788D01*
X28740Y788D02*
X28740Y-786D01*
X28740Y1D02*
X28740Y788D01*
X29133Y788D02*
X29133Y-786D01*
X29133Y1D02*
X29133Y788D01*
X8661Y-1179D02*
X9055Y-1573D01*
X8661Y1182D02*
X9055Y1576D01*
X9055Y1576D02*
X9055Y-1573D01*
X8661Y1182D02*
X8661Y-1179D01*
X7106Y-786D02*
X7480Y-786D01*
X7086Y788D02*
X7480Y788D01*
X7480Y788D02*
X7480Y-786D01*
X7086Y788D02*
X7086Y-786D01*
X5511Y-786D02*
X5905Y-786D01*
X5511Y788D02*
X5905Y788D01*
X5905Y788D02*
X5905Y-786D01*
X5511Y1D02*
X5511Y-786D01*
X5511Y1D02*
X5511Y788D01*
X4330Y788D02*
X4330Y768D01*
X3937Y788D02*
X4330Y788D01*
X4330Y-786D02*
X3937Y-786D01*
X4330Y1D02*
X4330Y-786D01*
X4330Y1D02*
X4330Y788D01*
X3937Y1D02*
X3937Y-786D01*
X3937Y1D02*
X3937Y788D01*
X2362Y788D02*
X2755Y788D01*
X2362Y-786D02*
X2755Y-786D01*
X2755Y1D02*
X2755Y-786D01*
X2755Y1D02*
X2755Y788D01*
X2362Y-786D02*
X2362Y788D01*
X2362Y1D02*
X2362Y-786D01*
X-39Y2068D02*
G75*
G03X-2066Y-38I39J-2066D01*
G74*
G01*
X-2047Y-18D02*
G75*
G03X0Y-2065I2047J0D01*
G74*
G01*
X15730Y17816D02*
G75*
G03X13681Y15731I18J-2066D01*
G74*
G01*
X17815Y15749D02*
G75*
G03X15748Y17816I-2066J0D01*
G74*
G01*
X13681Y-15746D02*
G75*
G03X15748Y-17813I2066J0D01*
G74*
G01*
X15766Y-17813D02*
G75*
G03X17815Y-15728I-18J2066D01*
G74*
G01*
X17165Y-15746D02*
G75*
G03X17165Y-15746I-1417J0D01*
G74*
G01*
X0Y2068D02*
G75*
G03X-2066Y1I0J-2066D01*
G74*
G01*
X-2066Y-117D02*
G75*
G03X119Y-2065I2066J119D01*
G74*
G01*
X33563Y19D02*
G75*
G03X31478Y2068I-2066J-18D01*
G74*
G01*
X31496Y-2065D02*
G75*
G03X33563Y1I0J2066D01*
G74*
G01*
X33563Y1D02*
G75*
G03X31496Y2068I-2066J0D01*
G74*
G01*
X22761Y6694D02*
G75*
G03X22761Y6694I-320J0D01*
G74*
G01*
X22763Y-6691D02*
G75*
G03X22763Y-6691I-322J0D01*
G74*
G01*
X9362Y-6691D02*
G75*
G03X9362Y-6691I-307J0D01*
G74*
G01*
X9375Y6694D02*
G75*
G03X9375Y6694I-320J0D01*
G74*
G01*
X31496Y2068D02*
X23818Y2068D01*
X23818Y-2065D02*
X31476Y-2065D01*
X23031Y-2853D02*
X23031Y-6475D01*
X23031Y2855D02*
X23031Y6477D01*
X17815Y15670D02*
X17815Y8072D01*
X13681Y8072D02*
X13681Y15749D01*
X18602Y7284D02*
X22244Y7284D01*
X9271Y7284D02*
X12893Y7284D01*
X8464Y6477D02*
X8484Y6477D01*
X8464Y2855D02*
X8464Y6477D01*
X8464Y-2853D02*
X8464Y-6475D01*
X18602Y-7282D02*
X22244Y-7282D01*
X12893Y-7282D02*
X9271Y-7282D01*
X17815Y-15746D02*
X17815Y-8069D01*
X13681Y-8069D02*
X13681Y-15727D01*
X7677Y-2065D02*
X19Y-2065D01*
X7677Y2068D02*
X-78Y2068D01*
X7677Y2068D02*
G75*
G03X8464Y2855I0J787D01*
G74*
G01*
X8464Y-2853D02*
G75*
G03X7677Y-2065I-787J0D01*
G74*
G01*
X13681Y-8069D02*
G75*
G03X12893Y-7282I-787J0D01*
G74*
G01*
X18583Y-7282D02*
G75*
G03X17815Y-8088I19J-787D01*
G74*
G01*
X23818Y-2065D02*
G75*
G03X23031Y-2853I0J-787D01*
G74*
G01*
X23031Y2855D02*
G75*
G03X23818Y2068I787J0D01*
G74*
G01*
X17815Y8072D02*
G75*
G03X18602Y7284I787J0D01*
G74*
G01*
X12893Y7284D02*
G75*
G03X13681Y8072I0J787D01*
G74*
G01*
X8464Y-6475D02*
G75*
G03X9271Y-7282I807J0D01*
G74*
G01*
X22244Y-7262D02*
G75*
G03X23031Y-6475I0J787D01*
G74*
G01*
X23051Y6477D02*
G75*
G03X22244Y7284I-807J0D01*
G74*
G01*
X9271Y7284D02*
G75*
G03X8464Y6477I0J-807D01*
G74*
G01*
X-58Y2068D02*
X-58Y2048D01*
X-78Y2068D02*
X-78Y2048D01*
X1417Y1D02*
G75*
G03X1417Y1I-1417J0D01*
G74*
G01*
X32913Y1D02*
G75*
G03X32913Y1I-1417J0D01*
G74*
G01*
X17165Y15749D02*
G75*
G03X17165Y15749I-1417J0D01*
G74*
G01*
M02*
