%FSDAX25Y25*%
%MOIN*%
%SFA1B1*%

%IPPOS*%
%ADD11R,0.027560X0.035430*%
%ADD12R,0.035430X0.027560*%
%ADD13R,0.036220X0.015750*%
%ADD24C,0.008000*%
%ADD25C,0.010000*%
%ADD26C,0.012000*%
%ADD27C,0.015000*%
%ADD29C,0.040000*%
%ADD34R,0.039370X0.039370*%
%ADD35C,0.039370*%
%ADD36R,0.039370X0.039370*%
%ADD37C,0.030000*%
%ADD38C,0.062990*%
%ADD39C,0.055000*%
%ADD40C,0.013000*%
%ADD41C,0.018000*%
%ADD42C,0.015000*%
%ADD43C,0.024000*%
%ADD44C,0.020000*%
%ADD47R,0.020470X0.011810*%
%ADD48R,0.342520X0.342520*%
%ADD49R,0.009840X0.061020*%
%ADD50O,0.009840X0.061020*%
%ADD51O,0.061020X0.009840*%
%ADD52R,0.027560X0.008660*%
%ADD53R,0.036220X0.023620*%
%ADD54R,0.039370X0.070870*%
%ADD55R,0.015750X0.036220*%
%ADD56O,0.013780X0.023620*%
%ADD57O,0.023620X0.013780*%
%ADD58R,0.078740X0.078740*%
%LNmoo1.1-1*%
%LPD*%
G54D11*
X0253400Y0352059D03*
Y0346941D03*
X0259000Y0352059D03*
Y0346941D03*
X0272000Y0384441D03*
Y0389559D03*
X0249400Y0389841D03*
Y0394959D03*
G54D12*
X0258059Y0377500D03*
X0252941D03*
X0261541Y0366800D03*
X0266659D03*
X0268559Y0377500D03*
X0263441D03*
G54D13*
X0243735Y0364186D03*
X0252002Y0369304D03*
Y0364186D03*
X0260760Y0363059D03*
X0268240Y0357941D03*
Y0363059D03*
X0260760Y0360500D03*
Y0357941D03*
G54D24*
X0305600Y0345500D02*
Y0348400D01*
X0297800Y0343600D02*
X0303700D01*
X0305600Y0345500*
X0303600Y0346300D02*
Y0350821D01*
X0304200Y0341600D02*
X0307500Y0344900D01*
Y0350800*
X0301605Y0346305D02*
Y0350848D01*
X0301400Y0346100D02*
X0301605Y0346305D01*
X0313416Y0340316D02*
Y0350848D01*
X0291400Y0341600D02*
X0304200D01*
X0315384Y0340416D02*
Y0350848D01*
X0342500Y0402100D02*
X0344900D01*
X0334752Y0394352D02*
X0342500Y0402100D01*
X0329164Y0394352D02*
X0334752D01*
X0341200Y0388400D02*
X0344900Y0392100D01*
X0341200Y0384554D02*
Y0388400D01*
X0340073Y0383427D02*
X0341200Y0384554D01*
X0336152Y0383427D02*
X0340073D01*
X0341600Y0397200D02*
X0344900D01*
X0336152Y0387364D02*
Y0391752D01*
X0341600Y0397200*
X0336152Y0375553D02*
X0339453D01*
X0343700Y0350600D02*
X0344900D01*
X0339300Y0346200D02*
X0343700Y0350600D01*
X0332700Y0346200D02*
X0339300D01*
X0343400Y0345600D02*
X0344800D01*
X0342000Y0344200D02*
X0343400Y0345600D01*
X0335300Y0344200D02*
X0342000D01*
X0343500Y0340700D02*
X0344900Y0342100D01*
X0329970Y0340700D02*
X0343500D01*
X0343400Y0335600D02*
X0344900Y0337100D01*
X0332949Y0335600D02*
X0343400D01*
X0292512Y0357724D02*
X0292688Y0357900D01*
X0292648Y0356348D02*
Y0357836D01*
X0291700Y0355400D02*
X0292648Y0356348D01*
X0288900Y0363700D02*
X0292606D01*
X0288800Y0363800D02*
X0288900Y0363700D01*
X0292512Y0357700D02*
Y0357724D01*
X0292688Y0357900D02*
X0293200D01*
X0285500Y0364300D02*
Y0366500D01*
X0288010Y0365710D02*
X0292648D01*
X0287150Y0364850D02*
X0288010Y0365710D01*
X0287150Y0363475D02*
Y0364850D01*
X0286300Y0362625D02*
X0287150Y0363475D01*
X0288800Y0363800D02*
X0288900D01*
X0286679Y0367679D02*
X0292648D01*
X0285500Y0366500D02*
X0286679Y0367679D01*
X0286300Y0362200D02*
Y0362625D01*
X0283100Y0355800D02*
Y0372000D01*
Y0355800D02*
X0288052Y0350848D01*
X0283100Y0372000D02*
X0285950Y0374850D01*
X0280300Y0379800D02*
X0282400Y0381900D01*
X0278800Y0379800D02*
X0280300D01*
X0278200Y0379200D02*
X0278800Y0379800D01*
X0278200Y0378200D02*
Y0379200D01*
X0272100Y0376000D02*
Y0384382D01*
X0288052Y0350848D02*
X0299636D01*
X0277900Y0374700D02*
X0281100D01*
X0271200Y0364300D02*
X0291900Y0343600D01*
X0297900*
X0270000Y0363000D02*
X0291400Y0341600D01*
X0268299Y0363000D02*
X0270000D01*
X0266559Y0364740D02*
X0268299Y0363000D01*
X0266559Y0364740D02*
Y0367500D01*
X0293100Y0337600D02*
X0300200D01*
X0287300Y0343400D02*
X0293100Y0337600D01*
X0270300Y0360400D02*
X0287300Y0343400D01*
X0314900Y0407300D02*
Y0410500D01*
X0312000Y0404400D02*
X0314900Y0407300D01*
X0307025Y0404400D02*
X0312000D01*
X0303750Y0401125D02*
X0307025Y0404400D01*
X0306300Y0401200D02*
X0312400D01*
X0305500Y0400400D02*
X0306300Y0401200D01*
X0312400D02*
X0319900Y0408700D01*
X0303750Y0394529D02*
Y0401125D01*
X0319900Y0408700D02*
Y0410500D01*
X0303573Y0394352D02*
X0303750Y0394529D01*
X0309900Y0409400D02*
Y0410500D01*
X0301605Y0401105D02*
X0309900Y0409400D01*
X0301605Y0394352D02*
Y0401105D01*
X0299636Y0402236D02*
X0300600Y0403200D01*
X0299636Y0394352D02*
Y0402236D01*
X0293200Y0400500D02*
X0300000Y0407300D01*
X0294900Y0406200D02*
Y0410400D01*
X0291100Y0402400D02*
X0294900Y0406200D01*
X0293200Y0387300D02*
Y0400500D01*
X0291100Y0390900D02*
Y0402400D01*
X0300000Y0407300D02*
Y0410600D01*
X0288497Y0388297D02*
X0291100Y0390900D01*
X0300600Y0403200D02*
X0304900Y0407500D01*
Y0410500*
X0288497Y0386704D02*
Y0388297D01*
Y0386704D02*
X0289801Y0385400D01*
X0292643*
X0292648Y0385395*
X0282400Y0381900D02*
Y0386500D01*
X0315384Y0394352D02*
Y0398384D01*
X0315500Y0398500*
X0313416Y0399016D02*
X0324900Y0410500D01*
X0313416Y0394352D02*
Y0399016D01*
X0317353Y0399653D02*
X0320700Y0403000D01*
X0317353Y0394352D02*
Y0399653D01*
X0320700Y0403000D02*
X0333400D01*
X0321325Y0401200D02*
X0337700D01*
X0319450Y0399325D02*
X0321325Y0401200D01*
X0319450Y0394481D02*
Y0399325D01*
X0337700Y0401200D02*
X0339900Y0403400D01*
X0333400Y0403000D02*
X0334900Y0404500D01*
Y0410500*
X0339900Y0403400D02*
Y0410500D01*
X0319321Y0394352D02*
X0319450Y0394481D01*
X0305542Y0394352D02*
Y0400400D01*
X0282375Y0377875D02*
X0282700Y0378200D01*
X0280679Y0377875D02*
X0282375D01*
X0316600Y0339200D02*
X0318921D01*
X0315384Y0340416D02*
X0316600Y0339200D01*
X0312300D02*
X0313416Y0340316D01*
X0309079Y0339200D02*
X0312300D01*
X0273100Y0368500D02*
X0275900D01*
X0311447Y0394352D02*
Y0398447D01*
X0311600Y0398600*
X0309500Y0394373D02*
Y0398600D01*
X0274000Y0376800D02*
X0274500Y0376300D01*
X0257200Y0356300D02*
Y0362000D01*
X0253600Y0352700D02*
X0257200Y0356300D01*
X0277800Y0365900D02*
X0278000Y0366100D01*
X0258259Y0363059D02*
X0260760D01*
X0257200Y0362000D02*
X0258259Y0363059D01*
X0272100Y0384382D02*
X0272159Y0384441D01*
X0272000D02*
X0272159D01*
X0265941Y0375000D02*
X0269600D01*
X0256941Y0373500D02*
X0268100D01*
X0252941Y0377500D02*
X0256941Y0373500D01*
X0278000Y0385300D02*
X0280331D01*
X0261878Y0379063D02*
Y0381151D01*
X0252941Y0377500D02*
X0256563Y0381122D01*
Y0381151*
X0267980Y0384563D02*
X0271878D01*
X0272000Y0384441*
X0272100Y0376000D02*
X0275300Y0372800D01*
X0276900*
X0269600Y0375000D02*
X0273800Y0370800D01*
X0268100Y0373500D02*
X0273100Y0368500D01*
X0273800Y0370800D02*
X0275800D01*
X0275900*
X0263441Y0377500D02*
X0265941Y0375000D01*
X0261878Y0379063D02*
X0263441Y0377500D01*
X0274500Y0376300D02*
X0277520D01*
X0278100*
X0280679D02*
X0281279D01*
X0336152Y0371616D02*
X0339284D01*
X0307400Y0394462D02*
X0307510Y0394352D01*
X0265800Y0360400D02*
X0270300D01*
X0263200Y0363000D02*
X0265800Y0360400D01*
X0260819Y0363000D02*
X0263200D01*
X0260760Y0363059D02*
X0260819Y0363000D01*
X0273900Y0376900D02*
X0273950Y0376850D01*
X0307400Y0394462D02*
Y0398599D01*
Y0398600*
D01*
X0281279Y0376300D02*
X0283800D01*
X0286600Y0379100*
Y0387900*
X0282700Y0391800D02*
X0286600Y0387900D01*
X0282700Y0391800D02*
Y0393453D01*
X0287024Y0397777*
Y0400087*
X0285511Y0401600D02*
X0287024Y0400087D01*
X0339284Y0371616D02*
X0341000Y0369900D01*
Y0362900D02*
Y0369900D01*
Y0362900D02*
X0341900Y0362000D01*
X0344900*
X0339453Y0375553D02*
X0341300Y0377400D01*
Y0380800*
X0342600Y0382100*
X0344900*
X0327195Y0350848D02*
X0327200Y0350843D01*
Y0347713D02*
Y0350843D01*
X0325227Y0347565D02*
Y0350848D01*
X0323258Y0347412D02*
Y0350848D01*
X0321290Y0347259D02*
Y0350848D01*
X0319321Y0346979D02*
Y0350848D01*
X0327200Y0347713D02*
X0328713Y0346200D01*
X0332700*
X0325227Y0347565D02*
X0328592Y0344200D01*
X0335300*
X0323258Y0347412D02*
X0329970Y0340700D01*
X0321290Y0347259D02*
X0332949Y0335600D01*
X0319321Y0346979D02*
X0329900Y0336400D01*
Y0328600D02*
Y0336400D01*
G54D25*
X0284900Y0328600D02*
Y0334300D01*
X0336152Y0369647D02*
X0336155Y0369650D01*
X0279500Y0364200D02*
Y0374500D01*
X0279300Y0364000D02*
X0279500Y0364200D01*
X0271200Y0364300D02*
Y0367200D01*
X0266700Y0371700D02*
X0271200Y0367200D01*
X0255000Y0371700D02*
X0266700D01*
X0252200Y0368900D02*
X0255000Y0371700D01*
X0252200Y0359300D02*
Y0368900D01*
X0250000Y0357100D02*
X0252200Y0359300D01*
X0250000Y0346600D02*
Y0357100D01*
X0246900Y0343500D02*
X0250000Y0346600D01*
X0271649Y0345400D02*
Y0352800D01*
X0278700Y0393100D02*
X0284700Y0387100D01*
Y0381100D02*
Y0387100D01*
X0282700Y0379100D02*
X0284700Y0381100D01*
X0282700Y0378200D02*
Y0379100D01*
X0325175Y0361800D02*
X0336100D01*
X0278300Y0393500D02*
Y0401300D01*
X0330500Y0359800D02*
X0337295D01*
X0249400Y0389841D02*
X0253254D01*
X0253413Y0390000*
X0268559Y0377500D02*
Y0380441D01*
X0260500Y0388500D02*
X0268559Y0380441D01*
X0311400Y0350600D02*
Y0355952D01*
X0309500Y0350600D02*
Y0355999D01*
X0253413Y0384563D02*
Y0387319D01*
Y0389878*
X0276400Y0393100D02*
X0278700D01*
X0278300Y0393500D02*
X0278700Y0393100D01*
X0328800Y0379500D02*
X0337300D01*
X0321600Y0370100D02*
X0328500Y0377000D01*
X0321600Y0361400D02*
Y0370100D01*
Y0361400D02*
X0323700Y0359300D01*
X0336152Y0373584D02*
X0340684D01*
X0321290Y0394352D02*
Y0398510D01*
X0323258Y0394352D02*
Y0398558D01*
X0323300Y0398600*
X0325227Y0398527D02*
X0325300Y0398600D01*
X0325227Y0394352D02*
Y0398527D01*
X0253413Y0389878D02*
Y0392437D01*
X0327195Y0398495D02*
X0327300Y0398600D01*
X0327195Y0394352D02*
Y0398495D01*
X0340684Y0373584D02*
X0344300Y0377200D01*
X0271609Y0336491D02*
Y0345360D01*
Y0336491D02*
X0273700Y0334400D01*
X0302000*
X0303200Y0335600*
Y0339000*
X0302600Y0339600D02*
X0303200Y0339000D01*
X0297400Y0339600D02*
X0302600D01*
G54D26*
X0281800Y0401247D02*
X0284006Y0399041D01*
X0281800Y0401247D02*
Y0404300D01*
X0281600Y0404500D02*
X0281800Y0404300D01*
X0273800Y0404500D02*
X0281600D01*
X0284006Y0399041D02*
X0284900D01*
X0312600Y0377700D02*
X0319490Y0384590D01*
X0272000Y0402700D02*
X0273800Y0404500D01*
X0272000Y0389559D02*
Y0402700D01*
X0262700Y0367900D02*
Y0369500D01*
X0300100Y0384700D02*
X0300800Y0385400D01*
X0258300Y0390700D02*
Y0395400D01*
X0259500Y0395587D02*
X0261878D01*
X0259500Y0395400D02*
Y0395587D01*
X0259319Y0387319D02*
X0260500Y0388500D01*
X0258059Y0377500D02*
X0259319Y0378760D01*
Y0387319*
X0249400Y0394959D02*
X0250028Y0395587D01*
X0259319*
X0262700Y0369500D02*
X0262900Y0369700D01*
X0262600Y0358000D02*
X0268181D01*
X0268240Y0357941*
X0260760D02*
Y0360500D01*
Y0357941D02*
X0262541D01*
X0262600Y0358000*
X0271681Y0389878D02*
X0272000Y0389559D01*
X0262200Y0389800D02*
X0267980D01*
Y0389878D02*
X0271681D01*
X0267980Y0387319D02*
Y0392437D01*
X0258300Y0395400D02*
X0259500D01*
X0312600Y0377700D02*
X0314000D01*
X0309700Y0361400D02*
Y0374800D01*
X0314000Y0377700D02*
X0324827Y0366873D01*
G54D27*
X0339900Y0357600D02*
X0345100D01*
X0334000D02*
X0339900D01*
X0333900Y0357500D02*
X0334000Y0357600D01*
X0333900Y0354200D02*
Y0357500D01*
X0332700Y0353000D02*
X0333900Y0354200D01*
X0329700Y0353000D02*
X0332700D01*
X0253400Y0347000D02*
X0258200D01*
X0261559Y0352059D02*
X0262700Y0353200D01*
X0259000Y0352059D02*
X0261559D01*
X0262700Y0353200D02*
X0266131D01*
X0259000Y0346941D02*
X0261641Y0344300D01*
X0266800*
G54D29*
X0234500Y0357500D02*
Y0357800D01*
X0239700Y0363000*
X0243600*
X0235000Y0371300D02*
X0235900Y0369900D01*
X0243500*
X0235000Y0371300D02*
Y0373100D01*
G54D34*
X0344900Y0402100D03*
Y0350600D03*
G54D35*
X0344900Y0397100D03*
Y0392100D03*
Y0387100D03*
Y0382100D03*
Y0377100D03*
Y0372100D03*
Y0367100D03*
Y0362100D03*
Y0357100D03*
Y0345600D03*
Y0340600D03*
Y0335600D03*
X0279900Y0328600D03*
X0284900D03*
X0289900D03*
X0294900D03*
X0299900D03*
X0304900D03*
X0309900D03*
X0314900D03*
X0319900D03*
X0324900D03*
X0329900D03*
X0334900D03*
X0339900D03*
X0284900Y0410500D03*
X0289900D03*
X0294900D03*
X0299900D03*
X0304900D03*
X0309900D03*
X0314900D03*
X0319900D03*
X0324900D03*
X0329900D03*
X0334900D03*
X0339900D03*
X0344900D03*
G54D36*
X0344900Y0328600D03*
X0279900Y0410500D03*
G54D37*
X0244500Y0351200D03*
X0247000Y0343600D03*
X0333200Y0349200D03*
X0317600Y0385600D03*
X0258300Y0391000D03*
G54D38*
X0277800Y0364061D03*
Y0384139D03*
G54D39*
X0234800Y0372371D03*
Y0358229D03*
G54D40*
X0303600Y0346300D03*
X0300200Y0337600D03*
X0301400Y0346100D03*
X0311400Y0344600D03*
X0294800Y0359800D03*
X0286300Y0362200D03*
X0291700Y0355400D03*
X0285400Y0364300D03*
X0288900Y0363800D03*
X0291300Y0361700D03*
X0275900Y0368600D03*
X0277200Y0372800D03*
X0273900Y0376800D03*
X0335700Y0365700D03*
X0286000Y0374900D03*
X0290200Y0379500D03*
X0315500Y0398500D03*
X0269300Y0398000D03*
X0286700Y0390900D03*
X0334100Y0363700D03*
X0304700Y0360200D03*
X0311600Y0398600D03*
X0275800Y0370800D03*
X0262900Y0369700D03*
X0262600Y0358000D03*
X0323300Y0398600D03*
X0321200D03*
X0325300D03*
X0292000Y0381400D03*
X0335300Y0344200D03*
X0332700Y0346200D03*
X0294000Y0383500D03*
X0307500Y0382900D03*
X0309500Y0398600D03*
X0327300D03*
X0307400D03*
X0305500Y0400400D03*
X0335700Y0369700D03*
X0338400Y0377500D03*
X0334200Y0367800D03*
G54D41*
X0317800Y0344800D03*
G54D42*
X0282100Y0396600D03*
X0271700Y0336400D03*
X0321100Y0357300D03*
X0276400Y0393100D03*
X0297400Y0339600D03*
X0262700Y0353200D03*
X0250700Y0386200D03*
X0253500Y0391300D03*
X0282100Y0386500D03*
G54D43*
X0266400Y0344300D03*
G54D44*
X0339500Y0390800D03*
G54D47*
X0278286Y0399041D03*
Y0401600D03*
X0284900Y0399041D03*
Y0401600D03*
G54D48*
X0314400Y0372600D03*
G54D49*
X0329164Y0350848D03*
G54D50*
X0327195Y0350848D03*
X0325227D03*
X0323258D03*
X0321290D03*
X0319321D03*
X0317353D03*
X0315384D03*
X0313416D03*
X0311447D03*
X0309479D03*
X0307510D03*
X0305542D03*
X0303573D03*
X0301605D03*
X0299636D03*
Y0394352D03*
X0301605D03*
X0303573D03*
X0305542D03*
X0307510D03*
X0309479D03*
X0311447D03*
X0313416D03*
X0315384D03*
X0317353D03*
X0319321D03*
X0321290D03*
X0323258D03*
X0325227D03*
X0327195D03*
X0329164D03*
G54D51*
X0292648Y0357836D03*
Y0359805D03*
Y0361773D03*
Y0363742D03*
Y0365710D03*
Y0367679D03*
Y0369647D03*
Y0371616D03*
Y0373584D03*
Y0375553D03*
Y0377521D03*
Y0379490D03*
Y0381458D03*
Y0383427D03*
Y0385395D03*
Y0387364D03*
X0336152D03*
Y0385395D03*
Y0383427D03*
Y0381458D03*
Y0379490D03*
Y0377521D03*
Y0375553D03*
Y0373584D03*
Y0371616D03*
Y0369647D03*
Y0367679D03*
Y0365710D03*
Y0363742D03*
Y0361773D03*
Y0359805D03*
Y0357836D03*
G54D52*
X0277520Y0377875D03*
Y0376300D03*
Y0374725D03*
X0281279D03*
Y0376300D03*
Y0377875D03*
G54D53*
X0243700Y0369100D03*
G54D54*
X0309479Y0339100D03*
X0319321D03*
G54D55*
X0271609Y0345360D03*
X0266491D03*
Y0352840D03*
X0271609D03*
G54D56*
X0256563Y0395587D03*
Y0381151D03*
X0259319D03*
X0261878D03*
X0264437D03*
X0259319Y0395587D03*
X0261878D03*
X0264437D03*
G54D57*
X0267980Y0392437D03*
Y0389878D03*
Y0387319D03*
Y0384563D03*
X0253413D03*
Y0387319D03*
Y0389878D03*
Y0392437D03*
G54D58*
X0260500Y0388500D03*
M02*