G04 (created by PCBNEW-RS274X (2010-03-14)-final) date mar 08 nov 2011 08:32:22 ART*
G01*
G70*
G90*
%MOIN*%
G04 Gerber Fmt 3.4, Leading zero omitted, Abs format*
%FSLAX34Y34*%
G04 APERTURE LIST*
%ADD10C,0.000100*%
%ADD11C,0.015000*%
G04 APERTURE END LIST*
G54D10*
G54D11*
X51900Y-31500D02*
X51900Y-18700D01*
X67500Y-31500D02*
X51900Y-31500D01*
X67500Y-18700D02*
X67500Y-31500D01*
X51900Y-18700D02*
X67500Y-18700D01*
M02*
