G04 DipTrace 2.4.0.2*
%INBoardOutline.gbr*%
%MOIN*%
%ADD11C,0.0055*%
%FSLAX44Y44*%
G04*
G70*
G90*
G75*
G01*
%LNBoardOutline*%
%LPD*%
X3943Y9693D2*
D11*
Y4693D1*
G03X4693Y3943I688J-62D01*
G01*
X32693D1*
G03X33443Y4693I63J687D01*
G01*
Y9693D1*
G03X32693Y10443I-687J63D01*
G01*
X4693D1*
G03X3943Y9693I-62J-688D01*
G01*
M02*
