%FSLAX24Y24*%
%MOIN*%
G70*
G01*
G75*
G04 Layer_Physical_Order=2*
G04 Layer_Color=16711680*
%ADD10R,0.0532X0.0256*%
%ADD11O,0.0866X0.0236*%
%ADD12R,0.0413X0.0551*%
%ADD13R,0.0512X0.0433*%
%ADD14R,0.0591X0.0217*%
%ADD15R,0.0217X0.0591*%
%ADD16R,0.0512X0.0787*%
%ADD17R,0.0630X0.0630*%
%ADD18C,0.0630*%
%ADD19R,0.0295X0.0295*%
%ADD20C,0.0295*%
%ADD21R,0.0472X0.0472*%
%ADD22R,0.0787X0.0591*%
%ADD23C,0.0200*%
%ADD24C,0.0080*%
%ADD25C,0.1378*%
%ADD26C,0.0315*%
%ADD27R,0.3150X0.3150*%
%ADD28C,0.0250*%
G36*
X9434Y7770D02*
X9359Y7679D01*
X9288Y7546D01*
X9244Y7401D01*
X9229Y7250D01*
X9244Y7099D01*
X9288Y6954D01*
X9359Y6821D01*
X9456Y6704D01*
X9573Y6608D01*
X9706Y6536D01*
X9851Y6492D01*
X10002Y6477D01*
X10153Y6492D01*
X10298Y6536D01*
X10431Y6608D01*
X10548Y6704D01*
X10644Y6821D01*
X10716Y6954D01*
X10760Y7099D01*
X10774Y7239D01*
X10823Y7244D01*
X10896Y6985D01*
X10977Y6578D01*
X11026Y6165D01*
X11042Y5756D01*
X11041Y5750D01*
X11042Y5744D01*
X11026Y5335D01*
X10977Y4922D01*
X10896Y4514D01*
X10783Y4115D01*
X10640Y3725D01*
X10466Y3347D01*
X10263Y2985D01*
X10032Y2639D01*
X9774Y2313D01*
X9492Y2008D01*
X9187Y1726D01*
X8861Y1468D01*
X8515Y1237D01*
X8153Y1034D01*
X7775Y860D01*
X7385Y717D01*
X6985Y604D01*
X6578Y523D01*
X6165Y474D01*
X5756Y458D01*
X5750Y459D01*
X5744Y458D01*
X5335Y474D01*
X4922Y523D01*
X4514Y604D01*
X4115Y717D01*
X3725Y860D01*
X3347Y1034D01*
X2985Y1237D01*
X2639Y1468D01*
X2313Y1726D01*
X2008Y2008D01*
X1726Y2313D01*
X1468Y2639D01*
X1237Y2985D01*
X1034Y3347D01*
X860Y3725D01*
X717Y4115D01*
X604Y4514D01*
X523Y4922D01*
X474Y5335D01*
X458Y5744D01*
X459Y5750D01*
X458Y5756D01*
X474Y6165D01*
X523Y6578D01*
X604Y6985D01*
X677Y7244D01*
X726Y7239D01*
X740Y7099D01*
X784Y6954D01*
X856Y6821D01*
X952Y6704D01*
X1069Y6608D01*
X1202Y6536D01*
X1347Y6492D01*
X1498Y6477D01*
X1649Y6492D01*
X1794Y6536D01*
X1927Y6608D01*
X2044Y6704D01*
X2141Y6821D01*
X2212Y6954D01*
X2256Y7099D01*
X2271Y7250D01*
X2256Y7401D01*
X2212Y7546D01*
X2141Y7679D01*
X2044Y7796D01*
X1962Y7864D01*
X1960Y7914D01*
X3587Y9541D01*
X7663D01*
X9434Y7770D01*
D02*
G37*
G36*
X6165Y11026D02*
X6578Y10977D01*
X6985Y10896D01*
X7385Y10783D01*
X7775Y10640D01*
X8153Y10466D01*
X8515Y10263D01*
X8861Y10032D01*
X9187Y9774D01*
X9492Y9492D01*
X9774Y9187D01*
X10032Y8861D01*
X10263Y8515D01*
X10466Y8153D01*
X10640Y7775D01*
X10648Y7753D01*
X10605Y7728D01*
X10548Y7796D01*
X10431Y7892D01*
X10298Y7964D01*
X10153Y8008D01*
X10002Y8023D01*
X9851Y8008D01*
X9803Y7993D01*
X7898Y9898D01*
X7830Y9943D01*
X7750Y9959D01*
X7750Y9959D01*
X3500D01*
X3420Y9943D01*
X3352Y9898D01*
X1475Y8020D01*
X1347Y8008D01*
X1202Y7964D01*
X1069Y7892D01*
X952Y7796D01*
X895Y7728D01*
X852Y7753D01*
X860Y7775D01*
X1034Y8153D01*
X1237Y8515D01*
X1468Y8861D01*
X1726Y9187D01*
X2008Y9492D01*
X2313Y9774D01*
X2639Y10032D01*
X2985Y10263D01*
X3347Y10466D01*
X3725Y10640D01*
X4115Y10783D01*
X4514Y10896D01*
X4922Y10977D01*
X5335Y11026D01*
X5744Y11042D01*
X5750Y11041D01*
X5756Y11042D01*
X6165Y11026D01*
D02*
G37*
%LPC*%
G36*
X9400Y4900D02*
X9263D01*
X9275Y4870D01*
X9316Y4816D01*
X9370Y4775D01*
X9400Y4763D01*
Y4900D01*
D02*
G37*
G36*
X8737D02*
X8600D01*
Y4763D01*
X8630Y4775D01*
X8684Y4816D01*
X8725Y4870D01*
X8737Y4900D01*
D02*
G37*
G36*
X9737D02*
X9600D01*
Y4763D01*
X9630Y4775D01*
X9684Y4816D01*
X9725Y4870D01*
X9737Y4900D01*
D02*
G37*
G36*
X3900Y5237D02*
X3870Y5225D01*
X3816Y5184D01*
X3775Y5130D01*
X3763Y5100D01*
X3900D01*
Y5237D01*
D02*
G37*
G36*
X4100D02*
Y5100D01*
X4237D01*
X4225Y5130D01*
X4184Y5184D01*
X4130Y5225D01*
X4100Y5237D01*
D02*
G37*
G36*
X4237Y4900D02*
X4100D01*
Y4763D01*
X4130Y4775D01*
X4184Y4816D01*
X4225Y4870D01*
X4237Y4900D01*
D02*
G37*
G36*
X3900D02*
X3763D01*
X3775Y4870D01*
X3816Y4816D01*
X3870Y4775D01*
X3900Y4763D01*
Y4900D01*
D02*
G37*
G36*
X4900D02*
X4763D01*
X4775Y4870D01*
X4816Y4816D01*
X4870Y4775D01*
X4900Y4763D01*
Y4900D01*
D02*
G37*
G36*
X8400D02*
X8263D01*
X8275Y4870D01*
X8316Y4816D01*
X8370Y4775D01*
X8400Y4763D01*
Y4900D01*
D02*
G37*
G36*
X5237D02*
X5100D01*
Y4763D01*
X5130Y4775D01*
X5184Y4816D01*
X5225Y4870D01*
X5237Y4900D01*
D02*
G37*
G36*
X5650Y7150D02*
X4075D01*
Y5575D01*
X5650D01*
Y7150D01*
D02*
G37*
G36*
X9600Y5237D02*
Y5100D01*
X9737D01*
X9725Y5130D01*
X9684Y5184D01*
X9630Y5225D01*
X9600Y5237D01*
D02*
G37*
G36*
X7425Y7150D02*
X5850D01*
Y5575D01*
X7425D01*
Y7150D01*
D02*
G37*
G36*
Y8925D02*
X5850D01*
Y7350D01*
X7425D01*
Y8925D01*
D02*
G37*
G36*
X5650D02*
X4075D01*
Y7350D01*
X5650D01*
Y8925D01*
D02*
G37*
G36*
X5100Y5237D02*
Y5100D01*
X5237D01*
X5225Y5130D01*
X5184Y5184D01*
X5130Y5225D01*
X5100Y5237D01*
D02*
G37*
G36*
X4900D02*
X4870Y5225D01*
X4816Y5184D01*
X4775Y5130D01*
X4763Y5100D01*
X4900D01*
Y5237D01*
D02*
G37*
G36*
X8400D02*
X8370Y5225D01*
X8316Y5184D01*
X8275Y5130D01*
X8263Y5100D01*
X8400D01*
Y5237D01*
D02*
G37*
G36*
X9400D02*
X9370Y5225D01*
X9316Y5184D01*
X9275Y5130D01*
X9263Y5100D01*
X9400D01*
Y5237D01*
D02*
G37*
G36*
X8600D02*
Y5100D01*
X8737D01*
X8725Y5130D01*
X8684Y5184D01*
X8630Y5225D01*
X8600Y5237D01*
D02*
G37*
%LPD*%
D25*
X10002Y7250D02*
D03*
X1498D02*
D03*
D26*
X4000Y5000D02*
D03*
X5000D02*
D03*
X8500D02*
D03*
X9500D02*
D03*
D27*
X5750Y7250D02*
D03*
D28*
X1498D02*
X1500Y7252D01*
Y7750D01*
X3500Y9750D01*
X7750D01*
X10002Y7498D01*
Y7250D02*
Y7498D01*
M02*
