G04 (created by PCBNEW (2013-07-07 BZR 4022)-stable) date 1/31/2015 8:39:30 PM*
%MOIN*%
G04 Gerber Fmt 3.4, Leading zero omitted, Abs format*
%FSLAX34Y34*%
G01*
G70*
G90*
G04 APERTURE LIST*
%ADD10C,0.00590551*%
%ADD11R,0.06X0.06*%
%ADD12C,0.06*%
G04 APERTURE END LIST*
G54D10*
G54D11*
X40838Y-21653D03*
G54D12*
X41838Y-21653D03*
M02*
