G04 Layer_Color=16711935*
%FSLAX45Y45*%
%MOMM*%
%TF.FileFunction,Soldermask,Bot*%
%TF.Part,Single*%
G01*
G75*
%TA.AperFunction,ViaPad*%
%ADD47C,1.01600*%
%TA.AperFunction,SMDPad,CuDef*%
%ADD65R,1.00160X0.80160*%
%TA.AperFunction,ComponentPad*%
%ADD81C,2.80160*%
%ADD82C,1.82560*%
%ADD83C,1.62560*%
%ADD84C,2.90160*%
%ADD85C,1.70160*%
G04:AMPARAMS|DCode=86|XSize=1.6764mm|YSize=1.6764mm|CornerRadius=0mm|HoleSize=0mm|Usage=FLASHONLY|Rotation=90.000|XOffset=0mm|YOffset=0mm|HoleType=Round|Shape=Octagon|*
%AMOCTAGOND86*
4,1,8,0.41910,0.83820,-0.41910,0.83820,-0.83820,0.41910,-0.83820,-0.41910,-0.41910,-0.83820,0.41910,-0.83820,0.83820,-0.41910,0.83820,0.41910,0.41910,0.83820,0.0*
%
%ADD86OCTAGOND86*%

%ADD87C,1.80160*%
%TA.AperFunction,ViaPad*%
%ADD88C,1.37160*%
%ADD89C,0.73660*%
%ADD90C,1.00160*%
%ADD91C,1.11760*%
%ADD92C,1.87960*%
D47*
X19006821Y22303740D02*
D03*
X19128740Y22362160D02*
D03*
X18907761Y22387560D02*
D03*
X19497040Y22341840D02*
D03*
X18831560Y22481540D02*
D03*
X19189700Y22466299D02*
D03*
X18729961Y22400259D02*
D03*
X19027139Y22435820D02*
D03*
X18813780Y22291040D02*
D03*
X19265900Y22352000D02*
D03*
D65*
X23685500Y17722780D02*
D03*
Y17872780D02*
D03*
X24394160Y18002180D02*
D03*
Y18152180D02*
D03*
X24124921Y17933600D02*
D03*
Y18083600D02*
D03*
X23939500Y17857401D02*
D03*
Y18007401D02*
D03*
D81*
X29972000Y23428419D02*
D03*
Y21904420D02*
D03*
D82*
Y23047420D02*
D03*
Y22666420D02*
D03*
Y22285420D02*
D03*
X24892000Y22664420D02*
D03*
Y23394420D02*
D03*
Y21934419D02*
D03*
D83*
X31597601Y24185880D02*
D03*
Y23931880D02*
D03*
Y23677879D02*
D03*
Y23423880D02*
D03*
Y23169881D02*
D03*
Y22915880D02*
D03*
Y22661880D02*
D03*
Y22407880D02*
D03*
Y22153880D02*
D03*
Y21899879D02*
D03*
Y21645880D02*
D03*
Y21391879D02*
D03*
Y21137880D02*
D03*
Y20883881D02*
D03*
Y20629880D02*
D03*
Y20375880D02*
D03*
Y20121880D02*
D03*
Y19867880D02*
D03*
Y19613879D02*
D03*
Y19359880D02*
D03*
Y19105881D02*
D03*
Y18851880D02*
D03*
Y18597881D02*
D03*
Y18343880D02*
D03*
Y18089880D02*
D03*
Y17835880D02*
D03*
Y17581880D02*
D03*
Y17327879D02*
D03*
Y17073880D02*
D03*
Y16819881D02*
D03*
Y16565880D02*
D03*
Y16311880D02*
D03*
X31089600Y24185880D02*
D03*
Y23931880D02*
D03*
Y23677879D02*
D03*
Y23423880D02*
D03*
Y23169881D02*
D03*
Y22915880D02*
D03*
Y22661880D02*
D03*
Y22407880D02*
D03*
Y22153880D02*
D03*
Y21899879D02*
D03*
Y21645880D02*
D03*
Y21391879D02*
D03*
Y21137880D02*
D03*
Y20883881D02*
D03*
Y20629880D02*
D03*
Y20375880D02*
D03*
Y20121880D02*
D03*
Y19867880D02*
D03*
Y19613879D02*
D03*
Y19359880D02*
D03*
Y19105881D02*
D03*
Y18851880D02*
D03*
Y18597881D02*
D03*
Y18343880D02*
D03*
Y18089880D02*
D03*
Y17835880D02*
D03*
Y17581880D02*
D03*
Y17327879D02*
D03*
Y17073880D02*
D03*
Y16819881D02*
D03*
Y16565880D02*
D03*
Y16311880D02*
D03*
X10815280Y18032520D02*
D03*
Y18482520D02*
D03*
D84*
X31851599Y24693880D02*
D03*
Y15803880D02*
D03*
D85*
X10454640Y22534880D02*
D03*
Y22280881D02*
D03*
Y22915880D02*
D03*
Y23169881D02*
D03*
Y21010880D02*
D03*
Y21264880D02*
D03*
Y16857980D02*
D03*
Y16603979D02*
D03*
Y17492979D02*
D03*
Y17238980D02*
D03*
Y23804880D02*
D03*
Y23550880D02*
D03*
Y21899879D02*
D03*
Y21645880D02*
D03*
D86*
X10553701Y19055080D02*
D03*
X10299701D02*
D03*
X10553701Y19309081D02*
D03*
X10299701D02*
D03*
X10553701Y19563080D02*
D03*
X10299701D02*
D03*
Y19817081D02*
D03*
X10553701D02*
D03*
Y20071080D02*
D03*
X10299701D02*
D03*
D87*
X11064280Y18608020D02*
D03*
Y17907021D02*
D03*
D88*
X10515600Y24681180D02*
D03*
Y15791180D02*
D03*
X21066760Y24244299D02*
D03*
X11221720Y18917920D02*
D03*
X11846580Y18315961D02*
D03*
D89*
X14650720Y21676360D02*
D03*
X26492200Y17876520D02*
D03*
X26603961Y17134840D02*
D03*
X24551640Y17998441D02*
D03*
X24249380Y17924780D02*
D03*
X23809959Y17858740D02*
D03*
X23576280Y17701260D02*
D03*
X26708099Y16720821D02*
D03*
X26245358Y16104459D02*
D03*
X26416000Y18775681D02*
D03*
X26537921Y18831560D02*
D03*
X27152600Y17599660D02*
D03*
X26258521Y17437100D02*
D03*
X26317117Y16456900D02*
D03*
X26418539Y19303406D02*
D03*
X26397534Y20351164D02*
D03*
X26385519Y19766280D02*
D03*
X27829184Y20198741D02*
D03*
X26624280Y18674080D02*
D03*
X27162076Y18989725D02*
D03*
X27495499Y18793460D02*
D03*
X28029510Y18912939D02*
D03*
X28798520Y20177760D02*
D03*
X28470859Y20167599D02*
D03*
X26921460Y18778220D02*
D03*
X26603961Y18122900D02*
D03*
X27432001Y17645380D02*
D03*
X26659839Y17886681D02*
D03*
X26624280Y17015460D02*
D03*
X26644601Y16165154D02*
D03*
X27579321Y16753841D02*
D03*
X27619958Y19250661D02*
D03*
X27848560Y19926300D02*
D03*
X26984961Y20767039D02*
D03*
X27023059Y20642580D02*
D03*
X27005280Y20507961D02*
D03*
X27829922Y20902121D02*
D03*
X14172032Y22851212D02*
D03*
X14170660Y22771100D02*
D03*
X16578580Y21506180D02*
D03*
X13472160Y21948140D02*
D03*
X13487399Y22029420D02*
D03*
X13075920Y21869400D02*
D03*
X15092680Y21249640D02*
D03*
X14988541Y21275040D02*
D03*
X26337259Y17312640D02*
D03*
X26504901Y18267680D02*
D03*
X26903680Y17632680D02*
D03*
X26962100Y17711420D02*
D03*
X27170380Y17165320D02*
D03*
X27185620Y17086580D02*
D03*
X27180539Y16289020D02*
D03*
Y16398241D02*
D03*
X27129739Y17942560D02*
D03*
X26588721Y17774921D02*
D03*
X26591260Y17457420D02*
D03*
X27086560Y16819881D02*
D03*
X26939240Y16802100D02*
D03*
X27927301Y18044160D02*
D03*
X28455621Y17305020D02*
D03*
X27767279Y18983960D02*
D03*
X27625040Y16449040D02*
D03*
X27640280Y18112740D02*
D03*
X28059381Y17528540D02*
D03*
X27515820Y16507460D02*
D03*
X27571701Y19024600D02*
D03*
X27609799Y18887440D02*
D03*
X29090619Y17952721D02*
D03*
X28994101Y18106149D02*
D03*
X28709619Y18216879D02*
D03*
X29672281Y17724120D02*
D03*
X29207458D02*
D03*
X27556461Y17650459D02*
D03*
X27518359Y19090640D02*
D03*
X28719781Y18930620D02*
D03*
X29293820Y19240500D02*
D03*
X28996640Y19105881D02*
D03*
X30307281Y17416780D02*
D03*
X29712921Y17371060D02*
D03*
X29850079Y17746980D02*
D03*
X28064459Y17378680D02*
D03*
X27482800Y17396460D02*
D03*
X28895041Y17744440D02*
D03*
X28544519Y17094200D02*
D03*
X28595319Y16883380D02*
D03*
X28948380Y17371060D02*
D03*
X29428439Y17569180D02*
D03*
X28290521Y20632420D02*
D03*
X27005280Y19763741D02*
D03*
X27800299Y15951199D02*
D03*
X26499820Y17195799D02*
D03*
X26555701Y16352521D02*
D03*
X26974799Y19931380D02*
D03*
X26893521Y17061180D02*
D03*
X26649680Y18948399D02*
D03*
X26601419Y18884900D02*
D03*
X27233881Y20109180D02*
D03*
X29489401Y19486880D02*
D03*
X28981400Y19608800D02*
D03*
X26659839Y20144740D02*
D03*
X27376120Y20238721D02*
D03*
X27525980Y20502879D02*
D03*
X27533600Y20408900D02*
D03*
X28625800Y19006821D02*
D03*
X27142441Y18478500D02*
D03*
X27063699Y17617439D02*
D03*
X28369260Y20403819D02*
D03*
X28059381Y18745200D02*
D03*
X27188159Y18399760D02*
D03*
X27188574Y18272760D02*
D03*
X27023059Y18285460D02*
D03*
X26923999Y18971260D02*
D03*
X27553922Y19316701D02*
D03*
X27020520Y19232880D02*
D03*
X27513281Y19568159D02*
D03*
X28320999Y18544540D02*
D03*
X28303220Y18686780D02*
D03*
X28389581Y19006821D02*
D03*
Y19085561D02*
D03*
X28676599Y17955260D02*
D03*
X26642059Y18475960D02*
D03*
X26878281Y18470880D02*
D03*
X27515820Y18242281D02*
D03*
X28387039Y18394679D02*
D03*
X29486859Y19204939D02*
D03*
X26664920Y19103340D02*
D03*
X26626819Y20634959D02*
D03*
X26553159Y20767039D02*
D03*
X26484579Y19634200D02*
D03*
X26311859Y19903439D02*
D03*
X26662381Y18046700D02*
D03*
X26504901Y18117821D02*
D03*
X27132281Y19504660D02*
D03*
X28559760Y20403819D02*
D03*
X27642819Y20243800D02*
D03*
X27561539Y19441161D02*
D03*
X28696921Y19270979D02*
D03*
X27889200Y19397980D02*
D03*
X28976321Y19400520D02*
D03*
X29474161Y18867120D02*
D03*
X29202380Y18209261D02*
D03*
X16551947Y21391879D02*
D03*
X26240741Y18204179D02*
D03*
X26139139Y20022820D02*
D03*
X26344879Y20040601D02*
D03*
X14705000Y21739861D02*
D03*
X14755013Y21810980D02*
D03*
X14805000Y21887180D02*
D03*
X12712700Y22567900D02*
D03*
X12481560Y22679660D02*
D03*
X12428220Y22611079D02*
D03*
X12151360Y22743159D02*
D03*
X25979120Y18100040D02*
D03*
X26205179Y17848579D02*
D03*
D90*
X19575780Y21460460D02*
D03*
X20068539Y21135339D02*
D03*
X19177620Y20908659D02*
D03*
X30203140Y21696680D02*
D03*
X29715460Y21706841D02*
D03*
X29753561Y21869400D02*
D03*
X30167581Y21859241D02*
D03*
X29855161Y21650960D02*
D03*
X30060901Y21638260D02*
D03*
X30098999Y21752560D02*
D03*
X29827219Y21757640D02*
D03*
X29961841Y21704300D02*
D03*
X30203140Y23639780D02*
D03*
X29961841Y23741380D02*
D03*
X29728159Y23660100D02*
D03*
X30091379Y23665179D02*
D03*
X29850079Y23672800D02*
D03*
X29799280Y23550880D02*
D03*
X30137100D02*
D03*
X29964380Y23632159D02*
D03*
X24782780Y21783040D02*
D03*
X24792940Y22092920D02*
D03*
X15156180Y20914360D02*
D03*
X15283180Y20909280D02*
D03*
X24650700Y23276559D02*
D03*
X24894540Y23550880D02*
D03*
X19234779Y21294720D02*
D03*
X19293840Y21178520D02*
D03*
X12039949Y19708209D02*
D03*
X11653171D02*
D03*
X16200121Y19202400D02*
D03*
X16804640Y19806920D02*
D03*
X17658080Y20505420D02*
D03*
X18603600Y20988660D02*
D03*
X11366500Y17434560D02*
D03*
Y16878300D02*
D03*
X16543021Y18750281D02*
D03*
X16657320Y18587720D02*
D03*
X17045940Y19253200D02*
D03*
X17178020Y19108420D02*
D03*
X18315939Y20380960D02*
D03*
X18409920Y20292059D02*
D03*
X20210780Y20883881D02*
D03*
X20990559Y20888960D02*
D03*
X11120120Y22890480D02*
D03*
X19337019Y20142200D02*
D03*
X19357339Y20812759D02*
D03*
X20053300Y20393660D02*
D03*
D91*
X27355801Y16715739D02*
D03*
X27213559Y17472659D02*
D03*
X27353259Y18394679D02*
D03*
X27221179Y19174460D02*
D03*
X27538681Y17820641D02*
D03*
X27782520Y18336259D02*
D03*
X27401520Y19237959D02*
D03*
X27559000Y20180299D02*
D03*
X27510739Y20017740D02*
D03*
X27208481Y20927060D02*
D03*
D92*
X25059641Y20993100D02*
D03*
X25062180Y20383501D02*
D03*
X24759920Y18143221D02*
D03*
%TF.MD5,ad7190ed0ba72964547ca20c47abc702*%
M02*
