G04 DipTrace 2.3.0.3*
%INTopPaste.gbr*%
%MOIN*%
%ADD30R,0.0826X0.0668*%
%ADD32R,0.0648X0.0668*%
%ADD34R,0.0077X0.0471*%
%ADD38R,0.0077X0.0629*%
%ADD40R,0.0432X0.0511*%
%ADD42R,0.0511X0.0432*%
%FSLAX44Y44*%
G04*
G70*
G90*
G75*
G01*
%LNTopPaste*%
%LPD*%
D42*
X8630Y6625D3*
Y5877D3*
X9103Y9115D3*
Y8367D3*
X6843Y9135D3*
Y8387D3*
D40*
X5360Y8428D3*
X4612D3*
D42*
X8353Y9125D3*
Y8377D3*
X7610Y9135D3*
Y8387D3*
D40*
X6745Y7690D3*
X5997D3*
X4600D3*
X5348D3*
D38*
X7985Y7315D3*
X7729D3*
X7473D3*
X7217D3*
Y5032D3*
X7473D3*
X7729D3*
X7985D3*
D34*
X7470Y9763D3*
X7216D3*
X7978D3*
X6957D3*
X7724D3*
D32*
X7911Y10884D3*
D30*
X8944Y10885D3*
X5990Y10884D3*
D32*
X7025D3*
M02*
